#class tools::wcsv::ntuple
#title time
#separator 44
#vector_separator 59
#column double eventID
#column double t(ns)
#column double copynumber
#column double energy(eV)
#column double x(mm)
#column double y(mm)
#column double z(mm)
11945,78.1656,0,2.99457,4169.49,-6235.67,-14220.1
361538,187.71,1,2.49999,-632.354,-1543.88,-27190.6
628121,17.439,2,2.45654,305.416,-1967.97,-25663.3
855229,174.342,2,3.04615,6022.61,-15490.4,3700.42
932123,0.92854,2,2.53486,141.979,-223.958,-28822.2
0,0.994761,2,2.82511,0,0,0
1.00328e+06,134.14,1,2.81757,-986.719,-24365.5,-14717
1.01586e+06,149.758,1,2.7005,-2295.18,13019.5,-132.839
1.33798e+06,104.158,2,2.39287,4609.2,20382.4,-22068
1.4402e+06,97.0534,1,2.40276,14424.8,-3928.84,-14783.2
1.48816e+06,13.7537,1,2.59811,-1053.05,330.298,-26105
1.61462e+06,25.8328,2,3.03794,-1470.48,-960.173,-23683.1
1.74993e+06,94.9447,1,2.63729,359.643,-18924.6,-22417.1
1.78435e+06,10.2189,0,2.39277,-1147.87,-311.19,-27053.9
3.27636e+06,12.3402,0,2.80652,-455.125,-1595.13,-26814.9
3.29777e+06,20.2275,1,2.79889,-990.67,4248.99,-28651.4
3.43692e+06,200.499,2,2.88442,14736,-26554.9,78.3721
3.74906e+06,55.6656,1,2.4966,-781.357,3419.53,-20793.2
4.25402e+06,84.74,2,2.90087,-12878.4,-10832.7,-22805.6
4.8888e+06,162.391,1,2.58768,2130.94,12656.6,2970.99
4.89175e+06,229.017,1,2.89775,-28679,29993,-22253.6
4.90077e+06,1.53288,2,2.76624,164.148,-200.391,-28581.5
5.00862e+06,34.0716,1,2.90841,2399.82,6094.54,-25847.3
5.03532e+06,20.3105,2,2.43668,2631.6,-2177.6,-26162
5.20652e+06,10.3265,0,2.55348,1637.3,-1251.76,-27925.8
5.30676e+06,44.3352,0,2.4536,8156.46,-3057.8,-25177.7
5.73399e+06,0.416083,2,2.34255,50.1186,-124.888,-28839.3
5.97068e+06,11.0076,0,2.46909,-1509.09,-391.291,-27144.9
6.2449e+06,8.48049,0,2.46624,-1581.99,326.661,-28223.9
6.76105e+06,27.186,2,2.79149,-2516.41,-424.067,-23693.9
6.76962e+06,35.6557,2,2.96981,-4624.92,-5904.69,-27892.3
6.81623e+06,6.33616,2,2.6988,341.61,-476.012,-27593
6.82005e+06,83.9992,2,3.00201,-15882.5,5727.11,-23802.2
6.97365e+06,123.514,2,2.81503,14108.7,-11768.5,-26074.2
7.0041e+06,9.94018,1,2.40906,-920.307,-646.526,-27059.6
7.20113e+06,77.6571,0,2.53145,-6980.79,5335.17,-14977.6
7.23875e+06,403.453,1,2.87948,-25939.6,12361.8,17815.8
7.74324e+06,1.87132,1,2.48049,150.519,433.444,-28783.5
0,1.81825,1,3.0127,0,0,0
7.78618e+06,76.082,2,2.47357,7402.47,-11091.1,-19769.2
8.27368e+06,43.8215,2,2.37417,-6867.17,-4335.1,-24169.9
8.72896e+06,79.2036,0,2.43353,-6763.51,4935.51,-14337.1
8.84166e+06,91.6168,0,2.82151,1506.06,4772.12,-28237.7
9.12099e+06,25.4273,1,2.67286,-5423.58,17.9068,-28336.7
9.26841e+06,29.1259,0,2.93167,-1703.65,-4608.57,-25194.5
9.40045e+06,6.78534,2,2.71339,-411.425,-1466.34,-28729.4
9.79179e+06,120.667,0,2.82651,16286.2,12074.8,-13488.6
1.0222e+07,98.6642,0,2.68072,9348.76,-7889.8,-11958.6
1.04228e+07,5.24853,1,3.0445,-901.438,80.9212,-28130
1.06327e+07,11.9381,0,2.47331,950.012,-159.107,-26446.3
1.0902e+07,62.5493,0,3.02562,-466.248,7481.81,-18060.2
1.10478e+07,109.765,1,2.69862,-7487.74,-5032.44,-7530.92
1.16216e+07,74.8315,2,2.94109,-3427.38,-7823.68,-15595
1.17937e+07,75.4806,1,2.46874,-7689.6,-13916.3,-29785.6
1.24271e+07,49.7136,1,2.91436,-329.008,-1366.77,-26384.5
1.24449e+07,44.2563,1,2.42902,-2556.39,2979.5,-20292.5
1.24735e+07,33.7024,2,2.42494,-5673.1,-1728.65,-24776.4
1.26051e+07,41.418,1,2.56744,5722.89,-1218.91,-25073.8
1.26076e+07,91.8901,0,2.55672,14702.9,7722.11,-18606.8
1.26106e+07,6.70942,0,2.45902,1159.82,-988.075,-28845.5
1.27833e+07,36.2924,1,2.97694,6154.73,3048.44,-25482.8
1.29756e+07,106.492,2,2.66198,-19687.8,7804.13,-21304.3
1.30259e+07,113.509,1,2.3733,-13868.3,19423,-25368.7
1.33974e+07,209.703,2,2.89142,-25340.5,20893.3,-5606.79
1.3576e+07,66.4655,2,2.46925,-8559.71,9395.35,-22809.6
1.37315e+07,45.0247,1,2.61883,-503.577,9541.88,-29837.4
1.37841e+07,16.5905,0,3.05819,2505.87,136.622,-26332.8
1.3848e+07,167.701,0,2.84468,14107,6977.56,2693.22
1.4241e+07,142.914,0,2.91079,24381,9564.07,-14015.2
1.45971e+07,48.165,1,2.58434,-4451.69,-4541.57,-20883.9
1.46582e+07,63.2754,2,3.04944,3223.19,-8777.89,-19649.7
1.51688e+07,96.9856,0,2.62839,4811.34,12946,-13678.1
1.52762e+07,36.6771,1,2.54059,1256.88,2479.21,-21576.3
1.53106e+07,3.68485,0,2.9137,-447.763,598.921,-28762
1.55322e+07,20.7061,2,2.8241,-3032.17,-447.3,-25652.2
0,20.8414,2,2.98579,0,0,0
1.59809e+07,70.2169,2,2.57352,6093.03,9306.35,-19077.8
1.60262e+07,22.7377,2,2.84259,-2035.19,-3729.81,-26436.3
1.62255e+07,141.902,2,2.69137,-17155,-12366.6,-7593.16
1.64242e+07,137.126,0,2.86127,9110.59,-5402.4,-14070.3
1.64712e+07,6.44974,1,3.04098,551.445,782.843,-27859.8
0,6.57386,2,2.39561,0,0,0
1.65626e+07,46.9567,2,2.82386,-5216.34,863.139,-20469.6
1.66337e+07,13.9318,0,2.83876,-2466.21,-1336.96,-28235.4
1.67231e+07,224.221,0,3.01957,15671.6,-29548.9,4201.33
1.84657e+07,66.3734,2,2.79359,-8858.49,353.615,-17993
1.86199e+07,33.0158,1,2.36986,-6950.79,1233.25,-28420.8
1.8749e+07,167.615,2,3.03391,17188.2,-29979,-22363.7
1.9072e+07,93.9613,2,2.73521,4650.2,14269.5,-15990.6
1.92166e+07,96.0552,2,2.8832,13232.5,8339.51,-16149.7
1.92546e+07,158.471,0,2.42992,14181,-7841.8,536.466
1.92923e+07,34.4184,0,3.15574,-18.1136,29.5402,-28787
1.97471e+07,18.7833,0,2.84267,-2146.29,3229.45,-28144.5
1.97992e+07,52.3512,1,2.5311,-10346.2,4135.43,-28184.1
1.9818e+07,196.556,1,2.98519,-11651.2,19587.1,5553.89
2.05391e+07,64.1669,0,2.7073,-11969.7,-3189.99,-23535.7
2.09186e+07,22.6876,0,2.37888,1902.43,2754.97,-25309
2.09664e+07,95.3615,0,2.76919,11724.5,7777.36,-14441.2
2.10215e+07,33.0516,1,3.03294,-946.343,-4254.16,-23485.4
2.12026e+07,145.245,1,2.77291,841.657,-3740.4,1426.71
2.12894e+07,27.6835,0,2.85514,2698.53,4122.13,-25649.7
2.13056e+07,132.727,1,2.8832,-15699.5,12970.8,-9693.98
2.13339e+07,40.1909,1,2.6993,-7354.63,996.001,-24676.7
2.16106e+07,83.4443,1,2.73378,-9692.82,-14514.9,-26780.7
2.20182e+07,8.27893,2,2.87984,-494.711,-1619.74,-28125.1
2.22006e+07,9.46078,0,2.68393,1392.58,1363.68,-28091.1
2.2225e+07,56.406,1,2.53081,-10905.6,-4800.98,-29656.5
2.28548e+07,62.2665,0,2.8745,10324.7,5905.7,-23254.5
2.31045e+07,79.6696,2,2.37466,-9052.98,-6867.53,-16301.4
2.3389e+07,64.1192,0,2.77431,10406.6,8633.29,-27416.4
2.41809e+07,10.7977,1,2.65752,-473.317,2337.55,-28635.2
2.43484e+07,8.92675,1,3.0426,331.967,1910.86,-29166
2.48988e+07,151.198,0,2.97662,13243.7,18016.8,-10096.5
2.50564e+07,12.589,2,2.55622,-745.543,466.909,-26295.8
2.51184e+07,43.7204,2,3.04516,4612.3,4118.69,-22122.2
2.52331e+07,56.6175,1,2.66269,-9209.49,-1095.32,-21233.3
2.53458e+07,96.5961,2,2.41811,-14993.3,5865.08,-16236.9
2.54567e+07,67.6738,0,2.36369,12510.7,1799.24,-21908.4
2.60197e+07,59.6829,2,2.77072,201.141,-12638.6,-28776.4
2.61008e+07,74.3897,2,2.74994,-10705.9,7.29349,-17331
2.70059e+07,64.4504,2,2.88871,-9551.83,5897.69,-21257
2.7155e+07,86.772,2,2.70123,-16410.8,-4482.01,-21901.7
2.72448e+07,12.6486,1,2.71997,1382.32,2090.48,-29871.7
2.73012e+07,128.194,2,2.879,22218.1,-13443,-21583.8
2.76726e+07,89.321,1,2.95656,-15645.9,4063.87,-19212
2.77316e+07,34.2195,0,3.04192,741.547,1257.9,-21800.4
2.81244e+07,34.9332,2,2.72255,3288.2,-6638.67,-28203.5
2.8578e+07,245.118,2,2.50892,-26286.6,-11072.4,14452.2
2.86067e+07,257.957,1,2.84304,25689.5,-16553.7,15845
2.88953e+07,13.0346,2,2.90115,1496.02,609.363,-26632.8
2.90167e+07,141.839,1,2.38336,-10325.8,11275.1,-2962.99
2.91746e+07,29.2839,1,2.97062,5619.83,2466.85,-29118.8
2.91887e+07,183.05,2,2.5885,-26707.9,-7494.2,-9798.14
2.94494e+07,24.2154,1,2.64353,-2570.22,4312.74,-27428.6
2.95417e+07,52.7225,0,2.91202,731.983,8688.5,-22010.1
2.96062e+07,98.4841,1,2.72528,-7606.4,6339.64,-10548.5
2.97921e+07,50.5359,2,2.76012,-9819.79,-278.176,-24604.6
2.97963e+07,90.7472,1,2.78691,-798.806,18923.5,-25761.5
2.9901e+07,136.214,2,2.55694,-13533.1,2228.23,-3502.91
3.00785e+07,144.14,0,3.05462,14901.6,12650.2,-26791.4
3.0365e+07,71.3298,2,2.54375,-2556.1,14451.4,-25529.6
3.05048e+07,248.247,0,2.80325,11748.9,26720.8,12915.4
3.08493e+07,33.3639,2,2.75983,5954.49,1401.14,-25428.1
3.09314e+07,129.04,2,3.0015,-18990.2,-15408,-17074
3.1645e+07,27.4807,0,2.49114,-5464.92,1244.99,-27514.2
3.1959e+07,77.9614,0,2.89703,14366.2,-6954.31,-24821.3
3.20397e+07,234.652,1,2.39518,-16043.5,28555.2,8533.19
3.24222e+07,14.8308,1,2.70767,201.804,2086.82,-26432.5
3.27884e+07,21.8147,1,2.71582,1813.66,3268.5,-26063.5
0,22.0334,1,2.96748,0,0,0
3.27958e+07,25.744,2,2.54893,-5403.31,643.251,-28020.5
3.27967e+07,83.3582,1,2.48218,5426.41,-5003.17,-12852.1
3.29279e+07,70.3755,2,3.00254,-8771.96,-10083.4,-22367
3.36691e+07,144.35,1,2.81729,-28922.2,-9188.81,-29980.6
3.36768e+07,74.4389,0,2.94244,9039.41,3056.31,-16385.6
3.38582e+07,92.5586,2,3.00993,-5223.11,-9086.52,-12468.3
3.39967e+07,2.88105,2,2.80626,6.4437,-407.079,-28318.1
3.4134e+07,23.7607,0,2.79576,3497.61,-3102.58,-26893.2
3.43677e+07,35.6368,1,2.48228,-4893.72,-39.3647,-23042.4
3.45668e+07,113.357,0,2.79496,19050,12592.4,-21702.2
3.46647e+07,135.105,1,2.71976,-17695.6,2216.76,-6664.07
3.49168e+07,114.718,0,2.50279,-820.549,-22264.2,-19337.6
3.50064e+07,5.07463,0,2.67889,59.1317,-922.521,-28230
3.50569e+07,54.9368,1,2.5909,-2152.7,11495.1,-29112.8
3.50908e+07,41.356,2,2.60073,-8358.63,-2734.84,-29080.4
3.51317e+07,104.345,2,2.53402,-3594.63,-13568.7,-11760.2
3.51587e+07,80.1305,2,2.65818,-10632.3,2173.76,-15850.9
3.57381e+07,91.4366,0,2.59194,17265.5,-5125.57,-21651.1
3.57792e+07,119.428,2,2.88245,-17624.9,-16345.8,-21358.8
3.57863e+07,102.73,0,2.8493,16667.3,-13708.2,-27035.4
3.58514e+07,58.4016,2,2.57682,6956.43,-6407.4,-20847.4
3.59369e+07,8.11082,0,2.70009,1328.21,-980.356,-29586.8
3.61604e+07,178.414,1,2.59854,-20303.3,-9404.22,-17826.5
3.62008e+07,232.662,0,2.78802,21810.2,27963.2,4985.35
3.64918e+07,27.826,1,2.88829,-31.8473,5924.71,-28255
3.65099e+07,46.289,2,2.79699,-1708.13,-3328.31,-19793.4
3.69474e+07,135.66,1,2.39627,-12935.4,16371,-9023.9
3.77128e+07,145.293,1,2.5011,11440.8,-24778.2,-14843.1
3.80791e+07,47.9409,1,2.83889,-6737.66,5103.19,-23203.5
3.82257e+07,211.819,0,2.71334,-18641.1,-11077.4,10136.4
3.83969e+07,87.742,0,2.52791,6520.22,-5190.69,-12217.9
3.85225e+07,26.6603,1,2.40664,-1738.58,-3459.84,-24759
3.85945e+07,24.4223,1,2.39009,-1615.85,4992.72,-28279.5
3.87354e+07,7.48207,0,2.50601,-706.193,688.593,-27650.6
3.8796e+07,3.93765,2,2.88008,116.677,-479.068,-28104.1
3.88687e+07,46.7396,2,2.50543,-2625.38,8072.13,-23829.5
3.88938e+07,103.808,2,2.89992,17735.7,-9863.74,-20867.4
3.92448e+07,184.862,2,2.52632,18861.6,16704.3,977.696
3.93102e+07,78.1459,1,2.74316,-2500.8,11000.8,-16754.6
3.94628e+07,34.1629,2,2.7303,-3589.55,-5660.12,-25949
3.94634e+07,104.724,1,2.98344,-5283.05,11725.4,-10965.1
3.97174e+07,55.3215,0,2.77942,6072.91,1479.97,-18948.7
3.97703e+07,13.3723,0,2.41804,-2268.47,1615.6,-28766.8
3.97862e+07,219.737,0,2.52632,-21601.3,23569.7,4819.46
4.02318e+07,92.7371,1,2.74397,-2828.8,6743.15,-10696
4.07193e+07,6.1177,1,2.73111,-544.201,-180.132,-27654
4.07402e+07,11.5678,1,2.69357,1293.82,2155.92,-28773.4
4.0752e+07,120.579,2,3.05182,-6885.3,-20748.4,-16049.2
4.10835e+07,13.7189,2,2.8504,63.0294,-2805.57,-29777.1
4.13019e+07,85.3178,1,2.83151,-9247.67,-5284.47,-14378.9
4.14104e+07,14.7912,0,2.53076,2165.39,-1039.19,-26735.8
4.15326e+07,57.3836,2,2.85824,4755.67,-2786.2,-18114.9
4.17614e+07,58.2058,1,2.7434,-6712.15,-6460.4,-20876.8
4.26392e+07,87.6924,1,2.59343,14204.9,11390.1,-25206.8
4.30521e+07,15.5681,0,2.4514,105.538,-1356.94,-25810.7
4.34906e+07,132.448,2,2.47511,-17498.9,4036.55,-7314.05
4.36229e+07,18.1518,1,3.0016,-3201.24,-1778.97,-27714
4.36711e+07,56.2398,0,2.72852,-998.855,9300.12,-21545.2
4.37714e+07,46.8423,2,2.92422,-5525.9,50.6825,-20691.2
4.38353e+07,33.039,0,2.56867,4204.61,1164.95,-23298
4.38555e+07,99.7838,0,2.69372,11364.9,-4301.41,-11588
4.39001e+07,17.3069,0,2.543,2428.84,-1511.99,-26437.6
4.42144e+07,119.966,2,2.75563,16694.8,-238.431,-17450.3
4.42426e+07,75.2207,2,2.6584,-9974.1,9837.23,-21371.8
4.42493e+07,76.1994,1,2.96155,-428.822,8229.38,-15083.9
4.42698e+07,12.2594,0,2.83388,848.731,290.213,-26374.2
4.44589e+07,20.4226,0,2.81526,4290.07,232.325,-27862.7
4.461e+07,1.06498,0,2.59715,175.849,-216.6,-28720.8
0,1.06925,0,2.42258,0,0,0
0,1.06544,0,2.68274,0,0,0
4.47439e+07,5.88227,2,2.54529,295.339,-319.369,-27641
4.51439e+07,28.9724,1,2.36736,-3699.38,4590.17,-27359.5
4.53315e+07,67.1127,1,2.9204,-1560.33,14030.9,-27355
4.54266e+07,172.378,2,2.71789,-19248.7,-19181.7,-4794.21
4.58079e+07,26.9989,0,2.38847,416.029,-5730.48,-29220.3
4.60568e+07,38.5722,2,2.60428,-4993.6,588.459,-22417.7
4.61128e+07,15.0252,2,2.60783,-2421.4,-233.423,-26699.9
4.68372e+07,267.484,1,2.85405,-24344.7,12673.7,7773.09
4.70051e+07,126.56,0,2.55973,-9576.91,6952.42,-4876.11
4.72858e+07,51.6162,1,2.89755,-4452.72,2252.42,-19175.8
4.73236e+07,12.5721,0,2.99305,2667.89,-421.904,-28371.6
4.7382e+07,136.338,1,2.77716,-9138.57,9422.08,-3275.07
4.76117e+07,39.2847,2,2.81676,-8166.12,-1487.48,-27891
4.77746e+07,84.0634,2,2.44981,-5524.96,-13078.8,-17997.3
4.78826e+07,116.742,1,2.64912,9547,17034.1,-17902.4
4.8202e+07,107.839,2,2.89697,-2206.27,-1943.6,-29720.6
4.83931e+07,74.3543,0,2.44528,5312.78,6224.3,-29002.5
4.85253e+07,77.9723,2,2.9906,7624.7,-11571.7,-20058.9
4.91631e+07,13.9935,2,2.72324,-2845.33,-1029.51,-29178.1
4.94316e+07,63.6228,2,3.00383,-10542.5,6242.89,-23509.9
4.97072e+07,26.2936,2,2.45771,4540.2,358.524,-25650.4
4.98458e+07,26.8425,0,2.58355,671.942,-5673.57,-28863.9
5.01971e+07,120.648,2,2.56143,-2257.6,-15249,-8467.39
5.04936e+07,234.209,1,2.59549,-23994.3,2972.1,14325
5.06401e+07,54.2592,2,2.81913,-7544.92,-706.915,-20237.9
5.07361e+07,184.639,2,2.50801,-16436.4,-24238.9,-2924.55
5.09231e+07,51.479,1,2.67435,-10237.2,704.481,-25072.7
5.11679e+07,45.703,1,2.43525,-2056.75,3184.03,-19890.7
5.13205e+07,88.3142,0,2.70811,14956.4,10907.9,-26172.3
5.16093e+07,37.0712,2,2.47048,-3649.24,-6635.58,-26555.6
5.19357e+07,61.4235,1,2.56734,-4882.91,-386.049,-16784.8
5.21769e+07,108.966,0,2.40373,16168.2,12775.8,-18323.6
5.32016e+07,110.952,0,2.60409,-12806.9,10492.3,-12322.9
5.32418e+07,184.664,1,2.56461,20183,-7777.97,3608.29
5.34302e+07,55.2119,0,2.52529,-1245.18,5461.02,-18589.2
5.35723e+07,231.016,2,2.60155,-16089,-24298.1,10328.3
5.35827e+07,19.4386,1,2.80171,1827.07,-2047.79,-25861.6
5.37537e+07,13.4448,2,3.01911,1467.27,477.003,-26486.8
5.3777e+07,58.5613,1,2.99414,-7881.39,4496.92,-20460.4
5.38757e+07,12.1398,2,2.59,1732.73,-1733,-29771.7
5.42145e+07,92.6944,1,2.47053,-6355.69,18479.4,-26348.2
5.42229e+07,34.31,1,2.80664,-5165.05,178.07,-23726.4
5.43465e+07,20.7101,1,2.74367,-1021.78,1086.19,-24687.5
5.43686e+07,59.2352,1,2.47184,3528.75,-6086.21,-18502.5
5.4518e+07,60.3282,2,2.40015,6423.29,-9183.33,-22621.9
5.48892e+07,224.946,0,2.7437,27350.6,-5448.41,9523.79
5.52206e+07,115.376,0,2.41689,-4714.77,-14280.3,-9605.47
5.52853e+07,60.0505,1,2.78532,8289.62,9211.9,-26223.3
5.53327e+07,87.552,2,3.02169,8417.92,4058.39,-13071.2
5.5488e+07,158.296,2,2.58115,-8491.45,5848.2,-27122.7
5.55602e+07,105.077,2,2.60481,-13101.2,4591.66,-11502.4
5.56778e+07,24.575,2,2.9865,-5141.92,-538.139,-29422.8
5.6323e+07,29.1672,2,2.68326,-4292.28,-1208.69,-24525.7
5.64436e+07,3.80738,2,2.84216,-726.582,262.85,-28597.7
0,3.61934,2,2.58524,0,0,0
5.6592e+07,10.9104,2,2.39501,-2015.94,-1063.86,-28182.5
5.69301e+07,78.8271,1,3.04284,10983.2,4557,-28519.4
5.72882e+07,78.0657,0,2.64679,13206.7,8961.34,-24383.1
5.74229e+07,33.2972,2,2.94797,-2174.53,-5268.02,-24640.8
5.74252e+07,45.5786,2,2.42253,-3526.11,-3147.17,-20379.6
5.7537e+07,248.307,0,2.63927,5263.18,7218.97,22784.4
5.76129e+07,198.507,2,2.66371,-4662.54,15801.4,9636.09
5.77045e+07,48.7476,1,2.52351,-6259.87,7545.26,-25358.9
5.80534e+07,48.664,1,2.8635,3076.14,-4991.77,-20482.2
5.82829e+07,216.898,0,2.73493,-20781.3,25129,3133.81
5.87144e+07,4.93689,0,2.40842,-296.578,712.79,-28123.7
5.87884e+07,152.79,0,2.62798,20633.3,22032.4,-17354.7
5.90197e+07,16.2986,2,2.6683,-145.184,-2387.81,-26265.3
5.94115e+07,5.23137,0,2.75028,607.778,-172.917,-27863.7
5.95535e+07,81.8601,1,3.00989,6956.54,15770.3,-29111.3
5.9582e+07,78.355,1,2.63082,-5274.68,15269.5,-24843.4
5.9623e+07,30.0068,1,2.9248,-1833.43,6058.35,-27788
5.9634e+07,196.868,1,2.89085,-15290.1,-16797.7,1756.26
5.98439e+07,2.59193,2,3.03358,-285.613,-557.512,-29041.5
6.01393e+07,48.0207,0,2.43373,-3801.25,4455.44,-20573.7
6.01564e+07,51.2281,1,2.72652,-7326.95,8059.25,-28999.8
6.0674e+07,100.582,2,2.99829,14349.1,1550.12,-17381.3
6.0712e+07,25.6221,0,2.50615,1530.86,-5070.05,-27519.9
6.07299e+07,51.9927,0,2.57045,2743.65,-6662.56,-20490.6
6.07886e+07,9.02663,0,2.7118,-372.265,-1696.64,-28011.4
6.08691e+07,196.261,2,2.70353,-22031.8,-11179.8,4240.5
6.09814e+07,39.5561,2,2.45443,-3583.9,-7339.6,-26673.9
6.13537e+07,40.9072,0,2.98234,2937.22,843.945,-20771.7
6.13987e+07,2.95489,2,2.85477,-624.271,245.255,-28798.3
6.15623e+07,3.50769,0,2.54929,-128.271,-238.782,-28130.8
0,3.50888,0,2.55984,0,0,0
6.16021e+07,65.0896,1,2.58708,3170.54,13382.6,-27305.8
6.17204e+07,24.471,2,2.39809,4161.96,-2983.27,-27826.2
6.19119e+07,96.9871,2,2.85535,-5164.21,-29.217,-10234.8
6.19657e+07,9.66421,1,2.52024,-1585,1316.2,-28249.2
6.20238e+07,68.3454,0,2.46003,-1496.07,-6728.14,-26942.2
6.22264e+07,189.65,2,2.8786,-18545.7,-11126.9,4671.59
6.23343e+07,31.3142,2,2.4606,-5478.16,217.97,-25017.2
6.26244e+07,37.1626,0,2.48854,3209.87,-5128.72,-23760.5
6.26801e+07,154.65,0,2.57885,-14174.9,-21014.7,-8283.33
6.29945e+07,54.055,0,2.37208,5610.85,2576.19,-19146.1
6.30083e+07,5.94084,2,2.92649,915.773,-257.532,-28033
6.32516e+07,73.8659,0,2.83811,10559,-3071.28,-17781.6
6.335e+07,87.5472,2,2.9799,-8292.3,-14124.6,-20430.1
6.34433e+07,48.5334,0,2.63216,9333.21,-1156.12,-24613.5
6.34984e+07,56.9169,1,2.56308,6461.83,-7119.3,-21681.8
6.36194e+07,61.1741,0,2.43913,-7293.57,5598.26,-19786.5
6.40687e+07,173.8,1,2.77001,14387.5,2344.71,4699.95
6.41814e+07,7.27384,2,2.37535,738.23,-1019,-27902.6
6.4296e+07,14.3604,0,2.60967,1457.08,2008.04,-26976.5
6.43375e+07,144.322,0,2.45687,-23190.1,-11981.7,-13124.4
6.43541e+07,101.261,0,2.93827,-12083.4,9461.88,-14163.5
6.43745e+07,200.643,1,2.96374,13850.4,28196.9,-793.242
6.44384e+07,184.568,2,2.64957,-11443.8,-29984.7,-18932.5
6.45949e+07,23.8147,0,2.70249,-432.55,-4410.78,-26445.1
6.49626e+07,34.7759,1,2.5151,1993.47,2443.07,-22156.2
6.52447e+07,144.514,2,2.65779,13563.4,-16970.4,-7392.09
6.52542e+07,94.7812,0,2.76249,-14241.7,868.527,-14946.6
6.54532e+07,12.5024,2,2.9087,-2279.5,-1264.4,-29624.4
6.57159e+07,126.34,1,2.54539,24668.5,-3619.65,-19351.9
6.60549e+07,21.4311,0,3.06078,4283.37,-51.0916,-27220.4
6.63744e+07,157.184,1,2.76877,17364,-21364.1,-10600.2
6.70559e+07,156.206,1,2.91126,12494,7825.54,460.801
6.707e+07,26.9979,2,2.48326,1407.44,-2208.02,-29815.8
6.70784e+07,52.1944,1,3.03,-7538.07,8063.96,-28813.7
6.72294e+07,1.14655,1,2.91231,-83.9506,143.735,-28610.6
6.74274e+07,228.727,2,2.78758,14037.9,19343.8,12766.7
6.75332e+07,130.004,1,2.68075,-12741.5,2921.29,-4712.22
6.76873e+07,140.254,1,2.82697,-28293.3,-5419.18,-22404.6
6.79541e+07,61.2031,0,2.94282,-1035.29,781.495,-18092.9
6.85171e+07,168.583,0,2.44213,-10557.3,-20294.2,-1507.81
6.86558e+07,91.0257,2,2.70939,-5578.7,-14487.2,-17455.7
6.8708e+07,96.4599,2,2.70497,-5442.03,-17955.2,-20755.4
6.91315e+07,1.25121,1,2.47506,-16.2781,107.578,-28553.6
6.92068e+07,127.751,0,2.51514,-9279.04,-17414.8,-10415.3
6.92198e+07,118.789,0,2.50279,13381.2,-13125.6,-12072.1
6.93593e+07,8.27572,2,2.97968,-235.432,-1803.23,-29048.3
6.95998e+07,134.599,0,2.78252,-24064.9,-14825.9,-28872.3
6.96711e+07,12.5207,0,2.86409,-175.41,2457.75,-27842.6
6.97077e+07,92.119,0,2.69351,-18013.6,1068.19,-21849.3
6.97382e+07,115.611,0,2.39349,17952.1,4055.5,-26266.9
6.98106e+07,54.4041,1,2.93899,-9539.11,5507.23,-25500.5
6.98273e+07,99.9801,0,2.94153,10104.6,167.54,-10406.8
6.98461e+07,221.433,2,2.98671,-13823.2,20074.9,-21786.3
6.98489e+07,36.5565,1,2.85467,3817.54,-2348.77,-22638.6
7.03167e+07,49.8051,0,2.97439,7843.92,-6385.53,-25923.3
7.03465e+07,52.7128,1,2.41302,-3157.86,5822.92,-19775.8
7.04823e+07,185.706,0,2.79205,14878.1,19935,1328.73
7.08793e+07,21.129,0,2.65944,2093.1,-416.312,-24853.8
7.13596e+07,3.62635,0,2.58811,543.686,337.374,-28292.3
7.15595e+07,49.1604,1,2.43684,-7333.77,-96.9232,-21384.3
7.16725e+07,6.47308,1,2.9875,315.496,1277.23,-29416.1
7.17218e+07,157.828,0,2.59694,13119.2,12012.6,-654.94
7.17889e+07,98.3785,0,2.9788,4239.12,-18951,-21791.7
7.18587e+07,49.9516,1,2.84633,-5644.85,8981.74,-29279.1
0,49.8649,1,2.63424,0,0,0
7.20627e+07,115.448,0,2.53237,-1639.25,-17632.8,-23630.2
7.24677e+07,34.5157,1,2.57957,1813.5,-4327.47,-23291.1
7.28891e+07,13.4507,0,2.98329,-848.93,-2664.59,-28662.6
7.32303e+07,19.507,1,2.63635,1425.73,3571.21,-27161.5
7.33325e+07,79.8332,1,2.66251,-4321.7,16141,-26177.4
7.34953e+07,54.1512,1,2.6703,160.598,10328.1,-23753.4
7.35524e+07,149.011,0,2.76152,13189.6,22927.6,-11915.2
7.41599e+07,90.1353,0,2.41361,-6594.57,2841.46,-11261
7.42712e+07,115.458,2,2.72576,-23580.5,3448.24,-23746.1
7.47532e+07,89.2515,0,2.53281,-880.011,-13796.4,-16020
7.4871e+07,36.1446,0,2.64709,53.2944,5403.91,-23423.8
7.49501e+07,54.2879,0,2.91095,8891.4,-2810.72,-22127.2
7.49932e+07,158.548,0,2.4391,2903.98,20300.7,-2269.09
7.52272e+07,122.433,1,2.80625,-4655.16,14735.5,-8162.34
7.55373e+07,72.3279,2,2.4141,13327.1,-5704.72,-25523.4
7.56128e+07,163.769,0,2.92703,23611.3,-24925.2,-26292
7.58834e+07,12.757,0,2.64995,1315.12,2327.25,-28163.6
0,12.6963,0,2.68382,0,0,0
7.59234e+07,25.4621,2,2.5693,-4740.44,-2722.79,-29300.8
7.59675e+07,135.208,0,2.51579,27383.4,-7505.74,-24721.5
7.63894e+07,19.6874,0,2.84419,620.443,-1826.2,-25174.1
7.65053e+07,48.5334,0,2.60091,9102.02,3388.1,-25290.9
7.69214e+07,26.3205,0,2.63327,-2740.97,-1592.22,-24306.5
7.69335e+07,25.0577,0,3.02359,2004.55,-4886.34,-28270.5
7.75108e+07,31.8825,1,2.893,-4755.76,-1966.37,-24523.7
7.78728e+07,115.617,1,2.65186,-12614.7,-12217.3,-11906.4
7.78764e+07,25.9888,2,2.64766,-4200.15,2239.3,-26050.1
7.84094e+07,41.1645,2,2.96766,-3053.8,-3326.67,-21418.6
7.84178e+07,25.579,2,2.65187,-1088.09,-3899.48,-25150.8
7.86731e+07,142.807,0,2.82129,22191.9,4515.13,-9007.81
7.88969e+07,68.6624,0,2.76781,-4502.11,-8501.34,-18088.1
7.89867e+07,113.77,2,2.88983,-21722.2,-9147.85,-24669.4
7.90523e+07,52.3086,2,2.94166,-7011.88,-6060.58,-22790.3
7.92041e+07,29.512,2,2.89603,-5264.1,2140.08,-26262
7.93052e+07,11.1163,1,2.5497,640.554,2261.22,-29511.5
7.95782e+07,23.9275,1,2.81775,-1980.39,724.694,-24232.2
8.06704e+07,49.8402,0,2.54275,7681.35,-2846.8,-22091.5
8.07393e+07,57.9,2,2.68314,8257.84,-137.135,-19897.1
8.07543e+07,225.258,2,2.41899,-25925.5,-28669.7,-879.899
8.0813e+07,167.216,2,2.9302,12321.6,2328.03,3939.82
8.13325e+07,17.0697,2,2.86794,-1948.13,2136.88,-26757.2
8.14849e+07,118.324,1,2.69936,-24177.4,-4081.52,-24792.6
8.2134e+07,6.58339,1,2.54077,-667.605,295.52,-27583
8.21363e+07,97.8786,0,2.94941,12253.1,15876.8,-24129
8.22808e+07,204.949,0,2.51881,-8631.48,23698.1,6214.13
8.23163e+07,107.212,2,2.54935,12617.2,-17436.5,-21676.4
8.23239e+07,232.123,1,2.90884,4824.85,-10104.1,10639.7
8.23824e+07,177.094,1,2.53011,-21673.4,-16592.3,-7089.63
8.25572e+07,99.7006,2,2.47803,8630.85,-17485.9,-20649.6
8.29383e+07,68.6635,1,2.3782,6635.92,8115.31,-18703.6
8.29412e+07,62.2341,1,2.80932,-11988.6,2429.6,-23957.8
8.31646e+07,94.1093,0,2.94549,-6219.96,11241.2,-13857.2
8.3838e+07,176.433,1,3.05668,-9699.46,-9659.79,3065.58
8.38557e+07,89.5155,2,2.65769,-11382.1,-9517.96,-17076.9
8.40404e+07,141.543,1,2.93946,-26511.3,107.289,-15345.5
8.45581e+07,89.3979,2,2.65993,639.845,-5720.9,-12863.8
8.46958e+07,31.9923,2,2.45716,-56.4334,-2681.47,-22574.6
8.49185e+07,86.0763,1,2.46631,-9553.55,9564.39,-16536.2
8.51448e+07,36.5029,0,2.71,6989.5,-3237.94,-27652.5
8.53734e+07,215.009,0,2.91485,-3625.76,24280,7872.19
8.60008e+07,274.252,2,2.65949,-9240.58,-10994.8,-16242.1
8.6102e+07,2.21475,1,2.39488,-428.959,352.508,-28712.2
0,2.36587,1,2.54743,0,0,0
0,2.20779,1,2.79935,0,0,0
8.62132e+07,122.439,1,2.36299,-23113.9,592.852,-17016
8.62151e+07,119.053,0,2.48798,10301,-3960.22,-6156.21
8.63129e+07,48.3393,2,2.48626,-3757.37,7162.12,-22639.4
8.64745e+07,23.7655,1,2.46304,2108.83,3922.57,-26369.2
8.65323e+07,376.152,1,2.65048,7049.6,-10339.3,-5936.41
8.65697e+07,103.876,0,2.42009,6483.31,-12228.6,-11709.6
8.69836e+07,161.636,1,2.61809,-9620.6,21905.6,-4408.85
8.7057e+07,39.204,0,2.38802,-5849.39,-554.939,-23063.2
8.72087e+07,79.9849,2,2.39322,-6063.7,10216,-16797.5
8.72122e+07,56.6131,2,2.99163,8016.47,-3104.1,-20646.8
8.72421e+07,18.3715,0,2.66752,3958.87,454.688,-29163.3
8.72794e+07,19.8704,2,2.46419,-3449.36,-2378.74,-27934.2
8.75274e+07,17.3845,1,3.01378,-3293.77,1793.4,-28947.3
8.76533e+07,16.8641,1,2.93581,-2041.27,-848.975,-27653
8.77194e+07,228.734,2,2.87333,6338.5,-3994.44,-22430
8.79532e+07,91.736,2,2.68045,8731.15,-13205.1,-17630.2
8.8164e+07,71.778,2,2.80797,-2963.04,-8354.42,-16541
8.82611e+07,3.7634,0,2.67791,830.078,327.81,-28940.5
0,3.72715,0,3.04929,0,0,0
0,3.75763,0,2.87784,0,0,0
8.89962e+07,39.947,0,3.01852,1165.47,-5109.64,-22322.4
8.90403e+07,165.804,1,2.41007,5555.07,27774.5,-8036.49
8.92194e+07,239.844,0,2.69423,23356.2,5049.71,15749
8.93527e+07,154.645,0,2.67391,-5777.77,28132.6,-13406.7
8.98184e+07,64.9791,0,2.40327,12490.6,3299.23,-23857.6
8.99398e+07,178.707,2,2.70438,-13013.9,16517.1,2390.49
9.015e+07,5.09194,1,2.99416,-486.547,530.442,-27950.5
9.03664e+07,61.7555,2,2.88037,1254.71,10149.3,-20898.1
9.03776e+07,160.048,1,2.96388,-11717.5,28772.3,-15914.2
9.04474e+07,56.424,0,2.66274,10774.6,-4800.58,-26625.9
9.05423e+07,36.3444,0,2.83926,2821.63,172.738,-21680
9.0637e+07,59.0734,2,2.61061,1572.84,-11162.4,-23296.9
9.07956e+07,76.8546,0,2.65544,9313.52,-6576.16,-27498.3
9.14915e+07,209.264,0,3.03927,-2508.99,17132.2,3613.19
9.17239e+07,55.082,0,3.05669,6189.19,5691.15,-20852.5
9.21273e+07,0.788494,2,2.91981,-179.397,42.57,-28751.4
9.21375e+07,67.5513,2,2.98494,-153.662,12089.9,-21514
9.25649e+07,106.885,0,2.49045,2194.31,-22505.6,-29286.5
9.25747e+07,123.825,1,2.73614,18407,-11158,-14175.9
9.26128e+07,79.6775,1,3.06057,-4498.22,-15087.2,-23446.2
9.26318e+07,21.333,2,3.05893,-2582.72,2032.66,-25800.2
9.30181e+07,3.03925,0,2.37024,-426.135,426.742,-28695.5
0,3.10843,0,2.9774,0,0,0
9.31771e+07,33.9483,2,2.90015,7026.53,-913.694,-28165.4
9.32168e+07,159.031,2,2.39131,-27213.9,-1025.44,-8987.45
9.33189e+07,79.3389,0,3.03748,14130.9,3394.76,-20584.9
9.33233e+07,33.4933,1,2.92113,3184.39,2833.92,-23238.8
9.34107e+07,138.801,1,2.71623,15201.7,-8037.52,-5218.69
9.34488e+07,233.19,0,2.74068,4406.72,-6549.86,-1985.22
9.36705e+07,100.115,2,2.7172,-152.639,-7300.7,-18434
9.377e+07,239.76,2,2.76199,11518.5,-15917.3,15562.1
9.39377e+07,42.6896,2,3.01443,-2311.77,1878.12,-25677.8
9.39805e+07,0.105307,0,4.11546,108.421,-62.1478,-28843.3
0,0.106765,0,3.28444,0,0,0
0,0.151062,0,3.25361,0,0,0
0,0.103582,0,2.70444,0,0,0
0,0.131875,0,3.69903,0,0,0
0,0.111265,0,2.93361,0,0,0
0,0.103809,0,2.18381,0,0,0
0,0.143789,0,2.16295,0,0,0
0,0.116224,0,2.83141,0,0,0
0,0.14212,0,2.70826,0,0,0
0,0.136638,0,3.54754,0,0,0
0,0.104297,0,2.82756,0,0,0
0,0.106407,0,3.12876,0,0,0
0,0.11584,0,3.37013,0,0,0
0,0.106307,0,2.29261,0,0,0
0,0.102444,0,4.12579,0,0,0
0,0.156757,0,2.47207,0,0,0
0,0.114516,0,2.62341,0,0,0
0,0.195705,0,3.69252,0,0,0
0,0.0943453,0,3.07018,0,0,0
0,0.109753,0,2.89455,0,0,0
0,0.128887,0,3.90813,0,0,0
0,0.132111,0,2.97027,0,0,0
9.45131e+07,72.0081,1,2.48107,-12565.6,-2696.86,-20577.4
9.45326e+07,85.9473,2,2.79565,2138.03,-14926.4,-18762.6
9.49213e+07,0.731322,1,3.05646,-96.1026,173.371,-28711.2
0,0.673887,1,2.38224,0,0,0
0,0.681205,1,2.57908,0,0,0
0,0.72197,1,2.7753,0,0,0
0,0.681052,1,2.90872,0,0,0
9.49937e+07,14.1972,2,2.46445,222.957,-3090.89,-28795.9
9.50301e+07,21.364,1,2.96036,285.735,1993.76,-26077.7
9.51725e+07,17.6067,2,2.62984,-757.962,-1954.86,-25687.9
9.52921e+07,14.5382,1,2.81003,872.304,2967.36,-28250.5
9.53985e+07,13.5698,1,2.49328,412.311,2040.39,-26771.4
9.56237e+07,58.5426,2,2.82461,4378.56,-11147,-25771.9
9.60954e+07,20.0282,0,2.89797,-1133.81,2100.55,-25394.1
9.66587e+07,50.4992,0,2.65791,2488.44,-5453.4,-19981.4
9.68329e+07,16.8005,1,2.40104,-1882.26,2581.53,-27083.9
9.69666e+07,60.5446,0,2.41,-107.683,3848.72,-16599
9.75797e+07,130.195,0,2.75071,22632.4,7600.27,-15234.8
9.77302e+07,17.9193,1,3.0025,-1140.46,-349.331,-28827.7
9.77327e+07,21.9481,0,2.80944,-1720.46,-1846.92,-24982.4
9.80513e+07,2.18925,2,2.99397,68.1024,218.388,-28462.1
0,2.17061,2,2.54411,0,0,0
9.83444e+07,8.47834,2,2.76576,-675.879,-352.771,-27183.8
9.8375e+07,97.4343,1,2.96477,7739.73,-3598,-10284.9
9.84152e+07,108.521,0,2.89719,5770.01,-12183.7,-10413.6
9.85044e+07,254.189,1,2.99907,24020.7,18953.4,14780
9.87061e+07,95.0166,2,2.41083,-13087.3,7500.25,-15535.4
9.88071e+07,10.8163,1,2.58879,-1474.94,-49.9654,-27045
9.8866e+07,20.7771,1,2.87576,1883.73,4022.72,-29146.4
0,20.8025,1,2.76894,0,0,0
9.89998e+07,37.0473,2,2.37224,-2263.51,-7603.85,-28255
9.91147e+07,223.832,2,2.53057,9570.01,-6068.03,-1461.2
9.9358e+07,85.5407,1,3.05862,-5623.58,5629.49,-12743.6
9.93652e+07,72.9067,0,2.87863,10253.9,-7089.76,-19833.6
9.93884e+07,153.575,1,2.3636,-9385.51,6484.46,1616.83
9.94666e+07,150.578,1,2.75826,17956.4,-7060.74,-3702.6
9.96599e+07,17.7397,0,2.86789,1762.07,1237.77,-25720.4
9.97359e+07,51.0129,2,2.64684,3556.11,-9256.92,-24451.7
9.99056e+07,108.5,0,2.57603,4811.75,14535.7,-11723.8
9.99914e+07,113.403,0,2.95966,21388.8,51.88,-18231.9
1.0009e+08,121.546,1,2.56787,4113.65,13045.7,-21596
1.0023e+08,7.99837,0,2.45952,1788.34,-221.748,-28907.3
1.00704e+08,45.5622,0,2.97521,-2914.41,-2864.86,-20227.4
1.0071e+08,77.6697,2,2.53142,-5511.92,6356.36,-14724.7
1.00805e+08,7.38233,0,2.45105,816.051,970.092,-27827.2
1.00975e+08,110.452,1,2.61752,-4815.61,18427.1,-15252.9
1.0109e+08,64.8746,0,2.42446,-5285.31,8814.94,-19768.3
1.01169e+08,32.9814,2,2.5455,5728.55,-1694.73,-25366
1.01312e+08,59.0082,2,2.88813,-3016.61,4905.97,-17869.2
1.01694e+08,2.52333,2,2.7401,-371.67,368.362,-28730.3
1.01754e+08,203.525,2,3.04546,-22263.3,11841.1,-3202.23
1.02307e+08,86.8067,2,2.48977,-10551.6,-14497.7,-24511.1
1.02882e+08,48.605,0,2.40669,10129.3,-226.431,-26559.8
1.02975e+08,27.0334,2,2.73224,-2597.93,-803.064,-28993
1.03042e+08,96.3543,1,2.76943,-5242.22,3100.23,-9450.06
1.03119e+08,114.176,2,2.82283,-12294,3168.91,-8473.56
1.03324e+08,28.0639,1,2.6883,-503.773,2841.87,-23609.2
1.03445e+08,308.767,0,2.93275,24365.5,24590.1,25975.7
1.04228e+08,27.7853,1,2.36974,-2155.88,-5311.41,-27624.2
1.04515e+08,131.124,1,2.82457,-13712.1,7219.74,-5969.08
1.04537e+08,104.248,0,2.8108,21986.6,-123.302,-27548.9
1.04547e+08,13.2093,1,2.91947,-2711.83,-293.216,-29576.4
1.04803e+08,2.23094,0,2.86657,178.749,500.224,-28820.8
1.05171e+08,27.2152,1,2.86776,-4919.68,-816.875,-25984.1
1.05262e+08,124.407,0,2.88422,10045.3,13898.5,-9059.81
1.05711e+08,19.9165,1,2.91966,278.877,3643.45,-26656.5
1.05814e+08,80.8552,0,3.0464,-13159.2,-8492.2,-22504
1.0609e+08,14.1516,0,2.74918,1256.36,-849.228,-26215.8
1.06398e+08,61.3199,1,2.75501,-4697.27,9952.25,-21926.3
1.06823e+08,110.556,1,2.73562,-5703.81,-15064.8,-12044.6
1.06938e+08,138.478,0,3.02227,6450.38,-27808.6,-23550
1.0723e+08,94.6896,2,2.6831,10986.6,-10690.1,-16037.1
1.07335e+08,102.712,1,2.8268,-8195.11,20090.3,-28392.5
1.0736e+08,132.814,1,3.02267,-21831.1,-10396,-15012.3
1.07445e+08,64.4823,0,2.55113,10594.9,-3973.34,-23880.5
1.07525e+08,114.032,1,2.89343,-6332.94,-6437.56,-21623.2
1.07619e+08,6.95931,0,2.80107,-373.074,-1119.29,-27957.9
1.07948e+08,159.2,1,2.58899,-28181.8,-14766.8,-17892.1
1.08015e+08,88.4686,2,2.56174,-179.054,-17018.2,-20885.6
1.08473e+08,105.39,1,2.66845,10913.6,-7621.07,-11057.7
1.09247e+08,86.2035,0,2.37088,7316.98,-7583.59,-13890.1
1.09369e+08,152.465,1,2.96704,-1224.93,14240.8,-186.925
1.09468e+08,49.9858,1,2.86238,-666.47,-612.653,-28052.1
1.09569e+08,119.335,2,3.03277,6452.43,-19736.2,-14796
1.099e+08,41.176,0,2.53852,-5553.72,4751.27,-24175.6
1.10145e+08,118.406,2,2.74516,-10095.8,16426.9,-13054
1.10387e+08,100.2,0,2.89762,2568.52,16603.5,-16133.7
1.10423e+08,38.3648,2,2.90757,125.665,-2183.69,-21040
1.10483e+08,16.8418,2,2.82857,-1695.44,-3219.89,-28503.7
1.10509e+08,74.9119,2,2.64466,-14541.8,5397.81,-25603
1.10656e+08,67.212,0,2.76164,11968.5,-6572.03,-24785.9
1.10754e+08,2.73142,2,2.98405,-313.27,317.942,-28472.8
0,2.8045,2,2.63802,0,0,0
1.112e+08,2.09639,0,2.37822,350.674,242.423,-28536.5
1.1128e+08,34.1489,1,2.66455,3855.89,4705.03,-24874.2
1.11386e+08,78.8931,1,2.48296,-10721.8,-4673.13,-16908.2
1.12081e+08,85.5399,0,2.8905,-6582.97,-5806.97,-13969.9
1.12092e+08,155.158,1,2.93852,-28023.9,14560.6,-27020.2
1.12295e+08,33.2237,2,2.50806,5861.18,1837.08,-25475.3
1.123e+08,15.8143,2,2.43833,-1314.14,2194.16,-26692.9
1.12426e+08,152.757,0,2.62518,19046.3,-9939.23,-6150.63
1.12454e+08,46.7,0,2.54805,-6609.47,1209.3,-21639.5
1.12933e+08,82.0347,0,2.4399,8912.09,1790.39,-13996
1.12996e+08,73.5223,2,2.77946,5922.47,-4384.7,-15208.8
1.13123e+08,61.2114,0,2.46904,4607.61,-12129.9,-29718.8
1.13395e+08,100.823,0,2.60358,6220.14,-2307.6,-26850.1
1.13445e+08,71.8155,2,2.95564,-4942.02,-12929.8,-24988.3
1.13601e+08,128.881,0,2.84881,25747.2,-6847.45,-23378.6
1.13962e+08,74.2478,1,2.495,-10382.6,-4602.06,-17965.1
1.14205e+08,136.178,2,2.91748,-20179.7,13129.5,-13385.6
1.14576e+08,91.4611,2,2.82991,3129.49,-7789.48,-11490.7
1.15095e+08,13.3468,0,3.01099,1166.62,2324.08,-27675
1.15296e+08,142.939,2,2.77417,-9833.82,-3467.09,-589.834
1.15367e+08,133.224,0,2.62518,15638.5,12365.8,-8934.76
1.15658e+08,74.8438,0,2.54033,-7529.08,7553.15,-17178.5
1.15697e+08,112.258,0,2.73582,-737.46,-1675.61,-25195.3
1.15831e+08,109.516,0,2.966,-22581.7,-2305.58,-25739.9
1.15879e+08,110.033,1,2.78828,-1602.99,15561.1,-11691.6
1.15886e+08,20.1084,1,2.57196,2481.76,3486.67,-29252.9
1.15928e+08,27.4573,0,2.48731,-481.163,-5777.54,-28157.4
1.16235e+08,24.7955,1,2.40141,-4467.72,-2778.41,-29273.1
1.16241e+08,11.9042,0,2.5544,-707.253,1731.95,-27168
1.16427e+08,27.738,2,2.7623,-1633.55,3419.99,-24390
1.16627e+08,163.757,1,2.81995,-25917.8,-7596.67,-7409.1
1.16735e+08,45.7019,2,2.95951,1062.92,-8615.2,-24568.8
1.16791e+08,40.0045,0,2.84577,2988.64,-2713.88,-21400.4
1.16809e+08,58.9911,2,2.41933,-6852.66,-6753.36,-20754.8
1.16884e+08,105.242,2,2.51052,6681.2,-16774.9,-15785
1.16894e+08,78.0626,2,2.57562,-7303.94,9107.09,-17195.7
1.16986e+08,37.8937,0,2.90099,-4870.27,-2680.32,-23168.4
1.17051e+08,89.9772,2,2.90585,-5113.71,-6133.09,-11669.9
1.17324e+08,60.753,2,2.94775,10352.1,2389.45,-21830.1
1.1738e+08,3.99168,1,2.81805,-866.847,217.83,-28585.9
1.17422e+08,9.35009,1,3.02114,-1490.88,103.732,-27471.8
1.17456e+08,217.869,2,2.74877,-20239.4,-21720,6221.34
1.17561e+08,26.5511,2,2.37297,-1589.3,2097.31,-23859.5
0,26.4533,1,2.6609,0,0,0
1.1846e+08,360.142,1,2.79346,21796.5,24220.3,16686.4
1.18586e+08,21.8224,2,2.74877,-4247.51,-268.637,-26942
1.18607e+08,113.149,2,2.66243,-19842.5,-13442,-28306.1
1.18747e+08,1.30454,1,2.78926,-244.039,313.415,-28846.7
1.19285e+08,83.325,2,2.85852,-147.7,-7914.4,-13175.7
1.19357e+08,32.4246,2,2.60558,6722.82,-467.883,-27653.2
1.19418e+08,5.52411,1,2.85517,-765.385,474.952,-27987.4
1.19602e+08,1.30631,0,2.52256,367.704,-126.616,-28894.1
0,1.35179,0,2.87945,0,0,0
1.19698e+08,38.6755,0,2.67854,2123.2,-6080.69,-23755.6
1.19889e+08,111.232,2,2.98576,-19795.5,-8242.49,-19493.2
1.20236e+08,6.78424,0,2.93347,353.523,-1188.16,-28047.8
1.20297e+08,162.422,2,2.40697,9809.1,-24699.9,-6966.92
1.20457e+08,64.0647,1,2.71374,-6263.48,-3364.22,-17326.2
1.20524e+08,174.064,0,2.60826,11703.5,-28992.8,-9485.98
1.20644e+08,54.5234,0,2.47965,5532.62,6681.12,-21182.5
1.21155e+08,32.2661,2,3.00505,-4840.17,1978.33,-24527.1
1.21461e+08,61.2744,0,2.79368,-5737.12,8780.42,-21358.7
1.21895e+08,23.8417,0,2.73215,3581.65,1965.49,-25831.9
1.22163e+08,8.71288,1,2.90645,436.751,1848.11,-28568.4
1.22423e+08,38.633,2,2.9027,1360.87,-6590.61,-24165.5
1.2268e+08,13.6198,2,2.49295,-2503.8,1350.51,-28219.6
1.22681e+08,261.559,0,2.9967,2485.9,-15175.6,-2039.67
1.22941e+08,8.3894,0,2.74379,1109.62,-175.208,-27378.8
1.23001e+08,116.709,2,3.05959,-6415.05,10011.2,-7499.66
1.23269e+08,0.623854,2,2.98869,-84.7135,-210.372,-28838
1.23284e+08,9.47738,1,2.8251,-1345.3,1182.96,-27805.6
1.23658e+08,17.0411,1,2.66488,788.09,2690.46,-26479.1
1.23741e+08,109.157,0,2.80508,5370.33,5486.13,-17207.7
1.23955e+08,60.416,1,2.8651,3540.6,-9137.6,-20829.3
1.24166e+08,122.961,0,2.71145,-11036.1,13842.4,-9934.23
1.2431e+08,67.3188,0,2.70173,4927.93,-10995.1,-21253.5
1.24479e+08,518.173,0,2.72115,16570.3,23891.7,16426
1.24613e+08,24.0878,0,2.48087,-1119.14,-1678.47,-29473.5
1.24662e+08,43.116,0,3.00685,2464.7,-710.5,-20137
1.24663e+08,73.2676,1,2.42333,10731.8,-5972.77,-19451.9
1.2476e+08,16.4597,0,2.97474,-1020.41,-1075.39,-25734.6
1.24789e+08,53.0186,2,2.58639,-5417.52,6300.24,-21306.8
1.25396e+08,58.3732,1,2.98215,1135.59,5344.8,-17860.4
1.25432e+08,232.614,1,2.93816,-19080.6,18421.8,12182.9
1.25452e+08,42.5474,0,2.55161,4549.4,2431.67,-21398
1.25725e+08,49.3769,1,2.58808,-7786.68,-2867.25,-22463.1
1.25832e+08,13.8004,0,2.58366,1450.34,-409.841,-26275.7
1.26094e+08,7.58371,2,2.65439,-582.272,-1621.54,-28804.5
1.26121e+08,33.8444,0,2.6508,5439.16,3503.25,-25626.6
1.26389e+08,64.5483,2,2.58336,-22.9585,-13474.5,-26167.2
1.26497e+08,94.3764,2,2.41009,10671.2,-12550.7,-17538.2
1.26806e+08,14.922,2,2.95335,46.5445,-2930.11,-27540.7
1.27005e+08,152.845,1,2.72208,20254.8,-14258,-8327.26
1.27211e+08,53.7731,0,3.04616,9982.56,-2093.47,-23828.7
1.27385e+08,155.609,2,2.55602,14443.1,-8253.98,-16077.4
1.27763e+08,114.882,0,2.45244,10381.1,13797.3,-11675.6
1.28169e+08,279.313,0,2.71918,23295.5,-29805.1,14883.2
1.28192e+08,41.8721,0,3.02027,3551.02,4879.6,-22395.6
1.28271e+08,98.3058,0,2.95724,-10128.1,-10175.1,-14090.6
1.28407e+08,43.9742,2,2.7562,-2269.87,2337.06,-20156.4
1.2842e+08,155.032,0,2.9047,16732.2,-5916.1,-1513.35
1.28608e+08,160.362,0,2.98655,1251.74,24464.7,-5777.67
1.28806e+08,1.77314,2,2.63979,-442.105,-71.2958,-28807.5
1.29242e+08,143.964,1,2.41199,4517.76,-24282.9,-11108.4
1.29676e+08,145.321,2,2.81146,3406.39,-7527.56,469.843
1.30219e+08,0.517049,1,3.00886,-41.1849,211.604,-28826.9
1.30264e+08,77.0855,0,2.41456,8236.93,11639.9,-20796.7
1.30639e+08,129.634,0,2.69323,16208.8,-19460.8,-18490.6
1.30731e+08,6.40752,0,2.67178,-979.984,-238.375,-27990.5
1.31097e+08,23.2773,2,2.48572,-3281.91,1678.89,-25521.9
1.31261e+08,193.625,1,2.88357,12241.6,2670.74,-26690
1.31416e+08,27.6638,1,2.69647,3508.12,4642.42,-29837.6
1.31523e+08,78.5014,1,2.77183,-14105.3,7525.2,-24311
1.31845e+08,53.939,0,2.73298,-1105.05,7671.53,-20541.4
1.32081e+08,2.13885,0,2.52353,478.136,-22.349,-28561.4
1.32395e+08,95.2953,2,2.78662,14557.8,-10186.2,-19464.6
1.32396e+08,125.378,0,3.02115,5524.21,23195,-17704.2
1.32427e+08,10.7221,1,2.73008,-268.359,2176.93,-27959.9
1.32747e+08,188.232,1,2.66023,-16174,27919.5,-5778.63
1.32882e+08,24.4706,1,2.89175,-123.977,1129.05,-23788.9
1.33011e+08,61.0909,2,2.93798,-3995.44,-12268,-29324.7
1.33515e+08,11.2657,2,2.61358,-364.147,-667.922,-26548.8
1.33529e+08,161.096,0,2.84026,18779.3,-4391.25,-25285.1
1.33827e+08,13.0813,1,2.76726,1570.24,609.352,-26626.1
1.33914e+08,44.5731,2,3.00835,-2874.44,-694.986,-19969.7
1.33942e+08,28.5153,1,2.8767,683.902,-3675.33,-24170.6
1.33943e+08,33.1162,1,2.52978,2184.1,6218.42,-26239.6
1.33972e+08,26.4303,0,2.84932,4162.26,-2995.14,-26499.1
1.3433e+08,42.6412,1,2.7669,1076.04,-5358.59,-21744.7
1.34531e+08,146.233,0,2.74681,26788.4,-9214.3,-16559.7
1.34533e+08,100.873,1,2.90218,54.4629,20566.2,-23385.2
1.34556e+08,87.0423,1,2.78469,1529.75,16983.8,-21933.3
1.34611e+08,96.106,2,2.64338,-12977.2,-8959.62,-15981.8
1.34755e+08,107.211,2,2.41746,-17715.4,-7641.04,-16769.5
1.34827e+08,24.003,0,2.62261,-3537.41,-1590.74,-25634.6
1.34885e+08,17.7138,2,2.87468,-3605.11,1128.63,-28613.8
1.34948e+08,99.223,0,2.81907,-16406.8,1771.56,-16146.7
1.34985e+08,152.842,1,2.99713,-27505.2,10484.5,-16009.6
1.35005e+08,19.3838,2,2.62345,-2042.51,-3252.82,-27145.8
1.35298e+08,109.206,1,2.59429,3701.73,9533.05,-8120.4
1.35516e+08,42.5039,0,2.76257,6128.64,6573.82,-27853.5
1.35562e+08,132.078,1,2.67817,2951.54,22935.8,-28035.2
1.3564e+08,167.43,0,2.80093,26411.2,-19225.3,-15472.1
1.35648e+08,17.8626,0,2.55674,-2675.37,-268.65,-26239
1.35906e+08,3.48084,0,2.47125,828.512,152.001,-28744.7
1.36016e+08,142.069,1,2.5983,-15544.2,21390.2,-14532.3
1.3614e+08,9.50504,1,2.57895,-987.362,-692.162,-27206.1
1.3643e+08,9.60179,0,2.84502,1843.64,-890.654,-28367.8
1.36767e+08,57.6764,2,3.02189,-4297.06,-2931.09,-21994.6
1.36962e+08,63.5288,0,2.72161,8318.66,5139.62,-19621.4
1.37202e+08,108.589,2,2.97688,-675.68,-6051.71,-6858.1
1.37516e+08,71.7016,1,2.43616,-2288.39,13845.6,-22888.3
1.37577e+08,269.286,0,2.4559,10264.4,28927.8,19120.7
1.37888e+08,142.458,2,2.40735,26011.3,-8949.23,-16489.1
1.37998e+08,167.82,2,2.56645,27700,-5337.56,-7349.53
1.38043e+08,86.4138,1,2.4409,10516.2,14989.6,-29143.3
1.38195e+08,53.8466,2,2.99075,-111.199,5594.86,-19039.1
1.38474e+08,18.0572,2,2.39831,3658.24,-794.373,-29580.6
1.38694e+08,86.2264,2,2.37885,-10675.2,-14416.4,-25050.6
1.38705e+08,148.623,2,2.86313,612.231,-13567,-686.269
1.38705e+08,11.0255,1,2.40228,-1371.16,1848.07,-29689.6
1.38796e+08,41.9115,1,3.04838,-8702.91,1443.34,-29277.1
1.39296e+08,45.9723,2,2.65965,4433.28,-8641.66,-29906.5
1.39361e+08,12.5273,0,2.4324,2634.99,-304.36,-28095.3
1.40265e+08,2.4201,0,2.76078,227.408,-424.058,-28569.6
1.40338e+08,52.4187,1,2.88301,3812.38,10099.6,-26290
1.40469e+08,176.678,0,2.47127,7819.82,15834.7,4088.2
1.40726e+08,94.3961,1,2.48395,-16610.6,-5137.7,-18989.6
1.40785e+08,169.543,0,2.58087,-18219.9,-5614.51,1416.75
1.41199e+08,11.1329,1,2.45017,1777.98,979.795,-27572
1.41205e+08,68.1237,2,2.41055,1977.9,-10356.1,-18948.4
1.41285e+08,115.301,0,2.84514,-17947.1,7233.32,-14299.2
1.4135e+08,108.029,2,2.90699,10202.5,-18285.7,-19943.1
1.41666e+08,15.3482,2,2.37011,919.291,-1986.37,-26358.1
1.4184e+08,128.207,1,2.70927,-1484.7,21878.7,-12919.8
1.41959e+08,78.4167,1,2.55245,-8812,3964.49,-15325.8
1.41975e+08,35.174,2,2.86432,3155.89,1902.36,-22461.8
1.42145e+08,19.6525,1,2.56448,-3474.04,550.431,-26515.9
1.42198e+08,92.4369,0,2.61957,8908.32,-16088.3,-22597.9
1.42396e+08,23.5565,0,2.92585,1287.68,-109.459,-24039.6
1.42616e+08,215.782,0,2.93627,7802,-11476.2,-22594.1
1.43129e+08,35.7269,0,2.54655,-1017.52,7475.64,-29094.3
1.43175e+08,29.1695,0,2.50474,140.558,5303.82,-25640.5
1.43351e+08,2.86226,2,2.92518,-583.649,48.7223,-28609.4
1.43543e+08,76.4541,1,2.69199,13146.5,5289.03,-21125.4
1.43798e+08,18.0318,1,2.51512,-3343.18,-1842.59,-28407.4
1.43995e+08,28.9814,1,2.99336,2573.77,1799.2,-23596.3
1.44416e+08,139.113,1,2.60617,825.899,-4776.85,-18519
1.44426e+08,88.0718,0,2.70262,1988.3,-8900.46,-17679.7
1.44946e+08,5.26245,1,2.50905,802.294,845.966,-28713.3
1.45142e+08,18.45,2,2.98928,-2321.36,-2972.95,-27583.1
1.45327e+08,7.67139,1,2.7439,723.529,1433.83,-28286.3
1.45416e+08,77.1522,0,2.80122,6826.65,2343.04,-14263.7
1.45491e+08,7.16556,1,2.90699,-887.134,-1187.9,-28556.8
1.45696e+08,3.99314,2,2.82048,-405.188,-790.377,-28501.2
1.46503e+08,152.182,0,3.00895,27698.3,-5062.36,-13667
1.46841e+08,91.8008,1,2.53998,-14572.6,291.722,-15953.1
1.46972e+08,75.6508,1,2.99489,-299.32,-12037.6,-18571.7
1.47096e+08,27.1736,0,2.89178,-3084.48,556.232,-24092.5
1.47171e+08,87.1564,1,2.9775,-12123.2,4066.55,-15707.4
1.47598e+08,124.179,1,2.92406,-11225.6,23642.6,-28691.3
1.47686e+08,213.362,0,2.98738,4772.88,-17929.3,-10674.2
1.48413e+08,76.684,2,2.67057,8752.58,-13665.3,-28717.6
1.48441e+08,21.3737,2,2.98063,-1880.78,-517.384,-24744.9
1.48528e+08,33.8968,0,2.41243,-1161.61,-6665.47,-26429.6
1.48539e+08,63.2816,1,2.65823,-12529.2,4077.82,-26253.6
1.48707e+08,137.114,2,2.73152,5570.46,-18862.5,-7639.01
1.48751e+08,11.1737,2,2.82742,-10.7809,-2382.96,-29362.6
1.48945e+08,62.5532,0,2.86817,2902.35,-316.489,-15988.7
1.49455e+08,109.244,2,2.55969,-22104.4,2640.57,-22539.2
1.49682e+08,74.5193,1,3.00352,-5172.83,14536.4,-26024.3
1.49824e+08,14.7002,2,2.64345,1843.72,562.127,-26411.7
1.50171e+08,283.672,2,2.55299,17981.8,-6216.2,28010.3
1.50489e+08,82.9886,1,2.38268,-1867.66,16217,-22170
1.509e+08,86.84,0,2.84542,-12268.4,-7349.87,-17563.5
1.51134e+08,73.6029,1,2.80443,3172.11,9771.73,-17180
1.51266e+08,34.5317,0,2.83575,-4941.66,2738.97,-24343.3
1.51388e+08,9.91054,2,2.90514,-112.186,1282.66,-27225.7
1.51389e+08,281.857,2,2.41536,-17007.7,21159.2,24242.2
1.51494e+08,158.671,1,2.76928,-22089.6,-12421.8,-7052.3
1.51565e+08,7.62994,2,3.05915,-1291.82,-1089.23,-28629.7
0,7.56668,2,2.98233,0,0,0
1.5161e+08,32.4718,0,3.0309,1433.38,-4026.91,-23488
1.51646e+08,58.4197,0,2.47217,-10713,2593.04,-23409.3
1.51959e+08,48.6827,0,2.77318,-4988.08,-5856.36,-22084.2
1.52109e+08,2.63231,0,2.98871,144.362,501.511,-28545.9
1.52171e+08,58.9731,1,2.58743,-11448.7,4602.29,-26546.1
1.52207e+08,16.0794,1,2.96622,1362.6,-329.309,-25774.6
1.52439e+08,49.807,1,2.67457,-2083.14,-9385.75,-24712.1
1.52461e+08,35.3761,1,2.44039,-5021.89,1390.96,-23385.1
1.52739e+08,49.3362,2,2.68291,-4603.23,-1319.55,-19574.2
1.53311e+08,30.9763,2,2.65322,3056.97,-5547.85,-26975.5
1.53364e+08,90.2395,0,2.66328,-5398.08,-3548.1,-12668.5
1.53794e+08,229.766,2,2.39139,7007.69,-9599.71,18306.1
1.539e+08,198.016,1,3.005,13945.2,14277.8,7567.26
1.54089e+08,160.415,2,2.51969,-22998.1,19063.7,-15080.5
1.541e+08,173.157,1,2.92711,22840.9,22327.8,-11459.2
1.54178e+08,155.719,1,2.7871,23075.5,8888.47,-7346.41
1.54219e+08,208.611,0,2.66258,14987.6,-18656.1,8079.45
1.54393e+08,8.73109,1,2.51683,-691.713,339.075,-27100.4
1.54402e+08,163.622,1,2.9505,24313.2,16139.6,-10722.5
1.54741e+08,113.55,2,2.55338,6752.31,-6987.2,-6866.83
1.54981e+08,79.6681,2,2.72915,-8988.71,-7924.39,-16993.6
1.54991e+08,65.6707,0,2.64478,12686.4,5799.61,-28148.4
1.55134e+08,48.5697,1,2.92655,-182.729,3580.33,-19276
1.55161e+08,251.631,0,2.61891,-21302.3,7004.48,16569.6
1.55502e+08,9.26527,2,2.38255,479.589,-1380.89,-27434.8
1.55646e+08,80.92,2,2.5295,-1674.16,-5695.56,-12749.4
1.55844e+08,33.3717,1,2.42061,3525.8,3283.85,-23617.1
1.55895e+08,59.529,0,2.5383,-9355.49,2197.18,-20757.4
1.55961e+08,67.2858,0,2.53615,-10352.8,-6021,-21249.8
1.56192e+08,68.6563,0,2.72617,6788.08,12627.4,-26733.6
1.5691e+08,72.0261,1,2.70144,9987.25,-6493.44,-19502.8
1.57159e+08,30.6799,1,2.66412,-5232.1,2136.04,-25531.8
1.57209e+08,269.603,0,2.58149,28800.2,15899.5,17686.5
1.57376e+08,89.6833,2,2.43384,14310,-9275.61,-20448.4
1.57467e+08,190.743,0,2.45242,16979.3,19567.6,474.839
1.57727e+08,33.2298,2,2.55211,-1730.38,6393.29,-26627.5
1.57906e+08,79.1564,1,2.40636,5736.74,955.455,-13114.7
1.57937e+08,6.17844,2,2.80813,-1296.02,-483.982,-29084.3
1.57971e+08,41.4851,1,2.66036,-8174.85,-1714,-26102.6
1.58661e+08,60.3122,1,2.54574,10695.5,5642.05,-24706.9
1.5881e+08,86.7591,0,2.45011,16201.1,-8064.35,-25296.6
1.59194e+08,7.80054,1,2.51424,91.3371,1361.94,-29928.3
1.59312e+08,43.1369,1,2.5457,5719.12,-1520.87,-21914.4
1.59315e+08,16.9301,0,2.51005,-2034.88,-1371.51,-26281.1
1.59493e+08,12.7996,2,2.9202,2184.16,-1088.57,-27641.1
1.59548e+08,66.921,2,2.48288,9664.56,1361.75,-18609.6
1.60219e+08,69.5376,1,2.78437,-10528.9,-718.247,-18634.8
1.60426e+08,40.8968,2,2.64353,6352.98,2718.93,-23704.6
1.60618e+08,14.4932,2,2.69675,-859.549,-188.583,-25907.6
1.60911e+08,7.35828,1,2.46322,247.361,1601.66,-28578.1
1.61271e+08,143.404,0,2.68977,6391.63,29283.4,-24607.5
1.61378e+08,153.275,2,2.69593,14012.8,-25199.1,-14212.2
1.61787e+08,9.09643,2,2.36824,-1842.77,-722.986,-28786.4
1.61938e+08,45.3391,1,2.83826,5420.32,5620.25,-28261.8
1.61961e+08,33.8312,2,2.77846,1603.43,-1993.19,-22163.9
1.62037e+08,211.033,1,2.93317,-4481.3,-27979.9,4922.3
1.62169e+08,9.87891,1,2.93225,-1087,240.381,-27032.9
1.62312e+08,18.2619,0,2.54414,2779.59,841.953,-26177.8
1.62589e+08,28.1919,1,2.66751,-2617.93,-2692.01,-24266.9
1.63082e+08,103.487,0,2.89398,12164.5,-16606.9,-21685.2
1.6311e+08,71.3732,0,2.51442,2770.28,-4393.84,-14647.7
1.63235e+08,79.2857,2,2.90442,-11571.3,1970.36,-16985.6
1.63362e+08,49.2882,1,2.94579,-9526.96,-1206.07,-24857.1
1.63511e+08,192.363,2,3.05967,-6251.72,29641.4,-2379.09
1.63568e+08,11.968,1,2.76729,2169.12,-968.758,-28120.3
1.63745e+08,39.185,2,2.79611,4007.03,-3740.35,-22678.8
1.63828e+08,118.481,1,3.02163,-6589.12,24021.6,-27795.6
1.63863e+08,27.8813,0,2.81156,3928.39,2204.95,-24978.8
1.63905e+08,18.2453,1,3.00808,2842.33,2533.27,-28213.4
1.64052e+08,19.61,2,2.79056,1239.87,-3204.59,-26428.3
1.641e+08,54.6163,1,2.51604,3313.27,-5597.95,-19339
1.64412e+08,11.27,2,2.6104,-1155.81,-591.151,-26769.1
1.64531e+08,140.065,0,2.67139,-15895.2,-11909,-22564.2
1.64686e+08,119.985,2,3.00598,-10502.4,10371.1,-8506.61
1.64724e+08,37.6923,2,2.72871,-780.866,7602.74,-26895.8
1.65143e+08,35.5783,1,3.01462,-3411.69,4906.13,-24285.9
1.65404e+08,204.059,2,2.7849,-11639.7,22305.6,-15406.9
1.65568e+08,143.488,1,2.73773,17954.8,2567.84,-4661.6
1.65798e+08,114.428,0,3.05369,12445.5,-3302.12,-21288
1.65849e+08,70.4273,1,3.00825,-6838.73,-7312.26,-17980.9
1.65921e+08,96.7228,2,2.84735,-4929.81,-17150.2,-18899.7
1.6611e+08,121.607,0,2.81617,-18429.6,10426.1,-14610.6
1.66503e+08,77.7782,1,2.78383,-2443.64,3434.01,-27036.6
1.66529e+08,18.5399,2,2.91286,-2082.04,2277.98,-26446.4
1.66575e+08,48.1895,2,2.5897,-3646.66,-5821.92,-21238.2
1.66638e+08,99.7512,0,3.00144,3973.81,-1080.85,-12462.4
1.66669e+08,35.1449,0,2.38927,4587.67,-5787.17,-27486
1.66883e+08,0.474759,1,2.74854,39.671,104.343,-28743.6
1.67235e+08,1.94033,0,2.39188,-90.0405,-361.863,-28648.1
1.67485e+08,211.456,0,2.47126,7053.76,-3545.37,15188.2
1.67764e+08,47.1215,1,2.62112,5221.48,-5596.58,-22543.2
1.68226e+08,160.176,1,2.85678,-19187.9,27558.2,-25654.7
1.6853e+08,12.0952,0,2.51362,1651.81,1411.58,-27361.2
0,12.2327,0,2.53012,0,0,0
1.68972e+08,4.74789,0,2.65615,1009.41,-141.92,-28451.7
1.69282e+08,107.221,2,2.88761,-1725.81,-9205.17,-16521.7
1.6939e+08,26.7893,1,2.67201,-3315.49,4490.65,-27508.6
1.69429e+08,22.2359,1,2.66586,-1275.07,4569.1,-28063.4
1.69571e+08,60.4987,2,2.84685,-1125.96,-3547.5,-16638.7
1.69657e+08,11.7128,2,2.54362,867.956,-54.7218,-26514.4
1.69912e+08,46.4266,2,2.97877,2641.72,-4904.61,-20796.4
1.69982e+08,25.8694,1,2.9812,-128.926,5501.16,-29289.9
1.70008e+08,74.2275,0,2.98674,13119.4,5011.55,-21963.1
1.70018e+08,58.5794,0,3.04289,-4100.49,9593.13,-22396.9
1.70078e+08,77.9305,0,2.9125,14332.9,-8076.44,-28343.1
1.70134e+08,129.6,1,2.76103,-19075.3,11637.3,-13158.6
1.70374e+08,46.3102,2,2.76169,-3732.28,-5943.08,-21959.1
1.70408e+08,84.9807,2,2.64639,-14785.7,-7188.02,-21468.3
1.70452e+08,142.074,0,2.99822,25192.4,3291.14,-13204.5
1.70631e+08,38.3921,2,2.73597,-6059.78,-3883.18,-25048.2
1.70768e+08,44.8369,2,2.86528,-3687.38,8151.34,-26013.2
1.70927e+08,141.391,0,2.79801,22819.2,14378.2,-16093.7
1.70971e+08,54.0452,2,2.78671,-5807.42,3092.11,-19531.2
1.71143e+08,81.6061,2,2.93565,-5660.84,4824.45,-13390.4
1.7148e+08,63.276,1,2.7819,-7466.24,7088.24,-20282.6
1.7155e+08,101.389,2,2.68432,-1185.81,-13776.8,-12451.6
1.71655e+08,208.101,2,2.54954,-3926.42,-23250,8342.97
1.71939e+08,63.5045,0,2.78966,3510.14,-1991.16,-16054.7
1.71958e+08,194.857,2,2.60877,-7841.65,-14038.6,9077.17
1.72217e+08,8.5992,2,2.8379,-1106.91,-1566.47,-29038.7
1.7223e+08,50.1421,0,2.46187,8311.23,1582.13,-22307.9
1.7241e+08,169.792,1,2.91148,-25340.1,22764.4,-18087.7
1.7246e+08,177.623,2,2.60412,1162.27,-25449.9,-1232.38
1.72581e+08,41.1199,1,2.94269,-8326.79,2586.2,-28656.1
1.72589e+08,71.2638,0,2.66141,-7856.87,4438.74,-16879.5
1.73105e+08,32.9324,0,2.47681,-1674.51,-6463.89,-26888.9
1.73838e+08,172.918,1,2.81456,21004.1,29030.3,-22361.2
1.73885e+08,36.3459,2,2.94777,-6322.78,-4065.9,-27100.6
1.74205e+08,36.0134,1,2.63185,479.898,-5125.8,-23294.8
1.74285e+08,11.0894,0,2.62799,324.535,1377.73,-26940.2
1.74356e+08,56.4592,1,2.95579,4810.63,4822.36,-19129.4
1.74708e+08,95.5899,2,2.52568,-1262.75,-20231.8,-29796.6
1.74889e+08,29.9453,1,3.02799,3119.71,5041.68,-26623.5
1.74956e+08,45.2271,1,2.82195,-3199.11,8986.1,-27578
1.75061e+08,82.2027,2,2.70692,6721.24,6100.38,-14111
1.7527e+08,121.62,0,2.67991,17480.6,-1204.13,-21604.4
1.75434e+08,122.843,0,2.65992,15591.2,-16794.3,-16579.4
1.75564e+08,4.45033,0,2.85458,675.88,-584.207,-28354.5
1.76464e+08,61.7775,0,2.60884,5909.01,2648.18,-17445.8
1.76486e+08,73.6259,2,2.92699,-4282.57,945.012,-13995.5
1.76934e+08,165.552,1,2.81888,23583.9,1953.44,-3313.41
1.77223e+08,46.6697,2,2.39295,4930.92,266.814,-20278.9
1.7749e+08,59.856,1,2.99358,2215.38,-11911.8,-25781.4
1.77565e+08,26.0006,1,2.51586,2795.78,-1842.73,-25457
1.77661e+08,89.7728,1,2.66997,3801.49,-7500.44,-11881.3
1.77757e+08,62.3446,2,2.76412,-11627.9,1440.88,-22795.3
1.77778e+08,54.7035,0,2.49654,2547.01,-1103.43,-17838.1
1.77797e+08,135.592,1,2.68113,15580.6,7843.14,-6197.44
1.77924e+08,0.366392,2,2.89207,22.1904,4.7607,-28782.4
0,0.445999,2,2.12003,0,0,0
0,0.378155,2,2.1238,0,0,0
0,0.421087,2,3.47399,0,0,0
0,0.402869,2,3.27432,0,0,0
0,0.446644,2,3.35802,0,0,0
1.7818e+08,28.2268,2,2.367,3089.97,-266.829,-23746
1.78198e+08,20.2865,1,2.54201,1003.5,3330.34,-26200.8
1.78253e+08,10.7747,1,2.86652,983.561,2113.1,-28746.5
1.78334e+08,107.223,2,2.59211,-20581.6,-8026.87,-23476.2
1.78416e+08,20.2213,0,2.87136,1207.26,1532.42,-25009.1
1.7859e+08,153.574,1,2.40193,-25031.9,11487.7,-11471.4
1.79276e+08,28.8413,1,2.43891,-2096.93,4759.06,-25493.8
1.79455e+08,68.6174,1,2.92506,-9794.01,3042.14,-18627.2
1.79534e+08,87.9594,0,2.64755,2897.77,11009.3,-14164.4
1.79586e+08,9.65624,2,2.46459,-881.14,-1972.35,-28788.8
1.8041e+08,98.5037,1,2.44669,-7547.41,19217.8,-25338.5
1.80426e+08,318.493,0,2.87655,-25169.7,-26315.5,26491.7
1.80581e+08,97.476,0,2.59408,8982.53,17758.8,-23325.4
1.80664e+08,97.3264,2,2.58503,-11161.1,-6213.27,-12657.3
1.80709e+08,1.85767,0,2.68879,118.98,-207.247,-28484.1
1.80825e+08,100.184,2,2.70268,2726.78,-7859.09,-9412.79
1.80924e+08,177.613,1,2.72383,2517.34,-17431.6,2220.93
1.81179e+08,95.8495,2,2.62966,-513.598,-2803.19,-25525
1.8132e+08,139.275,0,2.76316,18231.4,15009.9,-11363
1.81328e+08,187.342,2,2.88729,3572.7,-21058.5,-19514.9
1.81432e+08,151.182,2,2.8736,-29112.5,-8333.62,-19002.1
1.81802e+08,47.0094,0,2.64236,1517.95,-6328.25,-21317.2
1.82159e+08,110.307,0,2.5645,-5156.03,9556.73,-8234.25
1.82253e+08,158.452,0,2.78957,1803.95,16820.2,-91.4411
1.82459e+08,79.6347,2,2.68749,-1408.3,-6023.62,-13179.6
1.82466e+08,15.9326,0,2.53417,1719.26,-667.801,-25965.5
1.82572e+08,135.027,1,2.93682,-21688.4,-3557.38,-10883.6
1.82744e+08,97.2402,1,3.0247,14931.7,11757.7,-21398.5
1.82794e+08,146.618,1,2.64799,21617.6,5268.24,-12622.4
1.82836e+08,149.346,0,2.67963,27930.3,-2704,-14339.8
1.82903e+08,99.3879,0,2.52167,-6883.16,-5619.36,-9802.82
1.83177e+08,85.4088,0,2.63552,8278.21,-5718.55,-13821.6
1.83177e+08,178.527,0,2.74355,-5181.96,16620.7,4494.6
1.83384e+08,106.142,0,2.72151,11588.9,-6896.89,-10961.4
1.83726e+08,16.8829,1,3.0238,2794.8,1337.99,-27118.7
1.83808e+08,45.147,0,2.99242,6033.38,-3360.76,-22269.7
1.84053e+08,69.0965,1,2.71419,10402.9,8179.94,-22751.5
1.84325e+08,273.162,1,2.5891,2483.86,-2112.81,-21770.4
1.84543e+08,32.9893,2,3.0534,5528.42,1456.3,-25038.5
1.84676e+08,47.6994,0,2.38702,7278.82,-2295.67,-22144.7
1.84764e+08,121.463,1,2.40474,-16080.4,-9108.24,-10955
1.84862e+08,25.1619,0,2.97507,-3719.41,-1065.69,-25296.5
1.84884e+08,36.9472,2,2.93495,-1784.56,-2352.55,-23513.1
1.85103e+08,160.289,2,2.41861,-3479.54,1717.89,-18482.7
1.85378e+08,57.0449,1,2.94124,-886.197,-9097.06,-21167
1.85401e+08,75.6923,0,2.99436,8384.91,6976.42,-17231.4
1.85433e+08,49.6132,2,2.64699,-8907.64,-4908.9,-25997.1
1.85447e+08,21.0557,2,2.65329,-2552.33,-342.688,-25153.3
1.85502e+08,31.35,2,2.77202,-852.524,-6642.27,-28406.4
1.85887e+08,157.838,0,2.83652,-13736.5,-7518.06,358.774
1.86013e+08,62.2628,2,2.91666,-6401,-619.224,-17442.4
1.86015e+08,78.789,1,2.75971,-1099.69,4266.47,-26498.2
1.86095e+08,76.1026,2,2.75686,7106.35,-13949,-25081.2
1.86194e+08,11.1217,2,3.05094,1476.32,1108.24,-27501.3
1.86572e+08,60.146,0,2.5829,5985.34,8986.62,-22040.7
1.86617e+08,68.9065,1,2.89266,-4593.22,7831.32,-17484.4
1.86647e+08,75.423,0,3.04173,8764.23,-10393.1,-20679.7
1.86781e+08,113.847,0,2.4796,-20481.4,-9196.21,-20265
1.87009e+08,108.09,0,2.83547,8702.35,16611.9,-15909.3
1.8708e+08,136.456,0,2.65693,12661.9,-5836.37,-3594.76
1.87143e+08,176.721,0,2.40995,673.445,-16082,4925.34
1.87154e+08,91.9846,1,3.02063,3390.79,7043.4,-11186.3
1.87184e+08,60.4682,0,2.40751,-3108.19,9296.82,-20593.1
1.87234e+08,198.564,1,2.77354,11359.2,-21811.6,4888.68
1.87608e+08,174.225,2,3.00387,-25724.7,-14404.9,-7197.16
1.87829e+08,69.5512,0,2.54706,908.055,-3898.67,-14668.3
1.87845e+08,54.5601,1,2.62496,-2355.92,8753.44,-22142.1
1.87961e+08,105.478,1,2.65375,-18550,12479.4,-29238.2
1.88006e+08,65.8989,2,2.49286,-3415.81,11042,-21078.9
1.88067e+08,2.62092,1,2.52185,-424.425,54.4592,-28393.9
1.88642e+08,125.522,2,2.80599,17971.8,-10783.7,-13597.2
1.89029e+08,58.0198,2,2.49242,-1289.33,-10332.3,-22192
1.89157e+08,169.999,1,2.60194,16781.5,11356,816.155
1.89164e+08,106.358,2,2.46146,5998.64,17953.4,-16807.5
1.89203e+08,12.2372,2,2.96736,-9.87161,-913.651,-29716.7
1.89744e+08,31.348,1,2.454,-2118.18,89.7943,-22525.3
1.89876e+08,67.3514,2,2.55565,8471.45,-11501.1,-29196.3
1.90156e+08,58.2806,1,2.59383,4152.84,-6419.28,-19249.9
1.90363e+08,80.9606,0,2.7391,-649.416,-747.681,-27912.6
1.90416e+08,159.161,1,2.81528,-6203.25,3995.07,3838.74
1.90557e+08,25.6137,2,2.41466,539.761,-3492.02,-24669.6
1.90616e+08,6.8125,2,2.82925,-28.3836,1276.12,-28292.5
1.9071e+08,105.346,0,2.81806,18573.8,3908.49,-17241
1.90848e+08,54.612,1,2.8619,-1849.03,11163.4,-26501.5
1.90958e+08,121.735,2,2.87038,9652.98,-19947.4,-18398.7
1.91223e+08,4.95031,0,2.85025,-161.447,1050.64,-28891.9
1.91445e+08,41.8574,2,2.78885,-8617.06,-2142.25,-28335.7
1.91489e+08,150.111,2,2.96904,-3939.8,-26710.7,-13155.9
1.91773e+08,24.5894,2,2.83496,-3502.24,1522.54,-25335.5
1.92146e+08,101.471,1,2.53893,5070.36,7449.22,-9360.47
1.92315e+08,157.3,2,2.38627,20089.1,7129.6,-3337.04
1.92416e+08,105.968,2,2.6829,11461.8,2936.01,-9900.61
1.92474e+08,54.26,1,2.71569,3811.81,10253.7,-25304.3
1.92508e+08,27.615,2,2.5727,-3374.93,-2950.93,-24968.2
1.92612e+08,135.13,0,2.63423,20313.6,-12045.4,-12720.5
1.92855e+08,181.088,2,2.8469,21040.9,-24259.5,-25844.5
1.93056e+08,8.17358,1,2.38321,1629.87,626.669,-28941
1.9341e+08,79.3571,2,2.50204,-10483.4,-6153.61,-17169.7
1.93497e+08,97.5799,0,2.57362,8551.76,17185.6,-21178.7
1.93672e+08,173.642,1,2.85251,-753.406,-23817.5,-1701.64
1.93881e+08,144.099,0,2.82485,-89.9505,9197.12,38.1821
1.94155e+08,26.2027,1,2.91474,-2480.37,1990.17,-24267.3
1.94895e+08,96.7512,2,2.86402,-5513.52,-17067.6,-19061.1
1.95498e+08,167.813,1,2.70288,10659,10797,3117.68
1.96174e+08,39.344,2,2.79539,-1216.81,5462.1,-22743
1.96645e+08,188.941,0,2.40396,-4034.55,-11465.3,9228.75
1.96777e+08,110.017,2,2.75553,4426.58,18469.3,-15637.3
1.96963e+08,167.286,0,2.71577,12847,-24504.1,-6942.69
1.97021e+08,15.0362,2,3.02804,-1162.67,-991.249,-26425.9
1.97103e+08,81.4318,1,2.54452,9714.9,-2631.99,-14905.9
1.97204e+08,88.027,2,2.94661,-320.357,-5355.31,-11134.9
1.97984e+08,39.4031,0,2.45378,6970.09,296.884,-24130.2
1.9916e+08,82.7842,0,2.70556,15673.3,-6847.32,-24892.6
1.99339e+08,15.049,1,2.54976,-1681.28,-2105.73,-27171.1
1.99342e+08,50.6086,0,2.53789,5129.63,558.614,-19415.8
1.99405e+08,91.5955,1,2.64303,3718.07,9409.68,-12314.2
1.99604e+08,63.3528,0,2.37195,5183.54,10913.5,-22908.3
1.99684e+08,42.5865,0,2.86608,8981.83,1202.36,-28627.3
2.00101e+08,74.2691,2,2.56457,-485.641,-7222.91,-14865.7
2.00642e+08,173.549,1,2.91514,27116.7,18179.3,-22079.7
2.01534e+08,45.4133,1,2.43047,-5011.52,4247.93,-21749.3
2.01788e+08,43.8667,1,2.52605,8082.5,910.152,-24383.5
2.01875e+08,275.901,0,2.48859,21146.1,18092.5,19243.3
2.019e+08,112.54,1,2.48416,-11866,-1856.21,-8278.99
2.02025e+08,137.524,0,2.60535,-2000.78,9732.62,-26808.1
2.02178e+08,25.1946,0,2.80162,2832.58,-4562.19,-28718.4
2.02197e+08,34.6774,2,3.04619,-3231.08,-5387.22,-29283.3
2.0232e+08,22.4722,1,3.05737,1204.42,1708.55,-24586.6
2.02365e+08,80.883,0,2.96733,14103.1,-9591.29,-28144.7
2.02592e+08,107.58,2,2.64034,-474.371,-6830.44,-7180.81
2.02792e+08,213.06,1,2.87035,-22346,-4577.12,9612.53
2.02939e+08,48.5452,1,2.80847,-2171.29,-9615.34,-29698.6
2.03639e+08,17.6756,0,2.5668,257.912,3401.32,-27225.5
2.04188e+08,108.226,0,2.4868,-7630.52,20074.6,-20935.6
2.04227e+08,81.1457,1,2.72509,1182.53,9763.32,-14796.5
2.04267e+08,80.0124,0,2.53917,-377.59,8341.68,-14108.3
2.04621e+08,61.9565,2,2.86576,-9325.82,-3029.98,-20199.9
2.05187e+08,42.5072,1,2.88694,746.908,-5290.33,-21698.4
2.05323e+08,24.9296,2,2.85346,-2344.13,-2992.99,-25127.3
2.0534e+08,58.5682,1,2.63108,5882.59,8736.28,-22272.2
2.05508e+08,213.122,0,2.85613,4087.37,9689.52,14700.5
2.05662e+08,120.609,0,2.92719,11781.6,418.896,-6392.82
2.05872e+08,175.126,2,2.97144,22839.9,26016.5,-25028.2
2.06017e+08,10.6614,2,2.38336,2192.06,-22.2061,-28413.1
2.06078e+08,76.4736,2,2.98797,8980.16,-9953.59,-22298.7
2.0608e+08,118.788,2,2.9588,-18834.5,12434.9,-18285.6
2.06225e+08,96.5278,0,2.85233,18388.2,-4163.71,-21089.6
2.06456e+08,99.8005,0,2.65078,9155.64,8662.41,-11914.9
2.06517e+08,34.6416,0,2.7462,3844.37,771.815,-22612.5
2.06533e+08,103.174,2,2.8328,-16170.2,-14245.6,-25639.5
2.06778e+08,130.27,0,2.39259,-18596.8,-1184.17,-8577.77
2.06927e+08,57.9027,1,2.71182,3512.09,-10657.6,-24452.4
2.07224e+08,93.3597,1,2.94302,2087.05,12001.3,-13425.8
2.07382e+08,108.205,1,2.96512,-4135.88,481.915,-6522.43
2.07936e+08,25.0565,0,2.61617,-70.1624,-4968.04,-26932.2
2.08189e+08,217.164,2,2.85908,-23454.5,14316,7571.79
2.0838e+08,190.487,0,2.69818,27979.8,-28904.9,-28554.7
2.08572e+08,57.1504,0,2.94312,5152.39,-3861.14,-18659
2.0859e+08,7.7269,1,2.65367,-632.074,-198.1,-27316.5
2.08951e+08,95.9676,1,2.62911,1475.63,3923.22,-9003.95
2.09522e+08,51.915,0,3.00795,9571.27,1905.25,-23812.3
2.09543e+08,35.0242,0,2.95192,119.984,6083.97,-24651.6
2.0974e+08,4.4991,1,2.66363,-709.567,537.646,-28340.6
2.09884e+08,22.7792,0,2.9978,-983.354,-1928.25,-24568.5
2.10535e+08,247.608,2,2.99804,-975.38,-23391.9,17524.6
2.10631e+08,8.19372,2,2.86938,1273.82,-825.686,-28094.5
2.10784e+08,64.5403,0,2.55249,3195.52,-9722.4,-19752.4
2.10792e+08,22.5641,1,2.78731,359.268,2838.58,-24982.9
2.10919e+08,164.108,1,2.88642,-19687.3,15416.1,-5040.03
2.11206e+08,7.35134,1,2.9464,-3.79627,1656.04,-28909.2
2.1136e+08,27.7948,1,2.42884,-1806.02,1606.4,-23429.4
2.11395e+08,87.1493,0,2.7146,9257.76,13139.5,-19842.3
2.11521e+08,188.507,1,2.80924,-27129.9,-2734.94,4.55906
2.11753e+08,122.253,0,2.98598,6701.65,-4138.78,-4424.69
2.11756e+08,118.345,2,3.02264,-4536.26,-11600.7,-7338.19
2.11994e+08,83.1774,1,2.48138,-5777.66,6752.26,-13612.2
2.12263e+08,40.818,0,3.05248,5199.47,-4000.99,-23268.6
2.12277e+08,22.2312,0,2.6874,-3362,2702.18,-27107.5
2.12843e+08,18.784,1,2.94191,-3950.11,722.779,-28551.5
2.12872e+08,93.0206,2,2.49406,14162.6,8466.79,-18198.4
2.1308e+08,5.26181,1,2.46086,-819.956,776.008,-28444.1
2.13555e+08,133.629,2,2.53545,2665.35,-17249,-6582.55
2.13798e+08,1.89851,1,2.94593,247.141,71.3918,-28534
2.1386e+08,60.8745,2,3.05389,10951.9,1647.55,-22590.6
2.13921e+08,179.755,0,2.91753,-19572.7,21051.2,-4428.22
2.13931e+08,106.678,2,2.63524,-12054.4,-9746.17,-12423.7
2.14001e+08,12.9936,0,2.85102,2526.17,-76.592,-27557.9
2.14191e+08,105.583,1,2.77653,14212.7,-11959,-20302.9
2.14583e+08,130.99,0,2.68379,14043.4,-712.182,-5001.04
2.15141e+08,86.6544,1,2.64043,11180.6,14547.3,-28641.5
2.15386e+08,65.9349,1,2.41738,3981.3,9062.71,-18948.7
2.15492e+08,24.3729,1,2.94823,2534.81,3339.02,-25822.6
2.15547e+08,39.4218,0,2.47542,4486.22,7056.06,-29615.5
2.16117e+08,53.8048,1,2.80393,-3424.06,-10444.8,-26221
2.16762e+08,104.085,2,2.49935,-15838.8,11560.6,-18851.5
2.17186e+08,93.6645,1,2.90185,14748.1,-11543.9,-23028.6
2.17566e+08,57.99,2,2.88324,-322.647,7113.71,-18986.4
2.17591e+08,45.6357,0,2.78681,362.502,-6651.57,-21883.5
2.17976e+08,154.047,1,2.49823,831.226,14690.4,267.818
2.18092e+08,27.821,2,2.41168,1559.55,-5763.18,-29244.3
2.18413e+08,159.5,1,2.65391,2540.25,7903.53,3799.96
2.18585e+08,45.476,2,2.67633,804.961,-2856.6,-19689.1
2.18681e+08,127.501,0,2.63443,11801.7,-10278.1,-6931.69
2.18796e+08,167.302,2,2.87602,-5472.74,-23438.4,-3151.38
2.18956e+08,73.7165,0,2.42883,-7892.5,-12069.1,-22947.1
2.19004e+08,21.1236,0,3.04244,1995.37,-3121.71,-26363.8
2.19066e+08,77.1881,1,2.90674,-3246.25,7869.59,-14989.4
2.19153e+08,30.5071,2,2.6348,3152.13,3438.38,-25373.4
2.19231e+08,48.9582,1,2.69256,-8739.93,-1955.86,-23594.7
2.19303e+08,49.2774,2,2.66763,10186.5,-1842.13,-29847.9
2.19826e+08,65.7837,1,2.46107,-3914.91,3669.18,-15959.5
2.19842e+08,125.171,0,2.48576,10136.4,-24337.5,-26097
2.19859e+08,139.983,1,2.52446,-11224.2,-9380.42,-5375.05
2.19862e+08,99.924,1,2.56165,-2177.71,-11754.6,-11492.2
2.19883e+08,49.3095,0,2.49105,10119.7,-2823.56,-28303.5
2.19903e+08,64.1415,0,2.42324,7534.94,-144.366,-17489.4
2.19931e+08,112.466,2,2.86272,-9201.63,-21687.6,-26227.7
2.20018e+08,75.0463,1,2.57137,9334.97,12645.8,-26551.7
2.20392e+08,85.0482,2,2.59794,-13416.6,-1698.21,-16923.4
2.20478e+08,179.395,0,2.92509,26339.2,12333.8,-4814.63
2.20701e+08,30.8103,2,2.484,636.493,6140.9,-26965.8
2.21335e+08,14.2476,2,2.50198,-2949.57,-79.9631,-27971.4
2.21548e+08,16.4435,0,2.4088,1439.37,-205.938,-25612
2.21806e+08,59.1552,0,2.63053,-5425.69,5496.89,-19035.5
2.21964e+08,80.7804,1,2.56794,-8449.77,-5784.99,-15159.7
2.22409e+08,41.2121,0,2.66038,2722.11,1960.78,-20783.2
2.22565e+08,9.99703,1,2.37236,917.869,1341.78,-27395
2.22827e+08,56.8933,2,2.5521,6231.89,-10370.2,-28801.8
2.23308e+08,66.7849,2,3.03902,-9336.22,-10111.4,-25782.4
2.2352e+08,123.385,0,2.76062,-19350.4,-8321.36,-13710.5
2.23634e+08,34.1253,0,2.4077,685.898,7180.17,-28092.7
2.23813e+08,179.692,0,2.71436,24249.9,-17848.5,-5826.77
2.2401e+08,23.3506,2,2.64551,2896.67,1848.04,-25333
2.24354e+08,73.5556,0,2.84704,-6591.81,-8616.44,-17876.3
2.24425e+08,40.0427,2,2.74993,-5458.91,1448.14,-22568.5
2.24725e+08,205.641,2,2.715,-22681.5,-1601.09,-29559
2.24873e+08,42.9144,1,3.00621,3626.75,6051.77,-23192
2.24957e+08,36.0289,2,3.00234,2438.03,-5833.11,-24594.4
2.25009e+08,9.64744,1,2.78998,822.266,361.227,-26998.7
2.25031e+08,67.5115,2,2.78716,-14202.2,-731.579,-27626.5
2.25185e+08,14.7283,1,2.73357,-2026.04,-224.076,-26446
2.25271e+08,100.705,2,2.76054,-9812.31,18086.5,-23815.2
2.25804e+08,80.5783,1,2.90167,-736.92,11680.8,-16564.1
2.25843e+08,66.2678,2,2.9732,-2930.5,-4088.56,-21736.6
2.26217e+08,37.091,1,2.63546,-3235.73,1922.35,-21905.5
2.267e+08,102.234,2,2.44822,-1258.27,1967.14,-27370
2.26769e+08,24.1524,2,2.83934,-1531.06,-3467.42,-25339.1
2.26907e+08,158.081,1,2.80414,-12445,27802.3,-15323
2.27012e+08,157.625,1,3.05923,-2328.95,19799.8,-11738.8
2.27073e+08,42.7917,1,2.64817,-5508.5,2528.39,-22058.5
2.27298e+08,33.84,0,3.02848,5331.21,1630.11,-24332.2
2.27931e+08,190.743,0,2.52856,8848.85,-12152.9,8599.4
2.28281e+08,1.26483,2,2.55793,-276.4,-2.5289,-28657.5
2.28824e+08,17.9132,0,2.58699,49.9633,-1590.09,-25371.4
2.28949e+08,36.37,2,2.91563,2226.12,4845.75,-23409.6
2.2903e+08,78.2815,2,2.92873,4717.91,8928.43,-15901.2
2.29101e+08,42.9716,0,2.90341,6793.24,3095.71,-23849.7
2.29175e+08,166.753,2,2.69282,11158.4,784.916,4479.9
2.29445e+08,77.0693,2,2.56845,11663.6,-7769.05,-20468.5
2.29769e+08,148.737,2,2.7951,24482.9,-19509.2,-28422.2
2.29945e+08,49.053,0,2.5582,4442.58,-9217.22,-26915.9
2.29986e+08,66.4164,0,2.74423,-1966.72,-10457.2,-19731.6
2.30254e+08,93.233,1,2.73884,16020.9,-3105.03,-18000.4
2.30296e+08,110.683,0,2.74437,8605.43,-15545,-13688.5
2.30319e+08,5.13521,1,2.63179,218.59,603.237,-27895.8
2.30402e+08,15.4872,2,2.61802,-3120.86,-1223.85,-29222.8
2.306e+08,143.147,1,2.94918,-12880.8,-12440.5,-4715.51
2.30603e+08,4.38826,1,2.95203,-779.057,680.049,-28756.6
0,4.35356,1,2.43534,0,0,0
2.30608e+08,96.5827,1,2.84785,9270.5,16617.2,-21593.5
2.30618e+08,191.206,0,2.92579,26234.9,-5346.28,1132.66
2.30901e+08,110.982,0,2.39964,6104.41,-3568.38,-6404.54
2.30958e+08,10.0159,2,2.96229,76.4435,-966.925,-26946.5
2.3112e+08,203.901,0,2.68774,11959,11111.2,10964.4
2.31263e+08,238.949,1,2.8265,15890.2,-3355.93,18356.4
2.31434e+08,69.1514,0,2.44514,769.895,6133.66,-15557.7
2.31877e+08,32.8855,2,2.78662,1773.86,-4425.76,-23740
2.32081e+08,14.1195,0,2.74532,2894.09,-551.795,-27959.5
2.3214e+08,21.7821,0,2.97031,3697.23,1265.11,-26349.7
2.32187e+08,7.73611,2,2.67432,1602.54,-128.835,-28617.7
2.32283e+08,41.4011,2,2.36789,-2915,-5812.89,-22836.5
2.32504e+08,22.2277,1,2.81035,-3597.35,1431.01,-26133
0,22.2817,2,2.87284,0,0,0
2.32856e+08,31.9504,2,2.7499,3872.47,-727.978,-23362.8
2.32904e+08,98.1553,0,2.95424,-9466.31,5731.89,-20959.8
2.32963e+08,52.5013,2,2.86818,4376.5,-9122.94,-24270.3
2.33308e+08,36.5395,2,2.89612,786.198,-7316.45,-26395.7
2.33451e+08,105.265,1,2.99454,5391.72,9870.59,-9807.43
2.33572e+08,44.3372,0,2.77064,844.216,-6355.63,-22007
2.33959e+08,99.0566,2,2.74431,6287.39,19681.2,-29765.7
2.34018e+08,49.1991,0,2.72644,2288.78,3384.9,-19284.6
2.34029e+08,110.002,0,2.44284,7214.29,-13026.3,-10920.7
2.34041e+08,25.5415,0,3.00365,2882.73,4451.56,-27693.4
2.34208e+08,45.0557,1,2.46829,-8240.96,4984.69,-28583.3
2.3429e+08,124.57,2,3.01343,-5969.32,-17321.6,-20917
2.34327e+08,22.796,2,2.46907,-2170.03,-2144.19,-25040.3
2.34351e+08,17.8589,0,3.01779,2455.09,-2119.85,-26815.5
2.34354e+08,128.405,0,2.57981,21301.4,-9876.1,-15100.8
2.34421e+08,185.481,1,2.86167,28931.2,24913.4,-20881.2
2.34829e+08,25.2091,0,2.57584,5305.83,1184.73,-28549.7
2.34832e+08,98.6537,1,2.76694,-16014,-10885.4,-21368.8
2.34854e+08,97.4289,1,2.6951,-10739.7,14911.6,-19457
2.34858e+08,176.854,1,2.86378,-12538.7,-23417.9,-2858.07
2.34892e+08,52.216,0,2.97926,375.357,-9193.34,-22880.3
2.35147e+08,1.07431,1,2.78584,-111.362,292.906,-28746
0,1.06133,1,2.42296,0,0,0
0,1.02512,1,2.49181,0,0,0
2.35738e+08,337.947,1,2.96707,25537,19526.4,10949.5
2.35778e+08,7.88305,0,2.82125,983.807,-1374.79,-29210.4
2.35916e+08,74.9015,2,2.85788,15586.9,1919.55,-28392.4
2.35931e+08,158.161,0,2.51707,3895.46,-22157.6,-4080.71
2.36052e+08,20.9197,0,2.85659,1759.05,-1490.58,-25034.5
2.37027e+08,12.8191,1,2.62334,1029.74,2299.43,-27675.4
2.37241e+08,78.2125,2,2.69974,5680.81,9028.8,-16322.9
2.37579e+08,81.907,2,3.0399,-8678.63,-7952.61,-16296.2
2.37622e+08,8.03294,1,2.63513,-585.342,-227.779,-27247.9
2.3795e+08,97.0894,0,3.01393,18308.7,3745.72,-20554.4
2.3811e+08,100.403,2,2.54541,11323.1,-290.248,-10894.2
2.38214e+08,14.4737,0,2.87613,1788.27,1591.82,-26841.8
2.38236e+08,177.815,0,2.83996,26727.4,22993.9,-16173.4
2.38848e+08,41.7438,0,3.02827,7152.72,1862.23,-23991.7
2.38866e+08,81.2629,1,2.78388,-4343.24,5522.08,-13198.2
2.38922e+08,80.8125,1,3.04538,-12057.8,4719.29,-17881.6
2.3899e+08,81.183,2,3.00569,-3595.75,-10924.1,-16194.9
2.39035e+08,14.5367,2,2.97263,-845.51,2153.89,-26889
2.39067e+08,20.5367,1,2.46876,556.291,1441.87,-24730
2.39285e+08,50.3499,0,2.74762,-4688.29,6125.3,-22092.6
2.39322e+08,15.2011,1,2.58493,1509.03,-1515.08,-26463.5
2.39499e+08,50.7276,2,3.06142,-5528.1,-2373.95,-20013.3
2.39931e+08,8.79753,0,2.40606,369.287,1627.84,-27945.2
2.40244e+08,93.6673,0,2.74644,-4339.92,4054.85,-20334.4
2.40287e+08,104.961,2,3.05845,-15292.5,-6903.51,-14548.6
2.40466e+08,17.4925,1,2.9303,37.3352,3740.44,-28985.2
2.4056e+08,3.22917,0,2.6942,-553.19,-94.3428,-28568.2
0,2.61776,2,2.95528,0,0,0
2.40848e+08,110.254,2,2.79487,9165.69,-3018.37,-7729.53
2.41123e+08,130.248,2,2.48496,-4710.66,20806.3,-11457
2.41297e+08,233.299,0,2.75847,-11464.6,-23365.8,12677.5
2.41308e+08,33.0411,0,2.95702,-2610.65,-6083.54,-26779.6
2.41458e+08,15.6631,2,2.47589,-2331.73,-1897.39,-27227.5
2.41833e+08,130.28,1,2.6832,-13068.1,-7012.77,-5688.69
0,130.28,1,2.6832,0,0,0
2.42003e+08,20.4237,2,3.04396,-2077.58,-935.878,-25156.7
2.42055e+08,146.78,2,2.87238,-24522.1,5192.71,-10855.1
2.42141e+08,84.6961,1,2.53562,-17120.1,5085.03,-26634.4
2.4223e+08,0.481403,1,2.66845,-11.5265,163.019,-28752.4
0,0.57772,1,2.88944,0,0,0
2.4226e+08,240.79,1,2.67474,655.537,18559.3,17130.3
2.4228e+08,151.44,0,3.05676,-7614.06,9554.27,102.539
2.42337e+08,54.3226,0,2.64123,9530.35,-6537.23,-28293.2
2.42455e+08,12.1335,2,2.73077,-1164.59,-1598.48,-27078.9
2.42882e+08,238.46,2,2.80374,-28284.1,-15773.8,9521.94
2.43125e+08,12.4408,2,2.97724,1396.63,-1517.89,-27226.7
2.4323e+08,152.5,2,2.93791,28851.9,-13008.6,-23987.7
2.43303e+08,33.0384,1,2.40813,1101.97,6771.9,-27136.1
2.43529e+08,64.2534,0,2.58628,10287.2,-5450.01,-21746.4
2.43722e+08,1.60986,1,2.57276,18.5635,422.902,-28909.4
2.43803e+08,57.4666,2,2.74752,-11973.3,-1920.55,-28164.4
2.4406e+08,67.3306,0,2.50419,-4410.09,-5932.46,-16680.4
2.4435e+08,65.5116,1,2.82225,12429.5,-3458.91,-24109.7
2.44494e+08,168.712,0,2.60883,-24357.5,-3446.55,-3117.49
2.44526e+08,99.2677,2,2.57474,3621.02,-5565.38,-8922.66
2.44543e+08,11.1268,2,2.54424,-2246.29,-714.199,-28203.2
2.44671e+08,23.906,0,2.83078,2640.87,-4330.81,-28694
2.44709e+08,41.1754,1,2.79156,-1127.84,8698.99,-28574.5
2.44852e+08,28.3228,1,2.4913,5133.06,610.848,-25802.1
2.45374e+08,34.8283,1,3.01618,3097.9,2817.27,-22820.6
2.45419e+08,91.2246,1,2.57249,11938.3,15107,-27005.2
2.46011e+08,11.1406,2,2.94008,-2055,376.519,-27744.3
2.46383e+08,15.5122,1,2.72744,-1249.67,1555.82,-26175.2
2.46481e+08,190.084,2,2.49907,-11101.2,13256.9,7418.55
2.46525e+08,62.0949,0,2.81919,5754.1,8438.31,-20638.9
2.4672e+08,90.0609,0,2.40297,14131.3,10010.2,-20678.9
2.46885e+08,40.9972,2,2.54188,1428.01,-1587.4,-20437.4
2.4694e+08,149.198,2,3.05506,9111.2,-18085.7,-5003.97
2.46976e+08,11.4787,2,2.90832,1687.53,-1737.51,-28372.3
2.46989e+08,29.7525,1,2.67107,-4701.56,3425.1,-26297.5
2.47082e+08,23.9256,2,2.85325,2562.22,-206.86,-24511.3
2.47483e+08,46.1798,2,2.65869,-3961.37,-621.581,-19909.4
2.47609e+08,15.1085,2,2.43141,-1044.01,-1295.96,-26035.4
2.47635e+08,96.2177,2,2.90319,-17207.9,-10049.8,-25053.8
2.48034e+08,185.47,2,2.76699,-4972.24,-28395.2,-2421.33
2.48043e+08,34.2543,2,2.82037,-3123.99,1472.12,-22492.6
2.48054e+08,41.8393,2,2.96847,4213.13,-7194.43,-25936.2
2.48056e+08,82.0615,0,2.66748,5609.75,13847.8,-19992.8
2.48485e+08,10.2838,0,2.50899,-677.203,589.392,-26873.4
2.48497e+08,22.269,1,2.79263,-1269.88,-1652.98,-24647.9
2.4852e+08,20.086,1,2.60843,-541.542,1325.9,-24822.6
2.4878e+08,119.321,0,2.47522,-1275.24,12608,-6996.42
2.48965e+08,162.018,1,2.99378,-25822.5,-9621.85,-8939.34
2.49023e+08,163.518,2,2.71188,22351.4,19426,-11358.6
2.49197e+08,47.1337,2,2.60394,9420,94.2573,-25692
2.4934e+08,75.3922,1,2.57717,-5644.63,14993.1,-28042.6
2.49372e+08,111.322,0,2.90598,16992.7,-11780.8,-17775
2.49492e+08,30.0759,2,2.94898,-5114.75,-3816.31,-28272.3
2.49736e+08,92.8497,1,2.38202,-10693.5,-7837.28,-14333
2.49765e+08,4.11821,0,2.44402,809.696,-518.736,-28657
2.49796e+08,61.8165,2,2.47383,9970.72,-3491.02,-21102.4
