#class tools::wcsv::ntuple
#title time
#separator 44
#vector_separator 59
#column double eventID
#column double t(ns)
#column double copynumber
#column double energy(eV)
#column double x(mm)
#column double y(mm)
#column double z(mm)
65210,111.226,2,2.80454,416.632,-23316.2,-29161.6
84891,155.389,1,2.70038,-21474.4,13332.1,-7865.29
128794,64.7802,1,2.92752,-8765.93,8220.98,-22372
170248,22.2003,0,2.95371,1378.12,-826.114,-24356.4
208166,39.8243,1,2.64329,-5682.4,225.074,-22583.7
424943,15.4492,2,2.98185,-3084.04,-506.483,-28252.3
555623,12.9132,0,2.76303,719.763,-1932.26,-29866
557894,97.4286,1,3.02599,6476.94,19307.8,-27498.4
569252,115.103,2,2.76406,14615,-18901.5,-25242.3
799331,78.1809,1,3.00613,-15081.1,6485.83,-28091.2
813422,76.2283,2,3.05545,8854.01,106.813,-17984.4
863611,99.9465,1,2.99898,11651,15627.3,-22120.5
1.00496e+06,4.77829,2,2.76095,-493.878,-400.959,-28013.9
1.01968e+06,23.7442,1,2.83214,168.115,2077.98,-24329.7
1.02004e+06,90.8447,0,2.67743,8582.09,7898.24,-13685.2
1.26517e+06,154.997,2,2.60932,3972.73,2463.05,-25839.9
1.29382e+06,33.2526,0,2.45057,877.556,3947.47,-23078.9
1.58291e+06,102.833,2,2.57119,14088.4,8303.54,-14582.7
1.84428e+06,10.4157,0,2.91791,2265.72,-619.714,-28665.2
1.8769e+06,96.3658,2,2.38643,11501.7,-3632.48,-12390.6
2.01346e+06,266.186,1,2.93275,-23091,9162.62,11350.8
2.13058e+06,54.4184,0,2.94229,6656.63,-3011.81,-19993.4
2.17922e+06,110.418,2,2.69017,-4808.14,-20589.3,-18954.3
2.20931e+06,41.7705,1,2.91937,6624.43,-3876.97,-24671.2
2.32249e+06,146.466,2,2.63596,13218.5,-8213.54,-19387.8
2.41725e+06,133.467,0,2.60537,-3368.44,-14339.7,-4782.12
2.49252e+06,47.5288,1,2.96966,7247.58,1910.48,-22243.1
2.49936e+06,37.0008,1,3.02918,5340.39,2557.59,-23869.2
2.61359e+06,12.0245,1,2.68027,-28.0076,1374.79,-26588.1
0,12.0229,1,2.37052,0,0,0
2.75245e+06,7.73996,2,2.94369,471.197,-1196.3,-27750.5
2.81722e+06,164.237,0,2.41879,21601.6,24316.2,-17123
2.86022e+06,116.971,0,2.71972,-3465.13,16410.7,-10744.9
2.91948e+06,131.816,1,2.92562,-7957.69,-12455.7,-5466.06
2.92416e+06,94.4094,2,2.43229,6068.13,-12438.5,-14373.2
3.00204e+06,97.9318,0,2.90019,15646.7,9738.08,-19707.2
3.06978e+06,48.1241,2,2.9868,-3664.22,-7239.26,-25937.1
3.17907e+06,39.4707,0,2.55371,7841.71,-2412.48,-26805.7
3.192e+06,92.1126,1,2.79178,2231.87,3108.88,-20339.4
3.24074e+06,92.4811,1,2.59165,-383.443,16705.9,-18498.9
3.28022e+06,195.352,1,2.8847,-15746.6,-2769.47,8993.7
3.30301e+06,185.275,1,2.42185,22309,5943.62,2806.63
3.48965e+06,91.9495,0,3.04328,14930.5,-8375.86,-19898.3
3.51591e+06,94.2128,1,2.45254,2599.17,19860.5,-29357
3.68318e+06,124.111,0,2.95145,15789.8,9854.84,-10331.9
3.71006e+06,180.817,0,2.84394,-20077.9,-24067.3,-7381.16
3.74086e+06,59.4791,0,2.75741,-3506.75,-4036.91,-17579.7
3.84048e+06,81.5264,1,2.896,-14896.4,-4803.86,-21657.8
3.91419e+06,3.16672,0,3.02688,29.9085,647.397,-28983.6
3.92378e+06,125.031,2,2.99695,-12254.5,-19939.4,-16788.3
4.16254e+06,45.9521,1,2.46141,-5729.54,2957.02,-21506.4
4.18311e+06,32.1388,2,2.8339,2016.49,-4772.45,-24485.1
4.2113e+06,53.045,0,2.38927,-3123.32,-4353.84,-19009.9
4.29498e+06,45.7602,2,2.55729,-6497.12,-3507.35,-22678.6
4.31344e+06,32.4621,0,2.66345,3338.24,-4422.5,-24743.8
4.3953e+06,25.0202,1,3.01296,-5091.08,-1648.83,-28725.9
4.66303e+06,198.536,2,2.88248,-25112.7,-22938.3,-4596.54
4.81905e+06,39.199,0,2.56333,-4864.92,-4188.85,-23604.9
4.95802e+06,15.7587,2,2.42505,-273.764,-1454.45,-25678.6
4.96447e+06,31.9249,2,2.74281,2191.82,-6296.77,-28919.1
5.1511e+06,9.94437,0,2.99466,-798.439,-871.281,-27659.5
5.39016e+06,220.137,1,2.65319,21938.1,13944.3,9664.72
5.41285e+06,30.8854,2,2.61318,-1407.88,5441.22,-25621.4
5.50568e+06,101.032,2,2.58878,14242.7,-8673.25,-15743.8
5.83999e+06,217.575,2,2.78407,7777.16,-28646.1,5917.62
6.15427e+06,71.442,1,2.80033,7870.79,557.17,-16138.5
6.18072e+06,9.25356,2,2.46875,-1350.64,-598.395,-27503.5
6.23092e+06,31.3042,2,2.63201,-6168.05,-166.706,-26309.2
6.30112e+06,45.3672,2,2.98032,-7341.06,-6177.46,-29501.2
6.60446e+06,59.8868,2,2.39187,1254.95,-4138.52,-16919
6.62105e+06,43.5261,2,2.38927,5795.21,-7193.15,-29370.2
6.63021e+06,27.9554,0,2.89234,-3990.98,-609.948,-24637.3
6.65664e+06,98.1731,2,2.59803,16754.8,10566.7,-26074.3
0,98.4471,2,2.59803,0,0,0
6.65828e+06,142.697,0,2.49745,-5559.8,29151.5,-23421.8
6.67559e+06,10.5077,2,2.9084,-1240.21,-620.4,-27198.2
6.72982e+06,2.43477,0,2.67686,577.896,-101.191,-28714.4
0,2.43874,0,2.62423,0,0,0
6.86782e+06,87.261,0,2.36847,1735.33,-18031.2,-25050.8
6.88411e+06,48.7373,1,2.38649,7086.56,-6716.01,-25499.4
7.03937e+06,16.4614,2,2.85844,179.683,-3516.48,-28761.9
7.27094e+06,85.9851,0,2.67962,-3769.46,7180.36,-12630.3
7.29892e+06,38.7336,0,2.60235,3620.54,-7232.4,-27944.4
7.34036e+06,6.34614,1,2.73871,-186.083,-997.541,-27925.1
0,6.33679,1,2.59309,0,0,0
7.545e+06,180.141,0,2.62823,25150.8,-27879.2,-22615.7
7.65322e+06,129.807,0,2.56463,26713.6,127.127,-22157.5
7.66499e+06,20.064,1,2.87192,-1381.05,260.587,-24780.3
7.91738e+06,40.5754,0,2.95012,3163.73,-7616.06,-26552
7.96634e+06,61.5575,0,2.91358,-2556.05,-5127,-17318.5
8.11915e+06,180.319,0,2.96277,4334.76,-21860.1,1714.92
8.12663e+06,66.5283,1,2.87871,-3874.99,9804.3,-19724.3
8.18308e+06,108.954,0,2.72511,9067.73,-7164.86,-8949.71
8.20896e+06,163.783,1,2.5073,17800,-1491.54,-8511.14
8.21653e+06,28.1004,1,2.83406,2368.83,4550.54,-25784.7
8.22191e+06,130.534,2,2.9978,11245.3,-20054.5,-14015.4
8.24047e+06,62.3364,0,2.75577,298.636,-966.871,-27412
8.29225e+06,14.7278,1,2.67931,2516.94,69.1538,-27315.7
8.3087e+06,144.877,0,2.91183,-2039.14,-29143.1,-20796.7
8.34752e+06,23.5937,0,2.44765,-2823.48,4096.67,-28404.9
8.75965e+06,305.106,2,2.99333,-2069.72,243.93,-26097.3
8.79813e+06,11.2841,2,2.45042,1657.39,-869.388,-27319.4
8.85947e+06,24.9501,0,2.41937,-3743.76,-3477.57,-27642.8
8.86113e+06,85.9907,1,2.72208,-15056.8,8240.33,-22449.6
8.92295e+06,38.3397,1,2.84743,-1701.11,6571.62,-24351.9
8.9834e+06,23.6622,1,3.03666,-3966.63,2491.81,-26922.5
9.00886e+06,114.785,0,2.86281,12859.2,-15620.9,-27722.3
9.05377e+06,145.645,2,2.61278,-17621.9,-11632.7,-6250.41
9.15365e+06,19.0542,1,3.00566,752.952,3543.3,-27029.5
9.1765e+06,10.4613,0,2.48151,-173.809,2076.11,-29557.3
9.43631e+06,60.1055,0,2.87504,11147.6,-6243.25,-29149.2
9.70492e+06,17.8598,2,2.87951,3130.52,-1244.89,-28542.7
9.78417e+06,10.4124,2,2.92532,1373.19,705.004,-27435.9
9.80894e+06,2.79305,2,2.50235,199.278,-434.595,-28385.9
0,2.78692,2,2.9952,0,0,0
9.85155e+06,13.1659,2,2.67708,-643.426,-2709.9,-29569.6
1.00733e+07,50.5089,0,3.01713,8108.85,-6597.97,-26793.1
1.01592e+07,31.3472,2,2.90414,5574.78,1381.23,-25644.6
1.03082e+07,83.9347,2,2.71122,11361.6,-12715.6,-24164.2
1.03684e+07,65.7559,1,2.36301,2920.39,4686.91,-16212.5
1.04821e+07,36.6961,2,2.97667,4578.19,3963.04,-24092.9
1.05277e+07,44.8995,1,2.95486,2181.27,-3674.35,-20491
1.0596e+07,2.40396,2,2.53048,-205.253,-235.374,-28379.2
0,2.78968,1,2.37441,0,0,0
1.06023e+07,13.2434,1,2.91792,-1386.76,2547.86,-28425.1
1.08309e+07,33.6735,2,2.99363,-427.492,-5306.73,-24046.2
1.09073e+07,70.0737,0,2.4027,-11144.3,-8046.43,-23503.4
1.10731e+07,181.447,1,2.55279,-23320.3,7637.25,693.262
1.11111e+07,7.39208,2,2.38022,788.597,574.285,-27698.7
1.11474e+07,186.598,2,2.88998,9832.01,27156.9,-17750.7
1.12693e+07,114.619,2,2.41461,-21102.8,-9741.55,-21725.8
1.12802e+07,58.8567,1,2.4443,9087.18,5225.94,-22088.3
1.13633e+07,63.6678,2,2.40431,9266.19,-2291.52,-19316.3
1.14391e+07,27.3271,0,2.69743,-431.66,4514.04,-25242
1.14831e+07,101.386,2,2.7211,-140.795,-8435.81,-27106
1.14853e+07,76.2926,1,2.51018,-1133.41,15899.7,-25696
1.15038e+07,72.2992,1,2.50048,-9143.54,6856.38,-25716.5
1.1529e+07,2.50088,0,2.83544,416.986,-440.134,-28854.8
1.17855e+07,11.739,1,2.41764,482.614,-2377.33,-28863.6
1.1799e+07,62.7879,2,2.52849,-1050.05,-8318.14,-18262
1.18114e+07,31.2688,0,2.51089,-480.975,-2515.15,-23238.6
1.18301e+07,3.80608,0,3.00597,146.451,772.823,-28652.5
1.1869e+07,25.3276,2,2.46544,-2056.35,2265.35,-24600.2
1.19081e+07,117.631,1,2.87152,-18882.8,12204.4,-18457.5
1.19083e+07,32.5747,1,2.563,5879.85,2032.52,-26288.7
1.2031e+07,46.4608,0,2.6857,9857.56,395.174,-29805.3
0,46.6982,0,2.96221,0,0,0
1.21282e+07,132.3,0,2.8574,4852.77,-10405.5,-3479.35
1.21392e+07,117.651,0,2.44571,-213.265,-21274.2,-16036.1
1.21563e+07,11.1153,0,2.98127,-82.8881,1483.2,-27086.5
1.22107e+07,20.9128,0,2.91167,2067.95,3695.76,-28430.5
1.24539e+07,4.4163,2,2.71494,-472.238,-145.235,-28051.9
1.24921e+07,29.6471,2,2.6672,1533.95,-5434.01,-25868.8
1.25298e+07,0.965003,0,3.06014,286.232,-118.464,-28793.3
0,0.95506,0,2.79819,0,0,0
0,0.95256,0,2.81808,0,0,0
1.2537e+07,25.1156,0,2.5652,-3488.11,3819.22,-27739.2
1.25713e+07,20.3484,2,2.72611,-3077.33,-1459.87,-26038.2
1.26118e+07,64.2676,0,3.00443,5918.77,-11756.7,-25866.7
1.2738e+07,146.323,0,2.80942,28805.8,9232.46,-23766.6
1.28842e+07,40.679,1,2.57803,5303.77,2184.27,-23148.8
1.29918e+07,64.7084,2,2.86593,-781.224,-6132.71,-16601.7
1.3169e+07,110.247,0,2.94669,8415.04,-9692.67,-9546.27
1.32803e+07,174.839,1,2.66043,-28973.6,22488.4,-24256.9
1.33417e+07,208.638,0,2.50958,4427.46,11176.6,13671.3
1.3414e+07,13.6924,0,2.73654,-2262.52,-516.126,-27220.9
1.35068e+07,54.966,1,2.76005,-3551.65,6225.56,-19673
1.35955e+07,70.8632,2,2.77611,6156.4,-1990.73,-15407.4
1.35961e+07,147.206,1,2.69532,13309.1,13689.2,-4370.17
1.36193e+07,29.8654,1,2.46861,1861,3999.91,-24239.4
1.36675e+07,35.3046,0,2.40686,2243.6,-3238.82,-22424.9
1.36809e+07,146.316,1,2.57791,9878.9,603.521,436.507
1.36955e+07,21.7798,1,2.87635,1332.24,2897.96,-25495.7
1.4058e+07,129.699,2,3.04578,-14786.8,-14051.1,-20332
1.42956e+07,41.2281,1,2.4138,143.185,3099.27,-20650.2
1.4296e+07,9.1094,2,2.67896,1043.4,-1702.9,-29300.9
1.47961e+07,49.9204,2,2.98085,2161.27,-7544.04,-21860.3
1.49192e+07,85.0796,0,3.01177,15129.5,8847.53,-25072.8
1.49742e+07,117.166,2,2.39268,-8888.2,-22645.9,-23598.2
1.51682e+07,167.058,2,2.56675,-15228.4,-6216.81,2383.96
1.53232e+07,122.322,0,2.91246,-3960.2,-14147.5,-7710
1.55859e+07,78.4058,2,2.62531,904.795,-9286.26,-15086.8
1.57665e+07,73.4231,0,2.37581,14335.3,6003.93,-27049.8
1.57942e+07,5.44826,2,2.97612,-219.473,-1228.85,-28612.7
1.58266e+07,62.6675,1,2.90404,598.147,5586.91,-16864.3
1.58634e+07,152.902,0,2.42961,15560.4,19940,-8658.66
1.58947e+07,79.5599,2,2.61269,-2968.61,-2526.93,-26719.3
1.59841e+07,66.8819,2,2.68084,-12644.1,5065.39,-25459.1
1.59951e+07,82.9331,0,2.86468,9121.97,-10131.2,-17883.7
1.60546e+07,25.0973,1,2.87672,-2308.19,2916.57,-24997.8
1.61947e+07,29.5738,2,2.4209,-5137.09,-2639.58,-25837.5
1.62598e+07,53.6022,1,2.452,-8399.89,4899.6,-22854.5
1.63142e+07,50.2482,2,2.55182,673.405,-5219.96,-19528.6
1.63305e+07,238.642,1,2.88161,-26551.2,20557.6,8239.22
1.65088e+07,260.418,2,2.86062,-4659.39,-9396.31,-19370
1.65171e+07,50.9214,1,2.89186,1340.56,-10451.8,-27267.3
1.65352e+07,171.023,0,2.65279,10150.1,22834.7,-3984.95
1.66026e+07,168.632,2,3.00416,828.933,17540.2,-5646.33
1.67566e+07,153.168,0,2.68763,-15572.1,-9974.45,-2363.07
1.67676e+07,46.7697,2,2.79492,-6605.53,-2711.5,-22010.2
1.68753e+07,35.4018,0,2.81829,-14.7017,-7368.67,-27543.4
1.69647e+07,31.6347,1,2.53596,-3791.35,-2094.99,-23707.8
1.70219e+07,194.565,0,2.91596,-18959.6,2614.97,7289.02
1.71706e+07,7.21573,2,3.01278,-1178.13,741.744,-29034.7
0,6.7111,1,2.88392,0,0,0
1.7344e+07,124.889,2,2.54788,-13630,-17486.3,-14114.6
1.73928e+07,53.3232,2,2.86002,9944.97,1810.22,-23945.9
1.75996e+07,25.4606,0,2.55337,3693.96,-3861.6,-27672.4
1.78364e+07,120.154,0,2.77838,-5593.53,11203.4,-8716.44
1.79699e+07,10.0574,2,2.55612,-1653.83,1246,-28275
1.80751e+07,170.31,2,2.47341,15469.4,-25019.8,-7978.83
1.82718e+07,17.7918,0,2.5759,-1646.07,-1712.3,-25861.8
1.8293e+07,19.3267,2,2.51393,-2248.65,2657.71,-26731.9
1.84719e+07,28.0761,1,2.6598,-2472.21,5442,-29918.9
1.85708e+07,3.72653,1,2.94455,-706.792,-315.063,-29064.2
1.86201e+07,63.7899,1,2.59389,10875.6,2758.67,-21326.7
1.87632e+07,243.027,0,2.78146,21368.9,-1310.85,17630.2
1.87829e+07,119.85,0,2.64088,11117.1,12646.2,-9893.98
1.87932e+07,30.9863,1,2.72241,4837.76,3886.88,-26690.5
1.87974e+07,76.972,0,3.05615,3486.13,-1960.78,-13065.1
1.88131e+07,156.11,0,2.76445,-24170.6,-10882.8,-9591.35
1.9035e+07,61.3681,0,2.39919,9189.66,9321.3,-28447.8
1.91515e+07,203.118,2,2.77321,-26399.5,22062.7,-3402.68
1.9348e+07,33.9974,0,3.03175,6010.47,3908.13,-28745.4
1.94671e+07,37.0213,2,2.93166,-1839.39,-2499.52,-21649.2
1.95384e+07,5.67498,2,2.55255,-532.093,-631.505,-27882.3
1.96855e+07,144.598,1,2.75981,-6016.61,3587.4,-3284.51
1.97033e+07,8.77564,2,2.81651,1773.99,-413.927,-28621.2
1.98324e+07,47.6606,1,2.92436,-1562.75,9608.82,-26803.9
1.99808e+07,225.371,2,2.54221,-24453.7,12837.5,9833.16
1.99841e+07,71.4165,1,2.54598,1742.89,7416.97,-15789.1
2.00649e+07,57.4266,0,2.87692,-1761.34,-7516.66,-19459.5
2.00731e+07,88.7879,0,3.02198,1805.08,2832.04,-10534.5
2.00855e+07,73.0044,1,2.68045,-13843.4,-338.332,-22530.7
2.00857e+07,134.883,1,2.56915,-14724.1,18383.9,-14498.9
2.01855e+07,75.4123,1,2.76367,2701.83,5827.95,-14453
2.02476e+07,62.9402,1,2.41887,7388.29,2459.49,-18365.9
2.03275e+07,9.82321,1,2.36287,-2074.88,877.796,-28683.9
2.03643e+07,120.345,0,2.90674,7872.98,17498.9,-12340.3
2.06838e+07,63.5607,0,2.84404,-2077.58,11290.7,-22272.2
2.0759e+07,31.511,1,2.65771,4083.83,-4555.21,-26523
2.07722e+07,50.0508,1,2.83397,-6969.66,1903.96,-21044.7
0,50.0963,1,2.77082,0,0,0
2.08739e+07,152.653,0,2.57618,9770.63,-8069.14,829.893
2.08973e+07,70.0908,2,3.00508,-3048.86,-9453.38,-17945.6
2.10152e+07,48.6701,2,2.5395,4724.12,147.168,-20851.5
2.10236e+07,14.1332,2,2.51499,-963.939,2585.33,-27921.9
2.10785e+07,79.4933,1,2.73065,-12424.7,-6468.51,-19851.5
2.12525e+07,34.4194,2,2.69159,1591.19,-5529.1,-24331.9
2.15784e+07,125.507,1,2.94879,13468.9,22492.3,-26426.1
2.16551e+07,159.371,2,2.6885,-3631.7,11152.9,2549.17
2.17373e+07,110.573,0,2.41639,-7295.53,-15993.4,-13393.1
2.18121e+07,101.716,0,3.04432,17879.7,-1801.1,-17322.5
2.21744e+07,4.2385,0,2.92218,876.88,481.699,-29041.6
2.21837e+07,115.215,1,2.71262,-23332.2,909.268,-22153
2.21955e+07,100.91,2,2.51622,-8370.92,-19702.8,-27876.3
2.227e+07,5.8156,1,2.62819,678.54,-650.321,-28209.2
2.238e+07,118.513,2,2.4014,24557.7,-1139.1,-24491.3
2.24966e+07,44.0167,0,2.6283,7306.47,928.786,-23038.6
2.25206e+07,122.464,0,2.89964,5060.72,-8620.62,-5101.86
2.27081e+07,164.005,2,2.43091,-29686.7,-277.887,-10916.2
2.27089e+07,101.864,0,2.63479,11625.9,-15208.1,-19358.7
2.27301e+07,120.088,0,2.65366,17228.3,5094.77,-10837.5
2.28932e+07,82.3176,0,2.66159,9557.17,1277.87,-14537
2.29929e+07,41.1886,0,2.91543,5506.43,5662.74,-25129.7
2.3033e+07,4.73438,1,2.99676,442.141,889.813,-29362.5
2.30392e+07,44.9344,2,2.88308,-2788.63,-6312.27,-22438.6
2.30551e+07,76.86,0,2.63958,8400.33,-13711.2,-26446.7
2.31717e+07,48.8305,0,2.86674,9484.91,4102.77,-28442.4
2.32988e+07,33.1875,1,2.54385,4654.73,-4186.72,-26087.9
2.33651e+07,109.295,0,2.83013,1665.19,-16412.5,-12687.6
2.35943e+07,80.2553,1,2.4806,6902.42,-5517.93,-14406.3
2.35963e+07,48.4415,1,2.93815,-1944.9,-6619.61,-21442.9
2.3673e+07,64.4432,1,2.41839,-8578.29,-8666.43,-22985.3
2.37756e+07,182.256,0,2.44591,-12025.8,-11232.9,6035.86
2.38504e+07,37.4503,2,2.80268,2474.8,-2947.97,-21868.8
2.39244e+07,7.68005,0,2.83392,-277.446,-1516.25,-29401.2
2.39261e+07,103.235,2,2.98839,-6716.97,-18243.2,-19128.4
2.41837e+07,49.6892,2,2.52084,4867.28,8373.34,-24935.3
2.42079e+07,107.914,2,2.91626,15723.4,-9917.56,-15740.1
2.44139e+07,73.19,0,2.91957,13841.8,6884.81,-28928.3
2.44655e+07,72.219,2,2.58088,-8181.11,-9827.45,-20474
2.44743e+07,17.7259,1,2.43297,-1547.87,1755.91,-25901.1
2.46443e+07,144.059,2,2.8816,-7672.29,-27193.5,-17820.2
2.4811e+07,94.1874,2,2.78456,9728.84,1825.49,-11645.7
2.49073e+07,65.1433,0,2.48216,3006.9,-4108.63,-15993.6
2.49806e+07,62.5926,2,2.91037,2814,-2676.55,-16954.5
2.49886e+07,11.1683,0,3.00808,512.232,1251.42,-26877.9
2.50797e+07,162.975,1,2.60656,-22186.1,-25943,-24554.6
2.50989e+07,121.718,1,3.05946,-11499.4,10204.5,-8560.83
2.51188e+07,64.1095,2,2.38087,-12297.7,-5476.59,-26476.3
2.52318e+07,174.815,0,2.75939,-28867.1,-16329.4,-12936
2.52652e+07,23.5755,0,2.59151,2362.75,-2906.19,-25515.2
2.53351e+07,48.3505,2,2.61145,3178.16,-3347.63,-19660.6
2.53494e+07,162.236,0,2.85898,23944.7,-24331.8,-29893.1
2.54589e+07,57.7127,0,2.64446,3804.69,-6649.27,-19325
2.55266e+07,111.628,0,2.73759,-8406.26,18040.4,-16308.1
2.55733e+07,200.47,2,2.61398,-6619.03,-1067.88,-20273.1
2.56369e+07,29.0332,1,2.37463,2263.92,4123.14,-24871.5
2.56554e+07,50.1192,2,2.73346,3114.79,3137.24,-19278.3
2.56855e+07,38.0457,1,2.3951,-3097.35,-7086.81,-26527.2
2.5763e+07,42.7666,0,2.82312,4795.15,4934.56,-26313.3
2.58154e+07,71.6876,0,2.82086,-613.764,11541.4,-25841
2.59488e+07,172.545,1,2.80478,-1755.53,16994,3240.23
2.60716e+07,117.417,1,2.58951,-12410.4,-16613.9,-15219.7
2.61136e+07,5.65101,1,2.43316,-1171.19,364.259,-28936.6
2.61255e+07,132.63,2,2.43723,14489.1,-22174.7,-19897.2
2.61697e+07,66.6147,0,2.79329,6568.52,-8350.58,-19602.3
2.61812e+07,67.9154,0,2.81867,3909.62,-13290,-25617.2
2.62454e+07,23.0146,0,2.38493,4887.2,-766.225,-28144.4
2.63002e+07,49.0336,2,2.68525,-8691.85,-1219.85,-23210.5
2.6343e+07,166.003,1,2.6502,23588.6,25840.8,-29158.9
2.64695e+07,61.124,2,2.9742,-2773.33,9656.84,-20638.4
2.65527e+07,18.8461,1,3.03823,-506.578,2459.86,-25674.8
2.6639e+07,17.4725,1,2.61131,1520.22,-639.282,-25607.9
2.67019e+07,26.571,1,2.49344,-5293.34,1286.66,-26949.7
2.6724e+07,206.05,2,2.77237,-27739.3,-16912.1,-868.622
2.68542e+07,26.2544,0,2.76552,4002.84,121.201,-24907
2.70476e+07,4.27917,1,2.45652,9.48371,838.042,-29354.3
2.72668e+07,38.5964,0,2.94163,2741.54,5545.21,-23490.9
2.75412e+07,103.309,0,3.00107,20432,-5534.01,-23876.5
2.76352e+07,234.243,1,2.62676,24626.6,8764.2,13128.8
2.76953e+07,114.507,2,2.50043,-8354.31,-13870,-13079.8
2.77617e+07,21.1695,2,2.95556,3407.1,-481.283,-25889.7
2.78728e+07,8.90222,1,2.748,-365.135,829.534,-27155.1
2.78779e+07,149.12,0,2.50597,-11178.9,18427.7,-6096.19
2.80509e+07,25.1667,2,2.58813,3927.21,-1210.23,-25406.2
2.8097e+07,18.8222,2,2.68555,-3178.09,-2594.42,-28803.1
2.81607e+07,42.3697,1,2.92066,5054.28,677.888,-21574.2
2.8313e+07,18.4912,0,2.81501,3603.67,852.898,-27375.2
2.83201e+07,11.715,0,2.38974,64.1634,-2449.77,-28281.6
2.84148e+07,100.667,0,2.70932,-14195.4,4152.06,-13707.5
2.84449e+07,68.1328,1,2.49564,6984.06,-5917.92,-17730.3
2.85187e+07,131.27,0,2.61592,12062.5,-10811.6,-6652.88
2.85352e+07,75.9636,0,2.83707,11896,-8097.13,-28273.6
2.85635e+07,95.3752,1,2.58549,-3436.55,4274.51,-20541.2
2.85947e+07,6.12829,0,2.63386,437.81,-661.642,-27706.3
2.85979e+07,44.7754,1,2.37423,4797.88,-5296.34,-22639.7
2.86034e+07,102.356,1,2.62255,-17276.9,13205.2,-29161.3
2.86168e+07,17.8074,1,2.55394,2334.96,2816.4,-27717.9
2.87039e+07,122.512,2,3.03745,13503.8,11956.7,-10660.3
2.88394e+07,49.7789,1,2.5241,10086,1638.7,-26659.9
2.88666e+07,55.5492,1,2.38369,-5100.36,-6090.73,-28149.3
2.90018e+07,30.2641,1,2.42027,1913.07,6114.67,-28056.1
0,30.2534,1,2.52476,0,0,0
2.9006e+07,3.27494,0,2.7615,-223.727,261.002,-28248.8
2.90843e+07,78.2793,1,2.63819,-8741.71,-3653.46,-15285.6
2.91568e+07,235.971,2,2.92617,20356.5,-14863.4,13760.8
2.91719e+07,15.4303,0,2.87046,-1498.26,2737.15,-28856
2.92103e+07,127.283,2,2.86356,-8927.85,-8687.94,-5094.67
2.92599e+07,93.0856,1,2.37928,-12194.5,15296.7,-25921.6
2.93468e+07,9.50182,1,2.72631,-604.515,-362.84,-26980.6
2.94315e+07,123.141,2,2.3747,-9617.64,18027.9,-12626.4
2.94445e+07,13.7352,0,2.74566,529.195,-1574.25,-26377.8
2.96264e+07,17.6879,2,2.98452,-1636.15,-304.829,-25491.4
2.96647e+07,9.41181,0,2.78399,1096.95,-1298.83,-27703.7
2.97248e+07,4.35557,1,2.85362,628.95,818.08,-28723.2
0,4.30973,1,2.51734,0,0,0
2.97813e+07,7.22657,1,2.68262,457.505,1179.48,-27865
2.98512e+07,37.8099,1,2.63873,-2601.44,3189.12,-21925.9
