#class tools::wcsv::ntuple
#title time
#separator 44
#vector_separator 59
#column double eventID
#column double t(ns)
#column double copynumber
#column double energy(eV)
#column double x(mm)
#column double y(mm)
#column double z(mm)
96193,74.3624,2,3.05516,2299.12,-13639.6,-21596.3
143509,37.3524,0,2.48472,5336.83,-3205.17,-23901.3
190315,49.8445,1,2.63458,-1422.12,9960.19,-25439.1
248515,170.362,2,2.54428,-19352.8,5960.2,960.938
562121,116.02,2,2.87776,-9902.11,-21254.9,-23483
1.09444e+06,3.51886,0,2.63859,-406.123,-448.716,-28476.2
0,2.88962,2,2.76241,0,0,0
0,2.90088,2,2.95818,0,0,0
0,2.88989,2,2.92971,0,0,0
1.13786e+06,17.8441,0,2.6993,2335.66,-1592.58,-26248.7
1.62345e+06,33.5159,0,2.55667,4231.54,-4208.34,-24909.9
1.78326e+06,178.475,2,2.95206,-22145.8,-15555.5,-2887.07
1.90043e+06,39.0683,1,2.74015,4468.29,2303.73,-22291.8
2.19252e+06,38.2555,2,2.48501,1512.28,-8050.11,-28995.3
2.91825e+06,91.0321,2,2.58827,-17137.3,7761.87,-24677.7
3.34735e+06,141.699,2,2.86133,-6958.16,-24402.2,-13647.4
3.54069e+06,150.482,1,2.38217,26201.3,7277.58,-12246.2
3.66654e+06,69.0299,0,2.40119,-11013.6,8825.14,-28339.8
4.01205e+06,8.38854,2,2.67694,-1648.98,-728.029,-29328.2
4.36724e+06,52.9153,1,2.49628,1976.63,6412.49,-19824.2
4.42509e+06,22.276,1,2.67108,-2441.35,-74.1789,-24781.4
4.42564e+06,15.5235,2,2.53049,-594.488,-2060.64,-26276
4.45435e+06,65.9202,0,2.55754,7268.09,10580.8,-23228.7
4.7431e+06,39.8576,0,2.85846,8066.65,2522.63,-28157.8
4.81084e+06,23.2031,1,3.01658,4508.29,1171.8,-27521.4
4.92133e+06,48.2731,0,2.71501,9110.01,3283.29,-25464.8
5.02178e+06,62.9709,0,2.73275,12921,-2544.51,-26490.9
5.02337e+06,48.3901,0,2.66556,-4869.79,7273.01,-23596.9
5.05549e+06,118.369,0,2.41665,21433.8,-13082.2,-27794.3
5.26388e+06,102.829,2,2.74456,-20680,3228.79,-23113.9
5.33137e+06,26.8216,1,2.93431,1892.17,861.789,-26597.9
5.36467e+06,86.6255,0,3.01177,385.291,-12732.4,-16075
5.41169e+06,90.6849,1,2.49628,-8281.33,-13502.1,-18108.1
5.4566e+06,87.3453,1,2.8594,17894.2,4001.02,-27927.1
5.67872e+06,70.7583,2,2.53458,-4443.28,-1696.35,-27162
5.95152e+06,97.2924,0,2.74213,6931.5,19215,-26700.2
6.05391e+06,12.6854,0,2.77016,2751.24,375.987,-29159.8
6.1012e+06,19.2394,1,2.86746,-1479.2,3890.77,-28768.1
6.14124e+06,98.2077,0,2.84409,11857.2,4136.25,-12365.5
6.26654e+06,23.8807,0,2.78435,-3336.38,-1815.15,-25597.6
6.40456e+06,73.0997,1,2.41858,-8741.85,6048.57,-17522
6.44495e+06,145.531,0,2.60715,-11078.8,-23645.7,-12704.1
6.5356e+06,192.207,2,2.49457,3833.86,-24458.7,3410.83
6.93905e+06,26.2043,0,2.80034,2708.21,-4832.36,-28059.4
7.02274e+06,14.2819,2,3.04959,-1215.24,-2456.72,-27397.5
7.07089e+06,36.5602,0,2.87008,-4545.12,-4801.09,-24969
7.07532e+06,39.5158,1,2.45419,1910.83,-6169.83,-23616.3
7.57416e+06,32.6912,2,2.36944,-4101.8,5419.05,-27525.7
7.60435e+06,77.8359,2,2.60172,-15519.6,2474.53,-23862.9
7.8277e+06,34.8461,2,2.78066,-3612.61,-3927.09,-23702.8
9.04321e+06,90.8811,1,2.68881,9607.95,15882.9,-23825.7
9.25919e+06,62.074,2,2.98172,-7672.25,-6116.74,-20191.2
9.98718e+06,33.1316,1,2.41527,-3743.31,-2063.01,-23247.9
1.05929e+07,82.7828,1,2.38565,-10234.7,-13598.5,-24712.4
1.07148e+07,52.2826,0,2.51225,3620.32,4660.95,-19445.4
1.16664e+07,157.912,1,2.9204,15479.6,-643.959,461.718
1.18153e+07,3.72199,2,2.8158,-756.895,-2.50247,-28442.3
1.19712e+07,6.98648,1,2.79302,-815.995,-11.7957,-27554.2
0,7.04272,1,2.66926,0,0,0
1.2101e+07,0.202291,0,3.14545,98.3046,-21.9189,-28797.9
0,0.140603,0,3.9018,0,0,0
0,0.129362,0,2.87742,0,0,0
0,0.130443,0,2.66297,0,0,0
1.3367e+07,43.4543,2,2.74789,5789.16,-6611.9,-26107.7
1.34602e+07,3.92837,0,2.82685,822.675,-339.035,-29026.2
1.35477e+07,22.9802,2,2.75142,2337.51,-3317.84,-26112.9
1.37162e+07,218.311,1,2.98452,25272.9,19276.6,4115.88
1.3784e+07,33.648,2,2.48125,4032.7,3987.56,-24597.5
1.3805e+07,2.72405,2,2.45811,-387.917,-485.51,-28560.4
1.40672e+07,89.7143,0,2.51856,-527.59,-16238.9,-19026.5
1.44842e+07,45.5495,0,2.92627,8738.19,240.418,-24790.9
1.49974e+07,152.743,1,2.5769,9804.13,25395.6,-11446.6
1.51213e+07,25.8515,2,2.70965,-2122.87,-3305.03,-24942.3
1.51225e+07,23.169,1,2.61305,-2759.88,2613.59,-25629.8
1.51692e+07,33.4775,2,3.05072,-2164.94,-5301.22,-24646.6
1.51981e+07,0.484648,0,2.45864,97.2463,142.921,-28820.8
1.53215e+07,152.766,1,2.59676,11230.7,19160.4,-5374.1
1.53878e+07,21.1532,1,2.65387,-4332.26,1281.06,-28320.5
1.54946e+07,183.493,1,2.89172,26207.7,27629.2,-23144.4
1.61563e+07,159.298,1,2.80522,3913.08,26040.2,-8004.6
1.66626e+07,48.8042,0,3.05574,2826.24,4722.32,-24067.4
1.73211e+07,9.28228,1,2.72939,-626.367,-360.685,-26988.7
1.75254e+07,31.2192,0,2.89002,-1648.89,5372.59,-25449.1
1.75587e+07,134.69,0,2.88639,13201.4,10330,-6026.16
1.79398e+07,96.4985,0,2.80122,13472.8,-6813.43,-15169.4
1.84301e+07,27.8558,1,2.9511,2249.86,-1032.28,-23568.7
1.84717e+07,90.3391,0,2.58541,1861.02,9378.73,-12291.5
1.90714e+07,135.053,2,2.82506,-14718.1,-2685.47,-4762.77
1.90878e+07,1.34224,1,2.36969,17.4795,365.382,-28912.8
1.93069e+07,46.3037,0,2.97014,-1112.63,-4714.89,-20437.7
1.9442e+07,2.39948,1,2.65436,-465.183,161.428,-28554.7
1.97328e+07,207.301,0,3.04285,10569,12787.8,-11478.2
2.00507e+07,25.2446,0,2.7836,4881.02,2017.23,-27617.6
2.06814e+07,69.2854,0,2.40794,3466.93,8522.78,-17367.6
2.12446e+07,19.1387,1,3.04291,-377.733,3066.02,-26188.3
2.13412e+07,9.01994,0,2.50944,799.168,1634.67,-28132.7
2.14149e+07,4.99251,2,2.44896,-703.637,-474.392,-29605.6
2.17156e+07,90.5673,1,2.77955,-14648.4,10422.9,-24657.3
2.18515e+07,33.08,1,2.43952,-3902.74,3040.27,-23779.2
2.28213e+07,75.0717,1,2.39367,9515.23,11315.1,-22960.6
2.28691e+07,81.4481,2,3.03182,-12457.9,-11773.5,-29498.8
2.30116e+07,141.913,0,2.72715,22338.6,2222.88,-8972.77
2.32103e+07,16.2943,0,2.93758,774.025,1969.19,-26116.9
2.33224e+07,114.301,1,2.41278,16896,2760.12,-11769
2.36632e+07,65.3102,1,3.01596,-11456.1,-56.4987,-21250.4
2.40563e+07,82.6892,1,2.9234,-13147.5,3295.38,-17891.6
2.42051e+07,60.0698,0,2.694,6765.73,-2252.77,-18302.1
2.45191e+07,114.071,0,2.69621,9071.25,22050.7,-26940.1
2.48466e+07,22.8322,0,2.41463,1067.2,-4712.08,-29561.4
2.51601e+07,111.117,2,2.6467,-8092.33,19098.2,-17943.6
2.54542e+07,249.121,0,2.81181,24172.9,26435,9428.09
2.55848e+07,79.287,2,2.97935,-12838.6,-3156.13,-18691.8
2.57735e+07,98.413,1,2.61828,-17573,1059.74,-17701.8
2.58302e+07,87.7083,1,2.70243,-1059.5,14439.9,-23854
2.59001e+07,6.26535,0,2.82029,-792.365,-767.301,-28217.8
2.59732e+07,113.892,0,2.47518,8993.81,-5917.77,-7264.68
2.60494e+07,30.3947,2,2.71075,-2309.02,-2863.15,-23522.4
2.6773e+07,0.863083,0,2.7921,185.202,52.2953,-28668.4
2.68489e+07,10.484,1,2.85009,-1148.58,1952.43,-29318.6
2.69191e+07,8.05013,1,2.44292,1451.27,760.091,-29178.3
2.73284e+07,140.026,2,2.51969,192.623,-27889.7,-18647.5
2.73826e+07,126.831,0,2.54631,14801.6,-6154.73,-7282.78
2.74058e+07,164.335,1,2.95679,23316.9,-11314.3,-6192.22
2.74282e+07,195.55,0,3.00917,26222,-9294.52,1341.04
2.74367e+07,22.3831,0,2.92436,2823.27,-2644.69,-26044.8
2.75468e+07,17.4311,1,2.52343,-2263.32,1347.69,-26153.1
2.76263e+07,10.417,2,2.80916,-1567.74,-1575.64,-28223.4
2.77717e+07,20.2377,0,3.06035,3389.4,2708.81,-28646.9
2.81861e+07,66.0316,0,2.58647,3692.48,-8555.22,-18405
2.88216e+07,123.128,1,2.99802,-1506.79,686.738,-27549.7
2.8835e+07,106.774,1,2.64832,-18769.7,10465.4,-21768.7
2.88711e+07,69.1355,0,2.37961,13051.5,192.881,-22032.4
2.9396e+07,85.427,1,2.46583,11424.3,7192.51,-16823.6
2.94122e+07,162.014,1,2.83004,-21652.1,4889.57,-3608.36
2.95937e+07,79.4978,0,2.52909,8825.32,-7760.19,-16774.7
2.99293e+07,25.8261,1,2.89179,4725.08,-830.187,-26353.8
3.04872e+07,27.5013,0,2.58854,5478.57,-375.2,-26702.3
3.06215e+07,37.8701,1,3.03604,-6680.01,2392.32,-25113.1
3.07027e+07,81.8139,0,2.95743,12095.7,-11201.7,-23806.9
3.0796e+07,3.23155,2,2.99562,46.1008,-24.6708,-29449.7
3.10164e+07,76.7006,2,2.80296,-4899.04,12396.7,-19809.1
3.13738e+07,180.787,2,2.89374,966.819,-24186.2,454.97
3.17846e+07,27.5982,0,2.80891,-5310.3,-1265.99,-27024.8
3.23678e+07,72.8262,0,2.69008,5024.29,7904.71,-16606.8
3.24996e+07,6.0376,2,2.61723,379.46,933.114,-28130.9
0,5.61611,0,2.94606,0,0,0
0,5.58411,0,2.52835,0,0,0
3.2603e+07,8.19069,1,2.96287,1025.87,-1236.11,-28360.3
0,8.11704,1,2.51303,0,0,0
0,7.60602,0,2.43122,0,0,0
0,7.66605,0,2.69699,0,0,0
3.28291e+07,5.83759,2,2.42804,-740.458,88.0868,-27792.9
3.29527e+07,50.8779,0,2.6191,-1940.45,-7701.16,-21613.8
3.30329e+07,31.1955,0,2.69283,3067.21,-5394.12,-26445.2
3.31116e+07,7.54225,2,3.05123,1321.45,-815.178,-28362.7
3.32e+07,69.28,0,2.73984,10211.5,9853.68,-25102.3
3.36643e+07,16.5603,0,3.00927,2921.57,1292.69,-27255.4
3.41337e+07,38.0455,0,3.01737,-661.742,6529.58,-24284
3.41376e+07,105.546,0,2.87749,-5078.09,-11005.5,-10317.1
3.42287e+07,42.1815,0,2.54923,-2179.11,8239.65,-26232
3.42736e+07,132.374,1,2.5422,-11677.3,25504.6,-27671.3
3.4284e+07,9.67182,1,2.64869,808.687,1058.15,-27228.6
3.4399e+07,80.4748,0,2.59249,6075.75,-9661.85,-16209.1
3.44273e+07,45.5746,0,2.79714,2539.69,-2761.72,-19976.6
3.47435e+07,9.12789,1,2.70031,177.303,-1279.98,-27444.6
3.47442e+07,30.556,0,2.85601,-2482.93,-1997.47,-23292.8
3.47848e+07,39.0507,1,2.97886,-8012.43,1806.68,-27809.8
3.49188e+07,136.689,2,3.00218,-18670.1,21342.7,-24718.4
3.49332e+07,31.5247,1,2.42916,-93.909,5080.8,-24407.7
3.51301e+07,80.0353,2,2.60137,-15777,-1924.83,-28282.7
3.6198e+07,43.4725,0,2.48537,8069.16,797.395,-24303.8
3.65088e+07,7.6512,0,2.7247,250.157,1446.84,-28058.1
3.67045e+07,176.864,1,3.00811,-26739.3,782.141,-3129.43
3.67503e+07,121.82,2,2.54962,18836.3,-17587.6,-28114.5
3.69465e+07,157.135,1,2.82607,20967.2,-3756.08,-3597.47
3.6974e+07,24.7437,0,2.69484,379.297,-5209.4,-29391.5
3.73898e+07,94.5134,1,2.91803,-15593.7,-11919.4,-25888.8
3.79109e+07,8.37553,2,2.63717,983.346,-1054.49,-27751.2
3.80092e+07,108.683,1,2.7905,3891.09,11561,-9454.08
3.82378e+07,5.08164,0,3.03462,380.249,-1015.13,-29039
3.84069e+07,79.3263,1,2.98087,-14984.4,1096.3,-21569.6
3.8475e+07,98.3618,0,2.83876,17898.5,-9115.94,-23513.7
3.88586e+07,7.24737,0,2.71647,563.663,1070.74,-27808.6
3.88756e+07,15.2766,1,2.56034,-42.8219,-2608.37,-26991.2
3.8885e+07,152.832,1,2.6488,-12407.7,9775.87,-683.621
3.92746e+07,27.9615,2,2.76279,4184.41,347.104,-24724.2
3.94492e+07,5.00298,1,2.98905,-879.985,405.636,-28284.9
3.96172e+07,17.1271,1,2.5963,-1648.74,541.114,-25606.8
3.98384e+07,37.8652,0,2.3788,-2590.75,-6650.28,-25169.2
4.00662e+07,13.6909,1,2.9231,-33.796,2932.77,-29416.6
4.01924e+07,20.7517,1,2.68647,1513.89,4197.69,-28830.3
4.01984e+07,139.128,2,2.87694,-20223.2,7022.54,-8931.37
4.02388e+07,66.2636,2,2.41796,2199.57,-5852.77,-16257.4
4.02701e+07,11.5434,2,2.74964,-2091.77,869.943,-27895.8
4.03742e+07,125.667,0,2.55872,13344.7,17391.4,-13763.2
4.05162e+07,9.5936,2,2.98774,-1894.65,-684.428,-28216.5
4.07284e+07,94.1101,0,2.53156,-13646,5831.79,-15693
4.0731e+07,72.053,1,2.96898,-9789.71,-3946.65,-18002.4
4.09097e+07,40.6574,2,2.39716,-6429.03,-5071.32,-25900.5
4.09717e+07,26.879,2,2.99592,-3021.25,4074.96,-26416.4
4.13402e+07,3.65215,1,2.63537,613.766,259.933,-28469.1
4.13728e+07,15.3491,2,2.68344,1482.33,-2909.39,-28256.7
4.13855e+07,67.6526,1,2.82292,-8378.1,285.251,-17312.4
4.14783e+07,63.4591,2,2.52368,-3968.15,-3040.89,-16354.2
4.1664e+07,21.6201,1,2.72316,2619.95,-1638.11,-25579.6
4.1718e+07,145.187,1,2.82292,-14871.7,-10054.6,-25131.8
4.18619e+07,13.6881,2,2.74114,-2529.71,-1056.74,-29988.3
4.21367e+07,190.717,1,2.3674,-17278.5,10205.7,-9226.99
4.24414e+07,185.963,2,2.55652,12770.7,-13297.8,5899.27
4.26427e+07,96.2558,0,2.55309,9756.62,-12755.9,-16265.4
4.26593e+07,73.7087,2,2.66357,15129,3394.29,-28437.1
4.33024e+07,21.8539,0,2.44203,2852.29,3735.54,-28946.8
4.34365e+07,83.4916,2,2.84925,-14643,-4832.63,-20314
0,83.6218,1,2.82522,0,0,0
4.35835e+07,171.289,1,2.42962,21203.2,632.643,494.179
4.38564e+07,0.727862,1,2.5471,135.814,115.488,-28855.6
4.38955e+07,91.3013,0,2.82644,14126.3,1024.59,-15764.8
4.38965e+07,101.557,0,2.77858,-580.702,9976.83,-9938.94
4.39714e+07,29.4136,1,2.72523,4312.21,2433.57,-25091.5
4.41454e+07,83.2715,0,2.48583,-5178.79,13034.3,-18196.2
4.4204e+07,134.632,1,2.39432,-1681.7,2840.69,-8939.18
4.42536e+07,4.99456,0,2.78475,1086.45,-197.011,-28558.3
0,5.57281,1,2.50005,0,0,0
4.42631e+07,1.33037,1,2.72315,-291.041,-92.1553,-28899
4.43098e+07,34.7366,1,2.38218,-5515.82,4819.02,-27463.9
4.4481e+07,105.976,1,2.77932,3232.27,14564.4,-12195.8
4.45206e+07,37.6705,1,2.39545,719.996,4319.54,-22106.1
4.46398e+07,124.064,0,2.42797,25422.7,2548.8,-22437.9
4.4748e+07,51.7333,2,2.95184,-9475.69,-3600.18,-24724
4.49341e+07,25.4857,0,2.4865,3619.48,883.578,-24840.4
4.55723e+07,141.863,2,2.68033,-18874.8,-17292.7,-13205.6
4.59292e+07,126.664,1,2.45521,6400.36,17261.6,-9314.59
4.62644e+07,23.762,2,2.81461,-624.795,-1995.66,-24251.9
4.63402e+07,57.287,1,2.93677,5892.95,5635.64,-19953.7
4.65686e+07,98.1956,2,2.90867,2679.21,9287.76,-12054.9
4.67189e+07,126.357,0,3.02016,24339.3,7071.1,-20896.2
4.69732e+07,50.8373,1,2.8906,-8112.46,7115.1,-28983.8
4.70614e+07,106.242,0,3.04567,6842.16,17542.6,-16942.3
4.73913e+07,88.5059,2,2.51078,8218.74,3800.6,-12518.9
4.7467e+07,55.0859,2,3.03706,-6695.14,658.231,-19439.8
4.74861e+07,0.858176,1,2.36536,-110.975,266.84,-28823.2
0,0.866799,1,2.66793,0,0,0
0,0.847853,1,2.7578,0,0,0
4.77224e+07,34.4768,1,2.98545,3839.45,3324.93,-23682.8
4.80278e+07,144.522,1,2.66471,6167.46,-28687.5,-20875.4
4.81113e+07,30.9254,2,2.96778,-901.792,-6083.42,-29675.4
4.8158e+07,2.2423,0,2.8069,290.776,73.0056,-28392.3
4.82176e+07,70.9484,0,2.37476,14743.6,-2440.74,-26547.5
4.87129e+07,2.16341,0,2.87759,446.375,132.103,-29118.2
4.87725e+07,241.327,2,2.61968,29109.9,-6548.88,12449.7
4.91908e+07,48.4929,0,2.69126,1585.14,-5326.06,-20219.5
4.96142e+07,27.4917,1,2.39505,-2865.98,5001.31,-27435.7
4.98433e+07,93.6169,2,2.59479,751.67,-12496.7,-13463.6
4.99043e+07,111.429,0,2.56555,14873,-1925.45,-11298.1
5.03862e+07,117.054,1,2.74649,-4168.46,24119.9,-25339
5.06614e+07,30.5909,2,3.01295,-1732.94,-6222.48,-29685.3
5.10184e+07,98.8624,1,2.94022,-6514.34,18020.8,-20685.7
5.1065e+07,11.0278,2,2.47305,383.531,1093.1,-26823.7
5.12292e+07,2.35542,2,2.79053,78.3106,-583.946,-28855.5
5.13093e+07,59.0244,0,2.65649,3067.68,-3470.63,-17265.9
5.16546e+07,8.61494,1,2.61681,365.119,1783.83,-28308.8
5.16989e+07,138.468,1,2.84134,11174.1,-15256.8,-6757.79
5.17845e+07,103.894,0,2.49245,18910.8,-5591.65,-18969.3
5.18754e+07,192.718,2,2.36456,-15045.2,-13293.7,6712.65
5.19427e+07,39.7945,0,2.9113,2193.53,-7524.86,-25811.7
5.19779e+07,84.6244,2,2.75763,-3184.11,-17601.4,-29793.6
5.23766e+07,78.9663,1,2.41641,-7558.7,12133.1,-23296
5.28689e+07,160.435,0,2.78159,9812.97,-25545.8,-9035.96
5.28803e+07,40.6759,2,2.40162,7703.15,-1343.54,-25216.2
5.29308e+07,10.1693,2,2.96031,935.376,-1188.99,-27258.9
5.30304e+07,0.763854,1,2.6199,87.7644,117.241,-28705
5.31012e+07,23.6203,1,2.65014,2423.73,-1297.65,-24716.7
5.32122e+07,115.394,1,2.63132,10756.5,-9867.64,-9372.27
5.33602e+07,38.2803,0,2.99877,-5594.33,1386.07,-23296.7
5.34354e+07,134.651,2,2.81082,19295.5,-6096.99,-9024.99
5.34585e+07,51.0347,0,2.50406,9128.35,-4474.19,-25009.3
5.37732e+07,5.80321,2,3.04682,-448.247,-817.314,-29743.7
5.38273e+07,91.4395,1,2.53355,-15492,11674.4,-27698.1
5.41461e+07,18.4152,1,2.8404,2121.76,3251.49,-28192.4
5.41904e+07,55.5618,2,2.63709,-8541.13,-7144.34,-24848.8
5.42735e+07,115.367,2,2.75123,-12728.9,-11706.8,-11692.8
5.50293e+07,18.9473,0,2.76701,544.021,-3672.22,-27317.1
5.52865e+07,183.672,1,2.60865,-11597.7,-5342.94,-27999.7
5.53021e+07,230.49,0,2.91036,25567.3,-8727.27,11340.7
5.5522e+07,15.2039,0,2.65957,1910.33,-2486.11,-29731
5.57258e+07,44.1454,1,2.36849,-8625.96,-322.826,-25180.9
5.62049e+07,143.712,1,3.01694,-24699.5,5299.32,-12327.4
5.63012e+07,45.1505,1,2.83791,-1019.18,9404.04,-27274.9
5.66571e+07,57.1584,2,2.77673,2341.06,-11718.7,-26862.9
5.67001e+07,187.829,2,3.02917,26135.2,-23253.3,-10832
5.67798e+07,84.0171,1,2.75153,14522.4,5930.56,-20617.5
5.71791e+07,11.7983,0,2.47075,-507.239,2162.36,-27710.4
5.74832e+07,55.5469,1,2.80591,3602.45,-5309.96,-19117.4
5.7757e+07,32.6108,0,2.8659,-2696.33,-6205.15,-27851.9
5.80577e+07,14.24,0,2.88547,194.191,1238.3,-26083
5.84807e+07,120.359,0,2.52614,4681.87,-3766.09,-25320.3
5.865e+07,16.9206,1,2.46113,-967.854,-1152.31,-25593.7
5.86865e+07,84.6175,1,2.39933,4174.13,-3993.55,-26497.4
5.87328e+07,38.2261,2,2.81205,-5662.47,-3247.37,-23998.1
5.87417e+07,19.469,1,2.7295,1783.23,2669.99,-26207.6
5.87571e+07,55.0182,1,2.9405,-2387.53,8746,-21554.5
5.93493e+07,31.3514,2,2.76334,-5127.93,2587.12,-25544.3
5.95329e+07,3.90087,2,2.44133,-530.782,-654.919,-28447.6
5.97945e+07,117.158,0,2.42708,4923.63,-18947.8,-13577.5
5.98077e+07,7.48125,2,2.3796,-611.402,800.534,-27605.5
5.98975e+07,206.55,0,2.83037,-16498.2,18388.4,6440.01
5.99968e+07,130.966,1,2.7849,-11163.8,-20954.3,-14862.2
6.0085e+07,75.5652,2,3.04823,-11776.9,-2065.57,-18376
6.01206e+07,107.393,1,3.05294,749.723,22552.8,-29813.8
6.02886e+07,55.2012,0,2.66522,8081.53,2474.73,-20742.3
6.07544e+07,200.454,0,2.97637,27270.7,-868.692,3207.12
6.07638e+07,11.4684,2,2.59416,-2137.69,47.4488,-27572.8
6.08176e+07,8.68323,0,2.59962,1043.59,1572.74,-29204.6
6.10358e+07,187.688,2,2.48741,-24780.9,4730.93,1814.02
6.14238e+07,10.9412,1,2.56686,-455.069,2034.69,-27629.4
6.16377e+07,10.3553,0,2.83999,-1331.3,-768.802,-27342.6
0,10.0933,1,2.72132,0,0,0
6.17382e+07,271.461,2,2.95381,-12814.8,-25026.9,20729.2
6.18866e+07,140.54,1,3.00557,-16545.1,-17374.7,-13004
6.22921e+07,30.9971,1,2.97209,-2949.26,1434.12,-23185.2
6.26063e+07,32.9298,1,2.39118,4307.59,-453.968,-23386.7
6.26612e+07,26.7065,2,2.84624,-4492.32,-2531.25,-26419.5
6.27093e+07,43.9638,0,2.40761,-570.77,5676.37,-21463.8
6.27659e+07,9.20972,1,2.96756,1534.89,-179.879,-27741.5
6.28484e+07,6.93883,0,2.75152,1413.31,-627.838,-28759.1
6.28994e+07,78.5306,2,2.71315,-6179.96,-7187.8,-15189.8
6.29649e+07,9.35494,0,2.96614,1861.1,-118.754,-27944
6.36096e+07,10.262,2,2.52846,1859.55,-1085.22,-29344.2
6.36811e+07,12.8142,0,3.05127,2570.5,1024.38,-28434.7
6.41183e+07,127.049,1,2.70309,-19154.3,-12083.2,-14574.8
6.41558e+07,2.44968,1,3.01427,-502.292,103.701,-28575.2
6.42647e+07,6.33055,2,2.58048,-834.631,-1121.06,-28464.6
6.47458e+07,206.073,1,2.8008,-16994.6,28308.1,-897.747
6.47506e+07,122.617,0,2.83327,5507.42,-15334.3,-8808.23
6.47628e+07,67.95,2,2.63247,10204.5,-1370.39,-20968.2
6.51068e+07,166.395,0,2.51453,29314.9,13265.2,-14401.1
6.54546e+07,24.4851,2,2.91899,-4104.57,-1790.8,-26163.2
6.58952e+07,233.496,0,2.84438,7844.02,24643.4,12897.7
6.61325e+07,13.5116,0,2.75692,2919.43,-325.189,-28435.4
6.63556e+07,81.4729,1,2.45213,-12403.2,10934.3,-23632.9
6.65206e+07,90.2539,2,2.49355,-452.598,-8952.66,-11965.2
6.68173e+07,67.2256,2,2.69719,-11704.4,1509.92,-20904.8
6.70726e+07,16.7012,2,2.43003,-2395.98,-2606.69,-28004
6.71764e+07,45.2843,2,2.55024,-4910.29,7184.45,-24909.4
6.73e+07,68.558,1,2.54806,-8826.52,249.761,-17319.6
6.74336e+07,34.8347,2,2.91374,-3707.51,-5592.76,-25697.4
6.76252e+07,36.1366,1,2.66862,-4184.27,6302.68,-27262.8
6.76873e+07,158.88,0,2.57307,19961.3,-1422.38,-1811
6.78442e+07,22.8396,0,2.5758,2767.69,-983.776,-24922.9
6.78946e+07,186.586,2,3.04145,27820.9,-3538.64,-1650.36
6.80183e+07,91.3624,1,2.93459,-2363,19082.9,-29966.9
6.81491e+07,204.673,0,2.70033,5312.27,21735.4,7957.94
6.83712e+07,134.922,1,2.45014,-21721,-5533.63,-12676.7
6.84983e+07,45.8523,1,2.63009,-3768.51,6375.54,-22506
6.88322e+07,36.2627,0,2.54455,-928.463,3319.78,-21984.4
6.8984e+07,70.2503,1,3.04364,11523.6,6214.58,-22062.4
6.92895e+07,19.1152,2,2.75719,-703.735,3150.37,-26509.7
6.94941e+07,36.6251,0,2.38283,1638.15,-7539.58,-29850.2
6.95788e+07,104.034,2,2.63674,1254.34,-16344,-14126.8
6.96866e+07,98.8141,1,3.05119,-17005.5,-9688.16,-22069.9
7.00133e+07,12.4373,2,2.8182,-300.902,-2286.63,-27453.8
7.01376e+07,142.966,2,2.87122,5907.62,-17351,-5035.59
7.03693e+07,94.0384,2,2.95784,-18853.3,-786.788,-22840.7
7.04982e+07,19.144,0,2.47303,570.239,-1613.36,-25158.7
7.07245e+07,10.7757,0,2.91312,-1328.29,-1496.76,-27816.9
7.08244e+07,4.55392,1,2.66933,513.808,687.068,-28319.3
7.08284e+07,73.9535,2,2.82876,-12697.7,3172.96,-20376.9
7.08416e+07,15.9573,1,2.87458,-1971.74,234.775,-26083
7.08769e+07,30.2187,0,2.46543,2642.38,-4742.5,-27094.2
7.09617e+07,26.648,2,3.03317,-2540.49,-1823.03,-24132.8
7.16486e+07,12.0605,2,2.91376,-922.203,-2167.63,-27660.9
7.22878e+07,6.89338,0,3.03237,578.276,-206.652,-27475.1
7.25402e+07,175.109,1,2.57109,-11693.2,7738.44,778.138
7.2577e+07,5.30701,0,2.79318,-234.832,981.168,-28330.8
7.26987e+07,49.8437,0,2.70116,8673.66,2795.49,-23424.3
7.35248e+07,25.5273,2,2.51223,4157.49,-1266.79,-25627.3
7.38975e+07,32.6848,1,2.45469,-6396.6,1810.68,-26641.3
7.42221e+07,251.202,2,2.73079,29063.3,29829.5,3497.97
7.42231e+07,142.668,0,2.57431,-4379.02,15083.5,-10653.9
7.46464e+07,29.7433,2,2.98882,-3826.71,-3508.83,-25258.6
7.5018e+07,83.4607,2,2.64163,-5565.12,-15867.5,-23317.8
7.51534e+07,42.9346,1,2.64197,-4305.05,4610.92,-22247.7
7.52302e+07,39.0582,2,2.49133,5115.67,3335,-23345
7.53936e+07,66.163,1,2.92097,2171.05,-714.207,-24318.5
7.59262e+07,11.4186,0,2.47767,-303.65,1664.55,-27086.2
7.68247e+07,43.307,2,3.02691,462.491,-9060.56,-27520.9
7.70341e+07,28.2523,2,2.58438,-5108.24,-3017.77,-27570.3
7.70984e+07,167.264,2,2.55517,-20371.1,-9209.16,-1389.4
7.73905e+07,4.93815,2,2.97174,837.596,-99.6495,-28238.5
7.73952e+07,43.8128,2,2.60292,-6476.91,-3384.54,-23049.6
7.80799e+07,32.6836,1,2.7222,-660.175,5897.67,-25243.6
7.81759e+07,59.0852,0,2.57632,12188.9,-2869.87,-29904.7
7.84153e+07,137.952,2,2.82084,20324.4,-15152.4,-14690
7.85235e+07,37.2495,0,2.9983,1395.16,-5145.24,-23103.5
7.8595e+07,128.752,0,3.01791,344.69,-14787.2,-6299.06
7.85993e+07,14.1996,0,2.74179,260.243,3020.73,-28983.3
7.87351e+07,39.4453,0,2.42795,7526.81,677.662,-25162.8
7.88546e+07,77.6726,0,2.95075,13468.6,9242.95,-29905
7.92524e+07,112.078,0,2.42898,10807.4,3640.51,-8009.88
7.93711e+07,0.508377,2,3.05926,-40.4629,-202.141,-28900.9
0,0.519997,2,2.53102,0,0,0
0,0.508314,2,2.54816,0,0,0
7.94166e+07,60.6844,2,2.69736,-6743.78,-5422.27,-19341.4
7.95336e+07,45.1891,1,2.43726,-1876.96,6380.97,-21875.2
7.97865e+07,72.239,1,2.50301,63.0064,-8263.43,-16023.7
7.98425e+07,42.0245,1,2.49005,-6536.16,5979.81,-27292.5
8.02003e+07,150.664,2,2.45523,26299.7,-10380.1,-14128.2
8.02058e+07,19.9384,2,2.98723,-917.925,-3811.62,-27129.7
8.04195e+07,83.3005,2,2.70776,-16007.3,6993.16,-26813.2
8.06856e+07,133.053,2,2.90272,-6005.89,11536.8,-4149.08
8.07664e+07,157.818,1,2.77279,-19106.6,27010.7,-25004.5
8.08001e+07,122.735,2,2.82347,18295.7,-15668,-19533
8.11105e+07,59.6691,2,2.8668,-2296.25,-6522.68,-18297
8.12038e+07,59.1309,1,2.8747,-1723.14,7372.51,-18903.5
8.12363e+07,183.998,0,2.41417,22928.3,13627.4,-398.989
8.13353e+07,53.6585,2,2.47412,-3108.86,5329.35,-19323.7
8.15906e+07,51.0581,0,2.73659,7553.73,6345.06,-24387
8.16113e+07,38.2978,0,2.67362,4845.9,-1724.5,-22552.8
8.17732e+07,8.91299,1,2.95183,254.97,1654.58,-28066.8
8.18362e+07,65.6297,1,2.71453,-3676.88,8255.59,-18353.2
8.18959e+07,12.0426,2,2.68505,-543.774,1199.19,-26653.8
8.20551e+07,109.862,0,2.6411,20107.3,-3271.34,-17599.8
8.23347e+07,35.1063,2,2.63687,2108.29,-3471.98,-22623.8
8.24559e+07,17.7288,2,2.40875,-1739.69,-1723,-25909.6
8.25567e+07,4.66584,2,2.55257,-819.696,236.618,-28279.8
8.26011e+07,48.5943,1,2.5695,8021.44,-4501.53,-24350.9
8.26642e+07,32.7527,1,2.41331,-1865.48,6759.81,-28611.8
8.27954e+07,29.3141,1,2.64392,-1626.26,5868.08,-27323.7
8.33114e+07,20.7051,2,2.80263,785.798,-1921.87,-24952.2
8.34479e+07,31.4992,0,2.98492,3610.36,-5583,-29510.1
8.3486e+07,94.1372,1,2.76755,-3068.46,17663.5,-20189.4
8.35461e+07,189.445,2,2.54974,7849.41,-20401.4,4759.49
8.35605e+07,53.9368,0,2.84834,232.727,-11359.1,-29003.5
8.3904e+07,107.474,0,3.00834,1712.95,14004.4,-11287.9
8.42222e+07,73.4709,0,2.94902,3283.96,-14976.9,-27025.6
8.42331e+07,198.666,0,2.75871,3251.83,23033.9,5936.63
8.42352e+07,54.4262,2,2.85488,-11294.2,-319.034,-26620.6
8.43582e+07,131.92,2,2.7133,11575.8,-4918.36,-11380.1
8.4437e+07,175.642,1,2.58364,6071.09,-17906.8,3026.18
8.45199e+07,46.8499,1,2.4999,-1108.1,2101.73,-25538.8
8.48947e+07,14.8867,0,3.01797,2875.68,1057.01,-29873.1
8.50109e+07,20.2604,0,2.49285,3268.75,-2674.92,-27673.1
8.52667e+07,12.5193,2,3.03265,-2067.83,-1331.76,-27673.5
8.53158e+07,23.2753,1,2.3731,2265.68,3011.3,-25578.5
8.5411e+07,128.352,2,2.7293,20393.2,6612.98,-16394.4
8.55243e+07,6.60136,2,2.63391,700.192,-578.107,-27730.9
8.5692e+07,50.8625,0,3.01211,10644.2,-1645.47,-28941.2
8.57707e+07,51.5627,2,2.52997,-8806.67,-6582.89,-29347.2
8.59725e+07,123.45,1,2.75191,-18691.5,12062.4,-23361.6
8.61642e+07,19.524,0,2.91201,3294.52,119.599,-26247.7
8.62629e+07,45.8971,0,2.63235,2628.27,-3900.22,-20314.8
8.63283e+07,7.27459,1,2.57262,3.87781,1249.51,-27806.5
0,7.29003,1,2.5866,0,0,0
8.63445e+07,4.12313,0,3.0499,587.9,738.271,-28811.9
8.64115e+07,2.43096,1,2.77102,413.011,-3.61416,-28563.7
0,2.53705,1,2.49022,0,0,0
8.64313e+07,41.9858,2,2.62526,-925.256,-4155.85,-21002.5
8.67298e+07,12.904,2,2.91692,-1654.35,-1126.11,-26901.7
8.67813e+07,85.1485,0,2.86885,14482.8,10634.2,-28685.8
8.69595e+07,86.8705,0,2.45603,16235.7,8597.4,-26833.4
8.70064e+07,105.416,0,2.50118,20232.8,4007.28,-20149.1
8.79098e+07,0.113879,2,3.88671,-57.8422,-125.26,-28867.2
0,0.0618969,2,2.81933,0,0,0
0,0.118581,2,3.20129,0,0,0
0,0.102368,2,2.18412,0,0,0
0,0.0644329,2,2.41021,0,0,0
0,0.0946462,2,2.73454,0,0,0
0,0.0884492,2,2.42569,0,0,0
0,0.0918637,2,2.86773,0,0,0
0,0.0672659,2,2.52156,0,0,0
0,0.0869594,2,3.66987,0,0,0
0,0.064034,2,4.06072,0,0,0
0,0.114701,2,2.91793,0,0,0
0,0.119603,2,3.94196,0,0,0
0,0.105041,2,2.44266,0,0,0
0,0.0725445,2,3.91223,0,0,0
0,0.118002,2,2.92211,0,0,0
0,0.111282,2,3.81073,0,0,0
8.86727e+07,230.629,0,2.66797,11143.2,12668.8,-20784.6
8.98517e+07,117.833,2,2.65189,11794.7,-13103.7,-11261.7
8.99298e+07,92.6378,2,2.40783,-4435.88,-6334.04,-10771.5
9.00478e+07,88.5014,0,2.74378,-4634.28,17193.2,-23340.7
9.01814e+07,52.7789,1,2.77719,-1642.14,8095.55,-21288
9.04629e+07,4.18424,1,2.81048,551.399,-259.751,-28250.2
9.05262e+07,17.0632,1,2.50325,-2648.26,218.154,-26310.6
9.05906e+07,21.4287,1,2.93018,-3062.08,3337.12,-28108.3
9.06762e+07,95.2832,2,2.83416,-10200.3,13156.9,-24981.8
9.0687e+07,32.8106,2,2.36258,-59.8017,-5780.3,-24849.2
9.08204e+07,69.8928,2,2.49697,-4017.16,-7518.56,-16702.5
9.08572e+07,94.0313,1,2.97829,2928.24,2972.93,-13268.9
9.10259e+07,103.775,2,2.785,-18292.9,-4533.18,-17696.7
9.12112e+07,4.41832,1,2.78373,-303.805,982.923,-28836.5
9.12948e+07,73.1887,2,3.04793,-4955.4,-7688.77,-16471.8
9.1347e+07,68.9762,2,2.80533,598.872,-2974.49,-24427.8
9.14737e+07,126.475,0,2.41706,-22222.3,6110.4,-15369.1
9.16317e+07,52.2336,0,2.4414,452.819,-5777.76,-19412.2
9.17152e+07,163.17,0,2.51494,27481.3,20513.5,-24473.8
9.17689e+07,72.0324,0,2.9654,-10160.9,3654.4,-18306.8
9.23288e+07,5.80037,1,2.98017,-42.6113,1024.63,-28105.3
9.27538e+07,5.75008,1,2.74133,-439.701,498.113,-27746.8
0,6.0685,2,2.7136,0,0,0
9.27988e+07,110.008,2,3.02198,16695.4,-12931.6,-19527.4
9.28077e+07,104.76,2,2.43411,16401.1,-9917.88,-17732.8
9.29511e+07,31.2727,1,2.57989,-3748.07,5392.85,-27550
9.33422e+07,140.34,2,3.01323,4878.55,-21976.7,-9823.58
9.35144e+07,61.5044,1,2.61833,-8881.39,1595.22,-19443.2
9.37526e+07,9.38221,1,2.76435,-381.464,1555.81,-27539.6
9.37609e+07,141.005,2,2.37084,-26199.6,-6025.34,-27068.2
9.37675e+07,172.533,2,2.91827,23378.5,-26143.8,-19689.9
9.38011e+07,46.5004,1,2.68966,648.09,6863.37,-21773.4
9.4071e+07,59.0639,1,3.05423,-2662.97,7355.65,-19162.3
9.45164e+07,85.5627,1,2.85676,5886.39,-11253.5,-16180.6
9.50537e+07,190.733,0,2.67715,13238.4,-18696.4,4269.58
9.50618e+07,16.7986,1,2.76471,-69.8901,3273.6,-27336.7
9.51464e+07,183.691,1,2.91542,10576.2,2241.48,-22627.6
9.5266e+07,266.998,1,2.80613,9890.67,-27690.7,18977.2
9.5484e+07,33.7144,1,2.62651,5808.6,4176.03,-28481.4
9.55224e+07,28.2422,0,2.78452,4950.23,3388.72,-29460
9.5692e+07,4.04206,0,2.69754,540.53,448.062,-28240.6
9.57875e+07,80.5321,1,2.90046,9155.81,5030.78,-15539.5
9.58348e+07,19.9211,0,2.78715,-457.985,-4199.55,-28880.6
9.61152e+07,30.2168,2,2.48784,-5959.41,-2273.55,-27846.8
9.61414e+07,63.0303,2,3.01352,-5509.55,8490.28,-21013.1
9.63445e+07,13.6076,2,2.56777,2659.68,445.017,-27899.5
9.64398e+07,177.488,2,3.05151,-6177.33,-217.248,-11897.5
9.69896e+07,133.25,1,2.81677,-19239.7,-16709.9,-17191.2
9.75608e+07,95.2834,1,2.38381,13212.5,15193.2,-27061.1
9.76867e+07,12.8076,0,2.68189,2785.03,358.115,-28906.6
9.77948e+07,22.1844,0,2.9891,3259.38,3287.61,-27820.6
0,22.1559,0,2.99512,0,0,0
9.81209e+07,46.4202,2,2.46607,-7501.06,6309.69,-28368.4
9.81791e+07,204.814,2,2.69117,-7372.75,-11632.5,-27590
9.82555e+07,30.9154,1,2.83899,5524.78,3118.43,-27269
9.87805e+07,7.17016,1,2.58564,192.262,-908.155,-27652.6
9.98925e+07,145.522,1,2.9139,4782.43,20833.8,-6932.36
1.00005e+08,170.585,1,2.93721,-29872.4,14385.3,-15120
1.00025e+08,21.2334,0,2.61668,-452.474,4365.17,-27863.4
1.00132e+08,2.05552,1,2.89482,-273.249,78.2965,-28442.7
1.00562e+08,89.5497,1,2.39191,13160.7,2273.15,-15407.2
1.00684e+08,13.1598,0,3.00939,-2354.74,-203.749,-27481.5
1.00819e+08,50.3992,2,3.0588,10425.2,-759.947,-27484.2
1.00859e+08,6.35304,2,2.56322,-778.771,-291.331,-27722.9
1.00954e+08,4.71529,2,2.73678,251.408,-666.878,-28055
0,4.74289,2,2.91126,0,0,0
1.00974e+08,110.439,1,2.56702,7275.96,8479.92,-8311.42
1.01249e+08,144.17,1,2.49003,25543.4,-8932.28,-15273.2
1.01339e+08,0.0364116,0,3.26182,80.738,44.132,-28818.5
0,0.0454297,0,3.00476,0,0,0
0,0.0362386,0,3.11423,0,0,0
0,0.0589358,0,3.69725,0,0,0
0,0.036366,0,2.81664,0,0,0
0,0.0329836,0,2.82219,0,0,0
0,0.0541794,0,4.11453,0,0,0
0,0.0360314,0,2.26916,0,0,0
0,0.0327117,0,3.53111,0,0,0
0,0.0328333,0,2.89863,0,0,0
0,0.0350422,0,4.1022,0,0,0
0,0.0397375,0,2.66481,0,0,0
0,0.0629503,0,3.20866,0,0,0
0,0.090096,0,2.72312,0,0,0
0,0.0428522,0,3.42938,0,0,0
0,0.0458014,0,3.12954,0,0,0
0,0.0575866,0,2.45413,0,0,0
0,0.0352964,0,3.05763,0,0,0
0,0.0393717,0,2.3136,0,0,0
0,0.0627331,0,3.17635,0,0,0
0,0.0576131,0,3.73984,0,0,0
0,0.0579618,0,3.45929,0,0,0
0,0.0851387,0,2.44632,0,0,0
0,0.0586899,0,3.35902,0,0,0
0,0.0392441,0,2.94072,0,0,0
0,0.0352769,0,3.98694,0,0,0
0,0.039537,0,3.31787,0,0,0
0,0.0345037,0,3.21291,0,0,0
0,0.0333689,0,3.75632,0,0,0
0,0.0342993,0,3.96274,0,0,0
0,0.0366353,0,2.91011,0,0,0
0,0.0742524,0,2.45628,0,0,0
0,0.0382172,0,3.61855,0,0,0
0,0.0329627,0,3.82305,0,0,0
0,0.0440769,0,3.39457,0,0,0
0,0.0390401,0,2.7576,0,0,0
0,0.0736198,0,3.08868,0,0,0
0,0.0337777,0,3.2031,0,0,0
0,0.0339808,0,2.4807,0,0,0
0,0.066761,0,3.00911,0,0,0
0,0.0327791,0,2.36409,0,0,0
0,0.0738817,0,2.20115,0,0,0
0,0.0371817,0,3.20393,0,0,0
0,0.105601,0,3.60176,0,0,0
0,0.0343979,0,2.91278,0,0,0
0,0.0346495,0,2.97267,0,0,0
0,0.0346611,0,2.75906,0,0,0
0,0.0362048,0,3.77162,0,0,0
0,0.047597,0,2.51653,0,0,0
0,0.0572902,0,3.72471,0,0,0
0,0.0767532,0,2.89637,0,0,0
0,0.037487,0,4.0462,0,0,0
0,0.0399656,0,3.80007,0,0,0
0,0.0336024,0,2.98044,0,0,0
0,0.0339658,0,2.76892,0,0,0
0,0.0470349,0,3.22568,0,0,0
1.01867e+08,88.1629,0,2.91382,13760.3,3524.88,-16859.6
1.02187e+08,18.5738,1,2.9315,3041.55,1282.1,-26728.1
1.02547e+08,141.544,2,2.72915,26944.2,-1098.45,-16130.6
1.02845e+08,24.3637,1,3.03624,-4799.71,1823.91,-28190.7
1.02876e+08,95.7815,2,2.69697,-9828.37,-1054.04,-11198.4
1.03007e+08,36.7676,2,2.47125,-3955.22,6068.58,-26021.2
1.03023e+08,113.461,2,2.57627,1158.18,-14743.2,-9924.82
1.03271e+08,116.649,2,2.92926,-1869.65,-15033.8,-9643.67
1.03431e+08,129.817,2,2.50637,7686.54,-15084.5,-7177.33
1.03783e+08,0.886105,1,2.61546,-224.389,-42.0954,-28781.4
1.03813e+08,71.6499,2,2.74607,-5392.89,-14205.1,-29303.9
1.03891e+08,4.38454,1,2.45513,-253.205,-270.527,-27983.5
1.039e+08,57.0365,0,2.81572,5388.23,-9925.97,-24606.1
1.04441e+08,12.9575,0,2.45708,-1867.79,143.827,-26916.7
1.04523e+08,35.8315,1,2.64188,-954.282,7552.23,-29819.9
1.04702e+08,56.625,1,2.52994,-8514.02,4372.16,-21551.6
1.0481e+08,44.9833,0,2.62533,-1170.43,9252.23,-26986.9
1.04948e+08,33.1551,1,2.81484,1464.86,-4723.18,-24001.7
1.05337e+08,36.7566,0,2.39527,3539.41,2172.28,-22197.6
1.0548e+08,35.3599,1,2.68837,2452.93,6521.72,-25959.9
1.05565e+08,6.03241,0,2.75626,425.101,1042.26,-28172.9
1.05607e+08,105.537,1,2.82869,-9436.98,9516.27,-11066.6
1.05913e+08,6.96489,0,2.64142,-1017.58,-670.02,-28055
1.05979e+08,131.061,0,2.93862,14260.1,3920.71,-5596.45
1.06067e+08,198.582,2,2.46629,-29825.6,-9841.31,-7742.89
1.06277e+08,45.9197,0,2.87846,156.515,-5273.99,-20758.6
1.06564e+08,50.3598,1,2.6597,-3172,-3743.58,-19433
1.06613e+08,104.919,1,2.47751,-21529.9,-2951.36,-24049.2
1.07261e+08,88.313,2,2.43631,-6257.09,-12382.2,-16224.1
1.07358e+08,39.2401,2,2.75218,-16.2093,-7889.23,-28915.4
1.07403e+08,95.4757,1,2.63491,1633.28,16566,-17402.2
1.07724e+08,39.9193,0,2.43773,8176.27,2471.57,-28364.6
1.07804e+08,148.222,1,2.78237,456.885,-28338.3,-15976.5
1.08446e+08,65.96,2,2.86416,849.022,-10471.8,-19681
1.0852e+08,43.0499,1,2.63434,7035.16,2125.59,-23469.4
1.08864e+08,45.2995,1,2.63399,-6179.93,-1483.83,-21646.4
1.09049e+08,42.4997,1,2.42197,-8345.97,-2952.3,-27087.8
1.09052e+08,43.771,0,2.92,5821.19,6360.51,-25488.2
1.0932e+08,164.752,2,2.38124,-7891.43,-27250.7,-8449.41
1.09997e+08,99.4531,1,2.55539,-5096.32,-13513.1,-13595.2
1.10244e+08,49.5952,0,2.57797,8916.7,4972.42,-26202.6
1.10245e+08,259.769,0,2.67729,3299.6,26733.1,18877.1
1.1102e+08,63.6349,0,2.85942,-7054.03,9051.44,-22024
1.11363e+08,49.2496,1,2.92263,-6145,-8291.24,-28979.7
1.11502e+08,48.7975,1,2.89853,-9131.88,4744.44,-27808.6
1.1168e+08,198.184,0,2.62099,-20386.8,-17455.6,3204.83
1.11851e+08,43.9079,1,3.02522,8289.79,-3548.8,-27322.6
1.12083e+08,121.103,1,2.85903,-4291.26,24983.4,-25714.5
1.12139e+08,24.7724,0,2.53839,-2529.65,1352.74,-24463.1
1.12323e+08,93.507,1,2.64939,-6246.57,15150.4,-17745.1
1.12487e+08,85.8568,0,2.81368,2237.18,-7411.43,-12489
1.1252e+08,161.665,1,2.36776,16394.6,-26627.9,-15124.2
1.12701e+08,147.092,2,2.78321,-24397.3,12067,-14089.6
1.12756e+08,8.20528,2,2.46051,935.214,-31.1634,-27361.6
1.12979e+08,12.2069,1,2.752,66.9859,2272.98,-27503.5
1.13081e+08,61.2784,2,3.0485,1591.45,12377.5,-26160.6
1.13375e+08,43.3856,1,2.73847,1781.07,7351.42,-23576.2
1.13463e+08,21.0477,2,2.54479,-3668.12,-2327.43,-27487.4
1.13639e+08,137.015,0,2.88147,20129.1,16458.5,-16358.2
1.13801e+08,92.6619,2,2.93259,-15748.6,-3324.77,-17799.7
1.13833e+08,95.2009,0,2.81134,7594.48,-13252.6,-15806.7
1.13927e+08,73.9038,2,2.70885,13270.6,7882.62,-27194.2
1.14354e+08,24.5534,2,2.84049,-3163.77,-4077.05,-29884.2
1.14407e+08,15.4529,2,2.98182,1107.94,1475.42,-26223.5
1.14489e+08,68.8203,0,2.79861,-5304.48,-5386.57,-22537.3
1.14561e+08,41.3202,1,2.81076,4713.74,5379.45,-23842.7
1.14929e+08,107.245,1,2.46359,7705.76,-15354.1,-14159.4
1.1496e+08,94.5864,1,2.51401,-17618.4,-7937.48,-23637.5
1.15428e+08,25.5607,0,2.86129,4579.63,2984.34,-29272
1.15524e+08,26.6013,1,2.43992,-1889.31,1299.19,-23649.7
1.15563e+08,17.9499,1,3.04933,2492.71,774.941,-26121.9
1.15891e+08,7.61367,2,2.84144,617.16,-1427.01,-28218.7
1.15942e+08,148.138,1,2.92892,-10251.6,24681.6,-23393.9
1.16637e+08,79.9494,0,2.46249,16932.3,-1695.04,-29456.2
1.16831e+08,5.75504,1,2.93918,-234.04,-676.845,-27877
0,5.70054,1,2.49493,0,0,0
1.17407e+08,71.4583,2,2.5761,1513.04,-15056.8,-27650.3
1.17481e+08,242.715,2,2.58242,11283,13858.4,-20459.5
1.17509e+08,9.77708,1,2.60755,-1617.37,1093.37,-27907.6
1.17692e+08,21.1099,2,2.5583,-1096.14,-3622.52,-26322.8
1.17907e+08,127.585,0,2.91211,14171.9,-22386.3,-24586.9
1.17958e+08,45.1598,2,2.54366,4264.76,6385.31,-23225.2
1.18135e+08,33.3116,0,2.63306,6420.34,2285.92,-26789.8
1.18143e+08,18.6161,2,2.41619,-3103.98,2297.93,-27983.9
1.18436e+08,51.2306,1,2.36457,-4186.02,-3219.5,-19347.1
1.18468e+08,38.3249,2,2.37893,1239.2,-6493.02,-24058.4
1.18469e+08,27.9554,0,2.46169,5873.02,1223.17,-29253.5
1.18585e+08,157.975,2,3.02561,7298.73,29898.3,-16830.9
1.18626e+08,85.2441,2,2.73932,5915.89,-16571.1,-24869.5
1.18759e+08,108.095,2,2.43162,-18691.4,-11533.3,-22186.2
1.18889e+08,125.977,1,2.45863,-5119.99,21821.2,-14307.4
1.19474e+08,5.92841,2,2.59955,-366.421,-834.367,-27891.6
0,5.83023,2,2.45093,0,0,0
0,5.87355,2,2.80895,0,0,0
1.19476e+08,51.3155,0,2.93243,7608.13,-4048.99,-22240.8
1.19889e+08,1.90668,0,2.40148,456.69,205.899,-28754.8
0,1.95585,0,2.8553,0,0,0
1.20087e+08,127.044,0,2.81057,19373.4,18017.1,-24612.9
1.20209e+08,212.965,1,2.4902,-29591.9,28112.2,-9682.29
1.20626e+08,52.9795,2,2.84389,-4881.91,8302.26,-23244.8
1.20659e+08,212.279,2,2.969,-27122.2,9440.34,5142.37
1.20729e+08,40.2337,2,2.44275,2438.67,-4265.42,-21836.9
1.21443e+08,65.3037,0,2.7598,10171.5,2339.01,-19756.7
1.21746e+08,10.2986,1,2.85412,-174.314,1316.44,-27052.6
1.22182e+08,13.0105,2,2.87107,-2272.33,-1196.21,-27663.6
1.22843e+08,78.6366,1,2.50303,-6527.41,9972.85,-17143.1
1.22861e+08,12.5837,2,2.46449,-1771.49,-1893.72,-27863.3
1.22951e+08,81.1738,2,2.91712,-9586.35,-1474.37,-14772.6
1.23065e+08,121.571,1,2.6809,14925.5,7465.15,-9365.94
1.23112e+08,194.33,0,2.81511,-15478,-11071.1,7308.04
1.23251e+08,49.6665,2,2.46459,-9413.87,241.086,-24083
1.23376e+08,53.2215,2,2.78331,-9470.83,4952.35,-25385.5
1.23416e+08,82.4621,2,2.84278,-2356.02,-16381,-23487.6
1.23559e+08,142.266,2,2.50758,3457.13,5709.23,-25097.6
1.23767e+08,74.648,2,2.59378,-15698.1,-752.733,-26801.5
1.24257e+08,69.5684,2,3.05432,-5506.14,8478.79,-18357.9
1.24699e+08,84.1552,2,2.66787,1263.37,-11743.1,-15510.8
1.24761e+08,147.54,2,2.95531,6592.55,24115.4,-12959.4
1.24768e+08,6.86753,1,2.45352,-93.03,612.137,-27477.8
1.25017e+08,20.1701,1,2.76317,-3675.14,714.334,-26695.9
1.2566e+08,46.2266,2,2.99157,-1768.07,-5266.22,-20829.8
1.25882e+08,60.1071,2,2.74641,3267.82,-10905,-23150
1.25986e+08,16.3899,1,2.8309,-1114.06,2829.24,-27008.2
1.26025e+08,20.3896,1,2.85555,-2864.61,1723.94,-26025.3
1.26588e+08,265.824,2,2.95118,466.783,-22746.2,-22756.6
1.27202e+08,163.027,2,2.85567,-14157.6,-17478.6,-2918.68
1.27294e+08,60.3557,0,2.4855,9511.6,-8525.1,-27600.9
1.27413e+08,48.432,1,2.45088,8591.03,-3624.33,-24699.1
1.27468e+08,209.952,1,2.65395,-13699.7,17117.1,9634.01
1.27802e+08,122.782,1,2.42748,-963.928,-12719.9,-6243.15
1.27813e+08,18.2743,1,2.76922,-3168.9,-1993.27,-27909.3
1.28136e+08,126.379,1,2.67582,-22768.9,13843,-26593.9
1.28351e+08,104.09,1,2.57132,17189.5,13711.1,-27441.1
1.28408e+08,14.5644,1,2.88852,-568.712,3054.38,-28443.4
1.28671e+08,75.6909,1,2.59896,2243.72,-10769.6,-17314.3
1.28985e+08,40.1763,0,3.03578,-1923.7,3511.18,-21431.7
1.29112e+08,0.93135,2,3.06064,-240.959,-0.994648,-28751.5
1.29236e+08,166.274,2,2.92866,-9069.41,-15653.3,1065.83
1.29353e+08,159.845,0,2.38769,14809,24362,-10551.9
1.29386e+08,39.7417,0,3.05688,-3061.09,-1939.48,-21367.7
1.29457e+08,7.18866,1,2.39126,609.107,1345.36,-28237
1.29499e+08,36.5059,2,2.75431,4772.03,-5119.53,-29778.6
1.29904e+08,9.32383,0,3.02599,-377.312,847.75,-27098.6
1.30036e+08,4.90629,1,2.3763,596.51,892.034,-28565.8
1.30253e+08,18.4371,0,2.7538,1744.62,-2306.21,-26146.7
1.30567e+08,83.4245,1,2.68543,-5962.11,12829.1,-18239.2
1.3092e+08,104.012,0,2.90497,7526.5,-7394.45,-9673.02
1.31167e+08,41.9373,0,2.99363,8714.67,1653.22,-28145.8
1.31424e+08,86.8837,2,2.36934,-16243,-374.311,-20159.4
1.31538e+08,221.762,1,2.78959,-14505.3,-20332.6,6994.96
1.31566e+08,99.727,1,2.8678,-16631.5,6864.44,-17948.2
1.3177e+08,79.8523,0,2.99367,-9620.25,-1029.3,-15206.7
1.31954e+08,20.3329,2,2.47456,-1082.35,-2269.61,-25263.3
1.32208e+08,47.9117,0,2.50366,8201.8,708.355,-22784
1.32395e+08,16.9898,0,2.74042,3413.43,-1364.63,-29122.7
1.32436e+08,32.4197,0,3.00334,5707.56,-2620.22,-26049.9
1.32653e+08,51.5227,1,2.99975,1582.02,10110.1,-25110.7
1.32836e+08,86.1643,0,2.92423,14835.5,10452.6,-29869.3
1.32917e+08,18.0552,1,2.79,1112.66,3605.26,-27990.4
1.3299e+08,22.0212,2,2.44283,615.719,-3400.64,-25651.1
1.33089e+08,13.3029,1,2.93261,-896.599,2341.87,-27395
1.33282e+08,78.5451,1,2.98514,12631.2,10615.6,-28016.8
1.3332e+08,214.593,0,2.46264,22060.3,7048.2,2984.57
1.33767e+08,144.875,0,2.51223,-2308.56,-11970.5,-756.186
1.33795e+08,18.5456,0,2.83013,2484.79,1156.47,-25958.7
1.33841e+08,15.7336,1,2.59288,-1096.51,2264.26,-26543.7
1.33877e+08,67.6038,2,2.93068,4890.93,-7391.55,-17714.8
1.34407e+08,71.878,1,2.39204,-4293.84,9853.93,-17974.8
1.34581e+08,120.958,2,2.68365,16037.6,-8835.59,-11050.7
1.34698e+08,84.387,0,2.47485,13494.4,9120.33,-21380.8
1.35017e+08,49.1567,0,2.38868,6878.43,-7576.63,-26616.5
1.35138e+08,92.0625,0,2.85808,2432.87,12059,-13891.7
1.35433e+08,28.7987,1,2.85202,-5284.24,-97.4511,-25796.1
1.35726e+08,31.8575,0,2.70843,3842.74,-1276.22,-23425
1.35913e+08,33.764,1,2.81308,-1051.63,-6027.39,-25311
1.36013e+08,10.9285,0,2.77778,628.025,975.865,-26811.4
0,10.9122,0,2.72631,0,0,0
0,10.82,0,2.62114,0,0,0
1.36269e+08,161.844,0,2.60548,-28884.5,-17118.8,-22736.8
1.36348e+08,68.278,0,2.68872,-5364.68,-10357.8,-20457.6
1.36483e+08,67.3263,2,2.91193,-9607.78,-6386.09,-20530.3
1.36602e+08,96.9984,0,2.74048,6304.67,18182.5,-21825.2
1.36679e+08,53.667,0,3.02244,-6266.11,4453.12,-20646.5
1.36774e+08,123.225,2,2.7391,4792.52,-25405.3,-25756.9
1.36794e+08,44.2709,2,2.91265,-8169.44,-243.186,-24295.5
1.36866e+08,30.2717,2,2.52645,2299.34,-4942.09,-25381.3
1.36905e+08,19.3758,2,2.91491,-3780.93,-1633.76,-29386.7
1.36962e+08,81.2738,0,2.63734,-1762.79,16218.7,-23505.1
1.37187e+08,7.90996,2,2.44601,409.987,-1291.84,-27738.6
1.37479e+08,120.227,2,2.78677,3032.36,12187.9,-6906.93
1.37559e+08,61.0899,2,2.83374,7649.25,-9020.22,-23743.1
1.37566e+08,68.8634,2,2.43672,8357.93,11442.4,-25776.8
1.37907e+08,183.417,0,2.92326,28226,777.52,-2602.59
1.37956e+08,31.2774,2,2.89944,486.336,-5640.25,-25351.7
1.38289e+08,86.5305,1,2.62925,-12246.1,11213,-21057.5
1.38662e+08,41.3005,0,2.68619,4645.52,6285.67,-24918
1.39006e+08,25.4844,0,2.85302,3935.83,2197.11,-25852.8
1.39045e+08,5.16434,0,2.7655,1201.36,66.429,-28726.6
1.39084e+08,98.1044,0,2.47067,18699.5,-7027.48,-22963
1.39529e+08,75.1401,2,2.52703,-15521.9,2836.38,-26620.7
1.39586e+08,155.152,2,2.85791,-19347.4,-10424.6,-4679.21
1.39675e+08,41.6113,1,2.92511,-965.565,8766.35,-28156
1.39785e+08,96.3196,1,2.72332,10076.7,1737.97,-11332.3
1.40369e+08,4.43445,2,2.50188,-738.038,-689.919,-28633.2
1.40865e+08,122.103,2,2.57327,-12815,6439.1,-7389.78
1.40998e+08,33.2964,0,2.65254,6112.37,-3396.03,-27462.2
1.41245e+08,102.361,1,2.43805,6279.11,7907.25,-9681.07
1.41469e+08,126.537,0,2.71947,-19345.2,17984.2,-25507.5
1.41544e+08,27.2912,1,3.02768,-2184.84,4875.38,-26542.7
1.41554e+08,28.2526,0,2.76642,2905.76,-101.488,-23577.9
1.41828e+08,95.2558,2,2.64127,-16627.1,4799.33,-18634.6
1.41938e+08,40.2446,0,2.97951,5260.16,801.851,-22226.4
1.4246e+08,75.2941,2,2.48848,-5197.34,-15101.3,-27726.5
1.42514e+08,120.541,2,2.88582,22222.8,-3471.6,-17200.6
1.43353e+08,8.56869,1,2.42939,125.328,894.874,-27199
1.43467e+08,12.0631,0,2.87938,1612.12,-388.325,-26831.8
1.4404e+08,70.8303,0,2.94985,2520.11,-6890.7,-15874.4
1.44198e+08,102.585,1,2.52234,18509.1,4203.27,-18377.3
1.44274e+08,137.328,0,2.64145,-1304.61,-961.599,-28129.5
1.44439e+08,150.146,2,2.71298,23964.9,-5780.13,-8999.43
1.44576e+08,4.3552,0,2.56133,-633.969,302.424,-28282.7
1.44595e+08,3.2048,2,2.43959,-623.505,135.417,-29197.5
1.44684e+08,6.0962,0,2.79358,-122.304,-1277.02,-28558.1
1.44713e+08,71.1525,0,2.46658,13731,-5505.82,-25683.2
1.44816e+08,48.9857,2,2.72161,7901,5205.69,-24993.1
1.44972e+08,25.6199,1,2.9726,2081.38,4920.85,-27703.3
1.45147e+08,79.4579,2,2.85783,-6400.23,-4402.97,-13994.2
1.45472e+08,112.881,0,2.39015,-13554.7,12927.6,-14077.9
1.45527e+08,69.602,2,3.0173,2418.84,-12938.5,-22384.4
1.46018e+08,112.177,2,3.05816,7319.01,-13171.5,-10767.3
1.46245e+08,203.334,2,2.87403,8368.45,-22124.2,6780.31
1.46638e+08,36.4054,2,2.62456,3089.31,-2868.88,-22416.6
1.46665e+08,23.6954,2,2.75555,-1462.15,-3210.53,-25200.2
1.46957e+08,25.657,0,2.43492,2302.19,4550.22,-26823
1.46958e+08,12.6276,1,3.0239,147.264,2125.12,-27129.9
1.47408e+08,7.44226,1,2.45308,275.104,1370.69,-27965
0,7.43662,1,2.49857,0,0,0
1.47581e+08,36.3137,2,2.89823,-6887.88,1761.3,-27562
1.47987e+08,17.5748,2,2.39467,-1213.76,2116.92,-26028.2
1.48024e+08,115.514,2,2.86894,-18285.3,-601.593,-12847.6
1.48791e+08,44.7843,0,2.60608,8790.45,-3419.02,-27387
1.49148e+08,52.0284,1,2.59012,5150.57,8092.05,-23364.3
1.49162e+08,154.68,2,2.82533,26084.8,-15451.8,-17030.6
1.49197e+08,381.676,0,2.95916,5588.36,-6264.47,-25046.3
1.49528e+08,107.471,0,3.0511,18286,3139.1,-15958
1.49546e+08,149.754,2,2.85773,-24310.1,-18625.6,-21182.7
1.49698e+08,3.61842,2,2.9347,306.931,-755.815,-28971.5
1.49988e+08,28.5556,0,2.69417,5285.61,-2841.12,-27622.1
1.50164e+08,82.3498,2,2.80771,-1871.91,-10171.9,-14896.9
1.50316e+08,123.53,1,2.41157,14468,-248.224,-7091.27
1.50318e+08,88.3927,0,2.76855,3361.3,-9264.67,-13023.6
1.50821e+08,64.5804,1,2.55522,9847.48,-3025.29,-19917.5
1.5091e+08,39.0975,1,2.63297,6572.83,4909.11,-27889.5
1.51196e+08,55.4191,2,2.42756,-9445.36,6722.91,-27045.6
1.51257e+08,1.56819,1,3.05949,-20.7393,-104.935,-28519.8
1.51396e+08,1.36224,1,2.43675,-246.496,71.714,-28601.8
1.52006e+08,100.442,2,2.59923,5625.67,-9582.9,-10722.5
1.52348e+08,81.8685,1,2.92169,6806.83,5374.96,-13980.2
1.52369e+08,30.0325,1,2.93961,-2399.67,-404.228,-25912.9
1.52622e+08,30.52,1,2.38939,3335.5,4556.22,-25599
1.52706e+08,172.525,0,2.71445,-7905.46,-23047.5,-1851.4
1.53053e+08,69.4302,0,2.62665,1472.77,-12754.1,-21716.9
1.53241e+08,142.381,2,2.65037,-18413.9,8276.67,-6565.38
1.53297e+08,111.247,1,2.53001,7296.32,8729.49,-8219.38
1.53576e+08,244.794,1,2.91563,-29635.6,-10203.9,11835.1
1.53593e+08,85.0617,2,2.6655,-2067.76,-13146.6,-16693.2
1.54067e+08,242.599,0,2.40079,11974,-150.983,-16588.5
1.54105e+08,16.2591,2,2.56272,917.334,3158.22,-28071.8
1.54402e+08,14.06,1,2.41149,2314.14,1469.58,-27620.7
1.5462e+08,65.0587,0,2.64314,-1435.76,-10604.8,-20227.1
1.54821e+08,18.1509,2,2.88229,2723.7,-801.614,-26264
1.55115e+08,64.0587,2,2.46107,996.671,-7649.35,-17644.7
1.55956e+08,40.3395,0,3.0282,-1537.38,7433.84,-25140.2
1.55966e+08,115.116,1,2.62932,9192.12,16850.1,-13847.3
1.56469e+08,21.8253,0,2.71366,4620.37,850.241,-28825.7
1.56613e+08,124.751,2,2.60518,3702.09,-6610.32,-28533.8
1.56676e+08,28.2611,1,3.05479,5265.77,-824.637,-26332.5
1.56895e+08,34.2161,0,2.73255,6006.33,4043.18,-27797.9
1.57158e+08,38.9372,1,2.46419,-3416.96,3070.48,-21922
1.57589e+08,91.3885,2,2.76024,-7132.86,9244.71,-13536.3
1.57677e+08,35.0811,0,2.75551,-3543.02,2550.84,-22905.7
1.58634e+08,73.0922,1,3.02063,-6242.92,3719.96,-15293.1
1.59348e+08,68.9899,2,2.64535,7258.8,12416.6,-27150.4
1.59523e+08,47.2531,1,2.76985,-4039.03,8672.47,-25843.5
1.60229e+08,129.047,2,2.49179,21667.7,-13234.5,-18798.3
1.6055e+08,29.4684,0,2.98781,-1335.38,4738.92,-25098.9
1.60706e+08,94.1763,2,2.97906,-9665.67,7206.3,-20640.4
1.60959e+08,78.8986,2,2.82754,-16472.8,-629.977,-26429.9
1.61077e+08,56.4575,0,2.79872,-7332.97,-8205.91,-27917.4
1.61157e+08,23.7178,0,2.76385,4883.41,-709.295,-27513.8
1.61239e+08,136.1,2,2.91711,-26570.7,-9742.5,-24354.5
1.61239e+08,111.852,2,2.59676,8506.98,8364.35,-8472.18
1.61239e+08,11.5582,2,2.9363,-271.255,-2473.36,-28341.1
1.61244e+08,62.2583,2,2.65226,-4396.59,-12154.2,-25997.7
1.61375e+08,10.3553,1,2.66697,-1436.44,1096.07,-27555.6
1.61539e+08,113.15,2,2.6894,-999.964,14866.4,-17148.5
1.61673e+08,68.651,2,2.9555,-4228.26,-7588.33,-17265
1.61963e+08,93.0577,1,2.46387,-14729.1,1343.72,-15764.3
1.62772e+08,46.8061,2,2.56866,-4300.91,-3614.86,-20615.2
1.62939e+08,133.863,0,3.04264,6771.07,10781.5,-11477.7
1.63081e+08,34.7749,2,2.64458,1464.72,-7101.71,-27213.3
1.63174e+08,3.87139,0,3.02626,859.831,117.73,-28537.5
1.63261e+08,136.091,1,2.7675,-18224.2,12199.2,-10292.7
1.63313e+08,31.7619,0,2.74797,-3300.08,2417.79,-23589.1
1.63386e+08,12.7636,1,2.91287,770.683,1441.86,-27279.6
1.63518e+08,55.489,2,3.0103,-4412.62,-1110.95,-18085.2
1.63582e+08,19.9818,0,2.57699,495.612,1815.21,-25017.8
0,20.1727,2,2.57436,0,0,0
1.6362e+08,75.1626,1,2.65552,-5091.93,-10426.9,-18058.3
1.63827e+08,73.3207,0,3.0265,10943.3,-10888.4,-28464.1
1.64051e+08,17.3324,1,2.96913,2429.79,-2300.22,-27545.9
1.64364e+08,162.026,0,2.61602,-23683.6,15379.3,-9610.76
1.64411e+08,77.3943,2,2.49643,4280.53,-13117.6,-19934
1.6453e+08,5.98002,2,2.40012,-552.41,-130.886,-27680.2
1.64576e+08,6.57883,1,2.9185,911.568,737.68,-28023.2
1.64928e+08,62.4653,1,2.5386,-12186.3,201.842,-23571.2
1.65204e+08,69.9456,1,3.00179,-1700.42,-13418.5,-23284.7
1.65276e+08,28.0347,0,3.03023,5004.06,-3187.4,-28656.8
1.65309e+08,168.76,2,2.55281,22531.6,21509.7,-11622.5
1.65539e+08,48.7383,0,2.71922,6710.05,-6494.63,-24428.6
1.6605e+08,91.8852,0,2.58972,-5468.91,18575,-27557.4
1.66159e+08,66.4005,2,2.72961,-13922.7,1799.45,-29500.2
1.67057e+08,124.532,2,2.81531,-10170.7,-17595.8,-15719.1
1.67067e+08,126.035,1,2.88705,5095.83,-16746.8,-9035.78
1.67569e+08,17.8594,0,2.39718,2980.06,-682.798,-26502.8
1.67682e+08,19.7297,1,2.98867,-3665.98,1112.95,-27092
1.67919e+08,89.6447,0,2.72234,13456.2,6035.33,-16926
1.67986e+08,130.518,2,2.49629,-6313.41,14973,-23656.1
1.68139e+08,60.4453,1,2.86509,-6515.42,8871.61,-22315.2
1.68256e+08,80.6468,0,2.62559,13053.4,10986.1,-27564.4
1.68554e+08,39.856,2,3.01796,-4614.82,-2075.51,-22111.1
1.68901e+08,106.799,2,2.5088,-8582.01,-21007.4,-29101.9
1.69034e+08,144.902,0,2.68643,26483.5,-14443.9,-23670.9
1.69259e+08,38.5387,1,2.60946,-4520.59,-4519.42,-26570.5
1.69264e+08,97.2735,0,2.72767,11413.7,10094,-15044.2
1.69465e+08,53.4938,0,2.61253,-9385.76,-6195.5,-28784.7
1.69499e+08,98.2394,2,2.42641,-1934.99,-7638.27,-9574.33
1.69543e+08,94.4639,2,2.5255,-12227.2,551.602,-13006.4
1.69827e+08,37.1266,0,2.72243,138.707,-5917.96,-23716.6
1.69995e+08,27.8516,2,3.0072,-4412.37,-2580.9,-25852.9
1.70008e+08,20.3631,1,2.5168,2764.54,3329.4,-29294.2
1.70101e+08,47.9107,1,2.88785,1147.23,7730.8,-22377
1.70196e+08,199.367,1,2.73232,12808.8,20598,-14800.2
1.70686e+08,10.1798,1,2.4935,91.1194,2139.25,-29467.3
1.70689e+08,112.393,0,2.37798,6474.95,-19666.9,-17058.4
1.70846e+08,20.2391,1,2.48989,2810.84,516.517,-25682.3
1.71292e+08,294.17,0,2.96645,-9820.88,20942.9,27411.4
1.71297e+08,20.5806,1,2.82884,117.232,-3771.56,-26805.8
1.71477e+08,77.3648,1,2.87463,-11992,3947.07,-18493.3
1.72291e+08,21.8721,2,2.81913,1004.61,-1510.13,-24573
1.72431e+08,68.7702,2,2.40172,-1399.84,8067.06,-16865.1
1.72636e+08,62.8885,2,2.39815,3734.1,-5797.31,-17465.7
1.72692e+08,9.69438,1,2.40122,-1867.69,-319.686,-27915.5
0,9.74036,1,2.91619,0,0,0
1.72888e+08,14.9171,0,2.42401,1752.58,2700.88,-28706
1.73451e+08,65.9644,0,2.6224,1294.51,12874.9,-23644.3
1.73657e+08,65.7451,2,2.53408,-3474.8,4813.68,-16277.7
1.73702e+08,185.885,1,2.98981,-17953.7,17122,912.208
1.73722e+08,55.5941,0,3.00917,11571.8,1818.32,-29910.6
1.73775e+08,32.9221,1,2.65933,-1261.97,-4785.78,-23994.4
1.73785e+08,141.078,0,2.54346,5539.38,17506,-5328.53
1.74959e+08,29.5125,1,2.69994,-2955.3,5176.42,-26704.5
1.74991e+08,1.64601,1,2.71272,50.1936,407.191,-28692.9
0,1.61016,1,2.52292,0,0,0
1.75276e+08,73.7194,0,3.03525,12591.1,3797.52,-20620
1.75383e+08,100.648,2,2.90798,1302.71,14994.1,-14077.8
1.75653e+08,375.672,0,2.83672,1299.03,-26481.3,-23632
1.75954e+08,81.0852,2,3.02647,12088.8,-7283.64,-19416.2
1.76067e+08,16.7255,1,2.9574,1740.59,262.995,-25817.9
1.76122e+08,15.0896,2,3.0236,2439.02,-1291.83,-27223.2
1.76811e+08,134.894,1,2.44395,18008.1,10106.3,-17140.8
1.76975e+08,134.957,1,2.60358,13356.4,-11062.8,-8725.89
1.77449e+08,114.85,2,2.59397,-13459.5,6176.27,-9600.74
1.77554e+08,51.4378,1,2.87961,3497.16,10246.4,-27604.4
1.77607e+08,34.0692,0,2.39464,-849.384,5418.63,-24142.2
1.77728e+08,11.6101,2,2.45076,-1329.02,2054.48,-28831.5
1.77817e+08,143.193,2,2.95546,-6904.97,29026.6,-25798.8
1.77827e+08,254.941,2,2.76321,-15468.9,-9825.44,-7959.47
1.77865e+08,64.0406,2,2.80105,4518.28,8787.13,-19742.6
1.77966e+08,46.9804,0,2.42929,-3022.22,8589.15,-24893.4
1.78693e+08,3.07115,0,2.6803,383.737,182.519,-28278
1.78777e+08,2.8535,0,2.78602,-162.571,-284.167,-28362.4
1.78867e+08,42.557,0,2.55873,-6502.74,1447.57,-22842.3
1.79068e+08,43.1008,0,2.65806,1369,-8923.64,-27537.8
1.79291e+08,34.0028,1,2.45599,1652.63,-4609.65,-23795.1
1.79478e+08,40.0756,0,2.93787,7605.99,-3472.62,-27341.1
1.79553e+08,0.647728,1,2.62149,-107.379,230.662,-28848.1
0,0.763085,1,2.9665,0,0,0
1.79588e+08,142.322,2,2.67414,-21743.3,-20802.8,-28380.1
1.79983e+08,76.7741,2,2.4368,6269.94,-3369.49,-14261.9
1.80074e+08,91.6912,1,2.70702,-14394.8,13034.7,-28450.2
1.80096e+08,47.6281,0,2.4953,-1179.29,6972.97,-21643.3
1.80135e+08,212.533,2,2.84292,1280.49,-21759.3,10193.6
1.8029e+08,129.566,0,2.99595,2382.47,-17679.3,-8370.18
1.80634e+08,185.62,2,2.98022,-25035.3,-29264.6,-23027.8
1.80766e+08,39.5147,1,2.81423,-7515,-976.349,-25312
1.80862e+08,131.767,2,2.63515,12397.7,-24243,-22835.8
1.81128e+08,17.0461,1,2.41398,-2694.49,-1912.39,-27350.8
1.81266e+08,380.282,0,2.61191,13225.9,-23862.7,-28433.6
1.817e+08,20.0747,0,2.96763,131.403,-4114.42,-27814.1
1.81753e+08,105.909,2,2.70925,19493.5,-3538.3,-18605.8
1.82295e+08,66.3828,0,2.93927,-3987.53,-11582.6,-22203.6
1.82414e+08,89.3493,0,2.62086,10353.1,15141.3,-24166.7
1.82845e+08,130.63,1,2.42087,-23095,13823.5,-22175.4
1.82916e+08,136.334,1,2.54552,-16060.3,14678.4,-24063.2
1.83356e+08,186.26,0,2.81572,1109.55,22441.2,-3845.8
1.83625e+08,75.4948,1,2.37733,8557.33,10861.9,-20762
1.83958e+08,141.556,1,2.43366,-8923.6,10228.7,-2092.01
1.84339e+08,118.213,1,2.71308,-16071.8,-12805,-17879
1.84403e+08,221.768,1,2.82583,-528.375,28163.8,-8658.54
1.84483e+08,38.5681,1,2.93289,-6220.45,2891.55,-24378.7
1.84494e+08,20.5894,1,2.61057,229.687,1626.28,-24760.8
1.84598e+08,95.4525,2,2.66114,12819.7,-14988.2,-24680.9
1.84613e+08,105.352,1,2.82814,-19611.4,10343,-27212.7
1.84692e+08,24.2691,2,3.01278,-4709.24,-1577.56,-27359.1
1.84891e+08,89.8484,2,3.01838,1134.83,-11003.9,-13637.1
1.84998e+08,22.9861,1,2.96638,1750.68,-1813.39,-24740.9
1.85043e+08,252.967,1,2.67428,-19784.3,10728.8,-9488.18
1.85063e+08,2.28516,0,2.37395,313.278,197.383,-28441.3
1.85248e+08,11.7756,2,2.84977,151.196,-2541.52,-28459.9
1.85275e+08,157.754,2,2.8663,16408.1,11753.3,-2573.31
1.85497e+08,115.662,2,2.95306,-3192.05,-19612.9,-16948.4
1.85661e+08,24.5184,0,3.06137,5036.57,-822.021,-27606
1.85876e+08,6.32047,1,2.9855,-74.4944,-631.133,-27689.7
1.85983e+08,61.019,1,2.83922,8714.99,7039.29,-22597.9
1.86771e+08,63.332,1,2.82398,-10590.2,2393.91,-21002.4
1.86795e+08,163.072,0,2.70541,-10932.1,-28217.5,-12608.8
1.86811e+08,31.5388,0,2.50967,6661.82,-1005.21,-28051.9
1.86954e+08,147.601,0,2.79644,-1227.49,21374.5,-6321.21
1.8699e+08,155.808,2,2.91936,13285,-28163,-18692.1
1.87045e+08,3.12014,0,2.9674,734.68,52.212,-29071.2
1.87272e+08,93.7367,0,3.02988,8954.61,-8034.55,-13257.1
1.87587e+08,17.1704,2,2.60523,-2583.31,2094.25,-27335.6
1.87857e+08,33.4564,0,2.91105,6215.17,-3324.54,-29835
1.88048e+08,18.3999,0,2.50521,2382.67,-2480.02,-26888.8
1.881e+08,76.2416,1,2.7168,-687.248,-7272.92,-14539.4
1.88138e+08,42.5619,0,2.51598,5484.02,-1252.81,-21726.3
1.88167e+08,105.127,2,2.44929,3457.87,-18738.4,-17245.4
1.88623e+08,4.99826,1,2.71581,-97.9915,-476.047,-27913.2
1.88712e+08,48.3726,2,2.99747,-6610.89,-7135.25,-25612.2
1.88725e+08,134.489,1,2.83627,-15862.6,12907.2,-9229.12
1.88798e+08,4.83947,1,2.90978,112.745,-536.747,-28013
1.88849e+08,22.0515,1,2.75689,-2035.61,3117.51,-25951.2
1.89028e+08,15.1505,2,2.60663,-470.715,-3206.37,-28181.3
1.89062e+08,95.3552,0,2.5148,19689.2,1166.56,-24183.1
1.89116e+08,46.876,1,2.8114,-5533.86,4594.67,-21996.7
1.89567e+08,62.9592,2,2.47153,-8603.32,-9856.22,-25826.6
1.89605e+08,145.255,1,2.89823,-8607.31,-13353.3,-2816.68
1.90409e+08,37.8813,2,2.91904,-3016.2,-6508.7,-25174.6
1.90452e+08,126.054,2,2.74351,-5277.24,-13984.5,-6897.48
1.90511e+08,12.0889,2,2.40109,-696.763,-2302.23,-29920.5
1.90552e+08,120.753,1,2.55387,4564.71,19931.5,-13456.1
1.90792e+08,52.1362,2,2.37075,-5237.78,-6596.04,-21579.4
1.91295e+08,15.1813,1,2.92224,375.302,2926.93,-27407.3
1.91461e+08,67.9752,0,2.93627,6237.98,-3967.53,-16593.9
1.91488e+08,78.8425,0,2.84076,-7048.43,-9594.13,-17363.7
1.92017e+08,55.2684,0,2.86979,7352.48,-8986.9,-27379.3
1.92028e+08,106.434,1,2.58195,977.439,-17706.1,-15100.9
1.92209e+08,12.5324,1,2.82636,-2406.21,1196.97,-29171.9
1.92523e+08,41.1411,0,2.45472,6309.24,-2332.57,-23216.4
1.9263e+08,100.593,1,2.6273,2038.74,20083.7,-21961.4
1.92716e+08,123.391,1,2.36471,-6914.95,21569.3,-16144.2
1.9292e+08,12.3773,0,2.52354,-1734.99,-1615.45,-27864.8
1.9293e+08,165.845,2,2.65649,17689.4,-7907.45,270.889
1.93092e+08,71.4723,1,2.85776,10200.5,4856.37,-18958.3
1.931e+08,35.4964,1,2.87009,-5659.12,-4590.51,-27202.2
1.93156e+08,178.018,0,2.48922,20744.7,7804.56,1651.76
1.93334e+08,72.7891,0,2.88197,-10335.7,2163.53,-18456.4
1.93479e+08,90.3532,1,2.70603,-3482.97,-13809,-16219.8
1.93973e+08,162.63,0,2.79335,24454.1,-23301.1,-23576.8
1.94014e+08,122.564,2,3.0088,11959.4,-11301.9,-9092.39
1.94027e+08,162.206,1,2.81192,-14413.5,15500.2,-2014.24
1.94158e+08,72.6559,1,2.59548,-5940.45,14027,-26259.3
1.94442e+08,72.0571,0,2.42531,6841.91,-13135.7,-24999.4
1.94469e+08,116.75,1,2.98361,-16416,-7644.33,-15659
1.94489e+08,129.185,2,2.90678,200.797,10928.4,-16279.7
1.9458e+08,49.3391,1,3.0049,-7444.48,-767.941,-21639.7
1.9467e+08,57.2584,0,2.61335,8448.98,-6227.87,-22717.2
1.94781e+08,109.697,0,2.78086,20677,-4108.77,-19205.6
1.9496e+08,53.8414,0,2.84505,7241.4,-3634.26,-20828.8
1.94962e+08,280.378,2,2.75081,-17642.2,25411,17012.4
1.94966e+08,0.734128,2,2.38614,122.722,-151.603,-28781.8
1.94986e+08,11.3402,2,2.50081,1037.95,-2014.94,-27917.1
0,11.2568,2,2.67021,0,0,0
1.95073e+08,156.263,1,2.80806,-6755.83,-3628.53,-18941.5
1.95272e+08,127.876,0,2.4466,24141,-6901.6,-18589.5
1.95609e+08,38.5443,0,2.53495,2805.12,-1626.5,-21329.1
1.95662e+08,40.5334,0,2.49567,2536.23,-6086.92,-23421.1
1.95741e+08,14.6161,0,2.4489,291.364,2276.58,-26722.4
1.95898e+08,67.429,0,2.41166,6207.09,-11600.5,-23225.1
1.9592e+08,9.00114,2,2.71804,-916.872,-1762.43,-29020.9
1.96462e+08,9.09929,2,3.05763,272.308,-1428.55,-27515.3
1.96533e+08,50.7101,2,2.79781,1394.1,-5586.4,-19793.8
1.96911e+08,36.8989,0,2.41595,-4011.66,3918.32,-23415.6
1.96945e+08,46.0179,0,3.02531,-1010.78,-9156.55,-25962.6
1.97531e+08,167.029,2,2.87742,23036,-2540.5,-2516.16
1.97817e+08,25.51,1,2.60052,-1135.07,5353.89,-29213.7
1.97835e+08,92.0432,0,2.58228,19384.7,1199.25,-26573.6
1.98058e+08,65.5152,2,2.62586,415.337,-12343.4,-22414.4
1.98104e+08,89.284,0,2.64037,9297.97,2033.94,-12524.1
1.98124e+08,10.2885,0,2.57997,1827.09,-1353.79,-28664.4
1.98174e+08,140.55,2,2.61191,14548.5,-18400.1,-10608.5
1.98217e+08,120.542,2,2.45556,-10377.6,-11508,-26556.8
1.98492e+08,16.7452,0,2.63449,-1019.19,2135.62,-26218.4
1.98529e+08,38.6238,1,2.4346,-6137.27,5508.21,-28093.3
1.98676e+08,63.2436,0,2.56045,-2318.55,7430.82,-17973.5
1.99344e+08,57.5126,0,3.04854,869.157,11915.3,-27171.1
1.99558e+08,3.81468,1,2.38501,133.388,897.844,-28886.7
0,3.88691,1,2.77012,0,0,0
1.99642e+08,75.5326,1,2.79196,-2672.71,-14935.9,-24317.6
1.99793e+08,54.1021,0,2.65024,-1861.98,9863.2,-23378.6
1.99867e+08,43.0913,0,2.4461,4625.4,-4881.21,-22585.8
2.00002e+08,67.4461,1,2.81591,-5325.66,13192.1,-29968.9
2.00186e+08,42.1992,0,2.74371,500.823,5940.27,-22198.7
2.00404e+08,78.9251,2,2.65686,-7756.4,12662.3,-21393.8
2.00443e+08,6.07479,1,2.67889,-883.19,-81.3751,-27861.2
2.00448e+08,202.606,1,2.99097,29803.4,558.97,1407.61
2.0046e+08,34.2888,0,2.43463,-4551.18,3690.21,-24587.6
2.00462e+08,45.1764,1,2.90463,-4363.37,7247.03,-24333.1
2.0053e+08,160.638,0,2.93855,23387.1,-14986.3,-9644.42
2.00851e+08,88.0058,1,2.71323,-9537.75,2495.05,-13071.6
2.01009e+08,68.2658,0,2.53741,7543.5,-6559.62,-22618.3
2.01031e+08,68.3659,2,2.63531,-12682.5,-2556.32,-22271.5
2.01194e+08,7.89056,1,2.6215,832.373,961.963,-29992
2.01504e+08,55.3907,0,2.47804,-1216.3,-11026.7,-24989.9
2.01899e+08,117.564,0,2.83286,-19962.3,-6006.74,-16112.5
2.02115e+08,24.7219,2,2.54569,2933.94,-4264.38,-29859.4
2.0236e+08,192.969,0,2.83616,-25871.7,15981.7,-5186.51
2.02452e+08,7.35238,2,2.8568,-1528.07,-548.67,-28578.8
2.02472e+08,137.973,1,2.75644,-20902.6,-4406.7,-25960.2
2.02628e+08,10.3969,2,2.86999,715.965,-1808.26,-27694.6
2.02898e+08,82.9012,1,2.78703,-8668.07,-753.681,-13681.7
2.02911e+08,36.2976,2,2.39954,-9.65531,-5615.82,-23493.2
2.03029e+08,307.526,0,2.59657,24505.7,-29162,23789.8
2.03275e+08,149.369,1,2.62816,-19555.4,-11795.8,-13806.9
2.03318e+08,60.9891,2,2.99422,760.553,8376.86,-19250.6
2.03427e+08,50.2188,0,2.51426,10524.5,-2027.69,-28770.8
2.03663e+08,70.5332,2,2.94925,-8473.45,2616.88,-16944.6
2.03834e+08,34.4972,1,2.80292,1714.39,5086.72,-23859.3
2.04179e+08,12.3232,1,2.36556,-2368.13,-854.094,-28020.1
2.04271e+08,18.621,2,2.42327,-1698.72,-1023.89,-25367.5
2.04446e+08,127.508,2,2.80862,19732.2,14244.8,-17834.1
2.04826e+08,20.1603,2,2.77904,-4045.19,-656.335,-27480.5
2.04839e+08,57.3445,2,2.47033,9141.16,1901.55,-21133.5
2.04882e+08,131.146,2,2.66963,-13660,-11932.2,-8078.1
2.05152e+08,15.7359,0,2.52272,1229.83,-2372.42,-26794.4
2.05463e+08,62.4113,2,2.89474,-1939.42,9574.48,-20141.3
2.05634e+08,125.546,2,3.057,-2620.69,-25982.4,-25126.3
2.06202e+08,105.035,0,2.86586,15408.5,-3016.56,-13238.8
2.0627e+08,198.925,0,2.79235,24536.7,-27221.3,-8492.48
2.06632e+08,7.42492,0,2.71282,798.604,1175.47,-28091.6
2.0668e+08,82.9276,1,3.00575,5592.79,3301.46,-12707.2
2.06835e+08,46.9087,1,2.41434,3323.07,2327.83,-19774.6
2.07069e+08,2.20259,2,2.78704,-251.238,-517.569,-28872.1
0,2.19748,2,2.62153,0,0,0
2.07142e+08,91.1307,1,2.4945,-2018.4,-10125.9,-12590.3
2.07343e+08,105.08,2,2.87629,-7728.88,-6963.64,-9304.81
2.07533e+08,66.0406,2,2.99239,-209.799,-7542.43,-17174.8
2.07587e+08,140.28,1,2.5135,27453.1,10737.8,-25496.5
2.08059e+08,83.127,2,2.77639,-4487.88,-5212.23,-12710.5
2.08133e+08,210.34,2,2.96368,21273.6,-6196.24,9307.04
2.08294e+08,127.942,0,3.05522,3569.12,-20078.9,-14373
2.08485e+08,77.2015,1,3.00466,2428.44,10820.5,-16975.3
2.08629e+08,183.209,0,2.5992,-5968.92,13131.7,-12630.6
2.0877e+08,54.2896,2,2.93088,881.787,-4743.94,-18469.9
2.09136e+08,22.1982,1,2.94936,-2800.8,3782.67,-29570.8
2.09347e+08,73.7971,0,2.61754,3209.41,12118.8,-19537.6
2.09368e+08,150.524,2,2.60301,-21058.8,-1841.59,-5042.75
2.09511e+08,76.4964,0,3.05289,10821,10768.5,-23712
2.09852e+08,4.95846,0,3.04932,378.346,-646.016,-28040.4
2.10196e+08,31.0833,1,2.59836,1212.84,6034.35,-26311.8
2.10321e+08,56.9954,2,2.7124,-7550.76,-2139.57,-19683.6
2.10361e+08,14.9825,1,2.38107,817.274,-2890.59,-27958.6
2.10615e+08,122.669,1,2.44588,-25671.1,-1251.79,-24885.6
2.10708e+08,74.3954,0,2.41948,2098.1,9916.23,-16757.3
2.11475e+08,231.126,0,2.99974,-21942.1,20894,8911.71
2.11508e+08,19.4965,2,2.84587,2818.81,1424.73,-26319.3
2.11815e+08,130.326,2,2.68822,3404.83,1898.41,-27300.3
2.12049e+08,12.2927,1,2.77637,-1521.97,-1879.3,-27917
2.12086e+08,86.8666,1,3.03009,4743.52,16767.4,-23363.8
2.12092e+08,69.8119,2,2.84694,-10483.7,2798.82,-18899.9
2.12126e+08,53.2667,2,2.95647,-1703.64,-4518.67,-18697
2.12133e+08,68.0306,1,2.88658,-11312.8,-7013.89,-23544.7
2.12148e+08,128.139,2,2.8005,-11741.1,-675.907,-4545.13
2.12203e+08,60.8481,0,2.8496,667.583,10474.3,-21517.8
2.12234e+08,63.2278,1,2.53221,-9437.04,8584.35,-24528.5
2.1229e+08,53.9753,1,2.42896,-7971.83,113.858,-20648.1
2.12309e+08,26.5348,1,2.82418,2909.37,2604.39,-24828.3
2.12974e+08,71.5338,1,2.72533,-6447.74,3039.04,-15515.9
2.13317e+08,10.7504,0,2.94727,2074.39,887.053,-28173.9
2.13486e+08,41.6452,1,2.90731,-5938.23,5385.55,-25131.1
2.13755e+08,0.424847,0,2.92579,150.025,68.3985,-28770.8
0,0.447408,0,2.889,0,0,0
0,0.439217,0,3.06022,0,0,0
0,0.394729,0,3.0357,0,0,0
0,0.456697,0,2.41436,0,0,0
0,0.391624,0,2.73615,0,0,0
0,0.41041,0,2.61249,0,0,0
0,0.399483,0,2.62308,0,0,0
2.14806e+08,95.7813,1,3.05575,2514.21,18904.4,-22384.4
2.14807e+08,27.9574,2,2.94465,781.852,-5478.58,-26636.1
2.15324e+08,133.891,1,2.54881,16863.8,22761.2,-28761.8
2.15547e+08,36.5433,0,3.03028,5250.49,3995.77,-24816.1
2.15674e+08,59.3136,1,3.01639,-7872.34,8201.06,-23615.3
2.15853e+08,128.509,2,2.87833,-23125.7,-11264.1,-20352.9
2.16007e+08,57.6719,0,2.46189,2551.38,10855.8,-23807.9
2.16345e+08,112.349,0,2.44503,-23550.1,1084.91,-26488.6
2.16609e+08,30.878,2,2.71985,137.72,-3247.84,-23144.3
2.16918e+08,218.966,2,2.84812,-29370.5,-17484.7,1847.41
2.16993e+08,27.6706,2,2.58369,4871.41,-1224.03,-26893.3
2.17126e+08,68.959,1,2.37142,116.894,-9458.29,-17765.7
2.17259e+08,39.322,0,2.82327,7129.43,4404.19,-28955
2.17259e+08,57.613,0,2.67948,-7518.52,7341.65,-22783.9
2.17658e+08,95.7193,0,3.04508,-1021.24,-17026.3,-18265.4
2.17743e+08,5.97211,1,2.89949,230.75,1084.39,-28098.9
0,5.9509,1,2.42903,0,0,0
2.17774e+08,8.85327,0,2.54239,498.63,-1129.9,-27364.7
2.18031e+08,129.618,0,2.63561,5337.69,-21117.7,-12249.9
2.18045e+08,194.225,0,2.72035,19397.9,5268.23,6853.5
2.18062e+08,66.9441,0,2.49167,12994.8,5874.48,-28844.3
2.18124e+08,11.7284,0,2.62992,224.303,-1686.12,-26985.2
2.18404e+08,33.1832,1,2.97716,-3846.65,1262.04,-24496
2.18594e+08,111.06,1,2.92909,-9434.77,21435.7,-28823.1
2.18621e+08,36.7753,2,2.72661,389.29,-5748.64,-23608.2
2.18631e+08,18.4279,0,2.60753,3930.57,220.974,-28079.9
2.20424e+08,100.657,2,2.41985,-13416.4,-12869.5,-18283.8
2.20446e+08,0.335911,2,2.84668,-57.9086,-164.673,-28841.3
0,0.26348,2,2.41188,0,0,0
0,0.257247,2,2.78843,0,0,0
0,0.254233,2,2.7076,0,0,0
0,0.26019,2,2.44869,0,0,0
0,0.292909,2,3.00386,0,0,0
0,0.274838,2,2.72205,0,0,0
0,0.264201,2,2.60462,0,0,0
0,0.33898,2,2.07447,0,0,0
0,0.303805,2,2.82804,0,0,0
0,0.304881,2,2.40783,0,0,0
2.20675e+08,131.585,0,2.88964,-7834.17,15713.7,-7507.83
2.20971e+08,25.5382,0,2.77348,1020.59,-5151.02,-27519.9
2.21307e+08,37.0338,0,2.7584,-5531.91,2080.44,-23812.8
2.21375e+08,13.555,2,2.43587,-2630.87,475.241,-27681.5
0,13.5176,2,2.38217,0,0,0
2.21563e+08,49.2781,0,2.3621,5793.86,-5657.54,-22304.4
2.21769e+08,103.286,2,2.56417,15502.8,1670.7,-19360.1
2.22121e+08,28.2457,2,2.79013,-2769.77,685.062,-23578.6
2.22169e+08,116.809,2,2.42018,-10310.7,14669.5,-18905.2
2.2266e+08,39.6569,0,2.39389,-3711.7,-6969.57,-26084.4
2.23008e+08,33.6503,1,2.69638,5524.85,4110.89,-27057.8
2.23115e+08,185.881,1,2.70748,-29508.3,-10241.2,-5156.67
2.23541e+08,5.56316,1,2.64104,-54.1714,1083.24,-28179.6
2.23811e+08,77.0373,0,2.40001,6523.15,-4504.25,-14546.3
2.23972e+08,27.7434,0,2.9422,1666.89,5141.62,-26522.7
2.24309e+08,116.193,2,2.99831,-8338.26,-21834.9,-21798.1
2.24452e+08,88.9372,1,2.39438,-12299.4,5562.45,-15638.1
2.24453e+08,63.9491,1,2.88742,-6040.36,7594.59,-19446.6
2.24993e+08,35.0758,1,2.79297,957.629,-4211.18,-22886.5
2.25005e+08,30.9756,0,2.40337,5435.96,-1892.35,-25551.3
2.25073e+08,108.472,0,2.95536,10766.7,-15519.6,-16034
2.25136e+08,105.982,1,2.45213,-5279.74,-20865.9,-25074.7
2.25174e+08,159.141,2,2.82561,-13734.4,-3675.22,-7346.11
2.25295e+08,15.8762,2,2.73917,483.014,1717.27,-26048.9
2.25306e+08,119.222,0,2.89339,-5877.51,-14081.1,-9013.53
2.25674e+08,67.729,0,2.85398,3161.38,-6277.59,-16424.8
2.26344e+08,123.071,1,2.77477,14738.7,11537.4,-10901.9
2.26359e+08,187.165,1,2.5727,3443.98,-601.463,2549.45
2.26619e+08,114.831,2,2.55197,-21734.3,190.94,-17943.6
2.27184e+08,18.7482,0,2.96013,-2533.3,-338.286,-25911.5
2.27234e+08,138.001,0,2.75787,15247.7,24312.6,-23883.1
2.274e+08,126.269,2,2.83886,-2885.17,14755.5,-7019.59
2.27509e+08,13.2868,1,2.75122,1704.78,1942.58,-27660.4
2.27959e+08,26.6004,1,3.00412,-614.582,4181.4,-25083.9
2.28126e+08,86.7799,0,2.76599,3935.47,11804.8,-17424.6
2.2825e+08,117.318,1,2.74217,-6290.27,14671.8,-9895.63
2.28485e+08,77.4928,1,2.99457,-13488,-7432.74,-23645.6
2.28738e+08,97.2142,0,2.6938,10765,-11059.3,-15255.6
2.289e+08,4.95917,0,2.52586,281.766,-1022.69,-29113.5
2.29257e+08,103.92,2,2.75564,-21177.8,-2997.19,-23931.5
2.29517e+08,28.8413,1,2.57321,-4607.39,3215.94,-26262.7
2.29543e+08,155.315,1,2.98726,-9464.45,-19059.8,-4222.9
2.30206e+08,82.672,2,2.83495,-5078.65,14942.9,-21650.5
2.30261e+08,121.242,2,2.40324,-6284.84,-10855.9,-6411.01
2.30334e+08,31.5958,1,2.55889,338.489,5885.52,-25561.9
2.30386e+08,12.4268,2,2.91839,1911.84,373.645,-27114.9
2.30485e+08,79.1493,1,2.38474,-275.436,-15073.3,-21621.8
2.30726e+08,35.7256,0,2.87915,4248.13,-6276.77,-29188.7
2.3082e+08,15.671,1,2.94841,-237.038,-3131.81,-27969.6
2.30925e+08,125.495,0,2.67898,-12088.6,-21259.8,-28226.2
2.31168e+08,262.603,2,2.65455,-29023.5,23998.9,11799.4
2.31187e+08,1.9641,2,2.87134,197.022,-463.486,-28813.6
2.31876e+08,97.1005,1,2.58023,-5578.19,18535.9,-21746.6
2.32121e+08,96.5464,2,2.99927,3409.23,-11819.6,-12736.7
2.32176e+08,74.9038,2,2.54769,-1146,6613.76,-14525.2
2.32184e+08,195.737,0,2.48707,-10761.6,-18985.9,-12173.5
2.32188e+08,65.1496,1,2.53481,-11096.9,-430.498,-20607.9
2.32247e+08,109.899,2,2.58739,-4990.88,21420.8,-21540.6
2.32573e+08,4.88084,2,2.80004,-775.256,-453.934,-28225.1
2.32633e+08,13.8506,0,2.94404,2802.26,-421.282,-29853.1
2.32681e+08,33.123,0,2.37913,-5683.06,-725.362,-24853.1
2.32724e+08,159.604,2,2.41363,29600.1,11473.8,-17506
2.32922e+08,26.3043,2,2.67218,-4502.49,3278.01,-28746.9
2.33062e+08,64.3978,0,2.82968,9552.92,8526.59,-24164.6
2.33338e+08,110.813,2,3.00481,-23162.3,-2265.52,-27602.5
2.33449e+08,5.80623,2,2.96903,-79.7111,-355.939,-27646.4
2.33574e+08,17.3761,1,2.38221,-2557.22,2787.8,-29202.6
2.33967e+08,56.9334,1,2.51453,6113.92,7945.45,-22142.6
2.33977e+08,4.8816,1,2.39719,657.572,752.222,-28403.8
0,4.88135,1,2.83025,0,0,0
2.34203e+08,13.3883,2,2.95745,-2337.3,-1409.34,-29840
2.34444e+08,26.7562,0,2.59476,1104.09,4470.51,-25513.5
2.34446e+08,99.9102,0,2.76073,-3612.79,-10526.2,-20839.3
2.34612e+08,43.5798,1,2.91594,-2078.72,7883.84,-29255.6
2.34644e+08,16.0804,2,2.72606,-676.642,2243.55,-26399.6
2.34867e+08,3.55792,1,2.69729,-772.984,-57.6222,-28561.9
2.3524e+08,117.608,1,2.60551,-3038.9,11686,-7483.48
2.35305e+08,70.8166,0,2.36388,7911.19,1631.42,-16159.3
2.35483e+08,94.9422,1,2.84611,-12034.8,-8121.72,-15111.3
2.35705e+08,90.5407,2,2.40051,-4132.59,6778.76,-11409
2.36222e+08,15.4068,0,2.4584,-603.233,2786.55,-27249.3
2.3642e+08,261.472,0,2.40641,-21653.4,-14008.3,20058.9
2.36571e+08,70.6396,2,2.4565,-8336.01,11505.2,-24345
2.36663e+08,18.0272,1,2.54624,-3863.27,-191.281,-28948.4
2.36794e+08,109.85,0,2.87329,12188.8,12136.1,-13372.9
2.36936e+08,33.9361,0,2.58763,4429.51,-3650.74,-24463.6
2.36938e+08,135.03,2,2.51397,-21936,-6984.52,-11837
2.3705e+08,9.7107,1,2.78812,-943.741,-224.418,-26995.6
2.37169e+08,12.4191,1,2.61508,-935.524,2433.42,-28009
2.37395e+08,60.8362,0,2.80809,7240.43,6653.55,-20549.6
2.38046e+08,14.6054,0,2.6369,2246.24,-409.649,-26666.5
2.38095e+08,14.597,1,2.79429,2640.49,1570.92,-28338.4
2.38178e+08,96.3207,0,2.93488,17959.1,-3714.33,-20114.1
2.38337e+08,41.8003,0,2.6249,-4748.35,-599.069,-21443
2.38426e+08,117.075,1,2.72159,-10317.9,5896.14,-7172.44
2.38818e+08,27.0887,2,2.44936,-2856.13,1559.61,-28120.5
2.38965e+08,183.557,0,3.0212,24895.2,10058.8,-1251.74
2.39141e+08,24.4769,2,2.81449,-1296.27,-1370.46,-26677.6
2.39402e+08,74.5427,2,2.70426,8375.06,-2278.3,-15721.2
2.39474e+08,23.4026,2,2.90621,-3688.83,1698.56,-26050.9
2.39508e+08,101.072,1,2.5175,19048.9,-743.398,-19223.9
2.39719e+08,197.199,2,2.74228,5192.74,-17963.1,8265.79
2.39777e+08,73.683,2,2.59318,2513.53,-5996.71,-14666.9
2.39883e+08,72.7739,0,2.47521,13813.5,-1619.63,-22082.9
2.40188e+08,59.7452,2,2.93653,8430.27,-8008.06,-24010.3
2.40403e+08,54.8026,0,2.75414,3175.06,8134.45,-21211.1
2.40667e+08,93.4448,1,2.89682,6879.39,-6579.06,-11726.7
2.40919e+08,24.6213,2,2.84823,-4152.17,-2745.89,-27080.3
2.41002e+08,29.0647,0,2.66461,4284.65,1037.7,-24459.5
2.41143e+08,139.248,1,2.599,-28523,3315.63,-22258.2
2.41262e+08,39.6134,0,2.88395,1927.43,-8098.8,-27916.2
2.41436e+08,36.9069,0,2.95654,-1563.83,-3452.61,-22080.2
2.41693e+08,54.7935,0,2.82072,14.0204,-10450.6,-23940.4
2.42238e+08,18.2498,0,2.70841,2558.44,1103.87,-26101.2
2.42326e+08,10.3448,0,2.71932,-640.385,-1877.72,-27916.1
2.42558e+08,113.928,1,2.56334,9290.01,-6079.7,-7493.83
2.42706e+08,118.019,1,2.63573,-9858.04,-17203.6,-13818.7
2.42732e+08,52.7071,2,2.95428,-5012.3,-7247,-25240.8
2.42869e+08,16.7,2,2.42158,1094.61,2102.17,-26288.8
2.43043e+08,65.1447,2,2.96912,-11181.7,2613.85,-21371.3
2.43168e+08,19.7342,1,2.9939,-2406.09,1551.16,-25750.7
2.43252e+08,117.919,1,2.68764,-24888.8,-1387.52,-28956.9
2.43638e+08,25.4989,1,2.77671,-4023.88,-2535.62,-26280.8
2.43761e+08,24.7527,1,2.4824,4370.75,2121.4,-26834
2.44116e+08,78.1868,2,2.75025,-10172.3,-4492.28,-16642.8
2.44198e+08,41.2612,2,2.60795,1596.24,-3925.02,-21181.3
2.4424e+08,0.505933,0,2.84603,211.618,61.5794,-28853.7
2.44245e+08,34.7476,2,2.66977,-3382.63,-3715.18,-23390.6
2.4468e+08,224.116,1,2.68203,-5081.24,1060.54,-23587
2.45138e+08,125.996,2,2.8468,12116.7,341.453,-5323.5
2.45161e+08,11.1045,2,2.96064,619.544,-1169.01,-26861.6
2.45627e+08,32.7297,2,3.0563,-6452.96,-472.276,-26459.6
2.45896e+08,13.5702,2,2.56241,2526.78,-972.729,-27814.3
2.46345e+08,9.3763,1,2.71618,-198.76,725.474,-26956.4
2.46362e+08,42.8494,0,2.85136,-1263.08,4753.29,-21295
2.46683e+08,7.56096,1,2.8636,-917.024,124.969,-27493.5
2.46796e+08,160.416,0,2.81958,-25349.7,-8630.19,-8399.9
2.46818e+08,99.3387,0,2.42244,18591.9,-2240.55,-19132.5
2.46871e+08,43.1225,0,2.75958,8074.52,-4188.14,-29932.8
2.47189e+08,163.628,2,2.6305,-20945.8,-27430.6,-26031.6
2.47209e+08,38.2945,1,2.57479,2472.04,7792.71,-29076.8
2.4725e+08,158.368,2,2.5136,26603.9,-16710.7,-17252.8
2.47597e+08,86.2512,1,3.02137,-4569,-15298.3,-20691.7
2.47725e+08,137.155,0,2.74745,11149.4,-4132.48,-2473.9
2.47755e+08,47.3881,2,2.53944,-7968.56,73.523,-22674.3
2.47762e+08,96.2511,0,2.41947,19562.5,5157.51,-28167.7
2.4786e+08,90.508,2,2.91654,14510.6,-8324.32,-19819.6
2.48268e+08,47.8766,2,2.83481,2171.47,-6637.95,-21523.3
2.48488e+08,121.544,1,2.70283,-21263.9,-3893.63,-15312.4
2.49431e+08,71.8908,1,2.86013,11732.2,4233.86,-20278
2.4947e+08,63.3949,0,2.65069,4762.28,4081.64,-17004.6
2.49598e+08,6.21431,0,2.62943,-493.384,-168.938,-27630.9
2.49631e+08,56.0566,1,2.63419,9749.98,5965.18,-25629.5
2.49791e+08,193.402,2,2.8655,27329.1,-23399.3,-28371.4
