#class tools::wcsv::ntuple
#title time
#separator 44
#vector_separator 59
#column double eventID
#column double t(ns)
#column double copynumber
#column double energy(eV)
#column double x(mm)
#column double y(mm)
#column double z(mm)
384020,7.90549,2,2.62434,706.5,-174.31,-27342.2
961330,136.71,2,2.82227,-25843.6,-8108.03,-19013.2
1.01231e+06,29.5676,0,2.94181,1325.17,4442.9,-24673.5
1.08918e+06,88.7807,1,2.73829,13824,-4805.38,-17262.9
1.12076e+06,15.7023,1,2.91133,-3232.09,919.845,-28455.7
1.26186e+06,118.369,1,2.41257,8819.76,-14709.8,-19876
1.28228e+06,23.8648,2,2.45087,58.2993,-4640.77,-26618
1.57722e+06,18.9655,1,3.03452,1254.36,2879.3,-26307.2
1.62392e+06,89.3617,1,2.99487,9633.39,12926.6,-19189.5
1.90666e+06,310.548,0,2.85067,26081,-14264.9,29305.8
2.47601e+06,136.081,1,2.44473,-10904.3,-8674.48,-24059.2
2.70624e+06,9.47091,2,2.44135,1271.91,-274.702,-27310
2.79868e+06,88.5413,0,2.36997,-9316.58,4454.71,-13244.3
3.13398e+06,106.591,0,2.62262,-16676.6,-7265.12,-15653
3.33992e+06,77.6153,0,2.58069,10010,12892.3,-29424.7
3.58236e+06,31.1274,2,2.64405,2801.61,-4316.74,-24730
3.60192e+06,22.4513,2,2.42357,166.092,1331.72,-27747.5
3.62213e+06,25.7629,2,3.03064,-5388.55,-539.73,-29464.6
3.918e+06,70.1047,2,2.4761,-9411.12,-6352.74,-19197
4.26834e+06,125.346,1,2.85738,9583.95,24580.2,-29951.4
4.31014e+06,93.8374,1,2.89825,16154.5,-6132.2,-19456.2
4.58054e+06,22.486,2,2.7044,-2813.14,2491.7,-25914.2
4.7606e+06,26.6539,0,2.89358,-170.191,-5506.52,-27740.3
4.77464e+06,75.3217,2,2.57558,-1541.56,-10374,-16773.7
4.94337e+06,103.048,2,2.50476,-11451.1,-10551.4,-24155.7
4.95082e+06,16.1416,2,2.81542,-2763.32,-1419.76,-27276.7
4.98604e+06,107.9,1,2.57777,-17755.2,-7414.86,-16610.4
4.99302e+06,63.2962,2,2.36588,1133.23,-7557.88,-17791.7
5.02544e+06,36.3607,0,2.49179,5708.13,3723.01,-25097.8
5.22989e+06,14.8982,1,2.95931,-1172.41,-1884.36,-26624.2
5.26494e+06,156.048,0,2.70216,18429.5,-10563.7,-3658.17
5.38714e+06,13.4134,2,2.86908,-588.824,-1393.68,-26383.7
5.45266e+06,53.4485,1,2.58831,10939.3,2810.72,-28798.8
5.45577e+06,74.4831,2,3.01004,-14854.1,-5063.08,-28218.7
5.5612e+06,33.4217,2,2.53684,-2546.37,-6232.13,-26398
6.19877e+06,68.6989,2,2.96275,-1128.05,11992.9,-21016.6
6.88676e+06,180.936,2,2.8205,26475.6,11814.2,-4292.82
7.05361e+06,99.1081,1,2.99679,-13445.2,5752.62,-13998.1
7.06721e+06,11.2383,2,2.88857,-1831.18,1491.88,-28764.4
7.18867e+06,28.7344,0,2.79999,2795.79,4771.48,-26223.2
7.33222e+06,91.9956,1,2.64146,729.194,-11431.3,-13234.6
7.38025e+06,152.436,2,2.48544,-10188.1,21849.1,-7490.21
7.46532e+06,91.2474,0,2.97791,11199.3,-3287.5,-13607.5
7.73186e+06,65.4095,2,2.71282,1894.08,10619.6,-20349.4
7.98322e+06,0.530556,1,3.81127,63.3848,147.1,-28829.6
8.44007e+06,41.7406,2,3.04724,7867.05,-3241.4,-26764
8.50238e+06,165.001,2,2.71153,16298.7,19395,-5119.15
8.82428e+06,149.994,2,2.81729,-17067.7,1223.41,-2307.49
8.94903e+06,5.23228,0,2.54554,-0.717822,1126.74,-28914.4
9.09347e+06,74.2231,2,2.47069,-9546.74,-4405.43,-17101.4
9.2252e+06,10.2319,2,2.74067,-2061.48,127.014,-28014
9.60924e+06,30.0169,2,2.99681,-1436.94,-5006.33,-25139.9
9.79662e+06,19.1249,2,2.63714,-2387.26,815.663,-25676
9.84094e+06,69.9609,2,2.71385,-367.319,-37.5746,-28053.3
9.8534e+06,179.726,0,2.8268,18018.1,7389.88,3585.39
9.87018e+06,8.90392,2,2.60725,1083.02,356.011,-27368.7
9.98278e+06,56.5908,2,3.05292,-1206.47,-10854.8,-24008.5
1.02456e+07,26.4131,0,2.8277,3948.47,-3125.14,-26291
1.0296e+07,150.74,1,2.81869,-1759.19,17648.2,-2493.23
1.03013e+07,100.215,2,2.65151,-11174.8,-3965.41,-11283.9
1.07398e+07,45.6963,1,2.79869,-8329.7,-3383.9,-25296.9
1.10023e+07,23.5399,1,2.68556,15.0388,2964.06,-24790.5
1.10301e+07,148.416,0,2.72687,16089.5,5584.15,-2558.69
1.1209e+07,5.67014,0,2.81368,-471.063,1040.92,-28477.6
1.15294e+07,59.1952,1,2.64416,-7274.38,5258.25,-20055.6
1.15559e+07,8.02557,0,2.67498,-279.105,-493.864,-27254.2
0,8.04891,0,2.44475,0,0,0
1.15595e+07,141.87,1,2.82433,-19025,-11.306,-5806.1
1.16108e+07,41.828,2,2.42708,-4686.14,7390.43,-29974.1
1.17222e+07,54.4452,0,2.66866,7160.15,-8726.73,-26356.3
1.21017e+07,46.9348,0,2.7359,7263.3,3864.47,-23255.3
1.22138e+07,94.4263,0,2.44394,16704.8,-10111.5,-24237.2
1.23108e+07,40.0548,2,2.9479,-3296.52,3247.98,-21807.8
1.23575e+07,130.029,2,2.96589,-5519.56,-20221.3,-13942.3
1.25096e+07,18.9988,0,2.39034,3884.92,-858.518,-27753
1.27689e+07,6.92955,0,2.38351,-608.586,884.513,-27861.2
1.28979e+07,92.1969,2,2.44082,-12582.8,-14356.4,-24345.4
1.31654e+07,118.236,1,2.85825,-3254.58,17799.4,-11717
1.33576e+07,18.5154,0,2.917,2683.87,925.785,-26072
1.34298e+07,102.77,1,2.41154,-9649.69,-852.579,-9387.67
1.35971e+07,152.636,1,2.72017,17477,24930.4,-18439.8
1.39457e+07,40.585,1,2.46673,7392.77,3128.02,-25742
1.42272e+07,20.2419,1,2.47559,-2821.03,2249.08,-26364.1
1.43152e+07,47.1559,2,2.88993,-2913,-2187.79,-19572.6
1.44127e+07,122.742,0,2.72615,22839,-12122.8,-27513.5
1.47651e+07,16.8563,1,2.4028,-1594.33,2501.55,-26726.8
0,17.2212,2,2.4888,0,0,0
1.50748e+07,49.1935,1,2.45529,-9794.98,1786.47,-25534
1.53163e+07,84.009,2,2.57646,-6559.98,-16449.8,-26512.2
1.54196e+07,11.8299,1,3.05752,2381.34,686.067,-28695.8
1.55077e+07,53.2549,0,3.04491,8084.85,5116.26,-22947.2
1.5633e+07,258.498,1,2.80511,19963.3,16417.1,18141.1
1.57783e+07,33.8914,1,2.94558,-1679.31,-5928.78,-25378.7
1.59394e+07,103.247,0,2.74787,13480.7,7516.86,-16839.3
1.60994e+07,56.7689,2,2.67821,1142.61,10199.6,-22737.5
1.6342e+07,254.348,0,2.55999,-29822.4,2395.11,15784.4
1.6451e+07,72.5808,0,2.89286,7739.81,-12946.4,-26152.4
1.683e+07,128.407,2,2.78822,24554.8,76.5057,-17593.9
1.68364e+07,24.2617,2,2.74679,1760.83,-4021.15,-26089.5
1.69789e+07,33.2546,0,2.4746,4385.51,-5531.04,-28015.1
1.72829e+07,148.454,0,2.38159,-825.605,-21739.4,-6144.42
1.73764e+07,1.97805,2,2.48871,36.487,-176.207,-28409
0,2.07896,2,2.80552,0,0,0
0,2.00396,2,2.68104,0,0,0
1.76727e+07,48.58,2,2.6536,-4719.87,-6199.44,-22064.2
1.78258e+07,36.8632,0,2.679,-3587.72,6441.44,-26373.3
1.78696e+07,118.615,0,3.02054,4195.57,-24355.1,-26447.2
1.79291e+07,13.2679,2,2.91857,-998.043,-2725.7,-28869.8
1.80236e+07,61.5222,2,2.48804,-2388.44,-9362.33,-20007.1
1.81005e+07,192.446,1,2.6533,-27356.7,28002.3,-17745.2
1.82844e+07,124.917,0,2.87644,9590.43,9913.14,-6461.46
1.8452e+07,92.3101,1,2.87915,4817.9,13282.4,-15525
1.86861e+07,35.554,1,2.83664,-6793.96,2227.68,-26376.6
1.88123e+07,8.38266,1,2.4986,-1752.9,-381.15,-28607.8
1.8878e+07,30.1857,2,2.7926,-4719.91,-3304.71,-25963.8
1.89539e+07,154.109,1,2.50011,-3950.09,-21222.1,-4464.47
1.89581e+07,17.692,0,2.8447,2514.84,682.47,-26080.5
1.91661e+07,5.04266,0,3.04184,-184.671,-545.306,-27943.1
1.93014e+07,52.2234,1,2.48602,-1301.94,-5326.46,-19258
1.94932e+07,56.989,2,2.81342,45.6996,-2056.61,-22890.7
1.96772e+07,40.3457,0,3.02677,5441.03,-2044.85,-22613.1
1.98783e+07,29.9447,1,2.50239,558.163,4971.86,-24866.6
1.99838e+07,41.2924,0,3.0396,5268.27,-3361.63,-22762.8
2.02244e+07,0.255063,1,3.10098,10.6335,99.4692,-28800.9
0,0.194799,1,2.43875,0,0,0
0,0.179268,1,3.47786,0,0,0
2.04485e+07,155.225,0,2.89731,19120.1,8603.54,-3808.06
2.08196e+07,71.5608,2,2.54558,1544.01,-14225.9,-28683
2.11662e+07,95.8124,1,2.72036,10319,15291.6,-20515.4
2.14922e+07,121.822,0,2.99287,-3916.39,-24922.8,-24838.3
2.17319e+07,89.1702,1,2.85702,11728.2,-5951.1,-15515.1
2.18638e+07,268.398,0,2.92449,25900.9,19780.4,17167.7
2.19001e+07,87.9522,2,2.3762,-3240.28,-16865.6,-21459.4
2.21438e+07,38.4835,0,2.50352,5350.62,4551.23,-24582.5
2.22998e+07,66.7885,2,2.7533,9893.51,-4586.74,-21217.5
2.25542e+07,7.20198,0,2.42212,-253.853,1407.24,-28244.4
2.28463e+07,66.8607,0,2.52993,-10077.9,-4235.88,-19950.5
2.29702e+07,68.3006,1,2.4549,9017.77,-2550.73,-27099.5
2.34601e+07,37.96,0,2.6228,3730.06,-3088.15,-22426.4
2.34697e+07,160.791,2,2.6657,-17556.3,17107.2,-5391.59
2.3816e+07,84.4695,0,2.53643,14243.9,9419.38,-23349.2
2.42291e+07,24.0367,1,2.89984,-1015.51,4112.01,-25923.5
2.46928e+07,192.533,2,2.69723,-17019.2,12990.7,-19759.1
2.52799e+07,44.1484,2,2.67882,-3585.17,2315.74,-20562.1
2.52851e+07,2.01171,0,2.95833,267.749,-393.599,-28676
2.57503e+07,173.618,0,2.82868,5426.38,16535.4,3264.13
2.60624e+07,107.091,2,2.78721,8264.36,-19437.4,-26076.7
2.60684e+07,24.7593,2,2.74372,-2559.58,-4313.6,-27088
2.62316e+07,16.4611,1,3.02385,-2810.52,2187.23,-28766.1
2.63266e+07,20.6624,1,2.66187,-3381.58,2786.93,-27966.8
2.64668e+07,98.7988,2,2.72592,13600.9,12397.8,-19226
2.69523e+07,2.4425,1,2.94788,-345.549,-65.7664,-28439.8
2.75135e+07,42.3141,2,3.06151,-7875.09,2215.77,-25334.9
2.75463e+07,33.8744,0,2.69068,3191.31,3270.39,-23277.4
2.778e+07,171.824,2,2.72654,-6150.81,25777.4,-4224.65
2.77941e+07,4.15248,2,2.44496,-838.646,-234.758,-28443.6
2.83684e+07,75.5978,2,2.9281,3364.58,-6614.09,-14772.7
2.86157e+07,60.8076,2,2.73402,6482.63,-1713.51,-17937.1
2.8922e+07,17.5104,2,3.02195,3459.58,603.864,-27844.1
2.95651e+07,19.7447,2,2.36957,-2275.27,-2237.2,-26027.1
2.9618e+07,9.47574,1,2.43706,1961.45,97.4018,-28644.2
2.99744e+07,5.49184,0,2.59941,800.435,937.851,-28608.5
3.00715e+07,157.514,0,2.8192,5093.61,18921.7,-2101.6
3.04018e+07,74.8785,1,2.68292,-9667.19,255.988,-16324.9
3.05361e+07,76.9763,1,3.06047,6969.65,3903.51,-14822.7
3.06752e+07,62.4129,1,2.91678,-6132.05,-1510.56,-17330.1
3.07569e+07,37.9133,2,2.99095,4889.93,-2590.19,-23089.9
3.07965e+07,22.9139,0,2.77454,4693.25,456.619,-27414.1
3.0937e+07,37.8116,1,2.91701,4501.71,-638.211,-22341.3
3.09654e+07,6.02062,1,2.88749,-550.021,-32.9947,-27675.1
3.12125e+07,41.7909,2,2.77247,4729.31,-5088.55,-23404.2
3.17429e+07,114.63,2,2.57603,-24012.8,-3729.34,-29270.8
3.18625e+07,107.62,2,2.88599,-4082.62,290.427,-25233.5
3.22411e+07,110.343,1,2.54677,10630.9,2082.6,-8194.38
3.27356e+07,86.9823,1,2.7231,435.083,17618.3,-24279.4
3.28158e+07,70.8477,2,2.86457,-10074.4,9876.21,-24067.8
3.29441e+07,27.6059,1,2.97644,-132.211,4633.1,-25261.3
3.3401e+07,2.33372,2,2.47531,-273.488,10.6936,-28378.6
3.34153e+07,66.0797,2,2.72186,-8778.39,-6240.09,-19886.3
3.38518e+07,76.0561,0,2.44448,14997.1,6022.68,-29966.2
3.39629e+07,73.8835,0,3.05869,-2230.07,15274.2,-29859.3
3.40695e+07,1.91273,0,3.02788,373.024,-12.3577,-28536.9
0,1.92489,0,2.77542,0,0,0
3.42769e+07,21.4819,2,2.72432,3877.35,-2002.98,-27617.5
3.43765e+07,7.90344,1,2.82828,383.222,418.034,-27274.5
3.4517e+07,12.3314,1,2.7947,-2589.61,542.901,-28395.6
3.45621e+07,129.42,2,2.42629,-21482.2,-3490.96,-12186.8
3.51531e+07,89.0289,1,2.87037,17777.4,5041.23,-25923.8
3.53518e+07,202.046,0,3.03842,-12726.6,25982.7,2023.26
3.54042e+07,14.3043,1,2.80203,968.403,2729.5,-27755.1
3.56056e+07,87.7777,2,2.70105,-9404.62,-15332.4,-24119.4
3.57845e+07,47.435,2,2.88266,-6516.78,1017.6,-21349.7
3.59785e+07,72.0054,2,2.77988,13453.6,2085.73,-22212
3.60806e+07,6.67745,2,2.41919,-31.2801,-1419.86,-29304.8
3.62274e+07,68.7528,1,3.01335,-6522.44,9897.53,-20490.6
3.62723e+07,72.1325,2,2.63587,3817.07,-14485.3,-25806.5
3.63119e+07,50.5231,2,2.64188,6039.31,4942.89,-21634.3
3.67022e+07,38.7793,1,2.6744,4623.36,2423.31,-22543.8
3.68933e+07,34.3457,2,2.68955,2844.35,-5226.17,-24662.4
3.69779e+07,60.9457,1,2.87881,-10129.7,2746.97,-21371.1
3.7141e+07,19.8865,0,2.52118,4210.19,871.999,-28374.3
3.71918e+07,43.2733,0,2.93262,1786.14,8926.77,-29111.6
3.7405e+07,2.16715,0,2.97743,115.133,31.2464,-28830.6
3.74643e+07,19.0489,2,2.82514,2314.57,1869.78,-26285.9
3.7613e+07,92.2951,1,2.80376,-14172.7,10963.7,-21210.5
3.76524e+07,242.142,1,2.8867,-29664.5,-28131.5,1410.22
3.77285e+07,82.1121,1,2.44141,-3698.59,-14650.8,-20307.5
3.81651e+07,57.3252,0,2.63886,-7101.1,-6379,-21435
3.86353e+07,79.6102,1,2.55234,-1850.03,-15316.5,-22233.8
3.92916e+07,140.961,2,2.5618,-24656.3,15442.8,-22331.6
3.94185e+07,178.635,1,2.74627,14855,21557.4,-12841.6
3.94729e+07,40.2588,0,2.65048,-3523.14,7348.5,-26510.9
4.00202e+07,18.1989,0,2.70784,1720.89,-1748.44,-25813.5
4.01141e+07,86.4305,2,2.98137,12827.3,-12884.8,-28880.9
4.01968e+07,46.1938,0,2.68536,-5999.06,-2458.72,-25728.6
4.03164e+07,224.598,2,2.50674,-25104.2,-25979,2051.75
4.05839e+07,24.6074,0,2.9326,4368.28,1040.29,-26089.6
4.07423e+07,60.3461,2,2.41486,-6275.03,-2637.84,-17966.6
4.08528e+07,30.5301,2,2.64187,-2230.34,3636.82,-24010.5
4.09418e+07,47.2751,2,2.74875,-2668.12,-8286.01,-23814
4.11002e+07,37.8885,1,2.40354,-6552.81,4655.7,-27635.9
4.11551e+07,73.3209,2,2.94819,-15418.6,-338.95,-29875.2
4.13382e+07,6.3388,0,2.62827,939.323,1016.68,-28583.4
4.13989e+07,117.277,0,2.71005,-15656.7,-4845.69,-10399.7
4.1401e+07,171.175,2,2.82265,11512.7,11100.4,3346.36
4.14424e+07,25.4898,1,2.90675,-1923.77,-2355.9,-27569.4
4.15111e+07,36.4089,0,3.03322,-1818.58,5481.64,-23855.1
4.16152e+07,23.3347,2,2.3706,1193.11,-4329.1,-26584.3
4.19643e+07,144.653,2,2.79033,-24244.3,7204.21,-11861.5
4.20413e+07,24.0119,1,3.01612,-2854.77,1589.47,-24950.9
4.21039e+07,41.1479,1,2.68826,4104.01,4451.77,-22558.5
4.22667e+07,241.983,1,2.72543,-21344.4,25053.3,10167.6
4.28745e+07,44.8708,2,2.87968,2928.38,-6011.71,-22133
4.2986e+07,61.946,2,2.95669,-1103.48,-6914.21,-17830.2
4.30016e+07,59.2135,1,2.61861,-12296.7,1206.14,-26516.5
4.30845e+07,16.2064,1,2.42598,-3103.31,-1547.93,-28673
4.33059e+07,162.762,2,2.67332,-26658,-14088.7,-12279.8
4.34282e+07,19.1474,0,2.56067,1549.08,-3793.46,-28614.2
4.34394e+07,23.329,1,2.7651,1603.33,1126.52,-24304.6
4.35053e+07,43.1121,0,2.47031,8764.81,-2782.21,-28555.2
4.36444e+07,144.188,1,2.78014,24140.1,7066.02,-11840.5
4.36621e+07,12.7849,2,2.56215,950.162,-2195.79,-27433.7
4.37251e+07,129.685,2,2.73756,-406.589,-21371.7,-11754.1
4.3922e+07,4.45737,1,3.05009,462.664,140.668,-28020.2
4.42096e+07,74.9157,2,2.78815,1237.24,-14062.4,-21629
4.42547e+07,16.6928,1,2.51807,-118.62,1380.19,-25541.8
4.48868e+07,12.5335,0,2.90297,-660.666,-1751.3,-26967.8
4.50515e+07,104.997,1,2.64476,-10864.4,14438,-15940.6
4.50673e+07,10.4229,2,2.37967,-1282.04,1680.09,-28210.3
4.53398e+07,32.2492,0,2.81104,4179.9,4926.75,-26500.8
4.55262e+07,9.04842,0,2.95081,498.488,-1542.08,-27791.2
4.57447e+07,20.0112,0,2.94797,410.305,2005.08,-25138.6
4.58606e+07,85.7753,0,2.47075,2146.35,-7126.75,-12302.5
4.5877e+07,68.9607,0,2.41743,13076.2,-2250.46,-22569.4
4.59227e+07,20.4949,2,2.79741,3983.59,-860.895,-27446.4
4.60838e+07,171.853,0,2.58784,8574.57,19187.8,790.142
4.61576e+07,113.796,0,2.5798,4086.25,22898.6,-22676.4
4.63337e+07,54.8336,2,2.55741,-4790.72,-3393.06,-19329.1
4.63541e+07,32.1953,1,2.72842,-2260.57,5459.49,-25318.5
4.63907e+07,108.609,0,2.74079,18012.8,14224.4,-28709.6
4.64862e+07,26.052,2,2.61333,-3280.74,1195.28,-24535.5
4.66744e+07,39.1273,1,2.95413,-5032.72,2692.5,-22834.2
4.70166e+07,12.6303,1,2.95142,-467.605,1191.52,-26445
4.75869e+07,39.8183,2,3.03558,7046.57,-732.545,-24463.9
4.80092e+07,5.93747,2,2.85864,-837.902,489.405,-28028.2
4.80238e+07,239.615,2,2.85971,-26643.7,26350.7,-7641.98
4.80351e+07,165.636,1,2.87648,-28599.8,18988.5,-22621.5
4.81314e+07,196.994,2,2.73195,-19808.3,-15896.3,-23669.2
4.83105e+07,24.2136,0,2.9775,2250.96,3141.46,-25442.6
4.83648e+07,131.844,0,2.96881,-9892.45,-19234.5,-11648.1
4.83824e+07,5.8924,0,2.91076,681.211,928.133,-28234.6
4.84573e+07,43.8925,0,2.37201,2698.87,7009.08,-23279
4.87299e+07,112.212,1,2.69977,-8887.22,14297.9,-12554.3
4.90192e+07,117.979,2,2.47958,-17492.9,-12047.1,-15598.5
4.917e+07,79.5151,2,2.45501,-11107.5,-5848.13,-17535.5
4.94135e+07,64.6447,0,2.80341,-8085.57,4139.69,-22097.8
4.94496e+07,6.51336,0,2.75468,-591.064,493.286,-27730.8
4.96173e+07,87.1139,1,2.76231,-12103.2,12895,-23694.5
4.98994e+07,51.1297,2,3.00288,-3897.54,-2740.05,-19201.2
5.01558e+07,10.1347,0,2.56613,763.708,-1891.98,-27997.6
5.08741e+07,10.0935,0,2.45819,-1962.52,-214.405,-28177.1
5.09272e+07,312.942,0,2.9284,-12206.8,-29138.4,28676.4
5.10478e+07,74.3326,1,2.7311,-9889.63,-3365.24,-17137
5.13881e+07,45.5542,0,2.4323,8048.26,-1695.89,-23689.8
5.15618e+07,161.759,2,2.6099,5707.84,-25426.8,-6663.71
5.16639e+07,21.328,1,2.42149,1792.42,3964.39,-27375.2
5.18373e+07,72.4397,2,3.00197,-12229.2,-5235,-21359.6
5.19199e+07,84.9836,1,2.9955,8942.4,-2371.02,-13671.5
5.23802e+07,56.5894,2,2.81002,-9663.32,-7043.21,-27752.3
5.24142e+07,27.2844,2,2.7286,2333.66,-4373.48,-25804.6
5.33678e+07,8.70612,1,2.75301,-1367.81,1258.32,-29402.5
5.55839e+07,5.50839,1,2.44014,-657.882,708.65,-29658.2
5.56042e+07,79.981,2,2.60326,-12111.7,-1335.93,-17074.1
5.56438e+07,142.787,0,2.96509,28135.6,772.763,-18334.9
5.57968e+07,229.972,1,2.90407,-28174.6,-3347.51,531.331
5.57991e+07,37.0562,1,2.92842,-523.885,2974.78,-21621.5
5.61384e+07,113.863,2,2.66761,-1165.27,-22224.9,-19652.2
5.63204e+07,42.8011,1,2.80665,-5843.01,2622.23,-22414
5.64961e+07,0.600112,0,2.38042,183.863,86.3996,-28761.7
5.65396e+07,66.1488,1,2.82522,-8286.01,5169.35,-26615.5
5.6655e+07,186.213,0,2.93715,-21042.8,-29144.4,-13803.5
5.67472e+07,0.960407,0,2.43296,227.445,163.109,-28823.1
0,1.0115,0,2.89191,0,0,0
5.70191e+07,270.577,0,2.98262,-10053,2040.23,13183
5.7089e+07,96.6736,1,2.94865,-8030.89,18154.1,-24224.2
5.72863e+07,9.25143,2,2.7636,-1484.55,-469.166,-27550.5
5.73179e+07,86.444,2,2.39066,17599.6,4511.63,-27045.8
5.79683e+07,56.1387,1,2.94937,-4634.18,10915.9,-29369.8
5.95393e+07,45.2891,2,2.70414,-7205.63,-1912.74,-22798.4
5.95975e+07,44.52,1,2.99021,-8855.85,2270.4,-26574.7
5.97025e+07,186.005,2,2.71905,13400.4,-22062.5,-457.059
5.97273e+07,185.164,0,2.59165,-12303.2,16803.5,4225.72
6.00747e+07,74.0012,2,2.71239,-11231.3,9761.71,-24134.5
6.01063e+07,70.3125,0,2.60715,-4020,11730.9,-20668.4
6.01552e+07,238.693,2,2.76189,-24190.8,15603.9,12366
6.07871e+07,45.9997,2,2.39252,-6699.45,-7131.73,-27841.5
6.13385e+07,95.9377,0,2.76257,7248.8,5530.66,-10792.1
6.13475e+07,148.306,2,3.03822,11828.2,-26585.2,-17787.1
6.14679e+07,3.44525,1,2.43647,-387.253,-595.971,-28897.3
6.15546e+07,67.202,2,2.70807,-13155.6,1967.55,-23799.9
6.20864e+07,15.1626,2,2.67187,-2025.91,-2553.79,-28323.1
6.23229e+07,3.53548,1,2.4596,204.978,-401.287,-28270.1
6.23391e+07,71.6949,0,2.36999,7817.34,-7495.37,-18117
6.27392e+07,31.6653,0,2.42453,4713.93,2609.06,-24767.3
6.28617e+07,30.8829,2,2.69146,999.599,-6486.63,-29684.4
6.29192e+07,113.113,1,2.63101,17236.2,14012.7,-19996
6.31066e+07,2.60253,2,2.81134,-566.258,-331.802,-28914.4
0,2.61242,2,2.87536,0,0,0
6.31793e+07,6.11973,1,2.67619,-520.56,-36.761,-27639.2
6.33239e+07,34.4182,0,2.37343,5027.83,-5376,-29092.4
6.33621e+07,89.6268,0,2.55991,14282.1,12032.1,-25211.1
6.36348e+07,36.9564,1,2.64268,-156.42,6393.99,-24250.2
6.38237e+07,18.4372,0,2.61068,3795.04,-921.13,-29751.8
6.39373e+07,12.1877,1,2.98025,2474.72,613.665,-28494
6.42694e+07,14.8382,1,3.01226,-1981.85,-2165.99,-29885.7
6.43854e+07,89.0603,2,2.58024,-10578.2,15539.5,-28109.8
6.44211e+07,41.5235,1,2.97137,3053.12,-7722.9,-26392
6.44329e+07,130.685,2,2.5031,-19201.8,19836.4,-28933.4
6.44855e+07,73.2187,2,2.80472,4929.42,-3302.05,-14615.8
6.45021e+07,14.0785,0,2.67546,2063.17,-905.14,-26792.4
6.45332e+07,10.4113,1,2.71666,-1343.85,-265.461,-27073.3
6.45365e+07,89.1773,0,2.96999,-406.725,-10897.5,-21551.1
6.48401e+07,74.2507,2,2.67249,9610.62,-12411.8,-27978.2
6.51927e+07,55.7802,0,3.03295,11143.5,3138.55,-26611.4
6.52161e+07,185.742,0,2.67613,18063.3,12910,3430.23
6.52844e+07,127.358,2,2.71444,9678.12,-21933.4,-16653
6.53963e+07,24.4436,2,2.78867,-3223.22,-362.919,-24787.6
6.57027e+07,53.0862,1,2.55369,-8960.53,-3026.73,-22715.8
6.58224e+07,74.7331,2,2.53416,5670.15,-2981.74,-14398.9
6.5896e+07,35.8668,2,2.91462,-7295.42,-1989.98,-27837.9
6.6065e+07,14.0244,1,2.84725,2354.54,1780.21,-28446.7
6.63765e+07,66.3446,1,3.01628,692.075,106.256,-28982.3
6.6518e+07,32.2939,2,2.69619,3546.43,1729.44,-23310.5
6.65401e+07,62.5932,0,3.05862,4284.21,11853.5,-25464.5
6.66367e+07,129.265,0,3.02381,24988.2,-8209.97,-22154.1
6.66699e+07,147.533,0,2.58922,5246.52,27459.4,-15011.1
6.69176e+07,202.312,2,2.49301,-18033,-11764.7,8165.65
6.71702e+07,13.959,0,2.8754,1816.14,906.113,-26616.7
0,13.8561,0,2.39078,0,0,0
6.72367e+07,37.2072,1,2.671,-6041.48,5122.39,-28464
6.74013e+07,25.9605,0,2.97048,2755.65,-2621.85,-24876.3
6.75982e+07,66.1237,2,2.6276,-974.276,9804.15,-18993.6
6.77219e+07,69.7086,2,2.70119,-217.32,7693.23,-16344.2
6.77426e+07,143.517,1,2.56188,-4048.72,-27332.6,-16434.5
6.78095e+07,60.6354,2,2.72284,-10564.8,6978.2,-27088.5
6.78771e+07,28.7125,1,2.97172,-4601.08,2185.99,-25516.3
6.82378e+07,21.4917,1,2.72549,2889.82,3484.45,-28146.4
6.83257e+07,181.017,2,2.5485,25469.3,-5168.31,-758.979
6.83369e+07,126.814,1,2.56943,-5963.12,-2321.63,-28978.5
6.89825e+07,37.0287,0,2.81964,650.173,-5528.27,-23382.8
6.90317e+07,7.74222,2,2.62605,-1196.39,-1247.01,-29020.6
6.92402e+07,100.91,0,3.03263,3904.48,16587.4,-16258.3
6.9287e+07,125.436,0,2.77313,-272.959,16438.5,-8147.48
6.94881e+07,57.9088,2,2.43132,-979.523,-1280.11,-28930.1
6.98161e+07,36.1213,2,2.90876,-4120.84,89.64,-22412.7
7.00499e+07,69.954,0,2.55844,-8775.95,-3151.94,-17387.1
7.00736e+07,23.675,0,3.01142,4973.77,575.161,-28065.7
7.0311e+07,13.1459,2,2.88805,2657.38,-176.156,-29515.8
7.04288e+07,63.9115,1,2.44655,-8875.51,4967.52,-19862.4
7.05033e+07,186.187,0,2.4403,15056.2,-29000.2,-6780
7.09565e+07,142.811,2,2.77583,-23877.4,-10007.3,-13443
7.1046e+07,173.884,0,2.88184,-19998.4,29959.3,-22979.1
7.11523e+07,161.865,0,2.86331,-9291.62,24521.6,-7221.85
7.11738e+07,17.6484,0,2.71395,1353.32,1807.98,-25862.4
7.13723e+07,40.5799,0,2.8176,6646.26,-520.37,-23369.3
7.13777e+07,67.8537,2,2.9729,11334.3,3091.74,-20870.9
7.16924e+07,83.1361,0,3.0507,820.942,-17349.2,-27648.8
7.21053e+07,33.0704,1,2.89076,4947.27,-1798.24,-24359.1
7.21894e+07,78.6837,0,2.58461,3077.06,7913.9,-14525
7.22638e+07,98.8579,2,3.02026,-14492.2,8720.29,-16839.6
7.25055e+07,93.4736,2,2.76275,-14677.5,-11927.1,-23086
7.2585e+07,207.725,2,2.51263,-24092.1,-18738.3,2817.57
7.29089e+07,4.07735,1,2.58306,-752.124,530.987,-28631.9
7.30649e+07,22.2659,2,2.90984,3750.67,1089.28,-26336.2
7.30861e+07,165.981,2,2.66664,14771.1,26759.4,-11896
7.3199e+07,4.64071,2,2.60833,-52.8637,-1087.88,-28894.8
7.32174e+07,92.0498,0,2.9254,14097.1,-1824.91,-15637
7.34245e+07,66.934,1,2.57788,-6549.22,4511.85,-17071.1
7.34268e+07,110.174,2,2.37807,-19132.8,-10070.2,-19880.9
7.36128e+07,20.3926,2,2.80647,-4154.04,228.132,-27613.5
7.36184e+07,19.4144,2,2.78177,1554.82,822.655,-25157.9
7.38566e+07,84.1743,0,2.94449,8250.78,14464.8,-23237.7
7.39353e+07,5.8242,0,2.75186,-96.0176,1236.14,-29029.1
7.39955e+07,276.338,1,2.45968,18020,23090.4,21748.4
7.40306e+07,121.932,1,2.78285,-16614.4,19669.9,-29203.9
7.41006e+07,24.7426,1,2.72197,-686.453,5263.22,-28506.3
7.41294e+07,63.4472,2,2.86791,2115.15,-8550.2,-18794.4
7.46786e+07,6.50934,0,2.89757,804.201,-794.48,-27937.5
7.48647e+07,8.7216,1,3.01054,-524.532,-68.4235,-27063.9
7.49338e+07,260.237,2,2.75861,-6128.72,-20896.9,21462.8
7.50393e+07,116.209,2,2.60533,-22597.9,6540.51,-21749.9
7.52407e+07,98.5494,0,2.75407,-14707.4,12301.6,-21061.5
7.52451e+07,0.621039,1,3.21603,-189.812,79.3671,-28919
0,0.619957,1,2.25274,0,0,0
0,0.800074,1,2.25274,0,0,0
7.57946e+07,66.1569,0,3.01724,7206.78,-3055.94,-17323.7
7.6569e+07,133.646,0,2.57964,13479.1,19276.1,-13171.3
7.66941e+07,44.0979,0,2.70922,5353.92,1976.28,-21434.7
7.69168e+07,31.7592,1,2.45006,-4686.3,2375.49,-24543.9
7.7549e+07,232.587,1,2.91444,-17034.5,22879.2,10848.2
7.75848e+07,67.35,0,2.40356,13439.2,4366.26,-26299.9
7.7659e+07,43.5683,0,2.84456,-735.662,-3638.33,-20454.6
7.81302e+07,31.53,0,2.78428,-1032.77,-5842.9,-25839.5
7.81789e+07,43.3979,0,2.73783,3132.1,-3055.45,-20772.6
7.82599e+07,36.3189,1,2.8039,-3201.96,-5044.25,-24098.2
7.82625e+07,41.8692,2,2.64793,-4050.27,-4379.36,-22248.1
7.84676e+07,155.879,1,2.40998,-11373.9,3370.27,-16627.3
7.84814e+07,164.85,0,3.05773,5456.45,-12881.2,-2778.78
7.8607e+07,16.101,0,2.51934,2891.3,-1640.81,-29881.3
7.91213e+07,19.3672,0,2.60624,1944.96,1885.54,-25710.1
7.92361e+07,50.06,2,2.91904,-1579.14,-4939.17,-23315.2
7.92518e+07,7.40231,1,2.85801,681.422,-1252.14,-28318.8
7.94797e+07,5.74871,2,2.90469,-494.63,-744.462,-27933.5
7.98101e+07,33.3448,0,2.36726,-966.301,-6896.19,-27561.2
8.0019e+07,71.9417,1,3.01232,-10633.4,1029.33,-18128.9
8.01533e+07,38.0261,2,3.05509,4243.14,-5251.7,-24546.9
8.05429e+07,61.3436,2,2.75689,-3643.06,-3914.98,-17024.6
8.09232e+07,90.0166,2,2.59229,14302.3,-12541.8,-27629.7
8.09628e+07,3.30434,0,2.62612,184.555,-355.196,-28230
8.12848e+07,33.367,2,2.81162,-3151.4,3969.02,-23974.1
8.14381e+07,4.42691,2,2.92797,-27.3596,-1024.73,-28990.6
8.14829e+07,117.257,1,2.80076,-3796.8,-18127.1,-12623.2
8.16061e+07,19.3367,1,2.47735,2002.56,-1392.23,-25587.7
8.1625e+07,170.772,1,2.7415,-5345.14,23305.9,-1890.9
8.19343e+07,24.3933,0,3.05728,2042.59,-192.579,-24100.1
8.19559e+07,102.292,0,2.70095,11601.2,4109.7,-11082.3
8.20876e+07,220.671,0,2.4221,16782.1,14731.2,12192.9
8.27231e+07,170.547,0,2.92543,27555.8,21895.3,-21982.8
8.2821e+07,30.6301,2,3.05632,-3705.14,-1931.06,-23915.4
8.30336e+07,83.9892,0,3.03167,16782.9,5395.07,-29392.7
8.30546e+07,5.81678,0,2.59409,288.261,-1257.45,-28874.2
8.30786e+07,25.0643,1,2.58403,5011.18,-1190.44,-27756.2
8.31254e+07,38.2916,2,3.01935,-5203.43,-492.753,-22690.1
8.3141e+07,127.071,0,2.89062,2408.19,-26231.9,-24683.5
8.32501e+07,148.904,2,2.51698,-13648.2,-2672.2,-552.033
8.3802e+07,72.4066,1,2.42015,-1537.22,14143.9,-22902.1
8.39839e+07,107.195,0,2.37096,17631.3,-4008.33,-15004.8
8.40654e+07,27.6977,2,2.62741,-351.411,-5409.89,-27447.7
8.4152e+07,22.6186,1,2.82322,-3382.59,3382.7,-29756.7
8.42646e+07,43.3226,1,2.60122,679.363,7027.76,-22904.1
8.46831e+07,26.3363,1,2.42901,-4384.22,883.653,-25436.1
8.47498e+07,43.1113,1,2.4539,6156.05,-5582.4,-25235.8
8.47805e+07,69.7859,0,2.37314,4004.24,14053.6,-26455.9
8.48009e+07,30.6197,2,2.44227,-4236.37,-3208.58,-25017.5
8.59684e+07,18.7658,2,2.87902,254.645,3671.01,-27531
8.61277e+07,79.0518,1,2.9379,8623.35,-4432.79,-15421.6
8.63506e+07,72.1434,1,3.04582,-9720.22,-11414.3,-27066.6
8.64587e+07,96.3155,2,2.73597,-6940.04,-15455.2,-17520
8.66674e+07,34.5519,1,2.70743,-4107.81,-3265.09,-23771.6
8.68842e+07,128.284,0,2.88574,13362.8,-9042.31,-7639.2
8.69065e+07,185.438,1,3.02205,-12984.7,-17606.5,3241.92
8.74243e+07,4.07404,1,2.80847,-308.074,894.283,-28732.7
8.74327e+07,174.624,1,2.99729,-10068.5,21521.8,-933.939
8.77815e+07,23.955,2,2.60063,-757.759,-4565.12,-26578.8
8.78196e+07,136.809,0,2.80853,9040.75,10792,-11355.5
8.83168e+07,92.4965,0,2.77477,7632.56,2818.92,-11108.4
8.83212e+07,69.0681,2,3.02966,-12958.5,-6087.95,-26247.1
8.83379e+07,21.4002,1,2.67588,28.7335,3138.72,-25523.7
8.85619e+07,65.1013,0,2.99205,8301.07,6973.37,-20434.6
8.86826e+07,5.05907,2,2.84616,-882.52,127.869,-28159
8.88819e+07,161.522,1,2.98845,15571.5,15726.3,-26542.9
8.89625e+07,76.9738,1,2.51449,8242.86,4695.35,-15618.4
8.91186e+07,21.3441,1,2.8634,1114.49,-2430.56,-25270.8
8.92709e+07,63.1145,0,2.37339,8601.61,-7007.2,-21257.7
8.93757e+07,51.8409,0,2.50109,2717.38,-4035.61,-18967.7
8.95308e+07,3.52987,1,2.50309,123.853,-222.867,-28131.9
8.95582e+07,209.714,0,2.40836,21183,27396.7,-1027.21
8.98726e+07,60.3108,2,2.84386,-1692.93,-5815.09,-17635
9.03175e+07,15.2104,2,2.6852,-493.713,1473.42,-26026.3
9.03933e+07,12.1631,0,2.72487,2294.36,-1047.42,-27961.3
0,12.2631,0,2.68758,0,0,0
9.07488e+07,227.84,2,2.77481,-3.04447,17391.1,-1854.96
9.1098e+07,90.5968,1,2.59021,-10393.2,-13903.1,-20845
9.11577e+07,8.21325,2,2.91449,-307.046,-330.26,-27127
9.1564e+07,42.7054,0,2.69665,6447.33,-6282.61,-27803.1
9.2159e+07,6.82973,0,2.86947,978.984,511.257,-27839.9
9.23297e+07,32.4765,0,2.97013,-83.7212,-1160.51,-28945.6
9.25128e+07,39.6078,1,2.91911,-2885.43,5201.66,-22926.9
9.29076e+07,42.9219,2,2.79858,-7505.05,-225.029,-23756.1
9.31279e+07,13.836,2,2.54079,2420.91,-322.646,-27220.8
9.31683e+07,90.6904,1,2.84099,-18740.2,-2336.76,-25946.4
9.34541e+07,85.8558,0,2.43414,-14828.6,-7904.15,-22487.3
9.35506e+07,61.6022,1,2.65511,3987.87,-4861.48,-17479.8
9.36228e+07,230.163,1,2.67682,5698.04,29940.2,8958.63
9.36663e+07,164.671,0,2.52104,16143,21295.6,-6441.38
9.37729e+07,135.638,0,2.61192,-28071.9,-4975.41,-26966.7
9.38734e+07,3.19123,0,2.48543,-101.356,558.44,-28452.3
9.41313e+07,16.3395,0,2.72057,2289.91,439.932,-26207.6
9.43277e+07,64.4369,2,2.50698,-5108.65,-4536.58,-16983
9.43339e+07,53.5544,1,2.79401,-3750.14,2491.61,-18482.2
9.43607e+07,26.0116,1,2.74608,-890.365,5331.68,-27449
9.43787e+07,93.9025,1,2.78921,-2286.11,-1002.37,-28804.1
9.44806e+07,63.6073,1,2.52235,1824.68,-8101.19,-18285
9.49701e+07,223.694,2,2.73329,29139.4,12328,6015.02
9.50891e+07,78.2333,1,2.38574,5216.87,-15032.2,-24493.9
9.51234e+07,109.109,1,2.88136,3994.62,21778.2,-22577.7
9.55222e+07,37.8881,1,2.6966,4460.77,-1005.75,-22298.3
9.57799e+07,141.218,0,2.51678,23624.8,-10356.3,-13643.5
9.65543e+07,65.6798,2,2.40836,6558.38,-9007.46,-20475.6
9.65592e+07,35.7722,0,2.66891,-5778.68,-537.917,-24085.2
9.6723e+07,5.96993,0,2.82004,1372.01,-21.9442,-28928.2
9.67788e+07,9.77908,1,2.7198,21.7479,1916.46,-27891.7
9.71249e+07,55.7548,0,2.7284,8375.43,-8309.24,-29670.4
9.71682e+07,131.812,2,3.022,17360.4,-6228.97,-8262.82
9.73931e+07,56.6235,1,3.06111,-6435.36,8913.09,-24141.7
9.76756e+07,1.53919,0,2.60265,315.743,-200.964,-29043.2
9.83432e+07,62.2237,0,2.87914,12259.4,-4779.61,-28122.9
9.84338e+07,47.175,2,2.54909,-7620.58,-5438.01,-25175.2
9.84617e+07,47.8275,2,3.00176,-1781.95,-9897.34,-29876.8
9.85152e+07,210.893,0,2.87799,25386.4,-27630.6,-5161.4
9.85232e+07,1.17625,2,2.88249,-216.599,-294.863,-28805.3
9.85794e+07,105.886,1,2.72972,-12674.4,17548.1,-23328.4
9.90779e+07,15.9594,2,2.5877,-1857.85,-2935.72,-29120.9
9.91259e+07,18.6651,1,2.51095,-1702.33,3682.87,-28828
9.9183e+07,37.0925,0,3.04781,-812.989,-5086.53,-23028.5
9.94164e+07,81.6077,2,3.05926,10673.3,-10253.2,-20299.2
9.94863e+07,37.9104,0,2.85795,6388.64,961.809,-24022.4
9.96178e+07,67.0838,1,2.57744,7515.71,9951.19,-24548.4
9.97046e+07,39.4018,0,2.66073,-3165.56,-4307.75,-22512.6
9.98258e+07,174.598,0,2.92908,-8610.71,-7173.86,-13960.7
1.00112e+08,141.095,0,3.02475,29436.8,-1242.91,-25553.5
1.00127e+08,178.646,1,2.7686,-9074.93,-13036.1,-15082.6
1.00826e+08,127.018,1,2.86649,1986.4,-13112,-5693.15
1.01004e+08,30.005,0,2.7287,2303.27,-3152.92,-23825.5
1.01082e+08,275.01,0,2.56595,27685.3,6404.99,21867.2
1.01544e+08,20.2243,2,2.4304,-2309.06,-2669.29,-26275.9
1.01854e+08,7.2739,0,2.38533,1363.98,-793.006,-29277
1.01932e+08,97.2844,2,2.84804,-6978.11,-18934.3,-25110.9
1.02192e+08,21.5507,1,3.042,-2954.68,2964.32,-26972.2
1.02469e+08,58.0641,0,2.87944,11370.5,-503.04,-24195
1.02611e+08,41.2194,2,2.85384,-3426.67,-8019.98,-29689.8
1.02619e+08,37.2694,2,3.0426,-7541.67,-2171.2,-29724.2
1.02739e+08,180.168,1,2.64105,-21474.7,28497.9,-15501.7
1.02935e+08,13.5841,0,2.5822,-1438.25,2457.94,-28711.4
1.03021e+08,40.4622,0,3.03952,-3843.74,4876.62,-23982
1.03149e+08,93.9282,1,2.4768,539.797,14185.9,-14876
1.03299e+08,24.864,2,2.38282,-3209.37,-4309.26,-28846.3
1.03349e+08,27.2426,2,2.50504,3612.72,1622.2,-24724.5
1.0375e+08,103.112,1,2.44177,-15217.6,8317.05,-15489.4
1.0383e+08,73.7978,1,2.61424,-11204.7,-7721.91,-21292.6
1.03847e+08,6.78913,0,2.83126,-114.28,-1024.83,-27848.5
1.03966e+08,107.721,2,2.94141,-5938.55,-8466.6,-8682.71
1.04413e+08,28.2501,1,2.48402,-637.406,6055.42,-28993.1
1.04699e+08,59.8978,1,2.46045,4689.55,11617.6,-26583.2
1.04756e+08,80.2367,1,2.70115,-9483.69,8001.24,-17242.7
1.05716e+08,84.6418,1,2.85843,490.258,-8839.81,-13437.6
1.05902e+08,3.60699,2,2.57916,-164.887,657.38,-28534.6
1.05933e+08,26.1488,1,2.74914,-4159.12,3705.26,-29509.1
1.06311e+08,36.0584,0,2.94829,2444.85,4555.36,-23266.3
1.06329e+08,17.3878,1,2.49445,-3540.81,486.258,-27671.7
1.06372e+08,151.913,1,2.70402,15644.7,3109.61,-1111.17
1.06439e+08,6.39483,1,3.0017,764.934,1187.38,-28705.4
1.07049e+08,182.375,2,2.89085,15337.9,-10647.1,4625.14
1.07211e+08,95.8223,0,2.98944,-4976.35,14386.1,-17753.1
1.07242e+08,77.4673,0,2.93012,7920.84,5370.28,-15628.5
1.07398e+08,105.779,1,2.442,9267.97,-15001.1,-15200.8
1.07478e+08,91.4757,1,2.52329,5299.99,17113.1,-21413.6
1.07507e+08,27.9962,0,2.67499,4874.77,-167.339,-25360.1
1.07581e+08,2.49297,0,2.73455,236.918,402.215,-28480
1.0793e+08,77.9495,0,3.05712,-8624.37,-7918.87,-17541.1
1.082e+08,62.7492,1,2.88839,8035.49,9664.27,-24688.4
1.08228e+08,100.164,2,3.00794,14773.2,10808.8,-18650.7
1.08249e+08,65.6798,2,2.49413,-12659.5,-1542.65,-23161.4
1.08455e+08,102.18,0,2.91906,-2988.37,-4347.03,-21367.7
1.08461e+08,61.8516,2,2.39213,-3778.88,-3716.26,-16819.8
1.08475e+08,10.6458,0,2.78554,1109.22,1987.75,-29259.8
1.08656e+08,115.31,2,2.72737,12042.6,1141.99,-7786.05
1.08768e+08,31.5685,2,2.8615,-5507.69,-2628.73,-26008.3
1.08998e+08,3.72348,1,2.91003,377.555,525.254,-28334.7
1.09117e+08,36.2565,1,2.38921,-6269.65,-260.063,-24315.4
1.09291e+08,142.436,2,2.97337,-25492.9,-12503,-19393
1.09416e+08,25.4631,2,2.95883,2836.08,-2067.37,-24796.5
1.09579e+08,64.1313,0,2.46644,-1182.38,8018.67,-17946.4
1.10402e+08,107.335,2,2.50148,-19465.8,-10547.4,-23503.1
1.10512e+08,9.39487,0,2.5867,992.293,1342.73,-27659.1
1.10597e+08,48.4314,1,2.67686,-8935.44,-1127.28,-23890.9
1.10756e+08,278.342,0,2.80033,-15615.2,-7815.47,2380.88
1.10871e+08,10.6735,1,2.97712,-484.004,-1407.18,-27170.7
1.11099e+08,61.6869,0,2.67374,6895.72,10257.8,-24622.4
1.1164e+08,59.5808,0,2.44392,7677.14,1540.08,-18880.2
1.11937e+08,4.02108,1,3.05023,-354.417,794.378,-29212.9
1.12799e+08,52.4359,1,2.83936,3485.67,5682.37,-20012.1
1.12868e+08,55.3209,0,2.79974,293.133,7064.23,-19580.5
1.12931e+08,91.1403,2,3.02858,1038.8,-15522.5,-17758
1.12982e+08,211.563,2,2.91077,-16675.5,-8757.76,-24591.5
1.13744e+08,15.8935,0,2.41171,430.182,1485.4,-25831.5
1.13882e+08,164.567,0,2.93339,-3502.44,-17658.4,644.487
1.13883e+08,32.6097,1,2.46584,2620.03,1857.96,-22707.3
1.14147e+08,41.1371,2,2.82387,-6713.44,-2684.18,-23951.3
1.14208e+08,14.375,1,2.68707,843.207,-2847.64,-28573.4
1.14751e+08,53.0142,0,2.58579,9101.14,-5146.91,-24620
1.15239e+08,104.183,2,3.01543,-13227.9,-14481.2,-19080
1.15269e+08,193.426,1,2.76276,-15964.3,28024.4,-3846.48
1.15403e+08,69.6279,2,2.41692,-1118.95,-7087.09,-15930.7
1.1597e+08,158.777,0,2.90024,18388.4,-23560.9,-13949
1.16059e+08,35.5977,1,2.63272,-3853.94,154.863,-22349.5
1.16209e+08,158.416,0,2.67706,2470.38,-12990.8,1860.47
1.16822e+08,99.0891,0,2.95732,-14366.4,6799.62,-15505.7
1.17355e+08,6.40867,1,2.94696,558.995,1247.62,-29244.9
1.17941e+08,28.6788,1,2.68289,-2987.85,-70.9162,-23528
0,29.0686,0,2.85445,0,0,0
1.18946e+08,2.26379,0,3.02771,195.032,-206.345,-28395.3
0,2.25979,0,2.8189,0,0,0
1.19444e+08,7.30529,2,2.75981,-917.893,-1260.34,-29370.5
1.19567e+08,134.611,0,2.51866,27683.7,4183.41,-23190.9
1.20265e+08,14.2263,2,2.6377,1466.68,-21.8561,-26201.1
1.2038e+08,100.6,2,2.45857,18344.6,-7960.62,-21527.4
1.20448e+08,87.0331,0,2.74915,-15406.7,7903.17,-22986.1
1.20539e+08,121.409,2,2.88091,-18351.6,4205.17,-11579.1
1.20557e+08,67.5507,1,2.45343,2768.79,11961.5,-21391.2
1.20759e+08,77.481,2,2.71823,-5777.13,-12000.1,-19247.2
1.20776e+08,4.48462,0,2.99823,71.0626,871.492,-28476.4
1.20956e+08,190.672,0,3.02579,18264,-13054.2,4126.56
1.20991e+08,261.653,0,3.03374,20700.4,-28100,13452.7
1.21788e+08,122.995,2,2.52415,-5876.15,20877.1,-14551.8
1.21828e+08,74.5215,0,2.40671,-8094.98,-10991.9,-21020.3
1.21856e+08,8.46792,1,2.58204,-526.34,-1588.68,-28259.9
1.21924e+08,52.9742,0,2.84418,6573.13,-1300.15,-19874
1.22124e+08,27.1546,0,2.57019,3539.86,2381,-24916.9
1.22424e+08,127.777,0,2.67575,12559.7,-11230.4,-7751.06
1.2324e+08,35.654,0,2.50329,5684.99,-692.613,-23807.1
1.23376e+08,57.2634,1,2.79876,-4812.07,1129.09,-17830.4
1.23966e+08,74.4474,0,2.92364,662.968,-6839.08,-14772.2
1.24453e+08,13.1885,2,2.40921,-2857.17,-51.1112,-28575.7
1.24461e+08,37.5281,2,2.67387,4852.69,-4522.97,-24483
1.24502e+08,18.8811,2,2.77651,-1905.25,-1989.39,-25899.2
1.24957e+08,69.0357,0,2.89514,3072.22,3446.51,-27018.3
1.25587e+08,14.4863,0,2.78763,-33.4348,1511.33,-26207.7
1.25758e+08,8.95295,0,3.05238,755.047,-1312.41,-27635.1
1.25855e+08,20.3194,0,2.6155,4410.97,79.9127,-28811.9
1.26648e+08,99.7232,0,3.01357,-12539.4,-15007.1,-21565.1
1.2672e+08,140.441,2,2.81277,23167.1,-12343.3,-15250.6
1.26885e+08,74.9192,2,3.05739,9064.05,13.2111,-16027.5
1.27136e+08,58.0397,0,2.88107,8036.89,-8831.11,-26062
0,57.7011,0,2.67754,0,0,0
1.27256e+08,125.676,1,2.44075,20683.9,16031.4,-24076.3
1.27363e+08,18.4361,0,2.77105,1383.9,-2618.45,-26305.2
1.27422e+08,108.469,1,2.5179,-8356.63,-18657,-18525.9
1.27722e+08,48.1801,1,2.91844,-7506.41,-3420.12,-22948.1
1.27774e+08,115.808,0,2.50749,-8942.69,5069.33,-6650.92
1.28334e+08,35.3015,2,2.88729,3176.37,-5470.57,-24872.1
0,35.0703,2,2.63321,0,0,0
1.28865e+08,59.0151,1,2.97081,-9959.58,-6674.09,-25728
1.28951e+08,49.2474,1,2.89262,3277.01,8244.81,-23378.2
1.29108e+08,15.5456,2,2.41019,-2031.1,2541.48,-29345.8
1.29234e+08,110.586,1,2.77203,-16362.8,5892.86,-13271.2
1.29258e+08,68.3514,1,2.4844,-1385.58,6430.32,-15910.6
1.29348e+08,69.0797,1,3.01585,11227.4,8320.07,-24951.2
1.29641e+08,31.8429,2,2.76454,-1945.9,6390.09,-28648.5
1.30159e+08,69.0294,2,2.49256,81.3862,-6359.21,-15644.9
1.30483e+08,49.36,1,2.78434,-6547.9,8127.21,-27696.4
1.30869e+08,123.11,2,3.02344,-8722.78,-23932.9,-24181.2
1.31406e+08,240.521,2,2.55064,-27457,147.742,13950.7
1.3146e+08,54.1389,1,2.4901,9840.54,2280.13,-23417.8
1.31496e+08,20.3601,2,2.95435,-2739.08,-1754.5,-25948.7
1.31655e+08,55.543,0,2.81268,4273.08,10929.5,-28745.1
1.31797e+08,149.752,2,2.91033,-13763.5,-9813.26,-2270.06
1.31814e+08,194.548,2,2.66666,-6362.35,-17517.7,7753.07
1.31865e+08,59.4351,2,2.46028,12021.9,288.003,-25406.7
1.3188e+08,28.2885,1,2.7499,-2278.87,-2386.72,-23884.7
1.32211e+08,6.99212,2,2.55401,-933.042,-921.661,-27987
1.32249e+08,54.0716,1,2.61134,743.255,9627.72,-22601.6
1.32315e+08,38.4136,2,2.92011,-5208.62,-1448.76,-22764.9
1.32603e+08,70.5501,1,2.6155,-1351.99,14891.6,-27826
1.32793e+08,74.5197,1,2.92545,-6887.71,-9754.49,-18731.8
1.33229e+08,71.7158,0,2.71575,10633.5,-2880.08,-18373.6
1.33299e+08,39.0776,1,2.87453,-1301.77,4775.83,-22209.8
0,38.8799,1,2.5436,0,0,0
1.33338e+08,27.1471,2,2.75273,-511.375,-2781.75,-23811.1
1.33825e+08,57.8503,2,2.81513,-2648.52,-11792,-26799.7
1.33929e+08,133.737,1,3.05539,-18688.2,20898.5,-27353.9
1.34661e+08,38.3649,1,2.67942,-1810.89,6662.98,-24444.8
1.35118e+08,32.0098,1,2.76933,2729.95,5875.05,-26744.5
1.35142e+08,85.3907,1,2.78339,-4904.04,1614.86,-12815.2
1.35233e+08,50.5525,0,2.93713,-8361.7,356.211,-22385
1.35578e+08,58.4509,2,3.02298,6563.47,4809.1,-19764.6
1.35835e+08,15.2332,0,2.4709,-1560.49,-2393.21,-27394.2
1.35933e+08,6.45364,2,3.00475,-436.581,361.422,-27630.7
1.3632e+08,14.0729,2,3.03589,-1461.97,-2286.58,-27444
1.36431e+08,38.8363,1,2.8095,1045.8,-5871.04,-29643.3
1.36444e+08,31.6658,1,2.94165,-6068.74,2772.67,-29647.1
1.36621e+08,112.964,0,2.85629,8171.54,17174.1,-14547.7
1.36794e+08,27.3146,1,2.9356,-4476.35,444.828,-25191.4
1.369e+08,121.905,2,3.0131,1328.81,-17704.3,-10927.1
1.36965e+08,7.32052,2,2.85898,269.709,1048.04,-27803.1
1.37011e+08,33.1998,1,2.49275,3629.56,-3071.19,-23694
1.37119e+08,175.121,2,2.61354,-23199.9,6938.79,-857.379
1.37172e+08,19.8869,1,2.49961,-2600.56,256.186,-25474.5
1.37223e+08,182.009,2,2.47357,-15554,-15742.2,2715.51
1.37378e+08,39.7722,0,2.60981,5796.9,4994.64,-25250.6
1.37837e+08,65.0061,1,2.73321,-8522.2,10853.2,-29050.9
1.389e+08,23.8186,2,2.58423,-4351.72,-658.958,-26246.4
1.39255e+08,16.1273,1,2.80241,-3135.27,-892.564,-29935.1
1.3934e+08,37.4662,1,2.40044,-4803.13,-1637.64,-22693.9
1.39389e+08,9.26807,2,2.85197,-1857.74,575.04,-28412.3
1.39527e+08,46.2819,2,2.86673,-4613.39,-2962.16,-20735.2
1.39656e+08,108.504,1,2.91042,-14484.9,9745.26,-14084.8
1.40142e+08,36.1813,2,2.87087,-5384.43,4910.83,-26628
1.40198e+08,37.9817,1,2.6462,-3896.02,4447.37,-23348.8
1.4024e+08,100.597,1,2.50055,-16456.5,-2044.4,-28454.6
1.40258e+08,157.65,2,2.67663,8584.06,11356.1,-23180.1
1.40669e+08,100.412,1,3.0276,16831.3,7049.41,-18335.1
1.40929e+08,90.9457,1,2.85013,571.714,12993.4,-14771
1.41149e+08,140.188,1,2.83212,-19672,7644.23,-8244.63
1.41395e+08,20.6817,2,2.57402,-1981.38,1752.37,-25333.1
1.41778e+08,111.331,2,2.60806,-13941.1,-16059.2,-18675.4
1.4201e+08,156.03,2,2.83245,29433.1,1590.58,-14494.6
1.42097e+08,105.104,0,2.49406,16217.6,-15103.3,-26287.5
1.42453e+08,55.7614,2,2.98008,-1888.25,-6798.07,-19443.2
1.42677e+08,58.1118,0,3.01784,5599.65,-9226.82,-23071.2
1.42791e+08,29.4536,2,2.96889,-4314.86,-2962.52,-25386.1
1.42835e+08,28.7034,1,2.44827,2889.6,2768.77,-24216.5
1.43059e+08,71.6656,0,2.97027,-3862.76,13653.5,-23910.6
1.43334e+08,34.5942,0,2.98346,-430.557,-5569.03,-24167.3
1.44784e+08,33.6187,0,2.90915,-3238.84,4057.98,-24089
1.44785e+08,110.547,0,2.39376,9145.81,-20389.5,-21736.7
1.4508e+08,99.6925,1,2.60277,-14092.5,11801,-18439.7
1.45615e+08,71.5656,2,2.44334,-7733.09,-4869.27,-20275.4
1.4573e+08,78.6758,2,2.37721,9931.97,-5896.8,-16805
1.45995e+08,150.057,0,2.71541,12768.9,-13249.1,-3066.76
1.46052e+08,45.3956,0,2.9734,6306.73,-5177.44,-23790.2
1.46125e+08,139.161,0,3.03851,18055.3,-22982.9,-28295
1.46399e+08,12.6692,0,2.91824,1617.82,-2182.06,-29010.3
1.46517e+08,66.4766,1,2.64241,-3868.13,13016.7,-24906.3
1.4655e+08,86.4398,1,2.93439,5432.48,16134.9,-22355.8
1.46641e+08,24.2338,2,2.52553,530.4,-2408.91,-24300.5
1.46692e+08,89.4528,1,2.53385,-11936,73.9916,-14109.3
1.46866e+08,31.8126,0,3.00739,3378.16,-3324.54,-24059.7
1.47092e+08,29.0038,0,2.72653,5165.84,3288.56,-28029
1.47709e+08,5.62095,0,2.57815,777.86,-970.837,-29077
1.4799e+08,16.0367,0,2.76241,1957.12,-376.705,-26029.1
1.48078e+08,26.5214,0,2.53461,5111.18,-2331.04,-29903.4
1.48459e+08,118.037,1,2.68902,15668.6,18611.4,-23515
1.48665e+08,68.2983,0,2.84701,1684.18,1630.54,-25589.1
1.48789e+08,66.2747,2,2.45366,2540.7,-12208.1,-22282.2
1.48811e+08,117.027,0,2.49631,-156.635,21280.7,-16217.1
1.4894e+08,243.088,2,2.87143,-16100.7,-14361.4,17471.1
1.48943e+08,24.1684,0,2.43359,-3246.25,730.536,-24978.1
1.49221e+08,70.2631,2,2.63496,-10186.2,4339.97,-18945.4
1.49243e+08,38.1134,0,2.87422,2396.97,3124.68,-21840.1
1.49526e+08,79.1361,1,2.94904,8056.89,11522.5,-19902.7
1.49566e+08,135.089,2,2.70885,-6292.72,11268.2,-3460.6
1.49613e+08,145.753,1,2.77924,28549,4476.62,-18541.8
1.49946e+08,165.87,0,2.42919,-11552.9,21819.8,-3923.13
1.50365e+08,9.94207,0,2.65801,1733.86,1000.53,-27984
1.50744e+08,57.325,1,2.58159,-3719.88,-6976.6,-19666.4
1.50872e+08,15.2621,1,2.41027,2107.51,-1366.2,-26862
1.50984e+08,8.07845,2,2.40829,84.3974,-1028.71,-27396.9
1.51408e+08,88.8838,0,2.8354,-8784.51,3663.66,-12794.8
1.51512e+08,128.875,1,2.57659,-10572.4,10101.4,-5818.93
1.51682e+08,22.6018,1,2.58532,-1770.39,2729.86,-25237
1.51894e+08,7.66521,1,2.80389,-259.224,943.071,-27468
1.51909e+08,133.563,1,2.71509,-11534.1,11159.3,-5653.31
1.52397e+08,61.1306,1,2.54839,-8459.62,4969.77,-20310.2
1.52694e+08,132.371,2,2.3821,-26596.7,1063.58,-19997.1
1.5278e+08,12.529,2,2.97029,-7.36847,-1341.88,-26504.3
1.53161e+08,98.8911,1,2.67007,8554.46,14181.1,-16121.6
1.53175e+08,1.54907,1,2.59606,86.2255,395.521,-28883.8
1.53187e+08,21.0214,2,2.83964,-2631.79,-3616.97,-28376.4
1.53564e+08,49.6632,0,2.47999,9655.76,-3497.5,-26168.8
1.53609e+08,21.5944,2,2.37704,-1180.77,3670.35,-26414.1
1.53706e+08,36.3895,1,2.9042,-5141.17,2263.61,-23557.9
1.53891e+08,167.049,0,2.76669,-24579.7,13976,-8014.6
1.53924e+08,39.2688,0,2.82195,4396.66,-5696.45,-24632
1.54501e+08,93.0419,0,2.61726,9688.46,4606.88,-12319
1.54815e+08,249.372,2,2.63906,1837.19,2270.77,-28073.2
1.54882e+08,87.7946,0,2.64039,17636.3,4419.17,-24761.9
1.54958e+08,40.5075,2,2.59339,1589.31,-5892.67,-22771.4
1.5506e+08,47.1733,2,2.43148,3971.55,-2357.94,-19962.6
1.55134e+08,24.6195,2,2.53331,-3119.9,-4167.19,-27734
1.55487e+08,118.9,0,2.46622,24781.1,-1815.93,-24409.5
1.55507e+08,82.1179,2,2.65075,3340.26,9575.93,-14845.5
1.55829e+08,59.9346,2,2.79225,-4038.2,3661.11,-17447.6
1.55874e+08,148.217,2,2.64973,29521.1,-2080.85,-18786.9
1.56043e+08,47.9965,1,2.59552,-7104.73,5385.53,-23892.6
1.56183e+08,75.5367,2,2.8469,8704.55,5902.65,-17003.6
1.56586e+08,11.5076,1,2.81026,-1917.41,1431.88,-28125.8
1.56875e+08,129.938,0,2.55248,12418.8,-24251.7,-24982.7
1.57227e+08,10.309,1,2.5716,-1322.06,-919.466,-27361.3
1.57294e+08,45.2116,2,2.63029,-4989.48,-7695.69,-25831.7
0,45.1835,2,2.58799,0,0,0
1.5737e+08,47.0494,0,2.44305,7493.01,2053.12,-22485.3
1.57778e+08,11.1797,1,2.96041,97.6361,2315.45,-28069.4
1.58371e+08,111.936,0,2.56891,7513.28,10475.4,-8955.81
1.58418e+08,138.232,0,2.98423,-1563.31,-23883.9,-12531.8
1.58468e+08,148.913,2,2.67145,-25421.3,-18540.6,-29938.2
1.58798e+08,83.2488,1,2.51437,-15538,8258.21,-27081.6
1.58951e+08,11.2604,2,2.49328,-2170.77,-787.69,-27945.7
1.59293e+08,30.2825,0,2.78747,-2171.16,5873.65,-27920
1.595e+08,138.721,2,2.76262,-2793.63,-29107.5,-27044.8
1.59571e+08,76.4113,1,2.8355,8642.18,5293.02,-16361.1
1.59778e+08,14.0122,2,2.86056,-1031.01,589.246,-26109.5
1.59863e+08,8.53793,2,3.029,-1322.36,-1233.39,-28307.1
1.59956e+08,162.812,1,2.80598,-23215.1,11708.9,-6444.36
1.60072e+08,41.7533,2,2.66182,-6164.65,-6095.7,-26830.3
1.60294e+08,33.74,1,2.63554,-5884.97,1620.54,-25017.5
1.6063e+08,15.5405,0,2.90488,2057.56,348.36,-26275.1
1.6104e+08,62.7812,1,2.67431,-13244.8,1220.34,-29044.8
1.61307e+08,72.2299,0,2.54837,4186.99,-13011.3,-21941.5
1.61327e+08,30.2582,2,2.58015,-6164.79,-1878.72,-28786.5
1.6134e+08,41.7297,1,2.41132,-1737.5,5695.68,-22219.1
1.61879e+08,108.71,2,2.8862,-4841.86,-21859.3,-24040.4
1.61958e+08,20.689,2,2.51756,27.9391,-3727.89,-26400.1
1.62003e+08,133.344,1,2.81061,107.44,18990.3,-8122.03
1.62107e+08,15.3598,1,2.56732,-1447.33,1936.83,-26549.9
1.62195e+08,63.7637,0,2.41033,9863.95,-8701.86,-25556.9
1.62398e+08,58.3818,2,2.67166,-4320.48,-10081.7,-23045.2
1.62703e+08,162.957,1,2.69587,-6211.71,25697.7,-6818.83
1.63308e+08,57.3394,0,2.42168,3552.48,11641.5,-29514.4
1.63322e+08,62.3855,2,2.60459,2656.68,9453.36,-20103.8
1.63364e+08,244.665,0,2.37857,21472.7,-3201.47,18193.5
1.63379e+08,104.416,1,2.44264,18391.5,9902.59,-21663.1
1.6347e+08,156.445,1,2.88248,-27922.4,17315,-26172.7
1.63496e+08,15.4528,2,2.43386,2767.93,-669.677,-27224.5
1.63936e+08,88.4872,0,2.37177,1837.21,-3891.52,-25241.5
1.64066e+08,96.3852,2,2.70703,10429.7,-12305.6,-16432.1
1.64191e+08,58.7133,1,2.37773,7669.58,8662.3,-24185.1
1.6425e+08,75.8092,0,2.83211,2248.07,12599.5,-19282.2
1.64574e+08,69.2068,1,2.709,-8674.83,5619.53,-18460.5
1.64637e+08,176.452,1,2.91339,-14417,3475.4,-7355.25
1.6492e+08,7.6445,2,2.85617,-1681.67,-190.392,-29015.9
1.65348e+08,37.3082,2,2.74987,-3543.97,-3019.21,-22440.3
1.65404e+08,231.137,0,2.64115,-948.618,-2460.95,-28342.3
1.65429e+08,17.4451,1,2.5687,301.353,3073.99,-26687.4
1.65438e+08,25.0765,1,2.75593,-3713.71,3837.98,-29503.3
1.65521e+08,102.616,1,2.79737,-9248.51,8012.38,-11007.2
1.65601e+08,58.7282,0,2.55533,7993.65,-9398.35,-27027.3
1.65831e+08,43.8929,2,2.85,6546.82,-1916.35,-22607.8
1.65986e+08,101.954,0,2.85141,510.764,10937.5,-10395.6
1.6608e+08,46.4325,1,2.44922,-1351.73,9188.41,-25384.1
1.66239e+08,156.731,2,2.52804,5565.81,-17805.2,-1411.05
1.6644e+08,7.84956,1,2.98046,-759.769,1599.89,-28792
1.66547e+08,83.525,2,2.59086,-5919.87,-16730.2,-29144
1.66604e+08,1.70507,0,2.45932,431.314,55.6625,-28678.2
0,1.69559,0,2.40654,0,0,0
1.66606e+08,123.419,1,2.5914,2405.02,-14762.6,-7519.32
1.66622e+08,12.2463,1,2.44398,-462.847,2408.31,-27729.8
1.6698e+08,110.211,0,2.52771,215.633,-11861.1,-8785.06
1.67033e+08,68.3007,1,2.81884,-11583.4,3213.2,-27550.8
1.67058e+08,15.3199,1,3.04234,-1191.06,2713.4,-27369.4
1.67282e+08,163.831,1,2.75496,28541.8,9264.5,-11819.8
1.67475e+08,329.965,2,2.39917,-1070.33,-20517.2,-8532.44
1.67532e+08,119.314,1,2.45929,1201.77,19914.2,-13292.2
1.67657e+08,132.062,1,2.76159,-21558.4,2846.05,-11417.2
1.67699e+08,19.3543,2,2.85769,1381.88,3171.7,-26767.2
1.67987e+08,48.6628,0,2.58917,-6854.75,750.107,-21265.9
1.68123e+08,90.4424,0,2.97581,4347.83,-18248.1,-25731.1
1.68601e+08,54.7637,1,2.36829,2664.3,10503.3,-24551.3
1.68771e+08,33.2861,1,2.3938,-280.887,-3630.34,-22842.4
1.68811e+08,14.0848,0,2.49829,-1030.98,-2099.71,-26986.3
1.69062e+08,46.9514,1,2.70155,842.74,7019.93,-21850.5
1.69238e+08,110.465,2,2.36376,-6696.74,-21361.2,-28075.7
1.69359e+08,125.21,2,2.94108,-24225.3,-9696.54,-25712.1
1.6941e+08,106.901,2,2.85223,14241.2,-16974.1,-24870.8
1.69991e+08,87.8835,0,2.5346,10866.3,-8674.73,-16450.3
1.70028e+08,3.83595,0,3.05366,585.462,-630.188,-28607.3
1.70382e+08,82.4552,0,2.90843,17240.8,-2289.14,-28617.3
1.70793e+08,45.0484,0,2.7448,9310.5,-2326.83,-28844.1
1.70925e+08,201.867,1,2.47947,14295.2,14878.5,8556.46
1.70989e+08,34.8642,2,2.44018,6537.94,-3437.55,-28922.8
1.71035e+08,7.21516,0,2.7861,263.831,-1375.54,-28125
0,7.2258,0,2.46062,0,0,0
1.71222e+08,46.5113,2,2.96286,4832.02,5045.07,-22087.2
1.71559e+08,127.686,2,2.38987,749.636,-20914.9,-14443.8
1.71672e+08,15.2164,0,3.00503,3105.46,-327.397,-27873.7
1.71846e+08,11.6865,0,2.83323,-1117.64,-852.989,-26833.3
0,11.2522,2,2.59514,0,0,0
1.71946e+08,45.85,1,2.83704,-8987.86,3669.74,-28601.9
1.72581e+08,140.728,2,3.0537,-8847.53,15058.9,-5118.43
1.72667e+08,256.847,1,2.88382,-20839.9,29539.5,11262.1
1.72861e+08,19.1805,1,2.99371,-360.517,-2801.48,-26044.7
1.73161e+08,34.4668,1,2.43859,4598.45,1867.61,-23463.2
1.7329e+08,37.2446,2,2.83474,-5864.85,-5269.97,-27860.2
1.73383e+08,87.1409,2,2.75451,-1326.92,-11206.4,-14289.8
1.73435e+08,55.2753,0,2.841,-53.1225,8989.26,-21456.4
1.73996e+08,63.0029,2,2.97463,-11998.8,2605.26,-23829.1
1.7409e+08,181.093,1,2.63873,-13749.9,-13179.6,4262.96
1.74112e+08,163.895,2,2.94997,23432.1,-19413.5,-12809.6
1.74828e+08,15.2588,1,2.8201,-600.973,3194.91,-28212
1.75078e+08,67.673,0,2.65783,5630.21,8718.95,-18987
1.75147e+08,97.8457,1,2.82397,13542.7,10528.5,-17451.4
1.75742e+08,54.1785,1,2.40756,-7648.54,-8520.84,-29465.4
1.75822e+08,50.3142,0,2.49534,9830.03,1254.75,-24756.3
1.76073e+08,53.8118,2,2.72941,6901.53,-4160.31,-20821.9
1.76163e+08,153.634,0,2.49407,13498.1,-25737.8,-14222.3
1.76468e+08,5.66493,0,2.72876,530.195,-757.792,-28040.9
1.76519e+08,112.367,0,2.96139,-7266.63,15203.3,-12360.2
1.77212e+08,158.587,2,2.93568,-1277.41,-29162.7,-12761.6
1.77345e+08,22.2476,0,2.40341,-1533.98,-3547.47,-26163.7
1.77439e+08,35.0546,2,2.95228,-5328.77,2380.58,-24306.8
1.77628e+08,10.6125,0,2.86323,2335.77,-199.22,-28648.4
1.7777e+08,0.601024,1,3.02155,100.256,148.35,-28871.2
1.78434e+08,41.1859,0,2.82376,-1402.59,-5932.76,-22728.6
1.78588e+08,127.421,0,2.88677,-17582.4,-16816.3,-17819.8
1.79521e+08,220.36,1,2.51333,-7737.79,16602.8,13219.2
1.79621e+08,44.5254,0,2.99037,3708.34,577.396,-20242.7
1.79655e+08,61.117,1,2.68132,-7788.15,4256.95,-19422.4
1.7978e+08,86.4983,0,2.83473,1274.53,13185.8,-17251.3
1.79998e+08,125.156,2,2.67145,-3143.77,-16652.9,-8528.1
1.80099e+08,100.456,0,2.57046,14561.6,-12241.5,-19303.9
1.80145e+08,71.6148,0,2.94144,11138.8,-9167.62,-24322.8
1.80223e+08,122.267,1,2.9181,21878.9,12930,-25019
1.8029e+08,84.1566,2,2.87521,14597.2,-9690.79,-26352.7
1.80639e+08,31.5581,0,2.38228,-3065.64,1323.11,-23080.5
1.80726e+08,56.2204,2,2.89534,-5196.92,5795.92,-19944.1
1.80934e+08,14.1507,0,2.92256,2287.43,1494.57,-27517
1.80961e+08,133.689,1,2.70858,-25848.3,3875.97,-18123
1.80965e+08,36.7841,0,2.46493,6313.82,-3981.92,-26364.6
1.8109e+08,18.8738,1,2.95189,908.223,-2163.79,-25705.4
1.81276e+08,105.164,1,2.42068,-3121.79,12639.1,-10729.7
1.81385e+08,134.585,0,2.49761,27869.7,2707.27,-23304.2
1.81557e+08,64.9617,1,3.05322,-8113.68,-4100.19,-18692.6
1.81632e+08,2.14705,1,2.78731,-83.1658,276.914,-28426.3
1.81753e+08,160.984,2,2.6276,-7389.26,-26577.9,-8868.85
1.81994e+08,96.9315,1,2.46873,4417.35,18828.4,-21814.2
1.82078e+08,186.162,1,3.01058,28843.4,12916.6,-5950.18
1.82195e+08,92.527,0,2.6131,3789.44,12649,-14386
1.82225e+08,264.73,2,2.73627,-27138.9,23696.4,6728.39
1.8229e+08,63.4807,0,2.53156,8080.41,-5978.51,-19840.6
1.82322e+08,166.158,1,2.72763,-24901.1,944.005,-4223.19
1.82581e+08,54.4203,1,2.91851,-7472.66,3754.91,-20984.3
1.82688e+08,91.2879,1,2.96195,13732.4,8963.24,-18930.7
1.83002e+08,88.0216,1,2.86882,-16569.7,-7529.05,-25345.4
1.83011e+08,112.577,0,3.01738,3044.04,-9599.42,-7512.22
1.83082e+08,63.225,0,2.70459,11074.3,-6141.91,-24424.8
1.83165e+08,22.3766,0,2.61781,-652.672,2317.6,-24778.8
1.83726e+08,36.6544,2,2.93704,-5721.09,-4871.47,-26776.9
1.83795e+08,88.1808,1,2.4265,-10838.4,15314.2,-28714.9
1.84593e+08,163.374,2,2.90759,27111.3,-21081,-28966.4
1.84618e+08,30.7896,1,2.55824,-2446.8,1365.68,-22904.7
1.85261e+08,125.729,0,2.92165,20888,-7465.12,-14427.3
1.85558e+08,41.1801,2,2.81342,-3384.25,2163.05,-21150.7
1.86119e+08,50.313,2,2.98201,-5259.05,-1637.41,-19777.6
1.8615e+08,155.191,2,3.00973,19045.5,14121.4,-6642.42
1.8625e+08,11.6158,2,2.43787,-2381.49,-893.512,-28906.9
1.86367e+08,14.1234,2,3.00556,1456.03,-1012.22,-26434.7
1.86724e+08,58.9104,0,2.71805,7045.71,-9900.77,-25920.1
1.8694e+08,28.5289,1,3.0437,5559.32,781.328,-26773
1.87086e+08,140.25,2,2.71008,5865.66,-3200.08,-4653.78
1.87322e+08,156.978,0,2.60669,-24087.9,-15478.9,-12245.8
1.87342e+08,202.722,0,2.85881,-2537.6,-6030.85,-11506.9
1.87582e+08,1.35218,1,2.80359,-159.922,-168.674,-28704.3
1.87595e+08,137.681,1,2.69052,-11505.9,-21784.8,-13544.3
1.87731e+08,205.004,0,2.96118,-19619.4,-28125.3,-2923.72
1.87873e+08,29.4018,1,2.7477,-2674.21,3477.46,-24352.8
1.88778e+08,60.4738,2,2.44159,360.19,12581.5,-26815.1
1.88937e+08,83.3407,0,2.87848,3893.16,-16657.3,-24909.2
1.88974e+08,24.7355,1,2.91046,-1322.42,-1807.6,-24140
1.89491e+08,125.879,0,2.56852,18808.4,-11836.7,-14154.7
1.89599e+08,50.2654,0,2.36389,9679.61,-3798.74,-26155.8
1.90048e+08,283.061,2,3.0355,8751.42,-7706.56,-25805
1.90238e+08,22.4395,1,2.43537,55.3545,3357.29,-25380.2
1.90382e+08,1.49213,2,2.64655,-77.0231,-94.5291,-28501.7
0,1.47908,2,2.4376,0,0,0
0,1.48745,2,2.94362,0,0,0
1.90439e+08,77.1502,0,2.53429,7506.58,-14542.3,-29595.3
1.90644e+08,108.772,2,2.39675,-1519.51,-16234.5,-12520
1.91043e+08,73.1335,1,2.87542,-9637.13,10528.6,-22885.8
1.91046e+08,70.0404,1,2.91393,-10174.9,2713.6,-18509.2
1.91337e+08,88.8702,0,3.03404,10325.6,-4513.56,-16484
1.91608e+08,104.895,1,2.97007,3310.32,-9550.78,-9371.65
1.91787e+08,127.195,2,2.87362,-26466.4,1903.1,-25221.6
1.91998e+08,66.1191,1,2.46899,12633.6,4674.58,-25016.9
1.92029e+08,7.39004,2,2.9348,691.44,-1395.56,-28367
1.92039e+08,14.0568,1,2.62002,-1578.06,2618.12,-29196.1
1.92339e+08,14.9798,1,2.67605,-3189.77,610.202,-29086.4
1.92645e+08,71.9608,2,2.51622,3152.21,-6235.38,-15284.9
1.9298e+08,223.145,2,2.89382,-6113.72,-491.329,-17617
1.93959e+08,39.2994,1,2.93658,-6616.94,5047.99,-29661.7
1.9397e+08,153.239,1,3.01484,-16397.4,-1629.49,-22044.7
1.93995e+08,17.4734,1,2.77215,-2637.82,2517.78,-27887.3
1.94207e+08,132.219,0,3.02698,23716.4,12557.6,-21618.8
1.94453e+08,239.221,1,2.61663,-9327.56,22221.7,15589
1.94505e+08,7.90954,0,2.85229,523.173,422.362,-27264.4
1.94893e+08,18.4309,0,2.69806,554.682,3243.34,-26716.2
1.95493e+08,120.4,1,2.93534,-16567.4,-16308.3,-18915.6
1.95675e+08,47.8405,1,2.38935,-4275.42,5526.26,-21429.4
1.95689e+08,167.66,0,2.83012,22300,-570.96,-20372.1
1.95965e+08,78.773,1,2.55521,1331.37,13771.6,-19487.9
1.961e+08,154.463,2,2.53738,-9121.98,-17119.1,-2546.16
1.96167e+08,68.3792,0,2.97962,-3624.1,10153.5,-19423.9
1.96406e+08,84.5107,1,2.59283,-14092.6,-10605.9,-26132.8
1.96755e+08,51.0501,2,2.66979,497.218,8448.27,-22274.7
1.97095e+08,2.47512,0,3.0439,218.082,456.529,-28617.9
1.97233e+08,144.44,2,2.64759,-12301,11554.7,-3485.07
1.97527e+08,100.143,1,2.55808,-18368.4,-3225.86,-18744.5
1.97579e+08,223.929,1,2.82885,-21109.7,17715.6,9400.91
1.98177e+08,19.2398,1,2.81835,1473.68,3542.74,-27322
1.98185e+08,47.9039,2,2.45925,-4781.35,-3151.12,-20437.4
1.98414e+08,89.4826,0,2.65386,-3045.19,10027.1,-13121.5
1.98516e+08,9.48368,0,2.43446,717.228,607.446,-27006.8
1.98517e+08,20.5764,0,2.98149,-3987.86,-863.295,-27635.6
1.98905e+08,95.8446,2,2.57615,-2338.31,17374.9,-18834.9
1.98992e+08,85.8799,2,2.5836,-935.916,-7880.75,-12466.3
1.99116e+08,134.786,1,2.68501,-5412.7,-12035.8,-3667.82
1.99203e+08,5.96043,2,2.52234,-470.799,-944.943,-28026.6
1.99226e+08,30.2226,0,2.43668,5540.41,806.459,-25587.2
1.99362e+08,153.282,1,2.53068,20929.2,-586.236,-4157.27
1.9937e+08,38.2056,1,2.36546,-8135.82,-491.463,-29080.4
1.99451e+08,136.335,2,2.48996,10955.6,-4463.51,-2531.49
1.9951e+08,59.7685,0,2.47848,4746.66,11271.3,-25423.7
1.99545e+08,42.6107,2,2.63461,-2889.19,-6397.22,-23071.7
1.99738e+08,29.5202,2,2.40633,-6223.32,-1016.59,-28228
2.00884e+08,48.3935,1,2.50748,-4030.67,-6831.64,-26821.9
2.01268e+08,22.3537,0,2.62089,-3794.69,-1500.73,-26561.8
2.01289e+08,85.8251,2,2.62556,-17720.6,3962.83,-29304.4
2.01715e+08,97.6424,2,2.66552,11741.2,-13892.6,-23845.8
2.02166e+08,25.9873,0,2.59098,4660.93,-1381.79,-26085.3
2.02307e+08,7.28868,2,2.55695,-168.254,596.597,-27425
2.02321e+08,34.4244,2,2.548,-806.078,-6733.29,-26023.9
2.02438e+08,201.411,2,2.7301,-24933.2,25739.8,-6257.57
2.02542e+08,110.679,2,2.91983,-621.208,-10741.9,-22018.6
2.02544e+08,42.8998,0,2.75878,-1093.87,1180.22,-29807.8
2.03009e+08,131.927,1,2.86249,-22170.7,13525.6,-18896.3
2.03192e+08,58.0924,1,3.05328,7027.67,4856.99,-20144.8
2.03247e+08,36.4457,2,2.81029,1803.21,-4804.63,-23111.9
2.03806e+08,123.807,2,3.05146,8947.28,14727.6,-9543.36
2.03834e+08,22.3858,1,2.97039,4248.28,183.631,-26866.3
2.03892e+08,16.4309,1,2.67438,1416.24,1271.03,-25916.5
2.04649e+08,184.565,1,2.50478,22941.6,7771.26,1768.94
2.04757e+08,18.9415,1,2.93603,-599.648,3301.33,-26551.2
2.04783e+08,7.86307,1,3.01771,1360.95,-313.698,-28054.6
2.04818e+08,141.382,0,2.81672,4328.43,-12685.3,-2279.07
2.05004e+08,28.8727,1,3.01292,1196.45,-2998.63,-23766.5
2.05129e+08,6.26638,0,3.02078,1104.36,620.31,-28259
0,6.32801,0,2.53383,0,0,0
2.05319e+08,39.6556,1,2.60083,4901.94,-6245.64,-26409.6
2.05413e+08,102.363,2,2.68447,15836.8,7305.04,-16207.7
2.05453e+08,144.685,2,2.70123,-15328.7,-6371.21,-3497.84
2.06958e+08,18.9436,2,2.6039,-3658.19,1345.05,-27758.5
2.07094e+08,123.205,1,2.70952,18926.1,10122.3,-14189.3
2.07341e+08,2.38103,2,3.03132,-268.788,-559.823,-28893.8
2.07612e+08,4.07953,2,2.99801,-487.242,-745.999,-28468.1
0,4.07316,2,2.72069,0,0,0
2.07688e+08,13.9153,1,2.88894,-1088.73,-2224.87,-27337
2.07783e+08,71.191,0,2.91661,12373.1,-8538.41,-28675
2.0783e+08,181.685,1,2.38671,-15300.2,-4318.34,6173.36
2.0788e+08,24.8118,0,2.73358,4537.21,-2719.24,-28125.9
2.08252e+08,109.377,1,2.38888,1330.26,-16295.5,-12524.1
2.08435e+08,23.071,0,2.6073,4456.42,2193.73,-29016.5
2.08804e+08,214.006,1,2.62587,26089.1,15296.3,4727.99
2.0881e+08,63.0564,1,3.0081,2892.23,12841.1,-26920.3
2.08888e+08,25.4133,1,3.02814,-1460.27,2166.56,-24134.8
2.09126e+08,45.29,1,2.46494,5147.05,8155.13,-29199.8
2.09155e+08,7.61303,1,3.01237,1532.87,128.605,-28447.3
2.09166e+08,44.6009,2,2.96644,-7050.68,-2560.59,-23123.4
2.09477e+08,67.9528,0,2.62467,-2659.02,-13810.2,-25916.1
2.09662e+08,31.6471,1,2.93687,-1536.13,-3939.24,-23714.9
2.09911e+08,21.4553,1,2.90569,2098.95,636.676,-24917.2
2.09922e+08,341.722,0,2.74769,23030.8,11448.7,6029.4
2.10096e+08,28.7247,1,2.52906,-2600.94,-1878.94,-23686.5
2.1014e+08,23.9732,1,2.41747,-2226.32,2553.24,-24975.5
2.10194e+08,28.5134,1,2.38626,4260.27,-1428.97,-24824.3
2.10493e+08,103.876,0,2.39577,17643.2,-1818.34,-15781.3
2.10503e+08,83.3424,2,2.38838,-11188.8,-12574.4,-23253.1
2.10538e+08,15.0758,0,2.56204,1419.17,1984.63,-26698
2.10553e+08,0.536884,1,2.75297,-181.354,63.4867,-28847.5
2.10713e+08,38.2088,2,2.81386,-4314.77,-6899.76,-28829.2
2.10721e+08,120.844,2,2.6049,-13158.2,19612.2,-19289.3
2.11098e+08,21.7074,0,2.86213,-3821.55,1976.94,-27469.2
2.11102e+08,19.1879,1,2.56446,-3853.17,988.113,-29919.1
2.11276e+08,63.0352,1,2.64276,10385.3,7890.34,-26054.6
2.11277e+08,112.982,0,3.01587,14077.8,-3128.97,-9979.98
2.11366e+08,99.7819,1,2.8607,8582.38,-3840.73,-10101.7
2.11423e+08,32.29,2,2.71635,5703.25,-3200.85,-26856.1
2.11638e+08,68.9648,1,2.50453,2183.02,8769.21,-17340.7
2.11703e+08,68.376,1,2.44885,-4001.17,3673.84,-21209.7
2.11782e+08,133.952,0,2.76225,-15576.4,10340.4,-27260.6
2.11886e+08,32.3105,2,3.00729,4066.92,4292.49,-25639
2.12052e+08,19.6929,2,2.54789,1453.53,1717.81,-25359.8
2.12283e+08,66.774,1,2.82962,-3850,9537.51,-19172.3
2.12417e+08,21.4169,1,3.04831,2060.96,3126.7,-26296.6
2.12723e+08,30.7999,2,3.05871,5687.41,1396.03,-26226.2
2.12821e+08,8.00936,1,3.00146,-800.548,390.09,-27354.9
2.13229e+08,57.9204,1,2.85626,-7773.62,-1137.11,-19525.3
2.13376e+08,234.257,2,2.58238,-1654.24,-28581.4,854.316
2.14002e+08,33.1901,2,3.00119,3633.79,-5455.09,-26340.1
2.14418e+08,75.8056,2,2.78018,-3160.73,6720.67,-14713.1
2.14443e+08,99.8184,1,2.96525,3058.1,12741.7,-22401.1
2.1465e+08,68.2801,1,2.61489,849.189,7276.54,-16367.6
2.14685e+08,7.57398,2,3.05159,-608.869,-1519.48,-28376.4
2.14719e+08,109.201,2,3.04911,-16103.1,4062.45,-29025.8
2.14923e+08,59.9572,0,2.7735,5249.14,10679.3,-24482
2.15147e+08,14.8545,1,3.01309,-2210.43,1474.79,-27044.2
2.15176e+08,176.042,2,2.68046,11196.4,-21175.3,-426.624
2.15447e+08,20.4087,1,2.50407,4071.78,1477,-28831.7
2.15796e+08,43.2142,1,2.76929,1243.85,-7928.33,-24690.1
2.16001e+08,110.592,2,3.02492,9724.81,17964.2,-18377.3
2.161e+08,61.9899,0,2.97833,11931.7,-4996.82,-26822.7
2.16523e+08,53.95,0,2.92685,-4141.3,-7748.1,-21691.2
2.16604e+08,108.503,2,2.76381,-22328.8,5015.12,-29079.4
2.1732e+08,55.1205,2,2.7417,-10885.8,-4313.15,-28727.3
2.18018e+08,0.363496,0,2.77438,185.8,-40.1525,-28816.8
0,0.35026,0,2.44694,0,0,0
0,0.365899,0,2.36485,0,0,0
0,0.462932,0,2.82353,0,0,0
0,0.358116,0,2.93625,0,0,0
2.18304e+08,60.8161,2,3.00421,2607.95,8793.13,-20084
2.18479e+08,106.719,2,2.51859,-10311.9,-19455.7,-23568.6
2.18678e+08,13.2144,0,2.42185,1674.7,-242.987,-26524.7
2.18856e+08,23.8875,1,2.50821,1798.36,2350.37,-24709.1
2.19031e+08,40.7075,2,3.02715,-2145.39,7646.72,-25824
2.19206e+08,124.048,1,2.97717,-24738.4,3641.01,-22159.4
2.1949e+08,64.3376,2,2.45547,-7906.67,1394,-17840.8
2.19688e+08,128.004,0,2.41721,-18291.4,-5589.42,-9725.01
2.19793e+08,153.445,0,2.78949,26808.7,-11277.9,-14648.7
2.1985e+08,31.0321,0,2.83761,-2871.37,-5858.87,-28901.1
2.20142e+08,90.2931,0,2.4278,-15357,4205.45,-18388.2
2.20557e+08,46.8552,1,2.79699,5012.57,8057.59,-26034.8
2.20812e+08,83.0755,1,2.49509,13786.4,10728.3,-26649.7
2.20964e+08,58.1452,2,2.88271,-11378.2,4499.12,-29638.9
2.21006e+08,87.5921,1,2.72542,18422.3,129.213,-28201.3
2.2122e+08,66.3853,1,3.00874,7992.56,3264.11,-17913.5
2.21557e+08,8.02931,0,2.95978,511.603,1346.89,-27884.4
2.21602e+08,43.7019,1,3.01423,-3117.37,-3175.16,-20818.7
2.21851e+08,73.638,0,2.80032,15485.7,1977.02,-29008.6
2.22364e+08,29.0148,2,2.45387,4810.7,-2187.48,-25680.7
2.22371e+08,25.7387,0,2.92978,2204.12,-3265.65,-25051.3
2.22623e+08,82.5162,2,2.92683,-13569.2,1843.58,-18223.5
2.2281e+08,109.507,0,2.82106,20028.7,-11524.7,-29451.2
2.2294e+08,1.63244,2,3.02289,-68.1873,-403.133,-28673.3
2.23049e+08,83.0051,1,2.59424,-446.443,-149.894,-29575.8
2.23131e+08,81.628,1,2.38442,-10982.6,4999.25,-16392.7
2.23384e+08,18.7661,2,2.8347,-3242.52,-446.785,-26506
2.23454e+08,3.7758,2,2.54812,507.739,-591.317,-28507.4
2.23502e+08,122.327,2,2.94682,-16459.1,13729.5,-14719.6
2.23563e+08,47.5556,1,2.44918,-3176.94,9214.58,-25959.7
2.23771e+08,25.9592,2,2.51125,-4008.65,-2746.99,-26131.6
2.24007e+08,79.8144,2,3.01773,-15543.3,-6416.58,-28396.8
2.24122e+08,13.3395,0,2.51391,1124.34,1954.34,-27051.5
2.242e+08,53.8025,2,2.63443,-8762.31,-7233.25,-27678.3
2.24345e+08,68.4519,0,2.38311,1489.75,7204.75,-16329.4
2.24656e+08,87.9995,1,2.4795,-960.779,12759.4,-15252.1
2.24663e+08,4.99051,0,2.90481,580.986,-916.533,-28635.5
2.24783e+08,238.967,1,2.49981,-15197.3,18998.6,15475.6
2.2494e+08,98.0414,1,2.71076,12153.7,16779.2,-29359.4
2.25158e+08,12.2242,1,3.00162,241.346,2661.36,-28856.7
2.25245e+08,69.1391,2,2.66137,983.037,-14118.9,-25080.5
2.25416e+08,147.202,0,3.02367,21019.4,16005.2,-12995.8
2.25636e+08,4.18379,1,2.94756,-728.176,359.834,-28326.1
2.25932e+08,139.62,0,2.66223,-22240.6,-9515.87,-12121.7
2.25965e+08,37.6605,1,2.40228,-287.457,-7636.56,-26806.4
2.2615e+08,183.514,0,2.69803,29454.7,-18238.1,-11451.9
2.26309e+08,62.217,2,2.71547,-10906.1,6137.35,-24874.1
2.26386e+08,146.429,1,2.74003,-10331.1,-8304.23,-979.73
2.26644e+08,11.5721,0,2.71646,1345.71,-2120.91,-28947.1
2.26656e+08,108.669,2,2.5459,-22044.9,3120.66,-22940.7
2.27097e+08,40.9633,0,2.49266,-776.09,-5863.25,-25037.9
2.27279e+08,3.55255,0,2.74903,591.359,176.105,-28285.3
2.27563e+08,213.289,1,2.75183,-12721.9,21569.4,8490.04
2.27721e+08,96.6805,1,3.0111,-20230.7,1630.5,-29687.8
2.27727e+08,57.7014,2,2.98666,2041.2,-7375.65,-19388.2
2.27758e+08,136.741,0,2.74707,568.962,-2092.35,-25388.5
2.28303e+08,116.527,2,2.69471,-19101.6,-10795.4,-17617.5
2.28699e+08,144.349,2,2.72338,-5000.11,-25330.9,-12606.7
2.28761e+08,95.8988,2,2.43384,-17234.5,3193.84,-18534.7
2.28797e+08,21.0045,2,2.73495,-1265.48,-3630.88,-26463.2
2.29244e+08,1.71509,2,2.52506,-150.504,225.016,-28607.3
0,1.75907,2,2.38483,0,0,0
2.29342e+08,290.814,1,3.05801,2903.81,-737.736,-28566
2.2939e+08,39.3664,1,2.62477,4694.71,1424.7,-22143.4
2.29918e+08,5.23993,2,2.44346,-693.58,848.473,-28932.5
2.30263e+08,333.636,1,2.71836,-10344.3,-364.778,-12429.1
2.30745e+08,16.3199,1,2.97535,-2215.03,1065.51,-26370.2
2.30879e+08,210.916,2,2.94327,-12638.5,9982.38,11910
2.31661e+08,8.55724,2,2.39949,-987.669,1254.08,-28007.6
2.31728e+08,87.902,2,2.59864,-8660.38,10889.6,-16597.1
2.31947e+08,10.4621,1,2.56849,-2212.05,405.187,-29147.2
2.31998e+08,47.6025,2,2.60771,9665.56,2519.51,-29507.8
2.32193e+08,45.4826,2,2.62579,-305.885,-9379.99,-26367.4
2.32196e+08,66.7536,2,3.00856,12084.2,652.889,-21874.9
2.32633e+08,15.9837,1,2.97699,2412.41,2326.04,-29349.2
2.32775e+08,91.9722,1,2.46414,15415.9,11194.2,-24855.5
2.33356e+08,26.2501,1,2.5822,-3087.02,4683.65,-28435.6
2.33365e+08,52.5164,0,2.78219,739.046,-10735.8,-26138.1
2.33428e+08,34.1064,1,2.39082,2965.28,1878.29,-22533.5
2.33478e+08,128.882,0,2.39932,25657.1,-5433.75,-21016.1
2.33525e+08,7.09232,1,2.66196,-317.306,-958.533,-27744.1
2.33702e+08,27.6472,1,2.65465,-130.975,3765.26,-24309.1
2.33864e+08,111.911,2,2.76882,15517.3,-7350.79,-12832.6
2.34124e+08,55.6332,0,2.54749,235.571,6495.03,-19015.5
0,55.6343,0,2.54749,0,0,0
2.34259e+08,127.115,0,2.75547,23406,-13047.2,-27554.6
2.34342e+08,8.04797,0,2.54923,1740.5,-277.147,-29260.2
2.34412e+08,62.8524,1,2.79873,-6660.92,-11409,-28643.5
2.34861e+08,93.6263,2,2.57502,124.249,13131.4,-14067.9
2.34966e+08,49.4398,1,2.57914,1553.61,9387.13,-24328.2
2.35048e+08,24.5148,0,2.76638,3442.5,-3636.98,-27283.3
2.35561e+08,141.252,1,2.46272,22471.5,19588.4,-26289.2
2.35586e+08,67.3562,1,2.45909,-12898.2,3140.39,-23449.5
2.3568e+08,96.8391,2,3.05825,9826.29,-14392.9,-18386.7
2.35795e+08,129.592,2,2.90296,-8155.82,-12030.1,-10235.7
2.36181e+08,0.979218,2,2.95156,15.9607,-5.76065,-28617.5
0,1.00249,2,3.02067,0,0,0
2.36216e+08,41.5475,1,2.53393,5469.6,3808.44,-23068.2
2.36356e+08,32.4087,2,2.48138,-6740.64,-1655.79,-28532
2.3669e+08,48.8967,2,2.6319,6591.78,4583.75,-22411.5
2.36869e+08,80.673,2,2.83061,926.143,9940.58,-15161.1
2.3689e+08,38.4971,2,2.84332,-4656.21,-546.99,-22180
2.36964e+08,34.5959,1,2.93729,1026.44,5406.3,-24003.2
2.37141e+08,33.346,2,2.44035,-3292.92,-4207.61,-24125.8
2.37236e+08,5.91968,2,2.78597,-850.003,898.434,-28838.7
2.37402e+08,32.5113,0,2.77749,-2526.44,-3759.92,-23732.3
2.37443e+08,0.935953,2,2.84412,-274.637,-73.5814,-28816.6
2.37797e+08,93.8351,2,2.49504,-6102.14,-15173,-17511.7
2.38402e+08,160.158,2,2.96057,-11791.1,-27589.4,-13575.1
2.38429e+08,5.54402,0,2.74665,464.069,-779.085,-28015.6
2.38795e+08,126.376,0,3.05999,10814.7,14004.6,-9819.07
2.39329e+08,6.8539,0,2.498,1003.74,488.588,-27811.8
2.39715e+08,30.0662,0,2.82122,-1441.02,5041.68,-25292.6
2.39721e+08,12.2446,2,2.73064,1506.05,-1126.21,-27068.9
2.39873e+08,196.035,0,2.92526,26105.3,-25935.4,-10353.2
2.39886e+08,108.707,0,2.73246,20219.4,-1385.17,-18030.5
2.4018e+08,150.912,2,2.42591,-18864.1,-20747.5,-13399.7
2.40183e+08,26.6362,1,2.46886,-2384.24,-164.425,-23693.5
2.40339e+08,170.842,1,2.88052,7870.12,13474.9,-3090.63
2.40378e+08,266.705,1,2.60084,-16396.4,-13888.7,20178.7
2.40592e+08,67.8598,0,2.38092,8437.32,8025.39,-20309.4
2.41201e+08,135.23,2,2.83841,9023.69,-26675.7,-24551.4
2.41759e+08,29.4208,0,2.67225,1106.58,4990.5,-25250
2.41828e+08,113.448,1,2.64583,-2546.1,17293.4,-12375.1
2.4212e+08,26.446,1,2.96007,4697.72,-2536.71,-27535.3
2.4255e+08,23.3515,0,2.87274,4236.36,-2366.08,-27742.4
2.42746e+08,178.151,2,3.05031,-5429.86,-3287.68,-19116
2.42922e+08,91.4133,0,2.84191,1552.55,11442.4,-13465.6
2.43502e+08,34.7749,2,2.58112,-2303.76,-7015.07,-29812.6
2.43675e+08,27.786,2,2.95421,-3513.97,-4617.39,-27595.6
2.43756e+08,7.93132,0,2.83302,147.509,-1298.77,-27801.9
2.44021e+08,5.61554,1,2.40491,-799.721,666.464,-28089.7
2.44191e+08,77.1262,1,2.8094,1196.05,11799.6,-17670.3
2.44608e+08,65.3603,1,2.42806,4314.07,10835.9,-21280.9
2.44699e+08,4.98803,2,2.41719,-897.485,-591.216,-28445.4
0,4.99533,2,2.93973,0,0,0
2.44954e+08,105.823,2,2.53684,-4878.25,-12946.6,-11173.4
2.4499e+08,5.8508,2,3.05125,-957.29,303.051,-28120.9
2.4558e+08,46.2229,1,2.62798,-2748.92,8625.5,-24974.6
2.456e+08,111.999,2,2.70639,-16323.2,-6373.95,-12919.8
2.45737e+08,26.8293,1,2.86498,-396.681,3191.28,-24158.7
2.46348e+08,47.9225,0,2.64905,2512.67,5397.06,-20632
2.46391e+08,1.17843,1,2.52184,187.894,246.187,-28854.9
0,1.18552,1,2.67003,0,0,0
2.46538e+08,43.9322,0,2.59199,-4627.96,-7976.92,-29662.9
2.46652e+08,1.10917,2,3.00698,5.05709,-273.467,-28680.7
0,1.16365,2,2.88429,0,0,0
0,1.15468,2,3.01015,0,0,0
2.46769e+08,16.8652,0,2.9907,2466.93,-1629.34,-26755.3
2.46845e+08,156.119,0,2.38648,26794.6,-7466.19,-10874
2.46925e+08,16.1142,0,2.82875,2581.22,269.736,-26537.2
2.47014e+08,64.6459,2,2.57135,-11715.1,-7122.46,-29925
2.47127e+08,62.8429,2,2.97523,-9991.83,-8711.97,-27959.7
2.47348e+08,101.794,2,2.46782,-16455,-1274.71,-14927.4
2.47387e+08,25.0076,0,2.41975,3344.65,3620.82,-26789.9
2.47433e+08,82.6445,0,2.81078,-12040.6,915.02,-16381.8
2.4745e+08,69.3375,2,2.64849,1327.86,12709.6,-21811.1
2.47884e+08,161.562,2,3.04323,-23489.1,-19496.1,-14055.5
2.48039e+08,115.628,0,2.99379,15115.5,17968.4,-22613.3
2.4829e+08,46.1817,0,2.42301,7840.67,-3906.9,-24340.1
2.48329e+08,128.904,0,2.72968,17382,10941.1,-10994.2
2.48747e+08,74.5587,0,2.51092,11265.7,-6561.73,-19844.8
2.49276e+08,72.5362,1,2.57513,1336.35,-14944.5,-25978.2
2.49456e+08,65.7758,2,2.77656,6467.03,-4297.48,-17356.3
2.49489e+08,102.25,1,2.84412,-1181.91,4118.53,-9662.22
