#class tools::wcsv::ntuple
#title time
#separator 44
#vector_separator 59
#column double eventID
#column double t(ns)
#column double copynumber
#column double energy(eV)
#column double x(mm)
#column double y(mm)
#column double z(mm)
162127,101.075,2,3.03719,-1147.01,-16760.1,-21634.2
335909,63.4278,2,2.65991,7138.14,-1893.1,-17763.6
394737,34.9871,0,2.66263,-3134.43,-831.753,-22178.4
486381,6.57339,0,2.51382,600.119,-311.784,-27928.5
802928,101.642,1,2.79128,-6776.53,20410.5,-28262.7
811349,31.8651,2,3.05484,-1162.11,-2490.98,-22653.1
847812,35.6808,0,2.39501,-914.053,6156.52,-24607.7
904456,4.76172,0,3.02463,305.185,-606.729,-28068.9
996188,40.9732,0,2.77616,5477.09,5910.72,-25515.3
1.05874e+06,2.05766,0,2.39957,160.557,-165.858,-28410.9
0,2.1288,0,2.82297,0,0,0
1.08119e+06,134.885,2,2.59887,3927.38,6319.86,-9013.25
1.14846e+06,256.258,1,2.69483,-26611.5,-29399.8,7980.81
1.17226e+06,30.0866,2,2.98905,-5515.76,-1829.85,-26132.9
1.18483e+06,25.022,2,2.86094,4433.9,596.985,-26089.4
1.20674e+06,46.8577,1,2.83427,1153.55,9911.74,-28324.1
1.3681e+06,9.80996,0,2.74361,917.715,1161.7,-27569.8
1.42872e+06,49.9808,2,3.05347,-1171.13,-8133.74,-22316.5
1.75496e+06,59.5598,2,2.83726,-4491.77,-4885.68,-22831.9
1.77708e+06,10.5939,0,2.77269,2099.25,802.76,-29210.1
1.78614e+06,72.6349,2,2.72682,-12011.1,-4631.97,-20417.4
1.78671e+06,160.389,0,2.77047,14986,22921.3,-27114.2
1.90831e+06,14.4608,0,2.95035,2495.17,1760.1,-28138.3
1.96644e+06,96.7499,2,2.99778,14823.3,-11262.4,-21149.1
2.17217e+06,25.3447,2,2.55127,-3223.22,-2228.49,-25039
2.2091e+06,296.054,1,2.7887,-29832.6,23666,20441.1
2.27134e+06,236.36,2,2.63275,29599.7,17257.3,7304.92
2.40515e+06,128.977,0,2.36943,22695.6,11166.1,-18485.5
2.44332e+06,45.2605,0,2.84665,132.651,-4508.8,-25347.4
2.52196e+06,4.3857,2,2.96236,652.697,237.981,-28258.3
2.60473e+06,53.1049,2,2.85869,6183.49,-9272.22,-27308.7
2.84675e+06,74.6354,1,2.61806,3632.86,9797.94,-16971.7
2.91019e+06,56.6854,2,2.92149,-2089.72,4646.32,-18640.4
2.97421e+06,116.703,2,2.50516,-18618.5,-8832.86,-15178.7
2.99092e+06,23.0372,1,2.96388,-1583.56,4607.05,-28918.8
3.01663e+06,138.86,2,2.71304,-11344.7,-21916.2,-12945.2
3.14163e+06,10.4753,1,3.0534,-919.579,-686.662,-27385.6
3.16169e+06,10.5941,0,2.4895,1203.25,-1028.78,-27242.3
3.54022e+06,15.414,2,2.8514,-1001.82,-3045.86,-28805.3
3.54859e+06,34.6465,2,2.93897,-3618.33,3772.75,-23781.7
3.73267e+06,122.107,2,3.02736,12831.9,-17506.7,-15249.3
3.76356e+06,64.5399,0,2.6202,13288.4,-637.313,-25603.5
3.76365e+06,115.479,0,2.52742,18613.6,5488.42,-13876.5
3.85347e+06,157.417,0,2.84774,28239.4,-2343.97,-13987.5
3.88035e+06,72.7494,0,2.69034,7427.2,11566.3,-21792.6
3.91352e+06,87.5263,0,2.75648,-5399.95,-12120.5,-15917.2
3.9886e+06,43.3243,0,2.9108,3700.17,-5872.93,-22882.7
4.12949e+06,112.345,1,2.8204,7636.2,15390.3,-12929.4
4.21275e+06,58.4492,0,2.88258,6518.2,-5850.22,-20162.1
4.28367e+06,26.0588,2,2.48088,-5448.3,-546.462,-27843.8
4.3572e+06,24.5253,2,2.87921,1352.07,-1959.62,-24180.6
4.44065e+06,72.4676,0,2.8016,-13283.4,5666.01,-24705.3
4.5579e+06,50.5695,2,2.79817,4639.52,-7853.51,-24045.2
4.634e+06,142.423,0,3.02529,17355.6,18619.5,-13175.7
4.66145e+06,25.8905,2,2.59676,-2950.92,-4258.02,-26782.9
4.70775e+06,86.5813,2,2.77505,-12673.5,6189.95,-17383.9
4.72276e+06,53.1018,0,2.9194,-2630.35,-5780.12,-19991.5
4.83121e+06,22.5446,2,2.45506,-4619.06,440.508,-27876.4
4.90277e+06,124.325,1,2.6185,-18128.4,2623.85,-9869.26
5.00885e+06,1.83707,1,2.65408,-338.745,274.678,-28680.5
5.06362e+06,131.951,2,2.59829,26505.4,-8590.18,-29329.8
5.08675e+06,32.8547,2,3.00852,-2981.59,-3071.77,-23363.4
5.13634e+06,9.86858,2,2.99198,-1870.18,-1156.28,-29027.5
5.14525e+06,58.4174,2,2.63335,8277.3,-9001.28,-26724.4
5.1939e+06,66.1521,1,2.61029,-538.549,11009.1,-20165.2
5.26711e+06,3.26509,1,2.3858,-227.095,-508.297,-28436.5
5.68158e+06,39.7188,1,2.40813,-8028.98,-2668.66,-28722.8
5.76738e+06,60.0191,2,2.96944,8376.26,66.4264,-19608.2
5.83236e+06,85.9676,0,2.72221,7554.07,6875.47,-13748.4
5.84473e+06,31.2758,1,2.51954,-1022.51,6669.4,-29909.3
6.13544e+06,61.0187,1,2.88594,3968.77,9302,-20692.1
6.24306e+06,80.9389,0,2.75604,6431.07,11849.9,-29599
6.26914e+06,22.9789,0,2.87297,4721.94,-1016.31,-27764.9
6.30304e+06,180.707,1,2.73418,-23177.9,-18994.3,-5355.75
6.4377e+06,10.9758,2,2.76888,-1743.3,-1549.49,-28208.2
6.48302e+06,147.785,0,2.95778,29734,-8829.21,-29240.1
6.50954e+06,44.4014,1,2.77231,6643.39,5847.29,-25666.2
6.59929e+06,23.8556,1,2.49381,-3139.95,-2521.14,-26614.7
6.63059e+06,12.1019,1,2.8103,-1152.64,2287.45,-28153.6
6.73216e+06,8.32238,0,2.63938,2056.69,-116.573,-28911.3
6.74726e+06,22.0408,1,2.94907,3480.9,1776.55,-26310.7
6.77186e+06,173.613,1,3.04667,-2291.8,-12296.8,-1330.98
6.86541e+06,52.2712,0,2.89809,-3833.32,8607.7,-23317.4
6.88036e+06,181.048,2,2.71786,-2883.96,-27272.2,-2251.19
6.89841e+06,89.6817,0,2.9898,6528.01,-10281.4,-20710.9
6.98664e+06,8.65553,1,2.49377,1500.65,-315.53,-27815.7
7.0786e+06,63.0489,0,2.5471,4319.32,-9362.54,-20292.1
7.08827e+06,45.421,2,2.50556,1825.4,-7668.58,-23759
7.11305e+06,113.128,1,2.60025,17822.7,14399.3,-22085.4
7.14245e+06,44.0962,1,2.63373,283.186,144.409,-23520.6
7.26762e+06,85.4917,2,2.75902,-15501.5,-5755.39,-21530.5
7.32416e+06,29.025,2,2.82724,3695.87,4406,-26976.8
7.42727e+06,33.8599,0,2.7726,3130.25,-4768.75,-24668.3
7.58494e+06,35.103,2,2.53193,1047.03,-5103.46,-23414.1
7.67087e+06,159.056,1,2.79914,10632.3,17370.7,-6389.57
7.70686e+06,9.38537,0,2.52933,1297.58,934.635,-27679.8
8.00949e+06,37.9365,2,2.6864,-96.2899,-6765.67,-24755.6
8.07612e+06,58.4206,0,2.39073,-3287.79,4971.02,-18099
8.17924e+06,12.1112,2,2.76099,-896.157,-1210.09,-26691.7
8.20673e+06,132.277,2,2.795,2923.18,-26307.5,-19723
8.21446e+06,21.1012,2,2.69475,-1638.82,3776.66,-27245.9
8.31802e+06,262.963,1,2.82828,25200.7,12058.6,18297.4
8.43202e+06,11.8054,0,2.58038,1637.69,1069.22,-27197
8.44887e+06,83.8268,0,2.54868,10513.3,-14352.6,-29654.8
8.48544e+06,64.0056,2,2.46919,-10221.5,-9216.09,-28285.2
8.57197e+06,16.6999,1,2.78455,-2280.95,1207.22,-26274.2
8.62224e+06,9.03957,1,2.7412,-1939.25,-215.919,-29286.3
8.79352e+06,128.088,2,2.47674,8567.79,13246.4,-6885.64
8.84599e+06,54.7353,0,2.43529,8213.09,3130.76,-21370.6
8.85123e+06,44.9605,0,2.52826,-8054.95,1269.11,-23869
9.00147e+06,34.6508,0,2.44143,-3212.5,1140.41,-22372.4
9.00215e+06,45.2078,1,2.94392,-3752.78,5596.19,-22066.1
9.03509e+06,40.7503,2,2.74489,-5595.89,3765.81,-23509.9
0,40.4237,2,2.44037,0,0,0
9.12802e+06,14.686,1,2.8402,515.807,2632.39,-27152
9.32422e+06,9.85021,2,2.91803,1528.68,751.503,-27879.2
9.35676e+06,110.646,0,2.67844,16480.7,8439.69,-14541.1
9.36682e+06,182.162,2,2.71033,2751.79,-25295.1,16.017
9.48921e+06,14.2882,2,2.9545,-866.654,-2920.38,-28576.4
9.51093e+06,22.9259,2,2.981,-4069.85,935.338,-26512.7
9.59264e+06,166.698,0,2.68901,10795.5,-7932.98,3428.18
9.76014e+06,101.745,2,2.52426,-13039,-6569.77,-12888.7
9.77491e+06,34.8403,0,2.66832,4240.54,-1229.61,-22861
9.80511e+06,8.92548,1,2.45954,-1517.73,-760.146,-28064.7
9.81641e+06,82.7722,2,2.87414,3326.93,-8876.72,-14228.7
9.83758e+06,148.898,1,2.73619,-2025.76,27160.7,-13094.3
9.9228e+06,164.251,1,2.91497,-6300.54,14068.3,-3961.94
9.99341e+06,216.522,1,2.68061,-24709.1,-26593.7,-1251.02
1.00125e+07,159.522,2,2.77405,21203.5,-21605.3,-28159.6
1.00603e+07,86.5469,0,2.47013,10646.6,13277.4,-21927
1.00948e+07,9.18099,0,2.59578,910.437,578.713,-27491.2
1.02033e+07,106.328,0,2.49024,417.932,-19102.6,-16850.3
1.05322e+07,128.803,1,2.70078,53.0808,21262.7,-12067.4
1.05453e+07,54.0046,0,2.92757,2433.64,11103.3,-27565
1.06796e+07,93.3594,1,2.77895,-13143.6,-5064.32,-15082.3
1.06824e+07,108.553,2,2.65026,-3342.07,-20875.1,-19714.5
1.08665e+07,56.4454,1,2.95165,10314.4,3031.64,-23855
1.09037e+07,28.3749,0,2.84648,1583.99,5211.1,-26353
1.12437e+07,33.2894,0,2.95853,6607.7,-2332.18,-27715.1
1.15133e+07,127.517,2,2.62711,-17997.3,10605,-11864.4
1.15237e+07,47.8129,2,2.91139,-8915.15,-2921.53,-27358.6
1.15444e+07,64.203,2,2.43028,-7367.07,3700.5,-18197.3
1.16196e+07,88.8787,0,2.68358,15559.2,-8507.31,-22362.1
1.18875e+07,78.4573,2,2.70465,-11965.5,-983.535,-17398.8
1.18926e+07,50.7131,0,2.7299,-4132.33,4212.54,-26395.4
1.19608e+07,61.5066,0,2.61874,-1577.39,-7387.05,-18393.6
1.21396e+07,230.436,2,2.7607,7706.54,1688.44,-1485.37
1.21545e+07,30.8561,0,2.75586,4057.95,4489.76,-26247.1
1.2183e+07,48.2196,0,2.56644,-4797.35,8494.97,-25951.8
1.2214e+07,15.0589,1,2.90959,-562.729,952.647,-25788.5
1.22801e+07,106.817,2,2.73568,8293.66,-6187.61,-8788.8
1.233e+07,236.864,2,2.59854,19487.9,-28339.7,7223.49
1.25617e+07,93.2102,2,2.42197,-13244.1,-1003.1,-14224.5
1.2714e+07,28.4924,1,3.05438,-4563.51,3982.85,-28304.3
1.27853e+07,52.8326,1,2.74612,-3867.32,7299.28,-21314
1.28437e+07,18.6502,2,2.85313,-2973.09,-1958.85,-26926.5
1.28946e+07,48.8487,2,2.92489,-6189.82,-5496.37,-22616.1
1.28967e+07,29.6084,1,2.44173,2604.48,-2107.04,-23577.5
1.29084e+07,22.033,0,2.89941,3837.81,1917.52,-26938
1.31207e+07,249.019,1,2.42434,-4881.81,15767,7382.07
1.3148e+07,167.458,2,2.40018,1536.34,13145.9,-6440.46
1.3161e+07,26.1664,0,2.37336,2765.97,4750.12,-29874
1.32532e+07,26.4108,0,2.64826,4805.16,3047.34,-28522.2
1.366e+07,26.5765,0,2.63046,-144.419,-4690.89,-25654.3
1.37577e+07,90.3271,2,2.53234,-5032.22,-15447.8,-18681
1.3982e+07,85.351,2,2.60602,-17152.2,-1114.76,-23399.4
1.40336e+07,36.3925,2,2.88819,-4429.96,942.899,-28069.3
1.40645e+07,42.1195,1,3.01319,1397.51,5262.22,-21816.6
1.40864e+07,93.7834,2,2.60505,10762.3,-12785.5,-18293.3
1.41233e+07,26.3473,1,2.56275,2712.3,239.265,-23969.6
1.41464e+07,9.26299,1,2.69983,-600.66,1716.08,-28020.2
1.43115e+07,2.89768,2,2.5824,-121.097,396.316,-28398.7
1.43916e+07,29.7363,1,2.46827,3565.87,5195.68,-29613.7
1.44401e+07,103.587,2,2.93803,-14375.4,-15013.7,-22154.2
1.46147e+07,6.79118,1,2.89985,778.904,509.726,-27577
0,6.65185,0,3.02439,0,0,0
1.46218e+07,104.935,2,2.94202,-14715.1,-13560.7,-19365.5
1.48561e+07,36.3171,2,2.88096,5801.67,-2581.65,-24562
1.49405e+07,115.891,2,2.59962,-139.594,-23230.4,-20827.5
1.49487e+07,110.856,1,2.60417,-782.507,1977.56,-28181.3
1.50225e+07,16.648,2,3.00401,2414.46,2012.73,-27471.8
1.50569e+07,68.4789,2,2.99583,-13534.5,-4537.46,-27295.8
1.50586e+07,58.2128,0,2.53516,6978.66,-9211.65,-24377
1.50642e+07,58.6601,1,2.83705,-6797.75,-9966.31,-26444.3
1.52408e+07,45.7706,0,2.99008,8974.86,-3314.15,-27995.2
1.53738e+07,12.884,2,2.60321,-1911.49,300.334,-26912.2
1.54502e+07,81.0934,0,2.54262,12908.4,-10384,-24294.3
1.55288e+07,215.436,0,2.80835,-16717.6,-28020.6,-1045.74
1.55725e+07,57.6497,1,2.819,6377.59,9796.17,-29215.5
1.57536e+07,9.93628,1,2.88485,1858.78,86.5853,-28035.6
1.5915e+07,190.19,0,2.83826,7953.4,-17434.9,202.389
1.6157e+07,124.543,1,2.91681,2508.56,9561.03,-22821.3
1.62841e+07,68.7969,0,2.962,10404.2,-8842.59,-23889.6
1.63936e+07,67.7992,2,3.02691,-6432.54,9231.93,-20126.9
1.6424e+07,16.5051,2,2.62364,-2874.22,-1687.08,-27423.4
1.64885e+07,42.0824,1,2.78382,5766.13,3210.03,-23134
1.65696e+07,39.4086,2,2.50594,-131.524,-7566.62,-25152.8
1.6662e+07,51.3822,2,2.49296,-5810.49,423.528,-24347.5
1.66752e+07,114.348,1,2.3649,10570.7,10219.6,-9376.51
1.67445e+07,22.9626,1,2.7705,2585.75,2374.88,-25480.8
1.69339e+07,145.747,0,2.62399,-12340.3,-18912.6,-8002.76
1.71224e+07,36.8004,1,2.73662,3859.62,4023.77,-23547.7
1.7127e+07,69.9486,1,2.99781,-12966,558.478,-22037.9
1.71809e+07,19.7938,1,2.75291,432.272,-2059.46,-25295.9
1.7322e+07,5.31763,2,2.76354,1033.31,392.842,-28455.9
0,5.40628,2,2.38971,0,0,0
1.73424e+07,99.1083,2,2.55375,1099.6,-18073.1,-18445.6
1.7441e+07,116.811,2,2.69161,17889,124.821,-11633.1
1.74577e+07,26.4644,2,2.6947,2206.84,2085.59,-24261.3
1.758e+07,5.40769,1,2.83768,-675.911,1010.27,-29013.6
1.76878e+07,260.579,0,2.72131,21949.3,29337.7,8055.7
1.78531e+07,91.0127,1,2.87507,-18743.7,2922.92,-25604.2
1.82488e+07,45.6654,2,2.38911,5165.73,-7038.52,-25282.3
1.83169e+07,65.1369,1,2.9733,5845.07,1098.48,-16392.4
1.83835e+07,272.959,2,3.00956,3048.87,3494.06,-1137.95
1.84163e+07,33.553,1,2.72686,-3394.68,6195.29,-27783.4
1.8497e+07,22.1514,2,2.66559,-3607.44,-713.974,-25828.3
1.86756e+07,13.6668,0,2.984,1345.19,-2323.32,-27623.5
1.86837e+07,77.1151,1,2.86566,7146.82,12087,-20885.2
1.87462e+07,53.9409,2,2.67591,-2657.91,-5468.09,-19058
1.88036e+07,155.079,0,3.03363,22887.1,22843.5,-24946.5
1.88552e+07,134.077,1,2.58294,-7420.93,14383.3,-5541.32
1.89088e+07,204.155,0,2.8372,-15333.9,-11990.7,9395.6
1.89246e+07,132.959,2,2.46471,8043.83,-25240.5,-18870.9
1.91332e+07,123.253,0,2.73581,-3035.48,12815.2,-6446
1.91578e+07,94.2073,1,2.72033,-5821.36,19198,-27677.6
1.93395e+07,82.791,0,2.56081,3580.16,8533.04,-14054.6
1.93631e+07,42.9512,0,2.37107,-5021.28,-7487.86,-27636.9
1.94464e+07,128.969,1,2.49542,-14721,-22296.2,-29150.8
1.95789e+07,146.492,1,2.50313,-11771.4,12226.4,-2853.74
1.97319e+07,237.449,1,2.68031,-12267.5,21799.3,14606.2
1.9932e+07,109.667,0,2.89923,18736.6,-12414.7,-28166.1
1.99858e+07,4.14071,0,3.0598,644.597,-354.287,-28235.6
1.99886e+07,4.21339,0,2.66046,877.774,369.363,-28999
2.00245e+07,32.6983,0,2.3651,-3434.19,-430.006,-22950
2.00644e+07,284.582,0,3.00394,23629.7,-15915.9,23582.6
2.09634e+07,25.6994,1,2.6222,-201.971,2986.15,-27256.2
2.09859e+07,50.8507,1,2.89339,-10080.7,1381.14,-25397.6
2.10158e+07,264.328,1,2.96972,18428.9,12326.6,21947.3
2.12266e+07,40.7894,0,2.72069,4628.61,-6317.54,-25440.3
2.14043e+07,37.3621,0,2.50799,7086.53,3586.46,-28008.6
2.14582e+07,33.0258,1,2.57403,-6206.1,3432.27,-29541.2
2.14639e+07,68.8734,0,3.04006,-9500.37,1825.89,-18087.6
2.15068e+07,24.2016,2,2.63951,-2482.57,-3074.05,-25829.4
2.16029e+07,51.4136,0,2.52462,6171.62,-8762.66,-27071.7
2.16213e+07,29.7443,1,2.75254,-3778.71,-332.711,-23722.6
2.17595e+07,98.7627,1,2.70714,-5345.28,9207.26,-11492.5
2.17932e+07,19.0276,2,2.4224,2439.46,-1384.04,-26195.2
2.18096e+07,109.884,2,2.71245,-1230.39,21177.6,-19690.6
2.19191e+07,152.509,1,2.59312,-9808.24,16672.7,-2986.87
2.20031e+07,29.0769,0,2.7202,3906.51,1417.31,-24342.7
2.21132e+07,16.9246,0,2.86338,1272.06,-1763.9,-25935.6
2.23119e+07,104.648,1,2.68465,-17197.1,13609.7,-29486.9
2.23487e+07,107.996,1,2.57152,-1795.57,20079.6,-18008.7
2.25593e+07,39.3489,2,2.62775,-4625.42,-4761.94,-23689.3
2.25747e+07,45.4496,2,2.4608,3906.29,-5799.68,-22142.3
2.25885e+07,18.6814,0,2.46527,32.4448,1772.8,-25232.5
2.26413e+07,85.9417,2,2.37038,14635.6,-10305.3,-25857
2.26895e+07,20.729,1,2.74436,-1471.67,-3012.82,-26389.7
2.27234e+07,2.4916,0,2.99717,126.891,-78.2062,-28323.6
0,2.61609,0,2.49101,0,0,0
0,2.43676,0,2.71636,0,0,0
2.27528e+07,57.0108,1,2.47042,-3770.85,7477.92,-20081.3
2.27777e+07,134.494,2,2.56315,-4967.02,-14708.2,-5005.92
2.2784e+07,59.293,0,2.55327,2445.74,8043.18,-19498.7
2.28316e+07,87.5568,0,2.76428,5991.73,3980.05,-11803.5
2.32017e+07,27.1028,2,2.41687,-3520.99,-4260.69,-27001.2
2.32753e+07,17.3041,0,2.76109,2734.13,300.428,-26279.9
2.33714e+07,25.5367,1,2.49184,-1272.89,-2572.23,-24565
2.34434e+07,75.9378,1,2.59944,-9679.36,-7485.95,-18389
2.34793e+07,79.9246,1,2.57435,-16913.9,-2231.69,-29902.2
2.34793e+07,37.4576,1,3.03974,-4712.19,6213.36,-26945.5
2.34797e+07,120.595,2,2.74954,-20629.5,-9354.7,-17487.8
2.35168e+07,59.3974,0,2.49397,-9972.39,812.581,-21259.4
2.35503e+07,10.3765,2,2.97918,546.929,-1887.02,-27758
2.38476e+07,272.105,0,2.80181,16037.9,-20145.3,22424.3
2.3926e+07,18.4928,2,2.6246,1613.76,1906.17,-25830.2
2.39484e+07,12.9984,2,2.55702,-30.1461,-1500.84,-26469.9
2.3955e+07,260.705,0,2.92851,19266.8,11772,21004.8
2.39688e+07,140.11,2,2.5062,-2870.29,8704.28,-23374.1
2.4076e+07,14.3449,2,2.78166,612.91,-1297.51,-26109.9
2.41696e+07,64.2986,0,2.9011,9342.95,-9548.94,-26277
2.42904e+07,56.9718,1,2.66682,2710.07,9842.43,-22381.4
2.42986e+07,148.92,2,2.76603,-25801.3,-15029.6,-18970.3
2.43668e+07,103.135,0,2.89586,6504.65,6918.59,-9296.8
2.43951e+07,87.5722,0,2.45168,14264.1,-1480.65,-20120.5
2.44478e+07,8.13373,1,2.76168,-283.176,0.163842,-27114.7
0,8.11655,1,2.68846,0,0,0
2.46327e+07,5.98826,2,2.80217,675.327,-730.822,-27988.2
2.47029e+07,68.2537,0,2.92248,10333.8,-4370.75,-19930.2
2.47686e+07,225.452,1,2.69958,14512.1,-13055.6,-22208.2
2.48259e+07,61.9415,1,2.48689,8882.54,7368.37,-22566
2.48289e+07,149.399,1,2.83114,-18140.1,22206.4,-15893.7
2.49123e+07,28.1585,0,2.87972,-1704.54,4856.04,-25935.1
2.49635e+07,66.8446,0,2.67319,2184.39,-13734.9,-26252.1
2.50148e+07,43.6915,0,3.05135,4018.6,5583.89,-22727.4
2.51209e+07,209.196,0,2.64613,6214.25,-5999.38,1345.19
2.5432e+07,171.327,2,2.82389,-1110.78,-23994.5,-9016.59
2.54874e+07,59.7,0,2.64897,3570.87,-11338.3,-25091.4
2.55396e+07,85.2469,0,2.58593,12380.7,-2056.74,-15867.2
2.57525e+07,59.9268,1,2.46696,-11461.4,5627.38,-28486.3
2.58316e+07,67.5883,2,2.46906,6275.28,-6641.73,-17773.5
2.59811e+07,30.8908,2,2.58305,-2322.57,-2333.11,-24769
2.60846e+07,160.574,0,2.52728,14434.1,12409.3,-665.184
2.61308e+07,119.513,0,2.70592,12223.6,-9219.45,-8803.42
2.62632e+07,39.5172,2,2.7321,2561.9,-7048.09,-25223.1
2.62644e+07,95.8544,2,2.78965,-14183.7,-2438.95,-14705.7
2.62749e+07,112.376,0,2.90743,17961.2,12497.2,-19826.9
2.64273e+07,93.7169,1,2.60827,-9373.61,12394,-17669.9
2.66553e+07,10.1203,1,2.42028,1088.25,877.073,-27179.3
2.66622e+07,76.4528,0,2.37035,6011.49,14493.2,-24719.5
2.70318e+07,302.113,2,2.69454,664.618,-246.098,-28590
2.70367e+07,15.7709,0,2.62484,-2036.88,-137.854,-26581.1
2.70705e+07,276.385,0,2.82202,4935.51,2955.55,-17178.9
2.71426e+07,113.28,2,2.65102,17986.3,3419.62,-13420
2.73315e+07,25.2975,1,2.52459,-3351.49,-29.1659,-24721.1
2.73384e+07,52.8256,2,2.42111,-5376.61,-9193.45,-25123.7
2.74115e+07,90.5289,0,2.56047,-6796.9,-17679.4,-26475.3
2.74717e+07,43.9481,0,2.93061,-4129.57,-2502.88,-21106.8
2.76291e+07,110.683,1,2.89901,1687.46,17230.5,-13165.9
2.77149e+07,74.5004,2,3.02363,9238.57,4484.67,-17180.2
2.77853e+07,39.4261,0,2.5231,-5107.77,940.533,-22389.1
2.79477e+07,124.449,2,2.96661,15007.1,14772.3,-13408
2.80045e+07,6.79206,2,2.77006,-949.826,436.899,-27821.2
0,6.48986,1,2.66417,0,0,0
2.80384e+07,2.01277,0,3.0186,452.158,100.581,-29138.6
0,2.04811,0,2.88681,0,0,0
2.82794e+07,85.7126,1,3.01849,21.6024,11748.9,-15148.5
2.82814e+07,137.835,1,2.56532,-21018.4,2195.12,-8567.03
2.83954e+07,89.0686,1,2.71338,-2985.44,-17769.7,-23714.1
2.84739e+07,105.284,0,2.94926,-16536.1,6734.35,-23737.8
2.86064e+07,24.7538,0,2.55709,1255.92,-4885.54,-27276.9
2.86721e+07,73.3543,2,3.05187,7081.79,-7259.22,-17258.4
2.88832e+07,113.847,0,2.46585,13296.1,19790.4,-25057.1
2.90459e+07,49.6155,1,2.46673,418.142,8257.09,-28773.6
2.91222e+07,12.8896,2,2.92016,-47.2783,-2651.4,-27880.5
2.91619e+07,79.1471,0,2.94326,10426.9,8150.79,-18715.8
2.92187e+07,202.355,2,2.53471,11511.8,-13676.1,10037
2.96402e+07,31.4569,2,2.94882,379.492,-4498.34,-24154.5
2.9755e+07,20.3595,1,3.01316,-2286.1,3481.63,-29214.7
2.98268e+07,254.103,0,2.57875,27708.1,-18655.4,13281
2.98847e+07,181.66,2,2.59981,27272.1,-18306.5,-8985.77
2.99052e+07,64.0894,2,2.637,-10218.5,-6281.77,-22399.7
2.99233e+07,58.1501,2,2.64065,-7514.23,3520.98,-19767.6
