#class tools::wcsv::ntuple
#title time
#separator 44
#vector_separator 59
#column double eventID
#column double t(ns)
#column double copynumber
#column double energy(eV)
#column double x(mm)
#column double y(mm)
#column double z(mm)
41753,13.5664,2,2.95439,-1584.75,2327.14,-28355.3
106165,4.92293,1,2.98741,-1101.18,37.1045,-29148.9
218041,127.739,0,2.67971,14951.7,-20985,-20729.1
230116,21.7723,2,2.61519,3443.45,1470.14,-26149.9
231446,77.1035,1,2.79113,3794.41,-11233.8,-18006.9
248660,186.151,1,2.90378,26828.1,16752.4,-5761.93
324170,56.1019,0,2.58838,7871.37,8383.26,-26088
374020,24.9474,1,2.69288,-394.698,4938.79,-26744.2
427032,87.1047,1,2.59663,5739.6,-11083.6,-15411.7
648188,24.0182,0,2.91346,3102.6,-2535.84,-25901.8
716771,120.648,2,2.39342,15804.5,15214.4,-15860
752680,6.79966,1,2.67691,-320.935,1235.07,-27958
776257,91.9651,2,2.85378,-13925.6,-6897.5,-17215.3
1.0094e+06,68.0616,1,2.3681,8989.17,8944.83,-21963.8
1.08684e+06,83.0516,2,2.99424,-5367.24,4694.87,-23836.4
1.10046e+06,27.9917,1,2.97778,3585.48,-3546.19,-25952
1.16314e+06,130.071,2,2.68231,-24136.8,-12408.2,-24621.3
1.29626e+06,64.8995,2,2.62239,3077.04,-11926.8,-22220
1.3092e+06,48.7126,0,3.04907,-256.004,9823.12,-25996.8
1.34102e+06,58.5996,2,2.68058,5831.9,-9003.47,-22545
1.47204e+06,153.535,1,2.94141,-18525.1,14755.1,-6928.13
1.64791e+06,97.3563,2,3.02501,-9445.3,12536.2,-15802
1.71131e+06,27.0671,1,2.9275,-2897.48,3131.39,-24997.3
1.86291e+06,7.63102,0,2.67032,513.776,-681.115,-27483.9
1.86548e+06,12.0782,2,2.56657,1164.79,406.651,-26632.4
2.46007e+06,77.1459,1,2.95491,10617.3,-3941.61,-17422.1
2.53084e+06,6.32509,1,2.47775,-924.416,251.595,-27783.2
2.64204e+06,22.7004,1,2.88278,-3869.81,2046.22,-26757.9
2.72191e+06,65.7156,2,2.44703,-5975.31,-12591.5,-29866.9
2.87190e+06,30.4717,2,2.47795,-1403.08,2926.06,-23219.7
2.93298e+06,130.707,1,2.91566,1557.78,25188.2,-17911.8
2.94279e+06,15.3381,2,2.70052,2549.94,-2030.56,-28595
2.98471e+06,166.6,0,2.6923,20995.4,-26602.7,-19881.8
3.05866e+06,25.9145,0,2.91688,4113.86,3674.2,-28481
3.07459e+06,36.0601,0,2.95831,-4752.14,5826.45,-28124.6
3.17080e+06,166.744,1,2.83631,20743.8,-22039.6,-11313.9
3.17237e+06,44.3317,0,2.96739,4850.84,-2263.39,-21400.3
3.38533e+06,105.114,0,2.58832,-7931.87,14440,-13651
3.62321e+06,191.658,2,2.70577,-25783.7,-2260.27,1802.39
3.69598e+06,10.06,1,2.39584,-1986.58,-171.979,-28010.4
3.84e+06,39.879,2,2.36593,-2014.97,7636.98,-25841.3
3.90671e+06,62.8331,1,2.60672,7191.98,9168.33,-22573.8
4.10232e+06,20.6423,1,2.65264,2949.03,3134.64,-27119.2
4.14572e+06,84.6265,2,2.66832,-5564.99,-15395.3,-22051.1
4.36272e+06,39.039,2,2.94697,-5656.3,-5518.75,-26372.4
4.54652e+06,117.518,0,2.75298,16254.2,-10358.8,-13226
4.55067e+06,258.557,2,2.59468,19988.2,-21509.1,17231.3
4.66342e+06,30.9602,0,2.66581,-3110.33,1298.42,-23290.7
4.72297e+06,52.6266,0,2.74285,10795.5,-2817.18,-28685.5
4.78646e+06,8.13938,1,2.5316,-502.742,1412.37,-29694
4.80801e+06,118.889,2,2.64787,1276.62,-24928,-25597.2
4.81996e+06,45.6238,0,2.48144,7681.24,-2767.61,-23575.8
4.84498e+06,87.1703,0,2.63213,9170.1,4989.87,-23109.5
4.9927e+06,7.85464,1,2.91416,1459.52,-311.515,-28112.9
5.04609e+06,246.185,0,2.77271,-21543.8,-9244.96,3428.69
5.10475e+06,74.9245,2,2.62085,-4814.81,-6828.54,-15393.3
5.34058e+06,32.2991,0,2.58461,6287.43,-920.881,-26069.8
5.34973e+06,27.5212,2,2.64105,-2071.94,-5568.65,-29114.9
5.39367e+06,90.2666,0,2.75123,-9523.03,-12374.4,-18056.9
5.52296e+06,100.987,2,2.41969,3057.22,-21171.9,-27602.9
5.71573e+06,90.5402,2,2.94019,17070.3,-6849.34,-24009.2
5.77459e+06,58.6772,0,2.48994,7155.45,4534.64,-19710.7
5.7905e+06,17.9398,1,2.66018,1880.03,-149.733,-25625.1
5.7921e+06,34.0852,2,2.93138,-4254.54,-3754.31,-24443.7
5.90698e+06,120.142,1,2.43024,-10872.3,-14927.1,-11941.9
5.98435e+06,13.0104,1,2.37915,-1154.57,2588.54,-28841.6
6.05304e+06,21.0672,2,2.84661,-2092.95,300.007,-24868.9
6.10182e+06,109.748,0,2.48652,12434.9,14992.5,-16267.8
6.11214e+06,273.413,1,2.87607,14591.4,11709.1,-13214.8
6.26492e+06,85.5467,1,2.91101,8735.52,-2780.48,-13502.1
6.37679e+06,67.6771,2,2.45795,8040.35,-10159.7,-22879.4
6.38669e+06,26.4988,0,2.95208,2628.84,-3299.41,-25135.3
6.45198e+06,52.0218,0,2.79231,8453.49,-416.402,-21770.1
6.49916e+06,70.0918,0,2.95341,3983.85,-5944.01,-15936.1
6.50525e+06,198.127,2,2.6206,21162,-1506.53,6751.07
6.55199e+06,67.9264,2,2.62991,-10266.8,-6194.04,-20828
6.58273e+06,100.571,2,2.48878,-18503.3,-7845.69,-22057.4
6.76600e+06,47.0651,1,2.6867,-2711.3,4592.16,-20372.3
6.82381e+06,210.637,2,2.8622,-1698.22,-5009.28,-21373.6
6.87267e+06,80.6642,1,2.69786,-7244.54,5397.88,-22761.5
7.01424e+06,94.5496,0,2.49433,19927.4,1771.64,-27479.3
7.05911e+06,59.2138,1,2.56045,9629.23,-4573.15,-21985.9
7.08491e+06,61.8128,0,3.05851,1873.05,12507.6,-25912
7.40123e+06,92.4659,2,2.96359,13628.7,-13407.6,-25323.7
7.41582e+06,37.7096,0,2.93002,7396.77,-2982.32,-29371.9
7.66271e+06,144.409,1,2.66419,-11541.3,22525.9,-11932.3
7.71828e+06,112.843,1,2.65143,4213.26,-17373.9,-18707.7
7.75738e+06,132.547,2,2.44264,7828.02,-25655.9,-20432.6
7.8035e+06,37.8317,0,2.46016,-507.954,-5619.03,-26656
7.89185e+06,3.57077,0,2.38282,396.322,625.059,-29264.2
0,3.75012,0,2.97908,0,0,0
7.95924e+06,68.7864,0,2.72649,8108.33,4339.78,-17603.5
7.96046e+06,1.18597,2,2.82877,-1.13901,100.248,-28608.4
0,1.09244,0,2.78447,0,0,0
0,1.16188,0,2.74571,0,0,0
8.05095e+06,43.2989,0,2.73582,7991.64,49.6652,-24383.7
8.134e+06,23.6861,1,2.5581,3949.69,1906.65,-26390.3
8.22328e+06,135.823,2,2.60721,-11805.4,7722.58,-3874.03
8.47332e+06,106.115,0,2.47031,3854.12,20415.6,-20364.6
8.48118e+06,78.795,2,2.59446,-3618.42,3156.26,-25683.7
8.71169e+06,62.0571,2,3.03631,-8030.36,-4598.95,-19612.7
8.73848e+06,223.781,0,2.66468,-540.047,2276.67,-26604
9.08762e+06,6.09979,1,2.50892,1016.63,158.099,-27913.3
9.08954e+06,38.7805,2,2.60317,-3681.16,-6756.63,-25662.8
9.11625e+06,33.838,0,2.66814,-3909.4,-5681.2,-27150.1
9.21291e+06,26.3178,0,2.5505,1549.73,-4650.42,-26232
9.22950e+06,67.0993,2,2.66968,3289.83,-8519.28,-17951.9
9.23462e+06,81.2824,2,2.52302,-13546.9,9646.78,-28618.1
9.32977e+06,12.1201,2,2.39802,-1506.07,2082.85,-28683.3
9.41432e+06,89.5554,1,2.73928,-17757.3,6422.24,-28356.2
9.4214e+06,18.2377,0,2.93581,2396.73,-2999.38,-29378.9
9.4543e+06,7.4867,0,2.67923,-581.506,-109.016,-27387.7
9.5111e+06,95.7788,0,2.606,2369.18,786.556,-10774.4
9.64309e+06,21.3534,0,2.74479,3983.63,748.707,-26661.6
9.66568e+06,52.2249,2,2.9176,5277.72,-5984.87,-21362.6
9.6785e+06,47.3314,2,2.53621,9283.23,3367.12,-27155.4
9.96684e+06,6.64913,2,2.57685,-722.389,-865.56,-27918.9
1.03654e+07,8.87815,2,2.83284,-1079.47,-777.746,-27404.8
1.0471e+07,3.75087,0,2.56969,855.679,138.123,-28570.4
0,3.73422,0,2.40759,0,0,0
1.07999e+07,34.7381,0,2.72932,-2722.72,-6684.43,-27788
1.08714e+07,145.161,1,2.9224,-22783.5,19577.1,-23183.1
1.0924e+07,25.2327,1,2.53519,-1788.92,5095.39,-28202.3
1.09507e+07,8.96199,1,3.05968,551.518,1248.95,-27444.4
1.1146e+07,169.479,2,2.83979,-8356.91,-8701.09,-10076.1
1.14163e+07,163.257,2,2.50275,1564.25,-15560.1,-13120.1
1.14332e+07,34.7579,1,2.9226,-4807.46,2025.97,-23665.8
1.14492e+07,88.1057,2,2.9892,1328.51,-4023.18,-27913.5
1.15043e+07,37.7721,1,2.50337,-4093.65,-319.508,-21888
1.16936e+07,91.2981,1,2.86809,-9072.69,11768.3,-16574.4
1.17466e+07,123.658,2,2.93463,-3497.38,-19907.4,-12634.1
1.18064e+07,55.9355,1,2.98896,5820.58,8643.38,-23773.3
1.19829e+07,121.567,0,2.95412,-18536.2,-7768.65,-13244.2
1.20247e+07,0.824823,2,2.57814,15.1048,-243.037,-28823.4
0,0.825175,2,2.9271,0,0,0
0,0.844878,2,2.83257,0,0,0
1.22435e+07,10.7258,1,2.86329,380.105,2108.85,-28888.2
1.23245e+07,11.788,0,2.57399,2417.13,515.762,-28268.1
1.24854e+07,34.7837,0,2.5318,2287.57,6458.92,-26062.8
1.26519e+07,88.2518,2,2.76366,-13622.6,-7122.82,-18305.8
1.26864e+07,44.9161,1,2.83106,38.841,8875.4,-25676.4
1.27811e+07,67.8882,2,2.42079,-4387.86,13264.9,-25714.1
1.28296e+07,66.4897,1,2.9125,-5347.79,10244.1,-20794.5
1.28385e+07,17.9884,2,2.39834,-307.435,-3231.33,-28169.1
1.28414e+07,5.50399,1,2.54416,176.579,418.102,-27878.6
1.30746e+07,85.5881,2,2.40167,12513.6,-10897.2,-21492.9
1.32812e+07,128.48,2,2.73114,-5657.82,-19751.9,-11207.9
1.33411e+07,43.4615,1,2.9159,-1406,8194.43,-24823.5
1.34332e+07,226.332,0,2.55754,28152.7,-88.6827,9898.09
1.36062e+07,99.2805,1,2.43414,787.181,-12295.7,-11914.6
1.37707e+07,32.3046,1,2.67955,-1474.8,6747.96,-29404.3
1.38685e+07,104.871,2,2.9625,2506.32,18704.9,-17557.2
1.38765e+07,190.555,1,2.91448,-29387,12646.8,-5907.64
1.40182e+07,24.7067,2,2.79206,-4098.73,2339.93,-26583.9
1.4133e+07,25.4664,2,2.7871,-5170.96,1606.18,-28319.5
1.41688e+07,63.5969,0,2.72223,9276.02,-8804.69,-24588
1.424e+07,45.8741,2,2.7589,-5894.03,-551.581,-21051.1
1.4272e+07,27.5503,0,2.36882,2725.43,3728.02,-25169.1
1.43011e+07,48.4348,1,2.79553,-9480.75,2525.42,-26132.9
1.43664e+07,143.987,1,2.6021,5936.58,28078.1,-18289.4
1.43925e+07,143.267,2,2.93926,-19509.4,-6742.89,-7202.61
1.44575e+07,11.6957,2,2.59788,-2444.75,-282.697,-29526.2
1.44801e+07,22.7671,0,3.00527,110.582,-2839.78,-24884.7
1.47505e+07,72.9836,0,2.81059,2458.25,-9522.9,-17218.3
1.47809e+07,6.26456,2,2.53762,-499.011,-490.832,-27625.5
0,6.30477,2,2.47532,0,0,0
0,6.24755,2,3.01499,0,0,0
1.50388e+07,209.739,0,2.88001,24009.5,-381.218,7948.73
1.5138e+07,32.1402,1,2.93783,-4232.38,2825.22,-24178.2
1.51682e+07,53.0094,2,2.93821,10604.8,-638.457,-25477.4
1.53538e+07,65.1428,0,2.77155,6258.94,-6502.55,-18400.5
1.53539e+07,92.706,1,2.95052,-17644.3,-819.07,-20561.5
1.53964e+07,179.829,1,2.51341,-12002.2,22079.3,-661.978
1.55059e+07,50.1851,1,2.62928,-4994.28,6873.93,-23502.2
1.55207e+07,112.127,1,2.73618,-11637.5,9658.28,-10610.8
1.55621e+07,235.308,2,2.79461,21618.1,10423.4,14359.4
1.56461e+07,13.945,2,2.63408,-1624.02,-1868.9,-27243.6
1.57259e+07,31.1651,2,2.73252,1734.85,3945.9,-23923.5
1.62644e+07,9.24769,2,2.60411,-1459.31,443.077,-27634.3
1.63955e+07,119.523,0,2.66357,16887.9,17885.5,-23110
1.66172e+07,8.10402,0,2.91702,1644.56,-668.253,-28547.4
1.70166e+07,11.9093,2,2.53417,-1687.31,-948.506,-27088.6
1.71176e+07,41.9098,0,2.96828,-5164.61,1628.49,-21957.1
1.71369e+07,43.858,2,2.86202,6168.2,609.762,-22123.7
1.71612e+07,86.9776,0,2.61299,10955.3,5262.85,-15019.9
1.71661e+07,21.8483,0,2.37565,3199.13,-3435.13,-29120.4
1.75027e+07,89.7297,0,2.73033,4915.03,8836.35,-12831.5
1.75899e+07,20.7183,2,2.69737,3389.47,-2331.98,-27769.2
1.77236e+07,41.6614,1,3.00325,2729.78,5008.56,-26563.6
1.77688e+07,42.3449,1,2.62787,-6448.69,2559.46,-23242.3
1.7938e+07,57.0465,2,2.58348,5917.59,-2668.3,-18601
1.79851e+07,92.1086,0,2.71017,-4107.88,-9371.78,-28330.4
1.81113e+07,69.2269,2,2.66542,7488.26,1029.83,-16404
1.81121e+07,26.2045,2,2.6838,1227.36,-2928.26,-24197.5
1.82178e+07,134.305,2,2.60634,-22348.2,6386.49,-12542.7
1.82334e+07,249.834,1,3.01295,16654.9,12845.9,-17273.2
1.83411e+07,79.6406,1,2.44848,5139.5,14279.3,-21626.6
1.86102e+07,29.5027,2,2.55558,-6162.56,-1180.74,-28426.9
1.87277e+07,14.2025,1,2.95202,2239.59,1796.35,-27968.6
1.88006e+07,120.43,2,2.67525,-13705.4,2229.44,-8410.63
1.88164e+07,145.729,2,2.97227,16942.8,-23271.1,-18336.4
1.89038e+07,32.9804,0,2.82264,-3634.14,2971.62,-23793.9
1.89949e+07,110.589,1,2.67547,11771.1,16784.6,-17931.8
1.90868e+07,13.4385,1,2.996,1836.3,-1154.67,-26956.2
1.91884e+07,3.10504,2,2.67275,-137.084,656.719,-28782.3
0,2.96795,2,2.49996,0,0,0
1.92289e+07,21.2375,1,2.96545,-3766.77,-2244.04,-29826.5
1.9249e+07,51.6607,1,2.49285,9647.7,3781.46,-25600.8
1.92632e+07,94.8321,2,2.51874,10219.1,-17114.3,-26051.5
1.93201e+07,168.294,0,2.53322,18287.4,-18385.7,-4433.88
1.95319e+07,22.6982,2,2.83478,-1861.28,-4348.34,-27438
1.97834e+07,143.887,1,2.61032,2270.43,17125.5,-3740.77
1.98025e+07,20.9061,1,2.5296,-777.979,-3518.22,-26871
1.98689e+07,118.242,0,2.92341,-14181.8,-5259.63,-9231.3
2.01612e+07,64.0644,2,2.89489,-11600.1,-6540.63,-26311
2.019e+07,18.8277,0,2.42645,2299.43,204.417,-25673.4
2.06513e+07,78.9323,0,2.77878,8576.3,9061.95,-17911.4
2.06779e+07,40.1841,1,2.40839,1124.66,7335.4,-24583.3
2.08324e+07,119.34,0,2.77931,23787.8,2469.85,-20884.5
2.0896e+07,306.623,2,2.89966,-14157.3,8685.69,13162.3
2.08961e+07,35.3584,0,2.55325,-3945.75,-5846.75,-26401.4
2.0902e+07,151.124,2,2.88848,-6337.71,-29911.2,-20958
2.12708e+07,4.49264,1,2.48033,-184.024,1026.62,-28745.1
2.12976e+07,61.5921,1,2.96869,8471.54,5002.68,-23152.6
2.13637e+07,7.12445,0,2.47225,1396.95,367.089,-28242.2
2.17726e+07,29.8273,1,2.69574,-3663.21,-2539.26,-24418.7
2.18096e+07,120.492,1,2.38261,-3318.8,-22241.7,-16921.8
2.18281e+07,64.3669,1,2.82293,-7000.81,-1152.92,-17468.9
2.19516e+07,134.214,0,2.7829,-1939.37,23058.8,-12653.2
2.20099e+07,66.7754,0,2.95292,-12512.9,3589.23,-24051.6
2.20697e+07,20.9844,1,2.62953,194.492,3330.01,-25807.4
2.21376e+07,42.5048,1,2.64055,-3510.9,-6703.55,-24188.5
2.21575e+07,124.775,1,2.72154,11292.1,12507.6,-8620.71
2.22271e+07,20.9294,2,3.05773,2661.94,140.92,-25298
2.22712e+07,63.983,2,2.70204,-1009.9,12662.2,-24706.1
2.23167e+07,17.8965,0,2.59761,-3472.19,-573.608,-27647.5
2.23307e+07,59.4358,0,2.56117,7468.34,3906.06,-19433.9
2.24091e+07,46.8778,2,2.56792,5049.66,-5993.45,-22738.8
2.24118e+07,29.4358,0,2.38985,5582.32,-1969.25,-26540.5
2.25985e+07,185.301,2,2.85241,-11305.6,19884.5,1917.97
2.26078e+07,199.721,0,2.64796,15632.3,-26071.6,435.625
2.27371e+07,91.6304,2,2.82722,-7745.36,5318.97,-12018.8
2.27745e+07,154.244,0,3.02703,22868.3,6174.33,-6768.34
2.2818e+07,102.877,1,2.561,-7091.88,-16875.3,-17141.3
2.28901e+07,76.8976,1,2.67356,8999.61,12997.5,-24833.2
2.29644e+07,130.439,1,2.49209,-9019.54,13975.3,-6674.21
2.30005e+07,250.235,0,2.40435,189.691,28536.5,15780
2.30875e+07,140.53,2,2.67451,21014.5,-20766.3,-25759.9
2.3141e+07,65.8858,0,2.73962,12256.6,6856.8,-29351.8
2.322e+07,19.2063,2,2.51262,-2046.37,3537.67,-29055.8
2.32396e+07,122.216,2,2.47017,3078.26,-21056.7,-24458.8
2.33022e+07,40.9823,1,3.05377,-591.704,6868.22,-23430.6
2.33881e+07,57.5859,2,2.95951,-5877.49,-8697.11,-22686.1
2.36695e+07,2.00924,2,3.51475,-144.236,157.049,-28314.1
0,1.97805,2,2.76704,0,0,0
0,1.97992,2,2.46305,0,0,0
0,1.98866,2,3.66336,0,0,0
0,1.98267,2,2.85086,0,0,0
0,1.98147,2,2.84381,0,0,0
0,1.99651,2,2.23718,0,0,0
0,1.98306,2,2.0989,0,0,0
0,2.02637,2,2.38953,0,0,0
0,1.98952,2,3.69043,0,0,0
0,1.97606,2,3.85325,0,0,0
0,1.97866,2,4.01676,0,0,0
0,1.98127,2,2.24885,0,0,0
0,2.00182,2,3.81325,0,0,0
0,1.97988,2,3.02311,0,0,0
0,1.98759,2,3.13531,0,0,0
0,2.01012,2,3.20743,0,0,0
0,1.98325,2,2.28524,0,0,0
0,1.9883,2,3.60791,0,0,0
0,1.97782,2,3.65946,0,0,0
0,1.97802,2,4.00944,0,0,0
0,1.97653,2,2.60837,0,0,0
0,1.99725,2,3.29844,0,0,0
0,1.98459,2,2.08355,0,0,0
0,1.97692,2,2.96356,0,0,0
0,1.97587,2,3.41232,0,0,0
0,1.97783,2,4.00278,0,0,0
0,1.97763,2,2.11004,0,0,0
0,1.98037,2,3.02719,0,0,0
0,1.97575,2,3.68795,0,0,0
0,1.98094,2,2.69868,0,0,0
0,1.99389,2,3.24177,0,0,0
0,1.98728,2,3.28194,0,0,0
0,1.97828,2,2.84569,0,0,0
0,1.98307,2,2.16413,0,0,0
0,1.98137,2,2.97591,0,0,0
0,1.97886,2,2.45314,0,0,0
0,1.981,2,2.5899,0,0,0
0,1.98212,2,3.77846,0,0,0
0,1.98179,2,4.06973,0,0,0
0,1.97932,2,4.05295,0,0,0
0,1.98048,2,2.98125,0,0,0
0,2.0146,2,3.66105,0,0,0
0,1.98009,2,2.54576,0,0,0
0,1.98241,2,2.68951,0,0,0
0,1.97879,2,2.89049,0,0,0
0,1.97742,2,3.42652,0,0,0
0,1.98266,2,2.84247,0,0,0
0,1.98343,2,2.09842,0,0,0
0,1.9872,2,3.35316,0,0,0
0,2.0134,2,2.31062,0,0,0
0,1.99993,2,2.44012,0,0,0
0,1.98151,2,2.47897,0,0,0
0,1.97603,2,2.35245,0,0,0
0,1.97662,2,3.86572,0,0,0
0,1.97929,2,2.33099,0,0,0
0,1.97583,2,3.19569,0,0,0
0,1.99079,2,3.6829,0,0,0
0,1.97882,2,3.55229,0,0,0
0,1.97641,2,3.1174,0,0,0
0,2.02278,2,3.99503,0,0,0
0,2.00359,2,2.30036,0,0,0
0,1.98221,2,2.9316,0,0,0
0,1.98013,2,2.34216,0,0,0
0,1.99141,2,2.72677,0,0,0
0,1.98578,2,2.60535,0,0,0
0,1.98939,2,3.50872,0,0,0
2.3691e+07,90.0667,2,2.37241,-515.133,-623.075,-29616.4
2.3793e+07,124.752,2,2.38673,2534.62,-26347.8,-29600.3
2.38465e+07,48.6654,0,2.53449,9026.29,-1586.03,-24194.5
2.38807e+07,9.08864,0,2.38057,468.327,1008.88,-27235.4
2.39445e+07,25.166,2,2.5782,2945.15,-1283.63,-24643.1
2.39816e+07,19.059,1,2.53959,3364.61,1711.23,-27637
2.40181e+07,21.8644,0,2.51646,2723.52,-1959.16,-25590.3
2.40389e+07,90.0003,1,2.93758,-9177.52,10861.9,-16250.8
2.4039e+07,112.13,2,2.82607,-12378.3,-16872.3,-21505.1
2.41976e+07,42.9513,0,2.89654,2778.01,3184.28,-20837.3
2.42041e+07,12.8958,2,2.40291,-1990.41,-1522.46,-29945.1
2.43208e+07,5.57866,1,2.5673,-185.328,257.884,-27637
2.45235e+07,52.6875,1,3.01766,7571.88,-7605.64,-25897.6
2.4578e+07,65.8245,2,2.6222,-861.887,-13066.8,-24041.6
2.50046e+07,191.585,1,2.67605,-7254.36,1066.78,-12278.3
2.52146e+07,158.993,1,2.87282,-4250.49,20198.4,-2374.9
2.52763e+07,175.065,1,2.44267,-29678.4,9497.06,-8728.37
2.53139e+07,25.2401,2,2.65837,-555.691,5077.29,-28040.6
2.5327e+07,9.38496,0,2.43925,1408.48,1185.89,-28266.8
2.54565e+07,34.3252,2,3.04617,-7106.18,-1554.31,-29406.9
2.54743e+07,31.1653,2,2.58054,-2345.31,5603.44,-26534.5
2.54843e+07,89.9443,2,2.58919,4496.03,-16366,-20159
2.55824e+07,55.6289,0,2.92567,6011.85,6644.32,-22378.3
2.56615e+07,16.3196,2,2.69479,-3145.18,-1159.21,-27752.8
2.5728e+07,96.8345,2,2.4137,-14111.6,5853.08,-15287.7
2.57307e+07,89.6282,0,2.70509,14815.9,-11336.3,-25353.1
2.57414e+07,96.0349,1,2.65435,1008.65,20233.2,-27033.8
2.59289e+07,20.7719,1,2.74267,3243.61,2505.54,-27156.3
2.59724e+07,5.8094,2,2.65602,418.055,-743.965,-29579.7
2.59934e+07,24.707,1,2.81033,-3953.79,-1020.08,-25355.8
2.62509e+07,36.231,0,2.82643,-1199.54,-5817.37,-24009.5
2.63197e+07,102.11,0,2.55806,19499.7,6088.85,-21955.1
2.63616e+07,116.937,0,2.42458,15878,5761.55,-10652.4
2.64659e+07,72.3743,2,3.03173,6047.54,-12208.7,-22086.9
2.65859e+07,54.7618,1,2.74632,-10622.1,4640.03,-27868.4
2.67882e+07,23.0907,2,2.61352,-3927.36,-3039.88,-29144.9
2.6809e+07,14.083,0,2.42505,2308.24,1800.93,-27851.9
2.68583e+07,40.3636,0,2.48193,296.612,4903.7,-21961.4
2.69597e+07,22.0924,2,2.57992,-4120.13,1977.13,-28099.3
2.70001e+07,13.966,0,2.48435,197.936,2183.13,-26853.5
2.72355e+07,48.277,1,2.46272,-2887.34,8660.95,-24099.6
2.73285e+07,25.2712,2,2.83288,-4502.11,-2854.46,-29254.3
2.75064e+07,211.804,2,2.4065,26747.5,28239.9,-6819.55
2.75464e+07,62.2412,0,2.68613,2320.98,8224.92,-18853.7
2.76478e+07,50.9067,0,2.95018,941.173,9097.62,-23199.5
2.76687e+07,127.679,2,2.68591,14357,-1405.1,-6166.11
2.77258e+07,17.1973,0,2.90689,867.891,-3583.88,-28751.7
2.79072e+07,53.2848,0,2.86818,7230.02,-7435.23,-24635.1
2.79187e+07,68.5014,2,2.91413,-9431.46,-3266.67,-18471.9
2.79409e+07,2.77666,2,3.03493,102.057,-229.509,-28282.1
0,2.78127,0,2.71505,0,0,0
0,2.90799,0,2.86687,0,0,0
2.81982e+07,45.0851,2,2.74004,-3243.89,3802.07,-20762.9
2.83456e+07,61.8209,2,2.5767,-10641.6,-7697.55,-27657.8
2.83519e+07,6.27405,0,2.62394,1210.23,429.677,-29512.5
2.84107e+07,134.443,0,2.78407,18789.9,-20430.6,-22416.2
2.84239e+07,32.7707,0,2.59192,1832.78,-3409.75,-23106.9
2.85165e+07,20.4172,1,2.47507,2231.79,3692.16,-29192.9
2.8692e+07,71.3373,1,2.41814,-4850.83,-14174.6,-29446.6
2.88804e+07,65.0806,2,2.61454,-3168.06,904.968,-26367.6
2.90319e+07,7.89755,1,2.40208,-1318.29,1202.31,-29037.9
2.90433e+07,11.0583,1,2.8769,152.712,1451.41,-26952.4
2.93046e+07,48.6841,2,2.44445,-2588.97,-10023.7,-29243.9
2.93339e+07,43.1807,1,2.61091,-7511.92,3481.49,-24758.9
2.95006e+07,56.9545,0,2.59989,7333.48,-9616.82,-28746.9
2.96162e+07,116.708,0,2.59997,-13653.6,6144.09,-9528.72
2.96173e+07,45.9352,2,2.54798,4237.92,-3780.98,-20944.2
2.96736e+07,54.4393,2,2.87992,3479.68,-10324.5,-25531.7
2.96978e+07,30.9164,0,2.99524,6056.56,197.687,-26338.4
