#class tools::wcsv::ntuple
#title time
#separator 44
#vector_separator 59
#column double eventID
#column double t(ns)
#column double copynumber
#column double energy(eV)
#column double x(mm)
#column double y(mm)
#column double z(mm)
150605,94.6287,1,2.97919,-14049.4,14109.6,-27639.1
177585,13.3828,2,2.66357,-2793.25,-894.691,-28760.8
190540,18.1769,0,2.79087,3877.18,-389.747,-29400.8
308206,85.5442,0,2.55791,6294.05,14203.7,-19504.8
513746,28.3199,1,2.54045,4907.88,-267.615,-25423.6
554999,63.7193,2,2.58952,-1746.08,-5922.09,-16822.1
580734,62.1211,2,2.49597,-10567.6,-7362.43,-25824.5
639562,38.0311,2,2.5866,-5479.19,3223.9,-23888.4
671340,10.0069,0,3.03885,1243.45,1485.63,-27832.1
717805,83.8256,2,2.41319,11428.7,-12732.4,-24016.9
797396,84.6964,1,2.5295,-3321.65,-15588.9,-20807.1
973039,82.9832,1,3.03546,-11505.6,-11699,-23529.9
1.19977e+06,6.83902,1,2.53278,-992.834,-260.934,-27679.8
1.22058e+06,139.145,0,2.71368,-13091.1,3045.15,-2778.11
1.32186e+06,141.285,2,2.62766,-24989.1,-11021.2,-21801.2
1.37676e+06,10.0895,2,2.90053,937.036,-2200.58,-28644.5
1.41342e+06,101.877,1,2.47024,-1067.74,-17549.7,-16487.1
1.44588e+06,36.7776,1,2.87997,6946.78,2101.09,-26359.7
1.4534e+06,4.14067,2,2.36303,-647.075,-520.225,-28260.1
0,4.19395,2,2.60518,0,0,0
1.50844e+06,10.0267,2,2.49392,-2092.4,-667.239,-29023
1.51796e+06,64.0045,1,2.98506,5086.15,10028.4,-21425.2
1.53349e+06,154.839,2,2.61013,-16455.8,-19715.4,-8518.31
1.55516e+06,52.4793,1,2.55749,3051.68,6161.07,-20131.8
1.57535e+06,47.2561,0,2.59012,8968.47,-1111.33,-24001.1
1.60165e+06,29.9502,0,2.46238,-1897.85,-3798.18,-24146.5
1.85337e+06,18.1607,1,2.60773,-41.1111,-1846.55,-25526.2
1.88012e+06,65.8867,1,2.41845,-2628.77,9393.14,-18737.6
1.90111e+06,117.187,2,2.59683,-3171.21,16970.4,-11132.8
2.04693e+06,270.133,1,2.37585,25071.6,-4847.97,-1257.47
2.19454e+06,71.4219,1,2.92469,2036.37,15154.2,-28721.2
2.30794e+06,53.8212,0,2.74752,5646.63,-1854.97,-19046.3
2.39322e+06,38.3084,1,2.97058,-7875.54,1918.22,-28544.9
2.62608e+06,100.728,0,2.77242,20493,5632.57,-29869.8
2.62857e+06,52.0565,1,2.95638,-7761.62,-255.667,-21071.7
2.62917e+06,61.1154,0,2.75031,10703.7,5522.16,-24676.5
2.65253e+06,30.933,2,2.92687,-4258.54,-4951.21,-28276.8
2.89532e+06,13.1291,1,3.04977,200.01,-1709.45,-26704.5
2.90875e+06,130.043,2,2.85203,-13683.9,-2969.77,-5330.3
3.12892e+06,45.6322,2,2.63174,-1147.46,-8101.99,-23592.7
3.35233e+06,94.487,1,2.65539,-3649.85,-10840.2,-12623.1
3.63303e+06,21.3382,2,2.85884,1265.41,-4378.4,-28815.7
3.638e+06,14.4635,1,3.04378,2696.49,1408.97,-28920.1
3.64496e+06,37.2667,0,2.91086,4937.63,1283.08,-22833.1
3.86676e+06,198.844,2,2.97529,7184.19,-19820.6,7146.51
3.98705e+06,31.2335,1,2.84277,-1663.31,5079.62,-24841.3
4.00723e+06,24.0429,2,2.4315,722.135,-2383.8,-24394.6
4.12984e+06,33.2779,0,2.42971,5586.61,-1562.96,-24721.1
4.22621e+06,105.233,1,2.60404,3485.23,15754.2,-13483.2
4.23184e+06,26.9811,0,2.95666,3422.96,4067.34,-26861.9
4.66417e+06,202.852,0,2.91992,18826.2,-21378,2587.68
4.72415e+06,17.8824,2,2.90855,-467.759,-3805.02,-28463.5
4.72888e+06,227.24,1,2.74219,27478,28112.8,-1410.29
4.73625e+06,52.7127,0,2.97774,10642.9,-3352.33,-29273.2
4.79902e+06,53.4016,1,2.75528,-9518.75,6093.12,-29795.4
4.82609e+06,41.9803,1,2.49836,-8648.96,1941.86,-29699.5
4.89077e+06,25.0536,1,2.42787,-3395.59,3033.69,-25980.2
4.98327e+06,78.5558,2,3.03692,-982.956,-16475.4,-27778.2
5.29826e+06,100.332,2,2.49435,-18116.6,10548.3,-27890.6
5.32236e+06,42.667,0,2.96957,-5380.24,-5320.82,-24178.3
5.46245e+06,150.671,0,3.00421,2613.84,-15588.7,-1875.23
5.5086e+06,119.66,1,2.97629,-15107.3,-1261.74,-8915.74
5.51233e+06,22.6573,0,2.4796,1869.46,3884.27,-26262
5.56365e+06,4.12132,0,2.69329,-93.9485,-165.543,-27996.3
5.59378e+06,138.581,2,2.44636,-7315.29,-11380.3,-13504.6
5.80383e+06,68.3682,2,2.90487,-9796.53,9108.86,-23772.8
5.98013e+06,156.225,1,2.92199,17974.8,9539.99,-3117.08
6.08591e+06,20.8046,0,2.89396,-773.088,4294.56,-28863
6.17178e+06,34.0537,0,2.82054,-1897.7,-6646.04,-26976.8
6.24699e+06,166.281,2,2.40563,15651.8,-26159.4,-11128.7
6.26504e+06,32.1367,2,2.6359,-3563.2,-1206.31,-23030.6
6.34351e+06,57.1773,0,2.51068,-7563.3,-6351.44,-21979.5
6.38961e+06,82.8387,1,2.67722,-10736.1,2101.41,-15149.3
6.3997e+06,222.325,1,2.69211,980.251,18758,4809.2
6.56874e+06,118.977,2,2.59857,14769.8,-8772.53,-10513.7
6.77181e+06,120.955,2,2.95896,-8596.71,-5910.33,-6817.29
6.78666e+06,43.2738,0,2.66869,6971.84,5679.53,-27176.7
6.79183e+06,97.4207,0,2.5514,19229,-5167.47,-23314.6
6.84947e+06,1.09379,0,3.06017,113.137,-10.3169,-28538.7
0,1.09694,0,2.48215,0,0,0
0,1.09526,0,2.95097,0,0,0
0,1.10138,0,2.44023,0,0,0
0,1.10522,0,2.72351,0,0,0
0,1.09682,0,2.74366,0,0,0
0,1.09825,0,2.96329,0,0,0
6.95882e+06,2.359,0,2.46635,270.257,351.727,-28531.5
7.14265e+06,238.77,0,2.88665,24899.8,-28697.6,2857.49
7.55631e+06,33.596,0,2.36325,5926.21,3957.13,-27879.4
7.72312e+06,117.338,1,2.92726,10177.1,7488.16,-7702.18
7.76293e+06,58.6037,2,2.63051,-42.0158,-8953.44,-20174
7.77684e+06,50.7058,2,3.04913,6158.47,-8780.53,-29503.2
7.88132e+06,98.0969,0,2.70228,-2590.24,15604.6,-15467.8
8.02004e+06,91.6667,0,2.98461,16127.8,-220.641,-20218.5
8.16347e+06,79.6721,2,2.49406,-12288.7,9999.64,-22715.5
8.16605e+06,208.615,1,2.46021,-21037.5,-22415.3,2779.03
8.21016e+06,139.782,2,3.03633,-21650.8,-13265.7,-14179.9
8.21056e+06,181.118,2,2.92685,15261.6,-5374.79,5274.45
8.26122e+06,73.9874,0,2.63102,4299.74,-14267.9,-24161.2
8.29005e+06,49.955,0,2.75147,6982.03,4148.49,-22019.5
8.31684e+06,149.844,2,2.78845,-10825.8,-15136.2,-11538.3
8.41593e+06,38.8604,0,2.80546,-2989.57,-1547.44,-21391.4
8.52638e+06,103.71,1,2.8688,1887.84,15319.1,-13454.5
8.56611e+06,5.51377,1,2.82997,782.924,-72.9681,-28049.8
0,5.48044,1,2.45004,0,0,0
8.59459e+06,35.63,0,3.03139,2551.39,6249.55,-28262.2
8.77229e+06,105.44,0,2.63192,3485.65,21879.2,-27182.3
8.88429e+06,34.7844,1,2.87097,-511.421,-6461.61,-25538.2
9.01218e+06,237.402,0,2.52969,4939.64,-20165.5,15534.9
9.06928e+06,100.123,0,2.83256,15434.3,8506.16,-17275.5
9.1695e+06,11.6198,2,2.58551,74.7121,-1703.13,-26829.5
9.27626e+06,1.87679,0,2.67819,-46.7499,-436.751,-28916.9
9.33656e+06,239.515,2,2.48053,21308,8003.42,-27051.7
9.46299e+06,254.982,0,2.49194,18736.9,22371.8,16545.7
9.50456e+06,207.081,0,2.63085,22777.8,-9064.09,-22949.4
9.50926e+06,12.0613,1,2.37375,-2420.23,45.3311,-29812
0,11.9735,1,2.59294,0,0,0
9.52693e+06,15.342,2,2.85276,-2526.46,-21.5901,-26728.5
9.70732e+06,56.9268,2,2.91836,7072.32,-7963.99,-23313.4
9.73985e+06,17.9632,2,2.88752,-457.17,-3850.25,-28774
9.74211e+06,137.581,0,2.94526,15906.1,-3378.45,-4944.8
9.77593e+06,56.2858,2,2.6604,3264.49,-5145.63,-18660.6
9.85983e+06,161.882,2,2.93655,-26098.8,-7658.58,-8215.14
9.95277e+06,43.1901,2,2.51109,-8853.49,-1929.18,-28569.3
1.00591e+07,58.9364,1,2.62881,-11286.3,2959.06,-24116
1.02284e+07,138.864,1,2.38579,24653.9,15986.2,-29259.8
1.02335e+07,20.266,1,2.8663,-3830.1,-1784.16,-29549.5
1.02707e+07,6.55001,2,2.71353,327.487,1219.76,-28690.9
1.11339e+07,112.317,1,2.72342,12599.6,8231.35,-10517.2
1.1324e+07,28.496,2,2.45969,3177.52,-207.292,-23731.8
1.14107e+07,44.5794,2,2.76321,9182.82,1598.05,-27972.1
1.16704e+07,23.9882,2,2.44018,595.94,-2278.02,-24307.4
1.17182e+07,150.635,0,3.00986,11292.1,14673.2,-26890.1
1.17992e+07,157.745,0,2.94144,25628.4,-18299.1,-18325.9
1.18096e+07,35.6245,2,2.72977,-4741.36,952.996,-23038.9
1.1859e+07,76.7847,1,2.90071,10527.5,-8003.17,-19575.5
1.19144e+07,8.54934,0,2.56272,1552.87,605.334,-27999.6
1.21652e+07,170.213,0,2.96567,-16429.3,-26898,-12159.3
1.22754e+07,85.1079,0,2.76925,13821.6,-6496.52,-19305.8
1.23135e+07,99.6961,0,2.61855,9578.82,12164.4,-14978.6
1.24391e+07,20.7754,1,2.47119,2347.43,2122.7,-25723.2
1.24632e+07,67.3583,0,2.65232,1675.52,13513.2,-24791.6
1.24785e+07,86.1925,1,3.03775,7886.48,-2221.1,-12827.1
1.25835e+07,115.533,1,2.63386,-13914.9,17053.7,-18209.5
1.26112e+07,48.7877,0,2.54266,7583.3,2217.78,-22089.8
1.27745e+07,68.9504,0,2.44152,-12592.9,7323.32,-28846.2
1.30708e+07,67.3605,1,2.41241,3977.78,6558.96,-16762.8
1.31415e+07,18.847,0,2.60153,2105.42,-79.9438,-25472.4
1.32611e+07,53.4091,0,2.36859,-3768.59,-9665.58,-24325.8
1.33593e+07,46.2037,2,2.79836,-8139.15,-4269.97,-25371.1
1.33666e+07,57.0634,0,2.89001,4090.49,-11165.1,-28743.6
1.33738e+07,156.394,1,2.54789,12119,24098.6,-9618.23
1.33877e+07,40.5327,2,2.96614,7564.8,-3707.58,-27568.4
1.34412e+07,49.8235,0,2.41485,-7080.3,-3090.95,-21900.9
1.35086e+07,64.5617,0,2.89922,12274.4,3284.3,-23873
1.353e+07,39.9736,1,2.88796,-317.156,6089.36,-23035.4
1.35378e+07,67.7691,1,2.50216,-7324.76,-7048.59,-18719.5
1.35832e+07,4.93371,2,2.83237,-442.293,-732.667,-28073
1.35982e+07,133.877,2,2.89137,10815.5,-3352.54,-3066
1.36918e+07,16.6197,0,2.9437,2930.82,-1905.21,-28060.8
1.38241e+07,100.392,2,2.37471,-6307.45,17398.6,-18028.4
1.3845e+07,54.7107,0,2.56001,9274.62,-6726.82,-27147.3
1.39848e+07,46.2517,1,2.83877,5040.04,-5811.87,-23002.3
1.39911e+07,22.0225,2,2.5788,-1705.35,-2730.74,-25279.1
1.40116e+07,65.9025,0,2.76638,13759.8,972.815,-26709
1.41145e+07,187.37,2,2.70014,-17449.3,21542.9,-1091.13
1.429e+07,31.1525,2,2.96067,1322.27,4227.87,-24059
1.43954e+07,17.5974,0,2.57814,-1481.43,-1492.35,-25731.6
1.46396e+07,71.5839,2,2.94414,-10179.4,-1480.17,-17848.7
1.47807e+07,43.6091,2,2.99312,-8315.59,-2524.65,-25638.1
1.48552e+07,80.0781,2,2.96465,13139.5,8092.46,-22177.2
1.48634e+07,92.3724,1,2.60319,13783.2,11678.4,-21885.8
1.49419e+07,15.2617,1,2.95458,389.709,3058.62,-28057.2
1.50967e+07,120.101,0,2.44704,7291.04,-8149.21,-16501.8
1.52638e+07,65.4633,2,2.75242,2760.85,-12795.7,-24211.3
1.54664e+07,2.56429,0,2.91544,125.579,-318.479,-28362.3
1.5474e+07,212.532,1,2.3672,1420.37,12708.7,-3709.97
1.55424e+07,94.0315,1,2.83186,4844.23,-11268.7,-13365.3
1.56214e+07,19.6978,2,2.38236,-524.269,1595.27,-24999
1.56345e+07,146.125,2,2.63956,-12092.8,27738.2,-22673.5
1.56613e+07,17.2567,2,2.57109,2070.3,-1429.81,-25950.2
1.58591e+07,21.195,2,2.50142,-4130.29,1832.73,-28553.6
1.58965e+07,47.6117,2,2.42016,2056.71,-7317.04,-22126.3
1.60353e+07,213.567,1,2.994,22788.4,8282.89,8847.81
1.60558e+07,112.375,1,2.97831,-12555.2,-3067.01,-11593.4
1.60585e+07,164.727,1,2.99361,-24214.1,-7535.61,-5286.3
1.60936e+07,39.6448,2,2.82858,-7095.82,-177.35,-24360.8
1.62395e+07,57.0089,2,2.67053,-10140.1,-302.979,-22228.9
1.65147e+07,35.7641,0,2.57919,2151.56,-4334.9,-22966.8
1.65591e+07,49.9868,1,2.58647,-868.634,10516.8,-27517.7
1.66897e+07,4.55326,0,2.47375,667.289,-730.811,-28594.8
1.66907e+07,64.5554,1,2.63999,-4280.68,10395.8,-20912.1
1.67878e+07,44.2419,0,2.38628,2889.38,8440.68,-26150.5
1.69829e+07,125.407,2,2.86962,-12782.4,23153.6,-26254.7
1.70204e+07,222.99,2,2.88378,14027.1,-19040.5,11629.4
1.70873e+07,74.0713,0,2.58534,3923.83,-14823.4,-25782.3
1.72007e+07,61.4482,1,2.39954,-6844.59,683.992,-17761.9
1.73169e+07,86.732,1,2.78397,-13343.6,-1199.17,-17075
1.77026e+07,59.6919,1,2.46991,2575.63,11508.7,-23980.1
1.77531e+07,73.1375,1,2.86699,-8618.31,-10965.1,-22424.3
1.77893e+07,7.8142,2,3.02835,-1255.25,1071.55,-28819.9
1.78284e+07,24.9102,0,2.95457,4602.15,2539.93,-28144.5
1.79275e+07,72.9207,0,2.67339,6980.91,-810.103,-15126.1
1.80267e+07,25.9966,2,2.87593,3719.52,-2209.55,-26027.9
1.80633e+07,28.945,2,2.86244,-3966.06,-356.623,-24154.9
1.81432e+07,33.012,2,2.85372,3574.91,-4176.9,-24449.9
1.81442e+07,99.8528,1,2.45584,17612.1,3858.19,-18118.3
1.83281e+07,32.2772,1,2.71254,-2531.54,1385.51,-22556.1
1.83644e+07,66.6254,0,2.97939,-3993.11,-13331.3,-29599.7
1.83954e+07,72.3568,0,2.44573,8184.85,3421.87,-16540.9
1.84457e+07,191.659,1,2.8078,-25059.4,17584.2,-2539.8
1.84778e+07,95.8779,0,2.5238,1273.12,-9707.66,-11078.3
1.88457e+07,29.6851,0,2.69434,3641.46,-1158.45,-23737.2
1.89623e+07,80.4886,2,2.44467,2551.83,-16689.3,-25589.3
1.8971e+07,116.776,2,2.75335,-12104.6,-20563.1,-22515.3
1.91059e+07,42.5951,2,2.67545,5404.17,721.317,-21737.8
1.91425e+07,121.253,2,2.70722,3403.21,-15281,-8652.83
1.91502e+07,137.35,2,2.72641,17203.9,13442.4,-9645.6
1.92256e+07,73.0595,2,2.91388,-10366.7,-8593.63,-21353.1
1.92378e+07,11.8742,2,2.65915,802.126,1303.83,-27233.6
1.92587e+07,78.1119,0,2.64854,12984.1,2738.29,-18870
1.92777e+07,12.7133,2,2.55919,-467.877,-2805.4,-29018.7
1.93109e+07,25.3401,0,2.99675,4086.58,-2426.22,-26150.1
1.94808e+07,50.2367,0,2.63855,7148.23,-2869.72,-21432.9
1.95789e+07,18.5673,1,2.81967,-3698.93,-674.592,-27525.7
1.96128e+07,13.2399,0,2.88919,1110.49,-2068.75,-27107.4
1.96513e+07,167.96,0,2.986,23053.5,-9116.77,-3836.02
1.99736e+07,11.2757,2,3.055,-2201.34,-1014.34,-28521.6
2.00627e+07,69.8172,0,2.78282,10403.9,9799.37,-25255.8
2.02659e+07,14.5113,2,2.5132,-16.4164,-3062.94,-28080.3
2.05096e+07,21.5415,0,2.5966,2174.04,4019.58,-28082
2.06158e+07,65.2834,1,2.71633,-7169.15,10228.8,-23061.9
2.08958e+07,74.0914,2,2.60731,3699.54,11723.4,-19221.2
2.09185e+07,3.13003,0,2.81413,637.596,-208.857,-28514.6
2.09971e+07,67.2095,2,3.03829,-4459.88,-9253.67,-19080.3
2.10044e+07,22.6144,1,2.61967,-4499.21,633.399,-28546.3
2.11074e+07,53.0671,1,2.67296,-10697.3,-377.247,-25454.1
2.11837e+07,30.7549,2,2.76279,5080.65,-3824.24,-27532.1
2.12883e+07,156.885,0,2.44239,7949.85,29555.2,-16148.2
2.13297e+07,36.3225,2,2.64771,3797.65,-4479.37,-23910.3
0,36.3782,2,2.73349,0,0,0
2.1349e+07,48.1874,1,2.41739,-6877.73,6572.51,-24898.8
2.15403e+07,50.577,0,3.00772,-6133.86,-8511.69,-28473.4
2.18756e+07,52.5095,2,2.47994,-4747.85,-6489.09,-21042.1
2.19216e+07,14.2629,0,2.96352,2681.71,-643.747,-27463.7
2.19728e+07,90.9684,1,2.86413,-7015.55,13337.8,-20118
2.21225e+07,250.411,2,2.715,24644.5,28917.2,7660.95
2.21881e+07,48.195,1,2.75344,4100.74,-3200.18,-20189.4
2.22181e+07,37.5587,0,2.98512,5515.56,-5340.1,-26855.4
2.22547e+07,56.3761,2,2.64862,-7539.69,-9048.08,-26675.7
2.23666e+07,30.365,2,2.99598,-221.63,-6218.94,-27354.5
2.24777e+07,19.3601,0,2.49121,3278.17,1879.95,-27059.4
2.2805e+07,115.593,1,2.50295,-10822.2,-1532.21,-16553.8
2.28404e+07,6.55054,2,2.51022,-65.8968,819.475,-27696.8
2.291e+07,33.6756,1,2.44772,2129.72,1629.07,-22187.3
2.29116e+07,52.5664,0,2.99637,247.712,6204.57,-19763.3
2.29223e+07,146.268,0,2.79493,23665,11810.7,-12969.9
2.31954e+07,32.1083,2,3.05129,-5459.14,-3356.67,-26516.7
2.32369e+07,10.7585,2,2.62121,-2108.97,-9.98184,-27861.5
2.32878e+07,174.935,1,2.75991,-19441.5,29922.7,-19562.5
2.33949e+07,62.0372,1,2.93995,-7161.05,6959.24,-20629.4
2.37207e+07,33.1362,1,2.43173,-6983.19,-678.075,-29717.3
2.3874e+07,10.2546,0,2.78071,1746.8,-147.858,-27522.7
2.3999e+07,103.426,0,2.90166,15340.8,8524.97,-16050.9
2.41477e+07,116.363,1,2.51921,10324.5,3751.79,-6830.71
2.42138e+07,45.7641,1,2.59954,-5539.94,3030.29,-21458.3
2.42761e+07,69.3992,2,2.50411,4213.38,-3824.93,-15303.2
2.4344e+07,34.2693,2,2.93221,512.451,-390.622,-28837.7
2.44909e+07,27.8634,2,2.662,-2692.54,4732.68,-26660.1
2.45911e+07,78.3938,0,2.92601,12297.7,2888.27,-18174.2
2.47371e+07,58.0294,1,2.72343,3406.13,9921.73,-22388.3
2.48179e+07,10.8369,2,2.96205,2233.58,-63.0232,-28863.4
2.49965e+07,38.395,0,2.93247,7291.36,3466.84,-27510.1
2.50039e+07,96.6391,0,2.69117,15269.4,13597.3,-28697.7
2.50061e+07,9.70106,0,2.38337,650.97,1943.95,-28392.7
0,9.67466,0,2.46259,0,0,0
2.50628e+07,133.191,0,2.97979,-7100.99,-1177.3,-16226.6
2.51245e+07,86.6785,1,2.58551,4439.69,14742.9,-18782
2.51873e+07,7.50355,2,2.7472,-482.529,-1590.9,-28995.2
2.52288e+07,29.8075,1,2.82766,-5730.37,-2314.36,-27564.5
2.52386e+07,30.0961,1,2.52855,-722.642,4480.01,-24834.3
2.5343e+07,43.5208,1,2.78334,-7597.91,5070.87,-28465
2.53704e+07,44.0044,0,2.50708,5146.34,-582.214,-29031.3
2.55341e+07,22.2071,0,2.40433,4137.74,-2275.25,-29790.7
2.55518e+07,58.7448,0,2.65135,-7332.07,4415.06,-19945.1
2.56011e+07,192.868,1,2.96585,27225.1,-10260.1,-7724.64
2.56521e+07,90.4764,2,3.01222,-17443.1,-6836,-25366.8
2.56731e+07,127.301,0,2.70508,16357,-8317.54,-10389.9
2.56771e+07,143.687,2,2.57028,-15057.1,25512.8,-25530
2.57166e+07,48.1086,0,2.92061,7250.53,-599.333,-21733.8
2.58164e+07,212.41,2,2.39573,-21347.4,1931.64,10749.7
2.58377e+07,28.7148,1,2.57796,-3123.26,236.301,-23590.2
2.58615e+07,40.4754,0,2.39616,-5970.87,4499.08,-24742
2.60496e+07,56.3274,0,2.45818,-1646.52,10785.3,-24095.8
2.60672e+07,86.883,2,2.3916,-5350.46,-5451.85,-12227.4
2.61389e+07,1.29301,1,2.97349,-159.921,-150.379,-28720.6
0,1.34373,1,2.73868,0,0,0
2.62551e+07,100.056,2,2.93887,-15742.1,-11909.7,-21589.1
2.65765e+07,3.39729,2,2.54094,-384.82,-669.363,-28519.9
2.6656e+07,93.2661,0,2.63666,10906.5,-8748.72,-14902.8
2.66843e+07,176.991,0,2.85718,11444.8,23555.9,-2533.68
2.69982e+07,93.9945,1,2.94432,-1239.51,-12143,-13299
2.70205e+07,92.8046,0,2.59987,-9405.41,-407.49,-11678.2
2.71258e+07,37.431,0,3.05784,-6163.18,789.824,-24254.3
2.71599e+07,18.74,0,2.69524,2082.53,3121.34,-27372.1
2.72116e+07,58.8718,0,2.55711,1838.16,11161.4,-23484.1
2.72704e+07,44.5826,2,2.88074,-4328.8,-5568.72,-22529.7
2.73239e+07,78.0322,0,3.00857,16283.1,2246.93,-27245.5
2.74116e+07,125.581,1,2.49688,-9227.35,22666,-18358.1
2.74357e+07,111.607,2,2.75023,-6775.97,-20302.8,-18903.1
2.74819e+07,20.9622,0,3.00441,2819.69,3368.74,-28741.9
2.76325e+07,4.15543,1,2.99139,19.8331,600.234,-28339.5
0,3.96971,0,2.68674,0,0,0
2.76371e+07,23.7039,2,2.63518,-1179.59,-4982.38,-28174.5
2.7683e+07,15.1046,0,2.49018,3123.22,-476.518,-27802.9
0,15.1698,0,2.86188,0,0,0
2.7906e+07,102.35,1,2.77803,-18253.6,9967.51,-23987.5
2.82837e+07,9.35661,1,2.89987,-1053.52,-1652.85,-29010.3
2.84752e+07,75.9772,0,2.78305,8751.66,-8116.3,-18030.9
2.85714e+07,104.753,0,2.83728,-9757.08,13105.6,-14195.5
2.8573e+07,162.951,2,2.73252,-20094.6,-27495.2,-25538.4
2.87092e+07,21.4137,0,2.52729,4259.73,-1719.32,-29623.4
2.884e+07,14.7008,2,2.71005,-1298.9,-2968.94,-28648.5
0,14.7698,2,2.96441,0,0,0
2.88685e+07,12.8596,1,2.89417,-2122.27,-27.8817,-26983.7
2.88809e+07,19.4156,0,2.5499,3386.62,-1309.96,-26778.1
2.89582e+07,94.5698,2,2.93807,6691.17,6407.99,-11258.9
2.89828e+07,109.008,0,2.55911,7684.06,-15248.8,-13490.5
2.90112e+07,123.054,0,2.4594,3500.17,713.731,-28292.9
2.91246e+07,52.3405,0,2.62965,9379.68,907.372,-25394.9
2.93274e+07,105.726,2,2.95355,-16524.5,-11271.1,-23352.7
2.93647e+07,122.968,0,2.8469,5094.4,-21844.8,-16116.9
2.94845e+07,40.9233,0,2.4985,4966.1,7129.12,-28246.2
2.94947e+07,39.6404,1,2.84567,-3886.77,1768.14,-21644
2.95256e+07,65.9341,2,2.83924,-5483.29,-10097.5,-20816.9
2.96191e+07,6.47431,1,2.62883,976.814,346.765,-27838
2.96349e+07,164.215,2,2.50185,-24811.5,-23193.3,-21312.7
2.968e+07,104.211,0,2.8607,7899.31,-7803.59,-10023
2.98334e+07,42.2246,0,2.78017,3739.52,6544.28,-24037.5
2.9893e+07,41.5023,0,2.9144,5544.36,-4880.96,-24175.2
