#class tools::wcsv::ntuple
#title time
#separator 44
#vector_separator 59
#column double eventID
#column double t(ns)
#column double copynumber
#column double energy(eV)
#column double x(mm)
#column double y(mm)
#column double z(mm)
131751,12.2817,1,2.7538,2477.48,788.606,-28810.5
332663,171.035,0,2.60463,27303.5,-10533.4,-29818.4
415170,65.3009,1,2.78949,-506.255,7955.83,-17582
656468,63.7193,2,2.64626,1213.77,-13135.4,-26000.4
675951,79.6949,2,2.7834,-7452.82,-4625.43,-14474.7
761834,5.4555,0,2.83114,1114.96,-7.57548,-29431.7
781655,13.9043,2,2.45506,2062.73,-2101.75,-29379.3
975935,146.911,2,2.94218,-5352.27,3152.32,-25392.8
1.12914e+06,14.4161,2,2.93629,-1345.42,-2113.19,-26989.7
1.54988e+06,85.8933,2,2.76323,6593.3,-5005.89,-12729
1.61948e+06,151.041,1,2.65324,-11858.7,10547.5,-1156.69
1.65512e+06,17.7014,0,2.78873,3342.47,656.437,-27113.9
1.69764e+06,35.0818,1,2.90141,1951.79,6305.67,-25383.6
2.25728e+06,27.5113,1,2.94694,-5570.11,-1313.16,-29890.8
2.31099e+06,11.4509,0,2.74378,-633.985,2309.07,-28517.2
2.61434e+06,10.9186,0,2.54999,585.345,-828.567,-26718.4
2.69011e+06,43.9567,2,2.66137,1837.96,8005.19,-24620.6
2.82874e+06,33.1556,1,2.51569,6171.31,-2992.26,-27555.5
2.9265e+06,125.866,1,2.87782,-26486.8,147.897,-27969.8
3.16486e+06,172.434,1,2.93991,10299.5,17870.7,893.454
3.32311e+06,12.5612,1,2.87917,-2606.24,52.2776,-29586.7
3.43142e+06,196.934,0,2.72694,11662.6,-12795.4,8836.96
3.54658e+06,9.53703,0,2.67844,1567.22,947.239,-27811.5
3.83112e+06,241.592,2,2.74304,-15561.6,21062.6,14642.3
3.96547e+06,52.7888,1,2.59499,-5129.11,9871.7,-27185.7
4.13508e+06,32.32,0,2.96542,-5450.88,1386.37,-25114.1
4.22893e+06,195.557,0,2.73801,-22141.6,5290.84,5418.09
4.23118e+06,50.0293,1,2.82992,-2675.46,6543.09,-20963.5
4.51537e+06,57.8903,0,2.67936,-9357.3,5086.16,-22972.2
5.04264e+06,60.7849,0,2.46198,9200.49,9069.56,-29288.2
5.36738e+06,61.1396,0,3.0566,-11.8236,-5219.68,-17134.5
5.61302e+06,128.753,0,2.86793,17082,-18885.4,-19506.8
5.86356e+06,2.24141,2,3.00955,-213.064,-417.609,-28533
0,2.22853,2,2.86052,0,0,0
0,2.24887,2,3.04831,0,0,0
5.91738e+06,217.396,2,2.65789,24745.1,26971.7,-1310.3
6.2543e+06,58.6082,1,2.58377,3351.53,9284.6,-21286.2
6.27686e+06,173.864,2,2.62063,1384.12,-26687,-3598.07
6.61852e+06,232.914,2,2.80818,1486.05,-23788.9,-5086.78
6.63526e+06,4.76617,1,2.44567,182.647,561.357,-27972.2
6.66511e+06,6.83052,1,3.04445,443.789,-961.591,-27914.2
6.71437e+06,68.0168,0,2.39136,-9124,-105.965,-17777.2
6.9728e+06,8.74591,1,2.83359,-594.633,537.37,-27130.6
7.04485e+06,164.505,0,2.82679,17914.3,-24926.3,-14270.6
7.12887e+06,64.4435,2,2.67407,-12716.6,-3645.84,-25365.9
7.31303e+06,28.2674,0,2.89758,2327.38,-3080.49,-24272.3
7.48306e+06,27.835,1,2.60599,1583.36,-4868.97,-26033.2
7.51506e+06,232.159,1,2.66337,-21635.3,14839,12540.6
7.55927e+06,228.427,1,2.80413,23564.6,-20425.7,-14519.2
7.7036e+06,147.209,0,2.59313,28291.9,-2717.31,-16044.2
8.09588e+06,43.4218,1,2.64664,-8647.07,-3009.76,-27915.6
8.11601e+06,135.148,0,3.04575,26466.8,-10315.7,-28277.2
8.29818e+06,2.57453,1,3.04873,-186.581,302.886,-28346.4
0,2.5379,1,2.49894,0,0,0
0,3.01263,0,2.65635,0,0,0
8.51214e+06,129.483,1,2.69214,-16762.5,12689.2,-11321.5
8.5705e+06,35.1567,1,2.42024,-685.844,4416.64,-22811.5
8.74471e+06,60.2334,1,2.68237,-6613.61,3398.77,-18494.3
8.80089e+06,197.62,2,2.74454,13766.8,5557.88,-19681.8
9.08952e+06,56.2265,0,2.88188,3208.38,3447.67,-17993
9.26246e+06,10.0014,2,2.51495,-1426.96,-1569.84,-29411.5
9.41073e+06,147.512,1,2.75231,-12244.6,-10502.3,-2276.1
9.45841e+06,22.0547,0,2.84585,2.7964,4342.17,-27131.4
9.89711e+06,26.5557,0,2.68056,1833.45,1537.47,-23745.2
9.91049e+06,56.7293,0,2.4694,5878.8,-1253.46,-18408.5
1.02595e+07,15.2991,2,2.78101,1503.35,-226.294,-25981.9
1.10322e+07,72.5123,0,2.6255,4223.53,-10938.5,-18922.5
1.11988e+07,83.1222,0,2.42545,11068.8,-13573.7,-26648
1.12829e+07,76.3738,2,3.0072,-8322.52,3575.13,-15640.1
1.14019e+07,40.7648,2,2.39775,-3864.29,6003.5,-23995.3
1.15789e+07,65.3742,0,2.57473,-12476.7,4191.49,-24817.3
1.15894e+07,131.571,0,2.81951,3932.6,19303.2,-10153.6
1.19019e+07,16.159,1,2.73746,1018.35,3328.94,-28525.6
1.21382e+07,30.9071,1,2.4789,1374.32,5477.83,-25411.7
1.22017e+07,218.004,2,3.06101,-9233.08,14854.3,-24911.7
1.22144e+07,2.08027,1,3.00621,36.0372,491.982,-28680.7
1.27953e+07,58.6307,0,2.57693,-6751.16,5077.17,-19832
1.32264e+07,76.9334,2,2.79353,8955.04,-13532,-29192.6
1.33086e+07,29.256,0,2.93663,2891.81,-4482.75,-25715.3
1.34353e+07,72.8287,1,2.73885,7789.09,-6643.27,-17439.5
1.34908e+07,18.3034,1,3.03725,-1314.34,-3208.06,-27221
1.3672e+07,42.3704,2,2.60021,-1614.32,-5700.69,-22041
1.3792e+07,196.93,2,2.46431,-19148.9,16139.7,4411.43
1.37975e+07,79.3061,0,2.85115,15240.9,-6974.65,-28250.4
1.40046e+07,12.7687,2,2.77434,-209.198,-2410.12,-27478.3
1.40528e+07,46.9686,0,2.57058,-5197.78,-8174.22,-26836.7
1.43779e+07,39.3091,2,2.36204,-3923.5,-1480.19,-21600.1
1.46029e+07,169.888,2,3.02181,-29353.9,11497.4,-13513.8
1.46923e+07,11.0651,2,2.50452,-1186.03,-599.821,-26855.8
1.50686e+07,44.3018,1,2.92042,-7295.99,14.0571,-22972.5
1.51212e+07,11.5589,2,2.99809,2302.09,-781.493,-28714.7
1.51761e+07,89.723,2,2.57565,-17788.4,1763.5,-22357
1.52339e+07,69.6718,1,3.01321,-13358.2,1981.71,-23102.5
1.53779e+07,68.5823,2,2.9973,-4743.73,-12642.4,-23611.2
1.56146e+07,23.8415,0,2.62723,3193.3,3701.43,-27326.3
1.58025e+07,55.0428,1,3.05845,-6033.63,9937.65,-28332.9
1.61194e+07,10.5368,1,2.68391,709.533,516.936,-26772.9
1.61397e+07,54.2756,0,2.97201,9295.5,-4643.69,-23980.3
1.66825e+07,127.49,0,2.77029,26416.9,-1334.71,-23834.4
1.67983e+07,29.0635,1,2.47933,2907.55,2787.94,-24173.4
1.7082e+07,36.1671,0,2.55903,-7187.08,387.651,-26415.7
1.72337e+07,16.2504,1,2.70254,2218.97,2605.61,-28146.8
1.72488e+07,21.7158,2,2.49614,-4510.12,-790.695,-27983.7
1.72951e+07,10.8315,0,3.06033,908.269,-856.335,-26908.2
1.75907e+07,19.5091,1,2.62104,-2010.63,3521.47,-27623.4
1.7833e+07,66.9661,2,2.55215,9268.31,-1091.31,-18184.1
1.7837e+07,24.0622,0,2.73178,724.595,870.897,-28129.6
1.78682e+07,30.7398,0,2.46794,1344.08,-6357.51,-29706.7
1.78854e+07,166.887,2,2.81362,23739.6,-17606.7,-9857.19
1.85199e+07,42.7646,2,2.91779,-5645.83,-2441.01,-22217.1
1.88435e+07,134.759,1,2.72974,-18826.3,5796.76,-9257.59
1.8901e+07,15.0607,0,2.41518,-643.245,2958.35,-27775.3
1.8921e+07,56.3048,1,2.95447,-4493.16,4076.01,-18630
1.93356e+07,110.212,1,2.40043,-17491.3,14241.1,-22585.5
1.95747e+07,4.0675,2,2.66355,3.13411,-938.886,-29065.2
1.97754e+07,121.615,2,2.71359,-11697.3,8850.93,-7839.44
1.99224e+07,88.0361,1,2.48662,-6189.54,10313.1,-14543.6
1.99562e+07,55.4637,2,2.79725,-9278.27,-1414.41,-21796.4
2.03873e+07,6.82012,1,2.96245,33.5861,-767.338,-27665.5
2.11216e+07,172.541,0,2.36719,9289.35,19714.5,481.697
2.11388e+07,15.3171,0,2.85958,3215.44,-897.646,-28770.5
2.1727e+07,25.6681,0,2.75738,1424.95,1912.84,-23933.7
2.19156e+07,55.868,1,2.45623,2394.12,10376.5,-23584
2.22064e+07,21.0427,0,2.95745,3628.73,-2591.8,-28256.4
2.23643e+07,156.495,1,2.47529,-11443.4,27059.4,-21761.4
2.25117e+07,124.052,0,2.74435,22116.1,-13133.1,-23959.8
2.28158e+07,235.558,0,2.77765,19168.1,-24477.6,9720.96
2.30693e+07,59.4859,2,2.99778,-5231.21,10784.8,-26141
2.33258e+07,43.7339,1,2.698,4892.37,4987.67,-22790.4
2.34017e+07,53.7089,0,2.40394,-4783.94,-10186.2,-27447.3
2.41899e+07,83.625,1,2.99966,-2176.71,-14228.2,-18886.5
2.43391e+07,82.393,0,2.94417,-5611.39,-8238.28,-14744.9
2.45474e+07,252.54,1,2.89934,7415.22,10679.9,18803.6
2.49258e+07,36.6845,0,2.94544,-4429.19,5504.32,-25823.9
2.49368e+07,68.4798,0,2.45272,-3247.26,13643.5,-25195.9
2.51993e+07,73.1025,0,2.37782,12218.2,6112.1,-21452.6
2.5214e+07,2.22462,2,2.42319,-332.621,-452.656,-28772.5
0,2.69977,1,2.79479,0,0,0
0,2.18143,2,2.71027,0,0,0
2.52158e+07,45.7806,1,2.53379,-3024.96,8559.23,-25226
2.54162e+07,167.886,1,2.51896,12784.8,15593.1,410.374
2.54497e+07,133.956,2,2.53074,9911.91,20927.4,-12649.7
2.54609e+07,25.8033,2,2.9114,-904.764,-5089.97,-26912.9
2.54774e+07,116.229,2,2.37328,-15443,18396.7,-23564.3
2.62657e+07,151.855,2,2.46427,-2608.07,-29609.9,-16440.3
2.63412e+07,52.5047,2,2.95473,5049.49,-9352,-25759.5
2.63681e+07,106.193,0,2.5098,2611.69,-13255.5,-10875.8
2.64681e+07,9.68258,0,2.8128,1704.59,-1107.18,-28262
2.67673e+07,36.9587,2,2.66611,1660.33,-7717.97,-28656.7
2.73236e+07,78.8443,0,2.62723,-1058.96,-16114.9,-24763.4
2.76195e+07,4.50418,0,2.93239,398.204,325.077,-27991.6
2.77354e+07,86.9122,0,2.6881,-4532.63,17717.7,-27795.4
2.81015e+07,8.89208,2,3.00134,-958.887,984.691,-27598
2.81832e+07,96.1984,2,2.76117,16652.7,-8426.19,-20951.7
2.87136e+07,103.814,2,2.43429,-7759.17,-16432.3,-16392.4
2.95736e+07,19.2822,1,2.53045,2666.39,2978.69,-29816.5
2.97872e+07,240.884,2,3.00901,-5159.6,16307.2,733.922
2.99809e+07,240.441,1,2.99973,25603.8,-17620.1,10773.9
3.00513e+07,49.1872,1,2.59364,3598.44,9314.35,-25679.9
3.00578e+07,63.7957,1,2.92254,8844.79,1475.59,-18916.2
3.03342e+07,72.5244,0,2.87715,12843.2,-35.1792,-20478.9
3.06557e+07,17.3155,2,2.38292,1668.94,677.998,-25653.2
3.13035e+07,115.382,0,2.5306,12996.2,1031.27,-8150.25
3.13282e+07,100.331,2,3.05456,-9344.53,7183.25,-11426
3.13701e+07,21.9201,2,3.05105,1693.32,-4341.9,-29165.5
3.14253e+07,134.28,2,2.53701,-17439.8,-9238.8,-8356.63
3.15085e+07,6.69817,0,2.94287,1164.65,-679.659,-28176
0,6.67781,0,2.71662,0,0,0
3.17695e+07,171.662,0,3.02292,-26433.1,20714.4,-16363.4
3.18196e+07,37.4199,2,2.62539,6337.94,2940.28,-25231.6
3.20445e+07,18.6683,1,2.48415,1931.98,1559.81,-25722.6
3.21077e+07,125.583,1,2.96995,5944.79,6593.62,-8961.28
3.22255e+07,2.08783,1,2.61625,-458.887,-71.168,-29018.4
0,2.09421,1,2.84796,0,0,0
3.25459e+07,2.18138,2,2.4496,-488.337,43.7063,-28786.5
0,2.03228,2,2.64376,0,0,0
3.2739e+07,29.0958,0,2.52222,667.759,3494.53,-23794.5
3.28696e+07,18.3378,1,2.8643,3140.81,-913.813,-26829.1
3.32156e+07,133.654,2,2.76311,-11840.6,17049.6,-9880.21
3.33007e+07,6.15082,1,2.9534,-1296.5,175.095,-29189.9
3.33348e+07,25.8836,2,2.47659,4633.51,-445.235,-25987.2
3.35596e+07,32.487,2,2.93018,-3272.28,1954.73,-23153.8
3.44003e+07,216.71,2,2.75463,14476.8,-15242.4,11685.9
3.44355e+07,5.61837,1,2.79359,-392.164,1185.83,-28499.3
3.46725e+07,183.776,1,2.95848,-16783.5,20665.8,-871.333
3.47614e+07,33.3914,2,2.7715,271.721,-5433.75,-24265.1
3.48381e+07,55.8882,2,2.90765,5751.6,-7713.38,-22030.9
3.48968e+07,28.7919,1,2.73143,-3603.21,297.651,-23937.7
3.49525e+07,44.7039,2,2.80472,-6340.03,-6756.23,-26682
3.52115e+07,0.576763,2,2.85842,-56.0548,-59.7684,-28686.2
3.5409e+07,131.49,0,2.72251,17205.8,-4920,-7612.23
3.54903e+07,128.25,0,2.5475,20448.2,-2315.66,-11095.3
3.57381e+07,44.0752,2,2.36782,4136.04,6229.98,-23323.7
3.62671e+07,19.0167,1,2.81739,2628.91,3021.4,-28167.9
3.65736e+07,18.9122,2,2.39515,-3161.05,1101.03,-26604.7
3.66554e+07,66.4466,0,2.70563,10007.8,-141.339,-18947.6
3.67131e+07,38.9946,1,2.78101,-1565.73,3316.68,-22034.8
3.69327e+07,226.693,0,2.72761,-25816.8,-244.348,11040.7
3.74651e+07,42.9921,0,2.9996,-3947.87,6440.64,-23985.7
3.76312e+07,108.114,2,2.7462,474.022,10458,-8634.7
3.77962e+07,58.2548,0,2.89191,-7315.83,-1910.23,-19264.7
0,57.5379,2,2.64852,0,0,0
3.80763e+07,74.8812,0,2.90336,-7130.43,12962.6,-23520.1
3.82777e+07,0.744956,0,2.88842,30.4403,-106.562,-28688.4
0,0.663842,2,2.7921,0,0,0
0,0.776064,0,2.71592,0,0,0
3.85774e+07,144.623,2,2.77856,-13594.1,12402.8,-8042.29
3.91644e+07,78.9582,2,2.49277,-3356.18,-16433.8,-29775.3
3.95689e+07,32.4786,1,3.02105,-6361.41,-451.809,-26282
0,32.4361,1,2.96959,0,0,0
3.95828e+07,166.271,0,2.65959,12990.3,15873.4,-330.981
3.97441e+07,5.7876,0,2.81224,319.238,444.984,-27696.7
0,5.96894,1,2.61607,0,0,0
4.01266e+07,73.7153,0,3.05649,12151.6,-9612.93,-28142.3
4.03498e+07,106.905,1,2.80471,-2889.14,-10401,-9146.41
4.08389e+07,33.5241,1,2.93988,-3808.78,1192.85,-22971.3
4.12487e+07,23.9926,2,2.74639,-3901.19,-1475.08,-25863.9
4.12758e+07,98.3903,1,2.64857,-9384.39,18254.2,-25137.4
4.13484e+07,11.4412,1,2.40901,-524.819,2244.9,-28933.4
4.17104e+07,13.436,1,2.9538,1063.63,2537.2,-27967
4.17642e+07,80.3852,2,2.71307,-16575.2,3228.73,-27057.5
4.22228e+07,144.19,2,2.85539,-4827.87,-27333.4,-16532.2
4.24403e+07,182.84,2,2.55909,21710.9,6717.16,-2058.19
4.2519e+07,121.453,2,2.53871,-5260.88,-14047.3,-7938.47
4.28643e+07,87.3749,2,2.96175,-8462.29,-15185.4,-22745.1
4.29487e+07,236.829,0,2.93008,18117.4,28973.8,7273.96
4.29628e+07,2.40615,1,2.96349,-40.1947,578.978,-28649.4
4.38095e+07,26.4466,1,2.90713,5277.28,1527.77,-29724.5
4.38393e+07,8.18665,0,2.58832,-1255.9,674.032,-27902.5
4.38676e+07,149.522,2,2.58079,12970.2,-5623.77,-604.475
4.3939e+07,110.896,2,2.43574,-6315.61,8425.05,-7866.96
4.39872e+07,78.1816,0,2.65783,2069.68,-16264.9,-26840.7
4.43934e+07,18.3445,0,2.59582,2624.02,2951.77,-29248
4.44093e+07,81.2043,2,2.70837,-5035.91,-15049.7,-22195.7
4.45684e+07,53.831,0,3.01937,5822.94,2169.04,-19383.3
4.47091e+07,26.0587,1,2.67054,-706.77,4955.17,-26362.8
4.48408e+07,150.738,2,2.68482,-24373.8,-19448.3,-22215.6
4.51985e+07,60.8223,2,2.74315,-10763.3,6013.32,-25240.6
4.54427e+07,101.268,1,2.70978,-13086,16401.1,-24569.9
4.54717e+07,86.8929,0,2.84893,-9962.98,1567.66,-13646.4
4.55355e+07,29.5603,1,3.03687,-1541.39,-5886.68,-27911.6
4.69237e+07,16.8935,2,3.05731,1258.49,-2803.61,-26983.6
4.70028e+07,153.797,2,2.59473,13263.3,-28152.7,-19312.2
4.72977e+07,52.3769,2,3.05902,-5271.58,-5351.62,-20740.2
4.73334e+07,145.578,2,2.39757,-89.7019,13557.5,-1204.42
4.73652e+07,151.453,0,2.87262,13773.1,-5724.77,-674.826
4.74424e+07,118.361,0,2.44617,21724,12647.9,-28880.9
4.82454e+07,23.9461,1,2.48794,-2555.86,-2446.69,-25234.4
4.83821e+07,213.062,0,2.74704,-1835.54,-369.272,-28148.2
4.84663e+07,85.0511,1,3.05419,9864.65,5133.75,-14911.4
4.87878e+07,9.97782,1,2.77621,286.489,1371.78,-27181.8
4.91639e+07,19.9478,2,2.94424,-3188.96,-2614.88,-27755.7
4.9284e+07,41.2578,1,2.71411,3698.54,-7265.14,-25953.1
4.93328e+07,64.4859,1,2.65618,-5560.32,-6057.52,-18024
4.93653e+07,70.0216,0,2.79844,11484,-7419.92,-23130
4.98719e+07,121.856,2,2.98775,14227.7,-20346.2,-22710.5
5.00418e+07,4.24444,0,3.00737,1003.95,8.6354,-28707.7
5.05341e+07,41.798,1,2.44882,-7948.04,3379.52,-26625.8
5.06328e+07,29.2126,0,2.91304,-2442.73,-1723.57,-23506.4
5.073e+07,1.10828,2,2.42008,-195.469,-210.965,-28685.9
5.07566e+07,87.1422,1,2.89106,-5349.74,-17122.4,-25404.9
5.14025e+07,56.1204,1,2.69643,-1237.62,2342.75,-18851.9
5.15456e+07,39.4957,1,2.79864,-7477.22,-2426.77,-26010.6
5.18413e+07,117.992,1,3.00114,-16683.6,9666.92,-13232.1
5.18624e+07,115.876,2,2.78213,-2522.27,-10164.7,-6765.85
5.20799e+07,26.8517,0,2.529,3617.23,-3510.14,-26109.2
5.21654e+07,53.5898,1,3.03782,8789.52,6784.6,-27014.6
5.21779e+07,37.6034,1,2.94351,2699.46,6936.88,-25980.6
5.27802e+07,101.094,1,3.0257,-19720.1,-532.594,-21010.4
5.28768e+07,67.3452,1,2.84616,-12587.2,-774.08,-22291.8
5.30056e+07,29.0346,1,2.89411,-2997.89,2690.34,-24161.7
5.30463e+07,9.14317,2,3.01066,-1955.89,-464.458,-28674.4
5.31711e+07,119.101,2,2.61625,-13501.8,-6316.02,-8527.79
5.31956e+07,56.4633,0,2.98538,4631.79,10034.4,-24420.3
5.35803e+07,30.5461,2,2.60897,-2569.71,-6030.05,-28421.8
5.36587e+07,82.7258,2,2.98448,6076.29,15982.9,-26391.9
5.47883e+07,83.1007,1,2.49214,-12380.6,-1550.91,-16408.1
5.48059e+07,90.0041,2,2.766,-18050.2,-5520.56,-26465.9
5.51991e+07,37.0298,1,3.04206,-6448.86,1370.64,-24679.6
5.53507e+07,3.40498,2,3.03972,-762.248,-203.724,-28976.6
5.54375e+07,87.3056,1,2.51929,-5931.05,14014.3,-18242.1
5.57321e+07,58.6632,2,2.50211,6244.11,-10348,-25858.1
5.59288e+07,14.9165,2,2.4461,-1613.49,-2299.66,-27188.9
5.62958e+07,12.6687,1,2.49496,217.721,2688.46,-29511.8
5.63774e+07,43.0337,2,2.49932,-621.383,-8947.91,-26773.1
5.64516e+07,169.145,2,2.62694,-1851.93,-8213.09,-23838.4
5.6602e+07,108,2,2.70588,-1819.47,-20290.4,-18508.4
5.6611e+07,142.195,0,3.03457,-11333.4,25179.5,-17740.4
5.66193e+07,76.3362,1,2.44082,12254.6,3835.75,-19059.9
5.69478e+07,143.448,0,3.01102,12878.8,8483.16,-2991.69
5.70867e+07,36.6212,1,2.68126,-7349.52,-2524.92,-28986.2
5.74856e+07,25.911,2,2.78511,-2413,3838.99,-25866.4
5.79495e+07,24.3102,0,2.67768,4243.46,-1989.88,-26554.2
5.79712e+07,334.669,0,2.88011,28214.3,26401.8,29919
5.80826e+07,137.01,1,2.92509,-9332.78,-21116,-11715.5
5.82167e+07,80.2277,1,2.82594,-8499.52,7367.99,-17177.7
5.83503e+07,54.4682,0,2.64895,6992.05,-1291.78,-20203.1
5.85716e+07,90.3904,1,2.69803,-56.0252,17157,-20403
5.90657e+07,240.389,2,3.00489,11062.9,23668.2,11293.5
5.90698e+07,15.7181,0,2.59554,2248.13,-2541.13,-28899.6
5.91099e+07,62.2528,2,2.52975,4008.11,-6287.92,-17952.2
5.91676e+07,16.9341,0,2.48495,409.264,3599.25,-28895.5
5.92062e+07,50.3117,1,2.41507,-2784.46,8184.61,-22503.5
5.9227e+07,56.1838,0,2.85732,6366.72,2893.87,-19270.2
5.93215e+07,22.1339,0,2.38783,3572.16,1489.3,-26065.6
5.93464e+07,71.6618,1,2.77869,-12789.1,-3291.24,-21464.3
5.95148e+07,47.8692,1,2.68814,7584.75,6632.17,-27924.5
5.95896e+07,132.09,1,2.78241,8840.91,26208,-25395
6.00714e+07,120.531,1,2.37179,-15492.5,3255.89,-8771.88
6.02337e+07,30.0159,2,2.86971,5232.9,-3561.16,-28378.6
6.03903e+07,95.0185,0,2.41808,17199.3,-4845.59,-19447.6
6.04997e+07,4.35794,0,2.77056,716.622,-545.475,-28396.2
6.05698e+07,193.381,2,2.52724,-15140.3,-21666.5,2415.88
6.06287e+07,23.6582,2,2.51844,3026.96,-2085.46,-25416.5
6.06803e+07,54.8733,2,2.73924,-2717.19,8262.48,-21233.1
6.06976e+07,20.3144,0,2.91473,855.643,-3180.43,-26113.4
6.08465e+07,71.1714,1,2.81565,-7816.64,-3502.9,-16548.3
6.08479e+07,49.1241,0,2.51214,4133.9,-9584.06,-28972.8
6.11044e+07,67.3916,2,2.87131,9058.67,2105.25,-28727.8
6.12553e+07,16.8581,1,2.83715,-1254.46,2661.8,-26703.6
6.12648e+07,111.553,0,2.56273,568.47,21181.8,-18450.4
6.17527e+07,110.362,2,2.97513,5919.89,-20959.5,-20806.4
6.1757e+07,7.31016,2,2.40857,1195.28,549.351,-28075.9
6.1897e+07,211.563,1,2.50491,28764.8,24.6072,5166.98
6.21107e+07,39.3513,2,2.74561,-3633.62,-4679.73,-22941.8
6.24706e+07,5.17152,1,2.62953,579.852,993.069,-29071.9
6.28311e+07,154.876,1,2.82565,8301.03,22766.8,-7006.14
6.29808e+07,128.559,1,3.03412,-1953.01,19021.4,-9842.02
6.34541e+07,56.0509,0,2.80835,1739.87,-11686.8,-28365.7
6.35146e+07,56.0696,1,2.95901,8432,6008.09,-23175.2
6.38353e+07,170.231,0,2.8065,-8877.8,-8306.2,-9770.41
6.40278e+07,341.911,2,2.98608,-25840.7,-24337.2,18160.9
6.44503e+07,109.726,2,2.37667,-4961.6,-18319,-15362.6
6.46131e+07,78.3834,1,2.75202,3183.67,6571.08,-25981.1
6.49513e+07,172.028,2,2.84099,-7799.57,-28368.7,-7673.4
6.49558e+07,134.509,0,2.81632,28131.5,-1853.66,-25462.1
6.49844e+07,29.8322,1,2.72978,727.431,4120.09,-24090.6
6.50136e+07,5.16918,1,2.51702,-792.28,164.14,-28005.8
6.53634e+07,94.441,2,2.87506,-8432.17,-2316.54,-10995.1
6.58598e+07,10.9587,0,2.40911,2022.91,1322.6,-28644.7
6.65302e+07,130.617,0,2.64767,6145.54,-9546.26,-12024.9
6.68198e+07,15.9384,2,2.40678,2905.29,-1672.55,-28264.2
6.69486e+07,0.706411,0,2.51157,176.256,78.6946,-28719.6
6.70762e+07,3.48154,0,3.02296,806.621,-153.82,-28651.2
6.71811e+07,18.2549,2,2.74742,-2742.49,2703.57,-29151.2
6.72004e+07,128.189,1,2.59468,-14411.5,-18445.8,-15238.7
6.72892e+07,137.943,1,2.50395,-6424.17,19923.2,-8809.28
6.75581e+07,116.754,2,2.79727,8695.53,-11975.8,-9205.88
6.78515e+07,298.226,1,2.64888,-15446.2,23986.1,27277
6.80161e+07,151.047,1,2.80841,10990,-21302,-8047.24
6.80713e+07,59.6668,2,2.53942,-7173.17,-7037.88,-21085
6.81706e+07,52.4323,1,2.63264,9892.4,-107.027,-23911.6
6.81712e+07,42.7665,1,2.96539,-2529.63,4349.77,-21349
6.82901e+07,54.2077,0,2.92713,9119.47,6542.16,-26441.9
6.83986e+07,81.5298,0,2.55788,13743.7,7497.31,-22000.3
6.88591e+07,118.557,0,2.73648,-20645.6,3012.98,-15229.1
6.90681e+07,23.5316,0,2.69882,4639.3,88.9291,-26828.1
6.91974e+07,131.367,1,2.58012,-24449.6,13059.7,-26130.7
6.9274e+07,101.345,2,2.80803,-9798.85,7616.92,-27220
6.9363e+07,13.2212,0,2.60432,2102.17,-1861.76,-28231.8
6.94106e+07,61.5364,2,2.85715,-6419.47,-9020.85,-21987.8
6.94169e+07,99.5179,2,2.90614,4199.09,-10255.8,-11071.8
6.98147e+07,29.7749,2,2.78751,-5892.8,-699.575,-26664.5
6.99517e+07,69.904,0,2.55485,3955.21,10677.8,-19350.1
7.00475e+07,9.72319,0,2.78369,590,-1780.63,-27894.2
7.03358e+07,21.0756,2,2.95742,-1194.42,2641.39,-25500.7
7.08022e+07,138.435,1,2.50787,17884.4,3178.82,-5893.15
7.12069e+07,257.106,2,2.48636,-16149.5,-4248.55,-18243
7.12227e+07,89.6807,0,2.66151,3954.91,-18299.6,-25832.5
7.17279e+07,1.88308,2,2.8483,-216.204,202.599,-28573.1
7.19534e+07,96.3795,1,2.62727,-14946.6,-2821.21,-15300.4
7.23592e+07,83.8508,2,2.71904,-6264.09,-7199.22,-13901.1
7.23676e+07,43.9791,0,2.37872,4118.48,5374.95,-22369
7.26701e+07,133.505,2,2.80282,22112.6,-16351.4,-22979
7.27028e+07,68.3907,0,2.56658,13686.7,-4862.65,-27871
7.29753e+07,94.9888,0,2.78431,-5299.23,-14428.4,-16044.9
7.39168e+07,161.52,1,2.91968,-26408.5,-20838.8,-24599.7
7.39213e+07,0.529468,2,2.93386,-64.9026,-51.8263,-28699
0,0.526664,2,2.73511,0,0,0
0,0.685102,2,2.9161,0,0,0
0,0.529154,2,2.39725,0,0,0
0,0.545568,2,2.42643,0,0,0
0,0.527963,2,2.90442,0,0,0
7.40997e+07,95.7867,1,2.44522,-12357.4,12822.4,-18975.4
7.42495e+07,40.801,0,2.56505,724.209,8631.05,-28492.1
7.44857e+07,7.5038,2,2.74076,781.701,-395.221,-27489.9
7.45218e+07,217.607,1,2.42075,-24639.2,-5646.96,9665.69
7.45552e+07,146.08,2,2.61691,11875.8,-28523.5,-29709.8
7.54446e+07,69.9129,2,2.41819,-13725.1,-219.269,-23155.4
7.54969e+07,6.47903,0,2.71481,-273.17,-1055.15,-27993.9
7.59195e+07,114.349,2,2.7538,8942.18,-21163.4,-21404.2
7.59408e+07,85.2092,1,2.5677,9769.13,12383.6,-20097.6
7.61055e+07,91.2483,2,2.82476,-16146.3,4135.16,-19260.2
7.62553e+07,19.9108,1,2.57106,-2315.74,-912.467,-25398.7
7.65667e+07,77.5242,0,2.65311,-8355.97,-1888.06,-14922.1
7.71422e+07,77.599,2,2.61644,4727.04,14700.3,-24117.9
7.77855e+07,148.23,1,2.41334,-12703.2,-18107.5,-6656.07
7.7872e+07,1.95083,1,2.53307,-115.176,445.704,-28608.8
0,1.98132,1,2.81701,0,0,0
7.80252e+07,54.3149,2,2.90755,6797.58,2029.41,-19916.8
7.87872e+07,109.957,2,2.43568,-17227.9,-2767.03,-13378.7
7.8837e+07,332.396,1,3.01115,-1477.48,-1870.63,-21996.7
7.90073e+07,249.382,1,2.41022,29163.3,23026.7,-19071.9
7.9151e+07,143.741,1,2.69102,-26399.9,11136.4,-18731.5
7.92916e+07,162.324,2,2.67213,-7373.75,23701.8,-5323.85
7.9292e+07,90.6775,0,2.77127,12584.8,2098.8,-14555.4
7.94522e+07,47.756,1,3.00775,-6993.7,6793.77,-26189
7.94939e+07,101.679,1,2.66438,-16113.2,847.158,-14625.6
7.98503e+07,92.4365,0,2.4642,16681.6,-6540.4,-20802
8.0288e+07,108.286,0,2.98445,10069.8,-17527.5,-27747.3
8.05045e+07,72.2978,1,2.56782,493.506,-15039,-26616.3
8.05521e+07,55.2141,1,2.86111,9264.67,2897.57,-22504.3
8.0571e+07,60.2973,0,2.45667,-2787.36,12301.1,-26824.5
8.05879e+07,32.2447,2,2.84678,5109.54,-849.348,-24512
8.13491e+07,8.96954,0,2.97747,1603.5,388.414,-27746.9
8.15593e+07,20.1818,2,3.03121,-1242.07,-1184.78,-24913.7
8.17882e+07,112.932,0,3.05315,2877,-2224.38,-24529.8
8.21796e+07,31.8593,1,2.62139,-1718.69,6385.57,-27104.2
8.22476e+07,54.283,0,2.58314,3750.43,6012.23,-19759.5
8.22627e+07,79.3223,0,3.00883,14165.1,-3177.5,-20561.7
8.24976e+07,52.5768,0,2.99566,5065.95,1047.59,-28171.1
8.26893e+07,32.9912,2,2.53345,757.417,-3416.33,-22750
8.27468e+07,16.3518,2,2.90547,-3212.01,-1391.28,-29242.5
8.29671e+07,7.62301,2,3.0421,822.614,-811.305,-27704.6
8.31598e+07,64.8809,2,2.72072,-7944.12,-9261.66,-22499.5
8.3633e+07,19.2383,0,2.8821,2883.09,-2884.64,-28254.3
8.36656e+07,10.5294,1,2.51583,1476.09,-329.306,-27214.4
8.37798e+07,87.2757,0,2.92178,7694.08,2477.9,-12351.7
8.38794e+07,72.0295,2,2.79406,-760.316,-5814.21,-14812.2
8.3977e+07,40.7119,2,2.83511,-7852.4,-3423.01,-29917
8.42557e+07,128.83,2,2.80515,-6404.68,24543.9,-19447.4
8.45224e+07,7.90832,2,2.3639,-1327.91,-1165.97,-28945.5
8.50591e+07,42.1917,2,2.48637,-2949.23,-7765.46,-25311.2
8.50821e+07,3.30865,2,2.46776,315.306,-171.475,-28222.8
8.52057e+07,125.605,0,2.52463,12260.3,-23541.4,-29753
8.53608e+07,107.378,0,2.87917,8415.52,19223.9,-20462.5
8.53817e+07,52.6771,1,2.94519,-323.935,-5053.17,-19045.3
8.5467e+07,43.4074,2,2.61858,7002.81,5284.96,-26325.1
8.58075e+07,66.3308,2,2.85779,8400.66,7748.65,-20914.7
8.58875e+07,153.561,0,2.8809,-16688.8,-13802.4,-4983.34
8.62204e+07,14.1913,1,3.03344,-1453.03,-2571.98,-28940.9
8.6881e+07,57.259,0,2.4806,2088.84,11485.5,-25540.7
8.72297e+07,44.5579,1,2.80794,-2617.93,8134.66,-24745.4
8.73905e+07,38.1817,0,2.79952,-961.91,7210.64,-25453.9
8.74961e+07,65.711,2,2.48473,3118.15,-11054.5,-20888.9
8.76267e+07,201.55,1,2.50008,-23401.9,-20127.1,483.506
8.78204e+07,95.276,1,2.49776,-10239.2,16287.6,-22516.2
8.78602e+07,102.584,2,2.70501,11020.5,11443.1,-14239
8.81671e+07,2.88111,1,2.51783,-596.644,-158.842,-28638.7
8.8329e+07,17.0806,2,2.36227,-1649.07,-2984.33,-27351.8
8.86588e+07,35.94,2,2.37003,4192.72,-5903.6,-26293.6
8.91982e+07,172.601,2,3.00252,-29763.5,-10098.4,-10863.8
8.95436e+07,12.4902,0,2.54886,2423.09,-445.114,-27668.9
0,12.3932,0,2.37768,0,0,0
8.96224e+07,3.95509,2,2.73751,268.837,-828.263,-29112.1
8.97024e+07,180.355,2,2.42377,-15175.9,-19621.3,231.281
8.97668e+07,43.2953,0,2.56535,-3832.85,-7655.28,-25655.5
9.01776e+07,11.873,0,2.83834,2100.54,-456.33,-27393.8
9.03251e+07,40.6977,0,2.82092,4423.73,6961.35,-26292
9.06152e+07,109.369,0,3.06,17029.3,-15406.3,-28677.2
9.0798e+07,60.1169,2,2.4263,-4713.56,-11782.1,-26954.9
9.09121e+07,135.979,1,2.97882,5543.61,18275,-7589.68
9.09307e+07,22.4183,2,2.41048,3072.26,2660.92,-26477.6
9.09378e+07,37.7959,0,2.41205,2711.19,6563.64,-25072.1
9.1002e+07,98.8258,2,2.54893,-18198.8,-8539.77,-22903
9.14577e+07,36.3094,1,2.63583,-427.019,3782.31,-22125.6
9.16332e+07,108.513,2,2.49383,-6494.95,-13900.5,-11701.2
9.18104e+07,27.0054,2,2.37826,-1718.97,-5468.54,-29835.5
9.21575e+07,109.269,0,2.6458,18018.5,-8050.24,-24554.2
9.23823e+07,11.9124,0,2.73669,958.188,2357.65,-29142.7
9.27294e+07,20.8171,0,2.42776,3684.09,-2410.85,-29720.6
9.29647e+07,3.36866,1,2.59962,-527.994,-196.728,-28350
9.30158e+07,40.0359,2,2.77467,4072.18,-537.509,-21502.8
9.31701e+07,49.6306,1,2.68708,-10110.9,1916.95,-26521.6
9.32762e+07,192.663,0,2.82523,20388.3,1466.82,6194.8
9.33733e+07,203.035,1,2.63741,11103.1,28822,931.042
9.34093e+07,134.264,2,2.79378,-7992.45,-9047.35,-8893.16
9.35192e+07,99.1367,0,2.61798,3007.01,11629.3,-11657.9
9.35324e+07,42.8641,2,2.68463,-8032.23,-3547.02,-26328.5
9.38842e+07,19.9994,0,3.01983,2454.45,-3296.17,-27658.1
9.39641e+07,12.8458,2,2.39668,367.572,-2737.02,-28288.7
9.40097e+07,5.52604,0,2.96544,181.961,289.92,-27711.3
9.40822e+07,0.899309,2,2.65842,-123.433,-46.0378,-28646.9
0,0.969131,1,2.66713,0,0,0
9.40918e+07,38.1687,1,3.03991,-7138.44,596.861,-25183.8
9.42287e+07,191.623,1,2.57254,-25078.4,-1608.34,2741.7
9.42957e+07,108.297,0,2.41032,-22381.9,-3113.41,-25478.4
9.43448e+07,33.1082,1,2.65162,5833.77,2482.66,-25920.2
9.46724e+07,41.4654,2,2.8109,5562.07,-2290.87,-22496.1
9.53238e+07,33.2318,1,2.5238,-3633.46,-4290.38,-24667.8
9.54483e+07,53.7383,1,2.45684,4329.13,3114.37,-18781.7
0,53.7432,0,2.67935,0,0,0
9.58463e+07,89.4219,0,2.53469,11442.9,-14584.1,-24849.8
9.60416e+07,59.0342,0,2.5729,-3799.97,11088.4,-24564.1
9.60505e+07,22.0695,0,2.72463,2564.88,-3966.91,-29098.1
9.65631e+07,35.1772,0,2.87357,3765.88,326.745,-22415.2
9.68191e+07,133.847,2,2.5896,-3231.81,-28153.9,-29039
9.74676e+07,37.7602,2,2.56692,6827.81,100.354,-24730.6
9.75241e+07,151.608,0,2.47844,20508.8,-10074.7,-6267.28
9.77703e+07,123.573,0,2.53751,9523.74,-16729.7,-11121.6
9.81921e+07,76.3328,1,2.59595,-8873.96,9344.5,-19010.5
9.82726e+07,138.405,2,2.45349,-2792.17,-25444.2,-14474
9.85503e+07,110.921,0,2.71416,17777.9,13481.8,-21620.4
9.89498e+07,25.2471,0,2.71474,-3349.13,-1645.06,-25089.1
9.90308e+07,68.5811,1,2.61812,-11172.1,-6395.52,-22208.8
9.91481e+07,15.5835,1,3.05463,2466.25,2101.7,-28197.4
9.9277e+07,30.1592,0,2.73341,1897.63,-4296.65,-24476.6
9.93035e+07,196.272,2,2.9925,12227.7,-14209,7762.29
9.95466e+07,121.761,0,2.5156,15885.8,-15100.4,-15198.7
1.00055e+08,55.21,1,2.60534,6548.01,-8346.83,-24129.6
1.00192e+08,29.6766,0,2.65292,1059.96,-4902.11,-25012.5
1.0023e+08,186.098,0,2.47273,22282.7,19235,-2690.89
1.00453e+08,143.245,1,2.9408,19346.1,-1822.49,-5954.15
1.00537e+08,130.751,2,2.74347,-14073.2,-16344.8,-11618.6
1.00579e+08,21.8068,2,2.89817,-2724.47,-3377.92,-27096.7
1.00589e+08,55.318,1,2.76277,-4605.38,9301.74,-23387.9
1.00641e+08,114.635,2,2.98797,-17571.8,-4919.04,-13132.9
1.00648e+08,10.7232,0,2.86761,310.72,1426.24,-27065.7
1.00937e+08,82.022,0,2.77463,-4573.1,-15147.3,-21914
1.01156e+08,48.7427,0,3.02626,-3561.81,5470.51,-20996.2
1.0121e+08,2.55012,1,2.43356,-70.8113,386.246,-28392.9
1.01295e+08,76.7418,1,2.98894,12938.1,7492.83,-22812.8
1.02615e+08,37.5247,1,2.59719,-1248.73,4336.88,-22256.8
1.03131e+08,34.323,2,3.03405,4186.54,721.555,-23045.9
1.03372e+08,13.1087,2,2.73525,-1326.77,841.462,-26530.9
1.03435e+08,213.051,2,2.9493,10681.4,24756.3,6763.96
1.03461e+08,76.0276,2,2.78327,-388.494,9800.77,-16238.8
1.03657e+08,69.8514,2,2.81109,4945.7,-10024.6,-19213.5
1.03978e+08,121.567,1,2.64286,-1387.63,20644.8,-13552.3
1.04101e+08,40.8654,2,2.95927,5847.71,2220.64,-23020.1
1.04194e+08,98.3864,0,2.9327,15014,13505.9,-24139.2
1.04383e+08,7.62005,1,2.84795,409.31,1031.09,-27599.6
1.04553e+08,44.0797,0,2.49653,4280.52,6773.72,-23940.1
1.04828e+08,84.5581,2,2.74907,-2322.76,-9698.71,-14012.5
1.04963e+08,30.6052,2,2.61376,-3745.42,-4650.01,-26108.6
1.05309e+08,18.6742,0,3.02328,2225.57,2927.59,-27296.2
1.057e+08,4.95429,0,2.40956,303.615,169.782,-27822.7
1.05866e+08,15.1844,1,2.42388,-2112.58,-386.284,-26391.9
1.06318e+08,112.08,0,2.63336,16740.2,5375.1,-12927.3
1.06653e+08,19.3252,1,2.53835,615.997,-3217.52,-26472.6
1.067e+08,158.104,1,2.78664,-6373.06,27179.3,-10607.9
1.06738e+08,17.3281,2,2.79636,-1444.6,-1664.93,-26975.4
1.06947e+08,54.3348,1,3.05086,9036.12,-3880.42,-23187.2
1.07299e+08,42.5019,0,2.67158,3792.27,3760.74,-21578.1
1.07432e+08,54.0534,0,2.81699,4412.65,5294.42,-19737.6
1.07544e+08,117.099,2,2.52935,-23292.1,-8587.35,-27833.1
1.07906e+08,10.9258,0,2.65983,-594.722,2120.07,-28158.9
1.07907e+08,59.0942,2,2.99996,-10754.5,6113.62,-29795.7
1.07957e+08,11.658,0,2.65997,-2034.29,171.262,-27565.4
1.08028e+08,103.823,0,2.42212,398.434,11572.5,-10154.4
1.08204e+08,30.7573,2,2.74539,-5885.49,1220.59,-26353.8
1.08598e+08,165.718,1,2.99594,15025,-18883.5,-15889.6
1.09438e+08,199.017,1,2.85761,43.1171,-12529.1,-18249.3
1.09551e+08,67.6405,0,2.71422,-6333.83,-10867.4,-22193
1.09617e+08,6.89488,2,2.74066,71.2245,-1192.47,-27893
1.0984e+08,21.7002,0,2.43361,231.213,-3950.69,-26462.8
1.10277e+08,152.538,2,2.6981,6492.4,-14202.4,-780.93
1.10308e+08,47.814,1,3.04164,5075.83,8710.39,-28561.6
1.1044e+08,36.3817,1,2.49568,-2622.87,-5574.52,-24259.2
1.10558e+08,154.758,1,2.50231,12942.8,7235.23,346.625
1.10771e+08,22.7589,2,2.43629,-2874.22,-3122.89,-26394.6
1.11331e+08,54.2523,2,2.91361,-6219.15,-1495.55,-19356.1
1.11338e+08,125.504,2,2.3714,11244.6,6133.11,-5585.4
1.11419e+08,13.2953,1,2.70316,-932.772,2729.98,-28519
1.115e+08,0.304507,2,2.7285,-116.005,-132.377,-28807.7
0,0.328529,2,2.74659,0,0,0
0,0.322962,2,2.39685,0,0,0
0,0.357657,2,2.7279,0,0,0
0,0.327722,2,2.4614,0,0,0
1.11557e+08,102.772,0,2.78344,4452.19,4901.85,-20931.6
1.11646e+08,36.6098,1,2.48635,-7249.22,-1295.45,-26313.9
1.11687e+08,139,1,2.93388,23924.7,-4886.85,-29979.8
1.11803e+08,5.78202,1,2.48543,-477.556,520.911,-27776.6
1.12022e+08,19.8834,0,2.53591,761.482,4001.46,-27736.4
1.124e+08,288.209,1,2.3959,10812.4,-6019.54,29202.4
1.12705e+08,74.1506,1,2.36299,-5229.18,11744.4,-19718.1
1.12938e+08,148.68,1,2.79981,4144.07,-24146.8,-9454.79
1.12994e+08,12.8178,2,2.7607,-1373.36,-2283.5,-28035
1.13385e+08,178.123,2,2.69113,-25349.1,-20540.1,-10093.9
1.13695e+08,89.744,1,2.83141,5542.84,7506.53,-12407.5
1.13718e+08,108.079,1,2.64006,-17276.1,-8183.54,-16380.7
1.14485e+08,70.1656,2,2.59344,7768.6,-12710.5,-28701.4
1.14579e+08,14.0043,1,2.70122,-504.401,1382.94,-26228.6
1.15138e+08,233.068,2,2.60947,23325.8,12957.7,12478
1.15199e+08,26.4003,0,2.99289,-561.243,-3035.6,-24215
1.15349e+08,38.2393,0,2.45652,6693.78,1364.53,-27631.4
1.15352e+08,29.3161,1,2.74121,-5696.79,-335.485,-26360.4
1.15471e+08,5.04442,1,2.63846,50.76,755.607,-27987.1
0,5.10019,1,2.95533,0,0,0
1.15987e+08,23.9137,2,3.02765,-3141.32,1302.8,-25119.8
1.16153e+08,66.8185,0,2.57109,8964.57,5661.2,-19399.3
1.16334e+08,79.8723,2,2.69767,-1726.91,-10188.5,-15475.8
1.16381e+08,123.826,2,2.46155,23721.9,155.856,-17763.8
1.16448e+08,7.53406,2,2.50095,-1408.31,353.234,-28119.3
1.16492e+08,136.194,2,2.82832,9924.29,-1572.77,-22871.2
1.16493e+08,150.695,1,2.54604,-24562.2,-8072.89,-10171.5
1.16887e+08,51.2079,1,2.63482,-10844.6,990.362,-28770.7
1.171e+08,4.0025,2,3.03485,-611.427,-370.59,-28261.2
1.17247e+08,5.98517,2,2.84526,552.346,-468.114,-27787
1.17891e+08,8.9575,0,2.7215,901.311,1538.26,-28033.5
1.18063e+08,130.412,0,2.73195,25668.1,4147.95,-19738.1
1.18186e+08,64.1312,2,2.7299,-13026.5,-3640.08,-27382.5
1.18419e+08,149.684,2,2.60751,2310.24,-27887.9,-13974.3
1.18474e+08,8.75073,0,2.9634,1695.63,-1.54961,-29801.2
1.185e+08,148.96,0,2.45859,-17317.9,26270.1,-27747.4
1.1904e+08,141.487,2,2.73953,5336.11,14671.5,-3494.86
1.19333e+08,62.209,0,2.76279,4082.66,11950.5,-25189
1.19359e+08,102.279,0,2.97682,15466.9,-14948.2,-28954.8
1.19374e+08,159.237,2,2.46973,-25133.2,-21834.8,-23279.8
1.19534e+08,127.028,1,2.77455,-5840.74,-686.419,-4391.12
1.19656e+08,58.7892,1,2.67634,-7508.79,8565.48,-23698.5
1.20298e+08,26.5529,1,2.81082,-148.659,-2455.42,-23849.4
1.2078e+08,195.073,1,2.74701,21313.4,13177.4,3728.97
1.20893e+08,269.209,1,2.8109,-14127.1,-16823.6,9581.23
1.2095e+08,50.9346,0,2.59977,9485.03,449.036,-23584.9
1.21003e+08,1.47351,1,2.74704,-252.457,300.217,-28774.5
1.21213e+08,62.1642,0,2.70975,9823.37,4205.91,-21141.9
1.21383e+08,46.3479,2,2.82675,-1691.07,-6098.52,-21324.8
1.21502e+08,12.1886,0,3.00307,1081.04,-1812.65,-27297.9
1.21682e+08,194.163,0,2.42206,25360.4,11040.4,1612.04
1.21726e+08,42.6087,2,2.65013,-5422.79,3087.46,-22321.7
1.21789e+08,24.5604,2,2.91226,-4867.41,-1830.8,-29522
0,24.585,2,3.04546,0,0,0
1.22645e+08,41.5938,1,2.47919,-1954.16,8018.49,-25603.8
1.22747e+08,10.3408,0,2.48487,440.809,2006.37,-27996.7
1.23077e+08,3.03853,1,2.73198,548.445,-139.749,-28605.6
0,3.0159,1,2.82959,0,0,0
0,2.51426,0,2.87163,0,0,0
1.23208e+08,80.193,2,2.95722,-15012.1,-7126.25,-25840.6
1.23333e+08,43.0821,0,2.82679,3062.38,-5560.91,-22340.4
1.23438e+08,102.995,0,2.92391,7370.38,20105.1,-25443
1.23653e+08,63.6036,0,2.90057,5269.2,11351.5,-24022.5
1.23778e+08,268.998,0,3.01157,-2330.16,-685.358,-24752
1.23932e+08,27.2905,0,2.61203,4299.73,-3601.69,-27175
1.24308e+08,31.4347,2,2.82659,153.45,-3574.68,-23207.5
1.24313e+08,20.4802,2,2.36509,169.161,3803.77,-26827
1.24322e+08,41.5718,2,2.48262,2049.98,6208.83,-23013.1
1.24654e+08,30.8348,1,2.59424,-3492.97,3579.14,-24555.8
1.24746e+08,41.5098,0,2.43132,-1877.24,8173.79,-26238.9
1.24874e+08,11.9174,1,3.00387,1251.17,1645.47,-27352.2
1.24893e+08,44.4669,0,2.41843,-6716.85,5235.09,-24925.1
1.25056e+08,13.3853,0,2.42918,1987.89,2149.55,-28937.6
1.25092e+08,80.9449,0,2.40076,-13422.2,302.722,-18278.7
1.25355e+08,5.0088,2,2.50158,-1023.31,-292.26,-28407.3
1.25369e+08,146.579,0,2.43844,27054.8,-10741,-17925.3
1.2581e+08,4.90047,2,2.56701,575.015,-453.154,-28068.3
1.25906e+08,14.4837,0,2.92714,-1137.99,2207.01,-27070.7
1.26732e+08,76.5437,1,2.81928,-14335.6,2917.73,-22027.6
1.268e+08,57.235,1,2.92803,-10192,-1802.98,-22684.9
1.26926e+08,173.212,0,2.82279,-17564.4,-14528.8,-447.645
1.27084e+08,5.99152,0,2.38256,1371.04,56.9886,-28985.6
1.27226e+08,42.6459,0,2.84445,6884.84,-1947.18,-23319.5
1.27733e+08,13.133,0,3.03543,195.99,1376.64,-26425.7
1.27933e+08,98.7775,0,2.72591,5730.99,15802.5,-16488.7
1.28008e+08,97.3187,1,2.43551,6021.84,19646.5,-26554.2
1.2802e+08,167.301,2,2.81085,-10158.1,-20980,-2395.87
1.28081e+08,16.412,0,2.62719,-2654.24,1881.15,-27800.1
1.28106e+08,17.7323,1,2.86543,-432.564,-2056.3,-25782.7
1.2887e+08,66.7436,0,2.93486,973.02,6130.38,-16251
1.29392e+08,31.8362,2,2.82161,-3678.1,-5228.88,-26590.2
1.29924e+08,63.6886,2,2.44691,1521.98,-12850.7,-24790
1.30031e+08,135.686,2,2.94951,-9504.3,12352.8,-5016.39
1.30095e+08,68.8898,0,2.58956,10265.8,6465.03,-20656.1
1.30166e+08,47.7857,1,2.8537,-6865.96,-4631.15,-23099.1
1.3052e+08,106.203,2,2.59763,-5876.44,-19581.4,-19420.7
1.31215e+08,58.7326,1,2.98017,-22.2002,-5387.73,-17770.1
1.31293e+08,306.017,2,2.43784,25225.3,18945.6,27653.9
1.31381e+08,41.0807,2,2.55045,-5492.39,2257.67,-22714.5
1.31416e+08,1.36947,0,2.93372,103.721,241.575,-28627.8
1.3152e+08,54.8947,2,2.92418,-3.09809,-5260.39,-18528.6
1.31763e+08,1.87909,0,2.41933,431.671,194.15,-28810.3
1.31871e+08,44.9874,1,2.90341,-702.456,-2884.18,-28411.7
1.32313e+08,80.0127,0,2.44875,4580.09,-4807.71,-13223
1.32725e+08,283.648,2,2.90838,-26324.7,-13216.2,21792.5
1.32742e+08,190.886,2,2.98592,-7836.79,21991.9,-17882.9
1.32743e+08,269.085,0,2.57253,1306.25,18611.2,22721
1.33053e+08,4.94251,2,2.67718,357.662,858.162,-28486
1.3325e+08,8.36388,0,2.74151,-935.258,1373.64,-28301.6
1.34069e+08,107.363,2,2.409,10996.8,-15022.5,-28263.7
1.3409e+08,74.8647,0,2.71861,-502.19,-9134.9,-15958.2
1.34111e+08,9.8586,2,2.91402,-1829.2,-897.763,-28091.5
1.342e+08,17.269,0,2.842,-46.8693,-2792.3,-29732.6
1.34209e+08,9.88497,0,2.98068,636.794,-194.433,-26831
1.34212e+08,76.1367,2,2.75542,5954.86,5600.41,-15099.5
1.34372e+08,101.142,1,2.84752,2409.22,-2650.49,-11269.5
1.34465e+08,46.0111,0,2.77644,-4881.36,1327.9,-20614
1.34672e+08,203.346,2,2.70118,29437.8,21187.9,-6152.67
1.34873e+08,50.9398,2,2.66044,-3175.84,-5050.63,-19821.6
1.34902e+08,91.1175,1,2.74491,2676.61,19062.2,-29971.4
1.34961e+08,28.9104,0,2.49408,4652.96,3935.32,-27677.1
1.35168e+08,46.2825,2,2.45227,-5498.28,4428.67,-22042.9
1.35252e+08,3.05055,2,2.83375,-95.7083,-670.663,-29153.8
0,3.05792,2,2.97541,0,0,0
1.35253e+08,23.9745,0,3.02494,4787.71,-1341.08,-27706.7
1.3534e+08,68.1106,1,2.5464,724.718,-713.906,-27916.7
1.35405e+08,18.5017,1,3.0219,3218.05,1032.25,-26947.7
1.35501e+08,33.9886,1,2.61174,-1028.08,-3265.95,-22540.1
1.35508e+08,131.853,1,2.52566,-24171.1,95.3456,-14870.9
1.35601e+08,139.793,0,2.73111,-8135.6,26724.8,-19502.7
1.35727e+08,106.848,1,2.6156,16850.7,14898.2,-26645
1.36119e+08,11.6702,0,3.03415,1767.51,-811.696,-29130.6
1.36208e+08,15.9064,2,2.4592,-340.308,-2200.93,-26234
1.36384e+08,140.876,1,2.39494,20614.9,-13871,-12445.6
1.36419e+08,166.007,1,3.02055,-13591.8,-9783.86,1636.51
1.36789e+08,24.2973,0,2.45425,-1881.59,2263.41,-24657.2
1.36796e+08,125.311,2,2.87943,-20974.7,-12114.8,-18324.4
1.36978e+08,76.1463,2,2.79078,11601.8,-6251.05,-19695.6
1.37066e+08,137.807,2,2.59603,-7954.73,-18979.1,-8159.54
1.37752e+08,95.2826,0,2.91408,17035.3,-4040.41,-18982.6
1.38173e+08,4.13969,1,2.5199,-526.516,782.012,-28637.9
0,4.60791,2,2.7589,0,0,0
1.38622e+08,94.0244,2,2.73054,517.034,19514.3,-25965.6
1.39018e+08,65.333,1,2.68093,-6303.03,-10379.6,-22388.1
1.39105e+08,92.6261,1,2.64362,-13585.7,13247,-23748
1.39227e+08,37.2165,2,2.61578,-785.453,-7927.94,-29171.1
1.39707e+08,6.70333,0,2.89318,-870.613,203.645,-27771.7
1.39836e+08,91.3477,2,2.61286,-2459.24,-16564.6,-19135.6
1.39864e+08,93.5813,2,2.80568,-7569.06,-12869.9,-15879.4
1.40164e+08,129.448,0,2.96064,12064.3,-24154.2,-25386
1.40406e+08,50.9258,1,2.47115,7936.03,-3985.29,-22787.7
1.40432e+08,16.1241,2,2.46043,701.379,2737.68,-26986.2
1.40443e+08,79.273,2,2.77806,11690.1,6669.12,-19024.8
1.4064e+08,102.458,0,2.7426,18664.2,-8407.13,-21725.3
1.40859e+08,32.4631,0,2.57963,-3361.61,3488.75,-24036.7
1.41236e+08,32.2819,1,2.45663,-2634.52,-1257.95,-22647.2
1.4158e+08,104.362,1,3.02413,20484.9,851.757,-21350.9
1.41778e+08,2.4472,2,2.83107,-482.555,-340.533,-28734.5
1.41983e+08,130.055,0,2.5136,18781.9,8230.56,-10414
1.42033e+08,36.7131,1,2.81718,4609.36,-2641.45,-23301.8
1.42105e+08,31.4487,0,2.48039,5579.77,2990.53,-26507.8
1.42507e+08,46.4018,1,2.59282,-2001.53,-5880.92,-21270.6
1.42523e+08,71.5762,2,2.7689,2839.91,-9580.62,-27939.9
1.42525e+08,143.617,2,2.78263,24854.1,11457,-16101.3
1.42728e+08,18.1789,0,3.02952,1979.06,1636.43,-25929.5
1.42801e+08,12.1509,1,2.41132,129.966,993.48,-26449.5
1.42979e+08,75.7647,0,2.77161,8479.07,6850.33,-17131.4
1.43459e+08,160.39,1,2.7236,7987.56,2058.61,-24471.6
1.43927e+08,61.7787,1,2.55731,-11869,-1142.79,-23411.6
1.44234e+08,21.4645,1,2.60652,3741.18,-472.884,-26339.8
1.4426e+08,218.068,2,2.81418,995.823,-21625.1,11616.7
1.44366e+08,0.00325789,2,2.36915,-38.6347,-103.063,-28827.1
0,0.00259866,2,2.8792,0,0,0
0,0.00392016,2,2.5439,0,0,0
0,0.00373762,2,2.12805,0,0,0
0,0.00247196,2,2.83828,0,0,0
0,0.00257135,2,3.02011,0,0,0
0,0.00282733,2,3.87351,0,0,0
0,0.00240462,2,2.97418,0,0,0
0,0.00212063,2,2.79075,0,0,0
0,0.00242544,2,2.32082,0,0,0
0,0.0030706,2,3.08327,0,0,0
0,0.00277219,2,2.36472,0,0,0
0,0.00265474,2,2.77285,0,0,0
0,0.00337061,2,2.88735,0,0,0
0,0.00304217,2,2.15399,0,0,0
0,0.00287843,2,2.0836,0,0,0
0,0.00251154,2,3.06728,0,0,0
0,0.00256646,2,2.98777,0,0,0
0,0.00262032,2,2.98777,0,0,0
0,0.00356258,2,3.02697,0,0,0
0,0.0888142,2,3.02697,0,0,0
0,0.00391803,2,4.1209,0,0,0
0,0.00219157,2,2.51895,0,0,0
0,0.0834845,2,2.51895,0,0,0
0,0.00264408,2,2.25621,0,0,0
0,0.0034775,2,2.26021,0,0,0
0,0.00400796,2,3.9241,0,0,0
0,0.00451117,2,4.09117,0,0,0
0,0.151371,2,4.09117,0,0,0
0,0.00493518,2,2.44942,0,0,0
0,0.00444344,2,2.29374,0,0,0
0,0.00419299,2,2.91057,0,0,0
0,0.00439448,2,3.70238,0,0,0
0,0.0044676,2,3.70238,0,0,0
1.44399e+08,2.88488,0,2.36225,-118.341,579.661,-28733
1.44592e+08,13.431,0,3.02203,222.195,-1463.56,-26435.2
1.44746e+08,230.038,2,2.89333,-21356.7,16974.5,-9109.5
1.4489e+08,46.835,0,2.60335,2805.21,3331.47,-19917.6
1.45042e+08,88.9843,2,2.92886,-7723.36,-5498.99,-12689.3
1.45081e+08,41.9467,0,2.7131,6327.62,3819.51,-23829.7
1.45086e+08,30.5745,1,2.36355,-2968.48,4283.05,-25088.5
1.45127e+08,29.4744,2,2.98634,-1825.51,-6027.16,-28906.5
1.45501e+08,201.254,1,2.36545,-29059.5,-8348.77,1207.53
1.46272e+08,51.3583,2,2.40572,4967.9,-6074.86,-21274.1
1.46887e+08,62.9032,0,2.66139,7351.33,9265.69,-22655.4
1.47085e+08,48.0603,0,2.50235,6691.79,-5560.2,-24580.5
1.48052e+08,133.119,2,2.93539,11591.9,-22125.5,-16220.5
1.48273e+08,28.7287,1,3.02107,-3703.15,3531.49,-25489.1
1.4836e+08,21.599,1,2.60656,-2409.13,3972.17,-29423.9
1.48483e+08,103.843,1,2.97975,-2865.48,11943.4,-10787.6
1.48655e+08,183.575,1,2.56766,-13449.8,12444.5,-5232.5
1.48714e+08,11.1234,1,2.41718,-1822.4,-353.997,-27329.2
1.48822e+08,57.4466,2,2.93039,-6938.16,-4871.85,-20163.6
1.49183e+08,162.562,0,2.41716,2447.56,1677.36,-16806.5
1.49264e+08,49.2878,2,2.92505,8527.06,-3531.97,-24168.1
1.49321e+08,45.606,0,2.9667,2978.72,-9117.18,-28752.2
1.49382e+08,100.167,1,2.5642,-11812.7,16575,-22647.9
1.49623e+08,20.7556,0,2.77822,4304.32,1142.09,-28295.6
1.49666e+08,182.04,0,3.03082,-12092.8,20116.8,1187.33
1.49851e+08,50.7352,1,2.72749,7908.89,7242.73,-29029.2
1.49931e+08,29.9447,1,2.70324,-107.505,6255.97,-27444.5
1.50062e+08,266.243,1,2.72428,-29204.3,28855.2,9477.05
1.50225e+08,99.1911,0,2.52463,16814.1,-10612.7,-25099.9
1.50513e+08,15.7802,0,3.03765,748.875,1880.92,-26162.8
1.50594e+08,107.158,0,2.53387,10008,-1081,-8485.27
1.50655e+08,12.2366,0,3.04293,1868.72,-1873.31,-29011.9
1.50903e+08,264.222,1,2.92323,2533.33,24047.3,21047.3
1.50945e+08,169.723,1,2.88968,-20450.8,-13291.2,-2820.35
1.51195e+08,11.1819,1,2.36643,-108.393,2344.66,-29541.9
0,11.1786,1,2.61925,0,0,0
1.51269e+08,36.4346,0,2.82228,6819.34,1139.16,-25324.2
1.51429e+08,1.50032,1,2.62382,66.8624,398.947,-28762.9
1.51548e+08,8.43683,2,2.74134,-631.638,-1687.68,-28281.7
1.51706e+08,21.0272,2,2.44877,-2183.95,-119.276,-24918.1
1.51738e+08,81.6616,1,2.51875,8455.5,-6612.2,-15355.1
1.51916e+08,1.13925,1,2.50813,-76.531,-47.1194,-28590.8
0,1.17067,1,2.43836,0,0,0
0,1.14627,1,2.58989,0,0,0
1.5203e+08,115.953,0,2.69914,14487.1,11137.3,-12514.4
1.52151e+08,146.131,2,2.45622,-8981.36,-19426,-6448.94
1.52254e+08,6.64342,1,2.66093,-1450.33,348.299,-28855
1.52276e+08,43.8347,0,2.74784,-1063.94,4179.02,-20661.1
1.52777e+08,73.8604,0,2.90863,14676.6,1719.85,-23812.8
1.52977e+08,74.9176,2,2.53152,-4311.97,14959.2,-26142.8
1.53045e+08,147.182,1,3.02454,-2846.35,-16400.9,-2897.14
1.53126e+08,57.853,0,2.38574,5396.8,10731.7,-26241.2
1.53566e+08,4.29997,2,2.8545,-461.241,-449.733,-28096
1.5387e+08,157.7,1,2.5873,-28283.5,16878.9,-23496.2
1.54044e+08,116.165,0,3.04753,17271.5,181.952,-11598.3
1.54063e+08,223.284,0,2.79826,21580.7,1241.68,12917.6
1.55121e+08,7.148,2,2.56502,-521.437,-1071.56,-27776.9
1.55126e+08,77.0079,1,2.5702,7309.17,14599.2,-28358.3
1.55144e+08,73.5896,1,2.88254,-8608.45,5022.31,-16935.7
1.55185e+08,45.6575,2,2.59289,-4571.25,-8619.94,-29098.8
1.55288e+08,32.4227,2,2.42808,-3823.97,-1704.49,-23331.6
1.55351e+08,2.8025,2,2.42991,-182.463,-95.295,-28240.6
0,2.77975,2,2.90093,0,0,0
1.5594e+08,81.7584,2,2.68672,-7912.93,-9600.98,-16795.4
1.55955e+08,173.053,1,2.65138,-22293.1,22831.6,-10944.6
1.55992e+08,15.9535,0,2.98958,2416.56,-2259.45,-29760.6
1.56036e+08,41.821,2,2.93699,2294.69,5183.19,-22194
1.56233e+08,41.0232,0,2.5897,6632.26,5610.55,-27872.1
1.56461e+08,88.0562,2,2.73472,4042.51,-6564.75,-11951.5
1.56614e+08,160.285,2,2.54545,20412.3,-26186.1,-21831.2
1.56924e+08,130.098,0,2.93137,-25130.4,-5432.56,-25913.4
1.56938e+08,117.934,1,2.75614,10440.2,-3136.5,-6555.62
1.57062e+08,115.836,2,2.85345,20698.1,-3747.67,-16585.9
1.57385e+08,48.6749,2,2.54022,-8710.68,-4700.82,-25711.4
1.58247e+08,115.702,1,2.63672,-16981.5,4037.83,-11676.2
1.58657e+08,155.597,0,2.80143,-23055.6,8532.41,-7282.67
1.58681e+08,15.993,0,2.40644,-56.2701,-3421.08,-28808.4
1.58906e+08,142.052,0,2.61997,19586,20508.4,-20570.9
1.59042e+08,16.3328,1,2.55467,-2677.58,-1205.65,-26943.8
1.591e+08,16.9975,1,2.50541,-3353.36,-1295.8,-28367.9
1.59292e+08,93.6633,1,2.43341,4235.19,19119.9,-25277.2
1.593e+08,27.6737,2,2.88023,-3007.28,-4868.4,-27452.5
1.59796e+08,40.1728,2,2.50855,-8503.03,-175.529,-29626.6
1.59999e+08,58.3112,2,2.50818,-10802.8,-4564.28,-24819.1
1.60122e+08,128.123,0,2.66305,25580.3,6293.47,-22428.5
1.60132e+08,22.3797,2,2.92579,-2903.19,-3387.27,-27060.7
1.60308e+08,15.7165,2,2.77964,-3202.83,-25.1734,-27858.2
1.60421e+08,22.3154,2,2.44988,3933.96,298.297,-26285.5
1.60462e+08,45.3266,1,2.75467,-2278.71,-8754.01,-25891.8
1.60543e+08,84.3024,1,2.49118,14290.6,-7865.39,-21790.4
1.60562e+08,45.0821,1,2.97464,-8875.94,3525.03,-28980.3
1.60885e+08,64.5478,2,2.45493,-963.656,3695.43,-29838.8
1.6101e+08,35.8184,0,2.51184,1266.74,-7486.58,-28311.6
1.61407e+08,169.064,0,2.99234,24223.4,10635.4,-7027.98
1.6141e+08,58.326,1,2.56271,-5046.91,6640.41,-25936.8
1.61496e+08,48.0131,1,2.66735,-5551.78,3618.79,-21095.8
1.61609e+08,51.1204,2,2.89901,-4823.23,-203.108,-19223.6
1.62137e+08,9.9203,1,2.36392,891.361,-619.657,-27080.2
1.62617e+08,27.9599,0,2.79092,2174.11,-5473.99,-27972.6
1.62845e+08,146.659,2,2.38039,6645.39,-28432.3,-18101
1.6311e+08,7.79788,1,2.37978,-1646.25,-95.1396,-29215
1.6313e+08,2.72665,2,2.57158,-252.828,-644.612,-28785.1
1.63617e+08,75.3937,1,2.93322,250.305,15377.5,-24927.6
1.63618e+08,76.7888,0,2.54238,3407.68,11365,-17696.8
1.64159e+08,36.214,2,2.74108,-3514.4,2299.41,-22441.3
0,36.2761,0,2.53237,0,0,0
1.64341e+08,68.7109,0,2.91992,14272.9,-1108.11,-26306
1.64494e+08,136.083,1,2.80427,-21960.2,4521.26,-15947.1
1.64778e+08,66.634,2,2.7731,6826.23,-6061.16,-18165.7
1.64993e+08,14.3811,1,2.43865,879.491,1852.72,-26530.3
1.65267e+08,47.2993,1,2.89784,-3642.93,8035.64,-24073.7
1.65333e+08,54.2073,2,3.02919,-2194.98,-9045.57,-22203.4
1.65484e+08,65.4163,1,3.00816,6546.36,9261.08,-21049.7
1.65719e+08,4.17472,0,2.57529,323.098,635.403,-28230.9
1.65864e+08,46.2033,1,2.47146,-2137.73,-9261.3,-26734
1.65928e+08,121.162,0,2.64194,-16166.9,-8697.4,-14327.9
1.66064e+08,319.458,2,2.9575,-29157.3,-15225.3,18329.6
1.66271e+08,105.884,1,2.42973,12716.5,-16991.9,-21911.2
1.66321e+08,84.7907,2,2.80798,-9259.43,209.671,-13546.4
1.67059e+08,165.257,2,3.0113,-25268.6,-22551.9,-21207.8
1.6726e+08,140.345,2,2.41691,5226.5,-28977,-27622.7
1.6739e+08,94.5069,1,2.79144,-6760.15,-16562.1,-20269.6
1.67579e+08,0.418273,1,2.67392,-161.138,64.411,-28813.4
0,0.422343,1,2.97756,0,0,0
0,0.417012,1,2.46752,0,0,0
0,0.487506,1,3.05822,0,0,0
0,0.493805,1,2.37119,0,0,0
0,0.507578,1,2.75033,0,0,0
0,0.764759,2,2.72631,0,0,0
1.67686e+08,24.743,1,2.57392,-5015.84,-549.206,-27280.4
1.67964e+08,82.8429,0,3.00443,-3042.53,16859.9,-25973.2
1.67967e+08,58.5313,2,2.79995,-6056.55,-8377.47,-21981.5
1.67974e+08,55.9916,1,2.88728,6962.47,7896.62,-23499
1.6806e+08,12.9008,1,2.87374,2527.08,994.039,-28967.5
1.68143e+08,127.878,1,2.91771,22258.4,6197.18,-15154.3
1.6839e+08,9.42364,1,2.64575,-667.932,-32.9737,-26928.6
1.68587e+08,13.0827,0,2.64444,-2050.48,1302.68,-27585.7
1.68877e+08,54.377,1,2.71064,-4503.16,-9777.22,-29051.7
1.68962e+08,25.8486,1,2.88072,-703.181,2404.39,-29507.8
1.69412e+08,29.748,2,2.70658,-5963.71,2084.49,-29132.6
1.69502e+08,63.9467,1,2.40253,10007.7,8221.79,-24859.7
1.69576e+08,91.2734,0,2.73209,176.5,-4363.63,-29544.9
1.69729e+08,119.679,2,2.50217,13449.8,9672.52,-9743.12
1.69733e+08,26.2193,2,2.93145,-86.1166,884.583,-29933.6
1.69825e+08,64.5315,2,2.93674,-7333.13,10259.7,-23921.5
1.6995e+08,65.9964,0,2.44815,5613.4,12799.8,-29963.8
1.70007e+08,78.2789,2,2.39209,12157.7,-8815.15,-21755.2
1.70252e+08,43.9197,2,2.81129,-7122.41,-3230.01,-23804
1.7047e+08,1.47412,1,2.45961,-124.397,346.779,-28707.5
1.70496e+08,18.0241,0,2.73456,3461.66,-691.174,-27230.4
1.70575e+08,75.8843,2,2.95418,-13878.6,4188.58,-22134.1
1.70666e+08,115.912,2,2.44499,12421.1,-7874.88,-9220.64
1.70847e+08,98.8888,1,2.78435,1869.64,15278.2,-14733.7
1.71171e+08,81.1667,0,2.47923,13143.9,10631.8,-25353.4
1.71402e+08,23.3713,2,2.78692,473.956,-2154.27,-24399.5
1.71481e+08,9.42989,2,2.72602,-1905.06,-740.891,-29179.1
1.72352e+08,36.4379,0,2.67109,1159.71,-7426.83,-27072.9
1.726e+08,22.8369,0,2.80751,550.422,-4800.85,-29234.2
1.72684e+08,22.7483,0,2.94936,2495.35,-539.6,-24736.3
1.72756e+08,44.5476,2,3.01357,-2106.13,-3388.29,-20353.1
1.72822e+08,59.973,1,2.58283,5275.52,1715.15,-17435.5
1.73282e+08,22.593,1,2.83569,-3146,-2829.38,-26697.2
1.73859e+08,2.38133,2,2.83268,-233.466,245.05,-28453.7
0,2.3696,2,2.55801,0,0,0
1.73986e+08,17.2311,2,2.75491,-2352.69,-215.909,-26010.5
1.74031e+08,71.3002,1,2.65391,-4722.02,11820.8,-20707.3
1.74134e+08,67.1878,1,3.05047,5487.02,8571.98,-19072
1.74135e+08,86.5656,1,2.61816,14022,3184.27,-17562
1.74154e+08,13.497,1,2.96991,-1207.72,2216.99,-27361.9
1.74211e+08,68.7339,0,2.71452,4095.53,3669.18,-15396.1
1.74278e+08,3.40264,2,2.80956,-251.843,-201.474,-28143.1
0,3.37091,2,2.46341,0,0,0
1.74302e+08,30.713,0,2.70524,3594.97,-5055.19,-26777.1
1.74715e+08,39.8961,1,3.0052,4844.72,5142.89,-24267.4
1.74825e+08,35.0525,0,2.94378,3913.8,-5318.96,-25428.1
1.75339e+08,12.4304,1,2.3772,1640.64,443.673,-26805.3
1.75494e+08,30.354,2,2.76777,3285.97,-5237.28,-26971
1.75543e+08,18.106,0,2.37011,3573.96,-81.4042,-27187
1.76006e+08,47.4545,0,2.78102,8906.15,128.991,-24107.3
1.76009e+08,97.7197,1,2.68154,-8480.16,18760.2,-26664.3
1.76317e+08,133.965,1,2.52819,18515.5,-2970.63,-13425.4
1.7648e+08,162.842,0,2.97401,676.81,22208.5,-3198.92
1.77009e+08,18.1417,1,3.0489,-3377.86,1571.32,-27683.5
1.77029e+08,51.1545,0,2.52702,3485.36,-9262.08,-24332.6
1.7728e+08,21.5654,1,2.49813,-2679.73,316.75,-25099.8
1.77381e+08,92.1775,0,2.83562,5226.23,18629.5,-27150.7
1.77908e+08,9.4756,2,2.39783,-1983.79,-429.15,-29194.8
1.77977e+08,79.8243,2,2.70011,3434.53,-16243,-25565.8
1.78038e+08,29.7797,2,2.79899,783.001,3330.07,-23659.9
1.78169e+08,39.487,1,2.87336,-2573.63,6994.52,-24970
1.7848e+08,125.554,2,2.93116,-9371.39,-6167.18,-4970.03
1.78499e+08,59.6823,0,2.75802,12094.2,3753.19,-29423.2
1.78546e+08,185.917,0,2.51328,-28431.3,-8691.91,-3193.79
1.79438e+08,13.2653,1,2.73873,-2075.78,1542.25,-27539.6
1.79484e+08,92.568,2,2.99924,-9199.52,8432.93,-14014.9
1.79787e+08,204.158,2,2.57822,-21038.3,-19051.1,3670.08
1.79822e+08,73.5841,2,3.05821,-15439.4,-502.072,-29166.5
1.80277e+08,131.686,1,2.75249,-17534.2,-18179.3,-17468.3
1.80499e+08,34.0027,2,2.66636,-2319.19,-6915.83,-28846
1.80509e+08,104.172,0,2.39404,-11059.9,5513.25,-10644.7
1.80667e+08,18.4001,1,3.01455,1258.41,2469.87,-26094.9
1.80783e+08,54.0167,0,3.00406,7287.41,-411.487,-20085.2
1.81009e+08,23.0196,1,2.43779,-2637.52,4186.31,-28275.5
1.81198e+08,236.769,0,2.86344,19586.2,-18057.7,-6002.18
1.81253e+08,315.9,1,2.59621,19592.2,18565.5,12889.2
1.81539e+08,48.306,0,2.66184,3278.86,-8328.13,-23876.7
1.81575e+08,47.0331,2,2.90014,-5374.8,3125.47,-21127.1
1.81665e+08,52.6414,0,2.50592,7685.31,7628.95,-25915.9
1.81688e+08,118.498,1,2.40682,-15749.6,-8971.84,-11497.3
1.81733e+08,251.011,0,2.87842,29295.4,-18829.4,10810.9
1.81768e+08,23.1213,2,2.99651,-1963.39,-4438.09,-27828.1
1.81796e+08,60.8477,2,2.75562,-9030.91,5276.28,-21414.7
1.81833e+08,24.2217,2,2.64805,-760.835,-3762.17,-25393.7
1.81941e+08,82.9093,1,2.80975,-3608.12,6688.7,-13093.5
1.82034e+08,85.1471,0,2.50543,-9068.57,-386.716,-13309.2
1.82067e+08,107.699,2,2.38036,-12311.2,16576.2,-19191.1
1.82503e+08,46.7093,1,2.38189,-6105.03,7656.86,-26857.2
1.82574e+08,69.5185,0,2.8872,-4826.84,3138.08,-16974.9
1.82651e+08,122.087,2,2.584,14497.9,-13925.8,-12620.4
1.82669e+08,14.6299,0,2.68781,2328.78,2113.45,-28504.9
1.82685e+08,9.54426,0,2.62483,2009.64,-550.568,-29130.2
1.8295e+08,102.504,0,3.00397,7445.32,14890.7,-15219.2
1.82974e+08,200.318,1,2.38778,-29174.5,26803.5,-13524.8
1.83104e+08,57.7115,0,2.41248,10323.9,-2529.03,-22665.4
1.83258e+08,42.2681,2,2.43761,1024.91,8260.61,-25729.1
1.83497e+08,22.5171,1,2.45629,2427.62,4117.13,-28206.6
1.83804e+08,147.137,2,2.63408,-29204,-2488.77,-18592.6
1.83809e+08,25.0765,1,2.8451,4547.23,-1650.73,-26861.2
1.84126e+08,124.614,2,2.48639,-11813.1,-22989.5,-23741.2
1.84272e+08,69.272,0,2.41006,9772.76,10809.9,-26683.6
1.84706e+08,77.5482,1,2.53188,-3031.95,11597.6,-17538.6
1.84856e+08,148.906,1,2.97486,2708.63,19408,-4887.85
1.84996e+08,70.717,1,2.52501,-12912.1,5136.92,-23147.2
1.85223e+08,82.5988,2,2.82176,-13016,9118.15,-21764.4
1.85256e+08,31.2093,1,2.81766,4420.66,2730.66,-24784.4
1.85758e+08,7.8761,2,2.89156,1512.73,-711.338,-28707.8
0,7.82631,2,2.55639,0,0,0
1.86621e+08,25.5362,2,3.00067,-4087.65,-2461.68,-26225.2
0,25.331,2,2.56926,0,0,0
1.8669e+08,19.2282,0,2.36352,-295.157,-3142.95,-26226.8
1.8746e+08,41.5395,2,3.01871,7900.11,-3640.69,-29593.1
1.87634e+08,227.568,2,2.71633,-3250.75,27295.9,10414.7
1.87698e+08,26.4333,1,2.98113,3520.53,4336.81,-28884.8
1.87919e+08,32.6922,2,2.58692,-2749,-1408.03,-22615.4
1.8793e+08,106.348,1,2.76416,-10755.6,-1426.71,-9250.43
1.88076e+08,2.49292,1,3.01138,194.639,8.78477,-28369
1.88087e+08,116.233,0,2.53389,17132.8,3398.45,-11465.7
1.88106e+08,113.317,2,2.36293,-3764.19,-14318.3,-9890.91
1.88743e+08,15.8991,2,2.90238,-2594.65,-2005.58,-27849.9
1.89428e+08,104.06,1,2.66658,-12099.6,-6112.6,-11548.3
1.89693e+08,124.004,1,2.72068,3109.3,-25657.4,-26388.9
1.90018e+08,188.952,2,2.85159,12891,-21928.1,1711.65
1.90107e+08,49.8863,1,2.7271,6411.74,7636.46,-25812.5
1.90285e+08,47.5115,0,2.43476,8719.26,-2035.74,-24083.7
1.90667e+08,24.7821,1,2.64593,1358.81,2906.46,-24643.2
1.908e+08,138.694,0,2.94188,9854.36,-6208.18,-2152.5
1.91004e+08,111.282,0,3.03966,6309.09,6323.2,-7286.6
1.91015e+08,31.2551,1,2.80025,-5805.58,20.3397,-25639.3
1.91248e+08,7.49622,1,2.7415,-79.8038,-1215.87,-29590.7
1.91694e+08,65.2269,1,2.54145,-5011.02,12267.9,-24699.5
1.91701e+08,198.868,2,3.00034,10152.7,-15709.8,8247.89
1.91748e+08,45.0991,0,3.05829,-3667.65,-8212.35,-25979.7
1.92212e+08,127.231,2,2.49737,9679.02,6876.5,-4724.42
1.92488e+08,141.049,1,2.90847,896.513,23462.1,-10687.1
1.92688e+08,201.044,1,2.39548,-2494.22,18068,9628.98
1.9282e+08,1.4457,2,2.90112,-250.618,13.0157,-28611.8
0,1.35255,2,2.40004,0,0,0
0,1.35617,2,2.99696,0,0,0
1.92906e+08,135.482,0,2.69944,16529.8,-15434,-11319.3
1.93281e+08,9.11576,0,2.50457,984.745,-1612.28,-28189.7
1.93917e+08,31.2573,2,2.64085,-4921.03,-3317.56,-25820.6
1.93932e+08,8.12089,1,2.778,1251.07,447.553,-27737.3
1.94049e+08,35.9328,2,2.44826,2682.3,2178.98,-22081.5
1.9479e+08,217.07,2,2.46926,-18649.7,-8661.7,12233.5
1.94795e+08,90.7137,2,2.61277,1392.12,10850.3,-13157.7
1.94855e+08,82.2101,1,2.60643,11144.5,1517.09,-15612.3
1.94933e+08,163.514,1,2.41252,-25473,13430,-9540.63
1.95007e+08,91.1515,0,3.04601,15012.6,-11452.3,-25425.7
1.95156e+08,40.0497,0,2.88845,838.405,-3440.49,-21168.3
1.95243e+08,9.47035,1,2.70514,-187.635,1814.36,-29890.5
1.9535e+08,53.3487,0,2.55674,946.549,-7142.16,-20143.5
1.95377e+08,53.5049,0,2.75891,-202.188,8483.1,-21456.3
1.95416e+08,71.696,1,2.97843,1078.52,12313.4,-20151.5
1.96192e+08,127.609,2,2.45799,11259.2,9772.93,-6419.82
1.96451e+08,98.8128,0,2.86398,5484.24,-11876.4,-12655.6
1.96503e+08,7.1205,1,2.75554,-627.294,-11.6544,-27441.6
1.9672e+08,83.2787,0,2.47179,-5915.08,6785.54,-13726.3
1.9677e+08,117.258,0,3.05979,14105.8,19431.4,-23483.2
1.96964e+08,145.058,1,2.51968,-10373.4,-15116.3,-12493.3
1.9699e+08,61.963,0,2.51241,6455.93,-5035.19,-18544.7
1.97048e+08,122.33,2,2.80308,-5719.47,-24289.1,-22201.4
1.97076e+08,125.939,0,2.64507,-13004.4,-21987.5,-21650.6
1.97123e+08,33.4272,0,2.95712,1877.3,-6330.85,-26318.7
1.97225e+08,10.1723,2,2.46002,-996.079,-759.192,-27013.9
1.97287e+08,1.12937,0,2.96757,311.911,-4.5281,-28720.9
1.97764e+08,18.8583,1,2.62657,-1419.15,663.558,-25125.6
0,18.8397,1,2.39804,0,0,0
1.98034e+08,78.9417,2,2.59696,-2593.69,12461.8,-18161.9
1.98043e+08,115.327,2,2.75021,-14507.3,-10646.1,-12449.6
1.98108e+08,50.4815,1,2.7584,5331.84,8129.69,-24426.1
1.98315e+08,236.663,2,2.97139,13813.5,6839.98,440.818
1.98513e+08,120.777,1,2.76243,1807.36,-19364.9,-12523.8
1.98515e+08,130.811,2,2.86869,-24534.1,-3882.95,-16952.8
1.98592e+08,3.11435,1,2.42907,-192.228,695.438,-29064.2
1.98631e+08,72.9603,1,2.70511,-5943.55,5097.4,-15568.2
1.98707e+08,93.095,2,2.96329,16317.4,-10654.4,-27070.9
1.98806e+08,178.478,0,2.53597,18444.2,-16070.2,-91.1726
1.99117e+08,70.469,2,2.80352,-13077.3,-7090.5,-27580.6
1.99304e+08,23.6751,1,2.85275,-2091.11,3612.27,-25972.5
1.99676e+08,106.607,0,2.74192,-16330.6,15096.1,-26054.3
1.99808e+08,135.335,2,2.60527,-23737.4,-5591.09,-13809
1.99818e+08,38.827,2,2.85495,-6603.16,-3049.76,-24941.7
0,38.8745,2,2.66501,0,0,0
2.00066e+08,121.797,0,2.76418,14025.1,-16972.6,-15605.2
2.00233e+08,108.416,2,2.91796,10511.6,17561.3,-18996.3
2.00557e+08,47.5638,2,2.91253,-2256.17,4397.81,-20197.9
2.00654e+08,277.132,0,3.0302,26731.8,-22831.8,17384
2.00814e+08,97.7033,1,2.54169,-10510.1,10895.8,-22893.7
2.0105e+08,6.43721,1,2.71915,-180.378,305.146,-27483.2
2.01917e+08,44.3683,1,2.91342,3276.82,-5703.18,-22324.7
2.02041e+08,0.532043,1,2.21045,98.9148,31.6781,-28816.7
2.02043e+08,163.66,1,2.43185,-20530.4,17885.7,-7340.15
2.02271e+08,106.375,2,2.38648,1598.6,-11807,-9689.28
2.02319e+08,8.03011,2,2.78273,-312.577,1024.97,-27567.3
2.02563e+08,25.9824,0,2.6836,1195.74,5367.39,-29300.5
2.02849e+08,68.0433,1,2.60263,1600.96,14078.7,-25977.8
2.03024e+08,37.7266,2,2.37283,-3537.42,5311.76,-24030.5
2.03159e+08,26.4771,2,2.81763,269.184,-5650.93,-29189.9
2.03551e+08,23.7642,0,2.42903,-1704.48,-4716.86,-29023.4
0,23.7386,0,2.57707,0,0,0
2.03794e+08,36.2003,0,2.6317,-1637.51,-5314.78,-23583.6
2.04069e+08,39.1232,1,2.98328,286.863,7548.45,-25441.2
2.04077e+08,56.5548,2,2.67078,-5033.39,-9663.25,-23823.5
2.04114e+08,48.6699,1,2.4284,-1930.11,-4579.97,-19850.1
2.04237e+08,18.4856,0,2.40777,3587.7,1083.35,-27492.3
2.04386e+08,1.97896,2,2.37441,-213.42,-169.781,-28437.7
2.04416e+08,70.6776,1,2.53015,4269.71,-12871.4,-22686.7
2.04448e+08,11.4477,2,2.74318,-1819.32,-1516.06,-29682.6
2.04684e+08,8.25328,1,2.85251,-992.442,1566.98,-28713
2.0488e+08,12.9824,2,2.99223,383.748,-2626.39,-29813.2
0,12.8906,2,2.49631,0,0,0
2.04894e+08,103.745,0,2.92308,2603.82,-20147.5,-21000.1
2.0502e+08,86.4482,0,3.02189,-3463.65,11279.7,-15094.3
2.05109e+08,152.931,1,2.79152,-18319.4,25659.6,-21909.4
2.05278e+08,164.052,2,2.58919,-5732.96,26568.6,-22331.2
2.05494e+08,23.0412,1,2.53138,1266.08,2722.93,-24934.6
2.05901e+08,133.178,1,2.84216,-2760.12,9509.64,-19485.3
2.06021e+08,2.15361,0,2.63381,-152.59,395.852,-28801
2.06189e+08,46.7772,1,2.71812,-7779.9,4997.2,-25150.8
2.06329e+08,17.7429,1,2.79984,-3644.46,100.077,-29888.5
2.0639e+08,28.6357,0,2.9361,2536.8,-1742.35,-23615.5
2.06887e+08,32.674,0,2.6983,-974.481,-6496.7,-26808.6
2.07067e+08,4.80166,1,2.67996,-425.67,-142.143,-27891.7
2.07293e+08,11.7218,2,2.59744,-2401.06,-521.16,-28134.9
2.07316e+08,17.8372,2,2.79696,-2890.86,-977.138,-26527.5
2.07526e+08,25.149,1,2.62413,1246.26,-2468.73,-24336
2.07576e+08,29.3031,0,2.70166,6060.18,-161.887,-27183.4
2.08024e+08,16.6898,2,2.46709,-3423.32,-180.773,-27747
2.08115e+08,45.6684,2,2.782,7365.88,5876.08,-27200.8
2.08364e+08,69.9993,0,2.41678,13357.5,-6259.77,-26644.9
2.08704e+08,40.0289,1,2.4935,1083.8,-5156.49,-22254.8
2.08726e+08,70.1537,1,2.49507,-10388.9,-5446.33,-19785.2
2.09004e+08,14.6426,2,2.61243,-1543.26,-918.753,-26252.3
0,14.6675,2,2.91735,0,0,0
2.09521e+08,38.3182,2,2.82372,-3993.42,-6150.87,-25267.1
2.09562e+08,11.4412,2,2.97827,1413.75,-21.0936,-26886
2.09583e+08,63.4244,2,2.51498,4942.87,6185.43,-18044.4
2.09814e+08,93.0438,1,2.65812,-7323.7,17179.6,-22501.6
2.10079e+08,56.2934,1,2.61703,4421.44,9822.06,-23646.8
2.10094e+08,19.7984,0,2.81212,2951.67,1902.37,-26447.9
2.10176e+08,29.1708,0,2.86799,2510.91,-5605.88,-28018.1
2.1044e+08,66.9127,2,2.81535,3987.08,6827.17,-17232.4
2.10473e+08,35.2247,1,2.56965,4993.58,1695.41,-23598.1
2.10768e+08,95.7429,2,2.93345,-4480,-6305.27,-10256.5
2.11385e+08,43.2684,1,2.75562,7538.51,-1373.04,-23980.3
2.11466e+08,73.027,2,2.91024,-10172.2,-1051.71,-17337.2
2.11782e+08,68.1438,2,2.8398,1848.79,-9609.35,-18296.7
2.11862e+08,56.0853,2,2.75654,6085.48,-1194.81,-18789.1
2.11968e+08,5.93638,0,2.79353,-667.737,59.7853,-27795.3
2.11988e+08,209.872,0,2.95811,-6134.41,8185.73,-12106.5
2.12047e+08,22.8342,0,2.8146,2430.33,-839.247,-25253.7
2.12329e+08,179.201,0,2.80073,-21136.8,-15493.1,-1887.51
2.12996e+08,44.9826,0,2.65983,6763.16,-3577.48,-23080.2
2.13114e+08,15.0216,2,2.45757,1189.43,-1259.31,-26155.4
2.13194e+08,39.033,2,2.95256,-7957.18,1801.26,-27664.5
2.1374e+08,115.764,1,2.93271,-2464.78,12468.8,-8079.92
2.14403e+08,16.2055,2,2.59715,-1950.8,-2717.52,-27696.3
2.15236e+08,66.8043,0,2.41122,12095.7,-167.768,-21390.6
2.1544e+08,110.389,0,2.60569,-3976.47,700.002,-21810.9
2.1574e+08,155.277,2,2.55644,-19513.1,-26465.6,-28358.9
2.15896e+08,58.7743,1,2.94161,-4642.43,2855.47,-17724.9
2.15952e+08,28.0434,0,2.71624,760.7,-5164.74,-26006.7
2.15957e+08,99.6917,2,2.48831,18574.8,-2578.74,-19283.2
2.15961e+08,22.5336,2,2.8562,1771.32,-3844.42,-26600.7
2.16254e+08,113.239,0,2.73511,-9280.63,-16371.3,-14193.4
2.16761e+08,122.395,1,3.01933,22960.9,5671.8,-18978.9
2.16773e+08,51.3979,1,2.76582,1648.13,8962.59,-22923.5
2.16778e+08,182.148,0,2.50955,-27872.4,24640.7,-19059.4
2.1686e+08,70.5939,1,2.50818,-5480.34,2635.8,-15159.5
2.16921e+08,53.051,1,2.53384,-9567.38,3815.5,-24179.2
2.17011e+08,43.9552,2,2.91338,868.528,-4929.69,-22825.7
2.17992e+08,22.8954,2,2.41796,1851.43,-3195.13,-25623.7
2.17994e+08,144.057,0,2.89051,-14440.8,21592.9,-13344.5
2.18031e+08,59.4334,0,2.86779,8751.2,-896.894,-19864.5
2.18042e+08,9.72245,2,2.58198,-1904.24,894.936,-28854.6
2.1808e+08,65.271,0,2.91929,-124.82,-11127.2,-20804
2.18167e+08,21.0481,2,2.65197,-2865.6,-173.7,-25373.5
2.18373e+08,5.32293,0,2.44209,550.522,-1038.49,-28649.6
2.18476e+08,57.7786,1,2.62383,-2059.55,7407.9,-24629
2.18554e+08,11.2361,1,2.94617,-2351.2,620.951,-28557.1
2.19657e+08,104.196,2,2.3727,-18566.6,-3491.33,-17334.2
2.20322e+08,62.3967,0,2.45577,4313.99,-10235.9,-21685.2
2.20372e+08,42.9704,1,2.60744,-6518.17,3989.79,-23825.9
2.20453e+08,98.8654,1,2.90364,-18200.2,-9979.57,-27850.6
2.20476e+08,2.87408,1,2.91789,-149.502,370.089,-28299.2
2.20634e+08,267.012,1,2.39416,18987.9,17867.9,21286
2.20748e+08,81.0568,2,2.84746,-972.152,-17105.9,-28880.6
2.20768e+08,33.3475,2,2.40875,-6109.43,-3700.74,-29179.5
2.20984e+08,17.2414,1,2.36407,-3243.93,108.323,-27064.1
2.21125e+08,233.106,0,2.89926,29384.2,15571.4,-794.555
2.21139e+08,8.31368,2,2.66058,1110.28,-1090.59,-29758.7
2.21325e+08,234.645,2,2.66023,-16875.7,14839.2,12752.1
2.2136e+08,25.7792,1,3.03639,-5321.65,-831.755,-27897
2.21505e+08,14.9121,1,2.76855,-1482.41,1279.3,-26288.4
2.21659e+08,125.931,1,2.56695,25100.4,-1766.47,-20279.5
2.21705e+08,36.241,1,2.82682,-5685.97,-3575.22,-25172.8
2.21755e+08,43.7136,2,2.57113,-2608.1,7228.53,-23741.4
2.21779e+08,26.3509,2,3.02018,-2511.73,-3328.47,-25105.6
2.22e+08,11.2038,2,3.05164,1727.91,-1275.81,-29900.3
2.22359e+08,198.63,2,2.46144,-3865.14,16321.8,-9657.56
2.23233e+08,112.382,2,2.52184,17672.2,-2338.47,-13144.7
2.23918e+08,165.816,0,2.41507,1374.03,-2542.8,-29629
2.24276e+08,2.92789,1,2.90594,543.963,290.653,-28693.9
2.24301e+08,28.1546,1,2.67679,-739.927,4957.77,-25520
2.24385e+08,70.3383,1,2.93885,13605.4,-1645.33,-23466.2
2.24581e+08,221.948,2,3.01716,27638.5,-14708.5,5560.52
2.24717e+08,98.5594,1,2.88845,-7226.82,16588.5,-18593.1
2.24871e+08,163.487,2,3.05183,-16461.6,-16219.4,-3488.11
2.25046e+08,43.9565,0,2.56181,6246.48,-6157.75,-25515
2.2536e+08,123.884,2,2.39958,-24992.7,2315.98,-21060.7
2.25612e+08,157.955,2,2.93433,-14761.6,-9859.82,-804.116
2.25687e+08,136.236,2,2.61474,-5177.37,-10023.2,-6359.67
2.26529e+08,132.818,0,2.76026,21860.5,-1602.44,-11410.9
2.26851e+08,21.5722,2,2.77304,-2207.63,-2515.99,-25648.2
2.27233e+08,38.2268,2,2.51146,6005.06,5160.63,-27523.2
2.27299e+08,184.731,0,2.85401,-25650.7,-27290.5,-18730.8
2.27351e+08,77.1207,0,3.03599,10635.2,-8099.42,-25536.4
2.27854e+08,3.98234,2,2.81047,-859.116,-396.776,-28920.1
2.27891e+08,157.682,0,2.43224,-26617.4,-14009.9,-14581.8
2.28003e+08,7.37577,1,2.61544,-1043.33,1310.9,-28888.8
2.28022e+08,66.3997,1,2.72164,-6652.94,1145.72,-23208.5
2.28194e+08,77.0686,2,2.88362,-15969.4,1153.58,-26038.5
2.28269e+08,31.3741,2,2.87912,-5166.1,3577.13,-26758.5
2.28289e+08,90.6571,2,2.61513,-6954.23,-10249.5,-14157.8
2.28829e+08,69.9266,1,2.81866,-3746.73,12234.3,-21396
2.28933e+08,42.8725,0,2.61939,2285.58,-5915.78,-22348.8
2.29165e+08,49.5275,0,2.67454,118.764,8817.79,-23180.3
2.29187e+08,142.916,0,2.46058,-17526,9856.29,-6327.71
2.29704e+08,171.298,1,2.7049,-25042.7,-15371.2,-8842.8
2.29773e+08,93.989,0,3.05285,11679.5,7339.37,-14716.2
2.29861e+08,59.3195,2,2.6294,-5636.94,5119.96,-18901.7
2.29895e+08,84.4124,0,2.67672,6793.78,-12196.3,-17704.5
2.30193e+08,51.7691,0,2.39061,-7033.61,-4954.31,-22091.2
2.30208e+08,105.532,2,2.43933,11833.1,-8465.83,-11932.2
2.30326e+08,63.0766,1,2.38996,-13420.7,-230.767,-28682.4
2.3058e+08,18.7039,1,3.03341,-2219.32,2744.85,-26927.9
2.3076e+08,36.5619,2,2.91,-3559.1,-4179.61,-23393.9
2.30946e+08,98.6489,0,2.97292,2822.03,19654.7,-22947.5
2.31191e+08,74.9921,2,2.36702,-9068.17,-13140.8,-28009.7
2.31252e+08,189.987,2,2.6418,-18188.2,-19185.9,1382.32
2.31513e+08,34.7583,1,2.99457,6473.15,3080.04,-27414.6
2.31584e+08,181.12,0,2.82166,22327.1,17995.9,-8843.47
2.31596e+08,65.5596,2,2.38727,11720.7,-7190.5,-26737.2
2.31829e+08,134.689,0,2.92716,-5341.57,26679.3,-21151.2
2.31861e+08,121.637,0,2.88679,-8258.24,-8109.43,-6070.07
2.31953e+08,47.6309,0,2.81953,-8411.01,-2345.47,-26805.9
2.32311e+08,2.33058,0,2.84653,136.723,-116.753,-28340.5
0,2.39273,0,2.9858,0,0,0
2.32444e+08,34.7011,0,2.56588,-848.849,-3062.6,-22209.9
2.32499e+08,106.403,2,3.03723,2470.1,-19879.2,-18878.2
2.32552e+08,21.7924,2,2.80314,-1151.36,-2426.14,-25043.7
2.33143e+08,154.722,0,2.64121,1501.56,23995.7,-6713.25
2.33539e+08,68.1331,2,3.06102,-3691.23,12235,-22549.6
2.33797e+08,81.1187,2,2.54006,-9103.58,-5349.78,-15257.5
2.33956e+08,13.3362,2,2.88874,304.882,1850.44,-26795.5
2.34226e+08,104.422,0,2.9686,12931.3,-8466.47,-13275.1
2.34231e+08,56.7796,0,2.45641,-1958.38,6855.79,-19152.3
2.34252e+08,18.7458,2,2.92438,-1575.16,-214.943,-25186
2.34317e+08,105.715,0,2.82755,21272.7,2393.97,-22518.6
2.34339e+08,44.3012,2,2.63746,-7583.17,898.621,-23346.3
2.34382e+08,117.103,1,3.00305,-8311.89,14173.3,-10508.1
2.34446e+08,15.0701,0,2.47138,2862,1287.08,-27915.6
2.34554e+08,9.35329,1,2.54708,798.283,75.3263,-27043.4
2.35036e+08,37.2663,2,2.49908,4217.38,-6251.1,-26325.3
2.3509e+08,204.228,2,2.92873,-15380.5,-16636.9,3370.27
2.35104e+08,38.5949,2,2.85911,-1010.94,-8107.05,-27933.1
2.35302e+08,59.0655,0,2.61254,8551.22,7600.22,-23665
2.35598e+08,107.356,1,2.83012,-4074.45,20353.1,-19730.8
2.35898e+08,64.1797,0,2.93431,-5797.09,3172.24,-17110.4
2.3635e+08,159.589,1,2.93345,-6178.6,19604.2,-6296.13
2.36543e+08,185.441,1,2.68156,-29331.3,-17924,-10223.1
2.36889e+08,57.9544,2,2.67671,-8094.08,373.67,-19639.4
2.36994e+08,271.134,1,2.90273,-15282.8,3733.34,-20502.9
2.37137e+08,34.1355,2,2.87652,-4197.87,-4654.19,-25175.5
2.37237e+08,10.8374,0,2.49957,482.369,1580.1,-27189.8
2.37441e+08,273.644,0,2.8449,5382.17,-2168.24,-23598.9
2.37539e+08,53.945,1,2.78353,-3481.91,5869.43,-19675.8
0,53.7248,1,2.49366,0,0,0
2.37568e+08,120.441,0,2.69063,20951.2,-11289.9,-19748.5
2.37724e+08,191.085,0,2.65528,16433.1,6063.63,7497.31
2.3816e+08,84.6625,0,2.90543,3440.5,-16766.2,-23853.5
2.38279e+08,15.7306,1,2.44974,3183.56,817.113,-28380.3
2.38326e+08,247.228,0,2.86584,15515.2,16683.3,17870.5
2.38685e+08,81.0226,1,2.51559,5849.92,-8451.31,-15188.3
2.38937e+08,61.4261,1,2.75912,1946.56,10764.4,-21810
2.391e+08,219.947,2,2.9115,-15860.1,15006.7,11857
2.39229e+08,45.988,0,2.55778,6259.59,7013.09,-26086.9
2.39381e+08,92.776,2,2.89961,-12233.9,-14916.2,-26175
2.39472e+08,81.5977,1,2.96749,15116.2,6422.68,-24062.3
2.39486e+08,7.3278,2,2.87007,-1216.77,-855.356,-28163.8
2.3963e+08,10.9203,2,2.58555,824.467,1321.99,-27180.4
2.39662e+08,63.3016,1,2.67532,8563.67,3167.4,-19072.1
2.39668e+08,22.3488,1,2.80858,-4269.4,2063.83,-29607.7
2.4036e+08,52.4089,1,3.00645,-9489.71,-1428.89,-23376.4
2.40478e+08,162.87,2,2.94243,8134.43,-12150.8,-10372.9
2.40548e+08,152.08,0,2.50321,19706,23105.2,-18037.3
2.41256e+08,53.7202,0,2.67643,2524.5,6865.34,-20129.5
2.41258e+08,20.6738,2,2.77902,-4398.95,-626.873,-28896.5
2.41291e+08,55.2037,1,2.37036,-2859.55,-11260.4,-27999.8
2.41611e+08,40.9671,1,3.01884,-4728.23,6838.85,-26344.9
2.41634e+08,115.294,1,2.91995,-17702.4,7316,-13929.9
2.41685e+08,96.3475,0,2.81076,-11016.3,-8561.64,-14200.5
2.42062e+08,143.401,1,2.81481,26526.3,-12227.3,-21476.2
2.42088e+08,116.31,2,2.47943,15898.4,-8003.27,-11834
2.42285e+08,6.67789,2,2.66697,-903.741,127.788,-27717.3
0,6.659,2,2.84412,0,0,0
2.42304e+08,6.83786,0,3.01949,1270.45,371.677,-28071.1
2.42314e+08,167.128,2,2.45022,10801.5,23630,-4961.64
2.42413e+08,267.758,1,2.99362,-4415.19,29359.2,18797.1
2.42483e+08,119.104,1,2.47826,-3302.1,22535.5,-17881.4
2.42511e+08,31.6611,2,2.4208,-2502.28,-2369.67,-23025.3
2.42627e+08,45.8666,1,3.02906,-5676.18,5946.06,-23686.4
2.43061e+08,160.852,1,2.4593,17909.2,18939.9,-6914.69
2.43374e+08,90.9685,2,2.62604,-3285.1,-15159.7,-17434.8
2.43966e+08,16.8968,2,2.64696,-1091.51,-3046.8,-27166.4
2.44303e+08,21.9938,0,2.94206,-3424.27,-1892.55,-26434.9
2.44724e+08,84.1175,1,2.6238,6325.14,11831.5,-17179.8
2.44889e+08,120.423,1,3.03324,23914.8,7218.4,-26670.4
2.45075e+08,113.578,2,2.91305,-13156.8,3189.37,-10812.6
2.45106e+08,204.393,1,2.62702,-23145.4,642.507,7594.04
2.45116e+08,80.0434,0,2.98157,8386.93,-2064.66,-14407.4
2.45297e+08,105.007,2,3.06099,-7988.46,15845.2,-15892.1
2.45732e+08,9.12891,1,2.97492,-1649.29,304.817,-27767.8
2.45874e+08,21.9509,2,2.63592,3867.15,-1247.18,-26609.3
2.4726e+08,96.9806,1,2.88023,11912.8,3334.62,-12660.3
2.47656e+08,56.2254,0,2.82899,11350.2,1396.6,-25451.6
2.47682e+08,85.3661,1,2.80519,2138.94,17863.9,-27298.3
2.47774e+08,121.076,1,2.6013,15946.8,-6631.66,-10048
2.47775e+08,70.2578,0,2.85723,7710.63,10850.3,-22317.2
2.47825e+08,12.4069,2,3.03163,-2206.91,-1501.47,-28358.4
2.47919e+08,16.3973,1,2.91653,-1888.22,1182.21,-26123.8
2.47982e+08,4.69011,1,2.66677,43.2512,-393.561,-27948.5
2.48312e+08,213.774,0,2.64485,15589.8,9322.78,12480.4
2.48753e+08,282.708,2,2.93831,17353.5,-15398.9,25762.9
2.49282e+08,45.68,1,2.7206,-8358.94,-4739.26,-29562.4
2.49483e+08,25.0736,1,2.53107,-198.045,5307.72,-28056.3
