#class tools::wcsv::ntuple
#title time
#separator 44
#vector_separator 59
#column double eventID
#column double t(ns)
#column double copynumber
#column double energy(eV)
#column double x(mm)
#column double y(mm)
#column double z(mm)
106468,139.458,1,2.94951,-11731.7,4787.21,-12623.2
137510,88.2099,2,2.41653,-15161.5,-1777.12,-18005.8
178458,45.1094,1,2.49994,-7079.2,2484.99,-22909.3
202962,41.2702,2,2.46346,-562.444,-5627.31,-22080
266502,25.824,0,2.61276,5228.82,1874.71,-28655.6
285283,6.90395,0,2.61889,916.497,1068.97,-29377.6
333142,156.437,2,2.75803,-26914,-16533.2,-19176.4
394268,14.737,2,3.01422,-2489.72,-974.92,-27013.2
678930,132.801,2,3.00574,-616.286,-2199.52,-13782.5
743072,28.5638,2,2.99064,2817.01,599.895,-23594.2
883738,2.16585,0,2.8089,510.716,0.188401,-29030.5
1.00267e+06,12.2088,0,2.84738,797.909,-2476.16,-28594.7
1.00391e+06,7.5353,2,2.53391,-1398.52,-375.065,-29639.1
1.06059e+06,21.1577,1,2.91193,3729.46,1940.11,-27333.2
1.2544e+06,166.57,2,2.55841,11918.8,-20102.7,-5232.05
1.56364e+06,164.84,0,2.69879,5429.3,16078.8,1448.39
1.63046e+06,7.07249,2,2.92775,-447.486,-1269.14,-28087
1.7933e+06,4.5034,1,2.56217,379.595,-249.41,-27966.4
0,4.51007,1,2.6534,0,0,0
0,4.52588,1,2.82175,0,0,0
1.80894e+06,213.524,1,2.72678,-11130,-2518.39,13108
1.94994e+06,55.2303,0,2.83442,6461.92,9353.17,-26389.7
2.07558e+06,11.3438,0,2.53735,1268.45,1089.56,-27312.8
2.20722e+06,63.3855,1,2.89543,-3438.27,71.3825,-15956.1
2.29301e+06,136.879,1,2.73671,16332.1,19379.8,-23474.2
2.4187e+06,13.4777,0,3.00586,-1522.78,887.256,-26773.2
2.51848e+06,48.9221,0,2.70779,8005.88,1171.57,-22527.6
2.65467e+06,20.2146,2,2.88908,589.568,3801.91,-27193
3.05384e+06,44.0196,1,3.00867,60.2649,-4570.12,-20836.1
3.1245e+06,27.7465,0,2.95943,-3985.03,2555.72,-25546
3.28623e+06,114.237,2,2.60873,-11331.6,-21394.8,-27644.4
3.30004e+06,33.5388,0,2.69753,2005.52,-2172.97,-22360.3
3.32317e+06,50.2461,0,2.85534,-2137.85,-3182.82,-19010.3
3.44862e+06,68.5316,2,2.76447,-1239.33,11036,-19650.9
3.55256e+06,376.738,1,2.61199,25599.2,-4303.11,7770.3
3.55478e+06,52.0821,2,2.9295,-1647.33,2459.63,-18369.9
3.59102e+06,92.0487,1,2.47978,5317.11,18797,-28774.3
3.82685e+06,161.579,1,2.87748,-26307.7,5370.96,-8110.73
4.18253e+06,180.791,0,2.59018,12247.1,-23420.9,-28670.7
4.193e+06,146.331,1,2.86785,6448.73,3542.31,-24088.5
4.19416e+06,129.363,2,2.63943,-18188,-20191.9,-25030.2
4.38108e+06,116.697,1,2.9064,-10595.9,15632.4,-13105.9
4.39951e+06,24.0344,1,2.59832,-2389.25,-2984.64,-25493.5
4.62764e+06,67.2074,0,2.9395,11006.5,-3488.8,-20586.5
4.78568e+06,126.698,1,2.66726,-3113.5,17698.3,-9022.11
5.03432e+06,241.254,0,2.89989,-6785.51,-8805.86,-18895.1
5.10371e+06,23.2602,1,2.78905,1684.34,4652.31,-28792.5
5.13438e+06,97.0372,0,2.65721,-9289.65,12563.8,-15649.4
5.22655e+06,17.283,2,2.54883,-3329.49,-1636.72,-29204.3
5.22998e+06,192.653,1,2.80949,-20749.9,2901.75,-2929.86
5.23885e+06,7.2026,1,2.39182,-429.14,1484.3,-29282.7
5.2455e+06,133.885,2,2.66342,24482.8,-13727,-25760.8
5.28798e+06,161.12,1,2.83627,-10915.9,13577.6,-20984
5.39697e+06,107.02,2,2.5033,-14759,1079.07,-20856.7
5.5487e+06,32.3722,1,2.6642,-3299.91,4003.44,-24251.1
5.58705e+06,11.0318,1,2.42052,-583.574,-1151.63,-26908.2
5.70095e+06,45.0272,0,2.89601,5891.46,4387.89,-22832.1
5.82291e+06,12.1483,0,2.79599,2468.85,1082.47,-29226.9
5.83617e+06,4.04806,0,2.45323,186.769,-982.893,-28941.9
0,4.02255,0,2.5589,0,0,0
5.88521e+06,105.523,2,3.00291,-7591.37,895.998,-8044.45
5.98191e+06,63.3527,2,2.54118,-2474.95,-13059.9,-26562.2
6.08836e+06,106.693,0,2.76948,18353.4,-11228,-22657.4
6.11488e+06,49.4957,2,2.43938,-2193.73,-7971.21,-27293.8
6.17119e+06,118.363,1,2.55592,20989.5,-6372.74,-16762.8
6.23225e+06,140.593,2,2.88297,-20828.5,-6402.16,-8931.72
6.38044e+06,67.1504,0,2.83772,6868.54,-2437.2,-16670.5
6.47603e+06,76.038,0,2.56764,11329.2,-7671.79,-20239.9
6.48722e+06,40.9536,2,2.85376,-5736.8,-6456.87,-26594.7
6.57343e+06,10.3624,0,2.42731,1031.31,-1970.95,-27981.2
6.59651e+06,31.9084,2,2.38823,-4555.43,3270.81,-25134.8
6.61199e+06,130.013,0,2.75063,1677.98,11664.8,-4123.91
6.72467e+06,130.67,2,2.67163,5414.18,20181.5,-13026.9
6.75878e+06,58.5322,1,2.9133,-7433.06,9063,-24773
0,58.3806,1,2.72611,0,0,0
6.78544e+06,7.38515,2,2.99372,573.241,-1423.83,-28319.3
6.80332e+06,23.7895,1,2.74545,-1188.58,-456.865,-23993.6
6.92954e+06,126.987,0,2.8467,9493.71,335.719,-3863.55
7.16885e+06,13.4142,2,2.54734,-683.748,-1433.87,-26429.6
7.22864e+06,146.289,0,3.04427,-5675.8,-23520.7,-10056.3
7.24919e+06,165.809,0,2.62433,20184.5,-311.177,-188.293
7.35854e+06,5.21128,0,2.6695,927.854,-527.416,-28151.9
7.60541e+06,40.5969,1,2.7752,-8516.43,1804.19,-29014.9
7.6825e+06,116.275,2,2.73289,-11475.2,-6863.79,-11916
7.71471e+06,34.8647,2,2.56276,-1629.34,-752.681,-21753.2
7.7972e+06,63.9806,1,2.36344,-6049.81,12067.7,-26728.4
7.83703e+06,131.534,2,2.77409,-10696.9,14464.3,-7791.9
7.94366e+06,14.159,2,2.93629,2505.92,122.656,-27230.3
0,14.0798,2,2.74743,0,0,0
8.03935e+06,16.144,2,2.9222,-276.688,-1487.34,-25783.6
8.0896e+06,14.1989,0,2.51238,-857.534,-2789.75,-28572.2
8.12837e+06,39.903,1,2.46969,4451.67,-6621.95,-26228.1
8.15305e+06,26.9512,1,2.71024,-3228.58,4776.16,-28911.1
8.16809e+06,191.487,2,2.49884,3346.69,-20922.7,5700.12
8.17896e+06,80.0972,0,2.72029,1666.07,2700.79,-23841.6
8.20235e+06,3.75472,2,2.85372,-572.883,-608.6,-28627.1
8.26091e+06,39.4096,0,2.55657,7363.33,2600.04,-25653.9
8.2671e+06,22.6193,1,2.6873,1869.74,-176.143,-24417.8
8.27478e+06,73.9933,2,2.54006,165.544,-14709.8,-23689.5
8.52303e+06,87.6317,1,2.65149,7650.21,-715.841,-12058.3
8.65605e+06,111.801,1,2.86285,4277.37,22944.9,-25881.8
8.83872e+06,95.6447,1,2.52801,3115.18,15791.6,-16599.2
8.89833e+06,11.1361,0,2.80454,-1494.46,1540.09,-28587.3
9.09983e+06,223.21,0,2.39948,24255.4,-27234.1,1238.22
9.14556e+06,111.243,2,2.89625,10594.5,-16894.1,-17669.7
9.38333e+06,23.1195,1,2.73582,-1417.66,755.725,-29273.3
9.47114e+06,166.249,1,2.88238,-20682.4,-4488.74,-13100.9
9.47567e+06,74.7331,2,2.68131,8696.47,-8122.74,-18498.5
9.49417e+06,51.7353,0,2.75686,-3758.83,-2442.9,-18935.4
9.54909e+06,154.916,2,2.47694,-23955.2,-22527.8,-29833.7
9.58218e+06,44.8821,0,2.57847,3767.07,-6823.28,-23382.1
9.62444e+06,74.9493,0,2.41174,11204.7,7518.86,-20357.7
9.82002e+06,42.0635,2,2.7643,-5124.91,187.806,-21438.4
9.84118e+06,21.6838,1,2.84282,-2005.39,2161.44,-25357.1
1.00115e+07,33.4155,0,2.78168,-6711.28,-25.9268,-26833.7
1.02727e+07,14.9342,1,2.39672,-3043.81,1004.68,-28969.4
1.03973e+07,38.1878,0,2.41254,7205.38,788.108,-24997.6
1.04365e+07,35.5211,2,3.04643,1779.69,4101.43,-22953.6
1.05686e+07,24.7971,1,2.87829,1835.6,2723.95,-24732.4
1.05926e+07,300.852,0,2.74134,-794.763,-24629.4,29461.6
1.05929e+07,48.1712,1,3.02758,1169.41,8693.87,-23850.7
1.06499e+07,38.1492,1,2.45707,4147.66,4923.43,-24025.9
1.08113e+07,57.3324,1,2.92768,11859.7,230.314,-27135.6
1.08577e+07,87.4232,1,2.67745,-2723.78,9857.97,-13930.8
1.08681e+07,43.0488,1,2.86677,-5095.79,3867.05,-22603
1.10885e+07,29.8745,1,2.73055,-898.101,3909.52,-23869.3
1.13347e+07,128.177,1,2.6739,26722.8,-2544.45,-26102.6
1.14073e+07,8.74019,0,2.54104,-19.2699,735.321,-27129
0,8.75023,0,2.43959,0,0,0
1.15546e+07,93.1008,0,3.02748,10313.5,16638,-28998.5
1.15735e+07,171.869,0,2.61277,-924.786,14737.7,-10595.4
1.18138e+07,31.9956,2,2.39086,1351.58,-6216.19,-26293.1
1.18849e+07,204.525,2,2.59671,-19700.7,18382.3,4955.5
1.20346e+07,35.483,0,2.86218,-2952.61,3004.71,-22721.1
1.20483e+07,11.2198,1,2.85247,1501.91,-259.408,-27007.3
1.21422e+07,69.8001,2,2.69056,5975.46,1822.64,-15325.5
1.21774e+07,23.4699,1,2.54762,-3288.46,-3631.59,-29270.7
1.25288e+07,154.841,0,2.82907,12541.2,-11610.1,-1075.89
1.26378e+07,25.2357,1,2.79444,-405.852,5014.69,-26899.9
1.26569e+07,217.669,2,2.78792,-16520.6,2731.95,-27737.7
1.26696e+07,2.68895,2,2.53467,268.249,-461.371,-28590.6
0,3.16318,1,2.91166,0,0,0
1.27347e+07,1.93984,1,2.62899,86.8016,-55.0351,-28434.4
1.27585e+07,126.198,2,2.51154,-19057.5,-10717.4,-13377.6
1.28543e+07,62.3533,1,2.72894,2313.03,-7386.31,-18314.6
1.28969e+07,140.946,0,2.65906,24506.5,-8671.46,-14738.4
1.29513e+07,210.262,1,2.7229,26051.6,27953.4,-14506
1.31466e+07,257.294,0,2.40309,1419.33,14624.9,14791.8
1.31487e+07,45.4114,0,2.65294,5794.63,-1137.35,-21223.5
1.31727e+07,72.0338,2,2.86634,-5260.15,-7460.78,-16684
1.31798e+07,133.303,0,2.87095,27487.8,289.881,-25958.7
1.32728e+07,104.882,1,2.39514,-14328.3,16891.5,-26548.4
1.32891e+07,236.736,2,2.72033,-14105.8,-10363.5,17952.3
1.33313e+07,21.9994,0,2.94893,-3262.79,-717.404,-25982.4
1.33769e+07,46.8223,2,2.65164,-9650.46,-1946.01,-29619.6
1.34425e+07,13.6907,1,2.58946,816.496,732.127,-26367.4
1.34847e+07,69.7448,2,2.51525,-5513.86,-3332.93,-15543.5
1.35405e+07,7.82203,0,2.93685,501.885,-468.666,-27344.6
1.35671e+07,29.0248,1,2.94586,-5194.93,3222.12,-27829.4
0,29.0565,1,3.03855,0,0,0
1.36384e+07,87.7208,1,2.42752,5601.98,-14592.6,-18984.4
1.3641e+07,56.649,0,2.82602,-4303.01,4843.93,-18813.4
1.36542e+07,175.727,0,2.68333,-5618.46,-8580.13,-21954.1
1.36583e+07,4.631,0,2.38592,572.796,-405.592,-28147.3
1.38292e+07,158.334,2,2.83514,-24386.9,15123.4,-11953
1.38339e+07,81.3602,2,2.87115,705.971,-2340.24,-22597.5
1.39201e+07,46.3667,1,2.60468,-6943.5,5577.15,-24598.5
1.39764e+07,200.154,0,2.46374,20814.7,6602.56,-21340.2
1.39908e+07,65.4822,2,2.62341,8949.46,-5467.72,-20226.9
1.41489e+07,23.9196,0,3.01602,4533.89,-501.102,-27282.2
1.41924e+07,93.9336,0,2.71769,882.138,-19581.2,-26097.8
1.42347e+07,57.4738,2,2.79841,10593.8,1401.29,-23469.6
1.4352e+07,66.7635,2,2.94004,-7241.93,10479.7,-23041
1.4364e+07,3.76337,2,2.61861,-52.3698,347.359,-28234.5
1.44562e+07,291.286,0,2.83964,3762.76,-9548.68,-5326.6
1.44678e+07,135.763,1,2.89088,4268.13,4415.48,-21289.7
1.45264e+07,49.8431,0,3.05564,3975.98,-8946.16,-25053.1
1.46808e+07,35.8489,2,2.76082,-740.868,-4381.05,-22667.3
1.46883e+07,70.9281,0,2.93952,-9061.75,9208.56,-21648.4
1.47733e+07,171.594,0,2.57675,-11651.8,-10529.7,3761.29
1.48194e+07,32.177,2,2.51189,-1325.32,-6822.43,-27936.6
1.48919e+07,40.1751,2,2.91566,-941.288,-7102.89,-24245.2
1.51212e+07,21.6434,1,2.43222,1221,1598.37,-24656.9
1.51521e+07,75.9124,0,2.86472,7808.61,-9154.79,-18497.6
1.5177e+07,127.106,1,2.40697,5207.67,-15120.4,-7282.76
1.52224e+07,8.52765,0,2.66187,-1003.74,-1457.94,-28653.1
1.52428e+07,53.4377,1,2.90281,-1750.44,6186.25,-19378.2
1.52431e+07,39.9429,2,2.65919,-5283.58,-6323.29,-26522.7
1.53537e+07,101.073,2,2.67636,4990.45,-20673.2,-26813.8
0,101.481,0,2.87394,0,0,0
1.54101e+07,219.902,2,2.5627,-7186.43,-20314.2,12335.5
1.54155e+07,30.8888,2,2.61471,123.956,-6511.9,-27687.4
1.55725e+07,35.7949,0,2.77251,7049.76,3067.53,-27699.1
1.5599e+07,65.2135,1,2.92957,-7744.93,-7817.81,-20687.4
1.58714e+07,110.704,2,2.70148,-11893,-2791.68,-20042.8
1.59715e+07,10.19,2,2.74485,1073.64,-1854.66,-28553.8
1.60247e+07,66.9838,2,2.71298,6152.31,-5240.14,-17161.2
1.60488e+07,25.7707,0,2.76759,-1042.94,-2042.43,-23893.1
1.60936e+07,56.2139,1,2.59373,4964.36,-5021.77,-23242.3
1.61248e+07,197.804,2,3.0557,27295.8,587.008,-3507.34
1.61357e+07,33.1543,1,2.5555,-51.4292,4305.23,-23225
1.61822e+07,116.821,2,2.67088,-9717.24,9767.45,-8381
1.61897e+07,60.5345,2,2.79289,-11957.7,-3855.35,-26304.8
1.63152e+07,20.5072,1,2.7755,239.631,-2236.73,-25157.9
1.64738e+07,8.86829,2,2.71723,-1580.07,1075.44,-28900.9
1.66493e+07,92.2917,2,2.85178,-2564.92,-17829.4,-21472
1.66747e+07,84.2797,0,3.04969,-159.435,-10807.6,-14836.1
1.67204e+07,73.0207,2,2.43099,-13706,-6859.73,-26858.6
1.67985e+07,8.2883,2,3.0105,-626.7,-1736.32,-28788.5
1.69184e+07,42.4468,0,2.51066,4097.43,325.74,-20771.5
1.69366e+07,78.8321,1,2.72829,9124.83,-6331.84,-16503.4
1.70802e+07,98.4067,0,2.66433,3941.97,-20298.6,-28976.4
1.72032e+07,192.248,2,2.59921,15898.8,16267.1,4566.2
1.72775e+07,121.105,1,2.77043,9174.62,2322.85,-5452.33
1.73365e+07,95.2561,0,2.91368,10483.2,-9630.87,-14679.5
1.73512e+07,146.487,1,2.39997,1927.48,-11679.6,-188.98
1.73554e+07,22.6534,0,2.96611,660.271,3123.13,-25306
1.75464e+07,297.04,0,3.00509,10580.1,-17618.7,29880.9
1.77826e+07,128.276,2,2.52457,-6357.29,25596.2,-22236.3
1.78369e+07,91.6741,1,2.59796,-14519,-2228.39,-16217.4
1.79965e+07,38.9885,0,2.46121,1220.53,-5789.23,-23032.6
1.80565e+07,24.964,1,2.67945,-4169.44,-1674.01,-26026.4
1.80749e+07,199.158,2,2.5679,-2097.17,16649.8,9680.51
1.81589e+07,41.1521,0,2.53629,2386.38,7068.67,-24573.1
1.81984e+07,42.4502,2,3.00586,468.938,-6411.97,-22708.3
1.82662e+07,55.2737,1,2.46262,10943.8,377.751,-25223.7
1.82723e+07,45.481,0,2.87828,2198.7,2130.05,-19719.7
1.83079e+07,49.8124,1,2.73651,1920.7,3835.46,-19197.5
1.83082e+07,78.2066,2,2.76853,-11108.7,-389.714,-16863.3
1.83674e+07,285.381,2,2.40099,16303.7,-3464.08,16007.4
1.84024e+07,31.6365,0,2.54231,4881.59,-4682.62,-29019.2
1.84481e+07,86.1361,1,2.42573,-26.7154,13154.1,-16188.7
1.85864e+07,133.666,0,2.95155,11109.6,14182,-28652.4
1.87117e+07,45.5625,0,2.50794,-3175.96,8754.67,-27187.3
1.8805e+07,121.002,2,2.80709,-13757.7,-5676.62,-8097.82
1.90809e+07,31.6609,1,2.94416,4548.96,4226.67,-26285
1.91692e+07,33.1504,0,2.94865,6002.89,3749.77,-27895.1
1.95238e+07,70.892,1,2.65048,5414.45,6807.39,-17232.4
1.97366e+07,11.2532,0,2.97663,-1063.99,-2057.84,-28286.6
2.00041e+07,107.341,0,2.50756,-16886.1,-7242.5,-15501.6
2.0023e+07,14.4247,2,2.53541,-701.562,-2997.33,-29598.6
2.00469e+07,67.477,0,2.64292,-308.112,-12055.4,-21345.4
2.00818e+07,29.9848,1,2.94539,-1155.77,6105.41,-27249.3
2.02696e+07,120.539,1,2.68597,6294.86,7748.42,-5507.83
2.0354e+07,9.06772,0,2.42304,1652.27,34.2169,-27716.4
2.03628e+07,100.788,1,2.49443,6216.18,11830.6,-12168.4
2.04751e+07,8.51257,0,2.49115,911.35,-1197.83,-27883.9
2.04815e+07,23.2364,2,3.05255,-843.866,-3156.27,-25196.1
2.05947e+07,3.93488,2,2.99208,-799.648,-75.8827,-28444.2
2.06237e+07,214.27,2,2.5313,-26403.4,29700.8,-7655.63
2.07625e+07,29.4734,0,2.51062,-2391.07,-5017.74,-27368.9
2.08295e+07,18.845,1,3.05248,-3329.36,2346.26,-28904.1
2.08889e+07,63.8482,0,2.36819,1229.85,-4295.27,-16130.2
2.09519e+07,44.915,1,2.75957,4947.17,-6930.29,-24809.3
2.10414e+07,51.6244,0,2.4315,-7208.84,3295.63,-21354.6
2.1108e+07,40.4616,0,2.81272,6550.13,-1980.91,-23668.1
2.11146e+07,3.97743,2,2.78005,-463.19,293.175,-28209.4
2.11458e+07,139.221,0,2.37867,15611.6,5532.23,-4451.94
2.11807e+07,186.957,2,2.54667,2404.96,-20483.2,4878.07
2.12175e+07,20.6338,2,3.05436,-987.289,-2337.61,-25208.9
2.12326e+07,2.15667,1,2.64189,-490.823,254.335,-28875.8
0,2.26011,1,3.01056,0,0,0
2.14354e+07,104,2,2.60776,18963.2,-1352.27,-17775.7
2.14472e+07,7.76665,0,2.55569,1472.26,-979.697,-28355.8
0,7.79953,0,3.03401,0,0,0
2.14501e+07,120.465,2,3.01466,19178.7,1584.35,-12538.7
2.16822e+07,74.5249,0,2.71325,11742.7,10544.4,-29781
2.17912e+07,4.16338,1,2.49392,-564.164,803.616,-28790.8
2.18631e+07,51.5396,0,2.3853,-3499.94,-2269.99,-18751
2.1916e+07,104.943,2,2.6646,5832.68,-18238.9,-17601.1
2.19411e+07,131.176,1,2.4175,-9802.8,-14305.8,-7209.95
2.21196e+07,3.11505,1,2.37214,164.268,538.092,-28350.5
2.21468e+07,64.9739,1,2.87199,6472.65,11262.5,-24302.6
2.21832e+07,158.637,2,2.89544,9198.21,25039.7,-9114.11
2.2208e+07,55.5556,1,2.75685,10334.2,1342.86,-23517.7
2.25341e+07,166.919,2,2.43566,-780.781,20411.6,-0.836202
2.25983e+07,92.0191,0,2.70669,9757.21,-15620.1,-22525.8
2.26494e+07,42.7782,1,2.67836,-7038.76,-5429.86,-28405.8
2.26824e+07,20.6647,2,2.62507,-3492.36,-45.5449,-26866.8
2.26838e+07,25.1844,2,2.87992,-1450.3,-4765.08,-26863.2
2.27108e+07,83.4692,1,2.8721,-11693.2,11905.2,-23169.5
2.28431e+07,23.5468,1,2.69361,1250.49,2818.71,-24897.8
2.31383e+07,152.606,0,2.84439,21610.9,10706.4,-7602.1
2.32529e+07,100.834,1,2.79239,15765.2,-9090.54,-18066.5
2.32897e+07,24.8024,1,2.94294,1468.29,-3375.61,-25029.3
2.34565e+07,11.9025,2,2.95053,-1837.83,-1727.15,-28258.3
2.3586e+07,77.6784,2,2.39782,13844.2,-177.753,-20052.8
2.36734e+07,110.843,1,2.68387,-20819.9,-9385.58,-24824.9
2.37495e+07,198.211,0,2.89177,1071.7,-10806.6,-12700.1
2.38059e+07,6.14983,2,2.92345,-483.207,-907.291,-29786.8
2.38308e+07,8.33778,1,2.49333,1045.38,1438.91,-29125.1
2.39224e+07,31.3376,2,2.89717,3502.45,-5379.58,-26753
2.39589e+07,107.354,2,2.76216,-9764.85,-500.611,-9327.54
2.40304e+07,15.0415,0,2.48946,2991.41,1189.95,-28208.3
2.41875e+07,11.903,1,2.82143,1352.18,1756.2,-27546.3
2.42083e+07,79.5015,0,2.65024,-3011.07,-13281.2,-18965.7
2.42098e+07,55.2488,1,2.82614,-9207.17,7072.27,-27140.3
2.42792e+07,143.77,0,2.58698,20336.1,19488.8,-17354.2
2.43726e+07,115.625,0,2.61629,-8565.94,20766.9,-19249.2
2.443e+07,172.882,1,2.91367,10536.1,19948.6,-352.47
2.45401e+07,116.927,2,2.99262,-14515.2,10304.9,-11946.5
2.45473e+07,11.696,0,2.79624,2014.71,1560.74,-28163
2.45579e+07,55.2482,0,2.96158,8264.05,5763.24,-23125.5
2.47538e+07,168.566,2,2.39485,-14780.9,24301.8,-7330.43
2.47954e+07,103.393,0,2.66973,17231.5,-12315.8,-23454.2
2.50123e+07,165.439,0,2.57203,19875.5,-15735.3,-4668.57
2.52485e+07,73.9757,2,2.90323,-10769.4,3180.1,-18019.1
2.5307e+07,47.4495,2,3.0179,4953.5,-8535.54,-27158.7
2.56004e+07,37.2174,0,2.5561,-4538.96,3494.13,-23453.4
2.56248e+07,258.315,1,2.66628,-1362.86,320.346,-26004.1
2.56275e+07,108.893,2,2.71363,-810.016,18982.8,-16002.1
2.56413e+07,33.4402,1,2.99782,-5419.45,4399.78,-26934.5
2.58646e+07,18.694,1,2.97215,-1690.64,3448.98,-27728.3
0,18.5349,1,2.67278,0,0,0
2.59332e+07,69.1984,2,2.38849,-10207.9,-6838.26,-20731.4
2.59984e+07,85.1786,1,2.42991,-14474.2,-9334.66,-23253.5
2.62759e+07,138.515,2,2.91293,-19175.6,-22110.8,-27442
2.63521e+07,6.4177,2,2.75644,-478.892,-1244.57,-28262
2.63952e+07,28.4179,2,2.82597,-5133.31,2947.56,-28618.5
2.64007e+07,68.6077,2,2.60155,-6502.69,-6775.36,-17651.2
2.64091e+07,118.091,1,2.93045,-24508,-1889.2,-25284.2
2.66722e+07,12.2827,2,2.82096,-1037.29,848.962,-26616.2
2.66976e+07,12.6753,2,2.95641,-113.976,-1353.08,-26554.2
0,12.6903,2,2.93012,0,0,0
2.67921e+07,38.4363,2,2.79183,6312.67,-4668.83,-26838.5
2.68033e+07,206.619,1,2.80111,-10813.7,-22912.5,5792.87
2.68514e+07,71.3245,1,3.0137,-616.773,38.8088,-28678.9
2.70038e+07,41.9885,1,2.41075,-7416.57,-3633.01,-25468.9
2.71717e+07,119.719,0,2.97376,-3993.13,13013.4,-7764.33
2.71951e+07,96.6811,2,2.96851,-8163.65,-4130.24,-10625.8
2.72432e+07,110.483,2,2.65821,-19267.7,-13271.6,-27860
2.72628e+07,34.3963,0,2.72397,3856.87,2135.03,-23026.8
2.73779e+07,71.9643,0,2.63947,-9625.47,7263.07,-19748.7
2.74985e+07,27.1796,2,2.4098,348.681,-821.196,-23280.3
2.75051e+07,12.2048,1,3.02998,2082.09,669.902,-27563.4
2.77042e+07,19.367,0,2.83879,-3373.39,-1904.35,-27744
2.7724e+07,15.113,1,2.56849,-1804.93,2208.47,-27020.8
2.77723e+07,173.681,0,2.51223,14227.7,-21802.5,-2976.89
2.78032e+07,61.1423,1,2.95156,-6721.72,-10753.7,-27103.3
2.78522e+07,139.699,2,2.98411,533.594,-14748.8,-26968
2.80199e+07,55.0219,0,2.99846,3452.03,8217.56,-21437.4
2.80322e+07,37.36,1,2.91372,-3336.7,6711.53,-25875.3
2.80521e+07,124.158,2,2.55289,-3457.05,-26010.1,-27825.1
2.81465e+07,37.2266,0,2.38304,1027.69,-6329.12,-24180.8
2.83077e+07,54.1907,2,2.83923,6030.95,-5021.73,-20622.8
2.84115e+07,10.4403,0,2.88032,-1101.59,-1769.18,-28709.1
2.84154e+07,21.3009,0,2.70604,1059.11,-1683.96,-24729.1
2.8419e+07,22.372,2,2.8763,779.574,-4828.29,-28772
2.8479e+07,2.18826,0,3.49288,53.1482,-523.987,-28811.5
0,2.14565,0,3.89772,0,0,0
0,2.13381,0,3.73626,0,0,0
0,2.1477,0,2.85145,0,0,0
2.86829e+07,55.6421,2,2.90831,-4317.32,5203.89,-19400.4
2.88475e+07,47.639,1,2.62612,1743.17,9165.75,-24827.2
2.89851e+07,125.171,1,2.81953,-3173.97,-23530.6,-17829.4
2.90114e+07,26.8112,2,2.61741,-1668.74,-3862.61,-25220
2.90458e+07,33.8723,2,2.95104,-3959.19,-492.023,-24570.8
2.90516e+07,138.305,1,2.86885,6342.81,16097.3,-5794.15
2.93935e+07,79.4442,0,2.57007,-6790.19,13246.1,-21256.6
2.94653e+07,48.2886,2,3.04641,4088.79,-3639.48,-20368
2.97357e+07,86.0331,0,2.45616,8994.72,5490.17,-13939.6
2.98254e+07,54.9109,0,2.98239,2336.21,-3043.62,-17961
