#class tools::wcsv::ntuple
#title time
#separator 44
#vector_separator 59
#column double eventID
#column double t(ns)
#column double copynumber
#column double energy(eV)
#column double x(mm)
#column double y(mm)
#column double z(mm)
42038,95.5157,1,2.66176,6876.97,-11519.2,-13861
65802,65.8534,0,2.63871,5158.27,-10819.9,-21251.9
114280,16.9471,1,2.54628,-679.506,2350.81,-26310.5
281641,14.906,1,2.39778,-2177.34,2403.32,-28401.9
312631,31.5784,2,3.04663,-698.633,-4480.23,-24028.3
561110,91.7057,2,2.70845,7385.08,-17914.4,-29573.5
735402,34.5923,2,2.92391,403.424,-4969.63,-23515.5
765844,12.4956,0,2.48266,-166.594,-2298.22,-27517.3
0,12.6545,0,3.00496,0,0,0
1.43532e+06,125.038,0,2.8852,15444.3,8936.73,-9498.62
1.46145e+06,208.482,1,2.77877,537.361,-24677.8,7404.52
1.50289e+06,49.6242,0,2.99294,-6507.09,-794.599,-21495.6
1.57045e+06,29.8528,0,2.96292,5087.27,3471.01,-27249.5
1.57116e+06,44.2923,1,2.5884,-311.889,-5741.88,-21485.5
1.71644e+06,8.21303,0,3.04349,136.376,535.298,-27190.6
1.75642e+06,20.6218,1,2.94183,-2908.79,-2115.61,-26481.2
1.77629e+06,125.131,1,2.36704,-20296.8,5532.82,-12845.4
1.78772e+06,92.3851,1,2.62723,-13912.1,-3292.47,-15507.5
1.83049e+06,102.803,0,2.42158,8935.85,3864.38,-9471.77
1.87526e+06,163.447,1,2.8226,6937.78,12936.9,2281.45
1.94849e+06,158.979,0,3.02719,29526,15113.9,-24928.5
2.19793e+06,103.987,1,2.42811,-1602.81,21156.3,-22433.6
2.50563e+06,126.819,1,2.67673,18179.2,19540.5,-26873.1
2.54676e+06,36.4289,0,2.56213,-2758.85,-6782.05,-29711.5
2.61271e+06,34.2613,0,2.96415,-4993.74,4322.58,-26102.6
2.80658e+06,60.4397,2,2.75322,-11622.3,4054.6,-25560
2.86723e+06,34.6752,2,2.58836,-3897.98,1227.23,-22735.2
2.89758e+06,39.3775,1,2.56379,-3441.98,1573.25,-21418
2.96082e+06,2.35552,1,2.96776,-259.415,88.1614,-28519.6
3.13154e+06,12.5033,0,2.73105,-1274.43,-2114.11,-27973.6
3.21071e+06,159.852,0,2.9443,28117,-18161,-27686.8
3.25037e+06,184.749,2,2.59287,-5478.77,7051.38,-28090.4
3.43262e+06,59.9221,1,2.92548,-10147.7,-4197.83,-22673.5
3.48288e+06,136.607,0,2.44765,-19706,18955.7,-19565.7
3.7689e+06,112.364,2,2.53449,20222.7,5369.79,-18217.1
3.77227e+06,157.828,1,2.64038,-3926.74,-25379.6,-7690.88
4.40907e+06,48.277,0,2.67007,4237,5028.48,-20998
4.4194e+06,93.9878,0,2.98102,1564.29,19412.2,-27453.5
4.45676e+06,30.0878,1,2.80903,124.645,-4541.31,-24399.9
4.48389e+06,88.7505,1,2.96901,-3872.04,-6595.24,-15178.9
4.67631e+06,20.3507,0,2.8199,590.343,-3919.26,-26901.3
4.83195e+06,39.8749,1,2.4193,-6233.24,397.203,-23069.7
4.92887e+06,190.039,2,2.66384,5399.37,1498.28,-10971.5
5.17423e+06,37.4689,1,2.43932,-3749.97,3343.6,-22612
5.4131e+06,51.656,2,2.56845,-560.901,-5658.82,-19609.6
5.53468e+06,130.863,0,2.84004,26001.3,4607.94,-20773
5.82691e+06,151.211,0,2.68956,680.787,19923.7,-3940.89
5.87651e+06,87.6923,0,2.58698,-2975.33,18315,-29425.4
5.91013e+06,64.246,0,2.5253,-4635.77,-7671.79,-18628.4
5.97782e+06,108.452,0,2.62751,7704.92,9208.49,-9337.9
6.04196e+06,204.48,2,2.70959,-10365.2,-12438.2,11132.3
6.18665e+06,50.0462,2,2.48522,-2630.74,-6140.36,-20783.4
6.23516e+06,115.943,2,2.96421,-19795.7,5262.36,-15901.2
6.26605e+06,22.374,0,2.52871,4055.87,2261.37,-27894.3
6.30545e+06,60.223,0,2.40816,-183.084,-10504.5,-21617.4
6.32327e+06,221.481,2,2.86887,1979.15,-21026.2,-28494.9
6.33432e+06,6.35683,1,2.71332,-16.9413,-892.106,-27883
6.3899e+06,102.546,0,2.82758,306.618,5179.79,-27436.7
6.39717e+06,37.4605,1,2.55642,2982.46,4123.15,-22617.6
6.44862e+06,110.737,2,3.00925,-6776.89,-14329.2,-11932.8
6.53927e+06,152.232,0,2.85234,17762.5,-13550.9,-5878.27
6.87164e+06,3.72803,1,2.39659,123.324,678.993,-28247.8
6.93752e+06,33.5004,1,2.76884,3806.54,2296.4,-23309.5
7.32567e+06,237.093,2,2.87221,22301.5,16551.8,-20985.7
7.33316e+06,79.8863,0,2.76435,1003.63,-16269.2,-24732.5
7.38424e+06,97.5549,2,2.39523,-17354,-8467.58,-21313.6
7.44461e+06,77.3452,1,2.88438,7554.86,13253.6,-23019.4
7.50099e+06,25.2253,1,2.75353,-909.295,2926.33,-24313.4
7.55173e+06,51.1479,2,2.77866,5881.23,-1213.11,-19819.8
7.57998e+06,192.334,2,2.82087,-22241.3,17188.5,-5408.64
7.63022e+06,15.3295,2,3.0039,1114.61,-2918.8,-28195.8
7.67215e+06,28.7788,1,2.52358,3407.86,508.86,-23933.2
7.71799e+06,140.202,0,2.56726,24678.5,-14264.8,-21474.8
7.75807e+06,38.9578,2,2.46797,-3935.39,-7189.87,-27719.2
7.76533e+06,162.768,0,2.90531,20227.1,14432.6,-5377.95
7.95915e+06,99.6898,0,2.43856,14444.3,-8848.86,-16190.2
7.97861e+06,16.2468,0,2.62611,-1894.92,-252.526,-26029.5
8.04502e+06,67.1756,1,2.72247,-13200.7,-4946.63,-27525
8.08254e+06,57.5813,1,2.57098,8812.83,1193.1,-20522.4
8.09497e+06,41.2303,0,2.4375,1652.65,-2858.4,-20841.3
8.17877e+06,118.903,0,2.43573,14899.1,15781,-16066.4
8.37134e+06,88.4288,2,2.94511,-11236.4,5402.16,-15066
8.38157e+06,42.9764,2,2.96082,-6372.08,-6592.42,-28807.1
8.39756e+06,30.1495,2,2.49854,2428.25,3048.6,-23809.2
8.5225e+06,63.4598,0,2.73089,8466.87,9686.68,-25526.3
8.59944e+06,2.67407,1,2.87529,-515.454,163.915,-28248.4
0,2.67965,1,2.68981,0,0,0
0,2.66909,1,2.77791,0,0,0
8.80724e+06,6.64877,0,2.69468,234.205,-1175.86,-28572.4
8.8084e+06,120.774,1,2.44765,1567.15,12936.2,-6823.73
8.83024e+06,107.452,2,2.5345,-15411.4,-16895.4,-27926
9.23362e+06,26.9475,1,2.43667,276.657,3523.83,-24516
9.54027e+06,72.6792,1,2.88502,-12745.9,8403.14,-27097.3
9.62586e+06,122.274,2,2.65257,-4620.04,-23887.4,-19935
9.776e+06,43.8096,0,2.61389,7148.82,5912.68,-28524.7
9.87999e+06,26.955,1,2.40057,4749.87,-218.179,-25739
9.96178e+06,20.3584,2,2.65397,-3788.52,-2117.91,-28425.4
1.00448e+07,93.7127,0,2.76431,15972.7,4711.53,-18018.9
1.0048e+07,48.7439,0,2.86504,9598.6,-53.1407,-25149.7
1.02327e+07,173.298,1,2.68886,-14365,12956.7,2110.74
1.0668e+07,177.109,0,2.92889,16321.3,27927.9,-14272.1
1.06881e+07,2.549,1,2.8912,415.476,252.928,-28960.9
1.07177e+07,59.7032,0,2.666,6209.64,-7730,-21313.3
1.07231e+07,46.6047,0,2.58832,3794.55,-5948.66,-21888.2
1.07444e+07,21.7636,1,3.00444,4029.84,568.098,-26812.4
1.08705e+07,7.84396,0,2.91452,75.0037,134.81,-27643.7
1.09217e+07,187.014,1,2.50454,20266.3,16081.7,1118
1.09799e+07,141.226,2,2.61295,854.468,-16155.8,-20715.9
1.10986e+07,121.852,2,2.59629,-20939.2,14372.6,-24833
1.1349e+07,2.02331,0,2.48499,-253.722,21.3354,-28602.7
0,2.01674,0,2.68152,0,0,0
1.13862e+07,47.6019,2,2.42838,-243.481,4374.26,-19709.2
1.13904e+07,175.107,0,2.73054,13216,-16402.4,-7389.76
1.14486e+07,103.607,2,2.47202,3380.1,-21031.6,-23442
1.16191e+07,198.098,2,2.58019,-13043.6,-18166,6606.1
1.16311e+07,41.6921,2,2.84742,-8554.95,-1738.66,-27764.2
1.16532e+07,16.622,0,2.78578,-37.4241,2938.31,-27135.9
1.16696e+07,43.2299,0,2.66489,6858.33,6148.36,-29082.7
1.18217e+07,37.5508,1,2.87703,-6086.63,-3329.73,-25031.4
1.1856e+07,52.9772,0,2.64165,8639.01,-4162.76,-23034.5
1.19258e+07,11.5197,1,2.46237,-2217.69,1197.82,-28884
1.19493e+07,64.8958,1,2.82152,-11184.5,870.776,-21051.3
1.20175e+07,160.437,0,2.61828,7305.79,8122.69,-21661
1.20968e+07,17.9504,0,2.8146,3225.01,219.543,-26727.7
1.2199e+07,138.871,1,2.67047,-24142.2,13116.8,-19090.9
1.23403e+07,77.9952,0,2.78254,358.742,-16167,-27068.8
1.23489e+07,139.351,2,2.92501,-6517.82,-21077.4,-9528.64
1.23627e+07,63.892,0,2.40206,13590.5,769.109,-29207.5
1.23964e+07,178.252,0,2.94287,29095.7,16243.3,-11715.3
1.2679e+07,11.7168,0,2.98019,-83.5746,1266.5,-26677.9
1.26914e+07,86.9311,2,2.84035,6006,-17210.9,-26915.3
1.2982e+07,24.7785,2,2.61225,-1890.11,-4039.27,-29047.3
1.30249e+07,77.9313,2,2.42162,-11276.4,7626.93,-27229.5
1.32078e+07,59.9103,0,2.66368,7966.12,5478.38,-20571.7
1.33952e+07,56.9564,1,2.76493,-8873.45,8083.64,-26803.8
1.35027e+07,113.279,0,2.99526,-4412.86,-8413.38,-7232.62
1.36812e+07,114.753,2,2.95481,-15625.2,-4131.8,-10993
1.3944e+07,8.02023,0,2.51241,-990.586,-1339.3,-28785.8
1.41288e+07,114.781,0,2.40931,11055.7,20882.6,-25104.5
1.41848e+07,2.45073,2,3.02985,-506.745,134.526,-28680
1.43965e+07,69.2105,1,2.68877,-6882.03,356.273,-16062.5
1.44944e+07,24.2634,0,2.82004,3998.08,3113.7,-27617
1.4495e+07,93.8488,0,2.72339,-14907.8,-11205.3,-22717.8
1.4638e+07,119.466,2,2.69885,794.112,13343.1,-7539.56
1.46706e+07,63.6855,0,2.7866,10451.7,-8231.18,-26712.1
1.46944e+07,52.227,0,2.4258,2199.18,6176.33,-19956.7
1.47019e+07,44.0362,1,2.44047,-4802.53,792.835,-20707.4
1.47429e+07,78.1219,0,2.8609,-486.975,9008.88,-15016.8
1.48018e+07,60.2221,2,2.95065,-12601.5,-281.94,-29684.5
1.48104e+07,66.4466,0,2.70508,8995.56,-6974.51,-20795.5
1.48127e+07,199.807,0,2.66223,27462.2,-8380.38,2084.28
1.49093e+07,114.785,1,2.47265,-9363.62,-8610.04,-8142.28
1.50205e+07,25.4331,2,2.93701,-3141.29,-3106.7,-25708.8
0,25.391,2,2.80201,0,0,0
1.52336e+07,82.3929,1,2.94498,-3537.88,-16797.4,-27068.5
1.52653e+07,107.632,0,2.77889,10188.1,18812.6,-21303.7
1.53019e+07,67.4449,0,2.67564,-13611.5,-799.691,-24930.8
1.53172e+07,54.8279,1,2.69517,5889.51,2401.37,-19354.4
1.53681e+07,31.116,1,2.8842,-4808,-3075.67,-25573.1
1.53997e+07,146.54,1,2.62211,-22288.5,10727.9,-10126.3
1.54961e+07,137.777,0,2.94493,27643.5,8046.55,-25260.1
1.55238e+07,150.05,1,3.04062,-20746.2,11756.6,-8180.97
1.55351e+07,12.8399,1,2.7011,1423.26,2255.33,-28963.5
1.55649e+07,4.56059,0,2.58221,1080.66,496.185,-28350.9
1.56218e+07,122.498,0,2.39433,14898.3,-3821.4,-7643.03
1.56771e+07,72.3896,1,3.01696,-3433.37,-8434.01,-19310.7
1.57227e+07,151.333,1,2.79919,-11491.7,-12285.1,-2260.46
1.58085e+07,154.745,1,2.86291,2798.31,15967.3,-629.747
1.58117e+07,65.6536,0,2.85095,-2775.17,3716.42,-22285.1
1.58139e+07,19.6954,0,2.95905,599.589,-3972.16,-29714.9
1.58177e+07,67.9866,0,2.90306,-544.122,8365.9,-17214.5
1.60164e+07,105.484,1,2.73212,-21069.3,3397.48,-22840.5
1.61871e+07,73.4195,0,2.53991,9805.85,-11491.6,-24880.9
1.64266e+07,22.1187,0,2.98086,4338.34,-1845.71,-28310.8
1.64929e+07,72.0892,0,2.98943,2743.83,-7206.15,-15865.1
1.65769e+07,35.494,0,2.3686,-1400.1,4667.96,-23301.8
0,35.7679,0,2.80245,0,0,0
1.71246e+07,19.0109,1,2.41946,-3133.22,599.115,-26441.5
1.75115e+07,31.5141,2,2.5255,-5792.52,-946.917,-25494.2
1.76324e+07,60.456,1,2.96404,504.485,10169.5,-21185.5
1.77046e+07,247.257,2,2.50495,17882.5,-19812.4,16236
1.77329e+07,72.9064,0,2.73357,3002.76,-13699.9,-22470.5
1.78623e+07,52.7465,0,2.98801,5549.62,9286.96,-26073.1
1.80235e+07,99.039,0,2.64647,8324.61,15812.1,-17961.9
1.80266e+07,86.7669,1,2.43744,-11475.6,13682,-24179.7
1.80728e+07,54.9606,1,2.57167,-2142.38,791.417,-27996.7
1.81553e+07,44.4799,2,2.72765,-9008.49,2743.3,-28154.4
1.82794e+07,105.695,0,2.91128,15974.8,-13023.9,-20408.5
1.83256e+07,58.4095,2,2.50161,218.377,1522.44,-28633.9
1.84679e+07,17.9945,0,2.54536,-3342.73,-785.254,-27501.8
1.84712e+07,7.61752,0,2.716,519.272,-172.737,-27273.4
1.84914e+07,83.4625,0,2.76059,-15870.4,-5650.91,-24569.9
1.85037e+07,33.1292,1,2.40657,-5212.79,4585.73,-27284.3
1.86475e+07,17.8188,1,2.94295,-1503.85,3589.94,-28958.5
1.87097e+07,11.7201,1,2.54247,-1091.77,2288.94,-29563.7
1.87297e+07,83.5285,0,2.91465,4852.3,7442.29,-13672.6
1.87563e+07,18.1486,1,2.62388,1460.77,1265.18,-25350.1
1.88032e+07,52.4098,2,2.8656,-10350.2,-1853,-25095
1.88664e+07,108.045,2,2.41183,3504.3,-11239.8,-19012
1.90822e+07,103.799,1,3.00154,-3440.86,9795.95,-9631.47
1.92349e+07,0.635303,1,3.89031,149.98,92.1556,-28772
0,0.715649,1,2.35733,0,0,0
0,0.631264,1,3.10711,0,0,0
0,0.670084,1,2.57085,0,0,0
0,0.628805,1,2.21142,0,0,0
0,0.629622,1,4.02015,0,0,0
0,0.62703,1,2.77373,0,0,0
0,0.65052,1,2.18399,0,0,0
0,0.646684,1,2.83758,0,0,0
0,0.689587,1,3.87505,0,0,0
0,0.624727,1,3.18448,0,0,0
0,0.626834,1,2.18168,0,0,0
0,0.626867,1,2.85521,0,0,0
0,0.641267,1,3.69815,0,0,0
0,0.627642,1,3.70326,0,0,0
0,0.666222,1,2.77382,0,0,0
0,0.629246,1,3.6022,0,0,0
0,0.639026,1,2.76354,0,0,0
0,0.653032,1,2.52876,0,0,0
0,0.626546,1,2.12519,0,0,0
0,0.70275,1,3.10067,0,0,0
0,0.650889,1,2.87739,0,0,0
0,0.64428,1,3.04391,0,0,0
0,0.625763,1,2.79758,0,0,0
0,0.627248,1,3.6024,0,0,0
1.92356e+07,26.5633,1,2.54835,-2869.83,4406.56,-26741.6
1.92456e+07,113.46,0,2.61928,-539.783,-21113.6,-17798.3
1.92548e+07,26.4535,0,2.84051,5278.65,-2097.45,-28968.3
1.92859e+07,43.1211,2,3.04915,-3018.31,2482.02,-20753.3
1.95407e+07,159.28,1,2.97685,-4528.68,28436.4,-11826.3
1.959e+07,66.3377,2,2.82116,11237.7,-8351.28,-29521.3
1.96e+07,61.3547,0,3.04811,-3164.99,12131,-25930.6
1.97049e+07,58.8695,1,2.65988,10089.5,3452.9,-22430.5
1.97477e+07,33.4735,0,2.65676,6573.01,1971.53,-27312.6
1.97755e+07,45.8785,2,2.9749,-5269.81,7447.38,-25385.7
1.97893e+07,202.361,2,2.82418,-25040,-25740.2,-5944.99
2.00349e+07,182.596,1,2.75977,5767.65,-21884.6,-27785.8
2.00401e+07,11.3585,2,2.82857,-2132.58,453.281,-28053.2
2.01963e+07,101.495,0,3.04769,4280.5,8730.07,-9896.62
2.02356e+07,139.849,0,2.66759,-13266,-19825.6,-11594
2.03424e+07,81.8294,2,2.54982,3769.47,-7881.98,-13851.4
2.05322e+07,32.6776,0,2.63253,2744.24,-5250.55,-25264.9
2.05435e+07,129.605,1,2.56046,-20380.8,7769.38,-11938.9
2.05795e+07,43.1949,1,2.52303,6792.66,-3949.58,-24238
2.0623e+07,74.9458,2,2.51225,-12731.1,1910.28,-19718
2.06728e+07,108.265,1,2.46941,-158.881,15339.3,-11762
2.06802e+07,144.198,0,2.61867,14804.4,7190.87,-3131.4
2.07062e+07,81.4967,2,2.5737,693.14,-14536.6,-19513.6
2.09074e+07,21.3825,0,2.86562,2061.97,-650.154,-24915.7
2.09978e+07,98.2959,1,2.68166,-6042.59,-15622.4,-16855.7
2.10984e+07,22.7624,1,2.44439,4669.95,-930.377,-28525.1
2.13289e+07,178.461,2,3.06034,-16667.5,-17074.3,-27683.2
2.13499e+07,107.626,2,2.62659,-7530.83,-21463.7,-27029
2.13642e+07,113.401,2,2.59959,13019,-9157.87,-16779.2
2.14454e+07,154.421,1,2.73559,-17292.9,-18269.1,-8334.21
2.1494e+07,94.6129,2,2.6591,-14212.2,-13009,-24001
2.17645e+07,134.913,2,2.57639,-18477.4,15046.1,-13192
2.19348e+07,182.927,0,2.75772,3605.27,18785.1,4523.99
2.20604e+07,77.9169,2,2.78403,-11412.4,-1252.12,-16986
2.21747e+07,191.85,1,2.5223,7835.44,27909.9,-453.135
2.24819e+07,19.0434,2,2.61772,-3931.16,-1086.68,-28917.8
2.26024e+07,18.0456,0,2.7368,3655.91,-104.175,-27532.7
0,17.9332,0,2.57707,0,0,0
2.28053e+07,65.2855,1,2.70357,-11572.8,2995.64,-21924.7
2.28646e+07,23.958,2,2.51025,4659.34,215.399,-26793.8
2.29389e+07,60.5215,2,2.91516,-8188.5,-774.272,-19074
2.32217e+07,19.0145,2,2.66901,-3144.77,-2415.14,-29912.3
2.32651e+07,48.3278,0,2.46786,-3859.35,6642.48,-22105.2
2.32659e+07,135.352,2,2.78886,-7162.97,-20555.6,-10328.2
2.33657e+07,14.6477,1,2.48553,2998.56,602.844,-28782.4
2.3436e+07,187.95,2,2.55598,-10841.9,24118.3,758.351
2.3661e+07,159.099,1,2.52684,-20939.9,-21678.3,-27372.5
2.38403e+07,105.089,2,2.52039,-8297.82,-20547.5,-26394.4
2.39040e+07,96.0797,2,2.75472,12621.7,-7813.76,-15029.5
2.39454e+07,99.9471,1,2.58157,-8366.5,-16003.5,-17989.4
2.40083e+07,31.3424,2,2.59299,-2703.91,-1153.11,-24276.6
2.40361e+07,17.8423,2,2.36473,-153.818,-2541.58,-26380
2.42232e+07,10.5459,2,2.77081,-240.781,-964.791,-26654.2
2.43488e+07,22.2222,0,2.76381,-1052.66,-3150.2,-25867.1
2.43959e+07,38.8306,1,2.96037,5819.6,-158.21,-23093
2.46597e+07,65.5523,2,2.56165,-12480.4,-2898.98,-23498.6
2.47116e+07,98.5823,2,2.85161,-10354.1,1964.18,-10833.8
2.47448e+07,16.0454,2,2.48405,1664.72,1897.76,-26452.6
2.48237e+07,23.7654,1,3.00933,2040.61,-1103.94,-24432.2
2.49386e+07,23.8646,1,2.77971,-2862.45,3218.47,-26178.1
2.50328e+07,20.0964,0,2.53802,4175.7,993.107,-28065.2
2.51019e+07,114.964,1,2.96901,-17835.9,-6244.72,-13806.1
2.51742e+07,89.6492,0,2.74268,10117,-15466.1,-24722.5
2.54125e+07,171.057,0,2.42259,18884.5,-1112.4,-23726.8
2.54746e+07,0.684761,0,2.62154,1.93438,-166.033,-28789.4
0,0.764584,0,2.81805,0,0,0
0,0.813435,0,2.90125,0,0,0
2.55558e+07,85.9049,0,2.59375,4957.39,-17411.7,-29127.3
2.55648e+07,38.3858,0,2.81736,61.4347,-5213.29,-22768.9
2.56433e+07,163.58,0,2.82212,80.9158,-5926.63,-28520.7
2.56721e+07,141.915,2,3.03906,-24952.6,9380.49,-15700
2.57368e+07,132.474,1,2.5395,-2801.78,14811.4,-5195.06
2.57779e+07,138.444,1,2.5155,-1214.75,-21003.6,-8474.93
2.58915e+07,83.7814,0,2.76976,-10528.9,-12334.6,-22126.9
2.60291e+07,103.651,0,2.82155,8449.91,-20086.3,-27543.4
2.60571e+07,46.497,0,2.91018,5607.09,-7071.84,-24992.4
2.61398e+07,38.1606,0,2.89207,3537.62,6438.49,-25816.6
2.62007e+07,42.3168,0,2.89259,3922.63,7049.62,-25061.5
2.65116e+07,5.47451,0,2.47837,491.773,78.9963,-27781.6
2.65442e+07,35.2761,0,2.95764,3482.55,3550.53,-24381
2.66757e+07,84.8996,1,2.9392,-8026.78,-10674,-16978.8
2.68229e+07,81.7428,2,2.36958,8292.72,3308.27,-14057.4
2.7108e+07,5.60014,0,2.67037,1106.79,-336.738,-28324.4
2.73815e+07,47.2024,1,2.79952,6159.08,7825.81,-28554.7
2.74422e+07,15.1443,1,2.90786,-1790.93,1732.01,-26717.5
2.74614e+07,10.5409,2,2.55977,-1158.56,278.097,-26962.6
2.7694e+07,53.8515,0,2.56133,10545.5,3806.94,-26752.6
2.77873e+07,224.493,2,2.95012,-2269.44,17729.3,12265.9
2.78373e+07,106.348,2,2.91066,-21563.4,-1297.08,-23001.9
2.80747e+07,131.126,0,2.88881,6397.42,21204.1,-12427.5
2.81364e+07,18.5484,0,2.45106,1899.04,-3579.91,-28674.8
2.81636e+07,71.4886,2,2.37993,-8601.53,-6026.99,-17890.6
2.81753e+07,58.6427,1,2.73384,4543.52,11011.8,-25290.3
2.82088e+07,80.5386,1,2.66874,-8422.13,4287.5,-18377
2.82317e+07,9.04084,2,2.91292,1145.04,-1686.22,-28745.4
0,9.22396,2,2.93491,0,0,0
2.83545e+07,37.378,1,2.8025,4105.66,2797.57,-22787.5
2.8467e+07,2.6016,0,2.54528,361.493,-451.488,-28851
2.86425e+07,72.1861,2,2.86035,-9463.35,-11190.1,-24594.3
2.86698e+07,14.8629,1,2.51571,-374.965,2690.86,-27159.3
2.86795e+07,67.8447,1,2.87299,-11047.3,-8791.98,-26491.2
2.87509e+07,93.033,2,2.77354,5954.85,-7817.33,-11746.8
2.88587e+07,48.7879,2,2.96525,-3061.84,-7828.44,-22903.4
2.88744e+07,16.2015,2,2.78024,2546.31,359.93,-26729.3
2.89186e+07,145.952,0,2.93149,5414.69,16901.3,-3783.99
2.89749e+07,56.379,1,2.45033,6926.56,9359.1,-25973.5
2.90145e+07,8.30135,1,2.76443,-171.868,-700.014,-27257.7
2.90253e+07,107.835,1,2.63741,20422.5,10322.6,-28380.6
2.91392e+07,18.8507,1,2.48067,-2761.28,2890.04,-28051
2.91715e+07,196.069,0,2.64366,-12590.2,-19579.6,5266.91
2.92419e+07,112.442,0,2.76635,5348.33,-12912.3,-9743.43
2.92657e+07,13.2442,0,2.86598,-1292.63,-1708.88,-27071.9
2.94895e+07,11.5275,2,2.96709,1162.67,-1980.95,-28081.8
2.95017e+07,19.1524,2,2.75005,1595.06,-3093.58,-26749.9
2.95067e+07,83.527,0,2.72579,817.305,14153.7,-18378.5
2.97659e+07,19.9206,1,3.00974,-1366.69,3025.28,-26321.7
2.98697e+07,71.0668,2,2.94093,10010.3,-9743.49,-24058.9
