#class tools::wcsv::ntuple
#title time
#separator 44
#vector_separator 59
#column double eventID
#column double t(ns)
#column double copynumber
#column double energy(eV)
#column double x(mm)
#column double y(mm)
#column double z(mm)
550554,49.6809,0,2.5707,8880.02,4603.32,-25332.6
736142,164.316,0,2.69945,-10912.6,-25410.5,-8010.58
901765,34.6648,1,2.4481,-3197.01,5208.16,-24650
965748,202.077,2,3.02125,-22993.7,-13142.7,4239.68
975360,91.3686,0,2.88298,16956.1,-6744.61,-22637
1.74347e+06,161.483,1,2.9843,-2297.09,26163,-7368.65
1.75883e+06,231.061,0,2.9701,-8529.16,-29892,53.697
1.90389e+06,75.4131,1,2.84951,4842.21,12137.9,-19760.9
2.10038e+06,188.401,1,2.85917,-14974.6,-16269.7,4007.05
2.65352e+06,91.7339,2,2.8034,8602.48,15210.9,-20773.5
2.72504e+06,72.7,0,2.81949,12940.1,3266.7,-21203.3
2.83382e+06,48.9194,1,2.49936,7351.55,2230.15,-21916.8
3.19906e+06,19.0847,1,2.80165,-1247.93,3479.95,-27079.5
3.34938e+06,52.5852,1,2.68158,1175,8265.51,-21430.6
3.83492e+06,56.7715,2,2.86037,1847.27,-11130,-24719.8
3.96883e+06,28.1233,0,2.95924,-4079.33,1007.11,-24769.5
4.02227e+06,22.86,2,2.51125,-4864.95,-85.7795,-28159.4
4.04069e+06,91.4931,1,2.99958,-17566.2,892.91,-21036.5
4.07531e+06,130.847,1,2.7294,-9173.3,-20274.6,-24681.1
4.3266e+06,65.5235,0,2.87687,11062.6,-4287.85,-21723
4.39412e+06,1.67075,0,2.50606,420.706,-193.149,-28885.2
4.53892e+06,39.9751,1,2.94203,4464.99,-536.267,-21756.2
4.57863e+06,16.325,0,2.70835,1750.03,-3051.06,-28734.6
4.7666e+06,58.006,0,2.42892,-5206.52,11048.9,-27813.8
4.77098e+06,63.4794,1,2.51275,6595.02,536.088,-17168.9
5.67261e+06,87.2924,1,2.53495,15196.3,-6134.48,-20422.7
5.76496e+06,26.2195,1,2.52507,2737.16,830.739,-24075.2
5.79756e+06,0.90814,0,2.94716,115.676,85.6491,-28661.1
5.82281e+06,130.21,0,2.41376,-5539.29,-16510.5,-7497.3
6.46688e+06,137.718,1,2.67961,-20779.5,20137.4,-25446.4
6.54848e+06,16.6153,1,2.44003,1321.02,-847.932,-25700.8
6.754e+06,57.1037,1,2.71479,-3018.29,4170.93,-17911.4
6.84295e+06,36.7662,2,2.4699,-5692.12,-2823.88,-24213.6
7.02059e+06,3.87706,2,2.96333,-573.815,-422.646,-28314.3
7.08242e+06,82.0023,1,2.65378,-10229.1,-2405.07,-15070.2
7.1719e+06,133.799,0,2.88747,13768.5,23755.6,-22547.5
7.36024e+06,38.2165,2,2.92522,7292.86,-993.104,-25632.2
7.51262e+06,60.6544,2,3.02638,-7693.23,8031.91,-22679.6
7.56635e+06,65.3167,2,2.94218,4568.2,12101.1,-24517.6
7.68852e+06,65.2627,0,2.56147,12041.9,-6850.06,-27863.2
8.05793e+06,101.746,2,2.64229,-16574,5526.23,-16285.4
8.12497e+06,9.94992,1,3.00303,1246.22,1094.61,-27499.4
8.27461e+06,107.078,0,2.72463,6849.53,18654.3,-19968.5
8.39152e+06,98.5231,2,2.82311,-11228,11599.7,-15882.8
8.44847e+06,92.9547,2,2.55784,-13113.7,-10632.6,-18623.9
8.78515e+06,11.2477,0,2.69503,311.734,1172.14,-26769.1
8.9779e+06,6.99483,1,2.66169,-445.589,-747.854,-27696.3
9.02122e+06,26.2551,1,2.91516,715.828,4449.26,-25565.5
9.04988e+06,149.334,0,2.88959,-23825.9,15605.2,-15874.8
9.10439e+06,10.5595,2,2.56166,-1346.58,-510.095,-27049.5
9.45512e+06,13.2933,2,2.52316,2685.72,-805.254,-28458.5
9.93291e+06,60.1931,1,2.77755,-3385.17,-9357.14,-21033.2
9.99615e+06,113.023,1,2.78389,-3509.47,8163.56,-26793.3
1.04563e+07,32.613,0,2.51689,5437.93,4273.83,-29634.4
1.12542e+07,33.7312,2,2.68885,-2732.5,-6657.6,-29294.4
1.12627e+07,2.23244,2,2.68791,-51.4419,-170.936,-28361.8
0,2.33421,0,2.63092,0,0,0
0,2.21105,2,2.6987,0,0,0
0,2.45229,0,2.62349,0,0,0
0,2.30147,2,3.03543,0,0,0
0,2.20093,2,3.0469,0,0,0
0,2.33749,2,2.52618,0,0,0
1.14295e+07,55.0181,1,2.79655,8763.51,54.2027,-21306.3
1.15659e+07,101.711,1,2.89169,-18863.9,4738.03,-19808.8
1.15979e+07,29.5591,1,2.70082,2208.73,2472.1,-23519.6
1.18761e+07,19.5698,1,2.61807,1134.57,-2770.08,-26057.7
1.22668e+07,16.3697,0,2.46456,-988.072,-1919.4,-26119.5
1.24639e+07,117.437,1,2.74567,-18587.6,-13774.7,-20050
1.2542e+07,91.3819,2,2.79607,10671.6,-15506.6,-24632.4
1.28585e+07,171.686,0,2.71062,9843.16,29318.9,-9997.41
1.29635e+07,91.8632,2,2.39116,9500.74,-4611.28,-12544.8
1.3148e+07,64.2779,1,3.02995,1938.39,8282.78,-18757.1
1.3306e+07,65.7446,2,2.84785,-10721.1,-2850.34,-20504.5
1.39776e+07,3.14148,1,2.8871,173.568,-473.703,-28472.5
1.40737e+07,33.5353,0,2.49723,5965.09,4023.34,-28842.1
1.45249e+07,61.887,0,2.44663,-5469.86,-6717.75,-19068.9
1.55694e+07,77.7647,2,2.48202,6630.72,-14686.3,-25271.6
1.56587e+07,78.8957,1,2.98436,4983.64,12686.7,-19386.9
1.58391e+07,16.5492,1,2.39502,-734.969,3544.31,-28909.3
1.59403e+07,8.85078,2,3.02138,914.036,-1628.37,-28446.7
1.59667e+07,114.086,2,2.60299,-16349.1,11890.4,-15719.4
1.635e+07,153.564,1,2.78756,7738.2,640.475,-1842.86
1.6537e+07,14.7567,0,2.71942,2885.51,-1170.95,-28053.7
1.6963e+07,28.0978,1,2.48302,-38.3962,5436.87,-26242.3
1.69969e+07,143.386,2,2.6674,-17308,-16620.6,-10328.1
1.70991e+07,131.333,0,2.79857,11268.2,-9103.89,-5251.16
1.76896e+07,50.9116,1,2.80408,3366.46,8791.79,-23570.1
1.7928e+07,48.8522,0,2.53171,3139.59,-9900.63,-28599.2
1.79404e+07,51.6458,2,2.69549,-6183.75,-2245.43,-20086.9
1.81402e+07,79.6322,0,2.90469,611.997,199.011,-28338.4
1.84719e+07,92.7265,2,2.57154,-5308.03,11938.1,-14287.3
1.86148e+07,10.6727,2,2.73546,-1412.89,-1306.17,-27534.2
1.87227e+07,102.074,2,2.86649,-17638.9,-10848.7,-22914.3
1.90839e+07,21.7633,0,2.47439,3194.7,871.982,-25563.2
1.95595e+07,104.694,2,2.93746,-2228.97,-2387.99,-7101.08
1.9571e+07,13.7316,0,2.4332,1151.27,2471.98,-27645.9
1.98645e+07,16.4653,2,2.38215,2764.32,-663.932,-26803.5
1.99475e+07,48.0626,2,2.47943,-8536.98,-5050.87,-26222.9
1.9984e+07,95.9224,1,2.70474,7528.43,18852.5,-28451.9
2.00536e+07,75.2268,1,2.74306,9352.99,12791.7,-29772
2.02549e+07,1.67908,0,2.7097,167.436,-83.5471,-28490
2.05053e+07,78.7435,2,2.98996,-14623.3,7435.88,-26836.8
2.0638e+07,9.2661,0,3.04917,1201.91,-937.508,-27515.7
2.07044e+07,140.602,2,2.84323,11833.2,4366,-2127.81
2.09169e+07,19.7153,1,2.43894,1526.96,-1749.34,-25385.2
2.12108e+07,5.22363,2,2.47048,-691.694,-578.462,-28084.8
2.13127e+07,46.2696,2,2.46257,-6518.59,-7391.21,-29774.4
2.14186e+07,16.7004,1,2.94874,867.934,-3081.6,-27586.1
2.15505e+07,26.9554,1,2.39201,3176.1,1559.96,-24337.2
2.23793e+07,55.0906,2,2.95939,-5692.48,5001.97,-20132.2
2.25327e+07,31.5028,0,2.61664,4137.31,-2903.37,-24430.4
2.29406e+07,20.7914,2,2.41075,-319.755,-1161.06,-24581
2.29614e+07,56.4856,2,2.61105,-3769,-9329.71,-22304
2.35705e+07,41.4279,2,2.9501,-2466.58,-8452.51,-29029.4
2.35771e+07,8.95392,0,3.05779,1061.98,-1340.39,-27929.4
2.36972e+07,20.2561,0,2.74325,-3143.66,2100.22,-26984.1
2.37061e+07,92.0132,1,2.52979,-12225.6,9072.86,-16669
2.37803e+07,45.5088,0,2.69205,9618.84,1161.93,-28405.7
2.38631e+07,113.434,0,2.83636,-19867.4,-3926.67,-16347.3
2.43228e+07,25.5117,1,2.37023,-4096.28,-2986.53,-26959.6
2.45533e+07,3.32562,1,2.5716,200.404,539.392,-28328.5
2.47116e+07,11.4185,2,2.4143,-1517.55,1072.08,-27260.2
0,11.6035,2,2.87911,0,0,0
2.47166e+07,156.372,1,2.80581,-21901.4,13764.1,-8410.05
2.52546e+07,11.6308,0,2.74719,2311.27,795.853,-28116.7
2.53222e+07,144.506,0,2.69233,7657.78,26938.1,-16826.5
2.53385e+07,61.1849,1,2.68644,-4169.56,6258.79,-18279.2
2.54035e+07,58.4702,0,2.52192,10855.6,6057.99,-29134
2.54357e+07,21.2247,2,2.44828,-3962.28,-1443.45,-27093.4
2.57931e+07,160.89,0,2.84788,24585.3,-8286.86,-7037.73
2.60053e+07,87.3055,0,2.64857,-543.1,-6047.12,-11429.3
2.6238e+07,142.467,2,2.73864,-13250.1,1803.96,-1941.49
2.63621e+07,7.98448,2,2.58977,622.357,-1601.55,-28459.1
2.665e+07,59.9835,0,2.94726,9858.17,-3438.17,-21669.1
2.67182e+07,29.4318,0,2.86054,5204.31,-1247.42,-25545.4
2.68051e+07,91.1888,0,2.69627,2295.93,-16809.3,-19718.9
2.68959e+07,14.0214,1,2.62417,-2778.7,738.61,-29855.4
2.6913e+07,144.588,1,2.52179,-14614.5,-23037.2,-15099.3
2.69931e+07,64.1139,0,2.64037,7450.05,8217.04,-20960.5
2.70122e+07,23.3803,1,2.93019,-4462.47,1679.14,-27351.3
2.73751e+07,123.91,2,2.71292,-4953.47,-24778.9,-21914.8
2.74386e+07,142.279,2,2.46328,-27839.4,-3796.83,-17932.7
2.74946e+07,39.2269,2,2.53617,850.082,-7053.4,-24425.9
0,39.1487,2,2.53169,0,0,0
2.77016e+07,37.1582,1,2.6141,-6781.54,3926.56,-27631.4
2.781e+07,134.331,0,2.78814,-12289.1,2961.67,-5475.73
2.78489e+07,15.7168,0,2.5692,-2625.41,-698.791,-26993.1
2.8191e+07,2.63454,2,2.87877,-273.141,197.086,-28380
2.82572e+07,13.4852,0,3.00807,-909.201,743.539,-26295.5
2.82668e+07,16.7422,0,2.39462,-1641.27,-130.159,-25736.5
2.84017e+07,10.0266,0,2.97802,2179.46,201.058,-28473.3
0,10.123,0,2.49364,0,0,0
2.84606e+07,224.33,1,2.72026,-26313.2,7886.1,9666.11
2.90114e+07,1.32729,0,3.01567,259.856,-247.411,-28772
2.96049e+07,72.044,1,2.63309,-5685.66,3754.23,-15194.3
2.96535e+07,29.1953,0,2.86154,4373,-699.611,-24492.6
2.96643e+07,51.9365,0,2.8989,6057.74,3617.59,-20429.5
2.98531e+07,0.640188,2,2.72577,54.6398,-167.982,-28748.2
3.00211e+07,6.171,0,2.92726,-438.89,620.005,-27833.2
3.00373e+07,104.292,0,2.68165,15570.6,12704.8,-19702.5
3.01677e+07,131.559,0,3.01206,8621.15,-16403.4,-8413.71
3.06876e+07,21.2713,1,2.65358,3332.81,735.856,-25925.3
3.0736e+07,44.5129,1,2.64036,1419.05,5105.39,-21015.1
3.07765e+07,11.5207,0,2.62009,1582.7,146.737,-26920.4
3.08692e+07,67.9869,0,2.75572,5365.41,12557.4,-24486.7
3.10101e+07,249.315,1,2.5134,3565.33,16057.5,21251.3
3.16593e+07,9.09783,1,2.92453,-1754.99,650.807,-28145.1
3.23516e+07,149.019,1,2.51052,-7974.31,10356.1,-120.764
3.24891e+07,83.8044,1,2.60755,3508.15,16089.9,-22188.6
3.2686e+07,42.402,1,2.67028,-1109.57,8865.36,-27367.4
3.33922e+07,25.6023,2,2.39942,-4731.77,-1809.19,-26673.3
3.34986e+07,119.702,2,2.76847,1076.24,13732.9,-7753.92
3.36453e+07,4.59668,0,2.59625,-854.939,-196.698,-28521
3.39246e+07,253.444,1,2.54464,17733.7,13283.5,19921.5
3.4227e+07,47.7263,1,2.53761,6523.93,-1231.86,-21247.6
3.44703e+07,130.636,2,2.83851,3824.55,-9001.78,-3141.04
3.45553e+07,132.433,2,2.88891,23581.8,14084.7,-24879.1
3.47002e+07,149.118,2,2.81451,-15332,-8093.11,-26405.4
3.49924e+07,72.2969,0,2.63099,-11689.7,9735.72,-28536
3.5022e+07,34.8151,1,2.99841,2157.68,1170.11,-21953.8
3.50446e+07,38.2232,0,2.92305,6780.98,4375.12,-28137
3.51203e+07,31.4596,1,2.70685,1452.41,4009.1,-23680.9
3.53235e+07,76.5545,0,2.45323,-607.639,-13603.1,-20042.5
3.53255e+07,149.171,1,2.60976,-25497.6,11273.7,-14067.8
3.54853e+07,25.0426,1,2.7526,-2878.02,-531.427,-24411.8
3.60872e+07,47.1801,0,2.87252,6700.22,6986.25,-26414.1
3.63373e+07,179.859,0,2.79618,15390.3,-899.063,5745.22
3.6371e+07,149.08,2,2.98018,-11460.5,-27279,-18460
3.64664e+07,110.936,1,2.92959,-12312.4,-4644.3,-9612.51
3.64802e+07,16.5624,1,2.55066,-1662.57,-1647.36,-26213.7
3.65189e+07,102.441,0,2.67051,16034.6,4792.58,-15072
3.66277e+07,35.9882,2,2.54027,-1744.61,-2280.07,-21747.7
3.69775e+07,110.147,0,2.45018,10010.4,7060.57,-8956.15
3.74204e+07,84.3113,0,2.92264,1281.85,11847.7,-15748
3.74429e+07,9.75932,1,2.89761,1504.19,770.271,-27631.8
3.75228e+07,61.2604,2,2.78875,-10899.1,5639.17,-24831.5
3.76916e+07,107.338,2,2.49054,-9614.97,7389.27,-9642.35
3.8055e+07,108.79,2,3.05453,16351.4,-11280.4,-17695.6
3.80846e+07,101.38,1,2.97737,-9167.19,-8590.2,-11673.8
3.82416e+07,64.1673,2,3.05193,-350.001,11374.4,-29883
3.83278e+07,13.0685,0,2.90134,1733.29,390.522,-26669.3
3.88602e+07,66.6222,2,2.94707,-11021.3,-8576.68,-26987.7
3.90183e+07,40.1393,1,2.51898,-6480.49,4969.08,-26309
3.91389e+07,147.301,2,2.82368,-14017,-16996.2,-24564.6
3.9627e+07,6.59713,2,2.48452,797.946,-1212.27,-28712.4
3.97087e+07,53.3004,0,2.79506,11204.7,1529.92,-29081.5
4.15187e+07,88.957,0,2.6699,-11499.8,-14158.5,-24617
4.2162e+07,135.722,0,2.91671,-21018.3,-3866.86,-10092.5
4.23722e+07,47.037,2,2.91217,-225.185,-4026.4,-19786
4.27676e+07,28.1156,2,2.96324,-3551.39,-406.497,-24075.2
4.2835e+07,14.6548,2,2.93359,1302.73,-2312.8,-27220.5
4.28446e+07,93.5549,2,2.57783,-8579.94,-8976.91,-13395.5
4.28767e+07,123.928,1,2.94179,-918.626,-9395.27,-4645.88
4.30461e+07,9.41747,2,2.50062,444.152,-1705.33,-27744.5
4.30896e+07,50.2917,2,2.87757,-9259.09,3077.76,-24726.7
4.343e+07,22.8471,2,2.85658,2873.91,-3358.57,-26869.8
4.36546e+07,4.81404,2,2.49362,-245.172,-252.604,-27843.7
4.36915e+07,207.475,0,2.46534,-5378.68,-13530.7,12547.2
4.39547e+07,15.5674,1,2.7974,-1390.78,-832.63,-25957.8
4.42385e+07,4.59896,1,2.59512,159.547,959.544,-28420
0,4.64998,1,2.92178,0,0,0
4.4413e+07,46.6736,1,2.4131,4255.39,5892.38,-22090.4
0,46.6841,1,2.42334,0,0,0
4.44945e+07,11.7662,1,2.54343,-851.898,796.361,-26580.3
4.46591e+07,15.836,1,2.80008,1843.02,2399.84,-27291.3
0,15.8362,1,2.80008,0,0,0
4.50256e+07,26.4145,0,2.84191,1984.41,-4659.5,-26437.4
4.51401e+07,18.129,1,2.44812,-945.085,-1411.58,-25396
4.53043e+07,73.0095,1,2.73372,1933,7627.8,-15590.8
4.53112e+07,122.544,0,2.98193,12978.4,-96.1169,-6620.5
4.58389e+07,163.781,0,2.54541,16426.2,-9605.88,124.365
4.59524e+07,3.75271,0,2.48778,662.144,468.862,-28518.4
4.6062e+07,293.384,2,2.48291,-8581.17,23814.9,27764.2
4.63134e+07,164.846,0,2.40725,-4616.47,902.967,-24723.5
4.63401e+07,51.8369,2,2.75815,6134.67,4814.5,-21244
4.64282e+07,48.4046,0,2.67711,-5951.76,-2395.2,-20969.8
4.66264e+07,65.9559,2,2.5563,-10116.5,3352.05,-19855.4
4.74252e+07,3.4453,2,2.71821,443.884,-384.769,-28363.8
4.76421e+07,69.7541,0,2.85431,3162.73,-12824.4,-22430.5
4.79344e+07,69.3881,2,2.64996,1885.91,-3625.9,-14748.1
4.80038e+07,155.148,2,2.81998,13998.5,-13993.1,-2863.02
4.80687e+07,54.0259,1,2.42479,-3858.98,6469.94,-20148.2
4.81293e+07,124.934,2,2.36311,4887.53,-18618.3,-10628.8
4.82283e+07,71.45,2,2.66639,1984.35,-8038.21,-16179.2
4.84946e+07,98.5068,2,3.03168,8292.51,1531.92,-10029.6
4.85081e+07,19.4285,0,2.90289,1830.34,1710.94,-25540.7
4.96014e+07,42.1422,1,2.55149,5979.41,4633.73,-24065.3
5.02384e+07,85.0255,2,2.39531,-2747.79,-7047.46,-23837.8
5.05356e+07,46.8361,1,2.81283,2884.53,-7795.12,-23617
5.06749e+07,8.52798,1,3.02627,1418.8,960.115,-29485.1
5.06851e+07,108.684,1,2.46784,4995.81,19113.3,-16954.2
5.10615e+07,198.776,2,3.01117,-16914.6,-21049.1,2952.28
5.14436e+07,76.3605,2,2.48241,-3357.87,14071.8,-21718.3
5.18691e+07,10.4319,1,2.93752,992.118,1875.19,-29604.1
5.21062e+07,44.3723,1,3.01029,-5439.15,3828.56,-22239.9
5.21712e+07,96.1265,2,3.01601,6839.58,-5194.29,-10587.3
5.22066e+07,34.0339,2,2.42926,-636.611,-5330,-23938.4
5.22533e+07,55.9529,1,2.9793,11199.2,2794.06,-26746.3
5.23294e+07,58.93,2,2.64284,864.645,-9546.62,-20797.2
5.2566e+07,91.8922,0,2.66715,10422.7,-8075.04,-14549
5.25895e+07,50.6368,1,2.90014,-6051.01,8640.3,-26843.5
5.26318e+07,30.3516,0,2.40321,3753.62,4559.01,-26129.3
5.28629e+07,84.2947,1,2.4695,-2049.25,15776.3,-20613.6
5.30964e+07,48.4531,1,2.50345,-10210.7,-1071.81,-28289.1
5.31197e+07,20.8465,1,2.40309,3775.98,-143.558,-26619.9
5.32458e+07,41.5869,2,2.80817,1118.59,6668.42,-23352.9
5.3339e+07,115.551,0,2.85958,20691.6,-12693.8,-26716.9
5.33605e+07,14.6372,0,2.87634,1231.68,-2717.6,-27921.6
5.34446e+07,42.303,2,2.99697,2353.33,-8612.12,-28081.4
5.3456e+07,24.0682,0,2.58285,2032.18,3379.03,-25559.3
5.35584e+07,25.5434,0,2.91457,-1434.24,2839.83,-28354.8
5.35817e+07,150.787,2,2.73539,20926.3,17348,-12493.9
5.39372e+07,59.0836,2,2.5724,-7155.76,-5873.59,-20351.1
5.4664e+07,104.018,2,2.88564,-5388.7,14176.2,-13124.6
5.47174e+07,60.9513,2,3.05581,-4066.78,-4675.34,-17614.1
5.48522e+07,6.11534,0,2.96933,40.1648,1248.19,-28397.6
5.51802e+07,34.5059,1,2.60303,3056.54,3133.95,-22961.6
5.52061e+07,32.297,2,2.66013,-6555.43,-1457.26,-27344.6
5.52386e+07,9.228,2,2.91831,-1549.6,-1048.06,-28076
5.53599e+07,25.4056,1,3.03057,-1747.07,466.179,-23784.3
5.53827e+07,11.2825,1,2.65622,1753.13,-1134.01,-27811.1
5.53835e+07,85.2639,1,2.55712,-18068.6,-581.561,-29340.4
5.56833e+07,62.8854,0,2.73246,2763.57,-12142.4,-24275.7
5.60613e+07,20.3977,0,2.96061,242.951,-3454.93,-26262.9
0,20.3067,0,2.38856,0,0,0
5.64078e+07,30.4512,1,2.39248,5418.16,2636.88,-26591.8
5.64166e+07,52.0006,0,2.56449,5226.91,3551.7,-19799.7
5.64511e+07,8.38675,1,2.6593,303.711,1023.69,-27349.8
0,8.48003,1,2.86279,0,0,0
5.6484e+07,38.8444,1,2.55314,-4971.7,-4482.38,-24064.1
5.65399e+07,25.5427,0,2.54698,400.219,3870.08,-25041.4
5.6867e+07,77.2943,1,2.87935,-14959.6,-759.144,-22422.3
5.68795e+07,10.2403,0,2.98596,1618.38,-1362.07,-28097.9
5.71348e+07,54.6816,1,2.71373,3165.98,11055.5,-27374.1
5.76943e+07,37.4447,1,2.57465,-6087.28,-1471.48,-23934.4
5.77064e+07,12.628,0,3.0163,2127.87,1694.08,-28565.3
5.77144e+07,13.2175,0,2.86196,324.311,-1715.08,-26637.8
5.79203e+07,145.774,1,2.61421,-11293.8,16053.6,-5068.52
5.79572e+07,20.6353,0,2.52976,3174.11,877.133,-25873.1
5.80792e+07,58.2252,1,2.52355,10936.2,-2686.4,-24011.1
5.82986e+07,6.00067,2,2.77418,-397.527,-671.671,-27755.8
5.84215e+07,21.9628,2,2.9226,-3702.8,-1328.8,-26276.7
5.84258e+07,71.3341,0,2.73433,14488.5,3470.24,-26200.8
5.89722e+07,117.614,1,2.82813,9723.93,12035.1,-9493.15
5.90706e+07,65.4763,2,2.45796,-7384.15,8170.34,-20443.5
5.91102e+07,29.285,2,2.40026,5610.52,-1923.82,-27013.1
5.91374e+07,52.2103,0,2.63187,-331.97,-9917.01,-23980.7
5.92667e+07,62.5261,1,2.57879,-8033.2,10090.2,-25521
5.95028e+07,14.7088,0,2.86187,-443.751,2070.93,-26585.8
5.98966e+07,45.8003,2,3.01364,6304.74,-706.014,-21653
5.99933e+07,167.179,1,2.74998,-3688.98,-18587.7,802.354
6.03244e+07,127.065,1,2.64036,5934.29,12413,-5788.48
6.04997e+07,222.29,2,2.76285,16047.5,18598.5,9018.6
6.05835e+07,37.6124,2,2.43801,-7828.68,-1634.39,-29590.3
6.06771e+07,165.872,2,2.63593,6720.29,-13586.9,2750.91
6.08622e+07,56.4912,0,2.71868,7030.89,2425.8,-19461.4
6.15585e+07,110.857,1,2.60309,-6134.55,-9421.17,-8309.53
6.16634e+07,163.2,2,2.74085,-28708.4,-2189.94,-9994.33
6.2176e+07,114.394,1,2.62238,-11355.4,17875.4,-17060
6.24785e+07,42.5245,2,2.94553,-7246.98,-174.049,-24898.7
6.26565e+07,29.517,2,2.46091,4878.56,-3357.81,-26728.9
6.2966e+07,78.4237,0,2.45438,12240.9,8609.34,-21478.5
6.31336e+07,143.297,2,2.45425,-29070.9,8698.1,-29269.4
6.35468e+07,3.70175,0,2.56964,783.286,-391.005,-28859.2
6.35662e+07,44.3921,1,2.60615,-8833.53,3427.08,-28609.6
6.35676e+07,32.2242,1,2.4241,2045.41,-2263.23,-22769.7
6.36207e+07,61.3669,1,3.04838,-9143.04,1959.46,-19965.7
6.3772e+07,79.5491,0,2.58372,10227.2,13400.9,-29620.2
6.38803e+07,184.728,0,2.9531,14235,11621,-11170
6.3986e+07,6.90144,0,2.9722,1198.86,-286.93,-27925.2
0,6.88516,0,2.762,0,0,0
6.41504e+07,118.874,1,2.76765,-18711.1,-11067.7,-16431
6.42663e+07,148.702,1,2.50572,5718.09,16817.9,-2844.21
6.43899e+07,47.3852,0,2.57293,-9165.08,3570.95,-27349.5
6.44276e+07,133.003,2,2.91493,-22148.9,10353.5,-15307.2
6.45588e+07,74.7794,1,2.55305,-6001.51,-1430.87,-14256.7
6.47282e+07,157.75,1,2.55973,-20368.3,17131.6,-8649.86
6.48061e+07,35.8626,2,2.45018,1212.39,2838.28,-21920.9
6.48467e+07,16.5737,0,2.7295,2119.56,-649.432,-28757
6.49311e+07,118.841,2,2.78203,-19320.4,-10252.7,-16555.3
6.51049e+07,89.7719,2,2.47298,-12246.5,14460.6,-29868.9
6.56433e+07,21.1745,2,2.75125,573.798,362.267,-25070.4
6.57511e+07,277.114,2,2.63826,-20979.4,-6559.2,-22351.2
6.57698e+07,93.7924,1,3.02648,-7009.6,16065,-19754.2
6.58998e+07,35.5397,1,2.95924,1290.77,7441,-29227.9
6.63626e+07,48.5658,2,2.40826,-1442.87,-9838.05,-25880.8
6.63898e+07,98.058,1,2.87729,-15370.9,7113.44,-16975
6.65213e+07,41.6979,2,3.00794,-8229.88,-853.09,-25867.7
6.69547e+07,53.0826,1,2.38585,-3286.05,5482.01,-19521.4
6.70517e+07,36.0217,2,2.765,2557,-7023.68,-27141.6
6.70635e+07,20.3492,2,2.85155,-2111.43,-1314.19,-25280.5
6.70684e+07,20.6633,1,2.37974,944.646,3618.87,-26446.6
6.70865e+07,132.135,0,2.46017,18007.7,6206.33,-8316.43
6.71751e+07,0.784684,1,2.86992,-116.887,-92.6786,-28801
0,0.739309,1,2.94412,0,0,0
6.74976e+07,52.2925,1,2.48386,4153.59,-6656.32,-21078.4
6.77435e+07,156.19,0,3.01379,-9275.7,-27735.4,-14553.7
6.79828e+07,15.9741,1,3.03285,-1473.99,-2181.5,-26782.5
6.80025e+07,73.6771,2,2.63738,-9447.59,-3658.61,-16970.2
6.8445e+07,61.5296,2,2.73773,11672.4,792.414,-23292.2
6.84579e+07,4.07814,0,2.90157,243.424,-423.503,-28089.9
0,4.08376,0,2.832,0,0,0
6.8526e+07,11.4926,0,2.80082,1556.13,-1312.23,-27412.7
6.90542e+07,182.525,2,2.76926,-25685.6,-2356.57,-299.218
6.90546e+07,201.694,1,2.81486,7956.58,24409.4,4927.26
6.90577e+07,25.9742,2,2.84354,3477.5,253.476,-24649.2
6.91638e+07,150.976,2,2.59501,-16667.8,-27271.4,-28709.4
6.91666e+07,33.7599,0,2.65339,4429.9,-5563.86,-29977.7
6.91991e+07,10.6704,1,2.4083,-1639.88,1609.79,-29335.5
6.93962e+07,205.709,1,2.59948,-10417.2,6659.34,12828.8
6.95093e+07,49.0899,0,2.39456,-8678.51,-340.161,-23237.4
6.95777e+07,45.3372,1,2.82562,-8449.25,-802.881,-24378
6.98729e+07,46.5404,1,2.85904,4388.52,6380.06,-22781.8
6.99627e+07,8.58102,1,2.84165,-1597.97,-849.155,-28693
7.0028e+07,32.1293,2,2.556,-2982.7,-441.86,-22735
7.00828e+07,29.6654,1,2.4793,-3031.01,-790.795,-23390.7
7.05983e+07,145.635,0,2.98397,21743.4,5150.92,-7956.98
7.09654e+07,93.0942,0,3.05929,5951.47,3420.13,-10560.5
7.09798e+07,39.8523,1,2.95313,-3817.11,7525.46,-29543.2
7.12851e+07,14.477,2,2.36926,1478.36,-2356.45,-27423.1
7.13847e+07,147.011,2,2.69097,-3461.49,21127.6,-6557.46
7.14511e+07,63.0721,0,2.71829,12737.6,3647.79,-26838.6
7.15332e+07,25.9994,2,2.5541,-4096.07,2045.96,-25755.6
7.2058e+07,53.9207,0,2.58478,3478.5,10039.8,-24564.7
7.21486e+07,117,0,2.92579,16812.9,13296.5,-16742.3
7.24217e+07,1.32249,2,2.59262,-122.824,-247.379,-28614.7
7.27762e+07,136.196,2,2.49243,-20453.6,-18646.8,-20526.7
7.31151e+07,151.516,0,2.50789,16376.1,-25108.7,-17377.9
7.31993e+07,30.1037,0,3.01883,6387.15,543.662,-29220.2
0,30.101,0,2.93054,0,0,0
7.32171e+07,99.4384,0,2.62316,-9573.98,-1439.9,-10231.5
7.33539e+07,149.771,2,2.66873,-12857.7,-9162.31,-1426.99
7.33896e+07,153.328,0,2.41817,3804.42,-4594.72,-18514.5
7.33913e+07,8.51206,0,2.40228,1112.77,-448.81,-27403.2
7.363e+07,38.5273,0,2.83362,5662.93,1099.28,-23048.7
7.39407e+07,12.6782,2,2.83766,531.669,-2695.74,-28666.4
7.4084e+07,52.9526,1,2.66187,-7964.54,-6804.94,-24937.1
7.41045e+07,176.875,0,2.85089,15933.7,24244.4,-5727.98
7.42308e+07,173.364,0,2.77369,-26894.6,-22798.3,-19740.4
7.45301e+07,109.774,2,2.82582,-12672.8,-16205.7,-18207.9
7.46028e+07,73.8271,1,2.36492,-11599.3,4046.5,-19060.3
7.50403e+07,28.1307,0,2.6197,-1160.74,-5631.41,-27314.1
7.534e+07,13.492,0,2.81669,3.6109,-2114.57,-26903.2
0,13.5553,0,2.98177,0,0,0
7.55158e+07,123.572,1,2.54731,8136.68,22389.6,-17991.5
7.55837e+07,45.2479,1,2.86323,2786.12,6912.93,-22867.1
7.5616e+07,231.781,0,2.70488,-2505.32,-25744.9,12600
7.57831e+07,35.0441,2,2.87063,-976.165,-6712.98,-25840
7.60625e+07,58.7978,2,2.50008,-3199.14,-8534.14,-20274.2
7.62617e+07,96.0599,0,2.43958,10531.2,-13382.6,-17633.6
7.6309e+07,25.6532,2,2.62949,1532.78,1809.57,-23988.7
7.64314e+07,58.5931,2,2.8731,2126.9,6770.13,-18843.3
7.66919e+07,37.6532,1,2.82826,-370.747,3600.56,-21731.6
7.67078e+07,171.144,1,2.59857,-25851.3,-14741.5,-22006.2
7.67503e+07,133.681,1,2.38579,-20171.6,-59.9748,-8933.73
7.76392e+07,57.2799,0,2.44418,6590.98,-6826.27,-21198
7.77602e+07,28.3645,0,2.6577,1266.12,3216.26,-23902.7
7.8061e+07,110.47,1,2.60686,-2742.99,18568.6,-14862.4
7.82481e+07,112.434,0,2.48283,-14162.9,7552.06,-14531.6
7.84095e+07,13.0028,0,2.56613,1912,-2080.66,-28797.8
7.84182e+07,56.9828,1,2.6108,5576.72,2143.67,-18372.7
7.84809e+07,103.718,2,2.87865,10764.9,-6411.15,-10997.4
7.86271e+07,38.6024,2,2.85163,-326.807,-7042.59,-24683.6
7.87453e+07,46.8317,1,2.99364,-506.005,-6241.44,-21289.3
7.89012e+07,125.304,2,2.89065,-476.93,-22973.8,-15847.4
7.89611e+07,79.41,1,2.86169,-10915.7,9738.15,-20620.9
7.89797e+07,19.222,2,2.95472,495.21,-2379.06,-25588.9
7.89876e+07,71.7736,1,2.45628,-6070.32,134.447,-14920.3
7.9078e+07,106.989,0,2.96229,4924.95,-11435.5,-18391.1
7.91483e+07,70.4179,0,2.64777,-7133.82,-6434.9,-17514.7
7.91539e+07,61.8327,0,2.74758,709.438,-7218.1,-17988.5
7.91755e+07,127.617,1,2.7247,5949.68,23505.5,-17039.8
7.97684e+07,198.158,2,2.39231,17639.4,-13596.5,-12263.8
7.995e+07,66.2894,1,2.97578,-7720.29,11435.9,-26411
8.00718e+07,12.162,0,2.94891,-2421.63,-172.265,-28271.6
0,11.539,2,2.55619,0,0,0
8.06034e+07,58.5743,2,2.66288,-6987.21,-3951.01,-19388.8
8.06949e+07,150.463,0,2.93577,11915.4,10777.2,-22671.8
8.07451e+07,138.879,2,3.00163,6497.22,23482.7,-12984.7
8.07617e+07,37.4553,0,2.58793,-6674.21,2077.11,-25222
8.07777e+07,148.033,0,2.72597,16977.1,-24078.9,-18424.5
8.10246e+07,126.589,2,2.88814,-21003.1,-4511.77,-15592
8.12046e+07,77.4304,0,2.98667,13005.9,-9303.58,-25743.3
8.13357e+07,12.9091,2,2.84994,391.374,-2784.26,-28913.5
8.13727e+07,176.645,1,2.92887,15419.3,29914.8,-13140.6
8.1461e+07,43.2474,2,2.85576,-5981.8,-262.755,-21964.4
8.20455e+07,43.9146,1,2.8783,-5870.91,-1973.22,-21998.8
8.21517e+07,122.394,2,2.89751,17280.8,-18427.3,-23818.9
8.21871e+07,16.7647,1,3.01204,-1072.28,-1702.8,-25995.5
8.22341e+07,180.219,0,2.59273,24531.8,-26147.5,-16210.7
8.22343e+07,48.6008,1,3.00742,-4235.94,174.527,-19563.3
8.25172e+07,36.8336,1,3.0007,-3712.55,6760.09,-27465
8.25337e+07,118.568,2,2.91801,4550.32,-14206.5,-8888.99
8.27332e+07,35.8995,1,2.65731,-7334.6,2123.95,-28727.2
8.31558e+07,2.6534,0,2.87684,218.615,221.37,-28333.2
8.32506e+07,60.4199,0,2.39578,4301.74,1043.5,-16811.6
8.3386e+07,8.13795,1,3.02604,-990.884,1200.03,-27981
8.35853e+07,222.389,1,2.52001,-24522.7,28173.7,-195.027
8.37656e+07,10.26,2,2.99834,1018.58,-1764.5,-27938.4
8.39384e+07,9.92185,1,2.81722,503.348,1849.24,-29418.7
8.39633e+07,14.0368,0,2.49757,-99.6115,2864.18,-27931.4
8.42278e+07,37.9774,0,2.45626,6748.32,4389.87,-27636
8.4255e+07,26.5668,1,2.38099,-1865.92,-4476.99,-26023.4
8.427e+07,13.2838,0,2.65575,1863.77,2012.52,-27940.2
8.44119e+07,67.3572,1,2.45719,10154.7,965.599,-18888.7
8.46293e+07,60.0245,2,3.04918,-7597.03,9651.21,-26135
8.48123e+07,60.9133,2,2.48399,-8933.34,2318.51,-19792.9
8.48283e+07,67.2531,1,2.59903,-13096.6,-5577.53,-28196.6
8.49113e+07,163.435,0,2.71123,7456.32,6429.86,4172.07
8.51526e+07,9.89697,2,2.64142,-137.746,-1925.86,-27844.6
8.54094e+07,164.431,1,2.4401,-23059.3,7357.78,-3781.49
8.55635e+07,26.9763,0,2.95743,4006.91,37.2532,-24729.8
8.60608e+07,58.3494,1,2.47279,-299.739,9772.19,-21181.2
8.61634e+07,66.6478,2,2.46796,-9060.85,-8076.96,-21509.1
8.66261e+07,124.318,2,2.9617,12472.8,4900.36,-8317.09
8.66491e+07,29.6482,2,3.05004,2034.7,4239.55,-24836.7
8.66637e+07,46.6522,1,3.05302,-1934.82,9670.4,-29158.1
8.68305e+07,40.7477,2,2.65925,-6990.5,3057.4,-24871.7
8.68492e+07,93.8948,0,2.55301,11325.5,-10325.7,-16134.6
8.70452e+07,3.17354,0,2.96563,-17.1394,-265.019,-28227.2
8.73429e+07,37.5609,1,2.95197,-5471.01,5424.25,-26781.5
8.7479e+07,60.1686,2,3.04627,-10017.9,-2508.52,-21499.8
8.75191e+07,6.8778,1,2.85604,23.6173,887.579,-27629.5
8.75364e+07,37.0943,1,2.69304,1842.67,2437.13,-21604.2
8.75975e+07,44.1257,0,2.96121,-4279.17,-922.338,-20701.8
8.7653e+07,42.5606,0,2.74312,1713.08,-5744.98,-22118.1
8.79492e+07,141.697,0,2.70054,9385.48,-18519.4,-7336.34
8.80808e+07,22.984,1,2.99879,-231.96,2818.34,-24889.4
8.82542e+07,58.9032,1,2.90508,7526.69,1672.63,-19179.2
8.84647e+07,204.891,1,2.51108,-8266.04,22408.6,7341.12
8.85893e+07,109.356,1,2.44769,-19111.6,-4481.66,-16510.1
8.87034e+07,62.1261,1,2.75347,-5465.78,7012.59,-19154.4
8.89362e+07,13.721,2,2.59684,1351.08,2376.28,-28030.4
0,13.1505,1,2.41631,0,0,0
8.94598e+07,102.809,2,2.94598,-9381.81,-14850.6,-16215.3
8.94711e+07,257.25,0,2.74353,-16964,-19544.6,6999.96
8.96709e+07,83.3514,0,2.74856,4207.51,-5278.63,-12596.4
8.9707e+07,148.58,0,2.93729,19601,-648.642,-4518.3
8.9843e+07,126.889,1,2.5768,22174.2,-3763.33,-14342.4
9.02242e+07,34.6286,2,2.6996,-4249.07,786.354,-22908
9.05788e+07,68.9002,2,2.41372,5170.19,-13706.3,-29177.9
9.06886e+07,82.7731,1,2.7438,-11223.4,8005.02,-18039.8
9.08273e+07,49.7797,1,2.64822,-5652.12,801.948,-21545.9
9.08903e+07,137.337,2,2.96277,-4922.5,-26183.9,-17647.6
9.09902e+07,49.6026,2,2.95015,4331.72,1767.08,-19556.3
9.09973e+07,25.195,2,2.79653,2601.27,-1835.89,-24577.1
9.10129e+07,35.7553,0,2.80124,170.827,-2588.14,-21748.9
9.12959e+07,0.594086,2,2.45557,-30.78,-236.092,-28818.4
9.15421e+07,5.42659,0,3.01575,461.335,89.9563,-27745.9
9.15711e+07,72.4789,1,2.40342,-5267.94,-4730.37,-15224.1
9.18161e+07,18.1314,2,2.80673,2253.14,-2452.45,-26879.7
9.1824e+07,11.7649,2,2.5712,307.031,-2537.38,-29044.2
9.19394e+07,35.844,2,2.37145,1304.69,-2116.69,-21642.5
9.19556e+07,42.5585,1,2.43738,-5397.19,2564.27,-22034.2
9.24007e+07,36.0244,2,2.93452,-1824.35,-7264.67,-27168
9.28264e+07,187.71,0,2.97886,-6333.06,-3600.77,-27331
9.2868e+07,90.48,1,2.67257,-11250.3,13161.3,-20583.8
9.30952e+07,71.8317,2,3.01013,3731.2,-11164.7,-19349.3
9.32567e+07,20.1423,1,2.95843,-1453.94,-1202.81,-25043
9.32744e+07,111.285,2,2.71504,1188.32,-5044.84,-26948.3
9.3309e+07,119.983,1,2.47616,-10470,7955.19,-7096.86
9.33366e+07,169.596,1,2.44216,-18460.6,-1867,1885.17
9.35185e+07,117.498,0,2.98734,-8871.36,15206.1,-20605.6
9.36188e+07,12.5311,0,2.71043,1932.55,-740.051,-27068.2
9.40945e+07,76.3993,2,2.72539,-13713.8,8469.31,-29487.9
9.41189e+07,200.34,2,2.90122,21928.2,5330.35,6640.28
9.44301e+07,188.668,1,2.48926,-15295.1,-20102.3,2026.44
9.44831e+07,22.0857,1,2.75214,707.316,4498.07,-27511.2
9.46394e+07,6.60875,2,2.76722,-702.906,-1279.99,-28652
9.49243e+07,181.555,0,2.8789,29184.4,17614.4,-11614.7
9.50607e+07,20.1154,1,2.91818,-373.243,3644.35,-26586.7
9.53411e+07,164.928,2,2.75723,-24463.2,16078.8,-10177.9
9.53435e+07,184.899,0,2.87102,16712.2,3909.8,5599.24
9.5792e+07,6.11848,1,2.96224,-597.978,-135.564,-27704.7
9.58293e+07,108.776,1,2.79207,10699.4,16920.9,-17626.9
9.58472e+07,76.5526,2,2.92748,4850.89,-7473.98,-16031.3
9.59022e+07,40.014,0,2.6591,7387.78,-1385.38,-24845.1
9.61701e+07,67.7671,2,2.70047,-13546.9,-4729.47,-28865.7
9.62046e+07,75.1305,0,2.56969,6020.22,7446.52,-16109.3
9.65432e+07,71.1484,1,2.85465,-7713.17,-3166.05,-16384.5
9.66549e+07,43.4153,0,3.05757,1430.71,-8847.49,-27062.9
9.69337e+07,59.5855,1,2.94794,-4196.56,857.188,-17051.3
9.7038e+07,21.0752,0,2.94137,2109.77,452.123,-24914.4
9.7254e+07,24.9252,0,2.66004,430.715,-4471.32,-26042.3
9.75764e+07,184.822,1,2.80032,22311.8,-4912.44,2580.63
9.82461e+07,127.038,1,2.62353,-22129.6,-10717.1,-18174.6
9.83677e+07,110.032,0,2.88071,15546.2,12964.3,-17535.4
9.85747e+07,26.6648,1,2.41734,-2663.76,5050.32,-29548.2
9.86449e+07,53.6129,2,2.98788,6164.6,3048.1,-19987.6
0,53.1771,0,3.03328,0,0,0
9.88407e+07,63.9928,2,2.74512,-9568.93,-5560.76,-21082.4
9.89217e+07,106.656,0,2.57934,12320.9,17089.2,-20745.3
9.91477e+07,39.0086,2,2.98714,-5597.55,-4608.79,-24906.3
9.91904e+07,25.3082,1,2.97861,-3942.35,2746.71,-26381.2
9.95247e+07,210.997,1,2.53261,-311.306,-4267.44,4488.88
9.96992e+07,33.0773,1,2.44095,-5543.46,3610.98,-26266.7
9.99602e+07,36.0402,0,2.60692,6075.3,2246.66,-24676.1
1.00037e+08,23.4168,0,2.43888,415.324,-4573.31,-26886.1
1.00808e+08,162.385,0,2.53245,-12553.4,-9819.16,-2789.11
1.00946e+08,9.31597,2,3.01081,-1269.24,112.62,-27291.5
1.01096e+08,58.3649,1,3.03272,-9113.46,7365.42,-27291.2
1.01296e+08,78.2347,2,2.65678,-6578.05,1693.95,-13783
1.01583e+08,82.7261,2,2.76937,2664.41,-8816.64,-14017.6
1.01931e+08,9.07038,1,2.85016,-113.813,1902.72,-29461.6
1.01938e+08,67.9721,0,2.75615,-12382.7,6866.83,-27105.1
1.01943e+08,81.0211,0,3.0343,16615.7,777.603,-24997.7
1.02077e+08,13.8114,0,2.71915,2345.56,-1766.13,-28173.1
1.02163e+08,74.9581,2,2.86556,9165.89,-12536.3,-28111.4
1.02357e+08,4.43326,2,2.86721,-326.968,-759.181,-28236.4
0,4.43643,2,2.98875,0,0,0
1.02815e+08,37.3432,0,3.05446,6996.98,-131.972,-25127.4
1.02893e+08,22.6064,2,2.67897,-1740.46,252.233,-24366.2
1.02969e+08,110.516,1,2.76381,-4785.99,628.019,-6068.22
1.03154e+08,102.756,1,3.0301,-10046.6,-15860.7,-18317.3
1.03185e+08,275.164,1,2.46271,-23603.1,19501.4,20684
1.03444e+08,13.5198,1,2.78173,-2845.03,486.884,-29354
1.03499e+08,15.7397,1,2.82839,-1611.39,1336.18,-26190.1
1.03872e+08,37.6196,0,2.88305,816.215,7842.95,-27854.8
1.0402e+08,92.1421,2,2.68813,2382.84,-9181.22,-11853.3
1.04193e+08,161.492,0,2.80186,28473.7,-12927.1,-15340.2
1.04382e+08,50.8929,0,2.96724,3434.85,931.041,-26881.2
1.04402e+08,33.0377,0,2.71717,5346.34,-3650.5,-26068.1
1.04533e+08,91.0612,2,2.65345,-10963.1,-4953.36,-26030.1
1.04929e+08,117.836,0,2.76043,4842.57,-22153.4,-18685.8
1.05565e+08,34.3463,1,2.6745,4901.76,382.632,-23541.9
1.05585e+08,115.37,2,2.61327,-11475.9,-17213.1,-15825.8
1.05604e+08,22.134,2,3.04964,3198.42,-1661.15,-25909.2
1.05653e+08,160.555,1,2.95167,-6271.24,4002.85,-9268.45
1.05781e+08,88.4987,0,2.79937,-3713.83,-9390.74,-19585.3
1.05799e+08,147.796,2,2.81917,-1947.68,29490.5,-19352.1
1.05967e+08,5.70911,2,2.62442,-64.2107,-1096.06,-28163.5
1.05973e+08,9.61909,2,2.88956,1225.19,1406.51,-28205
1.05997e+08,65.5178,2,2.55373,7467.64,-7363.9,-19788
1.06026e+08,265.102,1,2.46252,-13455,636.133,22419.4
1.06045e+08,37.9212,2,2.7293,-6367.78,1373.85,-24131.8
1.06089e+08,22.3918,2,2.69857,3227.79,1076.91,-25579.6
1.07126e+08,81.1227,1,2.67565,12869.2,10537.6,-24799.4
1.074e+08,16.0032,0,2.60902,988.685,-809.292,-25655.3
1.07505e+08,64.6643,1,3.05922,7138.19,6002.82,-18989.7
1.08014e+08,84.4999,0,2.63094,15335.6,3562.82,-20289
1.08492e+08,27.8766,2,2.73053,1177.74,-3660.51,-24327.2
1.08546e+08,194.054,0,2.68933,16568.2,-18877.3,3496.15
1.09216e+08,55.0077,2,2.58009,1253.52,-2499.83,-17534.1
1.09578e+08,59.892,2,2.41528,-1808.97,-9618.73,-20675.7
1.09621e+08,40.0387,1,2.8058,-6271.35,-2961.02,-24008.5
1.09835e+08,18.9219,0,2.86983,-3335.78,-1119.16,-29578.2
1.10457e+08,59.9054,2,2.86827,2532.44,-11961.9,-25471.2
1.10747e+08,56.3131,2,2.37895,9767.67,-6361.94,-26158.4
1.10803e+08,140.121,0,2.68809,19639.3,5155.59,-25473.9
1.10897e+08,16.2816,0,2.86678,-1476.27,2293.37,-26793.8
1.10905e+08,116.066,1,2.63949,-10178.5,12466.2,-10280.4
1.11382e+08,43.0981,1,2.40815,-9119.07,89.6189,-27756.4
1.11384e+08,21.9749,1,2.40331,936.067,-3544.09,-26088.4
1.11891e+08,39.3256,0,2.69188,4865.87,5628.22,-25030.4
1.12905e+08,93.9976,1,2.8813,-13565.9,10886.4,-19670.3
1.13142e+08,199.735,0,3.03033,17460.4,-18751.3,-26316.6
1.13929e+08,46.5824,1,2.84372,-1375.63,-8466.77,-24214.4
1.14015e+08,122.196,0,2.68548,6404.24,-16295.5,-9892.98
1.14066e+08,33.6976,1,2.87295,6934.62,-1107.61,-29491.9
1.14158e+08,56.7911,0,2.46811,6511.49,8342.33,-23008.1
1.14258e+08,34.2053,2,2.67414,-3057.77,-4878.37,-24341.4
1.14288e+08,8.57275,2,2.78638,224.188,855.136,-27267.4
1.14675e+08,66.4587,2,2.62515,-2329,-11596.8,-21137.9
1.14692e+08,64.0441,1,2.74866,-1868.96,3787.5,-15988
1.14804e+08,25.6929,0,2.68201,-1568.29,3639.6,-25140
1.15048e+08,32.0058,2,2.60015,-1685.96,4182.02,-23863.3
1.15122e+08,45.2115,0,2.57502,-2969.47,-4885.5,-21193.8
1.15157e+08,27.545,1,2.87115,2853.51,-955.608,-23889.6
1.16684e+08,37.5191,2,2.99416,6729.58,-3621.14,-26862.4
1.16971e+08,56.0494,1,2.41708,-1143.72,-5249.43,-18262.2
1.1703e+08,90.1613,0,2.97933,16448.1,4917.49,-20729.7
1.17141e+08,8.10318,2,2.41859,1364.8,-1085.32,-28979.8
1.17793e+08,121.006,0,2.58002,17527.8,-3944.43,-10582.1
1.17922e+08,24.3317,0,2.66155,125.372,-5132.59,-28405.3
1.18283e+08,66.709,1,2.65445,12104.8,5915,-24697.6
1.18325e+08,118.036,1,2.42064,14918.5,-13683.2,-18020.9
1.18407e+08,5.73537,2,2.61215,1169.78,88.236,-28983.4
1.18575e+08,68.9383,0,2.38573,4995.2,1548.27,-15165.8
1.18644e+08,14.6983,2,2.83829,-2625.37,912.858,-27378.8
1.19133e+08,71.3041,2,2.70059,-10415.6,-3621.44,-18561.3
1.19283e+08,158.032,0,2.67216,-15803.5,-22889.7,-10512.7
1.19561e+08,21.9932,2,2.71577,-964.73,4270.17,-27482.5
1.19787e+08,30.8741,2,2.73761,2503.83,-2221.54,-23246.8
1.19886e+08,79.5431,0,3.00819,-4743.18,-12485.6,-18886.2
1.20232e+08,169.594,2,3.02723,-27601.1,-14213.6,-11449.5
1.20543e+08,10.8148,0,2.72051,2261.48,-793.893,-28903.3
1.20575e+08,19.094,0,2.62654,-2002.89,-448.969,-25406.5
1.21265e+08,21.8612,1,2.64239,1281.96,3437.33,-25950.7
1.21425e+08,20.4294,0,2.46579,-1521.01,2917.55,-26082.5
0,20.4705,0,2.78128,0,0,0
1.21834e+08,144.942,2,2.69927,-24358.1,-8480.54,-12345.6
1.22187e+08,14.6662,1,3.03882,-2089.52,-1459.49,-27120.3
1.22397e+08,13.767,1,2.37595,1252.1,-858.251,-26391.4
1.22482e+08,5.17624,2,3.06047,-274.668,-506.877,-27862.7
1.227e+08,1.18927,0,2.37306,28.9138,-29.0621,-28586.7
0,1.21778,0,2.64335,0,0,0
1.22721e+08,131.121,0,2.99571,25115.6,11279.7,-27181.1
1.22812e+08,222.613,2,2.79813,2051.33,-28603.8,8191.52
1.22921e+08,133.065,2,2.84871,-10508.7,-14036.9,-6986.44
1.2302e+08,18.9348,1,2.7632,-2552.35,2347.82,-26702.1
1.23205e+08,30.0452,2,2.71391,1925.65,-2891.63,-23509.1
1.23284e+08,142.086,1,2.73948,-25476.8,-5051.14,-13982.1
1.23899e+08,252.769,1,2.59206,29947.4,16601.5,12135.9
1.23994e+08,38.6209,2,2.5104,-4240.68,-1051.52,-21875
1.24322e+08,98.5405,0,2.40845,13919.5,8672.47,-15838.8
1.24474e+08,81.4455,0,2.61713,6127.16,-170.546,-12725.8
1.24489e+08,7.47611,1,2.83215,-323.571,1552.89,-29355
1.24611e+08,162.528,0,2.40886,27149.7,5608.52,-8375.69
1.24835e+08,107.767,0,2.94264,2360.02,-15446.7,-12452.6
1.24887e+08,46.3735,0,2.39033,8238.82,-5302.26,-27522.4
1.25366e+08,19.3292,2,2.76331,-1345.04,-68.4076,-24954.7
1.2537e+08,71.9879,2,2.64118,2918.83,-8866.58,-16792.4
1.25584e+08,84.2991,2,2.95807,-3111.08,-8877.07,-13800.5
1.25587e+08,86.1516,2,2.94467,-2767,-4025.11,-11412.2
1.25711e+08,165.586,2,2.55065,-6065.28,15871.8,-9472.52
1.26014e+08,93.4673,0,2.57563,16447,-6752.47,-20083.8
1.2606e+08,0.51132,1,3.05537,-19.5009,203.624,-28845.3
0,0.427838,1,3.01634,0,0,0
0,0.42008,1,2.93727,0,0,0
1.26228e+08,42.8458,2,2.94172,-4650.28,-5825.36,-23647
1.26257e+08,30.8111,0,2.46166,3793.33,-5274.09,-27735.8
1.2643e+08,20.5794,1,2.86106,3205.2,2910.3,-29522.5
1.26495e+08,59.2025,2,2.49115,-5138.56,10963.1,-25752.1
1.26529e+08,68.3589,0,3.01928,1823.44,5387.98,-15667.7
1.26554e+08,104.685,0,2.84311,-13499.7,8891.11,-13953
1.26683e+08,18.0944,1,2.94408,-2759.37,727.154,-26273.3
1.26824e+08,9.51326,1,2.83875,-1518.8,-1095.38,-29596.8
1.27201e+08,9.31313,0,2.46975,1608.42,693.824,-27750.1
1.27308e+08,47.0186,2,2.76103,-6674.12,-2664.22,-21928.1
1.28403e+08,20.2146,1,2.50721,2388.97,-2727.43,-26647.3
1.28991e+08,26.1181,0,2.62851,4583.83,3098.57,-29733.9
1.2909e+08,116.125,1,2.4151,-20073.8,-3513.02,-15054.3
1.29099e+08,158.35,0,3.05259,3678.59,17794.1,-1100.56
1.29122e+08,142.437,0,2.65101,1322.18,29543.6,-23395.8
1.29124e+08,77.6423,2,2.79984,11133.7,11515.8,-25971.2
1.29216e+08,12.7627,0,2.5966,1895.12,1301.95,-27291.1
1.29641e+08,61.9572,1,2.36447,7939.06,-7029.67,-21215.5
1.2985e+08,10.7531,1,2.63643,-1937.22,-886.435,-28007.6
1.29859e+08,68.8057,1,2.99972,-14133.6,-1157.74,-25939.4
1.30019e+08,6.23975,0,2.45342,1383.89,270.644,-28716
1.30456e+08,0.595071,2,3.01073,-95.2193,-72.5351,-28715.2
1.30594e+08,86.1478,2,2.40552,-15309.8,-8841.01,-24073.5
1.30634e+08,97.7882,0,2.75991,1120.01,17092.8,-17411.2
1.30692e+08,123.8,2,2.81983,1126.13,13241.5,-6476.82
1.30775e+08,39.712,2,2.74094,-3248.2,206.479,-21102.3
1.30963e+08,59.6428,2,2.47889,-11374.3,1156.53,-23407.6
1.31146e+08,32.5312,2,3.04339,3350.82,-2871.8,-23593.7
1.31372e+08,15.4643,1,2.91553,294.41,783.694,-25658.3
1.31809e+08,4.55961,0,2.95759,1023.04,-315.496,-28889.6
1.32093e+08,62.4225,2,2.69552,-7653.18,4029.15,-18927.2
1.32382e+08,4.51354,0,2.40119,151.722,-852.408,-28373
1.32464e+08,3.96568,2,2.39059,350.794,-395.223,-28155.2
1.32525e+08,50.0532,0,2.7761,7627.94,217.217,-21470.5
1.32529e+08,112.863,1,2.87527,-249.23,-23038.9,-23503.2
1.32552e+08,107.048,1,2.49982,6203.02,19942.7,-19967.9
1.32578e+08,60.8258,0,2.41672,10292.7,7826.11,-28202.8
1.32588e+08,0.79893,1,2.69093,-218.458,130.253,-28753.1
0,0.800055,1,2.67309,0,0,0
1.32692e+08,7.74382,1,2.78196,-1511.18,-634.058,-28583.1
0,7.60281,1,2.38009,0,0,0
1.32699e+08,24.226,2,2.67367,-1910.27,744.509,-24120.4
1.32914e+08,38.8283,0,2.68734,-2065.99,-7282.7,-25721.3
1.32967e+08,20.9356,2,2.5337,-2337.47,56.9068,-25054.1
1.33131e+08,71.4878,1,2.69582,-3653.52,-10386.2,-21209.7
1.33687e+08,57.5027,1,2.97716,-5619.52,3689.56,-18815.4
1.3375e+08,88.4943,2,2.9406,6835.37,-3902.65,-12012.3
1.33762e+08,100.948,2,2.7551,387.644,10053,-11399.2
1.33904e+08,78.8766,2,2.97945,-8162.99,-13714.6,-24161.8
1.34015e+08,205.79,0,2.72926,-1326.88,27660.5,4434.67
1.3406e+08,61.7781,2,2.80271,3599.17,11361.5,-23759.3
1.34183e+08,69.3722,2,2.61363,-2137.17,4248.65,-14986.9
1.34276e+08,34.0749,2,2.71192,-2087.12,1723.94,-23043.9
1.34293e+08,212.937,2,2.53212,4096.08,-26023.4,7688.91
1.34563e+08,99.6735,0,2.5391,-5901.46,-6290.39,-9617.42
1.34767e+08,258.608,0,2.68689,18097.2,23330.7,17016
1.34918e+08,64.1997,2,2.85418,-6484.27,-11151.4,-24524.3
1.3514e+08,28.8851,1,3.03074,-5677.38,2279.64,-29093.3
1.35144e+08,35.6169,0,2.4277,-3852.37,1908.04,-22671.4
1.35173e+08,99.9599,0,2.50403,2880.24,8878.52,-9849.35
1.35299e+08,50.6373,1,2.51348,-4513.31,-8900.81,-25038.7
1.35546e+08,50.8273,0,2.9287,4686.51,8729.76,-24716.3
1.356e+08,13.2663,2,2.71376,-408.266,2583.59,-27961.8
1.36313e+08,47.411,0,2.68907,4816.16,6367.69,-22727.8
1.36334e+08,205.167,2,2.5664,-13513.5,-12958.5,10295
1.36479e+08,170.588,2,2.44692,-11715.2,-24547.1,-5023.45
1.36684e+08,146.132,2,2.84005,-16161.9,-26165.9,-26994.9
1.36756e+08,33.6925,0,2.47144,6856.49,2121.69,-28178.5
1.36772e+08,73.2263,1,2.54358,-6142.05,-6382.85,-16131.6
1.36818e+08,32.9473,1,2.82482,3774.61,-321.401,-23043
1.37324e+08,234.613,1,2.59555,-29345.8,19708.8,-1033.53
1.37362e+08,93.5526,0,2.67515,-16532.9,-1084.65,-18227.5
1.3737e+08,12.8554,2,2.62652,-99.8071,-1176.28,-26337.6
1.37407e+08,27.2996,2,2.45506,3873.47,-1265.75,-24741.5
1.375e+08,19.8346,1,2.98448,2692.79,1856.37,-26263.6
1.37585e+08,7.45909,1,2.58578,-821.19,1357.53,-29444.9
1.37776e+08,28.1649,0,2.83523,5949.49,43.6249,-27945.5
1.38339e+08,23.4104,0,2.89363,1950.24,-1049.01,-24382.1
1.38471e+08,98.4524,1,2.62505,-2003.61,3095.06,-8358.11
1.38533e+08,28.9124,0,2.77487,5068.84,724.616,-25445.8
1.38672e+08,28.9666,2,2.42965,3244.1,4640.42,-26615.2
1.38972e+08,51.2634,1,2.45855,-3336.77,8564.77,-22947.3
1.38998e+08,125.738,0,2.70249,4578.03,8695.87,-4195.61
1.39063e+08,102.257,2,2.97219,-17118.3,-254.134,-15837.4
1.39268e+08,1.29411,0,2.98797,150.728,-159.903,-28596.6
0,1.27124,0,2.90433,0,0,0
0,1.25979,0,2.65051,0,0,0
0,1.50392,2,2.71142,0,0,0
0,1.47033,2,2.57355,0,0,0
1.39426e+08,19.4509,1,2.43269,-730.975,3457.58,-26557.6
1.39712e+08,7.07837,1,2.57807,-113.639,1067.36,-27700
1.39861e+08,22.9012,1,2.74533,-3015.56,2748.85,-26141.2
1.39875e+08,86.452,1,2.36587,-17106.5,2421.71,-22644
1.39986e+08,137.783,2,2.91199,-1765.02,-22999.5,-12863
1.39995e+08,20.2174,1,2.80103,-670.055,4238.3,-29553.7
1.40069e+08,161.905,0,2.73717,15308.9,13336.1,-1373.44
1.40419e+08,70.2464,0,2.52409,-10299.6,-2353.62,-18479
1.40643e+08,4.75389,0,2.39378,-846.68,-348.946,-28543.1
1.40834e+08,10.0369,0,2.41885,299.494,1271.04,-27165.5
1.40853e+08,54.4134,1,2.65845,-391.707,6757.77,-19521.3
1.40912e+08,93.6554,1,2.40492,13379.7,4354.83,-14881.8
1.41453e+08,33.225,2,2.48318,-6982.68,-747.64,-29825.8
1.41583e+08,57.7286,0,2.67958,7680.46,8409.57,-24364.1
1.41634e+08,32.9326,2,2.87155,4950.95,-1926.43,-24375.3
1.41669e+08,104.84,0,2.97596,-13396.9,14232.9,-18842.1
1.41829e+08,48.9747,0,2.69537,-1668.28,-8739.4,-23564.9
1.42096e+08,44.9958,0,3.01449,-5303.55,7499.03,-26814.6
1.42217e+08,4.28907,1,2.89048,284.271,241.397,-27996.3
1.42659e+08,56.5682,2,2.62404,8354.84,-8496.2,-29974.6
1.42731e+08,17.3216,0,2.79675,2193.78,2983.89,-29108.3
1.43533e+08,150.682,2,2.90893,-8910.6,-26723.6,-14491.2
1.43624e+08,42.0163,1,3.01174,6839.34,2283.83,-23796.6
0,41.9471,1,2.98784,0,0,0
1.4368e+08,22.6118,0,2.54485,-3786.85,-459.379,-26062.9
1.43781e+08,136.004,2,2.62789,-25120,-9955.14,-18984.1
1.4382e+08,32.6138,2,2.51008,-3092.27,-168.735,-22633.6
1.43953e+08,239.393,1,2.72354,-29021.2,-22164.7,5944.66
1.43979e+08,141.276,0,2.91145,19685.2,8621.95,-8303.72
1.44324e+08,3.652,2,2.65276,281.042,-803.311,-28690.5
0,3.64721,2,2.43569,0,0,0
1.44356e+08,1.70235,0,2.89814,363.454,195.329,-28750
1.44481e+08,87.2901,2,2.60524,-9912.15,-15225.6,-25150.6
1.44647e+08,142.835,1,2.4129,-5074.77,-14433.6,-2781.6
1.44666e+08,116.198,2,2.54256,-1530.46,-4391.92,-4692.98
1.44911e+08,6.66838,1,2.98239,920.904,1085.83,-28778.6
1.44983e+08,69.3932,1,3.00823,-11323,1407.49,-19715.7
1.45248e+08,70.7797,2,2.57792,-1283.95,-4408.24,-14573.5
1.45277e+08,34.3943,2,3.05826,5465.74,4187.81,-26914
1.45712e+08,3.70197,2,2.3953,-350.326,-224.45,-28102.5
1.45884e+08,32.2823,1,2.56954,-3786.75,5717.17,-27928.2
1.45909e+08,35.4949,1,2.61139,3523.86,5142.75,-24582.2
1.46017e+08,41.9341,0,2.82503,8253.63,2101.33,-26159.5
1.46398e+08,80.8333,2,2.5635,-202.655,10679.8,-15526.5
1.46529e+08,157.153,1,2.44468,23297.4,-7095.64,-10304.9
1.46823e+08,1.24462,1,3.01724,-227.534,166.244,-28654.7
1.46993e+08,67.9764,2,2.64213,-13424,-3946.33,-25343.6
1.47149e+08,16.2042,2,2.72364,-1502.49,-726.23,-25801
1.4723e+08,9.72393,0,2.84401,-1231.25,256.122,-27276.8
1.4741e+08,48.992,1,2.96136,5807.12,-7239.7,-24524.4
1.4765e+08,13.127,1,2.41686,759.91,2351.67,-27447.2
1.47835e+08,17.9181,2,2.79405,2342.56,-2706.47,-27507.8
1.47978e+08,46.9602,2,2.747,3934.61,-7815.04,-24084.1
1.47996e+08,122.536,1,2.37255,-13694.7,3078.62,-7017.61
1.48025e+08,44.7906,1,2.76146,-1206.39,4624.39,-20915.9
1.48159e+08,90.8176,2,2.583,-15390.2,-8908.67,-25866.2
1.482e+08,169.763,0,2.63194,8023.96,-13170,3505.03
1.48202e+08,128.087,1,2.80989,-26909.3,-1246.16,-26977.4
1.48274e+08,9.10255,2,2.43589,668.644,846.34,-27274.1
1.48398e+08,31.9111,0,2.62706,-3550.77,4540.13,-25453
1.485e+08,10.8424,2,2.52766,476.951,768.383,-26772.4
1.4873e+08,32.4876,2,2.4537,-360.065,-1347.09,-22067.7
1.4886e+08,5.05769,0,2.83073,317.878,178.547,-27814.2
1.49101e+08,149.742,2,2.81219,18716.6,-13436.5,-7344.81
1.49151e+08,117.482,1,2.61098,-2001.56,7215.88,-5146.1
1.49315e+08,2.05354,0,2.70981,334.585,363.743,-28994.7
1.49539e+08,39.0384,2,3.00106,-4418.17,-3594.49,-22882.7
1.49741e+08,28.066,1,2.93578,-1687.29,5529.31,-28365.4
1.50238e+08,14.9345,0,2.63478,757.376,2182.62,-26653.3
1.50416e+08,26.0077,1,2.71575,1267.2,-3099.39,-24521.2
1.5054e+08,37.1489,1,3.02076,-2546.32,5465.61,-23799.1
1.5055e+08,195.268,0,3.04561,26681.6,-652.242,-27999.2
1.50734e+08,35.9943,1,2.43997,-771.116,-6660.09,-25290.5
1.51179e+08,90.5706,0,2.58128,18361.9,-5689.76,-29272.4
1.51656e+08,152.132,0,2.5666,-25256.3,-821.08,-9030.42
1.51948e+08,155.906,0,2.49087,1742.06,-22012.5,-4371.14
1.51979e+08,69.3182,0,2.4304,-8673.2,3813.3,-17681.9
1.52417e+08,73.6791,1,2.53473,-9092.25,11641,-23606.5
1.52464e+08,26.3572,0,2.50951,1510.4,-4508.52,-25866.6
1.52914e+08,121.347,2,2.73378,21336.1,-7953.54,-20422.1
1.52981e+08,147.065,1,2.82151,-22224,13236.8,-11737.9
1.5325e+08,48.6449,1,2.65748,10049,1986.71,-28160
0,48.3197,0,2.8726,0,0,0
1.53515e+08,13.3562,2,2.995,1291.23,-2529.11,-29226.6
1.53901e+08,37.0315,2,2.80699,-5219.64,-294.462,-23004.4
1.53911e+08,52.3041,1,2.58705,-9736.39,-1748.92,-23784.8
1.54746e+08,11.9383,1,2.59429,-2487.23,-56.4614,-29558.2
1.54854e+08,49.3096,1,2.57968,-8826,-420.965,-23287.7
1.54864e+08,273.553,2,2.96939,8694.32,-19666.9,24136
1.54865e+08,11.1078,1,3.02679,-874.228,2090.61,-28017.2
1.54998e+08,17.6533,2,2.70748,67.003,-2622.59,-26098.4
1.55033e+08,37.3581,0,2.45729,505.734,4483.08,-22313.9
1.5522e+08,41.2182,0,2.61996,7909.62,-451.846,-25024.7
1.55506e+08,137.711,2,2.80125,-25124.4,-11097.3,-19520.7
1.55783e+08,91.3523,1,2.75659,-437.774,-19038.2,-26516.6
1.55844e+08,48.255,2,2.98767,6450.57,4150.73,-26552.9
1.55985e+08,36.5397,1,2.3634,-2270.79,6222.67,-24668.3
1.56036e+08,12.9234,0,2.71514,1388.04,-489.394,-26477.1
1.56572e+08,16.6565,0,2.86406,674.989,3406.68,-29574.5
1.56658e+08,72.7071,2,2.69883,-11472.1,10142,-29811.6
1.56755e+08,28.9162,0,2.93335,1299.65,-2541.67,-23447.1
1.57261e+08,31.5152,0,2.96015,6530.89,1512.57,-28748.9
1.57297e+08,12.3989,0,2.86571,1732.42,455.785,-26839.4
1.57859e+08,63.1885,1,2.65807,11061,-2538.72,-21904.5
1.57877e+08,147.996,0,2.4432,17348.5,-16582.6,-8668.35
1.57899e+08,87.0039,0,2.85088,9109.41,13694.4,-20711.7
1.58049e+08,57.9054,0,2.93175,4463.06,6150.9,-23931
1.58182e+08,146.192,2,2.64969,24229.7,-10668,-12985.4
1.58382e+08,25.5508,2,2.7906,-4548.6,2842.41,-29539.9
1.58444e+08,25.0161,2,2.7391,3674.69,-1166.77,-25217.8
1.58585e+08,3.26877,0,2.57275,273.729,-259.381,-28203.7
1.58876e+08,109.071,0,2.65529,14515.9,-3502.81,-11256.2
1.58958e+08,79.9887,0,2.48289,9346.48,-5560.27,-15800.7
1.58995e+08,6.28774,0,2.6992,545.423,382.091,-27626.5
0,6.29752,0,2.8717,0,0,0
1.59133e+08,105.577,1,2.72197,10369.7,15072.5,-16156
1.59183e+08,34.2826,1,3.0174,2737.6,6204.37,-26332.2
1.5934e+08,96.8935,2,2.94619,-8124.51,-2533.59,-10345.8
1.59984e+08,170.706,0,2.84003,26802.2,23064.3,-22335.4
1.6002e+08,162.017,2,3.00511,-21374.8,-16953.9,-8503.13
1.60138e+08,36.2753,0,2.45096,7304.4,812.293,-26384.2
1.60764e+08,143.949,1,2.51943,-28762,-4373.11,-21645.9
1.60901e+08,46.5426,2,2.91285,2840.55,-1514.53,-19628.7
1.61111e+08,140.627,1,2.61894,23519.8,17880.5,-25658.5
1.61625e+08,83.968,1,2.82816,2243.32,3.20371,-26857.1
1.61684e+08,29.7022,0,2.58562,2500.5,-236.637,-23043.1
1.6169e+08,148.227,2,2.85229,22250.5,12810,-11247
1.6186e+08,13.5441,2,2.48402,-609.206,-1355.42,-26323.4
1.61915e+08,25.7214,0,2.97479,853.882,4479.15,-25873.5
1.62079e+08,59.2945,0,2.67967,-6810.47,-1809.05,-18532.2
1.62142e+08,21.8907,2,2.73272,1571.43,-4368.69,-28203.1
1.62487e+08,48.5805,2,2.75067,-6688.22,-4307.24,-22326.3
1.6249e+08,141.871,1,2.95399,-5359.62,27832.3,-27524.7
1.62636e+08,156.89,1,2.73074,2800.3,7335.67,509.002
1.62745e+08,122.468,1,2.95635,21660.7,-11179.1,-20918.2
1.62979e+08,12.4808,1,2.89918,553.725,1313.56,-26577.4
1.63084e+08,29.9657,0,2.73714,1630.54,-4160.54,-24328.8
1.63429e+08,155.576,0,2.65642,5689.22,4825.72,3147.23
1.63437e+08,179.186,0,2.91334,14739.9,-10025.6,4318.22
1.63448e+08,8.22758,0,2.98301,-629.023,-1370.27,-27990
1.63662e+08,70.5305,2,2.63813,5443.5,-2.22718,-15000.7
1.63696e+08,143.639,1,2.53447,-24493,6019.84,-11832.9
1.63859e+08,3.22565,0,2.77271,611.682,-4.95211,-28378
1.64012e+08,66.4329,1,2.4531,-412.214,9624.51,-18547.4
1.64054e+08,41.256,1,2.59015,7125.65,4752.59,-27123.5
1.64219e+08,109.503,2,2.45742,-21888.2,-599.017,-21203.5
1.64437e+08,18.1825,0,2.86541,2115.87,-1883.37,-26187.2
1.64503e+08,145.286,2,2.89029,-6411.47,-29626.1,-24767.2
1.64568e+08,100.246,2,2.73263,-12536.8,14930.3,-20710.8
1.6467e+08,106.448,1,2.99234,-6741.15,-2240.8,-17959.3
1.64791e+08,108.553,0,2.70243,5360.68,1806.92,-20954.4
1.65132e+08,28.6968,0,2.94477,-3298.39,-4780.91,-27283.8
1.65172e+08,51.688,2,2.84583,434.048,-10631,-26306.5
1.65472e+08,105.319,2,2.84303,2867.84,-10583.4,-9606.09
1.65645e+08,157.922,1,3.05322,17329.1,18288.6,-7437.41
1.65864e+08,13.7714,0,2.61133,131.076,-2722.1,-29888.7
1.66001e+08,78.5578,0,2.60509,12527.7,8396.24,-21805.3
1.66019e+08,78.1415,2,2.83635,805.843,-722.09,-29069.8
1.66186e+08,82.0833,2,2.98355,-14290.6,6829.1,-22077.7
1.66309e+08,13.3704,1,3.01816,-1487.82,2388.58,-28122.5
1.6659e+08,116.546,0,2.56614,7139.75,19653.7,-15762.7
1.66629e+08,53.1341,2,2.91828,5054.9,8900.51,-24544.4
1.66837e+08,26.8203,2,2.70652,-4159.37,3709.22,-27764.1
1.6696e+08,12.0033,0,2.73351,1421.25,1897.86,-29924.6
1.6708e+08,113.359,0,2.57778,23919.8,2056.03,-27838.8
1.67644e+08,108.258,0,2.79359,10584.4,-17935.5,-19456
1.6767e+08,62.175,2,2.95661,-11059.9,-2135.49,-29005.1
1.67856e+08,34.6313,2,2.85828,6857.25,-2209.68,-27840.7
1.6798e+08,66.9058,0,2.72949,3230.13,9397.92,-18778.3
1.68267e+08,204.349,2,2.74626,-20309.8,-5709.19,8705.39
1.68414e+08,39.6964,0,2.86598,1681.47,2547.23,-21033.6
1.68459e+08,140.493,0,2.97276,-22466,2425.18,-10007.6
1.68538e+08,0.551176,1,3.77372,27.1477,173.606,-28902.6
0,0.516705,1,3.72764,0,0,0
0,0.520702,1,3.2323,0,0,0
1.68658e+08,19.6474,2,2.72868,-2496.63,-2649.81,-26736.7
1.69253e+08,76.078,1,3.01321,-14010.9,4959.8,-22844.1
1.69413e+08,69.9581,2,2.54604,-9480.23,10145.7,-23747.9
1.69457e+08,119.811,1,2.82646,-7647.55,-7769.61,-6113.06
1.69933e+08,306.477,2,2.51001,-19134.6,-21925.5,19898.7
1.70516e+08,106.716,0,2.67878,16903.9,-8750.09,-16680.6
1.70516e+08,29.2912,0,2.46145,4194.67,4308.12,-27092.2
1.70596e+08,149.099,1,2.62315,17535.3,-3043.85,-2899.97
1.71061e+08,89.7781,0,2.77287,4816.34,12304.6,-15284.1
1.71197e+08,28.066,0,2.90023,-1367.98,3017.87,-23965.9
1.71347e+08,84.0783,0,3.04599,4663.17,-15170.7,-23110.7
1.7136e+08,67.2415,2,3.01018,11660.1,4746.46,-22596.8
1.71528e+08,105.062,1,2.52343,-17957.7,-9632.69,-19942.6
1.71559e+08,4.83394,2,2.62723,-582.443,82.4562,-27963.3
1.71727e+08,73.9609,2,2.4775,5810.41,-8119.71,-19065.2
1.71823e+08,139.549,1,2.71612,-11795.9,2070.77,-1945.4
1.72029e+08,145.818,0,2.72406,16013.3,19401.9,-11418.4
1.72105e+08,131.989,2,2.66162,7879.93,2308.85,-20248.1
1.72271e+08,30.3895,1,2.92244,4795.13,-91.0103,-24641.2
1.72276e+08,24.6201,2,2.69449,-4468.25,310.803,-26110.9
0,24.6748,2,2.37519,0,0,0
1.72332e+08,78.9595,1,2.75903,8405.31,8155.62,-16998.7
1.72374e+08,121.324,0,2.69983,10977.6,15070.5,-11290.8
1.72624e+08,92.2181,0,2.8403,-15615.7,-3890.49,-18098.3
0,92.1061,1,2.99926,0,0,0
1.72683e+08,247.342,2,2.56443,-1006.98,1908.73,-22283.2
1.72823e+08,15.7805,0,2.44348,1835.78,-2889.32,-28867.8
1.73678e+08,21.9138,1,2.37752,2322.23,-1748.28,-25251.7
1.73943e+08,98.7744,2,2.71203,9724.4,7266.97,-11960.7
1.74317e+08,73.4095,0,2.49249,14355.1,3565.36,-23792.5
1.74564e+08,42.7653,2,2.89808,-1447.12,-4909.64,-21392.9
1.74892e+08,226.333,1,3.03756,-23139.7,1487.2,12538.9
1.75021e+08,164.302,0,2.7694,25655.2,16571,-22049.2
1.75042e+08,122.305,1,2.76729,-13774.7,17864.9,-28429.3
1.7505e+08,5.21963,2,2.39419,-153.694,-1156.12,-28518.1
1.75307e+08,15.6167,1,2.98458,2676.1,-1662,-28100.3
1.75468e+08,18.6187,1,2.88725,-1934.2,3157.87,-27342.5
1.75816e+08,149.187,1,2.36251,-13285.1,-2024.07,-270.163
1.76024e+08,53.525,2,2.79484,-10813.7,-3448.36,-28295.4
1.76101e+08,1.26435,0,2.46105,19.6564,188.789,-28655.1
1.76227e+08,103.504,2,2.83562,-5602.47,-16856,-16125.1
1.76242e+08,73.977,1,2.80282,-11880.3,-273.016,-18743.3
1.76306e+08,46.9738,1,2.93479,-5871.84,7811.86,-26920
1.76382e+08,169.495,2,2.51686,25238.6,-9618.88,-5287.86
1.76402e+08,291.627,0,2.6639,14064.2,-15752.4,-2268.04
1.76658e+08,19.5959,0,2.83123,-882.646,3164.57,-26328.5
1.76713e+08,13.2668,0,2.81091,2635.71,-949.47,-29534.4
1.77082e+08,144.018,1,2.62677,1671.46,9012.84,162.985
1.77192e+08,31.2371,2,2.73842,3002.02,-5917.43,-28426
1.77385e+08,138.407,1,2.95727,-4869.85,1178.09,-4040.02
1.77484e+08,82.0542,0,2.86547,13939.1,5845.11,-20357.7
1.77585e+08,18.6127,1,2.54252,-3820.57,959.04,-28054
1.7759e+08,5.70056,2,2.48019,-956.545,-260.249,-28042.1
1.77599e+08,27.7032,0,2.39405,480.339,-4572.54,-26961.4
1.77612e+08,79.158,2,2.96513,3394.92,-7009.15,-14123.9
1.77671e+08,32.6541,0,2.72281,3571.62,-5967.59,-28524.5
1.777e+08,19.6829,0,2.65752,3883.27,-1613.63,-28236.5
1.77756e+08,31.4215,2,2.48094,-4727.17,-1566.45,-24331.2
1.78026e+08,58.0988,2,2.57092,7034.58,-6186.16,-20841.7
1.78193e+08,52.4884,2,2.78467,2326.81,-10896.1,-28462.6
1.78216e+08,4.74206,1,2.57966,606.573,264.318,-28053.3
1.78435e+08,280.51,1,2.93784,24406.1,-14466.1,22705.6
1.78475e+08,111.689,0,2.77694,22969.2,5326.96,-27581.9
1.78858e+08,48.6583,2,2.78599,-2190.22,-296.012,-18826.8
1.79119e+08,2.90804,0,2.84316,636.972,317.845,-28708.2
1.79609e+08,28.4241,0,2.55916,2206.23,-2231.06,-23668.5
1.79775e+08,161.987,2,2.84098,14287.7,-29603.4,-19686.5
1.79824e+08,143.834,2,2.57931,-17517.1,-14266.7,-10843.3
1.80009e+08,189.283,0,2.6419,-28274,10949.7,-2913.53
1.80067e+08,20.3789,0,3.01075,4224.23,-14.8903,-27687.5
1.80428e+08,90.3603,0,2.93175,16770,3332.91,-20428.6
1.80584e+08,58.9437,0,2.53219,-4889.47,11378.2,-29989.5
1.80942e+08,35.857,0,2.56628,2325.61,-4900.19,-23512.4
1.80994e+08,165.989,1,2.64104,-703.246,-24570.7,-3923.28
1.811e+08,99.5976,2,2.82909,-10211.5,-424.054,-10509.9
1.8126e+08,20.1248,0,2.71928,2253.75,-2743.96,-26392.1
1.814e+08,108.118,1,2.4788,3237.58,-21714.5,-22655.4
1.81923e+08,127.611,0,2.95889,8243.74,9645.56,-10858.6
1.82319e+08,20.3329,2,2.62864,-1080.61,1220.19,-24844.7
1.82391e+08,30.9153,2,2.71369,2618.75,-5877.1,-27435.1
1.82459e+08,12.2364,0,2.8173,1411.55,1024.7,-26859.3
1.82657e+08,21.4226,0,2.71757,320.538,3315.77,-25742.7
1.82871e+08,40.2978,1,2.88305,-8340.98,1865.78,-29392.2
1.8332e+08,25.107,1,2.99004,-2439.98,4101.59,-26444.2
1.83464e+08,80.277,1,3.00992,-10105.4,-6356.77,-16951.6
1.83553e+08,22.2341,0,2.38835,-1061.28,2258.35,-24841.1
1.83863e+08,111.199,0,2.74338,6767.79,-14671.5,-11876.7
1.8396e+08,141.283,2,2.36856,11853.3,-22030.4,-12350.3
1.84249e+08,34.8229,1,2.91886,-5068.44,3670.76,-24899.1
1.84296e+08,18.0896,0,2.60995,975.82,-3632.33,-29756.6
1.84439e+08,57.2721,1,2.41142,-5750.09,-8210.15,-22081.3
1.84606e+08,28.5299,0,2.71584,-4514.87,1505.86,-25221.5
1.84897e+08,10.6585,2,2.51033,-1506.58,-1822.22,-29030
1.84978e+08,47.649,0,2.71925,7404.71,-1378.44,-22098.8
1.85075e+08,66.7951,0,2.66655,10033.7,5834.19,-20715.3
1.85161e+08,103.123,0,2.88438,-8572.58,18015.8,-20480.8
1.85365e+08,39.6363,1,2.70709,-1084.27,7776.27,-25698.9
1.85576e+08,110.056,1,2.93283,21177.6,8511.36,-25257.4
1.85591e+08,81.7174,1,2.61615,-460.196,17253.7,-27201.7
1.85953e+08,18.0886,1,2.58291,2229.87,-691.059,-25821.2
1.8631e+08,146.082,2,2.48505,-26048.1,-16595.3,-26964.2
1.86369e+08,78.4301,0,2.61854,-3908.07,-14985.2,-22941.3
1.86548e+08,86.6898,0,2.37233,-1196.98,-8582.89,-13998.4
1.86862e+08,140.944,0,2.36635,29174.3,125.543,-22129.1
1.86919e+08,89.7375,1,2.46487,1191.38,15804.8,-18304.4
1.8707e+08,164.585,1,2.79624,-14507.3,1585.03,2580.07
1.87076e+08,82.4958,1,2.51867,-8882.6,10652.8,-18169.9
1.87214e+08,17.3073,1,2.96108,-28.0883,3701.27,-29098.3
1.87437e+08,114.521,2,3.04969,14863.6,-10412.9,-16184
1.87461e+08,6.40603,1,2.46639,-1287.56,633.591,-28689.9
1.87485e+08,58.5049,1,2.59476,-9855.28,-5411.65,-23680
1.87549e+08,66.9296,1,2.81224,-4415.75,12274,-23321.9
1.8755e+08,65.0199,0,2.3731,5877.62,-130.353,-16351
1.87575e+08,123.184,0,2.90184,17547.8,6045.79,-10715.3
1.87623e+08,21.1336,2,3.00458,965.68,-3562,-26314.5
1.8768e+08,63.0342,1,2.40739,-10689.6,-5349.97,-22902.6
1.87827e+08,81.4475,2,2.80492,-5498.19,-16254.9,-27135.7
1.88066e+08,3.72673,1,2.40007,-119.493,459.641,-28126.2
1.88315e+08,156.41,1,2.5074,-3549.94,-29658.6,-14744.1
1.88328e+08,19.4322,2,3.0277,994.108,-2432.37,-25661.4
1.8841e+08,73.8413,0,2.39505,-5251.29,6054,-15432.6
1.88467e+08,14.5782,0,2.57674,1093.1,1234.79,-26195.9
1.88547e+08,2.64631,2,2.46284,-125.935,-503.748,-28451.9
1.88582e+08,139.43,1,2.92408,-514.109,27346.4,-18242.5
1.88856e+08,6.24495,1,2.93926,-919.496,973.586,-28498
0,6.736,0,2.93926,0,0,0
1.89002e+08,43.7663,1,2.88174,-4990.63,1472.78,-21202.9
1.89149e+08,18.0258,0,2.41037,3281.82,-195.882,-26747.9
1.8962e+08,166.569,0,2.96289,21786,-26478.6,-21798.3
1.89765e+08,37.1791,0,2.41594,-2834.8,-5707.71,-24275
1.89846e+08,4.95783,0,2.47196,-256.93,-386.393,-27910.2
1.89995e+08,11.4532,2,2.65606,2335.57,-636.506,-28655
1.90281e+08,97.1306,1,3.04325,1808.95,8835.83,-10559
1.90474e+08,101.955,2,2.87802,-12857.9,-16303.9,-23171.3
1.9052e+08,3.18311,1,2.63243,-376.575,59.2805,-28229.8
0,3.23937,1,2.93738,0,0,0
1.90649e+08,134.921,0,2.4283,-4020.93,27928.4,-24624.2
1.90682e+08,65.2362,2,2.42753,-8202.12,-10924.6,-26310.3
1.91046e+08,171.859,2,2.76796,-5946.04,-8834.35,-5128.08
1.91068e+08,49.5425,1,2.46086,-6243.18,-7834.83,-25744.4
1.91104e+08,21.2733,0,2.82419,-499.396,4298.12,-27654.7
1.9113e+08,53.0365,1,2.52624,-3220.24,-10055.3,-25156.9
1.91407e+08,87.2847,2,2.45625,8422.98,-15369.5,-22856
1.91458e+08,79.1681,0,2.74701,-10439.4,7978.29,-18626.2
1.91499e+08,94.2831,2,2.38319,-15374.1,-4539.23,-16880
1.91581e+08,75.4208,1,2.91155,11661.3,3486.8,-18715.5
1.91817e+08,142.531,2,2.69372,-3854.2,5288.21,-22037.5
1.92326e+08,11.203,1,2.554,-534.317,2206.29,-27854.9
1.92889e+08,17.2701,2,2.40238,-1447.47,943.363,-25586.9
1.93335e+08,55.8308,1,2.8596,3576.56,-8490.05,-21637.5
1.9342e+08,136.63,2,2.91866,13417.5,-21742.5,-15706.7
1.93626e+08,88.2097,2,2.49903,6013.25,-17341.2,-25766.7
1.94036e+08,24.9142,0,2.88411,4105.86,-3037.66,-27298.1
1.9405e+08,61.9782,0,2.72728,-9399.61,1790.54,-20025.9
1.9407e+08,15.4709,2,2.5698,616.137,-3233.41,-28174.6
1.94327e+08,24.4654,0,2.92692,3875.54,-1357.46,-25612
1.94706e+08,1.58041,1,2.91892,-330.194,126.832,-28631.7
1.94899e+08,17.9766,2,2.58585,-1099.74,-992.879,-25289.2
1.95254e+08,11.5331,1,2.89039,-2072.9,946.326,-27810
1.95465e+08,42.1902,0,2.39103,8926.53,1121.59,-27876.8
1.95648e+08,60.3056,0,2.46265,2660.9,-8593.19,-19759.4
1.9572e+08,5.86842,0,2.47781,583.661,1181,-28756.1
1.95918e+08,55.6144,2,3.05032,-1925.29,-11565.4,-28075.8
1.96188e+08,112.199,1,3.03915,-12086.2,11660.7,-12305
1.9619e+08,67.1235,1,2.52651,2050.94,11770.6,-21068.4
1.96345e+08,7.17411,0,2.94121,570.452,-726.06,-27580.8
1.97288e+08,11.901,0,2.40049,-904.943,-536.049,-26551.2
1.97539e+08,22.2357,1,3.04556,-1319.19,-1313.09,-24544.9
0,21.8851,2,2.53546,0,0,0
1.97585e+08,28.1031,0,2.4879,-2365.27,2546.82,-24068.4
1.97588e+08,38.6444,2,2.80499,3961.61,1598.83,-21946.5
1.9764e+08,73.6457,0,2.61037,902.475,-3584.81,-13713.5
1.97985e+08,108.92,1,2.7958,-3393.78,22754.2,-29464.4
1.97986e+08,9.88701,2,2.40589,-1678.11,-1398.42,-28790.3
1.98104e+08,104.01,0,2.53882,12455.4,-2535.94,-10838.4
1.98271e+08,59.0005,0,2.56813,10775.8,-6080.67,-26639.5
1.98442e+08,60.2856,2,2.87491,11236.8,-2960.99,-23810.8
1.98625e+08,137.346,2,2.49077,-23221.9,-11657,-15689.5
1.98645e+08,68.9574,2,2.70025,-10253.5,-10438.5,-29430.5
1.98807e+08,29.6636,1,2.71609,-5748.64,-1140.22,-26485.9
1.9909e+08,91.2373,0,2.4955,-16771,8453.66,-24719.2
1.99229e+08,124.578,2,2.68511,14918.5,1386.49,-7268.69
1.99363e+08,73.5182,0,2.77346,-5613.9,2538.41,-18134.8
1.9937e+08,91.9133,0,2.49826,14098.2,-12480.8,-23668.7
1.99537e+08,51.6708,1,2.50586,5714.76,217.315,-26739.2
1.99751e+08,163.868,2,2.78121,9683.86,9568.38,2825.57
2.00157e+08,270.432,1,2.64629,29261.8,24379,13652.7
2.00169e+08,97.5644,2,2.6494,-18429.3,9172.1,-27813.9
2.0025e+08,47.582,1,2.37992,6211.85,3574.4,-21748.7
2.00427e+08,10.1032,0,2.95058,2106.3,191.233,-28131.6
0,10.1956,0,2.50862,0,0,0
2.00504e+08,95.1394,2,2.83334,492.513,-126.158,-29456.3
2.00577e+08,34.8798,0,2.58916,2689.82,-2444.37,-22379
2.00651e+08,29.5478,2,2.77341,980.596,-2780.66,-23312.6
2.01334e+08,91.5065,0,2.91597,8589.05,-3225.64,-11904.8
2.01637e+08,29.5053,1,2.43865,-4672.42,-102.005,-24618.8
2.01825e+08,142.396,1,2.54731,-14393.2,2521.73,-2477.9
2.02406e+08,7.78184,0,2.41064,-453.456,1548.96,-29201.2
2.02606e+08,5.71916,1,2.69868,550.163,-649.87,-28037.6
2.02707e+08,102.091,2,2.85172,-6764.45,3942.91,-16804.7
2.02845e+08,58.5997,0,2.88324,-4095.13,3805.56,-17870.7
2.02889e+08,39.7568,2,2.91597,-7742.63,2896.4,-27413.9
2.03041e+08,44.149,1,2.44417,35.173,-8167.64,-24384.6
2.03191e+08,126.184,0,2.48398,9579.59,-17235.6,-10789.6
2.03285e+08,59.4853,1,2.9772,12323.7,882.51,-27253.9
2.03381e+08,43.012,0,2.96037,-104.555,7025.98,-23135.9
2.03507e+08,57.5536,0,2.41272,1221.72,-2000.35,-19681.8
2.03599e+08,15.2436,1,2.38449,-3153.58,211.195,-27904.8
2.0366e+08,32.8322,1,2.50608,-5313.77,2942.28,-25308.5
2.0367e+08,43.6407,1,2.9381,7038.32,-4125.85,-24784.3
2.03764e+08,32.8249,2,2.97086,-411.382,-2115.62,-22268.1
2.03813e+08,77.557,1,2.93246,-10763.4,11914.1,-25642.3
2.03928e+08,44.049,1,2.68435,-4439.92,-4530.23,-22032.4
2.04093e+08,93.5496,0,2.50219,-3465.35,-9520.85,-11862.7
2.04094e+08,12.1548,0,2.94928,2486.94,822.197,-28351.1
2.04509e+08,25.9443,0,2.39737,1198.72,4032.93,-25288.4
2.04517e+08,94.2525,0,2.73398,10186.1,331.674,-11754.6
2.04752e+08,169.045,2,2.71034,-13421.5,1756.66,4141.94
2.04859e+08,41.088,2,2.48842,-6803.43,1664.84,-23614.7
2.05102e+08,162.523,1,2.82256,-19978.5,21453.1,-11131.2
2.05432e+08,104.387,0,2.38874,20716.1,4156.36,-22051.5
2.05818e+08,115.531,1,2.96245,11503.8,17353.2,-16343.8
2.05834e+08,204.43,0,2.45509,6500.28,-18367.2,9748.07
2.05927e+08,59.4047,2,2.98512,-4088.69,-8914.79,-21019.8
2.05929e+08,116.035,1,2.58329,-18013.1,12900.9,-18137.3
2.06006e+08,95.2473,1,2.747,-12347.3,-13327.7,-20335.6
2.06046e+08,246.357,2,2.88219,447.998,-12888.6,19520.6
2.06109e+08,46.5271,1,3.01704,-1697.73,9420.07,-26494.6
2.06181e+08,40.0255,1,2.9645,7208.91,4177.04,-27516.8
2.06866e+08,4.96645,2,2.58488,-513.033,702.862,-28236.8
2.07134e+08,41.5378,1,2.86424,2442.91,-5450.05,-22551.7
2.07358e+08,116.137,2,2.88228,12700.5,-4071.92,-8411.77
2.07591e+08,44.3217,1,3.05472,410.001,7556.71,-23322.6
2.07596e+08,65.3972,1,2.64714,-12140.3,-2413.69,-22613.2
2.08033e+08,104.807,2,2.37235,-17564.1,-3517.41,-15702.8
2.08538e+08,185.94,1,2.84407,-23837.6,7131.6,1354.99
2.08609e+08,30.7397,1,2.4786,-6092.09,2036.8,-27354.4
2.08679e+08,12.709,0,2.48653,1564.1,-383.25,-26598.5
2.08702e+08,142.077,0,2.584,6865.19,6618.79,-351.028
2.08951e+08,122.49,1,2.56768,-15439,-8815.51,-10058.1
2.08985e+08,127.393,1,2.72612,-23613.1,11097,-22243
2.09337e+08,5.43409,2,2.94702,720.587,-766.58,-28261.9
2.09539e+08,29.1619,2,2.38276,-3182.72,1050.34,-23663.1
2.09729e+08,40.5331,1,2.57111,-6848.8,5061.46,-27375.7
2.10086e+08,32.4559,1,2.70616,-6835.57,947.302,-29161.7
2.10327e+08,77.7456,0,3.01396,401.054,-15627.6,-24156.6
2.10365e+08,11.2895,1,2.40535,1369.28,-1661.11,-27925.1
2.1037e+08,49.4829,0,2.8718,2033.68,-8437.08,-23051.8
2.10915e+08,38.2476,2,2.52956,-4031.82,-5413.07,-24214.2
2.11088e+08,14.0966,0,2.57872,2118.29,-1500.29,-27206.6
2.11115e+08,133.605,2,2.51079,-25793.8,10813.5,-24697.5
2.11153e+08,56.9971,0,2.73127,-7970.28,-7090.77,-23395.6
2.11172e+08,82.811,2,2.44685,6116.67,-11819,-17360.2
2.11205e+08,71.9442,1,2.57712,-5234.99,-8133.86,-17114.3
2.11438e+08,174.282,0,2.76404,-9877.01,8191.97,-29571.3
2.11776e+08,57.8448,1,2.85146,-9250.29,-5766.5,-23390.6
2.11827e+08,3.41817,1,2.6421,-480.412,298.283,-28291.1
0,3.35382,1,2.55938,0,0,0
2.11836e+08,23.1449,2,2.98405,-4656.56,-1440.19,-28045.5
2.11895e+08,33.6504,1,2.7509,2107.55,6702.23,-27379
2.12253e+08,3.02482,1,2.94457,-437.157,445.606,-28463.4
2.12482e+08,27.0358,1,2.6562,-3856.28,-2525.86,-25428.9
2.1262e+08,56.7356,0,2.58369,8932.62,8042.82,-27800.3
2.1335e+08,69.5557,1,2.60561,2506.12,5962.11,-15612.8
2.13359e+08,91.4335,1,2.44933,-19344.2,779.321,-27370.4
2.13835e+08,83.0348,0,2.95898,-6225.06,-14352.1,-21482.6
2.13899e+08,11.629,0,3.00703,229.433,-2399.47,-29401.4
2.13911e+08,111.444,2,2.89138,-465.039,-10547.1,-7911.8
2.14314e+08,99.8534,0,2.82338,4550.29,-2096.3,-8429.37
2.14451e+08,85.5601,2,2.77318,4311.68,15846.2,-25148
2.14564e+08,212.482,2,2.78468,26800.6,-28632.1,-7352.62
2.15061e+08,136.037,0,2.46908,-5803.98,7053.97,-6079.57
2.15129e+08,2.74466,2,2.86891,-294.818,-276.247,-28334.1
2.15129e+08,82.1264,1,2.97521,-15047.6,8550.98,-28663.5
2.15353e+08,72.6475,2,2.39478,9207.66,-1306.74,-16595.7
2.1592e+08,263.761,1,2.56835,18109.7,-8396.87,-4291.76
2.16038e+08,41.2932,1,2.78983,95.8805,8797.67,-28802.6
2.16657e+08,152.62,1,2.92254,11452.2,15050.7,-3583.59
2.16774e+08,31.6475,1,2.90711,5254.69,3025.59,-26101.6
2.16916e+08,148.585,0,2.77072,11419.9,801.367,300.537
2.16987e+08,101.47,0,2.93818,-3666.55,-17134.7,-16737
2.17386e+08,241.04,0,2.98554,4314.25,26835.2,13759.4
2.17495e+08,52.921,2,2.90886,6435.39,1940.2,-20000.1
2.1769e+08,3.76992,2,2.70303,-556.318,563.688,-28872.2
2.18165e+08,215.318,0,2.43631,26667.8,2677.55,8034.05
2.18385e+08,140.71,1,2.65993,27731.4,8986.64,-23191.6
2.18583e+08,4.1691,2,2.60516,-578.33,598.002,-28505.8
2.18627e+08,24.6018,2,2.65842,3460.58,-1842.02,-25396.6
2.18731e+08,59.1957,1,2.81309,12105.4,-131.513,-26075.7
2.18967e+08,178.125,2,2.87281,25795.8,-16771,-7511.44
2.1925e+08,281.109,1,2.73772,-18891.1,15891.4,19234.5
2.19262e+08,1.32364,0,2.67514,149.788,18.0783,-28547.3
2.19424e+08,11.5946,0,2.51721,-757.411,-1488.13,-27030.9
2.19568e+08,14.5939,2,2.45003,-2693.07,-1564.29,-29541.6
2.19848e+08,89.8104,0,3.02562,-612.801,12191.5,-14525.1
2.20276e+08,18.5043,1,2.71099,-1345.29,-2796.34,-26537.4
2.2057e+08,122.503,0,2.39301,3894.38,5088.77,-3733.32
2.20735e+08,54.4933,2,2.73241,6580.1,-7740.94,-23421.1
2.20895e+08,87.3162,1,2.84984,-1872.91,12421.9,-15366.2
2.21e+08,41.61,1,2.57391,-6557.29,2098.82,-23269.7
2.21115e+08,203.16,2,2.97781,-23420.7,-27590.6,-6258.14
2.21416e+08,189.031,0,2.7025,17341.1,-9730.04,-1753.5
2.21972e+08,26.5288,1,2.90285,2361.75,1873.63,-24142.3
2.2217e+08,13.118,1,3.05495,-2140.41,1709.42,-28021.9
2.22534e+08,166.632,1,2.60968,1862.25,27506.4,-6907.13
2.22696e+08,23.2768,1,2.85383,2847.4,1613.1,-25169.3
2.22702e+08,34.2207,0,2.47657,3376.32,6444.8,-28078.6
2.22723e+08,99.0584,1,2.51795,-10598.5,11492.5,-14790.1
2.23115e+08,88.1076,2,2.85465,-15102.7,8541.9,-22303.3
2.23459e+08,47.0538,2,2.95874,3410.53,-3892.53,-20397.1
2.23648e+08,41.5306,2,2.47246,-4600.61,-7596.78,-29334
2.2396e+08,116.215,2,2.48644,2332.74,-18658.6,-12912.2
2.24116e+08,1.39982,1,2.94797,-131.843,-213.006,-28760.6
2.24563e+08,25.2709,0,2.92797,287.334,-2124.06,-23952.1
2.24627e+08,10.2596,1,2.5871,185.364,2107.08,-28039.5
2.24896e+08,22.3032,0,2.66985,1940.18,3677.79,-26512.6
2.25188e+08,45.9852,1,2.59029,-5228.86,8264.34,-27914.6
2.25221e+08,27.0329,2,2.5738,2331.63,-2516.06,-24223.5
2.25355e+08,108.11,0,2.41523,-21536.4,-154.701,-21325.6
2.25495e+08,93.122,1,2.62491,-16605,4235.19,-19052.9
2.25575e+08,104.904,1,3.04763,11531.2,15568.2,-18369.3
2.25784e+08,212.507,1,2.71101,-22177.6,-669.224,10094.8
2.25838e+08,19.5584,2,2.8943,-2173.18,3450.04,-28636.7
2.26171e+08,0.696884,2,2.99945,-104.986,-71.7782,-28702.5
2.26331e+08,121.943,2,3.06004,-14945.6,19782.7,-23934
2.26391e+08,89.3267,0,2.83583,15922.1,8401.13,-23160.5
2.26545e+08,131.711,2,2.64117,15284.8,-20268.6,-17406.2
2.266e+08,69.066,2,2.84303,-11760,-2882.3,-20730.7
2.26776e+08,95.2391,1,2.47828,-18759.8,3025.85,-21971.6
2.26916e+08,17.9258,0,2.9513,2768.91,-725.245,-26268.2
0,17.8558,0,2.46149,0,0,0
2.27009e+08,4.27332,0,2.66642,528.836,825.165,-28829.3
2.27296e+08,45.8007,2,2.40803,-7569.27,-424.289,-22778.8
2.27728e+08,30.8337,0,2.59997,-1814.71,-2360.45,-23038
2.27846e+08,1.74589,0,2.80513,243.796,174.379,-28565.7
0,1.66939,0,2.47413,0,0,0
0,1.73076,0,2.86022,0,0,0
2.28005e+08,15.6416,1,2.5154,-2358.89,1647.5,-27052.3
2.28136e+08,129.272,2,2.3997,-20704.3,-17932.9,-27261.6
2.28137e+08,24.1484,2,2.8539,-4587.39,466.952,-26609.7
2.28233e+08,121.202,1,2.41089,-8517.56,21596.4,-17746.8
2.28428e+08,101.908,2,2.39175,11121.9,-18491.4,-27266.9
2.28686e+08,58.5258,0,2.39637,-3066.73,-11213,-24536.1
2.28831e+08,23.1689,2,2.63847,-2802.62,-3515.11,-26676.8
2.28847e+08,55.6507,2,2.844,10416.9,-3811.47,-25063.8
2.29381e+08,120.122,2,2.5332,-11926.1,8652.88,-8147.64
2.29945e+08,43.8767,2,2.64712,4843.67,-7085.23,-25282.3
2.30117e+08,65.3353,1,2.51801,-13623,2081.03,-27164.5
2.30274e+08,36.0879,0,2.9152,-574.24,-2987.3,-21874.6
2.30378e+08,67.8977,0,2.87883,12182,3352.05,-22057.2
2.30424e+08,151.478,2,2.88672,-7656.94,12540.2,-644.086
2.3071e+08,45.9408,0,2.63318,2986.06,6620.94,-22336.8
2.30959e+08,74.8244,2,2.70288,11094.8,6901.98,-20118.3
2.31009e+08,97.5351,2,2.4591,5915.26,-16900,-18448.6
2.31079e+08,73.081,1,2.50715,3480.88,10151.3,-17700.1
2.31147e+08,74.4949,1,2.37349,-7247.85,9254.9,-18208.1
2.31152e+08,2.02569,1,2.73545,-331.732,292.332,-28590.9
0,2.02661,1,2.73545,0,0,0
0,1.95887,1,2.60832,0,0,0
2.31308e+08,0.575229,0,3.02081,147.758,-138.869,-28862.9
2.31365e+08,51.87,1,2.47067,8038.28,7517.98,-28384.3
2.31402e+08,138.846,2,2.57447,19492.6,17893.4,-16348.5
2.31462e+08,25.6241,2,3.0309,2563.94,2381.41,-24837.8
2.31948e+08,83.754,0,2.69755,6318.59,7577.71,-14138.2
2.32132e+08,150.935,1,2.70257,-7379.02,11319.9,-1.91037
2.32148e+08,161.175,2,2.47644,18093.1,-11534.4,-2331.42
2.32259e+08,1.32529,1,2.47904,128.466,-113.315,-28648.2
2.32376e+08,67.8208,0,2.66256,13781.2,-1122.77,-24771.5
2.32565e+08,132.692,1,2.60576,3921.55,20091.1,-9618.03
2.32618e+08,127.567,2,2.57603,5654.95,18186.4,-9817.62
2.32659e+08,55.3827,1,2.83714,4293.21,-4682.6,-19109.3
2.32856e+08,75.6079,1,2.6515,1973.7,8483.06,-15424.3
2.32866e+08,94.2246,1,2.54974,-17239.4,-14.9515,-18761.8
2.32897e+08,93.8871,0,3.00839,8272.5,-6382.04,-12136.3
2.32941e+08,21.8066,1,2.87554,1290.32,4366.21,-29872.1
2.33043e+08,164.477,2,2.70158,-26646.8,-4189.41,-6965.57
2.33064e+08,17.7638,0,2.47859,1768.86,3174.32,-27740.8
2.33174e+08,47.0518,2,2.89256,-3339.64,-4283.49,-21101.8
2.33735e+08,107.11,2,2.50388,-21598.1,-7109.63,-28448.6
2.33842e+08,17.2151,2,2.71876,1972.02,-332.671,-29171.6
2.34336e+08,110.897,0,2.59276,11442.5,-4742.81,-8899.02
2.34683e+08,52.4935,0,2.76628,-290.105,-8180.61,-21394.6
2.34697e+08,87.8957,2,2.49382,-6438.85,5192.96,-12175.3
2.35459e+08,39.2771,1,2.84746,-7706.59,-2058.75,-26531.1
2.35478e+08,20.2111,0,2.5812,2113.57,-3748.72,-28303.3
2.35576e+08,114,2,3.00466,-7100.66,-17099,-13618.3
2.35619e+08,19.0046,1,2.40217,-3243.25,-1333.1,-26824.7
2.36106e+08,318.277,2,2.99928,-20134,-4457.56,18238.8
2.36111e+08,106.344,0,2.97207,5544.77,7679.18,-8633.04
2.36131e+08,46.0373,1,2.86289,-5248.73,2862.02,-21161
2.36282e+08,179.697,0,2.74771,5746.78,-11598.4,6744.55
2.36426e+08,162.941,1,2.46829,-23247.4,13278.1,-7049.21
2.36468e+08,51.3923,0,2.47463,10915.1,818.938,-29481.1
2.36512e+08,47.074,2,2.71213,2618.83,-8262.46,-23874.3
2.36572e+08,30.6328,0,2.8472,-3424.83,-2877.48,-28633
2.36735e+08,73.2006,1,2.63416,-4508.27,12291,-20472.1
2.37322e+08,101.198,2,3.04808,15721.2,-3462.99,-15043
2.37336e+08,29.5223,1,2.78657,-1459.58,1627.97,-22965.8
2.37602e+08,5.65288,1,2.36381,56.0153,1020.28,-28077.3
2.37736e+08,71.3196,2,2.8393,506.714,-1286.33,-26742.8
2.37941e+08,20.3349,0,2.63822,1568.23,4032.49,-29051.8
2.38268e+08,177.931,0,2.99873,20895.9,4852.83,1732.69
2.38299e+08,17.3602,2,2.85255,1498,-916.5,-25625.6
2.38637e+08,74.5932,0,2.60714,12623.1,-9582.56,-28683.1
2.38797e+08,117.22,2,2.531,-18602.9,12689.2,-18442.6
2.39e+08,39.3992,1,2.95108,5901.61,5866.92,-28965.7
2.39026e+08,15.2956,2,2.95438,-1542.45,-2931.49,-29169.6
2.39104e+08,23.152,2,2.36418,-1393.11,-4705.94,-29900.3
2.39206e+08,32.8781,2,2.74509,-5439.61,-4359.96,-28011.2
2.39895e+08,98.9375,0,2.60591,-11987.5,-6653.68,-13125.2
2.3992e+08,75.1034,1,2.84196,1576.52,4173.73,-13656.4
2.40216e+08,29.2119,2,2.95792,-719.385,-4943.88,-25168.9
2.40243e+08,47.4214,1,2.73259,4500.41,952.088,-19949
2.4026e+08,30.9606,1,2.81126,55.7452,6234.49,-26695.7
2.40425e+08,114.398,2,2.93838,-22948.6,-7226.05,-27639
2.40488e+08,157.802,2,2.8122,16962.5,-13665.7,-29813.8
2.40666e+08,152.308,1,2.82606,-3862.88,27080.2,-12067.9
2.40719e+08,53.0008,1,2.46324,9115.24,-5849.72,-26235
2.40757e+08,267.483,1,2.70276,-15494.4,22846.3,-7211.77
2.4089e+08,59.6322,1,2.66323,-4211.6,-5606.99,-18380
2.41473e+08,157.352,0,2.46409,19440.4,26633.7,-24040
2.41727e+08,60.1955,0,2.89262,-2352.95,8561.92,-19862.3
2.41886e+08,35.8117,1,2.95708,-6455.52,3929.06,-29739.2
2.42433e+08,229.624,2,2.80404,-14103.1,-26405.3,9130.91
2.43612e+08,64.4679,2,2.60089,5620.38,1428.4,-24275.4
2.43622e+08,38.9307,0,2.61836,4482.04,5816.88,-24982.7
2.44068e+08,12.5972,0,2.91502,2501.83,297.273,-27793.6
2.44318e+08,30.8898,0,2.53702,-1953.93,2234.35,-23049.5
2.45006e+08,19.0884,1,2.64853,-3081.24,-2569.58,-28479
2.45041e+08,105.116,2,2.72076,-10629.2,-17183.9,-19532.5
2.45156e+08,31.1457,0,2.59962,3688.74,-4845.9,-26194.4
2.45184e+08,116.348,2,2.4613,-8511.49,-7831.92,-11173.6
2.45734e+08,9.59532,0,3.0501,1274,-1342.27,-27860.6
2.45751e+08,174.59,2,2.86123,9003.42,28575.3,-7766.95
2.45871e+08,111.269,0,2.6358,4489.62,-2746.7,-5944.05
2.46031e+08,67.1847,0,2.84935,8.49557,942.189,-28366.5
2.4617e+08,5.40999,2,2.45236,-604.789,-801.911,-28111.2
0,5.43451,2,2.51964,0,0,0
2.46476e+08,14.0223,1,2.77134,667.766,-2444.71,-27415
2.46908e+08,106.901,0,2.87919,-10973.4,16173.7,-17834.8
2.47008e+08,30.8334,0,2.70736,1817.33,-4103.76,-24088.8
2.47057e+08,47.5802,0,2.4615,-4227.05,1822.6,-19895
2.47555e+08,63.963,2,2.8048,12220.1,-3696.58,-24528.9
2.4781e+08,31.232,2,2.7801,2835.92,-1602.99,-23139.8
2.47886e+08,26.3991,1,2.7258,-3780.18,-2453.78,-25533
2.47909e+08,155.962,2,2.90009,14975.1,-27580.8,-19262.9
2.47937e+08,7.14855,0,2.49853,1402.35,780.873,-28609
2.47985e+08,90.965,2,2.61565,-17380.6,3529.72,-21385.3
2.48091e+08,87.0334,2,2.38449,5701.13,16801.8,-24154.9
2.48592e+08,24.3396,1,2.84182,-1331.04,2952.87,-29532.6
2.48629e+08,92.0105,2,2.49598,-16097.7,-8933.21,-22291.1
2.48634e+08,56.8668,1,2.83373,-7035.96,-1065.31,-29136.4
2.48931e+08,141.471,1,2.6426,-18571.4,22320.5,-21505
2.49212e+08,51.7403,2,3.039,6916.05,-8375.26,-27907.1
2.49476e+08,4.44415,1,2.53821,-479.811,509.731,-28126
2.49628e+08,106.752,0,2.92944,-14968.1,6988.31,-13764.8
2.49957e+08,78.9032,2,2.73816,-4866.95,3077.8,-13226.2
