#class tools::wcsv::ntuple
#title time
#separator 44
#vector_separator 59
#column double eventID
#column double t(ns)
#column double copynumber
#column double energy(eV)
#column double x(mm)
#column double y(mm)
#column double z(mm)
133110,61.759,2,2.59312,-7783.2,-8842.39,-23077.4
453451,52.7959,0,2.75418,5565.38,-7090.18,-23154.8
629937,68.5602,2,2.79404,-839.822,-1077.69,-28323.6
841064,59.4703,1,2.70306,3369.03,10925.9,-23520
1.1326e+06,20.9467,2,2.4487,-827.343,2511.86,-25307.1
1.1612e+06,99.7345,2,2.46501,-15926.8,-3364.78,-15321.1
1.67172e+06,41.8184,1,2.61517,600.565,2278.08,-29408.9
1.91518e+06,13.1721,2,2.38623,-2290.71,-1262.88,-27622.2
1.97179e+06,24.2583,2,2.46572,-410.476,-4774.86,-26801.3
2.29675e+06,28.0481,1,2.64597,-5899.05,-949.253,-28563.5
2.65389e+06,2.77366,0,2.90533,-335.597,-185.882,-29113.7
2.67744e+06,13.3844,2,2.39009,-1520.02,371.324,-26437.2
2.70481e+06,6.89067,2,2.61031,-1479,-180.405,-29249.4
2.82267e+06,8.19739,1,2.84462,-844.245,1603.62,-28511.6
2.93549e+06,30.2901,1,2.80616,1821.73,6195.29,-28827.9
2.95421e+06,186.721,0,2.55946,14394.5,16462.6,4060.51
3.39556e+06,129.806,2,2.96069,25079,-2736.82,-18601.6
3.58908e+06,7.23516,0,2.76912,-2.59291,969.068,-27654.5
4.19802e+06,73.4061,2,2.87084,2861.36,-15163.2,-27240.3
4.21062e+06,107.314,0,2.65418,-7908.01,9963.55,-18209.4
4.28413e+06,111.319,1,2.70496,-16611.1,3369.25,-12539.5
4.29313e+06,25.5024,1,2.91418,4185.84,-1155.19,-25731.9
4.86483e+06,131.05,2,2.78645,-15113.9,-3114.5,-5928.13
4.93398e+06,10.0934,1,2.92835,-881.749,1946.91,-29450.9
4.94378e+06,70.761,0,2.65703,-148.372,-10189.2,-29669.8
5.26856e+06,189.095,0,2.53998,-20052.6,11599,2392.83
5.42627e+06,17.9523,0,2.82495,3168.6,-1679.53,-27399.4
6.0075e+06,52.4301,1,3.05386,-9400.08,-914.845,-23117.6
6.09418e+06,60.5975,0,2.44901,4742.5,6193.63,-18617.3
6.12886e+06,169.817,0,2.9265,20956.7,27150.8,-18912.1
6.22579e+06,44.8417,1,2.93945,3702.38,5630.6,-22198.4
6.24911e+06,22.2167,0,3.03086,3520.68,2289.31,-26668.9
6.50967e+06,115.415,0,2.78743,21562.4,-7801.44,-20561.8
6.64019e+06,69.5336,0,2.85853,-2174.55,11418.2,-20011.3
6.76894e+06,16.2157,2,2.81431,-3026.93,-1794.97,-28707.9
7.00018e+06,96.2604,2,2.64331,4929.87,9059.51,-11407.6
7.14574e+06,29.1203,0,2.60634,-4465.48,3543.01,-26684.3
7.19862e+06,115.692,1,2.70375,-12531.4,6234.77,-20958.3
7.44994e+06,26.9059,2,2.72449,-2898.7,-4665.95,-27067.6
7.50391e+06,16.6503,1,2.41234,2070.95,-805.738,-26163.8
7.51887e+06,73.1884,0,2.75072,571.55,-15388.5,-27691.3
7.66027e+06,214.18,0,2.96574,19396.2,24174.8,3729.12
7.9156e+06,1.62763,2,3.04617,26.1964,-102.852,-28497.3
7.98118e+06,149.24,1,2.58911,13913.6,26796.4,-19595.7
8.01848e+06,146.469,0,3.04336,15473.4,20096.6,-28749.2
8.1817e+06,51.3966,2,2.98432,-849.225,-3969.56,-19387
8.25478e+06,38.56,1,2.70733,539.833,-6924.12,-24702.1
8.81014e+06,88.1668,1,2.95257,-3753.64,18198.3,-29933.9
8.85839e+06,40.8184,1,3.05941,-7768.95,3027.6,-26565.9
8.90802e+06,55.5406,0,2.49438,5574.47,10177.2,-26646.6
9.30674e+06,177.8,0,2.55786,9048.71,29155.9,-6894.52
9.47396e+06,86.1562,0,2.66891,-4183.42,-16794.4,-23654.2
9.50505e+06,200.615,0,2.81009,11743.6,-20583,6115.18
9.79279e+06,56.4396,0,2.93192,8756.38,-3583.66,-21614.3
1.03973e+07,17.2169,0,2.41172,1339.03,2368.69,-26325.3
1.06593e+07,74.2144,2,2.57516,7117.27,-6925.4,-16684
1.13952e+07,25.9406,1,2.64373,4795.09,1523.06,-26687.4
1.14196e+07,31.5031,2,2.60975,2778.53,-625.911,-22841.1
1.15272e+07,25.2811,1,2.90371,-3722.24,2885.3,-29392.6
1.15861e+07,74.3225,1,2.4067,-6464.09,10832.7,-19302.1
1.16587e+07,44.2963,0,2.39301,9144.31,2545.51,-28907.2
1.167e+07,2.32243,0,2.8866,420.613,302.505,-28601.9
1.22087e+07,22.0024,0,2.86964,1292.75,-3529.11,-26081.2
1.22149e+07,71.458,2,2.60894,9683.69,10557.3,-24317.7
1.24093e+07,0.262567,2,2.8922,-91.8483,-88.3872,-28809.2
1.2527e+07,29.5345,0,2.78765,1500.99,-5169.78,-25643.4
1.25668e+07,44.6433,2,2.50106,-7707.37,3418.78,-24524.6
1.26078e+07,69.1135,1,2.54234,-6625.21,-7072.61,-17923.1
1.28181e+07,140.094,2,2.75729,3132.09,24377.2,-20045
1.29004e+07,5.81684,0,2.38449,597.871,-143.042,-27698.3
1.3021e+07,115.707,0,2.96614,2106.47,12198.6,-13518.6
1.30711e+07,91.8283,1,2.69193,-14100.3,12963,-25490
1.3091e+07,68.3562,1,2.40849,-6968.56,12507.6,-26107.5
1.3125e+07,13.3702,1,3.00365,-1366.62,2501.66,-29335.9
1.32119e+07,87.0285,2,2.65211,-7062.18,7860.31,-13849.4
1.34082e+07,6.49847,2,2.68472,-778.197,-1104.08,-28245.9
0,6.51754,2,2.86049,0,0,0
1.35724e+07,1.50533,0,2.6153,-240.599,-35.2764,-28748.5
1.36326e+07,19.7695,2,2.77672,2757.28,690.239,-25812
1.37234e+07,1.89589,2,2.77941,99.1926,-447.796,-28883.9
1.37809e+07,119.052,1,2.37086,4474.96,21605.5,-16515.2
1.39417e+07,121.237,1,2.43771,-14682.5,10821.6,-10709.6
1.40768e+07,219.058,2,2.6289,-21924.6,19666.7,6760.86
1.4181e+07,68.3508,2,2.60076,4621.13,-4124.26,-15770.6
1.45829e+07,207.653,0,2.46817,25629.6,-22410.8,-1021.35
1.46534e+07,1.98671,2,2.93999,-268.518,-382.612,-29040.3
1.48914e+07,4.61867,0,3.00734,671.532,352.257,-28114.1
1.49109e+07,116.007,2,2.99069,-8830.21,-5665.38,-6877.3
1.49465e+07,19.1761,0,2.55812,2596.06,-1342.14,-25956.6
1.50308e+07,21.8429,1,2.96075,-807.723,4434.04,-27556.6
1.5197e+07,31.785,0,2.42049,1546.54,6564.83,-29134.4
1.54353e+07,25.6594,2,2.83811,3152.22,-871.622,-24548.7
1.55254e+07,50.3136,0,2.45737,4861.33,-2483.32,-19644.7
1.56788e+07,97.3777,0,2.6718,11473.7,13102.2,-17816.8
1.58931e+07,147.896,2,2.71163,8364.92,29663.8,-24791.4
1.61126e+07,107.109,1,2.7514,21918.1,-1037.57,-23713.5
1.62266e+07,64.4603,2,2.70875,7588.67,-6119.85,-22062.1
1.62842e+07,1.69709,0,2.99255,27.82,304.378,-28630.3
1.65455e+07,179.004,1,2.6968,14726.1,26293.3,-6116.77
1.66866e+07,243.27,1,2.56558,6908.33,11658.8,14512.5
1.67701e+07,112.688,2,2.6038,-4566.74,21513.9,-19845.7
1.71396e+07,70.7932,1,2.59878,-12304.6,6988.13,-23724.6
1.71874e+07,84.4466,2,2.85408,-15827.5,-5641.3,-22910.4
1.7255e+07,10.1087,1,2.81323,-153.086,-1828.81,-27817.7
1.72627e+07,88.2485,1,2.3667,-12376.5,14125.8,-28260
1.75414e+07,18.0504,2,2.94008,2052.41,1588.76,-26100.5
1.77636e+07,181.254,1,2.59534,183.649,-21578,2679.89
1.79982e+07,128.703,2,2.59361,26684.4,4053.95,-26044.3
1.80627e+07,5.18272,0,2.90977,235.11,286.058,-27781.7
1.80889e+07,95.651,2,2.41915,11908.1,-15513.8,-23475.1
1.85171e+07,182.303,2,2.66323,12232.6,12499.7,-3616.08
1.85593e+07,109.246,0,2.67093,18370.6,-314.498,-14799.9
1.85769e+07,122.287,0,2.7024,15731.7,-1315.8,-8409.69
1.87784e+07,66.8996,0,2.44769,5517.94,8460.08,-18845.4
1.88006e+07,100.555,1,2.87664,4846.16,19840.4,-23152.7
1.88666e+07,105.266,1,2.80059,-7432.57,13538.3,-12881.2
1.90923e+07,49.4357,0,2.55861,7211.4,4896.34,-22932.8
1.91646e+07,32.8718,2,2.42649,-2974.28,-4837.93,-24663.6
0,33.5677,0,2.77049,0,0,0
1.93769e+07,210.221,0,2.60548,22326.9,-21878.7,2742.87
1.95332e+07,0.801076,2,3.01908,119.456,-62.4188,-28752.4
0,0.703207,2,2.81827,0,0,0
0,0.698776,2,2.53871,0,0,0
1.96363e+07,107.337,0,2.59781,-21867.1,1386.35,-23361.5
1.96505e+07,160.706,0,2.93288,23303.8,2301.43,-4469.24
1.96517e+07,7.00372,1,2.68549,-139.412,-1047.29,-27824.6
2.01089e+07,10.5515,1,2.4927,229.848,-1561.61,-27311.3
2.04339e+07,22.7276,1,2.4309,654.465,-3948.88,-26281.5
2.07778e+07,128.057,0,2.88021,-9801.94,3562.43,-27393.2
2.13316e+07,86.205,0,2.49259,-198.785,-13640.7,-16732.3
2.13577e+07,218.815,2,3.03943,-12890.9,-19963.8,10384
2.14133e+07,23.5314,2,2.75798,686.93,2409.7,-24606.2
2.15561e+07,54.9979,2,2.66056,-7685.78,-4192.34,-21107.1
2.15624e+07,60.6118,2,2.66386,11390.6,-1722.58,-23367
2.17526e+07,46.9666,1,2.74803,4550.67,-858.855,-20091.6
2.1755e+07,196.444,2,2.80622,-10270.6,25341.7,2106.19
2.20499e+07,251.999,0,2.95194,12929,25407.7,15702.2
2.21662e+07,186.226,1,2.55574,22325.3,-9481.33,2133.36
2.25752e+07,130.767,1,2.42788,10960.7,12933.8,-6929.9
2.30016e+07,181.059,0,2.54715,-8537.84,-26037.1,-2177.11
2.39847e+07,98.405,0,3.0228,10641.8,13317.9,-17185.5
2.43613e+07,137.212,2,2.46657,3693.42,-24209.3,-13191
2.44211e+07,90.3256,1,2.78195,12154.5,14325.7,-25645.8
2.4439e+07,171.624,1,2.78542,-14430.3,1518.41,4211.37
2.44451e+07,119.029,0,2.97483,9641.79,-22860.7,-25787.4
2.45829e+07,69.8883,0,2.69758,12944.7,4001.99,-22802.5
2.55165e+07,48.5398,2,2.77493,4273.9,-9092.98,-26562.5
2.56155e+07,21.4278,0,2.78341,1483.21,-4142.19,-27679.9
2.5665e+07,148.789,0,2.76321,28031.1,-3824.4,-15191.3
2.56913e+07,112.786,1,2.37695,-8419.62,21705.2,-23262.1
2.57653e+07,7.5751,2,2.64369,-1592.61,-99.1264,-29345.2
2.57731e+07,158.517,0,2.77488,3791.97,17362.7,-659.11
2.6255e+07,24.491,0,2.5895,-1871.84,-2647.11,-24846.5
2.63247e+07,13.8352,0,2.66349,2596.03,-1390.61,-28145.3
2.63543e+07,8.09495,1,2.68483,-1660.35,387.411,-28361.6
2.68459e+07,99.7592,2,2.41472,-15112.8,2305.97,-23775.3
2.73216e+07,109.971,1,2.95459,-12214.2,-9104.77,-11519.1
2.75518e+07,133.722,2,2.86681,-16552.9,-18967.8,-21647.4
2.78557e+07,3.86323,2,2.42955,-647.562,-575.89,-29136.1
2.79528e+07,10.803,0,2.51853,1798.41,610.181,-27431.8
2.82501e+07,69.0382,0,2.42772,-4508.52,13083,-24151.8
2.8396e+07,101.072,0,2.71175,-2889.73,-12665.2,-11981.1
2.85612e+07,95.1737,1,2.81131,-19143.1,1141.74,-22931.7
2.85874e+07,3.84061,2,2.62385,56.0778,-838.467,-29199.3
2.86284e+07,12.9301,0,2.88299,2607.88,-721.779,-28015.2
2.91597e+07,38.6545,1,2.80527,-1047.69,4528.54,-22086
2.92564e+07,18.6558,1,2.67865,559.157,-3210.05,-26691.9
2.9413e+07,9.46448,0,2.76465,1120.65,-775.749,-27290.3
2.97947e+07,115.771,1,2.95676,9061.31,20347.4,-19023.9
2.98984e+07,185.325,1,2.72173,-19323.6,19356.1,-909.65
2.99151e+07,49.7439,1,2.39864,4141.63,9769.29,-29059.5
2.99389e+07,60.0774,1,2.69831,5068.92,-10773.5,-24685.6
2.99901e+07,1.89377,1,2.59004,152.48,-140.769,-28506.8
0,1.59738,0,2.85242,0,0,0
0,1.70036,0,2.40703,0,0,0
0,1.59027,0,2.61668,0,0,0
3.07674e+07,119.819,2,2.86206,-10208.1,-15135.1,-11398.9
3.09486e+07,70.7887,0,2.93731,-3200.44,-14413.4,-27214.8
3.11433e+07,19.0139,0,2.48277,1407.84,757.674,-25107.1
3.13061e+07,169.951,1,2.68608,-18021.3,27940.7,-15241.2
3.13129e+07,218.208,0,2.97666,1763.21,17058.1,13487
3.13436e+07,152.152,0,2.52335,25150.2,12968.6,-13379.1
3.13923e+07,142.665,0,2.57443,15878.2,8657.41,-4657.93
3.15571e+07,98.508,0,2.89098,1634.61,11861.6,-11991.9
3.15861e+07,61.0078,1,2.77575,-10225.1,1638.24,-21128.1
3.16168e+07,20.7927,1,2.78507,-3404.42,1334.24,-26283.2
3.16988e+07,96.3515,1,2.8492,-18454.2,8587.65,-29091
3.18645e+07,51.1557,2,2.88872,-7550.95,-5769.56,-23625
3.33119e+07,46.6532,2,2.5731,-1922.51,-8615.32,-24266.6
3.3455e+07,81.4399,1,2.88591,-13316.6,10293.3,-25269.3
3.37604e+07,55.5841,1,3.02527,2149.91,11541.5,-29207.4
3.42583e+07,156.739,0,2.92145,26133,17523.8,-22604.6
3.43857e+07,70.022,1,2.6199,-227.901,14785.2,-27506.2
3.45383e+07,58.1266,2,2.88517,-3156.56,-11300.6,-25099.5
3.47161e+07,87.2319,2,2.83472,-9854.34,14081.4,-22462.5
3.4922e+07,122.993,2,2.94068,-8618.27,-19045,-14668.5
3.50342e+07,134.088,0,2.68802,7380.73,18975.5,-9169.33
3.50878e+07,41.3372,1,2.56079,5431.53,2783.15,-22544.1
3.51354e+07,5.66123,1,2.64926,-443.118,921.6,-28066.9
3.5273e+07,46.7726,2,2.91694,3744.52,-6404.44,-22311.9
3.53286e+07,50.5507,2,3.05484,5888.56,3735.19,-20920.3
3.5387e+07,14.6664,1,2.99325,1570.46,2406.46,-27564.6
3.53901e+07,10.0143,0,2.4325,1741.03,-74.9301,-27496
0,10.0586,0,2.99502,0,0,0
0,10.0467,0,2.89367,0,0,0
3.54082e+07,19.8221,2,2.96094,3019.95,-2840.24,-28181.8
3.56474e+07,73.1004,2,2.39712,-6943.63,6225.54,-16497
3.56526e+07,91.7535,0,2.82205,19071.9,662.623,-25356.1
3.56763e+07,3.4978,0,2.67048,-539.437,427.836,-28655.4
3.58212e+07,81.1736,2,3.0555,-13530.5,4769.47,-19650.3
3.63316e+07,70.1068,1,2.97111,-10883.8,9432.45,-25539.4
3.63663e+07,24.7597,2,2.93354,10.0164,2184.44,-24154.1
3.6369e+07,371.441,0,2.95682,29859.1,1854.02,20098.4
3.63967e+07,28.3502,1,2.6788,-4533.95,2430.5,-25651.8
3.6661e+07,4.05978,1,2.62684,791.848,-143.608,-28609.4
3.67421e+07,30.3537,0,2.75771,-3535.76,2601.26,-24212.6
3.70045e+07,9.14978,1,2.94671,1432.83,-272.246,-27607.7
3.72203e+07,62.6098,1,2.91131,-11864.3,3346.79,-24041.5
3.7351e+07,134.599,0,2.70488,-15925.8,-5938.55,-6168.18
3.75543e+07,62.1538,0,2.39556,2615.17,-4622.69,-16774.2
3.77309e+07,79.2781,1,2.97207,-5593.8,4683.61,-13852.1
3.79374e+07,24.6138,2,2.61125,-4642.52,2143.94,-29916.8
3.81982e+07,13.7347,0,2.90748,-1134.97,741.571,-26297.3
3.82978e+07,15.2312,1,2.91612,-2367.6,655.417,-28423.2
3.83026e+07,234.07,1,2.79434,-21125.2,22246.9,-7809.56
3.85557e+07,103.307,0,2.62969,13437.4,-1734.21,-11699.1
3.85948e+07,94.6602,0,2.59162,17311,9837.77,-26192.5
3.86131e+07,69.5563,1,2.36375,-13360.1,963.029,-22575.8
3.86806e+07,98.3975,1,3.04562,-3257.65,-5792.87,-27820.2
3.87378e+07,1.09538,0,2.56618,341.786,-78.8701,-28820.6
0,1.12245,0,2.80695,0,0,0
3.90913e+07,34.6907,0,2.59614,4224.05,-1027.55,-22872.7
3.96844e+07,68.2749,0,2.71013,8455.68,-458.197,-17123.8
4.00999e+07,172.571,1,2.39192,-23815.1,23326.4,-13771.4
4.0151e+07,3.91797,1,2.4335,-307.098,470.91,-28131.3
4.02054e+07,164.886,1,2.47013,-6524.61,1132.81,-27122.2
4.07945e+07,278.657,2,3.04782,23971.6,-17899.7,8382.02
4.08508e+07,36.3581,1,2.83122,3061.67,2089.23,-22114.1
4.08896e+07,92.3142,1,2.78598,10768,-8867.66,-15371.5
4.08959e+07,136.875,0,3.04393,-20428.1,4476.77,-16803.5
4.11194e+07,97.058,1,2.81918,-15011.9,-1429.91,-28504.7
4.15056e+07,77.3217,1,2.99893,-7427.99,-9355.2,-17940.3
4.16832e+07,61.4648,2,2.44012,-5157,-658.9,-16907.1
4.2324e+07,124.711,0,3.05298,6822.72,9102.39,-5301.17
4.26912e+07,151.483,2,2.55207,25336.1,-10337.3,-12223
4.2992e+07,39.6538,1,2.37735,-7674.29,-1991.78,-25975.5
4.32999e+07,139.29,0,2.49456,-11541.2,21473.8,-12318.4
4.33176e+07,52.9271,0,2.80696,4136.28,10360.5,-29683.4
4.34212e+07,165.982,1,2.7481,-6197.33,16281.5,1509.71
4.35351e+07,128.72,2,2.6627,19696.7,3670.01,-10556.9
4.37262e+07,57.3002,1,2.45303,8063.56,-6991.63,-23177
4.37923e+07,75.011,2,2.90092,-10344.5,-11980.1,-27902.1
4.45172e+07,87.9818,1,2.96436,8747.54,-9628.51,-15806.3
4.45725e+07,91.274,0,2.84802,1839.99,-1220.01,-17474
4.46373e+07,77.1169,1,2.97811,-9555.39,6540.44,-17443
4.48278e+07,56.4499,2,2.44053,-532.136,-11539,-25533.3
4.5049e+07,166.499,1,2.89636,-24255.4,5167.44,-4121.26
4.50745e+07,42.2315,0,2.58291,-3761.11,8068.03,-29251.7
4.53341e+07,80.1878,0,2.65775,16464.4,-3297.8,-26049.7
4.54998e+07,11.3944,2,2.93004,-904.755,632.256,-26734.6
4.55273e+07,172.634,1,2.51012,11662,22827,-2787.72
4.57636e+07,80.5654,2,2.56274,-10240.6,-13080,-24758.1
4.64232e+07,79.397,0,2.54266,-2431.46,9638.67,-22004.2
4.66098e+07,57.2586,1,2.82208,-5128.53,-5887.43,-19659.5
4.67604e+07,44.4833,2,3.06011,3000.44,6842.31,-23334.6
4.73193e+07,30.2729,2,3.0006,3810.23,-5044.49,-29905.8
4.73525e+07,15.1779,0,2.84678,-2426.81,-362.174,-26843.2
4.73589e+07,67.1063,2,2.96345,-10928.5,5402.32,-21761.5
4.79578e+07,287.731,1,2.59,-21647,-21005.1,-2200.81
4.83152e+07,38.5433,0,2.88408,-5043.68,-2033.14,-22858.5
4.84993e+07,129.511,1,2.4147,22701.2,-10533,-17804.5
4.85552e+07,38.9545,2,2.85735,834.327,-5703.68,-22937.9
4.91575e+07,154.605,0,2.7417,-5662.51,-7383.9,-28979
4.92679e+07,71.0271,2,2.76342,2084.77,6608.82,-15605.2
4.93117e+07,14.8634,2,2.47476,2416.31,-724.701,-26970.9
4.94105e+07,8.80518,0,2.41559,1237.07,1207.23,-29763.5
4.95693e+07,45.9039,2,2.99453,7344.91,-4283.41,-24312.8
4.95828e+07,90.1849,1,2.90129,-5994.19,15838.9,-20155.7
4.97187e+07,186.691,2,2.77039,-17109.9,-6838.49,-13064.7
5.04392e+07,23.7189,2,2.60733,-2970.4,-1543.84,-25018.1
5.04742e+07,219.608,0,2.68107,2302.96,-26245.8,9223.05
5.04755e+07,101.048,2,3.01626,26.7275,-18964.6,-19230.5
5.06596e+07,24.9458,1,2.78345,1950.01,-3105.16,-25161.6
5.08369e+07,39.9637,0,2.45155,-1363.01,1104.57,-26491.4
5.0853e+07,54.2673,2,2.9338,1033.83,-1804.52,-28553
5.10474e+07,32.0776,0,2.7558,-1422.22,4861.2,-24340
5.1247e+07,19.7115,2,2.49727,-3363.61,454.351,-26318
5.14095e+07,59.1388,0,2.73539,9444.73,6912.63,-24331.8
5.15731e+07,99.8993,1,2.83767,18802.5,-6691.16,-22401.2
5.20263e+07,67.4701,0,2.49139,4415.52,-5028.61,-16202.3
5.20424e+07,65.1007,2,2.99933,-405.585,-7851.9,-21359.4
5.23186e+07,73.4994,2,2.81013,11593.7,-9317.26,-24522.2
5.27552e+07,52.258,0,2.64228,10.7916,-9097.58,-22554.7
5.28305e+07,8.81548,2,2.61389,-319.413,-505.118,-27019.9
5.29051e+07,9.43277,0,2.92113,-116.607,-814.497,-27012.8
5.2966e+07,29.2338,2,2.98995,1591.85,-5763.15,-27241.9
5.30304e+07,8.61344,0,2.521,933.369,-798.253,-27402.7
5.31823e+07,13.9707,2,2.53506,749.266,-2581.39,-27423.6
5.33729e+07,126.287,2,3.04815,4107.44,1924.49,-23183.6
5.3388e+07,6.5299,2,3.05346,-1288.87,-711.626,-28710.6
5.34606e+07,27.9265,2,2.50126,-2882.3,-4850.34,-26773.5
5.34724e+07,123.874,1,2.60128,-12631.2,13477.1,-10213.6
5.34941e+07,3.10474,1,2.53011,-455.749,558.77,-28585.2
5.3687e+07,173.079,0,2.91095,-6735.25,5062.29,-22195.4
5.38199e+07,36.4154,0,2.58079,3132.69,4440.66,-23318.2
5.38548e+07,67.6176,2,2.79591,-8650.29,-8472.1,-21277.6
5.38722e+07,132.438,1,2.46077,-11541.6,4739.58,-3716.49
5.4078e+07,39.5378,2,2.65104,-5765.38,-2501.23,-23237.3
5.41606e+07,175.187,0,3.04871,4825.66,18228.9,-21970.7
5.45478e+07,4.25657,0,2.82459,610.414,-10.2207,-28100.7
5.50352e+07,211.117,1,2.86943,29242.6,-8003.56,3500.07
5.50432e+07,162.825,2,2.52273,-17840.5,-9857.54,-1069.94
5.54442e+07,53.6453,0,2.48086,-7274.35,-4677.23,-21550.7
5.60925e+07,82.3432,1,2.78916,-8118.88,-13654,-21984.5
5.60976e+07,167.077,0,2.5251,23402.7,6708.11,-25644.9
5.61204e+07,131.726,0,2.3688,-11428.7,23051.9,-18132.9
5.63288e+07,71.0446,1,2.3626,-10108.7,1580.98,-17736.7
5.69491e+07,61.6847,0,2.87095,-1872.81,-12818.6,-28877.4
5.70818e+07,83.6347,2,2.74431,-16487,5179.97,-25213
5.70965e+07,229.483,1,2.78414,-5004.47,-25643.4,7162.52
5.71689e+07,120.47,1,2.97761,-20940.5,-13430.5,-24324.2
5.72256e+07,38.1198,1,2.36339,-4169.39,-2781.67,-22518.5
5.72415e+07,29.7024,2,2.68723,-2851.66,-5662.99,-28364.5
5.74866e+07,78.5336,0,3.00713,-11800,9774.64,-22916.5
5.75868e+07,18.249,2,2.88291,-2699.24,1632.51,-26626.4
5.77302e+07,12.9192,0,2.77399,1813.78,2115.26,-28517.5
5.84699e+07,53.0566,1,2.60958,-386.785,11284.4,-28160.7
5.84906e+07,164.005,1,2.8485,18657.3,-12213.7,-2624.39
5.86302e+07,160.934,0,2.89731,21010,-25059.3,-20061.4
5.91564e+07,86.9545,1,2.85743,-9398.65,2381.11,-13297.8
5.92112e+07,4.75324,0,2.42732,453.361,-208.57,-27895.9
0,4.80437,0,2.40007,0,0,0
5.92248e+07,18.2738,1,2.44573,-764.864,2246.19,-25694.7
5.93051e+07,96.2346,1,2.69667,20023,2081.48,-26513.1
5.96712e+07,9.23714,1,2.82892,-819.516,1668.01,-27970.7
5.97029e+07,85.661,0,3.02489,-11116,9024.49,-21600.1
5.9706e+07,66.766,1,2.472,1891.29,-12015.2,-23584.2
5.98453e+07,21.4278,0,2.80665,-6.6809,4409.63,-27765
5.99191e+07,6.01304,2,2.56171,-158.254,-636.735,-27676.5
6.00299e+07,46.9467,1,3.03004,-5906.18,-7832.8,-28047.9
6.0124e+07,172.369,2,2.43125,29203,-21497.9,-24835.1
6.05912e+07,108.464,2,2.37202,18128.6,8600.61,-17787.9
6.06274e+07,203.204,1,2.50731,3783.94,20451.7,-26906
6.09409e+07,161.12,1,2.61053,4845.32,19138.8,-1109.18
6.11946e+07,63.2646,0,2.87235,4351.87,-3449.13,-16741.2
6.13309e+07,31.2458,2,2.50376,-5643.75,-2698.61,-26437.8
6.14485e+07,10.3086,1,2.50745,-2148.8,-196.071,-29406.3
6.16954e+07,93.2636,2,2.87674,1247.95,-8699.32,-15893.1
6.19082e+07,147.684,2,2.49484,-25071.2,-18402.6,-25156.2
6.23177e+07,46.3062,1,2.96242,7801.97,48.5405,-23089.8
6.23489e+07,11.9883,2,2.52653,-2383.54,-370.458,-27926.5
6.25954e+07,39.4679,2,2.99355,-1409.97,-4041.97,-21680.9
6.28715e+07,30.2913,1,2.88256,-5451.99,-1977.02,-26128.5
6.30235e+07,31.9424,0,2.49355,2977.39,-329.506,-22726
6.30543e+07,171.911,0,2.46136,6343.05,-15506.4,3448.22
6.33495e+07,175.849,2,2.7988,-439.173,-18328.5,-15786.2
6.33576e+07,27.9326,0,2.66679,-5385.51,290.224,-26609.8
6.39204e+07,109.032,1,2.61171,-15962.5,-10585.5,-16076
6.42668e+07,84.7419,0,2.91034,-2914.14,-17488.5,-27587.5
6.43334e+07,1.04635,1,2.57868,-270.318,135.606,-28768.5
6.43865e+07,11.0527,0,2.70073,237.235,-1671.79,-27190.1
6.45882e+07,33.9317,2,2.86217,4240.77,-1693.23,-23342.5
6.4596e+07,220.199,2,2.90527,-18591.3,-11718.1,11775.7
6.46622e+07,7.92995,1,2.73226,-460.816,1083.13,-27548.6
6.48471e+07,4.75731,0,2.86018,468.035,-407.521,-28024.4
6.54445e+07,198.772,0,2.71483,20363.2,-14672,4738.12
6.54733e+07,126.574,1,2.6873,-22775.5,7904.32,-17253.5
6.55106e+07,24.4122,2,2.4268,2074.74,2789.66,-25069.4
6.56419e+07,50.5776,0,2.91813,5220.24,8663.68,-25395.6
6.59583e+07,130.418,0,2.84065,12600.4,-6247.58,-26373.4
6.62812e+07,122.263,1,2.76829,-1241.53,25159.7,-23161.3
6.64233e+07,153.059,1,2.6087,-19045.1,-21207.6,-14574.7
6.64281e+07,85.9175,1,2.6165,-17122.8,-3192.24,-23983.7
6.6438e+07,33.9561,1,2.63049,-6151.2,-2997.23,-26643.6
6.66709e+07,14.2267,2,2.54391,-1096.7,-974.184,-26158.1
6.67008e+07,175.807,1,2.47765,-24260.2,-6302.25,-4156.86
6.70372e+07,22.0513,1,2.57241,2800.03,3247.3,-26859.6
6.71439e+07,137.987,0,2.8375,14498.5,-18856.5,-12117.7
6.72769e+07,149.975,1,2.93372,16082.8,706.28,-1797.37
6.73022e+07,78.133,0,2.71579,8999.26,-10608.9,-19967.1
6.74917e+07,104.239,1,2.58713,17185.8,13517.4,-25918.8
6.74982e+07,6.66672,0,2.60903,-604.285,-1106.84,-28202.5
6.75976e+07,12.9561,1,2.86705,-2570.83,976.009,-29411.6
6.83018e+07,201.284,0,2.73179,-28220.8,-2573.55,2646.81
6.86425e+07,31.0665,2,2.94149,1471.58,-5810.9,-26086.2
6.87317e+07,45.8302,0,2.70197,5554.53,6718.27,-24493.6
6.87814e+07,107.398,0,2.76996,18328.1,6680.06,-17258.8
6.89207e+07,7.93793,0,2.61796,932.118,503.835,-27461.3
6.91897e+07,20.224,0,2.77106,-2324.83,-1212.98,-25501.9
0,20.1066,0,2.51538,0,0,0
6.91918e+07,236.047,0,2.43216,591.027,-4180.6,-29112.3
6.96023e+07,75.0844,1,2.94606,9334.34,5061.98,-17178.9
6.98056e+07,52.5978,2,2.77114,7763.93,2241.58,-21306.2
7.15219e+07,156.652,1,2.45813,-13314.5,-14055.4,-2074.85
7.1694e+07,8.94287,1,3.01691,-1785.22,676.455,-28378.8
7.20097e+07,12.5495,2,2.93725,-454.996,2460.3,-28141.4
7.21301e+07,37.1033,0,2.91817,3573.12,1491.58,-22022.2
7.23671e+07,116.453,1,2.88778,10046.4,-13328.2,-11003.9
7.24879e+07,108.442,1,2.75692,10024.7,8951.85,-10380.6
7.27533e+07,75.1692,1,2.85535,15639.7,2024.07,-29833.2
0,76.8842,2,3.05595,0,0,0
7.28076e+07,97.6017,0,2.66612,-615.53,-19500,-22249.1
7.31377e+07,22.2924,1,2.98311,-3096.58,-2090.77,-26025
7.32197e+07,156.832,1,2.58049,7723.24,29432.7,-15625
7.36608e+07,97.6758,2,2.48747,-9971.33,-10589.5,-14080.7
7.42015e+07,4.99501,1,2.66619,-759.334,102.799,-28023.9
0,5.00392,1,2.72972,0,0,0
0,5.03263,1,2.8226,0,0,0
7.42967e+07,51.6583,1,2.79664,-10742,-641.073,-26963.3
7.43435e+07,57.5133,2,2.48635,7174.87,4102.84,-19953.4
7.46971e+07,32.594,0,2.97003,6232.92,2960.18,-29259.8
7.48782e+07,152.627,2,2.81324,14312.7,20651.9,-8924.64
7.51964e+07,15.0906,1,2.72578,-2207.46,-1734.34,-27308
7.60007e+07,50.5709,1,2.97019,-10610.2,-670.893,-29282.9
7.625e+07,202.127,2,2.51838,-4565.2,-1161.98,-3938.18
7.63045e+07,38.2977,2,2.6413,-4155.01,-701.104,-21891.7
7.63082e+07,143.342,0,2.70747,16887.7,5649.12,-4361.77
7.64554e+07,28.9089,1,2.54786,-5593.09,2221.18,-27345.4
7.65807e+07,75.6725,1,2.8709,-14283.5,-1347.6,-21932.7
7.66083e+07,84.0629,0,2.80333,-12907.4,664.026,-16809
7.69698e+07,20.974,2,2.87702,-4460.43,-511.812,-28846.4
7.71266e+07,14.068,0,2.76765,-1302.17,2175.1,-27328.5
7.71333e+07,81.2414,1,3.02074,-11313,10752.4,-21864.6
7.72089e+07,23.9814,1,2.83828,-3072.92,1324.13,-25022.1
7.75658e+07,23.2559,2,2.85472,412.82,-4960.83,-28842.2
7.78582e+07,179.42,2,3.03392,19611,14585.9,-355.905
7.79445e+07,127.313,1,2.74346,4928.06,-14791.3,-27916.9
7.79559e+07,228.286,2,2.85202,3365.31,-8804.48,476.256
7.8386e+07,94.8038,0,2.79794,12836.5,-14463.5,-23613.4
7.8502e+07,105.813,0,2.67789,9922.44,17007.8,-18263.6
7.85222e+07,29.0387,1,2.54387,-2905.06,-2534.76,-24053.5
7.85555e+07,195.029,1,2.7429,24672.4,3158.75,3838.53
7.86468e+07,62.5601,0,2.86537,-5659.99,2466.41,-17242.4
7.87768e+07,13.32,2,2.7311,-701.371,2367.04,-27573
7.90996e+07,118.534,1,2.72104,461.507,10591.4,-6179.75
7.94523e+07,36.5802,0,2.77517,2782.43,2698.26,-29359.1
7.97576e+07,4.20839,1,2.64461,-342.284,-145.753,-28010
7.98773e+07,72.0613,1,2.57115,-9727.23,107.905,-17067
8.00137e+07,238.49,0,2.95247,26814,-29014.2,-7289.16
8.0032e+07,15.8799,1,2.78835,-1720.07,1180.78,-26146.9
8.04273e+07,69.2293,1,2.61615,9381.96,-5340.35,-19049.8
8.0767e+07,84.256,1,2.68028,-15363.2,7644.04,-23951.1
8.0789e+07,27.7306,1,2.70118,4071.86,3477.5,-26417.7
8.09726e+07,30.0293,2,2.9269,-4840.01,-3910.42,-27314.8
8.09953e+07,113.339,0,2.50443,-10527.1,7721.5,-8779.58
8.10398e+07,83.5026,0,2.92148,12553,10828.5,-22908.7
8.12854e+07,82.3991,1,2.43496,238.74,-12830.6,-17091.8
8.13914e+07,88.9619,2,2.71284,3948.57,10410.1,-13803.9
8.15546e+07,188.145,1,2.79902,-10714.5,20838.6,3130.43
8.21149e+07,21.1433,2,2.46503,-2124.35,-3129.1,-26296.6
8.22561e+07,48.461,1,2.43069,-27.5173,-9754.77,-25820.1
8.23812e+07,12.2406,1,2.64586,-1839.29,777.958,-27086.8
8.25339e+07,3.63386,2,2.62985,340.118,-702.887,-28584.8
8.27188e+07,85.5565,2,2.40661,-14217.6,1383.9,-17636.9
8.27227e+07,74.1632,1,2.84808,3099.51,10357.2,-17558.9
8.27933e+07,24.5668,2,2.70282,-65.9453,-5255.96,-28240.1
8.30435e+07,14.5295,1,2.97034,-2962.65,221.748,-27874.3
8.31052e+07,96.4794,0,2.90716,14005.2,14726.2,-29357.3
8.31078e+07,8.61024,0,2.78252,1487.04,-761.785,-27924.9
0,8.60254,0,2.78458,0,0,0
8.31885e+07,7.70677,0,2.77661,880.03,175.717,-27418.8
8.32135e+07,37.115,1,2.85033,227.861,5359.3,-23097.2
8.34427e+07,31.1535,1,3.0319,-2930.01,-4125.63,-24737.6
8.36317e+07,155.509,2,2.51835,-16265.9,-28428.9,-25460.8
8.37453e+07,1.57396,1,2.95607,161.022,-109.352,-28610.9
8.39449e+07,235.96,1,2.48514,-19186.5,-14834.2,14741.1
8.39556e+07,41.9651,2,2.65112,-4116.09,-2843.35,-21468.2
8.40654e+07,58.9068,0,2.50027,439.428,-2185.98,-26585.7
8.41855e+07,27.0109,0,2.4097,3483.92,4597.24,-29503.8
8.44222e+07,36.4094,2,2.78256,1057.21,-5232.64,-23254.8
8.44231e+07,147.111,2,2.70696,16676.8,-9425.8,-4430.91
8.44824e+07,49.49,1,2.60013,4582.03,1745.19,-19612.1
8.46946e+07,75.5422,1,2.92417,8612.37,12751.1,-24796.6
8.48869e+07,114.516,2,2.80441,-2469.23,-18575.8,-14108.1
8.50248e+07,41.7512,0,2.71565,8580.87,-1751.99,-27317.7
8.6001e+07,56.0512,0,2.52827,6760.98,-4140.95,-19937
8.60322e+07,13.7192,0,2.49612,1910.81,-898.967,-26738
8.6569e+07,84.492,2,2.93812,-12193.1,7376.12,-18300
8.65694e+07,82.0699,1,2.83417,819.195,-8025.65,-13614.4
8.66016e+07,25.8972,0,2.96252,-4010.82,114.935,-25262.4
8.66353e+07,5.80894,0,2.44592,-312.127,987.112,-28156.7
8.69237e+07,94.0902,0,2.57901,16586.6,3051.04,-18155.6
8.69282e+07,156.324,1,2.43173,28451.7,7170.94,-13628.9
8.69993e+07,6.64927,1,2.82713,-1153.72,-4.84286,-27946.7
8.71533e+07,41.907,2,3.0224,-4958.2,-4564.08,-23080.5
8.72299e+07,10.4149,2,2.58269,-916.968,1668.25,-27760.3
8.73919e+07,58.1728,2,2.8365,4363.63,5112.34,-18635.6
8.74962e+07,72.7377,0,2.93136,-13649.6,-1026.91,-22219.4
8.77893e+07,22.7512,2,2.56842,801.532,-4489.35,-27043.8
8.80559e+07,82.8774,1,2.85238,-13691.1,5299.89,-22261.8
8.81374e+07,38.7067,0,2.47126,8005.63,-713.814,-26774
8.82795e+07,33.5223,2,3.04655,-881.383,-3152.45,-22591.7
8.83096e+07,160.146,1,2.68931,-2312.68,28315.8,-10448.8
8.84841e+07,5.8718,2,2.58864,-303.355,858.891,-28018.2
8.89069e+07,82.4286,0,2.73004,7601.44,13864.9,-21508.7
8.89326e+07,65.2751,1,2.85987,-1446.06,400.529,-28828.3
8.89438e+07,15.3917,2,2.97834,-1018.54,-3164.9,-28629.3
8.89726e+07,38.9719,0,2.94461,-2066.77,6471.63,-24278
8.90648e+07,22.7331,2,3.04825,-2048.89,-4305.91,-27870.2
8.97642e+07,209.132,2,2.92899,-25346.1,5004.79,6653.01
8.99219e+07,354.81,0,2.58474,-4188.36,-25541,741.79
8.99365e+07,167.678,1,2.74542,749.02,2191.29,-24032.7
8.9978e+07,14.5196,0,2.5744,3010.81,-9.06234,-27824.3
9.00849e+07,76.0285,2,2.55926,-3081.95,11727.5,-20026.5
9.02379e+07,7.37767,2,3.05992,940.69,-1005.13,-29653.6
9.05836e+07,199.853,2,3.02309,-18109,22020.1,-26522.6
9.1357e+07,30.311,0,2.74035,1395.98,-5354.17,-25614.9
9.13989e+07,25.6194,1,2.9586,-384.051,3754.81,-24902.9
9.18852e+07,147.241,1,2.50681,29131.8,10910.2,-28665
9.19856e+07,97.4512,1,2.58176,4354.17,12000.9,-12617
9.23114e+07,42.2817,1,2.63591,-4988.2,-2569.79,-21875.6
9.24084e+07,50.7371,0,2.62784,1593.44,10119.3,-25563.7
9.25092e+07,62.4823,1,3.05933,7691.96,-9782.42,-25005.2
9.25858e+07,86.0538,1,2.47894,-12129.3,8445.67,-18084.3
9.26618e+07,147.816,0,2.60179,5682.39,26287.3,-12921
9.2725e+07,109.419,0,2.94183,5763.4,-17970.5,-15690.6
9.28359e+07,104.827,1,2.63917,-4599.61,19012.2,-18309.7
9.38009e+07,262,0,2.44643,19976.9,4044.43,22674.5
9.39828e+07,25.9688,1,2.78971,-5174.57,-1906.58,-28717.5
9.4e+07,57.5926,1,2.9884,-1805.79,7635.56,-19569.4
9.41337e+07,60.3876,2,2.97298,-5031.42,-6393.38,-19033.9
9.5483e+07,30.9517,1,2.39852,-3939.3,3127.69,-24539.5
9.55837e+07,53.4122,1,2.41696,6482.45,-2079,-19829.6
9.59428e+07,160.072,0,2.98886,4439.65,-20722.8,-25515.3
9.59792e+07,247.037,1,2.97953,-6365.95,11578.7,-13845.8
9.64738e+07,72.8282,2,2.47677,13358.8,-2560.63,-21603.8
9.64876e+07,62.0553,0,2.49418,11378.4,4367.78,-23709.8
9.65377e+07,15.3266,2,2.91918,3054.39,-631.898,-28151.3
9.66862e+07,183.329,1,2.78846,-20272.1,8827.57,1745.91
9.69503e+07,49.4687,2,2.97354,-8459.39,2352.03,-23221.3
9.71425e+07,111.312,2,2.48,10602.2,-2958.67,-20179.4
9.73114e+07,175.798,1,2.75953,-16257.3,-10329.6,-22756.6
9.77336e+07,78.6142,1,2.90887,-2116.56,-14942.8,-22309.5
9.79264e+07,36.1661,1,2.43579,-7522.27,-499.58,-27262.9
9.79497e+07,156.143,1,2.6555,-9043.98,10789.6,-17874.3
9.85126e+07,35.9956,1,2.84698,-105.336,6754.31,-25221.6
9.87531e+07,137.346,1,2.79849,-18083,-4761.66,-17435.9
9.8959e+07,141.462,0,2.7826,-4382.93,14626.4,-3325.54
9.90044e+07,4.76094,0,2.66204,639.643,-426.126,-28134.9
0,4.6918,0,2.55274,0,0,0
9.93242e+07,19.1157,0,2.92349,1904.69,3623.24,-28767.2
9.95895e+07,98.8433,2,2.66555,-17607.2,3591.47,-18162.7
9.98126e+07,208.805,1,2.4727,25215.5,-21777.6,51.7593
1.00236e+08,22.0331,1,2.66168,-3856.43,739.723,-26209.1
1.00339e+08,21.3186,0,2.40982,-2184.58,1137.61,-25075.5
1.00486e+08,54.9881,0,2.69982,7607.49,-993.324,-20047.7
1.00764e+08,97.0044,0,2.90847,16000.5,6233.29,-17782.2
1.0103e+08,8.34897,2,2.91792,-188.716,-1507.92,-29892.7
1.01052e+08,36.928,0,2.78937,6949.73,-3507.97,-27748.2
1.01104e+08,78.3506,1,2.75923,-11997.8,-807.808,-17473.7
1.01577e+08,46.5345,2,2.59839,-3590.29,-6515.93,-22301.6
1.01684e+08,88.6772,1,2.46666,7392.55,9417.02,-15242.4
1.01889e+08,53.8319,2,2.56432,-7357.37,7600.06,-24672.1
1.01895e+08,77.7392,2,2.89565,12289.5,8087.8,-21856.9
1.02033e+08,17.6045,1,2.83589,-3756.98,126.56,-28655
0,17.6664,1,3.03143,0,0,0
1.02219e+08,230.044,2,2.68722,-20661.4,-17295.2,11544.6
1.02291e+08,44.6993,2,2.88475,-1806.91,4487.15,-20825.7
1.02344e+08,66.5777,0,2.75298,-11288.5,1350.87,-20691.4
1.02423e+08,8.70045,1,2.74038,-1092.89,896.047,-27541
1.02628e+08,18.6798,0,2.65817,-1150.47,3616.83,-29916.7
1.0311e+08,62.6832,2,2.80483,-5015.16,4639.52,-18015.6
1.03211e+08,50.8874,1,2.76374,-4363.46,-8212.33,-23571.2
1.03551e+08,5.24368,2,3.0115,-747.977,-953.582,-28918.1
1.0365e+08,94.0656,0,2.62054,9745.18,-12068.3,-16364.5
1.03695e+08,69.5111,1,3.04882,10290.3,9979.91,-26127.3
1.04028e+08,19.1767,1,2.58834,-4033.52,737.213,-28537.8
1.04044e+08,63.9791,1,2.90527,10533.2,-7705.49,-25850.3
1.04099e+08,173.527,1,2.81897,-9157.17,-3300.31,4704.71
1.04371e+08,82.9217,2,2.84913,-11116.5,5715.21,-16645.7
1.04497e+08,14.5673,0,2.95888,3092.82,87.7281,-29487.7
0,14.4478,0,2.65303,0,0,0
1.0489e+08,154.223,1,2.67126,-12548.2,5582.09,680.832
1.04991e+08,171.254,2,2.51409,-4195.92,-29410.1,-10526.6
1.05717e+08,151.368,1,2.96334,-3607.27,14866.9,-976.471
1.05742e+08,41.7191,0,2.81594,8115.99,1034.41,-25406.4
1.05846e+08,6.98657,1,2.61338,-405.444,1311.58,-29625
1.05931e+08,58.2392,2,3.06075,2864.37,-5247.71,-18159.1
1.05945e+08,152.108,2,2.66657,-15361,-21814.7,-10953.2
1.06266e+08,126.762,1,2.43179,-18902.4,955.49,-9805.76
1.06344e+08,80.6358,0,2.52518,11588.5,-7726.4,-18917.7
1.06394e+08,44.0641,0,2.60382,4839.16,-6903.79,-24753.6
1.06521e+08,134.706,1,2.58047,-19992.1,19027,-21600.6
1.06839e+08,12.5505,0,2.50584,2510.99,-355.488,-27750.4
1.06847e+08,129.143,1,2.52166,9650.08,24871.1,-22824.7
1.06951e+08,143.357,1,2.53919,3221.52,29874.4,-24270.7
1.07039e+08,36.3166,2,2.61837,5527.77,-1827.4,-23827.9
1.07374e+08,37.5164,0,2.58919,2107.23,5786.68,-23784.3
1.08211e+08,196.671,0,2.59145,24930.8,22296.6,-4205.56
1.08679e+08,37.8649,2,3.05993,-3945.25,-3687.22,-22935.6
1.08706e+08,216.686,2,2.63436,-5679.11,10217.1,-17906.2
1.08786e+08,183.945,1,2.70074,-27891.4,-25643.2,-20648.9
1.08934e+08,42.8828,0,2.57418,8704.55,-1403.5,-26392.7
1.09159e+08,18.0079,0,2.41718,-2144.07,2181.32,-26617.3
1.09303e+08,134.161,1,2.48511,-24039.9,-15024.4,-27574.6
1.09392e+08,13.9716,1,2.82856,-1711.13,-692.657,-26551.3
1.09449e+08,62.3552,0,2.40792,9254.78,-789.834,-19389.2
1.09808e+08,153.857,2,2.44428,9314.15,12142.9,-149.681
1.10176e+08,87.7977,2,2.55882,3737.15,-18137.8,-26804.4
1.10225e+08,84.7555,1,2.41697,-5787.86,3520.33,-26966.9
1.10311e+08,57.2482,0,2.46362,8095.34,1884.43,-19932.4
1.10518e+08,12.7528,2,3.00257,1953.21,1653.91,-28280.1
1.10752e+08,102.326,0,2.70916,7683.99,7284.82,-10010.2
1.10887e+08,19.4996,1,2.54507,-1772.84,-336.931,-25090.1
1.1099e+08,32.7591,0,2.95743,3152.34,-4177.97,-24805.9
1.11202e+08,3.80809,1,2.69954,-696.457,303.507,-29314.3
1.11299e+08,65.7198,0,2.89388,9671.5,-9920.64,-29901.9
1.11492e+08,89.8832,0,2.5252,-1445.27,9770.82,-12603.2
1.12016e+08,127.712,0,2.6049,-13417,4011.64,-5829.16
1.12088e+08,173.486,2,2.91476,12060,-16301.7,1347.98
1.1219e+08,23.7531,0,2.87317,3342.01,3723.58,-29584
1.12625e+08,4.74649,1,2.92725,645.186,792.798,-29091.9
1.1287e+08,87.2301,2,2.9362,-1608.06,12866.7,-15943.8
1.13169e+08,36.2403,0,2.98693,-5201.67,2805.84,-29459.1
1.13287e+08,92.2423,1,2.81174,-1595.92,15246.7,-16875.9
1.13471e+08,98.2917,0,2.63327,12484.7,-16539.8,-26864
1.13824e+08,71.8162,0,2.39291,-1047.05,-14370,-23918.6
1.13871e+08,50.979,0,2.964,-7244.08,-3530.03,-21891
1.13998e+08,81.9499,2,2.86779,-5933.48,7975.36,-29060.4
1.14033e+08,8.25402,0,2.38859,-256.993,1675.4,-28323.9
1.14464e+08,80.1374,0,2.67091,-1849.24,13120.1,-18341.4
1.14566e+08,56.2069,1,2.55246,6704.06,4120.94,-19897.9
1.14713e+08,4.76168,0,2.77344,989.883,119.89,-29344.5
1.14763e+08,24.1652,2,2.42779,-2183.86,3930.47,-26421.9
1.14924e+08,63.2936,2,2.69204,-6868.59,-5405.97,-18661.2
1.15039e+08,14.7086,1,2.72743,-966.76,2546.48,-27165.7
1.151e+08,185.719,1,2.58923,22800.6,-6625.31,2369.95
1.1583e+08,119.967,0,2.91488,-7503.93,24006.4,-28665.2
1.16243e+08,26.4876,1,2.42742,5544.73,400.999,-28386.4
1.16357e+08,21.4553,1,2.40172,-3805.44,937.826,-26400.8
1.16384e+08,79.9502,0,3.00761,10165.1,11579.9,-22105.9
1.16678e+08,44.3699,1,2.41058,1759.48,1131.95,-27311.1
1.17281e+08,9.50457,1,2.39385,-686.912,292.055,-26932.3
0,9.49339,1,2.61844,0,0,0
1.17345e+08,12.3501,1,3.0218,1746.08,380.108,-26939.1
1.17494e+08,11.9278,1,2.65225,-1996.05,-63.2282,-27228.4
1.17519e+08,52.9369,1,2.93831,50.7014,-4655.39,-18760.4
1.17627e+08,109.413,2,3.05245,-671.419,-13595.2,-10360.1
1.17677e+08,12.0255,1,2.59898,-2092.13,1026.39,-27649.4
1.1768e+08,25.4386,2,2.66216,-952.578,-5305.73,-29808.2
1.18029e+08,10.7808,1,2.92988,557.921,1762.05,-27405
1.19139e+08,61.3019,1,2.65675,7230.15,9708.44,-24104.2
1.19179e+08,176.19,0,2.90021,-22352.4,-26558.2,-16151.9
1.19257e+08,120.348,0,2.66205,14121.4,16767.7,-15899.3
1.1966e+08,49.813,1,2.77351,3879.74,-3628.75,-22013.2
1.19907e+08,97.8273,0,2.51848,18502.4,-204.273,-19395.6
1.20125e+08,265.949,0,2.74396,16491.9,-14989.3,8747.67
1.20401e+08,123.362,2,3.0481,3742.01,-9945.66,-5269.39
1.20438e+08,74.4472,0,2.94597,11337.2,568.607,-18016.9
1.20566e+08,241.492,0,2.86742,841.98,14441.1,19509.9
1.20785e+08,53.7359,0,2.76916,10344.5,-501.882,-24038.9
1.20844e+08,47.3943,2,2.75146,-9981.31,-1072.3,-29572.5
1.20882e+08,69.614,1,2.47057,-4182.99,11767,-20905
1.20956e+08,149.404,2,3.03984,613.464,-21117.1,-5669.1
1.21009e+08,76.5776,0,2.86958,-9117.64,-943.508,-15646
1.21041e+08,24.1551,1,2.9364,1553.35,4838.3,-28026.8
1.21212e+08,53.0385,0,2.76212,7942.11,7821.98,-27279.7
1.21521e+08,71.9026,0,2.80187,9361.88,7914.59,-19885.3
1.21804e+08,50.098,0,2.62572,4892.74,7835.86,-23582.6
1.22397e+08,106.23,2,2.37367,-16174.5,10096.2,-16872.3
1.22626e+08,5.8947,0,2.75766,987.849,-664.414,-28273
1.22632e+08,101.144,0,2.84772,-4293.32,-17116.8,-17029.5
1.22911e+08,36.7411,0,2.41714,-3356.22,-3491.79,-22776.6
1.23036e+08,90.7459,0,2.80565,-2804.42,-10713,-13313.3
1.23459e+08,41.1057,0,2.65962,466.83,-6647.17,-23231.8
1.23507e+08,37.688,1,2.57067,2817.73,3828.9,-22419.2
1.23801e+08,40.2581,0,2.48965,1645.02,8190.29,-26945.6
1.23899e+08,7.64482,2,2.94179,234.002,-1501.56,-29613.1
1.24482e+08,31.3757,1,3.0617,-2039.49,6296.93,-29814
1.24638e+08,62.419,0,2.68474,-636.078,-9028.83,-19253.2
1.24645e+08,57.7421,1,2.67146,-3961.51,11396.7,-26519.9
1.2518e+08,71.2296,2,2.78495,2562.06,11439,-19591
1.2519e+08,120.535,0,2.60614,16515.1,16267.1,-18160.7
1.25427e+08,61.177,0,2.6832,-4176.97,11836.5,-25848.5
1.25612e+08,14.0645,1,2.48483,-2751.08,-1110.63,-28410.1
1.25684e+08,20.1738,2,3.02118,-1815.19,-3847.3,-28036
1.25744e+08,16.2977,1,2.47513,1379.31,1049.02,-25819.4
1.258e+08,87.2241,1,3.01427,-10515.3,12788.4,-20873
1.26345e+08,36.055,2,2.67378,5197.27,-1193.22,-23436
1.26467e+08,21.5048,1,2.47038,-2741.27,3528.19,-27632
1.26676e+08,140.666,2,2.36621,6864.94,-16203.9,-18567.9
1.27445e+08,56.0617,0,2.79469,-6958.93,-1950.03,-19569.8
1.27883e+08,73.8474,0,2.8841,9775.83,10212.2,-22256.9
1.28106e+08,9.71064,0,2.38595,-799.7,-901.029,-27196.8
1.28205e+08,63.9224,0,2.85059,6829.07,11565.6,-27578.4
1.2889e+08,80.8559,0,2.64804,7739.63,10065.6,-17354.3
1.28999e+08,36.4026,1,2.43219,-2809.34,-6011.1,-24956.2
1.2912e+08,34.495,1,2.87342,-4956.63,330.789,-23496.5
1.29131e+08,190.4,1,2.88788,-463.299,22833.8,4046.76
1.29274e+08,110.304,2,2.58706,10869.8,-8322.64,-9966.83
1.29338e+08,7.12201,2,2.66985,652.737,132.757,-28319.8
1.29626e+08,8.46458,1,2.58775,-916.651,-163.642,-27288.5
1.29872e+08,28.3173,1,2.7477,-348.907,5678.73,-26734.7
1.29897e+08,20.2362,2,2.53138,-1715.43,-3597.09,-27025.2
1.30169e+08,146.455,2,2.7076,29375.8,-6019.01,-21693.5
1.30794e+08,29.4443,1,2.95643,968.198,5615.17,-26242.2
1.31088e+08,20.4884,1,2.67246,-2103.58,2359.36,-25772.9
1.31234e+08,141.773,0,2.62453,-7660.45,22734.9,-10955.2
1.31412e+08,82.1926,1,2.891,-4587.66,16741.3,-28151
1.31658e+08,28.2017,1,2.91838,-2748.63,3479.35,-24783.1
1.31828e+08,33.1237,2,2.77017,-512.749,-6834.37,-27157.4
1.3186e+08,17.4052,0,2.67881,3756.59,226.399,-28421.9
1.31978e+08,43.6298,0,2.57096,5212.06,-3873.43,-22198.9
1.31992e+08,65.076,2,3.00861,5122.44,-12348.6,-25844.5
1.32069e+08,83.6771,0,2.72585,13255.2,1323.09,-17166.4
1.32078e+08,180.764,0,2.53899,-5761.66,-22064.3,1814.71
1.32335e+08,37.0082,0,2.85677,7148.44,-3236.24,-29657.8
1.32526e+08,44.4947,0,2.7514,7831.34,1050.53,-23627.4
1.32567e+08,58.9449,0,2.40645,-11083.1,3448.58,-24417.8
1.33216e+08,85.6419,2,2.61992,1367.46,-12384.8,-15648.8
1.3322e+08,22.3503,0,2.70131,1354.13,-2084.99,-24790.7
1.33337e+08,38.734,0,2.96117,5994.64,-5314.1,-27044.1
1.33372e+08,42.9767,0,2.40544,3272.45,7276.32,-24382
1.33615e+08,212.399,2,2.43102,-20743.5,-1913.11,7060.49
1.33713e+08,178.842,2,2.87617,23564.3,-14634,-23149.3
1.33727e+08,132.712,1,2.57642,4622.24,19237.8,-8897.75
1.33981e+08,22.2645,1,2.6821,-2250.93,4244.81,-29088.4
1.3405e+08,93.6516,1,2.42134,-10944.4,13597.3,-19266.2
1.34508e+08,16.9705,1,2.74035,-3311.21,-1213,-29639.8
1.34632e+08,50.649,1,2.64078,8204.63,2067.05,-22344
1.34682e+08,39.6745,0,2.73099,-1282.49,4202.21,-21712.2
1.34868e+08,165.266,2,2.67594,5798.54,3445.95,-22281.2
1.3519e+08,108.34,1,2.41595,-18896.4,-1436.66,-15859.8
1.35287e+08,64.9344,1,2.56448,-4569.69,10153.2,-20707.8
1.35408e+08,8.43707,0,2.40484,1381.85,1043.45,-29552.2
1.35548e+08,17.3833,1,2.48896,-586.957,-3571.68,-28387.5
1.3589e+08,52.4563,2,2.80707,6244.68,-4953.38,-21151
1.3599e+08,129.89,2,2.69334,5456.65,-23679.3,-19162
1.36242e+08,99.6985,0,2.56134,-8864.79,16635.3,-19493.4
1.36368e+08,9.49059,2,2.69755,-259.594,-1706.15,-29996.5
1.36373e+08,61.0998,2,2.9331,-3848.16,8604.24,-20155.3
1.36714e+08,37.2095,1,2.62397,-4989.52,6178.95,-28162.5
1.36933e+08,160.104,2,2.78418,-5922.98,3176.21,-13526.5
1.36946e+08,69.2344,1,2.82529,2705.71,2190.75,-27002.7
1.36975e+08,39.9602,2,2.53318,4494.96,4055.05,-23042.1
1.37046e+08,95.4077,2,2.92787,-18305.9,2270.46,-20951.6
1.37124e+08,52.8948,1,2.80597,-6422.74,5577.96,-21552.7
1.37542e+08,28.7391,0,3.02234,-76.6287,-210.857,-28710.4
1.37709e+08,24.918,1,2.82621,1565.69,4768.59,-27050.3
1.37901e+08,25.5709,0,2.53182,4692.95,-1433.02,-26436.2
1.38084e+08,14.037,2,2.78644,610.723,2124.34,-26930.7
1.38447e+08,9.29163,2,2.45184,-637.507,-372.134,-26982.3
1.38709e+08,80.4584,1,2.88086,-8336.37,-4294.51,-14767
1.38984e+08,10.2307,0,2.46628,1723.3,-1235.26,-28125.3
1.39212e+08,90.3435,2,2.78347,-17451,-3327.55,-21959
1.3934e+08,73.6241,2,2.81907,15198.1,-1077.95,-26210
1.39587e+08,51.2532,0,2.36658,5519.35,-7435.25,-23051.5
1.40061e+08,17.2158,0,2.5829,752.259,1742.84,-25710.1
1.40126e+08,90.1512,1,2.62293,1687.79,18666.7,-25039.7
1.40303e+08,128.461,1,2.54612,9710.28,10416.3,-5711.46
1.40344e+08,137.228,2,3.01808,-22626.8,-8412.91,-13086.8
1.40349e+08,33.0862,2,2.69176,-5284.91,229.854,-24230.1
1.405e+08,30.6086,1,2.66698,-758.355,3239.99,-23250.2
1.40508e+08,136.487,1,2.70438,-21393.2,15962.9,-17891.3
1.40787e+08,140.255,1,2.38969,24969.1,-2638.25,-13150.4
1.40822e+08,141.226,2,2.77811,9928.14,-26805.5,-20412.3
1.40901e+08,22.7925,1,2.45304,-1424.32,1385.68,-24395
1.41156e+08,72.9582,0,2.7557,-4583.23,-10230.7,-18379.1
1.41209e+08,5.40943,0,3.03953,1089.17,-491.802,-28500.3
1.4138e+08,29.6413,2,2.75805,-2727.25,5574.63,-28967.1
1.41405e+08,131.274,1,2.56945,-16753.3,-7629.93,-8061.22
1.41442e+08,7.00053,0,2.62305,1228.74,-972.649,-28955.2
1.41444e+08,66.9103,1,2.56406,-1402.29,6755.45,-16453.3
1.41455e+08,9.46217,2,2.38758,-771.135,-1429.45,-27522.1
1.4149e+08,51.7504,2,3.04373,1805.85,-9453.71,-23700.6
1.41597e+08,24.2667,0,2.8852,2414.12,1890.6,-24686.6
1.4165e+08,128.474,0,2.81244,-547.053,-24066.8,-23188
1.4181e+08,83.2445,0,3.05168,8546.14,5355.44,-14620.3
1.41813e+08,23.2913,0,2.65684,-1542.55,-2180.02,-24741.8
1.42113e+08,23.0505,2,2.60746,-50.2447,3351.01,-25354.4
0,23.2236,2,3.04203,0,0,0
1.42396e+08,30.4347,1,2.91687,1907.83,-1914.99,-23048.2
1.42811e+08,5.19923,0,2.46342,929.756,-317.122,-28163.4
0,5.24506,0,2.84456,0,0,0
1.42827e+08,27.1312,1,3.03671,-945.447,5679.66,-29506
1.429e+08,149.757,0,2.41549,14771.8,-1776.2,-21114.3
1.43111e+08,21.9982,0,2.36243,2536.23,3971.51,-28984.6
1.43269e+08,142.072,0,3.03571,28976.2,7004.63,-27051.8
1.4353e+08,289.06,2,2.78106,-23621.5,-13374.9,24865.2
1.43592e+08,97.0099,2,2.81758,8984.05,-17715,-23921.8
1.43691e+08,25.6048,1,2.55996,-2676.6,4776.49,-28080.9
1.43758e+08,13.4244,0,2.40704,-1044.24,2254.87,-27495.1
1.43827e+08,157.104,1,2.40439,16248.3,106.13,128.309
1.4392e+08,34.2116,1,2.44262,1622.39,-5118.38,-24050
1.43962e+08,75.092,0,2.69384,3427.71,8595.29,-15950.3
1.44073e+08,15.8868,2,2.54737,-2753.74,433.703,-26860.9
1.44177e+08,33.2094,0,2.37838,-3225.52,4786.35,-24887.3
1.44209e+08,167.392,2,2.51457,8837.04,-27144.9,-7970.11
1.44236e+08,164.49,2,2.45304,-25377.7,17162.8,-12339.2
1.44303e+08,31.0774,1,2.39994,-4715.19,-4592.57,-28990.9
1.44624e+08,58.8126,0,2.76513,9925.41,6677.86,-25277.9
1.44974e+08,10.2784,2,2.62299,-403.837,-1420.2,-27145.9
1.45242e+08,237.126,2,3.01921,1992.53,9916.66,-28686.6
1.45388e+08,138.163,0,2.56573,-13744.9,-21343.4,-14454.7
1.45716e+08,19.1214,2,2.54539,1496.94,1234.21,-25345.2
1.46154e+08,59.1074,1,2.84804,12010.5,1420,-26026
1.46692e+08,11.5033,2,2.44151,-1896.62,-1483.86,-29641.5
1.46736e+08,210.371,1,2.55286,-15837,24548.1,-28948.3
1.46952e+08,165.411,0,2.5231,25940.3,12807.6,-9080.19
1.4739e+08,10.8906,1,2.94598,-2192.23,277.946,-28001.8
1.47535e+08,38.5225,2,2.64415,4514.18,-1748.18,-22276.7
1.4785e+08,74.1643,0,2.88579,822.425,9495.9,-16477.5
1.48182e+08,49.9592,2,2.96977,-7445.6,-5942.38,-24298.8
1.48273e+08,24.7012,2,2.755,432.759,-2045.18,-24043.5
1.48334e+08,5.40868,2,2.3797,-603.611,-704.543,-28056
0,5.81803,1,2.81915,0,0,0
1.48627e+08,66.0488,2,2.49122,-10078.2,-3486.21,-19714.9
1.4864e+08,40.5983,0,2.40279,4483.57,1031.63,-21507.1
1.48989e+08,44.2278,0,2.5993,-1261.76,-7269.19,-23069.2
1.4906e+08,111.633,2,2.56969,6740.42,7368.7,-7509.27
1.49606e+08,8.20263,1,2.9657,827.568,1405.16,-29567.3
1.49855e+08,126.686,1,2.67022,-14236.7,18093,-15184.9
1.49931e+08,49.5383,0,2.98412,4900.45,2726.99,-20019.6
1.50073e+08,110.466,1,2.7018,-16831.9,14503.7,-21550.9
1.50398e+08,117.484,1,2.77757,5462.5,7277.61,-18885.5
1.50497e+08,331.556,0,2.90835,-4728.3,-23733.8,-8055.98
1.5061e+08,84.0837,2,2.88709,-2080.44,-4046.13,-26838
1.50649e+08,88.3366,2,2.98672,5752.49,-12177,-16062.9
1.50719e+08,103.893,2,2.42201,10847.1,13780.1,-15647.7
1.50913e+08,126.599,1,2.53326,-14774.5,-18895.3,-16974
1.512e+08,63.847,1,2.4755,-6195.39,-2698.42,-17117.9
1.51568e+08,31.1017,2,2.62109,2814.27,906.938,-23029.8
1.51681e+08,57.3628,0,2.93601,2623.77,-6490.97,-18996.5
1.51789e+08,56.6834,2,2.64347,723.619,9789.08,-22097.5
1.51929e+08,62.7208,2,2.83838,-8841.1,-8877.16,-24427.2
1.51967e+08,8.83675,0,2.80764,396.771,1779.53,-28276
1.52077e+08,26.6184,2,2.65353,1329.01,2367.17,-23958.3
1.52097e+08,25.0092,2,2.76908,-4635.11,959.481,-26401.9
1.52217e+08,167.177,0,2.674,27400.6,22004.6,-25282
1.5228e+08,23.6759,0,2.46983,-1313.17,-4557.39,-27173.4
1.52824e+08,73.1132,0,2.38738,15390.5,-145.247,-26657.4
1.52862e+08,30.8304,2,2.80099,-3329.26,3943.13,-24927.8
1.5325e+08,141.841,1,2.92556,-22442.5,1117.07,-9225.33
1.53556e+08,154.202,1,2.52848,-4677.59,17905.5,-3019.88
1.53704e+08,32.9611,2,2.53244,6391.29,-1839.32,-26743.2
1.53713e+08,92.583,1,2.42718,-15448.4,2365.69,-16959.3
1.53755e+08,67.5717,2,2.91468,8188.39,-1503.11,-21765.8
1.54722e+08,19.8583,1,2.61535,-561.383,4259.55,-28966.6
1.55063e+08,142.87,1,2.88754,7235.47,17577.5,-5565.73
1.55164e+08,104.823,2,2.68636,-10313.4,6652.83,-11122.7
1.55473e+08,2.33484,0,2.61477,-8.3113,163.327,-28365
1.55607e+08,125.917,1,2.81043,-724.166,22977.7,-15640.9
1.55966e+08,123.211,2,2.4238,22583.3,-5975.43,-17266.6
1.56047e+08,78.3137,0,2.52631,11080.4,-1967.55,-16590.5
1.56542e+08,38.0083,1,2.54355,-5621.91,1644.97,-23269.5
1.56545e+08,61.7478,0,2.80676,7928.57,-4065.67,-19293.6
1.56553e+08,95.2772,2,2.43767,2052.55,-19642.6,-24536.2
1.56984e+08,52.6075,2,2.46752,-3963.25,-9924.81,-25442.3
1.57305e+08,121.095,2,2.69211,-6237.36,-11981.2,-14197
1.57668e+08,105.335,2,2.48523,-21814.4,-786.395,-24055.2
1.57695e+08,26.2152,0,2.78668,3372.35,-712.515,-24432
0,26.3453,0,3.01999,0,0,0
1.57908e+08,46.8275,2,2.57651,2075.16,-9750.36,-28385.8
1.57987e+08,127.002,2,2.67936,-20956.3,-14525.1,-20393.8
1.58367e+08,4.39856,2,2.66594,-326.904,-421.402,-28000.6
1.58802e+08,28.8136,2,2.94622,4776,-3627.63,-29810.8
1.59693e+08,33.9772,2,2.48948,3445.64,-5472.09,-25602.9
1.59698e+08,32.6185,1,2.65188,2704.71,1730.2,-22725.5
1.59981e+08,88.0883,1,2.73203,-11571,7883.99,-16703.9
1.60327e+08,36.2247,2,2.98418,-4568.63,-4306.02,-24417.2
1.60503e+08,8.94667,1,2.89251,219.908,871.77,-27132.5
1.61161e+08,11.3477,2,2.55925,2187.91,24.7105,-27873.8
1.61161e+08,23.5601,2,2.59624,1245.57,2462.96,-24719.3
1.6131e+08,79.3995,1,2.96875,-1518.9,-10627.9,-16126.9
1.61376e+08,49.1476,1,2.37743,-2364.12,9541.2,-25391.5
1.62518e+08,71.8968,0,2.44389,3642.61,13663.9,-23108.5
1.6256e+08,159.093,2,2.73653,-5859.98,-19713.2,-2366.19
1.62577e+08,18.0838,2,2.69815,-1781.96,-2558.74,-26527.1
1.62592e+08,72.2789,0,2.94139,10511.2,10927.1,-27423.5
1.62851e+08,111.369,1,2.92674,7230.97,-3505.81,-20615.9
1.62934e+08,197.455,2,2.53987,-11759.6,-23003.3,4016.59
1.62968e+08,160.139,2,2.80214,-2318.88,15970.5,715.069
1.63034e+08,10.946,2,2.58538,-755.528,-1126.08,-26900.8
1.63108e+08,22.9908,1,3.0273,-1591.09,3741.78,-26102.4
1.63747e+08,218.227,1,2.73593,-12339.4,25124.5,7684.42
1.64022e+08,120.823,2,2.63202,-15603.9,18150.8,-20058.3
1.64393e+08,18.0685,1,2.5808,-2757.92,2681.37,-28242.3
1.64764e+08,52.5103,1,2.58867,-2932.57,-5545.27,-19685.9
1.64776e+08,133.411,1,2.50077,9309.56,-19444.3,-10708.8
1.65529e+08,40.333,2,2.38854,4643.35,-7160.47,-29766.2
1.6578e+08,75.6652,2,2.98911,-6081.57,-14582.9,-26550.9
1.6617e+08,87.8424,0,2.52492,5617.38,11662,-15495.1
1.6627e+08,86.7228,0,2.51564,4175.93,-5572.29,-11878.1
1.66496e+08,134.632,2,2.78094,2.68713,-11893.6,-3072.58
1.66862e+08,88.2056,2,2.62908,-10082.4,11849,-18605.9
1.67139e+08,21.9052,2,2.83484,-3682.73,-2927.85,-28721.6
1.67311e+08,8.2626,0,2.65574,77.3518,1760.48,-28890
1.67516e+08,0.769335,0,2.49004,137.803,64.6093,-28676.8
0,0.782987,0,2.70803,0,0,0
1.67579e+08,30.0487,0,2.91983,5494.4,-2953.59,-27368.6
1.67731e+08,31.6338,0,3.02417,2391.76,-5254.38,-25472.1
1.68023e+08,11.615,1,2.51,1819.16,940.534,-27447.8
1.6809e+08,128.439,2,2.42544,-25640.3,-9093.01,-27466.9
1.68815e+08,112.73,1,2.62603,13649.3,13556.9,-14764.2
1.68867e+08,66.3181,0,2.76167,-1977.85,13316.5,-25036.7
1.69103e+08,74.236,0,3.05485,8335.63,1504.71,-15895.1
1.694e+08,3.86479,2,2.47392,-490.181,-746.321,-29114.9
1.69471e+08,56.4733,1,2.47866,-5893.45,-5856.56,-20237.9
1.69779e+08,102.333,2,2.94343,-9069.93,19269.8,-26468.4
1.69986e+08,88.623,0,2.40175,2161.17,18631.4,-29984.1
1.70045e+08,120.317,1,2.60733,11550.7,17159.6,-14004.5
1.70238e+08,64.367,1,2.92982,-2270.55,-8471.39,-18588.8
1.70389e+08,29.9665,0,2.94109,6039.75,-1714.98,-27621.5
1.70556e+08,9.94425,2,2.9465,415.444,-2153.01,-28854.3
1.70958e+08,117.168,2,2.96513,-11556.2,-7043.03,-18483.5
1.71144e+08,20.1304,2,2.95302,-1313.54,3951.46,-28317.9
1.71226e+08,155.293,1,2.80919,-12695.3,-6272.17,606.04
1.71319e+08,103.801,1,2.77229,-16196.9,2576.5,-14323
1.71348e+08,9.88741,2,2.82604,-1663.53,943.13,-27927.6
1.71364e+08,18.0864,0,2.46479,1222.75,-3644.72,-29124.9
1.71699e+08,40.6008,1,2.60634,5343.65,-5408.65,-24956.6
1.71712e+08,8.58044,1,2.73927,798.969,618.625,-27294.1
1.71835e+08,4.78894,0,2.77975,918.368,438.276,-29261
1.72013e+08,100.067,2,2.5854,-7434.4,10995.1,-12445.1
1.72191e+08,296.694,0,2.708,1736.55,26975.9,3809.02
1.72256e+08,91.8416,1,2.40378,9331.97,16260,-23509.8
1.7279e+08,157.116,2,2.59908,-26244.7,-10231,-11168.5
1.72825e+08,8.65655,2,2.6233,-1678.27,778.683,-28532.3
1.73136e+08,43.1714,0,2.44525,-4949.33,195.561,-21183.3
1.73218e+08,15.6905,2,2.46503,496.524,-3030.48,-27394.6
1.73571e+08,25.4702,2,3.04771,3095.68,-1039.21,-24593.1
1.73942e+08,57.8677,1,2.79603,-10761,5588.87,-27026.7
0,57.623,1,2.66411,0,0,0
1.74057e+08,2.10149,0,2.92231,249.403,165.622,-28438.3
1.74108e+08,39.8085,0,3.02379,7946.06,-2866.4,-28417.5
1.74142e+08,28.668,0,2.78952,-2666.72,5232.23,-27638.7
1.74443e+08,102.235,2,2.90619,12727.9,-15934.8,-21958.1
1.74566e+08,98.9173,2,2.57996,-1706.5,-19943.1,-22498.5
1.74653e+08,24.8542,0,3.04462,4287.17,1724.26,-26236.8
1.74736e+08,42.4862,0,2.83295,-3945.18,-4708.82,-22378.8
1.74798e+08,140.25,2,2.5009,-27498.6,1247.34,-17675.6
1.74886e+08,53.9321,2,2.78048,-7863.08,2481.27,-20980.1
1.7571e+08,54.1996,0,2.98738,5482.68,7079.88,-21780.2
1.76247e+08,172.682,0,2.57164,26430.2,-14793.6,-8384.04
1.76388e+08,115.041,1,2.96636,-423.012,17593.8,-12227.7
1.76456e+08,85.9298,1,2.90839,-5910.58,15803.7,-22176.6
1.76889e+08,2.9275,0,2.47781,200.675,-46.6784,-28202.9
0,2.95087,0,2.63755,0,0,0
1.77451e+08,26.9796,2,2.44219,2892.12,-2115.42,-24356
1.77602e+08,230.425,0,2.37553,27852.2,6534.09,10690.2
1.77851e+08,147.737,0,2.55565,19975.2,-19449.2,-14706.2
1.77884e+08,12.1253,1,2.54985,-1472.53,1567.37,-27287.1
1.78026e+08,30.1623,2,2.91585,-1208.33,-6306.27,-28677
1.7846e+08,32.9465,2,2.62999,-6436.59,1308.41,-26469.8
1.78549e+08,77.7437,2,2.76954,13715.4,-439.199,-19973.4
1.78566e+08,82.2221,1,2.76738,-16580.2,-4949.65,-27430.2
1.78865e+08,121.026,1,2.40827,4199.97,23117.1,-18473.7
1.78907e+08,33.0134,0,2.92486,1954.16,6383.67,-26756.6
1.79179e+08,123.789,0,2.40072,9415.3,2184.74,-4478
1.79272e+08,54.9487,2,2.79027,-6773.21,7357.33,-23050.5
1.79498e+08,79.1226,0,2.83643,-1166.88,12927.1,-18414.9
1.79635e+08,54.2506,0,2.95811,1704.7,-11286.2,-29204.7
1.79748e+08,89.1304,0,3.03978,-4742.76,15269.6,-19246.1
1.79793e+08,29.1145,2,2.65565,4988.1,-778.489,-25341.1
1.79837e+08,56.9915,2,2.98043,-8753,-6332.14,-23504.5
1.79938e+08,128.784,0,2.38626,20568.4,14905.5,-18860.4
1.79985e+08,38.2989,1,2.46324,1570.39,5308.92,-22889.3
1.80021e+08,57.8194,0,2.99217,6049.94,-7462.24,-21346.9
1.80049e+08,27.6709,2,2.69841,-5587.74,-1878.67,-28183.5
1.80786e+08,104.086,2,2.51377,355.043,-14184.8,-11931.7
1.80848e+08,10.3229,2,2.97992,-691.441,-1064.73,-27018.5
1.80997e+08,33.4234,0,2.58051,-736.013,-3557.92,-22763.1
1.81265e+08,30.6433,2,2.66012,-4239.31,4031.4,-26067.8
1.81267e+08,230.991,1,2.82679,-8278.76,944.535,-28184.1
1.81652e+08,43.4872,0,3.01934,-3688.13,7756.41,-25860.5
1.81678e+08,53.8043,0,2.6324,-2010.97,7319.08,-20408
1.81971e+08,34.9724,2,2.39218,6148.89,-3072.11,-26030.5
1.8199e+08,51.5374,2,2.45887,760.508,-8950.15,-22530.6
1.82119e+08,11.6639,2,2.91657,-1056.74,-794.501,-26710.1
1.82171e+08,64.6943,1,2.66779,-12074.5,6523.04,-29613.4
1.8225e+08,24.2631,0,3.03061,3840.63,2860.6,-26929.8
1.82495e+08,92.1583,1,2.36226,-17767.5,7493.68,-25356.7
1.83483e+08,10.1964,2,2.72228,701.721,-1557.85,-27453.1
1.83749e+08,71.6775,0,2.4906,5402.9,-6288.96,-16098
1.83899e+08,5.99789,2,3.00011,-1262.49,-52.8239,-28414.5
1.84079e+08,10.1083,2,2.83359,2076.12,-443.961,-28893.9
1.84318e+08,57.7153,0,2.75327,9938.84,-1005.03,-21752.5
1.84509e+08,103.858,1,2.72715,-21104.2,-2295.9,-23406.6
1.84698e+08,18.9075,2,2.76678,-1246.2,-3906.46,-28779
1.84751e+08,38.8489,1,2.85422,-540.533,8230.21,-28724.1
1.8496e+08,64.5578,1,2.65594,1996.79,9567.14,-19267.3
1.84984e+08,33.9368,0,2.49107,-6336.87,2987.93,-27501.3
1.85449e+08,74.2085,2,2.36491,-1385.07,13022.2,-20230.7
1.85485e+08,24.2452,0,2.64107,643.106,-2715.1,-24532.3
1.8549e+08,119.581,0,2.77279,23379.7,3198.06,-19797.4
1.85553e+08,38.1993,0,2.95407,2663.04,1725.53,-21451.2
1.86209e+08,13.7937,1,3.04283,2566.82,1281.98,-29162.6
1.86314e+08,122.806,1,3.04304,-20054.6,16203,-29539.7
1.87669e+08,11.3629,0,3.01656,46.6237,2210.34,-27913.4
1.88189e+08,141.504,1,2.74778,19099.1,15874,-14769.9
1.88483e+08,89.5076,2,2.52405,162.275,8424.27,-11904.4
1.88986e+08,6.73588,2,2.69787,-1170.88,-721.063,-29493
1.89155e+08,24.0848,2,2.81163,-1270.41,4507.59,-26988.4
1.89221e+08,35.8094,1,2.6834,4905.87,-4100.64,-24895.6
1.89447e+08,28.599,0,2.69987,6016.78,1223.74,-29119.1
1.89478e+08,75.9874,1,2.78895,-14960,4577.76,-25231.2
1.89484e+08,31.5089,0,2.53145,-1233.79,-5488.56,-25297
1.89506e+08,37.0415,1,2.43062,-5195.51,2714.99,-23538.6
1.8974e+08,109.999,2,2.8066,-3246.09,7830.17,-12789
1.90091e+08,143.91,1,3.03251,17682.4,19991.1,-14813.7
1.90163e+08,88.4293,1,2.78217,-8700.33,3530.52,-13344.9
1.90408e+08,36.6213,0,2.7426,-882.715,-3557.69,-22041.6
1.90632e+08,67.6022,2,2.59296,-6454.17,2959.63,-16422.4
1.90673e+08,73.7279,0,2.44989,-11779.3,-7422.94,-21943.2
1.91285e+08,81.4145,2,2.63766,9829.13,10092.9,-19069.4
1.91365e+08,48.8183,0,2.53404,4558.79,-3717.77,-20284.8
1.91374e+08,13.2416,2,2.99154,-2659.32,-403.733,-27864.9
1.91398e+08,58.6465,1,2.78437,-11425.8,4390.85,-26789.2
1.91448e+08,62.0496,1,2.50017,-5474.3,-5673.02,-18346.8
1.91618e+08,294.996,1,2.54968,-12935.6,19838.4,297.025
1.91686e+08,140.955,1,2.847,-7638.76,8291.59,-7755.76
1.91721e+08,32.7052,0,2.47715,3442.7,1030.67,-22850.9
1.92379e+08,127.584,1,2.97413,373.538,1588.62,-29236.2
1.92857e+08,19.174,0,2.54027,1757.52,-1145.03,-25313.1
1.93098e+08,7.91597,1,2.63518,-1133.24,845.096,-27802.6
1.93341e+08,19.945,0,2.66672,-1197.76,-2629.04,-25800.8
0,19.9579,0,2.87496,0,0,0
1.93515e+08,35.0211,0,2.65022,-4797.01,-967.131,-23336.6
1.94187e+08,100.866,0,2.63487,14059,4573.71,-13481.6
1.94786e+08,258.061,1,2.87562,-22975.1,-13647.2,18321.2
1.94817e+08,72.4895,1,2.88619,3593.11,13817.1,-23323.5
1.95447e+08,48.0501,0,2.45147,-2838.97,8330.02,-23727.2
1.9545e+08,59.2391,2,2.73432,-1855.98,12094,-26955.2
1.95898e+08,36.2187,1,2.87934,-2455.53,5937.85,-24586.6
1.96962e+08,237.685,1,2.792,25263.1,19440.2,13.6291
1.97322e+08,125.11,2,2.78604,-338.964,-18790.5,-10303.5
1.97417e+08,17.5201,2,2.44463,-2835.23,481.436,-26453.5
1.97569e+08,2.86949,2,2.75928,226.082,461.234,-28617.1
1.97624e+08,1.94557,0,2.91493,514.438,40.5197,-28824.7
1.97854e+08,152.032,0,2.86812,5780.96,24226.1,-10345.3
1.9804e+08,6.834,1,2.64572,-617.76,1431.79,-28925.2
1.98084e+08,20.419,2,2.80257,3063.09,2078.71,-26759.4
1.98285e+08,78.6763,1,2.61682,-12805.4,-9380.47,-23924.8
1.98287e+08,117.764,1,2.91953,-17847.1,-15034.2,-20665.2
1.98299e+08,88.1563,1,2.59315,15880.7,-4510.15,-20317.8
1.98487e+08,223.482,1,2.69689,-8972.46,-26302.2,4780.76
1.98599e+08,17.744,2,2.77915,-2313.33,-256.806,-25854.6
1.98673e+08,14.6108,2,2.42804,2107.97,-510.216,-26639.6
1.98776e+08,18.5983,0,2.78824,-1126.27,3070.75,-26678
1.98858e+08,66.9934,0,2.77928,11517.6,6177.05,-23301.2
1.98968e+08,41.057,1,2.82534,471.669,-8373.83,-26997.6
1.99131e+08,18.4034,0,2.73094,-528.979,2921.84,-26321.7
0,18.5649,0,3.01044,0,0,0
1.99791e+08,49.3985,1,2.93206,-4026.56,7394.87,-22633.3
1.99821e+08,207.321,2,2.50262,20775.9,-27051.5,-1277.37
2.00159e+08,117.551,0,2.41052,5861.94,21383,-17480.3
2.00617e+08,42.428,1,2.38932,-5278.23,-3311.36,-22397.1
2.0068e+08,65.9817,0,2.39011,12507.2,6299.11,-27745.3
2.00686e+08,35.0247,1,2.6613,-220.791,-4767.26,-23230.6
2.00735e+08,44.1613,1,2.94933,-8081.5,-2807.89,-25156.1
2.01796e+08,78.7419,0,2.7654,-4689.24,-7408.05,-14767
2.018e+08,43.0558,2,2.83774,-6489.5,-270.419,-22449.4
2.02028e+08,23.3829,0,2.85805,4902.18,-179.766,-29917.7
2.0203e+08,52.3257,1,3.06053,-2678.04,6060.91,-20028.1
2.02138e+08,23.0029,2,2.85682,-367.408,-3927.37,-25896.6
2.02229e+08,118.198,2,2.42838,2268.15,-18340.6,-11903.1
2.02606e+08,11.7947,1,2.67629,-1718.17,1523.91,-27725.8
2.02763e+08,1.8747,2,2.77236,-295.621,-13.8227,-28529.5
0,1.83637,2,2.38105,0,0,0
2.02763e+08,35.0715,2,2.84686,-1921.5,-4421.26,-23165.3
2.02957e+08,29.4312,0,2.77307,-937.966,5285.43,-25717.4
2.03092e+08,71.0085,0,2.47852,8021.38,-12498.1,-26195.8
2.03205e+08,67.9223,1,2.58176,12406.8,6480.82,-25594.1
2.03374e+08,56.3891,1,2.88138,-541.254,-7237.63,-19533.1
2.03831e+08,15.0962,1,3.00471,-2522.74,1994.88,-28204.7
2.04598e+08,67.8181,1,2.58532,-1853.76,9435.35,-18132.6
2.04747e+08,40.491,0,2.86304,135.031,-8123.33,-26191.5
2.05075e+08,329.416,0,3.04699,-20477.3,-18117.9,-21703.2
2.05257e+08,68.3927,1,2.92496,-9449.49,10887.6,-27821.8
2.05518e+08,106.87,2,2.69271,-321.857,-21291,-21222.9
2.05736e+08,15.1069,0,2.84096,-1403.26,2795.32,-29353.9
2.05781e+08,32.6866,1,2.73276,-6318.21,2994.18,-28898.1
2.05882e+08,66.1565,2,2.44941,2403.1,6207.79,-16579.6
2.05912e+08,169.891,1,2.902,16339,24439.7,-8551.23
2.06351e+08,64.3241,2,2.43017,-2728.64,-5071.89,-16446.4
2.06444e+08,11.6905,1,2.55243,1308.58,982.357,-26933.4
2.0654e+08,15.2349,1,2.37893,-3107.07,-860.953,-28207.5
2.06593e+08,16.9843,0,3.04202,-387.687,2870.51,-26720.7
2.06627e+08,88.611,2,2.68838,-8417.96,-15297.8,-21905.5
2.06901e+08,179.51,0,2.96569,19915.7,15624.1,-901.313
2.07379e+08,34.7776,0,2.41808,177.858,-4949.97,-23398.4
2.07706e+08,163.057,2,2.67155,-26161.9,14581.8,-11888.5
2.07989e+08,16.3752,1,2.94129,-2079.35,2597.23,-27604.4
2.08679e+08,65.8021,1,2.6206,-7326.71,11407,-25461.6
2.09014e+08,82.5291,1,3.00061,-7791.9,15542.6,-29521.2
2.09394e+08,54.1874,1,2.40755,-5312.44,-8672.98,-23564.7
2.09522e+08,44.1299,0,2.72387,6153.72,-5654.45,-24599.6
2.09523e+08,169.19,1,2.93775,8759.25,29529,-11045.6
2.09721e+08,218.436,1,2.70934,22938.2,4653.86,10793.4
2.09724e+08,156.493,2,2.96006,15108.1,-28663.7,-23519
2.09944e+08,5.38564,1,2.40407,-841.134,-786.224,-28738.1
2.10232e+08,27.5513,2,2.66143,-293.035,5480.46,-27058.9
2.10363e+08,4.18621,1,2.51035,-304.047,904.568,-28694.5
0,4.05487,1,2.61639,0,0,0
2.10454e+08,104.21,2,2.91473,-14603.6,-16430.9,-29098.2
2.1054e+08,35.7711,0,2.78902,7481.64,-1191.12,-29616.9
2.10551e+08,69.6983,2,2.52653,-10786.9,-3582.35,-26126.8
2.10923e+08,37.5642,1,2.43763,7566.67,-1150.67,-26872.1
2.11109e+08,106.084,2,2.55213,12757.6,9773.56,-13243
2.11553e+08,25.0649,2,2.72666,-4316.43,3044.25,-28844.9
2.11676e+08,24.3536,0,2.438,-3219.39,2131.31,-25468.7
2.1175e+08,123.115,1,2.51649,9467.41,-21966,-18760
2.11824e+08,101.547,2,3.04464,19453.9,-904.718,-20303.8
2.11958e+08,81.5185,1,2.54916,-13190.9,6499.64,-23024.4
2.1278e+08,104.886,1,2.47713,-9269.12,12277.8,-12778.1
2.12809e+08,72.2116,1,2.65608,-9804.64,5070.52,-18243.3
2.13164e+08,146.908,2,2.559,-6131.35,5166.37,-23826.6
2.13646e+08,48.5143,2,2.53903,-6344.03,-681.05,-20745.9
2.13777e+08,78.0043,0,2.45357,9182.2,-10926.3,-20444.3
2.13835e+08,24.3835,2,2.62913,-166.445,-3225.03,-24741.6
2.14226e+08,40.0364,2,2.99247,790.914,-7918.16,-25922.7
2.1482e+08,16.8999,0,3.05026,1372.53,1652.16,-25963.1
2.15423e+08,2.80263,2,3.04558,208.964,-429.748,-29281.4
2.15466e+08,22.6064,2,2.77501,-225.477,3632.29,-25796.6
2.15789e+08,21.27,0,2.72331,-1582.4,-4149.51,-28323.8
2.16009e+08,22.1594,0,2.53158,-1643.94,-1951.56,-24935.3
2.1602e+08,11.1394,1,2.75514,-1805.09,-812.971,-27512.9
2.16129e+08,62.8991,1,2.46206,1934.18,7923.61,-18269.6
2.16248e+08,27.2341,0,2.4961,2194.51,4673.13,-26152.9
2.1654e+08,402.56,1,2.91248,-11501.7,14155.3,-4369.13
2.16775e+08,155.219,0,2.74129,7580.87,-12093.8,567.934
2.16902e+08,11.6291,0,2.54362,190.829,-1192.88,-26681.2
2.16927e+08,52.1149,2,2.98197,2699.69,-5835.44,-19949.5
2.17134e+08,80.1896,0,3.00813,16344.7,4366.62,-28909.8
2.17138e+08,35.8756,1,3.00025,3677.82,2112.09,-22601.3
2.1723e+08,63.9434,1,2.59137,1624.09,-12139.2,-23259.5
2.17313e+08,10.4008,2,2.52912,361.218,-1613.44,-27293.6
2.17513e+08,61.8547,2,2.43555,3363.58,6632.82,-18094.1
2.17726e+08,24.4087,1,2.76653,-4222.53,2347.96,-26857.1
2.17776e+08,8.11412,1,2.80858,77.8624,1492.21,-27853.8
2.17853e+08,131.896,0,2.65473,11030.4,25014.2,-23428.3
2.17988e+08,208.173,1,2.70546,14674.1,17987.5,8383.77
2.18002e+08,74.5063,1,3.02242,10898.1,-2224.8,-17919.1
2.18018e+08,19.984,2,2.71949,3477.61,1269.69,-26910.9
2.18067e+08,21.7483,2,2.88965,-3168.05,-2191.56,-26272.8
2.18423e+08,48.9351,2,2.39043,2443.74,-3834.2,-19494
2.18424e+08,22.3329,0,2.47129,3797.37,2079.69,-26731.7
2.18596e+08,19.0695,1,2.49568,1780.06,3650.37,-29466.9
2.18606e+08,22.2384,0,2.97648,4304.01,1984.34,-28259.7
2.187e+08,25.9272,0,2.79776,3794.96,-3693.42,-27233.8
2.18889e+08,171.528,1,2.56409,23505.2,10593.6,-3391.64
2.19036e+08,131.194,2,2.49835,-20799.2,5764.39,-11352.1
2.19286e+08,109.255,1,2.75063,-6257.82,9716.74,-8900.86
2.19437e+08,41.0307,0,3.0314,4855.01,6641.4,-26085.7
2.19666e+08,15.9266,2,2.75981,3271.68,-576.365,-28322.5
2.19826e+08,21.2145,0,2.61102,4400.95,1201.55,-29280.2
2.20018e+08,12.3142,2,2.47932,-1324.58,-2317.83,-28412.3
2.20116e+08,83.7364,2,3.002,-10552.8,3523.72,-15276.5
2.20612e+08,96.2544,2,2.90398,5045.61,15245.9,-16647
2.20643e+08,146.625,0,2.78039,12398.4,-7303.97,-1525.12
2.20686e+08,4.74751,1,2.94118,288.334,697.605,-28136.1
2.20999e+08,15.9879,0,2.52919,3439.15,170.125,-29383.3
2.21052e+08,5.60103,2,2.93343,-815.177,755.769,-28441.7
2.21825e+08,35.1269,0,2.75882,4569.22,-4135.55,-24641.7
2.21969e+08,37.7268,2,2.54615,-4594.62,-3732.08,-23379.8
2.22001e+08,16.1805,0,2.58822,-1189.67,2733.8,-27199.2
2.22143e+08,132.664,2,2.47869,-26360.2,3431.02,-22506.4
2.22724e+08,5.35699,1,2.41567,-964.103,-564.612,-28494
2.22802e+08,31.5378,2,2.93135,1600.34,3319.87,-24780.7
2.22886e+08,18.1515,0,2.92423,3150.09,-2181.95,-28085.1
2.22895e+08,21.6365,2,2.98844,-4561.63,601.65,-28808.1
2.2295e+08,89.9411,1,2.79543,1294.07,-18396.2,-24820.9
2.23796e+08,48.6198,1,2.89475,-2601.48,-5329.09,-20549.1
2.2384e+08,60.6976,2,2.99228,-9525.6,1129.97,-20413.7
2.24083e+08,84.8111,1,2.46708,-3666.44,16884.8,-23684.1
2.24403e+08,1.04729,1,2.85804,27.9369,138.113,-28609.3
0,1.03935,1,2.93169,0,0,0
2.24565e+08,92.3053,2,2.98021,5284.63,10814.5,-13731
2.24751e+08,106.42,0,2.44452,8008.18,-7554.08,-9153.25
2.24816e+08,1.41715,1,2.79165,-85.4698,233.717,-28569.3
2.24981e+08,9.93328,1,2.8984,693.715,2010.49,-29257.1
0,9.86284,1,2.4841,0,0,0
2.25414e+08,25.3658,2,2.76099,4670.08,-2083.04,-27237.7
2.2553e+08,3.19486,2,2.79189,-224.36,-205.905,-28180.9
2.25656e+08,35.092,0,2.70842,6294.66,-3580.82,-26903.9
2.25659e+08,37.326,2,2.41121,-3691.44,5044.87,-24037.2
2.25664e+08,34.198,0,2.77143,5530.88,2668.2,-24941.8
2.25787e+08,24.0423,2,2.88962,-4342.26,-2735.42,-28793.4
2.25934e+08,92.6105,1,2.93976,-17013.3,2495.16,-22291
2.26076e+08,5.08053,1,3.00824,-76.5439,979.363,-28223.7
2.26081e+08,11.2538,1,2.51483,889.972,2286.6,-28548.4
2.26628e+08,164.821,1,2.93003,-22553.3,-8513.38,-4013.98
2.27348e+08,8.2173,2,2.85503,414.143,-1746.41,-29127.4
2.27472e+08,53.6664,0,2.71635,2856.58,7594.15,-20933.2
2.27544e+08,184.714,0,2.69877,10088.2,-6726.25,-1045
2.27546e+08,444.722,1,3.04117,2842.11,8815.27,26876.2
2.27752e+08,13.0601,0,2.90119,2642.22,34.6538,-27840.3
2.27962e+08,8.72645,1,2.70712,-1492.25,-346.3,-29945.9
2.28134e+08,34.2039,2,2.6848,3170.71,-6307.01,-27094.8
2.2824e+08,89.3396,0,2.93838,5031.33,-9176.36,-13240.9
2.28315e+08,30.9994,2,2.96528,70.3214,-4079.04,-23686.9
0,31.3019,1,2.74678,0,0,0
2.28392e+08,169.802,0,2.98987,10004.1,-10097.5,3839.46
2.28399e+08,11.9705,2,2.60729,-1970.81,-326.411,-27190.8
2.28461e+08,92.8492,1,2.36325,-18776.9,6036.5,-28549.6
2.28564e+08,131.393,2,2.9834,-22821.6,-11738.3,-18577.6
2.28802e+08,136.61,2,2.52299,16882.3,-19709.2,-16056.4
2.29383e+08,28.9544,0,2.76553,2653.89,214.673,-23301.5
2.2946e+08,66.4359,0,2.99401,-391.699,11534.3,-21037.8
2.29479e+08,165.287,0,2.95096,20228.2,-1399.48,-1799.48
2.29676e+08,54.5168,0,2.86033,8700.89,-4388.87,-22640.8
2.29682e+08,184.574,0,2.60834,-21188.9,18390.7,-1828.41
2.29763e+08,3.29071,0,2.96131,619.098,420.999,-29054.1
2.30138e+08,122.299,0,2.5093,10272.8,-17546.9,-12784.4
2.30174e+08,13.8591,1,3.00737,-106.506,1722.77,-26426.7
2.30511e+08,35.6402,2,2.79184,5114.87,-4115.11,-25165.7
0,35.4961,2,2.52882,0,0,0
2.30517e+08,90.5517,2,2.77236,13704.9,-12807.9,-25182.3
2.30661e+08,131.022,0,2.85268,9645.37,5858.03,-3671.29
2.30733e+08,78.9426,1,2.6808,-15666.5,4781.19,-25554.2
2.31109e+08,90.1847,2,2.59456,-11855.3,-11916.2,-19705.9
2.31126e+08,244.732,2,2.99649,-5598.72,-7089.69,-21895
2.31266e+08,79.0445,1,2.58835,-4119.03,14970.2,-22483.4
2.31353e+08,74.255,0,2.94367,-13080.2,-5119.76,-22257.8
2.31845e+08,67.3408,2,2.45647,-12109.3,-7671.74,-28833
2.31993e+08,53.0566,0,2.79814,5097.37,9367.51,-25382.7
2.32073e+08,13.2205,2,2.66905,-1646.38,-777.218,-26673.9
2.32179e+08,73.157,0,2.65279,2819.5,-5129.16,-24032.3
2.32377e+08,134.015,2,2.49505,-2374.97,12515.2,-3568.07
2.32412e+08,22.4932,1,2.72714,-2759.45,3973.83,-28419.2
2.33046e+08,48.6675,2,2.72819,3914.8,-8001.63,-23622.5
2.33815e+08,41.7629,1,2.43877,1379.21,8781.04,-29357.9
2.33986e+08,104.566,0,3.04105,2885.3,8137.12,-17343.3
2.34395e+08,8.8257,1,2.55617,-177.703,918.659,-27163.2
2.34423e+08,14.6155,2,2.78148,-762.97,1465,-26232.3
2.34639e+08,69.7901,0,2.95715,6267.29,12343.9,-23980.4
2.35159e+08,22.852,0,2.42488,-2782.94,-446.877,-24974.5
2.35188e+08,123.408,0,2.49122,2045.68,-115.332,-28007.8
2.35318e+08,149.928,1,2.53535,5821.05,-14779.1,-1476.37
2.35433e+08,12.2943,0,2.68024,2348.39,76.5883,-27555.1
2.36004e+08,93.9848,2,2.83632,-8778.32,13277.6,-17125
2.36012e+08,24.9916,1,2.7493,-1507.36,2505.05,-24380
2.36082e+08,157.364,1,2.57203,6633.54,21513.9,-4311.7
2.36356e+08,90.5851,0,2.73461,7639.82,17546.1,-28701.3
2.3711e+08,139.644,2,2.54785,-6210.4,-14328.9,-3736.51
2.37351e+08,10.6492,0,2.71762,1373,-1817.16,-28358.8
2.37425e+08,6.83147,1,2.64243,-622.754,-54.5732,-27501.1
2.3786e+08,154.764,1,2.65339,17307.7,271.978,-24892.6
2.37922e+08,111.813,0,2.49127,13145.3,-15299.7,-16379.7
2.38263e+08,88.7814,0,2.80861,-2127.84,-8418.23,-21827.5
2.384e+08,45.4551,1,2.7705,-3295.1,-8947.35,-28872.5
2.38692e+08,1.88306,0,2.99163,-69.2336,-116.224,-28451.6
2.38939e+08,33.7218,2,2.37492,-4577.05,-464.448,-23328.2
2.39354e+08,64.0113,2,2.7616,-2165.74,-9298.88,-19249.3
2.39441e+08,114.477,1,2.60698,-8573.64,5031.99,-6792.66
2.39974e+08,19.9048,2,2.55257,-3821.98,1075.34,-27291.3
2.40178e+08,208.265,1,2.55169,21375.6,-15440.6,6332.14
2.40189e+08,73.3087,2,2.89898,-10655,-9246.97,-22464.4
2.4027e+08,71.0892,0,2.93019,-2051.68,12003.9,-20231.7
2.40362e+08,78.7656,1,2.66444,467.555,10248.3,-15710.4
2.40396e+08,158.662,1,2.88973,-23413.4,4299.87,-5459.55
2.40528e+08,14.6136,2,2.62325,-884.949,-1857.4,-26444
2.40983e+08,80.1008,0,2.88429,-5041.69,8373.42,-15133.9
2.41634e+08,26.2806,2,2.59993,-4516.45,-2107.54,-26278.8
2.41636e+08,40.5951,0,2.4627,7381.79,3148.36,-25527.2
2.41788e+08,135.947,0,2.66744,18566,6361.63,-7837.03
2.42088e+08,11.7206,0,2.65784,922.714,-1274.42,-26880.8
2.42335e+08,191.862,0,3.0382,24728.3,7243.81,2047.06
2.42483e+08,7.19495,1,2.9644,-1265.91,982.698,-28737.8
2.43374e+08,34.8883,0,2.39605,-7063,1381.99,-27490.1
2.43666e+08,2.34296,1,2.40041,-448.565,347.646,-28634.3
0,2.83023,2,2.88727,0,0,0
2.43852e+08,153.635,0,2.65733,20591.4,13228.4,-7500.86
2.43858e+08,127.106,2,3.01354,-7871.09,-10721.4,-5715.02
2.43958e+08,9.55456,2,2.85868,-986.82,-1463.6,-29976.4
2.44252e+08,2.26457,2,2.99223,216.427,-471.478,-28644.1
2.44376e+08,170.017,2,2.77649,-15433.6,-11635.6,-3950.13
2.44432e+08,39.1954,0,2.98292,39.0415,7344.62,-25072.3
2.44801e+08,2.13661,2,2.99474,252.069,117.379,-28533.7
2.44817e+08,31.0029,1,2.70563,-4704.53,-4498.93,-29361
2.44839e+08,22.824,2,2.70557,589.056,-3020.93,-25060.2
2.44845e+08,20.9233,0,2.72446,3458.66,-2886.45,-28698.5
2.44983e+08,49.7826,1,2.44482,443.219,4560.66,-19330.5
2.45083e+08,134.69,2,2.88768,-7467.33,-19162.1,-9316.56
2.45122e+08,49.5886,2,2.63828,-8259.48,1622.57,-22546.5
2.45278e+08,269.432,2,2.7717,25186.5,6868.85,1152.51
2.45637e+08,108.46,2,3.02406,-19580.4,-11501,-26538.2
2.46332e+08,61.968,2,2.48916,890.91,-10262.1,-20632.1
2.46593e+08,84.9167,0,3.03344,-8978.16,-8322.92,-15946.6
2.46677e+08,46.3338,2,2.39614,-8288.92,-401.212,-23501.3
2.46961e+08,24.6249,2,3.05918,-3163.73,-4050.09,-27673.2
2.47229e+08,290.304,2,2.60394,-24736.8,7475.35,26710.4
2.47284e+08,70.3339,2,2.51056,6284.79,-13335,-26325.7
2.47288e+08,100.842,0,2.59008,5950.26,6907.92,-9555.15
2.47428e+08,155.984,1,2.83909,22803.5,3390.26,-5522.79
2.47529e+08,3.76222,2,2.89629,-512.854,-704.07,-29091.7
2.48e+08,26.2138,0,2.48895,4566.46,606.779,-25647.8
2.48179e+08,190.284,1,2.99315,-10600.6,25468.1,68.3023
2.48937e+08,66.5132,1,2.79858,4627.03,12657.4,-24772.5
2.49462e+08,91.3265,2,2.69107,-5719.64,-5714.28,-11320.3
2.49569e+08,12.4925,0,2.55618,1805.71,-2012.7,-28432
2.49798e+08,30.0896,1,2.66254,291.116,2184.77,-24484.8
