#class tools::wcsv::ntuple
#title time
#separator 44
#vector_separator 59
#column double eventID
#column double t(ns)
#column double copynumber
#column double energy(eV)
#column double x(mm)
#column double y(mm)
#column double z(mm)
60980,84.588,0,2.82259,4111.64,14406.7,-19292.3
187965,123.389,1,2.63344,10325.5,4947.92,-19762.6
216436,47.919,1,3.043,-417.072,-4437.16,-19870.5
401500,70.5873,0,2.91317,14927.8,1024.53,-29398.8
556667,164.944,2,3.02573,18191.5,8548.64,-766.777
585744,64.8235,1,2.58757,6537.86,-420.452,-16831.2
678244,205.967,0,2.83717,12542,-11365.3,8815.53
754292,54.3112,0,2.90599,6134.52,-4813.03,-20422.2
848446,40.6634,1,2.73653,2372.88,6121.52,-23230.1
853611,181.979,2,2.8156,17508.6,29964.5,-13003.9
1.12176e+06,27.7122,0,2.65991,3650.11,-4150.02,-26660.6
1.23864e+06,136.997,2,2.78469,-7526.78,12680,-4087.98
1.26252e+06,65.2793,2,2.43147,-1110.81,-13928.5,-29500.5
1.42096e+06,6.61822,0,2.44421,381.018,-16.3056,-27463.3
1.51016e+06,162.236,1,2.95273,17378.2,4710.17,-22.9994
1.55388e+06,86.8906,1,2.47398,7493.51,5168.24,-12887
1.69722e+06,175.797,0,2.95238,14231.4,-5783,-11798
1.70545e+06,26.9981,1,2.74027,-2400.62,4804.82,-27586.3
1.82817e+06,8.49007,1,2.71918,-1157.05,-1120.02,-28124.6
0,8.39224,1,2.42089,0,0,0
1.87859e+06,14.7838,0,2.52338,2027.7,2131.69,-29174.9
2.01118e+06,150.045,1,2.39324,767.382,12230.8,452.524
2.15588e+06,20.481,2,2.47809,576.644,-1837.03,-24946.7
2.20331e+06,9.46591,0,3.00099,1633.44,-732.781,-29874.1
2.28214e+06,32.6359,1,3.00702,97.8549,5740.95,-25101.6
2.29566e+06,23.6929,1,2.4001,-2864.96,-3140.03,-26153.6
2.32748e+06,120.542,2,2.46534,5290.52,-18122.6,-11622.3
2.6174e+06,22.9191,1,2.47275,312.48,3343.02,-25259.3
2.69817e+06,17.5367,0,2.87747,3045.04,-2163.3,-29408
2.70656e+06,29.5762,0,2.53289,3746.28,-4384.88,-26727.2
2.73574e+06,69.1916,2,2.66297,-536.963,-9297.25,-17517.8
2.8121e+06,35.9484,0,2.624,4293.24,6178.92,-27568.2
2.8466e+06,71.4804,1,2.95321,6869.21,13243.6,-29849.1
2.84828e+06,78.943,1,3.00634,8557.29,13109.4,-23213.4
2.96028e+06,30.3627,0,2.43109,4921.34,4182,-28173
2.98719e+06,38.1486,0,2.91565,-2259.58,6086.81,-24234
3.04054e+06,48.601,1,2.38219,-105.501,-10141.7,-27796.3
3.08925e+06,16.1715,2,2.41612,-1055.54,-3363.92,-28351.6
3.15453e+06,159.95,2,3.01904,-28253.9,-17571.4,-24360.2
3.2139e+06,67.0776,0,3.00449,13148.2,-157.905,-23691.7
3.38487e+06,80.1952,2,2.80791,3321.62,-16559.1,-27807
3.40383e+06,42.394,1,2.47213,-3371.9,8288.03,-27387.7
3.53332e+06,21.6316,1,2.79798,80.0904,4553.18,-28205
3.72354e+06,33.2446,0,2.95375,6836.49,-1561.58,-27989.4
3.83831e+06,90.5654,1,2.67663,-36.0827,13180.4,-14903.9
4.02743e+06,15.8025,2,2.91636,-2771.41,-1529.51,-27765
4.03994e+06,35.5595,2,2.68918,-3686.16,-4223.6,-23741.1
4.07794e+06,198.59,1,2.39838,5595.01,17744.4,8872.22
4.13264e+06,24.6446,1,2.4906,-3761.62,-725.015,-25292.3
4.15049e+06,111.75,1,2.84516,-7215.96,-9793.92,-13414.6
4.17495e+06,130.455,2,2.72158,-20928,1153.04,-11140.1
4.25426e+06,50.5763,0,2.40011,7233.23,7994.24,-28740.4
4.30077e+06,10.4607,2,2.88998,-1162.4,1168.45,-27403.4
4.33474e+06,127.218,2,2.89812,-24091.6,-9545.82,-21970.4
4.40262e+06,4.58564,2,2.90251,-331.408,-1063.85,-28851.8
4.49016e+06,17.7485,0,2.98188,-75.035,3612.14,-28191.4
4.69702e+06,3.15675,1,2.58918,-507.23,110.895,-28307.3
0,3.21429,1,2.58632,0,0,0
0,3.16681,1,2.98187,0,0,0
4.88576e+06,27.8176,1,2.8025,-4254.01,-2587.93,-25825.9
4.8904e+06,143.25,0,3.02773,23794.3,4138.96,-10595.2
4.91773e+06,104.094,1,2.44125,7077.4,6539.93,-9212.36
4.92394e+06,13.9939,1,2.98047,-1115.99,2623.43,-27820.7
4.95625e+06,78.4033,2,2.69558,-15412.1,-6458.99,-27906.5
4.9787e+06,8.28484,0,2.9757,479.73,1654.68,-29234.5
5.02293e+06,155.528,1,2.51424,14392.1,20542.6,-7462.1
5.06466e+06,49.4164,2,2.68832,2772.68,-9557.77,-26225.1
5.09103e+06,40.6511,2,2.39801,-1316.35,-7582.36,-24844.5
5.15323e+06,26.6941,0,2.46503,5030.4,-1608.27,-26619.6
5.46485e+06,130.606,2,2.484,15123.4,-19998.9,-17266.9
5.4966e+06,17.0548,1,2.52097,-2971.44,354.446,-26783.7
5.50307e+06,156.095,1,2.40078,3538.07,25677.9,-8339.24
5.58109e+06,140.032,1,2.81018,-8839.3,27013.4,-20624.3
5.78957e+06,37.6926,2,2.55496,-2398.71,-4903.56,-23241
5.86869e+06,77.6282,0,2.71329,-11269.4,7730.74,-19644.4
5.87422e+06,7.30697,1,2.9477,-551.558,579.205,-27428.5
0,7.2894,1,2.60966,0,0,0
0,7.31441,1,2.69003,0,0,0
5.99438e+06,45.9898,2,2.4316,623.247,-7909.83,-22998.3
6.04455e+06,268.071,1,2.97772,6511.56,29287.7,14062.5
6.67806e+06,74.1555,0,2.85754,9014.84,-10698.2,-21731.6
6.83814e+06,61.5949,2,2.84599,-1850.03,-10126.8,-20840.3
6.8987e+06,23.4441,2,2.38623,-3070.71,-1370.26,-25108.4
7.05719e+06,57.6213,0,3.04672,4994.5,-10940.1,-27362.9
7.10629e+06,58.0868,0,2.58165,7313.76,-3007.17,-19415.9
7.15081e+06,178.765,0,2.58785,-9161.43,-19355.2,2311.33
7.2163e+06,42.7945,1,2.4179,-7422.44,1711.84,-23798.7
7.23939e+06,105.337,1,2.82223,-16205.6,-5872.83,-15004
7.32381e+06,20.2238,2,2.62604,-3735.19,1531.92,-27370.2
7.40032e+06,55.0189,2,2.71693,506.686,8960.34,-21548.1
7.48473e+06,37.9772,0,2.47106,-2428.63,6664.65,-25098.2
7.65539e+06,147.081,1,2.77333,-23264.8,7715.9,-16627.5
7.68873e+06,24.5747,0,2.38266,-3793.64,2049.15,-25968.8
7.7721e+06,7.07632,0,2.40046,601.98,712.087,-27474
7.92314e+06,87.3608,1,3.02303,8419.92,12548.1,-18343.8
8.12082e+06,21.9704,1,2.56891,3015.73,388.99,-25336.5
8.17071e+06,102.837,2,2.80331,11840.6,177.496,-10653.7
8.20587e+06,226.895,0,2.65742,-11436.8,19084.6,2548.94
8.23854e+06,63.6245,2,2.916,-4398.39,-12718.5,-28772
8.41119e+06,135.039,0,2.98016,4601.72,25182.9,-16952.6
8.43731e+06,28.2795,0,2.40433,5667.4,-1980.59,-27774.9
8.58104e+06,24.5681,2,2.77948,-5219.14,-136.952,-29353.1
8.88984e+06,123.285,0,2.60262,-8998.56,-24447.6,-28708.9
8.92802e+06,86.3511,1,2.68909,8517.85,-3255.63,-26431.7
8.98588e+06,195.434,2,2.53642,-14681,-2084.82,-25537.7
9.01421e+06,97.9279,0,2.69423,-7043.45,16874.3,-19287
9.14445e+06,75.3457,1,2.6724,-13740.1,1878.16,-20910.6
9.22461e+06,15.0725,0,3.02753,768.921,-1896.65,-26375.7
9.32048e+06,207.711,2,2.99002,20027.9,18187.9,480.44
9.49413e+06,181.137,2,2.73573,24263.1,23367.1,-11099.8
9.6123e+06,216.665,2,2.568,858.514,-23071.3,10736.2
9.63005e+06,67.7191,0,2.45213,4942.08,-8820.57,-18609.1
9.64452e+06,121.239,1,2.6778,10853.2,10392,-8090.91
9.77347e+06,47.843,2,2.63542,-7834.12,4560.38,-24461.7
9.96166e+06,55.2304,2,2.73927,6445.73,-6953.4,-22796.6
1.00974e+07,34.8118,0,2.71771,5124.12,4264.36,-25480.1
1.01079e+07,55.9046,2,2.44047,4519.53,7066.19,-20559.2
1.02969e+07,127.829,1,2.57724,11168.5,24472.1,-27504.9
1.03221e+07,119.729,2,2.73359,-11726.8,6400.9,-7401.96
1.03419e+07,45.5472,2,3.05805,1274.32,-7180.14,-22620.9
1.05405e+07,91.3867,1,2.91717,5832.66,1106.25,-24734.2
1.05989e+07,42.5914,1,2.88934,-8821.59,2310.2,-28892.7
1.06267e+07,44.4571,0,2.74937,8280.48,-696.275,-24995.5
1.06728e+07,47.1362,1,2.99089,-4089.09,-1049.33,-19876.3
1.07308e+07,37.8156,0,2.67167,-4521.67,935.324,-22448
1.07875e+07,37.3398,0,2.92005,1419.05,-4266.42,-27497
1.07899e+07,8.13435,2,2.47436,264.987,-1489.86,-29850
1.09047e+07,153.446,0,2.78916,17481.1,10152.9,-3668.48
1.09495e+07,6.76914,1,2.70062,1082.52,988.738,-28791.6
1.09877e+07,34.8342,2,2.80594,1906.83,-6380.12,-25617.9
1.10081e+07,97.2202,1,2.93562,7118.85,-5808.21,-10671.5
1.10343e+07,45.3828,2,2.50823,-7331.07,3986.31,-23891.3
1.1055e+07,129.031,1,3.01671,-6698.14,-17013.7,-9047.91
1.13131e+07,38.717,1,2.80773,1205.65,8112.92,-29124.9
1.13538e+07,21.773,2,2.78641,-1657.01,1597.76,-24837.8
1.13963e+07,51.6867,1,2.53789,5672.71,4742.6,-20875.5
1.14174e+07,65.179,1,2.61454,4343.57,12996.2,-26360.1
1.14281e+07,120.037,2,2.90851,-15248.3,-9009.81,-10733.4
1.1627e+07,40.3647,2,2.73309,-7502.5,3545.32,-26858.5
1.17851e+07,70.5701,0,2.45528,-8988.78,-3415.11,-17456
1.18368e+07,19.9389,0,2.37435,4335.54,171.13,-29005.4
1.21324e+07,37.1142,1,2.70877,2998.43,342.447,-21603.4
1.21377e+07,19.843,1,2.44101,-393.486,2772.88,-25735.3
1.21486e+07,136.363,0,2.76389,26259.1,-1784.65,-17090.4
1.24645e+07,33.9571,0,2.61709,640.507,5605.67,-24368.4
1.24947e+07,56.185,1,2.87218,-11336.2,3625.82,-28313.2
1.25356e+07,96.7926,1,2.92937,5053.02,8905.06,-11224
1.25591e+07,42.5559,0,3.0154,4314.77,-3650.96,-21677.4
1.29022e+07,8.90418,0,2.92275,-109.267,-993.273,-27204.1
1.30125e+07,46.1192,1,2.89923,-4149.96,8182.34,-25484.3
1.31213e+07,61.3261,0,2.7845,7935.75,-1742.18,-18967.7
1.33882e+07,15.7038,0,2.45745,1250.91,-2604.26,-27072.4
1.34732e+07,92.3733,0,2.58075,2799.07,5093.17,-19981.4
1.34766e+07,72.7351,2,2.59702,-10566.2,-11007.1,-26762.8
1.35455e+07,41.9816,0,2.48447,-2531.18,-4811.4,-21928.1
1.36545e+07,30.1037,1,2.38246,454.98,2868.45,-23109.8
1.36715e+07,116.741,2,2.45129,-21497.8,-9389.69,-20785.8
1.37357e+07,83.4391,2,2.36366,-7488.76,-16104,-28252.5
1.38647e+07,78.7342,1,2.38901,5506.93,-10901.6,-17465.9
1.4073e+07,55.9307,2,3.0172,-9919.39,3825.39,-23914
1.40968e+07,99.3861,0,2.65139,-9025.63,-6511.77,-11116.7
1.41517e+07,2.99628,1,2.49467,91.4478,-404.746,-28377.8
1.4276e+07,53.6859,0,2.66708,4503.5,-9073.47,-24011.4
1.43998e+07,72.2512,0,2.7538,9653.9,1613.97,-17551.6
1.44048e+07,101.065,0,2.91813,7123.64,-12014.3,-12732
1.44245e+07,57.2187,2,3.03676,4320.64,8544.36,-21682.1
1.44392e+07,12.916,1,2.48319,-172.139,2812.93,-29167.6
1.45351e+07,7.96906,0,2.75519,-91.6255,-1227.34,-27645.9
1.4592e+07,25.7767,0,2.71971,-2115.53,4178.51,-26143
1.46704e+07,119.457,1,2.72264,652.179,25206.6,-26833.7
1.46737e+07,169.72,1,2.38671,-4676.42,26140.5,-4809.65
1.47477e+07,120.526,2,2.52964,16294.7,3868.97,-9695.34
1.47536e+07,128.042,1,2.39578,-20456.9,-2383.72,-11135.8
1.48856e+07,231.584,2,2.96653,-14647.2,-19481.3,13180.8
1.50145e+07,207.541,1,2.89203,-29605.8,-11081.8,1153.68
1.50981e+07,111.701,2,2.38938,15129.4,8108.44,-12674.2
1.51773e+07,15.838,0,2.69614,3353.63,568.957,-28759.1
1.53007e+07,194.203,1,2.614,-22566,2150.69,5396.89
1.53551e+07,106.974,0,2.6608,14626.8,-16643,-24132.7
1.53695e+07,93.1699,0,2.85054,8605.72,-2559.28,-11337.2
1.54614e+07,7.64902,2,2.52025,773.69,76.6443,-27416.6
1.57895e+07,43.9485,1,2.80451,-5254.46,1265.59,-21238.7
1.60809e+07,14.8262,0,2.69341,2201.66,2139.7,-29448.4
1.60866e+07,101.819,2,2.65091,10995.2,8143.82,-12247.8
1.61119e+07,167.805,1,2.57649,16314.2,20560.9,-4965.36
1.62973e+07,98.9888,2,2.91789,-7459.91,-9961.93,-12156.7
1.65307e+07,40.2196,2,2.99999,-2352.01,-6836.4,-24276.5
1.66e+07,138.187,2,2.44649,19585.9,11202.6,-10279.8
1.67265e+07,118.115,2,2.74781,5178.16,-22798.5,-20187.9
1.67324e+07,41.6013,2,2.46816,5737.1,687.497,-22572.7
1.6997e+07,92.9867,1,2.71559,-6797.14,12713.8,-15598.6
1.70338e+07,111.679,2,2.82413,-6102.19,-13523.9,-10496.9
1.71165e+07,159.333,0,2.66547,-24338.4,17885.7,-14518.7
1.71226e+07,175.999,1,2.46469,-18239.2,-4138.63,3415.95
1.71535e+07,130.335,2,2.81607,-16715.9,-19573.5,-19014.8
1.73303e+07,160.002,2,2.75964,-21980.7,-3110.09,-3299.66
1.74568e+07,117.287,0,2.7703,-3527.24,19257.5,-27200.8
1.74914e+07,16.7477,1,2.59184,-2150.42,2399.76,-27090.9
1.75603e+07,32.7285,1,2.96807,-1176.86,6882.42,-29075.8
1.7583e+07,35.182,0,2.39365,4800.69,4799.46,-25618.6
1.7632e+07,117.72,2,2.60444,-7217.04,-10332.1,-7317.78
1.77596e+07,263.709,1,2.40621,-468.205,42.5563,-28231.5
1.77622e+07,42.3185,2,2.94339,-5628.17,-6189.54,-25709.8
1.7863e+07,215.119,1,2.86675,-20660.3,-23172.2,-1186.96
1.78764e+07,29.5624,1,2.53361,4794.4,-2124.23,-25492.8
1.79618e+07,58.269,0,2.5097,-4754.19,-10658,-24400.3
1.79874e+07,181.836,2,2.92402,-9548.7,11096.3,-16552.5
1.81162e+07,168.98,2,2.81704,-18575.3,-25924.3,-12949.8
1.8121e+07,92.4294,1,2.46012,-18797.1,5357.11,-28673.9
1.82066e+07,163.298,2,2.98583,10186.1,-20455.2,-3377.76
1.83536e+07,254.84,0,2.70286,-28899.8,-22897.2,-15528.3
1.85353e+07,98.5874,0,2.9223,9913.5,-5848.67,-12650
1.86191e+07,35.4449,0,2.66932,-260.933,-1493.43,-27910.6
1.86848e+07,42.9669,0,2.74041,2253.45,3868.02,-20950.7
1.86923e+07,30.6275,2,2.55751,4347.19,-2540.1,-24684.8
1.87087e+07,46.9087,1,2.73175,6952.86,5497.4,-24436.4
1.88789e+07,44.6666,2,2.87851,-2949.45,4793.14,-21424
1.89324e+07,84.7522,1,2.85197,6539.93,9139.55,-14819.7
1.90038e+07,22.3502,2,2.96838,-396.53,4587.14,-27980.9
1.90783e+07,114.75,1,2.63309,-4546.1,23292.6,-23793
1.90881e+07,21.3898,0,2.56513,4332.64,1532.77,-29019.6
1.91627e+07,20.0102,0,2.64226,3531.39,-2557.8,-28878.1
1.91953e+07,15.0701,0,2.90639,2173.17,2407.09,-28578.1
1.95967e+07,3.58826,1,2.87396,296.048,753.552,-28957.1
0,3.58827,1,2.45096,0,0,0
0,3.61367,1,2.46108,0,0,0
1.97091e+07,191.006,1,2.53425,-22528.2,-11052.4,2725.91
2.01003e+07,3.90319,1,2.72651,-255.334,676.088,-28375.6
2.02972e+07,98.4283,0,2.37097,-20490,-968.923,-25426.6
2.03427e+07,14.394,2,3.05167,-2583.29,897.69,-27902.3
2.05845e+07,34.8378,0,2.48337,6494.68,-2489.27,-26314.4
2.06091e+07,72.8373,1,2.78296,-9958.87,3438.97,-17720.3
2.06572e+07,47.0485,0,2.56439,9421.57,2715.83,-27468.1
2.07142e+07,41.7528,0,2.96573,-1239.51,-6849.8,-23453.6
2.08989e+07,214.339,0,2.42649,14577.9,6026.91,13688.5
2.09016e+07,71.7299,0,2.58177,-8782.93,11849.9,-25216.8
2.11315e+07,133.028,1,2.70343,-21981.5,4230.46,-11906.8
2.15822e+07,34.1211,0,2.77884,-5768.72,2052.09,-25160.8
2.16147e+07,17.3872,0,2.86869,3483.7,-1392.04,-28747.3
2.17709e+07,168.567,0,2.41223,7626.67,-7448.51,5231.01
2.1792e+07,139.831,0,3.0298,15331.9,6088.48,-4567.49
2.1992e+07,76.5268,0,2.91346,-12823.2,-3614.41,-21446.5
2.20035e+07,144.38,2,2.87255,22764.4,-7720.9,-10287.4
2.20861e+07,97.2714,0,2.66749,5022.89,-13189.1,-14024.8
2.2128e+07,197.945,2,2.75085,8442.84,24981.5,3323.96
2.21515e+07,6.20833,1,2.63041,1205.46,450.943,-28532
2.22143e+07,70.9495,1,2.52721,7080.29,-7491.9,-18178.3
2.22248e+07,61.3289,0,2.99409,4891.68,4700.98,-20169.7
2.22422e+07,193.821,2,2.59948,-9801.64,-8246.78,-11698.9
2.22431e+07,9.77288,0,2.55303,-1147.56,-1655.56,-28630.8
2.23592e+07,4.02897,0,3.05126,-591.454,-289.982,-28482.1
2.24518e+07,132.477,0,2.73905,-26434.9,-3365.19,-20269.2
2.27334e+07,7.88306,2,2.82069,546.195,-1540.19,-28250.7
0,7.88524,2,2.89889,0,0,0
2.28211e+07,4.24643,2,2.71197,-949.258,267.856,-28873.7
2.29446e+07,69.5096,0,2.42151,5710.8,11505.6,-21548.6
2.30141e+07,9.94759,2,2.96074,1952.38,125.392,-28162.7
2.30916e+07,176.975,0,2.83143,-28507.4,22967.6,-22341.1
2.31199e+07,309.185,0,2.74236,-24031,-29906,23785.1
2.31524e+07,21.6303,2,2.59206,-2715.63,49.4424,-25095.3
2.31976e+07,17.5668,0,2.81894,2751.58,2387.87,-27817.4
2.32357e+07,40.3619,1,2.44165,-1571.4,2504.69,-29918.9
2.32653e+07,159.42,2,2.8741,18782.7,-24287.2,-15534.8
2.3278e+07,135.5,1,2.53254,2014.53,807.92,-26003.6
2.33268e+07,111.549,0,2.96911,16922.2,1936.07,-19310.6
2.33836e+07,274.746,0,2.90158,17849.5,23389.9,19925.5
2.34563e+07,96.6781,0,2.71933,5871.4,-2658.32,-18274.1
2.34842e+07,1.33939,0,2.39901,130.468,15.3587,-28531.9
0,1.32836,0,2.62973,0,0,0
0,1.31137,0,3.0146,0,0,0
2.34927e+07,67.8255,2,2.8712,1321.5,-13948.9,-26390.1
2.35395e+07,41.946,2,2.81732,-8810.94,-952.024,-29255.8
2.35685e+07,21.1094,2,2.50253,-2415.5,3301.3,-27030.4
2.38874e+07,30.652,0,2.55622,-743.52,6532.57,-29311.6
2.39973e+07,78.3408,2,2.54921,-16362,-2600.18,-27238
2.40836e+07,92.5055,2,2.77793,-8712.2,7558.56,-13141.3
2.41588e+07,36.1275,0,2.40168,2996.34,1922.28,-22051.7
2.42893e+07,115.968,2,2.67822,-7415.81,-13959.3,-10096.1
2.43892e+07,112.56,2,2.46613,9485.1,-15783.2,-13690
2.46348e+07,160.262,0,2.47801,25410.3,668.075,-6368.08
2.46636e+07,69.2368,1,2.52457,-9912.11,-4798.38,-19224.3
2.48109e+07,37.5112,0,2.65525,6359,4947.72,-28783.1
2.48377e+07,18.582,2,2.77196,-787.446,-1618.52,-25321.6
2.48861e+07,73.5443,1,2.76312,-142.438,5809.93,-14412.7
2.4887e+07,20.9175,2,2.69408,-2347.53,3372.25,-27292.3
2.49526e+07,255.859,0,2.80073,11744.2,28139.1,15748.9
2.50573e+07,145.278,2,2.89521,16476.4,25086.4,-23856.3
2.51738e+07,139.659,2,2.38692,-538.347,-24759.2,-12868.4
2.5262e+07,105.412,2,3.00915,9262.43,16234.3,-17313.3
2.55081e+07,22.5109,1,2.86501,-1391.89,3099.29,-25782.8
2.55197e+07,17.0504,0,2.85793,3423.72,1097.31,-29189.3
2.55732e+07,67.0634,0,3.05103,7189.21,43.6436,-23061.7
2.56277e+07,16.2915,1,2.80334,-3210.08,106.749,-27620.5
2.56485e+07,30.5439,2,2.40842,5153.13,-1641.34,-25291.8
2.57687e+07,5.08038,0,2.6459,963.779,-675.128,-28864.9
2.5796e+07,71.3968,0,2.45965,8025.38,-12227.8,-24836.8
2.59893e+07,8.67272,1,3.03118,-1827.12,-416.463,-28690.6
2.6039e+07,1.66021,0,2.6269,449.201,297.133,-28707.7
2.60851e+07,32.8655,2,2.66975,-3349.46,-5956.26,-27434.8
2.61546e+07,35.7624,1,2.51268,2561.03,-6750.31,-26755.1
2.6166e+07,40.8022,0,2.42762,2603.05,7326.74,-24926
2.63251e+07,21.6333,0,2.82624,-1078.68,-4440.01,-28452
2.63422e+07,94.8022,0,2.65549,-8703.37,13386.7,-17005.1
2.6437e+07,33.713,0,3.00917,-5166.25,3805.3,-25994.4
2.64421e+07,113.78,0,2.71612,-11047.8,13730.8,-12631.4
2.64538e+07,145.505,1,2.4406,-7591.14,14754.9,-2871.23
2.64904e+07,21.8587,0,2.90682,1001.68,3672.34,-26200.5
2.6971e+07,71.0814,0,2.51961,14749.6,3389.16,-28006.1
2.70426e+07,28.6023,2,2.50356,-150.713,3822.57,-24232.9
2.71553e+07,77.5757,1,2.93452,-3730.22,7062.05,-14665.6
2.72353e+07,88.2435,0,2.40214,-11307.3,11163.1,-19328.5
2.73481e+07,90.1805,1,2.72901,12526.1,4567.52,-15501.1
2.74263e+07,145.19,1,2.39318,-6827.69,21811.2,-8301.49
2.76264e+07,76.0994,0,2.40224,1918.84,-11709.1,-17887.9
2.80315e+07,140.265,1,2.39888,-15121.6,23780,-19060.8
2.81111e+07,21.1488,2,3.05526,427.655,-3559.52,-26108.2
2.81156e+07,7.27783,2,2.7396,-891.973,-1216.22,-28413.2
0,7.73269,1,2.7331,0,0,0
2.82232e+07,23.7943,0,2.78718,1941.11,-1379.22,-24466.8
2.83524e+07,19.8411,0,2.68092,3268.27,-417.336,-26125.6
0,19.8821,0,2.50004,0,0,0
2.83575e+07,85.8421,0,2.43145,17122.7,-2248.75,-23086.2
2.83955e+07,146.911,0,2.61396,5257.03,-20130.9,-7205.93
2.84148e+07,94.7264,1,2.40823,8842.79,2982.72,-11099.4
2.85274e+07,2.92824,1,2.62637,380.823,379.776,-28539.5
0,2.93803,1,2.95639,0,0,0
0,2.91204,1,3.02906,0,0,0
2.85897e+07,6.11964,0,2.81129,714.441,-611.21,-27752.3
2.85923e+07,139.814,0,2.88725,8425.1,-11332.6,-9668.44
2.87985e+07,112.109,2,2.76354,16252.6,1676.53,-11811.3
2.88883e+07,15.1963,2,2.66975,2221.25,-1791.64,-27241.6
2.89304e+07,108.888,2,2.62624,-1289.87,20617.9,-18827.1
2.92216e+07,39.3701,0,2.90807,7076.57,-2417.93,-25918.6
2.92429e+07,25.9149,2,2.39505,-1753.96,3784.28,-25348.7
2.93951e+07,100.159,2,2.72754,-7375.23,5509.18,-9875.76
2.98834e+07,14.8195,1,2.37699,-1453.35,2791.47,-28618.3
2.99024e+07,90.0991,1,2.39806,-6660.95,-13260.6,-17037.5
