#class tools::wcsv::ntuple
#title time
#separator 44
#vector_separator 59
#column double eventID
#column double t(ns)
#column double copynumber
#column double energy(eV)
#column double x(mm)
#column double y(mm)
#column double z(mm)
57077,51.9969,0,2.69289,10688.4,-1321.71,-26321.9
139338,76.6361,0,2.36277,13523.9,4704.58,-21022.9
255689,114.936,2,2.91161,20436.9,-3894.12,-16689.6
601199,4.24911,2,2.76091,-617.184,-648.379,-28412
984397,27.3955,1,2.37369,-3284.61,4908.66,-29109.2
1.40236e+06,8.28387,1,2.41397,-156.432,-1438.61,-27951.2
1.52279e+06,51.0316,0,2.85957,10749.3,1184.09,-28204.6
1.712e+06,111.203,2,3.01054,-11884,-6874.35,-9964.23
2.03429e+06,21.2914,1,3.05186,2690.79,-16.1068,-25292.3
2.13401e+06,105.714,0,2.96793,9580.02,-9807.89,-14884.9
2.15337e+06,60.2004,2,2.83112,-1349.25,-8010.76,-19048.3
2.33717e+06,30.3346,2,2.36629,3714.21,523.817,-23687.5
2.66494e+06,22.9149,0,2.39828,1595.07,3331.33,-25634.2
2.72913e+06,129.598,1,2.74517,-26018,-7308.69,-24808.7
2.89051e+06,12.549,0,2.53522,-127.115,-2337.73,-27563.3
0,12.545,0,2.79692,0,0,0
2.97021e+06,44.199,2,2.73846,1093.65,-8321.83,-24617.6
3.01685e+06,17.9492,0,3.01991,-1219.2,939.823,-25420.3
3.33103e+06,41.1575,2,2.45903,-203.94,-7709.55,-24671
3.38691e+06,13.8683,2,3.04517,853.121,-2317,-27178.8
3.795e+06,185.825,0,2.6359,14089.7,-15631.7,4304.74
3.89382e+06,27.5548,2,2.66911,-4184.58,3996.12,-28151.2
4.35418e+06,7.39451,2,2.68188,-978.605,805.548,-27888
4.51791e+06,1.29943,2,2.96897,177.595,-55.3716,-28674.5
4.67857e+06,203.398,1,3.00878,6989.09,14079.2,-28424.8
4.99197e+06,137.754,1,2.55351,-6032.53,26712.8,-18672.3
5.10196e+06,135.862,1,2.75468,12014.3,25305,-22771.2
5.5087e+06,40.9095,2,2.8749,5982.65,502.944,-22691.1
5.983e+06,28.6721,1,2.95443,310.417,6101.21,-28460.8
6.71503e+06,82.6621,1,2.80725,-5238.46,-8509.31,-14596.9
6.88886e+06,15.9857,0,2.79162,3429.58,-137.275,-29408.9
7.14648e+06,17.1495,1,2.64008,-504.758,1830.05,-25694.7
7.31248e+06,29.7004,2,2.69959,1092.22,-3976.09,-24051.5
7.5631e+06,40.5669,1,2.61665,6544.1,1413.41,-23501.6
7.75708e+06,104.038,0,2.36533,3235.43,21517.3,-25361.1
7.80886e+06,61.4154,1,2.98224,-5721.73,-2967.54,-17846.3
7.81496e+06,145.403,0,2.86737,-7298.23,17525,-7448.34
7.92324e+06,10.7173,0,3.03831,-353.24,-1291.51,-27018.3
7.97995e+06,192.932,0,3.05155,16075.8,-9685.79,6873.29
8.1406e+06,21.9742,2,2.91307,-3259.81,-3401.62,-28816.3
8.27697e+06,6.19998,1,2.83192,-1143.43,523.077,-28246.4
8.38536e+06,217.205,0,2.82266,3029.39,801.394,-28101.8
8.38638e+06,26.0914,2,2.81491,-1244.19,2138.56,-23962
8.40378e+06,17.6662,2,2.36632,388.211,2610.55,-26268.1
8.58397e+06,109.718,2,2.87219,14663.6,17304.8,-25178.1
9.04763e+06,11.4317,0,2.64954,-528.84,2205.03,-28001.9
9.09935e+06,16.3471,1,3.04454,729.003,-2596.63,-26793.4
9.12186e+06,3.60228,1,2.55235,409.018,213.251,-28197
9.39435e+06,29.8666,2,2.75868,-4041.05,-560.23,-23970.8
9.48859e+06,12.8201,1,2.87017,-1038.15,-1291.91,-26738.2
9.88272e+06,102.254,1,2.91522,5883.9,20328.6,-24845.4
1.01568e+07,53.7113,2,3.00729,1840.69,-10953.1,-26724.4
1.02327e+07,54.269,1,2.86519,-5050.48,5720.67,-20257.7
1.03346e+07,14.9795,0,2.75747,-2057.96,-2340.18,-28887.7
1.03384e+07,219.114,0,2.79002,10862.8,7640.42,15179.8
1.05446e+07,50.4625,0,2.55192,2838.98,-9436.87,-24685.2
1.07654e+07,24.2423,2,2.85565,-2381.78,-4536.17,-27932.9
1.08038e+07,126.077,1,2.77217,-16150,20836.9,-25328.8
1.10093e+07,174.393,2,3.05488,24725.8,-7093.74,-2925.09
1.11489e+07,1.80005,0,2.47815,255.722,197.906,-28573.9
1.11801e+07,99.0201,1,2.91656,-20294.6,4576.57,-27498.4
1.13135e+07,44.9647,1,2.78329,3682.53,8720.38,-27696.2
1.17568e+07,9.3795,2,2.66883,-1614.1,-1228,-28423.8
1.1757e+07,6.75071,1,2.99163,792.403,28.5275,-27684.4
1.19482e+07,6.75788,0,3.05406,843.735,-16.6823,-27612.8
1.20481e+07,16.9345,2,2.87961,-913.044,2897.39,-27060.5
1.26706e+07,100.874,1,2.58848,-17752.9,-8338.25,-20463.7
1.32828e+07,23.9905,1,2.42361,-4941.18,1065.26,-29752
1.35122e+07,10.4794,0,2.53167,1360.43,-1625.32,-28002.6
1.37295e+07,161.357,2,3.05284,-14078.9,-18678.5,-4374.48
1.37382e+07,36.2528,0,2.71083,3524.79,-1793.01,-22233.5
1.38538e+07,89.951,2,2.72174,349.607,-10058.5,-12713.6
1.39033e+07,225.776,1,2.74975,11993.6,24512,10141.1
1.39061e+07,139.785,1,2.70311,-9879.07,17276.6,-7021.07
1.40583e+07,66.9128,0,2.71198,12180,-6565.16,-25680.7
1.41592e+07,37.5379,0,2.99274,5447.2,844.669,-23126.6
1.43934e+07,225.197,1,2.37926,-14988,26161.7,8130.74
1.44966e+07,105.442,1,2.883,-12955.7,-13405.9,-16886.7
1.48889e+07,15.1597,1,3.01002,-1295.98,-1000.1,-26108.2
1.50917e+07,74.1151,2,2.92155,2178.81,-8733.79,-16124.4
1.53236e+07,140.517,1,2.82153,514.884,14319.8,-2938.85
1.53509e+07,120.831,2,2.48054,-14370.1,-6065.21,-8533.89
1.53948e+07,29.3467,2,2.45838,-3669.95,-4486.44,-26643
1.55276e+07,119.669,2,2.83554,7816.67,-23255.2,-22980.5
1.55907e+07,47.4558,1,2.59465,-5725.33,-8198,-28754.4
1.56168e+07,121.599,2,2.68951,678.703,-20066.8,-12791.3
1.57714e+07,35.6707,0,2.92223,7166.68,2492.29,-29253.1
1.57977e+07,19.5827,1,2.40437,201.439,3146.04,-26036.2
1.5872e+07,123.549,2,2.84902,4082.25,-25033.6,-22957
1.59622e+07,79.4254,2,2.65944,-7403.04,14761.8,-26120.9
1.63453e+07,60.5906,1,2.74569,4683.79,8513.96,-20477.1
1.6366e+07,146.64,2,2.97255,-28193.8,11680.3,-24992.4
1.68255e+07,88.9173,1,2.83278,-16925.6,-4455.8,-22230.2
1.7114e+07,69.8594,1,2.43649,-2054.42,-11663,-20050.6
1.72431e+07,60.2728,1,2.46074,3322.81,-11213.5,-23949.3
1.74045e+07,31.7568,1,2.51792,-4881.21,4664.39,-27853
1.75614e+07,42.0142,2,2.62288,3836.6,-3610.62,-21655
1.80122e+07,2.56069,2,2.48349,-264.674,-500.54,-28604.7
1.81569e+07,21.4909,0,2.76438,1503.67,-764.776,-24598.3
1.82509e+07,136.302,2,2.8218,-23380.2,-1365.56,-12209.3
1.83129e+07,92.5641,2,2.6495,-12482.4,-14897.6,-25999
1.88366e+07,133.744,0,2.64712,18147.1,11090.5,-10301.8
1.90986e+07,149.466,2,2.44919,23029.9,-10712.9,-10041.1
1.9107e+07,55.2176,0,2.37771,7348.66,7958.78,-24320
1.92326e+07,31.1893,2,2.68478,4812.54,-4341.15,-27437.2
1.97152e+07,239.333,2,2.38823,15643,-16036.4,16523.3
1.99036e+07,124.767,2,2.39065,-23954.7,-9578.65,-22919.9
2.01769e+07,3.80959,2,2.65207,139.111,-861.974,-28723.6
2.02756e+07,39.3794,0,2.60271,6884.54,-4486.71,-27010.2
2.05188e+07,3.37832,1,2.51411,-259.84,-458.087,-28372.2
0,2.91863,2,2.59382,0,0,0
2.05917e+07,108.388,1,2.98113,3068.95,-16545.8,-13626.8
2.0783e+07,25.1505,1,2.9867,-2951.72,332.511,-24436
2.09291e+07,11.6564,1,2.7394,-214.433,1944.44,-27213
0,11.7493,1,3.0142,0,0,0
2.10692e+07,124.338,1,2.82927,12147.2,-15884.8,-12106.9
2.13211e+07,9.1695,2,2.46205,888.754,-1397.96,-27718.4
0,9.30888,2,2.98393,0,0,0
2.14105e+07,6.38566,1,2.70383,-944.206,1058.28,-29136.9
2.14361e+07,6.75097,2,2.66566,95.2153,611.904,-27561.8
2.24024e+07,33.2298,1,2.96742,-2115.93,1654.89,-22374.2
2.24452e+07,20.6778,0,3.04696,3346.04,-424.396,-25992.6
0,20.6629,0,2.98891,0,0,0
2.25462e+07,76.5421,0,3.00484,3863.32,-15620.8,-29284.1
2.26303e+07,124.529,2,3.03418,12041,-4102.17,-6084.56
2.27228e+07,39.6535,2,2.37798,-840.276,-6797.93,-23839
2.27364e+07,111.269,1,2.87743,-9827.23,-18338.8,-18205.2
2.281e+07,104.534,0,2.63042,-5267.83,21150.7,-25326.5
2.31425e+07,29.0105,2,2.6851,1167.3,-2570.04,-23363.7
2.31486e+07,159.817,0,3.03193,17581.2,19562.2,-8031.12
2.33151e+07,174.772,2,2.78978,-23825.6,-3206.75,-941.625
2.33428e+07,50.0992,2,2.83445,7261.73,-4028.78,-23011.4
2.33615e+07,52.8632,2,2.89448,-532.261,9889.15,-23908
2.33788e+07,35.0539,2,2.93588,4317.15,-1273.48,-23022.7
2.3467e+07,24.4525,2,2.49142,4087.02,2307.15,-26741.9
2.34875e+07,61.5602,1,2.42424,155.094,10555.5,-21068.1
2.36506e+07,57.2094,2,2.50639,-11104.1,4682,-27372.6
2.37787e+07,103.956,0,2.70492,1927.43,10028.9,-9435.02
2.37871e+07,39.7711,2,2.57123,-6336.67,-4374.05,-25284.3
2.41881e+07,13.7531,0,2.47571,-1969.68,1547.68,-27392
2.42507e+07,84.5069,0,2.89794,8211.93,-9135.36,-15947.1
2.4328e+07,49.5667,0,2.82119,1681.6,10296.1,-28038.2
2.45135e+07,91.9739,0,2.59779,8212.34,16881.6,-23719.9
2.46423e+07,159.196,0,2.99278,-21286,-11293.8,-5787.64
2.48726e+07,4.18353,1,3.03618,-383.797,610.542,-29471.8
2.52381e+07,46.5995,2,2.69208,-4133.19,-1664.74,-20696
2.5414e+07,79.0607,2,2.74013,-7299.23,2556.77,-14098.1
2.54355e+07,58.2639,0,2.75102,4694.61,6432.01,-19432.2
2.5437e+07,48.2863,2,2.72274,206.386,-355.855,-28474.4
2.56908e+07,53.3034,0,2.50577,-10563.2,2311.22,-25888.7
2.57447e+07,187.526,2,2.90208,-12616.5,-20056.9,2675.17
2.57924e+07,115.749,2,2.87672,-20428.7,-13318.4,-28298.4
2.59714e+07,12.3964,0,2.68598,1458.69,-1377.77,-27097.9
2.61599e+07,39.52,1,2.92651,-3393.43,-1096.75,-27636.9
2.6264e+07,22.8877,0,2.82807,3537.85,-2860.06,-27064.6
2.63735e+07,116.176,0,2.46622,4720.34,-21679.9,-18215.3
2.64206e+07,35.2523,1,2.5245,-5427.76,-4545.75,-26486.8
2.68285e+07,36.5207,0,3.00548,2563.65,1199.12,-21670
2.70671e+07,48.5748,1,2.86507,-5535.64,1677.59,-20374.1
2.71826e+07,155.627,1,2.36512,-13129.9,-19262.5,-5635.26
2.74262e+07,95.7725,0,2.49558,16716.6,-11194.9,-25942.5
2.77961e+07,17.5848,1,2.54978,-493.567,-3088.36,-26897.4
2.77973e+07,39.0406,1,3.02712,-2809.84,7750.13,-27935.7
2.81384e+07,157.112,1,2.41398,-6960.18,-20864.9,-3970.77
2.81903e+07,83.5199,1,2.37476,5290.71,-14679.8,-20660.7
2.82264e+07,85.9892,1,2.90571,-7650.2,356.75,-12492.1
2.83088e+07,14.1636,2,2.96087,-2787.69,-1244.72,-28895
2.85376e+07,217.614,0,2.88552,25314.4,16556.7,5480.72
2.8733e+07,2.14386,0,2.93862,337.484,-424.739,-28860.2
2.89015e+07,139.892,1,2.42487,1530.16,11903.1,-1755.06
2.90929e+07,41.3816,1,2.96704,-1242.39,-6941.96,-23812.6
2.94849e+07,105.448,2,2.42004,20732.3,-7413.37,-25144.3
2.98823e+07,40.3425,0,2.76858,2675.04,2851.08,-21244.3
3.04795e+07,40.5201,1,2.73766,1328.85,-7323.99,-25578.4
3.05409e+07,30.969,2,2.8338,1196.8,3297.3,-23405.8
3.06917e+07,93.4579,1,2.36701,-9510.48,9938.86,-14543.7
3.08092e+07,124.352,1,2.37094,-55.0326,13902.4,-15201.7
3.09562e+07,20.6914,1,2.65685,-545.184,2710.87,-25376.8
3.12105e+07,94.2637,0,2.41539,18130,3953.66,-21305.7
3.23255e+07,126.754,1,3.0005,-17093.8,-1804.56,-8578.49
3.24461e+07,27.6827,0,2.51133,765.831,-3956.78,-24563.2
3.25628e+07,27.5671,0,2.52762,4556.89,-2310.62,-25892.1
3.26069e+07,122.693,2,2.77956,12372.4,-20726.7,-23762.5
3.4534e+07,59.4838,0,2.73036,-914.4,-12097,-25585.2
3.46888e+07,24.3169,2,2.95323,3294.88,-3976.53,-28659.3
3.50133e+07,14.6331,2,2.36932,-1495.04,54.0958,-26076.1
3.52614e+07,12.4579,0,2.78231,-1791.43,-1113.51,-27346.2
3.58414e+07,32.2403,1,2.97543,-6441.66,2129.8,-28067.3
3.65249e+07,82.016,2,2.77262,-15690.3,7223.49,-29758.4
3.69404e+07,19.565,2,3.02359,3932.86,235.972,-27855.9
3.70204e+07,25.913,1,3.0219,-2166.28,-4780.64,-27493.3
3.70424e+07,218.768,2,2.97558,28280.4,13201.4,-15853.5
3.78483e+07,187.287,2,3.00806,26775.3,-14731.3,-4254.33
3.7921e+07,20.9162,2,2.93269,-2739.37,649.654,-25408.6
3.8103e+07,1.89711,1,2.47711,-343.616,378.167,-28869.9
3.82505e+07,85.6343,0,2.89498,10089.8,-1228.99,-13939.2
3.82996e+07,72.8492,0,2.82966,-3669.12,12797.5,-21247.8
3.84668e+07,127.792,2,2.51262,-3313.04,465.216,-4731.4
3.84814e+07,15.0147,1,2.37868,2735.11,1143.52,-29205.8
3.85415e+07,74.9693,2,2.80966,12566.9,-9432.78,-27286
3.88002e+07,17.2903,0,2.41206,2232.82,-1477.96,-26240.4
3.92821e+07,68.6879,1,2.84182,-1023.11,1749.87,-29260.2
3.93478e+07,189.256,0,2.92806,-21778.1,4968.8,3958.78
3.94894e+07,6.38371,2,2.99823,-974.687,-1014.37,-29210.3
3.98887e+07,157.768,1,3.01011,-21209,25074.5,-24310.7
4.02219e+07,26.9555,1,2.39106,5227.43,1780.9,-27417.1
4.03368e+07,0.0620876,2,2.78517,-60.3355,-111.159,-28827.8
0,0.0629587,2,3.77156,0,0,0
0,0.0640477,2,3.06636,0,0,0
4.06445e+07,15.6436,2,2.77947,-2549.05,-54.1809,-26671.7
4.07855e+07,68.2267,2,2.72099,-11530.8,-3933.97,-21060.5
4.08526e+07,66.9587,1,2.896,-13548.9,-1546.66,-25171.2
4.09379e+07,109.398,1,2.60378,-8385.6,14450.6,-12769.5
4.12176e+07,69.6554,0,2.67122,998.527,-12050.7,-20470.1
4.17134e+07,164.864,1,3.01954,8825.04,20312.8,-2313.74
4.25714e+07,33.9824,0,3.02268,1422.35,5228.14,-24152.5
4.27668e+07,14.6888,1,2.81803,1856.31,1377.6,-26731.1
4.27893e+07,5.3489,0,2.96361,790.901,-887.507,-28592.9
4.29804e+07,57.7956,1,3.00289,-5023.09,10550.6,-25270.3
4.30003e+07,61.2904,2,2.93205,-11027.5,-6771.41,-27923.9
4.31996e+07,91.7922,2,2.48996,4414.24,10313.4,-13027.3
4.33051e+07,5.20989,0,3.01164,783.746,-142.383,-27984.9
4.3446e+07,89.0822,1,2.67653,-14752.3,-9282.98,-21861.5
4.35248e+07,23.9989,0,3.05048,4149.1,354.965,-25879
4.36469e+07,27.2858,0,2.91673,4885.83,2462.93,-26845.9
4.36807e+07,149.884,1,2.57837,-12501.1,25129,-13975.3
4.38934e+07,59.0054,0,2.76827,-8381.51,832.602,-19748.9
4.41969e+07,80.594,2,2.79676,-12729.1,-332.071,-17628.6
4.42568e+07,102.619,0,2.58456,16390,11224.3,-20045.4
4.45741e+07,16.8266,0,2.75366,1605.45,-190.623,-25622.3
4.46262e+07,187.825,0,3.01691,5476.4,-22428.8,3009.28
4.46456e+07,281.894,0,2.81601,-193.722,25244.9,24811
4.51001e+07,83.2681,0,2.50846,13268,-11695,-29309.2
4.53112e+07,29.4597,2,2.7982,-4558.87,1311.23,-24808.6
4.5465e+07,13.1117,1,2.63038,-1581.74,1211.96,-26839.8
4.54972e+07,18.253,0,3.03738,2388.17,-3046.54,-29368.1
4.5521e+07,14.7614,2,2.76651,25.3585,2780.18,-27538
4.55596e+07,70.8454,1,2.67458,-1550.01,-2933.65,-29653.6
4.55769e+07,49.7193,1,2.71478,-7548.62,-3359.96,-22403.9
4.55965e+07,11.6211,0,2.37108,1381.81,1573.2,-27440
0,11.6664,0,2.43435,0,0,0
4.59788e+07,123.809,0,2.65988,14688.2,-3686.98,-7481.69
4.59927e+07,10.2657,2,2.41725,1709.25,-1398.94,-28876.7
0,9.94767,0,2.46625,0,0,0
4.6242e+07,217.686,2,2.73953,8514.75,22230.4,10266.3
4.62948e+07,53.9082,0,2.38502,7704.68,4243.87,-21450.2
4.63982e+07,273.4,2,2.92774,13474.1,-5905.29,-12291.6
4.71389e+07,58.2081,1,2.47431,10338.4,-32.4633,-22173.7
4.73654e+07,117.673,1,2.48483,21838.6,3221.46,-17445.4
4.75051e+07,38.9559,0,2.54923,4877.34,-1249.04,-22246.5
4.76195e+07,65.9529,0,2.52385,2300.46,-7617.3,-17376.5
4.81311e+07,157.783,2,2.97407,1706,-24728.2,-6827.55
4.81898e+07,5.09768,0,2.45775,593.489,749.289,-28241.4
0,4.96203,0,2.43826,0,0,0
4.82204e+07,153.507,2,2.80824,-3941.51,-28020.4,-13115.2
4.82396e+07,120.864,2,3.03595,2447.89,14660.8,-8408.74
4.83906e+07,35.7397,1,2.80341,5188.93,4560.14,-25768.6
4.8446e+07,255.81,1,2.78522,16364.7,17431.9,19391.6
4.87251e+07,101.701,2,2.55808,-19489.3,-4023.64,-20585.2
4.89889e+07,116.581,2,2.76937,-20953.8,3580.21,-16491.5
4.90514e+07,63.1069,2,2.38195,-5343.81,9890.43,-21651.8
4.96121e+07,1.83158,1,3.00756,-222.92,182.399,-28491.5
4.97084e+07,115.137,2,2.78829,21339.6,-11351.2,-27877.4
4.98554e+07,20.0256,0,2.79868,-262.614,-3671.69,-26734.3
5.00616e+07,3.05367,2,2.50773,-278.67,-597.448,-28521.5
5.06889e+07,28.2588,2,2.46574,-4993.12,-3299.9,-27779.2
5.08678e+07,16.5377,2,2.67739,-1505.21,-263.472,-25647.8
5.11555e+07,20.9638,2,2.78974,-749.452,-3341.88,-25919.8
5.12992e+07,10.2073,2,2.48446,1938.28,-953.413,-29200.8
5.13156e+07,41.9553,0,2.4918,-1307.82,5647.66,-22156.9
5.13168e+07,98.7135,1,2.56833,-974.313,-12653.9,-12303.4
5.1666e+07,60.9756,1,2.88421,4530.08,11048.9,-24035.8
5.20504e+07,9.09702,1,2.51743,-1798.27,-165.937,-28030.1
5.21312e+07,27.1059,2,2.89535,-4605.35,-1794.18,-25839.9
5.21372e+07,53.8816,2,2.61495,-4440.99,-9979.23,-25436.8
5.22492e+07,139.788,0,2.8028,15224.8,17471.1,-10665.4
5.24414e+07,108.461,0,2.8345,18392.7,-13205.3,-25423
5.25912e+07,11.4841,1,2.44646,1675.74,1796.93,-29151.4
5.28776e+07,95.0375,1,2.97597,-2959.72,8710.47,-24630.1
5.36041e+07,11.9539,2,2.83423,-1879.95,-1700.56,-29492.6
5.44647e+07,173.927,1,2.75315,27971.9,23339.1,-24903.6
5.45239e+07,60.7398,0,2.50099,9014.58,9025.56,-26687.9
5.45901e+07,49.1057,0,2.8528,6827.32,7840.65,-28996.6
5.46416e+07,39.0233,0,2.74165,199.151,3709.6,-21491.6
5.49523e+07,41.3892,1,2.81926,8074.15,3298.28,-29095.2
5.50938e+07,21.801,1,2.61519,1411.7,1360.79,-24642.8
5.5181e+07,0.600727,1,2.72363,-43.7075,26.2894,-28688.5
5.52495e+07,125.365,0,2.74843,10359,-15950.1,-10469.1
5.52846e+07,32.233,0,2.50265,4968.95,-531.087,-24093
5.56628e+07,139.182,1,2.51072,14531.8,11997.7,-6226.05
5.59271e+07,25.23,1,2.41469,2712.1,2586.34,-24988.3
5.60276e+07,81.7325,1,2.42369,-250.08,-16347.6,-23454.9
5.61587e+07,54.9429,1,2.73139,-2382.95,-11024.1,-26377.1
5.63072e+07,106.732,2,2.45394,6247.17,-5433.22,-19393.9
5.63111e+07,5.98382,1,2.81472,-431.24,86.32,-27612
5.64273e+07,191.048,0,2.43679,29279.1,27259.4,-22535.7
5.65691e+07,223.528,1,2.66826,-29867,-4569,6778.91
5.66791e+07,116.82,1,2.86296,-23441.5,-10.5372,-21357.3
5.6721e+07,92.4758,1,2.53293,-8810.55,7017.77,-12788.3
5.68107e+07,59.0129,2,2.97664,-9062.4,-6467,-23275.4
5.68385e+07,187.646,2,3.04349,4726.93,-3409.87,-23409.8
5.7085e+07,173.081,2,2.9366,-24646.4,-21620.6,-13177.8
5.74152e+07,81.6003,1,2.55062,-15403.3,7823.48,-27668.6
5.78756e+07,13.9248,2,2.98833,-2253.13,599.486,-27015.8
5.78997e+07,130.42,0,2.40553,11787,19898.2,-13690.2
5.79902e+07,155.332,2,2.40528,-1263.9,-3833.79,-19017.9
5.81509e+07,4.27501,1,2.42737,192.559,388.017,-28013.5
5.82926e+07,38.4834,1,2.71952,-305.205,8180.94,-28851.3
5.84102e+07,144.712,0,2.80753,25119.8,13618.3,-18098.1
5.84359e+07,164.049,1,2.56331,13129,28882.5,-14744.7
5.8591e+07,360.332,1,2.88858,-14715.9,-22491.2,-10414.3
5.8656e+07,97.1961,0,2.64126,-6623.6,6078.74,-28655.5
5.86807e+07,57.3588,0,2.79452,-5154.85,-1368.04,-18016.1
5.87967e+07,118.673,2,2.97938,23165.4,-7781.53,-24258.4
5.8809e+07,3.786,0,3.59155,46.0812,-44.0162,-28789.2
5.88973e+07,124.522,2,2.8853,-2819.46,-25980.5,-26294.4
5.91386e+07,85.1471,0,2.49543,12476.8,1940.86,-15904.9
5.95394e+07,87.4337,1,2.69256,-4965.77,-10444,-14489.6
5.95693e+07,100.263,0,2.82254,11277.8,14868,-18886.7
5.96927e+07,150.667,2,2.71466,-1614.53,15413.6,-1167.07
5.99948e+07,32.885,2,2.4746,978.052,-3842.55,-23090.5
6.02397e+07,68.3153,0,2.81458,13141.8,-2499.75,-23389.9
6.02828e+07,75.4733,2,2.6673,-7452.96,-214.48,-14723.5
6.02966e+07,119.361,2,2.79249,-15500.3,18527.3,-21998.7
6.05589e+07,31.745,2,2.66455,1269.65,-3495.53,-23208.1
6.07453e+07,42.9088,2,2.53154,6196.12,5537.52,-25326.7
6.08517e+07,23.2106,0,2.5002,2099.36,-484.958,-24381.6
6.0924e+07,95.6073,2,3.00859,-4626.04,-15078,-16348.5
6.10269e+07,115.389,1,2.57601,-13035.5,-3701.28,-8535.01
6.11734e+07,87.4591,0,2.76177,-4296.45,15426.8,-19731.2
6.13468e+07,16.7361,1,2.39923,2318.26,2730.74,-28671
6.14136e+07,111.609,1,2.7626,15249.3,13373.9,-16936.2
6.17422e+07,193.72,0,2.50698,-13302.8,-26885.8,-972.422
6.18177e+07,230.856,1,2.85835,2051.43,5384.22,-21062.6
6.19067e+07,137.322,0,2.67496,12226.5,-23834.8,-17688.7
6.19527e+07,86.1014,2,2.85596,-7996.63,-15704.3,-24390.6
6.20953e+07,178.072,0,2.64631,22494.2,7352.39,425.098
6.22346e+07,59.4252,1,2.97906,3008.77,-7050.94,-19073.5
6.27225e+07,67.5352,0,2.36199,-5486.58,7148.67,-17762.9
6.28922e+07,183.026,2,2.82426,-8064.55,26766.1,-2453.86
6.29935e+07,148.413,2,2.79578,-11563.9,28215.4,-22275.3
6.30726e+07,9.71224,1,3.02294,-45.7053,2136.56,-28804.9
6.32177e+07,29.983,0,2.45601,-4168.19,3245.69,-25398
6.34713e+07,34.6661,1,2.79541,945.17,6329.18,-25171.5
6.38452e+07,32.7605,0,2.97884,-4933.11,-2598.28,-24881.3
6.39497e+07,66.584,1,2.57579,-9586.45,6189.51,-20480.3
6.5034e+07,65.487,2,2.63191,-6601.79,6006.87,-28139.2
6.603e+07,74.7346,2,3.04524,-6197.28,-14477.7,-28297.7
6.67917e+07,55.5964,0,2.82868,2422.04,11254.9,-26588.4
6.70016e+07,83.4037,1,2.92491,3891.62,14928.4,-20445
6.72166e+07,104.21,1,2.51068,-4750.54,6237.97,-18278.8
6.78103e+07,19.1988,1,3.04828,2358.22,1850.47,-26133.5
6.79577e+07,185.416,2,2.48766,11732.7,-20401.5,-1796.53
6.80549e+07,73.3025,0,2.82629,-1414.69,11234,-18380.5
6.82739e+07,153.582,0,2.74974,25931.8,19437.4,-28001.2
6.84926e+07,13.7274,1,2.4556,102.824,1286.21,-26180.2
6.85986e+07,97.5996,0,2.6713,12943.4,14170.7,-21195.4
6.85995e+07,45.1467,0,2.70344,9182.62,-264.144,-26013.2
6.88472e+07,137.751,2,2.80872,-2645.69,1902.28,-22710.2
6.92434e+07,297.17,1,2.61188,12383.5,24469.3,27583.1
6.93892e+07,6.40483,2,2.86831,-434.335,-899.942,-27815.6
6.944e+07,9.1693,0,2.94041,328.976,-765.502,-27056.6
6.94914e+07,58.5756,2,2.68432,7003.49,7315.08,-21843.5
6.99459e+07,158.259,1,2.71014,-21277,18975.2,-11383.3
7.00439e+07,41.7161,1,3.01801,2216.59,6764.14,-23688.6
7.01669e+07,142.305,2,2.6524,-20220.4,-6273.35,-7478.86
7.03875e+07,169.645,2,2.97683,-22659.5,4340.3,-11145.8
7.05929e+07,83.6514,2,2.94995,5199.74,-11214.5,-16298.6
7.06062e+07,61.7137,2,2.7905,-6620.8,-11122.3,-27058.4
7.08186e+07,5.07599,2,2.63512,-653.579,75.8119,-27953.4
7.08562e+07,22.5317,1,2.65632,-2986.65,3762.19,-29473.9
7.1032e+07,57.082,0,2.77584,-8926.75,1900.73,-21125.1
7.2314e+07,54.4085,1,2.80804,1006.24,6022.42,-19136.8
7.25958e+07,59.0303,1,2.89059,-8630.86,-2236.88,-20196.3
7.26538e+07,2.33431,0,2.64512,180.946,470.548,-28724.5
7.30791e+07,34.1578,2,2.91492,139.927,-6875.65,-26475.1
7.32383e+07,31.0084,0,2.98503,-3019.36,-1603.39,-23357.2
7.35708e+07,113.453,1,2.98424,-13111.9,9953.66,-11579.4
7.38328e+07,12.3696,0,2.68872,2104.64,-1171.4,-27706.4
7.38637e+07,13.86,1,3.02735,2159.6,2011.59,-28786.5
7.40553e+07,140.213,0,2.40771,8911.11,10363.4,-2491.47
7.4305e+07,36.7452,1,2.93453,441.182,7807.85,-28692.1
7.45182e+07,31.3989,0,2.64754,6674.19,-169.165,-29707.9
7.45752e+07,100.278,0,2.36471,11206.9,-2181.89,-10898.4
7.51094e+07,37.1687,0,2.77603,1292.39,6782.31,-25056
7.51583e+07,196.112,0,2.75657,-6390.57,5759.74,-13420.5
7.51993e+07,26.7975,0,3.0266,584.037,-4105.81,-24995.9
7.60925e+07,9.00241,1,2.9638,-1441.42,-301.095,-27597.3
7.63042e+07,108.199,0,2.51658,-8732.57,-13986.3,-13030.6
7.6641e+07,63.5579,2,2.76284,-8471.22,4537.71,-19546.1
7.67532e+07,30.5363,1,2.79211,-3819.87,3198.34,-24656.8
7.67845e+07,98.4193,1,2.75845,-9572.85,-5538.08,-11318.9
7.68022e+07,35.3968,1,3.03258,-2520.96,-4636.44,-23656.3
7.70672e+07,131.047,2,2.80703,-20839.2,-12155.2,-15337.2
7.713e+07,16.6603,2,2.87473,2020.64,-2818.87,-27993.6
7.73758e+07,56.5536,2,2.38355,-9523.61,-4137.48,-22766.8
7.73974e+07,218.743,0,2.7219,28308.3,26189.1,-3519.78
7.74054e+07,16.713,1,3.00065,-1958,-2548.87,-27438.2
7.77048e+07,25.3596,0,2.78896,-2220.57,-4245.87,-26570.3
7.78319e+07,38.6346,2,2.78665,3431.86,-7148.72,-26714.1
7.81377e+07,111.455,2,2.75208,-10671,4218.07,-8333.94
7.89196e+07,101.458,1,2.36678,-21529.9,-408.376,-28861.3
7.91763e+07,84.558,1,2.87839,-12291.8,8064.52,-18724.6
7.93219e+07,51.6249,1,2.66578,-4062.47,-1432.02,-18841.5
7.99001e+07,19.5516,1,2.87724,-2127.41,2101.25,-25903.6
8.03732e+07,91.4189,0,2.64119,17428.6,-7796.65,-25450
8.06072e+07,54.1026,0,2.5761,11494.1,53.9871,-28086.8
8.0717e+07,188.475,2,2.66804,-7.1333,-22042.1,4287.67
8.09103e+07,1.03858,0,2.45967,31.0354,202.952,-28686.5
8.144e+07,130.32,0,2.57374,-15188.4,-8267.75,-14727.1
8.16134e+07,37.5742,1,2.5069,-794.768,5817.79,-23367.5
8.17e+07,23.8834,2,3.01262,-2471.93,-4446.92,-28336.4
8.1705e+07,107.382,0,2.8121,19508.1,11068,-25412.8
8.17428e+07,122.418,0,2.72732,669.168,18704.6,-13627.1
8.18365e+07,17.9075,2,2.62486,1053.7,-2470.49,-26275
8.19062e+07,32.361,1,2.62108,-3761.06,-5202.89,-26515.5
8.1941e+07,24.2433,2,2.89962,-163.385,-2239.36,-24208.7
8.20752e+07,8.58838,0,2.88314,1158.51,-1368.95,-28263.1
8.21891e+07,67.4374,0,2.69843,3268.6,13574.6,-26087.2
8.23801e+07,23.963,2,3.02017,3824.17,-752.717,-25657.2
8.2386e+07,31.4825,0,2.99935,4083.89,3556.77,-24943.5
8.24873e+07,119.522,0,2.98919,-4133.61,23436,-21817.3
8.27764e+07,22.5463,1,2.4525,-2995.78,-857.268,-25168.9
8.28319e+07,70.6767,1,2.91434,7178.74,7451.94,-18331.3
8.29386e+07,45.5378,1,2.45372,3516.98,-5418.58,-21749.5
8.30524e+07,28.7147,1,2.54527,-3136.11,-4501.24,-26284.4
8.33432e+07,130.158,0,2.92038,-16908.7,284.215,-7432.09
8.34694e+07,154.756,2,2.77434,19089.8,-23705.1,-17169.1
8.35866e+07,74.1783,2,2.73976,13452.3,-4242.57,-22094.8
8.37745e+07,86.1157,1,2.59225,13092.2,12625,-27464.3
8.39386e+07,31.0911,1,2.42417,-6013.49,-65.3527,-25998.5
8.39686e+07,7.1932,2,2.6483,240.763,-1585.08,-28732.6
8.3981e+07,159.868,1,2.58251,2118.34,17153.8,232.069
8.40101e+07,129.19,0,2.9482,-9889.28,24657.4,-23604.5
8.45179e+07,46.4354,2,2.82823,-4547.96,-8490.26,-26717.1
8.46299e+07,46.6204,0,2.54404,5092.09,4596.24,-21683.1
8.48907e+07,16.5079,2,2.88158,-2491.91,-4.79271,-26354
8.50817e+07,113.357,1,2.9485,-10245.3,15542.2,-13928.6
8.52699e+07,57.0032,0,2.69017,-4419.28,8713.82,-21906.2
8.53102e+07,28.8877,2,2.67659,2079.9,2366.69,-23647.9
8.5317e+07,16.6491,2,2.97062,-1581.46,-1496.91,-26021.1
8.5467e+07,55.3348,2,2.77122,-3354.22,-796.349,-18439.4
8.57683e+07,130.967,2,2.78074,-11115.7,3513.68,-3836.21
8.62336e+07,18.997,0,2.83191,2275.11,-1408.73,-25778.1
0,18.8735,0,2.51735,0,0,0
8.64486e+07,185.551,0,2.59745,-27923.8,14700.4,-5721.46
8.68676e+07,9.06572,1,3.00328,1648.51,1031.78,-28877.2
8.69013e+07,82.2633,1,2.87227,16959,-3030.12,-28442.2
8.69185e+07,156.635,2,2.50337,-26846.4,16101.6,-18105.9
8.71693e+07,96.3543,0,2.79536,13617.1,13549.9,-29125.7
8.71896e+07,38.5848,0,3.0163,2664.06,-7163.78,-26136.3
8.72753e+07,8.32667,0,2.95086,944.937,1558.17,-28757
8.75664e+07,228.111,0,2.64202,15196.5,-26612,-29571
8.76929e+07,192.615,0,2.67867,-5973.42,-20189,5899.05
8.7734e+07,18.803,0,2.49442,-2640.41,245.779,-25942.1
8.77493e+07,0.988329,0,2.56292,269.323,165.582,-28824.4
8.81487e+07,63.3731,1,2.96398,-12119.9,-4826.67,-26051.5
8.8259e+07,50.005,1,2.45175,1279.63,-588.996,-28537.5
8.88575e+07,33.4676,2,2.68353,2259.12,4469.71,-23914.7
8.89015e+07,76.7638,2,2.52955,-5865.4,5627.54,-14820.1
8.89654e+07,172.015,1,2.66321,21468.6,27303.2,-18147.5
8.90419e+07,115.226,0,2.89927,-17027.1,-5066.55,-23678.5
8.91244e+07,98.9608,2,2.74573,13514.7,584.214,-16987.7
8.92355e+07,36.0005,2,2.42573,3503.07,-6551.94,-26838
8.92911e+07,31.3171,1,3.02558,-5549.26,-1731.27,-25733.6
8.97235e+07,124.424,1,2.94974,22516.4,864.103,-24535.1
9.01787e+07,95.3903,0,3.04183,14437.1,13812.9,-26954.5
9.02629e+07,142.813,0,2.57984,1873.5,21221.9,-7452.99
9.0394e+07,47.4058,2,2.4343,-5566.13,7896.32,-26147.2
9.0406e+07,81.471,1,2.70239,-10973.2,-2528.44,-15818
9.05394e+07,33.5418,0,2.82046,5249.4,4413.4,-27078.9
9.0715e+07,148.62,2,3.01162,-12753.8,-5521.93,-1121.82
9.07175e+07,27.8882,1,2.80022,2147.77,3086.25,-24297
9.08953e+07,93.3397,0,2.72267,10847.8,16347.4,-26659.7
9.09238e+07,29.0499,1,2.38836,-269.413,-3872.43,-24111.7
9.11853e+07,235.895,0,2.62736,10603.1,-20169.9,-28290.2
9.13625e+07,68.9947,0,2.84177,-683.898,-9760.28,-18118.3
9.14675e+07,104.781,1,2.53512,16607.2,14709.8,-28400.1
9.18233e+07,130.008,2,2.56663,-22148.3,-15943.4,-24937.7
9.18764e+07,98.9724,2,2.96302,18269.2,-8422.5,-23736.2
9.27751e+07,115.893,1,2.41221,15266.6,16550.4,-19032.1
9.28341e+07,67.2943,2,2.47552,-1106.15,-13881.3,-25514.5
9.30285e+07,190.97,2,2.39018,21519.5,-9989.3,3882.06
9.31084e+07,168.405,1,2.70332,21479.1,6929.08,-1449.95
9.32254e+07,81.3397,2,2.53687,2769.82,-8516.76,-14103.4
9.32258e+07,77.3427,0,2.56491,-3618.82,-15771.8,-26681.9
9.33647e+07,158.857,0,2.88553,6939.39,26303.2,-9543.17
9.35794e+07,151.925,1,2.85553,-2984.83,-4312.61,-26339.7
9.37657e+07,151.832,2,2.81327,-16548.7,10887.5,-3776.01
9.39136e+07,13.4483,0,2.80349,2057.91,-1307.02,-27288.9
9.39775e+07,55.2789,2,2.74846,-8224.83,8213.3,-28386.6
9.40678e+07,99.1566,0,2.47851,-2863.5,20745,-29864.9
9.43147e+07,7.04975,2,2.54037,413.359,-1428.55,-28421.9
9.436e+07,35.3173,0,2.55446,4535.9,-5967.32,-28101.4
9.47418e+07,97.2326,0,2.85055,904.261,-19110.8,-21666.1
9.49298e+07,44.145,1,2.48229,-2628.89,-6864.01,-23152
9.52423e+07,95.7265,2,2.97698,-5378.46,-18681.1,-23479
9.57541e+07,57.1568,1,2.47063,-6855.32,43.1689,-18832.4
9.58599e+07,49.8461,1,2.83976,9606.98,294.645,-24696.7
9.59735e+07,26.6771,1,2.9586,1548.62,-2295.66,-23991
9.60048e+07,185.17,2,3.06107,5905.44,-14129.5,-17278.7
9.60472e+07,15.504,0,2.49812,837.704,1221.98,-25881.9
9.61507e+07,134.323,0,2.74484,-9701.73,8896.24,-12854.2
9.63145e+07,36.4728,2,2.97261,-2911.14,-4007.16,-22940
9.64205e+07,0.877463,1,2.56183,-153.875,-72.4605,-28717.7
9.64657e+07,122.354,1,2.51166,3035.11,14373.7,-9278.14
9.65659e+07,130.171,0,2.78816,4431,25833.2,-20771.7
9.65732e+07,9.60391,0,3.03026,426.498,-313.008,-26860.1
9.67793e+07,137.271,1,2.66751,11415.3,26263.1,-24078.2
9.69301e+07,46.408,0,3.02854,-3345.98,8657.38,-26004.4
9.69684e+07,10.4395,1,2.62909,-1621.46,275.796,-27271.2
9.70417e+07,36.0264,1,2.50463,-5642.85,4730.02,-26504.3
9.73273e+07,31.4754,0,2.53896,-289.813,-602.356,-27729.2
9.76502e+07,9.8541,1,2.52503,-591.68,1752.48,-27688.5
0,9.81231,1,2.36463,0,0,0
9.80386e+07,126.411,0,2.46869,21227.1,-10.462,-12475
9.82363e+07,29.7177,1,2.82002,-4568.18,4388.47,-28221.3
9.86564e+07,107.676,2,2.93844,-18924.8,-10628.8,-22389.1
9.88145e+07,85.5634,0,2.92668,-17134.6,1086.66,-23755.5
9.95722e+07,37.7298,2,2.73143,1781.32,-7826.85,-28377.5
1.00051e+08,26.719,2,2.84147,-3045.07,-4247.77,-26581.7
1.00267e+08,128.718,1,2.65965,11310.4,-23804.4,-22586.8
1.0063e+08,34.0858,0,2.85411,5081.48,2644.8,-24409.2
1.00796e+08,58.2706,0,2.65499,11185.9,2977.3,-24488.6
1.01209e+08,6.45559,2,2.36903,-1364.82,-528.544,-28932
0,6.4497,2,2.36542,0,0,0
1.0124e+08,79.4545,2,2.4908,5027.44,-7754.42,-14766.9
1.01354e+08,137.15,0,2.87995,25488.3,-7716.55,-17597.2
1.01667e+08,2.5933,2,2.50599,-517.613,-303.403,-28674.7
0,2.46145,2,2.94284,0,0,0
1.01724e+08,60.0656,1,2.37965,2542.99,11366.3,-23533.5
1.01915e+08,150.881,1,2.57054,-14694.9,13112.1,-15052.5
1.01976e+08,108.965,2,2.89487,-9504.61,5749.31,-8809.93
1.02111e+08,66.3217,2,2.96382,-8557.37,10340.6,-25215.1
1.02172e+08,149.444,0,2.44983,3180.04,29481.6,-17785.4
1.02396e+08,93.8442,0,2.79947,4480.65,-8031.87,-11330
1.02745e+08,92.5998,0,2.91231,14373.9,2647.3,-15892.5
1.03983e+08,19.8702,2,2.73188,-2924.71,2619.26,-27353.2
1.04156e+08,23.2723,2,2.79704,-673.468,-4940.98,-28799.9
1.04185e+08,5.18752,2,2.6856,-962.61,-412.644,-28322.3
0,58.0698,0,2.6856,0,0,0
1.0423e+08,203.401,2,2.6956,-11896.9,11420.7,10714.5
1.04484e+08,154.758,2,2.8756,-22403,3965.24,-7054.17
1.04628e+08,11.2076,1,2.9601,-173.13,2422.98,-28914.5
1.04717e+08,162.197,1,2.64849,8073.27,23264.1,-5025.26
1.0489e+08,13.9006,1,2.39127,1743.68,-1539.19,-27107.8
1.04892e+08,270.908,0,2.66677,-859.175,24348.8,16997.5
1.05113e+08,71.5249,1,3.03803,-2619.37,13392.3,-22460.7
1.05143e+08,46.5606,2,2.74145,-2598.64,-8407.67,-24354.4
1.05346e+08,3.99832,1,2.6729,486.127,-311.442,-28254.5
0,3.57773,0,2.53213,0,0,0
0,3.63049,0,2.88336,0,0,0
1.05453e+08,28.1501,1,2.47679,1337.29,5090.06,-25881.7
1.05538e+08,296.625,2,2.50406,22883,-28963.1,21891.8
1.0574e+08,118.311,1,2.89772,15557,-17067.6,-27639.4
1.05747e+08,5.94483,1,3.02866,-288.669,-665.304,-27819.3
1.05976e+08,43.2104,2,2.44888,-49.1392,-4213.2,-20678.2
1.06213e+08,52.035,2,3.01995,-6728.83,-8677.44,-28337.5
1.06526e+08,80.74,2,2.47678,10091.3,-12878.8,-23847
1.06533e+08,125.775,0,2.9207,13233.8,12165.8,-9452.51
1.06741e+08,120.009,0,2.56792,24369.5,7343.4,-28807.2
1.06926e+08,49.9353,2,2.69537,-8431.13,6287.89,-29561.6
1.07041e+08,75.1155,0,2.77066,-9384.36,6268.01,-17798.3
1.07559e+08,193.179,0,2.82678,29462.9,-739.786,-778.545
1.07654e+08,19.3281,1,2.85354,-1639.68,-2778.28,-26375.7
1.07791e+08,24.603,1,2.42087,4435.83,2504.84,-29970.7
1.07885e+08,145.007,0,2.92779,26333,10650.4,-18236.7
1.07923e+08,196.592,2,2.9751,16000.4,-29797.7,-5240.09
1.07979e+08,27.5637,0,2.7785,2967.18,2338.37,-24389.4
1.08021e+08,14.2093,1,3.05411,-50.9394,2524.44,-27144.2
1.08881e+08,48.9192,1,2.86084,-6035.61,2465.82,-20807.5
1.08932e+08,46.0403,0,2.73476,1090.63,-9613.35,-29876.4
1.09004e+08,10.9516,1,2.38853,-2174.15,919.964,-28316
1.09084e+08,217.818,2,2.479,-692.22,2927.11,-12808.7
1.09305e+08,58.4103,1,2.41746,-7036.52,5028.93,-19914.2
1.09339e+08,12.1949,0,2.91776,186.56,-1613.69,-26840
1.09502e+08,10.9558,2,2.41181,-1228.55,629.74,-26944.9
1.09627e+08,44.7018,0,2.45253,-3615.12,6563.7,-23112.7
1.09703e+08,2.85816,0,2.51243,-99.8303,-588.423,-28666.3
1.09787e+08,44.4054,1,2.92266,-4758.66,-2625.59,-21262.8
1.10225e+08,210.718,0,2.85397,-13812.5,19329.2,8514.69
1.10401e+08,140.556,2,2.84466,-27492.7,-1693.79,-18010.6
1.10483e+08,93.1476,2,2.57781,5917.27,-16200.7,-19211.8
1.10519e+08,118.245,2,2.95128,-18896,-13266.8,-19510.2
1.10818e+08,2.07453,2,2.43441,-75.3365,97.6471,-28423.3
1.11119e+08,2.06463,2,2.37622,19.0209,80.9182,-28416.8
1.11457e+08,29.0745,0,2.7717,-4336.87,-1534.3,-24872.8
1.11861e+08,49.7354,1,2.91299,8655.57,-3860.76,-24572.8
1.11889e+08,15.21,1,2.71683,-155.165,3213.77,-28058.7
1.11918e+08,4.78208,2,2.67628,760.164,-739.327,-28737.3
1.11955e+08,17.3467,2,2.86092,-252.626,-1802.53,-25608.9
1.12008e+08,124.489,0,2.96045,8055.92,-6679.24,-4873.75
1.12196e+08,14.2874,2,2.88328,-346.36,-2958.04,-27950.2
1.12414e+08,11.6505,2,2.86616,-1940.02,1.0545,-27248.1
1.12426e+08,139.849,0,2.82648,-1800.59,20500.1,-13578.5
1.12443e+08,59.3471,1,2.51286,-7996.48,9673.29,-27291.2
1.125e+08,288.922,2,2.6933,-28040.4,-22017.3,13541.9
1.12586e+08,1.40226,2,2.40374,-257.045,-188.66,-28620.8
1.12602e+08,78.7311,1,2.49438,-9876.04,417.796,-15385.5
1.12736e+08,287.919,2,2.79762,-16026.5,-18651.2,26560.1
1.12845e+08,5.84703,2,2.89628,-619.087,-1065.4,-28321.9
1.13295e+08,18.5682,1,2.66708,-2996.91,2441.42,-29895
1.13554e+08,179.949,1,2.66104,7738.18,17248.6,-20949.7
1.13656e+08,39.9321,0,2.68416,5190.81,6202.04,-26212.8
1.1368e+08,62.1463,0,2.61465,-7155.85,6390.89,-19935.8
1.14502e+08,162.697,1,2.98944,11955.5,7544.48,2218.25
1.14757e+08,54.4763,2,2.87077,-1233.49,11322,-28397.4
1.14829e+08,21.5467,2,2.74578,-4525.13,-900.632,-29283.6
1.14879e+08,169.995,1,2.60409,-6434.76,2012.56,-25609.2
1.15136e+08,19.9706,1,2.65083,-1939.27,3180.76,-26705.5
1.15158e+08,152.132,1,2.91769,-25387.3,12608.1,-13979.5
1.15622e+08,109.354,0,2.92585,1698.7,13425.8,-10260.7
1.15661e+08,188.866,0,2.94275,29940,-19389.8,-11393.8
1.15852e+08,176.828,0,2.41379,25450.1,-17247.6,-7397.02
1.16094e+08,13.9139,1,2.88674,-1958.36,440.697,-26644.3
1.16194e+08,61.8228,0,2.9331,-3233.04,5657.8,-17622.1
1.16365e+08,176.2,1,2.41592,-13162.3,-16621.7,1747.41
1.16594e+08,24.7252,0,2.48081,-3072.29,4138.25,-28021.8
1.1712e+08,157.703,1,2.36626,-17193.6,5368.97,-695.977
1.17369e+08,288.206,1,2.74464,28838.4,20515.3,20479.8
1.17532e+08,118.582,0,2.42244,24486.1,3901.05,-24416.7
1.18106e+08,0.826311,2,2.84829,-112.06,-265.99,-28867.4
0,0.920116,2,2.92869,0,0,0
1.18459e+08,6.99941,0,2.38729,707.515,-505.658,-27586.6
1.18783e+08,24.4302,2,3.03645,1250.08,-775.158,-26252.8
1.18996e+08,167.913,1,2.68266,-12624.6,14734.8,846.019
1.19015e+08,96.8129,0,2.42917,3396.49,-10700.7,-11710.4
1.19023e+08,5.03681,1,2.85264,13.3639,1100.48,-28465.8
1.19223e+08,46.3932,0,2.66717,-5366.54,2912.28,-21234.8
1.19291e+08,78.6836,2,2.53844,-6012.5,-14931.3,-24432.8
1.19308e+08,33.0686,0,2.74998,-3505.11,1912.8,-23158.3
1.1933e+08,68.6636,1,2.44355,-14069.3,-453.486,-25060.3
1.19337e+08,10.7231,0,2.91382,945.878,151.513,-26738.5
1.19507e+08,10.9294,0,2.95325,1707.48,-1344.84,-29837.3
1.19715e+08,4.73425,0,2.47306,-687.047,552.051,-28598
0,3.7984,1,2.5894,0,0,0
1.19877e+08,273.18,1,2.95477,-2599.98,21646.9,24171.9
1.20187e+08,45.2912,2,2.84466,8602.21,-1955.52,-25219.8
1.20958e+08,93.9744,1,2.64021,-19759.9,2092.31,-29163.4
1.21006e+08,149.927,2,2.92733,-26530.2,-8008.43,-13783.6
1.21307e+08,49.651,2,2.71841,-7976.44,1510.38,-22165.1
0,49.8845,1,2.99478,0,0,0
1.2135e+08,60.2522,1,2.80875,-10487.7,551.64,-21623.9
1.21386e+08,132.02,1,2.8951,6172.98,-25752.7,-28807.1
1.21401e+08,178.398,1,2.86384,-12349,27973.4,-7028.92
1.21446e+08,105.377,2,2.47526,89.9835,-11661.1,-9806.07
1.2189e+08,33.5459,0,2.72951,6793.36,-977.024,-26744.8
1.22603e+08,155.526,2,2.75918,-26793.5,-16596.4,-19608.4
1.2268e+08,176.798,1,3.0433,1781.18,-29435.7,-18782.3
1.22732e+08,44.3758,2,2.39353,-2488.86,-8935.59,-26983.4
1.22812e+08,161.772,2,2.53264,-2202.84,29638,-12029.9
1.22861e+08,42.1343,0,2.8946,3994.89,6965.14,-24949.8
1.2327e+08,74.1522,0,2.63761,11526.4,3301.99,-18684
1.23384e+08,70.6412,0,2.62799,630.831,-11018.7,-18812.9
1.2391e+08,111.768,2,2.56862,-6951.37,-13889,-10974.5
1.23952e+08,219.763,2,2.4148,-2599.08,3759.79,-28791.8
1.23986e+08,69.9334,1,2.52765,-7226.25,10379.7,-21012.6
1.24038e+08,37.9903,1,2.40659,4789.37,489.838,-22389.7
1.2407e+08,15.3276,1,2.9577,-3174.94,831.03,-28911.9
1.24364e+08,1.96917,2,2.88933,-464.519,-150.491,-28904
1.24768e+08,76.0184,0,2.74277,2487.29,-13775.8,-21063.3
1.25053e+08,84.4034,0,2.95852,-14861.4,3545.84,-19982.8
1.25372e+08,3.85183,2,2.62906,388.941,374.97,-28285.4
0,3.82304,2,2.43274,0,0,0
1.25427e+08,1.23292,0,2.4438,240.925,-182.914,-28692.8
0,1.22633,0,2.70478,0,0,0
1.25585e+08,67.1697,1,2.55744,1743.45,10679.4,-19533.6
1.25664e+08,11.494,2,3.02501,823.523,-2347.78,-29114.2
1.26162e+08,50.9898,0,2.79349,-908.637,-10118,-25321.4
1.26464e+08,7.35756,0,3.04378,-240.936,-963.954,-28411.7
1.2653e+08,46.1855,0,2.76394,-6805.23,-213.903,-21936.5
1.26712e+08,22.2825,2,2.8473,-1072.41,-4545.49,-27759.2
1.26802e+08,76.8995,0,2.49675,11722.9,-7970.18,-20754.4
1.26821e+08,15.2368,2,2.7151,-2565.33,-273.017,-26816.3
1.26919e+08,7.31405,1,2.624,-758.145,746.026,-27636.2
1.27246e+08,18.3615,2,2.63413,-2902.05,-2610.86,-29557.6
1.27386e+08,28.675,0,2.54287,5317.21,3120.64,-28637.1
1.27392e+08,48.9067,1,2.36559,2866.62,9822.41,-26748.7
1.27571e+08,15.2096,2,2.86464,-582.349,2209.09,-26640.6
1.2765e+08,159.592,0,2.863,-26677.7,3527.72,-10476.8
1.27673e+08,66.4519,1,3.05387,6203.74,-5911.91,-17937.7
1.27738e+08,158.921,1,2.43852,-22371.9,25017.2,-25887.8
1.27857e+08,47.7669,2,2.7468,2563.05,8072.06,-23511.3
1.2805e+08,117.9,2,3.00589,22816.7,-5619.24,-21190
1.28082e+08,123.966,1,2.65143,10150.9,12472.9,-8167.9
1.28496e+08,68.3262,2,2.99284,-682.188,-7994.82,-16903
1.28683e+08,36.7716,1,2.82152,2730.41,4079.82,-22810.3
1.28893e+08,3.8446,0,2.41938,439.131,57.9352,-28105.8
1.28996e+08,0.77119,1,2.6135,-187.424,24.939,-28781.5
1.2934e+08,68.6863,2,2.70233,-10344.1,660.152,-18695
1.29345e+08,176.488,0,2.68369,28818.3,-1802.54,-5247.8
1.29372e+08,10.5383,0,2.61959,1217.65,1685.21,-29819.8
1.29706e+08,67.5233,1,2.99346,-6226.99,658.238,-16097.2
1.29828e+08,130.575,1,2.74001,-15261.8,20638.3,-18717.9
1.29922e+08,83.853,0,2.66298,14543.5,-1504.1,-18737.3
1.30053e+08,172.839,1,2.52347,-28122.2,22575,-22374.4
1.30447e+08,158.987,0,2.93158,-5419.87,-13082.9,-9293.71
1.306e+08,72.6628,1,2.95846,-2284.93,1692.64,-24397.8
1.31046e+08,6.85119,0,3.04316,601.642,999.562,-27929.9
1.31063e+08,170.498,2,2.87762,-1558.15,-25209,-3359.1
1.31571e+08,91.2108,0,2.5862,8362.46,-14250.4,-18807.4
1.31759e+08,98.1707,0,2.77828,18600.8,-9032.09,-27023.3
1.31942e+08,15.0297,2,2.56564,-1301.71,1555.21,-27044.3
1.32197e+08,94.2357,1,2.58334,-17527.8,-2872.36,-19721.4
1.32239e+08,7.37958,2,2.61385,525.418,-971.848,-27662.2
1.32285e+08,55.5698,1,2.48186,9270.33,7120.59,-27391.6
1.32406e+08,147.332,1,2.68833,-2519.47,25281.1,-10871.5
1.32532e+08,57.807,1,2.5057,-4573.39,11353.2,-27287.7
1.32592e+08,59.3899,2,2.37234,12097.8,-3364.14,-29567.7
1.32797e+08,12.9303,0,3.03739,65.5339,2604.4,-27980.4
1.32885e+08,83.9564,0,2.37016,5220.18,-8221.64,-13926.5
1.32905e+08,45.7865,0,2.39648,-4931.81,4188.91,-21638.2
1.32995e+08,288.776,1,2.85825,-16938.4,29640.7,21349.8
1.33021e+08,19.4992,1,2.3755,-1060.33,2289.29,-25476.3
1.33186e+08,47.1812,2,3.05208,-1567.81,-2104.55,-21804.2
1.33325e+08,81.0926,1,2.67189,-12880.9,10392.9,-24132.1
1.33663e+08,29.3529,2,2.78624,3620.6,-5042.31,-28242.4
1.33876e+08,90.9824,1,2.58293,14896.5,-10297,-22590.8
1.34036e+08,44.0036,0,2.4794,4557.05,8072.62,-27477.6
1.34379e+08,1.5402,0,2.80535,380.56,136.982,-28720.6
0,1.63724,0,2.61012,0,0,0
1.34541e+08,59.6017,0,2.36649,11696.2,-3758.69,-25596.2
1.34627e+08,24.8423,2,2.66353,-3807.05,-3680.69,-28091.2
1.34928e+08,86.0501,1,2.84003,3823.86,16303.9,-21802
1.34951e+08,37.0044,0,2.93095,1260.74,4593.05,-22699.7
1.35296e+08,0.807168,2,2.66847,-94.4518,-237.233,-28953.6
1.35515e+08,139.935,0,2.85822,-13173.8,10093.7,-4604.08
1.35873e+08,29.2523,0,2.5908,2717.06,3499.52,-24446.1
1.35974e+08,79.7565,2,2.74159,1219.51,1406.4,-26100.7
1.3608e+08,64.925,1,2.80439,7265.78,328.258,-17276
1.36193e+08,184.197,0,2.3887,19473.9,-12572.2,2538.05
1.36441e+08,135.964,0,2.44987,28250.9,4462.65,-25254.6
1.36487e+08,19.6817,1,2.87381,-2332.07,-375.509,-25400.9
1.36581e+08,70.9468,1,2.74998,-5989.37,9305.74,-18693.2
1.36626e+08,58.7598,0,2.36456,10523.9,3168.41,-22822.7
1.36954e+08,8.40521,0,2.61596,-205.423,-1706.25,-28357.2
1.37445e+08,2.72135,2,3.00561,145.83,98.2608,-28291.7
0,2.75218,2,2.61009,0,0,0
1.37506e+08,146.977,1,2.85587,-8625.01,28845.2,-21633.4
1.37992e+08,75.1432,2,2.88401,-6582.66,-10963.8,-19465.5
1.3809e+08,30.6578,0,2.7874,-1995.44,5368.61,-25906.6
1.38434e+08,106.598,1,2.75,19776.8,-2041.33,-19103.3
1.38514e+08,81.0894,1,2.91082,-11903.3,7857.39,-19383.9
1.38847e+08,41.1937,0,2.65091,-1551.52,-6255.81,-23000.2
1.38896e+08,12.3468,0,2.7983,-1656.86,682.422,-27015.1
1.38999e+08,16.7146,0,2.49257,2387.86,-659.108,-26222
1.39011e+08,23.2978,2,2.78941,592.5,-3501.93,-25358.9
1.39064e+08,144.295,1,2.56849,-11456.9,26722.6,-19350.8
1.39234e+08,91.6932,1,3.04415,-15671.4,11269.4,-29488.9
1.39306e+08,68.0731,2,2.49832,7035.87,2495.03,-16533.9
1.39311e+08,56.6219,1,2.54444,-11471.1,285.134,-25209.5
1.3994e+08,37.9775,0,2.73992,6070.74,299.883,-23510
1.40063e+08,175.711,0,2.69926,18559.2,7359.86,2062.81
1.40155e+08,16.0155,0,2.91236,2561.2,109.839,-26530.3
1.40264e+08,5.67521,0,2.42619,938.24,-118.281,-27963
0,5.6887,0,2.6534,0,0,0
1.40477e+08,41.871,1,2.69437,-2221.64,6025.75,-22667.3
1.40483e+08,91.7412,0,2.69905,-16152.6,-4023.7,-19104.2
1.40547e+08,25.0582,0,2.79619,3492.12,3392.96,-26599
1.4056e+08,110.723,2,2.76946,11611.1,-14194.4,-14403.8
1.4058e+08,53.7803,0,2.79663,4328.51,-4716.07,-19441.4
1.40634e+08,48.7711,1,2.75244,-4145.87,-8433.27,-24757.9
1.40772e+08,31.3163,2,2.8017,1171.25,2923.04,-25189
1.40931e+08,11.8662,0,2.86938,231.083,2476.69,-28417.8
1.41164e+08,21.6483,2,2.49736,-993.089,-2993.01,-25434.2
1.41346e+08,105.533,1,2.53779,-7749.31,-13642.5,-12984.1
1.4184e+08,45.63,2,2.46712,-4307.86,-8435.86,-26521.2
1.42083e+08,138.155,2,2.99625,-15654.8,22625.2,-19904.2
1.42092e+08,26.3935,2,2.95058,4804.69,1885.46,-26939
1.42141e+08,93.4294,2,2.60846,11583.6,6067.91,-14128.4
1.42179e+08,134.386,2,2.74206,-21181.6,-1303.96,-10040.3
1.42432e+08,58.4232,2,2.47818,4383.29,5986.67,-18983.2
1.42441e+08,42.7044,0,2.41249,4344.04,1919.34,-21076.5
1.42495e+08,34.7334,2,2.70843,-3695.28,6300.87,-28762.2
1.42595e+08,41.0512,0,2.88115,5019.4,5313.95,-24120
1.42736e+08,57.0024,0,2.93183,4586.73,-8645.17,-21849.7
1.4279e+08,63.3942,2,2.42453,-5328.81,2325.24,-16734.1
1.42884e+08,43.9315,1,2.44513,-3256.87,-1875.03,-20313
1.42889e+08,3.43642,2,2.59765,418.141,-275.145,-28277.1
1.42903e+08,139.577,0,2.63434,18292.4,18733.3,-15186.9
1.43345e+08,42.3237,2,2.43193,-6965.79,2953.49,-24047.2
1.43568e+08,186.501,0,2.73119,-5002.52,-21187.7,3874.35
1.43769e+08,31.9115,1,2.76092,3535.49,5287.28,-26463.1
1.43909e+08,8.44755,0,2.79468,76.0765,-971.165,-27523.2
1.44468e+08,190.491,0,2.43227,16857.5,469.238,7807.41
1.44605e+08,90.6908,0,2.78167,-3282.98,8411.22,-12008.5
1.44779e+08,146.916,2,2.9579,-22575.6,-13621.8,-12761
1.45666e+08,20.161,1,2.8498,-1960.09,-2561.37,-26102.5
1.46153e+08,168.801,0,2.84756,14843.8,-15936.6,-781.796
1.46321e+08,88.9051,2,2.73028,17073.1,-639.193,-21197.4
1.46325e+08,86.6881,0,2.73784,12997.8,12677.4,-26159.1
1.46352e+08,66.5259,2,2.72459,-14026.4,944.269,-28945.3
1.46979e+08,16.7571,1,2.89118,184.498,2172.06,-25986.8
1.47746e+08,142.861,2,2.36392,-8339.41,-26013.8,-17931.3
1.48424e+08,8.85196,2,2.77812,-971.663,1094.14,-27705.1
1.48564e+08,7.85675,2,2.75319,-1005.69,-784.065,-27676.9
1.48718e+08,31.7614,1,2.76114,1015.71,6590.93,-27712.3
1.48749e+08,132.584,0,2.83919,25613.7,8305.08,-21339.9
1.49313e+08,199.894,2,2.94,-26158.4,-19066.6,-2079.17
1.49419e+08,125.125,2,2.84153,-5932.34,-17349.2,-9888.32
1.49428e+08,62.1028,1,2.40308,6889.53,2810.27,-17994.8
1.50503e+08,360.161,1,2.80215,-25630.2,5605.54,-22060.2
1.50894e+08,52.3373,0,2.84208,-6602.05,1400.01,-20195.7
1.50952e+08,102.548,2,2.74752,-11313.2,-6912.3,-11728.3
1.51017e+08,205.893,0,2.69025,-11184.5,27351.2,2935.34
1.51174e+08,109.275,1,2.98268,2035.16,20163.4,-18000.3
1.51227e+08,33.104,2,2.70516,6673.16,-2034.32,-28528.8
1.51311e+08,4.43033,0,2.73885,333.597,-815.253,-28425.5
0,4.40449,2,2.53569,0,0,0
1.5132e+08,21.0974,2,2.87526,-3255.34,2940.34,-29558.6
1.51573e+08,59.3814,1,2.79472,11871.2,2897.98,-26216.4
1.51615e+08,20.7691,1,2.97823,-2230.96,-3332.73,-27175.9
1.51737e+08,11.6711,2,2.67562,-1883.38,-1117.21,-27548.8
1.51954e+08,77.1684,1,2.98952,-7643.38,1870,-14650.8
1.52271e+08,4.03868,2,2.46153,-530.185,630.742,-28592
1.52503e+08,43.3005,0,2.8347,6488.81,-2389.58,-22811.4
1.52735e+08,80.8034,1,2.77727,-14808.2,8222.53,-26454.1
1.52798e+08,37.9205,2,2.52145,1979.35,7455.77,-26944.9
1.52808e+08,225.38,1,2.77649,5327.51,1933.23,-21864
1.53002e+08,38.5238,2,2.47917,-1824.79,-7856.88,-27087.7
1.5304e+08,20.2029,0,2.70144,2372.4,-903.917,-25349.4
1.53229e+08,116.342,2,2.36208,17039.4,-17835,-28064.9
1.53244e+08,91.895,0,2.93724,16167.9,10630.2,-27862.9
1.53267e+08,65.9399,0,2.70087,-2920.99,-13593.7,-29468.8
1.53467e+08,229.059,1,2.70734,-20221.6,-19416,10447
1.54182e+08,65.6214,1,2.51616,7408.25,11672.4,-27154.2
1.5448e+08,83.9983,0,2.51003,15776.3,6172.32,-23205
1.55202e+08,24.9376,2,2.63036,-1434.6,-5134.1,-28394.1
1.55421e+08,14.433,0,2.41614,-93.7974,1945.1,-26460
1.55497e+08,101.149,1,2.54953,14052.5,-6832.79,-14308.7
1.56224e+08,97.415,0,2.85119,14434.7,12785.1,-21750.1
1.5635e+08,26.6309,2,2.73364,5231.13,-348.754,-26906.2
1.56441e+08,103.635,2,2.77367,2669.7,14498,-12800.3
1.56591e+08,8.43934,1,2.40901,-1284.54,1310.65,-28383.8
1.56667e+08,204.869,2,2.79002,-10890.9,4738.78,-5770.7
1.56668e+08,81.0756,1,2.77762,2760.94,7019.11,-13495.1
1.56675e+08,65.305,2,2.73196,-4055.97,-13249.3,-28737.7
1.57014e+08,57.9877,2,2.58445,-8429.04,-2070.06,-20101
1.57028e+08,141.809,1,3.01169,-26468.6,13154,-25161.5
1.57389e+08,31.5279,2,2.75054,-3444.93,1522.67,-23334.7
1.57876e+08,10.5783,2,2.84579,48.7441,-2282.37,-29053.2
0,10.3903,2,2.63879,0,0,0
0,10.4703,2,2.83785,0,0,0
1.57903e+08,40.7459,1,2.53115,3100.4,-7421.7,-25903.6
1.58143e+08,121.88,1,2.67002,-9689.1,-20739.5,-17217.7
1.58236e+08,293.831,1,2.36998,-22239.8,3426.32,-22206.1
1.58246e+08,26.2169,0,2.88447,2952.59,-3921.69,-26186.4
1.5858e+08,126.408,2,2.90645,-15287.7,-19593.1,-19358.8
1.58738e+08,99.4154,2,2.60876,18245.5,1604.92,-18620
1.58929e+08,5.57007,1,2.56523,-216.496,-403.238,-27736.4
1.59007e+08,33.3681,0,2.46473,1896.39,5766.11,-25140.4
1.59095e+08,157.085,0,2.60837,24004.8,-1673.91,-5907.77
1.59204e+08,75.931,2,2.40751,-13850.6,2349.24,-20933.8
1.5921e+08,46.6602,0,3.0147,5150.9,-3092.37,-21068.9
1.59224e+08,29.1843,2,2.75394,1291.88,4348.28,-24722
1.5946e+08,47.2447,2,2.75464,9622.16,799.83,-26476.9
1.59462e+08,118.944,2,2.53324,-4474.75,-24076.8,-22724.5
1.59634e+08,87.4683,1,2.71912,8895.56,15086.3,-22949.1
1.59682e+08,41.5128,1,2.68609,5407.06,5681.69,-24861.9
1.59921e+08,45.9364,1,2.61822,-3068.97,-9111.4,-29772.1
1.59948e+08,85.3701,1,2.93234,-2951.26,11849,-15635
1.60053e+08,200.466,2,2.51528,-28870.5,9203,823.808
1.6014e+08,139.677,0,3.01324,20122.7,12018.9,-26674
1.60476e+08,7.41502,0,2.96179,1588.81,450.606,-28981.6
1.60489e+08,38.1209,2,2.64282,2865.93,-1378.75,-21435.6
1.60725e+08,152.632,2,2.4263,19674.9,9417.96,-5060.13
1.61124e+08,114.847,1,3.00107,9272.54,10366.9,-9220.48
1.61823e+08,17.5446,0,2.4471,-91.042,3566.22,-27707.3
1.62142e+08,137.461,0,2.59441,27482,9152.92,-25789.3
1.6223e+08,49.7164,0,2.91484,-426.434,4443.03,-19402.1
1.6268e+08,3.80916,1,2.73294,306.901,160.397,-28111.8
1.62689e+08,53.9746,2,2.92143,-2207.42,-9192.17,-22448.6
1.62755e+08,7.60594,2,2.43169,1527.85,-245.445,-28371.5
1.63261e+08,103.335,0,2.64159,18499.8,6242.78,-18923.5
1.63269e+08,19.6241,2,3.0176,1371.08,-3752.66,-27668.7
1.63646e+08,108.016,2,2.42141,2716.22,12469.6,-9912.04
1.64038e+08,156.863,1,3.00978,-12708.3,-29769.3,-24803.5
1.64526e+08,37.987,1,2.39216,1166.09,4656.74,-22316.7
1.64637e+08,6.38366,0,2.6419,1238.65,-701.936,-28768.5
1.64899e+08,57.5552,1,2.7556,-10363.9,-3461.1,-23487.3
1.64944e+08,176.587,0,2.80227,7921.79,17323,3094.91
1.64995e+08,51.3992,2,2.86958,9570.07,2794.95,-24762
1.65099e+08,263.954,0,2.92882,10389.1,22767.8,20597.3
1.65336e+08,58.1861,1,2.74803,442.867,5393.98,-17794.9
1.65437e+08,1.04645,0,2.50228,-48.3467,110.095,-28679.5
0,0.914717,0,2.74414,0,0,0
0,1.03896,0,3.01868,0,0,0
1.65442e+08,152.769,1,2.46654,-29181,3726.49,-15333.2
1.6561e+08,82.0448,2,2.58637,4752.78,-13469.8,-18908.2
1.65816e+08,97.5914,2,2.6843,1132.71,-13956,-15968.4
1.6584e+08,188.61,1,2.80693,-14884.5,11285.2,6216.59
1.65851e+08,90.3457,1,2.91397,3932.74,17657.7,-22860.9
1.66184e+08,2.47529,0,2.58623,510.467,-310.207,-29015
1.66263e+08,156.324,2,2.74446,14912.7,598.552,486.841
1.6633e+08,76.5965,2,2.6147,-9104.45,-11719.5,-22188.2
1.66349e+08,7.05614,2,2.98734,-1076.09,-560.742,-27850.5
1.66457e+08,18.1205,0,2.60584,-185.584,-2051.31,-25602.2
1.66767e+08,129.986,0,2.63472,-16956.7,-4554.76,-7823.37
1.66952e+08,95.0196,2,2.64194,9043.24,10754.7,-14616
1.67328e+08,242.75,1,2.46232,12052.5,22851.5,15552.1
1.67335e+08,101.459,2,2.91658,-14323.7,-3652.95,-13423.3
1.67369e+08,7.32189,1,2.58654,-1442.07,-347.235,-28233.1
1.67556e+08,168.454,0,2.37024,-23811.2,23391.4,-16407.1
1.67632e+08,39.4945,1,2.58766,-6712.95,-4604.99,-26876.3
1.67707e+08,75.9285,1,2.83575,-10423.1,-10196.3,-22322
1.67721e+08,56.1014,0,3.01071,-710.947,-9024.78,-29296
1.67725e+08,66.4252,1,2.93509,-9073.34,-2174.98,-18444.3
1.67821e+08,56.8528,2,2.36864,954.659,-8573.58,-20384.7
1.68107e+08,19.6052,0,3.04552,1734.38,640.25,-25109.2
1.68325e+08,7.58174,2,2.77641,-529.43,-289.502,-27332.2
1.68587e+08,16.3504,2,2.58582,-2478.88,1266.29,-26729.9
1.68883e+08,85.0684,2,2.83212,-7180.1,-7101.85,-20833.8
1.6899e+08,91.7533,0,2.47305,-1084.67,-19396.5,-29158.9
1.69143e+08,95.2425,0,2.60327,13411.5,15073,-29731.3
1.69276e+08,74.5263,1,2.69452,-4976.43,10709.5,-18369.8
1.6943e+08,109.004,0,2.8011,13978.9,10934,-14224.1
1.69983e+08,194.018,0,2.89577,-4738.22,21495.7,-25508.6
1.70053e+08,42.6705,0,2.43047,-4600.24,5713.07,-23597.5
1.70138e+08,20.6715,2,2.75235,-3107.38,-806.319,-25812.9
1.70222e+08,124.876,0,2.764,24574.3,9077.86,-25689.4
1.70394e+08,168.23,1,2.83988,-19065.8,-15139,-3176.91
1.70481e+08,96.2284,0,2.61801,-12987.1,-7924.12,-15422.3
1.70571e+08,19.1112,2,2.84022,-2996.1,1655.69,-26680.6
1.70731e+08,19.6558,0,2.9838,4164.21,-779.273,-28832.1
1.70843e+08,58.7979,1,2.958,-8098.1,-5835.03,-21562.9
1.71059e+08,17.7591,2,2.44503,-3576.88,-589.396,-27613.8
1.71357e+08,263.925,1,2.80815,3225.48,-11348,5389.44
1.7153e+08,47.7953,1,2.49562,923.996,7950.96,-22546.9
1.72099e+08,126.863,1,2.99757,-4596.49,-22512.2,-15536.8
1.72218e+08,96.17,2,2.65546,-14046.5,14646.9,-28532.8
1.72697e+08,99.2255,2,2.85729,-3262.71,-7774.76,-9711.23
1.72756e+08,10.6446,0,2.9672,1188.85,902.179,-27100.9
1.72782e+08,87.1655,0,2.96297,6435.66,-6647.31,-29092.8
1.72809e+08,114.31,2,2.49101,14067.9,-16457.8,-17987.7
1.72971e+08,140.417,0,2.89737,18616.4,21876.4,-21831.8
1.73154e+08,61.4879,2,3.02854,-3529.05,-11888.5,-25020.6
1.73174e+08,65.7927,1,2.51993,13741.1,-1383.73,-28198.3
1.73242e+08,7.39135,1,2.63542,-164.972,598.956,-27377
1.73242e+08,14.5248,2,2.65318,1767.8,942.099,-26579.6
1.73385e+08,47.3775,0,2.39679,6727.15,-3911.9,-22401.6
1.7351e+08,50.877,2,2.80274,-4398.9,8057.88,-23375.7
1.73523e+08,138.237,0,2.76144,23443.2,419.595,-11458.6
1.73528e+08,35.3231,0,2.79408,76.9808,3138.08,-22067
1.73746e+08,67.5846,0,2.52394,-5203.4,-11147.6,-21620.3
1.74003e+08,77.6725,2,2.68161,-9048.95,-769.07,-15188.6
1.74277e+08,27.4655,1,2.66529,-3171.17,4679.47,-27129.1
1.75066e+08,5.73509,0,2.83273,476.978,937.221,-28125.6
1.75289e+08,40.268,1,2.66656,-5318.17,-5725.01,-28617.3
1.75335e+08,23.0905,2,2.65297,-1407.65,-4462.67,-27234
1.7579e+08,19.1635,0,2.7375,-646.416,-3954.5,-28314.4
1.75938e+08,90.7746,0,2.89032,3253.04,9406.61,-12877.7
1.76099e+08,8.36157,2,2.93119,-862.084,1043.71,-27722.2
1.7627e+08,6.28308,0,3.02298,98.7731,-784.248,-27743.8
1.77049e+08,20.9362,1,2.38862,-1206.55,4197.93,-27605.9
1.77069e+08,81.6698,2,2.66412,-13836.3,-177.949,-18484.8
1.7742e+08,68.6217,1,2.7883,-10512.2,1955.97,-19042.4
1.77574e+08,103.779,0,2.41637,15775,-10693.7,-17799.2
1.77951e+08,89.9472,2,2.46924,359.829,-10599.5,-12978.7
1.78089e+08,30.4114,2,2.9227,-6436.3,73.2717,-29032.2
1.78559e+08,102.731,0,3.04496,-9120.69,-18122.4,-21769.3
1.78624e+08,24.5665,0,2.70595,-1979.33,-2926.12,-25094.4
0,24.4639,0,2.77145,0,0,0
1.79781e+08,2.13041,0,2.42573,87.841,-383.195,-28605.6
1.80042e+08,15.1154,2,2.64133,-2324.48,-830.715,-26702.4
1.80204e+08,43.1487,1,2.78942,-7132.07,5093.54,-26128.7
1.80249e+08,36.3333,0,2.74728,3061.95,-1057.47,-21843.4
1.80324e+08,63.43,0,2.89899,-4069.2,11610.2,-23808.4
1.80934e+08,93.2503,1,2.97472,-372.837,-15813.1,-17386.8
1.80963e+08,357.26,1,3.02412,-21737.3,16026.5,-10605.7
1.80987e+08,19.6727,2,2.37824,-1709,3526.1,-27469.5
1.81173e+08,99.6677,2,2.80509,5865.03,13657.7,-14089.1
1.81194e+08,162.224,2,2.53494,-3055.95,14420.2,2099.94
1.81716e+08,65.0382,2,3.04382,-10684.6,7819.06,-25572.8
1.81876e+08,119.191,1,3.04105,-20583.7,-9580.1,-18440.7
1.81998e+08,1.35853,0,2.74919,286.546,-36.3739,-28628.1
1.82032e+08,91.5267,2,2.94916,-7076.2,-5402.83,-11782
1.82051e+08,113.867,0,2.55635,-12510.5,-18293.9,-19535.9
1.82187e+08,66.9411,1,2.75698,-10440.4,5256.21,-20810.6
1.82202e+08,59.956,1,2.78081,4015.7,-8141.01,-20135.2
1.82373e+08,202.376,2,2.69426,7378.38,24505.9,5230.03
1.82783e+08,11.0945,2,2.47465,173.219,-2420.8,-28771.6
1.83064e+08,132.872,1,2.61888,12520,-10006.3,-11506.5
1.83107e+08,86.6672,2,3.03054,12881.4,2092.48,-16244.5
1.83217e+08,110.425,2,2.5201,-16787.4,-14788.3,-22796.9
1.83315e+08,12.5177,0,2.79093,2371.43,-1005.79,-29749.4
1.83509e+08,33.9261,2,2.68485,-6971.98,1632.46,-28132.6
1.83797e+08,71.3604,1,2.89067,-7629.45,12780.7,-26353.5
1.83821e+08,96.3065,2,2.83435,-2243.15,-19384.3,-23180.2
1.83878e+08,87.6628,0,2.45462,14277.7,-11527.6,-25807.9
1.84086e+08,88.9507,0,2.4179,16308.4,-4963.41,-20667.6
1.84241e+08,115.892,2,2.70708,16586.1,16945.2,-23283.2
1.84407e+08,1.78235,0,2.45638,319.212,287.767,-28733.5
1.84503e+08,33.528,1,3.02211,2509.58,-2327.66,-22722.9
1.84536e+08,160.456,2,2.88298,-7525.09,15375,190.673
1.84885e+08,144.124,0,2.95877,681.91,-28607.3,-18992.1
1.84977e+08,9.19129,2,2.538,-1210.35,652.575,-27432
1.85078e+08,33.7446,1,2.52318,1297.7,6145.52,-25333.1
1.85234e+08,25.4765,2,3.00619,-3228.58,708.23,-24618
1.85324e+08,64.6473,0,2.85956,-1362.78,12666.1,-24049
1.85328e+08,43.9244,2,2.71115,8465.64,-1794.78,-25597.6
1.8541e+08,110.875,2,2.39947,11459.1,-2819.53,-8553.77
1.85466e+08,85.9449,1,2.50232,-11338.1,13550.2,-24156.4
1.85563e+08,33.4243,2,2.45335,5246.49,-2910.41,-25047.9
1.85678e+08,20.8073,1,2.84451,-1606.82,2535.49,-25568.1
1.86002e+08,52.2966,0,2.85374,5565.69,9518.85,-27979.5
1.86022e+08,51.5441,0,2.5224,8303.2,-6024.08,-25010.1
1.86733e+08,52.2365,2,2.52421,10542.2,-1415.38,-25966.7
1.86846e+08,294.218,2,2.88733,6461.76,-7461.57,-21168.7
1.86889e+08,65.8281,2,2.49895,-12307.9,2496.51,-22738.9
1.87145e+08,50.4232,2,2.61303,-891.733,4856.93,-19416.1
1.87234e+08,86.6214,0,2.49227,11840.2,-10193.6,-19129.2
1.87247e+08,73.8952,2,2.70271,8754,-9807.99,-20389.6
1.87273e+08,3.90197,2,2.81139,793.384,-134.882,-28841.1
1.87469e+08,12.7555,2,2.8009,-1879.39,1563.52,-27676.4
1.88131e+08,5.92464,0,2.84056,1098.25,-734.54,-29148.6
1.88205e+08,94.9762,1,2.69873,9961.22,-6700.55,-12847.1
1.88339e+08,72.7733,2,2.50863,-7716.61,-4174.93,-16141.4
1.88464e+08,92.0428,2,2.38058,11727.6,-6388.78,-14627.6
1.88566e+08,90.8749,1,2.76548,-5957.56,7692.56,-12313.2
1.88815e+08,126.666,1,2.90772,-25912.4,-3162.69,-23587.2
1.89127e+08,16.0579,0,2.74296,1456.58,-3087.83,-29284.8
1.89255e+08,88.3736,2,2.93366,2275.4,7484.12,-12050.8
1.89495e+08,51.1976,1,2.86718,-2728.89,10513.2,-28384.7
1.89818e+08,52.9909,2,2.60067,-10924.9,-1233.62,-26409.5
1.8999e+08,172.026,0,2.7434,29797,5793.94,-8900.73
1.90002e+08,82.2316,0,2.70059,-16915.9,-2900.49,-26957
1.90206e+08,8.20926,2,2.39641,630.788,-743.136,-27369.6
1.90447e+08,39.3894,0,3.03038,1009.06,-6511.01,-23841.6
1.90574e+08,122.173,1,2.99039,-15964.6,10257.3,-20514.9
1.90805e+08,106.108,2,2.7221,-1701.9,-19169.4,-17325.9
1.90984e+08,7.00851,2,2.4797,-1514.51,-452.529,-28762.9
1.91238e+08,66.3655,0,2.88755,-502.085,-9398.57,-18523.8
1.91247e+08,250.094,0,2.76806,4238.37,28573.5,15180.2
1.91338e+08,53.0177,0,2.65649,7236.86,-8617.83,-28879.3
1.9149e+08,27.7691,1,2.81076,-1679.25,3114.25,-24105.1
1.91511e+08,87.2061,2,2.36536,-4160.58,-14573.7,-18152.5
1.91599e+08,196.298,0,2.39264,-23633.4,647.52,5266.22
1.92124e+08,109.306,0,2.50422,8207.39,8579.23,-8986.01
1.92178e+08,5.04419,0,2.81482,771.486,-842.674,-28803.4
1.92187e+08,70.4127,1,2.40561,-14839.3,-82.0967,-26818.5
1.9221e+08,46.6717,2,2.80863,4469.83,-3932.86,-21013
1.923e+08,112.156,1,2.65384,7736.65,14694,-11975.5
1.92671e+08,179.789,0,3.04725,5788.86,-12874.6,4771.31
1.93023e+08,78.2764,1,2.52343,-623.292,13424.5,-19055.6
1.93325e+08,82.4492,1,2.80743,-3979.09,-11127.4,-16185.6
1.93376e+08,136.211,1,2.40591,-508.934,-23410.7,-12117.8
1.93538e+08,162.001,2,2.60823,18653.5,-24140.3,-13272.4
1.94287e+08,24.4213,1,2.47888,2621.44,3577.95,-26102
1.94469e+08,35.1646,0,2.6473,6710.02,2584.17,-26714.4
1.94537e+08,67.5377,1,2.45637,9119.49,5328.39,-19186.2
1.9478e+08,25.6592,2,2.49338,-5029.96,1778.18,-27632.8
1.95207e+08,153.982,2,2.38352,-14757.5,-29166.5,-29644
1.95246e+08,74.9755,2,2.87366,10818.2,-5746.7,-18917.4
1.95595e+08,145.787,0,2.66085,15550.5,-25442.8,-21151.5
1.96028e+08,6.38591,1,2.93525,318.078,1372.55,-28581.3
1.96066e+08,42.9327,2,2.81769,3265.28,-8129.39,-26410.5
1.96155e+08,153.75,2,2.52316,-28055.8,11556.3,-17127.4
1.96383e+08,36.3265,1,2.84121,-1074.3,-7334.16,-27195.2
1.9661e+08,8.57318,2,2.78864,-138.065,629.73,-27165.6
1.96626e+08,168.705,1,3.00233,17164.5,1111.39,-24841.8
1.9663e+08,60.0235,0,2.51432,8941.73,-1622.14,-19891.9
1.97107e+08,89.658,1,2.42111,-17869.5,-3193.83,-23134.7
1.97332e+08,147.227,0,2.9062,17049,-25468.5,-27219
1.97403e+08,106.63,0,2.74295,-18339.9,-5309.46,-17082
1.97497e+08,50.4186,2,2.47495,5667.93,-8055.41,-24600.5
1.97498e+08,77.5619,1,2.51202,-14856.2,2297.12,-23146.7
1.97514e+08,177.066,2,2.59971,20635.2,-18132.1,-3420.49
1.98201e+08,91.7214,2,2.50893,-18568.2,-2136.14,-23499.8
1.98362e+08,145.195,2,2.64535,-14977.8,482.841,-24941.7
1.98474e+08,71.764,2,3.03465,-3326.42,-7046.16,-15933.5
1.98529e+08,79.3265,0,2.65762,-4522.47,16120.9,-28473.2
1.99262e+08,13.6588,0,2.5265,2727.11,-1219.04,-28735.2
1.99311e+08,187.406,1,2.87946,-17350.2,-22913,-6437.33
1.99893e+08,46.4946,0,2.70245,6360.36,-7336.8,-27148.3
2.00015e+08,95.6709,2,2.59649,-17596.6,4264.28,-19864.5
2.00071e+08,24.3234,2,2.68769,79.8175,-2110.7,-24104.7
2.00393e+08,4.3227,2,2.63764,3.09103,-879.609,-28384
2.00423e+08,68.6019,2,2.65768,-8667.06,-2975.17,-17573
2.0044e+08,16.3456,0,2.74849,429.857,-2183.78,-26157.1
2.00714e+08,145.944,2,2.52599,2005.17,-6449.87,-9709.24
2.00861e+08,0.320653,2,2.75861,-78.2121,-149.777,-28837.7
0,0.307774,2,2.2258,0,0,0
0,0.320178,2,2.36121,0,0,0
0,0.332251,2,3.05261,0,0,0
0,0.245448,2,3.05398,0,0,0
0,0.213549,2,2.63659,0,0,0
0,0.214733,2,2.23767,0,0,0
0,0.215626,2,3.42383,0,0,0
2.00928e+08,8.59979,1,2.48366,-954.269,1316.25,-27840.8
2.01222e+08,62.0174,2,3.00074,3731.63,6782.82,-18436.4
2.01283e+08,99.0179,2,2.54671,-5699.78,-19031.1,-22047.9
2.01918e+08,1.52366,1,2.94603,-340.262,254.737,-28775.9
2.02131e+08,116.683,0,3.04997,21727.9,7590.46,-20375
2.02353e+08,1.56726,0,2.69345,218.955,32.7775,-28537.1
0,1.56529,0,2.7642,0,0,0
0,1.51225,0,2.68533,0,0,0
2.02395e+08,181.434,2,2.90379,9509.95,7453.04,-20822.8
2.02616e+08,79.0129,2,2.76309,3288.34,-16376.7,-28141.1
2.02767e+08,183.865,2,3.03406,-25733.3,13486.9,-3536.71
2.0277e+08,104.449,2,2.41226,11925.2,-11513.8,-14160.5
2.03191e+08,163.977,2,2.95216,-14137.7,-25369.2,-15332.6
2.03634e+08,125.529,2,2.81245,12930.8,3093.27,-6035.33
2.03874e+08,31.2051,2,2.79443,-6510.51,1075.4,-29539.7
2.04545e+08,42.1043,1,2.80077,-8190.72,-1041.33,-25556.4
2.04949e+08,90.5528,0,2.83307,16861.9,412.525,-19812.6
2.05447e+08,111.592,0,2.64329,9595.7,-19070.9,-18794.2
2.05661e+08,168.407,2,2.76972,1362.94,23879.6,-2734.87
2.05693e+08,27.8978,0,2.4867,-3375.92,-3750.43,-25852.2
2.05787e+08,24.0124,2,2.47995,537.624,-5087.85,-28019.9
2.05918e+08,39.5562,2,2.57844,-6454.98,-3503.85,-24696.4
2.06033e+08,86.1009,2,2.69881,2007.65,-11814.8,-15156.2
2.06082e+08,20.5938,0,2.64504,1212.85,3699.79,-26821.3
2.06162e+08,9.66848,1,2.37068,-401.767,2010.55,-29535.6
2.06166e+08,154.64,2,2.9331,-8299.68,22688.8,-7255.96
2.0645e+08,86.2034,0,2.45201,11133.1,11451.8,-19898
2.0664e+08,168.904,2,2.6865,29940.6,18866.4,-25359.3
2.06665e+08,258.792,0,2.67169,2945.6,7061.06,-20409
2.0672e+08,134.616,2,2.82293,2191.54,-1484.06,-24693.4
2.06866e+08,160.903,1,2.85584,-21908.7,-20756.1,-13661
2.07238e+08,2.78773,2,2.77855,-137.066,-694.094,-28822.4
2.07352e+08,0.647954,1,2.40161,19.4455,56.4115,-28719.8
0,0.565278,1,2.84213,0,0,0
2.07432e+08,23.4662,2,2.8423,3262.86,-2172.88,-25815.3
2.07666e+08,40.8846,0,2.70331,-764.073,8189.5,-26227.4
2.07834e+08,62.0448,0,2.4094,1330.28,-10715.7,-21333.1
2.08211e+08,44.176,1,2.72352,5113.58,7726.07,-27605.6
2.08394e+08,10.644,1,2.87855,-776.742,-1093.61,-27056
2.08684e+08,90.9223,1,2.69571,6154.91,17761.7,-24890.6
2.08763e+08,19.8521,1,2.76922,-417.665,1967.61,-25114.2
2.08993e+08,6.48204,0,2.99022,1462.23,-143.304,-28730.8
2.09184e+08,19.304,0,2.65625,3703.71,-1937.92,-28874.2
2.09541e+08,96.1137,1,2.99314,-12140.8,-8679.17,-15355.3
2.09787e+08,136.445,1,2.53147,-12541.6,19458.5,-11509
2.10127e+08,168.909,1,2.65566,-26352.4,5424.15,-5389.92
2.10154e+08,163.738,1,2.44862,-23111.5,-2754.64,-4215.25
2.10232e+08,208.838,2,2.61137,1337.65,-8110.13,-10679.4
2.10327e+08,25.373,2,2.92607,-3253.34,-4257.6,-27908.3
2.10573e+08,189.815,1,2.68951,-4831.85,16350.6,7409.08
2.10633e+08,19.0607,1,3.05091,-663.959,3915,-28000.9
2.10856e+08,106.162,2,2.56587,6577.6,11721.1,-10914.4
2.11009e+08,16.5843,1,2.44102,-3401.79,-904.188,-28383.8
2.11082e+08,55.227,0,2.42659,10106.9,-3425.2,-24853
2.11131e+08,156.182,1,2.97076,29734.8,-4026.56,-15807.5
2.11569e+08,11.5699,0,2.82974,-655.693,2300.42,-29358.6
2.11722e+08,37.3198,2,2.65194,1347.98,-7190.86,-25706.3
2.11899e+08,127.789,0,2.47387,15429.2,-226.536,-11156.3
2.11951e+08,162.578,2,2.97926,-25874.8,-16337.8,-13631.7
2.12209e+08,102.578,1,2.72956,21401.8,2427.1,-27221.9
2.12291e+08,29.8329,2,2.577,-2063.99,5862.05,-29669.2
2.1236e+08,47.9079,0,2.633,-1414.56,9989.83,-28257.9
2.1249e+08,30.0204,0,3.04943,5800.53,70.0487,-26172.1
2.12523e+08,72.572,1,2.90324,-8535.65,8871.83,-19734.8
2.12614e+08,126.316,1,2.75177,-257.656,9548.76,-3968.56
2.1294e+08,23.3574,2,2.9389,-2906.36,-4092.5,-28687.1
2.12946e+08,27.0852,2,2.36377,4335.7,1448.7,-25455.8
2.12988e+08,142.55,0,2.62641,-4853.66,18553.6,-5659.26
2.12989e+08,167.872,2,2.76862,-27188.6,8775.12,-8018.6
2.13039e+08,28.7047,2,2.7991,-92.0725,562.865,-27901.5
2.13165e+08,98.5401,1,2.61198,-3961.9,-14685.4,-14692.4
2.13456e+08,91.6428,2,2.93007,6450.34,-8638.39,-15230.3
2.13805e+08,92.5435,2,2.78048,174.731,-17940.8,-21053.6
2.13997e+08,132.691,1,2.95973,-10174.5,8748.55,-4406.12
2.14239e+08,376.128,2,2.5909,11591.9,24536.5,-27104
2.14288e+08,26.5854,2,2.91032,-3700.48,2987.99,-25889.8
2.14437e+08,140.489,0,2.42951,21579.1,-16935.2,-18579.2
2.14632e+08,95.4036,1,2.84232,-15528.6,10437.4,-21366.5
2.14633e+08,114.165,1,2.71766,-14376.6,-14336.4,-15952.2
2.14914e+08,8.5911,1,2.87458,-836.175,1717.64,-29128.3
2.15017e+08,13.7595,0,2.37582,-122.966,-2153.74,-26837.4
2.15094e+08,9.34488,0,2.67797,-1468.38,742.022,-27825.9
2.15554e+08,290.019,2,2.37517,11286,-12753.7,11033.4
2.1578e+08,37.2198,1,2.80605,4787.9,2626.64,-23185.4
2.1596e+08,24.2431,1,2.90394,3916.04,3206.47,-28128.6
2.17216e+08,24.2206,0,2.8277,875.34,5043.33,-29187.5
2.17227e+08,64.4412,0,2.59675,12668.8,1073.81,-25385.1
2.17236e+08,37.1221,2,2.92953,-4625.31,-522.771,-22526.8
2.17338e+08,57.4161,2,2.46868,-11322.1,-618.164,-24347.9
2.17779e+08,39.5652,0,2.74739,7460.62,-739.679,-29544.2
2.17992e+08,39.0206,2,2.91716,719.747,3300.34,-25009.4
2.18142e+08,7.86058,2,2.37211,-1159.63,-1323.37,-28857.9
2.18705e+08,43.9532,0,2.8726,997.546,-206.399,-29069.8
2.18941e+08,63.0144,2,2.97326,-13044.2,-2377.67,-28002.2
2.19079e+08,72.1618,0,2.90003,6029.75,9796.46,-18882.7
2.19158e+08,169.901,2,2.97074,13588.7,19695.7,-2496.99
2.19266e+08,126.363,2,2.43443,5122.18,-11530.9,-5224.94
2.193e+08,194.939,0,2.75772,-24636.1,-28322.8,-12392.4
2.1934e+08,4.93052,2,2.46438,-1023.43,-140.039,-28388.9
2.19445e+08,92.0981,0,2.79006,-6509.1,-15572.5,-19307.4
2.19489e+08,78.4872,0,2.51786,-7824.97,2968.47,-14555.1
2.19829e+08,13.0504,1,2.77555,699.579,2751.15,-28619.2
2.20017e+08,5.92982,0,2.40162,80.2232,-1200.17,-28364.2
2.20108e+08,97.1987,0,2.81118,7324.22,-16015,-18336
2.20439e+08,30.9032,1,2.56445,6281.47,-1164.23,-27563.7
2.20626e+08,46.23,0,2.98001,7000.59,-1099.42,-22115.8
2.20831e+08,147.658,2,2.53209,-29346.9,-6703.76,-20320.6
2.20856e+08,105.747,1,2.78271,1099.76,-11346.9,-9768.33
2.21121e+08,160.274,1,2.91618,-2241.38,19763.4,-1633.3
2.21454e+08,40.1694,1,2.68936,-5194.56,6752.59,-27762.3
2.21606e+08,51.6372,2,2.59065,-10694.7,1921.29,-27318.3
2.21885e+08,129.114,2,2.68826,11133.1,3491.62,-16549.3
2.22107e+08,74.8051,1,3.06064,6705.23,1820.79,-14790.1
2.2215e+08,144.957,1,2.71635,24331.3,3198.65,-10696.6
2.22446e+08,97.3073,2,3.02408,4740.83,12030,-13103.5
2.22927e+08,27.9609,2,3.0067,2021.16,-4580.79,-25688.5
2.22968e+08,9.56599,1,3.03202,-1636.32,1240.84,-29202.1
2.23179e+08,97.5265,0,2.71819,13993.9,3524.48,-14098.5
2.23475e+08,34.8749,2,2.45834,1656.06,-7124.26,-27348.1
2.23517e+08,118.649,2,2.46221,-12961.4,852.084,-7356.36
2.23762e+08,34.9273,1,2.7865,-222.937,6455.28,-25163.6
2.24153e+08,21.0125,0,2.85372,4488.37,539.149,-28713
2.24596e+08,33.2831,2,2.88878,-1649.51,-6855.46,-29476.3
2.24645e+08,24.6427,1,2.44024,-669.031,-4257.37,-25939.8
2.2496e+08,210.144,2,2.78821,-26237.1,-23672.6,-2157.08
2.25597e+08,62.6055,0,2.80553,12989.9,-1724.62,-26897
2.2586e+08,3.31221,2,3.03974,-490.091,-505.758,-28465.1
0,3.28366,2,2.60702,0,0,0
2.26211e+08,6.55391,2,2.46709,1325.01,92.086,-28502.1
2.26336e+08,122.68,2,2.93855,-22985.9,1470.36,-17207.6
2.26391e+08,141.973,1,3.05857,3483.84,25721.7,-14254.7
2.26471e+08,30.0764,1,2.85078,-3513.15,5402.51,-28936.5
2.26529e+08,231.859,0,2.75719,-20665,-13650.5,2574.08
2.26731e+08,27.1341,1,2.7761,-4455.34,-3457.03,-29868.5
2.2675e+08,73.5752,2,3.03554,15217.7,737.716,-26643.6
0,73.8648,2,3.03554,0,0,0
2.26864e+08,188.366,1,3.02258,317.791,17089.6,6752.98
2.26979e+08,12.3635,2,2.69613,-2517.46,-677.365,-28131.3
0,12.4123,2,2.94078,0,0,0
2.27423e+08,20.9567,2,2.40785,-4141.31,-1500.52,-29800.4
2.27473e+08,139.814,2,2.93398,2802.1,5557.87,-26375
2.27481e+08,1.91461,0,2.95957,171.66,-400.855,-28720.5
2.27904e+08,21.0247,2,2.41928,-395.217,-2335.71,-25012.4
2.28252e+08,27.0361,2,2.77412,898.6,-4346.59,-25160.2
2.28392e+08,99.4886,1,2.62375,-6014.64,-12161.2,-15061.6
2.28392e+08,77.5927,2,2.65306,-14165.8,-485.178,-20529.9
2.28733e+08,37.1316,2,2.9341,2523,-7012.68,-26291.4
2.29026e+08,81.2654,0,2.48085,5564.09,12533.1,-18390.8
2.29133e+08,322.849,0,2.79935,6647.91,-23781.7,-13382.8
2.29276e+08,147.435,2,2.7736,-27896.9,7168.44,-17251.6
2.2973e+08,1.63242,0,2.63418,-46.7872,181.399,-28544.9
2.30079e+08,23.1092,0,2.7906,4691.76,-673.13,-27324.6
2.30213e+08,126.46,2,2.86467,-921.305,13823.9,-8097.34
2.30224e+08,20.4373,1,2.75943,-3167.31,1590.06,-26265.7
2.30406e+08,21.6586,1,2.9642,-4609.4,13.4327,-28924.9
2.30504e+08,1.09257,0,2.62312,176.909,-116.001,-28629.3
0,1.17624,0,2.85253,0,0,0
0,1.09973,0,2.8152,0,0,0
2.30527e+08,158.958,2,2.51622,-14218,5648.74,-2716.27
2.31082e+08,32.642,2,2.69921,1740.76,-6612.24,-27585.5
2.31362e+08,2.55566,1,3.03083,-428.598,322.585,-28536.6
2.31733e+08,140.297,1,2.8922,-13363.5,10245.2,-4601.83
2.3217e+08,12.1891,1,2.73108,-2639.24,74.1658,-28620.4
2.32366e+08,15.315,2,2.48774,-1343.48,293.329,-25863.5
2.32399e+08,48.112,1,2.96746,-7338.59,-3366.19,-24379.3
2.32474e+08,31.1846,0,2.48625,5838.8,-1469.83,-25926.7
2.32601e+08,113.978,0,2.74753,-8051.65,7837.59,-7637.14
2.32924e+08,104.348,2,2.91016,-19188.6,-9576.2,-23914.1
2.3333e+08,121.843,2,2.94393,17531.4,-18631.3,-28195.5
2.33379e+08,71.7191,1,2.52148,-13558.8,3819.03,-24793.6
2.33456e+08,158.624,0,2.36621,-14349,-17675.1,-4289.6
2.34167e+08,8.62425,2,2.88846,969.718,-775.755,-27503.2
2.34272e+08,426.282,2,3.02566,8098.2,27906.5,-3791.3
2.34317e+08,106.025,2,2.81384,11879.7,5315.31,-29331.6
2.34417e+08,124.837,0,2.83162,-21431.7,-14484.2,-24783.2
2.3465e+08,30.9887,1,2.97174,-3782.86,4849.75,-26477.2
2.34714e+08,78.5205,1,2.55655,-15015.1,7263.27,-29671.5
2.35008e+08,17.5963,1,2.91343,3563.25,437.113,-28009.4
2.35031e+08,71.7404,2,3.0079,-7981.91,1421.62,-16135.1
2.35044e+08,60.463,1,2.94281,-3137.13,-6082.8,-18187.9
2.35141e+08,84.6897,1,2.59635,-13021.9,5813.09,-17966.9
2.35419e+08,68.5353,1,2.7709,-5354.52,3503.76,-15916.3
2.35448e+08,13.7944,1,2.94295,-2518.13,421.042,-27374
2.35626e+08,12.311,1,2.76266,-650.633,2566.71,-28319.4
2.35879e+08,97.6389,2,2.96766,-2557.85,-7488.4,-9924.9
2.35887e+08,138.981,1,2.42042,-18988,22595.5,-28878.3
2.35936e+08,90.2593,1,2.43019,-3432.24,-16087.4,-19228.4
2.36429e+08,2.04061,2,2.88287,-401.417,-189.035,-28574.8
2.36446e+08,81.0169,1,2.80518,-11680.2,11795.6,-24520.1
2.3647e+08,6.9309,1,2.98027,1217.89,647.359,-28357.5
2.36559e+08,5.80122,1,2.43077,282.825,-534.524,-27813.9
2.36591e+08,16.1143,0,2.63559,503.023,-3406.88,-29110.5
2.36905e+08,25.6479,2,2.80212,-3386.39,-4353.38,-28954.4
2.37162e+08,20.5801,2,3.0096,-2402.56,-3680.97,-28480.2
2.37316e+08,4.87355,2,2.84691,-685.023,165.846,-28030.2
2.3778e+08,37.2085,1,2.41318,-1145.35,3829.92,-22002.3
2.3788e+08,125.145,1,2.67131,5051.56,25541.8,-24056.5
2.37944e+08,81.7428,2,2.63297,-9363.01,-9551.73,-17836.5
2.38267e+08,24.6002,1,2.55461,-2071.89,4677.2,-27467
2.38837e+08,134.245,2,2.57599,-13973,7433.81,-5282.9
2.38996e+08,6.72528,1,2.41349,-1160.58,-860.744,-28887.1
2.39041e+08,82.9988,2,2.79358,-4831.77,11249.2,-16443.4
2.39179e+08,162.503,0,3.02767,396.181,-25888.6,-12763.7
2.39197e+08,64.7697,1,2.68541,-8006.1,-5384.75,-19134.2
2.39967e+08,78.1513,2,2.73883,15413.3,-5797.47,-28588.3
2.40069e+08,184.207,1,2.88281,16072.3,27661.8,-7000
2.40077e+08,23.7344,0,2.92621,4178.39,1308.09,-26270.7
2.40344e+08,12.357,1,2.38718,-1173.51,2120.94,-27643.8
2.40515e+08,145.428,1,2.70122,-8015.97,29099.5,-22914.5
2.40808e+08,31.0366,1,2.56041,3259.16,4922.6,-25828.9
2.40971e+08,2.66836,0,2.58434,627.625,245.882,-28903.1
2.4136e+08,10.5463,2,2.61323,823.286,-2070.91,-29394.8
2.41369e+08,56.3989,0,2.64443,4463.74,10946.9,-27001.6
2.42251e+08,14.0368,1,2.52504,576.413,1447.42,-26263.5
0,14.0791,1,2.68262,0,0,0
2.42281e+08,61.0547,2,2.5697,-11751.1,-2164.62,-23760.4
2.42658e+08,28.9132,2,2.43262,-2004.05,-5520.65,-26829.2
2.42979e+08,15.3904,1,2.99334,-2137.82,1883.57,-27150.3
2.43067e+08,94.3929,0,2.47871,16174.6,-10082.6,-22718.7
2.43127e+08,110.572,1,2.8578,16001.6,-1631.55,-12085
2.43406e+08,108.193,0,2.79846,10814.9,-2133.18,-8859.42
2.43408e+08,6.3898,0,2.50427,1039.49,659.589,-29559
2.438e+08,35.8689,0,2.46187,7217.23,-1742.8,-26811.4
2.43925e+08,52.2414,1,2.70679,3417.62,10521.1,-28436.4
2.44223e+08,118.478,0,3.01407,4827.1,14072.5,-10405.4
2.44301e+08,21.3468,0,2.5077,1707.85,-1670.53,-24957.5
2.44379e+08,144.68,2,2.39583,18854.8,-24184.1,-28161.6
2.44409e+08,11.2487,1,2.43695,-473.012,2371.94,-29478.9
2.44508e+08,91.0664,1,2.66917,-9058.99,15099.1,-20992.9
2.4476e+08,33.6432,1,2.79562,6618.47,2527.63,-28798.3
2.45277e+08,180.787,1,2.70622,-14096.9,8938.87,5433.9
2.45303e+08,55.3026,2,2.43548,-5114.61,9481.23,-24342.6
2.45653e+08,7.89933,0,2.99453,-615.991,358.634,-27367.8
2.45662e+08,13.8241,2,2.67907,1730.02,-1062.94,-26737.8
2.45687e+08,32.1409,0,2.50344,6345.94,2053.33,-27047.6
2.45864e+08,60.7796,0,2.87108,9730.89,-8404.79,-28425.8
2.45953e+08,14.3657,2,2.65151,-1.20677,-2232.48,-26688.6
2.46613e+08,11.0373,0,2.85939,-375.794,1839.87,-27489.9
2.46893e+08,150.048,1,2.95353,-26333.7,2165.87,-11634.9
2.47378e+08,7.92502,0,2.52096,440.053,-1146.79,-27626.2
2.47425e+08,34.9212,1,2.55021,2133.94,7132.64,-29041.6
2.47624e+08,66.0322,0,2.44698,12769.6,-2187.93,-23370.2
2.4771e+08,111.646,0,2.8713,-10506.9,-3755.76,-15029.4
2.47803e+08,153.484,1,2.46332,-13319.7,-19886.5,-6913.88
2.47809e+08,9.92198,1,2.59685,2033.08,558.745,-28997.6
2.48218e+08,131.118,2,2.78152,-3850.49,-23330.2,-14471.9
2.48525e+08,45.8921,2,2.75035,-8086.02,-4130.34,-25293.8
2.48544e+08,51.58,2,2.92679,-5554.71,-3623.97,-20194.5
2.48725e+08,97.4938,1,2.88224,-790.128,20375.5,-26234.9
2.48762e+08,99.1328,1,2.99935,4431.84,-4187.37,-25120.3
2.49247e+08,50.3942,2,2.50698,-10073.5,-3576.93,-29800
2.49435e+08,56.9903,1,2.79987,4480.83,-2557.93,-18032
2.49491e+08,74.9099,1,2.86497,-9641.39,-12419.5,-28683.5
2.49588e+08,193.108,1,2.54358,29568.9,9952.92,-2550.03
2.4964e+08,186.005,0,2.50306,-26929.8,12806.9,-22660.8
