#class tools::wcsv::ntuple
#title time
#separator 44
#vector_separator 59
#column double eventID
#column double t(ns)
#column double copynumber
#column double energy(eV)
#column double x(mm)
#column double y(mm)
#column double z(mm)
543830,66.1123,2,2.77847,-5475.65,-6107.19,-17520.5
697099,90.9276,0,2.46623,7879.38,-12100.6,-19877.6
845759,54.9196,2,2.68171,8026.61,7481.84,-25331.4
1.01662e+06,39.4244,0,2.63328,-702.395,-4056.38,-21587.7
1.08749e+06,18.0935,2,2.80929,-2735.37,1509.9,-26596.9
1.1877e+06,134.162,2,2.55607,28044.7,-204.714,-24830.9
1.50977e+06,237.04,1,2.48465,-11791.6,-28472.8,10662.8
1.77093e+06,143.211,1,2.68598,25351,16305.3,-27728.7
1.82298e+06,139.863,0,2.49533,18832.9,18179,-14971.7
2.03206e+06,123.017,0,2.87473,12436.4,-15879.9,-28486.7
2.06567e+06,127.433,0,2.51164,-15365.7,7585.55,-8113.96
2.29469e+06,11.8081,0,2.87747,2444.55,566.841,-29406.1
2.58450e+06,42.4834,2,2.43718,-8220.6,1158.06,-25239
2.72538e+06,48.1537,1,2.67841,-7276.39,6618.75,-25913.2
3.0489e+06,32.1633,2,2.69744,3787.85,-3002.19,-24035.2
3.29268e+06,112.367,0,2.97915,9313.52,-18148.4,-16965.7
3.98557e+06,154.79,0,2.66134,5822.07,-19716.5,-3479.93
4.03125e+06,36.495,1,3.00251,-7170.32,2866.98,-28458.7
4.20673e+06,20.2377,1,2.62493,973.887,1918.01,-25112.8
4.41575e+06,129.521,0,2.45126,-22861.8,-308.986,-13822.7
4.43076e+06,61.9151,2,2.43267,7817.73,-7780.77,-21710.7
4.4706e+06,6.98562,0,2.75228,1258.8,-232.146,-27943.2
5.30912e+06,19.4841,0,2.72701,1370.04,3886.41,-28428.3
5.3858e+06,48.3039,0,2.54488,3332.38,3238.48,-19691.2
5.45358e+06,81.0906,0,2.59523,5976.68,-14842.6,-22643.1
5.48133e+06,68.1789,0,2.86586,13651.2,3447.85,-25896.3
5.68504e+06,9.66389,1,2.9122,-1677.46,918.718,-27906.5
6.30689e+06,166.203,2,2.92843,-16042.1,18769.7,-4194.29
6.78510e+06,39.8257,2,2.56687,-5112.44,16.5397,-22105.4
7.28466e+06,45.2721,0,2.4158,1716.74,9118.49,-26401.7
7.63698e+06,61.5376,0,2.59186,12882.4,2296.24,-28114.8
7.8635e+06,21.9058,0,2.84047,4679.77,136.741,-28469
8.25139e+06,43.6567,2,2.70807,-3098.78,3818.33,-21057.2
8.34346e+06,59.3488,0,2.95386,12052.9,2381.98,-26367.5
8.43056e+06,110.883,0,2.60216,-7238.24,18333.9,-16227.9
8.94136e+06,15.4066,2,2.55567,-1549.23,-617.89,-25996.9
9.59605e+06,127.797,0,2.76359,15487.6,2439.4,-6892.66
9.63624e+06,111.967,1,2.51474,-16864.7,4291.53,-12721.2
9.77263e+06,114.961,2,2.41381,446.964,-9765.9,-18259
9.94982e+06,5.4923,2,2.98293,-1184.69,38.1891,-28544.1
9.98627e+06,2.98737,0,3.04933,459.425,-92.5028,-28324.8
1.00393e+07,35.825,1,2.37342,-7211.88,2591.33,-28267.2
1.0354e+07,134.451,0,2.45366,10961.5,-16870.5,-8684.25
1.04518e+07,18.7692,0,2.50919,3317.48,-2094.02,-27763
1.049e+07,122.446,1,2.68171,23937.9,-783.565,-19245.6
1.06199e+07,187.805,1,2.63242,23365.2,8332.82,2089.81
1.08209e+07,143.73,0,2.63432,13393.2,26662.2,-23072
1.08304e+07,1.73577,1,2.87259,-405.603,107.381,-28962.5
0,1.69829,1,2.4274,0,0,0
1.08374e+07,43.7493,2,2.43356,-7586.36,-5464.12,-28331.5
1.12953e+07,202.119,1,2.60297,-11220.9,-4215.51,-21386.5
1.15625e+07,17.3409,2,2.76291,401.816,1803.66,-25732.5
1.1634e+07,3.31319,1,2.97565,-707.795,138.022,-28560.3
1.18838e+07,12.5855,0,2.91648,-1285.71,-444.977,-26586.9
1.20805e+07,20.4853,2,2.7458,-4166.68,1219.94,-29374.4
1.22174e+07,121.217,2,2.8298,-19325.3,-10355.1,-15738.4
1.22962e+07,98.6064,2,2.87575,-8088.88,-4145.59,-23949.7
1.24193e+07,138.342,1,2.40322,-13244.9,17376.9,-9266.25
1.24399e+07,61.3868,0,2.81569,2702.8,6228.75,-17841.6
1.26588e+07,55.3019,0,3.03501,6837.63,3240.49,-19993.4
1.29579e+07,127.879,0,2.63504,15564.3,13303.6,-11168.1
1.34825e+07,28.215,1,2.67732,-5960.02,1007.12,-28919
1.35242e+07,58.3302,1,2.40161,-8714.21,2836.48,-20510.8
1.37208e+07,98.9568,1,2.42517,1386.53,-14190.7,-19252.9
1.39012e+07,115.438,2,2.50695,-7727.2,22932,-26235
1.52406e+07,18.3836,0,2.38731,3443.4,-1062.17,-27131.4
1.53771e+07,96.5527,2,2.75977,7711.95,-18874.8,-27922
1.55523e+07,5.79362,2,3.00719,-704.454,-1087.95,-28545.5
1.56676e+07,52.6346,0,2.86094,5528.38,-6892.56,-22100.1
1.61056e+07,19.616,0,2.95681,3240,2378.42,-27700
1.61172e+07,12.2471,1,2.83131,-2469.46,482.406,-29684.1
1.62601e+07,29.4097,0,2.47264,4574.54,4267.51,-28147.1
1.65154e+07,20.0848,2,2.40715,-2852.61,645.933,-25688.4
1.6574e+07,92.3459,2,2.84787,-10738.6,-15939.3,-25582.4
1.66476e+07,23.7223,2,2.65549,1066.64,-4931.71,-29544.2
1.69087e+07,16.8348,0,3.04722,-138.7,2638.23,-26461.5
1.72584e+07,45.9345,0,2.60028,-1008.39,8836.63,-24932.1
1.74782e+07,190.227,1,2.70656,-22760.6,-23070.8,-5300.74
1.77156e+07,180.304,0,2.69297,27065.2,-26791,-28787.1
1.79158e+07,76.3112,2,2.77484,3794.1,-12304.3,-19119.6
1.79796e+07,61.9877,1,2.38157,4966.52,2834.98,-17009.3
1.81037e+07,168.502,0,2.65293,-6365.42,9170.18,-21986.4
1.87562e+07,135.703,2,3.02338,-19094.1,15350.1,-16680.6
1.88943e+07,86.4615,1,2.392,-3027.43,8431.75,-12838.1
1.96143e+07,4.17542,2,2.87349,-485.882,-579.433,-28278.7
1.99967e+07,78.4477,0,2.81187,-8187.15,5171.39,-15520.1
2.01235e+07,45.8535,1,2.62289,3180.94,7180.64,-23063.9
2.03557e+07,137.702,0,2.46288,21602.8,5647.67,-10050.2
2.05528e+07,73.3873,1,2.5077,10392.4,4417.93,-18160.9
2.07353e+07,6.35387,1,2.42687,-1319.26,-247.22,-28568.6
2.08255e+07,7.24809,0,2.63612,1525.83,355.51,-29338.6
2.0886e+07,222.763,0,2.92914,65.1007,24615.5,10916.5
2.09615e+07,44.8785,0,2.44144,-2172.36,-5486.72,-21387.2
2.09816e+07,123.911,2,3.0352,-6779.87,-9733.86,-5703.81
2.11273e+07,120.093,1,2.42932,-19966.5,-5639.08,-14193.5
2.16626e+07,110.105,2,3.05625,-5301.18,-2187.01,-27602.4
2.19252e+07,27.3153,0,3.03619,1822.82,-4759.63,-26120.2
2.20954e+07,274.024,2,2.81287,-4237.14,-17979.4,-12908.8
2.21919e+07,121.623,2,3.03328,-21469.2,-9424.37,-18746.3
2.22752e+07,115.735,0,2.85886,17108.5,-14131.6,-18767.6
2.23056e+07,108.836,1,2.76069,20475,-4156.7,-19468.7
2.23362e+07,35.41,2,2.6198,-6576.44,3078.55,-27026
2.26877e+07,38.7238,2,2.80851,-7073.01,-4098.23,-27862.2
2.28018e+07,67.4222,0,2.65015,-12004.9,3472.45,-22188.8
2.28462e+07,8.46997,0,2.54987,1003.52,-872.457,-27559.3
2.28502e+07,32.4235,0,3.04601,6648.38,-1150.85,-27535.7
2.28778e+07,9.9898,0,2.62862,940.319,-1937.05,-28897.2
2.28877e+07,69.463,1,2.7452,-10125.2,1173.7,-18308.1
2.30184e+07,194.759,1,2.49444,-11198.5,26577,618.309
2.32903e+07,31.8549,2,2.70741,6159.09,1281.72,-26623.4
2.35442e+07,33.2678,2,2.55988,5452.11,-1406.99,-24608.2
2.37647e+07,24.9127,0,3.05953,905.332,4608.07,-26463.9
2.3975e+07,17.4394,1,2.8643,-2360.79,846.359,-26093.1
2.40289e+07,133.811,1,2.90144,7423.54,13531.5,-5308.21
2.43804e+07,16.6182,1,2.55536,285.139,3397.95,-27662.3
2.4396e+07,63.058,2,2.73568,4706.56,-6580.15,-18277.4
2.52558e+07,198.173,1,2.5857,-25939.3,3328.64,3871.93
2.52647e+07,62.8695,1,2.9642,-5932.54,10636.1,-23549.5
2.55529e+07,49.1082,0,2.90922,-555.729,7921.84,-22224.7
2.55791e+07,21.4951,0,2.67372,-3325.49,-795.742,-25899.3
2.55797e+07,74.4705,0,2.78325,15214,2864.02,-25875.2
2.56142e+07,45.3352,2,2.69773,4586.72,1544.42,-20615
2.59146e+07,35.6732,2,2.94672,-4102.63,-3104.66,-25105.4
2.62905e+07,13.0354,2,2.36312,-331.53,1297.38,-26432.6
2.64812e+07,21.144,1,2.70121,1331.89,-4148,-28288.6
2.67634e+07,30.7714,2,2.75696,-1355.5,-4859.23,-24664.8
2.71108e+07,50.9841,2,2.45088,6802.14,-6808.54,-23887.7
2.71514e+07,104.134,2,2.8065,14487.6,6683.75,-13855.1
2.71712e+07,116.51,0,2.87236,-109.366,14402.2,-9030.17
2.72816e+07,51.7977,1,2.58709,-3848.91,-3137.92,-19070.4
2.75637e+07,93.9754,1,2.8965,-2848.19,-12553.4,-13936.8
2.79143e+07,48.599,2,2.62813,5967.46,-6761.7,-23841.8
2.83165e+07,72.3911,1,2.87078,-6442.71,13771.5,-27079.2
2.83346e+07,85.7128,1,2.56877,-7320.32,3543.57,-12615.6
2.84582e+07,13.9969,2,2.83384,2483.48,-1449.02,-28072.5
2.85194e+07,132.788,0,2.92821,20892.5,-8755.14,-12508.9
2.85365e+07,191.889,0,2.80872,26952.4,-19240.6,-5646.73
2.87272e+07,39.8055,1,2.92612,-6172.07,-1872.52,-23495.6
2.88038e+07,98.624,1,2.98715,7387.11,6663.63,-10686.3
2.88767e+07,158.987,2,2.63531,-23292.2,-13969.4,-9056.22
2.89359e+07,21.1013,0,2.51044,885.64,-4362.27,-28233.8
2.96392e+07,44.426,2,2.85972,2927,-8729.98,-27044.2
2.96843e+07,104.256,0,2.97355,17565,6308.1,-17287.2
2.98712e+07,102.028,2,2.63403,7571.11,11890.4,-12628.8
3.00088e+07,117.068,0,2.96695,18791.5,-5247.03,-13797.8
3.02244e+07,26.3956,2,2.52411,-2565.5,-5082.41,-28527.4
3.05145e+07,101.993,2,2.38674,5314.98,-18892,-19739.1
3.05177e+07,28.0677,1,2.57466,-1434.74,3890.61,-24495.5
0,28.137,1,2.75083,0,0,0
3.10133e+07,53.8653,0,2.50479,11349.9,-1737.34,-28101.4
3.13267e+07,48.9233,0,2.91298,6294.27,-4800.27,-22197.8
3.15523e+07,31.8752,2,2.39028,-6355.56,-130.823,-26362.3
3.17024e+07,146.934,2,2.86117,-3502.47,29481.5,-20563.6
3.17284e+07,57.3534,0,2.98915,6430.47,4841.15,-19837.1
3.20421e+07,66.9576,1,2.50352,5822.21,12696.7,-26141
3.20753e+07,50.6998,2,2.66084,-1012.93,5472.06,-19705.6
3.21586e+07,24.1511,2,2.41966,-5180.61,85.6702,-28636.5
3.30149e+07,33.2743,2,3.00723,2913.84,-1925.55,-22765.5
3.30592e+07,94.5344,1,2.48854,-6705.42,18644.5,-25531.9
3.3295e+07,75.9668,2,2.81167,-5153.45,-11078.5,-18412.4
3.33328e+07,114.582,0,2.47466,22293.8,9756.31,-28341.6
3.35475e+07,89.6823,1,2.76172,-18836,-2065.19,-29033.2
3.36238e+07,60.0477,0,2.79987,8381.32,-5050.75,-20725
3.37295e+07,15.6225,1,2.45771,-683.98,3184.95,-29884.9
3.37332e+07,88.1071,1,2.75889,-3621.51,-9430,-13314.5
3.37646e+07,140.233,0,2.40741,5804.19,-16308.6,-4744.13
3.38989e+07,115.719,2,2.36484,3024.15,-17798.3,-12215.7
3.3955e+07,19.4742,2,2.53944,-3109.61,94.8045,-26087.2
3.4426e+07,78.2219,1,2.63067,520.612,-15609.1,-23634.6
3.45412e+07,20.3107,2,2.71811,-2678.71,-1060.84,-25612.1
3.46434e+07,138.884,0,2.97134,20648.4,19409.5,-21758.7
3.47181e+07,126.674,0,2.8092,6651.6,-11095.7,-5504.8
3.4723e+07,123.062,1,2.7359,-19818.5,-16356.6,-25431.4
3.48661e+07,122.542,1,3.00995,973.603,-25380.4,-25527.4
3.4895e+07,39.6626,2,2.46389,1151.87,5999.74,-23162.2
3.50459e+07,103.612,2,2.56999,653.57,13744.7,-12343.3
3.51696e+07,48.1312,2,2.79701,-4941.82,-8787.19,-27123
3.52109e+07,88.0823,1,2.7405,-14212.8,11854.6,-26578.6
3.53845e+07,13.7395,2,2.46873,298.907,-2422.6,-27132
3.58049e+07,4.25797,0,3.00815,-255.374,-477.062,-28158.4
3.62202e+07,16.1539,0,2.46097,264.628,-2378.67,-26370.7
3.65337e+07,47.2877,1,2.88462,-9344.32,-1547.63,-25673.6
3.66638e+07,67.4975,1,2.53981,13482.4,333.749,-24221.6
3.70368e+07,107.663,1,2.80415,15739.4,6930.15,-14097.5
3.72519e+07,111.265,1,2.79201,-12166.5,-17569.7,-19283.4
3.73455e+07,8.17203,2,2.69461,1279.1,565.226,-27912.1
3.74288e+07,64.9542,1,2.45436,-5463.7,4868.38,-17148.5
3.78497e+07,0.807307,0,2.58741,-8.12667,59.734,-28696.3
3.8e+07,17.2362,0,2.91677,-509.909,2966.17,-26831.8
3.85236e+07,21.8738,2,2.46729,-2451.51,3426.04,-26937.6
3.86297e+07,94.2301,1,2.97675,-15380.7,-2271.2,-16633
3.88753e+07,44.6531,2,2.50703,-9367.3,1318.95,-28289.3
3.90437e+07,141.668,2,2.47492,19924.4,91.2961,-6479.46
3.94916e+07,38.3958,2,2.98471,-4569.33,-5937.58,-25635.3
3.97304e+07,38.4902,2,2.90797,-8093.59,-285.449,-29720.1
3.97375e+07,125.015,0,2.85227,-1452.69,10105,-27444
3.98113e+07,21.5214,1,2.65951,1477.9,-2406.49,-25300.4
3.98548e+07,46.017,0,2.82302,6980.17,-3149.53,-22797
4.04689e+07,131.513,1,2.55567,-18478.1,18950.3,-20071.6
4.09647e+07,4.54044,0,2.7685,1007.38,-276.724,-28691.1
4.10276e+07,9.03642,1,2.94999,659.574,-553.187,-27179.9
4.14179e+07,125.02,0,2.8491,-9300.99,-12142.2,-7482.25
4.16321e+07,63.8056,0,2.85911,-2686.81,9964.72,-20275.6
4.16487e+07,111.009,0,2.48441,1100.15,14973.7,-10800.9
4.1669e+07,40.5766,0,2.36388,5910.31,1414.28,-22685.6
4.18263e+07,11.0474,1,2.50125,-2342.91,-410.744,-29206.5
4.20096e+07,48.1938,2,2.39147,5416.03,2788.13,-20691.6
4.24995e+07,175.736,1,2.89353,-7236.47,12362.1,-24267.7
4.25766e+07,71.3822,1,2.89582,1447.67,14008.3,-23463.3
4.27549e+07,148.847,1,2.5396,-8197.41,20224.9,-6107.47
4.28159e+07,175.064,1,2.85963,11842.8,18256.1,-9814.18
4.30014e+07,8.60798,1,2.76966,1018.05,580.704,-27437.6
4.31423e+07,47.9396,1,2.66747,-9717.56,773.224,-25866.6
4.37657e+07,5.58834,0,2.56367,524.748,-185.116,-27737.2
0,5.61936,0,2.9412,0,0,0
4.42413e+07,45.7546,1,2.89245,-9101.62,-2157.88,-26382.8
4.42517e+07,111.663,1,2.55349,14835.1,-3117.22,-10793.9
4.44318e+07,6.98084,2,2.69802,279.639,-471.047,-27432
4.45979e+07,7.28894,2,2.46919,606.547,-1441.25,-28412
4.46607e+07,3.78147,0,2.40873,720.139,-334.861,-29277.7
4.48256e+07,18.1565,2,2.90773,-696.769,-3811.14,-29288.2
4.49733e+07,7.94357,2,2.86774,-1412.12,-760.366,-28171.2
4.5482e+07,215.701,2,2.74705,-18255.1,27506.1,2327.37
4.55423e+07,36.3997,1,2.77226,-6448.3,-669.261,-24666.2
0,36.3444,1,2.7406,0,0,0
4.62816e+07,16.6388,2,2.73613,-1350.98,-2464.9,-26609.8
0,16.5212,2,2.50275,0,0,0
4.63422e+07,105.607,2,2.59956,-16922.7,-14669.7,-28918.6
4.64207e+07,13.2088,0,3.04851,1855.38,-1860.45,-27723
4.66123e+07,11.2082,1,2.73194,532.541,2052.69,-27678.9
4.72436e+07,38.855,2,2.4264,3380.65,-6298.59,-24637.1
4.73068e+07,146.689,0,2.63997,7083.57,-22140.2,-8339.64
4.74087e+07,27.2627,0,2.57895,2204.32,-4813.17,-26479.9
4.74568e+07,66.114,1,2.46981,9949.19,1850.03,-19245
4.76044e+07,41.4416,1,2.88625,4224.11,5458.79,-23439.5
4.7655e+07,96.8006,2,2.51797,-2755.28,-8504.23,-10384.4
4.7981e+07,134.467,0,2.58296,-16229.4,11690.8,-8708.97
4.80532e+07,58.9636,2,2.72169,104.136,-6179.38,-17997
4.81145e+07,9.04745,0,2.396,1643.95,-1175.51,-28980.3
4.81319e+07,2.41619,1,2.66329,-215.745,176.622,-28350.5
0,2.41634,1,2.81734,0,0,0
4.87905e+07,90.1625,0,2.48487,-2572.73,14501.7,-16937.4
4.89075e+07,131.161,0,3.03478,-1230.99,-25685,-19144.7
4.91898e+07,80.7403,0,2.79841,6462.82,13611.9,-21349.5
4.92825e+07,17.8113,2,2.85308,-797.489,1693.89,-25582.2
4.93316e+07,17.2304,2,2.84845,-2754.58,-1475.65,-26860
4.94493e+07,48.0724,1,2.51555,1346.85,-9722.41,-26432.7
4.95723e+07,119.086,1,2.49732,20800.1,7278.67,-16628.6
4.96231e+07,45.5896,0,2.55237,2300.73,-9374.43,-28599.3
4.96267e+07,124.959,2,2.83505,15523.5,-7618.65,-19635.4
4.98088e+07,79.1675,1,2.76187,-10424.8,8224.49,-18748.5
4.98169e+07,94.8588,0,2.95757,9691.41,-5003.06,-12126.5
5.01099e+07,45.8118,2,3.06171,-3766.49,-4963.21,-21537.2
5.01672e+07,117.497,0,2.82717,-1793.34,17716.1,-12487
5.02112e+07,32.8347,1,2.58653,-2489.27,6526.3,-28004.5
5.03019e+07,144.436,1,2.38357,-2742.19,-19830.4,-5818.51
5.03069e+07,47.5171,0,2.79404,6234.18,5068.71,-22838.6
5.0599e+07,18.3707,2,2.99044,-3702.47,197.258,-27559.3
5.07787e+07,50.2003,2,2.78687,-8606.79,-4013.5,-24033.4
5.13288e+07,30.7688,2,2.36476,-2939.37,-736.707,-23046
5.17453e+07,19.1285,1,2.97368,287.643,-2515.7,-25798.7
5.19247e+07,159.932,2,2.78631,-17298.1,-13749.2,-3374.56
5.20896e+07,120.203,0,3.0114,-13160.8,841.347,-7426.72
5.21148e+07,15.0956,2,2.85591,-2029.28,-952.029,-26495.7
5.22844e+07,127.367,2,2.4022,7755.49,-20552.7,-13114.5
5.24636e+07,24.6956,1,2.42852,1222.47,3567.35,-25127.5
5.24838e+07,133.365,0,3.00129,21466.2,-17904.5,-26643
5.27268e+07,15.8214,0,2.69957,1199.8,1308.95,-25970.5
5.27929e+07,85.3133,2,3.03338,-3640.94,-12680.8,-18223.7
5.29145e+07,163.697,1,3.00918,5832.95,17119.4,298.761
5.30554e+07,5.08767,1,2.69354,712.518,371.107,-28144.1
5.31218e+07,115.464,2,3.0207,20608.4,-886.564,-16275.2
5.35194e+07,51.7896,1,2.40151,-7828.06,3574.31,-21938
5.40886e+07,92.3874,1,2.93333,10353.5,15245.5,-22668.2
5.47642e+07,69.7537,0,2.96462,7718.72,-1850.48,-16474.7
5.52325e+07,123.931,2,2.74191,-6005.99,-25364.5,-26077.4
5.54399e+07,1.43887,0,2.7081,341.102,-34.1939,-29045.3
5.55602e+07,156.46,1,2.68052,-9599.14,25099.9,-9599.27
5.6136e+07,84.8048,0,3.05869,12916.5,7114.02,-18839.4
5.64197e+07,37.1246,1,2.68444,1623.22,-4336.69,-22541.8
5.6811e+07,8.95102,0,3.02506,1790.55,-829.772,-28738.6
5.68921e+07,7.01206,2,2.89221,-1402.25,-553.565,-29274.8
5.70234e+07,36.7625,0,2.92337,7412.39,-1248.85,-26725.3
5.72935e+07,154.251,2,2.8051,21669.4,23671.7,-24523.8
5.73674e+07,33.7181,1,2.78263,-5882.67,1632.69,-25095.4
5.73961e+07,18.9439,0,2.72148,1862.39,-3594.26,-28778.3
5.86295e+07,145.125,1,2.91315,26749.6,-12820.8,-22512.6
5.87083e+07,81.7386,0,2.48065,4599.99,-11077.7,-17479.8
5.90833e+07,155.609,1,2.76915,-7399.74,-27905.3,-13440.2
5.9199e+07,157.944,0,2.73651,-22379.9,-8100.93,-5646.95
5.94145e+07,24.8034,0,2.97817,3607.33,1171.96,-25186.4
5.94328e+07,42.7679,1,3.04405,-4953.27,-2512.44,-22526.6
5.9727e+07,25.6992,0,2.88573,4625.78,-1852.04,-26537.3
5.97937e+07,102.674,2,2.53513,11850.6,5240.97,-11478.4
6.02861e+07,25.1918,1,2.60889,-3815.45,-3497.26,-29837.1
6.03896e+07,14.0559,1,2.54284,1152.31,-2219.32,-27369.8
6.04566e+07,55.929,2,2.3666,6985.83,8395.32,-24397.9
6.05652e+07,65.0486,2,2.80798,4129.79,-10090.9,-20486.4
6.105e+07,2.75752,0,2.67127,689.23,31.6967,-28931.6
6.11963e+07,36.2387,1,2.97099,-6573.11,-1302.04,-25129.9
6.19029e+07,130.576,1,2.47277,-2802.06,16243.6,-25353.4
6.25051e+07,15.9656,1,2.90795,-3201.13,853.404,-27891.1
6.29485e+07,133.643,0,2.57192,-3958.28,23853.9,-14267.5
6.29845e+07,45.2162,1,2.39689,-8637.23,1403.8,-24804.4
0,45.7723,0,2.51358,0,0,0
6.32441e+07,48.5301,0,2.36634,7815.4,-4599.17,-23849.1
6.33805e+07,139.268,0,2.93958,28480,4320.26,-23363.9
6.35809e+07,38.209,1,2.71031,-623.334,5831.04,-23202.4
6.38756e+07,6.86947,2,2.80476,-1027.46,-392.373,-27794.5
0,6.84704,2,2.87131,0,0,0
6.39915e+07,31.5958,2,2.96495,-5112.2,1092.32,-24678.5
6.40763e+07,43.5593,0,2.60571,6300.7,2295.58,-22456.5
6.42128e+07,233.944,0,2.49828,-8841.82,1249.75,-17038.4
6.4308e+07,30.3544,2,2.92733,-1219.29,-6316.96,-29505.2
6.45223e+07,58.9549,0,2.63549,6821.41,509.232,-18365.4
6.46325e+07,5.29526,1,2.6802,793.542,530.316,-28212
6.4641e+07,29.5585,2,2.74162,5916.29,1248.39,-27486.2
6.46474e+07,29.0267,2,2.86257,-1845.13,2239.83,-23450.9
6.48122e+07,29.4114,2,2.81692,3489.7,-929.077,-23807.7
6.49522e+07,13.2886,2,2.98549,-2725.96,-757.937,-29159.3
6.53768e+07,6.04644,1,2.45696,-877.457,-231.747,-27870.4
6.56592e+07,97.0221,0,2.96583,348.055,-13747.7,-13822
6.72905e+07,94.4512,0,2.51461,7355.37,-14306.7,-16942.3
6.76226e+07,91.7705,0,2.78718,4308.85,10469.1,-13141.7
6.78988e+07,100.699,1,2.3895,-11541.6,11954.3,-21609.5
6.80218e+07,115.839,2,3.00406,16585.6,-5262.25,-11901.3
6.81122e+07,155.763,2,2.49726,346.636,20562.9,-3159.29
6.83372e+07,21.1058,2,2.39514,-2071.81,-2120.91,-25404.6
6.83881e+07,6.6618,0,2.73211,1013.9,-1027.86,-28439.6
6.86475e+07,159.327,2,2.9156,4337.43,3960.38,-6295.32
6.91633e+07,184.545,2,2.59424,1099.03,26594.9,-419.323
6.93283e+07,97.1641,1,2.56132,2202.41,18720.7,-20478
6.9459e+07,100.71,2,2.484,-1818.53,14802,-13697.7
6.95069e+07,74.2098,0,2.49284,13212.4,-2449.78,-20603.9
7.00375e+07,22.2695,0,2.4932,1448.11,2979.28,-25416.9
7.01629e+07,19.5955,0,2.85565,2494,1547.37,-25869.7
7.05175e+07,132.391,2,2.41624,54.6506,4196.68,-25960.4
7.07402e+07,13.7596,2,2.72478,-2612.25,-1095.45,-29752.2
7.1004e+07,71.5509,2,2.81379,-10398,-10261.7,-24851.4
7.1008e+07,53.9542,0,2.57843,-6616.62,-8680.16,-25706.5
7.10503e+07,76.3314,2,2.37513,-1565.89,-6344.7,-24530
7.14974e+07,101.852,1,2.54241,-14887.4,13877.8,-21524.2
7.15362e+07,87.2949,1,2.83748,13342.8,12514.1,-27084
7.18087e+07,59.4528,0,2.51822,2986.52,-8464.43,-19981.2
7.18465e+07,56.1556,1,2.939,-10216,3329.16,-23828.8
7.20865e+07,57.9425,1,2.78947,-10612,-2315.77,-23183.7
7.22649e+07,3.87826,2,3.05313,41.2265,437.445,-28161.7
7.22918e+07,24.6592,0,2.62696,3264.26,4029.76,-27774.8
7.25092e+07,187.372,2,2.90327,-19387.7,-14727.4,2137.15
7.25202e+07,32.413,2,2.49825,403.52,-5563.53,-24779.4
7.2527e+07,70.1003,0,2.57457,3186.81,12949.5,-22293.9
7.25518e+07,12.3326,1,2.49434,1517.3,-1222.22,-27167.2
7.26482e+07,118.237,0,2.66073,-673.757,23995,-23505.6
7.26814e+07,51.0148,1,2.88387,-5949.79,3408.87,-20532.7
7.35566e+07,128.155,0,2.79865,8572.07,7715.17,-4516.44
7.3677e+07,82.9043,1,2.51941,-14833.2,6614.26,-22011.2
7.37153e+07,113.993,2,2.58544,-16260.5,-12372.1,-15997.9
7.39176e+07,31.2477,2,2.74342,2614.37,1977.04,-23141.2
7.39307e+07,74.7285,0,2.85341,3633.06,-11380.5,-18593
7.44813e+07,81.2671,2,2.59674,-10781.2,-3563.6,-15884.7
7.51066e+07,46.1519,1,3.03928,955.971,9699.36,-28648.3
7.58608e+07,151.48,1,2.56747,-28689.5,5992.43,-15786.5
7.59756e+07,44.901,1,2.60355,-7922.95,1018.45,-23600.2
7.60136e+07,7.4065,1,2.40259,-648.365,-306.643,-27443.8
7.62993e+07,103.478,2,2.97107,10906.2,-5737.56,-10980.1
7.63609e+07,68.5019,0,2.68235,-7820,12107.5,-28826.1
7.6516e+07,22.4717,1,2.96914,-3038.88,3680.72,-29591.8
7.68995e+07,69.7813,2,2.58316,170.125,-3730.27,-27549
7.72912e+07,47.1705,2,2.8566,-2491.69,-6633.58,-21804
7.73201e+07,115.97,1,2.50193,-10083.8,-15738.2,-12976.6
7.73347e+07,5.07381,2,2.50106,562.374,-980.693,-28638.6
7.75211e+07,65.6356,1,2.59741,-11750.3,7090.32,-26276.5
7.7777e+07,2.60803,0,2.6083,537.012,-186.186,-28523.3
7.80308e+07,143.538,0,2.60375,-24809.2,-13663.8,-18182
7.80342e+07,6.14471,1,2.94744,1012.24,307.962,-28081.7
7.81331e+07,57.5454,1,2.77314,2350.66,10649,-23380.5
7.82198e+07,48.1924,1,2.58525,5760.57,-2103.57,-20759.3
7.82733e+07,125.077,0,2.536,-5725.01,4493.5,-28506.3
7.84662e+07,51.2333,2,2.89806,-1283.78,-8973.86,-22946.4
7.85904e+07,4.34343,2,2.4696,-490.077,-743.355,-28367.4
7.86006e+07,95.6596,0,3.04056,-4407.37,12039.9,-13442.5
7.87177e+07,13.1525,0,2.90667,-71.2389,-1443.47,-26483.7
7.88783e+07,17.4849,2,2.97204,-1465.38,-1516.24,-25759
7.89844e+07,99.2339,2,2.8647,-9426.98,-14196.8,-16705.5
7.94862e+07,7.26475,1,2.48004,47.4329,-1305.65,-28130.5
7.95524e+07,115.166,1,2.66527,1642.14,-8506.86,-9819.69
7.9636e+07,75.1345,1,2.66336,-2129.23,15797.6,-28164.6
7.97389e+07,105.294,1,2.89117,3797.81,19819.1,-19612.4
7.99312e+07,0.157254,0,3.24023,152.193,-11.151,-28837.2
0,0.159939,0,3.83823,0,0,0
0,0.164476,0,2.82841,0,0,0
0,0.158274,0,3.93761,0,0,0
8.06615e+07,143.69,2,2.59595,-13662.9,2574.94,-1828.01
8.07186e+07,35.3681,1,2.99355,1285.37,7355.49,-29369.1
0,35.0719,1,2.73843,0,0,0
8.0792e+07,22.7023,2,2.68688,-767.66,-4808.08,-28612
8.14127e+07,59.1129,0,2.81438,5794.27,-9960.19,-23989.5
8.14141e+07,31.6879,2,2.92124,-3397.94,-4793.77,-25587.5
8.23773e+07,23.5089,1,2.82954,-1158.1,3938.82,-25917.2
8.25976e+07,130.243,0,2.49506,11231.6,-11625.4,-6491.25
8.26849e+07,84.8538,0,2.78796,-9340.91,14381,-23939.9
8.32916e+07,185.343,1,2.7814,1395.4,-18479.5,-11683.3
8.33506e+07,32.9759,2,3.00325,987.684,-3791.48,-23075.4
8.33546e+07,221.46,0,2.7632,22295.3,-19984.5,6956.51
8.33611e+07,48.3595,0,2.56438,10182.5,-1779.81,-28672.5
8.36735e+07,146.551,1,2.7053,-23058.5,14919.8,-14538.2
8.45839e+07,54.3912,0,2.76459,-4657.22,3101.4,-18982.6
8.48467e+07,180.767,0,3.03955,-6030.91,23996,-183.226
8.48686e+07,8.08596,1,2.77499,-1200.69,208.225,-27591.7
8.49113e+07,106.64,1,2.48823,6322.13,20950.3,-23102.1
8.50354e+07,15.9899,1,2.71596,-1887.72,1665.79,-26506.7
8.50422e+07,54.268,0,2.9101,-9512.33,-4620.31,-24709.3
8.50867e+07,108.277,2,3.05401,12544.9,-13161.2,-28392.4
8.59519e+07,49.11,0,2.37589,3528.46,6120.83,-21172.2
8.63471e+07,99.5429,1,2.64153,15542.7,13127.4,-23457.4
8.65507e+07,25.3218,2,2.82989,730.778,-5252.21,-27721.8
8.66093e+07,112.263,1,2.78671,-5540.14,16088.4,-12349.5
8.66387e+07,205.473,1,2.64411,17262.5,1719.63,6472.22
8.6711e+07,85.2514,0,2.77575,4143.9,17505.6,-29011.3
8.67625e+07,24.9636,1,2.88634,-2509.07,4242.84,-26776.4
8.69767e+07,42.338,2,2.62216,-6993.2,1938.26,-23581.4
8.70167e+07,114.362,1,2.95615,-9467.53,-8538.62,-8497.39
8.74267e+07,77.6294,1,2.88211,-15368.4,4020.77,-24810.2
8.77147e+07,23.3532,0,2.50836,1349.69,2192.47,-24587
8.78291e+07,145.573,2,2.69717,-19347.6,-23904,-29751.8
8.78769e+07,82.1845,0,2.6912,7415.42,-10990.8,-17634.1
8.7948e+07,20.9621,2,2.72105,1193.32,-4182.71,-29973.3
8.84684e+07,167.037,1,2.77047,26063.3,21404.1,-18883.2
8.85771e+07,42.934,2,2.63822,-6858.82,-645.991,-22859.1
8.86067e+07,134.82,2,2.75078,7012.26,15616.6,-6214.86
8.87001e+07,177.017,0,2.61182,26589.5,25255.5,-21269.1
8.96398e+07,49.9855,2,2.80589,9816.9,824.949,-25240.9
8.99112e+07,55.7288,1,2.74634,5998.02,-642.997,-28416.5
9.00474e+07,11.922,0,2.91247,1978.27,-1633.09,-29258.7
9.03559e+07,4.53155,0,2.56247,992.877,304.217,-28601.1
9.03942e+07,168.983,0,2.81085,26409.8,6502.62,-5838.47
9.04674e+07,103.215,1,2.85203,2546.48,4954.54,-28972.9
9.06375e+07,31.4805,1,3.04152,-4762.65,4545.73,-27638.2
9.06564e+07,8.23235,1,2.38734,-1076.25,284.592,-27469.9
9.0814e+07,32.6971,2,2.55932,-3753.99,5352.5,-26698.8
9.08839e+07,190.821,0,2.80401,13211.8,18160.8,4459.26
9.107e+07,158.106,2,2.60153,21763.1,-13789.2,-7599.56
9.14869e+07,63.1246,1,2.37657,-469.155,13138.5,-26055.2
9.19987e+07,132.366,2,2.43065,10416.1,-23402.9,-17358
9.20587e+07,55.8475,0,2.69369,-2419.82,5005.68,-18468.3
9.26096e+07,11.7697,2,2.97001,-1057.35,-497.887,-26596.7
9.26432e+07,11.288,1,3.01878,-1020.01,-780.385,-26822
9.26525e+07,31.65,0,2.61568,1914.24,6073.4,-26659.2
9.26654e+07,16.7972,0,2.61012,1922.54,-68.6178,-25799.2
9.27482e+07,110.315,0,2.98708,22420.9,-6053.37,-28085.6
9.28665e+07,59.1802,1,2.59123,8453.8,-1041.12,-19697.2
9.31757e+07,30.6881,0,2.82024,759.913,6452.92,-28850.9
9.32890e+07,210.358,2,2.59537,-10572.2,17697.9,-6997.57
9.32955e+07,16.598,1,2.73335,-1849.28,2553.64,-27108.3
9.33716e+07,64.962,0,2.82405,10228.6,-3826.83,-20528.9
9.36061e+07,134.609,2,2.89614,15268.3,-16683,-21764.9
9.3701e+07,0.573166,1,2.8435,-6.35518,139.576,-28716.6
0,0.548598,1,2.5352,0,0,0
0,0.885727,0,3.01472,0,0,0
9.40782e+07,9.02249,0,2.52278,1011.79,1707.4,-28950.7
9.42627e+07,62.9104,0,2.36933,3807.87,-9970.6,-20788.4
9.43916e+07,89.1454,1,3.00362,-11026.3,-10994.3,-18518
9.4427e+07,21.2566,1,2.98651,3476.49,-1454.9,-26523.9
9.46761e+07,3.64696,1,2.67124,-559.408,-541.627,-28900.6
9.47993e+07,65.8672,1,2.42426,11535.9,-6460.7,-24606.6
9.49651e+07,113.132,1,2.58498,-20823.6,-5651.72,-18516.4
9.53361e+07,95.0294,2,2.72363,-4319.43,-17367.8,-19655.8
9.53513e+07,51.8346,1,2.68392,10700,1207.68,-27030.4
9.5533e+07,86.6426,0,2.77883,9200.04,-11861.3,-18392.9
9.558e+07,158.489,1,2.9041,24001.7,15319,-11575.2
9.58523e+07,104.243,2,2.47065,-748.691,-19336,-18134
9.60816e+07,120.74,2,3.03582,23012.9,8189.1,-22454.7
9.61699e+07,26.7789,2,2.59872,317.453,3890.54,-24794.5
9.61833e+07,41.568,2,2.93058,-7280.29,-658.756,-23984.8
9.62574e+07,34.9557,1,2.36625,-523.324,-740.019,-29654.4
9.65437e+07,28.109,1,2.60018,-4473.94,3942.4,-27937.3
9.66072e+07,73.9799,1,2.86938,-14461.5,3054.29,-23784.8
9.68715e+07,47.8481,1,2.97507,7843.48,-390.206,-22606.8
9.69621e+07,34.0754,1,3.0049,-4992.45,4946.72,-27134.4
9.72365e+07,37.407,2,2.37453,-7263.27,3157.49,-29659.2
9.73212e+07,88.5514,0,2.83005,14378.2,5479.23,-18196.1
9.7496e+07,97.8943,2,2.76705,15774,-12314.2,-23791.9
9.7664e+07,47.1483,2,2.91661,-4220.66,5498.55,-26448.2
9.8217e+07,57.8923,1,2.98863,-5836.1,10731.4,-27994.6
9.83333e+07,29.9418,0,2.7574,2748.65,1390.64,-23308.1
9.89453e+07,73.8969,2,2.92382,-12884.7,3694.49,-20963.3
9.89614e+07,41.4379,2,2.92558,-5298.65,-789.496,-21935.2
9.89732e+07,56.3832,0,2.94042,8978.05,1562.42,-21170.7
9.90401e+07,250.897,0,2.85111,20452.6,29610.5,-29627.9
9.90838e+07,0.895643,0,2.67874,95.233,-70.6026,-28655.7
9.91325e+07,34.119,2,2.57051,4636.17,-4505.46,-25547.5
9.92119e+07,147.019,0,2.6807,24077.8,-16920.5,-18828
9.92161e+07,175.785,1,2.94598,-7835.76,23269,-22201.9
9.96389e+07,62.2105,2,2.97205,11942.8,-3149.92,-24668.8
9.988e+07,42.572,0,2.91612,3.99351,7370.9,-23736.9
1.00212e+08,61.0544,2,2.82784,10536.4,515.353,-21527.9
1.00259e+08,13.7289,1,2.90452,1543.95,-37.5587,-26407.3
1.00382e+08,16.6124,1,2.78415,2832.64,2116.85,-28536.8
1.00887e+08,3.43562,1,2.87548,-632.345,557.049,-28836.7
1.00963e+08,130.132,0,2.75955,11814.7,8814.03,-5679.04
1.01088e+08,13.9373,2,3.05341,-2559.25,48.0116,-27357.1
1.01168e+08,74.8406,2,2.56093,12095.1,2303.88,-18940.1
1.01202e+08,62.0342,2,2.56415,-12642.8,3606.06,-28654.3
1.01351e+08,7.75432,2,2.9188,-500.967,-1259.53,-29924.3
1.01638e+08,97.9004,2,3.02303,-1101.96,-14925.5,-14749.2
1.02164e+08,28.118,0,2.58041,-67.7212,5051.4,-25722.9
1.02602e+08,50.3974,1,2.41829,10222,-2679.55,-27630.7
1.0267e+08,65.9475,0,2.38861,5598.49,-8029.94,-18858
1.02679e+08,38.419,2,2.8802,-7208.44,-1425.13,-25306.4
1.02807e+08,50.4504,0,2.43096,-9964.8,2757.41,-26430.4
1.02861e+08,30.2387,2,2.49033,-2681.53,-5165.31,-25952.8
1.03094e+08,18.1176,0,2.49894,3748,-1231.23,-28815.6
1.03536e+08,88.9601,2,2.81245,-7344.28,11441.2,-16007.9
1.03704e+08,112.998,0,2.851,3837.84,23226.9,-25541.7
0,112.477,1,2.71429,0,0,0
1.03935e+08,12.588,2,2.52135,-968.096,-2446.44,-28006
1.03939e+08,97.1644,1,2.73265,-6267.57,10487,-12336.4
1.03963e+08,46.9617,0,2.85544,6460.26,-1177.49,-21383.1
1.04093e+08,24.5404,2,2.53942,-4347.27,-1971.42,-26589.2
1.04098e+08,154.843,1,2.57252,-20301.2,-7671.52,-4361.56
1.04197e+08,1.78948,1,2.97814,-100.021,437.887,-28769.4
1.04403e+08,144.768,0,2.8239,-5686.28,26858.3,-16799.9
1.04467e+08,40.413,0,2.81091,-4733.16,-3506.91,-22740.8
1.04476e+08,24.0794,2,2.88414,-4114.08,-15.3012,-25963.4
1.04938e+08,237.394,0,3.05044,14964.3,-25027.6,11419.2
1.05267e+08,24.8263,1,2.68396,5147.48,33.2589,-27909.1
1.05384e+08,5.38191,0,2.55321,356.184,1139.91,-28922.9
1.05507e+08,4.47242,1,3.01671,-372.214,-33.4671,-27962.6
1.05711e+08,162.11,2,2.4652,-20970.1,-643.227,-20021.8
1.06028e+08,14.5354,0,2.78866,-286.452,-2378.17,-26905.9
1.06308e+08,72.92,2,2.41374,5061.58,-8750.89,-17116.6
1.06765e+08,232.681,1,2.6805,-26245.1,-21643.7,1351.87
1.06899e+08,69.8849,0,2.66504,4695.11,-12966.5,-23471.2
1.0696e+08,34.2936,0,2.74241,-2471.94,4062.18,-23401.4
1.07363e+08,143.357,1,2.62556,14955.2,18801.2,-10360.2
1.07403e+08,60.6768,1,2.41442,4598.41,6743.75,-26511.1
1.08019e+08,138.449,2,2.5428,6103.14,-28389.1,-24632.7
1.08468e+08,248.684,2,2.81465,-16096.9,-19981,16784.5
1.08473e+08,74.8531,2,2.68782,-13581.3,6043.63,-23427.5
1.08502e+08,155.897,1,3.03877,-15025.6,21742.9,-9555.82
1.08631e+08,6.77079,1,2.87099,-562.608,158.047,-27497.4
1.08675e+08,121.101,2,2.46905,-23285.7,7582,-21176.1
1.0871e+08,176.406,2,2.42238,-23202.6,-27846.6,-20083.9
1.08987e+08,242.131,0,2.83048,-19737.4,-573.884,3355.96
1.08999e+08,154.736,2,2.77228,-29939.6,-4778.11,-29178.8
1.09007e+08,41.6493,0,2.44031,-3681.65,2554.05,-21256.3
1.0902e+08,132.52,1,2.90124,5355.02,11220.9,-3905.7
1.09117e+08,91.3914,1,2.75725,-11116.3,-2885.88,-13374.2
1.09185e+08,51.1917,0,2.76354,135.091,7438.74,-21007.2
1.09398e+08,11.1576,2,2.83654,1543.63,-1760.71,-28460.9
1.09458e+08,80.4111,1,2.56318,-12864.8,11154.1,-27331.9
1.09537e+08,184.342,2,2.67125,29391.3,-12970.5,-6937.87
1.10094e+08,53.6195,0,2.38314,6486.04,7182.53,-22799.5
1.10234e+08,17.0124,0,2.90111,-3190.47,1175.07,-27972.3
1.10719e+08,49.5655,1,2.88739,-5991.12,8145.14,-25974.4
1.1105e+08,18.3223,2,2.76411,-2280.97,-3180.68,-28272.1
1.11098e+08,10.2318,0,3.03991,1849.44,-1212.38,-28846
1.11424e+08,98.8422,0,2.90983,20358.2,4338.52,-27735.8
1.11536e+08,91.5187,0,2.79528,199.084,11816.3,-18372.9
1.11652e+08,7.16942,1,2.81196,-1217.94,-603.169,-28112.9
1.12002e+08,76.0929,1,3.03433,2695.36,15775.2,-28866.3
1.12151e+08,78.6007,1,2.82318,8934.35,-4167.93,-15590.1
1.123e+08,108.789,1,2.82071,-8523.61,8133.2,-9164.73
1.12548e+08,44.6419,1,2.6141,688.128,-5056.71,-20936.2
1.1283e+08,216.243,0,3.03352,-23011.5,-12395.4,8089.14
1.13289e+08,17.7181,1,2.96484,2516.81,1625.08,-26586.4
1.13444e+08,2.66164,1,2.97708,-190.702,548.812,-29143.1
1.13558e+08,70.4478,1,2.58593,-7214.33,10253.2,-20704.9
1.13791e+08,35.8747,2,2.94556,-3351.74,-6045.77,-25610
1.14044e+08,17.99,0,2.7259,3466.39,1744.99,-28982.6
1.14045e+08,2.77066,0,2.91225,-92.2948,161.696,-28270
1.14061e+08,111.975,1,2.73218,-15364.7,-14374.9,-18206.6
1.14267e+08,170.948,0,2.83222,27609.6,-19271.6,-16099.4
1.14657e+08,128.206,0,3.00629,17522.5,1942.13,-8476.83
1.15102e+08,37.169,2,2.56585,-5004.82,-4891.37,-25070.5
1.15313e+08,22.781,2,2.97044,4553.99,-184.001,-27456.9
1.15727e+08,97.0403,0,3.01977,-9554.19,-15871.1,-20514
1.15766e+08,23.0111,0,2.67672,3939.72,915.091,-25997.5
1.1613e+08,9.57779,1,2.9005,-1132.96,1651.94,-28132.7
1.16192e+08,163.292,2,3.00638,4614.02,-24856.5,-5695.91
1.16847e+08,16.0297,0,2.51533,1757.13,1694.96,-26407.9
1.17763e+08,11.8064,1,2.54878,1410.38,308.305,-26780.5
1.18022e+08,129.316,0,2.39824,17396,2087.63,-7747.04
1.18207e+08,1.33945,1,2.989,-307.874,105.375,-28738.9
0,1.32837,1,2.51517,0,0,0
1.18296e+08,102.312,0,3.06009,12913,13639.9,-18416
1.18442e+08,17.314,0,2.78267,1719.95,3134.94,-27833.6
1.18575e+08,70.4393,1,2.7944,-367.944,-7036.22,-21435.5
1.18845e+08,38.596,1,3.01991,-2705.36,6529.12,-24740.5
1.18964e+08,229.957,0,2.91603,998.711,20238.7,10988
1.19191e+08,98.4005,1,2.4658,14093.8,-2822.91,-13830.1
1.19707e+08,290.157,1,2.45206,-24192.5,16387.1,25159.9
1.19801e+08,150.523,0,2.83005,23957.5,-13677.7,-13155.6
1.19805e+08,88.212,1,2.75792,11613.1,10239.7,-18519.7
1.19942e+08,108.302,0,2.58148,20529.4,-1003.2,-18571.6
1.20195e+08,152.614,0,2.95492,1589.21,-26238.6,-10531.7
1.20949e+08,85.0085,2,2.7643,12491.1,5711.9,-17413.3
1.21156e+08,69.2451,2,3.03971,4885.39,-13056.3,-24543.1
1.2127e+08,38.8403,1,2.96153,-6885,-3841.43,-26685.5
1.2137e+08,34.3864,2,2.83387,-1955.61,4241.85,-23318.1
1.21831e+08,47.239,2,2.95809,-5295.9,-8029.28,-26025.3
1.21925e+08,40.2975,2,2.98622,-4381.75,-7238.53,-27590.8
1.21975e+08,14.865,2,2.46842,220.424,2786.38,-27490.7
1.22091e+08,29.9633,1,2.64848,-5665.85,2220.81,-26957.1
1.22204e+08,1.69044,1,2.45571,42.2545,122.183,-28487.8
1.22214e+08,79.3795,2,2.60526,-2802.59,-15267.4,-22280.6
1.22435e+08,55.7539,1,2.88477,10716,-3364.25,-25621.4
1.22505e+08,145.201,0,2.57562,-23431.2,-3518.03,-9443.22
1.22788e+08,6.91429,2,3.02736,242.502,-1439.5,-28431.1
1.22943e+08,17.8657,2,2.70093,2600.84,2299.14,-27552.5
1.23039e+08,53.7793,1,2.42144,129.544,6017.17,-19125.8
1.23111e+08,42.1762,1,2.83968,8739.76,-1191.71,-28089.2
1.23279e+08,64.2547,0,2.80849,12043.9,1239.81,-22632.2
1.23328e+08,84.4416,2,3.02166,-15713.5,-8280.96,-27742.3
1.23524e+08,122.691,1,2.60883,-17328.9,-18937.3,-26276.3
1.23567e+08,16.8689,0,2.63819,1115.3,2038.13,-26089.9
1.236e+08,37.725,1,2.77151,-707.854,3702.19,-21798.8
1.23618e+08,53.114,0,2.69555,8811.12,1069.51,-21866.6
1.2393e+08,42.411,0,2.96485,4335.89,6258.31,-24106.5
1.2414e+08,102.815,2,2.68976,-20982.3,2959.43,-24179.5
1.24408e+08,83.4352,1,2.73291,1331.75,7797.15,-13093.1
1.24764e+08,25.7768,2,2.37753,-3386.46,-3394.01,-26061.1
1.24916e+08,34.4373,0,2.37364,3395.47,-5710.33,-25666.2
1.2522e+08,132.081,0,2.39326,-5026.49,27495,-27921
1.25249e+08,72.9709,1,2.90205,9050.13,10922.9,-22897.7
1.25705e+08,117.882,0,2.97201,16049.4,-5646.73,-10811.3
1.25721e+08,279.547,1,2.97441,26508.5,-13642.2,21608.9
1.26e+08,7.24738,0,2.4874,-613.344,1082.04,-27930.8
1.26081e+08,70.8718,1,2.97893,-13780.7,-77.69,-23216.6
1.26284e+08,49.1323,2,2.55106,2149.94,-6374.05,-20846.3
1.26307e+08,36.6927,1,2.48011,-7571.46,-622.439,-27069.6
1.26589e+08,66.0889,0,3.00213,6411.93,11443.2,-24282.1
1.2661e+08,105.101,2,2.66606,4374.09,-19676.9,-19442
1.26673e+08,81.2918,2,2.79521,12394,2975.43,-17480.2
1.26955e+08,50.3691,0,2.86405,8580.89,-1772.79,-22736.9
1.27303e+08,37.8286,1,2.89559,-4922.8,-512.244,-22570
1.27426e+08,66.255,2,2.86611,10687.1,5320.55,-21801.3
1.27461e+08,16.9061,1,2.97224,-1262.33,2200.43,-26253.2
1.27862e+08,58.8956,2,2.64212,-2524.05,-9774.54,-21439.7
1.28017e+08,32.8721,1,2.80993,1930.7,-6483.33,-27672.6
1.28527e+08,152.452,2,2.99348,548.48,-23272.7,-6842.14
1.28968e+08,3.93724,0,2.61584,551.377,-122.574,-28131.7
0,3.97182,0,2.52433,0,0,0
1.29212e+08,128.988,2,2.80359,-22024.1,-7159.22,-19469.1
1.29303e+08,250.264,2,2.53369,17818,-13783.3,-9807.59
1.29641e+08,7.95933,1,2.78796,-1160.68,1298.1,-29227.1
1.29969e+08,109.067,0,3.03638,13189.5,4914.69,-23945.4
1.30125e+08,52.0153,2,2.93501,10470,-837.914,-25880.9
1.30157e+08,4.30599,2,2.64784,-437.295,-916.742,-28692.5
1.30265e+08,20.029,2,2.90229,-1219.19,3992.01,-28780.2
1.3027e+08,16.6774,2,2.73628,-941.529,-3228.18,-27501
1.30307e+08,13.5489,2,2.94312,-142.011,2674.54,-27977.3
1.30393e+08,145.461,0,2.47535,1128.3,29324,-19608.6
1.30477e+08,38.4768,2,2.84159,-2598.58,-7391.19,-26659.7
1.30535e+08,9.61382,0,2.97813,110.901,-1962,-28228
1.30943e+08,56.8501,2,2.61672,1617.12,-11532.7,-27582.8
1.31133e+08,87.8357,1,2.48873,6998.49,-5719.86,-12637.8
1.31192e+08,22.534,1,2.74187,-4129.08,-1624.88,-27063.6
1.31485e+08,197.545,1,2.80745,-29344,-13414,-2632.63
1.31632e+08,160.403,0,2.55333,-23726.6,-16349.4,-11049.4
1.31785e+08,53.4853,1,2.66784,-3757.4,9443.77,-23754.5
1.31856e+08,1.63276,0,2.77439,454.728,23.078,-28765.6
1.32003e+08,131.972,0,2.54841,3227.83,20322.6,-9958.14
1.32059e+08,13.7534,2,3.0062,-1858.56,-2314.48,-29035.6
1.3209e+08,60.4342,2,2.97408,-11137.3,3404.59,-23735.3
1.3219e+08,65.9874,0,2.96956,-2784.15,7147.67,-17309
1.32225e+08,46.811,0,2.56584,9268.58,-103.308,-25136
1.32315e+08,20.9927,2,2.51278,-68.1208,-2020.89,-24820.2
1.32554e+08,165.735,2,2.72542,-24320.3,16598.4,-10067.5
1.32661e+08,24.3901,1,2.54795,-4668.35,2151.43,-27763.9
1.32906e+08,21.4514,2,2.47026,3035.83,3118.59,-27721.2
1.33034e+08,102.007,1,2.9133,-6401.09,-15027.9,-15701.8
1.33172e+08,77.8728,1,2.79246,-9796.57,12028.8,-23241.2
1.33177e+08,57.7909,0,2.81737,-4349.73,4742.95,-18561.6
1.33436e+08,66.1661,1,3.00833,-6881.06,12032.2,-27111
1.3352e+08,18.9947,2,2.85551,2705.68,997.196,-26093.8
1.33728e+08,157.866,0,2.5222,28351.8,1879.01,-11173.4
1.34199e+08,27.4213,2,2.8764,221.706,-4492.83,-25133.5
1.3428e+08,48.1655,0,2.64189,-4546.07,-5500.01,-21608.8
1.34339e+08,10.9934,0,2.6101,155.029,2258.99,-28207
1.34436e+08,186.978,1,2.5522,-26455.7,22401.5,-9758.14
1.34516e+08,169.479,0,2.71743,-24162.9,-11167.5,-5106.81
1.35245e+08,6.76682,1,3.00365,-221.785,1452.8,-28429.6
1.35421e+08,53.908,0,2.62085,4390.23,7908.71,-21832.1
1.35557e+08,108.282,2,2.44278,6356,-22054.2,-29179.6
1.35652e+08,139.957,1,3.04646,16303.6,21138.1,-16636.7
1.3604e+08,38.1225,0,2.5648,6648.81,-595.398,-24169.4
1.36274e+08,61.5987,0,2.93613,5745.76,11605.1,-27882.9
1.36354e+08,94.1188,0,2.78907,13749.2,11514.9,-20314.4
1.36439e+08,158.425,0,2.44327,-25853.6,-16563.2,-19876.5
1.3677e+08,61.0792,2,2.87992,11832,4817.61,-28182.3
1.36809e+08,98.1659,2,2.77424,-9860.43,1534.26,-10703
1.37338e+08,176.007,0,2.3938,-29350.6,6563.03,-6983.5
1.37637e+08,88.2696,1,3.03612,-15951.5,6627.04,-22057.4
1.37797e+08,106.856,2,2.48727,-8100.39,6969.78,-10292.9
1.37964e+08,180.001,0,2.72356,13080.1,-19272.5,-13115.7
1.3832e+08,111.749,2,2.38364,11912.3,2431.2,-8573.55
1.3879e+08,21.8492,0,2.70682,232.389,-3777.53,-26141
1.39193e+08,24.8108,0,2.90221,4930.91,1861.27,-28086.1
1.39382e+08,128.62,1,2.60334,-14018,13151.1,-11016.6
1.39508e+08,24.9767,2,2.84312,591.792,4820.98,-26962.9
1.3959e+08,19.2963,1,2.66701,-2605.96,3284.83,-28862.5
1.39593e+08,15.1653,0,2.74521,1634.47,-1580.73,-26512.1
0,15.1322,0,2.47427,0,0,0
1.39607e+08,150.145,0,2.67935,14403.3,22831.1,-12179.8
1.39795e+08,85.7077,1,2.49206,16242.8,-1847.55,-21053.1
1.39826e+08,71.4261,2,2.46808,-7090.91,-9654.31,-19518.2
1.40042e+08,238.043,1,2.81774,16361.8,12968.1,11754.7
1.40104e+08,53.6563,0,2.79285,-610.572,-9073.18,-22117.8
1.40413e+08,18.8553,0,2.96772,541.464,-3484.91,-26987.9
1.40855e+08,39.2461,2,2.9214,4178.58,2299.89,-22138.5
1.41464e+08,17.6012,1,2.58402,3678.65,419.342,-28546.6
1.41579e+08,109.379,1,3.02229,18966.7,316.007,-15991.3
1.418e+08,44.6506,2,2.90483,-3690.17,-8668.38,-27726.1
1.41805e+08,68.7989,1,2.81294,1526.8,10269.9,-18662.9
1.42073e+08,77.7551,1,3.04505,-9833.81,-3954.17,-16444.6
1.42798e+08,166.539,0,2.57044,27893.3,3086.31,-7503.17
1.42809e+08,77.5355,0,2.94285,1684.76,-1505.68,-28726.6
1.43206e+08,53.3198,2,2.47599,-7098.24,-1099.72,-20072.2
1.43272e+08,54.2455,0,2.67579,-2697.51,11014.2,-27357.1
1.43439e+08,22.8093,1,2.41693,-4783.84,1056.41,-28343.3
1.43556e+08,47.305,2,2.83864,-1958.62,-4227.36,-19993.7
1.43651e+08,6.73375,0,2.47536,666.674,196.564,-27533.4
0,7.01148,1,2.52607,0,0,0
1.43754e+08,106.177,0,2.45864,-11100.7,-19468.6,-29397.6
1.4382e+08,38.7816,1,3.05487,3657.37,5591.91,-24145.1
1.44051e+08,88.7232,1,2.5567,-9927.34,-773.437,-12931.1
1.4407e+08,87.3984,2,2.4526,12351.1,-11398.4,-21054.4
1.44487e+08,90.6952,0,2.86966,-15000.9,185.375,-17157.4
1.44752e+08,103.763,1,2.45597,-21903.5,-1507.82,-27758.8
1.4536e+08,28.6926,0,2.80256,-580.795,2843.61,-23527.3
1.4537e+08,48.4831,2,2.96161,3413.74,-8302.41,-23967.7
1.45406e+08,27.3102,1,2.73965,-1355.54,5161.19,-26453.4
1.45748e+08,65.1599,0,3.0234,11332.9,846.706,-29309.8
1.45761e+08,27.1692,1,2.72245,-4176.67,3456.36,-26698
1.46075e+08,150.486,0,2.79447,19543.7,-6204.69,-5517.29
1.46075e+08,130.372,1,2.67775,-21543.6,-17067.9,-28148.8
1.46261e+08,31.4606,1,2.5486,-3793.38,4019.62,-24974.3
1.46648e+08,32.2884,1,2.9348,-1044.55,6564.22,-27179.2
1.46953e+08,20.4132,1,2.9298,-2954.6,1603.9,-26053.2
1.47112e+08,24.1157,0,2.84397,-4050.06,780.658,-25956.7
1.47127e+08,54.3756,0,2.43731,9046.33,6617.41,-25994.7
1.47291e+08,76.2949,1,2.86397,2762.53,11108.7,-17517.1
1.47357e+08,0.404737,2,2.70528,-96.7038,-177.37,-28823.5
0,0.461815,2,3.05004,0,0,0
1.47631e+08,41.8105,0,2.64081,5848,4198.05,-23608.5
1.4784e+08,11.3874,2,2.50568,-2182.32,-903.195,-29599.1
1.47885e+08,73.2051,1,2.66752,8094.61,1319.96,-18495.1
1.47933e+08,16.1759,2,2.81309,-910.614,-3390.44,-28771.3
1.48288e+08,126.406,2,3.0001,-25366.3,-2482.83,-21329
1.48431e+08,16.9856,0,2.57196,835.324,-3066.79,-27099.5
1.4848e+08,11.3839,2,3.00721,-743.421,-2229.57,-28019.5
1.48495e+08,53.4659,1,2.50369,9525.59,-2718.9,-23502.9
1.4888e+08,159.905,2,2.72541,8279.96,-24706.2,-7460.33
1.49135e+08,103.521,1,2.55202,15616,3961.36,-29498.2
1.49148e+08,42.3328,0,2.90295,-2424.23,-5284.85,-22103.4
1.49376e+08,88.1451,2,2.44057,-1261.06,-17925.5,-23513.5
1.49459e+08,44.1272,1,2.63373,4292.73,-3002.5,-21157.4
1.49796e+08,40.2705,2,2.90641,4559.72,-3321.05,-22496.8
1.50243e+08,24.8476,1,2.72796,-4418.21,2916.68,-28182.3
1.50246e+08,66.2496,0,2.73166,854.801,-6553.14,-16523.2
1.50315e+08,39.0439,1,2.83445,-6209.62,-5393.53,-28599.5
1.50389e+08,11.9665,2,2.53161,-964.952,-2259.51,-27882.3
1.50592e+08,169.224,2,2.43009,-19942.6,-29774,-27265.4
1.50844e+08,80.6516,1,2.83496,-4356.2,6925.79,-13926.2
1.5091e+08,60.812,1,2.65148,-1131.28,6077.75,-17540.9
1.51135e+08,13.8544,0,2.93529,2916.16,-108.713,-28063.3
1.5136e+08,5.41061,0,2.89637,1087.97,231.261,-29389.4
0,5.43396,0,2.85003,0,0,0
1.51719e+08,158.643,2,2.88829,16220.1,18867.4,-6773.26
1.52051e+08,22.0369,1,2.42716,-3154.17,2918.05,-26819.1
1.52297e+08,182.11,2,2.67174,11952.9,-13631.3,-1059.55
1.52392e+08,210.867,2,2.53473,14406.8,-14848.9,10668.1
1.52542e+08,58.2875,1,2.99476,-8216.62,2440.3,-20043.5
1.52783e+08,13.8322,0,2.7586,2568.59,1362.3,-29669.5
1.53226e+08,19.7806,0,2.89856,4087.12,-669.777,-27914
1.53252e+08,16.1227,1,2.47874,790.567,1496.82,-25865.2
1.53324e+08,2.30825,1,2.75751,210.292,511.174,-28898.4
1.53517e+08,183.87,2,2.54837,-23508.5,-18551,-4008.66
1.53727e+08,4.22629,0,2.83751,-180.47,-386.197,-28042.4
1.53808e+08,13.8101,1,2.66279,-612.106,-2316.2,-27231.2
1.53923e+08,2.28669,2,2.9283,353.6,-350.242,-28644.7
1.54001e+08,30.7877,0,2.71609,-553.361,6467.79,-28568.3
1.55162e+08,57.3222,2,2.59595,-6780.73,-2416.91,-19030.7
1.5544e+08,69.2273,0,2.56261,-3185.11,7461.76,-16687.7
1.55524e+08,61.1186,0,2.95509,11869.9,3070.33,-24880.7
1.55961e+08,28.1926,1,2.66377,-1244.6,3905.39,-24439.6
1.56586e+08,95.899,1,3.00872,1382.42,19059.2,-26062
1.57012e+08,18.2368,0,2.91405,2108.5,-788.128,-25659.5
1.57024e+08,47.6138,2,2.4384,-4422.47,-6694.56,-22619.4
0,47.7877,2,2.65263,0,0,0
1.57404e+08,9.54227,0,2.88677,-505.606,-1880.7,-29360.7
1.57477e+08,134.406,2,2.86812,-10149.4,-20768.2,-12478.2
1.57567e+08,135.378,2,2.3656,-15211.9,-8418.42,-12788.1
1.57936e+08,5.28488,1,2.39673,1026.07,315.273,-29127.2
1.57947e+08,36.1819,1,2.44593,-2536.2,-6795.14,-26472.6
1.58036e+08,29.6018,1,2.76498,2480.52,5715.56,-27774.9
1.582e+08,36.5261,1,2.38375,-5125.13,5840.68,-28104.2
1.58421e+08,30.6897,2,2.64693,-4662.58,1206.74,-24470.2
1.58715e+08,15.4556,0,2.8708,-1180.81,1621.12,-26292.3
1.58751e+08,70.7683,1,2.60977,-11658,-2565.25,-19790.9
1.58765e+08,6.9505,1,2.51016,-55.7336,1302.49,-27996.1
1.588e+08,22.8259,0,2.73164,466.462,3856.79,-25958.7
1.58811e+08,154.629,2,2.7718,-1469.5,-16670.5,-857.318
1.59083e+08,123.376,0,2.90192,6621.71,-10401.9,-6010.2
1.59136e+08,72.9877,2,2.84763,673.29,-13890.6,-22143.1
1.59251e+08,143.697,2,2.63812,-12444.7,-3848.12,-1409.9
1.59379e+08,79.7534,1,2.43703,1014.52,10799.9,-15836.9
1.59576e+08,93.1146,1,2.90488,-4633.92,13683,-25286
1.59764e+08,29.0643,1,2.90269,-711.776,-3685.1,-24051.9
1.60235e+08,84.0584,1,2.78493,12238.4,-6979.14,-18244.2
1.60291e+08,34.9742,1,2.69994,-2862.74,6884.87,-28195.2
1.60801e+08,15.0448,0,2.45244,-2894.01,-768.869,-27904.6
1.61149e+08,396.965,1,2.47024,-2145.03,19790.9,153.776
1.61317e+08,25.9522,0,2.38177,-1158.71,-4172.54,-25459.8
1.61412e+08,121.261,1,3.03895,2437.24,2871.73,-27086.1
1.61469e+08,26.4022,1,2.47233,1939.92,-3221.85,-24748.2
1.61516e+08,23.4059,2,2.40774,-1027.8,-4646.12,-27187.9
1.61742e+08,99.7207,1,2.44748,-17780.3,-5681.7,-18977.5
1.6179e+08,23.673,2,2.89872,2330.72,-613.265,-24480.8
1.61879e+08,86.8137,1,2.8814,-12959.9,9565.65,-20152.6
1.61996e+08,36.1249,1,2.89275,-2483.8,1092.44,-29446.3
1.62077e+08,72.0488,2,2.38779,2128.48,-6498.36,-15165.3
1.62466e+08,26.0767,0,2.77022,-1209.02,-3538.02,-24838.6
1.62555e+08,35.4687,1,2.99278,4963.34,-839.809,-23390
1.62903e+08,106.305,0,2.87139,-7315.29,-11798.3,-11343.2
1.62928e+08,39.3358,2,2.50847,6094.84,-3545.17,-24369.8
1.62992e+08,58.4016,0,2.96197,7172.79,9700.59,-26633.3
1.63467e+08,188.019,0,2.84945,20681.3,-28222.7,-10340.2
1.63491e+08,64.7951,0,2.46239,4218.36,-11281.6,-22228.9
1.63761e+08,74.8877,1,2.72774,-13212.7,6874.22,-23363.1
1.6379e+08,79.1144,0,2.79593,8991.14,-13524.5,-25034.9
1.63794e+08,67.0174,0,2.70617,7693.3,8118.14,-20315.8
1.64019e+08,36.7742,1,2.8854,3959.7,1191.71,-22346.7
1.64154e+08,10.3398,1,2.68774,906.626,-863.207,-27063.4
1.64205e+08,59.8499,2,2.62125,-8533.98,-1385.09,-19561.4
1.64214e+08,16.8324,0,2.60902,-819.688,1626.36,-25824.6
1.64245e+08,146.581,1,2.53158,11004.5,26151.2,-16418.4
1.64357e+08,103.354,0,2.75886,-13068.9,-894.57,-11523.7
1.64542e+08,12.3621,0,3.05817,1184.73,-2353.93,-29089.5
1.64781e+08,53.2324,0,2.54896,5615.47,3823.83,-19801.6
1.65093e+08,127.986,0,2.38968,11510.2,742.321,-29008
1.65172e+08,17.8187,2,3.00634,-235.486,2932.02,-26604.3
1.65406e+08,15.3076,2,2.82587,-1485.74,1864.35,-26652.8
1.65585e+08,45.9202,0,2.63513,3049.88,-6747.48,-22505.6
1.65605e+08,19.6932,0,2.50334,512.095,-2836.05,-25775.5
1.65621e+08,50.5208,0,2.74997,6296.78,8633.51,-28886.7
1.65724e+08,198.967,1,2.79261,-8618.96,19019.2,7492.71
1.65832e+08,29.2525,1,2.73361,-4731.69,3500.1,-26682.8
1.6595e+08,10.2893,0,2.66353,2254.7,-397.551,-28947.7
1.66266e+08,36.2082,1,2.49783,-4272.21,-844.066,-22487.7
1.6646e+08,52.0692,2,2.91186,-6035.21,-4616.9,-20891.9
1.6695e+08,2.15093,2,2.41992,-284.352,-19.8776,-28431.4
0,2.118,2,2.7984,0,0,0
1.67041e+08,37.0818,1,2.90369,-5445.54,2859.47,-23950.2
1.67146e+08,225.109,2,3.0504,-27901.8,-16599.1,5379.51
1.67242e+08,4.19971,0,2.99792,852.002,462.577,-28681.3
1.67364e+08,124.706,0,2.37357,8991.41,8447.05,-5456.3
1.67468e+08,22.8932,2,2.5539,-1603.1,-1843.29,-24601.7
1.67767e+08,123.136,0,2.92364,-17836.1,-11420.6,-14111.6
1.68131e+08,52.0002,1,2.90129,-8326.19,5969.8,-24842.3
1.68306e+08,22.2379,2,2.57382,-837.796,-3743.59,-25980.7
1.68744e+08,2.28901,1,2.57821,204.015,-295.986,-28572.4
0,1.85375,0,2.40259,0,0,0
1.6886e+08,151.335,2,2.73178,5300.93,-13542.2,-437.102
1.68918e+08,59.9035,1,2.74922,-9370.08,7961.32,-25585.6
1.68939e+08,130.435,1,2.44311,-10731.7,20196.6,-24022.9
1.69118e+08,114.223,2,2.90446,-12328.2,-8973.83,-10253.7
1.69237e+08,63.4891,2,2.76447,6917.28,-626.228,-17422.6
1.69696e+08,125.508,1,2.85325,-9322.23,-16422.4,-10421.6
1.69793e+08,23.91,1,2.52391,-863.82,309.59,-28297.4
1.69978e+08,100.844,0,2.85036,20861.5,4024.81,-27436.4
1.70081e+08,134.423,2,2.99668,-9734.43,-13421.7,-5995.94
1.70356e+08,8.54247,2,2.735,1189.88,-1418.42,-28822.6
1.70446e+08,65.8863,0,2.40318,-11465.1,-7828.23,-28096
1.70574e+08,11.2178,1,2.95138,-738.068,1038.75,-26791.5
1.70616e+08,99.7545,0,2.4399,14736,13221.3,-21305.8
1.7072e+08,41.4251,1,2.57493,912.871,4382.87,-21276.3
1.71134e+08,13.5221,2,2.40018,-764.43,-2279.52,-27141.3
1.71479e+08,152.397,2,2.41523,-22246.8,20426.8,-17551.4
1.7152e+08,17.6743,1,2.57271,-1784.96,-2161.98,-26389.2
1.71567e+08,32.2014,0,2.91897,-64.6499,5148.98,-24413.9
1.71588e+08,63.1813,1,2.38697,7305.23,11232.6,-28178.7
1.71852e+08,73.1509,0,2.88855,-5431.31,7073.3,-16340.4
1.71993e+08,11.7444,0,2.75615,222.648,-2439.59,-28244.6
1.73147e+08,109.793,0,2.7094,2281.68,-15994.4,-12252.5
1.73446e+08,111.595,1,2.6761,2556.79,-14294.4,-10351.9
1.73593e+08,158.716,1,2.40333,24239.6,-15826.6,-11928.7
1.73615e+08,133.623,1,2.62879,-23405.1,-6235.56,-14325
1.73622e+08,77.5881,2,2.58221,-15242.9,5304.77,-25701.9
1.737e+08,43.3952,0,2.50616,8183.59,3546.72,-26266.8
1.73798e+08,3.39948,2,2.96884,-161.853,-311.982,-28153.1
0,3.41786,2,2.41895,0,0,0
1.74136e+08,35.4593,0,2.91611,-130.774,-6680.76,-25489.4
1.74139e+08,36.8179,0,2.47974,5262.71,-1610.57,-23215.3
1.74148e+08,24.0293,2,2.91049,-3511.65,-1943.91,-25663.8
1.7444e+08,56.268,2,2.67748,-5950.71,-9399.41,-24419
1.74587e+08,48.4378,2,2.5824,4025.32,-9459.54,-28844.4
1.75103e+08,2.19552,1,2.45474,-299.194,151.461,-28427.9
0,2.18082,1,2.59286,0,0,0
0,2.2265,1,2.99023,0,0,0
1.7518e+08,217.276,1,2.63272,-980.991,6253.89,13577.1
1.75268e+08,17.626,1,2.61761,199.823,3558.26,-27457.8
1.7538e+08,114.075,2,2.55221,8007.7,22526.2,-28398.8
1.75455e+08,53.8908,2,2.4376,-184.571,9480.59,-26786.8
1.76044e+08,98.4889,2,3.01069,8402.12,-18875.1,-27429.5
1.76394e+08,7.0091,0,2.43438,285.445,1332.34,-28152.7
1.76441e+08,26.1072,1,2.46826,1931.01,4660.9,-26424.6
1.76618e+08,41.3769,1,2.48341,7258.46,-1616.79,-24320.9
1.76619e+08,42.3566,0,2.70543,-1834.23,5855.68,-22343.7
1.76965e+08,89.9059,1,2.65805,-5067.55,9770.25,-16409.6
1.77066e+08,150.966,2,2.71166,14499.1,-14141.2,-4302.68
1.77306e+08,91.6257,0,2.76766,8518.99,-8608.93,-13757.4
1.77572e+08,65.7652,1,2.55785,-6759.57,-2000.15,-16828.4
1.77862e+08,80.6283,2,2.79298,13453.7,-9499.11,-24610.5
1.78285e+08,212.609,2,2.69027,4976.51,-21900.3,9931.8
1.79014e+08,132.499,1,3.0192,2778.93,25145.4,-17210.4
1.79296e+08,10.8094,2,2.80041,-1518.68,-1824.18,-29001.4
1.79406e+08,89.8807,1,2.9592,-16881.2,-5051.03,-22007
1.79566e+08,231.021,1,2.43342,-13897.7,-26359.3,9841.48
1.7971e+08,13.215,2,2.76152,-1846.34,-2057.56,-27986
1.80297e+08,96.4827,2,2.94954,3459.05,-18381,-20872.4
1.80867e+08,35.1821,1,2.95205,-6128.18,4043.68,-27471.8
1.80995e+08,59.7181,2,2.63607,-1551.97,-7564.87,-18801.7
1.80998e+08,52.8915,1,2.83444,7982.1,7235.59,-25888.3
1.81121e+08,18.1939,0,2.47534,2155.89,3237.78,-28463.6
1.81263e+08,42.6718,2,2.52409,-3634.01,-4617.11,-21892.7
1.81344e+08,58.444,1,2.62801,1730.64,7271.23,-18947.5
1.81626e+08,117.452,0,2.61267,-14273.7,-19996.6,-25656.7
1.81911e+08,56.1147,2,2.60788,-2140.67,-5159.11,-18332.5
1.81944e+08,3.10847,0,2.51601,767.087,23.7884,-28969.5
1.82706e+08,51.1708,1,3.05237,8436.76,1987.09,-22544.3
1.8289e+08,141.01,1,2.72079,-27603.7,9152.42,-22550.2
1.83193e+08,94.0566,0,2.61154,16099.3,386.086,-17085.6
1.83579e+08,4.21021,1,2.96096,-668.874,32.5324,-28218.2
1.8374e+08,21.694,2,2.39687,-1657.91,200.964,-27823.1
1.83985e+08,57.9689,2,2.58797,-3178.22,-11353,-25266.9
1.84369e+08,141.066,1,2.76433,-26922.1,-9215.98,-20270.2
1.84989e+08,5.41315,0,2.47481,341.351,-1133.74,-28726.9
1.85603e+08,101.805,2,2.70689,6681.12,-18300.4,-19666.5
1.85709e+08,129.093,0,2.72661,5691.76,26455.8,-25844.2
1.85722e+08,5.28449,2,2.61276,-792.02,-871.782,-28589.8
0,5.2505,2,2.87559,0,0,0
1.86365e+08,189.883,2,2.88468,16993.8,-25549.2,-3345.66
1.86566e+08,207.587,0,2.83713,20576,18321.5,5058.71
1.86683e+08,231.836,2,2.74221,-27054.6,21633.1,5583.71
1.86882e+08,27.3328,2,2.59695,-3305.84,-2849.97,-24932.6
1.86989e+08,106.261,1,2.6574,-16091.7,2147.42,-13309.8
1.87039e+08,226.722,0,2.74116,20951.5,-14246.3,11476.6
1.8743e+08,53.2135,1,2.41589,8855.07,5117.29,-24154.1
1.87633e+08,27.8277,0,2.67415,4474.94,3234.69,-26578.4
1.879e+08,96.4719,1,3.0344,-15739.9,12526.1,-26545.3
1.88051e+08,88.0782,2,2.527,3187.2,-9432.73,-13046.5
1.88586e+08,81.829,1,2.86499,7665,-3603.74,-25409.9
1.88788e+08,36.4361,0,2.7104,5188.81,4768.06,-25625.5
1.88846e+08,136.028,2,2.9168,8454.25,-17523.2,-7872.41
1.89159e+08,53.377,0,2.86942,9388.57,6147.55,-27732.2
1.89339e+08,106.368,1,2.81451,-4878.16,-96.9394,-27302.5
1.89375e+08,17.311,0,2.4695,716.543,-3285.17,-27254
1.89514e+08,106.288,2,2.38666,-17794.5,3303.3,-15402.6
1.89669e+08,11.7744,2,2.73801,-1995.59,1434.28,-28346.3
1.89877e+08,73.7363,1,2.43063,-11115.1,8974.03,-22357.6
1.89927e+08,20.351,0,2.5842,-3180.65,468.095,-26055.9
1.90937e+08,54.7832,0,2.64852,6736.17,9324.6,-27233.9
1.91041e+08,24.4669,2,2.82567,-4308.44,-2985.6,-28674.1
1.91052e+08,103.3,2,2.65225,2569.75,-943.826,-20489.7
1.91119e+08,85.5339,2,2.82678,15636.2,-4083.08,-21001.9
1.91138e+08,272.595,0,2.57195,-7581.57,24716.1,-22666.4
1.91232e+08,58.7752,1,2.87104,3920.03,7607.28,-19859.6
1.91457e+08,15.7225,2,2.41231,-3273.56,-956.42,-28750.2
1.9155e+08,74.0548,0,2.80146,7181.05,3611.03,-15445.1
1.9158e+08,31.5996,0,2.77707,3250.08,1947.81,-23308.4
1.92048e+08,49.5438,2,2.65042,-7252.94,1282.55,-21397.5
1.92123e+08,39.0955,0,3.03688,2893.34,-6542.43,-24721.9
1.92686e+08,60.9954,0,2.79675,7927.46,-824.594,-18697.4
1.92736e+08,55.7048,1,2.81225,-6966.86,-9277.32,-27395.2
1.92769e+08,123.894,2,3.01295,-19073.9,-1412.08,-11203.3
1.92998e+08,79.5388,1,2.72616,15869,-3796.79,-25133.1
1.93034e+08,150.376,2,2.90363,-6773.57,-17833.8,-3601.44
1.93299e+08,22.4557,1,2.63464,1769.04,4475.5,-29128.4
1.93335e+08,15.0156,1,2.98666,1654.79,2771.57,-28746.6
1.93343e+08,48.6818,0,2.60502,-3307.99,7203.81,-22281.9
1.93744e+08,191.602,1,2.53659,-27491.6,-10566.7,-1043.56
1.93757e+08,83.595,2,2.94533,-8672.63,773.58,-13578.2
1.93826e+08,173.843,1,2.99057,22542.4,14475.9,-4124.66
1.94536e+08,165.731,0,2.74694,20217.9,-16131.2,-5313.82
1.94672e+08,92.9067,2,2.85079,-443.567,-16961.2,-19016.3
1.95068e+08,288.066,1,2.73162,-419.457,1252.03,-24455
1.95144e+08,89.5316,2,2.66347,-3658.35,-17056.5,-21402.4
1.95213e+08,72.1232,2,3.02091,-11491,4955.92,-20322.8
1.96404e+08,9.73643,1,2.85202,-732.422,-568.093,-27010.6
1.96445e+08,122.492,0,2.46445,12073.4,1030.64,-5901.64
1.96466e+08,32.754,0,3.04417,4647.42,-3977.35,-25611.1
1.96468e+08,143.451,2,2.52201,-26357.2,-11516.8,-19029.5
1.96484e+08,24.114,2,2.65862,3704.89,488.704,-25386.2
1.97419e+08,95.8148,2,3.03095,-5013.76,-15895.9,-29477.6
1.97707e+08,5.01216,2,2.71034,-550.757,-359.826,-27936.5
1.97778e+08,92.9565,2,2.84242,5949.2,-18624.5,-27301.6
1.97831e+08,155.541,1,2.95232,-19368.6,25998.5,-24281.4
1.98046e+08,63.6986,2,2.96848,-9386.55,-4563.14,-20373.7
1.98182e+08,56.1562,1,2.70597,6080.17,1254.51,-18761.5
1.983e+08,84.3742,1,2.5535,-10129.1,4245.54,-14749.9
1.98461e+08,31.758,0,2.69201,5521.1,-3966.18,-28919.9
1.99299e+08,24.1864,1,2.4723,695.891,3597.17,-25170.5
1.99491e+08,20.9104,0,2.94936,558.847,-1370.74,-27129.2
2.00425e+08,69.1455,0,2.70881,-6803.39,11784,-23694.2
2.00991e+08,19.8969,0,2.83407,-1280.79,1083.33,-28093.5
2.00998e+08,51.6231,0,2.77739,4458.12,5684.56,-20651.6
2.01142e+08,104.627,0,2.38874,19400.8,-3846.66,-18688.4
2.01167e+08,8.23265,1,2.95307,-677.792,1705.87,-28988.7
2.01365e+08,16.3247,0,2.53432,-52.6012,3463.44,-29114.1
2.0161e+08,178.351,1,3.00893,-24628.3,19218.2,-8175.78
2.01642e+08,166.763,0,2.72142,17249.5,1178.42,-29508.9
2.01718e+08,60.9219,1,2.89319,-8874.95,3179.4,-20094.6
2.02171e+08,40.6173,1,2.36487,-4942.6,-4428.86,-23723.1
2.02398e+08,105.897,1,2.6766,8555.19,-8988.51,-10294.7
2.02453e+08,167.178,2,2.6219,1685.02,-2514.32,-28629.5
2.02739e+08,98.9102,2,2.52719,236.984,-20599.7,-24730.3
2.03085e+08,29.6512,1,2.61324,-3877.07,-555.989,-23892.7
2.03236e+08,91.5058,2,2.87772,-6353.79,5288.59,-11482.9
2.0335e+08,52.7055,0,2.74623,9036.19,5401.61,-25108
2.03424e+08,15.3843,2,2.7761,-1157.45,-2864.26,-27620.8
2.03437e+08,29.2804,1,2.80962,-788.519,6123.06,-27779.3
2.03492e+08,16.3366,2,2.47555,-1107.3,1295.15,-25813.6
2.0371e+08,0.457073,2,2.78423,46.8359,-171.515,-28798.2
2.04029e+08,39.8152,0,2.88385,-5822.92,2187.96,-23306.2
2.04193e+08,17.3049,0,2.79838,1594.41,3331.11,-29198.1
2.04284e+08,44.0533,0,2.94694,6474.9,4669.12,-24272.2
2.04323e+08,91.0083,1,2.64393,-9920.03,3384.92,-12716.5
2.04751e+08,125.905,0,2.37244,20045.5,-1213.3,-11222.6
2.04805e+08,10.108,1,2.49106,1502.26,-581.001,-27458.2
2.05033e+08,18.7435,0,2.54262,3065.48,1017.52,-26394.2
2.05049e+08,66.5504,1,2.58341,-10854.8,1716,-19981.2
2.0543e+08,49.6514,1,2.48797,5432.61,3559.8,-20570.4
2.05575e+08,65.8013,2,2.99759,123.886,-3695.23,-25064.1
2.05577e+08,40.4333,2,2.45845,4852.78,-1785.59,-22030.4
2.05602e+08,160.097,2,2.62362,-9133.33,-24146.4,-6968.05
2.05648e+08,141.917,2,2.8912,-1157.47,-29442.2,-23828.6
2.05844e+08,7.65877,2,2.94466,-1447,-934.736,-28764.6
2.05985e+08,120.758,1,2.67158,2180.7,22752.7,-17469.5
2.06014e+08,30.883,0,2.85504,218.151,-4560.51,-24172
2.0608e+08,26.2585,2,2.6587,3951.37,3180.49,-26769.3
2.0627e+08,24.7883,1,2.69875,-5196.21,656.825,-27972.6
2.069e+08,87.0908,2,2.88028,-6414.4,-13258.6,-17886.1
2.07097e+08,64.6578,2,2.89016,10536.4,-1213.59,-20362.7
2.07097e+08,81.3428,1,2.53933,7262.21,12690.3,-19717
2.07303e+08,64.5411,1,2.52327,-8811,-5078.38,-19706.2
2.07654e+08,54.2116,1,2.83683,-9859.36,-1021.31,-23099.7
2.07752e+08,70.9003,2,2.77876,-1246.79,-8773.11,-16747.4
2.07881e+08,120.244,2,2.37809,-3128.45,-4954,-21499.2
2.08472e+08,41.2441,1,2.79355,8547.2,865.843,-27600.4
0,41.5503,1,2.79355,0,0,0
2.08668e+08,21.3333,0,2.62603,920.797,-4365.51,-27885.8
0,21.4273,0,2.60883,0,0,0
2.08715e+08,4.28455,0,2.65913,745.15,-377.54,-28327
2.09308e+08,21.7443,1,2.45624,-2126.18,-2215.16,-25412.2
2.09519e+08,128.576,1,2.62926,19774.5,18362.2,-25527.2
2.09541e+08,2.12899,0,2.98022,417.279,212.585,-29117.4
2.09774e+08,106.196,0,2.96962,15493.9,15446.3,-24378
2.09914e+08,140.919,1,2.61039,-15933,-14690.8,-8830.93
2.10138e+08,42.6229,2,2.88659,-8572.82,2598.67,-27977.5
2.10634e+08,60.2813,1,2.89705,5232.81,-4363.33,-20318.3
2.11092e+08,22.8173,0,2.55012,-2535.1,-186.15,-24758.7
2.11096e+08,3.98707,0,2.55842,224.867,854.337,-28966.9
2.11335e+08,12.0425,0,2.47527,2400.44,1067.55,-28988.2
2.11382e+08,46.829,2,2.57909,-8811.77,-1110.06,-24304
2.11538e+08,32.8953,1,3.04923,-2634.53,6226.58,-27045
2.11714e+08,2.73941,1,2.76447,-583.477,252.672,-29035.9
2.11757e+08,33.7749,1,2.41747,-2103.42,4960.66,-24016
2.11834e+08,56.3137,1,2.73739,7852.49,-2643.5,-20414.9
2.1217e+08,10.4188,0,2.45864,1928.17,1116.37,-28362.3
2.12306e+08,85.4324,1,2.45109,14771.8,-9369.54,-24538.6
2.12785e+08,12.8259,1,2.77854,533.588,443.798,-28668.6
2.1281e+08,99.166,0,2.81338,12694.8,4516.42,-14378.7
2.12925e+08,45.5815,0,2.97186,4147,8686.18,-29182.1
2.13232e+08,34.8618,0,2.47853,4027.39,-5876.23,-26645.9
2.13266e+08,70.9325,1,2.43402,-922.605,14373.3,-24294.3
2.1375e+08,231.861,1,2.61011,-23462.7,-15356.4,11298.8
2.13761e+08,69.2072,0,2.80704,13564.2,3156.12,-24246
2.13819e+08,37.5746,2,2.65848,1238.92,-4873.59,-22635.6
2.1383e+08,19.9618,0,2.70749,4227.75,-275.638,-28148.8
2.13877e+08,106.584,1,2.68821,-15389.2,3295.85,-12716.1
2.13883e+08,124.242,2,2.85036,6188.62,-18933.3,-20833.4
2.14011e+08,92.7121,2,2.52886,8536.15,-16315.3,-21917.4
2.14294e+08,95.1554,2,2.54061,5059.45,-11492.1,-13067.4
2.14507e+08,105.84,0,2.56676,13708.4,2266.79,-11237.8
2.1454e+08,60.8671,1,2.88492,3771.21,-8781.04,-20432.4
2.14655e+08,16.3169,0,2.60697,-1030.23,-2445.29,-26655.6
2.148e+08,5.6871,0,2.48572,-244.332,1005.81,-28241
2.14962e+08,9.35294,2,2.94213,1331.52,948.984,-27820.8
2.14967e+08,28.0965,2,2.7406,-2175.53,2812.65,-24088.7
2.15264e+08,8.39513,1,2.93818,-305.73,1385.42,-27653.9
2.15268e+08,27.7306,2,3.04809,-5064.98,2371.61,-27125
2.15382e+08,108.873,0,2.38821,-11493.8,9662.46,-11389.6
2.15446e+08,170.747,1,3.02393,-25351.6,13953.8,-7695.35
2.1556e+08,26.1914,2,2.95919,-625.927,3503.88,-24670
2.15884e+08,169.954,2,2.91321,3887.88,-25201.1,-10053.6
2.15908e+08,76.0742,0,2.67019,6400.24,10648.9,-18590.3
2.15949e+08,155.086,1,2.95907,16036.8,-16559.4,-5961.53
2.15954e+08,113.842,2,2.94888,1983.28,-413.359,-27153
2.16366e+08,69.8057,1,2.86023,-5319.59,11296.9,-20962.6
2.16393e+08,2.63669,2,2.64037,205.637,293.872,-28460.2
0,2.62225,2,2.99503,0,0,0
2.16517e+08,61.3759,0,2.46359,4595.25,-11340.5,-24428.1
2.16737e+08,17.6864,2,2.84519,-1305.68,-3506.17,-29622.8
2.16891e+08,14.139,2,2.42761,-863.306,-2922.75,-28236.3
2.16916e+08,28.6149,1,2.92374,-4644.55,646.252,-25045.7
2.16924e+08,32.3551,2,2.70674,-4639.85,-3104.65,-24785.6
2.17306e+08,15.4124,0,2.85924,-1371.96,-1487.84,-26334.8
2.1753e+08,72.3917,2,2.93226,-1160.46,-14409.5,-23917.8
2.17682e+08,9.289,1,2.46464,-828.502,1736.84,-28125.1
2.1779e+08,151.509,1,2.73819,7212.19,-22626.5,-7610.52
2.17929e+08,40.5318,1,2.75261,-4104.53,124.935,-21308
2.18294e+08,100.381,0,2.89169,8773.85,-19043.4,-26152
2.18445e+08,11.2505,2,2.41274,-1846.48,-899.694,-27466.2
2.18751e+08,101.048,1,2.89894,8227.79,-18594.6,-22967.7
2.18878e+08,244.031,2,2.73789,29577.3,10129.9,11916.9
2.18905e+08,82.1769,0,2.41126,-6514.72,-11944.6,-18270.3
2.19216e+08,97.7311,2,3.01663,-18460.4,6099.97,-22257.4
2.1931e+08,141.874,2,2.61048,-23298.7,4973.8,-10608.6
2.19549e+08,25.8879,1,2.60976,-2086.14,-3638.09,-25335.3
2.19946e+08,19.4334,1,2.9698,-1229.55,2604.21,-25837.7
2.20365e+08,57.0089,1,2.97692,-7723.12,7637.74,-23652.4
2.2077e+08,64.0829,0,2.66672,-9044.9,9589.89,-26030.6
2.20796e+08,49.0474,0,2.59533,6736.55,-7687.5,-26669
2.21209e+08,40.9468,1,2.7669,3769.39,3366.32,-21814.3
2.2131e+08,41.0038,1,2.86518,-2772.83,-3724.7,-21567.1
2.21314e+08,11.155,1,3.02937,-841.255,-1629.01,-27387
2.21373e+08,18.7248,1,2.91887,2902.43,-1068.96,-26437.5
2.21932e+08,34.9733,2,2.7132,-7292.59,-1481.33,-29025.9
2.22043e+08,37.895,2,2.53916,-2947.77,-3235.1,-22053.4
2.22215e+08,77.362,2,3.02454,3995.27,-12531.9,-19247.3
2.2251e+08,187.901,2,2.41853,6706.27,-5628.41,-23899.5
2.22538e+08,27.2383,1,2.55636,-2290.97,-1447.91,-23738.4
2.22922e+08,2.64325,2,3.04886,472.222,-26.4821,-28540.2
0,2.19897,0,2.45617,0,0,0
2.23532e+08,8.02739,2,2.46268,-70.093,-1666.67,-29467.2
2.23671e+08,137.931,1,2.94003,12767.8,-1584.82,-21566.9
2.24145e+08,19.4772,2,2.46023,-3239.13,-1533.9,-26641.2
2.24645e+08,50.4325,0,2.7534,6781.65,-41.4557,-20584.4
2.24722e+08,7.61116,1,2.50104,-1189.21,1227.21,-28862.9
2.24977e+08,102.566,0,2.55341,1543.6,-18103.5,-16994.4
2.25125e+08,34.384,0,2.46434,5625.25,-776.328,-24209.3
2.25937e+08,45.8948,0,2.68452,-4048.09,-2951.21,-20591.8
2.26732e+08,178.634,0,2.3804,20885.1,-3948.14,2486.48
2.27132e+08,6.44022,2,2.40865,408.428,-1352.68,-28543.7
2.27577e+08,98.882,0,2.44747,15568.4,-13838,-26113.5
2.27932e+08,11.495,0,2.9785,-843.539,-2256.89,-28891.4
2.27933e+08,27.2693,1,2.65544,-5327.59,-1203.16,-26922.3
2.28056e+08,6.9181,1,2.5108,-1457.39,-391.833,-28844.5
2.28439e+08,106.53,0,2.81027,6314.81,10839.1,-26900.2
2.28477e+08,115.213,1,3.06143,-15090.6,-15381.1,-18061.2
2.28635e+08,170.283,1,2.99647,13514.8,7801.65,-20995.8
2.28806e+08,7.68334,2,2.92033,1199.55,-591.099,-27892.5
2.28896e+08,13.0063,1,2.42173,-2158.1,1213.08,-27480.6
2.29073e+08,7.92074,0,2.82235,1649.16,377.158,-28362.7
2.29497e+08,60.1634,2,2.75048,-9755.27,-8258.24,-28558.7
2.29563e+08,26.9583,1,2.53089,5623.27,194.376,-28132.2
2.31095e+08,34.763,2,2.77011,-7037.1,2097.61,-29360
2.3192e+08,35.5727,2,2.45705,-3877.27,334.586,-22354.5
2.32064e+08,72.8661,2,2.92901,-4939.06,9907.61,-18295
2.32085e+08,160.37,0,2.77214,835.148,-2.46087,-29245.3
2.32114e+08,1.67367,2,2.73685,-400.287,-177.828,-28850.2
0,1.96449,1,2.74141,0,0,0
2.32253e+08,2.05889,0,2.63905,-299.085,-172.602,-28667.6
2.32862e+08,36.3261,1,3.02448,-6212.22,-2725.15,-25326.2
2.33137e+08,73.791,2,2.36755,5214.22,-11924.3,-20094.6
2.33337e+08,78.8161,0,2.65123,-14952.5,-3023.84,-22341.3
2.33341e+08,28.628,1,2.53289,4396.36,1359.8,-27534.2
2.33347e+08,32.9478,0,2.47883,6626.04,-1235.17,-28865.3
2.33704e+08,192.4,2,2.63234,17838.2,11686.7,-13355.9
2.33747e+08,61.3171,2,2.39401,-10518.4,7092.43,-26042.6
2.34004e+08,48.3676,2,2.87467,7948.35,-6370.81,-28198.9
2.34173e+08,143.645,2,2.76944,-14118.8,-16100.6,-7395.35
2.34191e+08,13.0036,2,2.59206,-773.122,1825.93,-26968.5
2.34584e+08,75.7895,1,2.58218,-9878.57,-12199.6,-25655.6
2.34921e+08,17.1974,0,2.79592,1183.2,-1753.25,-25862.3
2.34963e+08,53.2562,2,2.79022,11082.4,-877.104,-29519.3
2.3519e+08,53.9063,0,2.49388,-6537.11,9273.95,-28308.3
2.35203e+08,94.7512,1,2.58127,-2665.3,12962.7,-13761.9
2.35307e+08,6.44299,0,3.02813,1359.14,-195.407,-28349.8
2.35326e+08,19.7595,1,2.68701,2496.75,-1797.26,-26077.3
2.35393e+08,64.1842,1,2.51161,-7947.78,7451.18,-20603.6
2.35664e+08,89.8818,2,2.74285,-4275.15,-15405.2,-20637.7
2.35771e+08,45.6535,2,2.88094,9526.98,412.804,-29669.2
2.36491e+08,152.685,1,2.75894,-17146.2,27280.4,-27262.7
2.36532e+08,45.7956,2,2.90699,-7081.1,-900.286,-22302
2.36561e+08,75.3208,1,2.83006,-13749.9,-3928.36,-21964
2.36654e+08,98.6314,1,2.47463,-9211.43,17678.4,-22824.1
2.36684e+08,224.466,2,3.01024,-18489.3,28752.5,-12833.7
2.36709e+08,42.2531,1,2.39854,-3201.09,8199.19,-26723.4
2.36716e+08,59.5644,1,2.59711,-3202.32,8626.68,-20160
2.36774e+08,4.33139,2,2.37049,686.597,-204.155,-28249.4
2.36926e+08,29.3786,2,3.03943,-1637.45,3346.55,-23952.3
2.37168e+08,99.3466,0,2.94738,-14989.4,7396.35,-16444.4
2.37352e+08,58.8189,1,2.763,-11321,4691.14,-26578.3
2.37486e+08,102.56,0,2.49066,-13925.4,-9767.62,-15481.7
2.37988e+08,12.0023,1,2.81617,696.17,1663.52,-26991.2
2.3802e+08,32.2951,2,2.78794,-2875.15,4953.68,-25223.8
2.38143e+08,112.734,0,2.73193,23450,-4150.23,-29651.9
2.38161e+08,211.487,1,2.94134,29325.5,20413,-2495.02
2.38411e+08,22.8885,2,2.59992,3142.9,971.823,-25330.9
2.38509e+08,57.039,0,2.62539,11278.8,481.53,-24366.5
2.38557e+08,60.1882,0,2.91738,3516.37,9005.63,-20623.8
2.38594e+08,211.306,2,2.79387,-20408.3,-26734.7,349.926
2.38671e+08,241.916,0,2.52156,29750.2,6142.47,12338
2.38858e+08,69.4797,0,2.89291,12631.9,715.898,-21374
2.38985e+08,4.02935,2,2.55169,459.151,-61.3386,-28134.9
2.39012e+08,38.2961,1,2.86752,-5544.51,-3019.88,-23807.6
2.39262e+08,46.7761,2,2.36785,-1096.89,-9133.9,-24917.6
2.39262e+08,10.8521,0,2.49617,2312.96,3.44949,-29385.3
2.39439e+08,25.4236,2,2.61345,-3600.8,1555.34,-25113.4
2.39576e+08,36.8852,0,2.53535,5655.16,-1154.61,-23513.1
2.39624e+08,72.5582,2,2.76597,653.068,-13066.2,-20809.6
2.39657e+08,23.0056,1,2.43647,619.486,4391.52,-26726.1
2.39915e+08,14.5792,2,2.98741,1721.16,-2115.91,-27377.9
2.3997e+08,1.53213,2,2.94454,310.041,-144.787,-28870
2.4005e+08,37.6321,1,2.69531,-4400.38,-358.094,-22233.3
2.40298e+08,110.054,0,2.38946,5499.73,-14731.2,-11626.3
2.40361e+08,229.325,1,2.39579,17360.4,-25206.5,8762.07
2.40551e+08,166.867,0,2.98642,6223.86,10740.6,2993.47
2.40839e+08,47.9755,2,2.47218,-5602.91,2165.5,-20643.9
2.40939e+08,27.1092,0,2.84664,3312.91,4027.86,-26421
2.41033e+08,24.3301,1,2.49142,-1421.18,4254.2,-26141.9
2.41343e+08,173.942,0,2.44795,-19884.4,7644.48,1095.88
2.41397e+08,40.8692,0,3.02932,2450.03,7090.32,-24595.5
2.41418e+08,59.7068,1,2.36487,-12568.9,1637.14,-28541
2.4151e+08,65.9423,1,2.75568,186.669,10582.1,-19742.1
2.41834e+08,94.6763,1,2.5214,-16441.3,10336.5,-23596.3
2.42395e+08,42.5746,2,2.65046,-496.975,-7018.72,-23137.8
2.42532e+08,34.0409,1,2.86297,1705.78,-4582.54,-23681.1
2.42562e+08,8.92342,1,2.43797,-508.671,-1523.14,-27901.8
2.42735e+08,118.787,0,2.81718,-16567.9,-7801.61,-11903.5
2.42851e+08,29.9099,2,2.39339,-3073.46,-4169.29,-25091.2
2.42867e+08,98.5653,0,3.01188,4943.12,8854.54,-10811.7
2.43067e+08,182.399,1,2.55258,18197.8,-16506.6,816.989
2.43509e+08,76.3078,0,2.81593,4258.37,-9756.74,-16772.9
2.4456e+08,87.9992,2,2.71023,-76.6906,-16639.5,-20453.5
2.44594e+08,60.1961,1,2.95752,-9099.65,2944.58,-20528.2
2.45071e+08,34.8244,0,3.01264,6429.93,-2649.02,-26317.8
2.4511e+08,26.3739,2,3.04023,-3590.42,1656.75,-24976.7
2.45257e+08,46.0346,1,2.41722,-4644.52,4487.69,-21454.5
2.45328e+08,120.841,2,2.81347,-10138.3,-23377.2,-29946.1
2.45862e+08,5.84696,0,2.48103,1323.18,100.54,-28597.4
2.45875e+08,141.971,1,2.88655,-27372.1,11859.8,-27420.5
2.46003e+08,32.0452,1,2.98503,-3636.9,4259.31,-24954.2
2.46027e+08,32.448,2,2.68388,5566.83,1948.99,-25445.6
2.46148e+08,110.002,2,2.79898,-17333,8051.3,-15749.6
2.46253e+08,7.83965,2,2.96253,-817.121,396.019,-27426.6
2.46746e+08,79.1222,0,2.51382,7804.37,11410.4,-19306.5
2.47234e+08,107.055,0,2.67196,14951.3,-5845.71,-12885.7
2.47303e+08,129.262,1,2.80446,-15119.4,20751.9,-19612.4
2.47405e+08,192.825,0,2.92725,20575.5,-5179.72,5670.68
2.47428e+08,150.117,1,2.67826,10765.6,15153.3,-3190.91
2.47474e+08,46.7662,2,2.80618,-4729.3,3312.46,-20861.5
2.47487e+08,27.9315,2,2.97815,3411.33,-4155.71,-27021.1
2.47519e+08,135.71,0,2.84534,14876.5,-16200.7,-10569
2.48216e+08,8.01271,0,2.55537,621.439,1553.76,-28327
2.48259e+08,69.9341,1,2.66657,12552.1,6597.41,-24709.5
2.48351e+08,54.4161,1,2.9219,-6609.35,-2608.2,-19881.7
2.48398e+08,214.388,0,2.87835,16198.1,-9243.08,12185.2
2.48596e+08,31.6367,2,2.65485,-5035.41,-4449.62,-28223.5
2.49014e+08,38.4606,2,2.3747,-6310.83,-2060.23,-24052.2
2.4909e+08,50.054,0,2.40441,-1536.58,5899.41,-20185.4
2.49266e+08,96.283,1,2.52357,-18307.9,-5490.9,-21707
2.49369e+08,40.5981,0,2.94573,-6964.5,-3690.9,-25770.2
2.49384e+08,53.1637,0,2.84986,4418.29,9874.28,-25770.9
2.49564e+08,7.69268,0,2.55925,1003.74,1078.49,-28002.8
2.49721e+08,80.1226,0,2.97353,11009.4,-1946.78,-16207.2
2.49945e+08,31.8267,2,2.96211,-3472.25,-4718.1,-25432.8
