#class tools::wcsv::ntuple
#title time
#separator 44
#vector_separator 59
#column double eventID
#column double t(ns)
#column double copynumber
#column double energy(eV)
52942,103.251,1,2.48825
76768,44.4735,2,2.83342
271938,37.1887,1,2.36738
872094,125.871,0,2.78047
1.37501e+06,7.35105,1,2.59255
1.66855e+06,42.8164,0,2.9122
2.22722e+06,222.91,2,2.86858
0,223.083,2,2.86858
2.23879e+06,123.298,0,2.82814
2.31311e+06,233.776,1,3.02981
3.1683e+06,99.1855,1,2.87181
3.80747e+06,4.84932,1,2.75873
3.90097e+06,5.89606,2,2.76439
4.19128e+06,123.026,1,3.00485
4.49286e+06,1.65928,2,2.65134
0,1.59899,2,2.66479
0,1.60734,2,2.62962
4.7433e+06,99.8092,0,2.66768
5.015e+06,7.82688,0,2.98404
5.14584e+06,136.299,1,2.66955
5.45904e+06,102.154,2,3.04661
5.73015e+06,133.414,0,2.65517
5.93151e+06,212.728,1,2.6947
5.9655e+06,205.87,1,2.90327
6.51509e+06,213.396,1,2.59035
6.64747e+06,114.798,1,2.53584
0,115.063,1,2.53584
6.90511e+06,27.8721,0,2.79335
6.93624e+06,122.989,1,2.94182
6.95216e+06,135.481,0,2.70784
7.19715e+06,113.958,1,2.9984
7.38646e+06,33.0363,0,2.53479
7.86874e+06,71.4151,0,2.47536
8.01765e+06,110.95,2,3.00046
8.32989e+06,48.2287,0,2.9889
8.6578e+06,191.14,2,2.606
8.98196e+06,175.044,2,2.77256
0,175.31,2,2.77256
9.16672e+06,8.52739,2,2.66359
9.74809e+06,29.1243,0,2.74088
1.01354e+07,136.904,1,2.92073
1.03124e+07,49.5835,1,2.83174
1.03333e+07,75.1221,2,2.97042
1.06488e+07,22.521,2,2.97066
1.09557e+07,119.681,1,2.79011
1.09568e+07,58.7548,2,2.69365
1.10645e+07,113.514,2,3.03161
1.11899e+07,266.384,2,2.74699
0,266.738,2,2.74699
1.12716e+07,98.193,1,2.89892
0,98.4149,1,2.89892
1.13826e+07,88.6731,1,2.8942
1.14054e+07,18.3315,0,2.83709
1.14973e+07,114.758,1,2.58344
1.15382e+07,5.40664,0,2.69473
1.15737e+07,140.163,1,2.45773
1.15948e+07,199.453,2,2.88326
1.22618e+07,122.822,1,2.47086
1.24629e+07,66.2014,2,2.61137
1.30017e+07,107.743,2,2.42766
1.37331e+07,164.119,0,2.61909
0,164.369,0,2.61909
1.38562e+07,201.325,2,2.68913
0,201.474,2,2.68913
1.40201e+07,46.0265,0,2.84354
1.40549e+07,176.451,2,3.05639
1.43215e+07,203.426,1,2.42991
1.45709e+07,154.738,2,2.39061
1.46001e+07,6.08049,0,2.59439
0,6.26542,0,2.59439
1.55735e+07,173.675,2,2.92904
1.58241e+07,299.429,0,3.03538
1.6297e+07,47.1683,0,3.00504
1.62977e+07,103.638,0,2.7838
1.65322e+07,176.278,2,2.38868
1.68603e+07,67.814,1,2.96193
1.71294e+07,176.814,2,2.94651
1.73585e+07,8.53441,1,2.44128
1.75274e+07,276.513,0,2.86378
1.76591e+07,120.239,1,2.41699
0,120.583,1,2.41699
1.79075e+07,246.828,1,2.57617
1.79809e+07,66.7364,0,2.72122
1.8373e+07,16.937,0,2.81134
1.86067e+07,44.296,0,2.87937
0,44.5542,0,2.87937
1.91096e+07,60.8066,2,2.44908
1.92063e+07,26.3674,1,2.69703
1.9681e+07,166.598,1,2.71634
1.98772e+07,116.352,1,2.4874
0,116.491,1,2.4874
2.01292e+07,67.4145,2,2.51738
2.07013e+07,22.4319,0,2.41506
2.11305e+07,61.3094,2,2.98719
0,61.4446,2,2.98719
2.11612e+07,24.9292,0,2.80591
0,25.2733,0,2.80591
0,25.0205,0,2.87167
0,25.2362,0,2.87167
2.12767e+07,45.0953,0,2.91814
2.15049e+07,15.432,0,2.48957
0,15.6878,0,2.48957
2.15189e+07,10.247,0,3.01594
2.15241e+07,143.997,1,2.6953
0,144.184,1,2.6953
2.17047e+07,205.501,1,2.97663
2.18556e+07,230.122,2,2.74309
2.24043e+07,115.224,0,2.68539
2.25165e+07,212.128,0,2.41147
2.27259e+07,66.5047,1,2.91979
2.28656e+07,46.3488,0,2.97096
0,46.4981,0,2.97096
2.3094e+07,21.8268,1,2.58287
2.32655e+07,59.7653,0,2.84585
2.33645e+07,58.5532,1,2.65221
2.33697e+07,205.926,2,2.49589
2.37718e+07,44.5602,0,2.84514
2.39648e+07,51.1362,0,2.55036
2.403e+07,107.576,0,3.00096
0,107.733,0,3.00096
2.44353e+07,32.8509,0,2.68623
2.48798e+07,73.8614,1,2.83016
2.49151e+07,28.2038,1,2.90528
2.55464e+07,376.52,2,2.54039
2.57109e+07,83.6322,2,2.39603
2.59561e+07,38.0591,2,2.42041
2.60282e+07,45.1527,2,2.71845
2.61741e+07,54.9625,2,2.62659
2.6229e+07,28.064,0,3.02543
2.67949e+07,74.723,0,2.50306
2.69961e+07,210.757,1,2.70665
2.7229e+07,40.7564,2,2.52782
2.83346e+07,44.0247,2,2.43347
0,44.343,2,2.43347
2.84167e+07,97.5059,1,2.8146
2.85707e+07,11.3723,1,2.97734
0,11.5584,1,2.97734
2.85989e+07,55.92,0,2.83301
2.8678e+07,196.182,0,2.78933
2.88164e+07,201.658,2,2.86353
2.90725e+07,187.964,0,2.8896
2.94752e+07,14.5554,0,2.67212
