#class tools::wcsv::ntuple
#title time
#separator 44
#vector_separator 59
#column double eventID
#column double t(ns)
#column double copynumber
#column double energy(eV)
#column double x(mm)
#column double y(mm)
#column double z(mm)
62841,216.163,1,2.49985,-28776.2,29915.7,-9629.42
190558,26.3563,1,2.56487,-3594.77,-659.612,-24769.7
369685,33.6492,0,2.72072,-4112.94,1553.9,-23388.2
517812,225.721,1,2.8,-8560.79,-20940.7,12886.4
1.20403e+06,311.036,1,2.91074,26095.9,-10911.4,-27047.1
1.34232e+06,254.825,2,2.81576,-22322.1,29590.5,9899.89
1.40694e+06,171.718,1,2.50986,25469.4,-17488.6,-9899.88
1.44508e+06,90.8703,0,2.99791,-6017.83,-15934.2,-20278.6
1.45249e+06,64.5843,2,2.38292,7301.51,-996.791,-17533.1
1.85318e+06,52.4776,2,2.6947,-1710.59,-6998.93,-20287.5
1.96932e+06,16.3593,1,3.01314,2391.55,2308.31,-28492.9
1.97325e+06,48.1112,1,2.66913,4718.71,1993.09,-20104.3
2.14395e+06,20.4461,2,3.00113,-3801.78,-22.3741,-26640.9
2.14711e+06,50.5776,0,3.04552,8513.49,4529.68,-24297.2
2.16039e+06,133.614,0,2.43956,14057.5,8075.46,-5616.63
2.1984e+06,23.127,1,3.0258,-3115.52,-3721.9,-27880.6
2.39989e+06,34.6441,2,3.04847,-4087.35,-3797.27,-24219.2
2.42253e+06,30.3238,0,2.84821,-4800.16,3699.16,-26828.4
2.47507e+06,42.6221,2,3.04972,3125.32,-7496.12,-25006.6
2.59642e+06,51.4223,0,2.58297,-5616.31,8985.46,-26661.8
2.71828e+06,144.91,0,2.59726,16902.9,-13417.4,-7044.77
2.85294e+06,32.0928,2,3.04456,5070.37,-3611.69,-26276.7
2.87347e+06,32.5612,2,2.96586,903.304,-2141.17,-22373.2
2.99657e+06,26.588,2,2.62295,-3692.38,-2310.81,-25200.9
3.08851e+06,20.1464,1,2.61858,-3279.26,110.612,-26022.9
3.09814e+06,7.03962,1,2.42138,57.3727,1026.83,-27642.2
3.13896e+06,36.4612,1,2.60103,5524.92,418.487,-23462
3.44599e+06,230.311,1,2.94137,8840.42,16732.6,-4745.84
3.44967e+06,6.85858,1,3.04553,-717.4,865.789,-27861.8
3.45356e+06,161.563,1,2.55985,-26581.4,12243.6,-11068.7
3.4828e+06,90.8393,0,2.57787,7621.14,16908.3,-23692.4
3.56177e+06,51.0014,0,2.91029,4630.1,-960.83,-19228.6
3.66184e+06,114.228,1,2.5356,-18629.8,15141.2,-26901.5
3.68167e+06,53.9844,0,2.62216,232.382,-11390.6,-28077.6
3.90291e+06,24.3957,2,2.73028,645.179,-1708.63,-23922.7
3.91204e+06,41.1726,1,2.94361,-3159.37,3143.27,-21345.3
3.93985e+06,91.0515,0,2.38579,-2893.94,17640.4,-21679.5
4.00318e+06,30.2469,1,2.44503,4945.38,-1463.95,-25101.7
4.00367e+06,15.2779,1,2.41069,-3113.73,57.0904,-29031.3
4.03962e+06,12.284,2,2.49433,354.04,-2210.71,-27423
4.14177e+06,14.1563,1,2.61697,1517,1801.16,-27056.8
4.26269e+06,66.5783,2,2.75776,-13924.8,-751.996,-29576.7
4.29494e+06,151.975,2,2.72916,1565.45,25890.4,-10201.9
4.30753e+06,10.9893,2,2.76004,-928.9,-1938.37,-27883.7
4.38546e+06,22.4439,2,2.40556,317.748,-4756.81,-28055.5
4.48733e+06,50.3177,1,2.98391,-9943.43,-3290.28,-27190.7
4.5578e+06,5.87155,2,2.72939,-876.072,-990.113,-29082.8
4.61185e+06,134.964,1,2.78528,-20657.3,-397.274,-16411.6
4.67144e+06,43.6506,2,2.8147,9155.91,-611.465,-28625
4.78466e+06,141.406,2,2.42447,2496.09,1584.41,-27660.4
4.88573e+06,79.9385,0,2.3694,2903.04,-4562.21,-12707.5
5.08928e+06,128.62,1,2.48404,-967.722,19123.4,-9472.5
5.17399e+06,157.152,1,3.03007,-14416,-9482.27,-983.814
5.20824e+06,40.6921,2,2.93425,3223.9,5028.23,-22887.9
5.43842e+06,58.6615,1,3.05676,-9862.25,-1690.68,-21607.9
5.55678e+06,46.4446,0,2.6391,-1413.05,9576.7,-28879.7
5.62866e+06,19.3408,1,2.37468,3556.95,-1786.18,-28087.5
5.74684e+06,77.3663,2,2.85731,-3007.67,-14252.9,-29121.3
5.82532e+06,84.5109,1,2.86461,-11020.5,11964.1,-21551.6
5.85271e+06,139.044,1,2.80771,-15729.4,3735.94,-4520.48
5.89021e+06,125.367,0,2.60699,15145.3,-20369.9,-21531.4
5.90766e+06,140.414,2,2.37439,24759.8,7228.15,-14214.9
5.97317e+06,35.8426,1,2.41869,2669.26,-2619.4,-22292.6
6.00494e+06,131.191,1,2.69718,-2348.52,26352.4,-20808.6
6.0075e+06,142.276,1,2.46232,-29250.6,7317.49,-27178.3
6.04749e+06,75.7159,2,2.88117,-11035.5,5574.52,-18619.5
6.1005e+06,14.3516,2,3.05682,-1123.23,-2475.78,-27581.4
6.14694e+06,99.3869,0,2.5098,18658.5,-4361.55,-19962.9
6.35716e+06,242.316,0,2.95285,-2186.82,14717.7,9730.32
6.38087e+06,22.4119,0,2.62189,-1841.01,2491.84,-25380.4
6.44239e+06,34.6003,2,2.82652,3714.18,-1339.13,-22864.3
6.52908e+06,12.9991,1,2.37948,-2473.2,-891.474,-27971.7
6.55981e+06,141.135,0,2.84855,25272.2,7003.28,-14710.5
6.88607e+06,108.864,0,2.70882,-1179.73,3711.51,-25746.9
6.9261e+06,33.3238,1,2.64615,-3944.12,-5086.26,-26026.7
6.96985e+06,109.253,0,2.66569,6926.85,18261.3,-16566.8
6.99544e+06,26.1841,2,2.77776,-2599.63,-417.727,-24040.6
6.99776e+06,13.0748,0,2.75732,126.66,41.0641,-26091.7
7.03507e+06,15.2814,0,2.45557,1422.05,-2893.75,-29210.9
7.08042e+06,61.7861,0,2.81936,-2711.46,3990.26,-16776.1
7.20552e+06,37.7718,0,2.8371,6330.31,2361.08,-24495.7
7.22031e+06,54.0603,1,2.80776,3527.41,5409.39,-23589.1
7.23514e+06,14.9006,1,2.9009,-1578.17,1353.14,-26407.8
7.57443e+06,25.7503,2,2.78821,-3814.94,-2820.08,-26778.8
7.58592e+06,15.4277,2,2.8861,-874.194,2701.63,-27325.7
7.65725e+06,92.6536,1,2.81404,9030.65,10844.1,-15336.4
7.7021e+06,48.2612,0,2.84761,-947.918,-5631.72,-20377
7.72537e+06,23.2888,0,2.60102,1672.06,-4120.74,-26495
7.88534e+06,68.6966,2,2.6754,-11298.4,-7214.29,-24266.7
7.88633e+06,58.1915,0,2.5996,-6724.88,2228.15,-18718.7
7.99242e+06,32.8428,1,2.37334,-4369.9,-977.571,-23753.8
8.0451e+06,180.518,0,2.83369,29661,13810.9,-9494.53
8.0912e+06,146.2,2,2.95559,-15686.1,-1325.73,-2455.75
8.29288e+06,53.8479,1,2.53231,4972.41,-4320.41,-19604.7
8.36586e+06,0.402363,1,3.85577,-118.771,120.695,-28911.4
8.39853e+06,31.0041,2,2.49255,-4431.25,3956.34,-25791.1
8.40481e+06,127.794,0,2.71916,3051.43,21066.7,-26724.7
8.42361e+06,76.5926,2,2.81095,3895.75,6844.86,-14789.4
8.42697e+06,133.441,2,3.05924,-329.039,21413.8,-11124.3
8.59478e+06,226.528,2,2.9648,-19306.1,-12508.6,-12796.2
8.59908e+06,20.2348,1,2.85479,-4240.03,322.109,-27991.3
8.69638e+06,102.234,0,2.42568,-7529.2,-4515.71,-9095.94
8.69676e+06,28.1503,1,2.88365,-5321.05,2929.11,-29240.4
8.71899e+06,26.364,1,2.72025,-2670.3,3796.19,-25671.9
8.98012e+06,4.62234,2,2.83975,-349.908,-590.64,-28050.6
9.04339e+06,12.6055,1,3.06011,61.4905,-1257.23,-26554.6
9.05852e+06,222.507,2,2.53964,-26028.1,-17686.5,6067.71
9.06261e+06,144.358,1,2.90783,6955.44,5626.47,28.4148
9.16467e+06,54.0034,2,2.86142,-3784.1,-627.349,-18115.4
9.16946e+06,144.906,2,2.95826,-29454.5,-4374.94,-22559.8
9.18522e+06,78.1594,0,2.61208,16575.5,404.088,-27935.7
9.21766e+06,20.8152,2,2.99029,1219.14,-3886.55,-27014.5
9.22153e+06,160.487,0,2.90888,22397.7,-20702.8,-14696.2
9.38596e+06,34.4034,0,2.77601,113.805,809.604,-28182.8
9.42068e+06,53.3142,2,2.37747,1605.56,-4932.32,-18835
9.46952e+06,43.1848,0,2.90471,8193,-355.644,-24647.5
9.57413e+06,41.7794,0,2.71184,4905.55,-7129.97,-26752.6
9.74806e+06,11.9361,1,2.5559,1473.3,623.309,-26852.5
9.89574e+06,163.301,1,2.72751,28823.9,6824.36,-15092.3
9.91082e+06,13.7144,1,2.98018,58.0238,-1336.83,-26949.9
9.91631e+06,109.21,1,2.80643,7570.44,4455.35,-7470.33
9.91737e+06,33.0523,1,2.97897,-221.837,3960.17,-23164.6
9.9482e+06,43.6088,2,2.83647,-5228.58,4688.96,-22946.1
9.95573e+06,165.726,1,2.96297,-9360.19,-8810.5,-1563.5
1.00244e+07,1.50856,0,2.72058,-7.31499,-215.677,-28524
0,1.44593,0,2.42933,0,0,0
0,1.48216,0,3.01308,0,0,0
0,1.51134,0,2.98131,0,0,0
0,1.43824,0,2.80772,0,0,0
0,1.58536,0,2.57834,0,0,0
0,1.45092,0,2.79066,0,0,0
1.00595e+07,78.243,0,2.65135,10544.7,-11937.2,-24337.1
1.01015e+07,135.779,1,2.54854,1122.36,-14337.8,-3918.36
1.01331e+07,27.7503,2,2.70821,526.076,-1414.37,-24216.4
1.02996e+07,1.30002,0,3.02198,144.271,200.194,-28832.7
1.04358e+07,5.82695,0,2.93234,1153.39,325.334,-29412.2
0,5.7792,0,2.49963,0,0,0
1.06291e+07,98.4224,2,3.05161,-10145.5,4593.88,-25559.7
1.06591e+07,280.343,1,3.05799,1005.47,9896.39,28962.1
1.09368e+07,3.64192,1,2.64454,-783.331,-264.52,-28842.5
1.10514e+07,87.764,2,2.63841,15109.9,10398,-27406.3
1.10527e+07,19.2194,1,2.77017,1347,1527.42,-25249.3
1.11023e+07,33.0266,0,2.69519,2872.8,-1280.58,-22570.5
1.12108e+07,136.534,0,2.84153,16530.1,-17162.6,-14694.5
1.12186e+07,293.378,2,2.7955,752.902,5691.8,-19660.5
1.12289e+07,163.192,2,2.81862,-27658.6,-20428.4,-29854.3
1.13836e+07,16.3967,0,2.43741,-1563.44,3072.23,-29052.5
1.13865e+07,75.8893,1,2.56972,-2393.76,-11013.4,-17439.9
1.15011e+07,14.3618,1,2.8478,-2266.68,-142.228,-26809
1.15181e+07,28.4605,2,2.46653,94.486,-5118.75,-25371.2
1.1541e+07,26.1575,1,2.47608,-4498.39,3260.06,-28164.9
1.17198e+07,10.9169,1,2.85487,1090.08,94.1814,-26782.6
1.17477e+07,34.0153,2,2.70161,-6183.49,3521.83,-29883.9
1.18569e+07,70.2529,2,2.66889,-2986.6,8636.97,-17174.4
1.20243e+07,13.974,0,2.8121,907.083,165.486,-26085.4
1.20327e+07,171.55,0,2.66788,27762.9,-10284.2,-7897.52
1.233e+07,88.1716,1,2.48538,-9840.29,-665.539,-13039.3
1.23905e+07,39.7985,2,2.9818,2208.26,-7246.66,-25161
1.25157e+07,37.8659,0,2.63219,4896.44,-6472.39,-29168.2
1.2713e+07,44.4912,0,2.5808,-7102.69,-2745.24,-23580.5
1.27419e+07,59.8892,2,2.55822,-5492.4,-10960,-25301
1.28746e+07,56.0916,2,2.92836,-6273.11,-451.348,-18802.8
1.29549e+07,26.6556,1,2.6188,-2692.75,2574.36,-24541.2
1.30542e+07,30.195,2,2.4883,-2077.53,-6129.56,-29957.9
1.31933e+07,5.63609,0,2.55966,655.013,651.483,-27971.3
0,5.65988,0,2.92891,0,0,0
0,5.70958,0,2.75531,0,0,0
1.32102e+07,21.4546,2,2.80069,1259.96,-4123.55,-29926.4
1.32776e+07,87.6135,2,2.50187,15059.5,-7067.51,-25060.8
1.32815e+07,33.1342,1,2.66907,-2120.02,4076.79,-23472.6
1.33658e+07,32.597,0,2.42151,3195.37,-2749.44,-23429.3
1.34947e+07,25.493,1,2.54011,-1965.57,607.471,-23745.4
1.35292e+07,111.812,2,2.69979,16642.4,-10236.4,-15741.8
1.3838e+07,89.913,1,3.02838,1374.33,-6950.3,-16219.1
1.39879e+07,18.2858,2,2.88915,668.365,-3548.81,-27273.2
1.41434e+07,56.6956,1,2.72241,-586.125,-6145.14,-18713.9
1.42373e+07,101.562,1,2.75142,-2457.67,7537.12,-8939.41
1.42423e+07,109.063,0,2.65084,16005.3,16631.9,-29562.4
1.44211e+07,99.145,0,2.95117,14060.4,-12176.7,-19464.9
1.44249e+07,100.045,0,2.42925,20414.6,-5677.22,-26853.9
1.44364e+07,52.5306,2,2.90921,-10747.2,1541.79,-26665.4
1.45048e+07,5.67708,0,2.56796,622.207,-1087.72,-28676.7
1.46213e+07,23.3022,2,2.81713,4721.56,-1266.25,-29079.1
1.46273e+07,28.0574,2,2.67069,-3945.57,2812.34,-25318.2
1.4789e+07,44.899,0,3.05854,-3267.35,2786.94,-20868.9
1.48026e+07,29.4598,2,2.43252,-1526.58,5123.93,-25774.4
1.49017e+07,163.946,0,2.68832,14879.8,6466.19,1803.06
1.49943e+07,36.3325,2,2.67713,-7714.99,-407.232,-28443.3
1.50689e+07,117.734,1,2.78545,-10919.8,-14180.7,-11731
1.51788e+07,32.5313,1,2.9609,4263.51,570.296,-23550
1.5223e+07,133.368,2,2.91802,-16528,-21321.4,-21001.5
1.53931e+07,66.1085,2,3.00752,12069.3,2593.78,-22325.4
1.54076e+07,20.7063,0,3.03382,424.131,-1473.41,-24649.7
1.56613e+07,162.038,1,2.75405,3444.28,29466.4,-11745.4
1.5699e+07,98.2119,1,2.92283,-12780.7,9387.72,-23255.6
1.57195e+07,47.0904,2,2.41528,-2059.96,-140.713,-19029.1
1.576e+07,99.6029,1,2.86387,16483.8,2940.34,-16201
1.57723e+07,58.6742,1,2.72027,9978.33,-5661.37,-24192.1
1.58573e+07,101.276,0,2.86542,-17679.9,3024.83,-17405.5
1.58693e+07,79.7178,0,2.75433,15640.6,1434.28,-22734
1.58804e+07,28.5331,2,2.50641,-3193.18,-4407.33,-26073.9
1.5887e+07,19.4362,2,2.89044,3147.74,762.422,-26453.4
1.5903e+07,39.0464,2,2.88683,1437.93,-3079.72,-26430.9
1.59284e+07,89.0485,0,2.72121,-2371.39,17459.5,-22430.3
1.59429e+07,37.3118,2,3.05624,6236.64,-1832.94,-24484.5
1.598e+07,13.0755,0,2.94575,1323.81,525.811,-26502.2
1.60092e+07,66.0288,0,2.45644,1370.44,13761.5,-25859.1
1.61197e+07,11.9023,2,2.80859,1391.63,643.27,-26874.6
1.61534e+07,76.5821,1,2.75471,526.195,12696,-18786.7
1.61584e+07,28.4805,2,2.46327,4174.79,-2493.58,-25253.1
0,28.6562,2,2.97106,0,0,0
1.63116e+07,56.4884,0,2.47975,3751.51,-10861,-25506
1.63328e+07,143.757,0,2.8169,16617.5,24797.3,-24401.7
1.63457e+07,14.1951,1,3.05571,-1557.66,800.79,-26846.6
1.65649e+07,174.523,1,2.99319,-18876,-24698.9,-9461.96
1.65849e+07,34.4764,0,2.68658,5980.65,797.7,-24631.9
1.66037e+07,250.171,2,2.5517,19038.1,15309.8,17967.2
1.67388e+07,50.368,2,2.81397,-8456.5,-4211.43,-23872.1
1.70162e+07,102.512,1,2.78815,4563.23,15668.7,-15309.5
1.71134e+07,110.684,0,2.40532,2915.71,-19442.8,-16097.9
1.71858e+07,49.203,0,2.43098,6694.68,1553.57,-20895.8
1.72061e+07,20.3891,2,2.94058,2998.57,1068.28,-25960.6
1.73794e+07,8.84903,1,2.41193,1614.84,727.097,-28437.6
1.7409e+07,28.6184,1,2.73786,-5921.14,-1377.21,-29021.1
1.76314e+07,251.866,0,2.56447,-16904,-12362.2,-4854.25
1.77315e+07,42.3184,0,2.66204,1927.16,-7040.8,-23690.2
1.80226e+07,39.1904,2,2.80559,-939.267,-2719.41,-21402.4
1.80881e+07,159.779,1,2.52212,18767.2,23973.4,-14150
1.81114e+07,40.0934,0,2.84118,7338.08,-1651.46,-24808
1.82371e+07,19.1476,1,2.5112,514.962,3267.69,-26334.4
1.83338e+07,72.9341,2,2.88799,2340.09,-5640.11,-14695.1
1.8445e+07,10.4601,1,2.97091,-627.945,2253.1,-27762.7
1.85597e+07,94.1412,0,2.86239,10767,1653.8,-12205.7
1.86977e+07,15.2801,2,2.59703,-1429.56,-2771,-27680.8
1.87344e+07,98.8961,0,2.37777,5413.26,-14890.2,-15089.1
1.87652e+07,25.2407,1,2.90654,5013.47,1310.88,-28474.4
1.87914e+07,97.3604,0,2.87815,8303.54,14242.3,-16632.6
1.88134e+07,19.2717,2,2.90317,1862.31,985.105,-25439.4
1.8819e+07,139.911,0,2.55985,-25204.1,-12394.1,-19779.5
1.88309e+07,45.8682,0,2.62889,256.435,5081.37,-20467.9
1.88642e+07,12.4064,1,2.45179,364.561,1745.56,-26725.8
1.88956e+07,22.5674,1,2.38418,2823.69,-1645.6,-25372.7
1.89748e+07,28.29,0,2.47385,1570.91,573.745,-23074
1.90233e+07,282.369,0,2.55765,-26392,-26075.4,-12969.9
1.90703e+07,31.1875,0,2.92188,-679.765,3824.01,-23559
1.91012e+07,52.0098,0,2.81047,-9426.32,3542.05,-26235.1
1.92814e+07,32.8566,1,2.9963,1700.01,3973.02,-23413
1.92921e+07,41.1506,1,2.43209,-8198.46,-2836.23,-27613.8
1.94727e+07,113.455,0,2.57494,-12181.6,13989.3,-13717.2
1.96198e+07,146.39,0,2.58312,25807.6,8917.04,-14471.4
2.00463e+07,51.0805,1,3.01315,-9945.07,-1375.64,-24965.8
2.02699e+07,43.8708,1,2.45944,-7509.03,4862.73,-26078.8
2.04285e+07,36.4626,1,2.55921,-2527.22,1363.03,-21631
2.04294e+07,128.082,0,2.81565,914.359,11680.2,-17385.7
2.05178e+07,13.9913,1,2.75975,-279.623,2991.35,-29190.9
0,13.9536,1,2.68637,0,0,0
2.05338e+07,39.5904,0,2.41074,6245,-2637.17,-23898.4
2.06237e+07,19.0021,1,2.49034,3417.16,894.362,-27219.3
2.06699e+07,5.95349,0,2.80213,256.675,-776.494,-27796.6
2.07906e+07,31.7541,2,3.05314,4545.75,-4098.66,-26464.5
2.08482e+07,53.6454,1,2.58934,-2998.93,-9272.2,-23073.4
2.09496e+07,41.9047,2,2.57796,5326.97,-6467.51,-25783.7
2.10339e+07,215.268,2,2.80104,5658.84,-27436.7,6834.27
2.1036e+07,134.116,2,2.40425,9022.89,12775.2,-5181.47
2.11447e+07,12.447,2,2.557,-1901.22,1260.31,-27482.2
2.12828e+07,56.2096,0,2.71951,-10146.7,-5514.84,-26317.5
0,55.7925,2,2.97359,0,0,0
2.13505e+07,58.5444,2,2.97438,9636.63,1807.96,-21471.8
2.16771e+07,31.1813,2,3.03206,5016.6,-615.562,-24774
2.17054e+07,33.1754,0,2.57558,-3617.61,-1809.44,-23131.9
2.1819e+07,44.5203,2,2.45801,-6150.72,4978.16,-23467.9
2.18888e+07,169.871,2,2.58955,-17532.9,9466.91,907.58
2.19522e+07,170.752,2,2.52784,-6594.97,-12532.4,4015.55
2.19838e+07,2.96179,2,2.4471,514.471,66.4612,-28526.1
2.20079e+07,167.463,1,2.75487,21150,26196.7,-18243.9
2.24143e+07,142.272,1,2.46239,-19473.2,-22786.8,-26458.9
2.24328e+07,4.31291,2,2.83391,122.087,433.343,-28110
2.24552e+07,85.8762,2,2.84498,-9994.01,-9049.2,-16720.5
2.25375e+07,8.81904,2,2.73696,-1453.51,1067.21,-29163.7
2.25545e+07,5.36728,0,2.67812,600.245,-540.69,-28049.2
2.27255e+07,53.0988,1,2.67139,5393.42,4218.37,-20260.1
2.27449e+07,148.804,0,2.74928,16512.6,-3521.7,-2392
2.30493e+07,62.7494,2,2.9156,8564.34,5611.18,-22798.6
2.30698e+07,222.103,1,2.74701,-23759,23215.9,1837.46
2.31416e+07,21.673,1,2.68874,-1913.35,-1818.03,-25109.4
2.31559e+07,130.918,1,2.96639,5816.66,17119.5,-8114.57
2.31596e+07,164.245,0,2.6456,-923.761,-23556.6,-28552.2
2.3395e+07,16.9035,2,2.49501,-1363.23,-1128.68,-25877.3
2.34912e+07,13.3548,1,2.63737,-1682.66,1429.08,-26971.2
2.37045e+07,13.9733,0,2.72483,-1521.08,1776.29,-27095.1
2.38049e+07,35.1733,2,2.8671,-5912.33,-3426.02,-25735.3
2.38461e+07,108.958,2,2.92235,13160.6,-3699.1,-10514.5
2.39384e+07,45.4984,2,2.52255,3164.31,6171.2,-22502
2.39759e+07,30.5388,2,2.70203,-6327.95,171.143,-28220.5
2.40183e+07,51.1956,1,2.94736,4658.52,8461.37,-23975.1
2.41778e+07,0.996033,0,2.50796,57.4977,289.415,-28827.8
0,0.992048,0,2.56235,0,0,0
0,1.00428,0,2.30652,0,0,0
0,1.03316,0,2.47514,0,0,0
0,1.02848,0,3.47907,0,0,0
0,1.0116,0,2.25566,0,0,0
0,1.07157,0,3.64774,0,0,0
0,0.995669,0,3.28238,0,0,0
0,0.997043,0,2.57902,0,0,0
0,1.00057,0,3.63817,0,0,0
0,1.03599,0,3.08025,0,0,0
0,0.999793,0,3.53003,0,0,0
0,1.00707,0,3.7221,0,0,0
0,1.06529,0,2.73671,0,0,0
0,1.0191,0,2.46845,0,0,0
0,1.00514,0,3.21285,0,0,0
0,1.00126,0,2.28402,0,0,0
0,0.936024,0,2.49078,0,0,0
0,1.01852,0,2.80852,0,0,0
2.41824e+07,7.04427,1,2.51282,-595.024,770.495,-27608.7
2.4373e+07,71.8211,2,2.82112,-1852.95,12213.3,-20198.7
2.44028e+07,44.6735,0,3.03362,6233.04,6864.28,-27028
2.44896e+07,7.03559,1,2.77712,-783.983,-111.953,-27486
2.44966e+07,97.5799,2,3.02123,9274.7,8099.5,-12537.3
2.4743e+07,42.7845,0,2.61271,3869.58,800.286,-20666.8
2.48238e+07,56.4207,1,2.42301,2485.88,11789.1,-28405.9
2.4918e+07,120.78,2,2.37887,-15005.6,2207.26,-8213.89
2.50581e+07,0.820577,1,2.70183,88.2378,-47.2768,-28762.6
2.51349e+07,196.212,2,3.01941,-7581.78,22924.5,4435.96
2.52538e+07,40.7102,2,2.78382,7172.35,3992.91,-27187.4
2.52781e+07,84.6678,2,2.96742,-2473.4,-3393.09,-11622.6
2.53345e+07,131.361,2,2.52802,-12425.4,-20149.6,-14253.2
2.53557e+07,19.0084,0,2.58307,-656.241,3860.12,-28511.8
2.53939e+07,136.925,2,2.94394,8671.73,19239.3,-9447.11
2.55747e+07,134.048,2,2.79592,2787.35,-18647.4,-7816.95
2.56487e+07,50.2312,2,2.58947,4694.09,-3447.18,-19923.5
2.5756e+07,24.5747,2,2.38383,-2258.19,-3188.65,-25286.4
2.58365e+07,128.039,0,2.89563,17817.7,-19876.3,-29040.5
2.58692e+07,238.21,0,2.69672,21399.5,-24820.3,9232.53
2.60839e+07,136.517,0,2.78194,-10077.4,-5888.59,-5189.08
2.61907e+07,60.0739,2,2.66492,-1574.19,-9595.38,-26841.8
2.62616e+07,18.3149,1,3.03832,1372.78,2140.67,-25918.8
2.64736e+07,75.0915,1,2.92743,-7751.11,8914.6,-18167.7
2.6519e+07,65.8508,2,2.97427,-4060.73,-6691.8,-17449.4
2.65822e+07,10.5019,1,2.63081,178.717,2191.7,-29455.6
2.66212e+07,35.2359,0,2.85553,4238.61,-587.579,-22897.9
2.66704e+07,9.59935,2,2.80377,-1797.21,212.588,-27798
2.67531e+07,41.6884,1,2.57755,-6055.27,-1125.34,-22578.2
2.6981e+07,74.9805,1,2.8213,-10457.2,2221.76,-17355.4
2.74493e+07,47.8441,1,2.75339,-3372.08,8742.17,-25074.1
2.75211e+07,88.0029,1,2.44718,-6765.99,3230.79,-16161.4
2.75474e+07,26.8955,0,2.90195,1105.37,3105.26,-24213.6
2.75638e+07,49.3647,2,2.85597,-2365.03,-10303.4,-28503.5
2.77488e+07,1.2021,1,2.60889,-253.016,31.5698,-28716.5
0,1.56633,2,3.01546,0,0,0
2.79137e+07,182.944,0,2.38358,-11774.2,-20844.7,1658.59
2.82036e+07,14.5571,1,2.86812,-1589.38,34.0452,-26228.3
2.83019e+07,11.7954,1,2.86344,798.202,1136.53,-29191.7
2.8329e+07,35.8943,1,2.61451,-6820.83,3465.73,-28387.6
2.85209e+07,117.154,2,2.44428,-9025.77,-3257.68,-5898.05
2.85841e+07,10.5615,0,2.80918,1337.62,-33.9558,-27009.7
2.86463e+07,9.53837,0,2.46984,531.695,82.8102,-26802.4
2.87021e+07,53.1243,1,2.93874,-7697.97,-3327.44,-21509.4
2.87049e+07,125.664,2,2.39667,-13863.1,8967.18,-20525.4
2.87838e+07,66.7221,1,2.64512,6842.93,11341.3,-23869.6
2.87877e+07,14.5555,2,2.94181,385.067,-1160.21,-25948
0,14.4644,2,2.51029,0,0,0
2.8889e+07,47.4359,0,2.90986,944.069,628.08,-26479.8
2.89343e+07,102.479,2,2.80331,-17018.8,12624.6,-24518.1
2.89944e+07,60.6283,0,2.90277,509.65,-12383.2,-26040.8
2.91169e+07,97.6535,2,2.4873,-12146.7,-7928.33,-14059.1
2.9137e+07,212.703,1,2.7499,15780.2,-412.848,9412.93
2.92302e+07,113.024,2,2.66862,-2378.52,21914.6,-19661.9
2.92364e+07,52.1465,0,2.67099,2892.12,3291.62,-18833.3
2.95449e+07,82.2257,2,2.46763,1618.43,-17155.1,-25798.6
