#class tools::wcsv::ntuple
#title time
#separator 44
#vector_separator 59
#column double eventID
#column double t(ns)
#column double copynumber
#column double energy(eV)
#column double x(mm)
#column double y(mm)
#column double z(mm)
11239,22.8205,1,3.05563,2857.56,2400.05,-25806.6
118949,125.949,1,2.68294,-12719.2,-17176.5,-13081.5
923322,12.3967,2,2.70752,2007.19,569.711,-27288.2
950576,210.287,0,2.53828,-16360.1,19177.9,7726.87
1.01793e+06,47.8364,1,2.87248,6346.44,1657.06,-21229.3
1.01845e+06,98.5947,2,2.7386,-3530.92,-14789.6,-14584.9
1.6331e+06,98.7348,0,2.38366,-974.389,-8535.89,-15375.4
1.7718e+06,92.8794,2,2.62206,-9957.67,-11592.8,-16428.3
2.10344e+06,20.8317,0,2.5702,-964.31,2913.78,-25661.8
2.14078e+06,143.935,1,3.02072,-13012.9,17197,-7653.03
2.5063e+06,169.832,0,2.8157,-4134.99,-15239.1,-10281.2
2.58849e+06,60.9139,0,2.64508,9978.27,-8129.43,-27603.5
2.68001e+06,7.83516,1,2.37853,-1193.94,1183.62,-28290
2.74403e+06,16.9427,1,2.49713,-3334.77,1482.57,-29196.6
0,17.1054,1,3.04793,0,0,0
3.07149e+06,131.682,1,2.66683,13346.9,23363.5,-21674.5
3.37007e+06,39.4603,0,2.73603,3841.01,4762.63,-23116.9
3.53041e+06,118.767,1,2.53428,-8993.02,16057.5,-11649.8
3.55278e+06,18.0897,1,2.81452,853.971,3753.63,-28442.2
3.76048e+06,19.5105,0,2.64902,-1197.51,-3595.64,-27205.5
3.94375e+06,27.8086,2,2.60192,1558.31,3530.79,-24481.2
4.047e+06,132.493,0,2.4439,25022.5,-8161.32,-18939.5
4.16994e+06,108.583,0,2.97848,6605.28,16137.1,-14139.1
5.193e+06,165.673,0,2.41353,-20945.5,-23280.9,-13168.1
5.22473e+06,41.6274,2,2.73302,-1657.5,-3514.11,-20917.4
0,41.6844,2,2.78676,0,0,0
6.54545e+06,105.571,2,2.92924,-13841.6,6407.95,-12734.4
6.73939e+06,22.9381,2,2.36732,-3921.43,1593.87,-26406.6
6.78157e+06,7.1152,1,3.04172,-1411.89,-17.4684,-28199.8
6.98536e+06,112.925,0,2.76979,22516.9,-1479.44,-21073.4
7.60592e+06,72.9362,1,2.36422,-4397.98,-3419.36,-14454.1
7.94671e+06,77.7544,1,2.95514,-6199.19,13752.7,-24591.4
8.0935e+06,261.003,0,2.84495,21306.8,-25571.4,14773.3
8.48817e+06,7.28358,2,2.38951,-1419.97,-779.655,-28813.5
9.00179e+06,21.304,0,2.83934,4415.31,1278.23,-28788.1
9.20293e+06,246.244,0,2.38062,20826,-11373.2,17584
9.3521e+06,3.00498,1,2.86363,-425.126,75.1087,-28314.4
0,3.00125,1,2.51845,0,0,0
9.3621e+06,27.356,2,3.01413,968.794,-5379.02,-26873.3
9.82622e+06,16.6282,0,2.87256,2958.02,-2038.79,-28840.6
1.02624e+07,2.77064,0,2.79648,651.665,82.4104,-28963
1.03302e+07,9.37102,0,2.80909,1527.87,780.236,-27688.9
1.06036e+07,69.8705,0,2.61193,14538.2,1186.18,-26020.2
1.11556e+07,182.325,0,2.78792,22583.2,-24041.6,-9146.27
1.14232e+07,216.305,1,2.72514,2924.02,1524.46,-24250.3
1.20871e+07,98.7841,2,2.64522,10199.2,-14659.1,-17993.7
1.23112e+07,52.9716,1,2.64022,-8076.6,-3182.37,-21733.5
1.25688e+07,114.31,1,3.00143,-17763.6,13186.5,-19426.1
1.29476e+07,46.262,2,2.73462,-4550.72,4502.56,-21502.2
1.32828e+07,19.2985,1,3.00857,1439.9,3012.81,-26434.4
1.32837e+07,111.135,0,2.8173,14338.1,2222.8,-10457.6
1.32912e+07,127.543,2,2.47302,-20490.6,-17543.4,-26595.3
1.35003e+07,82.1088,1,2.98742,8724.1,-6869.79,-15740.5
1.37738e+07,58.5414,1,2.46599,-7856.12,6455.86,-21629.2
1.41831e+07,12.1901,2,2.61704,-1010.82,-2476.99,-28552.9
1.42376e+07,74.2404,1,2.69813,7570.34,13383.5,-25533.5
1.42871e+07,106.095,2,2.83915,-1014.66,-18239.9,-15902.6
1.44343e+07,160.751,1,3.00897,-24976.8,-4567.76,-6643.8
1.45833e+07,17.4333,0,2.53223,3645.71,817.21,-29512.9
1.46479e+07,77.8406,1,2.90456,-932.33,16377.7,-29695.8
1.47001e+07,128.48,1,3.05462,-16271.3,21544.6,-27996.4
1.48951e+07,12.5422,0,2.57706,1901.5,-1861.96,-28263
1.49735e+07,41.741,0,2.51757,2920.94,-8302.55,-29995.5
1.50758e+07,57.3454,0,2.47979,10763.7,-4288.78,-24976.7
1.51307e+07,407.604,2,2.92206,2417.7,2839.04,-2625.94
1.5171e+07,31.754,0,2.71998,4698.55,4760.62,-29991.4
1.52729e+07,105.111,1,2.77744,2857.3,-13942.8,-16226.8
1.54715e+07,37.3723,1,2.93482,7456.02,-2273.36,-29217.1
1.55495e+07,73.6452,2,2.8375,-15104.4,2964.61,-26862.4
1.55714e+07,14.7969,0,3.0292,3029.3,420.975,-27951.6
1.57779e+07,26.6085,0,2.7883,1150.75,2963.1,-24179.8
1.60641e+07,157.862,1,2.62146,12835.2,-20515.4,-26714.8
1.61258e+07,69.9105,0,2.3903,8568.03,9137.17,-20842.6
1.63088e+07,35.1877,1,2.60501,-4715.79,2491.72,-23610
1.63403e+07,21.8918,1,2.64595,-4443.93,890.45,-27619.9
1.64542e+07,10.6725,1,2.91713,-70.6116,1770.85,-27363.9
1.65303e+07,16.0283,1,2.60284,-1842.92,-1726.67,-26579.7
1.71026e+07,47.4003,0,2.61627,-800.439,-5008.76,-20209.4
1.71809e+07,33.3083,0,2.99075,4175.14,-2738.11,-23872.3
1.73063e+07,121.772,1,2.55644,-3676.03,8950.42,-21370.1
1.74039e+07,46.9337,2,2.48531,5407.57,7400.54,-25154.2
1.7592e+07,71.3229,0,2.57492,1174.17,13605,-22484.5
1.76224e+07,73.9317,1,2.82334,-10281.1,1300.35,-17170.8
1.77636e+07,22.0249,1,3.00442,767.237,3727.11,-26082.2
1.79405e+07,190.122,0,2.7565,22419,27407.4,-10033.8
1.81588e+07,4.89219,2,3.02043,-876.951,154.744,-28251
1.81649e+07,111.879,2,2.66158,475.664,-22769,-22427.9
1.84873e+07,152.103,1,2.5839,-278.437,-24705.7,-8906.1
1.88879e+07,23.0077,1,2.39653,-1674.94,1940.98,-24622.4
1.92447e+07,44.2913,1,2.39405,-4543.37,7055.42,-24464
1.92552e+07,36.3674,2,2.90923,-5922.94,-1562.77,-24157.4
1.93149e+07,201.447,2,2.92327,5613.42,-29445,-4171.54
1.9348e+07,1.14372,1,2.83533,81.7808,314.412,-28794.7
0,1.10558,1,2.82665,0,0,0
0,1.11515,1,2.71078,0,0,0
0,1.1018,1,2.58967,0,0,0
1.95289e+07,60.9711,0,2.54369,12239.5,210.232,-24565.1
1.95512e+07,58.1425,1,3.0282,-7982.05,8348.3,-24652.3
2.00221e+07,147.426,1,2.9839,-22965.8,9224.79,-10282.4
2.02007e+07,36.1088,2,2.52214,-2378.84,-3688.83,-22529.1
2.03663e+07,98.3387,0,2.92622,-1405.01,-3138.95,-20989.6
2.04266e+07,15.9867,1,2.50598,1555.29,-124.548,-25872.2
2.11912e+07,15.3547,2,3.0482,1134.8,158.504,-25818.3
2.12173e+07,71.3147,2,2.8666,-10962.4,9875.24,-26120.2
2.1276e+07,11.7139,0,2.78026,218.367,-2487.28,-28591.9
2.14153e+07,61.1677,1,3.0581,-12202.6,-3338.76,-26514
2.14213e+07,25.1693,1,3.02801,-4127.93,3411.18,-28591.4
2.16122e+07,20.5786,1,2.77751,1382.65,1978.67,-25191.7
2.16369e+07,31.3966,1,2.43929,2867.66,2942.42,-23565.6
0,31.5643,1,2.75928,0,0,0
2.16574e+07,81.7713,1,2.94591,188.746,10849,-15966.5
2.20996e+07,124.848,1,2.46032,-1583.18,-15560.7,-7600.47
2.21555e+07,43.7998,0,2.78813,8297.27,-1440.88,-24840.7
2.22262e+07,101.648,0,2.80682,13408.9,-1466.57,-12158.5
2.22903e+07,7.08703,1,2.75163,-653.783,463.985,-27503.1
2.23991e+07,41.6106,1,3.0439,-3755.96,-5607.36,-23326.3
2.26581e+07,105.034,1,2.95473,-9980.44,-8066.21,-10908.4
2.27481e+07,46.2763,0,2.38768,4753.93,8459.4,-27023.7
2.29791e+07,95.8904,1,2.90739,-11800.4,15994.5,-25161.5
2.30945e+07,37.8856,1,2.5783,-3906.85,-200.955,-21809.8
2.32093e+07,158.069,0,2.56279,22329.1,-22205.9,-17524.5
2.32142e+07,104.62,1,2.65033,-4762.6,20025.1,-20597.6
2.3308e+07,5.19998,1,2.59901,927.075,490.605,-28496.6
2.33756e+07,34.3259,2,2.59021,3904.83,2416.83,-23257.4
2.3514e+07,136.282,0,3.05962,-7089.14,23979.9,-15293.8
2.35485e+07,36.7452,2,2.89838,-2569.01,3876.06,-22679
2.39616e+07,9.45576,2,2.8301,553.724,-603.405,-26992.9
2.41054e+07,7.37145,1,2.72196,826.872,977.759,-27885.7
2.41907e+07,20.0634,0,2.59068,3514.06,-520.771,-26363.7
2.43645e+07,46.5563,1,2.63144,-5604.26,8169.22,-29421.7
2.48458e+07,120.167,2,3.03612,5657.29,-19190.3,-13473.1
2.50724e+07,115.955,0,2.39139,22005.4,-10934.5,-27262.8
2.52247e+07,135.988,0,2.46549,13122.4,21826.3,-15376.1
2.52259e+07,13.8494,1,2.49219,2911.41,-96.5086,-28774.2
2.52537e+07,51.2066,0,2.37209,8570.81,5386.63,-24746.9
2.53765e+07,15.5511,2,2.67726,-2837.61,866.253,-27351.3
2.55589e+07,8.77744,0,2.68811,1188.57,-1231.98,-27974.7
2.58475e+07,40.2751,2,3.0497,-1005.47,-8440.74,-29365.8
2.60841e+07,300.911,1,2.85494,26037.1,3759.93,28479
2.60928e+07,139.633,2,2.89494,-19500.2,4770.72,-7419.3
2.62121e+07,78.9616,1,2.6941,-5625.04,5963.74,-14424.6
2.62849e+07,46.1933,1,3.02223,3460.52,6001.99,-22013.4
2.6307e+07,53.8556,2,2.5046,11132.8,146.742,-26537.3
2.6488e+07,41.2668,2,3.01795,-3596.65,-7974.44,-28562.8
2.65613e+07,17.5057,0,2.8922,-416.839,3398.34,-27437.6
2.65893e+07,158.394,0,2.73034,5313.52,17836.2,-1110.34
2.66723e+07,25.7797,2,2.65146,30.2035,-2414.61,-23924.6
2.67022e+07,19.963,2,2.39153,-1199.62,-3818.84,-27198.6
2.6811e+07,45.0189,2,3.01822,-5087.08,-8029.47,-28082.9
2.68327e+07,35.5962,1,2.51908,-3140.73,-2037.58,-22276.8
2.68842e+07,39.4961,0,2.63709,113.693,-2115.42,-20786
2.69975e+07,97.7824,1,2.75398,18389.3,-4928.82,-21081.3
2.70183e+07,78.5877,0,2.95941,-10190.7,-5996.25,-17386.4
2.77061e+07,103.559,2,2.61215,-2894.99,-16355.6,-14511.1
2.79846e+07,1.38037,1,2.68216,52.4651,263.847,-28602.4
0,1.37152,1,2.62212,0,0,0
2.80702e+07,11.3625,0,2.45338,-789.894,-617.391,-26646.3
2.83015e+07,9.74767,2,2.52811,1687.93,709.19,-27973.7
2.85642e+07,51.5023,0,2.614,2207.79,10380.3,-26248.5
2.85647e+07,50.4317,2,2.89796,-122.284,-3649.67,-18873.7
2.87627e+07,82.2106,2,2.60134,-14531.4,6524.62,-21881.7
2.88144e+07,58.2516,2,2.87655,-833.397,-6088.1,-18182.9
2.88251e+07,19.1615,1,2.86863,-2546.68,2335.02,-26601.4
2.90874e+07,119.805,1,2.75377,-10188.1,-3884.73,-6058.47
2.96238e+07,65.0869,2,2.53738,610.981,-12804.5,-23594.8
2.96356e+07,58.9038,0,2.5344,-9190.58,-7051.28,-24446.1
2.97228e+07,48.7611,0,2.56287,890.516,-9032.32,-23886.1
2.99502e+07,5.43729,0,2.99516,-280.565,467.76,-27824.3
0,5.60303,0,2.87637,0,0,0
3.01334e+07,57.8457,1,2.87773,-11557.4,-1236.47,-25067.9
3.02305e+07,177.534,2,2.80263,24395.7,-13776.9,-4158.85
3.03749e+07,65.2807,2,3.05559,-2639.81,-1364.36,-27640.5
3.04378e+07,8.16618,1,2.44414,-1738.32,515.521,-28999.3
3.07035e+07,183.047,1,2.73001,-24952.5,9545.44,-959.614
3.07368e+07,53.7167,1,2.89699,3015.86,10712.5,-26496.5
3.09291e+07,94.0422,2,2.9542,-5460.74,-1016.98,-9890.3
3.09572e+07,30.0531,2,2.58758,4900.54,-3515.92,-26727.2
3.12787e+07,65.9247,1,2.39056,-4839.74,143.975,-15716
3.13579e+07,64.8286,1,2.90192,9232.7,-2963.29,-19294.9
3.16281e+07,54.4153,1,2.98314,-8477.3,6222.65,-24212.7
3.16553e+07,30.6367,1,2.60761,-1873.28,5976.41,-26832
3.20068e+07,51.7446,1,2.60041,-10554.8,3022.8,-29667.4
3.20236e+07,79.1938,2,2.98288,12101.6,-10503.6,-24350.8
3.20264e+07,29.7076,0,2.65937,2448.73,4277.1,-24875.2
3.20568e+07,110.257,0,2.92301,20938.1,-7341.96,-22096.6
3.20897e+07,6.34389,2,2.92419,15.3513,-1325.01,-28410.9
3.22303e+07,13.7404,1,2.91691,1112.42,-364.889,-26210
3.2449e+07,85.103,2,2.45468,-17034.4,-2895.63,-23571.4
3.26178e+07,36.8229,1,2.85089,-6566.29,3143.21,-25944.9
3.2803e+07,154.133,0,2.37618,-11188.9,-16407.9,-8239.21
3.36084e+07,30.5979,0,2.50507,1803.35,3825.08,-23890.7
3.37238e+07,8.35692,2,2.63439,-1236.88,-1401.05,-29103.4
3.37806e+07,49.2818,0,2.97884,5191.01,-2729.34,-20252.1
3.37872e+07,58.3706,0,2.80341,5251.09,11147.5,-28901.3
3.42417e+07,94.3614,1,2.97112,-3198.45,11259,-12799
3.44922e+07,62.3259,2,2.98314,6152.95,16.9591,-17306
3.49834e+07,9.46367,2,2.94225,978.314,-418.544,-27141
3.51547e+07,50.3461,1,2.53177,6310,2322.33,-20562.3
3.55695e+07,78.501,2,2.45585,4337.16,-9137.25,-15622.9
3.56154e+07,39.5045,0,2.48717,3093.64,7218.6,-25906.1
3.58257e+07,21.1041,2,2.83107,358.829,3394.91,-26063.5
3.58378e+07,59.4425,0,2.75433,6096.01,8333.67,-27985.5
3.60508e+07,57.0447,0,2.699,4087.21,-5324.56,-18827.7
3.61176e+07,206.767,0,2.60033,18018.8,18026.6,6669.03
3.61223e+07,83.0673,2,2.40142,-8869.61,-3110,-13920
3.69065e+07,62.5637,1,2.66639,7332.43,-10443.2,-25749.5
3.70011e+07,96.2991,1,2.66653,14098.7,11986.1,-20388.5
3.71829e+07,88.2398,1,2.69205,-8864.98,-245.172,-12439.5
3.72468e+07,31.1159,2,2.56173,-6002.81,-2240.15,-27042.2
3.74286e+07,83.2333,1,2.47395,-4637.04,1379.32,-11909.7
3.74364e+07,21.4606,0,2.42246,1217.78,-4423.43,-28783.8
3.7471e+07,61.6197,1,2.39225,-1668.75,9115.17,-29065.9
3.7897e+07,9.56884,2,2.56138,-1549.99,1012.46,-27944.6
3.79276e+07,28.4912,0,2.83764,2654.86,-257.073,-23412.2
3.80993e+07,50.5505,0,2.99745,84.1258,-3432.45,-26691.1
3.81915e+07,24.799,2,2.71875,1870.26,992.762,-24063
3.85913e+07,86.006,1,2.44495,-13775.9,-9288.26,-21464.5
3.85916e+07,14.681,2,2.38223,-3053.52,721.611,-29214.1
3.86612e+07,171.429,0,2.70718,24426.3,-23394.2,-15961.3
3.88696e+07,18.4335,1,2.74986,-2635.41,1101.93,-26098.3
0,18.4014,1,2.49172,0,0,0
3.91267e+07,53.6753,2,2.84094,9993.26,-2467.87,-24238.5
3.94527e+07,10.6922,2,2.85636,-452.276,-1691.67,-27313.9
3.96907e+07,135.602,2,2.6221,18681.3,-212.611,-13798
4.01585e+07,67.5249,1,2.42379,-7649.6,5600.45,-18084.2
4.03055e+07,6.75751,2,2.91126,-110.621,-1427.44,-29320.7
4.03512e+07,57.3884,0,2.77827,-4284.87,-10605.9,-24981.5
4.05427e+07,55.0937,1,2.703,743.287,4350.71,-18049.4
4.05654e+07,30.1008,2,2.7037,-3586.85,2522.06,-24215.9
4.06131e+07,12.3749,1,2.52653,-285.474,757.118,-26336.1
4.07392e+07,83.0786,2,2.86421,-10569.6,-3353.41,-26414.6
4.17574e+07,208.817,2,2.91871,19738.7,11534.3,-18710.1
4.21416e+07,148.739,2,2.92854,4572.13,-22795.3,-8715.25
4.28163e+07,12.3567,1,2.52017,-649.226,-1634.27,-26927.3
4.28465e+07,34.1098,1,2.84455,-6827.29,1948.85,-27313.2
4.29611e+07,3.16783,1,2.59513,-54.5783,-531.272,-28547.6
4.30391e+07,16.0795,1,2.75523,-2304.28,2596.12,-28475.3
4.31877e+07,199.939,0,2.81988,25709.2,-28053.8,-10831.7
4.3363e+07,6.33921,1,2.67646,522.639,1253.89,-28442.5
0,6.3102,1,2.82521,0,0,0
4.3553e+07,164.565,2,2.59176,-16817.2,-12004,-814.201
4.38951e+07,32.3971,1,2.5292,1459.98,-6383.14,-27003.3
4.39356e+07,213.663,2,2.728,26315,-3835.38,-2361.56
4.41328e+07,72.1279,1,2.99592,-876.881,-11398,-19010.2
4.42374e+07,27.0723,1,2.62557,4180.35,-2944.94,-26433.9
4.43527e+07,9.23203,0,2.55731,1305.92,1550.97,-28701.1
4.43544e+07,95.6681,1,2.60816,-8929.01,5819.99,-20674.2
4.44994e+07,80.1584,1,2.9177,-10537,11876.3,-23036.7
4.45356e+07,66.8584,2,2.65763,4684.35,-5684.23,-16769.7
4.46813e+07,21.05,0,2.81006,1467.82,2782.52,-25664.3
4.51101e+07,42.5838,1,2.55261,7999.08,4032.52,-27741.4
4.51808e+07,146.37,2,2.74023,24347,-14383.3,-16492
4.53341e+07,19.3069,2,2.88076,883.393,-1064.18,-24983.9
4.58343e+07,105.93,1,2.522,-19258.8,11575.8,-28989.2
4.58641e+07,70.1464,0,2.7114,14030,-940.369,-23936.9
4.63203e+07,11.2643,0,2.60167,235.04,2213.92,-27932.1
4.63845e+07,28.7718,2,2.76305,-4498.61,521.31,-24745.2
4.65174e+07,1.18156,1,2.49875,-83.1791,326.556,-28930.8
4.65859e+07,40.2412,0,2.48857,4727.25,6724.22,-26406.5
4.65915e+07,168.285,1,2.47225,-2016.25,-15477.6,3134.63
4.68391e+07,130.328,0,2.69472,-380.577,-1178.89,-23667.7
4.73597e+07,20.5587,2,2.75313,-1899.99,955.464,-25042.2
4.77246e+07,6.92083,1,2.77869,-1072.52,-681.863,-28099.2
4.7877e+07,172.611,2,3.02048,10728,-8477.55,4651.85
4.78943e+07,29.5478,0,2.8197,255.565,-2509.67,-23134.9
4.80662e+07,19.739,0,2.74527,-1664.75,-1594.07,-25373.7
4.80884e+07,65.4247,2,2.43727,-9722.23,-6721.63,-21481.4
4.81297e+07,53.7443,2,2.37311,3135.24,5712.49,-19562.6
4.84362e+07,50.649,2,2.43399,-5417.69,-8876.13,-25846.1
4.88158e+07,90.8953,0,2.39725,-13146.5,6316.6,-16352.3
4.92581e+07,85.1415,1,2.59601,-15735.6,8284.81,-25588.5
4.93782e+07,29.3603,2,2.38203,-5969.84,-190.92,-26896.4
4.94585e+07,17.9045,2,2.83812,973.527,-1525.73,-25501.4
4.94631e+07,22.8021,2,2.98314,2906.51,-914.203,-25167.4
4.95702e+07,98.4653,1,2.45234,-6795.83,4826.89,-11814.4
4.95775e+07,55.2795,0,2.8709,4458.1,10726.2,-27768.2
4.96026e+07,74.8774,1,2.9064,-12584.1,2106.39,-19536
4.96441e+07,48.0015,2,2.70504,-3357.41,5732.39,-21208.6
4.9811e+07,75.583,1,2.41906,-11368.7,11180.7,-26631.9
5.00505e+07,136.711,1,2.56116,-3040.77,20844.9,-8972.12
5.01241e+07,182.888,2,2.8779,-29655.8,24016.1,-25206.6
5.02075e+07,99.5946,0,2.78416,15705,12948.7,-23634.8
5.02573e+07,7.87864,2,2.63587,-1101.57,-1347.84,-28616.5
5.04901e+07,245.766,2,2.73342,25837.8,-6420.97,15555.7
5.06301e+07,132.547,0,2.67875,-4914.42,-24593.1,-16484
5.08384e+07,10.271,1,2.77636,-1667.45,1250.98,-27989.2
5.09871e+07,170.304,0,2.98039,28990.8,3175.7,-8108.99
5.10537e+07,79.6534,2,3.00348,830.486,-8909.59,-16088.6
5.11353e+07,50.3054,1,2.7817,5640.21,-5765.46,-22034
5.13948e+07,9.82467,1,2.43692,-726.163,-1810.79,-28203.4
5.14037e+07,54.6846,0,2.37211,-882.346,-11282.6,-26380
5.15743e+07,44.272,1,2.37294,-3060.57,956.667,-20000.4
5.16217e+07,105.555,1,2.48769,14762,14369.4,-20136.7
5.18373e+07,174.136,1,2.65505,-20345.5,21922.4,-7374.79
5.18494e+07,44.7117,0,3.01588,6741.14,-3561.67,-23266
5.19626e+07,86.5763,0,2.52583,-1985.45,16157,-20429.1
5.25624e+07,21.9738,2,2.57341,-3547.2,-2988.18,-27871
5.39232e+07,57.1689,2,2.74253,-2246.12,-2300.18,-17213.9
5.404e+07,21.1767,0,2.4152,1382.55,-2601.24,-25426
5.40445e+07,90.2969,2,2.65814,-11453.6,-13885.2,-22327.1
5.41085e+07,15.7883,0,2.82328,-25.106,-3218.57,-27997.3
5.42363e+07,76.2629,0,3.00356,2716.93,-1189.21,-26947.4
5.44548e+07,41.2702,1,2.50949,-2389.53,-1216.22,-27609.2
5.489e+07,23.6063,2,2.47958,815.021,4134.17,-26241.7
5.5087e+07,71.5688,1,2.78823,-8777.06,-10191.9,-22055.2
5.52219e+07,9.35077,0,2.63112,-1284.03,-461.787,-27443.4
5.53957e+07,21.0912,2,2.48535,-4084.29,-1847.6,-29490.4
5.54186e+07,78.2208,1,2.49498,-16303.6,1053.93,-25825.6
5.58102e+07,47.8024,1,2.73469,2308.15,9875.52,-29366.1
5.59656e+07,83.0665,1,2.83632,-8648.03,11348.8,-18618.2
5.60002e+07,29.7437,2,2.76774,2614.07,-1208.8,-23252.7
5.61483e+07,34.2118,1,2.68126,-4674.79,2373.04,-23769.7
5.6335e+07,6.8513,0,2.70031,-956.329,1027.88,-28752.2
5.68771e+07,43.3078,1,2.95378,-8802.38,-2477.47,-28661.6
5.76687e+07,37.5804,2,2.51438,6276.72,-748.052,-24061
5.7829e+07,23.5721,1,2.51655,-1738.6,-1655.72,-24445.2
5.80827e+07,132.393,1,2.55308,-23790.1,12990.9,-21594.6
5.815e+07,22.837,0,2.92781,-1635.84,3940.56,-26645.8
5.82962e+07,126.853,1,2.50841,17099.9,10697.9,-11129.9
5.83775e+07,40.3583,2,2.71282,4554.24,-6846.25,-26509.8
5.83775e+07,1.88135,2,2.70467,-330.782,-366.107,-28890.8
5.85597e+07,99.8189,2,2.86526,-8094.38,3172.07,-9741.66
5.85992e+07,48.9657,2,2.77193,-6480.01,6698.53,-24391.5
5.86024e+07,16.1246,2,2.68477,-1416.99,-2737.36,-27197.4
5.8689e+07,25.2417,2,2.75171,-1264.21,-3270.19,-24751
5.87916e+07,32.7673,2,2.82725,-2420.07,-5244.6,-24922.1
5.88295e+07,168.184,0,3.01923,13488.6,-1578.84,-19529.9
5.93215e+07,57.0713,1,2.37539,-205.977,6520.87,-18617.1
5.96633e+07,121.6,1,3.01076,7833.95,12698.7,-22723.6
5.98124e+07,34.7956,1,2.96692,-3479.93,5403.38,-25176.9
6.00039e+07,103.626,2,2.49573,-3015.94,-10973.8,-25311.9
6.005e+07,13.6339,0,2.75767,405.769,2364.41,-27189.7
6.03785e+07,69.1256,2,2.41195,-1099.9,-12942,-21922.9
6.07695e+07,20.0269,0,2.84686,-3187.74,855.979,-26271.4
6.08954e+07,27.0806,2,2.56608,-1726.01,3647.1,-24818.1
6.0968e+07,12.5088,1,2.51194,-1807.96,1730.34,-27746.4
6.12645e+07,8.11793,1,2.48259,-1034.16,-1086.96,-27974
6.12923e+07,54.1871,0,2.36812,2909.42,9520.38,-23062.7
6.1495e+07,76.0375,0,2.83239,-6891.43,10483.9,-18973.6
6.1914e+07,58.5092,2,2.6075,-9372.22,-8143.05,-27783.9
6.19417e+07,53.8457,2,2.90016,-1799.9,-3563.14,-18541.4
6.20987e+07,72.1567,1,2.38551,-12098.1,-8591.44,-25222.5
6.21174e+07,102.414,0,2.56239,17110.2,-10832.1,-20966.2
6.2374e+07,64.7744,1,2.96723,8455.01,10299.5,-25900.6
6.23741e+07,76.3852,1,3.03585,-11451.5,658.623,-17640.7
6.25563e+07,125.68,2,2.91837,-7756.56,-20125.8,-13918.8
6.28054e+07,142.433,2,2.69089,-21878.5,8887.7,-10251
6.32073e+07,84.9719,2,3.01157,10197.6,-10021.6,-18227.2
6.32917e+07,5.61461,1,2.40533,-26.882,647.571,-27783.6
6.39753e+07,36.383,1,2.43039,116.683,7667.16,-27386.8
6.40718e+07,72.5481,2,2.90125,-7561.21,-11836.4,-22795.5
6.4286e+07,166.593,0,2.7065,13387.6,-21187.7,-4205.66
6.4483e+07,146.782,0,2.59256,9362.97,9301.32,-749.341
6.46297e+07,165.014,0,2.63704,17417.7,-16956.7,-3838.63
6.47834e+07,145.416,1,2.9321,4004.89,27237.2,-15577.5
6.48362e+07,33.5495,0,2.48012,7083.46,1334.22,-28696.4
6.50096e+07,196.217,0,2.83747,19872.7,25383.1,-3261.3
6.51214e+07,72.2252,2,2.81485,-7983.74,-11330.1,-22381.1
6.51722e+07,182.806,1,2.40751,-14121.8,-24558,-2562.1
6.53854e+07,49.4849,2,2.67072,-3322.85,-125.288,-18915.9
6.54119e+07,88.7635,1,2.67458,-14343.8,-11063.2,-24051.6
6.54927e+07,46.1858,0,2.9681,-5767.34,-608.22,-21116.1
6.55035e+07,52.9765,2,2.85787,7831.54,-7429.85,-25892.9
6.56919e+07,155.07,0,2.68531,13803.4,24020.4,-11387.1
6.57873e+07,27.0771,1,2.36617,3233.54,1662.94,-24386.4
6.58792e+07,34.5526,0,2.66187,4554.26,-5375.68,-26661.3
6.589e+07,83.1064,0,2.38972,9390.22,3501,-25947.6
6.60005e+07,46.2283,2,2.98049,-5331.05,-6187.35,-23474.9
6.62754e+07,39.6076,1,2.40813,4483.94,6968.99,-27206.6
6.63974e+07,13.8943,2,2.80558,-563.555,1189.96,-26219.2
6.64111e+07,27.9442,2,2.49949,4410.43,-4006.49,-28932
6.6927e+07,36.1328,1,2.56444,-3104.67,760.375,-21874.7
6.69692e+07,12.0278,0,2.95242,813.197,-558.55,-26467.7
6.74104e+07,32.3298,0,2.87047,3686.76,5744.85,-29440.9
6.74147e+07,99.0744,2,2.46144,10589.7,-18126.5,-29830.5
6.75622e+07,50.1076,2,3.06119,8239.18,4553.16,-24330.6
6.78008e+07,8.43987,0,2.70851,1573.54,-347.178,-27883.9
6.78215e+07,33.182,2,2.94011,-2720.56,2300.65,-22844.7
6.83736e+07,63.3799,1,2.57261,159.758,-5576.51,-16670.2
6.86421e+07,5.06403,1,3.00415,-719.689,-35.4359,-28012.8
6.88171e+07,40.7541,0,2.45557,2908.08,-3991.44,-21712.4
6.88568e+07,58.5038,1,2.88101,217.159,9262.66,-20662.6
6.91148e+07,51.1272,0,2.7481,-7522.85,-6278.84,-24441.1
6.93643e+07,80.4382,1,2.87384,-4513.08,753.025,-29133.6
6.96188e+07,156.817,2,2.87221,22660,530.987,-4929.72
6.97372e+07,60.1409,0,2.72233,-1287.79,12607.9,-29538.2
7.00543e+07,11.3706,0,2.4293,1087.45,-2055.07,-28079
7.06547e+07,1.38591,1,2.65071,-121.325,236.908,-28585.4
0,1.35541,1,2.8689,0,0,0
7.09865e+07,15.0244,2,2.92148,613.557,-2771.84,-27315.9
7.12861e+07,59.1173,1,2.6569,6889.57,2266.99,-18670.1
7.14771e+07,106.664,2,3.00305,-13934,1970.3,-11877.9
7.16106e+07,29.8775,0,2.6915,5323.7,-2384.35,-26214.3
7.18005e+07,33.4973,2,2.42668,-3596.2,3321.63,-23714.9
7.19839e+07,3.09805,0,2.59546,-11.1272,401.545,-28283.7
7.21214e+07,15.9181,2,2.80534,240.24,-1798.7,-25957.1
7.24863e+07,96.6787,0,2.78023,9128.81,-688.065,-10610.2
7.24946e+07,61.3052,2,2.59527,12815.9,-1536.11,-27785.9
7.27939e+07,16.8586,2,2.46619,2299.62,360.731,-26170.8
7.30382e+07,28.6667,2,2.65403,-6097.55,-302.301,-29211.1
7.31184e+07,45.1198,0,2.57442,5230.92,-7733.45,-26565.9
7.34554e+07,205.019,2,2.84778,-18964.7,22869.9,-2881
7.36855e+07,125.386,2,2.77307,-19387.5,-10300.6,-14066.5
7.36992e+07,40.2984,0,2.99036,3275.28,-526.902,-21037.7
7.37563e+07,4.40705,1,2.48617,432.858,558.266,-28157.1
7.37998e+07,110.877,2,2.54504,20160,8732.04,-20803.5
7.38632e+07,64.2696,1,2.99082,-10341,2196.99,-20377.5
7.38764e+07,211.875,0,2.71197,-20143.5,18982.3,6139.56
7.3898e+07,62.9312,2,2.60409,-5645.55,2687.04,-17081.5
7.41365e+07,6.81751,0,2.74295,990.944,1137.21,-29096.6
7.41795e+07,56.0246,1,2.8974,10980.1,-1713.42,-25017
7.42061e+07,92.2044,1,2.43096,-9035.09,8550.18,-13751.2
7.44486e+07,97.4798,2,2.54443,-11066.8,-3242.92,-11698.8
7.45732e+07,47.1924,2,2.61456,-9518.14,1720.34,-26301.6
7.49989e+07,112.357,1,2.76879,-7783.15,13554.2,-10996.6
7.51359e+07,24.3968,0,2.85407,3570.48,2473.24,-25984
7.51971e+07,80.0795,1,2.85694,-2107.7,-7296.53,-13843.8
7.52268e+07,127.728,2,2.61223,7673.77,-20932.9,-15121.1
7.55766e+07,70.7346,2,2.69961,13979.7,-5020.42,-27382.8
7.59366e+07,17.7265,2,2.86552,-3023.69,-2056.75,-27696.3
7.60918e+07,32.959,2,2.59627,-7008.09,-205.382,-28178.3
7.61042e+07,255.156,2,2.72676,4071.34,1520.85,20514.3
7.61521e+07,81.777,1,2.81858,5999.55,-3395.11,-13111.4
7.63965e+07,43.5884,1,2.82047,-6507.68,484.84,-22322.6
7.66824e+07,50.8154,0,2.81141,-962.791,8704.84,-22669.6
7.67737e+07,52.2436,1,2.75363,5788.57,7280.56,-22879.5
7.77496e+07,259.105,2,2.61134,-24528.6,-16004.7,17404.9
7.78071e+07,139.623,0,2.82313,17339,-3746.88,-5365.66
7.78827e+07,22.0904,0,2.38139,4037.18,1732.08,-26958.4
7.79987e+07,36.5425,0,2.593,-2531.05,5361.89,-23895.9
7.806e+07,2.16665,0,2.87711,295.49,454.427,-28873.3
7.81026e+07,23.6772,0,2.6591,2809.61,-2392.45,-25408.9
7.82926e+07,52.272,0,2.69588,4440.98,6428.75,-21004.3
7.86363e+07,81.998,2,2.96552,11508.9,-1599.22,-16176.6
7.86783e+07,37.2161,2,3.05297,-7447.45,-2109.63,-27319.9
7.87353e+07,188.184,0,2.56428,-11604.1,-20245.6,3343.56
7.88272e+07,162.874,2,2.83654,-22331.8,-7906.45,-17779.3
7.92345e+07,6.77029,1,2.93123,362.441,898.139,-27742.2
7.94858e+07,79.6793,0,2.6882,13915.8,2690.67,-19664.4
7.98531e+07,23.0823,1,2.82136,4131.83,1133.72,-26547.6
8.00379e+07,8.84622,0,2.99817,1873.68,-592.384,-28798.3
0,9.31041,2,2.86904,0,0,0
8.00805e+07,123.223,2,2.98043,-1800.49,14525,-7594.47
8.04821e+07,91.872,1,2.38432,2037.34,-12176.5,-15884.1
8.07472e+07,21.8796,0,3.00656,2645.4,-3850.98,-28738.2
8.07882e+07,23.1306,0,2.66254,3901.78,2878.63,-27702.4
8.08782e+07,19.5968,0,2.65709,1548.46,3658.83,-27575.4
8.1008e+07,91.5126,0,2.85366,-9449.66,14296.7,-20176
8.10819e+07,112.462,1,2.73663,-26.6662,18573.3,-14026.5
8.15342e+07,91.4588,2,2.77917,-12861.6,-14442.9,-29663
8.18667e+07,277.277,2,2.45734,17397.1,-12519.1,-13872.5
8.2226e+07,141.391,1,3.02277,20518.9,13616.6,-12399.2
8.23106e+07,161.238,2,2.69555,-11964.3,1385.08,2962.84
8.26578e+07,246.315,0,2.70986,15592.5,-20037.2,16472.4
8.28103e+07,27.218,2,2.68963,3620.55,-3503.12,-25985
8.28776e+07,43.2514,1,2.54263,-1707.61,2802.51,-20251.4
8.30587e+07,29.8136,2,2.75284,-2639.79,-5721.31,-27895.6
8.35185e+07,70.0516,2,2.53376,-5867.92,-13404.4,-26018.3
8.35695e+07,48.3879,0,2.94395,-5695.16,-4916.89,-22055.4
8.38436e+07,12.2914,0,2.43511,564.355,-1935.59,-27118
8.39705e+07,33.8342,1,2.48476,-5611.78,3897.77,-26418.6
8.42233e+07,153.973,2,2.89781,-21669.1,4987.57,-5334.6
8.46272e+07,1.75863,2,2.78222,224.223,-319.559,-28995.9
8.48325e+07,85.049,2,2.37857,6986.08,-3250.47,-12558.4
8.52426e+07,112.051,2,2.74213,12430,10392.6,-11724.3
8.52515e+07,48.2122,0,2.96095,-7475.17,-1595.03,-22296.9
8.53427e+07,29.271,1,2.88447,-2889.05,5517.96,-29161.8
8.53571e+07,180.041,1,2.73502,-9394.69,13898,-27539.9
8.54236e+07,35.5016,2,3.04916,-1626.26,-7362.21,-29314
8.58172e+07,10.3576,2,2.42514,503.98,-1845.64,-27639
8.58796e+07,26.5421,0,2.41323,2775.73,1174.82,-24048.1
8.60322e+07,133.842,2,2.65518,5662.03,-19438.1,-9075.8
8.61076e+07,152.033,2,2.67221,-28119.8,1061.02,-13354.3
8.62407e+07,54.4403,2,2.86956,6443.19,7741.7,-23520.4
8.63743e+07,98.3895,2,2.9422,-19067.9,-1538.55,-25167.6
8.65454e+07,70.2834,1,2.62585,2318.24,4055.76,-14918.3
8.65668e+07,12.3219,1,3.02676,-902.304,-1605.63,-27040.6
8.66585e+07,68.7694,1,2.95485,-5771.47,-12059.2,-23469
8.67451e+07,74.7147,2,2.72247,-8093.52,-749.056,-15305.3
8.70269e+07,40.3548,0,2.89801,-3644.62,651.094,-21245.6
8.70572e+07,9.43265,2,2.58568,1289.33,-1151.48,-27753.8
8.76555e+07,157.408,0,2.70027,-4149.26,23024,-5306.61
8.76966e+07,151.717,2,2.4485,18228.1,-24920.4,-20008.9
8.77188e+07,34.1786,1,2.65773,-5965.3,-4035.23,-28288.7
8.79468e+07,158.427,0,2.48801,12168,8450.79,1230.84
8.8008e+07,45.4966,2,3.02539,8473.29,-1417.01,-24773.3
8.8027e+07,13.4367,1,2.6225,1307.48,-1820.8,-27157
8.81315e+07,61.94,2,2.45557,-6214.53,-96.6543,-17266.5
8.8262e+07,26.8084,1,2.78,-5636.7,703.803,-29313.4
8.85801e+07,324.047,1,3.00318,-3869.88,-25202.2,8805.78
8.91088e+07,20.5638,1,2.8046,-331.368,-1675.11,-24858.9
8.91303e+07,50.561,2,2.40502,-3099.15,-9737.25,-25356.9
8.91904e+07,145.934,1,2.92612,-22929.6,-1143.71,-8508.63
8.92474e+07,96.9381,1,2.64748,480.284,15502.1,-15391.7
8.94396e+07,59.1314,2,2.70093,-11718.1,-2774.93,-25447.3
8.97415e+07,6.02135,2,2.67047,755.499,-569.398,-27930
8.99774e+07,83.3475,2,2.79416,12597.6,-12224,-29572.7
9.00053e+07,32.2672,0,2.67222,4837.24,928.794,-24039.3
9.04235e+07,29.6931,1,2.92244,-413.105,-363.437,-28517.8
9.08574e+07,110.048,0,2.50808,-12092.6,7343.35,-12371.9
9.09465e+07,68.3463,2,2.4169,10180.8,1030.28,-18647.2
9.10835e+07,46.2213,0,2.87375,5478.83,5445.22,-22829.5
9.11241e+07,40.5886,0,2.5053,-1526.92,5107.07,-22088.6
9.14205e+07,112.978,1,2.61455,-19641.7,7682.7,-17604
9.17598e+07,2.86525,1,3.00428,-415.287,381.216,-28445.5
9.19156e+07,23.1319,1,2.66607,137.559,3375.74,-25213.4
9.19805e+07,176.922,2,2.55542,-19238.7,-17890.4,-2133.78
9.19841e+07,317.33,0,2.96592,29509.1,29492.3,23059.3
9.21219e+07,33.717,2,2.79332,4385.29,4988.53,-26486.7
9.21425e+07,4.86424,1,2.42358,-645.496,-765.206,-28564.6
9.28284e+07,21.0079,0,2.81189,-1674.03,-401.738,-25629.3
9.28782e+07,46.6608,1,2.63264,-4517.13,3336.83,-20692
9.31661e+07,81.3869,1,2.84638,4449.66,-15783,-24193.7
9.33986e+07,183.605,0,2.78408,28751.6,-6121.8,-3655.62
9.34933e+07,77.8025,0,2.85615,8134.74,-8243.7,-27232.9
9.36134e+07,76.6655,0,2.80537,6031.78,-14706.7,-25767.8
9.38867e+07,92.6668,2,2.55127,-11550.6,8198.11,-15305.2
9.42401e+07,3.25989,0,2.70691,150.764,381.715,-28250.8
9.42529e+07,127.002,1,3.00507,25353.4,-7974.35,-28292
9.51484e+07,147.458,0,2.66517,22572.3,-18373,-17708.3
9.51644e+07,13.5012,0,2.80337,1623.05,-1565.2,-26984.8
9.52529e+07,84.1872,2,2.94748,-319.218,-6470.51,-12358.9
9.53018e+07,45.3756,2,2.8942,-3760.96,5875.2,-22351.3
9.54735e+07,225.917,2,2.94828,14842.9,257.292,-11592.6
9.55225e+07,79.9918,2,2.50084,1422.85,-16544.9,-25227
9.5583e+07,26.4202,2,2.63214,-2426.56,-1339.09,-23932.7
9.58052e+07,15.665,1,2.78632,-2195.52,-733.202,-26433
0,15.551,2,2.40874,0,0,0
9.63544e+07,196.479,1,2.81237,3046.68,5253.5,-13940.9
9.64913e+07,8.48001,1,3.00595,651.547,611.169,-27255.4
9.66998e+07,97.4488,1,2.98662,15212.2,-3014.23,-15561.7
9.6756e+07,20.0643,1,2.75421,-736.983,2835.96,-25685.4
9.70258e+07,183.163,2,2.8114,-22234.7,-1794.95,2603.52
9.7088e+07,89.5225,0,2.66763,10268.7,773.124,-12958.9
9.7144e+07,71.4844,0,2.45605,12011.6,-1716.79,-19670.6
9.72443e+07,61.8429,2,2.43887,1618.82,-9730.1,-20145.5
9.72857e+07,109.561,2,2.86582,-17416,-2261.41,-23050.4
9.76918e+07,105.587,0,2.5458,13260.1,-9730.87,-13672.8
9.80738e+07,64.4114,0,2.51682,2100.31,-12989.8,-25271.3
9.82591e+07,118.455,1,2.6722,-11102.4,729.112,-6440.22
9.84013e+07,3.15497,1,2.54988,484.743,541.152,-28831.2
9.86007e+07,37.3175,1,2.63878,3407.55,2787.39,-22268.6
9.87866e+07,53.99,2,2.71387,-3366.11,-5722.46,-19510.6
9.90168e+07,2.25822,2,2.67223,-39.8971,384.636,-28602.8
9.91221e+07,39.6977,2,2.54278,3543.59,1367.81,-21383
9.91706e+07,31.9359,0,2.9709,-2359.05,-4235.84,-24215.2
9.92634e+07,73.2633,0,2.47711,15552.7,-1300.83,-28788.1
9.92681e+07,34.311,2,2.42994,4862.53,-3248.2,-24476.1
9.92728e+07,87.3107,0,3.03828,-1314.64,-5928.86,-29471.3
9.93005e+07,37.6644,1,2.8166,-3934.05,6953.02,-28109
9.96808e+07,103.188,2,2.909,-15292.8,-14886.6,-24638.8
1.00499e+08,21.6345,2,2.59737,-2039.34,1115.69,-24885.7
1.00514e+08,41.3713,0,2.83138,6077.58,-6108.86,-27171.2
1.01134e+08,37.3583,2,3.0274,-7643.55,-1766.03,-27959.2
1.0123e+08,49.0532,0,2.79942,8144.96,-4633.63,-24289
1.01269e+08,87.2201,1,2.60581,7569.87,-15210.2,-21892.9
1.01367e+08,59.4968,0,2.67292,11276.5,4441.21,-25244.1
1.01702e+08,215.381,1,2.92454,19757.5,-6297.15,5587.36
1.0173e+08,6.24286,2,2.97814,56.5423,-797.086,-27727.1
1.01953e+08,17.7675,1,2.67672,399.177,2357.87,-25871.9
0,17.7915,1,2.75326,0,0,0
1.0282e+08,106.356,1,2.77136,-19026.1,-11437.6,-27012.6
1.02858e+08,33.8439,0,2.42663,928.841,-1602.11,-21887.7
1.0287e+08,83.1405,1,2.75815,269.723,11659.9,-15690.5
1.03062e+08,38.0391,2,2.84508,3675.54,-5761.41,-24581.7
1.03142e+08,33.8371,1,3.01673,5285.23,4710.78,-28075.1
1.03144e+08,34.0652,2,2.89743,-968.067,5296.11,-24167.5
1.03229e+08,66.0829,0,2.47782,5803.25,6441.17,-17804.5
1.03273e+08,127.087,1,2.41578,-24616.1,1955.28,-18098
1.03435e+08,97.6189,0,2.98844,453.644,-3842.85,-20159.4
1.0347e+08,39.0072,2,2.92271,-966.838,-3850.07,-21613
1.03908e+08,12.1736,0,2.97324,2144.21,-1516.31,-29225.3
1.04167e+08,187.751,1,2.48055,-20485.4,17388.9,-2763.79
1.04469e+08,66.0898,1,2.61292,9716.82,-3041.6,-19325
1.05019e+08,61.167,2,2.47302,7407.06,-7201.2,-21055.1
1.05103e+08,52.782,1,2.65131,9682.49,2913.79,-24190.3
1.05276e+08,136.618,0,2.36876,19803.1,20654.6,-24326.9
1.05307e+08,4.46088,1,2.86813,-481.864,794.95,-28414.4
1.0534e+08,64.8742,2,3.04941,6037.62,-12214.1,-28019.9
1.05421e+08,19.4541,2,2.70392,-1301.21,-2071.48,-25462.4
1.05508e+08,39.5589,1,2.40794,7799.02,3112.81,-28825.2
1.05572e+08,220.268,0,2.5474,13496.4,-29621.2,4488.85
1.0589e+08,34.3767,1,2.74995,-3897.94,2916.48,-23379.2
1.05903e+08,152.404,1,2.81643,-23245.5,-3918.89,-7092.51
1.0594e+08,40.4214,2,2.93561,-4296.56,-3063.89,-22110.5
1.05964e+08,3.2432,2,2.42931,273.826,-322.806,-28241.6
1.0601e+08,38.0014,2,2.91724,-2130.85,5108.44,-23112.3
1.06181e+08,127.915,1,2.51916,-5312.88,24878.7,-19409.8
1.06198e+08,131.159,2,2.73567,-6947.37,23124.1,-15619.1
1.06268e+08,44.104,0,2.75089,6265.34,591.462,-21914.4
1.06308e+08,284.483,2,2.73298,-16175.1,-984.17,-24207.8
1.06326e+08,42.1227,1,3.03889,-7152.27,2253.08,-24051.9
1.06405e+08,75.5189,2,2.55719,-1051.72,-15517.6,-24832.1
1.06579e+08,4.59361,2,2.88772,-1039.8,-37.7949,-28698.1
0,4.58785,2,2.79194,0,0,0
1.06657e+08,56.818,1,2.87428,-5916.64,-9969.89,-26147.7
1.06779e+08,210.643,0,2.46867,12590.9,-1066.31,-18267.7
1.06831e+08,23.7707,2,2.43308,1888.43,-4761.23,-28813.8
1.06899e+08,104.631,2,2.60539,17043.4,-12266.1,-21837.2
1.07003e+08,129.299,1,2.6331,-3082.59,-1423.51,-3515.16
1.07146e+08,95.7382,1,2.80169,-180.106,11876.6,-12505
1.07261e+08,10.036,0,2.42651,1988.68,-827.402,-28303.6
1.07709e+08,51.8651,1,3.0232,-1244,6603.94,-20226.8
1.07784e+08,29.1561,2,3.01523,-6071.74,-737.7,-27969.5
1.07797e+08,25.5592,2,2.91926,-1706.64,-2157.77,-24152.7
1.07978e+08,35.9219,1,2.4101,4721.53,2725.11,-23503.4
1.0821e+08,153.216,0,2.55379,29544,-11305.6,-21579.2
1.08229e+08,110.342,1,2.92107,2730.27,-12188.2,-9352.61
1.08276e+08,0.0816182,2,2.51583,-24.0061,-123.467,-28830.3
0,0.0935543,2,3.03643,0,0,0
0,0.0830205,2,3.00429,0,0,0
0,0.0806361,2,3.18713,0,0,0
0,0.083541,2,3.67501,0,0,0
0,0.110365,2,3.7127,0,0,0
0,0.0909341,2,3.71343,0,0,0
0,0.119998,2,2.16081,0,0,0
0,0.0825981,2,2.07566,0,0,0
0,0.0837629,2,2.13741,0,0,0
0,0.0820715,2,3.66142,0,0,0
0,0.0815199,2,3.01267,0,0,0
0,0.0787431,2,3.91788,0,0,0
0,0.115108,2,2.27982,0,0,0
0,0.0807587,2,2.91836,0,0,0
0,0.0852795,2,4.01298,0,0,0
0,0.081829,2,3.0562,0,0,0
1.08692e+08,15.8229,0,2.74782,-335.621,-3347.81,-28750.9
1.08787e+08,38.8235,0,2.86851,7931.44,-544.719,-26553.4
1.09025e+08,77.9477,0,2.76677,10801.3,-8807.89,-24469.7
1.09159e+08,84.0085,2,2.54197,-106.564,-2704.17,-27030.6
1.09263e+08,15.1283,2,2.64925,-1083.71,2460.92,-27139.1
1.0951e+08,58.5105,2,2.56484,-2028.62,-11378.7,-24171.1
1.10105e+08,83.8732,0,2.49745,13780.7,-1964.59,-17738.8
1.10115e+08,23.188,1,2.4164,-4162.44,1503.56,-26568.2
1.1018e+08,99.2541,1,2.77098,-4481.53,-13605.3,-24025.1
1.10186e+08,43.2222,0,2.90091,1275.66,-3648.82,-20612.5
1.1021e+08,63.8213,2,3.03924,-12038.4,3517.2,-24068.6
1.10658e+08,203.138,1,2.74453,18025.6,23835.3,-7823.73
1.1094e+08,3.09358,0,3.0192,671.903,215.622,-29090.4
0,3.09168,0,2.86867,0,0,0
1.10972e+08,53.7056,0,2.3777,11059.1,2216.63,-26820.2
1.10985e+08,255.976,0,2.49397,19732.5,-10101.1,20549.4
1.11318e+08,103.506,1,3.00372,-17162.1,-4956.45,-16490.3
1.11493e+08,41.0572,2,3.02549,3041.27,-7551.36,-25932.7
1.1217e+08,98.6682,1,2.38596,2590.01,688.495,-29214
1.12339e+08,34.9722,2,2.52069,-1035.49,-7177.72,-26932
0,35.2849,2,3.01811,0,0,0
1.1235e+08,41.9882,0,2.68622,4555.63,3672.43,-22117.2
1.12355e+08,19.0987,1,2.75736,2013.23,1418.52,-25612
1.12422e+08,119.094,2,2.85373,-4830.36,-8511.57,-5755.15
1.12718e+08,152.524,2,2.56475,5763.24,18379.8,-3031.36
1.12786e+08,4.75203,1,2.99353,350.439,687.319,-28121
1.12911e+08,25.947,1,2.69256,4938.79,302.638,-26518.3
1.12926e+08,42.9473,2,2.79939,7925.32,2668.05,-25496.3
1.13061e+08,35.0673,1,2.87901,-141.031,7453.22,-29084.2
1.13235e+08,135.537,2,2.95216,-4497.11,8973.03,-6368.7
1.1367e+08,28.1472,0,2.67625,2037.24,5478.51,-27591.7
1.14223e+08,16.3287,0,2.71249,2142.45,-561.34,-26131.4
1.14298e+08,223.673,1,2.81916,186.607,4897.47,-26996.3
1.14507e+08,142.107,0,2.44212,-14399.1,13011.2,-5909.22
1.14604e+08,14.8091,1,2.68735,2443.24,1938.55,-29357.4
1.15221e+08,87.4524,0,2.46015,7360.19,-6699.4,-13206.8
1.15298e+08,98.3734,2,2.38811,-19045.5,-6391.46,-23057.8
1.15316e+08,26.8941,0,2.51737,-2900.33,-4687.67,-27507.9
1.15674e+08,74.1943,1,2.93415,-4815.68,14727.2,-26543.4
1.15777e+08,45.885,2,2.53181,5880.74,2116.55,-21436.8
1.15912e+08,73.819,0,2.58257,3446.32,2955.67,-13893.6
1.16143e+08,38.049,2,2.82768,-1813.95,-7777.5,-27495.1
1.1634e+08,134.871,0,2.92399,28040.1,4482.83,-28786.5
1.16474e+08,108.451,1,2.77286,-17302.5,12076.4,-19892.9
1.16711e+08,43.8683,2,2.9072,6858.05,-4063.08,-24178.1
1.16797e+08,36.4655,0,2.6429,2123.82,3985.61,-22583.9
1.16856e+08,12.1734,1,2.56297,-1793.34,1720.54,-27844
1.16895e+08,48.4217,2,3.03668,-6200.55,-8089.88,-27731.1
1.17043e+08,21.0796,0,2.82248,3077.93,2792.56,-27056.4
1.17231e+08,34.0272,1,2.42572,-697.801,1800.64,-21872.6
1.17447e+08,27.7095,0,2.6748,3327.79,512.452,-23982.3
1.1754e+08,67.209,1,2.89494,-13394.5,-705.81,-24277.3
1.17575e+08,105.479,1,2.4212,2039.08,12110.2,-10141
1.17662e+08,166.842,2,2.48401,20587.8,-8580.9,-18058.1
1.17795e+08,93.8404,1,2.79383,-16595.6,10809.9,-27633
1.17923e+08,33.3957,1,2.37074,-2165.74,-2862.3,-22734.2
1.18101e+08,18.0264,0,2.87234,2983.75,-276.158,-26406.5
1.18107e+08,68.869,0,2.64212,754.453,5596.15,-15416.5
1.18359e+08,70.9904,1,2.4672,-4507.54,2214.32,-14642.1
1.18654e+08,40.7168,1,2.6231,-1308.1,8348.49,-26757.4
1.18691e+08,127.959,0,2.50916,21426,-6830.02,-13677
1.18732e+08,86.6178,2,2.98552,-459.027,10605.5,-14137.8
1.18743e+08,117.763,0,2.56291,10238.8,20449.4,-18884.4
1.18798e+08,7.50816,1,2.91832,-565.918,-18.6722,-27336.8
1.18905e+08,106.515,2,2.52079,-19190.6,-4499.16,-17851.6
1.19112e+08,87.1531,1,2.67276,-6262.95,15075.7,-20194.5
1.1933e+08,44.8878,0,2.37279,8685.1,1668.7,-25096.2
1.19474e+08,170.847,1,2.81184,3012.11,9551.58,-7720.08
1.19479e+08,26.1844,1,2.62453,-5213.06,-1831.73,-29523
1.19674e+08,77.3707,1,3.04616,7406.02,-12732.3,-22252.8
1.19963e+08,81.9608,0,2.89072,7557.34,13900.3,-21909.8
1.2061e+08,157.414,0,2.96874,27868.9,-811.206,-11011.5
1.20697e+08,8.06138,0,2.63938,1377.32,-1006.63,-28303.8
1.20894e+08,152.888,1,2.65833,-18569,-20386.9,-12170.4
1.21019e+08,3.08316,0,3.02918,756.623,-124.033,-28869.5
1.21035e+08,51.4281,0,2.36307,2757.69,9924.52,-25208.7
1.21543e+08,8.51381,0,2.85817,-202.881,1423.37,-27762
1.21735e+08,173.648,2,2.39369,13585.9,21891.3,-10892.8
1.21851e+08,43.8296,0,2.54183,8601.59,3695.22,-28730.5
1.21943e+08,41.6275,2,2.85823,2223.45,-1791.01,-20538.6
1.22247e+08,17.041,0,2.4036,3353.24,-1078.67,-27743.8
1.22341e+08,58.8977,0,2.94193,8591.04,3975.31,-20808.5
1.22456e+08,89.4747,2,2.76832,-10812.4,-2955.09,-22318.6
1.22552e+08,70.9685,1,2.69025,-5400.64,8197.57,-17456.7
1.22594e+08,115.604,2,3.00029,2460.69,-4845.46,-5195.32
1.23507e+08,10.8696,2,2.72123,-1682.56,-643.571,-27332.5
1.24054e+08,39.3434,2,2.86593,-6865.75,-3393.4,-25521.4
1.24424e+08,67.4883,1,2.93964,-3841.12,-9034.99,-18631.7
1.24458e+08,125.071,0,2.88849,-5049.74,-15484,-8216.19
1.24528e+08,9.27091,2,2.74099,1402.26,1187.3,-28342.6
1.24657e+08,31.5641,1,2.40368,-5450.65,2053.99,-25412.3
1.25052e+08,69.7582,0,2.64729,4573.7,13616.8,-25436.9
1.25062e+08,63.6426,2,2.53013,-156.891,11613.6,-22113.8
1.25066e+08,7.39117,1,3.02665,801.03,1181.55,-29542.7
0,7.31789,1,2.82108,0,0,0
1.25485e+08,176.235,2,2.77936,-22511.2,3247.87,501.506
1.25523e+08,97.3093,0,2.90154,2439.58,-6026.37,-9442.36
1.25608e+08,4.29626,0,2.58178,942.338,192.559,-29186.5
1.25995e+08,41.5953,2,2.78579,-4571.74,-7590.12,-28737.1
1.26375e+08,6.37132,1,2.91502,1289.18,235.621,-29093.5
1.26497e+08,245.619,0,2.85143,8579.91,29960.8,8419.49
1.26646e+08,58.9921,1,2.66664,2997.64,7182.19,-19073.9
1.2694e+08,6.57471,0,2.5393,-472.209,81.7738,-27526.5
1.27162e+08,141.82,1,2.8332,-6643.02,23722.6,-12203
1.27398e+08,98.5049,0,2.81085,-12751,381.745,-25968.1
1.27463e+08,79.2915,1,2.88283,-11568.2,-11609.7,-25837
1.2772e+08,58.006,0,2.83204,9176.85,7827.24,-26475.8
1.28133e+08,53.4536,0,2.9923,5050.03,8551.06,-23528.1
1.28271e+08,57.9765,2,2.62922,-986.133,4951.75,-17722.4
1.28282e+08,62.7689,1,2.91738,-7189.91,7044.4,-20249.1
1.28563e+08,356.99,1,2.58936,-3141.39,-4458.62,-13799.6
1.28755e+08,55.0197,2,2.65353,582.032,8965.43,-21526.1
1.28871e+08,84.7404,1,2.63062,-16274.9,7257.21,-26771.3
1.28884e+08,15.1515,1,3.04334,-2375.5,578.507,-26712.7
1.29226e+08,131.753,0,2.88846,7578.7,-22961.8,-15321.4
1.29286e+08,26.9292,1,2.57575,2621.05,1603.77,-24043.7
1.2936e+08,108.399,0,2.99022,13703.9,-7493.94,-12280.5
1.29478e+08,5.32192,1,2.87147,12.3567,-422.647,-27807.4
1.3019e+08,41.7218,1,3.01197,-858.91,2007.29,-20888.9
1.30236e+08,25.125,1,2.7231,1254.25,1059.01,-23817.4
1.30262e+08,25.9057,1,3.00213,3027.05,2208.35,-24857.1
1.30539e+08,22.6612,2,2.96608,-4048.14,459.279,-26326.6
1.30956e+08,32.3327,1,2.44688,-260.331,-3575.29,-23022.2
1.31144e+08,1.92583,2,2.49733,-276.229,126.659,-28558
1.31308e+08,110.925,2,2.82908,-22207.8,-5847.04,-24279.2
1.31446e+08,21.5893,2,2.81646,3106.32,418.477,-26664.6
1.31584e+08,5.18154,1,2.87549,41.1549,377.369,-27799.3
1.31833e+08,45.94,2,3.00955,5084.77,-1087.53,-20717.6
1.31878e+08,7.96924,2,2.36953,-1066.74,1107.91,-28181.4
1.32088e+08,15.8555,1,2.7486,-1468.77,3038.07,-28124.1
1.32251e+08,122.342,0,2.70402,-11037.9,-19624.1,-16349.8
1.3283e+08,134.142,1,2.74283,-10420.9,-23113.3,-16443.7
1.33244e+08,28.792,1,3.00848,2506.53,3187.72,-24300.4
1.33249e+08,35.7513,0,2.8402,4370.65,942.638,-22734.2
1.33402e+08,15.732,0,2.37891,549.383,-3268.73,-28334
1.33614e+08,33.889,2,2.99525,-4712.36,388.787,-23473.6
1.33847e+08,11.6207,1,2.42317,2431.13,221.73,-28821.2
1.34038e+08,42.2306,1,2.7423,5637.97,4862.57,-23883.4
1.34483e+08,65.9554,2,2.87402,-13092.7,620.548,-24220.3
1.34557e+08,40.8766,0,2.87223,-2233.83,7901.23,-26305.6
1.34627e+08,106.432,2,2.74546,-5941.93,-13316.1,-13322.2
1.34657e+08,38.2624,2,2.89934,2829.52,5636.19,-23954
1.34934e+08,160.388,0,2.67819,-14630.9,-29163.9,-20012.7
1.3498e+08,21.8143,1,2.80807,-3228.84,-2856.9,-27236.2
1.35084e+08,27.9181,0,2.39605,2778.51,3046.23,-24515.6
1.35277e+08,166.177,1,2.36643,607.231,29472.2,-9542.43
1.35331e+08,31.6851,2,2.65527,-3533.11,3948.73,-24792
1.35737e+08,49.477,0,2.77266,-2265.55,-7309.55,-21785
1.36192e+08,21.9967,1,2.72943,1338.14,2400.54,-25067.3
1.366e+08,57.3703,2,2.85714,-10872.9,-5352.17,-29726.6
1.36754e+08,27.5654,0,2.78673,4524.12,1829.05,-25562.6
1.36801e+08,106.729,1,2.50659,-671.041,-14361.9,-11509.7
1.36851e+08,24.2307,0,2.54278,2765.27,2455.59,-25190.6
1.36994e+08,44.9409,2,2.72382,3800.63,-4972.76,-21671.1
1.37389e+08,36.6095,2,2.45105,-4774.6,5079.9,-25425.9
1.37537e+08,114.238,2,2.88343,-2369.68,-676.308,-8447.12
1.37638e+08,65.7528,0,2.53599,-2620.14,-12986.5,-24628.7
1.37747e+08,79.6752,2,2.74529,2630.17,-6529.95,-13569
1.38139e+08,23.7227,1,2.43827,-3991.41,-2382.12,-26871.1
1.38223e+08,139.476,2,2.84576,20444.2,-12403.1,-11864.5
1.38229e+08,32.5141,2,2.87183,-5482.11,-2302.14,-25358.4
1.38253e+08,148.846,2,2.79075,-6043.56,-23266,-12076.5
1.3839e+08,7.64238,1,2.89898,183.771,1229.2,-27713.6
1.38444e+08,74.891,0,3.02308,13478.9,-4298.78,-21850.3
1.38577e+08,48.9644,0,2.7272,8972.54,-903.096,-23700.2
1.3886e+08,97.9737,0,3.05847,-6360.45,6554.66,-10936.5
1.39289e+08,44.199,0,2.80332,4319.42,-1383.42,-20655.4
1.39493e+08,36.5481,0,2.8777,-2937.25,-1911.31,-22044.7
1.39668e+08,64.5379,0,2.91115,10079.3,-8919.01,-26663.5
1.39915e+08,46.6512,1,2.90149,-7738.04,-2235.79,-23240.8
1.39978e+08,31.7884,1,2.58563,3582.2,5729.96,-28436.3
1.40086e+08,6.50904,1,2.82246,-943.162,233.623,-27786.2
1.40218e+08,135.981,0,2.5134,-25631.6,-12343.3,-25529.5
1.40476e+08,90.5462,1,2.62033,12546.2,-1893.3,-14571.1
1.40697e+08,191.515,1,2.5005,-22228.5,-24883.7,-5953.01
1.41102e+08,0.396036,1,3.52721,-142.109,99.3802,-28913.7
0,0.389098,1,2.38831,0,0,0
1.41217e+08,141.346,1,2.82856,-26604.4,-12692.8,-24775.7
1.41546e+08,27.1234,2,2.8088,-816.124,-5728.34,-29501.1
1.41764e+08,273.413,1,2.97093,2313.99,9586.9,27636.9
1.42143e+08,1.30814,1,2.3896,-178.234,311.82,-28752.8
1.42218e+08,25.7501,0,2.87918,-1414.34,3061.52,-24595.2
1.42498e+08,20.7926,0,2.78817,1187.2,-2656.29,-25505.6
1.42687e+08,45.1376,0,2.69723,4081.88,-4921.15,-29145.4
1.42735e+08,22.1766,1,2.80373,-1713.97,3755.87,-26479
1.42804e+08,2.90745,1,2.73423,-575.447,-275.975,-28912.5
1.43012e+08,8.26023,0,2.8659,1817.97,-314.308,-28885.4
1.4307e+08,39.6549,0,2.49256,7856.75,2094,-26518.6
1.43071e+08,74.3452,1,3.05156,-9244.64,9798.5,-20975.7
1.43455e+08,121.542,2,2.81145,-10528.8,-1845.12,-5593.77
1.4372e+08,42.5883,0,2.39755,-3659.45,-8173.38,-29780.6
0,42.333,2,2.8631,0,0,0
1.4408e+08,82.283,0,2.47194,8628.61,-9192.37,-16749.9
1.4416e+08,51.278,0,2.79651,-4911.52,-628.832,-19264.1
1.44228e+08,66.0546,2,2.88429,-8191.8,5294.37,-18931.9
1.44354e+08,66.0699,1,2.75935,9823.63,-1036.33,-19055.4
1.44374e+08,50.3045,2,3.04772,7155.97,397.239,-21143.5
1.44622e+08,157.784,0,2.65798,1009.21,24457.7,-6273.58
1.44644e+08,45.7893,2,2.47684,5130.18,-3619.67,-21420.2
1.44883e+08,115.738,2,2.50265,-11246.5,21694.5,-28862.4
1.44901e+08,174.875,1,2.8517,20593.5,-828.8,1497.33
1.45282e+08,58.2442,0,2.57225,7341.59,-6947.55,-21688.1
1.45348e+08,31.5353,0,2.78909,-4786.95,-3108.32,-25563.7
1.45382e+08,37.9425,2,2.68793,1173.94,-7987.23,-28963.1
1.45418e+08,121.462,2,2.60249,8347.92,10581.4,-7042.86
1.45641e+08,28.4873,1,2.69663,-4842.19,-3162.3,-27247.2
1.45988e+08,5.04672,0,2.72379,525.064,968.422,-29131.2
0,5.05079,0,2.68159,0,0,0
1.46045e+08,82.1826,2,2.67961,8539.91,-2507.06,-13982
1.46135e+08,21.1489,1,2.85791,-459.232,3886.45,-26544.7
1.46158e+08,5.79972,2,2.55299,140.766,754.973,-27935.6
1.46205e+08,5.41218,2,2.47188,-712.979,-983.336,-28662.8
1.46348e+08,42.9363,2,3.00705,-3901.11,-8072.04,-27304.8
1.46536e+08,123.578,0,2.68585,-5453.73,-18793.5,-12183.1
1.46618e+08,1.14463,0,2.41108,172.26,134.827,-28636.8
1.46836e+08,4.36499,2,2.51797,373.497,240.106,-28057.2
1.47026e+08,161.439,1,2.81443,8497.15,21673.6,-4046.68
1.47237e+08,7.83059,0,2.69924,871.508,-1480.07,-29077
1.47291e+08,99.6677,1,2.88404,-19159.2,-8518.96,-28375.3
1.47393e+08,72.6436,1,2.70296,-8889.06,10458.2,-21828.3
1.47415e+08,142.167,1,2.98099,-23004.3,-3872.45,-16375.9
1.47518e+08,38.3099,1,3.00003,1805.32,1591.02,-21142.9
1.47535e+08,69.0374,0,2.86821,12352.8,6577.58,-24679.3
1.47595e+08,60.6983,0,2.75366,3531.32,661.136,-16535.6
1.47641e+08,135.591,2,2.90065,-17743.4,2437.05,-6675.71
1.47658e+08,32.1244,2,2.69599,-5793.92,-3506.78,-27649.4
1.47781e+08,2.58569,2,2.62731,-263.677,-166.45,-28335
0,2.56552,2,3.04539,0,0,0
1.47781e+08,93.8789,2,2.63222,2058.9,-19632.6,-26345.5
1.47825e+08,201.794,1,2.8788,-10330.4,3979.42,-10771.1
1.47848e+08,42.2065,1,2.79311,3775.48,-7284.47,-25566.8
1.48008e+08,110.481,0,2.74551,14075.1,5501.17,-11074.8
1.48404e+08,15.6585,0,2.76132,2753.13,-1619.89,-27683.4
1.4852e+08,24.2769,2,3.00959,-790.625,-4044.24,-25718.9
1.48629e+08,141.56,1,2.80746,391.262,2365.49,-26018
1.48835e+08,21.2429,2,2.47194,2470.4,-3105.88,-26617.1
1.48974e+08,100.139,2,2.61408,-4640.04,-6187.71,-9109.06
1.49025e+08,75.3068,1,2.58786,5420.62,7865.44,-16075.9
1.49242e+08,138.593,0,2.71524,-15881.6,20524.6,-15520
1.49251e+08,123.172,2,2.44978,12024.3,-12573.7,-9396.44
1.50315e+08,75.4179,1,2.61777,-1017.34,3678.52,-13373
1.50469e+08,102.317,1,3.05171,-8654.5,-2449.57,-9380.54
1.50585e+08,143.532,2,2.72999,232.684,-16852.4,-3677.84
1.50921e+08,191.713,0,2.55513,-10830.3,28095.3,-1875.83
1.51134e+08,33.673,1,2.87358,-2471.68,1463.02,-22334.9
1.51167e+08,21.9507,0,2.55301,1352.02,-3220.17,-25728
1.51309e+08,89.8633,0,3.05027,5192.46,2431.5,-10891.6
1.51441e+08,24.2418,1,2.80855,3555.41,2506.49,-26104.1
1.51465e+08,145.455,1,2.75622,-20911.8,-19584.9,-17998.9
1.51652e+08,210.61,0,2.88074,-18692.8,25143.7,2347.32
1.51685e+08,62.6449,1,2.93392,-7752.86,9140.08,-23226.2
1.51812e+08,20.4614,0,2.62251,-3518.48,-1766.03,-27230.4
1.52062e+08,2.24511,1,2.4393,-249.315,515.007,-28860.8
1.52203e+08,112.899,1,2.40015,-1551.33,20034,-15791.7
1.52271e+08,74.2014,0,2.57797,1656.99,-12323.5,-19268.5
1.52523e+08,87.2967,1,2.65554,-6730.17,126.009,-11709.8
1.52691e+08,34.9663,1,2.55672,-5887.53,4598.78,-28682
1.5298e+08,424.782,2,2.87533,-20826.4,-15595.9,23908.6
1.53065e+08,66.5145,0,2.64059,7624.52,-11774.7,-27682.8
1.53132e+08,1.58653,2,2.49286,-211.366,131.228,-28606.9
0,1.63254,2,2.89789,0,0,0
0,1.72762,0,2.88597,0,0,0
1.53297e+08,156.668,1,2.38982,-6609.65,13160.8,909.866
1.53479e+08,21.6937,0,3.0287,-1464.69,2679.57,-25487.6
1.53673e+08,170.186,1,2.82343,-19607.5,-3474.27,938.173
1.53753e+08,65.7576,0,2.58849,8878.91,6339.88,-20797
1.54023e+08,7.18717,0,3.03925,-213.256,-1520.32,-28814.5
1.54155e+08,28.7707,1,2.91609,-1905.97,1818.32,-24381
1.54302e+08,4.2397,0,2.62212,190.838,897.617,-28665.3
1.54361e+08,5.25038,0,2.89702,451.367,-303.434,-27832.7
1.54602e+08,59.7786,0,2.90109,-9609.24,-8002.76,-28682.7
1.54847e+08,67.596,0,2.57963,12625.5,6743.12,-27713.3
1.55103e+08,18.7812,2,2.67559,-3261.97,926.06,-26755
1.55359e+08,38.0472,2,2.90634,4954.58,-407.397,-22574.4
1.55379e+08,22.454,1,2.7197,-4346.44,-1601.19,-27731.1
1.55439e+08,175.056,0,2.89943,902.472,-29189.6,-6521.09
1.557e+08,4.56107,0,2.46588,-246.349,767.107,-28363.1
1.55835e+08,31.8551,0,2.45167,4364.63,-2025.44,-24011.8
1.56021e+08,65.1874,1,2.43617,-10430.2,1609.9,-19926.5
1.56096e+08,136.747,2,2.81816,-9612.28,-17667.1,-8200.71
1.56257e+08,35.3147,2,2.86481,-6455.63,-477.551,-25082.3
1.56402e+08,228.701,2,2.66055,3966.41,-24801.5,-28895.7
1.56498e+08,20.3992,1,2.80384,-1361.11,3085.1,-26049.4
1.5651e+08,277.069,1,2.79655,-22210.8,6998.35,24584.2
1.56695e+08,64.9337,1,2.5751,-13479.6,2844.3,-29586.2
1.56959e+08,45.5166,1,2.55276,7124.06,-4737.39,-24503
1.57307e+08,113.782,0,2.51254,-19457.8,-11513.5,-20805
1.57831e+08,132.135,0,2.45326,23250.5,12586.8,-19604.8
1.57894e+08,29.5051,2,3.02537,-713.852,-5532.7,-25993.5
1.58483e+08,3.52409,0,2.51831,380.589,-702.271,-28963.7
1.58486e+08,8.94939,0,2.50351,-889.704,107.144,-27176.3
1.58811e+08,11.6075,2,2.37652,-119.706,-2567.06,-28937.2
1.59115e+08,186.08,1,2.89217,-21884.5,-8511.49,2424.45
1.59123e+08,58.6145,1,2.60874,8529.46,-6088.93,-22338.8
1.59156e+08,138.301,2,2.65071,-28090.4,3312.32,-24462.7
1.59323e+08,32.107,0,2.70562,5344.09,746.164,-24610.5
1.59615e+08,135.675,2,2.94837,-17837,12195.6,-10328.2
1.60144e+08,196.44,0,2.54657,21511.7,-4382.62,6451.42
1.60171e+08,15.6737,0,2.99918,1430.46,1.87557,-25811.8
1.60378e+08,52.3024,1,2.87524,8074.73,-2308.5,-24541
1.60484e+08,141.528,2,2.90113,1618.06,-24794.4,-12398.7
1.60552e+08,67.4008,2,2.48649,-7464.83,-12142.7,-27162.4
1.61014e+08,183.551,1,2.79228,845.462,13785.6,-12288.3
1.61154e+08,73.9035,0,3.04309,3965.54,-3979.98,-14386.9
1.61174e+08,28.3147,1,2.44172,-55.9726,-2524.48,-23441.8
1.61341e+08,50.2187,0,2.94598,260.602,7806.24,-21731.8
1.61401e+08,46.7266,0,3.02587,8476.27,-4959.3,-27687.4
1.61491e+08,9.5318,0,2.63683,322.501,-974.186,-27087.1
0,9.48299,0,2.72978,0,0,0
1.61566e+08,124.926,2,2.82305,-16636.2,14149.7,-14217.1
1.61628e+08,161.388,1,2.63697,-26070.7,19121.6,-17940.8
1.61633e+08,152.209,0,2.4392,24341.7,-7739.05,-9121.43
1.61829e+08,107.423,1,2.4936,-6951.69,2968.48,-7389.92
1.62181e+08,28.9925,0,2.6557,177.477,-5770.85,-26757.1
1.62232e+08,168.541,2,2.76131,25726.1,24142.2,-25791.7
1.62347e+08,17.5688,2,2.93738,2795.38,-2236.66,-29828
1.62376e+08,98.8147,2,2.37725,-4820.06,-10945.4,-21587.7
1.62393e+08,118.413,1,2.55509,16783.7,-10600.3,-13675.9
1.62551e+08,21.6475,0,3.01354,4465.98,857.085,-29856.6
1.62795e+08,25.7652,1,2.85617,-2877.92,849.511,-24299.5
1.63047e+08,16.8484,2,2.40778,-2791.67,-420.927,-26566.5
1.63372e+08,49.3087,1,2.65134,-9807.53,864.841,-25309.7
1.63464e+08,7.70132,1,2.81374,171.703,1687.93,-28675.8
1.63559e+08,145.972,0,2.9687,-16609.2,-3563.04,-3405.25
1.63564e+08,60.3909,1,2.36568,-7885.84,5283.14,-20180
1.63984e+08,34.9116,1,2.70359,-2883.62,3103.75,-22750.7
1.64423e+08,139.826,2,2.75302,-11423,-27059.9,-25703.9
1.65145e+08,9.57502,1,2.41565,1382.37,1437.73,-29417.8
1.65493e+08,123.034,1,2.79353,5658.26,22757.9,-17690.4
1.65539e+08,50.1532,1,2.63312,-1821.11,2516.18,-18699.4
1.65802e+08,127.761,0,2.81713,20641,-17158.7,-26408.3
1.65895e+08,35.0961,2,3.04397,4895.99,4568.24,-25896
1.66341e+08,156.155,0,2.91869,-556.526,-981.348,-27493
1.66464e+08,214.676,1,2.90815,16877.6,-1656.63,12872.7
1.66544e+08,75.3341,0,2.56884,3339.74,-7975.03,-15426.9
1.66826e+08,44.355,2,2.4182,2018.4,-9133.25,-27288.1
1.66858e+08,151.726,1,2.96125,20322.4,-2500.34,-4482.01
1.67011e+08,31.4293,2,2.60281,-6379.9,-2013.33,-29522.7
1.67068e+08,15.6097,1,2.57409,-813.079,542.977,-25637.6
1.67131e+08,67.3169,1,2.5187,-7631.84,8362.06,-20082.6
1.67163e+08,28.8877,2,2.48003,2391.22,455.399,-23236.9
1.67979e+08,34.981,0,2.4268,4829.94,-1555.7,-23367.5
1.68157e+08,53.7679,2,3.04686,1414.18,-10439.3,-24818.9
1.68257e+08,81.1696,0,2.59388,7303.41,-14299.1,-22659.6
1.68677e+08,42.9217,1,2.55793,3268.45,6133.14,-22948.5
1.68757e+08,211.95,0,2.84696,28541.2,24259,-5073.92
1.6931e+08,78.4211,1,2.99935,-7467.33,14766.6,-28396
1.69394e+08,3.85106,1,2.56144,568.332,-475.827,-28702.2
1.69671e+08,32.9839,1,2.60085,-2204.88,163.663,-22193.3
1.69717e+08,71.7436,1,2.96617,9530.34,-9735.69,-25320.8
1.70099e+08,11.0181,0,2.93249,2033.53,-761.836,-27819.6
1.70182e+08,24.2846,0,2.7862,3600.38,-2027.37,-25720.7
1.7032e+08,8.81616,2,2.98802,-1547.23,949.227,-28376
1.70517e+08,52.841,0,2.66206,1830.86,1091.43,-17886.2
1.70729e+08,31.0984,1,2.89684,4197.15,-3753.21,-25602.5
1.71267e+08,71.0932,1,2.82075,14017.3,1713.8,-24457.4
1.71572e+08,82.216,2,2.50274,-7619,-13397.1,-20588.7
1.71903e+08,133.618,2,2.62821,10590.5,5633.17,-20275.7
1.72105e+08,181.414,2,2.7821,-2475.03,-19371,4015.98
1.72152e+08,9.99071,0,2.38831,1858.89,-621.567,-27803.3
1.72193e+08,27.4459,1,2.76691,-2441.73,-5142.22,-29720.9
1.72646e+08,13.9778,2,2.74249,-267.364,-1814.45,-26448.1
1.72676e+08,37.9309,1,2.49846,381.337,8111.41,-29012.1
1.72679e+08,93.212,0,2.91265,10649.1,1287.95,-12415.4
1.72689e+08,163.491,2,2.44432,-15649,5501.15,-14614
1.72705e+08,59.9091,0,2.91287,8688.44,-4990.72,-21135.6
1.72708e+08,15.4003,1,2.72048,222.089,2582.89,-26770.6
1.72937e+08,31.1764,2,2.77376,2880.07,2811.94,-23713.3
1.72968e+08,11.8274,0,2.44865,1659.41,-735.403,-27028.6
1.73333e+08,16.6908,2,2.37693,-2399.67,-1139.69,-26415.6
1.73378e+08,45.1535,0,2.60447,-5297.45,4177.47,-22119.2
1.73724e+08,32.8129,2,2.72766,1212.77,-6137.63,-25736.1
0,32.6476,2,2.54006,0,0,0
1.73833e+08,3.22743,1,2.92524,-573.885,485.129,-29082.2
1.73999e+08,11.9626,0,2.42926,1079.68,62.5055,-26491.8
1.74351e+08,49.6602,1,2.37219,-966.209,7147.41,-21097.3
1.74604e+08,88.964,2,2.74846,6823.35,-16951.5,-24437.6
1.74795e+08,92.4922,2,2.73986,-5728.01,-17972,-23580.8
1.7509e+08,48.1358,2,2.60181,-4695.33,5991.62,-22082.6
1.75262e+08,213.001,0,3.03831,11241.3,-12374.3,12549.1
1.75546e+08,20.465,0,2.56646,40.1032,-2062.87,-25039.1
1.75638e+08,34.8928,2,2.47377,4545.89,-3110.54,-23904.2
1.75801e+08,6.04716,2,2.76852,-365.201,-1193.86,-28303
0,6.0174,2,2.46078,0,0,0
1.76019e+08,23.0665,1,2.55797,-1995.37,4550.17,-28313.2
1.76269e+08,9.74745,2,2.41431,622.907,-444.83,-26910.4
1.76275e+08,7.44287,2,2.90292,-1349.43,114.844,-27944.1
1.76309e+08,107.425,2,2.51727,-11646.2,11537.2,-13103.5
1.76943e+08,29.3745,1,2.92475,2908.59,4691.98,-25956.9
1.77131e+08,71.3654,1,3.0173,5007.72,4427.33,-15439.4
1.77784e+08,140.016,0,2.90147,-20238.8,-17204.3,-16340.5
1.7786e+08,108.794,2,2.39906,-17087.1,-10982.2,-17822.4
1.7805e+08,21.052,1,2.50557,3993.36,-1006.86,-27185
1.78283e+08,65.1796,1,2.51474,-4234.5,3100.34,-29716.8
1.78304e+08,26.1744,1,2.74171,2317.64,-3026.5,-24933.3
1.78316e+08,14.414,1,2.85162,-742.613,790.992,-25957
1.78657e+08,48.5077,1,2.65715,-6220.24,8171.72,-27772.3
1.78728e+08,26.5619,1,2.68887,2826.98,-1429.19,-26815.9
1.79133e+08,43.0408,2,2.65042,-7250.2,-3283.98,-24282
1.79651e+08,72.5145,2,2.66645,95.2254,-3176.32,-13855.2
1.80069e+08,49.7067,2,2.7244,-239.435,-2676.22,-18693
1.80093e+08,149.958,2,2.54037,10880.5,-20382,-7066.36
1.80093e+08,130.354,2,2.72181,-22367.2,-4154.41,-13389.2
1.802e+08,2.64905,1,2.79877,-578.751,305.27,-28717.4
1.8056e+08,120.293,0,2.78808,12405.6,10191.8,-9211.52
1.80566e+08,72.6827,1,2.57599,-4325.17,6174.75,-15402.8
1.807e+08,80.0461,2,2.52953,1806.94,-12688.6,-29888.1
1.80731e+08,104.904,0,2.5588,22244.5,1139.53,-29320.7
1.81224e+08,6.88183,1,2.37963,-1262.05,-689.767,-28536
1.81229e+08,103.413,2,2.50329,4873.43,-21065.3,-25201
1.81493e+08,135.26,0,3.01286,16595.1,18735.9,-15401.8
1.81595e+08,4.13255,2,2.65092,37.3786,-617.852,-28126.9
0,4.15573,2,2.52893,0,0,0
1.81894e+08,92.144,0,2.56472,14543.5,254.579,-15768
1.81979e+08,101.905,2,3.0279,-7585.54,-10365.7,-25691.1
1.82229e+08,5.05392,0,3.05502,501.968,-124.249,-27842.5
0,5.06413,0,3.02888,0,0,0
1.82634e+08,55.5132,2,3.03461,7063.39,6978.76,-22882.1
1.82758e+08,95.3139,1,2.40562,4149.32,13624.8,-14528
1.82852e+08,28.1664,2,2.94579,3786.55,2406.05,-25022
1.82856e+08,14.9863,0,2.5601,-2179,889.178,-26770.8
1.83033e+08,76.2604,1,2.78981,-6291.4,10468.2,-18349.2
1.83181e+08,201.505,2,2.80409,-4804.79,-361.162,-13553.6
1.83219e+08,190.958,2,2.46327,-23681.2,15266.6,0.838027
1.83237e+08,9.21338,1,2.6117,-1995.1,-142.64,-28657.2
1.83429e+08,57.6402,0,2.39607,-3398.25,11137.3,-25306.5
1.83491e+08,43.5839,2,3.05344,-6919.64,904.37,-22881.9
1.83755e+08,48.909,0,2.64301,7220.24,953.713,-21431.2
1.83898e+08,169.615,0,2.80163,24298.1,-18428.5,-10184.3
1.84183e+08,20.7034,2,2.89364,-844.279,2145.6,-25166.4
1.842e+08,36.4162,0,2.94529,6775.78,1431.98,-26800.3
1.84296e+08,21.3932,2,2.74473,3129.67,-3059.08,-27627.2
1.84371e+08,139.891,2,2.49363,-18065.2,-22069.6,-20723.9
1.84437e+08,107.728,1,3.01817,8086.33,11403.1,-11078.3
1.84715e+08,28.5197,1,2.93545,2890.52,3744.11,-25140.9
1.84857e+08,97.3769,2,2.76782,-16473.5,11586.3,-25057.8
1.84902e+08,171.332,2,2.6317,7122.14,-18679.4,425.597
1.84904e+08,278.359,1,2.52904,1780.39,-28502.4,22579.4
1.84914e+08,49.8826,2,2.95694,-7153.65,3265.62,-21916.2
1.85145e+08,114.037,1,3.02715,11945.4,18392.9,-19246.5
1.85262e+08,2.1619,2,3.04695,-347.269,-77.7747,-28464.7
1.8565e+08,33.9394,0,3.01496,2404.18,6391.2,-26695.1
1.85702e+08,64.6962,2,2.91873,3240.25,-2116.96,-16615.6
1.85772e+08,16.7869,1,2.78755,2655.49,-1170.01,-26909
1.86415e+08,20.346,0,2.81467,2729.25,3399.19,-28643.3
1.86415e+08,211.515,2,2.52384,-16335.9,29174.7,806.543
1.86645e+08,105.753,0,2.70399,5251.5,-19960.8,-20362.1
1.8681e+08,162.401,0,3.02357,-2974.91,26192.8,-13129.5
1.86819e+08,68.938,2,2.78255,-5205.34,9716.48,-19409.9
1.87045e+08,39.4931,1,2.80849,-3661.04,-4832.94,-23175
1.87293e+08,25.3197,2,2.98159,-812.883,-5088.39,-27216.3
1.87314e+08,170.402,1,2.48767,-11207.9,6938.08,-17689.4
1.87451e+08,124.825,1,2.36243,-22034.6,-14582.4,-28425.6
1.87495e+08,22.7462,0,3.05285,4515.44,-1600.54,-29780.7
1.877e+08,37.091,2,2.51672,-3380.43,-3632.56,-22676.6
1.88076e+08,99.7999,0,3.05731,4334.78,1690.5,-18655.9
1.88369e+08,13.6325,0,3.03391,2173.52,-160.982,-26863.2
1.88378e+08,53.3577,2,2.57559,-7674.9,82.6491,-20523.4
1.8855e+08,16.825,2,3.00112,-85.3703,-1277.67,-25511.2
1.88795e+08,29.4239,1,2.53855,-966.032,-2893.31,-23410.2
1.8889e+08,45.2619,1,2.39773,-6974.85,2956.27,-22859
1.88962e+08,50.3508,1,2.89723,-7887.67,-2328.58,-22119.1
1.89191e+08,74.1763,2,2.41161,-6379.41,14063,-26221
1.89195e+08,2.02991,2,2.895,-175.724,-499.381,-28788.4
1.89639e+08,34.5605,0,2.745,777.995,-3799.24,-22657
1.89959e+08,60.517,0,2.72958,7715.35,-6028.6,-20588.4
1.90034e+08,52.3597,0,2.73653,8554.91,-6532.59,-26037.8
1.90045e+08,160.612,0,2.54377,20593,-22170.7,-13290.6
1.90093e+08,13.3445,1,2.4521,-2137.45,346.726,-26919.3
1.90219e+08,202.409,2,2.83806,-20461.9,-2551.42,8406.66
1.9046e+08,193.006,1,2.62454,-18471.4,20012.1,1536
1.90746e+08,26.2925,1,2.51522,-1237.6,-1886.35,-23763.5
1.90926e+08,35.497,1,3.00314,-1633.18,7217.36,-27379.8
1.91732e+08,46.7331,2,2.62002,-1892.19,8085.72,-23591.4
1.91952e+08,137.903,2,2.53276,-12904.5,-15670.5,-9634.95
1.9197e+08,70.383,1,2.78601,11213.4,5573.42,-24882
1.9213e+08,31.315,1,2.98862,788.494,1114.23,-22865.1
1.92167e+08,39.4483,1,2.57521,-5997.36,-1170.33,-23107.5
1.92484e+08,39.6937,1,2.99632,-1759.7,3400.98,-27679.6
1.9251e+08,3.48806,1,2.38365,76.3254,780.313,-28570.1
1.93051e+08,68.2328,0,3.04374,1022.24,5413.52,-15678.2
1.93147e+08,25.029,1,2.86315,2245.73,-97.5652,-24068.3
1.93443e+08,27.5908,0,2.6098,3072.24,5012.04,-29452.4
1.94093e+08,0.967896,2,3.01249,48.7605,-246.515,-28968.9
0,0.926409,2,2.63125,0,0,0
1.94337e+08,2.78905,1,2.59307,-59.6442,629.175,-28557.6
1.94917e+08,60.5512,2,2.95051,-8302.37,8555.54,-24482.1
1.95187e+08,3.0766,0,2.67593,635.073,410.308,-28824.6
1.95286e+08,6.0367,0,2.60475,673.517,537.809,-27808.1
1.95337e+08,71.0815,2,2.97404,-2923.58,-12258.4,-20715.2
1.95359e+08,115.64,1,2.52,20306.1,-9932.06,-19707.6
1.95632e+08,6.71909,1,2.49549,-1437.64,220.692,-28431.5
1.96143e+08,125.404,0,2.49237,9358.09,7389.38,-5103.38
1.96354e+08,108.06,0,2.99574,14225.4,17704.2,-27876.6
1.96372e+08,122.052,1,3.01639,-2902.57,5936.21,-4110.74
1.96541e+08,140.731,2,2.81836,-20876.6,14650.3,-13815.8
1.96586e+08,164.647,2,2.46002,23685.6,-6353.13,-4107.88
1.96863e+08,161.988,1,2.70163,-15929.4,-17064.3,-9194.46
1.97057e+08,31.0197,2,2.38741,1504.3,-6441.53,-29435.1
1.97088e+08,78.5091,0,2.57707,-13324.7,5779.95,-20898.1
1.97291e+08,89.0565,1,2.68951,7111.5,-816.68,-11483.5
1.97306e+08,25.1782,0,2.70265,-2863.21,-109.02,-27666.6
1.97326e+08,32.2774,1,2.73862,-6824.77,896.309,-28700.5
1.97382e+08,20.0677,0,2.87452,12.2614,4091.67,-29973.6
1.97396e+08,43.9813,1,3.00528,-444.61,-5159.21,-21228.3
1.97766e+08,16.6656,2,2.98884,-20.6113,2674.7,-26661.6
1.97998e+08,18.1177,2,2.50015,-3602.29,-1406.93,-28210.5
1.9819e+08,114.056,2,2.66515,11833,-20991.1,-27942.3
1.98281e+08,133.87,2,2.5561,-10359.6,1196.27,-2504.78
1.98768e+08,221.54,1,2.88799,-4961.52,13176.1,15501
1.98851e+08,212.756,1,2.78715,14125.2,24727.4,5717.05
1.98877e+08,4.05481,1,2.42475,490.29,753.437,-28598.8
1.9895e+08,10.0026,0,2.47606,-1559.92,-715.941,-27709.5
1.99029e+08,97.3373,0,2.39864,11641.6,14773.2,-20273.3
1.99887e+08,88.3812,2,2.72582,-11009.4,-5586.14,-14855.6
2.00159e+08,24.3083,1,2.64262,-2199.15,2014.9,-24575.9
2.00237e+08,145.159,0,2.39833,25109.3,17858.1,-28623
2.00392e+08,30.9266,1,2.4099,-1351.48,1237.92,-22508.5
2.00561e+08,6.69419,2,2.59215,239.92,1299.13,-28449.1
0,6.68903,2,2.44737,0,0,0
2.00977e+08,102.273,1,2.60766,20321.2,-1341.41,-21715.8
2.01157e+08,54.6579,1,2.63738,-2727.03,10622.6,-24994.6
2.01245e+08,153.552,2,2.71648,-20223.3,20185.7,-13700.7
2.01318e+08,176.295,0,2.76108,-5944.03,12758.2,5511.25
2.01495e+08,84.6803,2,2.56371,-6814.83,3859.84,-12738.3
2.01594e+08,104.802,2,2.66177,-5360.67,-20187.9,-21328
2.02037e+08,159.263,0,2.6905,9675.82,979.542,3335.65
2.0215e+08,139.808,0,2.99807,-553.576,23041.9,-10746.6
2.02515e+08,51.2354,1,2.81105,2008.63,10416.2,-26497.7
2.02545e+08,18.6653,1,2.96792,-1671.75,1413.96,-25512.2
2.02567e+08,73.3758,1,2.67541,-5769.93,13028.4,-22935
2.03246e+08,77.83,0,2.83027,4295.29,-6578.09,-14431.8
2.03566e+08,35.8954,1,2.4395,-170.832,-5176.31,-23313.5
2.03578e+08,85.1571,0,2.91066,-1528.88,-6950.87,-12456
2.03736e+08,19.5621,1,3.01541,-2595.98,-284.227,-25641.9
2.03822e+08,17.7578,2,3.0104,2427.65,2303.06,-27306.1
0,17.0523,0,2.53608,0,0,0
2.03893e+08,95.2631,0,2.99082,17860.8,-8624.93,-25800.9
2.03978e+08,66.9878,1,2.92422,-6292.52,-9477.18,-20585.6
2.04111e+08,148.982,2,2.60421,-14207.7,-3254.39,-930.434
2.04318e+08,61.1999,0,2.98073,8305.44,-5665.63,-24746.5
2.04477e+08,34.6418,2,2.4138,-2589.91,-3268.75,-22752.1
2.04621e+08,24.7563,2,2.94734,-3022.89,3866.25,-27143.6
2.04678e+08,107.387,2,2.89372,-14464.9,-16601,-23580.3
2.05052e+08,1.80127,0,2.80267,308.275,24.5473,-28511.3
2.05258e+08,208.297,2,2.4564,25351.7,-7888.15,-7932.02
2.05565e+08,57.4392,2,2.6298,-4956.71,-3771.71,-18385.8
2.06483e+08,185.962,0,2.75682,-29712.1,-14352.4,-7855.26
2.06647e+08,16.8407,0,2.66071,-1953.41,414.03,-25953.2
2.06681e+08,26.9993,0,2.54512,1663.87,1895.1,-23662.2
2.06824e+08,59.1171,2,2.82899,-2921.74,1579.38,-16836.8
2.07012e+08,124.176,1,2.50037,11834.7,15552.1,-11314.9
2.07355e+08,36.8986,1,2.74324,-5569.35,5533.81,-28241.3
2.07548e+08,35.5772,0,2.39934,7541.77,-716.953,-28239.6
2.07714e+08,38.2902,0,2.48925,4743.77,2350.33,-22623.9
2.08138e+08,85.7344,1,2.77537,2164.31,11340.9,-21763.3
2.08207e+08,132.453,0,2.51592,18232,16790.7,-27765.5
2.08295e+08,41.2132,2,2.83913,4347.01,-323.454,-21353
2.08392e+08,85.5631,1,2.72413,16153.2,7023.92,-24995.6
2.08408e+08,67.3867,2,2.63078,6045.99,-9882.91,-20502.4
2.0903e+08,77.0924,0,2.91156,16069.6,-1107.94,-26437.8
2.0904e+08,12.585,0,2.94056,1591.27,1113.65,-26944.1
2.09405e+08,73.1989,0,2.61547,12294.8,3698.62,-20127
2.0948e+08,49.6596,0,2.96182,2501.02,5481.83,-20298.5
2.09488e+08,189.401,1,2.57904,4572.2,6886.66,-4416.48
2.0983e+08,63.7485,0,2.91927,4532.54,10411.6,-21676.3
2.10072e+08,72.6103,0,2.41809,13115.5,7805.43,-26402.7
2.10306e+08,70.019,2,2.52304,10889.1,-5038.56,-20120.9
2.10668e+08,131.907,1,3.0236,-2722.14,15712.6,-6218.47
2.10698e+08,4.94154,0,2.91329,-892.667,171.318,-28500.2
2.10939e+08,131.817,1,2.75474,3532.9,23085.4,-13743
2.11095e+08,68.4359,0,2.70538,10044.5,9309.56,-24083.7
2.11145e+08,89.718,0,2.68099,13278.8,-13590.9,-28324.6
2.11146e+08,10.1404,2,3.04711,-1444.4,-1647.93,-28466.7
2.11359e+08,9.78242,1,2.38155,-1759.39,121.191,-27628.1
2.11414e+08,196.53,1,2.88745,-11517.9,27975.8,-8836.27
2.11586e+08,46.9861,1,2.9258,-8701.25,2074.36,-24498.9
2.11628e+08,2.3569,2,2.7577,7.29838,-88.4614,-28320.8
2.11738e+08,80.4705,0,2.79327,8955.45,-3601.81,-14871.9
2.11787e+08,73.8975,1,2.52806,5890.94,-6702.74,-16050.1
2.12254e+08,4.54896,1,2.68093,-941.906,-323.363,-28814.7
2.12307e+08,9.66497,2,2.40892,-490.848,-1994.59,-28204
2.12432e+08,56.3843,1,2.91936,8869.21,5673.18,-23392
2.12481e+08,132.38,0,2.47594,-441.092,-15272.3,-5362.54
2.12564e+08,89.8094,2,3.01054,6996.95,-15666.4,-21206.8
2.12769e+08,22.8945,1,2.95615,1564.33,3755.71,-26158.2
0,22.8394,1,2.71797,0,0,0
2.12994e+08,78.1214,1,2.55746,13667.4,2859.12,-28804.5
2.13103e+08,4.97491,0,2.59719,-385.556,-884.356,-28452.8
2.13175e+08,21.2093,2,2.70645,-49.2904,-3856.39,-26416.6
2.13287e+08,26.5407,2,2.51753,391.255,2803.82,-24027.5
2.13572e+08,210.497,1,2.63427,22968.3,-26319.9,-1506.49
2.13636e+08,17.5932,1,2.63133,2140.06,2858.22,-27589.8
2.13647e+08,4.35746,1,2.47995,357.773,910.836,-29109.3
2.141e+08,105.726,1,2.46842,-5284.05,9199.42,-9104.42
2.14727e+08,50.0565,1,2.89176,-6718.59,-6502.63,-24049.1
2.14783e+08,8.48003,0,2.56588,-1170.08,351.357,-27568.7
2.15014e+08,194.928,2,2.86349,12271.3,19833.9,4805.5
2.15157e+08,16.7077,1,2.73039,2806.1,986.531,-26958.7
2.15294e+08,13.0492,1,2.67895,-2490.4,842.373,-27749.9
2.15535e+08,22.5799,2,2.74108,2139.37,-4270.39,-28048.2
2.15688e+08,20.2495,0,2.79246,379.792,4142.97,-27841.5
2.1581e+08,10.8779,1,2.54638,-1905.96,-39.9929,-27463.5
2.15917e+08,9.06268,1,2.70468,-153.398,-1633.7,-27919
2.15971e+08,33.0835,2,2.82272,-5208.13,-3028.58,-25234.7
2.16039e+08,41.3351,0,2.55705,6439.06,5195.91,-25845.6
2.16394e+08,85.0945,0,2.63008,12009,-9672.57,-19531.6
2.16402e+08,32.3486,0,2.9684,1695.38,4460.22,-23975.2
2.1672e+08,128.105,0,2.89553,23542.5,-11726.7,-22790.6
2.1703e+08,159.492,0,2.53009,28932.4,-10388.7,-14876
2.17044e+08,22.6408,0,2.81647,818.767,3377.83,-25543.1
2.17056e+08,1.9836,2,3.03986,-200.33,32.5121,-28442.5
0,1.93748,2,2.71036,0,0,0
2.17067e+08,26.4941,1,3.00116,3199.92,-3608.97,-26206.6
2.17266e+08,70.9173,1,3.04472,-9002.03,7333.12,-23956.9
2.17427e+08,86.5692,2,2.53618,-14338.4,-9535.02,-22486.7
2.17603e+08,3.4941,1,2.72452,-333.341,-232.007,-28205.8
2.17727e+08,32.4188,2,3.06141,2543.49,-2677.99,-23142.4
2.17848e+08,163.476,0,2.46809,7583.95,336.522,-25608.2
2.18008e+08,50.1306,1,2.84029,-4848.5,870.948,-19471
2.18049e+08,112.11,0,2.41633,-3285.52,14239.9,-10146.8
2.1806e+08,19.933,0,2.61534,2638.09,10.3313,-25472.2
0,20.0642,0,2.88335,0,0,0
2.18495e+08,46.5532,0,2.82911,7648.02,-2229.92,-23049.1
2.18714e+08,4.916,1,2.88067,-582.927,984.661,-28676.7
2.19251e+08,163.728,0,2.55455,19858.5,-10999.4,-2652.08
2.1946e+08,9.22523,1,2.43534,245.999,1616.58,-27626.8
2.19497e+08,45.0642,1,2.46549,-7911.03,2465.19,-23972.8
2.1951e+08,92.1996,0,2.89256,1547.92,9484.27,-11997.2
2.20304e+08,56.1477,0,2.88931,-11303,-328.536,-25699.9
2.20398e+08,172.815,0,2.59108,-4433.95,-12139.1,5269.78
2.20517e+08,19.2365,2,2.51216,1536.2,1434.6,-25374.2
2.20625e+08,115.345,1,2.80087,-4353.2,-7764.16,-22738.8
2.2063e+08,48.481,2,3.04696,-2087.81,-764.925,-18909.6
2.21419e+08,34.938,1,2.38011,-1299.2,6270.52,-24988.9
2.21508e+08,43.8706,0,3.02682,2718.55,7533.86,-24212.3
2.21742e+08,27.1505,0,2.81694,4467.53,2490.53,-26142.2
2.2178e+08,65.9944,0,2.54824,11514.2,-1680.95,-20997.4
2.22242e+08,6.49969,0,2.49628,496.945,1200.06,-28259.2
2.22325e+08,99.3845,0,2.58961,-12568.4,-13899.8,-19465.1
2.22345e+08,47.4904,0,2.89889,9246.85,-2332.17,-25666.6
2.22544e+08,10.6405,2,2.63163,326.105,-2079.45,-27870.5
2.22544e+08,62.8634,0,2.55601,9489.62,-9334.88,-27524
2.22746e+08,62.5646,0,2.76024,5652.38,-7549.46,-23047
2.2287e+08,122.15,2,2.99908,20069.4,-13960.8,-21150.1
2.23614e+08,24.0817,0,2.95149,1787.14,-3248.78,-25327.6
2.23757e+08,39.3984,1,2.76106,1525.01,-4223.17,-21902.5
2.23907e+08,33.9673,0,2.41599,-1014.66,4731.52,-23540.5
2.2395e+08,15.2577,2,2.60827,-2834.88,-1402.3,-27851.8
2.24188e+08,23.0263,2,3.05808,3368.15,-2618.89,-26505.3
2.24275e+08,120.068,0,2.69996,13339.2,2016.38,-7353.21
2.24462e+08,195.522,2,2.78212,-1705.55,29482.5,-274.103
2.24466e+08,41.5683,2,2.91426,-6329.61,-3445.45,-23771.1
2.24508e+08,25.3717,0,2.50501,3306.23,1429.33,-24768.2
2.24702e+08,7.24067,2,2.64595,796.833,-263.355,-27533.2
2.24781e+08,31.2104,2,2.67551,-2858.69,-6056.7,-28887.4
2.24812e+08,63.688,0,2.82101,-6094.09,6825.02,-19088.9
2.25134e+08,28.0877,1,2.62499,5898.44,-245.635,-28365.6
2.25425e+08,44.8301,2,2.99706,-4305.74,1756.47,-20632.1
2.2544e+08,17.1242,0,2.94154,3384.2,868.493,-27684.3
2.25533e+08,143.786,0,2.79841,-15677.2,-10909.3,-5425.13
2.25987e+08,18.2702,0,2.4297,3181.6,-1867.27,-27416.7
2.26047e+08,3.56558,1,2.62495,-387.278,-641.19,-28819.7
2.2653e+08,162.782,0,2.54106,-75.7308,-24134.5,-7199.84
2.27153e+08,173.808,1,2.93503,21990.5,12664.2,-2623.25
2.27351e+08,103.837,1,2.67497,4555.86,18370.8,-17671.5
2.27446e+08,9.46959,2,2.7166,1627.68,-46.1112,-27725.1
2.27446e+08,6.24326,2,2.57467,175.606,-1223.27,-28176.5
2.27447e+08,59.7748,0,2.69062,4640.9,3092.3,-17513.1
2.27872e+08,76.7738,2,2.81651,8518.76,-4564.25,-15885.3
2.27897e+08,134.732,2,2.57821,18020.9,-21128.7,-22358
2.28162e+08,109.707,0,2.92028,-3415.99,-22549.1,-25651.7
2.28176e+08,20.9637,1,2.64708,-2735.21,-610.591,-25362.1
2.28367e+08,14.3886,0,2.76446,2081.87,1882.64,-27474.8
2.28602e+08,45.7748,2,2.97419,7031.89,2055.65,-22705.7
2.28619e+08,55.767,1,2.92152,2607.01,-5948.07,-19167.7
2.28714e+08,134.526,0,2.94972,18618.2,6542.68,-16988.3
2.28899e+08,9.6972,2,2.42434,-1269.33,-627.546,-27256.2
2.29275e+08,54.4066,0,2.86724,7172.55,-8832.65,-27068.7
2.29397e+08,118.093,0,2.86498,2883.88,9488.83,-6075.77
2.29772e+08,12.6102,2,2.88499,1742.35,-1707.81,-27669.5
2.30229e+08,13.4393,0,2.87404,2846.93,-437.611,-29348
2.31028e+08,23.2768,1,2.48717,1859.78,1390.52,-24473.6
2.311e+08,124.326,1,2.53237,-24098.7,9067.92,-23232
2.31489e+08,19.0703,1,3.05967,-1773.61,3526.46,-29819.4
2.31527e+08,68.4349,1,2.91411,-2518.07,-5335.9,-15727.8
2.31574e+08,24.7065,1,2.36263,-3180.23,-599.048,-24681.2
2.3173e+08,202.084,1,2.54896,-752.353,7438.92,6695.88
2.31803e+08,58.134,2,2.62689,5511.81,-10987.1,-27671.1
2.31833e+08,101.903,1,2.80524,-4231.57,12684.5,-11999.1
2.31866e+08,52.4123,2,2.55589,-8710.72,-5650.26,-24708.6
2.31891e+08,226.096,0,2.45539,17463.5,29860.2,4237.95
2.3192e+08,48.452,2,2.47224,5418.67,3008.13,-20752.9
2.31993e+08,131.166,0,2.56241,8243.35,17930.4,-9377.02
2.32436e+08,137.529,1,2.83618,-1330.68,24204.5,-12966.3
2.32464e+08,93.4905,2,2.48835,3084.67,-10505.3,-12316.4
2.32467e+08,37.8931,0,2.5693,-6633.38,-56.5743,-24428.9
2.32912e+08,72.877,2,2.63837,-3132.18,-2276.29,-13917
2.33092e+08,15.2412,2,2.80267,-1802.8,-1348.68,-26463.8
2.33297e+08,91.58,2,2.94829,-9030.94,-11511.6,-16326.5
2.33319e+08,5.11356,2,2.76498,441.845,-444.044,-27915.1
0,5.17062,2,2.54632,0,0,0
2.33515e+08,8.88961,0,2.60535,-490.473,1743.15,-28397.5
2.33572e+08,43.9182,1,2.51949,3056.26,8569.6,-26749.9
2.33674e+08,11.8736,2,2.96097,1244.76,-438.767,-26699.5
2.33692e+08,16.5431,1,2.79767,-3455.65,894.154,-28568.2
2.33696e+08,19.1394,2,3.00946,-1942.49,-1834.36,-25760.5
2.34224e+08,32.5291,1,2.76944,-921.341,6899.57,-28590.3
2.3432e+08,15.2071,2,2.93332,-1260.31,1493.69,-26309.8
2.34361e+08,66.9733,2,2.38994,-6094.38,-10706.3,-21665
2.34433e+08,69.761,0,2.56837,-2459.81,-5382.37,-15325
2.34675e+08,38.3063,1,2.62315,-5997.66,3124.28,-24311
2.34695e+08,146.483,1,2.4407,9255.72,-10683.8,-1329.3
2.34772e+08,1.83671,1,2.51249,224.845,327.44,-28698.4
2.35068e+08,47.6693,1,2.95179,-6608.12,-1221.96,-21370.4
2.35287e+08,212.597,2,2.94072,-19321.1,8792.84,-14870.5
2.3534e+08,6.7294,2,2.95583,923.998,-1086.88,-29214.2
2.35373e+08,189.263,2,2.88002,-1679.28,-24591.4,2428.83
2.35533e+08,4.52431,2,2.92302,754.326,42.6101,-28298.1
2.35936e+08,37.0265,0,2.49691,7888.5,-244.833,-27891.5
2.36479e+08,0.683855,2,2.92341,-49.7378,-145.56,-28691.1
0,0.662875,2,2.62866,0,0,0
0,0.647925,2,2.64834,0,0,0
2.36528e+08,116.947,0,2.85955,19965.8,3114.1,-14701.6
2.36553e+08,34.0753,0,2.64312,1115.62,-7032.35,-27605.4
2.3692e+08,103.633,0,2.60194,-1575.07,21800.1,-27515.3
2.37255e+08,110.038,0,2.8242,12673,17567.1,-20532.9
2.3726e+08,60.4124,1,2.4117,-8390.23,5795.96,-21051.1
2.37512e+08,86.609,0,2.46018,15304.7,-9763.03,-25786.5
2.38285e+08,4.23874,2,2.75436,-145.831,-550.915,-28076.6
0,4.21574,2,2.88335,0,0,0
2.38294e+08,7.44248,1,2.89639,1202.15,623.804,-27996.6
2.38402e+08,23.4007,1,2.61042,2712.73,3654.05,-26814.3
2.38908e+08,10.1657,0,2.6397,-1545.91,-145.603,-27419.3
2.39054e+08,139.244,1,2.71779,-19715,6522.47,-8042.79
2.39118e+08,150.656,1,2.87387,-9694.06,-14676.1,-15364.8
2.39385e+08,214.057,0,2.58829,28450.8,-2466.88,6294.94
2.39922e+08,83.8839,1,2.75026,-7057.76,15007.9,-22527.5
2.40109e+08,127.018,2,2.84918,-10464.3,12809.5,-27042
2.4046e+08,25.2179,0,2.38327,813.122,4675.97,-26385.1
2.40867e+08,51.4943,2,2.68143,3314.24,-9425.86,-24414.6
2.4098e+08,20.1544,1,2.93371,-2612.18,2186.26,-26197.8
2.41124e+08,265.108,1,2.45693,-27448.4,23436.3,14115.7
2.41299e+08,111.187,0,2.59758,2552.53,-16789.9,-12582.2
2.41477e+08,86.1039,2,2.9458,-1015.98,-9314.26,-13330.1
2.41491e+08,151.178,2,2.58437,-1279.89,-29457.8,-16370.4
2.41547e+08,57.1705,1,2.42184,-1302.87,2358.55,-28354.4
2.41586e+08,122.045,2,2.93433,-15162.1,6590.49,-9255.54
2.41667e+08,6.32897,0,2.84356,1077.89,-530.114,-28076.6
2.41706e+08,86.6091,2,3.05465,-5843.62,3487.65,-12004.7
2.4206e+08,3.92293,2,2.75158,-528.174,-774.559,-28716.2
2.42701e+08,22.6298,2,2.89578,-2723.53,-1289.35,-25072.6
2.43197e+08,43.4164,0,2.99592,-1080.17,6210.3,-22239.6
2.4351e+08,41.8101,0,2.78608,8430.95,2356.29,-27177
2.43806e+08,15.5454,2,2.76992,-129.801,-118.7,-28805.7
2.44097e+08,36.2258,0,2.89442,743.632,5568.12,-23683.8
2.44766e+08,11.4491,0,2.78184,-1339.51,-1889.59,-28271.2
2.44893e+08,55.2775,1,2.61118,-2912.58,-6041.31,-19306.3
2.44964e+08,99.5707,2,2.85742,2309.74,-14270.1,-13631.6
2.45222e+08,33.3162,2,2.45584,-6102.31,1246.13,-25468
2.45283e+08,15.6338,2,2.91014,-133.566,-3351.52,-28991.7
2.45348e+08,41.46,1,2.45418,-166.009,-4272.31,-21199.5
2.45361e+08,173.384,1,2.96972,29194,-10515.4,-10000.6
2.45593e+08,34.0488,2,2.54502,-2951.14,-6690.22,-28539.8
2.46109e+08,94.0528,0,2.58702,16012.4,-8596.76,-20829.9
2.46115e+08,45.0286,2,2.66168,-1975.9,1175.51,-19618.9
2.46387e+08,87.1487,0,2.62826,15200.8,9066.4,-23534.3
2.46632e+08,127.164,1,2.76575,-12357,5663.75,-5728.77
2.46643e+08,3.80069,1,2.7667,-230.269,783.459,-28476.2
2.46901e+08,4.3776,2,2.61104,201.343,438.466,-28092.6
2.47066e+08,3.54498,0,2.37091,558.87,-445.085,-28405.4
2.47348e+08,72.8981,1,2.6694,-12386.5,4829.85,-25993.2
2.47502e+08,126.271,1,2.93329,17064.4,2970.39,-8781.48
2.4766e+08,84.4165,1,2.88742,14400.2,10391.6,-28528.8
2.47996e+08,280.038,0,2.69922,458.05,-654.256,-26282.5
2.4845e+08,99.6002,1,2.80132,-20730.5,-3087.92,-27394.3
2.48602e+08,60.7409,0,2.43385,6070.25,-6051.54,-19184.3
2.48825e+08,119.175,1,2.61859,2859.2,12814.7,-7322.33
2.49064e+08,43.2272,2,2.99959,-7842.94,-2433.22,-24804.9
2.49419e+08,148.446,0,2.74079,9760.52,-25713.8,-13870.6
2.49495e+08,124.668,0,2.66051,15516,8893.92,-9837.66
2.49702e+08,122.772,2,2.45126,-16887.6,-13548.6,-14383.1
