#class tools::wcsv::ntuple
#title time
#separator 44
#vector_separator 59
#column double eventID
#column double t(ns)
#column double copynumber
#column double energy(eV)
#column double x(mm)
#column double y(mm)
#column double z(mm)
64409,20.2095,0,2.94741,2556.42,-3284.72,-27711.5
146896,7.06436,2,2.74843,-628.421,565.062,-27614.3
251646,19.0445,2,2.68423,-1051.94,917.149,-25063
357635,40.0688,1,2.62189,-4806.83,-4109.63,-23201
363689,89.5428,1,2.79295,-8782.54,1773,-12225.7
718994,23.7591,0,2.6085,3448.95,2957.91,-26518.9
1.09248e+06,6.50462,2,2.48849,-743.127,681.136,-27886.1
1.19273e+06,47.4322,0,3.04525,9435.98,254.051,-25469.4
1.2114e+06,27.3258,1,2.68494,-1376.27,1230.58,-23333.7
1.29349e+06,67.3998,0,2.76832,8794.23,-7815.33,-20790.3
1.38925e+06,16.3208,0,2.85899,1128.62,1530.1,-25919.8
1.43391e+06,55.1506,1,2.61447,9509.71,-2581.87,-22686
1.53177e+06,29.6384,2,2.88007,3117.91,-5362.77,-27812.3
1.6154e+06,78.4198,1,2.77659,6547.36,-4686.1,-14465.2
1.69282e+06,31.4252,2,2.63574,2914.68,-1665.79,-23138.4
1.73417e+06,7.2389,1,2.49355,-1301.19,-409.933,-28044.5
1.75689e+06,164.318,2,2.87259,-192.391,-8847.43,4558.4
1.78586e+06,79.5698,0,2.66252,8416.87,2121.99,-16201.8
1.79815e+06,71.4304,2,2.8406,4503.11,-926.552,-14535.6
2.04045e+06,24.8756,2,2.7416,-3598.29,-2079.98,-25540.4
2.62456e+06,66.8009,2,2.64033,-8603.6,-5451.05,-19007.9
2.69398e+06,132.347,0,2.38323,1270.77,-24993.3,-16204.5
2.8643e+06,8.12143,2,2.44987,-1716.5,153.732,-28458.4
3.17874e+06,36.487,2,2.72079,320.419,-7517.25,-26956.6
3.20748e+06,81.7464,2,3.04202,-7378.62,-12513.2,-19647.9
3.25863e+06,31.1104,1,2.631,3063.49,929.158,-23123.1
3.63755e+06,16.7738,1,2.81383,-1260.01,837.43,-25589.8
3.70088e+06,117.137,0,2.36456,18871.3,-6557.5,-14036.2
3.88854e+06,143.705,2,2.85993,28226.6,-911.573,-18182.9
3.93842e+06,40.2328,1,2.62697,-4089.16,5228.2,-23446.9
4.20345e+06,25.354,0,2.45746,-2336.06,-1713.16,-24332.6
4.20941e+06,118.762,2,3.00166,10639.3,-14780.2,-23074
4.22013e+06,15.2073,1,2.85935,2001.76,110.201,-26332.9
4.23112e+06,45.0989,1,2.51101,-8152.83,1828.11,-24101.9
4.27841e+06,1.57854,0,2.40536,105.993,234.755,-28585
0,1.5728,0,3.04614,0,0,0
4.50417e+06,3.191,1,2.68783,-599.229,396.31,-28547.8
4.55804e+06,38.7876,0,2.74828,6810.38,4673.94,-28604.2
4.60064e+06,26.5341,1,2.4014,3496.06,897.199,-24544.2
4.82429e+06,245.48,2,2.54976,22315.2,438.052,-13831.4
4.94953e+06,17.0753,0,2.38213,-451.346,-2759.37,-26578.2
4.95941e+06,63.4537,1,2.49481,9233.81,4598,-20242.5
5.02265e+06,42.4734,2,2.66789,-3583.05,-190.965,-20612.9
5.29621e+06,54.7977,2,2.90209,-7130.41,-1385.62,-27003.1
5.30712e+06,16.9331,2,2.8074,2821.42,-1837.03,-27561.7
5.31866e+06,47.7716,0,2.71442,337.157,9544.78,-25550.6
5.55694e+06,118.662,1,2.48773,8785.95,1237.4,-5358.29
5.65695e+06,76.6261,1,2.86598,-1410.18,-7764.45,-14825.3
5.93912e+06,24.6263,0,2.54907,-1223.21,5061.22,-29152
6.18969e+06,9.51677,1,2.4361,1271.99,-306.053,-27325.8
0,9.10832,0,2.47863,0,0,0
6.1916e+06,223.466,2,2.78165,11475.4,-29428.7,6064.63
7.10279e+06,48.8582,1,2.43939,9926.17,-2290.32,-27274.7
7.22865e+06,15.6476,1,2.74487,-1093.49,2920.13,-27475.4
7.23599e+06,175.414,2,2.59416,436.763,25547.5,-2085.41
7.33722e+06,28.8951,1,2.78757,-5035.86,3348.09,-27673.3
7.55291e+06,28.0267,0,2.76044,5679.59,-1913.66,-29228
7.62703e+06,219.634,0,2.72017,-4381.02,-21211.9,12062.1
7.7944e+06,96.0508,0,2.6152,19115.6,666.516,-21791.7
7.89768e+06,24.1319,0,2.73002,219.83,-2954.87,-24666.7
0,24.0342,2,2.79623,0,0,0
7.9778e+06,116.792,1,2.9457,9554.74,21007,-20389.4
8.30087e+06,78.1542,2,2.64996,9329.54,-161.084,-15251.5
9.0429e+06,203.684,1,2.5359,-12918.8,24322.5,4325.32
9.06098e+06,242.491,1,2.95657,-5174.72,23803.4,15763.9
9.16124e+06,46.7399,1,2.67593,-3623.24,-2139.93,-19893.5
9.48534e+06,25.6379,2,2.53424,-5313.07,-655.745,-29976.7
9.48852e+06,50.5102,0,3.04592,2700.92,10271,-29304.9
9.49172e+06,196.158,2,2.58248,10374.2,-14180.8,8685.71
1.01966e+07,19.7885,1,2.91978,1882.08,1731.22,-25526.5
1.02984e+07,239.71,0,2.38464,14949.4,2829.83,19579.8
1.079e+07,22.375,0,2.66706,966.536,4454.24,-27530.5
1.09022e+07,128.323,2,2.37006,-4848.86,6540.71,-2925.99
1.09313e+07,53.2383,0,2.7834,1434.06,9910.87,-23789.8
1.1226e+07,16.4235,0,3.01012,2482.52,2012.28,-27401
1.12588e+07,10.9926,2,2.76272,-636.774,-1169.26,-26876.5
1.13996e+07,89.1579,0,2.49888,7409.64,14747.5,-19619.2
1.14199e+07,10.1176,2,3.04704,-1972,-775.9,-28182.9
0,10.0148,2,2.48809,0,0,0
1.17584e+07,152.141,1,2.41579,1288.36,9979.12,1754.4
1.20783e+07,337.015,1,2.68375,13969.3,-23379.5,17101.1
1.23922e+07,130.214,2,2.95161,4171,-25709.2,-20394
1.23954e+07,115.552,2,2.72231,-9233.59,-15269,-18200.6
1.24555e+07,153.018,1,2.63015,-6794.9,27967.3,-18730.3
1.25826e+07,129.389,1,2.99499,-21182.5,-4595.61,-12505.3
1.29705e+07,53.7635,0,2.37532,5150.81,-2725.65,-19083.2
1.30342e+07,158.322,0,2.43123,-12834,-16011.8,-12608.7
1.31022e+07,161.526,0,2.37832,28868.3,1199.35,-10435.5
1.32869e+07,66.3115,2,2.87759,8091.05,-2620.16,-17792.1
1.3443e+07,208.367,2,3.03256,17707.9,20662.9,3973.32
1.35178e+07,95.8435,1,2.75926,-18307.6,-2435.38,-20649.7
1.3819e+07,131.385,1,2.44832,11162.1,25193.8,-24848.4
1.38485e+07,68.6179,0,2.37275,14301.4,2719.42,-27330.1
1.39692e+07,127.617,1,2.57486,10012.6,23844.7,-20973.7
1.39768e+07,174.187,1,2.63531,-21270.6,20707.2,-7052.35
1.40409e+07,240.384,0,2.4936,27759.4,-14080.2,11383.9
1.40655e+07,2.90729,0,2.88042,613.345,-32.2298,-28532.8
0,3.34458,2,3.03378,0,0,0
1.41786e+07,167.346,0,2.73989,19334.3,-2371.53,601.208
1.42893e+07,57.3061,2,2.68848,-9310.96,6230.26,-24253.6
1.45947e+07,143.121,2,2.81218,-17191.5,-10732.9,-6500.58
1.4694e+07,86.5702,0,2.54479,1408.25,-16928,-21933.5
1.4794e+07,60.4671,2,2.94619,-12473.8,2257.69,-27749.6
1.48305e+07,59.3815,2,2.63026,-10710.3,1381.03,-22412.1
1.50071e+07,142.047,0,2.45738,1026.78,17864.2,-4694.45
1.50984e+07,123.257,2,2.82554,-912.458,-25671.6,-24908.7
1.51253e+07,79.8155,1,2.42182,-1041.54,16045.8,-23383.8
1.54359e+07,125.335,2,2.90438,-14209,-8735.6,-8413.92
1.58644e+07,185.17,2,2.76385,6586.46,-25315.7,92.4433
1.59199e+07,73.8752,0,2.48402,5206.65,11451.4,-19521
1.61196e+07,51.0006,2,2.92983,-9216.44,3946.8,-24981.1
1.64037e+07,102.39,1,2.68725,-16634.1,-1267.73,-15123.6
1.67201e+07,68.0518,0,2.96672,-8776.37,5318.57,-18945.3
1.68917e+07,62.5173,0,2.76722,4476.96,11749.2,-24864.3
1.70024e+07,51.7941,0,2.93895,5622.03,-7940.66,-23873.8
1.75609e+07,35.4555,0,2.76243,5334.97,81.2468,-23514.7
1.79815e+07,20.8019,0,2.96931,1501.9,4128.73,-28742.2
1.82814e+07,188.114,0,2.54334,-8911.43,11314.7,-29561
1.83256e+07,102.076,2,2.60682,20993.9,3243.88,-25368.8
1.83322e+07,69.5178,2,2.60194,8209.2,-552.885,-16674.1
1.87245e+07,30.1049,1,2.92638,-5275.4,1949.17,-25766.4
1.88414e+07,13.3333,2,2.38815,410.563,-2837.51,-28300.5
1.89854e+07,123.749,1,2.75546,-4317,-24495.8,-22492.4
1.90116e+07,33.339,0,2.56667,5486.05,-4323.05,-27432
1.90599e+07,44.2782,2,2.75333,1998.04,7671.27,-24007.2
1.91963e+07,76.4511,0,2.49616,10474.8,988.356,-16493.3
1.92354e+07,149.255,2,2.52021,-5410.92,29030.6,-17854
1.92932e+07,8.26521,0,3.00013,348.825,-1627.09,-29501.9
1.96731e+07,42.9168,0,2.96835,3381.58,-4358.31,-21651.2
1.98263e+07,147.647,0,2.49628,-1098.38,1068.17,-28716.1
1.98322e+07,36.243,0,2.45007,3245.76,-3742.83,-22911.5
1.98365e+07,4.7758,2,3.01704,284.123,-435.395,-27938.3
0,4.73907,2,2.7195,0,0,0
2.00192e+07,50.7458,1,2.9464,-9643.62,3614.97,-25812.2
2.02376e+07,2.9972,1,2.4002,-232.882,684.412,-28996
2.0561e+07,107.846,2,2.66907,-6716.5,-15637.3,-17320.4
2.07372e+07,74.3756,0,2.48974,8389.5,13389.1,-29142.2
2.07572e+07,15.5313,0,2.83122,3140.88,565.821,-27775.9
2.08794e+07,163.96,2,2.5943,-13630.7,-4712.94,2675.39
2.12982e+07,40.5086,0,2.47942,3878.09,1891.55,-21371.9
2.16491e+07,29.1332,1,2.89933,3135.09,5318.41,-29060.2
2.17304e+07,51.4673,0,2.58894,5969.27,-5808.13,-21754.2
2.21822e+07,29.3026,1,2.43682,-3481.46,567.287,-23681.2
0,29.3786,1,2.56305,0,0,0
2.31618e+07,172.531,2,2.66077,-15323.9,-16609,-261.635
2.36492e+07,14.051,1,2.99022,2069.83,364.958,-26777.3
2.3764e+07,92.4109,0,2.42188,16489.4,-3601.4,-18801.1
2.37903e+07,144.737,1,2.65298,20587.5,6144.01,-7128.33
2.45787e+07,59.8442,0,2.48668,-600.545,-5049.4,-17244.5
2.47408e+07,91.0264,2,2.86495,-15007.8,4040.75,-17646.2
2.4949e+07,105.483,2,2.94452,-14520.8,-11965.5,-17023.5
2.4989e+07,109.106,0,2.46469,-14535.3,17833.1,-27748.1
2.50068e+07,66.0246,2,2.39741,9904.08,1435.42,-19100.6
2.50532e+07,30.2227,2,2.85813,-6007.72,-673.999,-26736
2.50572e+07,48.5845,0,2.49795,6499,5466.31,-22923
2.57888e+07,104.476,0,2.72476,6211.72,6184.37,-8610.54
2.58174e+07,59.8141,0,2.49309,4534.98,7772.13,-19880.7
2.59453e+07,30.1626,1,2.84121,4923.73,4042.26,-28680.1
2.66956e+07,133.709,1,2.62172,-1152.05,8572.73,-1943.71
2.68219e+07,77.1174,1,2.98983,5142.29,15396.2,-29073.3
2.70743e+07,21.7007,1,2.45545,-2567.6,-707.092,-25049.7
2.7151e+07,5.97637,0,3.03976,-3.9184,1267.89,-28598.7
2.72997e+07,13.5849,1,2.40207,-2622.73,439.636,-27546
0,13.6947,1,2.60681,0,0,0
2.73135e+07,11.5847,0,3.0229,714.294,1803.18,-27288.7
2.75086e+07,110.663,0,2.64935,-3918.42,22234.8,-22843.3
2.79458e+07,3.67882,0,2.73571,690.018,319.757,-28419.1
2.80963e+07,10.9692,0,2.99866,1313.4,1653.66,-27761.1
2.8452e+07,29.8089,2,2.63878,3382.44,-5077.93,-27097.1
2.85585e+07,35.9302,2,2.83754,-3496.89,-3925.08,-23326.4
2.86342e+07,152.586,1,2.43692,24636.3,3996.1,-8367.39
2.877e+07,51.8538,2,2.88848,9386.57,-1431,-23498.2
2.88462e+07,36.3816,2,2.99676,541.182,-7534.76,-27219.6
2.88886e+07,78.6196,1,2.52468,14787.9,-3012.23,-21964.2
2.88969e+07,36.1814,2,2.93981,6185.63,-4185.14,-27415.3
2.92785e+07,91.4157,1,2.76377,-15312,8795.96,-20983.5
2.94981e+07,66.6457,0,2.81159,13918.7,2269.73,-28615.2
2.96122e+07,112.815,2,2.69821,-20324.7,3251.92,-16828.7
2.99738e+07,73.9444,0,2.44678,6525.09,10082.4,-18751
3.02405e+07,128.024,0,2.84883,-4296.37,-20117.9,-11512.3
3.02821e+07,92.2819,1,2.57689,12939.9,14117.9,-24961.2
3.03758e+07,30.102,2,2.48252,5325.67,-3448.41,-27981.1
3.04472e+07,230.609,1,2.41063,21604.3,4397.44,14680.4
3.08143e+07,119.784,0,2.64815,9301.05,1665.82,-7862.61
3.09045e+07,361.554,2,3.02675,-25261.3,27874.7,21082.5
3.09213e+07,39.8732,1,2.94368,-1217.81,6780.05,-23941.9
3.10922e+07,47.1033,1,2.65824,-8155.57,5826.08,-29181.5
3.13865e+07,159.71,2,2.47278,-7053.54,24313.7,-6652.35
3.14651e+07,95.2859,2,3.00711,-15593.2,6957.23,-18434.7
3.17364e+07,1.48606,1,2.99998,-132.345,179.273,-28552.4
3.17775e+07,158.283,0,2.82285,4822.98,-28865.4,-12947.6
3.20525e+07,109.906,0,3.0001,5150.9,2668.41,-26631.3
3.25201e+07,57.6696,2,3.01695,-11557.9,1956.58,-29414.9
3.25997e+07,62.3569,2,2.54716,-7269.68,-1603.5,-17901.5
3.29496e+07,26.9795,1,2.92792,-4335.7,3698.79,-27918.8
3.3039e+07,76.421,1,2.65352,1716.22,3350.94,-13128.6
3.31173e+07,84.7851,1,2.90997,11371.2,-5354.96,-16263.9
3.34049e+07,106.326,2,2.87367,-13016.2,-18170.3,-26910.6
3.34593e+07,93.6033,0,2.37835,11079.1,-1749.93,-12450.5
3.35712e+07,22.9389,0,2.98938,-3801.63,-2624.98,-27645.9
3.36598e+07,72.2136,2,2.92081,8347.81,-3308.19,-16602.6
3.41029e+07,270.691,2,2.79089,-24983.2,11065.8,2144.72
3.4387e+07,101.338,0,2.59454,20547.9,-2426.53,-22964.9
3.45894e+07,45.8091,2,2.43057,-6332.95,-7387.86,-27622.3
3.46708e+07,20.1691,2,2.57289,149.202,-1961.79,-25005.8
3.49937e+07,80.7564,0,2.86053,15108.8,1660.41,-21069.3
3.49979e+07,105.491,2,2.59637,8946.15,1171.31,-8478.19
3.51142e+07,9.00987,2,2.5,-158.817,1852.49,-28775
3.51395e+07,180.562,0,2.57988,24001.1,14486.3,-2868.83
3.5247e+07,103.036,1,2.55105,-4980.06,10966.7,-10630.1
3.54247e+07,22.8121,0,2.49308,2892.47,2841.54,-26092.8
3.54746e+07,42.4585,0,2.50293,7703.25,-896.495,-24124.9
3.56025e+07,42.2847,2,2.46148,-3194.42,-8032.83,-26165.4
3.5897e+07,21.7212,0,2.63488,557.923,4388.57,-27607.9
3.59493e+07,47.1505,1,2.97401,5727.29,8136.76,-28512.2
3.59622e+07,49.7913,2,2.95348,-5585.99,43.9178,-19961.9
3.59936e+07,263.07,1,3.04224,28620.7,-2023.14,-9616.28
3.64329e+07,158.036,2,2.41441,8435.58,-2326.12,1613.77
3.68165e+07,48.781,1,2.80986,-8905.26,-777.381,-23704.1
3.71562e+07,28.132,2,2.88187,-3092.48,2465.02,-24439.4
3.72687e+07,42.2066,0,2.69682,1885.96,-3920.99,-21026
3.7533e+07,37.396,2,2.41107,2309.12,-6187.17,-24361.6
3.78214e+07,39.3928,1,2.5314,-684.189,-4120.39,-21633
3.78544e+07,198.837,0,2.60438,20313.7,-2433.53,-26674.8
3.81997e+07,177.44,0,3.03124,8520.5,23432.9,-24043.7
3.84556e+07,101.488,0,2.69783,16057,11194.6,-19997.1
3.88244e+07,11.4665,1,2.40294,1279.14,-584.136,-26883.6
3.89495e+07,37.2682,2,2.64104,-3494.75,1053.05,-21865.3
3.90351e+07,34.1304,2,2.37507,6670.06,-1982.45,-26899.9
3.90924e+07,40.6183,1,2.88617,4165.59,4414.25,-22795.4
3.92894e+07,22.3422,1,2.74984,3655.5,-374.577,-25907
3.96344e+07,62.1752,2,3.00267,10574.8,3760.03,-22282.7
3.98076e+07,125.259,1,2.77631,-4247.67,16799.6,-8908.51
3.98327e+07,26.5277,2,2.59559,-3594.74,380.704,-24502.2
0,26.5794,2,2.6012,0,0,0
4.01063e+07,56.5929,1,2.42696,-11887.7,1720.75,-27999.6
4.01528e+07,45.3611,2,3.05899,-6801.86,-2695.86,-22671.6
4.02931e+07,8.25457,2,2.7205,-1601.18,-919.593,-28780.8
4.04706e+07,18.9429,2,2.37192,-1443.4,-128.987,-25052.4
4.05686e+07,46.7491,2,2.88496,3708.19,5884.78,-21940.3
4.05838e+07,3.45249,1,2.9389,-630.524,42.9767,-28391.8
4.08155e+07,46.1793,0,2.94247,-6791.13,-5743.32,-25054.8
4.11438e+07,63.4289,1,2.92188,-9654.97,8991.75,-26458
4.11562e+07,35.7126,1,2.89312,-5454.65,2399.85,-24161.1
4.12192e+07,105.75,1,3.0473,-14023.6,-9589.49,-17600.8
4.12773e+07,42.9243,2,2.46991,-241.696,7027.51,-23174.8
4.133e+07,243.181,2,2.43195,-16264.1,-20582.5,15453.8
4.15779e+07,6.456,2,2.76922,-399.822,-30.2798,-27517.7
4.2216e+07,96.4387,2,2.94187,-15407.7,7927.01,-18370.1
4.22853e+07,194.624,2,2.69729,9638.24,14788.9,8177.54
4.34218e+07,36.3719,1,2.67523,-1179.31,567.473,-21262.8
4.38378e+07,110.558,0,2.64286,-1956.17,-10467,-21400.5
4.38857e+07,88.7753,2,2.56118,-2739.23,-11655.3,-14324.5
4.38988e+07,54.173,1,2.66685,11300.8,1375.87,-29584
4.40294e+07,56.9675,1,2.60126,-7855.57,-3025.93,-20218.3
4.40354e+07,53.6284,1,2.72468,-3209.29,-10789.1,-29189.5
4.41117e+07,32.3695,2,3.02036,-6113.21,-2582.34,-27099.4
4.43376e+07,71.5782,2,2.85538,-11179.5,6402.31,-21028.1
4.43553e+07,31.7263,0,2.40647,6687.4,-1277.1,-29239.2
4.45957e+07,0.122394,1,4.01482,-20.1168,125.016,-28823.3
0,0.120484,1,3.58859,0,0,0
0,0.13018,1,2.07805,0,0,0
0,0.125972,1,3.74167,0,0,0
0,0.123851,1,4.08943,0,0,0
0,0.120534,1,3.50529,0,0,0
4.46002e+07,9.09488,0,2.59347,1450.53,-1082.39,-27969.3
4.47762e+07,29.6926,1,2.42766,-2412.3,-1212.65,-23156
4.54955e+07,164.404,0,2.57133,28245.9,-20069.3,-25294.7
4.55924e+07,14.0644,2,2.48822,-2393.93,-434.5,-27038.6
4.56043e+07,49.3358,0,2.9114,1619.31,8749.76,-23486.5
4.59703e+07,78.6841,1,2.9772,3298.63,-15822.6,-25865.5
4.62847e+07,144.876,2,2.61068,-20278.5,-6038.93,-17041.5
4.63699e+07,14.2419,0,2.64357,412.111,735.271,-25929.8
4.66668e+07,107.184,2,2.72678,-10949.7,10222,-11931.8
4.6924e+07,221.335,1,2.45928,27832.2,-11978.1,6800.04
4.71757e+07,26.721,0,2.9205,-4770.09,1279.55,-26320.2
4.75712e+07,154.194,0,2.75416,-22.3274,19205.7,-2671.97
4.77266e+07,77.3483,0,2.39811,4655.81,-12672.4,-19492.2
4.81471e+07,54.7375,0,2.84111,6630.08,-3752.32,-20126.4
4.84798e+07,24.97,1,2.50875,1515.89,4645.29,-26622.4
4.85294e+07,148.045,1,2.95584,-10987.2,13000.8,-2800.21
4.86269e+07,17.2216,1,2.56363,-3633.52,150.107,-28061.2
4.91768e+07,73.0777,2,2.62277,872.667,-11112.7,-18082.9
4.93074e+07,151.291,0,2.65211,-12949.9,3698,-7191.86
4.9433e+07,72.9943,2,2.74955,-894.331,-11758.8,-18871.8
4.95238e+07,4.5566,2,2.86574,-736.987,-746.479,-28626.3
4.97531e+07,8.19413,2,2.81322,650.713,1137.67,-27782.6
5.0086e+07,34.82,0,2.79943,3327.46,6452.1,-27522.8
5.02745e+07,6.66928,2,2.65641,-334.165,1002.6,-27981.4
5.051e+07,38.4689,0,3.04632,5503.39,1876.33,-23175.2
5.07477e+07,100.741,1,2.38028,-5381.33,-12103.1,-12158.9
5.10547e+07,36.445,2,2.39135,-6459.6,-183.222,-24539.5
5.11444e+07,112.841,2,3.02363,-20088,-10096.9,-21248.1
5.11711e+07,5.31562,1,2.73745,-397.133,-194.529,-27786.4
5.22809e+07,14.6506,0,2.8591,-176.62,2568.79,-27160.7
5.25665e+07,34.0005,2,2.59302,-3049.72,-4644.16,-24174.8
5.27128e+07,108.729,2,2.45423,2225.41,-16296.4,-12683.3
5.29654e+07,26.8626,2,2.68375,-5202.03,682.717,-26562.6
5.34767e+07,27.858,0,2.58421,3754.03,4601.6,-28553.5
5.37955e+07,130.218,2,2.40372,-23093.4,-15189.1,-29631.2
5.47866e+07,99.2226,2,2.97517,-18367.3,-2743.19,-19320.9
5.48755e+07,3.16158,1,2.67488,205.419,-105.336,-28210.4
5.50349e+07,229.136,2,2.85474,-23265.4,-12547.8,11468.7
5.54e+07,139.901,1,2.65575,7457.37,3303.22,-521.619
5.54952e+07,100.146,1,2.84059,2690.23,19300.6,-20643
5.57472e+07,46.3546,2,2.59241,-2860.17,-8033.15,-23827.2
5.63447e+07,4.18638,0,2.48086,945.181,195.6,-29130.5
0,4.19001,0,2.53429,0,0,0
5.64196e+07,56.8616,2,2.38686,-2443.84,-459.641,-17058.5
5.64433e+07,44.2014,1,2.89362,-3487.64,556.132,-20204.7
5.64596e+07,28.4673,2,2.38859,2625.72,-390.355,-23458.1
5.6532e+07,74.136,2,3.00714,-5003.66,-5838.4,-15283.6
5.68366e+07,76.1755,0,2.92087,6460.16,14197.8,-28862.9
5.70027e+07,30.375,0,2.53521,-3994.31,-5003.58,-28742.9
5.70191e+07,88.6238,0,2.77122,-7208.32,-16694.7,-24685.3
5.7509e+07,159.743,1,2.47735,-9800.45,-6530.3,2832.84
5.81242e+07,75.2012,2,2.61903,-15144.5,-3683.7,-25385.1
5.84629e+07,72.0096,0,2.86469,8800.15,6421.32,-23873.9
5.84971e+07,73.8225,1,2.97373,11801.9,-2791.67,-19239.9
5.85858e+07,44.5981,1,2.43221,-7507.53,3969.17,-24517
5.86655e+07,67.0705,2,3.0042,685.16,13406.5,-24863
5.88178e+07,66.7699,0,2.65833,9372.1,1606.2,-18341.8
5.88575e+07,16.5501,2,2.50916,2846.89,1421.62,-27445.5
5.89799e+07,119.112,0,3.00728,22420.9,-344.824,-26661.4
5.90746e+07,71.1465,0,2.72734,3997.63,-11447.4,-20002.1
5.92942e+07,28.6022,0,2.69511,213.759,-4652.38,-24952.6
5.93729e+07,42.8182,1,2.67793,369.611,2479.74,-20133.1
5.96004e+07,27.3068,2,2.94432,-1312.58,-4706.24,-25672.3
5.96544e+07,38.7825,2,2.64013,-2443.62,5434.22,-23251.1
5.99897e+07,42.6084,0,2.44522,-243.597,3949.52,-20714.3
6.00037e+07,174.312,1,2.78844,13089.4,25274.3,-5654.55
6.00347e+07,199.95,0,2.81554,-15951.2,-18618.3,5248.22
6.03435e+07,57.6456,1,3.00657,9164.9,-4902.47,-22766.7
6.04267e+07,150.83,0,2.76078,22814.8,-3867.85,-6988.57
6.08173e+07,140.795,0,3.01237,19820.5,10481.7,-9580.65
6.0872e+07,137.786,2,2.74578,-17698.1,-20592.2,-18347
6.12002e+07,144.337,1,2.81951,-4640.89,26999.2,-15622.7
6.13033e+07,12.6565,0,2.65535,-1218.33,-953.886,-26689.3
6.13529e+07,221.235,0,2.91635,-13892.6,-10281.5,-16610
6.1803e+07,24.7679,2,2.57321,-2020.27,-1673.11,-24242.3
6.18848e+07,130.121,0,2.7527,10194.7,-18437.7,-11237.4
6.24692e+07,47.5637,1,2.53643,-1801.1,7618.45,-22406.5
6.25211e+07,37.9466,2,2.53613,7574.68,-2480.89,-29908.9
6.29342e+07,89.8539,1,2.51036,-13953.5,-1722.05,-15989.1
6.29737e+07,85.0701,2,2.96496,17325.5,-3865.24,-27029.8
6.30166e+07,13.8462,1,2.77052,256.965,1702.74,-26414.3
6.36773e+07,5.16875,1,2.85623,-1085.99,-285.112,-28620.8
6.37896e+07,133.374,1,2.86551,8921.45,10371.8,-12490.1
6.39226e+07,146.462,1,2.64465,27505,10087.5,-19010.4
6.45279e+07,79.9354,1,2.55489,6819.03,-154.968,-13372.8
6.47105e+07,11.9581,2,2.36225,1898.73,-332.406,-27212.7
6.47227e+07,148.784,2,2.98124,17959.9,-13762.3,-7335.18
6.50571e+07,6.75353,0,2.65491,-1108.45,440.442,-28168.7
6.52071e+07,53.319,0,2.87854,-1172.42,2342.23,-28854.8
6.52838e+07,74.0209,2,2.75563,11088.2,7658.6,-21144.9
6.53241e+07,47.6265,0,3.04119,901.077,4070.81,-27059.6
6.53909e+07,74.8738,0,2.99058,8508.44,-10426.7,-20679
6.53939e+07,28.9706,1,2.50795,-3782.42,4518.56,-26861.9
6.56007e+07,59.5641,1,2.64063,-622.91,5833.16,-17664
6.61655e+07,6.58643,2,2.7217,-461.906,-1422.47,-28795.3
6.62144e+07,42.9397,2,2.83314,-8493.95,2016.47,-26390
6.64288e+07,61.6904,0,2.9679,-828.134,10784.1,-21772.4
6.67874e+07,89.5173,1,2.71228,7699.09,-12412.7,-16977.9
6.71176e+07,27.6941,2,3.02005,-5797.99,-943.673,-28336.2
6.7277e+07,231.041,2,2.47216,9616.45,13244.7,5495.11
6.73133e+07,23.247,0,2.63671,498.742,-3798.35,-25703.3
6.74435e+07,20.359,0,2.50793,1248.66,2391.36,-25446.6
6.81202e+07,13.5271,2,2.48519,140.121,2221.07,-27076.8
6.82577e+07,116.501,0,2.74004,-9285.06,-14871.8,-11696
6.85647e+07,73.4157,2,2.68051,-10002.6,7549.27,-19735.6
6.86573e+07,136.778,0,2.48316,26294.3,2724.59,-16926.5
6.86693e+07,154.642,1,2.40795,-17622.5,-17528,-7800.78
6.90684e+07,12.4219,2,2.63911,1541.47,-674.36,-26823.3
0,12.4884,2,2.65816,0,0,0
6.98262e+07,62.9927,2,2.66055,3071.1,-11525.6,-22810.9
7.00593e+07,75.6238,0,2.86175,-12327.1,-8281.73,-23266.5
7.01855e+07,54.723,2,2.59475,7114.66,-7368.64,-23424.7
7.06769e+07,72.8104,1,2.62726,13309.1,6770,-25147.3
7.10531e+07,55.0449,2,2.99674,-592.032,-3570.97,-23009.8
7.11046e+07,55.4607,1,2.70901,5423.96,-6550.83,-20886.1
7.13139e+07,67.4015,2,2.96841,-13593,-1769.34,-25109.3
7.14231e+07,54.3328,2,2.43401,-1444.98,-814.716,-19169.9
7.1548e+07,52.7178,1,2.6378,-5840.51,8336.1,-24118.1
7.16775e+07,6.43432,0,2.77664,695.342,508.127,-27733.6
7.16799e+07,67.2892,2,2.98512,-13507.4,-4055.12,-27254.6
7.20145e+07,42.1433,0,2.40584,5321.76,1298.25,-21737.5
7.20953e+07,29.9668,2,2.6294,-6273.27,185.501,-27799.8
7.22471e+07,222.616,0,2.88781,-4482.37,-23490.8,-26466.9
7.22481e+07,7.51541,2,2.92654,-1426.03,-817.441,-28991.5
7.23551e+07,211.517,1,2.75831,15355.8,-20223,7699.4
7.23611e+07,53.7972,0,2.41386,4293.79,3045.89,-18702.8
7.23896e+07,30.5225,0,3.01124,-4072.11,-4498.6,-26865.4
7.24109e+07,31.6259,1,2.51959,3713.84,2110.88,-23665.4
7.27362e+07,28.1647,0,2.80283,-1552.62,5386.44,-26861.7
7.28994e+07,10.3008,1,2.98091,-683.008,1835.28,-27707.2
0,10.3123,1,2.89705,0,0,0
0,10.2092,1,2.49819,0,0,0
7.32376e+07,94.0657,1,2.45736,8527.6,-12800.5,-16273.4
7.33165e+07,94.0662,0,2.58067,-5025.21,8122.48,-11414.4
7.33974e+07,114.406,2,2.83274,-14526,-17243.1,-20168.3
7.34341e+07,32.5751,0,2.76654,4093.88,-2940.61,-24083.8
7.39709e+07,87.2158,1,2.56901,-5169.03,7527.76,-12769.1
7.41605e+07,32.6234,0,2.46296,5150,3809.28,-26102.8
7.41937e+07,11.8933,2,2.64145,-1426.91,-403.253,-26738.8
7.44682e+07,31.8375,2,2.65451,6508.6,-1652.7,-29233.7
7.44762e+07,3.90812,0,2.786,-129.556,619.841,-28281.5
7.46618e+07,13.0099,1,3.05834,791.753,-1813.56,-27003.8
7.48664e+07,43.0706,1,2.41233,6363.52,6558.63,-28824
7.49e+07,6.70996,0,2.60608,1188.71,-902.174,-28547.5
7.49158e+07,80.8088,2,2.51456,7203.19,-2798.01,-13583
7.50272e+07,189.647,0,2.74364,-19391.8,12287.4,-1906.51
7.5554e+07,131.378,1,2.99889,-13402.4,22244.5,-23253.2
7.59208e+07,113.021,2,2.85876,-22068.2,-8928.33,-29887.3
7.60155e+07,83.3443,2,2.46777,653.126,-12948.9,-17306.9
7.6269e+07,36.7674,1,2.4458,-4844.43,1218.36,-22806.9
7.63116e+07,20.7188,1,2.54164,-1362.83,426.243,-24659.4
7.71593e+07,107.65,0,2.65986,3140.21,21983.5,-24005.4
7.72467e+07,140.577,2,2.50549,-4695.81,-29451.6,-28939.7
7.77391e+07,10.84,0,3.00636,1601.82,-213.881,-27145.9
7.7969e+07,18.7531,1,2.94235,-2477,1723.28,-26194.4
7.80477e+07,67.2476,2,2.73172,-13637.1,1786.15,-25258.3
7.83804e+07,27.5544,1,2.44651,-5363.27,-1578.04,-27004.3
7.84106e+07,35.8749,0,2.87055,808.203,-3285.02,-22088.4
7.86163e+07,220.375,0,2.38396,-29472.3,-8424.56,6247.95
7.92284e+07,136.201,2,2.5475,-16129.4,12844.3,-8759.48
7.94759e+07,167.992,0,2.74207,26695.2,-15346.6,-11299.1
7.98071e+07,73.0281,2,2.59312,3046.62,-10988.7,-18354.6
7.98102e+07,77.073,1,2.45671,-5345.76,4897.22,-14177.2
7.98158e+07,24.6833,0,2.56675,3757.92,3565.73,-29997.2
8.01843e+07,108.019,2,2.83473,-13731.4,14743.4,-18344.3
8.023e+07,58.663,2,2.7723,6243.21,-7531.92,-21235.3
8.06898e+07,40.9689,2,2.78063,-5192.69,-2086.35,-22186.8
8.09738e+07,94.3289,1,2.85768,-13758.7,2155.34,-14661.9
8.09833e+07,138.023,0,2.74343,8781.36,-12993.4,-12680.5
8.0991e+07,233.766,0,2.54,25995.5,-29892.4,714.52
8.10143e+07,13.4283,1,2.92814,-647.354,900.221,-26197.5
8.10324e+07,28.6368,1,2.36872,-1340.43,4626.05,-25039.3
8.10541e+07,148.812,0,2.37038,14179,-20565.2,-9653.28
8.12841e+07,64.6468,2,3.0609,-4623.07,-1060.15,-16133.3
8.15312e+07,16.5823,2,2.68643,-1556.88,-2027.11,-26353
8.15924e+07,34.957,0,2.8988,5197.86,-5158.43,-27550.6
8.16484e+07,8.21628,1,3.05564,-111.953,-648.9,-27250
8.18356e+07,32.7187,0,2.82035,-4270.66,-4422.11,-25810.9
8.19517e+07,10.2939,0,2.98662,1207.98,1748.34,-28256.1
8.20701e+07,76.6996,0,2.91815,14463.6,3213.79,-22346
8.21963e+07,87.5468,1,3.00843,-15555,-5834.59,-21002.1
8.23228e+07,66.8817,1,2.42989,1044.66,7215.87,-16666
8.24761e+07,43.7157,1,2.65887,-4502.37,5974.12,-23339.3
8.31213e+07,106.379,1,2.67579,-10100.3,-10416.8,-11750.3
8.31235e+07,3.67194,1,2.59834,668.048,138.751,-28489.6
0,3.59087,1,2.69282,0,0,0
8.3199e+07,148.055,2,2.99546,-22946.7,19986.4,-23115.6
8.33939e+07,3.68588,0,3.01235,857.252,-72.0314,-28651.5
8.3466e+07,91.4523,1,2.64928,-5275.71,18633.1,-28159
8.3751e+07,47.6359,2,2.98191,-8262.06,3994.78,-24902.8
8.37887e+07,49.3109,2,2.40625,-6681.36,-6681.29,-24215.4
8.39925e+07,2.03991,2,2.8917,-429.052,199.035,-28813.3
0,2.14548,2,2.68073,0,0,0
8.43141e+07,13.035,0,2.67235,985.245,-2462.17,-29711.2
8.44023e+07,126.916,0,2.42778,13776.3,7583.53,-7008.58
8.44156e+07,15.8248,0,2.75499,1613.16,2985.47,-28542.6
8.44277e+07,39.0123,2,2.91777,-3627.95,3114.69,-22177.9
8.44439e+07,2.43462,1,2.81658,-167.817,547.087,-28610.1
8.46445e+07,49.6542,0,2.58583,-114.683,9548.97,-24429.5
8.49409e+07,20.7368,0,2.86916,139.699,1362.21,-24703
8.55124e+07,40.9038,0,2.60619,-3041.75,8078.5,-29093.9
8.55562e+07,13.3058,0,2.73686,-1610.41,-2198.79,-28290.9
8.55774e+07,29.4602,1,3.01703,-3320.93,1072.5,-23673.9
8.5879e+07,43.9106,1,2.99092,-5350.18,5883.65,-24025
8.67909e+07,121.959,2,2.66745,-16939.4,-18765,-23605.3
8.69008e+07,39.3303,1,2.73565,2747.64,4249.07,-22213.5
8.69325e+07,47.2264,1,2.52965,5778.87,7282.16,-25099.3
8.69905e+07,80.3954,1,2.58574,13485.6,7540.73,-21725.6
8.69935e+07,11.3776,0,3.01536,1646.11,-1855.32,-28866.6
8.70812e+07,19.034,1,2.64096,3524.49,1381.4,-27492.6
8.73273e+07,148.345,1,2.73049,-8778.63,-6678.45,-25845.3
8.73339e+07,20.0595,0,2.89132,1494.68,-3990.88,-28550.9
8.766e+07,46.3842,0,2.6187,-393.041,8618.59,-24183.6
8.781e+07,192.472,1,2.92074,22133.4,15484.6,-3425.81
8.78915e+07,42.3803,1,2.93865,-880.451,-3887.56,-20902.2
8.79173e+07,1.86278,0,2.72947,306.115,-321.343,-28728.5
8.83425e+07,25.5755,0,2.59794,5387.38,-119.941,-29898.7
8.85061e+07,8.36934,1,2.90575,1727.31,246.755,-28892.2
8.85902e+07,58.487,1,2.83927,3700.44,8483.24,-20648.1
8.8644e+07,56.5655,1,2.38443,-2685.6,246.824,-17163.8
8.91056e+07,179.965,0,2.93681,-20965.3,5677.57,2011.13
8.9215e+07,15.2273,1,2.87075,-535.636,-1382.58,-25990
8.94106e+07,143.191,1,2.99557,11657.1,-23591.8,-14527.1
8.95111e+07,15.8528,0,2.8523,-1939.48,1947.89,-26994.4
8.97705e+07,40.6389,2,2.63558,-2239.23,-8355.72,-28036
8.97838e+07,88.7514,2,2.56469,-9376.73,-2637.81,-12749
8.97898e+07,22.8665,2,2.79162,1155.47,2516.89,-24929.6
0,22.9404,2,2.83328,0,0,0
9.00028e+07,28.3136,2,2.72278,-2009.76,2939.89,-24043.9
9.08276e+07,9.29353,0,2.92843,1766.01,-200.817,-29832.9
9.09887e+07,172.506,0,2.96452,16604.7,-11876.1,1088.71
9.09952e+07,14.0051,0,2.87457,334.771,-1283.37,-26183.6
9.12516e+07,48.5061,2,2.58069,-10224.7,786.112,-27922.3
9.16319e+07,15.7733,0,2.65131,-2335.28,2249.97,-28259.6
9.16479e+07,83.6516,2,2.45061,-3281.84,10880.6,-15317.3
9.1857e+07,113.62,1,2.53273,-20598.2,7624.38,-18924
9.18763e+07,5.69864,0,2.72412,750.084,-1043.05,-28714.8
9.19836e+07,86.4101,2,3.04837,-7699.28,-7103.82,-25274.3
9.21017e+07,20.1126,1,2.98744,-1903.38,543.657,-25059.3
9.21942e+07,100.416,2,2.78158,15758.9,4980.61,-15714.9
9.22881e+07,21.5259,1,2.5148,-2855.5,580.017,-25270.5
9.2638e+07,16.4933,0,2.37595,-807.534,2828,-26942.5
9.2652e+07,63.4133,2,2.68157,7538,-9957.71,-23922.2
9.27752e+07,6.79866,2,2.52655,-187.918,-518.544,-27463.2
0,6.85863,2,2.60602,0,0,0
9.28172e+07,82.6831,0,2.81258,-6116.18,3559.05,-12967.1
9.33855e+07,24.8328,1,2.76625,1037.33,5128.48,-29824.2
9.39493e+07,249.879,0,2.64072,423.309,8834.51,-7765.6
9.39852e+07,81.3124,2,2.92498,-1880.2,-16681.3,-25286.6
9.40766e+07,207.577,2,2.74743,-10342.8,-22979.6,-1864.76
9.40945e+07,91.7816,0,2.50759,11163,9026.14,-15690.4
9.41796e+07,107.592,1,2.64678,-15384.4,13618,-18982.9
9.42866e+07,40.273,0,2.90879,7750.52,-3455.14,-27756.6
9.43552e+07,26.0048,2,2.60795,-4600.96,-3137.19,-28282.4
9.50254e+07,74.4829,1,2.6832,3495.68,2967.11,-13808.1
9.51295e+07,2.29223,1,2.41564,-203.51,-21.7251,-28360.6
0,2.2916,1,2.46012,0,0,0
0,2.38332,2,3.01784,0,0,0
9.55915e+07,175.776,1,2.46637,-28852.2,8369.27,-6892.33
9.56965e+07,188.708,0,2.65159,25436.4,15973.7,-2619.37
9.58482e+07,30.6104,1,2.69742,2590.04,5027.72,-25660.8
9.58993e+07,30.1828,1,2.59842,-1649.62,5604.93,-26645.2
9.61389e+07,237.512,0,2.98988,-14692.7,20343.3,14131.4
9.62188e+07,120.032,1,2.88203,-17192.9,5004.6,-11000.5
9.63616e+07,151.365,2,2.59967,-14087.9,-17061.4,-5683.67
9.64893e+07,53.5189,2,2.73076,9625.11,-4235.73,-24718.6
9.68595e+07,45.1664,2,2.36753,-1985.9,-7253.09,-22808.6
9.69257e+07,15.9662,2,2.58188,-1965.68,1588.28,-26604.3
9.69352e+07,63.775,0,2.95223,13367.4,690.694,-27238.1
9.72441e+07,119.143,0,2.55788,8037.74,21093.5,-18333.6
9.72576e+07,41.8466,2,2.89272,3282.22,-3524.05,-21449.2
9.76803e+07,26.7751,0,2.71585,993.196,-2617.2,-23907.1
9.77879e+07,19.8715,1,2.80305,-2392.14,-1268.82,-25647.1
9.7939e+07,12.351,2,2.5538,-890.759,-2357.38,-27870.5
9.80302e+07,151.917,0,2.74864,13942.1,4763.6,-480.097
9.80436e+07,15.1696,2,2.97628,-294.619,-2568.73,-26882.7
9.88369e+07,58.0544,2,2.90761,-3428.28,-2919.48,-17478.8
9.90222e+07,38.0525,2,2.86307,401.399,6914.66,-24917.5
9.91213e+07,40.5519,2,3.00069,91.9041,-803.315,-28205.4
9.94577e+07,27.7643,0,2.51315,3010.86,5099.11,-28721.5
9.95128e+07,194.865,1,2.90394,6542.89,14416,8910.19
9.96733e+07,4.71014,1,2.92737,-766.741,787.277,-29023.4
9.97407e+07,157.921,2,2.7654,-16949.2,13220.9,-3468.85
9.97716e+07,60.2438,1,3.03804,10219.4,7423.43,-28774.5
9.98784e+07,145.884,2,2.84235,-11306.3,-8248.02,-1503.14
9.99936e+07,19.4847,0,2.88937,3523.65,-470.654,-26666.5
9.99977e+07,19.018,2,2.45563,-2607.95,-3166.4,-28361.7
1.00175e+08,88.8152,0,2.58879,14491.1,-7397.39,-19373.2
1.00286e+08,94.7551,2,2.92275,-6909.46,-15322.7,-18060
1.00337e+08,114.787,2,3.00591,-2366.52,2900.75,-27862.7
1.00588e+08,25.8572,0,2.51755,5041.52,-1300.27,-26884.9
1.00721e+08,26.1155,0,2.71469,2258.09,3490.7,-25158.9
1.01311e+08,72.2721,1,2.41575,5159.19,4876.46,-15296.1
1.01323e+08,51.98,0,2.43273,8786.09,-6067.86,-25845.5
1.0148e+08,142.762,0,2.80364,29841.7,3069.85,-25903.1
1.0157e+08,75.985,2,2.38836,-13184.9,7751.89,-24139
1.01611e+08,66.5839,1,2.76789,-8336.34,4984.96,-18628.8
1.01926e+08,6.61896,0,2.91892,-947.805,-734.529,-28199.9
1.02276e+08,92.2547,2,3.03956,-543.19,-8826.48,-11634.5
1.02377e+08,144.026,0,2.78721,18054.9,1939.32,-4497.12
1.02572e+08,8.98342,0,2.78005,581.126,-1523.63,-27823.9
1.02829e+08,28.6017,0,2.94184,5869.58,182.704,-27141.5
1.03034e+08,18.4989,0,2.46689,3328.35,1737.36,-27512.3
1.0305e+08,35.7547,2,2.71291,103.07,4094.24,-22557.8
1.03156e+08,25.0323,2,2.83888,-78.4472,-5218.35,-27750.7
1.03168e+08,44.91,2,2.87412,-6056.22,-2320.12,-21908.8
1.03281e+08,107.18,0,2.78908,5540.24,18269.5,-16741.7
1.03436e+08,49.1597,2,2.53468,4050.71,-9552.25,-27368.6
1.03787e+08,27.221,0,2.89157,2336.9,-3534.95,-24912.8
1.04017e+08,192.303,0,2.43149,11921,-29303.9,-3207.96
1.04532e+08,159.079,0,2.38241,-8607.82,-12378.2,1209.75
1.04594e+08,44.0571,1,2.5,1286.67,9048.69,-26754
1.04674e+08,40.3611,0,2.88608,-2682.6,3497.2,-21599.6
1.04675e+08,19.791,2,3.05595,447.251,3844.02,-27499.2
1.04763e+08,133.259,0,2.94052,6574.01,-14526.5,-5819.47
1.05193e+08,23.684,1,3.01259,-2096.51,4411.22,-27487
1.05492e+08,11.5408,0,2.64712,1985.03,1534.64,-28721.7
1.05599e+08,170.963,2,2.49387,-20159.1,-16773.8,-3863.85
1.05658e+08,3.93404,1,2.75116,409.431,355.551,-28205.1
1.05974e+08,190.167,1,2.7265,26607.3,-20569.2,-11653.7
1.06019e+08,146.062,2,2.87175,-17124.1,-6410.18,-4130.08
1.06028e+08,69.7293,0,2.99894,10009.7,143.871,-18084.7
1.06275e+08,247.261,2,3.02608,-13582.8,-3835.69,7353.08
1.06283e+08,86.0912,0,2.89422,-15269.5,-562.133,-28539.8
1.06301e+08,92.6433,0,2.88437,8570.24,-8472.94,-13495.5
1.06524e+08,14.8369,1,2.78777,-2305.71,2160.64,-28271.1
1.06673e+08,284.277,2,2.70765,-26754.1,-13404.1,-21292.1
1.06698e+08,88.2167,2,2.9256,5809.57,-15126.3,-19804.6
1.07027e+08,16.9762,1,2.98486,-3176.3,1244.89,-27528.9
1.07336e+08,300.454,2,2.80979,-1520.02,-1066.63,-29817
1.07629e+08,59.9619,2,2.36756,664.606,-598.571,-27127.8
1.07656e+08,161.054,0,2.53575,-2472.54,-25744.2,-6714.17
1.0779e+08,51.8397,2,2.61503,-6207.77,-6824.26,-22783.3
1.07928e+08,0.303024,1,3.43072,8.30664,130.424,-28800.3
0,0.242495,1,3.52525,0,0,0
0,0.25952,1,3.51438,0,0,0
0,0.250238,1,3.42372,0,0,0
0,0.249818,1,3.64148,0,0,0
0,0.26075,1,3.15935,0,0,0
0,0.242812,1,3.4944,0,0,0
0,0.36486,1,2.20197,0,0,0
0,0.24133,1,2.2794,0,0,0
0,0.24888,1,2.42667,0,0,0
0,0.249229,1,2.79801,0,0,0
0,0.274088,1,2.86434,0,0,0
0,0.268778,1,2.93776,0,0,0
0,0.302873,1,3.00232,0,0,0
0,0.259999,1,2.90227,0,0,0
0,0.307455,1,3.20617,0,0,0
0,0.258597,1,2.90025,0,0,0
0,0.244751,1,3.76328,0,0,0
0,0.257972,1,3.82127,0,0,0
0,0.249852,1,4.10589,0,0,0
0,0.620936,0,3.20806,0,0,0
0,0.798424,0,4.04582,0,0,0
1.08104e+08,175.794,1,2.51266,-11998.2,26487.2,-5577.23
1.08183e+08,120.165,1,2.73227,-18056,-17020.7,-23891.1
1.0823e+08,71.8748,2,2.51324,7910.63,-7077.44,-17924.2
1.08262e+08,13.7046,2,2.38324,-1129.1,-2756.08,-28554.2
1.08398e+08,59.0017,1,3.01557,4148.07,11237.8,-25467.4
1.08619e+08,120.238,1,2.90151,-19123.9,16029.3,-24409.6
1.0862e+08,121.42,1,2.68125,-19033.2,15258.5,-20800.1
1.08693e+08,14.1261,2,2.91875,-782.704,2475.85,-27426.1
1.08707e+08,101.181,2,2.94491,10200.9,-128.302,-17995.3
1.08758e+08,12.1806,2,2.9254,-115.36,-1208.78,-26532.5
1.08882e+08,56.4155,1,2.98025,-5627.63,3761.52,-19058.6
1.09059e+08,123.354,0,2.79972,-20561.7,-9736.07,-16589.9
1.09105e+08,78.2952,1,2.85725,-15285.1,6205.57,-27469.9
1.09329e+08,256.881,1,2.79389,7683.17,-1034.44,3454.74
1.0933e+08,126.752,1,2.78633,-25341.1,7524.23,-26066.1
1.09359e+08,15.338,0,2.84979,59.7471,-2740,-27085.8
1.09417e+08,115.099,2,2.86747,19072.5,1467.32,-14090.5
1.09639e+08,14.3015,2,2.58125,813.814,1540.65,-26417.2
1.1045e+08,52.3028,2,2.86165,-2075.88,2249.76,-27285.3
1.10595e+08,9.06569,1,2.67937,-1728.16,920.376,-29305.2
1.10789e+08,53.2744,0,2.56228,7725.21,-8313.33,-28731.8
1.10904e+08,66.0001,0,2.77932,12441.6,-3191.43,-23354
1.10913e+08,24.2419,1,2.68549,-2442.45,-3643.23,-26246.5
1.11235e+08,33.3226,0,2.95738,2554.34,6445.53,-27552.3
1.119e+08,157.693,1,2.97091,-20756.6,-20355.1,-13072.4
1.11965e+08,237.413,1,2.9636,-54.0751,17219.2,17916.2
1.12047e+08,206.212,0,2.86793,3738.24,-159.951,-29021.5
1.12066e+08,59.1571,0,2.47182,4538.1,3674.4,-17751.5
1.12395e+08,4.01933,2,3.01977,-183.298,-636.815,-28215.9
1.12612e+08,17.1451,1,2.7391,-2633.35,2452.66,-29766.4
1.12664e+08,173.319,0,2.64442,26678.1,10392.1,-14958.9
1.13163e+08,76.1141,2,2.50218,12563.7,3435.47,-19414
1.13265e+08,8.0481,1,2.908,-360.131,1647.6,-28223.8
1.13414e+08,119.541,2,2.97822,18754.7,-333.218,-13294.2
1.13431e+08,29.528,2,3.03657,-2253.51,1583.31,-23288.4
1.13492e+08,22.507,2,2.65833,-1698.37,-1777.38,-24714.3
1.13501e+08,132.544,1,2.44525,-15465.7,6479.49,-6301.09
1.13609e+08,98.5285,1,2.52518,3664.09,-14840.8,-14754
1.1365e+08,75.2144,0,2.55529,-14587,5848.44,-26950.9
1.13783e+08,17.5686,1,2.42974,-3385.53,1767.75,-28947.2
1.14107e+08,130.327,2,2.69987,10319.8,-22109.5,-16136.2
1.14156e+08,174.374,2,2.51193,-13840.5,-4798.79,4987.29
1.14159e+08,63.4239,2,2.41186,10267.2,-6887.86,-23534.2
1.14245e+08,108.764,0,2.65485,6996.63,21759.5,-26959.5
1.14412e+08,59.6328,0,3.0537,1620.86,11416.7,-23923.8
1.14484e+08,62.7362,2,2.81845,6033.76,-2826.02,-17424
1.14643e+08,96.9321,1,2.79623,-4016.36,3454.23,-9110.65
1.14744e+08,50.5899,1,2.38353,3522.38,9192.52,-24441.1
1.14836e+08,138.677,0,2.78255,11637.5,-5400.61,-9636.04
1.15105e+08,73.5591,0,2.51977,1213.53,-13966.1,-22045.3
1.15121e+08,5.14719,0,2.69493,1050.15,-504.276,-28573.4
1.15485e+08,21.5405,1,2.50189,2207.96,3252.02,-26424.3
1.15756e+08,37.397,1,2.75867,-4893.31,722.451,-22666.9
1.15895e+08,16.3332,1,2.65596,-1283.4,269.942,-25604.2
1.15932e+08,38.5511,2,2.45908,4033.34,-5885.49,-24820.8
1.15997e+08,114.026,2,2.54587,13844.7,-4062.99,-9528.89
1.16e+08,6.79285,2,2.62184,-566.098,-1080.06,-27952.3
1.16371e+08,92.3871,1,2.37131,3939.96,-11762.6,-13790
1.16379e+08,121.921,2,2.91316,-24020.7,-8746.92,-26490.2
1.16835e+08,50.522,1,2.62766,-2292.61,-5174.47,-19791.8
1.16837e+08,17.6188,2,2.40982,-1160.24,-3289.03,-27254.6
1.16951e+08,45.659,1,2.80092,-343.276,-875.649,-29615.3
1.17037e+08,50.5296,1,2.45469,-6618.74,2976.84,-20906.7
1.17072e+08,92.432,0,2.49991,9155.94,17213.5,-27153.8
1.17265e+08,138.036,1,2.71153,-22135.7,-17593.8,-21970.3
1.17305e+08,110.274,2,2.50077,-18712.9,-8584.14,-17803.8
1.17432e+08,60.0997,2,2.43808,-12486.8,110.217,-26134.8
1.17519e+08,83.9475,1,2.78305,8069.98,12611,-19349.8
1.17886e+08,26.1661,2,2.39384,-252.708,-1897.09,-23599.4
1.17892e+08,14.7765,2,3.0426,-467.068,-1081.02,-25917.4
1.17937e+08,78.2231,1,2.97142,2865.6,6253.55,-13902.3
1.18082e+08,99.8671,2,2.46252,-1308.83,-15569.8,-21184.5
1.1896e+08,18.2004,0,2.79388,895.409,-3650.61,-27927.1
1.19043e+08,35.6214,1,2.58949,-5224.15,5520.5,-28062.7
1.19605e+08,26.5499,0,2.65238,2789.13,-2885.56,-24886.3
1.19952e+08,13.8612,2,3.05032,2576.04,977.156,-28019.7
1.20042e+08,19.577,1,2.67559,-1008.99,-536.417,-24848.9
1.20196e+08,230.581,1,2.72623,-21215,2156.97,14835.4
1.20243e+08,176.049,1,3.01423,21501,6113.69,507.276
1.20334e+08,56.5358,2,2.7979,8010.71,-3318.33,-20696.2
1.20413e+08,83.9919,2,2.67416,-16564.5,5569.38,-25731.5
1.20779e+08,12.4448,0,2.42375,1831.15,1643.24,-29998
1.20799e+08,4.85737,2,2.55959,-592.211,-620.978,-28152.1
1.209e+08,0.550051,2,2.45537,90.2094,-44.1852,-28758.8
0,0.557295,2,3.03226,0,0,0
1.21517e+08,10.4423,1,2.97115,303.644,-2053.71,-28266.3
1.21661e+08,12.5687,2,2.97694,2236.69,-1396.01,-29248.7
1.21785e+08,153.057,2,2.56246,-627.734,13070.3,-1825.82
1.21832e+08,31.8874,0,2.50572,-2176.07,2744.21,-23077.9
1.21853e+08,27.8717,1,2.71578,-1001.07,-2996.53,-23910.6
1.22049e+08,142.437,1,2.85708,-12328.2,2172.6,-26186.8
1.2209e+08,2.26071,0,2.38059,23.8451,247.865,-28393.8
1.22244e+08,35.1083,1,2.54707,-2767.56,5152.42,-24679.2
1.22303e+08,25.0155,0,2.4349,5002.71,-1381.38,-27399.1
1.22533e+08,45.5,2,2.90849,-1068.35,-6894.46,-22196.9
1.22931e+08,58.228,2,2.69728,9103.53,-7497.53,-25302.7
1.23021e+08,161.1,0,2.44849,-7627.93,1701.35,-9618.82
1.23046e+08,78.355,2,2.77462,-13689.9,-250.762,-27103.6
1.23106e+08,43.2491,2,3.05967,4510.15,-3163.56,-21614
1.23116e+08,144.28,1,2.49891,-10133.4,-7920.32,-1166.18
1.23181e+08,6.49121,0,2.64699,-856.497,984.803,-28584.9
1.23634e+08,33.2436,0,3.03158,4649.62,996.974,-23647.6
1.23652e+08,100.182,1,2.8704,10357.5,-16395.9,-20833.5
1.23993e+08,20.6679,0,3.05896,2049.29,-1394.36,-25219.1
1.24487e+08,8.18024,2,2.51174,-1182.92,-260.449,-27551.5
1.24583e+08,100.619,1,2.36669,-1320.06,-12066.8,-11391.5
1.24713e+08,57.4514,2,2.71742,2540.01,5278.34,-18274.6
1.24726e+08,60.6452,1,2.53716,-6975.49,5396.84,-19440.4
1.25046e+08,11.7477,2,2.42176,-1487.76,36.6943,-26790.5
1.25172e+08,42.3455,0,2.98223,2633.03,-5184.74,-27399.1
1.2534e+08,11.8216,2,3.0447,-1614.44,-2021,-28588.4
1.25513e+08,64.4001,1,3.05142,-5267.88,8170.36,-19380.7
1.25591e+08,85.2694,0,2.71711,11399.6,10787.4,-19931.9
1.25689e+08,15.8391,2,2.46465,1814.91,-2838.07,-28199.7
1.25702e+08,61.7333,1,3.00302,-2814.76,12721.6,-29567.7
1.25777e+08,8.10754,2,2.51799,-1011.45,1021.14,-27896.9
1.25883e+08,61.5875,2,2.42028,5659.67,-7052.6,-24074.6
1.25998e+08,28.4754,1,2.84824,-3716.92,3637.55,-28105.6
1.26285e+08,219.464,2,2.74485,-11141.2,29891.4,4532.08
1.26715e+08,59.5492,0,2.82473,7138.67,-3272.8,-19032
1.26787e+08,100.458,1,2.58202,17976.8,10046.4,-23686.5
1.2685e+08,115.387,0,2.76111,16742.4,3020.68,-11416.7
1.26988e+08,43.355,1,2.78539,-2779.83,6037.79,-22476.6
1.27105e+08,69.4052,1,3.05455,4648.03,-6155.28,-16570.1
1.27222e+08,60.2205,2,2.63287,-3789.84,-794.618,-16707
1.27499e+08,22.3579,0,2.62088,1189.91,-1367.95,-24436
1.27603e+08,32.5745,0,2.49614,6440.9,-2729.19,-28809.5
1.27955e+08,97.9273,2,2.81382,14658.3,2885.3,-14735.4
1.27966e+08,94.3257,1,2.91929,-4134.69,-5351.13,-10246.6
1.28e+08,39.317,2,2.45228,-8194.09,1555.17,-28064
1.28026e+08,83.3999,1,2.66161,-14939.4,9477.63,-29367.1
1.28502e+08,132.071,0,2.50823,-17621.7,-3877.02,-9547.31
1.28641e+08,18.2815,1,2.51319,-2775.69,2773.99,-29406.1
1.28718e+08,97.6618,2,3.03118,-9094.6,-3200.04,-13343.5
1.28755e+08,133.241,0,2.80125,15111.6,-7897.81,-6518.87
1.28777e+08,91.5232,0,2.75822,-2102.71,-18123.8,-22621.8
1.28839e+08,159.808,0,2.84586,17932.7,-7008.59,-1257.89
1.29057e+08,91.3164,2,2.53793,1872.19,-7619.4,-14418.5
1.29494e+08,20.7085,2,3.03123,3661.15,-1911.31,-27388.6
1.29762e+08,76.1717,2,2.43391,-10678,-8262.43,-19923
1.30249e+08,41.1705,2,2.43982,3832.07,-6984.07,-25211.6
1.30271e+08,11.108,2,2.41223,-958.276,-1874.99,-27647.9
1.30533e+08,51.0656,1,2.55386,-9882.77,-2693.09,-25319
1.3055e+08,19.9079,1,2.60997,1426.51,3501.85,-26913.6
1.30585e+08,193.41,2,2.85067,-24467.7,-18241.5,-1895.76
1.30644e+08,13.0412,1,2.54676,-981.45,2656.78,-28492.9
1.30662e+08,61.4659,0,2.89531,10266.1,7585.11,-26349.5
1.30841e+08,103.044,0,2.75797,-586.657,-19516,-19326.1
1.30994e+08,34.8108,0,3.03359,6670.33,-2045.4,-26406.6
1.30995e+08,15.2667,2,2.73609,1630.73,-488.697,-26095.5
0,15.2184,2,2.64142,0,0,0
1.3108e+08,24.5278,0,2.81846,4532.75,-1445.92,-26602.9
1.31162e+08,30.3466,1,2.90825,-3489.55,1784.26,-23733.5
1.31442e+08,74.6263,0,2.47188,10165.4,-10308.4,-22346.4
1.31691e+08,108.355,0,2.52112,-2639.61,-17897.5,-14766.6
1.32465e+08,175.642,1,2.94616,4907.58,17212.5,3419.21
1.32787e+08,229.916,0,2.93261,-9763.88,-8093.57,-23587.1
1.32868e+08,61.1623,1,3.05012,-7906.06,8295.39,-22911.9
1.32964e+08,148.712,1,2.79127,-7738.3,25852,-20266.1
1.32966e+08,29.333,2,2.76339,-27.1083,5855.52,-26987.7
1.32971e+08,213.128,2,2.60182,-28028.4,-8591.21,5356.02
1.33234e+08,209.348,1,2.84902,-4327.88,8269.14,14191.3
1.33299e+08,7.89893,0,2.38274,-369.636,-642.738,-27366.6
1.33474e+08,135.456,0,2.69657,-15272.1,-13493.5,-8910.97
1.33503e+08,215.485,2,2.86291,-17905.9,-5495.06,12425.3
1.34196e+08,9.03136,1,2.96076,-1650.89,975.767,-28278.5
1.3469e+08,93.6686,0,2.45498,-11117.7,117.105,-12460.9
1.34698e+08,66.486,1,2.85965,3792.19,5908.18,-17070.2
1.34722e+08,109.371,2,2.86829,6846.98,-2228.37,-8053.18
1.34935e+08,5.21858,0,2.98341,266.558,-505.093,-27997.1
1.35323e+08,93.2907,2,2.7991,15675.2,285.078,-17064.7
1.35609e+08,86.0162,1,2.8317,8548.38,7268.71,-14608.2
1.357e+08,35.5966,1,2.6781,2343.54,2481.8,-22114.4
1.35765e+08,110.515,0,2.52083,10052,12283.8,-11621.2
1.35942e+08,0.65687,0,2.83832,220.869,77.9839,-28788.2
1.3616e+08,127.175,0,2.94535,-21608.6,-15390.5,-26455.9
1.36205e+08,11.7093,1,2.72501,-1855.13,1403.88,-27771.7
1.3681e+08,26.7376,2,2.61777,3985.7,112.832,-24891.2
1.36825e+08,103.55,1,2.88346,11130.2,3042.5,-10395.9
1.36834e+08,8.15105,1,2.77183,-1764.35,-118.641,-29031.4
1.37278e+08,56.8054,1,2.86965,-2624.64,9770.28,-22392.4
1.37548e+08,115.422,0,3.04937,20179.9,11811.8,-22403.3
1.37581e+08,19.1541,0,3.03785,3757.26,1032.65,-27502.1
1.37986e+08,21.7261,0,2.82149,-2746.84,1332.87,-25457.3
1.38134e+08,21.1547,2,2.51935,2839.29,-761.098,-25448.6
1.38499e+08,156.471,1,2.76253,-2472.26,28133.9,-11717.6
1.38506e+08,129.979,2,2.68196,302.085,17563,-7831.94
1.38633e+08,210.542,2,3.01755,-21439.8,-22619.1,-13417.8
1.3907e+08,94.3944,1,2.60119,-6910.28,-16528.5,-20177.1
1.39151e+08,35.8994,2,2.91964,813.172,7433.16,-28408.3
1.39445e+08,43.5233,0,2.59551,6324.55,6690.97,-27815.9
1.3954e+08,42.6453,2,2.84774,-2202.5,-593.935,-20157.6
1.3967e+08,160.952,1,3.03779,15323.3,11082.5,-10977.1
1.39675e+08,65.868,2,3.05992,5464.45,6482.89,-24411.3
1.39881e+08,110.821,2,2.6439,-20890.7,5903.31,-20090.7
1.39961e+08,42.6262,0,2.61311,314.333,-8572.16,-25977.4
0,42.8263,0,2.69298,0,0,0
1.40433e+08,51.1027,0,2.53027,4207.81,-5877.77,-27645.6
1.40441e+08,12.2896,2,2.50064,-1776.15,1650.68,-27949.9
1.40586e+08,35.5784,1,2.52436,-1116.43,-2451.39,-21822.3
1.40619e+08,127.96,0,2.43274,11567.8,10481.5,-6694.95
1.41164e+08,88.4434,2,2.64052,-8590.28,-15618.5,-22978.4
1.41329e+08,172.901,1,2.96565,9757.76,17119.5,1601.88
1.41757e+08,46.7382,2,2.50541,-3381,-6631.19,-22209.8
1.42063e+08,59.3455,2,2.98227,9134.38,-2745.52,-20848
1.42371e+08,230.068,2,2.44688,15113.9,14857.3,1021.34
1.42452e+08,148.849,0,2.40823,-10453.2,29656.7,-27312.8
1.42472e+08,191.889,1,2.84138,-14435.8,-29650.9,-5665.57
1.42473e+08,79.7539,0,2.70593,1084.11,1591.46,-28102.7
1.4275e+08,60.2618,2,2.76142,436.44,-3352.58,-28941
1.42825e+08,25.7038,2,2.44665,-3611.66,2397.5,-25520
1.4294e+08,7.95397,0,2.94864,1605.95,629.866,-28412.6
1.42953e+08,27.7863,0,3.01238,3510.4,4126.92,-26504.8
1.43003e+08,101.312,1,2.65216,-5715.41,-14705.5,-14436.6
1.44321e+08,75.07,1,2.48377,9773.95,5669.05,-17647.7
1.44459e+08,218.03,0,2.85163,3223.53,22925.4,578.863
1.4456e+08,41.8225,2,2.72028,-3284.82,-4171.31,-21728.6
1.44587e+08,1.40669,2,2.61566,-302.379,-148.462,-28656.2
0,1.39774,2,2.89691,0,0,0
0,1.38242,2,2.56673,0,0,0
1.44756e+08,25.0686,1,2.97463,-2964.47,-302.33,-24451.1
1.4497e+08,136.836,2,2.95413,8090.93,-22640.4,-13034
1.45e+08,40.3492,0,2.90059,3167.62,-6974.35,-25080
1.45207e+08,32.4396,0,2.80028,-2969.01,-3690.46,-23940.6
1.46809e+08,52.4233,0,2.66033,-1323.86,-4328.6,-18739.6
1.46819e+08,60.3569,1,2.81701,-10072.5,7014.3,-25218.8
1.46904e+08,222.923,1,2.70665,-26735.9,-7497.42,6854.08
1.46934e+08,27.8604,0,2.8002,-1619.36,-5388.07,-27162.9
1.4702e+08,46.6139,2,2.81262,-5504.1,-8215.69,-28346.3
1.47068e+08,119.61,2,2.51947,8145.72,8020.97,-6297.17
1.47075e+08,151.381,2,2.64553,-27005.3,-4605.59,-12311.9
1.47189e+08,56.1062,1,3.05061,-6999.92,-6221.66,-21714.9
1.47442e+08,27.1238,2,2.91689,4502.06,-2516.5,-26384.5
1.4754e+08,7.8252,0,3.00389,955.166,-259.384,-27456.7
1.47909e+08,75.054,0,2.9495,8279.85,-5100.13,-16700
1.48074e+08,1.8557,0,2.41228,-49.66,-294.166,-28576.6
1.48133e+08,40.901,2,2.48805,-8619.15,648.543,-27821.1
1.48255e+08,78.79,1,2.42025,746.895,15878.2,-23519.3
1.48262e+08,13.1742,0,2.69559,309.455,2806.09,-28631.9
1.48645e+08,143.946,2,2.43516,3253.84,-23155.9,-9231.55
1.49449e+08,13.6725,2,3.03354,-1558.83,1158.81,-26718.4
1.49634e+08,162.824,0,2.68066,4729.7,-19396.2,-898.981
1.49984e+08,91.0482,0,2.43168,13939.1,7444.58,-17687.5
1.49989e+08,159.291,2,2.38758,-2075.96,-3042.76,-28102.9
1.50046e+08,109.344,0,2.71985,-4763.7,21211.6,-23371.7
1.5011e+08,15.021,1,2.95993,998.644,-2316.68,-27005.5
1.50481e+08,149.114,1,2.82759,655.137,-27524.4,-13962
1.50626e+08,134.086,1,2.51828,21198.6,-6261.78,-11140.7
1.50957e+08,13.6299,0,2.81763,1795.98,-229.235,-26532.5
1.50988e+08,25.7577,1,2.90194,-1265.99,-1707.29,-23847
1.50993e+08,9.81581,0,2.79008,155.968,-1878.66,-29779
1.51001e+08,21.6537,2,2.56944,-981.049,-4189.54,-27004.2
1.51141e+08,71.7212,1,2.45178,4391.8,14596.5,-29192.3
1.51413e+08,77.2949,2,2.90924,2417.56,-15658.1,-24908.9
1.51548e+08,36.3514,0,2.64495,2055.91,-3642.83,-22358.1
1.51668e+08,59.7225,2,2.84653,-8551.87,8145.47,-24535.9
1.51852e+08,71.3612,2,2.87813,2847.21,-14422.8,-25497.5
1.52097e+08,129.154,0,2.86441,12728.6,-7978.97,-6185.92
1.52508e+08,87.1437,1,2.68131,11582.9,11545.6,-20356.5
1.52602e+08,27.3523,2,2.41614,-3054,-3289.88,-25068.4
1.5267e+08,233.908,2,2.83452,26226.6,3884.09,12530.7
1.52735e+08,35.3661,2,2.58221,1948.35,-7121.12,-27178.7
1.52884e+08,111.317,1,2.40592,-22418.6,2675.91,-21865.1
1.5301e+08,211.49,1,2.38833,-29171.7,28311.8,-9976.27
1.53222e+08,108.416,0,2.88899,-4042.64,-18916.8,-16859.6
1.53382e+08,4.60666,0,2.78055,856.579,170.332,-28230.6
1.53438e+08,39.0898,0,2.73803,-5029.71,-662.813,-22385.7
1.53704e+08,41.7332,1,2.71011,8514.32,1714.76,-27416.3
1.53789e+08,19.7098,0,3.04267,2499.67,2833.32,-26992.8
1.53973e+08,105.287,1,2.42261,2958.58,13726.2,-11470.6
1.54025e+08,31.2942,0,2.52163,5701.23,3502.72,-28751.7
1.54303e+08,28.3723,2,3.0145,-2863.95,3344.09,-24842.3
1.54412e+08,75.8927,1,2.48433,11057.6,4157.63,-17947.3
1.54772e+08,16.3602,2,2.93492,1742.91,-184.564,-25869.6
1.54904e+08,144.866,0,3.04535,19427.2,-9794.79,-7634.78
1.54969e+08,102.252,1,2.68615,-5212.45,18307.2,-18535.1
1.55047e+08,53.4687,1,2.73667,-6060.43,3151.08,-19816
1.55256e+08,61.9793,0,2.6385,3366.55,4471.29,-16978.3
1.55259e+08,90.6227,1,2.48651,-6757.21,5567.58,-11742.1
1.55292e+08,82.6951,1,3.05323,-16818.8,2616.99,-25303.5
1.55377e+08,74.373,2,2.61711,-9007.61,9875.52,-20595
1.55442e+08,27.1375,2,2.41904,4162.04,-3989.33,-28234.3
1.55529e+08,32.6435,2,2.71274,1564.49,-6487.29,-26893.6
1.56252e+08,10.2054,0,2.80232,1971.01,1059.41,-28652.8
1.56295e+08,46.1251,0,2.57218,6969.46,6815.02,-29889.9
1.56388e+08,70.6132,2,2.48709,1289.02,7621.62,-16087.4
1.56489e+08,15.6809,0,2.56031,67.2131,-3118.32,-27656.9
1.56544e+08,63.386,1,2.46663,-4854.25,9550.05,-20651.5
1.56649e+08,205.407,0,2.6232,21179.2,15433.7,5738.69
1.56653e+08,14.1908,1,2.85521,1567.11,149.068,-26287.1
1.57299e+08,21.8148,2,2.63413,-1445.09,2052.17,-24964.9
1.57491e+08,9.98955,0,3.03588,460.723,-1255.36,-27168.3
1.57504e+08,8.90758,0,2.81356,568.639,1329.76,-27590.5
1.57523e+08,8.74788,1,2.90719,1453.65,1123.47,-28504.8
1.57771e+08,81.263,0,2.83353,6370.49,-10588.3,-16958.5
1.584e+08,93.8376,2,2.66451,-310.638,-12451.5,-13375.7
1.5878e+08,27.0033,0,2.79327,1962.53,-472.412,-23474
1.58858e+08,40.1974,1,2.91017,-3722.1,139.463,-21222
1.59505e+08,34.5627,1,2.49954,-6638.26,-326.356,-25650
1.59553e+08,45.4906,0,2.56284,2161.07,-7801.49,-23642.8
0,45.2194,2,2.5722,0,0,0
1.5983e+08,297.789,1,2.68443,-23831,-9635.52,14189.9
1.59866e+08,114.501,2,2.65338,13224.9,-4720.58,-9162.6
1.60067e+08,85.0967,2,2.9698,-9582.39,372.896,-13737.1
1.60145e+08,2.47881,0,2.3709,308.681,-248.758,-28426
1.60151e+08,151.171,1,2.98358,5915,446.333,-19379.3
1.60171e+08,7.74936,0,2.57538,-970.412,620.925,-27701.7
0,7.7814,0,2.40809,0,0,0
1.6019e+08,60.7732,0,2.74361,-7128.38,3057.86,-18672.5
1.61153e+08,35.54,1,2.44896,-1368.71,1530.62,-21560.3
1.61262e+08,43.8069,2,2.58438,440.676,-3304.41,-20154.9
1.61499e+08,144.847,2,2.84411,-11111,-8091.24,-3032.37
1.61735e+08,180.166,2,2.90223,21673.4,-8350.9,999.143
1.61753e+08,167.523,2,2.40023,-15015.3,1989.21,3216.55
1.6177e+08,15.2643,2,2.64782,1002.02,-1794.91,-26298.5
1.61963e+08,70.5271,2,2.75801,-2535.27,-13887.7,-23973.3
1.62226e+08,15.785,1,2.83479,1217.67,2833.89,-27421.4
1.62289e+08,149.778,2,2.52953,-17979.3,-25632,-23691.3
1.62344e+08,114.858,1,2.58685,-16536.3,5229.56,-11780.1
1.62619e+08,36.8188,2,3.02576,-1012.22,-7447.44,-26747.4
1.62749e+08,2.4505,2,2.83484,-565.294,-73.129,-28690.8
0,2.44537,2,2.99329,0,0,0
1.62826e+08,14.1835,2,2.73055,-890.594,-675.615,-26007.6
1.62868e+08,16.1798,1,2.44407,-1222.63,1384.48,-25881.6
1.6296e+08,139.619,0,2.53616,1919.08,-22372.8,-9664.56
1.62974e+08,21.9488,0,2.53511,-3582,680.308,-26052.4
1.63395e+08,128.206,0,2.74951,-7433.43,-13837.2,-6894.27
1.63439e+08,159.68,1,2.87745,-5920.33,-29650.7,-14424.8
1.63509e+08,2.57052,0,2.89385,279.116,-497.078,-28615.2
1.63535e+08,11.801,2,2.61148,-143.005,-2583.64,-28543.1
1.6416e+08,254.635,0,2.69956,-15084.1,-15896.3,20140.2
1.64262e+08,11.864,2,3.01428,-2097.77,-48.6705,-27377.8
1.64269e+08,142.175,0,3.00843,8093.24,-22364.3,-10833.7
1.64292e+08,38.3356,2,2.7847,-3031.51,4309.5,-22746.9
1.64394e+08,78.2545,0,2.77206,8489.49,13968.7,-26426
1.6505e+08,124.51,0,2.71922,-6069.45,-24760.7,-22656.9
1.65256e+08,2.95057,2,2.75678,193.333,414.817,-28489.1
1.65289e+08,50.8378,1,2.87112,7741.16,684.571,-21493.5
1.65673e+08,12.9379,0,2.92043,74.5584,2110.1,-27102.9
1.65722e+08,88.0083,2,2.53614,-6348.08,-6562.81,-12578.5
1.65945e+08,208.013,1,2.63777,-3336.27,15841.9,12002.1
1.6633e+08,5.20834,2,2.84882,213.014,-1127.17,-28506
1.66337e+08,6.8947,2,2.6885,-552.655,-410.542,-27498.1
1.66783e+08,11.2417,1,2.50062,-2080.8,-522.285,-27721.4
1.66932e+08,17.5994,1,2.66796,738.637,3667.59,-29444.2
1.67185e+08,17.0006,2,2.68279,-20.8272,-3198.54,-27037.1
1.67551e+08,18.0869,1,2.68043,-1476.63,1900.03,-25780.8
1.67607e+08,113.916,1,2.99815,6198.21,-20920.8,-19297
1.68086e+08,58.4592,1,2.59851,-11544.1,3841.63,-26245.3
1.68269e+08,92.7963,1,3.00409,-14177.5,-8697.76,-18715.9
1.68331e+08,9.03307,1,2.68345,-1363.39,1392.01,-28467.6
1.68409e+08,88.9294,2,2.95371,-3810.69,-17974.4,-25030.7
1.68482e+08,19.0985,0,2.90411,442.821,-3751,-27394.2
1.68659e+08,20.1805,1,2.48678,-1328.14,4138.84,-29367.5
1.6877e+08,16.9237,0,2.98461,2956.17,-724.61,-26876
1.68875e+08,135.826,1,2.83166,-24546.3,-1953.53,-14278.1
1.69197e+08,242.384,1,2.96986,29062.4,9903.34,6330.84
1.69264e+08,15.9046,1,2.59917,-3040.84,1333.08,-27949.2
1.69584e+08,95.9677,2,2.61173,-9970.46,10986.1,-15029.7
1.69901e+08,68.6866,2,2.55424,-10948.8,8846.29,-25205.6
1.70409e+08,74.2432,2,2.54765,4521.21,-11311.3,-18879
1.70508e+08,205.037,2,2.93512,25718.1,19077.2,-176.694
1.7057e+08,70.5124,0,2.61463,4173.81,7042.25,-16364.5
1.70737e+08,7.01534,1,2.40602,705.067,1384.83,-28635.1
1.70837e+08,73.356,0,2.80116,11758.2,6029,-20745.9
1.71316e+08,3.93351,1,2.58597,-345.705,-733.644,-28728.2
1.7157e+08,60.6747,1,2.51743,6482.78,6980.25,-20175.6
1.71677e+08,1.07916,1,2.97148,-184.813,184.173,-28665.1
1.72664e+08,84.7584,0,2.5906,-2934.66,9370.28,-13868.6
1.72678e+08,40.1248,0,2.88612,-589.37,3354.72,-21106.4
1.72861e+08,104.618,1,2.92823,13702.7,11238.4,-15872.9
1.73156e+08,22.9329,2,3.00925,1525.07,-4515.44,-27714.5
1.73664e+08,24.3898,0,2.6408,3612.38,3759.45,-28420.2
1.73871e+08,87.6588,1,2.85957,-4513.01,16445.8,-21614.3
1.74001e+08,120.165,2,2.41789,-11490.8,-15771.8,-12415.9
1.74189e+08,197.015,1,2.87176,9905.25,11749,-4660.23
1.74482e+08,8.25026,1,2.72665,-1197.13,1143.7,-28131.1
1.74508e+08,68.7241,1,2.52401,-1756.08,11842,-24589.6
1.74781e+08,49.926,1,2.36789,5998.34,8576.77,-26934.9
1.75005e+08,12.6921,2,2.77706,-2539.38,-965.039,-28467.9
1.75015e+08,124.664,2,2.85896,-18273.1,-15076.7,-17444.1
1.75353e+08,85.5634,2,2.3811,-601.199,-12196.7,-15382.8
1.75353e+08,38.4496,1,2.95985,-1969.24,-950.653,-21045.6
1.75445e+08,56.0964,1,2.94511,1394.41,7106.35,-19491.8
1.75458e+08,79.7845,1,2.9747,5680.07,4668.76,-25512.4
1.75476e+08,36.9133,0,2.66263,6000.64,353.259,-23777.2
1.76009e+08,0.177619,0,2.22082,151.552,-24.3088,-28825.7
0,0.178064,0,2.43539,0,0,0
0,0.177347,0,3.55248,0,0,0
0,0.178403,0,3.82635,0,0,0
0,0.239906,0,2.31604,0,0,0
0,0.17771,0,2.91502,0,0,0
0,0.220836,0,2.50259,0,0,0
0,0.181012,0,3.39018,0,0,0
0,0.192669,0,2.10741,0,0,0
0,0.175769,0,3.32831,0,0,0
0,0.220879,0,4.05466,0,0,0
1.76177e+08,38.4569,2,3.02245,-6339.91,3526.29,-25279
1.76221e+08,23.3681,1,2.69809,-3059.73,-1555.15,-25269.9
1.76356e+08,11.2836,1,2.80964,-2264.32,-482.334,-28211.8
1.76631e+08,33.5454,2,2.60692,5351.8,1726.17,-24561.2
1.76637e+08,297.792,0,2.74484,24835.2,7446.41,-1140.3
1.76849e+08,330.892,0,3.01093,-21198.8,1425.3,-21920.9
1.77052e+08,39.5722,0,3.05173,3234.27,-7631.52,-27832
1.77091e+08,15.3619,0,2.93136,-969.443,-952.811,-25921.5
1.77188e+08,63.4768,0,2.37511,2744.26,4261.09,-16377.4
1.77303e+08,27.2315,0,2.52528,3254.4,1996.66,-24458.7
1.77342e+08,201.789,0,2.697,12855.1,25465.4,2750.03
1.78016e+08,21.8223,0,2.90346,3674.09,1819.31,-26580.7
1.78156e+08,8.69492,0,2.78696,1282.17,-89.1628,-27432.5
1.78244e+08,28.9488,1,2.77597,-2194.1,-2709.23,-23861.2
1.78255e+08,170.428,0,2.44413,7926.8,-5073.58,5966.66
1.78428e+08,54.9918,0,2.72566,-5099.63,6736.66,-20926
1.7861e+08,39.8526,0,3.03999,-583.002,3425.77,-21221.9
1.78705e+08,77.5806,2,2.50342,-11392.9,4795.3,-18037.8
1.78716e+08,5.38019,2,2.72909,-868.262,-630.983,-28234.1
0,5.42566,2,3.00547,0,0,0
1.78725e+08,45.1118,0,3.0349,746.354,-9215.77,-26694.4
1.78785e+08,88.1102,2,2.55275,11247.7,-10662.2,-18458.5
1.78825e+08,147.256,2,2.82434,24347,-18280.1,-23017.6
1.78847e+08,64.7903,1,2.65872,6729.25,5684.9,-18347.5
1.7889e+08,19.4463,2,3.03312,2072.61,-2132.85,-26000
1.7906e+08,36.9431,2,2.98421,5789.66,-1828.83,-24013.1
1.793e+08,58.2054,1,3.03507,-7430.26,2329.33,-19397.9
1.7956e+08,106.026,2,3.01102,-13324.4,-17797.8,-26781.4
1.79599e+08,88.6583,2,2.49519,-17212.7,5503.96,-23724
1.79865e+08,17.5971,0,2.57264,367.24,-834.365,-25206.2
1.79944e+08,42.6837,0,2.59912,5688.32,-1322.54,-21900
1.79946e+08,37.6985,1,2.78692,-2808.98,4071.76,-22560.9
0,37.6034,1,2.78468,0,0,0
1.80066e+08,8.70227,2,2.76442,14.6619,-1369.26,-27504.6
1.80276e+08,86.3433,1,2.85792,-3616.72,16348,-21689.9
1.8069e+08,21.4912,2,2.72238,45.5926,-3278.66,-25629.6
1.81162e+08,122.544,2,2.71898,12288.3,-10761.9,-16633.8
1.81213e+08,46.0576,2,2.57864,-2948.98,-9238.67,-27133.4
1.81249e+08,24.6553,0,2.92622,4898.87,-88.3983,-26886.2
1.81387e+08,36.1324,0,2.56869,-1630.61,5548.97,-24080.8
1.814e+08,196.052,0,2.58503,803.353,-5330.29,3944.47
1.81419e+08,24.3005,0,2.83002,4138.93,3062.27,-28136.2
1.8145e+08,24.9135,1,2.47322,4401.56,-1146.1,-26233.2
1.81656e+08,80.5514,2,2.86395,-15034.4,7793.25,-29562.7
1.81687e+08,33.1182,0,2.89253,880.381,687.802,-28196.8
1.81758e+08,28.3066,2,2.77784,-2447.75,-5163.39,-26812.1
1.82169e+08,52.8411,1,3.03172,5259.46,-11.9917,-19097.2
1.8223e+08,220.673,0,2.99408,9175.07,-539.232,5902.87
1.82314e+08,53.8513,0,2.65023,9341.22,-184.188,-22213
1.82351e+08,40.75,2,2.42566,-1784.12,-8059.53,-26051.7
1.82907e+08,1.75766,0,2.37739,-70.2642,-42.4494,-28470.2
1.83017e+08,65.4451,0,2.96111,-9402.4,-7267.92,-22084.6
1.83302e+08,120.107,2,2.5372,-11926.4,-6141.84,-7228.59
1.83613e+08,210.171,0,2.47627,18916.3,19768.9,6221.79
1.83658e+08,155.592,2,2.41907,10200.4,-15755.3,-1758.5
1.83907e+08,110.27,0,2.47563,-20003,-10778.5,-23928
1.84434e+08,47.8834,2,2.99921,4176.21,-2540.77,-20042
1.8463e+08,39.3712,2,2.75334,-6089.57,-3245.45,-24095.9
1.84843e+08,77.9109,2,2.75326,-14594.9,-6563.7,-24854.6
1.8502e+08,60.5542,0,2.9406,1357.19,-4136.76,-16864.4
1.85133e+08,5.48637,1,2.81968,-1171.53,460.535,-28839.8
1.8546e+08,4.2328,2,2.73343,656.004,-502.901,-28427.9
1.85591e+08,0.525862,2,2.68911,-76.4851,-177.113,-28793.4
0,0.516313,2,2.91029,0,0,0
1.8622e+08,123.613,2,2.51447,-14627.3,-7081.03,-8326.29
1.8623e+08,175.921,1,2.61509,-21140.2,-23252.6,-9065.23
1.86262e+08,18.8582,0,2.71331,3243.45,-712.584,-26496.3
1.86284e+08,46.0634,0,2.9416,9644.98,-1236.18,-29714.1
1.86342e+08,28.1715,2,2.83693,1769.15,-1934.11,-23504.7
1.86442e+08,53.6497,2,2.60085,9327.23,2971.43,-23733.9
1.86773e+08,47.3931,2,2.55719,1275.76,-7347.65,-28483.3
1.86846e+08,24.1083,0,3.03309,4443.67,332.123,-26260.2
1.87604e+08,71.8059,1,2.43528,-9192.31,11127.6,-23847.2
1.87786e+08,22.1947,1,2.8231,-3185.79,2553.36,-26398.6
1.88068e+08,140.721,0,2.59118,-6009.48,-18602.3,-6448.44
1.881e+08,126.903,0,2.71689,713.439,15516.2,-7053.98
1.88219e+08,198.833,0,2.64619,5560.04,12242.1,10917.7
1.8834e+08,104.814,0,2.4366,-9416.75,-9339.43,-11091.2
1.8841e+08,51.0232,0,2.88162,7033.05,-5790.32,-23035.2
1.88651e+08,45.5352,0,2.87906,8013.74,5251.35,-27616.4
1.88693e+08,3.70563,1,2.89013,-465.11,748.617,-28712.6
1.88694e+08,24.8941,1,2.48031,-4054.78,-3344.97,-29013.5
1.88745e+08,56.3181,0,2.54115,10416.1,1613.65,-23094
1.88757e+08,10.4115,0,3.03568,1955.64,936.983,-28117.7
1.88944e+08,122.182,0,2.95263,-11137.7,-10681.9,-20998.2
1.88989e+08,70.7729,1,2.7551,-5092.77,-11087.9,-20304.8
1.89129e+08,67.311,2,2.64469,-12932.3,4887.99,-25374.6
1.89373e+08,19.0693,1,2.73319,3.15621,3598.32,-26872.2
1.89949e+08,90.5742,2,2.6984,4812.95,-6407.85,-11475.1
1.9005e+08,185.282,2,2.70367,-27513.3,-6029.33,-1719.09
1.90396e+08,21.3569,0,2.963,59.8541,3859.26,-26518.8
1.90447e+08,1.19858,2,3.04998,-294.887,-196.841,-28769.9
0,1.24327,2,2.49292,0,0,0
1.9047e+08,113.899,2,3.05527,-7720.31,-20102.8,-18408.5
1.90553e+08,122.138,0,2.43315,166.174,25846.2,-29243.4
1.90596e+08,119.889,0,3.03636,20411.5,9586.46,-17615.3
1.91341e+08,168.988,1,2.76732,-13611.2,-25353.2,-7998.67
1.91352e+08,69.3436,1,2.68644,-997.481,12999.2,-22020.4
1.91691e+08,105.507,2,2.84876,-11403.6,-11105.9,-13314.4
1.91691e+08,27.8057,2,2.96372,-2115.94,2201.73,-23846.1
1.91696e+08,5.23623,0,2.77329,1073.96,-529.213,-29042.7
1.91798e+08,37.2185,0,2.87351,1147.33,-4003.07,-22173.1
1.92022e+08,14.356,2,2.65104,-1149.41,-181.376,-26001.4
1.92602e+08,80.2385,1,2.89225,-5175.02,10151.7,-16330.6
1.92632e+08,217.337,0,3.03728,787.816,4706.04,-25449.8
1.92836e+08,3.34731,2,3.04712,-474.674,-273.63,-28294.3
1.93113e+08,58.9331,0,2.73872,-1432.51,-7010.61,-18675.7
1.93255e+08,64.8263,0,3.00832,6216.76,-12135.7,-29129.2
1.93375e+08,47.1685,0,2.37484,538.479,-9619.35,-26125.7
1.93377e+08,16.238,2,2.88961,-357.141,-2828.02,-26814.6
1.93917e+08,36.0952,2,2.46813,974.695,6572.98,-25161.8
1.94216e+08,12.7756,2,2.95124,-1906.94,-1368.09,-27378.2
1.94698e+08,12.1918,1,2.81742,667.689,-1794.98,-27173.9
1.94786e+08,105.783,1,2.52039,-2410.23,17056.6,-14475.9
1.94787e+08,15.0685,2,2.9591,-2274.4,2200.29,-28511.5
1.95278e+08,108.662,2,2.42416,14474.8,-6533.62,-12193.8
1.95556e+08,8.77515,2,2.84421,271.514,1453.37,-27789
1.95834e+08,121.156,0,2.80075,1718.07,12422.8,-18042.1
1.96018e+08,107.056,1,2.37866,-10100.6,11378.8,-11966
1.97613e+08,91.7387,0,2.97961,-9375.06,-15689.1,-22881.2
1.97711e+08,152.959,0,2.79848,12927.2,20939,-8016.53
1.9773e+08,61.25,0,2.86099,-1913.08,6826.91,-20456.7
1.97919e+08,174.836,1,2.60055,-13508.2,11717.3,3517.93
1.98454e+08,38.9532,2,2.77788,-3892.38,7051.28,-27338.3
1.98783e+08,135.527,2,2.98029,-15828.3,2995.04,-5388.59
1.98946e+08,21.2116,1,2.37365,-3365.16,3103.88,-28901.4
1.99133e+08,12.7575,2,2.63419,-1999.1,-1280.9,-27448.7
1.99136e+08,12.3711,2,2.97596,-2545.65,-15.1945,-29638.8
1.9915e+08,166.441,0,2.55296,14169.1,13257.1,551.351
1.99277e+08,36.1144,0,2.58377,-2033.69,3523.11,-22380.1
1.99367e+08,186.478,1,2.71062,-28450.4,26508.8,-22710.4
1.99617e+08,134.624,2,2.96759,-133.537,-26636.8,-19242
1.99642e+08,134.485,1,2.55864,-27749.5,6338.39,-28801.7
2.00075e+08,66.4198,2,2.9811,1599.75,-13750.7,-28502.8
2.00695e+08,192.626,2,2.95826,-14520,12753,6638.93
2.01321e+08,11.1921,0,2.94503,874.264,2016.15,-27914.8
2.01455e+08,50.325,2,3.01323,4594.83,-8862.33,-25221.7
2.01609e+08,8.52365,0,2.97343,484.289,-226.856,-27087.1
2.01663e+08,113.491,2,2.79211,14158.3,-14540.2,-16221.4
2.01988e+08,14.69,0,2.64723,2254.73,-344.245,-26627.4
2.02068e+08,45.6187,0,2.62159,4266.53,517.242,-20163.8
2.02174e+08,75.5407,0,2.44671,9588.13,5140.96,-17041.7
2.02429e+08,48.5802,0,2.46898,3113.22,9293.7,-25689.2
2.02448e+08,173.521,0,2.69267,28097.5,-15448.9,-11643.3
2.02549e+08,40.6141,1,2.52735,-5810.88,2121.8,-22814.1
2.02613e+08,110.849,1,2.98426,-8208.08,17795.9,-16220.5
2.03136e+08,72.758,1,3.03037,-9124.46,-2596.49,-16865.8
2.03171e+08,34.9373,1,2.60248,873.76,6465.29,-25243.9
2.03284e+08,45.4131,0,2.8617,7437.18,6054.63,-28025.8
2.03438e+08,189.516,0,2.72214,16494.9,-15573.3,4002.76
2.03652e+08,11.4942,0,2.58723,50.7515,-2089.46,-27537
2.03676e+08,38.0323,0,2.74531,486.357,-7966.4,-27851.4
2.03855e+08,23.7348,2,2.57267,-997.956,-4471.48,-26586.2
2.03985e+08,90.2132,0,2.61998,4249.86,-14260.6,-16883.8
2.04022e+08,9.72433,0,2.52273,1551.72,-1139.67,-27918.9
2.04092e+08,254.667,1,2.77555,-12388.3,-28214.3,15008.1
2.04224e+08,183.094,1,2.78919,12224.6,11561.5,-11435.3
2.0424e+08,58.6006,1,2.78387,-5415.08,10794.9,-26010.4
2.04443e+08,64.2576,2,2.85784,4383.3,-12477.9,-26221
2.04457e+08,146.294,1,2.80954,130.164,16485.4,-2812.41
2.04469e+08,173.764,1,2.53783,-9265.34,-13575.7,3990.2
2.04655e+08,227.231,2,2.85892,-25383,4635.61,-6435.76
2.04972e+08,76.0632,0,2.76249,2915.01,14774,-25870.2
2.0506e+08,33.3518,2,2.54959,-5202.46,-4918.93,-28601.9
2.05082e+08,270.932,2,2.96037,7017.77,-21745.6,23185.5
2.05387e+08,50.3122,1,2.75829,-1874.59,9770.77,-24929.1
2.05684e+08,59.4981,1,2.96324,7008.59,-3110.81,-19014
2.05897e+08,43.2496,2,2.39264,-8710.63,-526.386,-25927.8
2.05918e+08,46.784,2,2.96983,-6758.2,2695.38,-22262.7
2.05951e+08,99.6858,0,2.58421,7243.45,-2112.39,-9129.78
2.06053e+08,168.212,0,2.88523,23016.3,10819.1,-4251.49
2.06078e+08,8.10851,0,2.4258,1118.46,364.674,-27497.8
2.06134e+08,143.789,2,2.47055,-17722.7,23195.9,-20343.5
2.06147e+08,25.3162,0,2.82127,-968.965,2927.8,-24501.1
2.06231e+08,100.354,2,2.45028,5779.85,-11058.8,-11608.3
2.0632e+08,8.17091,0,2.87356,555.626,1209.19,-27665.3
2.06325e+08,191.417,0,3.01756,29446.6,-3225.72,-1723.72
2.06653e+08,73.1618,1,2.71229,-10958.1,6695.2,-20193.9
2.07255e+08,135.758,0,2.52518,-13996.5,-24684.2,-24760.3
2.07417e+08,29.425,2,2.97643,-2743.28,-5587.62,-28227.2
2.07558e+08,73.0789,2,2.7909,-1256.94,-15373.4,-28002.2
2.07673e+08,66.2711,0,2.76707,-28.9473,-11282.6,-20593.8
2.07745e+08,33.3306,1,2.77341,6248.11,2986.44,-27629.1
0,32.8155,0,2.63658,0,0,0
2.08426e+08,46.1813,0,2.80405,-4558.43,-5098.99,-22001.1
2.08437e+08,0.374842,2,3.10168,-121.717,17.8083,-28807.1
0,0.488719,2,2.07111,0,0,0
0,0.387793,2,2.61737,0,0,0
0,0.467397,2,3.18432,0,0,0
2.0844e+08,62.0828,0,2.73177,11376.7,2999.2,-22940.9
2.08481e+08,156.391,1,2.9631,13109.3,16093.1,-3394.17
2.08576e+08,6.07218,2,3.01918,-42.6622,-479.407,-28725.3
2.09167e+08,41.5534,0,2.66148,-5504.82,-2185.15,-22425.8
2.0948e+08,196.645,1,2.43039,-6372.7,21873.2,6027.91
2.09481e+08,37.267,0,2.87617,-4707.05,3876.76,-23976.1
2.09527e+08,23.2336,1,2.80744,4453.83,1950.78,-28364.6
2.10096e+08,10.497,2,2.47278,-606.409,-932.56,-26854.2
2.10348e+08,30.1041,0,2.93293,5674.81,2938.19,-28218.8
2.10436e+08,96.7579,2,2.54054,-13045.3,15695.4,-27470.3
2.11162e+08,23.3506,0,3.00215,-1926.9,4467.7,-29315.9
2.11174e+08,27.206,2,2.80769,-3187.23,-2767.19,-24894.6
2.11187e+08,52.966,0,2.8051,1560.81,-8407.14,-21629.2
2.11649e+08,16.3844,2,2.75046,-1167.29,-1053.65,-25705.6
2.11711e+08,162.24,0,2.46594,1522.1,-13539,2669.52
2.11823e+08,50.9611,2,2.625,1716.79,9170.64,-23563.5
2.11881e+08,8.2874,1,2.66348,-1138.08,875.795,-27716.1
2.11984e+08,17.8348,1,3.02179,-3727.45,143.384,-28124.3
2.12094e+08,90.573,0,2.70188,-3751.49,7165.61,-11548.3
2.12126e+08,113.562,2,2.86271,-21350.3,-10290.1,-25308.7
2.12142e+08,14.3214,1,2.41019,-902.35,2872.83,-27948.5
2.12336e+08,27.908,1,2.89803,-4879.36,3372.72,-28248.2
2.12364e+08,81.7795,2,2.72396,-12029.6,2323.12,-16666.8
2.12396e+08,62.075,0,3.02769,12098.5,-3440.26,-25139.8
2.12659e+08,61.0613,0,2.41568,4437.18,3991.16,-17343.4
2.127e+08,16.9895,0,2.7364,1001.12,2001.05,-26014
2.12836e+08,144.707,0,2.65259,9125.3,20534.5,-8152.83
2.12889e+08,124.798,0,2.97872,1765.27,6286.23,-3479.03
2.13091e+08,43.719,1,3.01328,-6756.3,-945.424,-22689.2
2.1317e+08,136.607,0,2.99205,11462.5,-2121.69,-14332.2
2.13444e+08,36.5348,2,2.9183,-960.658,-4237.24,-22455.1
2.13703e+08,12.0906,0,3.04129,2413.77,293.919,-27806
2.14497e+08,46.9315,1,2.71498,-9404.45,-324.603,-25573.5
2.14636e+08,84.5621,2,3.01791,-5936.66,-1619.59,-12185.1
2.14675e+08,367.283,0,2.89816,19798.6,22627.5,-15934.1
2.14743e+08,68.1028,2,2.60888,-2802.54,-2523.34,-14934.3
2.14941e+08,40.0965,2,2.55463,959.599,-7202.55,-24343.1
2.14977e+08,22.5907,1,2.6022,3262.06,1029.12,-25503.6
2.15202e+08,85.539,1,2.99963,-1340.09,9970.84,-13941
2.15352e+08,149.593,2,3.04902,1064.94,-14837.8,-1219.73
2.15431e+08,70.8938,1,2.64697,-7439.98,12413.4,-24670.1
2.15532e+08,47.8945,2,2.87696,-4051.73,-8522.55,-25135.2
2.15717e+08,146.998,0,2.397,-4952.35,-28015.8,-16293.7
2.15904e+08,80.4583,1,3.04479,3962.36,8026.96,-14519.4
2.15983e+08,13.8241,0,2.96002,-1339.44,-820.801,-26427.1
2.16257e+08,5.35253,0,2.81029,-681.232,-477.919,-28097.8
2.16473e+08,306.501,1,2.86154,23337.8,-19364.5,27942.7
2.16512e+08,121.872,1,2.74752,3375.15,3445.08,-3636.95
2.16992e+08,4.69195,0,2.36612,1008.88,-346.149,-28691.5
2.17085e+08,158.298,0,2.80945,20317.6,-5784.57,-3055.19
2.17098e+08,7.28024,0,2.96763,398.912,-1302.47,-28076.9
2.17224e+08,274.269,0,2.58958,-15923.5,29613,18285.3
2.1733e+08,69.4939,1,2.54437,6837.15,3642.16,-16357.7
2.17369e+08,221.254,1,2.42194,-21791.1,17452.7,8787.27
2.17582e+08,71.4133,2,2.82313,-12864.6,95.4852,-20997.5
2.17658e+08,73.4935,1,2.80896,-11915,3658.89,-19598.1
2.17923e+08,23.2806,1,2.505,-1794.53,-3506.85,-25944.1
2.17966e+08,7.76831,2,2.47317,1509.22,-486.88,-29303.2
2.18084e+08,23.2675,0,2.80347,-165.826,4333.5,-26495.7
2.18242e+08,204.933,2,2.85182,4299.73,14974.9,-2439.77
2.18555e+08,29.5243,2,2.413,2512.26,-3511.12,-24256.5
2.18939e+08,62.1888,1,2.37891,3028.92,12869.5,-29723.1
2.19244e+08,151.475,1,2.94262,-15114.1,28083.4,-28730.2
2.19473e+08,101.061,1,2.44861,-11532.7,12863.8,-16125.9
2.19929e+08,186.781,0,2.6626,-1892.18,-15337.1,7358.44
2.1996e+08,19.007,0,2.74068,3856.89,-647.217,-27623.3
2.2019e+08,75.9173,2,2.48043,-7874.64,240.653,-14819.7
2.20306e+08,26.9203,2,2.53998,3405.53,-3430.94,-25740.2
2.20849e+08,11.9832,2,2.779,-1852,-733.568,-27167
2.21025e+08,71.7845,2,2.85773,-7393.43,6975.83,-17694.8
2.21519e+08,12.2706,1,2.83184,-2325.56,1112.01,-28139.3
2.21573e+08,94.4984,2,2.92983,-18751.6,-6697.33,-28131.7
2.21627e+08,48.3274,0,2.51238,-5623.65,806.703,-20367
2.21677e+08,36.7745,1,2.42033,7102.45,-3039.87,-28566.7
2.21695e+08,3.89964,0,2.51428,-716.281,-40.2258,-28560.1
2.21787e+08,26.6699,1,2.57273,4394.96,-675.19,-25393.8
2.22195e+08,109.084,1,2.7408,17835.9,-6012.18,-15959.1
2.22433e+08,138.384,0,2.43039,-18796.3,945.044,-6474.65
2.22712e+08,21.0018,1,2.98186,2637.28,1690.75,-25722.6
2.23013e+08,74.5739,0,2.47899,1161.96,-6255.78,-14381.2
2.23112e+08,89.4454,1,2.3943,2320.78,17390.1,-21504.9
2.23416e+08,47.7967,1,2.83812,-6879.19,111.967,-21463.3
0,47.7029,1,2.77861,0,0,0
2.23538e+08,0.593864,0,2.84763,247.132,32.7708,-28857.1
2.23645e+08,85.327,0,2.87991,-7158.64,8513.16,-28709.9
2.23668e+08,25.687,1,2.54392,3821.84,3045.65,-26390
2.23894e+08,8.24634,0,2.63606,1046.86,3.55449,-27358.2
2.23964e+08,59.8873,0,2.64075,-445.924,-12308.8,-25960.7
2.24237e+08,78.4886,0,2.85314,3052.63,8283.6,-14878.5
2.24296e+08,71.4454,0,2.87091,10302.2,-6690.24,-20088.5
2.2457e+08,19.749,2,2.47014,3747.9,1054.68,-27407.6
2.24624e+08,9.57513,0,2.39277,601.339,-1960.33,-28534.1
2.25057e+08,208.328,2,2.69209,-14251.3,-16210,9454.15
2.25138e+08,61.7611,1,3.03464,-4628.62,5084.47,-17823.4
2.25216e+08,57.0866,1,2.8852,-10823.3,3809.49,-25183.2
2.25448e+08,3.42299,2,2.9331,-659.576,256.239,-28622.7
2.25614e+08,94.045,1,2.5541,13497.9,8870.39,-17200.2
2.26352e+08,24.8959,1,2.4849,-5134.77,-1095.82,-29617.3
2.2642e+08,117.745,1,2.62111,-21846.1,10292.9,-22571.4
2.26539e+08,37.2686,1,2.3896,4446.73,847.474,-22389.4
2.26711e+08,1.77958,1,2.55861,239.154,159.399,-28548.1
2.26914e+08,137.866,2,2.85428,-10455.5,-7971.47,-2977.98
2.27195e+08,53.079,0,2.63472,9192.11,-4984.21,-24568.1
2.27874e+08,20.0149,2,3.04368,1004.38,-2016.72,-25250.7
2.28297e+08,23.6897,2,2.91724,-1269.9,4547.89,-27326.7
2.28371e+08,67.1596,1,2.61189,2241.1,10557.5,-19537.5
2.2878e+08,26.324,2,2.97405,-396.207,-4728.73,-25885.3
2.29317e+08,170.97,1,2.55174,14259.2,-18606.6,-1648.8
2.29366e+08,483.114,1,2.75771,-8103.55,17852.6,-23741.5
2.29477e+08,98.1743,2,2.76393,-6399.65,17913.6,-20849
2.29515e+08,37.4364,2,2.64318,565.333,-4189.83,-29106
2.29734e+08,135.706,2,2.72221,-1488.33,-13351.5,-14345.2
2.29773e+08,123.679,1,2.76077,-10145.1,10593.3,-7251.5
2.29846e+08,169.069,1,2.9296,-12819.7,5392.41,-28205.2
2.29903e+08,1.31111,1,3.03463,161.34,130.665,-28609.8
2.29946e+08,7.25717,2,2.97623,-1568.19,242.509,-28688.7
0,7.26044,2,2.42688,0,0,0
2.30022e+08,297.062,2,3.03745,-1106.79,712.522,-11702.1
2.30448e+08,179.024,0,2.42299,-14483.4,-27220.9,-6860.19
2.30621e+08,31.2569,1,2.66506,-2939.86,1831.58,-23170
2.30772e+08,24.8105,0,2.74991,4119.96,-2435.1,-26559.6
2.3104e+08,116.359,2,2.61229,16291.6,13118.5,-16036.2
2.31077e+08,59.6155,2,2.81759,-7324.52,-10296.3,-28273.3
2.31341e+08,7.04392,1,3.00326,-657.273,888.712,-27771.5
2.31841e+08,61.6942,1,2.47286,-6280.57,-332.575,-17367.3
2.31889e+08,65.8572,0,2.48081,4715.17,12437.4,-26296.7
2.3228e+08,88.2244,2,2.7005,-771.813,-5899.45,-11192.6
2.33106e+08,72.4376,1,2.9244,-10749.1,-135.37,-18034.6
2.33255e+08,116.935,1,2.65603,15893.7,4824.54,-10585.7
2.33688e+08,72.8931,2,2.79194,-14648.7,-4381.28,-26734.1
2.33796e+08,107.72,1,3.03231,-17918.3,-1723.4,-15194.4
2.34219e+08,62.8592,1,2.61732,-2820.21,11729.3,-23084.6
2.34697e+08,26.0939,0,2.98835,5417.58,-1107.71,-28057.7
2.34744e+08,31.8549,1,2.65686,-3503.66,-5719.92,-28753.6
2.34812e+08,3.93854,2,2.97316,-388.066,678.183,-28632.5
2.3487e+08,273.071,1,2.64489,526.658,4980.39,-21903.8
2.34919e+08,125.813,1,2.96091,10865,15014,-10017.1
2.35022e+08,91.334,0,2.61259,-2068.33,-6696.13,-10868.9
2.35122e+08,90.2421,0,2.40325,12981.1,-4132.54,-15361.9
2.3541e+08,47.4521,2,2.99068,-2224.3,-1214.46,-29692
2.35473e+08,78.6616,1,2.41471,15012.2,-5687.76,-24571.2
2.35582e+08,195.128,0,2.80439,19449.3,-4461.26,3999.3
2.35681e+08,82.1044,0,2.57869,-7673.36,-10630.5,-17489.8
2.35864e+08,9.83657,2,2.99255,749.74,-237.116,-26911.2
2.35917e+08,42.7058,2,2.53962,-5660.74,4907.72,-23768.7
2.35971e+08,99.4804,2,2.53584,-16147.7,-3669.37,-15773.5
2.36206e+08,84.2337,0,2.5977,6221.01,15609.8,-22863
2.36266e+08,140.962,1,2.81925,-851.909,23796.9,-29182.4
2.36411e+08,1.01204,1,2.84126,81.7324,206.303,-28687.2
0,1.10968,1,3.01539,0,0,0
2.3647e+08,33.8408,1,2.45626,3518.25,-5009.6,-25241.8
2.37046e+08,67.2402,2,2.73123,9857.18,-5915.49,-20514.5
2.37083e+08,15.0708,1,2.53155,-3233.66,473.235,-29047.7
2.3712e+08,139.643,2,2.89044,-22329.9,10996.9,-13279.5
2.37183e+08,42.7403,0,2.98667,8633.96,764.032,-26179.3
2.37184e+08,108.076,2,2.38631,-14948.1,-16271.2,-22633.1
2.37316e+08,83.3413,1,2.97058,-16820.7,-665.94,-23965.1
2.37396e+08,108.592,1,2.64699,-11600.8,8493.16,-10918.5
2.37449e+08,81.7044,1,2.40201,14167.7,7960.6,-22857
2.37895e+08,112.413,1,2.46197,452.423,13470.3,-29026.1
2.38075e+08,206.859,2,2.88446,-19434.9,-6500.53,9519.2
2.38106e+08,255.757,0,2.49117,13174.9,-13110.4,21972.9
2.38182e+08,123.852,0,3.04328,-807.121,22059,-15215.6
2.38206e+08,100.938,2,2.4523,-740.529,-16166.1,-14796.4
2.38306e+08,60.7368,2,2.58873,-317.122,-8080.8,-18818.4
2.38924e+08,87.1269,0,2.41185,10821.1,-84.682,-13837.8
2.39126e+08,10.215,2,3.05205,-1158.38,-1282.76,-27438.3
2.39257e+08,52.2651,0,2.78317,2081.38,-5239.08,-19347.6
2.39265e+08,98.4021,1,2.41097,-2851.12,11389.3,-11600.7
2.39537e+08,23.9014,2,2.79485,-4320.54,4.10275,-26189.4
2.39854e+08,59.7851,2,2.87903,5081.44,-3262.94,-17810.4
2.40278e+08,49.7664,1,2.87995,-1987.35,3621.27,-19172.8
2.40327e+08,73.6726,1,2.82742,4352.62,3453.92,-16504.3
2.40335e+08,171.498,1,2.8625,19332.1,26520.2,-13811.2
2.40987e+08,243.854,0,2.69426,6385.53,9092.79,20944.1
2.41309e+08,151.516,1,2.38057,-16516.4,18330.7,-8265.98
2.41513e+08,77.6801,0,3.03343,-4981.2,-11707.6,-18696.5
2.41532e+08,94.9354,0,2.45929,-275.863,15408,-15931.7
2.41912e+08,6.06597,1,3.04281,-1042.38,273.731,-28046.5
2.41956e+08,90.8025,0,2.44763,4434.25,-9693.82,-12842.3
2.41992e+08,17.3316,0,2.65707,2144.85,-1242.73,-26056.2
2.42155e+08,18.8573,0,2.80781,2822.38,-380.183,-25967.5
2.42597e+08,246.737,1,2.9791,-15287.3,-2742.64,20505
2.42637e+08,106.759,2,2.51843,-17213.1,-2268.73,-14324.9
2.42788e+08,9.32298,0,2.83087,1411.22,1243.82,-28137.7
0,9.27732,1,2.74695,0,0,0
2.42827e+08,61.4263,0,2.9803,-3538.88,-9301.25,-20660.5
2.42949e+08,52.3124,2,2.52711,10996.7,4.00091,-29880
2.43103e+08,7.96488,2,2.52566,-296.419,-1660.4,-28261.3
2.43126e+08,92.1497,2,2.38283,1566.57,16620.5,-18832.1
2.43165e+08,31.0577,2,2.41811,3670.73,-5014.82,-26549
2.43269e+08,40.2956,2,2.85643,8257.91,-314.031,-27050.7
2.43658e+08,155.304,2,2.75631,-26582.6,15026.4,-17102.3
2.43762e+08,128.879,1,2.38451,-16259.4,18437.8,-16842.1
2.43765e+08,170.589,2,2.6904,-28527.3,-14210.6,-12009.6
2.43769e+08,31.4163,0,2.87982,1784.79,-3622.15,-23563.4
2.44181e+08,49.1184,1,2.79014,-2064.64,-9559.88,-25673.2
2.44428e+08,124.065,0,2.53094,7317.31,12964.5,-7214.73
2.44454e+08,36.3307,1,2.60773,-3536.93,6597.15,-26722.8
2.44525e+08,3.22264,0,2.85031,772.791,-100.328,-28784.1
2.44968e+08,63.399,0,2.38995,13384.5,-1804,-29077.7
2.45439e+08,81.0885,1,2.57973,7367.89,398.176,-13372.3
2.45739e+08,70.1169,1,2.45852,11564.9,6138.57,-21820.3
2.45926e+08,8.0867,1,3.02032,-1130.61,748.541,-27687.4
2.45955e+08,17.3955,2,2.86213,-701.745,-3343.01,-27292.3
2.46451e+08,116.02,1,2.44246,-10207.4,-12491.6,-10366.3
2.46488e+08,16.4859,1,2.61795,-2107.86,2705.59,-29818.1
2.46573e+08,266.46,2,2.58244,13722.3,10562.6,-16251.4
2.46594e+08,73.8375,2,3.0484,7864.05,-5134.21,-16650.2
2.46748e+08,83.9418,1,2.87117,1638.45,17616.8,-27780.3
2.47068e+08,89.7325,0,3.04013,-11013.9,13856.5,-22683.7
2.47153e+08,130.677,2,2.40089,6016.24,-20710.3,-11440.5
2.47489e+08,8.29543,1,2.66166,-1491.91,686.688,-28013.4
2.47722e+08,55.051,2,3.03085,-1310.25,-7509.86,-20082.9
2.48e+08,40.9297,0,2.81004,2486.77,-3164.13,-21173.5
2.48061e+08,57.1793,1,2.73477,-3273.8,-1611.6,-20625.3
2.4811e+08,75.9409,2,2.99937,831.38,15692.8,-26742.4
2.48213e+08,46.9032,2,2.75873,2113.63,-4303.63,-27342
2.48245e+08,165.277,1,2.90284,22761.7,21375.6,-13609.2
2.48294e+08,218.022,0,2.76172,-14836.1,-10527.7,13287.9
2.48592e+08,131.354,1,2.92967,-16738.2,-5380.62,-29278
2.48694e+08,138.169,0,2.61751,18398.7,9969.27,-13011.4
2.48968e+08,108.041,2,2.61176,-5671.46,-14638.5,-12336.5
2.49453e+08,4.42718,1,2.7736,-977.865,-13.66,-28669
2.49729e+08,100.417,2,2.87445,6306.52,-11390.8,-13728
2.49886e+08,38.84,2,2.73674,4451.42,3388.97,-22890
2.4997e+08,54.7544,2,2.39406,-6792.41,-8635.49,-24867.2
2.49984e+08,63.2756,2,2.93044,2404.07,8913.88,-19384.5
