#class tools::wcsv::ntuple
#title time
#separator 44
#vector_separator 59
#column double eventID
#column double t(ns)
#column double copynumber
#column double energy(eV)
#column double x(mm)
#column double y(mm)
#column double z(mm)
393178,59.4473,0,2.63406,9476.88,3234.54,-21180.5
569237,48.3907,0,2.5565,-836.109,4298.56,-19585.3
1.26316e+06,153.581,0,2.74721,23956.7,18618.3,-17413.4
1.88377e+06,306.451,0,2.91896,1621.94,-19004.1,-11894.2
2.30558e+06,5.14623,2,2.63586,-1074.75,-366.816,-29074.2
2.3782e+06,55.3032,2,2.97881,7454.55,-7312.08,-29507
2.40714e+06,23.0347,1,3.03247,-2159.1,298.418,-24489.1
2.46737e+06,117.934,1,2.36886,14675.8,11030,-11938.9
2.65494e+06,60.0586,2,2.93257,1684.23,-6604.8,-24518
3.92034e+06,27.4447,0,2.3705,3988.15,-4304.6,-28283.2
3.926e+06,114.71,1,2.98177,-3049.57,14618.4,-9916.28
4.31914e+06,174.23,2,2.58653,-10245.9,-24522.5,-3321.35
4.56718e+06,31.8491,0,2.8435,2401.87,-1587.31,-22749
5.07394e+06,97.3826,2,2.39844,-17651.7,10607.7,-29602.7
5.20589e+06,165.064,2,2.50994,-14195.5,-16064.5,-1259.18
5.35770e+06,44.8217,0,2.86723,7090.44,800.229,-22565.2
5.47958e+06,160.996,2,2.44326,8907.48,-22476.6,-4791.02
5.8483e+06,29.2851,2,2.83105,3514.41,-4598.1,-26616
5.98168e+06,116.721,0,2.92709,13760.8,-305.148,-8513.65
6.45573e+06,86.7894,0,2.76169,-15264.3,3164.51,-19395
6.65975e+06,103.056,2,2.71795,2053.04,-16874.5,-15250.2
6.85617e+06,100.659,0,2.75103,8365.14,9862.1,-12013.9
6.95616e+06,148.188,2,2.68034,-21584.9,-8072.33,-7664.88
7.10982e+06,24.8404,1,2.76241,1711.67,3629.85,-25384.2
7.23542e+06,93.9989,2,2.5672,394.982,-7141.12,-10268.8
7.98640e+06,3.35282,0,2.54039,-518.322,394.748,-28668.2
8.40885e+06,5.32062,0,2.68996,83.0671,768.77,-27972.2
8.42926e+06,166.685,1,2.84221,12559.7,24341,-6917.55
8.88443e+06,42.9699,1,2.45911,4867.79,5184.06,-23097.2
9.53868e+06,9.71786,0,2.47428,1395.41,-1194.32,-27823.7
1.03046e+07,127.488,0,2.44146,-18337.8,8880.43,-11246
1.06568e+07,84.0112,2,3.02905,9230.92,8506.06,-23629.5
1.0835e+07,24.9742,0,2.59997,4552.03,-2102.4,-26896.3
1.08917e+07,21.386,0,2.7121,114.489,-1302.83,-29442.9
1.14196e+07,56.7166,1,2.57027,-9004.5,-69.349,-20889.4
1.14903e+07,14.6696,0,2.99554,219.416,1402.76,-26085.5
1.20526e+07,111.71,0,2.58533,3394.11,14737.7,-10683.9
1.20916e+07,86.0674,1,2.53025,-3604.79,17911.6,-28028.4
1.21462e+07,183.492,2,3.00425,21922.1,-22223.3,-9442.75
1.21611e+07,192.41,0,2.89376,22335.4,-13917.6,1896.08
1.23772e+07,168.062,1,2.81193,-24824.5,-8477.49,-5137.05
1.2579e+07,76.3687,2,3.04,4608.75,-14500.2,-23686.1
1.25957e+07,17.9604,0,3.05528,-1528.17,3363.03,-28099.7
1.27362e+07,82.0636,0,2.70601,16525,-5394.53,-28400.5
1.28687e+07,11.0894,2,2.64228,-2015.96,-1004.9,-27979.8
1.29409e+07,2.05406,2,2.85644,167.888,-458.671,-28703.3
1.29697e+07,71.8388,0,2.5132,-7665.14,7448.81,-18074.3
1.32733e+07,63.3196,1,2.46724,-8654.3,-2194.65,-18818.3
1.32855e+07,105.329,2,2.43428,3746.43,-20978.1,-22073.1
1.33201e+07,99.5046,2,2.56753,-15727.8,796.512,-14851.7
1.33462e+07,70.0655,2,2.45752,-7724.86,-5243.86,-17266.2
1.36017e+07,37.531,0,2.50837,1159.82,-3105.41,-21590.1
1.37862e+07,32.0939,1,2.57141,4506.36,4913.56,-27422.2
1.40101e+07,69.8858,0,2.41396,13112.2,-6987.42,-28100.6
1.41939e+07,57.2715,2,2.628,-9675.2,1806.44,-21726.9
1.45666e+07,22.2205,0,2.56556,2945.01,2426.4,-25976.1
1.49281e+07,114.657,1,2.56452,5223.34,-19209.2,-15111.1
1.49802e+07,77.4619,0,2.36326,6915.09,6610.79,-15452.6
1.52145e+07,22.3121,1,2.49712,2476.96,1464.43,-25056.6
1.53824e+07,165.945,0,2.71477,-2825.65,-3864.73,-25852.9
1.556e+07,66.8762,1,3.02841,9437.94,-7493.63,-21837.6
1.58992e+07,14.755,2,2.81779,-3172.08,99.217,-28888.2
1.60342e+07,137.041,0,3.03076,-17581,15692.1,-12488.4
1.68819e+07,126.198,1,2.79467,20758.2,-4112.31,-12875.7
1.70649e+07,5.37393,1,2.48632,798.738,-610.945,-28421.4
1.71296e+07,114.555,2,2.69719,19027.8,-9127.57,-17083.7
1.71813e+07,34.9709,1,3.00372,2011.99,5451.67,-26709
1.7426e+07,101.923,1,2.90538,16372.5,1263.09,-15146.9
1.76816e+07,8.60371,0,2.92994,1187.1,-930.834,-27700.2
1.81022e+07,16.0558,2,2.77514,-2063.62,-1889.22,-26784.1
1.83171e+07,161.885,1,2.42339,-17216.8,14882.2,-3182.63
1.8585e+07,41.6577,0,2.64356,8840.07,190.413,-29721.1
1.88737e+07,28.0703,2,2.47836,1161.74,-3597.4,-24207.5
0,28.5825,1,2.74512,0,0,0
1.89584e+07,126.782,1,2.96418,-8674.71,22831.8,-18082.6
1.89656e+07,122.416,2,2.44844,-24686.6,-7455,-25782
1.90408e+07,24.9277,0,2.59598,4497.63,454.404,-25955
1.92064e+07,29.9183,0,2.96365,-2926.81,-4078.16,-25129.8
1.92571e+07,144.809,0,2.43151,7589.83,-9310.26,-5036.13
1.93316e+07,1.31699,0,2.59162,107.305,50.0617,-28554.8
1.94532e+07,16.3238,1,2.52056,-2635.71,738.932,-26618.5
1.95781e+07,247.578,2,2.84735,29335.9,-15143.1,11375.2
1.97871e+07,67.7894,2,2.89559,4635.84,-4651.36,-16177.4
1.99257e+07,141.961,0,2.60443,7683.06,27685.4,-20210.1
2.01466e+07,125.722,2,2.80858,-20875.2,-16367.8,-29991.1
2.10989e+07,36.4077,1,3.04636,-4837.08,4717.65,-25316.9
2.11038e+07,131.624,0,3.03219,141.169,27594,-28228.3
2.13126e+07,82.5845,1,2.49536,-11483.8,13088.8,-26491.6
2.13968e+07,15.2849,1,2.57896,2180.92,972.343,-26631.4
2.15233e+07,176.826,0,2.7808,23549.6,5217.91,-446.579
2.15663e+07,119.324,1,2.83264,10009.5,-15053.9,-11485.5
2.1589e+07,83.8782,1,3.02058,8499.32,13117.6,-20716.5
2.20286e+07,130.136,2,2.89924,4718.94,-25443.6,-19796.8
2.25947e+07,115.478,0,2.63857,14681.3,5225.25,-10014.3
2.26985e+07,142.082,1,2.83045,5946.97,23263.8,-10974.4
2.2934e+07,83.6335,2,2.82902,-3100.52,163.63,-11686.9
2.33537e+07,277.101,0,2.78323,-11140.4,1263.76,17472.8
2.42182e+07,167.79,1,2.49097,-16102.1,22702.1,-6706.86
2.45166e+07,2.56737,0,2.63544,-124.433,-141.349,-28318.1
0,2.56734,0,2.47938,0,0,0
2.45992e+07,224.881,2,2.65461,12057.8,5863.61,-24041
2.46362e+07,15.888,0,2.8803,989.785,2770.61,-27139.3
0,15.9037,0,2.77424,0,0,0
2.48006e+07,89.9642,2,2.87518,12142.6,-5031.46,-15274.9
2.50997e+07,58.4774,2,2.66207,6441.63,5944.52,-20235.7
2.52577e+07,10.1026,0,2.39236,-513.246,1364.94,-27259.1
2.55832e+07,29.5262,0,2.83631,5031.69,3638.06,-29749.4
2.56353e+07,46.0938,2,2.87423,-2647.89,-3909.08,-20327.6
2.58722e+07,54.6443,0,2.73557,3664.01,-10931.6,-29913
2.62036e+07,24.766,2,2.95798,-4925.36,-170.603,-27040.1
2.6276e+07,25.3456,2,2.8596,2853.51,-3966.28,-26590.6
2.62949e+07,30.7061,0,2.82888,409.699,6371.3,-27719.8
2.66171e+07,124.427,1,2.8303,19016.9,-1710.64,-10998.3
2.68762e+07,19.7948,1,2.8437,-2368.55,1418.58,-25623.5
2.69418e+07,67.6808,0,2.58097,-368.987,-9336.42,-17989.4
2.70333e+07,30.1768,2,2.90953,-170.166,5914.83,-26741.1
2.78273e+07,33.759,0,2.88189,935.718,-117.336,-28137.4
2.8019e+07,33.0358,2,2.43598,-4186.19,4495.31,-26480.3
2.81477e+07,19.3987,0,2.67707,-1857.46,3425.19,-27613
2.81751e+07,168.374,0,2.36587,21405.4,22401.8,-11128.5
2.83299e+07,230.354,0,2.45644,7972.86,-20380.6,14450.3
2.84318e+07,19.1307,2,2.69441,104.518,-3611.08,-26848
2.85037e+07,50.6501,0,2.42762,5751.87,1168.61,-19797.7
2.85085e+07,140.041,1,2.73767,4743.16,-3783.39,-19648
2.86511e+07,84.7819,0,2.80719,-3123.16,-6780.33,-21157.5
2.86557e+07,6.11307,1,2.78433,-325.241,920.502,-27895.6
2.86721e+07,86.9888,1,2.38023,12595.8,7816.29,-17936
2.90152e+07,44.494,0,2.84939,1054.1,4860.81,-20875.1
2.91792e+07,1.01914,2,2.65606,-148.673,136.709,-28803.8
2.92222e+07,0.655659,2,2.82525,-182.651,-170.25,-28826.7
2.92387e+07,102.414,2,2.90013,-11684.4,-8439.42,-12784.1
2.95103e+07,64.4232,2,2.46742,123.318,-10113.8,-27739.7
2.95305e+07,7.6918,2,2.73519,350.727,-1643.21,-28496.8
2.95309e+07,68.7001,0,2.82514,2170,8395.7,-17258.4
2.96492e+07,50.0414,2,2.75653,-9725.84,4113.91,-28665.4
2.98062e+07,46.9709,0,2.98616,3293.32,8437.16,-24875.6
3.00295e+07,40.7006,0,2.63301,-4548.62,-1306.43,-21705.5
3.02954e+07,11.463,1,2.37286,-453.502,2459.81,-29280.5
3.04597e+07,90.3039,0,2.52808,-10884.5,14314.6,-22491.1
3.0745e+07,20.1844,2,2.72662,-742.883,-4281.49,-28546.4
3.08281e+07,31.6448,1,2.78478,3532.92,2048.21,-23545.1
3.096e+07,149.938,0,2.42619,-9345.24,-25690.2,-14241.1
3.1093e+07,141.619,2,2.82688,3255.15,-29421.6,-24865.9
3.12079e+07,97.007,2,2.87781,-7521.52,6529.64,-11092.2
3.15566e+07,77.2045,2,2.73952,4748.1,-10742.7,-17512.4
3.1624e+07,7.90795,2,2.89373,638.588,-599.461,-27378.9
3.16597e+07,121.723,0,2.96983,-18715.8,7117.92,-13081.7
3.17317e+07,151.454,0,2.54162,-25766.1,-12000.8,-14257.4
3.20858e+07,77.3996,2,2.78988,-9437.92,4366.59,-16264.9
3.21195e+07,101.582,2,2.40242,21096,-3326.14,-26523.5
3.26612e+07,20.42,1,2.40633,74.0581,3497.27,-26196.3
3.29299e+07,34.7611,0,3.02959,4548,3566.18,-24275.3
3.33951e+07,108.721,0,2.68344,-7705.43,-20647.8,-23107.4
3.3427e+07,204.617,2,2.84336,-27264.8,-15356.8,755.534
3.34274e+07,86.9733,2,2.56712,-11338.1,-12044,-20614.2
3.37476e+07,53.6299,2,3.04955,-419.339,8618.07,-21682.5
3.37584e+07,42.7954,0,2.74327,-998.812,-7258.97,-23702
3.39393e+07,27.1381,2,2.71548,-1504,-1781.31,-23567.6
3.46338e+07,29.0679,0,2.98233,3234.84,-3338,-24787.5
3.48226e+07,48.0517,0,2.55418,6145.65,-6589.07,-23988.1
3.48827e+07,3.2939,0,2.92239,435.083,489.038,-28432.5
3.50315e+07,51.1223,0,2.69938,7379.86,-1708.71,-21080.6
3.53009e+07,125.35,1,2.62966,15058,17969,-16472.4
3.59128e+07,49.6509,0,2.46402,1490.96,-8755.99,-23169.7
3.607e+07,5.17104,2,2.4731,369.974,201.695,-27840.6
3.61637e+07,8.46002,1,2.72306,-805.169,-1341.89,-27989
3.61839e+07,71.8828,0,2.67196,6242.82,8959.23,-18264.2
3.63784e+07,153.548,2,2.58032,19496.5,-46.2022,-2927.43
3.64134e+07,225.839,0,3.04602,24184.5,-17476.1,-14132.1
3.64621e+07,317.4,2,2.49076,-2350.63,-13355.4,-4077.28
3.64751e+07,3.8445,1,2.78107,-579.514,695.362,-29007
3.65927e+07,100.065,0,2.44587,6747.82,-15230.8,-15745.8
3.69832e+07,74.8192,2,2.6886,-5116.71,-13954.2,-23288.6
3.69835e+07,26.7249,0,2.60633,-5116,-667.736,-26680.6
3.72096e+07,128.868,2,2.75067,4105.58,24193.9,-17354.3
3.72223e+07,42.0486,2,3.01589,-5437.68,-6979.96,-27665.4
3.7703e+07,9.23425,1,2.92825,-902.448,445.359,-27118.6
3.81793e+07,130.445,2,2.60958,-15946.9,-3309.31,-6568.04
3.83068e+07,24.1962,2,2.37263,-2154.59,-1534.44,-24391.7
0,24.3329,2,2.69368,0,0,0
3.84058e+07,0.968774,1,2.40155,155.113,172.689,-28783.9
3.85307e+07,63.2744,0,2.98663,6215.04,-6760.83,-19476
3.87398e+07,6.02321,1,2.38246,-469.027,316.421,-27655.4
3.89672e+07,172.175,2,2.91929,-12832.2,13989.1,1588.26
3.90057e+07,159.703,0,2.82805,-6663.22,25201.9,-11518.1
3.90876e+07,25.7037,1,2.99719,2902.63,-2884.67,-25414
3.91007e+07,116.658,0,2.91156,5143.02,11772.8,-7967.23
3.91392e+07,137.407,0,2.48035,2780.19,-19127.2,-13299.9
3.91939e+07,135.762,2,2.75956,27.3688,-27972.5,-22585.1
3.93038e+07,165.701,2,2.8723,-1911.98,-19528.8,-17.4597
4.00114e+07,132.158,0,2.77628,-4573.86,19212,-9262.14
4.00931e+07,100.869,2,3.00051,-8460.43,-8106.61,-11176.1
4.03061e+07,71.515,1,2.96788,3817.37,9467.72,-17768.1
4.03164e+07,1.607,1,3.24848,-3.06529,153.52,-29114.2
4.03498e+07,1.0498,0,2.74588,208.073,-174.66,-28974.1
0,1.05496,0,2.84447,0,0,0
4.05234e+07,60.4081,1,3.02159,-7516.81,10311.7,-29418
4.06507e+07,30.773,2,2.96099,-2488.99,-5354.4,-25981.3
4.10231e+07,15.619,2,2.36401,-3136.15,1073.51,-28296.4
4.16097e+07,36.2192,0,2.9562,5393.98,958.125,-23474.9
4.20137e+07,38.1383,1,2.92529,-6668.8,-3343.68,-25821
4.20486e+07,20.4482,1,2.60655,-1807.92,3562.97,-27005
4.20629e+07,114.009,2,2.65658,11693.8,-12232.1,-11702.4
4.27706e+07,165.413,0,2.42868,-27147.9,-576.734,-6861.09
4.35405e+07,64.07,2,3.01628,-3580.33,4388.24,-21494.6
4.41949e+07,159.604,2,2.99227,4612.33,-24420.4,-24613
4.43048e+07,105.571,1,2.93045,-871.538,22121.6,-26506
4.50536e+07,65.8661,0,2.52651,8512.29,137.36,-17732
4.52726e+07,12.4954,0,2.85353,127.075,1956.58,-27061.8
4.55229e+07,55.9573,1,2.99259,-6792.26,5080.34,-20620.4
4.58836e+07,1.87517,2,2.78562,158.757,-7.3799,-28465.1
4.63492e+07,5.2163,0,2.81678,115.157,-740.846,-29047
4.63791e+07,65.5511,0,2.98259,-733.284,13244.6,-25193.4
4.63979e+07,17.1558,2,2.84651,274.909,-2757.84,-26422.3
4.69593e+07,82.3213,0,2.66096,-7936.36,542.966,-13440.1
4.6965e+07,15.7442,1,3.02308,3080.93,1186.71,-28995
4.69688e+07,164.036,1,2.56921,-21280.2,-856.659,-1441.75
4.70215e+07,117.775,0,2.64079,11228.8,-4495.69,-7081.4
4.74519e+07,8.67495,1,3.01714,-761.748,1646.3,-28239.3
4.75745e+07,40.7821,1,2.60834,-4950.59,-7006.47,-28348.3
4.77961e+07,15.5247,1,2.41266,2826.65,-903.871,-27512.9
4.78175e+07,14.901,0,2.39277,1084.48,1045.05,-26005.8
0,15.0237,0,2.51478,0,0,0
4.78563e+07,66.9244,1,2.85879,-6797.29,11153.2,-26558.1
4.80525e+07,43.4884,0,2.48824,7031.57,-4429.44,-24695.7
4.80765e+07,143.448,0,2.4998,6894.04,-20722.2,-7782.9
4.8081e+07,13.2647,2,2.88747,-1877.4,198.123,-26735.8
4.81683e+07,50.4431,0,3.04965,7824.86,5598.69,-24272.2
4.84477e+07,10.3593,0,2.57388,-976.433,-538.879,-26976.5
4.85401e+07,240.786,0,2.56494,-808.796,-2726.04,-23702.3
4.86146e+07,192.451,2,2.64718,29446.5,15289.6,-5506.08
4.86248e+07,2.76176,1,2.60395,-293.802,-207.663,-28361.6
4.86712e+07,63.3338,1,3.01713,4247.2,10521.9,-21828
4.95183e+07,10.995,1,2.58231,1735.82,1401.23,-28112.4
4.97205e+07,3.45397,0,2.82712,-405.311,186.052,-28303.3
0,3.47899,0,2.38458,0,0,0
4.98036e+07,116.358,0,2.77257,9386.36,11855.2,-22786
4.98712e+07,11.0443,2,2.62345,1866.06,-263.986,-27452.5
4.9887e+07,178.941,1,2.94766,-9285.71,-28026.2,-5688.01
4.99348e+07,19.8975,0,2.66501,-1190.84,3989.54,-28307.7
5.04224e+07,22.5792,1,2.70047,-704.195,-2149.7,-24683.3
5.04298e+07,46.9386,2,2.84185,-2957.96,9034.4,-26273.4
5.04398e+07,17.3248,1,2.89957,1443.75,-2871.06,-27228.4
5.05131e+07,174.39,1,2.66677,12097.6,25176,-4887
5.10339e+07,76.2806,1,2.61096,10830.9,-1651.88,-17089
5.129e+07,58.8394,0,2.64788,-323.71,-8712.48,-19974.4
5.17835e+07,230.937,2,2.83485,10999.3,-3193.46,14292.4
5.22506e+07,17.2149,0,3.05053,3668.92,-494.017,-28807.6
5.23935e+07,248.84,0,2.72893,21854.3,6449.72,18414
5.24145e+07,2.93142,1,2.94786,212.348,401.993,-28394.4
5.24555e+07,29.8658,0,2.8218,-125.829,-5281.72,-25974.8
5.24816e+07,158.229,1,2.61341,-26683,-18148,-20117.5
5.25042e+07,98.9038,2,2.60779,-17667.6,-3845.1,-18297.2
5.26467e+07,12.3596,2,2.7525,-1347.47,-2321.69,-29223.2
5.27037e+07,106.917,2,2.85961,-9671.41,18672.9,-20984.5
5.27292e+07,185.317,0,2.95806,19539.6,25385.6,-6736.53
5.28621e+07,2.29342,1,2.62941,439.293,-7.97918,-28700.4
0,2.29339,1,2.38395,0,0,0
5.28868e+07,128.1,0,2.82743,-10484.9,-18322,-12154.3
5.2999e+07,40.2349,1,2.9987,-800.077,8451.94,-27960.1
5.30903e+07,9.15557,1,2.83831,-912.543,-1646.44,-28577.2
5.32574e+07,43.7317,2,2.90441,-9046.04,-294.338,-26897.6
5.45775e+07,63.2784,0,2.84207,4520.43,-4197.06,-17001.6
5.47701e+07,17.6764,2,2.94767,-383.694,1573.1,-25541.2
5.56905e+07,109.712,2,2.83864,11279.5,-19486.5,-23539.9
5.59424e+07,64.1681,2,2.54023,-2887.18,-13348.7,-29513.7
5.61835e+07,94.1213,0,2.57731,19861.3,-2019.65,-28075
5.62972e+07,57.5518,2,2.83456,5239.39,635.966,-17947.2
5.64886e+07,19.4513,2,2.72675,2595.29,-3210.7,-28374.8
5.65758e+07,19.9309,0,2.75739,4210.76,-471.363,-29624.4
5.67173e+07,92.0127,2,2.69098,-6913.75,-18232.4,-28655.7
5.69264e+07,24.545,2,2.87708,-4779.43,-1943.49,-29709.5
5.71468e+07,80.47,0,2.575,15831.6,-6365.97,-27705
5.7582e+07,69.7523,2,2.77146,-1065.36,8107.6,-25287.5
5.75836e+07,7.90544,1,2.561,-189.46,1489.34,-27932.8
5.76569e+07,219.565,1,2.67919,-5686.73,-25111.2,9612.51
5.79696e+07,11.9503,1,2.77033,1873.06,1673.06,-29401.8
5.82025e+07,39.1703,2,2.93279,2540.51,-7808.92,-29873.9
5.83714e+07,168.32,0,2.78632,-9339.8,6516.6,-29649.4
5.85807e+07,12.3342,1,2.61878,-1709.04,761.438,-26932.4
5.89474e+07,3.61555,2,2.99766,-241.401,-479.225,-28208.8
5.92130e+07,0.781698,0,2.57577,128.135,163.819,-28944.3
0,0.782864,0,2.06672,0,0,0
5.94162e+07,303.154,1,2.9415,-22752,8995.3,29685.4
5.95716e+07,46.0022,1,2.53316,-984.982,-4900.9,-20497.3
5.9839e+07,55.1841,1,2.83798,5383.04,-3183.18,-19071.6
6.0776e+07,22.5316,0,2.78951,2956.89,-1211.18,-25251.2
6.116e+07,89.9793,0,2.7552,1364.5,-17913.5,-22708.8
6.14142e+07,110.701,2,2.59238,3314.42,-22543.8,-23309.1
6.15082e+07,26.5956,1,2.67421,-2828.1,-4145.12,-26344.7
6.1774e+07,78.7013,1,2.51517,-11683.8,1282.04,-16981.9
6.1817e+07,32.8662,0,2.89972,5292.08,2774.92,-25213.1
6.20125e+07,5.18401,0,2.98553,250.751,-797.905,-28070.2
6.20216e+07,39.2868,2,2.61763,6819.81,-2458.04,-24800
6.20319e+07,34.2028,0,2.43788,6562.96,-79.1487,-27177.1
6.20585e+07,25.0623,2,2.70235,-3560.97,2485.59,-25807.7
6.21029e+07,99.7966,0,2.38679,-6297.93,11737.4,-12450.2
6.21487e+07,37.9337,2,2.63435,-6950.89,-4140.36,-28409.7
6.22605e+07,9.09689,0,2.5906,-867.478,-186.069,-27148.5
0,9.12921,0,2.37217,0,0,0
6.26245e+07,49.3891,0,2.86701,-2706.19,-10013,-28165
6.27147e+07,12.1472,0,2.43557,-2155.82,-219.84,-27543.4
6.28719e+07,11.3458,1,2.54249,1480.09,77.4637,-26962
6.29426e+07,27.213,0,2.75887,938.173,-4389.29,-25219.1
6.29672e+07,127.393,1,2.45,-19972.3,-2429.16,-10853
6.30013e+07,101.909,1,2.64652,-7596.76,19415.5,-23163
6.32223e+07,18.0888,0,2.88076,1498.05,2847.08,-26701.5
6.33454e+07,32.1604,0,3.04229,-1430.15,6503.24,-27693.5
6.38654e+07,40.8894,0,2.74687,-8053.16,-325.037,-25990.1
6.40516e+07,2.28531,0,2.69373,372.799,398.706,-29024.3
6.41977e+07,121.614,2,2.41079,19713.5,-11020,-16544.1
6.43391e+07,2.87957,2,2.75503,-183.31,-700.849,-28785.5
6.44949e+07,130.027,0,3.04802,13846.3,-23437.8,-27364.3
6.4552e+07,1.40703,2,2.7735,-298.963,-181.948,-28971.3
6.51081e+07,37.2227,2,2.62828,-3958.73,3324.41,-22922.3
6.53848e+07,90.8654,0,2.96001,8819.65,-16603,-25306.7
6.54656e+07,153.841,1,2.40306,16382.1,12288.3,-3508.84
6.56291e+07,162.053,0,2.74612,-26226.6,-2098.11,-7183.87
6.5642e+07,124.881,1,2.46919,7515.68,16607.6,-9674.53
6.57217e+07,56.3987,1,2.64492,5736.63,5355.5,-19865.4
6.58641e+07,42.1429,2,2.67963,-3286.46,-3488.11,-21278
6.58802e+07,70.3966,1,2.41253,-77.0931,6096.98,-15196.1
6.61128e+07,25.694,2,3.06074,-1215.2,-3214.97,-24610.6
6.64243e+07,57.9623,1,2.72704,-4443.52,5833.86,-19012.9
6.64982e+07,39.8305,2,2.61782,462.089,-3712.23,-21249.2
6.67792e+07,13.6598,1,2.82623,-1701.19,2425.4,-28717.3
6.70064e+07,41.2441,2,2.55154,4955.84,-5786.32,-24541.9
6.70283e+07,41.0955,2,3.02507,-8598.39,-1276.24,-29225
6.76462e+07,256.888,0,2.97702,-24218.9,-27657.5,10479.9
6.76649e+07,35.651,1,3.03583,-408.491,-4920.54,-23274.8
6.76828e+07,208.088,1,2.9693,-2685.03,19352.4,6781.73
6.77e+07,21.4404,1,2.47704,-2955.07,3065.51,-27014.1
6.78557e+07,59.2365,0,2.89372,-8727.76,-8363.53,-26082.6
6.80514e+07,15.9397,2,2.62673,-2596.98,-299.13,-26632.3
6.83792e+07,35.4213,2,2.41738,-2349.27,4743.17,-23559.9
6.87502e+07,15.596,1,2.98646,-511.439,1917.04,-26165.5
6.92194e+07,176.451,2,2.71139,-14227.5,7480.87,-28339.2
6.93667e+07,15.8011,1,2.90785,-2859.65,625.509,-27109.8
6.97756e+07,64.0242,2,2.78203,-889.847,8795.15,-18707.3
6.98722e+07,35.6378,2,3.00129,983.684,-6890.04,-25896.9
6.99184e+07,40.6825,2,2.4776,-1213.75,5596.16,-22438
6.99898e+07,39.9826,1,2.86492,7322.6,3815.35,-27183.8
7.00658e+07,7.07962,2,2.39885,51.1995,-1436.12,-28188.7
7.0095e+07,67.2275,0,2.42953,11960.8,2224.43,-21317
7.06653e+07,50.0109,1,2.95183,-4023.03,2058.09,-19365.4
7.10379e+07,44.1429,1,2.71649,-210.698,5710.03,-21431.7
7.11934e+07,10.0178,2,2.93289,-942.408,-1069.36,-27209.7
7.12645e+07,149.578,1,2.81707,-22961.7,12429.5,-21330.8
7.15397e+07,12.1994,0,3.03167,-375.575,-2400.14,-27975.7
7.22517e+07,47.1369,2,2.74495,-8617.86,-5050.49,-28378.4
7.26038e+07,80.5441,0,2.66548,9593.87,2830.87,-15032.7
7.27183e+07,35.6304,2,2.43366,-5190.33,1730.13,-23591.4
7.28798e+07,189.445,0,2.42862,14107.6,-14696.3,5719.69
7.3567e+07,43.6426,2,2.99178,-6060.8,-6968,-28055.6
7.42593e+07,10.8607,0,2.65706,-271.28,-1897.62,-27587.1
7.42999e+07,60.9459,0,2.93194,5730.34,11364.5,-27260
7.43079e+07,202.048,2,2.42568,-25874,-13104,2639.14
7.43454e+07,10.1547,2,3.03004,598.123,-1449.11,-27347.2
7.45193e+07,155.344,1,2.56065,-28134.7,-11992.4,-16802.9
7.45214e+07,101.421,2,2.59718,-19872,-5552.03,-22901.7
7.47728e+07,61.7066,2,2.36828,2537.34,-9647.71,-20330.6
7.49662e+07,146.344,0,2.72726,16013.9,6382.62,-3231.95
7.52172e+07,19.2604,2,3.01211,1969.37,-3402.68,-29975.1
7.53574e+07,14.2702,1,2.9458,-1515.86,2583.59,-28112.5
7.56261e+07,6.09783,0,2.8475,553.423,-1091.52,-28310.1
7.56651e+07,18.9658,1,2.6372,-1844.69,3480.07,-27650.9
7.58037e+07,179.532,0,2.68279,-12138.1,-25991.1,-4151.93
7.5836e+07,55.1271,2,2.85328,-6599.41,3400.84,-21646.3
7.6011e+07,37.0074,2,2.60221,4396.47,-4967.05,-24623.3
7.62494e+07,73.9919,1,2.9993,-7367.23,12784.6,-23729.9
7.72872e+07,60.0673,2,2.37077,-3912.38,-6211.1,-18374.5
7.72901e+07,91.3543,2,2.47529,-4758.9,5536.22,-11676.6
7.73682e+07,140.766,1,2.95455,-10305.3,19796.6,-10194.9
7.77181e+07,32.9651,2,2.42956,184.343,-4747.67,-23662.6
7.7734e+07,75.5645,2,2.55608,6615.65,-13925.4,-24406.8
7.79714e+07,103.076,0,2.59181,17002.2,11069.7,-25477.1
7.80597e+07,98.0403,2,2.54119,8352.58,-18995.4,-27889.3
7.86797e+07,47.6157,1,2.62717,-4565.12,3712.44,-20617.9
7.87414e+07,8.41824,2,2.88907,-1029.76,-1571.21,-28929.5
0,8.41641,2,2.96363,0,0,0
7.88202e+07,74.913,0,2.52769,12676.1,4168.1,-20170.1
0,75.6717,2,2.71108,0,0,0
7.91851e+07,69.4454,0,2.88743,-6952.94,7086.33,-18163.6
7.94869e+07,96.2723,0,2.56503,1643.71,-13650,-13821.1
7.96713e+07,112.56,2,3.04972,16327,-3150.78,-12180.5
8.00797e+07,148.391,2,2.92136,10569.3,22410.7,-10042.8
8.03173e+07,75.3897,1,2.81058,13094.4,3369.19,-20541.3
8.03666e+07,113.843,0,2.6663,-554.909,17625,-12517.4
8.04001e+07,29.9095,1,2.73209,-1229.93,5779.46,-26373.9
8.07971e+07,2.39446,0,2.85805,336.795,347.285,-28525
8.10963e+07,2.82323,0,2.83359,254.92,-386.659,-28374.3
8.11228e+07,81.8864,1,2.59622,-4845.93,11144,-16448.2
8.12913e+07,14.8327,2,2.36621,-995.272,-2630.61,-27240.8
8.16488e+07,66.4583,2,2.58874,-9166.95,292.736,-18144.6
8.17829e+07,193.773,2,2.43979,2434.69,-14518.3,9416.07
8.19482e+07,17.8738,2,2.70148,-1781.67,-3290.13,-27897.3
8.21561e+07,38.5392,2,2.42853,-6182.7,-2497.46,-24040.4
8.21984e+07,158.452,2,2.54801,24632.3,-14391.4,-11249.9
8.2479e+07,39.9163,2,2.94183,2563.57,-5756.97,-23229.8
8.29523e+07,75.2845,2,2.69767,-8737.43,10183.5,-20370.9
8.3098e+07,110.176,2,2.67606,18764.6,11801.7,-22098.6
8.31007e+07,78.8112,1,2.78866,14582.3,4731.11,-22519.5
8.31965e+07,52.1027,2,2.95721,1749.99,-9627.81,-23795.3
8.32553e+07,2.68807,0,2.77398,29.0052,560.139,-29026.5
8.33781e+07,105.359,0,2.52346,15072.3,-13713.6,-19671.5
8.35205e+07,14.9823,1,2.75489,-432.622,-2995.93,-28135.3
8.35532e+07,30.4234,2,2.69665,5990.75,956.699,-26811.7
8.37506e+07,96.5145,1,2.63348,-13302.3,3920.51,-13872.3
8.38344e+07,25.9457,1,2.58523,2628.27,-319.119,-24058.3
8.39037e+07,123.125,1,2.94622,-3742.61,-14674.3,-7925.16
8.4424e+07,54.982,1,3.0002,8649.58,7668.26,-28604.2
8.47251e+07,47.2534,2,2.45107,5135.41,-6714.86,-23486.4
8.48477e+07,71.3728,1,2.59296,-11476,9944.33,-29131.8
8.56511e+07,14.0161,1,3.00292,-2275.6,817.308,-27036.6
8.61574e+07,5.83098,0,2.95481,1101.65,-397.291,-29475.8
8.65548e+07,27.5616,2,2.71275,-4200.37,-415.065,-24764.8
8.66031e+07,32.5778,2,2.68267,4797,-4841.76,-27593.7
8.66581e+07,49.5034,0,2.65446,-2188.78,9773.59,-25849.6
8.69924e+07,50.5206,1,2.42814,-7474.07,4127.37,-22331.8
8.74277e+07,145.229,2,2.70716,-23129.8,-15809.9,-16371.9
8.76013e+07,58.8279,2,2.59667,-11990.9,-2600.25,-26427.7
8.76246e+07,30.9319,0,2.67002,6137.6,-1061.98,-26578.5
8.76472e+07,89.6472,1,2.72301,-12204.9,8788.79,-17325.1
8.76661e+07,35.1003,0,2.61429,5375.29,-1651.91,-23883.3
8.77587e+07,14.16,2,2.70599,1682.16,-1536.26,-26884.5
8.83968e+07,46.0859,2,2.40415,-7513.53,5031.23,-25215.3
8.87627e+07,93.3742,0,2.64968,-1929.08,-19340.2,-25536.3
8.88708e+07,95.1257,2,2.96022,17554.6,2569.69,-19809.7
8.89213e+07,33.8915,1,2.68108,-5533.08,1054.21,-24346.7
8.92493e+07,15.3619,2,2.532,-3122.09,799.467,-28216.9
8.92647e+07,221.411,0,2.96772,25891.9,-11145.5,8125.49
8.92971e+07,94.1933,2,2.63685,5775.6,-16653.4,-19483.4
8.93153e+07,119.754,1,2.49393,16149,694.547,-9375.19
8.94842e+07,95.0469,1,2.67253,-16544.9,10058.1,-23373.2
8.99785e+07,73.472,2,2.55361,-5068.5,5284.76,-15142.4
9.02828e+07,10.4505,0,2.6801,2139.79,-42.6168,-28065.1
9.04112e+07,0.0449295,1,3.164,-42.9961,110.172,-28843.5
0,0.0485485,1,2.94083,0,0,0
0,0.0456198,1,4.00486,0,0,0
0,0.0836298,1,2.2279,0,0,0
0,0.149229,1,3.23062,0,0,0
0,0.141664,1,2.65058,0,0,0
0,0.186287,1,2.98525,0,0,0
0,0.1371,1,3.43711,0,0,0
0,0.0839814,1,2.3741,0,0,0
0,0.0560948,1,3.39641,0,0,0
0,0.0703075,1,3.47448,0,0,0
0,0.0517767,1,2.33454,0,0,0
0,0.0501055,1,2.50096,0,0,0
0,0.0462561,1,3.11614,0,0,0
0,0.0468682,1,2.45075,0,0,0
0,0.0486388,1,3.93783,0,0,0
0,0.0765948,1,3.64817,0,0,0
0,0.0586852,1,2.5928,0,0,0
9.04352e+07,17.8894,1,2.64034,-2425.03,1294.23,-26140.8
9.04385e+07,95.8225,1,2.57059,-18221.8,-2957.38,-20486.9
9.05256e+07,71.1497,0,2.42429,4391.12,3842.09,-14921.3
9.11559e+07,35.2714,2,2.84589,-2712.53,3396.43,-27043
9.11949e+07,94.0653,2,2.41579,-19315.1,-4674.08,-26661.6
9.1712e+07,2.53019,0,2.89729,539.081,291.306,-29004.9
0,2.94871,1,2.92742,0,0,0
9.19409e+07,33.9055,0,3.00373,6300.06,3484.06,-28314.8
9.19579e+07,36.6774,0,2.78662,-3325.92,-5650.72,-24768.8
9.21499e+07,251.562,0,2.96516,-11368.6,-23677.3,16853.7
9.23598e+07,131.875,0,2.36729,11828.8,17609.1,-10620.1
9.24294e+07,153.422,1,2.54642,-25971.5,-1242.18,-9378.06
9.25245e+07,68.8152,1,2.75817,-14296.1,2827.05,-29180.8
9.26e+07,39.8486,2,2.54374,-4323.91,-3194.49,-22273.9
9.27673e+07,9.457,1,3.05421,523.256,1652.9,-27722
9.27698e+07,18.6107,1,2.5684,-966.188,3258.52,-26718.8
0,18.7051,1,2.97675,0,0,0
9.28567e+07,3.48741,0,2.51886,720.1,8.04535,-29262
9.29851e+07,15.1178,2,3.04897,-3070.71,-720.156,-28025.3
0,15.1814,2,2.57289,0,0,0
9.30731e+07,98.4282,2,2.81606,-10615.4,-3094.68,-11273.3
9.30857e+07,65.3315,0,2.74462,1735.34,6103.89,-16589.7
9.31941e+07,117.223,2,2.38644,-15390.4,-18136.1,-21464.9
9.33201e+07,152.076,0,2.94188,22837.9,1388.7,-6510
9.3588e+07,54.631,2,2.87818,-7276.73,-6790.22,-23016.4
9.36243e+07,23.4488,2,2.40989,3759.79,1138.55,-25890.5
9.39737e+07,63.904,0,2.41503,4691.63,-12291.8,-25516.6
9.49259e+07,72.3031,2,2.41168,12993.4,-7933.08,-27124.6
9.50726e+07,5.93337,2,2.39531,-695.835,-352.127,-27777.3
9.51603e+07,59.6113,0,2.66103,4603.21,-7537.69,-19816.2
9.55989e+07,69.9399,1,2.4009,4733.82,-4616.06,-15641.8
9.56993e+07,27.423,2,2.60732,-1902.87,-1033,-23426.1
9.58413e+07,84.7487,2,2.64535,-16755.1,-3457.72,-23390.4
9.59039e+07,96.8637,0,2.47429,11672.6,16877.9,-27619.2
9.59885e+07,62.9765,0,2.66741,3515.23,9759.98,-20466.6
9.6002e+07,117.321,0,2.55662,-13034.6,7930.58,-10887.4
9.61172e+07,253.144,0,2.6146,15623.8,-17997.1,19018.5
9.67862e+07,155.192,0,2.46366,-21141,-24826.5,-25546.3
9.68402e+07,54.4045,2,2.48307,-5888.18,-8624.82,-23872.9
9.69473e+07,11.2322,1,2.77113,-177.308,2084.97,-27574.3
9.72232e+07,282.275,0,2.79765,8864.97,2541.29,-26846.2
9.73634e+07,74.1677,2,2.445,-677.184,-5980.54,-14329.6
9.75332e+07,64.8472,2,2.86211,10763.9,-1480.85,-27321
9.79123e+07,31.8836,2,2.71837,-6555.34,-1877.43,-28931.7
9.81293e+07,140.308,0,2.58931,21084.4,-11272.6,-11205.3
9.84947e+07,28.999,2,2.86536,-2377.28,-682.397,-23233.2
9.85562e+07,57.6476,2,3.0452,-8526.23,-6242.32,-22813.8
9.86632e+07,142.843,2,2.49945,-22371.1,-17850.5,-18978.3
9.88222e+07,30.1176,2,2.80511,-1829.61,-4600.2,-24778.5
9.88387e+07,45.5156,1,2.57953,4602.74,3971.56,-21339
9.89177e+07,33.8719,1,2.76547,-6864.95,-2036.27,-29366.5
9.9054e+07,152.387,0,2.55355,28398,15380.3,-27993
9.91926e+07,128.258,0,2.39346,23612.9,-11498.4,-21802.7
9.94089e+07,94.6561,2,2.72469,17606.6,5400.35,-21282.8
9.94124e+07,54.7044,1,2.82427,-4028.12,-10576.5,-27027.8
9.95454e+07,1.30289,0,2.43668,99.2548,120.766,-28572.4
0,1.36967,1,2.72249,0,0,0
0,1.28478,0,2.37105,0,0,0
9.98237e+07,64.1814,1,2.67568,3016.31,10314,-20508.3
9.9928e+07,30.4035,0,2.50646,3757.68,-366.907,-23575.4
1.00217e+08,67.4359,2,2.36518,-7464.3,8445.36,-20066.8
1.0025e+08,143.174,0,2.93076,12497,19596.9,-9718.65
1.00432e+08,106.7,2,2.76911,10896.8,-4757.41,-9758.61
1.0046e+08,7.42039,0,2.69609,1668.54,-96.8776,-28663.5
1.00672e+08,117.763,0,2.65387,15331.8,-18137.6,-21298.6
1.01157e+08,12.6059,2,2.95398,-371.619,-2543.2,-29781.4
1.01412e+08,48.849,1,2.64161,-10364.8,460.992,-28743.1
1.01435e+08,162.148,0,2.69029,13151.6,3065.02,2607.47
1.01483e+08,163.243,0,2.76478,27683.7,-19131,-21474.6
1.01519e+08,5.68644,1,2.83465,-258.191,1168.41,-28329.4
1.01585e+08,76.1546,2,2.62257,-11362.3,7452.6,-27398.2
1.01674e+08,256.183,0,2.4759,-19112.1,22230.5,16682.8
1.01677e+08,188.777,0,2.76452,23258.8,10750.6,1614.62
1.0195e+08,131.849,2,2.57188,-11036.6,10732,-5613.28
1.02039e+08,53.4566,0,2.53675,-3129.29,7215.9,-20715.4
1.02226e+08,27.7737,2,3.02878,1114.98,-3176.95,-24019.8
1.02557e+08,51.5903,0,2.60338,6129.82,8322,-25143
1.03062e+08,15.5959,1,2.55603,855.505,2636.96,-26961.6
1.03222e+08,66.9771,1,2.39761,-12147.6,7467.87,-28051.3
1.03226e+08,139.303,2,2.73161,-6188.72,12592.9,-3073.96
1.03346e+08,116.969,2,2.59656,101.275,24112.5,-23728.9
1.0346e+08,145.551,1,2.75507,-11025.2,6471.33,-12093.9
1.03507e+08,20.6839,1,2.38274,2848.73,3399.54,-28928.7
1.03718e+08,117.891,1,3.00714,18385.3,16393.7,-27030.4
1.04234e+08,82.2641,1,2.69043,-7016.17,-6247.61,-15314.9
1.04513e+08,137.975,2,2.99674,-4335.13,15009.1,-4520.09
1.04716e+08,121.995,1,2.93183,-7594.07,13303.4,-8256.63
1.04845e+08,51.3214,0,2.8333,-4397.1,-6751.94,-21729.3
1.05127e+08,27.5531,1,2.8383,3629.99,1125.62,-24492.2
1.05273e+08,48.7779,2,2.56513,5906.34,4020.94,-21461.9
1.05546e+08,26.4129,1,2.71477,-5324.28,1645.58,-29758.5
1.05726e+08,29.4037,2,3.03945,4465.75,-1182.97,-24738.5
1.05839e+08,3.55182,1,2.48651,-193.801,-190.271,-28121
0,3.57802,0,2.47799,0,0,0
0,3.53865,1,2.53525,0,0,0
1.06026e+08,37.2441,2,2.54129,5826.83,-1259.45,-23707.6
1.06126e+08,7.46617,2,2.68213,-350.564,-1454.98,-28111.4
0,7.47598,2,2.64239,0,0,0
1.06424e+08,19.9163,0,2.6555,3132.12,2833.38,-29452.2
1.06972e+08,75.9882,1,2.87608,-9823.38,9058.61,-19968.5
1.07e+08,61.3458,0,3.04806,-2363.32,12617.4,-28064.7
1.07498e+08,129.638,1,2.85349,21287.9,-13007,-18026.9
1.07777e+08,127.88,2,2.38706,-9240.98,-9057.2,-5012.1
1.07886e+08,7.38579,1,2.45085,65.8143,1361.5,-27910.1
1.07984e+08,62.2619,2,2.4077,9584.35,-2795.35,-20223.1
1.08441e+08,88.4296,1,2.64504,-15700.6,9001.49,-27125.8
1.08561e+08,34.2074,1,2.67084,453.306,7211.87,-27673.9
1.09013e+08,35.9794,1,2.83174,-5087.44,5669.57,-29753.5
1.09257e+08,99.5296,1,2.8429,-14718.2,13941.5,-23272
1.09355e+08,21.5489,0,2.96131,769.016,-3553.77,-26092.6
1.095e+08,96.8412,2,2.82026,1247.32,-19852.9,-24096.9
1.09561e+08,23.968,1,2.44144,-2218.7,4370.51,-27244.1
1.09656e+08,23.0107,1,2.72004,-4094.51,2406.71,-27445.1
1.09683e+08,10.6883,2,2.87651,799.959,-2174.43,-28677.1
1.09933e+08,102.154,2,2.99738,-20237.1,-7170.51,-28133.4
1.10228e+08,46.9196,0,2.97742,-2878.75,5093.32,-20950.5
1.10318e+08,176.63,1,2.6101,-3462.08,25214.1,-1518.3
1.10478e+08,7.09581,2,2.79323,-142.906,-1548.56,-29199.7
1.10565e+08,55.4836,1,2.84689,4483.26,-2198.9,-18311.6
1.11386e+08,48.0734,0,2.59244,2842.31,-4295.96,-20045.1
1.11602e+08,65.5276,0,2.94056,5340.3,4505.32,-16939.2
1.11735e+08,67.9029,2,2.75105,8714.37,-9670.41,-22800.9
1.11911e+08,9.80157,1,2.51699,-2037.51,-11.6981,-29481
1.12188e+08,50.5652,0,2.64074,-3514.47,4100.88,-19635.3
1.12573e+08,36.7038,0,2.72755,3839.78,-5400.42,-24751.9
1.12743e+08,58.3209,1,2.94399,-1504.13,4059.49,-26146.2
1.12826e+08,113.839,0,2.51526,9379.97,-22207,-29939.4
1.12902e+08,8.24313,0,2.81987,-932.631,-83.7201,-27391.3
0,8.23771,0,2.87994,0,0,0
1.13225e+08,128.022,0,2.49397,25571.2,-9086.6,-29885.1
1.13533e+08,62.7476,0,2.97552,11121.4,-6846.45,-26551.2
1.13673e+08,15.7032,2,2.39063,1202.81,-2559.73,-26961.1
1.14265e+08,4.97329,1,2.4342,378.716,404.198,-27904.8
1.14275e+08,36.2976,1,2.54191,-1268.19,7495.04,-27219.2
1.14375e+08,143.065,2,2.66978,-19868.2,-688.213,-6102.84
1.14527e+08,13.6893,1,3.00835,-485.417,2806.86,-28085.9
1.14551e+08,23.6907,0,2.43643,476.305,-3373.1,-25109.2
1.14773e+08,66.5196,0,2.50097,-7131.22,-8120.72,-19917.3
1.14822e+08,9.63345,0,3.00439,1460.03,-612.803,-27462.7
1.1488e+08,15.3589,2,2.58055,-1648.62,-515.003,-26029.1
1.15144e+08,27.2313,0,2.39927,2697.96,-4209.76,-25835.2
1.15163e+08,93.7923,0,2.61162,5175.57,-12301.7,-14149.1
1.15493e+08,77.6014,0,2.6892,14501.9,1168.18,-21153.7
1.1558e+08,2.57319,0,2.4985,378.661,493.145,-28960.8
1.15583e+08,130.24,0,2.48405,12701.1,-3251.48,-4561.03
1.15799e+08,159.037,1,2.79037,-24664.8,-15323,-12268.3
1.15834e+08,36.3225,0,2.80539,-4847.83,5503.59,-26830.3
1.15879e+08,40.6362,1,2.90964,-8390.27,1604.85,-27776.2
1.16735e+08,19.6704,0,2.99112,1620.18,3083.59,-26532.1
1.17407e+08,66.1887,1,2.38185,8008.08,10961.5,-25221.5
1.17429e+08,10.1724,1,2.99229,-1926.14,1140.93,-28808.9
1.17582e+08,161.746,1,2.48288,23524.2,-8407.52,-5534.05
1.17994e+08,82.132,1,2.75189,3709.45,9139.13,-14588.9
1.18069e+08,126.875,2,2.39539,-4129.7,-14628.1,-6667.97
1.1929e+08,39.2396,1,2.83588,4523.82,3530.03,-22890.9
1.19543e+08,60.3715,2,2.36281,-6272.93,-6802.25,-19921.6
1.19546e+08,185.45,1,2.83239,9911.45,-9980.61,-27087.8
1.19632e+08,107.384,0,2.71472,9613.81,-14627.5,-14457.6
1.1968e+08,0.765269,1,2.70891,-22.6487,229.753,-28948.1
1.19883e+08,43.9087,2,2.56286,-5972.53,-3761.2,-22691.3
1.20011e+08,83.2519,1,2.56756,11876.3,-8063.29,-18734
1.20122e+08,40.1483,0,2.42503,6667.58,3048.67,-24370.1
1.20357e+08,203.948,1,2.70504,-24271.2,-11613.6,2606.92
1.20418e+08,259.112,2,2.59921,-26975.4,-13418.8,14031.5
1.20492e+08,5.94384,0,2.76341,1237.65,-413.908,-28455.4
1.20613e+08,12.3679,0,3.05642,43.704,-1520.76,-26744.1
1.20615e+08,82.3585,2,2.72809,-11028.4,10829.4,-20987.5
1.20993e+08,39.5854,1,2.46745,-4436.97,5504.31,-24190.8
1.21047e+08,7.81389,0,2.98856,616.404,192.341,-27269.7
1.21276e+08,27.782,0,2.67403,461.401,3244.08,-23949.1
1.21438e+08,16.262,1,2.47604,1434.19,1404.5,-26005.2
1.21513e+08,171.676,2,2.75355,-23939.2,-8838.39,-3169.32
1.21669e+08,36.5806,2,2.65768,3608.1,-5907.69,-25302.9
1.21927e+08,32.3431,0,2.53035,-2300.7,-6342.57,-27890.1
1.22113e+08,38.4216,1,2.96004,-4881.28,6323.28,-27117.1
1.22126e+08,201.57,0,3.04981,-29182.9,-2964.68,1428.27
1.22371e+08,35.9889,0,2.77443,-4187.81,3281.84,-23466.8
1.22992e+08,25.8023,0,2.67023,-3400.55,-3034.21,-25940.3
1.23106e+08,27.8361,0,2.9205,5302.92,-2149.54,-27211.6
1.23214e+08,26.3618,2,2.76172,3622.06,-2212.05,-29778
1.2343e+08,1.16425,0,2.71936,-105.073,36.8161,-28659.7
1.23472e+08,145.088,1,2.72417,7629.17,12052.5,-1773.98
1.23565e+08,60.6745,2,2.36722,-10142,-2289.19,-21197.4
1.23649e+08,66.9079,2,2.60594,7340.74,-7380.81,-19235.8
1.23789e+08,79.6525,1,2.74272,4270.22,12626.9,-18538.2
1.24174e+08,53.9999,2,2.48536,-3945.07,-10772.1,-29994.4
1.24348e+08,25.1203,0,2.61229,4084.46,2499.52,-26427
1.24852e+08,139.719,1,2.4694,-13866.1,9422.74,-4443.76
1.25131e+08,11.0856,2,3.00325,1638.4,748.232,-27432.7
1.25572e+08,44.6844,1,2.96359,2398.74,5335.77,-21458.4
1.25871e+08,161.331,2,2.68963,11394.9,-27058.8,-11614.6
1.26204e+08,79.8789,0,2.38453,-5950,15297,-24865.5
1.26402e+08,35.4195,1,2.63657,-5273.48,-3461.02,-24769.5
1.26899e+08,58.6368,2,2.669,6481.09,-10107.2,-25600.1
1.26917e+08,15.0929,2,2.73667,184.909,-3241.17,-29278.9
1.27631e+08,60.3999,0,2.36718,-11317.4,759.109,-23065.4
1.27667e+08,129.723,0,2.66952,-5453.03,25755.3,-21344.3
1.27858e+08,133.908,0,2.68599,25045.4,1925.52,-15744.1
1.2798e+08,61.4004,1,2.91583,-8861.35,6217.44,-21730.1
1.28001e+08,36.5318,1,2.68314,1645.96,6371.5,-24774.8
1.28519e+08,115.509,2,2.51113,-8882.64,17067.8,-17456.6
1.2855e+08,30.5513,1,2.84957,-5850.95,2871.63,-28781.9
1.28776e+08,17.5191,2,2.75553,-303.954,-3437.05,-27331
1.28777e+08,16.7551,2,2.39337,-2061.12,-1357.07,-26191.8
1.28823e+08,132.889,0,2.7929,21623.7,17122.3,-23824.9
1.28985e+08,82.4158,1,2.73332,12468.9,692.195,-16800
1.29101e+08,103.031,1,2.63489,-11024.7,-5185.69,-10810
1.29563e+08,43.4416,1,3.05118,2713.96,-4232.43,-21302.3
1.29611e+08,97.0537,1,2.72808,13587.7,1024.61,-13609.2
1.29705e+08,48.3188,1,2.38067,886.126,8300.82,-22808.8
1.29978e+08,74.6847,1,2.87375,14793.3,4850.56,-26846
1.29982e+08,61.7454,2,2.37058,5511.76,-1795.47,-23498.1
1.30026e+08,82.433,1,2.77178,-16174.2,2267.96,-28365.1
1.30091e+08,51.9091,0,3.0014,6329.25,-1112.97,-19969.3
1.30161e+08,19.6382,0,2.87932,3330.35,-1180.9,-26545.1
1.30171e+08,142.379,1,2.39743,-7698.08,-13400.4,-3019.38
1.30246e+08,47.3837,2,2.90107,6705.44,-7416.99,-28632.4
1.30515e+08,2.27797,1,2.47249,-49.6634,-359.442,-28552.4
1.30791e+08,31.3266,1,2.72209,4374.99,1035.8,-24006.9
1.30867e+08,147.237,1,2.45735,-533.914,22646.3,-29029.3
1.3109e+08,11.9696,2,2.70757,1051.4,-2369.25,-28897.8
1.31103e+08,77.9626,1,2.81684,-13689.7,8841.42,-26247.7
1.31349e+08,116.074,1,2.97619,7761.86,21039.9,-19234.7
1.31351e+08,148.971,2,2.79465,11305.2,24288.2,-12703.2
1.31485e+08,29.3392,0,2.57839,-1530.75,-5627.88,-26739.6
1.31573e+08,18.1917,0,2.54663,2858.66,2150.09,-27234.3
1.31872e+08,115.562,2,2.37706,2597.29,11272.4,-7321.39
1.31899e+08,5.07877,1,2.80863,-1125.39,69.3348,-28672.3
1.32071e+08,11.0011,1,2.39523,584.728,2307.74,-28419
1.32429e+08,136.124,0,2.68053,-24564.1,-10380.9,-18417.9
1.3248e+08,104.189,1,2.89535,121.907,11736.6,-10308.1
1.3261e+08,41.1214,1,2.69801,-2423.64,4666.05,-21866.5
1.33233e+08,46.4519,1,2.94384,-2174.2,9567.35,-28419.8
1.33337e+08,154.365,1,2.53228,-28647.3,-5042.75,-13974.4
1.3338e+08,47.6583,2,2.92123,-7776.54,2975.89,-23232.7
1.33701e+08,102.005,0,2.75941,16511.2,-5707.04,-24232.1
1.34308e+08,49.918,2,2.97493,-6199.84,6681.98,-23675.5
1.34421e+08,156.163,1,3.02018,-26386.9,15794.7,-17427
1.34461e+08,104.812,2,2.73862,-9834.28,-5203.53,-9730.27
1.34546e+08,18.3963,2,2.86635,-2397.98,2414.66,-26993.8
1.34665e+08,41.3246,0,2.88817,2755.4,-1631.73,-20714.6
1.35023e+08,75.6373,2,2.99316,-7478.29,-3919.28,-27323.3
1.35517e+08,199.23,1,2.51606,29861,-29218.5,-24297.8
1.3559e+08,19.8024,2,2.5161,1427.96,-3036.3,-26240.9
1.3565e+08,55.2264,0,2.6837,1588.03,-10608.1,-24207.8
1.35899e+08,14.7912,2,2.56108,-1548.07,-1085.35,-26258.3
1.36029e+08,16.2281,2,3.0489,-3357.85,552.287,-28167.6
1.36135e+08,10.6116,0,2.6679,1901.58,1096.06,-28026.2
1.36142e+08,11.3398,0,2.44899,1084.82,-1907.24,-27739.2
1.36261e+08,18.7551,1,3.0353,-2540.13,-2393.74,-27011.5
1.36349e+08,26.9251,1,2.654,1139.49,5637,-29377.9
1.36403e+08,167.355,1,2.95282,-25516.5,14460.2,-9433.39
1.36746e+08,45.7698,1,2.72933,-8022.86,5553.74,-28910.2
1.3687e+08,32.9552,1,2.45507,-6408.94,2990.17,-28967.4
1.37031e+08,77.9548,0,2.52504,10511.6,9999.82,-20852.7
1.37866e+08,37.6076,2,2.77152,-1887.9,7194.68,-26194.4
1.37894e+08,200.966,1,2.46006,18624.9,-25943.5,-858.966
1.38027e+08,47.4987,2,2.95601,2262.63,6485.61,-21679.7
1.3808e+08,82.7331,0,2.80924,7801.99,11498.8,-18289.8
1.38234e+08,61.1217,0,2.46414,11730.4,-3550.37,-24456.3
1.38286e+08,212.337,0,2.49052,-21618.2,27516.6,-773.356
1.38704e+08,55.0936,2,2.70222,9732.73,-6068.94,-26967.8
1.38937e+08,37.9885,2,2.82351,-2983.23,-3893.05,-22443.9
1.39135e+08,6.95541,1,3.01866,554.947,773.29,-27680.3
1.3925e+08,8.77166,0,2.5199,1563.47,-854.384,-28041.4
1.39499e+08,4.61295,0,2.61126,326.345,967.54,-28877.7
1.39921e+08,12.8164,0,2.9836,319.771,-2551.21,-27931
1.40069e+08,76.6184,2,2.4911,1464.13,7001.73,-14332.3
1.40094e+08,217.468,1,2.85782,13944.7,-28677.5,3817.61
1.40112e+08,12.6105,2,2.93452,22.789,-2545.29,-27820.9
1.40487e+08,120.2,2,2.49449,-23569.3,-4319.66,-20196.3
1.40538e+08,2.2201,1,2.6858,16.8934,199.493,-28366.2
1.40595e+08,2.18775,2,3.05424,164.25,-468.871,-28673.4
1.40636e+08,50.2796,1,2.90974,-3552.16,10038.5,-28611.1
1.41191e+08,248.887,2,2.90263,-15872.2,5255.97,16173.8
1.41551e+08,39.0051,2,2.36512,-2506.66,7659.77,-27145.2
1.41604e+08,4.39997,0,2.94907,540.624,62.032,-28010.3
0,4.41609,0,2.81289,0,0,0
1.41842e+08,50.8464,2,2.80473,-9848.58,3143.77,-25959.5
1.41875e+08,56.8125,1,2.43783,5542.36,-9247.47,-23663.4
1.41897e+08,51.2624,2,2.85076,-1721.74,7868.3,-21694.5
1.41918e+08,19.1173,2,2.4008,2711.33,-2438.13,-27015.8
1.42221e+08,31.1636,1,3.04312,1513.24,-4027.32,-23960.6
1.42283e+08,14.0741,1,2.92867,-1234.19,2621.06,-27842.6
1.42328e+08,35.753,2,3.04677,-4628.44,-657.753,-23884.5
1.42337e+08,10.1988,1,2.95132,1.18009,2026.91,-29739.3
1.431e+08,24.0004,1,2.5783,-1359.5,4613.4,-26975.4
1.43143e+08,28.4135,2,2.5398,3546.77,1227.53,-24189
1.43388e+08,81.273,0,2.9464,-3538.09,-14420.9,-20434.1
1.4352e+08,38.3895,1,2.72698,1371.46,-3571.51,-26442.1
1.43678e+08,27.8898,1,2.69112,-1907.84,5464.01,-27289.7
1.43939e+08,25.1851,0,2.41442,2060.01,4917.03,-29352
1.44145e+08,128.102,1,2.89803,14492.2,10924.3,-8947.03
1.44306e+08,21.8954,1,2.66521,-2769.04,2464.22,-25941.4
1.44388e+08,5.08209,1,2.40663,-788.385,733.599,-29350.9
1.4441e+08,61.9229,0,2.95597,5048.84,12000.6,-29763.4
1.44524e+08,171.991,1,3.04502,15340.8,-12087.6,-21400.3
1.44655e+08,42.6233,1,2.81041,-6658,2682.18,-23361.1
1.45249e+08,71.1298,1,2.3668,-14976,-985.709,-26976.8
1.45725e+08,114.203,2,2.52383,22036.7,-9893.7,-29538.3
1.45772e+08,4.05657,0,2.88562,853.4,-197.158,-28492
1.4592e+08,19.478,0,2.67128,3239.3,747.423,-26287.3
1.4616e+08,66.9206,2,2.67981,-13291.1,-2268.46,-24486.8
1.46332e+08,127.163,1,2.44472,22161.1,3293.23,-13985.4
1.46537e+08,64.3493,0,2.4304,13017.3,-1175.52,-24667.8
1.47052e+08,191.731,2,2.91914,14394.1,-9634.93,-25376.5
1.47234e+08,14.3156,1,2.4277,-1895.73,704.892,-26496.5
1.47377e+08,21.5732,0,2.50906,4011.17,-1462.3,-26957.6
1.47634e+08,45.5216,2,2.97393,4876.91,-5570.3,-22755.7
1.47714e+08,59.9506,0,2.71623,6687.13,8453.25,-26000.7
1.48092e+08,128.941,1,2.97914,4044.55,26623.6,-25585.5
1.48215e+08,88.4328,1,2.86321,-5798.52,2973.95,-11613.9
1.48237e+08,8.3618,1,2.84528,-397.217,1732.54,-28346.9
1.48498e+08,0.606502,1,2.3716,-17.194,50.8925,-28680.1
0,0.614009,1,2.40399,0,0,0
0,0.73312,1,3.03319,0,0,0
0,0.634485,1,2.71911,0,0,0
0,0.614868,1,2.91143,0,0,0
0,0.613871,1,2.8789,0,0,0
1.48517e+08,11.472,0,2.86044,2274.99,-1006.4,-28400.7
1.48729e+08,54.3642,2,2.67203,-6382.73,-2139.48,-19481.9
1.48814e+08,38.9305,2,2.40791,-4427.55,5781.23,-25015.9
1.49485e+08,57.2581,1,2.79446,-9732.07,-5979.34,-24905.8
1.49714e+08,103.157,1,2.53387,13224.2,17379.7,-29876.9
1.49725e+08,43.2228,0,2.51445,8624.06,1698.59,-26004.6
1.49931e+08,39.8924,0,2.58322,-2761.51,6123.48,-23750.4
0,40.0811,0,2.6978,0,0,0
1.49979e+08,50.0592,2,2.45941,-5759.08,-1748,-20063.5
1.50135e+08,76.4193,0,2.93815,4075.59,-12093.3,-19046.5
1.5019e+08,109.101,2,2.95132,6914.18,-20355.5,-20812.1
1.50297e+08,86.981,2,2.82015,7669.52,-16653.3,-27766.5
1.50571e+08,50.1771,0,2.73789,2587.96,-9158.24,-24135.7
1.50814e+08,109.618,0,2.69993,-3648.35,-22801.7,-28045.4
1.50856e+08,22.4181,2,2.77763,3550.2,-3011.2,-27988.1
1.50883e+08,162.831,2,2.78281,-6363.43,-28096.5,-10183.3
1.50927e+08,185.935,1,2.54163,25699.7,28986.3,-21965.8
1.51197e+08,34.875,1,3.00168,5317.63,-4522.94,-26828.7
1.51243e+08,19.1687,2,2.60727,-3675.85,196.269,-27043.1
1.51284e+08,64.3325,2,2.3769,1802.42,-9859.97,-19535.5
1.51454e+08,18.2574,2,2.50248,2023.39,-1777.52,-26011.9
1.51596e+08,5.14073,0,2.70549,-56.3975,-380.708,-27815.1
1.51905e+08,58.3117,0,2.96159,9388.17,-3089.64,-21493.2
1.52062e+08,216.272,0,2.60328,-23378.6,-1403.21,10322.1
1.52188e+08,139.804,2,2.82321,-18569.1,-6043.3,-6782.87
1.52418e+08,74.7051,0,2.60186,-3276.26,-10848.1,-17914.8
1.52457e+08,9.98084,2,2.96596,-1092.21,-1824.32,-28274.5
1.52719e+08,99.9548,1,2.76059,-7214.78,-14164.3,-25345.2
1.52725e+08,4.84703,1,2.64558,694.777,467.068,-28255
1.52738e+08,38.4012,1,2.59607,-5000.62,-5726.81,-25980.4
1.52778e+08,4.89404,1,2.5201,288.36,1068.14,-29036.6
1.53075e+08,2.27142,2,2.47272,-31.4947,33.1523,-28335.3
1.53097e+08,13.1709,2,2.5037,-2483.46,-1495.7,-28797.7
1.53469e+08,35.6933,1,2.43768,3927.29,6133.49,-26678.9
1.54464e+08,17.6036,1,3.04848,-2766.7,-2084.51,-27543.3
1.54628e+08,42.8249,2,2.8215,1266.04,3909.05,-20827.2
1.54863e+08,14.2878,0,2.5583,1266.72,-1564.36,-26501.3
1.54965e+08,49.2407,1,2.9364,-6207.79,5012.67,-22165.5
1.55041e+08,5.7257,2,2.75304,-624.733,-1110.85,-28534.9
1.55137e+08,34.7783,1,3.02581,-5367.6,1893.44,-24198.8
1.55319e+08,29.4534,0,2.95633,2996.85,5273.95,-27420.3
1.55438e+08,31.1907,2,2.78018,2625.16,3961.57,-24384.3
1.55737e+08,25.5668,1,2.9045,-5223.14,524.902,-27353.7
1.55937e+08,276.046,1,2.52642,27070.1,16205.1,20258.8
1.56517e+08,26.4319,1,2.75126,-4890.45,2862.83,-28734.6
1.5683e+08,151.824,2,2.40773,-22109.9,22914.9,-24581.1
1.56866e+08,157.501,2,2.8889,-25472.4,-19822.3,-21155.1
1.56953e+08,133.531,2,2.89169,11433.2,18244.1,-10931.8
1.57351e+08,2.90701,2,2.81339,144.872,-668.459,-28657.4
1.57736e+08,8.16524,0,2.93376,763.465,-1166.07,-27749.8
1.57849e+08,36.977,1,2.79512,1366.25,7261.52,-26121.8
1.58015e+08,284.635,2,2.7813,-27888.7,29828.9,14932.1
1.5819e+08,83.2186,0,2.85609,12467.1,11975.3,-25733.2
1.58412e+08,60.212,1,2.80434,-8707.83,4139.28,-20510.1
1.58766e+08,2.44704,0,2.89064,-179.229,-206.553,-28398.7
0,2.13705,2,2.60537,0,0,0
1.59024e+08,111.083,0,2.8551,-9186.33,16944.3,-19638.9
1.59028e+08,150.105,1,2.72738,22587.5,22186.8,-28226.1
1.59158e+08,79.8211,2,2.81556,3853.13,-16164.2,-25890.3
1.5962e+08,8.01924,2,2.87735,1225.46,196.387,-27716.5
0,7.54286,0,2.76484,0,0,0
1.59864e+08,9.94657,0,2.80915,334.17,1062.72,-27048.8
1.60029e+08,127.843,0,2.6372,5197.62,25902.7,-23137.5
1.60562e+08,9.79698,2,3.03642,134.045,1431.88,-27405.7
1.60667e+08,9.7529,2,2.49309,773.623,622.603,-27115.8
1.61079e+08,243.059,2,2.98933,-26926.7,12620.2,12546.1
1.61259e+08,62.0274,1,2.77918,-11705,-5082.39,-26046.5
1.61353e+08,86.7053,1,2.69556,4559.76,-12715.1,-16604.3
1.61355e+08,87.7008,0,2.59842,7613.65,-503.387,-11918
1.61494e+08,74.9218,0,2.71075,7023.61,3252.75,-15030.1
1.61509e+08,57.8988,0,2.57749,11319.7,-4852.26,-29231.4
1.61775e+08,86.2098,1,2.94599,4307.69,17068,-24307.4
1.61867e+08,40.0469,1,2.42719,-2041.49,7772.41,-25892.8
1.62398e+08,99.3483,1,2.44513,-6925.93,19890.4,-29816.6
1.626e+08,130.006,2,2.77577,-5543.28,-11295.9,-4502.4
1.62668e+08,21.1711,2,2.9133,-2325.07,-2531.77,-25877.5
1.62959e+08,120.452,0,2.98899,16972.6,18763.4,-29310.5
1.63041e+08,68.8835,2,2.87543,-110.134,-8791.67,-17266.8
1.63873e+08,135.481,0,2.67822,-525.069,27864.2,-22506.3
1.64019e+08,73.4366,1,3.01869,9600.79,5346.91,-18050
1.64236e+08,83.0164,1,2.63702,5705.23,-6242.01,-13506.6
1.64647e+08,88.7586,0,2.83752,14171.3,6009.53,-18145.6
1.64952e+08,509.294,0,2.83393,17550.7,-22905.5,20817.6
1.65084e+08,44.3678,2,2.87265,-2302.1,-6825.94,-22790.1
1.65231e+08,244.208,0,2.4592,13257.1,24358.3,14761.2
1.6526e+08,596.13,0,2.84923,-17395.9,2643.26,9211.92
1.65275e+08,63.3383,1,2.44914,-8831.32,-4770.51,-19965
1.65289e+08,266.111,2,2.38478,15144.9,25515.7,18984.3
1.6529e+08,34.9278,0,2.4948,4354.84,-5706.11,-26765.2
1.65383e+08,55.0152,2,2.46165,-5999.84,-5978.8,-20771.5
1.65427e+08,91.3021,0,3.01626,10149.5,-15126.9,-22822.6
1.65431e+08,11.2308,1,2.61933,-34.0322,-1440.48,-26995.8
1.65457e+08,268.912,2,2.97352,-22745.3,-7244.72,20968.6
1.65902e+08,7.59772,0,2.71271,1228.45,1027.51,-28319.2
0,7.70685,0,2.38986,0,0,0
0,7.57488,0,2.77921,0,0,0
1.66002e+08,107.048,2,2.84257,16519.9,591.242,-14767.1
1.66012e+08,52.0746,0,2.80556,-2501.53,10222.8,-25734.3
1.66094e+08,140.893,1,2.38671,-18720.3,-3924.54,-5938.18
1.66228e+08,4.22639,0,2.52041,720.967,452.548,-28404.3
1.66335e+08,147.91,2,2.87885,-10190.5,-28556.9,-22058.1
1.66553e+08,150.123,2,2.93047,-11215.8,-14544.4,-3172.65
1.66886e+08,0.299868,1,2.95067,-98.2971,139.713,-28890
1.66956e+08,35.314,2,2.65202,5521.12,-5019.3,-29199.8
1.66996e+08,67.2306,0,3.00231,7884.51,-5417.91,-18404.7
1.67529e+08,38.8219,0,2.82095,7524.66,-1887.04,-26033.6
1.67613e+08,166.373,2,2.83355,2242.5,-13137,3540.09
1.67638e+08,78.9775,0,3.05669,13450.2,1512.94,-19200.4
1.67856e+08,50.6098,0,2.8526,5474.92,348.107,-19652.5
1.67967e+08,88.092,2,2.8486,17442,-5876.95,-26690
1.68195e+08,26.5356,2,2.59208,4790.2,-2505.18,-27334.8
1.68366e+08,150.773,1,2.78933,-18457,16204.8,-9066.74
1.6841e+08,40.1026,2,2.51461,-5786.21,3289.43,-23548.6
1.68582e+08,34.1787,0,2.54337,5880.9,1275.66,-24689.6
1.68703e+08,23.882,0,2.69992,3927.44,1622.76,-25987.5
1.68884e+08,33.2321,0,2.42699,5330.54,3849.82,-26181.6
1.68939e+08,26.2682,0,2.91497,-2054.6,2122.34,-24213.6
1.6895e+08,28.5747,0,2.66603,5831.65,1611.18,-27896.9
1.69086e+08,34.8135,2,2.97093,-5465.48,-4985.17,-29130.1
1.69151e+08,154.8,1,2.44787,-8309.53,21378.2,-5378.45
1.69418e+08,135.87,1,2.4979,-20721.1,19707.3,-25368.7
1.69432e+08,135.941,0,2.5771,7250.14,-27803,-27505.6
1.69469e+08,41.8969,1,2.52747,-7053.17,4465.17,-25639.6
1.70026e+08,59.2183,1,3.00222,7570.4,8813.06,-24305.8
1.70157e+08,29.2406,2,3.05043,-1780.85,-4772.85,-25286.6
1.70181e+08,240.24,2,2.43585,-14502.4,-12107.1,54.6186
1.70556e+08,215.248,0,2.82579,-19880,-9029.35,10725.4
1.7085e+08,147.255,1,2.84333,913.37,8415.73,-23721.3
1.70957e+08,37.8778,2,2.74215,-2047.95,-3670.02,-21976.4
1.71478e+08,8.87802,1,2.70554,144.5,-797.688,-27171.5
0,8.88215,1,2.61901,0,0,0
1.71583e+08,73.4455,0,2.97868,10012.1,9542.37,-21935.6
1.71896e+08,5.42698,1,2.52305,312.953,754.392,-27945.2
1.71963e+08,17.9292,0,2.61744,2716.92,-234.674,-26121
1.71994e+08,57.3683,2,3.00105,-6957.66,7131.15,-22077.9
1.72142e+08,37.1377,1,2.69774,4111.08,-1541.03,-22356.1
1.72814e+08,77.5515,1,3.01488,4599.18,-6217.05,-19146.3
1.72828e+08,4.15417,0,2.63332,690.156,-408.038,-28298.3
1.72995e+08,202.533,2,2.44406,560.697,9723.17,-14156.2
1.73232e+08,56.477,2,2.50273,-8772.11,-794.035,-20684.6
1.73237e+08,145.654,2,2.619,19816.7,2972.11,-5586.82
1.73243e+08,157.469,2,2.55144,25671.2,4243.02,-8183.36
1.73798e+08,36.4462,2,2.53315,-5337.53,-5573.81,-27717
1.74196e+08,105.708,1,3.04898,-6361.55,-13500.7,-12520.7
1.74299e+08,1.91041,1,2.69388,244.328,-185.957,-28628.8
0,1.57972,0,3.00071,0,0,0
1.74643e+08,103.841,2,2.42574,21658.7,-2654.61,-26572.8
1.75086e+08,96.4014,1,2.69514,8020.09,11937.1,-14409.3
1.75117e+08,88.5285,1,2.74093,-13749.9,7635.4,-26099.4
1.75189e+08,11.283,0,2.75245,1985.2,-1362.88,-28298.9
1.75209e+08,53.9411,2,2.4651,7446.24,-6440.83,-22996.6
1.7554e+08,15.5463,2,2.56948,-2734.5,-1962.64,-29103.7
1.75713e+08,11.936,2,2.74708,-386.71,-2085.69,-27336
1.75758e+08,19.4358,2,3.01868,-2171.71,-2117.18,-25993.7
1.75772e+08,50.7044,1,2.96104,10619.4,267.564,-28356.6
1.75848e+08,51.3508,2,2.83934,-3729.88,-9230.48,-24397.8
1.75929e+08,31.3549,0,2.94413,6091.53,2738.86,-28586.9
1.7612e+08,83.2777,2,2.88949,-7327.88,4363.74,-13557.7
1.76131e+08,52.5937,0,2.84624,3872.65,-2583.67,-18763.3
1.76467e+08,8.6895,2,2.39687,-1786.4,-597.216,-28513.2
1.76652e+08,96.3319,0,2.94137,-1768.06,-7488.78,-23385.3
1.7677e+08,80.3324,0,2.47974,9796.88,5530.08,-16017.9
1.77117e+08,16.8468,1,2.99561,-1522.09,1227.72,-25834.1
1.77231e+08,98.5242,2,2.8287,-19031.9,-1892.64,-20690.5
1.7773e+08,9.49112,0,2.50471,1397.95,1526.89,-28638.8
1.77899e+08,99.5605,0,2.46912,9000.12,7624.38,-15700.9
1.78718e+08,63.6455,0,2.84553,-5948.15,-3344.29,-17356.6
1.78721e+08,85.9473,0,3.01862,-2023.48,-16969.9,-23136.6
1.78773e+08,90.8941,1,2.55228,-3516.81,17632.9,-21794.2
1.78844e+08,99.3201,0,2.77469,5934.46,12281.9,-12985.4
1.78879e+08,33.058,2,3.05117,-6243.86,1249.17,-25966.5
1.789e+08,40.3698,2,2.52229,-8285.68,-2272.06,-29294
1.78933e+08,167.224,1,2.81351,-3644.95,-16784.8,1826.41
1.78942e+08,66.4362,2,3.02116,7996.29,-9837.61,-23038.3
1.79182e+08,76.0811,1,2.72908,-13860.9,7418.59,-25348.2
1.79254e+08,104.452,0,2.55402,12651.9,-13420.6,-16600.9
1.79386e+08,44.1532,0,2.80146,-6403.49,6671.71,-28793.9
1.79459e+08,43.7488,1,2.74009,8456.83,3696.94,-28388.1
1.79476e+08,28.8071,2,2.52707,-2133.07,3606.32,-24452.9
1.79824e+08,30.3305,1,2.79732,-5902.49,1086.46,-26450.3
1.80911e+08,18.344,2,2.84146,-2420.77,793.527,-25930.9
1.81154e+08,69.6184,2,2.61083,-13801.2,-1690.61,-23866.8
1.81194e+08,277.354,0,2.80965,3225.33,-941.832,-22726
1.81198e+08,14.1945,2,2.43793,-1413.65,-2532.99,-27730.3
1.81606e+08,73.6589,2,2.459,-10350.3,-7733.81,-20022.5
1.81647e+08,7.20058,0,2.4835,651.913,-1324.08,-28247.5
1.81654e+08,10.4665,1,2.5516,1105.37,938.809,-27116.9
1.81792e+08,91.301,1,2.61887,1517.39,-17679.1,-21455.8
1.819e+08,55.6979,2,2.45653,-10187.3,2263.21,-23257.9
1.82195e+08,40.5342,2,2.8298,2434.14,-2829.44,-21147.9
1.82315e+08,11.1547,2,2.71534,-1467.75,489.19,-27018.8
1.82474e+08,99.9638,2,2.63424,-16783,-9042.67,-19665.2
1.82902e+08,57.1139,0,2.94174,-4240.69,11208.2,-28715
1.82951e+08,141.832,2,3.02264,24354.8,16668.1,-26197.3
1.83096e+08,79.5013,0,2.78815,-2955.16,-7169.04,-14007.9
1.83141e+08,113.787,2,2.64963,-20988.3,11715.5,-29299.1
1.83209e+08,35.3351,2,2.49025,5621.72,224.232,-23951.7
1.83224e+08,205.254,0,2.97392,-5385.68,-25594.1,5345.79
1.83366e+08,58.0958,0,2.91702,5481,10815.4,-27037
1.83667e+08,92.6811,2,2.57909,9925.93,-9452.45,-14835.4
1.84069e+08,42.9138,1,2.69233,-8618.16,-2603.7,-27738.7
1.8415e+08,25.952,2,2.84714,-140.118,-4745.77,-25988.4
1.84734e+08,100.801,0,2.80008,17597.6,-6918.82,-19037.1
1.84968e+08,55.6619,1,2.65607,-547.645,-7809.7,-20106.2
1.84997e+08,182.712,0,2.49859,15500,-16396.8,2569.84
1.8503e+08,25.6176,1,3.04089,-3355.73,3368.32,-26181.9
1.85381e+08,6.36743,0,2.55262,489.296,1300.09,-29055.6
1.85408e+08,21.9792,2,2.82312,4386.87,-568.51,-27488.4
1.85598e+08,75.22,2,2.67454,-9396.86,-12916.4,-28979
1.86287e+08,99.7927,2,2.7111,-7405.32,-9908.6,-11777.9
1.86407e+08,32.2193,1,2.53781,-4774.99,2971.52,-24867.2
1.86412e+08,132.248,1,2.84556,23662.9,-6336.5,-15793
1.86515e+08,107.136,1,2.91479,4003.13,20614.8,-20625.9
1.86903e+08,77.884,0,2.97247,9454.35,11423.4,-21889.5
1.87132e+08,4.68007,0,2.52561,-802.847,169.907,-28365.3
1.87424e+08,3.12222,1,2.56183,69.8294,383.289,-28233.7
0,3.18484,1,2.84288,0,0,0
1.87551e+08,97.3851,1,2.42725,-12087.8,16710.7,-29510.6
1.87948e+08,301.286,0,2.87603,-45.9413,-29274.6,27280.1
1.87982e+08,8.63314,1,2.91343,-985.191,-34.505,-27289.5
1.88559e+08,9.1695,1,2.57777,1001.84,1677.37,-29271.5
1.88644e+08,44.9492,0,2.78573,1480.08,-1329.32,-27657.3
1.88736e+08,104.191,0,3.03393,6506.7,-3764.17,-11846.2
1.88976e+08,13.498,0,2.86696,1668.66,646.19,-26572.2
1.8924e+08,55.6819,1,2.47517,-3357.71,4658.51,-18486.4
1.89253e+08,28.9866,2,2.45627,2143.2,-2675.64,-23701.3
1.89258e+08,146.742,2,2.97218,-22987.9,-17071.9,-17368.8
1.89275e+08,79.8477,2,2.5669,-671.673,6665.2,-13360.9
1.89637e+08,96.9331,1,2.88347,17368.3,3941.11,-19016.7
1.89824e+08,127.513,1,2.84653,-22195.1,-371.018,-13713
1.90237e+08,72.4689,2,2.51351,-8325.95,4128.53,-16626.5
1.90517e+08,173.81,0,2.51933,-23611.8,-23814.9,-13948.8
1.90676e+08,103.008,1,2.66472,-17107,1321.03,-15441.6
1.91104e+08,213.306,1,2.92692,-25307,-2531.49,7955.12
1.9127e+08,14.8426,1,2.39677,1442.52,2771.72,-28166.6
1.91289e+08,3.73473,0,2.61113,804.743,-58.2951,-29213.8
1.91959e+08,71.1806,2,2.8252,6737.55,-8782.61,-18684.6
1.92134e+08,18.8402,1,2.60614,-3664,1381.39,-27846.7
1.92163e+08,147.659,2,2.62584,12445.5,-15149.4,-15788.2
1.92609e+08,90.0831,2,3.014,-7212.81,7263.5,-12959.3
1.93322e+08,8.7872,2,2.74541,-971.798,594.843,-27339
1.93574e+08,155.483,1,2.86172,25941.2,9379.75,-11354.2
1.9373e+08,141.108,2,2.61094,25984.6,-1036.31,-14343.8
1.93784e+08,32.6925,1,2.71274,-5014.8,-2109.39,-24578.6
1.93837e+08,17.7464,2,2.61866,3719.88,-76.6313,-28866.1
1.9389e+08,96.4919,0,2.41405,9628.47,-3695.53,-11159.1
1.9404e+08,136.045,2,2.74464,-16995.1,-20578.3,-18182.4
1.94181e+08,37.2134,1,2.71699,-512.296,7848.5,-27755.8
1.94378e+08,91.7772,2,2.82711,-1217.86,-2159.85,-20316.8
1.94729e+08,110.518,2,2.50443,4187.54,-18974.9,-15786.5
1.95042e+08,19.6015,1,2.46736,1730.22,3604.47,-27478.6
1.95234e+08,107.292,1,2.65873,-14244.1,-1025.67,-11225.5
1.95277e+08,45.7494,2,2.78899,6172.64,-4555.61,-22960.2
1.95631e+08,62.3444,2,2.37064,-3029.05,-11588.3,-23093.4
1.95638e+08,121.391,2,2.76769,-15300.5,-9587.69,-10662.1
1.95783e+08,30.86,1,3.0179,-2872.5,4982.56,-25669.4
1.95876e+08,69.6669,0,2.95443,-9624.74,2696.36,-18208.7
1.95931e+08,307.496,0,2.61914,-23031,17104.4,29351.6
1.9594e+08,48.3247,1,2.63658,-4425.64,9203.55,-27548.3
1.95963e+08,4.92485,2,2.6925,-869.24,-690.55,-28887.4
1.95977e+08,26.2341,2,2.47376,1506.68,-5076.64,-26941.9
1.9606e+08,154.292,0,2.49519,-8703.34,25825.6,-10922.8
1.96115e+08,24.5234,0,2.87585,104.506,4151.69,-25748.2
1.96136e+08,129.387,2,2.52342,5939.04,-26773.4,-28117.7
1.96398e+08,134.953,0,2.62716,25866.5,-6470.58,-18537.4
1.96473e+08,69.1478,0,2.704,8725.66,11740.5,-28439.1
1.96529e+08,106.503,0,2.8492,2223.25,-14902.2,-12343.2
1.96561e+08,142.431,1,2.59169,-11487.4,-1318.8,-1085.09
1.96674e+08,33.3661,1,2.65983,-2013.04,3946.31,-23272
1.97256e+08,135.968,1,2.61369,-6152.96,25687.4,-17420.1
1.97271e+08,43.8542,0,2.53874,8287.74,3640.14,-26425
1.97281e+08,79.5057,1,2.6948,-1094.58,16592.5,-26298.1
1.97308e+08,36.4699,0,2.96758,6922.11,2429.52,-26399.5
1.97564e+08,132.666,1,2.39949,1029.79,27955.5,-25544.3
1.97588e+08,106.052,1,2.59196,-15895.9,-807.369,-13133.2
1.97595e+08,151.607,0,2.84208,18585.8,983.865,-2970.66
1.97894e+08,20.671,0,2.73602,-2039.96,-3807.94,-29364.7
1.98014e+08,216.941,1,2.42205,20521.8,24288,4260.18
1.98028e+08,38.9913,1,2.50897,-5797.12,5127.47,-25714.3
1.98212e+08,115.261,1,2.79125,-13347.3,-4700.74,-17591.1
1.98657e+08,100.793,2,2.70946,13327,-16408.4,-26740.6
1.98703e+08,0.00948857,1,3.05293,-23.9879,108.663,-28829.5
0,0.0125355,1,2.90719,0,0,0
0,0.0140557,1,3.10679,0,0,0
0,0.0100663,1,3.78621,0,0,0
0,0.00979829,1,3.03952,0,0,0
0,0.0116293,1,2.36364,0,0,0
0,0.0125978,1,3.17108,0,0,0
0,0.0157559,1,3.89074,0,0,0
0,0.0144061,1,2.85506,0,0,0
0,0.0116018,1,2.29461,0,0,0
0,0.0117458,1,3.52625,0,0,0
0,0.0121341,1,2.95443,0,0,0
0,0.0116704,1,2.56629,0,0,0
0,0.0151657,1,2.42031,0,0,0
0,0.018606,1,3.89453,0,0,0
0,0.0165454,1,2.95813,0,0,0
0,0.0120834,1,2.40663,0,0,0
0,0.0134229,1,3.92395,0,0,0
0,0.0132369,1,2.12869,0,0,0
0,0.00952089,1,2.35799,0,0,0
0,0.014893,1,3.18705,0,0,0
0,0.0122421,1,3.4891,0,0,0
0,0.0134219,1,3.8631,0,0,0
0,0.0111072,1,2.95244,0,0,0
0,0.00975325,1,3.85717,0,0,0
0,0.0131602,1,2.87886,0,0,0
0,0.0145375,1,3.60028,0,0,0
0,0.0093846,1,2.31007,0,0,0
0,0.0185322,1,3.9509,0,0,0
0,0.0173413,1,3.78629,0,0,0
0,0.00936445,1,3.64666,0,0,0
0,0.0108209,1,3.79195,0,0,0
0,0.0131969,1,3.44877,0,0,0
0,0.0102511,1,4.12458,0,0,0
0,0.013785,1,3.5913,0,0,0
0,0.0125294,1,3.19561,0,0,0
0,0.0164236,1,2.60481,0,0,0
0,0.0110622,1,3.45927,0,0,0
0,0.0105034,1,2.53628,0,0,0
0,0.0126788,1,3.95883,0,0,0
0,0.0108054,1,3.67312,0,0,0
0,0.0108596,1,3.89919,0,0,0
0,0.016332,1,2.50092,0,0,0
0,0.00783264,1,3.13268,0,0,0
0,0.00804241,1,4.09668,0,0,0
0,0.0083919,1,2.09733,0,0,0
0,0.00850947,1,3.15256,0,0,0
0,0.00819125,1,2.26922,0,0,0
0,0.00774456,1,2.85469,0,0,0
0,0.00774807,1,3.25801,0,0,0
0,0.00744553,1,3.2909,0,0,0
1.98921e+08,56.5465,1,2.8291,-5679.28,-203.347,-18376
1.99068e+08,53.2515,1,2.68608,8602.83,5065.62,-23701.3
1.99115e+08,18.8089,0,2.93962,2028.55,3406,-29265.4
1.99166e+08,162.661,0,2.53996,10182.9,-12041,1726.74
1.99197e+08,39.5402,1,2.52674,6829.74,-818.307,-24144.2
1.99312e+08,36.2895,1,2.55773,1258.72,3359.68,-22040.9
1.99431e+08,155.18,2,2.77239,-29842.5,-6265.55,-16964.2
2.00034e+08,7.26862,2,2.57513,-148.536,586.2,-27431.9
2.00179e+08,129.832,0,2.48799,13717.3,-5791.68,-5748.72
2.00382e+08,15.6426,0,2.91357,1703.25,-935.754,-26115.6
2.00385e+08,7.10433,1,2.89943,-706.472,832.399,-27703.6
2.01016e+08,15.1113,1,2.45349,2582.43,-813.448,-27224
2.01477e+08,25.1897,1,2.40678,-3349.88,4280.53,-28772.5
0,25.4045,1,2.8683,0,0,0
2.01577e+08,128.082,1,2.47464,-9498.91,8485.9,-9805.22
2.01809e+08,33.8076,1,2.44599,-3023.4,-801.97,-22395.1
2.01847e+08,27.2277,2,2.50974,-2193.68,2999.36,-24435.8
2.02008e+08,11.3875,0,2.93984,1067.01,2167.96,-29101.2
2.02656e+08,45.7791,1,2.90458,9455.36,-143.39,-27139.4
2.0268e+08,78.5284,1,2.62449,-7506.9,-7556.18,-16115.2
2.02779e+08,161.515,0,2.84408,-17010.9,23440.7,-11218.4
2.03178e+08,29.8174,1,3.02928,-4801.33,1362.61,-24971.6
2.03189e+08,122.454,0,2.65176,22557.9,-11567.2,-23500.8
2.03376e+08,33.7504,2,2.68263,3191.61,-6335.55,-27594.2
2.03446e+08,95.9021,2,2.9041,-1887.56,-10870,-11934.4
2.03522e+08,136.922,1,2.95153,14992.6,-2304.47,-4477.7
2.0368e+08,183.559,1,2.56302,-24823.1,-5009.62,473.017
2.03888e+08,109.967,2,2.74475,-19179.1,-10392.6,-20787.4
2.03997e+08,81.1559,1,2.95311,10556.8,-5305.95,-16605.6
2.04129e+08,312.065,1,2.45353,7168.02,3397.23,-22558.1
2.05321e+08,0.531342,1,2.68078,-158.848,108.067,-28764.3
2.05433e+08,66.1642,1,2.84555,1975.82,8675.63,-18073.1
2.06003e+08,41.0877,0,2.53526,285.853,3761.93,-20991.7
2.06178e+08,199.327,1,2.69945,-28555.7,15388.4,-3379.83
2.0629e+08,1.43731,0,2.96386,312.066,33.5221,-28617
0,1.39891,0,2.44591,0,0,0
2.06437e+08,50.9381,2,2.53285,5108.31,-707.214,-19370.2
2.06527e+08,23.5108,0,2.78807,312.411,2095.39,-24328
2.06674e+08,10.4447,0,2.71352,349.175,934.114,-26837.6
2.06712e+08,193.889,1,2.6952,-7322.94,-22796.7,4264.8
2.07272e+08,3.63619,1,2.44582,-189.439,863.586,-28813.8
2.07291e+08,151.085,1,2.59926,16551.1,5452.99,-2109.12
2.07637e+08,73.4344,0,3.0509,10520.3,-632.436,-17559.2
2.07739e+08,85.0271,2,2.87069,-6577.83,-3401.95,-12525.8
2.0788e+08,154.098,1,2.90306,-28008.4,14486.8,-21327.7
2.07911e+08,70.8584,1,2.40988,-7052.82,-12778.8,-28689.8
2.08209e+08,21.8716,2,2.45841,-4228.36,-1478.56,-27342.4
2.08328e+08,32.6702,0,2.94126,-4720.95,4918.43,-28441.7
2.08487e+08,87.9327,1,2.54864,-13312,12972.4,-26860.5
2.08579e+08,266.492,1,2.84756,-14626.9,22093.2,20044.5
2.08897e+08,14.0545,2,3.059,-546.588,-2595.93,-27405.1
2.09291e+08,62.2046,1,2.75792,-12331.1,3562.73,-25829
2.09356e+08,33.0201,1,2.75719,3305.3,-4871.74,-25210.1
2.09501e+08,12.6684,2,2.95777,959.799,-951.579,-26507.4
2.09621e+08,9.55962,0,2.8991,1093.05,725.221,-27240.8
2.09668e+08,16.1292,2,2.80944,-3096.03,155.666,-27317.6
2.09818e+08,5.44072,0,2.60781,575.998,530.227,-27918.2
2.099e+08,53.8106,0,2.60072,8027.62,-7342.31,-25407
2.10044e+08,8.39577,2,2.5137,577.362,-1758.01,-28665.1
2.10479e+08,39.9083,0,2.4697,1424.22,7194.78,-24581.5
2.10536e+08,86.2196,1,2.93993,-16852.3,5758.69,-25254.6
2.10832e+08,23.9786,1,2.72395,-4046.09,-620.902,-25778.5
2.10898e+08,94.3417,1,2.91637,10201.9,10043.4,-29298.1
2.11177e+08,61.8187,2,2.41041,-1170.89,-12425.3,-24626.5
2.11904e+08,40.6192,1,2.58756,-1824.48,7603.04,-25062.5
2.11931e+08,199.871,2,2.77483,13912.9,29509.4,-2347.55
2.12042e+08,4.74794,1,2.94332,109.275,-836.737,-28369
2.12352e+08,109.34,0,2.56061,8808.22,17991.7,-17226.8
2.12586e+08,16.3167,1,2.68511,3205.23,109.397,-27700.8
2.12666e+08,125.665,0,2.67134,11741.1,10689.9,-7562.45
2.12834e+08,29.9153,0,2.40035,1395.56,3712.66,-23855.1
2.12851e+08,52.5267,2,2.72958,6274.88,-2556.78,-20096.2
2.1299e+08,52.6973,0,2.41534,4439.15,-6395.04,-20782.7
2.13185e+08,16.0053,2,2.71792,-262.285,-3275.38,-27716.5
2.13252e+08,90.8144,2,2.85725,7804.68,15926.2,-21930.9
2.13777e+08,35.8581,1,2.67217,4224.26,4987.13,-25013.3
2.13906e+08,22.7148,0,2.91097,-1059.49,-2676.9,-25045.8
2.14115e+08,2.95479,2,2.89213,-259.817,-14.0593,-28237.6
2.14488e+08,108.724,0,3.02761,8258.41,8803.28,-9474.47
2.14638e+08,85.2505,1,2.74773,10974.6,5173.8,-15627.8
2.1477e+08,52.8462,1,2.78036,-5090.91,6530.55,-21299.3
2.14997e+08,84.4235,1,2.58409,-15992.3,6988.43,-24815.6
2.1547e+08,64.3834,0,2.60642,12572.8,-4988.28,-26630.9
2.15479e+08,208.846,2,2.71749,-3257.04,-18182.6,11121.7
2.15492e+08,70.7643,2,2.74629,4398.91,-6723.54,-16270
2.15513e+08,1.96994,2,2.74894,-474.679,-107.157,-28804.2
0,1.90373,2,2.9229,0,0,0
2.15533e+08,44.0307,0,2.40081,6684.82,-2418.83,-22708.2
2.15739e+08,72.4275,1,2.69251,-5597.05,4222.59,-15211.7
2.15818e+08,54.8844,0,3.04961,6812.74,3734.88,-20283.9
2.15944e+08,38.9255,1,2.4095,3960.41,-2043.48,-21939
2.16089e+08,30.6054,1,2.50149,-5167.43,-190.324,-24880.2
2.16104e+08,104.181,0,2.93166,-3998.89,-56.8464,-23359.1
2.16263e+08,49.8179,0,2.40304,-389.432,-6416.99,-20484.1
2.16511e+08,64.0972,2,2.44776,-9935.87,-9377.2,-28482.8
2.16636e+08,82.4742,1,2.82132,-5452.74,3978.76,-12831.8
2.16875e+08,9.70518,2,2.78831,-1941.22,575.546,-28282.3
2.17017e+08,10.3682,2,2.60649,-1946.9,-1220.84,-28685.6
2.17046e+08,54.9913,0,2.45256,901.656,10336.7,-23499.7
2.17122e+08,73.7764,0,2.99852,12180.7,-3511.54,-19858.3
2.17373e+08,76.362,1,2.9811,2184.08,8174.97,-15199.6
2.17424e+08,7.22851,2,2.61292,973.981,-649.324,-27834.8
2.17667e+08,85.0672,2,2.81974,-310.543,-17757.3,-25957.4
2.17938e+08,19.6225,2,2.49182,3040.79,-1863.68,-26696.9
2.18571e+08,97.5305,1,2.7039,9168.82,2429.35,-10597.9
2.18956e+08,79.4616,2,2.45944,5904.84,-6896.06,-14679.1
2.20159e+08,143.432,1,2.71003,-1757.18,21528.9,-7590.07
2.20421e+08,15.8812,0,2.52106,3278.94,-900.578,-28231.4
2.20465e+08,41.5066,1,3.02865,1621.34,8625.82,-29492.9
2.20567e+08,57.0426,0,2.74535,-182.678,-6676.45,-18839.3
2.21334e+08,30.5181,0,2.81807,4750.51,-2415.6,-25100.9
2.21474e+08,66.9751,0,3.02168,-727.747,-5514.74,-15946.8
2.21635e+08,41.1583,1,2.47346,3779.35,6520.72,-24358.3
2.21674e+08,35.6439,1,2.50543,1972.8,-5425.05,-24045.8
2.21743e+08,77.1435,2,2.88343,-6512.01,-2429.93,-15213.8
2.21873e+08,139.071,0,2.62722,15284.7,-18531.9,-11917.5
2.21951e+08,237.835,1,2.45343,2518.23,822.556,-28571.8
2.22024e+08,62.6171,1,2.6882,-8776.24,-672.46,-18979.1
2.22055e+08,9.46627,0,2.63514,1190.88,-1691.08,-28749.6
2.22089e+08,10.0481,0,3.0017,1023.87,-1051.73,-27235
2.22135e+08,54.1663,0,2.96252,5660.96,-6374.84,-21615.9
2.22178e+08,102.045,1,2.81048,7194.28,-11366.7,-12187.3
2.22289e+08,73.5659,0,3.01444,1647.16,14764.6,-24602.4
2.22357e+08,37.9624,1,3.01261,-7641.85,2338.27,-29666
2.22362e+08,58.5333,1,3.00787,-6734.42,6784.28,-21014.7
2.22405e+08,14.1094,2,2.96626,2020.94,-663.222,-26755
2.22409e+08,60.0741,2,2.874,-2439.12,-5443.94,-17651.8
2.22878e+08,48.0835,2,2.61272,2519.05,-7521.41,-22390.5
2.23031e+08,81.8647,2,2.93377,13191.8,-4572.43,-18826.1
2.23292e+08,24.5378,1,2.65347,3189.85,3559.92,-26732.4
2.2337e+08,68.522,1,2.80184,-11151.9,6241.87,-22011.7
2.24572e+08,6.33211,0,2.70378,216.178,633.122,-27647.1
2.24916e+08,53.0897,2,2.80235,1686.09,-7902.96,-21049.6
2.24979e+08,17.4383,1,2.59321,-3663.68,409.026,-29555.4
2.25003e+08,191.915,0,2.83354,-6963.02,24558,2019.2
2.25023e+08,198.977,0,3.05355,-9368.64,18646.9,4362.5
2.25399e+08,111.704,1,2.7286,10755.2,17208.9,-16884.9
2.25535e+08,14.3385,1,2.44083,-644.417,2754.08,-27496.8
2.2579e+08,9.45562,0,2.91452,170.672,1289.56,-27288.9
2.25886e+08,52.6928,0,2.67603,-2393.37,-5971.11,-19791.5
2.26469e+08,7.03225,1,2.49054,1025.03,-249.798,-27825
2.26562e+08,5.77361,0,2.42622,426.367,399.169,-27723.4
2.26848e+08,22.5396,2,2.91616,-4707.21,-993.871,-28836
2.26936e+08,95.697,2,2.90201,4144.56,-13795.5,-14734.6
2.27258e+08,42.1274,1,2.51197,-718.211,5489.09,-21768.5
2.27593e+08,162.465,0,2.73515,2474.92,-11905,-13089.6
2.28381e+08,141.96,0,2.68888,24210,-15520.2,-20343.9
2.28425e+08,11.3582,1,2.37618,-596.562,1372.66,-26874.5
2.28452e+08,34.9969,1,2.64891,-5942.04,-4390.52,-28695.7
2.28611e+08,47.0491,0,2.80171,1410.78,-4821.52,-20267.8
2.28783e+08,16.8398,1,2.82792,-820.501,3478.34,-28105.3
2.29033e+08,59.8608,2,3.03812,-2541.76,1073.93,-26341.4
2.29992e+08,174.273,2,2.83111,23136.8,-28021,-23834.6
2.30007e+08,18.7521,0,2.70426,-1243.75,2123.26,-25756.5
2.30109e+08,5.71521,2,2.53586,-943.887,-153.444,-28060
2.30233e+08,164.733,2,2.77829,23709.2,5814.32,-4244.68
2.30351e+08,18.674,2,2.72147,1983.28,-835.302,-25518.9
2.30378e+08,136.417,1,2.70192,21727.7,8437,-12014.6
2.30385e+08,21.7662,1,2.94431,2529.42,2444.43,-25875.6
2.30674e+08,43.8795,2,2.54182,4889.16,-4039.55,-22026.8
2.30734e+08,73.5494,0,2.41235,6850.57,-9741.49,-18729.1
2.30988e+08,9.99957,2,2.43841,-199.21,-1268.46,-27092.6
2.30993e+08,14.1936,1,2.45395,-1613.12,2489.06,-27880.1
2.31085e+08,38.9684,1,2.8317,-185.724,5979.42,-23128
2.31528e+08,114.627,2,2.54603,-12130.1,-19744.3,-21430.9
2.31585e+08,54.8139,1,2.65228,-4992.77,8088.32,-22113.3
2.31638e+08,18.3937,0,2.81828,3474.39,1298.16,-27477.7
2.31662e+08,62.9385,1,2.59295,12447,1160.15,-24360.4
2.31827e+08,13.0441,1,2.84776,499.175,-1572.71,-26663
2.32468e+08,14.8801,1,2.52487,1830.71,2410.79,-27828.1
2.32521e+08,130.988,0,2.96335,-4122.31,6214.84,-15083.6
2.32572e+08,32.3993,0,2.89119,3841.08,-5387.43,-27008.5
2.32677e+08,56.494,1,2.72283,-2319.81,-101.208,-26213.2
2.33104e+08,125.011,0,2.74062,5136.69,-23721,-18579.4
2.33138e+08,175.31,1,2.82747,18276.1,27654.6,-13328.5
2.33269e+08,132.819,2,2.65359,-12694.9,-8079.76,-5151.72
2.33325e+08,28.4428,2,2.74086,4570.51,-643.933,-25001.2
2.33493e+08,15.7201,0,2.41701,2386.67,734.482,-26512.7
2.33678e+08,28.3102,1,2.91864,-4153,3631.66,-26362.4
2.3372e+08,55.1399,2,3.01095,4351.51,-1817.9,-18285
2.34123e+08,11.6893,2,2.6264,-281.728,-1183.68,-26641.6
2.34197e+08,94.4487,1,3.01387,-17652.3,8787.35,-26386.7
2.34203e+08,14.0365,2,3.00066,1865.99,275.757,-26587.4
2.34425e+08,61.7382,1,2.74028,-7148.22,10543.9,-25714
2.34491e+08,24.5766,1,2.82664,2797.75,4276.42,-27691.1
2.34764e+08,137.495,0,2.46894,2826.52,24239.2,-13035.5
2.34785e+08,30.6885,1,2.41479,3560.63,1540.39,-23609.1
2.34788e+08,11.6612,0,2.95715,726.689,2353.84,-29182.3
2.34853e+08,1.70945,2,2.8476,90.5862,275.511,-28707.4
2.34875e+08,114.194,0,2.52686,9539.46,-22224.1,-27858.8
2.35059e+08,117.341,0,2.71873,22227.6,10466.9,-25480.9
2.35387e+08,11.1076,2,2.48291,-1629.81,-369.035,-27135.1
0,10.9723,2,2.6258,0,0,0
2.3543e+08,150.608,1,2.67737,-8743.56,17659.9,-3899.57
2.35498e+08,105.9,2,2.57192,1517.06,-15540.5,-12729.7
2.35786e+08,70.7668,1,2.69683,7144.15,-9052.65,-19457.6
2.35838e+08,59.5281,1,2.60688,5584.66,8110.33,-20977.3
2.3591e+08,38.5375,2,2.65872,-6477.94,-4140.35,-25990.2
2.3594e+08,63.7769,1,2.53519,-3112.98,12264.6,-23980.4
2.35983e+08,120.252,2,3.05934,-2501.11,-8157.6,-24989.8
2.36223e+08,104.24,2,2.50262,-11108.4,-19144.5,-28112.9
2.36751e+08,146.549,0,2.54783,-27372.6,9573.97,-18143.8
2.36942e+08,37.3051,2,3.05331,6433.82,-4461.04,-28144.4
2.3782e+08,129.54,0,2.39062,20570.6,4301.37,-11144.8
2.3788e+08,8.2172,1,2.62214,1409.3,-419.092,-27962.6
2.38141e+08,126.243,2,2.50123,3272.95,15320.8,-7250.05
2.38658e+08,67.126,0,2.89756,11129.7,-7162.79,-23716
2.38813e+08,165.458,0,2.49197,22940.3,-26480,-28504.3
2.38817e+08,25.0357,1,2.84213,-2090.25,4669.84,-27186.6
2.38851e+08,1.46183,0,2.92255,-17.0661,150.214,-28590.8
0,1.32454,0,2.7776,0,0,0
0,1.42432,2,2.47386,0,0,0
0,1.40477,2,2.54977,0,0,0
2.39228e+08,49.3218,1,2.59553,-1396.71,3575.72,-19126.2
2.39352e+08,117,1,2.9511,-10524.4,4158.79,-8638.92
2.39845e+08,84.2993,0,2.53122,3864.7,11758.7,-15960.7
2.40098e+08,121.852,1,3.04604,-5516.69,20218.6,-14150.1
2.40337e+08,9.31515,1,2.89091,517.16,425.04,-26965.5
2.40485e+08,32.5454,2,2.7412,-1969.58,-4477.54,-23955.2
2.40497e+08,13.2794,0,2.71494,186.14,-1906.01,-26754.2
0,13.3395,0,2.67177,0,0,0
2.41092e+08,55.9574,0,2.7159,9380.83,6966.12,-26646
2.41432e+08,74.9668,1,2.48362,4389.82,8629.83,-16242.4
2.41871e+08,33.6324,0,2.85261,-5018.27,-3866.07,-25802.5
2.42023e+08,12.4384,0,2.42572,-1462.23,570.408,-26769.4
2.42188e+08,26.3922,0,2.66269,4839.99,2938.47,-29270.7
2.42211e+08,37.8761,2,2.76475,-5797.95,419.464,-23295.4
2.42657e+08,79.3907,0,2.68765,1656.38,8861.96,-14734.6
2.42715e+08,60.2895,2,2.90775,2540.9,-6794.73,-18396.6
2.42732e+08,140.465,2,2.41916,-19909.1,-2466.76,-6858.49
2.43037e+08,49.4816,0,2.40316,-2623.56,10095.4,-27891.6
2.43308e+08,13.0852,0,2.46885,197.681,-1875.77,-26760.6
2.4352e+08,65.6731,1,2.99854,6312.56,5542.52,-17895
2.43628e+08,39.4338,2,2.7939,-6330.4,-5437.14,-29858.5
2.44859e+08,23.4999,2,2.77157,-1410.71,-4380.61,-26749.1
2.45187e+08,9.95488,2,3.02906,-1265.82,1219.01,-27713.7
2.45292e+08,51.9886,2,2.46338,-2750.99,8022.15,-21858
2.45307e+08,9.4782,0,2.7862,193.324,-1677.84,-27695.3
2.45335e+08,134.245,1,2.60065,-14241.3,-22720.1,-19748.2
2.45533e+08,15.7729,1,2.4698,768.386,3192.54,-27965.7
2.4557e+08,115.462,2,2.66872,-22510.6,4628.63,-20639.8
2.45616e+08,138.07,1,2.44739,24494.8,-11624.6,-18819.4
2.45996e+08,23.3119,2,2.81295,2402.13,-1399.99,-24761.4
2.46457e+08,19.8591,0,2.5485,-2181.58,-1143.46,-25481.7
2.46512e+08,63.1565,0,3.00656,-1974.69,-12912.4,-26591.7
2.46562e+08,12.5576,0,2.56351,-951.638,-2257.08,-27809.3
2.46816e+08,82.6629,2,2.85171,9261.13,-6842.62,-15792.6
2.46932e+08,97.3033,0,2.68366,15224.9,-12811.3,-23475.2
2.47251e+08,175.72,0,2.94405,23485.9,14754.2,-20364.9
2.47373e+08,77.5312,0,2.76179,-7748.09,14206.7,-27008.6
2.47407e+08,17.1147,1,2.42813,-3307.85,1232.63,-27711.1
2.48128e+08,30.9397,0,2.83655,-5629.67,1254.02,-25928.5
2.48202e+08,50.3481,1,2.7543,-3831.2,-9631.79,-26744.3
2.48571e+08,27.8675,1,2.47946,3021.81,3248.32,-24881.3
2.48847e+08,8.21323,1,2.39559,-54.0159,-949.946,-27487
2.48903e+08,4.89261,0,2.69851,383.551,-777.305,-28243.3
2.48978e+08,157.484,0,2.93466,21332.4,6952.14,-4489.94
2.49065e+08,25.1143,2,2.73147,-4305.1,-2692.41,-27060.5
2.49177e+08,134.622,2,2.52298,-19994.7,-4209.32,-8954.63
2.49199e+08,100.809,1,2.68314,-16458.4,10036.1,-19673.6
2.49459e+08,9.6104,2,2.36301,-808.864,-1878.84,-29466
