#class tools::wcsv::ntuple
#title time
#separator 44
#vector_separator 59
#column double eventID
#column double t(ns)
#column double copynumber
#column double energy(eV)
#column double x(mm)
#column double y(mm)
#column double z(mm)
107777,45.4175,0,2.79963,339.769,-9034.16,-25637.1
223137,101.397,0,2.80292,9731.99,2292.74,-9955.27
228511,9.37174,0,2.37101,-30.7022,-684.154,-27900.8
0,9.09369,2,2.5189,0,0,0
252456,52.4399,0,2.98297,724.583,-10865.8,-27280.3
309143,8.6507,0,2.37837,1276.55,-794.295,-27904.8
335438,99.9419,1,2.92338,-4081.22,14644.4,-14149.8
567050,78.4172,0,2.90062,1911.27,9977.67,-15838.5
643286,5.85712,2,2.81388,684.648,39.3705,-27830.5
708746,110.765,0,2.68766,16431.1,13782.8,-19380.3
827819,188.517,2,2.98063,-25445.4,-28329.4,-17940.7
1.01005e+06,90.3193,0,2.86668,-2472.66,15105,-17614.3
1.02683e+06,97.0717,2,2.6698,8463.14,7227.97,-11606.7
1.11388e+06,20.0011,2,2.8262,-2759.91,-198.224,-25634.5
1.23848e+06,85.703,1,2.53941,-2365.41,-7657.55,-12644.2
1.29795e+06,0.819148,0,4.07934,125.995,-94.8018,-28991.4
0,0.848181,0,2.34856,0,0,0
0,0.808772,0,2.13028,0,0,0
0,0.823354,0,2.38204,0,0,0
1.56816e+06,16.1877,2,3.00612,241.313,-2164.25,-26199.4
1.63169e+06,69.1858,2,2.79188,-8480.49,9375.6,-21654
1.99071e+06,37.4855,0,2.53529,7268.62,2905.79,-26710.5
2.07423e+06,34.4658,1,2.36548,5654.43,4506.21,-27910.2
2.45282e+06,150.96,2,2.40695,1277.2,-8413.69,-23631.4
2.50412e+06,256.098,0,2.80775,23654.2,-16912.5,16535.5
2.5276e+06,1.5405,1,2.06772,-409.121,-155.426,-28851.1
0,1.88008,1,2.21274,0,0,0
0,1.54067,1,2.49171,0,0,0
0,1.54598,1,2.14981,0,0,0
0,1.56561,1,2.95521,0,0,0
2.62126e+06,154.324,2,2.75777,7912.19,1250.92,-3813.8
2.71201e+06,128.416,2,2.99345,4977.11,14745.7,-7016.2
2.82611e+06,8.75079,1,2.81248,58.5631,1628.93,-28470
2.90599e+06,93.7603,1,2.61017,-18403.5,6705.17,-25731
3.12275e+06,227.704,2,2.45995,-17383.9,-26854.7,7256.44
3.29725e+06,16.1806,0,2.41913,3311.55,-431.69,-29993.8
3.50148e+06,46.3237,0,2.44134,8236.1,-5053.53,-29735
3.7752e+06,49.3842,2,2.45094,6430.93,-4686.98,-22605.5
3.80786e+06,2.93477,2,3.03744,-382.188,-624.024,-29129.7
0,2.85803,2,2.70149,0,0,0
3.81654e+06,26.968,1,2.40653,5471.55,-40.5327,-27302.4
4.10776e+06,9.61783,2,2.3708,-611.438,-1407.84,-27412.2
4.14624e+06,38.8296,1,2.67934,1272.76,2898.2,-21148.9
4.31086e+06,134.769,2,2.42258,27137.8,-5537.77,-21868.5
4.35404e+06,13.4696,0,3.03724,1948.23,-2183.99,-28847
4.36883e+06,23.0194,2,2.63049,-949.694,-1829.22,-24375.5
4.58662e+06,78.4339,0,2.46499,6247.89,3478.27,-13853.9
4.79275e+06,9.54011,2,2.914,-599.675,-1654.28,-29941.7
4.83552e+06,11.9223,1,2.57622,1896.11,1705.37,-29007.3
5.15196e+06,94.9139,0,2.63929,12875.8,11159.7,-18469.6
5.19584e+06,37.749,1,2.77733,3558.3,5416.65,-24187.4
5.19638e+06,59.1309,2,2.56346,-6530.98,-9576.02,-24296.2
5.24116e+06,109.08,1,2.49474,-15446.7,17201,-27185.5
5.31736e+06,96.1769,1,2.79125,-13541.9,3131.98,-14035.8
5.35763e+06,39.7568,2,2.37999,4519.8,-5578.58,-24418.7
5.3804e+06,175.137,0,2.6221,-14757.8,-21158,-2394.54
5.41843e+06,154.928,2,2.75271,-2329.07,2924.19,-28583.3
5.42916e+06,74.8682,0,2.52716,15880.1,-1259.97,-28848.5
5.45596e+06,2.63065,0,2.54833,585.194,37.0366,-28429.6
5.4851e+06,128.11,2,2.80369,-1263.77,-15141.1,-6736.38
5.51753e+06,159.618,1,2.58945,-794.64,13061.8,2239.5
5.58468e+06,109.81,2,2.9801,-5947.52,-21090.9,-29962.1
5.5912e+06,102.008,1,2.74586,5979.38,9902.38,-10794.7
5.68511e+06,60.2055,0,2.48098,12440.3,1296.54,-25958.4
5.93345e+06,105.071,1,2.6402,-9839.36,6210.94,-9897.84
6.02166e+06,47.2426,1,2.62068,-2807.43,3770.19,-20064.9
6.10608e+06,40.8976,1,2.81544,-6417.34,6069.54,-28734.3
6.31268e+06,49.7596,2,3.03367,2987.6,3566.03,-19581.3
6.4045e+06,46.7732,0,2.7326,-5395.55,7016.89,-24429
6.43957e+06,119.816,2,2.80851,25189.4,-775.942,-29371.8
6.48041e+06,146.732,2,2.8124,4545.67,-27157.6,-14676
6.57962e+06,254.832,1,2.95406,3558.66,6098.82,-26430.8
6.60031e+06,139.516,2,2.96961,-372.893,-19048.4,-6565.37
6.65854e+06,31.8966,0,2.84478,-5994.21,-919.549,-25988.4
6.70773e+06,71.8643,0,2.38656,14215.5,5512.57,-29441.2
6.80892e+06,62.9568,0,2.36623,4838.24,5552.74,-17773
6.89783e+06,58.2051,1,2.71267,-5395.86,4752.46,-18757
6.92403e+06,22.4029,1,2.86514,-3023.73,3633.69,-27937.9
6.94701e+06,245.473,0,2.72391,17627.2,9982.36,-15637.3
7.14762e+06,148.086,2,2.41837,-22979.5,-6722.9,-8611.92
7.3724e+06,44.4738,0,2.80426,3537.32,-3400.57,-20810.9
7.5463e+06,35.5715,0,2.57979,3714.17,2655.69,-22716.1
7.54737e+06,42.4264,0,3.03854,1468.61,4094.23,-21013.4
7.55489e+06,26.4457,0,2.84856,-2726.89,-4337.33,-26225.8
7.59358e+06,143.078,0,2.99337,1867.71,-84.9137,-25381.1
7.65644e+06,105.882,1,2.46078,2540.45,15498.5,-12824.5
7.70031e+06,0.498991,1,2.8145,54.6073,177.302,-28846.2
0,0.49815,1,2.42418,0,0,0
7.74413e+06,82.055,0,2.85378,9299.04,689.119,-14271.2
7.76109e+06,71.9095,2,2.83625,-681.101,8842.94,-16649.3
7.85232e+06,142.377,0,2.37757,-27796.3,-6883.34,-19716.9
7.86163e+06,5.35975,1,2.52936,-95.2398,822.308,-27943.2
8.19346e+06,115.214,0,2.79953,2940.5,-21069.7,-17229.8
8.23302e+06,91.2841,0,2.60546,5769.96,8452.41,-12469.6
8.30901e+06,147.993,2,2.95275,-6557.37,22529.8,-8890.3
8.70368e+06,7.02575,0,2.56588,590.746,491.904,-27502.2
8.83355e+06,90.6971,1,2.76241,1722.11,-13028.5,-15033.7
8.91567e+06,57.0654,1,2.41536,-11325.3,4466.47,-29653.1
8.96858e+06,6.32093,2,2.559,1329.49,-92.5463,-28849.1
9.04766e+06,116.774,1,2.7643,-9430.21,1819.18,-6165.52
9.07276e+06,2.20612,1,2.64741,-9.07145,156.715,-28364.2
9.10902e+06,124.765,0,2.85422,-16654.1,16216.4,-17121.7
9.38061e+06,135.74,1,2.82676,-3375,-1146.26,-27314.6
9.41785e+06,19.4002,1,3.04018,-3504.92,-2312.11,-28746.4
9.46676e+06,1.03504,2,2.41587,-71.0629,-275.234,-28920.7
0,1.07315,2,2.45146,0,0,0
0,1.04305,2,2.48073,0,0,0
0,1.03166,2,2.63665,0,0,0
0,1.04985,2,3.04853,0,0,0
0,1.18764,2,2.63154,0,0,0
0,1.07227,2,2.693,0,0,0
9.84628e+06,18.9103,0,2.57064,2163.94,-3072.87,-27395.4
9.86606e+06,148.788,2,2.96212,-7536.92,-10888.7,-16390.4
9.89193e+06,26.241,2,2.67378,-162.485,4270.52,-25327.7
1.02461e+07,63.0129,0,2.82966,3327.11,8667.34,-19381.2
1.03626e+07,116.329,1,2.74751,1450.47,-10132,-6543.77
1.03911e+07,52.5089,2,2.50293,3591.95,-9940.43,-28102.3
1.04371e+07,90.2287,0,3.06025,-3253.68,12996.1,-15542
1.05137e+07,54.3098,2,2.65894,-2905.18,4106.18,-18569.2
1.05272e+07,89.0892,1,2.54166,-10107.5,4442.09,-13520.8
1.05986e+07,10.0451,0,2.57677,-1064.76,526.202,-27106.7
1.07293e+07,90.604,1,2.696,13157.7,-7791.81,-17385.3
1.08421e+07,29.2202,1,2.96355,-4425.12,-4190.39,-27965
1.08583e+07,123.913,1,2.80058,21649,5359.63,-15261.1
1.11577e+07,80.4746,2,2.41627,-7976.03,5152.71,-14667.6
1.12117e+07,90.9458,0,2.61731,13867.6,9529.41,-19403.2
1.132e+07,88.1263,1,2.38689,417.687,16339.8,-20124
1.13386e+07,10.5078,2,2.79027,-243.312,-1900.42,-27787.2
1.15334e+07,47.4137,1,2.47079,-1093,-2998.99,-25208.7
1.16817e+07,73.6846,0,2.97917,-5516.9,8888.72,-18848.4
1.17855e+07,1.48578,2,2.48109,-200.335,-101.715,-28552.8
1.20249e+07,227.95,1,2.82148,7869.68,7504.74,-16315.5
1.23065e+07,22.4102,1,2.43307,-3446.25,311.018,-25548.4
1.23236e+07,9.9264,0,2.36774,55.4884,2011.81,-28601.7
1.23956e+07,363.263,0,2.69463,-28610.4,-2263.09,-2931.25
1.24794e+07,60.5653,2,2.69441,-1.79945,-12808.1,-27566.4
1.26411e+07,74.4683,2,2.48113,10613.7,5281.53,-18486.2
1.2745e+07,62.8363,2,2.71555,-11388.3,3848.95,-23174.2
1.27479e+07,92.3052,2,2.71652,-11807.7,-13565.8,-21192.9
1.28364e+07,33.2315,0,2.86435,4250.24,-4948.78,-26217.5
1.2931e+07,67.1094,0,2.36477,-390.283,-5715.4,-15752.4
1.29814e+07,45.2381,2,2.44343,924.996,-7896.38,-23420.3
1.30587e+07,2.73096,1,2.75236,-241.328,-150.95,-28454.4
1.31034e+07,26.3892,1,2.66607,934.484,3877.87,-24899.3
1.31533e+07,76.9867,0,2.94504,10942.8,-11143,-24596.4
1.34475e+07,257.861,0,2.8129,-18955.4,-22388.1,16601.1
1.36482e+07,92.3325,0,2.7663,8060.68,362.777,-11074.4
1.36563e+07,48.1905,0,2.86164,139.389,10125.9,-29668.5
1.37397e+07,138.823,1,2.81627,25025.4,-5141.35,-20330.4
1.40789e+07,113.106,1,2.9308,-12924.6,19466.1,-24211
1.41024e+07,99.7852,2,2.37864,-19541.5,-4693.34,-22077.3
1.4357e+07,72.2241,1,2.53192,6504.71,9559.43,-18833.9
1.44484e+07,26.7809,1,2.77262,884.592,2556.49,-23915.6
1.44517e+07,173.657,0,2.49692,-18759.8,-22917.2,-7035.33
1.46486e+07,115.577,1,2.72584,-17700.4,9601.03,-14914.5
1.46807e+07,2.01416,1,2.85854,-148.304,172.135,-28421.5
1.46881e+07,43.7187,2,2.51034,2083.63,-8698.72,-26383.3
1.46956e+07,154.226,1,2.539,-23990.7,163.615,-6860.03
1.47629e+07,93.8313,0,2.62771,14797.6,10173.5,-20434.2
1.47853e+07,123.854,1,2.89581,-352.262,-721.679,-29393.4
1.52327e+07,39.5494,1,2.90924,-4989.66,-1633.38,-22373.2
1.52694e+07,10.7508,0,2.87138,1889.12,1255.68,-29298.9
1.53123e+07,19.967,2,2.86268,-3514.02,-896.204,-26552.9
1.53892e+07,49.4578,1,2.7275,5895.04,8320.08,-26593.5
1.54359e+07,86.3913,2,2.80281,-5241.5,6477.22,-12706.3
1.5595e+07,35.7662,1,2.71628,1086.73,6988.76,-26155
1.57535e+07,87.142,0,2.93419,6754,7075.92,-13407
1.58193e+07,53.5097,2,2.60547,6318.28,-5173.74,-20982.8
1.58612e+07,1.76938,2,2.63391,-375.597,-124.674,-29064.4
1.58762e+07,46.1047,0,2.63327,5369.23,-7981.99,-28535.1
1.58764e+07,141.796,2,2.41901,15362.4,-25120.8,-22831.8
1.59134e+07,75.7174,1,2.75079,-11990.7,1763.5,-18378.9
1.59174e+07,113.036,2,2.72827,19817.2,-9761.18,-19711.2
1.62056e+07,60.7383,0,2.96685,6653.71,-3865.79,-18593.8
1.62223e+07,155.124,0,2.78824,-9401.33,-17060.5,-2889.68
1.62752e+07,32.5681,1,2.67556,746.125,3201.28,-25181.8
1.63155e+07,31.0814,0,2.85831,1436.33,-5997.46,-26503
1.64273e+07,118.799,2,2.45203,2805.16,-18409.7,-11876.4
1.65267e+07,121.991,2,2.53882,2039.84,-13449.5,-6927.1
1.6562e+07,21.6769,2,2.5737,-2966.13,1065.21,-25498.2
1.65681e+07,112.366,1,2.37088,-3049.42,8908.05,-7088.16
1.65906e+07,23.1909,0,2.42529,2294.31,-4400.2,-28421.9
1.66082e+07,53.5631,0,2.68935,3092.36,5907.15,-19709
1.67145e+07,144.15,2,2.70762,-26267,-7334.26,-24377.7
1.67478e+07,13.7069,2,2.70761,2112.42,683.306,-27036.3
1.69831e+07,257.004,1,2.48017,19129.8,-27486.3,13870.9
1.7078e+07,57.282,2,2.82274,9003.27,-2740.61,-21297.9
1.70868e+07,74.23,0,2.93138,-2566.42,-8358.92,-29298.8
1.71818e+07,76.4349,1,2.5603,-6416.25,4738.96,-14670.2
1.71997e+07,6.01342,2,2.65099,-1283.62,-523.56,-28573.1
1.72172e+07,185.298,0,2.62139,19262.1,3659.59,5051.31
1.73327e+07,78.7084,0,2.49069,-2245.56,11886.6,-17428.6
1.75593e+07,55.3127,2,2.62863,141.629,9713.68,-22161.2
1.76557e+07,31.936,0,2.51785,6654.04,709.507,-29622.4
1.7715e+07,164.096,0,2.70872,6402.31,-25607.1,-7668.78
1.77844e+07,22.1023,2,2.67143,2183.31,2551.16,-25571.4
1.78966e+07,145.657,0,2.42763,14659.5,-5111.51,-2178.23
1.79539e+07,103.308,2,2.98934,-17774.6,-5660.14,-17761.5
1.79805e+07,104.718,0,3.04363,-14764.9,9908.75,-25007
1.80076e+07,16.0044,2,2.69065,-1898.01,-1969.93,-26579.3
1.80359e+07,83.1809,2,2.72595,5489.49,-15426.7,-22413.8
1.81215e+07,78.347,2,2.93389,6405.42,-5720.68,-14876.6
1.8178e+07,19.7393,2,2.41128,-1342.56,-2762.59,-26189.4
1.81977e+07,26.1503,1,2.46706,-1608.98,2614.84,-24373.4
1.83058e+07,8.8544,0,2.46228,-720.328,-1009.76,-27422.6
1.83276e+07,116.477,0,2.92543,-14307.2,7594.92,-10552
1.84833e+07,27.5383,2,2.54838,-2850.75,-1775.29,-23993.8
1.87214e+07,87.6644,1,2.82999,4582.48,12038.3,-15600.4
1.89238e+07,173.198,0,2.37161,6837.75,-22997.8,-1113.59
1.91267e+07,25.5496,1,3.03469,-2291.67,-2056.98,-24507.3
1.91951e+07,63.8488,1,2.70067,5053.97,12473.7,-27986.8
1.92422e+07,15.8168,2,2.38913,-137.62,-3505.47,-28969.5
1.9256e+07,133.036,0,2.47445,23525.9,8984.49,-16364.9
1.94639e+07,4.5305,0,2.95736,999.623,-355.869,-29109.4
0,4.44204,0,3.0119,0,0,0
1.95495e+07,72.8648,2,2.91077,-7189.47,256.965,-15291.9
1.9576e+07,49.3291,1,2.72572,-7030.83,4121.13,-29345.1
1.95766e+07,33.6268,1,2.83465,-7053.48,1208.93,-28133.2
1.96137e+07,126.314,2,2.36753,667.664,26199.1,-24011.4
1.96519e+07,89.9246,2,2.8215,17689.1,6548.78,-29911.7
1.97299e+07,11.5617,0,2.44328,-50.1387,-2455,-28934
1.98724e+07,23.4596,2,2.86437,3292.9,-436.445,-25182.4
0,23.452,2,2.66261,0,0,0
1.99262e+07,140.968,2,2.64075,8352.76,5104.62,-17428.4
1.9944e+07,36.3825,0,2.73726,1877.54,1780.17,-26219.9
2.00032e+07,59.7849,0,2.54083,-9295.27,-2179.46,-20625
2.00971e+07,172.489,0,3.0177,12706,17502.8,148.083
2.02342e+07,9.62038,1,2.63809,1270.6,1554.15,-28203.7
2.02434e+07,78.8041,1,3.05654,12197.6,3771.89,-18446
2.02773e+07,102.418,1,2.73736,18556.8,1692.09,-17922.8
2.03351e+07,108.501,0,2.63863,4356.44,16817.4,-13879.9
2.04941e+07,16.2125,0,2.64092,1963.55,-2420.8,-27324.8
0,19.1402,0,2.64092,0,0,0
2.0557e+07,9.39071,0,2.81445,903.83,1377.29,-27867.8
0,9.37765,0,2.61993,0,0,0
0,9.76898,2,2.61899,0,0,0
0,9.42455,0,2.61131,0,0,0
2.06015e+07,6.32341,0,2.70232,1103.64,474.883,-28083.3
2.07479e+07,124.07,1,2.61499,-4718.86,17901.2,-10224.9
2.07552e+07,255.285,1,2.81343,-56.9531,-3334.39,-21505.8
2.07831e+07,116.474,1,2.76123,780.416,23314.3,-21139.3
2.10068e+07,9.28946,1,2.83424,-1454.82,-1357.86,-29049.4
2.10283e+07,33.6106,0,2.86196,4870.94,704.394,-23660.8
2.1088e+07,16.0472,0,2.72411,2665.93,790.707,-26780
2.11719e+07,90.821,0,2.73792,11728.7,-512.84,-13645.1
2.11933e+07,102.929,2,2.96038,8097.99,-18847,-21911
2.12881e+07,57.2054,2,2.36777,6304.92,4073.57,-19376.3
2.1308e+07,157.899,1,2.77109,17212.6,-2375.57,-529.322
2.14224e+07,82.927,0,2.62354,16058.9,-7199.21,-29116.2
2.14777e+07,13.0802,2,2.47111,-2722.86,423.634,-29427.2
2.15246e+07,120.963,2,3.01803,-5824.14,-521.547,-24009.3
2.15394e+07,15.6259,0,3.00804,1081.37,2112.4,-26489.8
2.15969e+07,228.244,2,2.86879,-2288.11,14475.2,-29174.2
2.16653e+07,166.475,2,2.77357,-18213.5,5815.44,526.595
2.16685e+07,52.2117,0,2.74,129.939,9095.53,-22592.2
2.18696e+07,169.131,0,2.47629,23056.7,-9737.15,-3240.51
2.20083e+07,35.2629,0,2.38311,-2630.79,-4426.69,-23570.4
2.20367e+07,79.0758,1,2.42363,-3819.06,10254.3,-16084.8
2.21298e+07,126.629,2,2.58904,-23698.2,12371.4,-29244
2.23298e+07,181.478,2,2.77365,-7452.87,15396.1,5153.8
2.25768e+07,76.1099,2,2.65473,-6772.59,-5110.03,-15139.9
2.26299e+07,22.2271,2,2.4982,522.426,-3294.62,-25164
2.26993e+07,58.7508,2,2.6028,-5571,-10124.6,-24113.5
2.28787e+07,59.1266,0,2.8724,3949.6,-9894.48,-23067.1
2.29131e+07,29.5531,0,2.80394,5323.45,-1457.4,-25805.2
2.30674e+07,34.3646,0,2.67128,3969.96,528.599,-22638.9
2.32701e+07,168.136,0,2.71551,-27602.6,-2418.63,-6911.04
2.34031e+07,63.2873,0,2.70474,-4702.72,3939.96,-17041
2.34413e+07,140.461,0,2.69955,9394.44,-23068.6,-12771.9
2.34581e+07,29.8342,0,2.62287,-3341.25,-5174.3,-28104.4
2.34639e+07,163.769,0,2.54274,-6785.27,-16417.6,1040.92
2.36193e+07,13.006,0,2.46644,760.623,-2464.85,-28149.4
2.37454e+07,26.7487,0,2.89645,-1670.99,-2355.5,-24024.8
2.37677e+07,89.462,1,2.69515,-8156.11,1039.85,-11857.9
2.38108e+07,3.2187,2,2.38671,-626.532,-561.919,-28901.2
2.38667e+07,1.53131,2,2.74276,-288.36,-277.377,-28678.9
2.39703e+07,12.6295,1,2.54778,530.129,2692.73,-28528.8
2.40298e+07,29.7125,1,2.64137,-617.678,3522.01,-23634.4
2.40608e+07,187.09,2,2.75948,-21782.1,-29602.3,-14577.1
2.41793e+07,18.8226,2,2.9342,-441.829,-3259.05,-26481
2.42407e+07,16.998,0,2.90222,2813.69,-1758.72,-27326
2.42599e+07,152.572,2,2.51373,-9100.73,-26568,-12815.2
2.4297e+07,22.0938,1,2.99636,881.1,-3932.12,-26480.5
2.43251e+07,117.094,0,2.93761,19998.1,-8675.68,-17245.7
2.45352e+07,195.468,2,2.66307,-24291.3,26087.6,-8228.47
2.45772e+07,53.6585,0,2.44148,6818.64,6048.31,-22022.2
2.47897e+07,116.833,2,2.68611,-13826.7,-8872.09,-10374
2.49334e+07,30.0087,1,2.75837,-4572.57,-1661.56,-24812.1
2.50072e+07,73.2402,1,2.96632,11599.1,3783.37,-21501.8
2.5042e+07,47.0118,0,2.56438,9381.94,-2193.37,-26031.7
2.51578e+07,246.626,0,2.85425,25800.3,13810.4,13991.9
2.51582e+07,99.3301,2,2.72103,-3457.18,-15294.7,-15019.5
2.5464e+07,206.32,0,2.3925,29868.6,20449,-4347.92
2.55245e+07,154.005,1,2.67598,-8517.91,15238.7,-1406.07
2.55293e+07,53.2271,2,3.0177,1876.86,-4078.73,-18671.2
2.59268e+07,51.5673,2,2.79826,-8382.39,6924.98,-28731.1
2.59932e+07,129.382,1,2.65342,-8407.71,-24884.2,-21955.1
2.60055e+07,11.5571,0,2.77475,-1053.76,-2084.45,-28324
2.60277e+07,28.4618,2,2.38687,-6075.58,-245.981,-28931.4
2.61643e+07,104.623,2,2.98623,-20908,-3396.98,-24478.5
2.62154e+07,89.5911,1,2.60668,5496.6,9327.37,-13294.1
2.62945e+07,169.282,1,2.83219,-16370.9,204.032,2787.71
2.64362e+07,46.0054,2,2.66563,-5561.7,-7543.41,-25857.7
2.65126e+07,4.15707,1,3.0157,321.34,-436.016,-28222.1
2.65278e+07,14.9993,0,2.44176,2407.23,-2062.63,-29526.8
2.66419e+07,48.8386,2,2.65052,-852.726,-9827.85,-25728.5
2.66514e+07,20.6236,1,2.9375,-4293.6,952.614,-29494.2
2.66665e+07,149.292,2,2.8587,-6711.22,26535,-13731
2.67474e+07,33.6792,0,2.38478,5957.73,-923.839,-24912.5
2.6769e+07,7.45584,2,2.60434,-988.719,-1355.61,-28766.6
2.68259e+07,69.7231,0,2.73997,2603.84,-8519.86,-17112.7
2.684e+07,31.2437,0,3.03727,-1666.22,-6341.68,-29744.8
2.68798e+07,163.322,0,2.73642,15657.5,-26877.6,-14045.1
2.68932e+07,88.216,1,2.64647,-11384.2,8966.51,-17085.5
2.6978e+07,115.057,0,3.00597,-2267.64,22463.4,-20445.1
2.70534e+07,261.853,1,2.94609,-19955.8,22877.5,17013.4
2.72288e+07,94.6459,2,2.57304,-13615,7781.11,-16395.6
2.73164e+07,36.3136,2,2.86516,1246.2,-3438.1,-22111.3
2.74914e+07,52.1991,1,2.92905,-2636.99,9701.61,-24264.5
2.76361e+07,73.4306,2,2.47674,10602.1,86.9479,-17504.5
2.7887e+07,169.684,1,2.72086,-13108.1,8474.31,3343.45
2.79368e+07,164.149,2,2.96642,18940.8,3400.3,-226.042
2.80399e+07,47.7236,2,2.90001,6354.38,2210.24,-21368.3
2.80477e+07,56.4555,0,2.49547,2380.16,-11664.4,-27701.3
2.80919e+07,74.2952,0,2.64756,13182.1,-1177.46,-20273.5
2.81127e+07,10.7638,0,2.67133,1448.49,1040.86,-27300.4
2.81495e+07,3.86438,1,2.44651,-248.87,625.371,-28286.9
2.82301e+07,52.883,0,2.42997,-3687.75,-3772.37,-19011.1
2.82612e+07,51.6705,2,2.64338,-1103.13,-8899.28,-22892
2.83021e+07,49.7328,1,2.63529,8570.71,5338.89,-25846.4
2.85129e+07,114.227,2,2.97908,587.612,-21880,-19133.9
2.86374e+07,101.494,2,2.36327,-10837.6,15530.2,-18743.5
2.86419e+07,111.546,1,2.98901,-22211,6376.68,-25053.6
2.86972e+07,122.27,1,2.55707,-9130.42,23455.8,-22649.2
2.89056e+07,102.462,2,2.69556,-11651.9,-13343.9,-16249.4
2.89068e+07,144.663,0,2.79449,25554.8,-8098.81,-14225.3
2.89366e+07,77.3446,1,2.46538,-14161.1,-6988.6,-24639.9
2.89585e+07,129.634,1,2.50449,-20358,15146.3,-18244
2.92952e+07,76.9053,1,2.98603,14569.3,-2951.34,-22695.1
2.93039e+07,122.104,1,2.479,-21528.5,9004.51,-17941.5
2.93398e+07,66.4136,2,2.99322,1814.72,-7095.58,-17431.8
2.9402e+07,70.9041,1,2.83278,-8605.19,-1451.28,-16743.5
2.94044e+07,32.4208,1,2.38074,4357.45,-1719.4,-23882.5
2.96876e+07,21.9642,1,2.85034,-194.073,4288.46,-27088
2.97337e+07,58.6643,1,2.84778,5565.42,9483.97,-23139.3
