#class tools::wcsv::ntuple
#title time
#separator 44
#vector_separator 59
#column double eventID
#column double t(ns)
#column double copynumber
#column double energy(eV)
#column double x(mm)
#column double y(mm)
#column double z(mm)
264029,67.4474,2,2.42132,6050.64,-11301.2,-22497.6
350371,149.265,2,2.61623,327.313,25780.7,-10743.7
367178,67.4304,2,2.85983,-7010.9,-1911.96,-16630.9
486126,81.0256,1,2.91153,-1967.73,7887.67,-13935.1
508922,147.741,0,2.78531,15967.4,-12795.3,-6760.72
611226,10.7337,0,2.67794,-785.961,2095.12,-28431.6
658022,43.3538,1,2.40528,-834.972,9072.88,-27909.3
667353,125.662,0,2.54924,2385.55,24588.6,-19013.8
698445,39.2248,2,3.0165,-2354.65,-5256.38,-22887.5
708722,121.479,2,2.64758,-6887.77,-22928.3,-19315.1
721771,51.8756,0,2.93448,-2413.85,8318.22,-22226.5
765942,184.447,1,2.60493,-9232.98,-25817.7,-1266.82
921234,40.6509,0,2.50145,7644.55,-2699.75,-25690.1
954179,196.473,0,2.84806,21194.3,24755.6,-13154.7
1.00474e+06,98.6005,2,2.37639,17278.8,-8444.8,-20616.4
1.03445e+06,17.9158,1,2.44236,-3592.65,1542.66,-29057.6
1.08236e+06,20.9827,1,2.55197,-1342.95,4347.3,-28375.5
1.17977e+06,166.098,0,2.81977,26472.9,-7087.98,-7031.6
1.1986e+06,18.355,0,2.84852,-1764.95,1827.27,-25918.6
1.25020e+06,4.22974,0,3.01949,504.249,476.443,-28108.5
0,4.27706,0,2.48393,0,0,0
1.31576e+06,20.1219,2,2.76729,-3743.46,165.756,-26560.6
1.44027e+06,2.5129,0,2.71766,596.167,340.599,-28697
0,2.5079,0,2.42975,0,0,0
1.53395e+06,14.4257,0,2.50659,2031.21,-1361.03,-26929.3
1.61146e+06,13.7354,0,2.98908,-190.007,-2765.04,-27922.8
2.14391e+06,109.779,2,2.48763,-18078.5,-8731.14,-16898.4
2.26884e+06,109.463,1,2.74937,21779,4817.79,-23109.9
2.4572e+06,86.1247,1,2.88133,72.7807,801.685,-28432.7
2.526e+06,31.002,0,2.46122,1369.99,4783.67,-24634.3
2.57484e+06,14.9221,0,2.3779,942.521,-347.867,-29077.2
2.59621e+06,116.273,1,2.62146,-16005.5,18571.4,-26830.6
2.60395e+06,69.2481,2,2.39519,7268.72,10207.9,-21615.1
2.60969e+06,19.6622,2,2.84594,-35.8518,-4152.05,-29271.1
2.863e+06,26.2186,2,2.38832,1887.85,1402.48,-23782.8
2.88033e+06,54.8895,0,2.52326,-2588.3,-8875.33,-21836
2.89567e+06,46.159,1,2.41958,-7445.52,-1896.16,-22844.4
2.93270e+06,28.9569,0,3.0296,4647.58,1283.81,-25170.1
3.2803e+06,57.8851,2,2.84686,-5623.09,1310.41,-18078.2
3.31533e+06,69.6157,1,2.50438,8240.38,-7036.56,-19242.1
3.41037e+06,128.1,1,3.0363,-16563.4,5189.85,-8303.86
3.45261e+06,12.1299,1,2.81959,-214.37,1629.91,-26763.9
3.453e+06,19.5835,1,2.5851,1805.56,-3197.56,-27121.2
4.01154e+06,74.5548,0,2.58978,10544.1,-2368.27,-17203
4.02266e+06,108.8,2,2.81723,15894.4,-16206.6,-26110.7
4.04913e+06,28.1816,2,2.66464,-3961.76,-4258.08,-27180.9
4.07337e+06,20.4917,0,2.83589,-1369.83,-2650.51,-25730.7
4.38503e+06,96.353,0,2.96161,4011.89,-9022.78,-11155.1
4.40295e+06,128.801,1,2.84372,-21210,16738.6,-27947
4.41503e+06,80.7678,1,3.03774,-16371.8,-3246.81,-25871.7
4.42232e+06,46.0031,0,2.4495,-3875.01,-6979.99,-23231
4.46275e+06,41.1569,0,2.73958,916.03,-5027.01,-21780.7
4.67948e+06,17.8222,1,2.96446,2485.62,179.04,-25962.6
0,17.742,1,2.78282,0,0,0
4.84144e+06,62.3777,1,2.54746,-8584.62,9786.44,-26471.8
4.8671e+06,74.2676,0,2.95738,14402.3,5672.08,-26164.9
4.97373e+06,68.8753,1,2.41753,8633.96,368.405,-17111.6
5.06934e+06,73.1199,2,2.3836,2821.87,-12991.3,-20647.2
5.2959e+06,19.7279,1,2.58049,-4020.75,-1399.83,-28414.3
5.35078e+06,155.899,2,2.65695,-2242.39,-26078.1,-8759.67
5.4004e+06,80.8656,0,2.99745,-133.424,-8828.9,-14364.7
5.43186e+06,90.7723,2,2.6177,7643.97,-8385.12,-13465.8
5.44807e+06,13.1953,2,2.7492,-957.335,-2197.87,-27273.5
5.45199e+06,34.6167,1,2.74775,817.549,3291.5,-22479.6
5.50848e+06,31.0724,1,2.3638,4332.12,1154.3,-23989.8
5.51073e+06,86.5802,2,2.86493,13229.9,-12159.9,-25910.3
5.5939e+06,73.7154,2,2.51493,-14397.9,5247.57,-25997.1
5.62909e+06,186.977,2,2.64383,23516,-19868.5,-4130.35
5.6593e+06,85.0645,2,2.64126,9254.67,11010.6,-18604.6
5.68482e+06,126.56,1,2.54702,15529.3,-14488.9,-12667.5
5.81042e+06,118.026,0,2.55867,4320.42,-9626.52,-6174.21
6.01013e+06,108.819,1,2.62295,-7506.28,7443.92,-8359.38
6.05197e+06,75.4826,1,3.00413,929.971,10106.6,-16623.2
6.06692e+06,44.1285,2,2.96013,-7950.83,1670.05,-24704.8
6.30369e+06,100.756,2,2.42719,9975.42,-18609.3,-26055
6.32073e+06,122.689,2,2.77954,11159.8,-2070.96,-5724.95
6.35474e+06,44.3411,2,2.64277,5527.78,3647.19,-22271.1
6.37669e+06,81.8933,0,2.79915,6013.31,-14039.8,-20800.9
6.48033e+06,57.7498,1,2.6829,-7386.45,6790.87,-21915
6.49431e+06,92.9201,0,2.51679,17357.3,-6899.73,-22433.3
6.51889e+06,69.6383,0,2.39103,1394.66,-10810.3,-18850
6.58494e+06,118.639,2,2.80621,-9285.99,-17713.5,-14580.3
6.6945e+06,99.1068,0,2.62202,12094,3618.29,-12064.5
6.83132e+06,20.0642,2,2.68036,796.634,-3361.91,-26272.9
6.90181e+06,36.5247,1,2.97851,-2202.36,1253.07,-21735.1
0,36.42,1,3.05872,0,0,0
7.10535e+06,201.333,2,2.47241,422.03,-24655.2,5778.72
7.36782e+06,141.879,2,2.54655,-6903.48,14882.5,-3791.87
7.38644e+06,17.7769,0,2.71773,1296.59,1336.06,-25524.9
7.49997e+06,70.2841,0,2.88464,9690.45,3232.28,-18143.8
7.6351e+06,90.359,1,2.7071,-10953,15673,-27627
7.69062e+06,145.179,1,2.64052,-16425.3,-14529,-7477.71
7.7005e+06,30.8261,2,2.94989,-1088.6,-6281.57,-29055.9
7.87022e+06,253.713,0,2.85613,6101.79,-16122.3,-7058.03
7.8958e+06,73.4075,0,2.65764,-14034.8,-6062.16,-26482.6
7.94416e+06,135.814,1,2.78002,23495.4,-172.203,-12652.9
8.05752e+06,36.9242,0,2.6706,-2529.61,-3345.5,-22294.9
8.38082e+06,3.67356,2,2.93362,-658.883,-358.574,-28872.7
8.42732e+06,115.169,1,2.78705,15570.3,17703.2,-22851.4
8.60958e+06,98.8924,2,2.49345,-9983.09,-18460.8,-29236.7
8.69998e+06,133.353,0,2.82113,-8082.56,-26585.9,-27119.9
8.84804e+06,81.098,2,2.66962,7920.29,-13694.6,-22262.9
9.2857e+06,115.076,1,2.58567,-3360.96,-11740.6,-7856.86
9.35573e+06,98.7399,0,2.55663,13953.1,12377.8,-19300.2
9.46766e+06,12.2743,2,2.81787,391.128,-2612.02,-28536.4
9.46942e+06,14.1647,1,2.54124,2835.74,253.125,-29499.5
9.60132e+06,154.714,1,2.77873,13361.7,3370.88,691.89
9.60182e+06,182.077,0,2.88422,-2736.07,-21493.2,931.972
9.66351e+06,74.7849,2,3.00969,-10067.8,-711.323,-16907.1
9.72546e+06,45.9781,1,2.62961,-5562.2,-920.98,-20839.2
9.88224e+06,14.64,0,2.56466,2243.43,2200.09,-28517.2
9.9313e+06,95.3419,2,2.80213,-578.919,-20109.9,-29883.2
1.00592e+07,26.5961,0,2.95542,4754.99,-2369.3,-26946
1.00925e+07,9.21825,1,2.59341,-895.214,1327.39,-29739.8
1.02663e+07,14.6531,1,3.00131,-2960.59,-897.396,-29425.2
1.02884e+07,73.6004,0,2.97864,-2007.8,7685.11,-15670
1.04357e+07,18.0827,1,2.74872,2934.36,-1763.09,-27901.8
1.05332e+07,9.37114,0,2.57021,-1031.76,964.698,-28148.5
1.07356e+07,92.1821,1,3.01453,-5043.72,-5921.99,-11134
1.07777e+07,59.78,1,2.84559,-9032.43,5874.04,-22870.6
1.07793e+07,17.1439,1,3.039,77.8227,3068.39,-26810.6
1.07879e+07,164.028,2,2.87492,3194.04,-29070.7,-10573.1
1.08328e+07,29.2303,1,2.86732,-2586.11,2407.31,-23825.2
1.08781e+07,171.032,2,2.64061,-4478.64,-27323,-6020.16
1.11185e+07,129.07,0,2.51273,-7637.71,-17100.6,-9010.77
1.11518e+07,31.7602,2,2.40393,-5944.64,-2098.44,-26251.5
1.12549e+07,6.3664,0,2.99632,852.016,1008.85,-28571.9
1.13664e+07,80.8741,2,2.54079,-1241.59,-15086.4,-20797.3
1.14058e+07,162.541,2,2.79691,3487.95,-14069.3,1483.46
1.1451e+07,45.1855,1,2.49054,-1193.71,3651.88,-20052.2
1.14748e+07,17.9148,2,2.88968,-1607.63,-3321.03,-27700.1
1.15452e+07,104.019,2,3.04225,21190.5,3050.18,-26045.7
1.1566e+07,8.76966,2,2.39101,773.107,534.975,-27242.5
1.16463e+07,78.3088,2,2.99464,-8704.72,4340.79,-15774.3
1.1683e+07,8.31576,2,2.88322,944.977,-1494.25,-29248.4
0,8.26168,0,2.69005,0,0,0
1.1732e+07,31.4534,2,2.5548,304.104,-6168.27,-26112.9
1.17631e+07,77.9823,1,3.01383,9245.92,3119.08,-16303.2
1.18138e+07,82.2609,2,2.86288,-2995.2,16400.5,-24466.2
1.18142e+07,53.4305,0,2.8563,-561.629,7771.69,-20799.8
1.20012e+07,130.453,0,2.97767,21265.8,3777.78,-11820.5
1.24427e+07,41.5585,0,2.72008,-5302.19,4104.25,-23400
1.24516e+07,20.9594,2,2.4056,1000.46,-4291.52,-28059.6
1.25258e+07,24.5688,0,2.8733,-2597.53,-2462.76,-25143.2
1.26604e+07,49.2062,1,2.59419,-4417.6,7219.88,-22853.8
1.27616e+07,31.6168,0,2.67684,-1133.81,-2461.19,-22723
1.28783e+07,8.84819,0,2.6575,-11.5115,1472.97,-27712.4
1.31972e+07,108.271,2,2.97695,-16445.4,4147.59,-13705.9
1.33127e+07,111.344,1,2.78352,5910.48,10851.1,-8809.17
1.33217e+07,130.464,0,2.6765,24030.8,-8517.63,-18223.8
1.33325e+07,166.718,2,2.6845,-26686.8,14642.8,-13406.7
1.336e+07,83.2883,1,2.52022,-6937.82,8019.77,-14694.3
1.33931e+07,27.0593,1,2.97636,-507.258,3976.34,-24715.1
1.3447e+07,80.5554,2,2.53839,-6471.55,15309,-25147.6
1.36785e+07,65.8123,2,2.44154,-4714.97,4469.38,-16504.5
1.37132e+07,72.6939,1,2.57461,8705.84,-8987.76,-20018.2
1.38556e+07,47.7376,2,3.06168,7313.28,-6221.1,-26217.6
1.39326e+07,17.2805,1,2.70355,-1771.08,1655.35,-26002.8
1.39935e+07,21.2448,0,2.47289,3973.6,350.643,-26658.7
1.439e+07,39.5761,1,3.0262,-5318.37,272.816,-22456.4
1.47672e+07,42.8524,2,2.75799,8202.21,-3542.43,-27453.2
1.48209e+07,50.7795,0,3.04635,7810.74,2296.94,-21873.2
1.49398e+07,32.7172,1,2.84768,-2170.54,2667.69,-22885.8
1.497e+07,29.2136,1,2.43993,4935.66,-100.346,-25121.7
1.51433e+07,22.7586,2,2.74877,1234.02,-2416.56,-24803.2
1.5185e+07,55.361,0,2.79649,4789.82,8425.4,-22341.1
1.52255e+07,103.462,1,2.67514,-17896.5,8483.34,-19527.1
1.52747e+07,68.7431,0,2.80187,8422.14,11958.3,-29265.7
1.54313e+07,4.61793,1,2.4934,-877.394,317.517,-29456.7
1.56197e+07,36.8332,2,2.96145,5634.04,4568.25,-26529.9
1.57002e+07,153.626,0,2.36533,19523.8,-10131.7,-7882.67
1.59228e+07,114.721,0,2.94562,-1084.51,24063.1,-27932.8
1.60762e+07,57.3187,2,2.41526,8083.6,1752.54,-19907.4
1.61794e+07,56.2303,2,2.85752,4063.23,3116.11,-18263.8
1.62528e+07,14.7183,0,2.89191,3121.59,-427.922,-28516
1.62588e+07,157.165,0,2.82847,-9083.57,-14310.1,-609.925
1.63477e+07,8.73642,2,2.41455,-926.55,548.933,-27366.5
1.63919e+07,168.842,2,2.65017,22116.2,6241.74,-2709.62
1.64135e+07,22.029,2,3.02629,-1245.13,-4576.31,-29079.2
1.65231e+07,88.846,1,2.8467,-5297.84,13442.5,-16952
1.66418e+07,65.6011,0,2.81544,8072.62,3278.22,-17971.4
1.66474e+07,2.61265,0,2.9704,-198.207,167.509,-28393.6
0,2.40517,2,2.92386,0,0,0
0,2.39119,2,2.50541,0,0,0
1.7023e+07,26.6909,2,2.61928,746.749,-3330.73,-24225
1.70295e+07,111.91,2,2.87373,-12595.3,-19433.5,-24175.1
1.71537e+07,13.116,0,2.81176,1236.62,-406.272,-28597.2
1.71716e+07,11.5338,2,2.63448,-328.584,-2104.24,-27338.6
1.74993e+07,70.5932,0,2.44104,10213.3,-9715.22,-24097.6
1.75043e+07,83.4497,1,2.672,2949.94,8359.25,-13543
1.75307e+07,50.0662,1,2.80905,5198.76,3730.67,-20520.3
1.76723e+07,258.209,1,2.48271,18705.4,-20880.9,17988.5
1.77792e+07,19.6978,0,2.84805,2802.84,3065.41,-29172.6
1.79565e+07,6.62756,2,2.84573,-645.312,-1352.38,-28565.3
1.80712e+07,4.91483,2,2.97516,-820.298,-219.715,-29498.1
1.81385e+07,95.023,0,2.71721,-8257.24,-16666.8,-21446.2
1.81826e+07,21.5848,2,2.63991,1005.21,-4260.09,-27224.6
1.82467e+07,72.8103,2,2.60109,9076.96,-1504.32,-16517.6
1.8389e+07,25.1207,1,3.03111,-2816.15,3126.01,-25904.8
1.84185e+07,28.6931,2,2.64607,2916.88,-4424.38,-25791.4
1.84696e+07,75.3828,1,2.81701,297.103,11826.4,-18190.6
1.85454e+07,256.594,2,3.03398,-17629.7,17143.4,-23285.9
1.85463e+07,56.7814,1,2.9462,-3523.97,-9697.81,-23002.8
1.8745e+07,21.2119,0,3.02103,3628.02,-1305.83,-26444.4
1.88888e+07,15.4917,0,2.36921,1855.92,-1202.49,-26364
0,15.6024,0,2.52918,0,0,0
1.89044e+07,14.119,0,2.77013,2437.67,513.289,-27173.5
1.89153e+07,11.4786,1,2.8547,1882.9,1393.58,-28406.5
1.90179e+07,69.6686,1,2.61175,1390.65,5488.25,-15206.1
1.90488e+07,18.633,0,2.54419,1041.05,-1379.66,-25326.6
1.91418e+07,52.352,2,2.47048,-10620,320.11,-25400.6
1.91471e+07,96.0813,1,3.00976,-33.4693,8272.77,-24894.7
1.91637e+07,58.9482,0,2.36634,2414.44,-5528.9,-17894.2
1.93928e+07,45.2266,0,2.54313,9381.63,-2158.48,-29063.7
1.94004e+07,23.3071,2,2.90892,196.043,-5059.06,-28754.1
1.94218e+07,138.486,0,2.57151,2416.5,-26061.2,-16110.3
1.94469e+07,152.284,0,2.66054,11400.7,29318.1,-22194.2
1.95091e+07,180.837,2,2.82901,-6274.21,-3793.03,-9282.66
1.95695e+07,22.9921,0,2.6956,1720.78,4593.59,-28677.9
1.96891e+07,26.8252,2,2.68384,-2980.42,-867.118,-24074.7
1.9765e+07,71.0855,1,2.85366,-3516.03,9579.54,-17993.1
1.98735e+07,106.845,1,2.87999,-15960.2,11096.2,-17423
1.99276e+07,3.18115,0,2.62952,495.651,415.447,-28473.3
0,3.18203,0,3.04024,0,0,0
1.99347e+07,7.23585,1,2.56005,-1307.57,775.585,-29123
1.99871e+07,218.69,0,2.84435,1765.05,2658.76,-24994.3
2.00635e+07,35.1723,2,2.98855,1111.65,-5773.64,-24247.8
2.01783e+07,46.9418,0,2.42434,-5271.23,-6180.69,-23248.8
2.02733e+07,17.9701,1,2.69838,-3093.97,2179.66,-28062.1
2.02774e+07,7.68838,2,2.51625,-1557.59,63.7945,-28687.1
2.05764e+07,19.2108,0,2.80372,2944.38,-1950.41,-26697.6
2.09376e+07,83.4311,0,2.98216,-2522.08,-9086.22,-14103.8
2.12712e+07,8.37173,0,2.48255,1325.3,1272.64,-28633.9
2.15739e+07,136.226,1,2.88915,7623.85,-19053.5,-9288.74
2.15961e+07,58.5599,2,2.72321,-11141.7,-4374.31,-25329.3
2.16366e+07,25.3825,2,2.90244,-2586,-1766.42,-24504.4
2.17668e+07,124.028,1,2.51451,15302,8265.4,-9206.69
2.17846e+07,172.776,2,2.95392,17833.5,19410,-6979.81
2.19963e+07,28.2915,1,2.74922,3621.39,4574.95,-27447.1
2.20376e+07,24.4058,0,2.87588,2678.46,3553.72,-26178.8
2.20383e+07,13.3038,0,2.66423,2670.44,1104.21,-28418.7
2.20897e+07,44.5954,2,2.3854,-7748.32,-5827.64,-28903.4
2.21596e+07,19.0125,0,2.91158,2485.77,1109.37,-25769.5
2.22677e+07,73.6369,2,2.5636,-6986.35,-12124.2,-24411
2.22773e+07,9.77621,0,2.99545,924.847,-451.439,-26978.1
0,9.6918,0,2.72641,0,0,0
0,9.67221,0,2.7014,0,0,0
2.23694e+07,187.252,2,2.65574,-7796.87,9825.03,-21788.1
2.24348e+07,40.5698,0,2.87928,537.085,8065.7,-26227.5
2.2575e+07,51.2245,0,2.44175,10901.1,1338.45,-29564.3
2.25934e+07,41.4932,2,2.41291,2685.12,-6308.24,-23275.2
2.27118e+07,37.2539,2,2.92514,3607.46,4034.76,-23263.2
2.2939e+07,12.0322,0,2.39062,-813.659,-1715.48,-27134.4
2.29641e+07,108.274,0,2.79791,7192.91,4978.17,-7755.63
2.29825e+07,67.1042,1,2.8336,12859.5,5814.5,-28744.5
2.30422e+07,123.152,2,2.68094,-12663.1,22665.7,-29168
2.30935e+07,80.2444,0,2.53733,10883,-10177.2,-20686
2.31028e+07,10.7578,2,2.67573,-260.109,-2132.07,-29769
2.31037e+07,6.35521,1,2.98834,374.147,-767.438,-27836.1
2.31332e+07,150.552,2,2.496,-17066.1,-25178.7,-19311.4
2.31651e+07,18.5706,1,2.85823,-2354.72,-3130.1,-28914.8
2.31676e+07,49.8096,2,2.8266,7329.17,-3564.76,-22222.9
2.32784e+07,66.9891,2,3.00838,2050.29,-12350.4,-22313.7
2.33706e+07,38.8928,1,2.9044,-2330.98,-5765.53,-23685
2.34918e+07,48.2074,1,2.44434,4350.59,2019.1,-19803.9
2.37895e+07,105.189,2,2.39158,-9873.47,6446.17,-16188
2.40145e+07,59.4492,1,2.68289,-1989.31,-10901.3,-23145.6
2.41595e+07,6.79826,0,2.65243,464.376,754.401,-27610.5
0,6.73063,1,2.73607,0,0,0
0,6.76232,1,2.96709,0,0,0
2.42898e+07,3.06234,2,2.75981,-601.923,298.374,-28758.4
2.44963e+07,33.9464,1,2.66496,5037.05,4524.78,-26329
2.461e+07,87.8323,2,2.4828,-16070.4,3759.11,-20443
2.47475e+07,58.2566,2,2.90265,8946.65,-5890.37,-26446.6
2.48841e+07,111.691,1,2.76328,12194.4,10100.5,-11973.1
2.49659e+07,46.6788,2,2.74565,1368.02,7829.62,-23155.6
2.50421e+07,37.1094,0,2.56342,6447.21,4609.97,-28402.7
2.50778e+07,26.0338,0,2.80797,1684.53,-1339.1,-23754.8
2.51063e+07,84.4163,1,2.53968,2723.52,10464.4,-14602.3
2.51431e+07,132.885,2,2.65704,-4907.84,-25607.8,-18252.2
2.52483e+07,91.1489,0,2.66772,-7407.58,-3388.8,-11410.7
2.54836e+07,29.4458,0,2.78456,1154.18,-4151.23,-24306.2
2.55403e+07,5.48708,0,2.9866,410.586,-702.086,-27981.7
2.55722e+07,288.969,2,2.9101,3545.14,298.223,-23693.9
2.56626e+07,18.2617,2,2.39061,3228.59,-758.566,-26730.8
2.57417e+07,130.653,0,2.89123,953.609,-11175,-3863.69
2.57824e+07,28.0633,2,2.59566,-2562.35,1054.06,-23570
2.58474e+07,16.6836,2,2.73629,2143.62,1767.29,-26891.8
2.58554e+07,22.1573,0,2.57997,3260.9,-3438.68,-28160.6
2.58863e+07,61.4502,2,2.81661,-11718.6,-5110.22,-26822.5
2.60009e+07,136.642,1,2.86567,-20617.5,10517.4,-12371
2.61225e+07,0.999557,0,3.0034,185.903,154.394,-28728.9
0,0.881122,0,3.05413,0,0,0
2.61322e+07,21.7414,0,2.89544,-2641.91,-2014.92,-25708.5
2.61608e+07,155.637,2,2.41933,-26778.5,-16888.1,-19656.5
2.62022e+07,24.5324,2,2.50137,2364.5,-150.591,-24204.2
2.63523e+07,52.0618,0,2.76764,930.288,-5026.11,-23470.3
2.64722e+07,34.635,2,3.00573,-1648.57,4209.44,-27017.1
2.66945e+07,77.5254,2,2.98322,-6817.78,-10803.8,-23484.2
2.70293e+07,107.062,0,2.53504,10481.8,13598.9,-14060.8
2.71123e+07,43.8862,2,2.52905,-7396.88,1056.85,-23098
2.71305e+07,35.0179,0,3.00713,4859.5,5451.71,-29990.5
2.7134e+07,190.022,1,2.77881,23552.2,-3821.28,3204.5
2.72365e+07,36.7892,0,2.58347,1661.93,-6782.45,-25862.2
2.72695e+07,20.312,0,2.98135,-319.541,3002.41,-25773.5
2.74235e+07,50.2793,0,2.3737,3522.79,-7362.74,-21938
2.75005e+07,25.0843,2,2.69326,-3563.49,171.398,-24862
2.7861e+07,12.4479,0,2.52105,2586.37,107.156,-28171
2.78765e+07,128.5,0,2.49703,16463.1,17587.5,-21232.1
2.79562e+07,191.933,0,2.71339,22456.5,27691.1,-9656.73
2.79799e+07,35.3341,1,2.41614,-868.638,3063.66,-22219.8
2.80048e+07,33.817,0,2.57912,1488.39,3638.84,-22863.8
2.8089e+07,10.8004,0,2.93078,1593.71,1762.98,-29026.5
2.81216e+07,29.2777,1,2.38354,-1908.62,5550.5,-26364.1
2.81986e+07,4.99014,0,2.75774,-508.467,-572.406,-28423.7
2.82844e+07,91.7869,2,2.63026,-5907.93,13008.9,-15711.7
2.83813e+07,161.817,1,2.87859,-28365.3,17554,-21810.2
2.84327e+07,24.2918,0,2.39958,231.733,4539.94,-26180.6
2.84667e+07,13.1353,0,2.6522,2641.04,945.867,-28227.8
2.84696e+07,15.9906,0,2.44726,1198.16,1100.33,-26021.4
2.87258e+07,62.1056,0,2.75044,-2237.36,8997.2,-19583.3
2.88616e+07,39.7224,2,2.75014,-3247.82,-4997.56,-22800.5
2.91687e+07,95.9133,0,2.47712,10369.9,10388.1,-14786.3
2.91909e+07,9.51045,2,2.7969,-1566.2,-981.959,-29396
2.921e+07,14.7499,0,2.60458,2097.89,-1426.37,-27054.7
2.94891e+07,10.3264,2,2.44635,-1854.36,145.626,-27330.3
2.95091e+07,63.1135,1,2.50619,-4196,8715.42,-19725.1
2.97092e+07,75.8714,2,2.9696,-4391.84,-2228.47,-26422.4
2.97141e+07,14.407,2,2.71701,-1053.3,1392.14,-26335.4
2.98872e+07,146.657,0,2.42904,26009.5,-14493.6,-19557.5
2.99055e+07,35.0544,0,2.42231,4282.06,3852.67,-24011.1
