#class tools::wcsv::ntuple
#title time
#separator 44
#vector_separator 59
#column double eventID
#column double t(ns)
#column double copynumber
#column double energy(eV)
#column double x(mm)
#column double y(mm)
#column double z(mm)
60317,22.8586,2,2.38298,-1258.25,-2496.75,-24798.3
108745,15.3346,1,2.83135,2623,783.598,-27109.8
0,15.3155,1,2.72791,0,0,0
157436,31.4882,2,2.92158,-19.289,-6661.51,-29434.3
163136,90.921,2,3.00619,18096.9,2487.03,-23603.3
202407,10.8969,1,2.83772,-1683.9,-1260.45,-28090.8
203782,32.18,2,2.95502,3509.98,-2576.99,-23705.1
0,32.0148,2,2.68731,0,0,0
262973,132.963,0,2.95318,25735.5,8194.32,-21324.4
317642,75.9355,0,2.72296,11340.5,-1337.48,-17706.3
401688,88.5766,1,2.7116,3808.49,-15336.2,-19476.9
434444,6.764,2,2.71141,1160.14,-775.02,-28445.8
439775,52.5477,1,2.56608,-9580.01,-3833.12,-24774.1
728691,151.732,0,2.64462,23323.1,18265.3,-16777.5
839218,63.1383,0,2.52373,5958,-5417.02,-18393.3
855838,40.965,0,2.58942,-290.877,5230.85,-21777.4
0,40.9394,1,2.79614,0,0,0
1.05706e+06,124.105,2,2.90536,3420.31,6164.67,-22441.4
1.06481e+06,54.1592,1,2.98882,-9328.96,1752.82,-22483.2
1.15494e+06,129.725,0,2.94948,-12613.6,17920.3,-12811.9
1.29431e+06,162.31,1,2.97395,-21132.6,4986.56,-2629.41
1.38664e+06,40.2766,2,2.70022,-1813.88,6916.22,-24362.6
1.4274e+06,170.985,2,2.7125,16424.9,-13870.8,121.004
1.57272e+06,93.244,0,2.7883,7992.48,-17914.3,-28411
1.57817e+06,10.9905,2,2.76005,-541.205,2126.19,-28481.9
1.58611e+06,33.2048,1,2.89483,-4220.28,-28.8886,-23232.9
1.65016e+06,134.47,2,2.52613,9744.45,-7717.5,-26192.8
1.80241e+06,38.3143,1,2.62181,-6031.67,5494.14,-29520
1.95848e+06,22.0705,0,2.95924,1155.96,-4413.55,-29823.9
1.96969e+06,0.640241,0,2.88651,266.222,55.6686,-28810.7
0,0.646433,0,2.6205,0,0,0
0,0.726091,0,2.51695,0,0,0
0,0.644275,0,2.80364,0,0,0
0,0.676858,0,2.51352,0,0,0
0,0.643159,0,2.75682,0,0,0
0,0.647376,0,2.60034,0,0,0
0,0.654904,0,3.04485,0,0,0
0,0.63579,0,2.45924,0,0,0
0,0.639929,0,2.75449,0,0,0
1.9785e+06,110.791,1,2.5735,-14758.3,3642.67,-10960.5
2.24983e+06,38.2498,0,2.89787,-2380.55,-6486.82,-24718.9
2.33293e+06,167.574,0,3.04528,-4664.68,6366.42,-29140.5
2.35377e+06,32.9581,2,2.53795,-4864.95,-3295.76,-24943.2
2.37167e+06,31.627,2,2.84061,-5179.48,2282.59,-29185.3
2.48606e+06,15.7369,2,2.80977,-55.4087,-2906.09,-27170.3
2.62468e+06,168.33,2,2.75087,-25014,25005.4,-28921.5
2.77278e+06,108.083,1,2.98867,-2007.64,-1132.91,-29568.5
3.00611e+06,21.2816,1,2.52186,-3911.98,2280.4,-28036.3
3.04656e+06,24.965,1,2.52966,-2026.24,4175.12,-26493.6
3.44475e+06,28.5701,0,2.661,3161.91,-3355.16,-24980.8
0,28.6007,0,2.56297,0,0,0
3.64452e+06,54.9336,2,2.77015,8673.68,-2240.68,-21617.5
3.66699e+06,36.5347,1,3.0338,3988.05,2304.5,-22611.6
3.7201e+06,182.703,2,2.6885,3337.74,-6215,-19838.9
3.77433e+06,92.2954,2,2.70203,14585.9,9163.01,-19597.9
3.80536e+06,28.1295,1,2.4405,-5364.88,-1093.02,-26242.3
4.00008e+06,4.06778,2,2.79121,500.253,-748.31,-28836.6
0,4.06652,0,2.57061,0,0,0
0,4.11708,0,2.80069,0,0,0
4.06041e+06,38.6762,0,2.56635,5013.99,6489.61,-29517.8
4.08277e+06,84.2694,0,2.82188,16532.5,-5212.96,-24656.1
4.19143e+06,96.3796,1,2.43971,1453.8,20390,-28672.2
4.45948e+06,32.0235,2,3.05938,-4310.6,-5016.63,-27221.5
4.53315e+06,87.0637,2,2.5707,-6340.66,-10459.2,-19110.4
4.58331e+06,216.709,1,2.51881,28422.9,-2852.8,7014.75
4.68271e+06,14.9525,0,2.46269,876.606,-2725.24,-27401.1
4.82391e+06,26.3483,1,2.50412,1739.16,3532.38,-24564.2
4.84805e+06,56.462,0,2.78865,323.099,-10825.9,-23749.4
4.89622e+06,82.5444,1,2.97894,13660,10492.4,-27121.9
4.94169e+06,52.49,0,3.0436,2736.77,-6682.03,-20443.5
4.99785e+06,8.00712,2,2.75008,-519.886,-1760.33,-28721.2
5.03394e+06,36.0472,0,2.55914,1416.72,3864.24,-22562
5.07223e+06,96.3474,0,3.00378,-2731.97,11332.1,-25421.5
5.17299e+06,128.683,2,2.62864,-8998.43,8339.76,-9188.85
5.25933e+06,29.9688,2,2.89932,-2290.23,5593.86,-27096.6
5.28722e+06,179.594,0,2.81775,21257.9,27712.4,-14496.3
5.29417e+06,50.1201,0,2.52376,-3613.16,6574.08,-21380.3
5.31396e+06,95.1498,0,3.03111,-6162.44,-15597.9,-18949.8
5.41618e+06,136.749,0,2.69515,23508.6,5303.88,-12874.5
5.51787e+06,16.6183,2,3.04289,1029.65,2253.34,-27279.8
5.5648e+06,21.1893,1,2.87033,-2034.88,4131.29,-28631.9
5.58341e+06,15.2945,0,2.74724,2990.99,-1373.5,-28299
5.67993e+06,14.1615,1,2.67994,-209.037,2981.05,-28012.3
5.71142e+06,133.992,0,2.51513,-9845.78,9200.17,-3952.15
5.75042e+06,38.7192,0,2.44651,-6653.49,4666.05,-28500.1
6.15722e+06,3.92502,1,2.98211,533.173,660.469,-29116.4
0,3.88795,1,2.74847,0,0,0
6.393e+06,41.6488,0,2.60728,1824.75,-4977.5,-21784.9
6.71273e+06,25.929,1,2.47988,-1111.86,3759.1,-24898.9
6.95032e+06,3.81831,0,2.93962,903.08,-205.756,-28371
0,3.85376,0,2.63856,0,0,0
6.99719e+06,23.0248,1,2.81257,975.358,3039.3,-25078
7.00358e+06,8.4709,2,2.82257,-856.29,-1666.82,-28992.5
7.14881e+06,25.7232,2,2.81161,978.727,3840.36,-25218.5
7.42704e+06,63.5674,2,2.64821,-2366.21,-805.485,-21004.2
7.62783e+06,39.2746,2,2.55006,7743.89,2799.83,-28088.2
0,39.469,1,3.0472,0,0,0
8.03823e+06,237.624,2,2.80325,3587.1,21765.3,15651.5
8.14215e+06,27.2461,0,3.04744,4092.32,-4074.55,-29005.6
8.24413e+06,154.407,1,2.80654,-15060.9,28873.3,-29130.5
8.31506e+06,4.29287,0,2.50771,515.834,697.183,-28352
0,4.16083,0,2.75193,0,0,0
0,4.11122,0,2.51732,0,0,0
8.33844e+06,91.2333,0,2.61207,16053.8,10760.4,-29060.2
8.34025e+06,26.9071,2,2.54267,-1072.63,-5621.64,-29206.5
8.4298e+06,99.4158,0,2.54808,8275.54,-19152.4,-26985.9
8.46455e+06,19.4219,2,2.70593,-850.822,-3919.79,-27630.5
8.69773e+06,67.8787,1,2.87928,-356.075,11930.3,-20907.9
8.69979e+06,205.894,1,2.91241,-15479.9,5268.46,-25156.6
8.7591e+06,161.642,1,2.45229,23745.2,15403.4,-9516.14
8.80578e+06,52.5863,1,2.75343,-7414.95,-8177.3,-28188.6
8.82476e+06,7.29356,2,2.59341,-174.454,-824.05,-27479.2
0,7.72591,1,3.00245,0,0,0
8.82698e+06,11.9452,0,2.93784,290.388,-1086.82,-26557.7
8.89034e+06,157.542,2,2.82664,-22061.2,-2580.06,-4312.96
8.92235e+06,137.143,1,2.99472,-26985.7,-9857.46,-27944
8.94388e+06,12.6597,0,2.49251,182.268,147.397,-28811.3
9.17503e+06,44.6056,0,2.53354,6442.09,-5390.9,-24569.1
9.22499e+06,83.3153,1,2.41952,-7429.3,-5165.03,-13480.6
9.31312e+06,71.9057,0,3.01544,-224.013,14181.5,-23631.2
9.34949e+06,26.3201,0,2.89348,1605.69,3437.54,-24722.7
9.35349e+06,107.809,2,2.38761,-12421.4,-14078.6,-15393.1
9.48499e+06,116.457,2,2.91215,1801.21,-11960.7,-7550.25
9.58143e+06,148.25,1,2.58016,-28618.2,11915.4,-24577.2
9.59e+06,35.7854,2,2.90029,1839.81,-4103.05,-22786.7
9.75944e+06,152.551,2,2.9497,-22436.4,12540.3,-23349.2
9.91675e+06,25.6438,0,2.43725,5069.24,356.438,-26763.2
9.92290e+06,198.702,0,3.0476,2414.35,-23786,4897.56
9.97148e+06,29.8389,2,2.81896,-4196.01,-4705.85,-28453.8
1.02336e+07,64.3572,1,2.41404,-9597.27,9300.75,-26045.6
1.04482e+07,9.9908,2,2.50395,1309.99,-1732.28,-29099.8
1.04985e+07,101.998,1,2.87779,-18426.7,8945.58,-22730
1.05489e+07,97.6534,0,2.66346,18853.4,7044.16,-23910.4
1.05965e+07,44.8774,1,2.60644,-2931.31,-2779.73,-20234.1
1.08503e+07,222.172,0,2.48389,18077.5,-4714.6,14297.1
1.09097e+07,7.83175,1,2.44542,-1638.45,559.395,-29287.4
1.09268e+07,20.8295,2,2.72183,-4081.66,-1850.66,-28593.7
1.0943e+07,86.4093,1,2.43959,-100.063,9739.7,-13301.6
1.11923e+07,42.9081,2,2.40659,4790.52,7265.46,-26472.2
1.12412e+07,27.8676,1,2.72023,-4043.04,1971.5,-25192.7
1.13417e+07,104.933,1,2.52278,144.305,18616.2,-16647.9
1.14981e+07,15.2186,1,3.03496,-3196.14,19.3248,-29095
1.16103e+07,162.207,2,2.57138,-16538.2,-14089.9,-2309.89
1.16108e+07,20.027,1,2.47697,430.723,1931.57,-25118.7
1.181e+07,12.4236,0,2.75092,261.995,1545.24,-26683.2
1.2005e+07,183.795,2,2.8889,13744.5,28721.3,-6808.03
1.20143e+07,158.537,2,2.99644,-12052.5,-26422.9,-12513.8
1.21775e+07,175.194,1,2.58829,-21488.6,-9056.35,-307.444
1.21811e+07,21.9997,2,2.921,-2636.53,1754.08,-25474.1
1.22331e+07,12.4474,0,2.73303,-951.325,-725.555,-26513.3
1.22782e+07,229.441,1,2.63438,-22854.3,18729.4,9686.35
1.2444e+07,147.372,2,2.99308,-11348.5,-15212.2,-4324.89
1.24752e+07,142.738,2,2.43934,-13995.9,8648.94,-3533.87
1.24964e+07,156.117,0,2.86905,2357.95,27649.3,-12082.1
1.25612e+07,84.8506,2,2.42669,-11875.9,567.948,-15331.2
1.26371e+07,26.8452,0,2.56734,2679.33,4639.31,-26684.1
1.27054e+07,88.7041,1,2.59075,15516.3,-5761.84,-20174.7
1.27625e+07,23.6306,1,2.98451,864.208,1748.5,-24302.9
1.28327e+07,114.55,1,2.85823,-12588.8,19904.5,-23258.6
1.33045e+07,124.73,2,2.88535,25448.1,1038.99,-22720.3
1.34584e+07,160.616,1,2.91364,-5278.15,16227.9,309.544
1.35444e+07,144.602,1,2.51822,-7686.69,10028.6,-1080.75
1.3605e+07,47.4483,1,2.97277,2570.67,9693.67,-29672.4
1.36743e+07,65.1652,0,2.41611,5116.31,12466.2,-25729.5
1.37769e+07,78.5154,2,2.64768,11392.1,-12091.2,-27457.5
1.37898e+07,180.135,0,2.97483,15431.4,17551.7,973.677
1.38742e+07,143.108,0,2.73922,-29501.3,-2482.44,-23357.9
1.38873e+07,21.6136,2,2.78275,-2517.6,929.594,-25162.8
1.39939e+07,124.247,2,2.64097,-454.849,-18353.5,-10159.9
1.40771e+07,99.8462,2,2.90758,8063.42,15330.9,-17143.6
1.41656e+07,19.5579,0,2.66566,4115.5,-1050.47,-28757.5
1.42453e+07,52.2325,2,2.98671,-6869.3,-1903.92,-20461.3
1.44268e+07,9.52389,2,2.56434,850.827,356.906,-27277
1.48209e+07,301.844,0,2.60219,-8630.23,26408.9,24911.5
1.48517e+07,26.211,0,2.93882,156.922,3998.96,-24896.1
1.49057e+07,22.1013,0,2.39183,2661.22,-2776.73,-26037.8
1.49293e+07,162.638,1,2.50017,24498.1,20996.5,-16961.5
1.50158e+07,76.4712,0,2.77946,1668.06,-7097.53,-14543.8
1.5069e+07,172.765,2,2.58636,28371.6,-18242.4,-14932.4
1.50813e+07,58.6757,1,3.03107,-5014.58,-8534.3,-21505.2
1.52296e+07,42.4294,1,2.64086,-4081.34,-2190.98,-21148.4
1.53459e+07,66.9355,1,2.42951,-2215.17,-5777.25,-16168.4
1.53829e+07,37.1435,1,2.39835,-3173.82,-1977.29,-21922.3
1.53875e+07,109.729,0,2.95395,22264.3,6007.28,-28549.6
1.55077e+07,111.343,1,2.87369,13995.2,600.217,-9928.83
1.55197e+07,41.6759,1,2.65106,-7652.32,-886.473,-24518.6
1.55273e+07,25.3744,1,2.60685,-2789.03,675.373,-24120.4
1.56282e+07,84.8629,1,2.80402,-10742.9,8236.99,-16998.1
1.56645e+07,7.4064,0,2.48203,1676.48,-316.554,-28819
1.57064e+07,95.6119,0,2.53167,19214.4,1547.86,-22591.3
1.58527e+07,30.3418,1,2.58988,-3113.64,3859.38,-24723.2
1.61283e+07,6.5602,2,2.81576,-514.276,1279.2,-28472.2
1.62997e+07,27.7733,1,3.05425,-3348.33,-3532.68,-26557.2
1.63249e+07,13.9317,0,2.64133,2881.26,-815.16,-29110.3
1.64491e+07,185.578,0,2.86447,23865.7,626.976,2028.41
1.65791e+07,89.1603,1,2.65503,7064.33,2662.6,-11590.2
1.66439e+07,174.493,2,2.80041,-3914.29,26639.6,-21541.4
1.67497e+07,27.8415,1,3.01417,1202.25,2194.39,-23804.5
1.67661e+07,203.934,0,2.44194,20100.6,-16629.1,5599.01
1.69084e+07,58.7532,2,2.99298,12103,-1490.38,-27055.3
1.74217e+07,48.1833,2,2.36601,-89.1286,-10101.3,-27445.9
1.7468e+07,31.8388,1,2.87757,4924.02,4244.74,-26802.8
1.74872e+07,31.5336,0,2.75804,6164.5,2180.32,-27825.8
1.75337e+07,138.305,2,2.85869,-25910.4,-12529.2,-25910.1
1.759e+07,47.8198,2,2.47912,-7825.36,5131.33,-24949.6
1.76524e+07,57.7821,0,2.76368,11375.8,1757.96,-24749.6
1.76666e+07,70.0059,0,2.54971,14719.1,-2430.32,-27968.5
1.78482e+07,80.4046,0,2.45488,3513.86,-2050.27,-25318.5
1.79819e+07,45.0459,1,2.38684,-6995.9,4199.71,-23809.9
1.81217e+07,148.948,1,2.57132,-6879.53,27541.2,-14826.2
1.82761e+07,16.7903,1,2.45923,1231.08,1476.09,-25817.8
1.83024e+07,125.934,0,2.93456,4566.83,-26093.5,-28613
1.83302e+07,82.6256,1,2.9328,7745.13,9807.77,-16784.9
1.83778e+07,45.6525,1,2.74297,9067.11,3194.98,-27576.6
1.84115e+07,47.4866,0,2.75804,-8199.98,-2238.32,-23897.9
1.84486e+07,67.8746,2,3.04042,-4406.14,-8169.9,-17817.4
1.84943e+07,10.2085,1,2.7163,-684.955,1491.05,-27315.5
1.85225e+07,56.8707,0,2.40312,4022.82,4721.92,-18610.7
1.85533e+07,137.34,1,2.75378,-18598.8,-16560.2,-19307.7
1.87689e+07,40.4254,0,2.87473,-90.5416,5163.13,-22118.3
1.88786e+07,49.9396,2,2.73186,5564.81,3352.92,-20638.2
1.89557e+07,24.8919,1,2.72189,-1926.75,3890.45,-25784.1
0,24.8696,1,2.58325,0,0,0
1.90776e+07,37.2956,0,2.87274,-793.464,6951.41,-25322.7
1.93002e+07,22.6138,1,2.7124,2088.51,4402.8,-28110.9
1.93109e+07,34.6117,0,2.56243,3995.19,6217.3,-28750.7
1.94164e+07,13.5905,0,2.43324,-173.503,-2227.04,-27028.9
1.95428e+07,30.0222,1,2.86535,-2546.28,-3547.31,-25238.2
1.96257e+07,76.2099,1,2.86931,-11497.5,-5296.3,-19194.5
1.97735e+07,56.0464,2,3.01256,-9454.23,6727.36,-27388.4
1.97966e+07,46.6656,1,2.76061,-9521.55,2459.08,-28054.4
1.98549e+07,129.466,0,2.95197,-1627.46,-24722.4,-17696.9
1.98805e+07,138.566,2,2.73378,-15204.8,-7320.09,-5081.94
2.00885e+07,184.131,1,2.65733,-29203.5,12319.8,-6975.88
2.00966e+07,135.004,2,2.52671,-3685.09,6164.43,-27877.3
2.03092e+07,132.183,2,2.71192,-19739,-18965.2,-22665.7
2.03544e+07,71.2083,0,2.79471,14607.8,1532.78,-25300.4
2.04289e+07,83.1959,1,2.91907,-5368.38,14957.2,-21433.6
2.0624e+07,3.29553,0,2.71835,183.395,323.631,-28114.5
2.06792e+07,119.811,2,2.39859,22382.6,-7881.87,-19687.2
2.07904e+07,88.2649,0,2.66476,-5115.19,-14992.5,-19003.4
2.07961e+07,113.268,1,2.77787,-21006.4,-4885.67,-18571.3
2.10327e+07,215.268,2,2.46495,26818.9,4648.31,7635.04
2.11192e+07,95.3481,0,2.45941,8624.27,18023.8,-25951.9
2.12231e+07,15.0827,1,2.38931,-485.338,-2779.45,-27787.7
2.12332e+07,96.8814,0,2.71252,15649,12592,-24797.1
2.12969e+07,11.3347,1,2.77883,793.285,1065.21,-26768.5
0,11.3562,1,3.00132,0,0,0
2.1313e+07,48.081,2,2.83039,1113.35,-7536.05,-21947.2
2.13614e+07,23.5825,0,2.57882,4516.58,2273.79,-29007.1
2.14441e+07,65.876,0,2.61295,-2063.28,7139.91,-17028.5
2.15437e+07,92.055,2,2.86959,-7024.5,-8631,-12959.6
2.16716e+07,215.367,1,2.77784,-25107,-10087.2,7497.01
2.17062e+07,80.9787,1,2.604,-9314.1,13010.6,-22342.5
2.17095e+07,72.4416,2,2.63037,-14798.3,-4026.16,-27424.4
2.18032e+07,23.1571,1,2.66918,-132.174,4914.71,-28509
2.19347e+07,68.1553,2,2.92745,-9464.48,2312.59,-27909.7
2.19625e+07,16.6246,1,2.52699,1317.64,2731.46,-26925
2.22362e+07,83.59,1,2.59173,17045,2065.39,-25006.5
2.23189e+07,6.47758,2,2.39481,-41.6788,-1335.41,-29269.4
2.24188e+07,37.7423,0,2.99702,7753.98,-1082.67,-26723.8
2.24942e+07,43.169,0,2.61558,2774.51,8515.86,-27530.9
2.27643e+07,112.267,1,2.68712,-13173.8,9876.95,-20021.8
2.28779e+07,93.9626,2,2.46261,-13322,10431.9,-18464.9
2.28827e+07,30.2855,2,2.98721,-20.9103,-5178.33,-24992.4
2.329e+07,41.8337,1,2.37805,8057.14,1901.59,-25789.3
2.33161e+07,110.703,0,2.78498,11600.5,-8615.12,-10532.3
2.3444e+07,13.9455,0,2.96539,1930.63,2086.13,-27903.1
0,13.9556,0,3.04949,0,0,0
2.35601e+07,51.4889,1,3.05463,-7757.77,853.856,-21459.8
0,51.4889,1,3.05463,0,0,0
2.36689e+07,41.5441,1,2.56402,4730.13,6793.73,-26273
2.37363e+07,15.7557,0,2.42058,2819.39,-1649.28,-29867.9
2.38248e+07,60.4644,1,2.9871,-3046.13,-6958.43,-18694.1
2.40233e+07,100.111,0,2.88782,20898.1,1668.74,-25885
2.40334e+07,66.2686,2,2.61428,-2026.43,-3664.79,-22320.5
2.40542e+07,257.574,0,2.82418,-1185.18,-22745.5,19966
2.42565e+07,87.8533,0,2.76873,-11308,11371.1,-19688.8
2.42905e+07,249.534,2,2.71824,-25547.4,-6003.64,-16194.4
2.43071e+07,111.503,2,2.61371,-11181.4,4188.81,-8525.79
2.43722e+07,21.3331,1,2.68242,-23.7873,4568.49,-28476.3
2.46238e+07,23.1387,0,2.81798,4415.58,-1691.14,-27332.5
2.47898e+07,18.5272,0,2.50304,3129.15,-2392.15,-28971
2.48142e+07,54.1717,2,2.90438,-8223.85,6685.33,-24738.3
2.48299e+07,90.7978,0,2.79103,12489.8,-11661.2,-25345
2.50002e+07,119.456,2,2.57522,-11218.8,15647.4,-12552.4
2.50919e+07,44.6485,2,2.59586,-6788.47,-6828.34,-28481.3
2.51021e+07,85.4404,0,3.03217,-10678.4,5451.75,-21778.4
2.51301e+07,80.5598,0,2.76225,-3076.49,-14322.7,-20168.8
2.51987e+07,43.2002,0,2.75415,8559.86,-2177.39,-26759.9
2.53308e+07,103.079,1,2.55985,-6472.45,19298.3,-20835.3
2.5364e+07,70.7931,1,3.02055,-4887.13,12239.5,-21864.5
2.54344e+07,65.0506,0,2.59913,-5204.33,2332.64,-16323
2.55273e+07,96.9212,2,3.00171,17479.5,-8116.73,-22542.6
2.55502e+07,15.2698,2,2.62067,962.24,624.512,-25932.6
2.57503e+07,35.654,1,2.4122,1767.17,-933.052,-24484.9
2.58045e+07,42.5144,1,2.42713,-9002.87,-643.414,-28923.5
2.6023e+07,91.083,1,2.66881,48.6174,-13724.1,-15742.1
2.61971e+07,67.3723,2,2.91963,-454.61,-622.289,-29017.4
2.62728e+07,25.7162,2,2.62448,998.585,4481.74,-26003.7
2.62995e+07,27.3368,0,3.04835,-3852.42,1155.79,-24853.2
2.63134e+07,2.82688,0,2.64985,220.18,-348.532,-28382.1
2.6392e+07,84.314,2,2.36824,3804.19,-11769.2,-15869.4
2.64598e+07,40.8217,2,2.40969,-6227.38,-1088.07,-22861.5
2.65011e+07,82.6155,2,2.76963,13920.7,-7583.04,-21627.5
2.6624e+07,35.6805,2,2.59085,6846.65,-3213.54,-28847.4
2.67871e+07,126.149,0,3.05207,15491.4,6306.18,-8372.51
2.68637e+07,166.173,0,2.9399,25176.3,13200.4,-10728.7
2.70445e+07,110.682,2,2.42011,-19984.4,6612.75,-18475.4
2.71201e+07,14.1547,1,2.58356,-1462.72,-27.0945,-26257.7
2.74319e+07,180.148,0,2.76103,-1036.64,27212.1,-2375.67
2.75248e+07,42.403,1,2.51442,8017.33,3743.3,-27481.8
2.7527e+07,119.68,1,2.60061,1414.7,-11484.5,-6349.82
2.76113e+07,9.4955,0,2.37383,1483.69,1413.28,-28694.2
2.77692e+07,68.5817,1,2.39086,9254.85,2707.49,-17986.2
2.7779e+07,10.6795,0,2.44484,2391.66,86.2334,-29093.4
2.78832e+07,85.3365,2,2.86827,-9194.44,-12785.7,-20052.8
2.79121e+07,45.9449,0,2.97196,-9091.95,700.251,-25906.5
2.81705e+07,279.619,1,2.71836,-27850.9,5883,22715.1
2.8229e+07,37.5301,2,2.56034,-6965.64,-3825.7,-27737.6
2.84269e+07,19.9527,2,2.46629,-3087.41,-897.554,-26010.6
2.86178e+07,53.4454,1,2.61525,-64.1989,6141.95,-19265.4
2.86332e+07,174.272,0,2.82624,-5752.61,-29861.7,-8630.58
2.89278e+07,102.789,2,2.78367,7622.58,16589.5,-19470.7
2.90417e+07,10.5853,2,2.52373,-1942.1,-561.018,-27753.8
0,10.6674,2,2.96933,0,0,0
2.91236e+07,99.3097,1,2.60415,12530.1,16875,-28752.9
2.92442e+07,101.402,1,2.78536,-14165.5,1316.36,-12715.3
2.93186e+07,140.708,0,2.36778,-4485.28,-14021.6,-2772.5
2.93192e+07,61.5244,2,2.77632,6539.05,9445.55,-23159.1
2.93495e+07,22.9736,2,2.44595,-4713.95,-133.807,-27784.9
2.93876e+07,92.7297,2,2.53018,-7631.43,-2755.11,-10950.1
2.95045e+07,144.263,2,2.9306,-7929.15,-19886.3,-7340.8
2.96438e+07,119.475,2,2.68933,-9576.58,-22064.1,-20996.5
2.97053e+07,62.686,2,2.49954,5841.82,6043.16,-18603.5
2.97247e+07,13.3042,1,3.03472,1157.78,901.925,-26405.3
2.97687e+07,61.7331,0,2.59604,-6873.94,-7167.71,-20399.4
2.97751e+07,3.21686,2,2.95225,547.501,-437.036,-28329.3
2.98295e+07,100.891,2,2.76829,-11979.3,-11280.7,-15251.1
2.99188e+07,183.186,2,2.81276,-25238.6,-4002.2,55.4896
