#class tools::wcsv::ntuple
#title time
#separator 44
#vector_separator 59
#column double eventID
#column double t(ns)
#column double copynumber
#column double energy(eV)
#column double x(mm)
#column double y(mm)
#column double z(mm)
416635,98.5627,1,2.94163,-11412,7841.03,-13488.7
460378,184.772,1,2.74721,-4157.14,-25893,-136.79
545925,171.225,0,2.85699,17759.6,-11571.5,292.425
1.11198e+06,26.8681,0,2.91992,5304.42,34.2385,-26643.7
1.20337e+06,51.6045,2,2.48596,-5711.6,-4253.87,-20504.9
1.20448e+06,17.8794,1,2.59253,418.971,3764.1,-27997
1.20886e+06,44.6722,2,2.59685,-1136.51,-8639.36,-24974.3
1.39766e+06,103.014,0,2.80214,-11193.8,18463.8,-27141.5
1.4317e+06,54.9522,1,2.53958,7481.04,7830.06,-24553.8
1.55566e+06,198.55,1,2.65068,12643.8,12510.2,9112.47
1.59659e+06,77.6147,1,2.63422,-14539.8,-6392.81,-24697.4
2.49614e+06,12.4782,1,2.75933,-1149.7,1271.83,-27445.4
2.56611e+06,9.52798,2,2.44949,-1575.19,-1340.03,-28340.2
2.66657e+06,45.3792,2,2.55771,-719.275,4147.4,-20246.9
2.68525e+06,76.4337,1,2.68262,1577.41,-15729.9,-25957.6
2.80869e+06,34.5793,2,2.69448,4336.31,-3596.78,-24154.9
2.91369e+06,14.7842,0,2.45826,2569.4,-1926.52,-28827.2
2.9374e+06,64.7641,0,2.45341,4368.31,-13019.1,-28057.6
3.15289e+06,193.992,0,2.38377,-2607.96,-26357.6,2500.71
3.20285e+06,127.91,0,2.53436,25004.3,998.215,-28661
3.23267e+06,191.539,0,2.72235,29367,-26408.1,-20162
3.2355e+06,9.56475,2,2.89481,609.755,775.079,-27119.5
3.29579e+06,113.385,0,2.95927,9170.48,-6662.98,-7882.22
3.80638e+06,12.3891,2,2.54887,-2676.83,136.892,-29018.1
3.87763e+06,110.776,2,2.80852,10670.2,-2826.71,-8312.45
4.03668e+06,4.2317,0,2.98978,-167.275,884.139,-28881
4.16604e+06,89.1621,0,2.77281,-9725.49,-5887.75,-13952.2
4.16749e+06,25.3609,0,2.55553,4730.85,2724.46,-28654.8
4.31556e+06,6.59434,0,2.39488,642.881,-603.349,-27685.9
4.38119e+06,51.9746,2,2.83845,5302.82,4703.05,-20540.6
4.3916e+06,187.383,0,2.76923,27470.4,28389,-29717
4.5852e+06,141.421,1,2.43467,-8924.52,25054.2,-14947.2
4.77898e+06,48.7167,2,2.90606,-9774.85,3022.55,-27784.4
4.78129e+06,51.0121,2,2.61884,-982.251,-4479.41,-19046.5
4.86633e+06,59.2695,1,2.37114,156.113,-1958.11,-20464.3
5.0161e+06,65.1006,0,2.49544,12475.8,5984.02,-29885.3
5.21412e+06,6.88278,2,2.76762,1333.55,-460.784,-28500.3
5.67896e+06,6.30129,0,3.0463,1195.04,-143.081,-28099
5.84072e+06,31.5706,1,2.99553,-1707.57,6425.79,-27820.5
6.4539e+06,100.397,2,2.49809,13773.8,2675.94,-12920.6
6.59035e+06,134.417,2,2.64665,-5448.81,-27483.6,-23904.9
6.8738e+06,110.46,1,2.67138,-19840.9,11347.3,-24004
7.35536e+06,69.7608,0,2.72353,12854.9,-4534.33,-23079.1
7.51996e+06,92.1374,2,2.54814,1817.38,9034.14,-11728.3
7.76878e+06,54.2048,1,2.55087,4314.83,-6352.55,-20370.5
8.02446e+06,46.7147,0,2.7222,7726.11,6132.35,-27661.3
8.22207e+06,113.696,0,2.53272,-12342.5,-20365.4,-25755.2
8.36797e+06,88.5002,2,2.77486,-14451,3891.71,-17688.6
8.52099e+06,19.0212,2,2.48221,-1935.51,-3639.8,-29199.4
8.68694e+06,31.9292,2,3.03058,-3621.8,-3202.86,-24119.2
9.04224e+06,60.3863,0,2.81057,-6187.27,2998.56,-22138.6
9.25626e+06,55.3425,1,2.60507,1619.72,-7729.11,-20263.2
9.6298e+06,2.93726,0,3.02958,593.168,-374.925,-28965.5
9.73823e+06,12.8664,1,2.91371,566.423,-1129.4,-26464.1
9.88726e+06,134.963,1,2.4833,-8680.56,17038.3,-7613.62
9.92789e+06,33.0525,1,3.03698,-6113.1,3197.77,-27506.6
1.03564e+07,88.9309,0,2.51792,-14299.5,-906.206,-16715
1.14219e+07,199.212,2,2.77932,-16880.8,-14806.8,6554.44
1.15642e+07,45.8912,2,3.05182,-8931.82,-3709.47,-29566.3
1.17674e+07,137.548,0,2.83832,-6242.1,-19176.7,-8179.14
1.19356e+07,127.885,2,2.47096,9991.98,-4347.73,-4066.69
1.19706e+07,141.258,2,3.03901,-9634.24,-24379,-14953.8
1.20052e+07,65.6338,0,2.72645,-7563.96,-2244.13,-17520.2
1.20722e+07,53.5148,0,2.53691,6020.92,7187.07,-22381.3
1.22157e+07,27.6373,0,2.56378,5848.78,1096.55,-28547.5
1.22466e+07,15.4885,1,3.06017,-584.642,1379.61,-28591.9
1.24601e+07,47.4627,1,2.66553,1742.42,-8959.11,-24879.2
1.24887e+07,30.6256,0,2.40286,3565.15,2073.39,-23765.1
1.26292e+07,27.5934,2,2.90757,1381.42,1387.84,-29141.1
1.28031e+07,8.42844,1,2.88509,131.103,1574.53,-27888
1.32023e+07,136.863,1,2.8591,22026.7,-12240.8,-15095.1
1.34414e+07,12.156,1,2.80076,967.78,-2274.24,-28434.2
1.34423e+07,2.34517,1,2.50522,-187.033,157.395,-28348.8
1.34586e+07,98.2941,0,2.70771,-6565.59,19060,-24082.5
1.38844e+07,6.26779,2,2.79615,-1275.78,89.1189,-28340.1
0,6.35022,2,2.66928,0,0,0
1.42252e+07,134.237,0,2.60008,9550.77,-17228.4,-8388.79
1.43928e+07,100.243,2,2.66945,-2928.27,-19015.1,-22003
1.45181e+07,50.5837,2,2.58879,-1125.2,10116.1,-25728.6
1.47982e+07,43.7007,2,2.66305,6735.89,-4944.57,-24890.1
1.48599e+07,75.6933,1,2.55684,-9715.06,-8057.02,-18992.6
1.50747e+07,140.328,0,2.41664,4412.79,-19113,-7687.18
1.51883e+07,26.3677,2,2.734,-3400.2,-2563.86,-25140.4
1.54819e+07,170.217,0,2.45294,24221.7,6794.26,-3010.15
1.5662e+07,79.6124,2,2.6647,-6344.99,-3560.69,-20993.5
1.574e+07,69.2555,1,2.93057,4796.95,5312.29,-16197.2
1.58813e+07,65.9013,0,2.86164,6715.4,-4488.71,-17514.2
1.58981e+07,154.529,1,2.45982,-21018.8,23344.6,-19492.3
1.61179e+07,43.4928,1,2.39961,-2999.69,-5521.05,-22125.8
1.65051e+07,15.0559,1,2.70251,601.529,1712.59,-26173
0,15.0381,1,2.42562,0,0,0
1.66094e+07,93.6044,1,2.53103,7265.68,-16443,-20732.1
1.67117e+07,5.38114,0,2.661,703.452,494.03,-28008.8
1.6726e+07,186.985,2,3.03345,-652.189,-10977,-23766.6
1.68494e+07,59.9864,2,2.66969,-7079.67,-6511.15,-20504.7
1.68553e+07,48.6229,1,2.84403,-8490.4,2382.6,-28029.7
1.68778e+07,92.0633,2,2.45805,-10657.8,-3759.82,-12913.8
1.70508e+07,153.247,1,2.93184,1149.91,3637.48,-29352.5
1.72419e+07,143.54,0,2.81118,26847.1,9022.67,-18102.8
1.72491e+07,156.053,2,2.57919,-28539,-6031.4,-13367
1.76818e+07,143.366,1,2.47335,-4324.19,-7959.95,-14114.3
1.7953e+07,252.959,2,2.37533,21864.2,10432.4,18860.2
1.8484e+07,2.38999,1,2.40388,171.213,297.371,-28407.5
0,2.36968,1,2.80038,0,0,0
0,2.35954,1,2.549,0,0,0
1.85175e+07,47.7966,0,2.8584,-5174.74,-4414.02,-21519.6
1.86478e+07,180.982,1,2.86089,25021.1,-22621.1,-11396.9
1.92929e+07,81.3597,2,2.9224,3460.44,-9369.11,-14921.2
1.93613e+07,49.5189,1,2.97749,-7176.46,7646.36,-28894.7
1.93824e+07,145.107,1,2.42286,19720,-21395.5,-19265.5
1.96678e+07,62.8056,0,2.85811,13040.5,1098.04,-26394.3
2.02288e+07,82.1639,0,2.71938,-5490.29,-7437.55,-14254.6
2.03842e+07,1.42019,1,2.44796,-258.669,271.618,-28727.6
0,1.33361,1,2.99516,0,0,0
2.07463e+07,37.2131,1,2.84072,5901.99,-660.399,-23762.4
2.18312e+07,14.6953,0,2.74556,-1859.29,2387.38,-28377.6
2.1834e+07,9.81139,0,2.69793,-162.971,1629.29,-27530.4
2.2247e+07,34.0074,0,2.92641,5803.79,-223.599,-24534.4
2.244e+07,95.3712,1,2.68949,974.043,17496.4,-18811.1
2.2587e+07,4.29806,1,2.55663,490.951,-245.219,-28145.5
0,3.88738,0,2.7829,0,0,0
0,4.26182,1,2.845,0,0,0
0,3.91492,0,3.00313,0,0,0
2.26921e+07,57.8526,1,3.04764,-5797.47,7867.72,-21579.3
2.27207e+07,121.936,2,2.6042,-21032.5,7538.92,-17466.5
2.2924e+07,154.93,1,2.76126,18991.5,1643.96,-2371.75
2.29885e+07,134.056,2,3.05855,-19434.4,881.61,-16698.8
2.2991e+07,3.69437,0,2.89562,650.331,-528.01,-28898.8
2.33741e+07,18.0041,2,2.6341,2238.35,2380.18,-27022
2.34477e+07,54.2147,1,3.03282,-5490.14,6179.83,-20968.3
2.38437e+07,194.694,2,2.76576,16356.3,-21247.6,2188.89
2.39087e+07,114.046,2,2.48387,20279.7,6171.33,-17469
2.39186e+07,19.8355,2,2.61043,3628.84,1951.65,-28432.3
2.39617e+07,37.9334,1,2.79957,-5005.04,6342.65,-28666.1
2.40867e+07,78.2139,2,2.3899,3364.43,-14545.1,-21501.6
2.40922e+07,13.3014,1,2.40202,2116.84,1099.04,-27319.5
2.41076e+07,31.1142,0,2.62418,1942.5,-2160.1,-22940.1
2.45883e+07,101.119,1,2.77664,8158.15,11330.9,-12718.5
2.46308e+07,11.6037,2,2.67428,934.594,-1973,-27578.8
2.47219e+07,0.295733,1,3.80836,-51.1019,77.8567,-28777.5
0,0.228752,1,2.7236,0,0,0
0,0.260727,1,3.77698,0,0,0
0,0.26639,1,2.39079,0,0,0
0,0.232088,1,2.23628,0,0,0
0,0.226879,1,2.95653,0,0,0
0,0.235936,1,3.20678,0,0,0
0,0.240903,1,2.15556,0,0,0
0,0.227283,1,3.14306,0,0,0
0,0.253762,1,2.32853,0,0,0
0,0.243238,1,2.17169,0,0,0
0,0.224893,1,3.89325,0,0,0
2.47266e+07,155.05,2,2.47729,26641.2,-12322.3,-14253.6
2.49464e+07,10.1336,1,2.46028,-974.916,682.622,-27009.9
2.49932e+07,11.9193,2,2.87371,-9.86619,1094.45,-26611.4
2.53122e+07,39.2066,0,2.38915,3825.69,6207.2,-24780.4
2.54952e+07,54.85,2,2.38606,-4495.57,-7298.91,-20895.5
2.55089e+07,11.9379,1,2.84778,-1694.03,-1828.12,-29220.8
2.56764e+07,30.7267,0,2.88858,5241.43,-2943.43,-26229.8
2.5841e+07,8.87728,1,2.85721,-625.506,724.652,-27159.2
2.58875e+07,54.7339,2,2.46718,-4353.76,4802.59,-19249.5
2.62928e+07,4.07996,1,2.63598,-116.802,965.98,-28953.4
2.65775e+07,62.7951,0,2.83633,3119.54,7063.48,-18090.1
2.70627e+07,85.6464,1,2.91681,1493.15,7337.17,-12483.4
2.79853e+07,90.1104,0,2.77666,5823.42,-4679.8,-11353.5
2.80099e+07,4.70361,1,2.59467,-884.822,257.892,-28283.8
2.81858e+07,78.1981,2,2.36501,6394.15,-3875.8,-14053.7
2.83912e+07,27.504,1,2.78317,-3542.63,3934.07,-26289.5
2.83975e+07,16.1223,1,2.84867,-485.999,3053.58,-27226.5
2.89674e+07,159.061,0,2.90548,26932.2,19442.8,-25068.8
2.90536e+07,13.8329,1,2.48878,-2410.1,-472.636,-27165.5
2.94768e+07,210.502,1,2.46933,-12622.6,-2660.02,-19546.9
2.9592e+07,10.0039,0,2.92996,303.018,605.812,-26837.3
2.98952e+07,14.8092,2,2.6295,-577.994,-3173.16,-29182.3
0,14.8647,2,2.40005,0,0,0
2.99059e+07,67.8417,2,2.72869,2301.74,11065.6,-20138.6
3.00338e+07,89.8586,0,2.88494,7420.03,951.169,-24297.9
3.01839e+07,148.082,0,2.79032,21088.8,-21724.1,-21211.7
3.09174e+07,11.6061,1,2.92209,-710.062,-2287.24,-28534.4
3.093e+07,36.2219,1,2.70306,-3791.72,2575.22,-22658.5
3.13128e+07,10.6121,1,3.0111,617.137,1076.47,-26938
3.18495e+07,31.3926,0,2.68873,-3347.81,-338.129,-23173.2
3.18952e+07,119.572,1,2.82026,-17319.5,-7224.49,-12070.7
3.1903e+07,98.4944,0,2.70426,14282.2,4394.77,-14331.2
3.20234e+07,15.9468,1,2.77759,2735.24,1580.52,-27639.2
3.22535e+07,69.0737,1,2.91648,-3855.39,4224.24,-15476.4
3.22604e+07,51.4358,0,2.58741,2878.09,-3614.93,-18984.1
3.22872e+07,116.867,0,2.46186,-10623.7,19909.8,-18848.2
3.25605e+07,26.3776,0,2.75347,2925.6,-4819.23,-28953.9
3.25718e+07,101.211,0,2.925,-2274.6,-17327.1,-16739.7
3.25885e+07,92.5481,0,2.85245,-11839.4,-12150.8,-19368.6
3.26416e+07,80.8364,2,2.87341,7956.99,-13715.4,-25988.3
3.28161e+07,48.3405,1,2.94707,6253.08,-657.524,-20886.3
3.28281e+07,115.362,2,3.04647,19591.1,3824.56,-15261.3
3.29022e+07,85.3736,0,2.49637,15706.5,5908.37,-21969.7
3.30291e+07,174.473,2,2.80978,-23664.2,-22724.4,-12193
3.32849e+07,37.1077,2,2.46319,-7719.3,632.356,-27220.4
3.34292e+07,11.0544,0,2.52357,1530.88,1755.45,-28193.3
3.37042e+07,32.4713,1,2.59049,-1877.77,-4123.33,-23698.6
3.37328e+07,111.285,0,2.46826,-2020.81,12268.6,-8861.08
3.38615e+07,3.18834,1,3.04157,-613.741,180.607,-28475.3
0,3.09086,1,2.3872,0,0,0
0,3.08799,1,2.5032,0,0,0
3.39951e+07,7.31411,0,3.04244,796.432,1144.47,-28060.1
3.42803e+07,104.294,1,2.40992,5925.06,21147.5,-26001.1
3.44196e+07,207.197,2,2.85469,-13580.6,-11015.8,11060.2
3.46713e+07,183.198,2,2.4223,20157.1,-29239.2,-13236.2
3.54839e+07,55.0309,0,3.00208,11429,-2200.29,-28253.8
3.57844e+07,66.7576,1,2.36537,-4184.54,3864.44,-15855.7
3.58801e+07,141.895,1,2.6666,-5936.67,24989.6,-13307.2
3.59025e+07,80.5196,1,2.912,-4564.34,7349.18,-14677.7
3.59295e+07,55.2086,2,2.78452,5646.4,-8480.64,-23158.2
3.67908e+07,96.4346,1,2.59914,7496.18,16439.7,-19291.4
3.71144e+07,34.3984,0,2.41353,4353.35,1941.44,-23262.1
3.73305e+07,29.7263,1,2.97455,-1073.68,6247.5,-29264.3
3.74069e+07,38.5886,2,2.43967,-6280.33,-4601.7,-26096.2
3.74692e+07,113.537,0,2.65174,-6744.15,14585.9,-11116.9
3.75673e+07,100.022,0,2.63975,-12559,-6386.04,-13197.4
3.79587e+07,46.4936,0,2.40995,7542.78,-6198.23,-27077.4
3.79683e+07,60.0708,1,2.52242,7354.36,5092.07,-19810.8
3.80624e+07,20.7375,0,2.91524,2106.87,-310.704,-24993.6
3.80909e+07,25.863,2,2.93799,-3281.27,4100.52,-27456
3.82683e+07,16.5948,0,2.95502,3553.53,504.809,-28939.1
3.87634e+07,262.29,1,2.56115,8407.41,24073,5608.57
3.87911e+07,3.25518,2,2.712,303.95,-559.949,-28434.5
3.88729e+07,149.634,2,2.44377,-11262.6,11354.8,-1516.24
3.90621e+07,112.307,2,2.93434,-16713.3,-16720.9,-29826.8
3.90774e+07,15.7064,2,2.49901,913.386,-3068.24,-27705.6
3.93799e+07,20.1588,1,2.85395,2231.27,1045.44,-25385.3
3.94796e+07,142.542,0,2.72207,9930.39,-24894.8,-15179.2
3.96753e+07,59.6129,1,2.54379,849.749,11759.2,-24187.1
3.97797e+07,76.1413,1,2.8569,9143.82,6949.94,-17641.4
3.97838e+07,156.288,2,2.79323,-26096,-13971,-14370.7
4.01318e+07,172.594,2,2.60624,-29005.1,-21799.2,-24574.6
4.01581e+07,27.6292,0,2.71918,4971.77,-1792.69,-26197.2
4.01706e+07,112.305,1,2.90903,-13259.2,-6107.2,-10286
4.03657e+07,27.8606,2,2.8052,1092.39,-5381.42,-26592.5
4.04161e+07,6.34257,0,2.94439,892.737,-1096.41,-28885.8
4.06243e+07,33.1849,0,3.05592,2621.04,4869.01,-24532.9
4.07687e+07,2.06839,1,2.86016,-361.17,24.1612,-28508.3
0,2.06391,1,2.70158,0,0,0
4.11669e+07,39.4177,0,2.61597,1834.14,5942.84,-23233.7
0,39.3565,0,2.44677,0,0,0
4.13001e+07,146.877,1,2.82972,861.24,4007.21,-27331.1
4.14202e+07,252.428,0,3.01202,15365.7,-526.76,19453.9
4.17196e+07,174.994,0,2.65074,2595.32,28981.6,-6069.07
4.22508e+07,42.8426,0,2.74383,4034.5,7103.66,-24920.3
4.23718e+07,191.412,2,2.78242,23552.4,6356.03,-4430.02
4.266e+07,175.759,2,2.60195,-10083,22497.3,-1117.74
4.32336e+07,52.6322,1,2.85837,2938.46,8205.73,-21960.9
4.3335e+07,29.7688,1,3.05794,3218.92,-1090.57,-23622.7
4.3413e+07,17.6552,0,2.52961,973.474,-1605.52,-25559
4.3867e+07,148.273,2,2.75066,-18103.5,-22345.8,-28573.4
4.42661e+07,107.56,2,2.63186,12488.4,5450.11,-10706.9
4.43847e+07,52.7166,1,2.85698,-1616.42,1755.18,-24655.4
4.48013e+07,29.1743,2,2.87719,30.2805,5863.85,-27187.9
4.48465e+07,72.261,2,2.74518,6786.6,4808.25,-16154.3
4.51201e+07,40.3821,2,2.55392,-5954.94,5861.5,-27024.8
4.5148e+07,24.9073,2,2.57139,-1074.61,-5262.46,-28990
4.52869e+07,10.17,2,2.44912,-1281.18,-1730.86,-29577
4.55004e+07,96.0817,1,2.51848,-12844.7,-3333.35,-13408.8
4.56653e+07,167.787,2,2.64014,-16337.6,-16675,-2150.56
4.58204e+07,2.42424,0,2.41331,299.714,-296.42,-28486.2
4.59893e+07,73.2454,2,3.02646,-9882.32,-4017.03,-17711.1
4.61709e+07,33.8234,0,3.05724,5224.3,-4877.53,-28785.9
4.62822e+07,63.7164,0,2.98085,8287.81,5659.11,-19917.8
4.65235e+07,76.3333,0,2.38807,15961,2195.61,-26626.3
4.67055e+07,87.9661,2,2.59379,-846.238,-10808,-13673.6
4.70145e+07,76.9717,2,2.94349,-562.503,-16211.7,-29576.4
4.73161e+07,88.0771,2,2.60864,-13032.1,-13393.7,-27917.5
4.73841e+07,11.4289,2,2.41869,-1838.48,-1244.36,-27685.8
4.75364e+07,56.7972,0,2.67862,2799.34,-7742.37,-20099.3
4.76131e+07,24.013,2,2.88162,-1882.64,-4774.3,-28304.5
4.77382e+07,10.8676,1,2.45166,-1471.87,-1528.17,-27948.6
4.80027e+07,123.496,1,2.99463,-21020.5,13267.4,-21264.2
4.82207e+07,173.703,2,2.76225,3927.75,16066.7,3738.02
4.8391e+07,112.392,2,2.38958,-5395.18,-19204.9,-15749.2
4.90723e+07,29.9473,1,2.68632,-765.535,4523.63,-24388.1
5.0069e+07,15.8534,1,2.38258,-2139.55,826.848,-26317.2
5.02352e+07,63.0956,1,2.53449,-10829.8,-7496.69,-26607.2
5.03971e+07,149.43,0,2.89523,10844.1,-8000.49,-26159
5.061e+07,65.5379,1,2.88411,-5503.44,10840.2,-22168.2
5.08096e+07,168.826,1,2.76266,-24337.4,-24617.9,-20849.7
5.08166e+07,167.723,0,2.80082,-29772,-18500.8,-25394
5.12863e+07,9.55231,0,2.72883,-119.667,791.009,-27046.1
5.13611e+07,9.97423,1,3.0089,1231.62,1026.16,-27465.3
5.14442e+07,19.7784,2,2.98179,4120.28,-272.079,-29252.3
5.19933e+07,51.5012,0,2.7258,2519.57,-5571.88,-19886.6
5.20152e+07,84.6104,1,2.99276,9114.99,1632.19,-18086.7
5.20267e+07,99.3298,2,2.93871,302.159,9791.29,-10458.4
5.24298e+07,36.2302,0,2.47599,3592.51,3267.62,-22835.3
5.2695e+07,33.6721,2,2.58668,-5043.79,2013.76,-24185.2
5.27505e+07,117.102,2,2.77999,12983,-2164.42,-9292.83
5.28729e+07,28.8722,2,2.8578,-3472,1287.06,-24036.2
0,28.5414,2,2.60849,0,0,0
5.33285e+07,143.3,1,2.58927,17378.1,-8342.96,-5574.65
5.36832e+07,74.6159,2,2.58215,-13173.2,6407.05,-22931.5
5.4386e+07,19.4757,1,2.61343,-1248.24,3634.29,-27112.2
5.44609e+07,0.624583,2,2.67221,-82.0272,-228.839,-28808.6
5.46615e+07,150.482,1,2.82932,7158.39,2012.95,-29951.7
5.47866e+07,122.347,0,2.37634,19489.8,6985.05,-13175.9
5.53882e+07,7.85911,2,2.97167,-441.17,-555.846,-27292.5
5.55254e+07,115.557,0,2.6029,13968.3,-10757.5,-11878.1
5.56065e+07,103.265,2,2.53567,-19298.6,9756.76,-25692.6
5.57194e+07,17.4543,1,2.63725,-62.9389,1394.52,-25395.4
5.58145e+07,18.9405,1,3.0483,3371.62,-1611.99,-27598.6
5.5877e+07,15.2248,0,3.05415,2879.5,-1597.25,-28581.8
5.61372e+07,49.9313,1,2.60202,-6300.57,4835.11,-21791.9
5.61484e+07,87.5658,0,2.40442,-17514.8,-2849.68,-23718.9
5.67414e+07,11.9118,0,2.75243,-1541.13,-1764.59,-28060.9
5.70174e+07,87.1774,2,2.62744,11409.1,-8980.66,-17494
5.72823e+07,34.3449,2,2.72003,-6920.44,-1461.22,-26957.7
5.78287e+07,49.5638,1,2.72047,2914.06,10055.8,-29695.2
5.78909e+07,18.9027,2,2.95286,-2335.35,-2883.03,-27154.8
5.82648e+07,261.818,1,2.8275,20069.3,-3810.18,8359.67
5.83261e+07,75.5686,2,2.5403,8855.45,-13323.6,-28303.1
5.84444e+07,136.219,0,2.61345,886.468,-24996.8,-14640.2
5.85104e+07,25.2883,0,2.51708,4811.85,-2292.71,-27737.3
5.8615e+07,141.908,1,2.59136,8653.09,-20215.1,-8566.26
5.86915e+07,31.936,1,2.60359,-3627.23,-3491.15,-24344.5
5.88351e+07,3.42,0,2.69788,761.662,87.3604,-28570.2
0,3.30776,0,2.49023,0,0,0
5.88906e+07,71.6319,1,2.63913,-5675.97,5868.83,-16045.2
5.88935e+07,8.11818,2,2.75271,-891.837,-986.912,-27643.1
5.94371e+07,82.89,2,2.40123,8153.36,12275.6,-19447.3
5.95043e+07,33.6896,2,2.44664,6916.52,-1319.5,-27662.8
6.05669e+07,72.4185,2,2.42212,6807.19,-13755.3,-29590.7
6.09045e+07,3.04938,1,2.84915,147.117,-361.456,-28378.5
6.10391e+07,121.73,0,2.57425,10672.1,-16543.2,-13103.1
6.11797e+07,60.6455,0,2.80588,1056.8,8426.22,-19282.6
6.1379e+07,43.8239,0,2.3811,227.663,4738.45,-20837.6
6.15244e+07,22.879,0,2.91012,4646.16,662.063,-27466.7
6.17199e+07,52.8125,0,2.46581,1961.75,-5629.62,-19342.8
6.18275e+07,260.659,0,2.87246,-17423.5,-16838.2,20251.4
6.1887e+07,15.9319,2,2.90896,-1346.38,-3161.83,-28408.5
6.18955e+07,13.3385,1,2.40722,2497.81,921.919,-29813.1
6.23583e+07,161.084,1,2.72184,-10352.7,27348.8,-11447.4
6.28787e+07,17.4588,0,2.45395,3176.64,-1924.58,-28163.5
6.30001e+07,29.8688,0,2.86252,3335.36,-1931.54,-23807.7
6.30504e+07,115.042,1,2.63678,11990.4,-10072,-10312.3
6.31081e+07,123.808,1,2.63263,-9081.22,21545,-16977.3
6.31842e+07,63.1076,0,2.95509,6312.43,-11464,-26577.7
6.31877e+07,131.457,2,2.71718,-13249.3,-12862.8,-8105.13
6.32598e+07,111.097,0,2.98007,13752.8,7819.01,-11677.9
6.36055e+07,20.8791,1,2.80631,-158.733,1974.33,-24856.5
6.36301e+07,152.012,0,2.9208,-982.869,38.5428,1222.69
6.37268e+07,134.38,0,3.01638,14214.7,-6850,-5466.1
6.39175e+07,23.3808,1,2.45525,-818.733,-584.708,-24938.7
6.40595e+07,121.81,0,2.56573,-15929.8,10519.9,-11604.3
6.41657e+07,45.5827,2,2.4746,-3301.78,-6787.5,-22703.3
6.42498e+07,37.6446,0,2.82811,800.571,3368.88,-21685.4
6.45603e+07,167.308,0,2.9111,27277.8,-9359.57,-8652.17
6.48884e+07,109.472,2,2.52455,-17195.1,-4206.62,-13855.2
6.49942e+07,22.5983,1,2.54025,-3767.69,3049.36,-28974
6.51838e+07,63.8445,1,2.37097,-5965.49,-4762.49,-17699
6.5821e+07,5.836,2,2.95868,-644.152,-943.606,-28176.5
6.58268e+07,81.6641,0,2.62908,15040.4,-2624.45,-20630.6
6.61151e+07,26.7342,2,2.64837,487.696,-3509.62,-24370.1
6.6315e+07,131.848,1,2.72893,8352.07,20171,-11572.5
6.64086e+07,60.3813,2,2.77465,-10867.6,-1466.42,-22301.2
6.67193e+07,44.553,0,2.81254,6466.97,-6722.4,-27469.3
6.69034e+07,58.0134,1,2.43293,-1899.55,10168.6,-22124.6
6.71837e+07,37.4877,2,2.78028,2522.16,-5369.99,-23542.3
6.7216e+07,21.8126,1,2.60883,2287.88,742.258,-24924
6.73154e+07,20.0019,0,2.59622,-1969.9,3551.52,-27697
0,20.0602,0,2.55477,0,0,0
6.76178e+07,5.32625,2,2.73258,34.4368,-977.609,-28139.9
6.81979e+07,33.1813,0,2.88057,3651.9,4448,-24825.8
6.83886e+07,8.45962,0,2.99682,714.148,1608.67,-28348
6.85686e+07,21.4176,2,2.82225,-940.936,-4351.74,-27642.3
6.86296e+07,5.08288,2,2.39166,-736.626,271.909,-28068
6.89661e+07,232.388,0,2.6517,-9563.55,-10620.4,10454.9
6.89712e+07,18.3054,1,2.47391,-1500.56,-829.212,-25370.9
6.91652e+07,125.948,0,2.4553,-19482.9,-6739.5,-12038.2
6.9267e+07,0.271267,0,2.45638,129.692,-18.6006,-28794.5
0,0.206188,0,2.40867,0,0,0
0,0.262509,0,2.78349,0,0,0
0,0.181644,0,2.56847,0,0,0
0,0.227495,0,3.05671,0,0,0
0,0.292582,0,2.36563,0,0,0
0,0.19493,0,2.72643,0,0,0
0,0.182703,0,2.96456,0,0,0
0,0.185338,0,2.3913,0,0,0
0,0.182086,0,2.98382,0,0,0
0,0.195939,0,2.8034,0,0,0
0,0.229848,0,3.05415,0,0,0
6.9627e+07,41.6062,1,2.78005,-4069.14,875.386,-21093.8
6.96451e+07,115.145,1,2.42934,1154.88,15788.8,-10283.3
7.01527e+07,45.0936,0,2.52227,1337.25,-4654.87,-20627.9
7.01971e+07,25.8898,1,2.78198,-4418.37,-25.0543,-25574.1
7.07115e+07,63.6245,2,2.62632,-5346.08,-1680,-16581.5
7.07635e+07,7.80446,1,2.72632,1082.6,838.724,-27901.1
7.08276e+07,27.8214,1,2.84227,-3285.99,3646.06,-25494.7
7.08344e+07,243.702,2,2.9825,-8928.7,-26004.7,14279.8
7.08562e+07,71.8289,0,2.37299,15276.3,835.356,-28517.7
7.10767e+07,97.2854,2,2.67318,-13969,8841.82,-16664.9
7.12514e+07,23.3451,2,2.92602,-1244.85,-4116.03,-26309.6
7.13747e+07,87.6099,2,2.89416,-10971.5,-6904,-15680.8
7.16552e+07,10.2195,1,3.00138,1149.28,914.551,-27226.4
7.17383e+07,3.34158,2,2.5294,140.987,-708.582,-28540.2
7.18253e+07,20.9481,0,2.87485,-2217.8,-2269.28,-25800.5
7.19845e+07,36.8352,0,2.98609,-6089.38,-3937.69,-26372.2
7.26392e+07,87.2509,0,2.49587,5867.99,5324.59,-12131.6
7.34023e+07,94.8904,1,2.80952,-18984.6,5498.64,-25693.1
7.39166e+07,6.07491,2,2.97373,-1063.68,-839.212,-28660.1
7.47073e+07,106.589,1,2.73255,-17357.7,14383.9,-27894.1
7.50386e+07,18.7728,2,2.96223,2488.97,-3105,-28642.9
7.59316e+07,10.2721,0,2.92235,976.486,903.563,-27063.4
7.61328e+07,76.6687,1,2.88455,-6562.63,11373.2,-19368.5
7.6281e+07,153.198,2,2.54329,28237.2,10935.6,-17490
7.66961e+07,117.788,0,2.63735,21244.3,325.564,-15833.6
7.67844e+07,95.8453,2,2.65133,-954.814,-14037.3,-14231
7.68529e+07,18.7194,2,2.37023,756.896,-2830.41,-26096.1
7.68765e+07,51.2216,2,2.88863,-274.419,-10855.4,-28765.7
7.72657e+07,5.41017,2,2.93809,939.534,397.641,-28403.6
0,4.7926,0,2.53019,0,0,0
7.74933e+07,124.602,1,2.90749,-21091.2,11261.6,-18001.9
7.76293e+07,76.6376,0,2.70062,216.36,-7735.9,-14674.4
7.77909e+07,73.4109,1,2.71044,-13266.1,-6859.11,-24798.3
7.78839e+07,43.0086,1,2.98831,7216.26,364.373,-23506.4
7.803e+07,114.458,0,2.97825,6216.51,8896.24,-7387.49
7.81589e+07,0.710231,2,2.83363,-89.2497,-226.278,-28943.9
7.82066e+07,28.2699,2,2.94312,130.965,-4401.99,-24762.8
7.83655e+07,66.7132,2,2.66272,3907.98,-13612.3,-29038.7
7.86975e+07,24.8038,1,2.42655,1777.79,4726.63,-27116.9
7.88712e+07,43.1972,2,2.76757,-3131.66,-7033.27,-23836
7.89023e+07,108.397,0,2.77397,-5698.75,-9847.61,-10277.7
7.9149e+07,51.9095,0,2.51632,1429.57,-6584.15,-20153.1
7.96063e+07,123.643,1,2.94502,24319.7,-193.797,-19840.3
7.96201e+07,292.081,1,2.51996,-25159.4,22881.1,22746.4
7.96308e+07,116.594,0,2.88975,21306.9,-10997.4,-23484.5
8.01208e+07,13.405,1,2.87076,1706.58,-2015.04,-28028.8
8.04663e+07,77.9431,1,2.78426,14575.4,-1576.85,-21525.8
8.04992e+07,7.60043,1,3.03939,-687.19,-875.58,-27682.5
8.06625e+07,22.0213,0,2.49509,3722.21,-2666.16,-27541.5
8.06807e+07,120.717,2,2.67131,-3881.89,-22983.9,-18449.2
8.12744e+07,19.9413,0,2.63236,815.94,-3579.1,-26707.2
8.15049e+07,4.238,2,2.62027,335.972,536.938,-28238.8
8.18e+07,129.136,1,2.81377,-9518.64,-10679.9,-5750.88
8.18907e+07,28.7108,0,2.97495,-1937.74,-4052.51,-24826.2
8.19272e+07,22.9736,0,2.42698,1201.7,-1545.3,-24371.4
8.20018e+07,276.88,0,2.79928,-1806.43,-27410.4,22532.1
8.20867e+07,139.994,2,2.99212,-6971.93,-24812.2,-14664
8.24409e+07,116.553,2,2.71622,-18925.7,-15783.1,-29468.8
8.27462e+07,80.52,1,2.70338,8131.18,-8818.92,-16870.8
8.28063e+07,97.2523,0,2.96004,18721.5,-4771.75,-21979.6
8.28568e+07,90.9326,0,2.82042,16300.8,5368.05,-20230
8.28921e+07,69.7102,0,2.98628,235.063,-5168.95,-15293.9
8.31776e+07,45.841,0,2.73904,8808.61,-3914.44,-27473.4
8.32075e+07,163.768,2,2.48676,14216.5,-7237.96,1895.88
8.32149e+07,9.52383,2,2.75722,-157.715,-377.328,-26866.3
8.32885e+07,101.496,1,2.74737,-11148.1,-11388.2,-14596.4
8.37314e+07,2.68327,1,2.6342,-391.891,-58.3587,-28406.3
8.38976e+07,77.3989,0,2.80637,9184.25,-3844.98,-24954.3
8.3987e+07,34.0336,2,2.60513,5288.18,3968.16,-26187.5
8.45023e+07,55.3813,1,2.95305,-10861.9,3363.22,-26053.7
8.45493e+07,43.4808,1,2.73071,5690.78,-5473.48,-24288
8.50698e+07,138.072,2,2.62986,7198.12,-11956.6,-3240.37
8.52093e+07,28.9791,0,2.372,-3720.99,3472.51,-25469.8
8.52464e+07,81.5183,0,2.46865,11193.7,-673.485,-15662
8.53132e+07,18.9681,0,2.979,-2094.66,2980.83,-27299.5
8.53937e+07,43.6753,2,2.95759,-524.375,-5094.56,-22264.7
8.62885e+07,72.2734,1,2.92545,5517.43,6944.61,-16476.8
8.6443e+07,56.8815,1,2.3733,-10668.6,3036.55,-24002
8.66834e+07,68.1364,0,2.71218,531.127,-14131.3,-26197.8
8.68355e+07,143.399,1,3.02072,27682.3,-3238.44,-24228
8.70422e+07,4.58722,0,2.57049,968.678,435.177,-28746
8.7334e+07,62.5607,1,2.95074,11635.3,1662.67,-29047.6
8.74599e+07,74.1939,0,2.5786,-12455.2,1849.52,-19559.2
8.78862e+07,45.6735,2,2.61249,-1325.36,-4141.01,-20191.5
8.79908e+07,68.8212,1,2.37572,-997.095,13802.7,-23996.8
8.79911e+07,25.2172,1,2.65051,4277.45,2996.57,-27629.7
8.80103e+07,121.819,1,2.54008,22937,-5533.5,-18613.6
8.83948e+07,45.4662,0,2.89293,-3017.16,-4217.38,-20824.9
8.86678e+07,156.736,0,2.7353,23072.4,10315.8,-7797.52
8.87671e+07,72.9939,2,2.60117,-2778.63,-9008.72,-16567.2
8.88212e+07,6.18998,0,2.63865,-610.66,1117.1,-29082.2
8.8913e+07,74.2619,1,2.91259,-14773.2,2876.65,-24484.4
8.94227e+07,34.7691,1,3.01152,-1843.14,6993.23,-27465
8.95537e+07,69.0523,0,2.48013,12792.7,976.555,-21659.9
8.98748e+07,29.3353,0,2.53082,5467.18,-922.927,-25862.5
8.99426e+07,204.799,0,2.71247,161.386,21240.3,-22686.2
8.99593e+07,13.6244,1,2.38968,-2646.41,-350.482,-27662
0,13.5758,1,2.49243,0,0,0
9.00159e+07,54.1313,0,2.82804,-2022.36,-4918.64,-18769.7
9.01378e+07,61.9428,2,2.62115,5840.56,-9930.22,-22558.8
9.03161e+07,198.44,2,2.65761,13117.4,22989.4,3521.37
9.03805e+07,105.394,1,2.82165,13731.4,17456.9,-29331.3
9.03949e+07,131.157,0,2.58353,5353.61,-9726.02,-9691.88
9.06952e+07,89.904,0,2.62954,4240.15,13456.7,-16080.6
9.07707e+07,55.4789,0,2.45013,1088.97,8054.3,-20375.5
9.10104e+07,37.6591,0,2.98563,-4164.6,3482.43,-23132
9.10319e+07,10.4379,2,2.81593,-1232.05,290.155,-26989
9.12242e+07,52.6762,1,2.73562,10046.1,4626.35,-29911.5
9.17367e+07,38.4714,1,2.43919,-7110.8,2956.08,-25980
9.17399e+07,6.59813,0,2.43946,1116.46,595.296,-28057.4
9.2241e+07,77.4843,2,3.04791,-4506.27,7379.37,-15139.9
9.26824e+07,40.8821,2,2.45627,2190.78,-7461.23,-24882.6
9.2988e+07,50.9221,2,2.724,4391.01,-7889.79,-22926.5
9.33387e+07,10.9293,2,2.78194,830.919,-2118.29,-29463.3
9.33601e+07,39.4929,0,2.5499,4633.76,507.855,-21839.7
9.3563e+07,7.40602,2,3.05951,-1034.25,820.369,-27987.7
0,7.34106,2,2.80083,0,0,0
9.39983e+07,66.7733,2,2.93604,592.508,11349.6,-20774.5
9.44564e+07,66.2865,0,3.0455,-4966.76,-7758.73,-18498
9.446e+07,79.7352,0,2.51828,-4278.98,8459.35,-14892
9.50941e+07,89.279,0,2.65247,-14776.3,2291.3,-17437.9
9.51805e+07,75.7344,0,2.67338,5211.5,-10840.5,-28436
9.54099e+07,225.913,1,2.7092,-22578.8,12219.1,2436.26
9.54784e+07,46.9836,2,3.03825,3287.67,-6796.91,-22430.5
9.55837e+07,22.5183,1,2.40648,-2190.89,4355.17,-28866.4
9.5592e+07,0.18992,0,3.61704,124.188,-60.0284,-28821.2
0,0.171375,0,2.53331,0,0,0
0,0.163343,0,4.09645,0,0,0
0,0.160541,0,3.77007,0,0,0
0,0.172521,0,2.3539,0,0,0
0,0.175355,0,2.43812,0,0,0
0,0.162958,0,3.58897,0,0,0
0,0.161305,0,3.76067,0,0,0
0,0.187263,0,2.46166,0,0,0
0,0.227965,0,3.64816,0,0,0
0,0.17556,0,2.10562,0,0,0
0,0.259736,0,3.89869,0,0,0
0,0.18769,0,2.93262,0,0,0
9.56064e+07,3.50023,0,2.8832,240.876,-281.174,-28153.7
0,3.49765,0,2.37256,0,0,0
9.59524e+07,181.661,1,2.55574,13032.6,-7421.28,-16057.2
9.60016e+07,36.2519,2,2.94024,-3887.03,-3914.23,-23480.1
9.60572e+07,60.9294,2,2.59548,-4643.05,11212.9,-24630.1
9.61354e+07,98.7391,0,2.95649,6137.55,-18651.6,-22106
9.61823e+07,54.7227,2,2.99371,4157.24,9405.33,-23891
9.63099e+07,63.6112,2,2.98939,6678.84,-10686.5,-24278.1
9.64292e+07,100.864,2,2.76234,-15951.3,-7883.41,-22949.1
9.66926e+07,44.6303,0,2.69463,9487.44,457.892,-28089.9
9.68077e+07,51.9331,0,2.46212,2375.39,10778.3,-28944
9.69811e+07,19.7369,0,2.93914,1691.35,1230.91,-25209.1
9.74096e+07,89.1281,2,2.93071,-6326.14,-11937.6,-19050.5
9.74849e+07,29.385,1,3.03122,1847.76,-3254.25,-23989.9
9.76877e+07,77.5488,0,2.45948,1678.98,-14426,-21142.1
9.77986e+07,87.0197,2,2.94569,4090.96,-16976.6,-23269.9
9.78894e+07,57.5453,2,2.61963,-11209.9,4175.41,-26604.9
9.79038e+07,77.2785,2,2.39886,9702.28,-1722.44,-20724.4
9.85547e+07,38.921,2,2.48535,4267.12,-73.335,-21804.4
9.86061e+07,59.9425,1,2.49386,-6465.76,2006.71,-18080.4
9.87135e+07,101.533,1,2.5774,-15477,-4675.04,-14676.3
9.87665e+07,6.31924,0,2.78978,1336.88,-196.764,-29310.5
9.879e+07,189.615,0,2.70005,23821.6,-12740.4,-10251.8
9.95193e+07,84.1008,2,2.44849,458.387,-7961.74,-12911.7
9.97844e+07,143.48,2,2.81475,-13185.2,-16713.3,-7363.52
9.998e+07,130.037,1,2.60498,-7932.09,6226.76,-3690.25
1.0012e+08,93.4668,0,2.77531,8514.45,1185.31,-11093.1
1.00288e+08,34.6847,0,2.93291,-2483.02,5379.78,-24619.1
1.00389e+08,63.7334,0,2.71036,9456.09,5557.92,-20946
1.00576e+08,19.1036,1,2.93361,-1755.5,3700.45,-29276.2
1.006e+08,34.0096,1,3.04631,-5283.45,4873.72,-29253.8
1.00776e+08,57.3565,0,2.7226,5829.51,-1555.65,-18304.9
1.00965e+08,173.978,1,2.80407,17939.1,1493.24,3015.7
1.01212e+08,31.4919,0,2.89713,1398.97,-4694.89,-24511.2
1.01375e+08,72.2694,1,2.65872,-5919.55,-13960.7,-27757.8
1.01447e+08,50.9914,2,2.57945,-7400.43,7264.9,-25943.5
1.01606e+08,103.009,2,3.04613,-14399.1,-12414.5,-18530
1.01792e+08,135.977,1,2.83936,-21236.1,2766.75,-9882.85
1.02123e+08,2.70465,1,2.91994,48.5723,-234.556,-28333.1
1.02355e+08,80.2555,0,2.96495,9106.47,1522.13,-14715.6
1.03069e+08,134.123,1,2.83121,-9502.66,20340.3,-11644.5
1.0336e+08,115.356,1,2.80976,-6303.96,-18129.8,-17010.8
1.0336e+08,17.1665,0,3.03303,2360.48,1470.64,-26468.3
1.0354e+08,77.2127,2,2.8978,-2332.73,-14432.2,-21733.1
1.03836e+08,55.377,0,2.90411,10260.3,-4218.64,-26024.7
1.04161e+08,151.533,2,2.7177,28862.3,-1899.43,-15335.7
1.04175e+08,130.54,2,2.96585,-26505.1,459.703,-21796.8
1.04334e+08,121.609,1,2.96327,-23881.7,-9075.99,-28683.4
1.04417e+08,284.24,0,2.6094,11639.5,15030.8,23499.6
1.04418e+08,64.9323,1,2.61055,-8097.97,993.985,-17792
1.0448e+08,79.4455,2,2.82928,6694.06,3246.72,-13882.6
1.04483e+08,39.3152,2,2.74848,-6135.5,-5381.92,-26973.6
1.04782e+08,13.9354,2,2.48343,-2779.53,-270.007,-29971.3
1.04802e+08,8.15345,2,2.86379,-1529.98,783.653,-29099.1
1.04875e+08,34.4571,2,2.94058,-4528.45,1691.1,-23409.5
1.0514e+08,76.3197,1,2.83973,-1450.87,8247.78,-17728.7
1.05653e+08,3.05651,2,2.36261,235.909,-322.536,-28289.5
1.05663e+08,28.2274,2,2.56912,-2700.46,-5108.97,-26956.2
1.05818e+08,252.377,1,2.67262,-6574.91,-29019.2,2298.63
1.06307e+08,134.1,0,2.51882,24178.7,14525,-25286.6
1.06395e+08,79.5,0,2.67636,9525.31,1479.65,-15038
1.06403e+08,121.002,1,2.56161,-19917.2,4355.39,-13321.8
1.06623e+08,11.9216,1,2.93222,-266.463,2104.32,-27380.7
1.06936e+08,34.0171,2,2.45626,6574.52,-2270,-26956.2
1.06995e+08,133.248,1,2.60232,14479.6,-7237.03,-5895.22
1.07138e+08,46.6617,1,2.98169,-3239.1,-8125.28,-24474.8
1.07382e+08,42.6734,1,2.46225,2642.23,-8070.48,-25985.6
1.07468e+08,20.0325,0,2.63025,-1315.92,-4033.54,-28871.1
1.07762e+08,61.7723,0,2.81016,3154.85,-9799.91,-20862.7
1.07794e+08,44.2451,1,2.71327,-7740.33,-1894.9,-23971.3
1.07892e+08,92.6164,1,2.37228,5366.42,-8950.74,-12309.3
1.07949e+08,2.93081,0,2.74893,429.645,524.862,-28725.9
1.08179e+08,175.197,0,2.52799,26633.4,130.27,-3019.94
1.0819e+08,66.2794,1,3.02435,1400.82,3893.69,-18632.4
1.0834e+08,300.205,2,2.48747,-20513.4,17984.1,28450.5
1.08348e+08,51.5669,0,2.41709,907.418,5159.37,-19228.3
1.08572e+08,7.72895,0,2.67474,507.827,-796.047,-27470.8
1.08605e+08,209.787,2,2.799,-22719.7,-24780.1,-142.81
1.0884e+08,50.046,0,2.55218,9837.78,-4137.23,-29384
1.09492e+08,178.779,0,2.49072,29044,-16930.3,-11385.8
1.09612e+08,7.08414,0,2.68292,829.059,-684.022,-27714.4
1.10167e+08,5.87277,1,3.02528,-1241.78,182.237,-28455.4
1.10464e+08,20.9945,0,2.57807,2916.28,-2824,-26849.8
1.10642e+08,41.4471,1,2.80043,-3727.02,-6054.75,-23790.1
1.1104e+08,79.8121,0,2.47203,14947.2,2620.97,-21298.8
1.11108e+08,29.0659,1,2.54146,4275.17,4234.81,-27349.3
1.11219e+08,37.0849,0,2.37444,4096.72,419.437,-22103.1
1.11247e+08,174.673,2,2.45721,2456.9,-16571.3,4128.08
1.11593e+08,25.4033,2,2.53713,2537.74,-3675.95,-25766.9
1.11678e+08,20.9859,2,2.66947,-4308.2,-393.999,-27582.5
1.11768e+08,122.523,2,2.94448,-2944.85,20237.7,-13310.4
1.11792e+08,72.1001,1,2.6333,5822.06,12978.2,-23221.3
1.12129e+08,123.372,0,2.97105,14616.3,10366.1,-10119.1
1.12153e+08,17.7464,0,2.6676,1343.76,-1938.34,-25885.2
1.12337e+08,73.7626,1,2.38583,-5290.17,9455.3,-17529.8
1.12451e+08,6.95287,1,2.36452,203.907,1563.37,-28812.2
1.12587e+08,138.033,2,2.96266,-9120.63,8980.35,-5642.77
1.12737e+08,42.2887,2,2.48859,-4923.95,276.443,-28438.9
1.1277e+08,74.2068,0,2.73379,14099.7,-1824.34,-22102.1
1.12825e+08,81.6608,1,3.05409,-4704.24,-8188.74,-14580.2
1.14648e+08,9.74401,0,2.58009,580.718,-852.106,-26997.1
1.14811e+08,65.6883,0,2.5791,-3998.44,10065.3,-20174.7
1.14918e+08,100.122,1,2.82191,-15804.5,-13760.6,-26708.6
1.15015e+08,38.1132,0,2.59866,5850.03,-3736.75,-24612
1.15017e+08,27.0893,0,3.04196,-2584.56,151.608,-23838.5
1.15208e+08,211.642,0,2.97715,-8107.57,23546.8,7862.1
1.15435e+08,66.1842,1,2.83688,-8904.61,-2723.17,-18461.7
1.15463e+08,92.539,0,2.83346,19263.6,2749.67,-26999.4
1.15738e+08,18.4404,1,2.79584,-2815.14,2185.47,-27081.8
1.1581e+08,103.877,0,2.77295,4678.88,8745.49,-18131.1
1.15865e+08,154.649,2,2.77168,-27992.7,3495.87,-24064.4
1.15954e+08,62.6981,1,2.65686,-9884.67,8030.26,-24957.6
1.16096e+08,54.6636,1,2.42223,-1917.83,10999.9,-25458.1
1.16517e+08,11.2129,1,2.49257,-717.496,-1931.17,-27721.4
1.16786e+08,61.5682,0,2.42372,11686.1,-5931.46,-28368.3
1.17079e+08,49.9108,1,2.49657,4002.16,7563.38,-22548.7
1.17146e+08,40.8691,2,2.39983,-5656.17,-4831.7,-24251.6
1.17303e+08,77.4267,0,2.62144,4829.3,-15190.5,-25038.1
1.17368e+08,102.037,2,2.6043,7905.41,-18446.5,-20879
1.17566e+08,132.791,0,2.72764,12730.6,255.111,-3894.99
1.1797e+08,132.59,2,2.76755,-5195.47,15862.3,-6495
1.18045e+08,48.733,1,2.76082,-7361.13,1244.79,-21702.6
1.18874e+08,102.848,1,2.76657,1377.27,9370.9,-9313.9
1.18917e+08,65.4429,2,2.39274,6837.82,8867.76,-20748.8
1.192e+08,36.1274,0,2.84191,-1814.16,-7357.32,-29112.4
1.19201e+08,46.6254,0,2.76621,9560.66,1387.45,-26562.5
1.19748e+08,99.4579,2,2.85571,6415.84,-1381.18,-17602.6
1.19753e+08,18.8411,1,2.9524,-171.546,-3362.41,-26818.2
1.19907e+08,83.6341,0,2.80333,5022.76,12144.5,-17063.1
1.2028e+08,3.49629,1,2.87297,-562.579,481.832,-28461.1
1.20355e+08,99.171,0,2.3795,-751.117,-16586.5,-16009.8
1.2037e+08,40.8029,0,2.41054,2925.29,2826.75,-21182.9
1.2054e+08,13.6677,0,2.37929,-782.193,2743.56,-28464
1.20553e+08,94.1113,1,2.49711,-18197.2,4421.95,-22349.9
1.2102e+08,20.4955,1,2.75787,2325.69,-2202.37,-26005.3
1.21072e+08,124.627,2,2.80801,-19087.6,-15142.1,-27169.7
1.21277e+08,94.3165,0,2.5084,7482.22,-18017.1,-24584.8
1.21461e+08,70.9118,0,2.6015,5146.47,7442.19,-16851.5
1.21495e+08,144.275,2,2.46219,13785,-21342.6,-11916.6
1.21562e+08,74.2997,0,2.5477,14197.4,6130.13,-25662.7
1.22278e+08,207.68,2,2.65043,-14973.3,-332.53,-11725.5
1.22295e+08,76.7848,1,2.51866,3325.71,14984.8,-23291.6
1.22449e+08,155.841,0,2.38933,23201.8,-18639.2,-14450.1
1.22613e+08,80.0873,2,2.36224,-12176.2,11657.6,-27180.8
1.22874e+08,139.506,0,2.90793,20256,-15636.4,-14426.5
1.23041e+08,101.394,2,2.61019,-2884.68,-19487.8,-20244.7
1.23043e+08,79.2384,1,2.92755,-14809.4,-289.748,-21143.9
1.23175e+08,155.511,1,2.6311,-7634.9,25363.9,-27365.4
1.23406e+08,145.976,1,2.42811,15800.2,12964.6,-5672.32
1.23626e+08,60.771,2,2.55183,-4631.53,-8088.91,-19902.8
1.23981e+08,78.7427,1,2.60047,15420,-2816.06,-23377.4
1.24016e+08,112.381,2,2.83762,346.948,5557.97,-28284.3
1.24166e+08,219.665,2,2.95174,-20106.3,27679.6,-26138.4
1.24204e+08,86.9046,0,2.51947,8678.93,-12480.6,-18430.7
1.24306e+08,23.9107,0,2.99183,4103.44,-3008.19,-29321.4
1.24344e+08,176.707,1,2.98609,-19092,-19545.6,-3811.67
1.24381e+08,64.1835,1,2.74215,198.585,-7421.89,-17600.2
1.24436e+08,9.5814,0,2.75578,1850.51,-21.4949,-27802.5
1.24734e+08,48.0851,2,2.47497,4371.5,-9239.52,-28597
1.24857e+08,110.173,1,2.8335,-14634.9,3667.43,-21033.3
1.24917e+08,216.655,2,3.01175,-17738.1,24318.9,5140.21
1.24942e+08,128.815,2,2.77504,-16310,-10313.3,-9704.72
1.25436e+08,18.0467,2,2.55226,-865.147,-2825.91,-26290
1.25536e+08,41.4613,0,2.84417,-866.172,3716.94,-20978
1.25712e+08,86.0852,0,2.87192,-5248.65,-6686.78,-12908.4
1.25725e+08,24.8488,1,2.67401,-3721.28,3712.22,-27843.9
1.26286e+08,14.7359,0,2.84037,1347.12,-1625.73,-26489.7
1.26808e+08,125.127,2,2.49858,18806.8,5599.05,-11160.7
1.27005e+08,1.17552,1,2.93144,-279.13,208,-28875.5
1.27166e+08,64.5486,0,2.58221,-10678.4,-4721.39,-21911.7
1.27257e+08,51.8264,1,2.57944,-1934.21,5397.73,-19452.6
1.27608e+08,134.232,2,2.60461,12955.6,-4502.45,-4065.55
1.27861e+08,40.6771,2,2.6743,-6061.46,5318.97,-25877.2
1.28171e+08,37.5007,0,2.5741,3323.16,-327.934,-21601.4
1.28363e+08,112.947,1,3.0106,17794.7,8990.81,-16083.8
1.28702e+08,52.304,2,2.475,-10727.8,2764.66,-28114.8
1.28807e+08,109.959,0,2.44502,15435.3,-14967.4,-19776.4
1.28901e+08,96.3619,2,2.99485,-14335.8,3338.37,-14941.2
1.28977e+08,54.7568,0,2.67322,-1709.4,8519.73,-21248.2
1.29026e+08,18.6383,0,2.4209,-75.5005,3082.3,-26329.1
1.2946e+08,11.3287,1,2.7646,-417.209,1719.55,-27113.5
1.29724e+08,31.4328,0,2.51331,-5863.89,384.358,-25823
1.29727e+08,68.8486,2,2.53824,-6814.76,1467.84,-16031
1.29794e+08,20.1256,1,2.62001,-1900.37,2630.75,-25960.1
1.29834e+08,69.3912,1,2.59895,-6204.38,-12598.1,-24711
1.29836e+08,168.189,2,2.97088,-2244.4,-24467.4,-3452.75
1.30053e+08,22.6486,0,2.72911,-1134.18,-4583.98,-28131.3
1.30217e+08,103.308,1,2.82505,-6507.1,-387.638,-21696.3
1.30382e+08,34.0426,1,2.88018,-2790.59,4345.5,-23798.5
1.30762e+08,31.1467,0,2.60717,2124.44,891.249,-25903.3
1.309e+08,55.9862,1,3.03505,5027.98,1119.81,-18303.8
1.3093e+08,28.751,0,2.76505,3483.39,1157.54,-24081.2
1.31906e+08,28.2185,1,2.4513,-3465.52,-2931.33,-24937.9
1.31989e+08,17.8146,0,2.86675,-2611.91,1003.52,-26424.7
1.32058e+08,48.7508,0,2.81264,-7145.35,7277.07,-29208.9
1.32323e+08,282.13,0,2.80604,-17475.8,24986.2,22060
1.32337e+08,37.8459,2,2.7878,-4584.53,1719.56,-22517.1
1.32762e+08,30.0751,1,2.95231,3711.61,-4077.24,-25855
1.32847e+08,10.127,2,2.92706,1012.43,-1908.08,-29177.8
1.33188e+08,13.814,2,2.69633,2090.38,-1377.88,-27275.3
1.33239e+08,40.5346,2,2.58855,7548.65,-4102.78,-29103.7
1.33309e+08,4.99261,2,2.64359,53.483,-636.637,-27925.9
1.33397e+08,130.632,2,2.44217,933.9,-15542.6,-5971.79
1.33636e+08,35.4027,1,2.67691,-5339.24,-290.716,-23556.6
1.34243e+08,72.3353,2,2.54314,-13733.4,5509.1,-24885.6
1.34273e+08,23.0095,1,2.75496,-1425.77,-1939.26,-24663.1
1.34308e+08,84.9162,2,2.64375,5580.55,-12090.8,-16768.6
1.34504e+08,28.9828,0,2.63394,3885.62,4792.85,-29235.9
1.34688e+08,12.2022,0,2.50859,-1812.33,1748.42,-28634.4
1.34955e+08,133.634,0,2.76832,-125.299,-8146.49,-22244.4
1.35128e+08,61.3201,2,2.47792,-6104.66,-5857.87,-18919
1.35151e+08,75.1597,2,2.99181,9422.79,-2771.65,-16503.1
1.35563e+08,3.24017,2,2.50875,-361.265,-381.306,-28291.5
1.35688e+08,17.1634,2,2.73019,2740.43,-2406.05,-28873.8
0,17.1541,2,2.85965,0,0,0
1.35793e+08,51.2862,0,2.50673,9447.37,5506.82,-29328.6
1.35859e+08,27.3268,1,2.52984,-2628.97,4323.88,-25867.4
1.35865e+08,31.7125,1,2.84679,-5590.63,1289.12,-25334.6
1.36549e+08,73.4454,1,2.67717,-15485.7,1419.88,-28423.7
1.36881e+08,29.4813,1,2.89044,185.273,-5151.96,-25449.2
1.36929e+08,129.069,1,2.41244,-8669.47,4793.16,-3360.55
1.37043e+08,45.3483,1,2.44503,-7643.66,5260.03,-26169.8
1.37206e+08,41.1587,0,2.44044,-2016.6,8457.3,-29542.9
1.37672e+08,179.207,1,3.0155,9618.53,5518.35,-26772.7
1.37794e+08,78.3065,1,2.88508,3611.93,10945.4,-17013.5
1.37828e+08,3.27762,0,2.61944,687.142,108.321,-28468
1.38055e+08,167.552,2,2.37421,16359.5,-28100.8,-14569.6
1.38348e+08,115.57,0,2.55105,20356.1,9980.83,-19511.9
1.38601e+08,120.316,2,2.92507,19976.3,-11894.8,-18925
1.38683e+08,111.727,1,2.73134,-17039.7,13407.2,-19450.7
1.38706e+08,78.1359,0,2.76871,9687.96,946.289,-15534.4
1.39264e+08,205.367,1,2.86416,307.491,4643.72,-24479.2
1.39265e+08,62.0798,0,2.49571,5961.61,11699.6,-29918.2
1.3939e+08,50.0011,2,2.82093,9780.28,-872.486,-25101.6
1.39597e+08,24.5571,2,2.99163,-4725.99,1679.2,-27497.1
1.40057e+08,127.702,2,2.54099,24490.9,1973.56,-17723.4
1.40346e+08,84.2838,0,2.83096,15212.4,-8385.85,-25003
1.40761e+08,64.5793,1,2.99082,-7094.17,-9189.59,-21884.4
1.40866e+08,228.804,2,2.77726,-14596.6,-2147.25,-18842.7
1.40967e+08,11.2732,2,2.66998,-1789.01,-1510.59,-29597.8
1.41169e+08,50.642,2,2.60369,8414.24,2935.05,-23020.8
1.4126e+08,133.149,2,2.3981,6737.75,-22033.4,-12525.9
1.41284e+08,30.8055,0,2.38046,-2919.53,3949.09,-24580.9
1.41366e+08,23.6967,0,2.9403,-3393.6,911.11,-25367.8
1.41786e+08,6.20737,0,2.98643,705.202,-1064.15,-28369.5
1.41892e+08,25.5207,0,2.36611,-1812.18,3890.62,-25562.4
1.42341e+08,28.8939,2,3.0449,3672.29,2704.42,-24893.5
1.42387e+08,22.0259,1,2.95019,-2263.09,1219.72,-24929.5
1.42536e+08,221.575,1,2.47567,-10139.7,15967.4,14047.5
1.42555e+08,119.343,1,2.78195,-8504.61,4146.74,-5549.69
1.42607e+08,58.5223,2,2.42446,6968.48,-10243.8,-27694
1.42723e+08,143.122,2,2.82681,6616.71,-24290.9,-12230.6
1.43006e+08,1.27328,1,2.50097,-217.602,304.017,-28794.7
0,1.27102,1,2.72893,0,0,0
1.43124e+08,163.117,1,2.41041,-14295.9,1237.11,2574.52
1.43212e+08,118.166,1,2.67541,-10590.8,-7760.06,-14256.2
1.43273e+08,22.3221,2,2.74082,-4463.8,-792.655,-27345.5
1.4331e+08,58.2606,2,2.89986,7740.76,-7803.14,-23413
1.43337e+08,68.8124,1,2.72258,-3622.54,11782.5,-21066.9
1.43405e+08,20.8898,0,2.87706,-395.643,3164.49,-25784.4
1.43407e+08,3.87622,1,3.02858,195.397,495.546,-28167.4
1.43513e+08,84.4064,2,2.57916,-12571.3,-4493.38,-16915.5
1.43599e+08,72.7441,1,3.06112,8349.25,-185.433,-16138.3
1.43804e+08,12.4061,1,2.71755,2580.58,272.774,-29125.1
1.44828e+08,73.1901,1,2.92945,10851.3,5900.42,-19659.9
1.44844e+08,45.8944,1,2.99592,7443.29,6058.81,-29971.6
1.44913e+08,50.6685,2,2.44261,-1506.51,6450.97,-20437.2
1.45129e+08,1.65187,2,2.3692,74.5911,-347.338,-28611
0,1.61058,2,2.38346,0,0,0
0,1.78898,2,2.71491,0,0,0
1.45138e+08,102.293,0,3.03068,2307.86,-3316.49,-24993.4
1.45187e+08,66.4357,2,2.53324,4369.11,-11754.4,-22350.2
1.45291e+08,4.08418,1,2.55637,102.291,857.544,-29227.1
1.45383e+08,107.376,0,3.02782,11202.9,-12522.9,-13800.7
1.45389e+08,183.619,2,2.93517,5849.38,-20626.7,3191.82
1.45808e+08,25.6287,2,2.82651,-4451.58,-3147.84,-29460.5
1.46068e+08,57.2098,0,2.93153,-1911.55,9770.28,-22111.7
1.4626e+08,94.5646,1,2.9007,-6185.04,-8705.3,-12097
1.46687e+08,81.1819,0,2.98177,15824.4,-6542.64,-28241.3
1.46852e+08,80.7726,2,2.60113,-8811.26,9956.66,-18147
1.46914e+08,139.344,1,2.48021,14821.6,11591.9,-6284.44
1.47068e+08,16.2382,1,2.7661,-2158.58,2095.83,-27041.4
1.47166e+08,1.45065,2,2.62412,-139.937,221.229,-28739.9
0,1.46141,0,2.55031,0,0,0
0,1.44991,0,2.52038,0,0,0
1.47238e+08,8.76167,2,2.75085,-1230.03,-1303.72,-28079.1
1.47243e+08,63.3362,2,2.93735,-5391.72,-1603.78,-16754.7
1.47257e+08,26.9335,0,2.62046,2754.81,4022.03,-25779.1
1.47278e+08,67.5498,1,3.03336,6584.28,-4641.7,-17293
1.47283e+08,6.67979,1,3.02721,362.177,1330.99,-28320.2
1.47323e+08,9.29827,1,2.36446,-1545.5,-1184.74,-29136.8
1.47347e+08,9.41681,0,2.53896,515.051,159.193,-26889.3
1.47416e+08,136.196,0,2.73636,8841.99,-7243.52,-2483.36
1.47464e+08,61.7754,1,2.39029,-10924.2,2372.14,-21957.8
1.47654e+08,1.28709,1,2.76587,25.1462,338.662,-28748.2
1.4835e+08,12.6226,0,2.94698,2555.49,-835.502,-29403.2
1.48976e+08,9.71442,2,2.52534,-1098.85,-1798.18,-28374.9
0,9.92862,2,2.78724,0,0,0
1.49267e+08,79.2351,2,2.50644,13899,1237.44,-19636.8
1.49271e+08,74.061,2,2.55252,10180.4,-7113.63,-19250.9
1.49278e+08,95.4395,2,2.72987,-19062.1,2436.89,-22780.4
1.49447e+08,96.3538,2,2.52115,-17491.7,-4567.99,-19306.5
1.49699e+08,8.90461,0,2.53871,45.5364,-688.682,-27056.1
1.4991e+08,236.337,0,2.56029,17287.1,-22927.7,12029.3
1.50424e+08,94.007,2,3.02807,-8428.2,9889.14,-14059.1
1.50647e+08,33.2026,0,2.99319,3829.51,5891.78,-29346.7
1.50656e+08,14.6102,1,2.42973,-1143.97,1445.88,-26295.4
1.51063e+08,61.5745,0,2.45597,8163.11,5018.55,-19912
1.51746e+08,246.387,2,3.05226,10421.1,8877.6,-28310.5
1.51886e+08,35.8394,0,2.87777,-3986.11,4649.58,-24548.7
1.5221e+08,34.0342,0,2.50445,7094.69,-528.37,-27288.4
1.52237e+08,7.69393,2,2.45388,-789.413,-980.567,-27713.4
1.52429e+08,60.7373,0,2.64213,-4186.07,9977.77,-22015.5
1.52812e+08,127.768,2,2.57793,-728.104,20506.5,-11346.9
1.52914e+08,11.2996,2,2.65443,-2458.69,25.2382,-28760.9
1.53e+08,28.0439,1,2.56972,-2183.36,4488.94,-25518
1.53308e+08,150.414,2,2.78442,-16710.5,-59.9921,-1908.4
1.53351e+08,82.721,0,2.70599,14390.5,1404.6,-18961.4
1.53645e+08,33.7439,0,2.63905,6517.8,1581.9,-26169.2
1.53711e+08,56.2376,0,2.42791,2866.76,-4078.87,-18002.1
1.53867e+08,229.174,0,2.72893,-1812.07,-29974.1,-26592.3
1.54198e+08,32.7268,0,3.03027,3309.92,-2111.6,-23147.6
1.54615e+08,33.5563,2,2.86858,-4689.2,1415.28,-23763.3
1.54655e+08,63.8121,2,2.4901,-7241.97,-11507.4,-28591.4
1.54942e+08,69.3975,0,2.79084,339.404,7799.03,-20679
1.55053e+08,9.29717,1,3.03324,-1210.72,1319.36,-29805.2
1.55164e+08,172.526,0,2.53108,19981.4,-11339.3,-472.558
1.55226e+08,193.351,1,2.83018,1351.53,20982.4,6015.03
1.5532e+08,65.6407,0,2.48878,8852.16,3029.88,-18501.4
1.55555e+08,146.785,1,2.86065,-14528.7,23197.5,-14428.1
1.55701e+08,123.379,1,2.41353,-13920,3145.96,-6949.61
1.55865e+08,71.1095,2,2.43031,7764.96,11353.6,-22927.1
1.56197e+08,23.8284,1,2.95873,-4707.25,-1796.28,-28727.8
1.5646e+08,171.687,0,2.46895,29213.4,-19070.3,-18525.8
1.56482e+08,17.9495,1,2.69211,-2187.97,-336.119,-25746.8
1.5671e+08,64.5076,0,2.87596,7361.87,4422.41,-18277.7
1.5741e+08,14.059,1,2.63781,-2695.87,907.897,-27767.2
1.5747e+08,171.225,1,2.57846,-22218.5,-24757.6,-14691
1.57483e+08,14.0407,1,2.87842,-543.11,-1925.5,-26677.3
1.57512e+08,120.937,1,2.86,-19505.2,1981.77,-12585.5
1.57679e+08,11.344,0,2.38965,1390.28,958.95,-27028.5
1.57976e+08,46.9424,2,3.00806,2081.7,-5082.09,-20655.2
1.58146e+08,68.5122,0,2.44592,13708.4,2761.66,-24761.1
1.58286e+08,83.0196,2,2.77055,-4468.96,-14799.7,-20526.5
1.58556e+08,7.32584,2,2.48132,-1445.85,-768.187,-29004.1
1.5857e+08,31.2587,0,2.83943,3795.58,-3315.13,-24521.7
1.58634e+08,10.4165,1,2.92069,-2114.16,-166.234,-28079.3
1.5869e+08,54.278,1,2.72753,4596.12,4053.62,-19141.4
1.58691e+08,92.397,2,2.73798,-18451.5,-5125.27,-24898
1.58798e+08,178.101,0,2.85613,24078.1,10110.8,-1963.6
1.59037e+08,46.7493,2,3.01278,-3385.93,-2973.29,-20085
1.59064e+08,42.6975,1,2.99105,26.7074,8043.53,-24722.3
1.60483e+08,50.5975,1,2.43614,6757.37,7767.38,-25815.6
1.60719e+08,48.5407,2,2.61035,1935.27,-7136.87,-21706.1
1.60797e+08,8.38038,2,2.97473,-1598.97,-24.2294,-29713.6
1.60995e+08,173.116,2,2.62205,-7463.22,-28327.2,-6874.21
1.61181e+08,125.093,1,2.47763,11013.5,12792.8,-8454.39
1.6125e+08,63.0839,1,2.94174,2164.29,-5524.16,-26101.5
1.61305e+08,67.5178,0,2.61248,10655.2,6724.23,-22055.7
1.61415e+08,201.689,1,2.91197,26613.4,-24358,-6782.94
1.61566e+08,22.9119,0,2.49362,4804.07,1169.24,-28802.9
1.61784e+08,134.554,0,3.0456,-12981.9,15248.7,-13346.3
1.61989e+08,2.44193,1,2.40742,-555.012,52.2143,-28743.3
1.62124e+08,69.8381,1,2.54041,-9653.47,9899.79,-23387.4
1.62699e+08,186.174,0,2.50067,-23932.2,28261.2,-15605.2
1.62745e+08,126.177,1,2.3804,-13236.9,20859.7,-18458.7
1.62916e+08,66.7709,2,2.62639,-6545.93,6777.93,-18361.8
1.62936e+08,67.3643,1,2.69349,-5347.68,13252.9,-28622.8
1.62955e+08,82.6406,1,2.95146,-5447.72,14469.2,-20778.3
1.63066e+08,102.502,2,2.79123,11112.3,-8237.14,-12258.7
1.63078e+08,51.6707,0,2.66783,-5887.03,-9101.48,-28011.2
1.63149e+08,5.85949,0,2.45882,1306.99,-348.692,-28870.5
1.63243e+08,239.404,2,2.71803,-12621,-18235.8,16482.5
1.63584e+08,77.3272,1,2.51689,-7271.95,-11748.8,-20180.9
1.63974e+08,3.8128,1,2.52268,-537.56,-375.791,-28331.5
1.63992e+08,13.204,1,2.61604,-1657.88,2150.22,-29813.8
1.64026e+08,75.5887,2,2.95751,-15051.9,-5162.23,-29970.1
1.64042e+08,51.1002,1,2.88308,5711.29,7913.74,-24271.2
1.64093e+08,16.1065,1,2.923,45.5068,1844.68,-25926.7
1.64541e+08,23.359,1,2.65135,2747.36,-212.153,-24745.1
1.64567e+08,140.689,2,2.87251,8693.23,-18865.9,-7736.24
1.64603e+08,25.551,0,2.77405,1934.45,-4543.83,-26598.7
1.64903e+08,26.3145,0,2.97868,-1084.61,5109.26,-27095.4
1.65103e+08,246.67,2,2.88414,1298.69,887.292,-29748.7
1.6521e+08,4.6375,2,2.64605,264.161,-1011.72,-28808.9
1.65401e+08,160.139,2,2.58776,11536.7,-11273.1,897.272
1.65896e+08,86.6885,1,2.57124,8977.91,-11877.7,-18251.2
1.66117e+08,140.183,2,2.66292,-19888.4,-17816.4,-15993.3
1.66139e+08,142.297,2,2.6813,-11053.8,581.595,-10531.3
1.6666e+08,145.49,2,2.41584,-10353.3,-23173.9,-11272.8
1.66676e+08,116.317,1,2.59941,-13352.1,8372.03,-9930.51
1.669e+08,83.8442,1,3.02895,-2173.74,-10362.5,-14840
1.67137e+08,47.5744,0,2.70919,4522.63,-7611.42,-24000.7
1.67151e+08,17.5997,0,3.017,1404.58,2035.06,-26029.2
1.67177e+08,53.7594,2,3.01642,-6833.47,8887.37,-27803.2
1.67502e+08,160.816,0,2.56059,-11106,11737.5,1033.14
1.67607e+08,79.2534,1,2.55825,591.501,16684.6,-26601.5
1.67826e+08,24.4774,0,2.42664,4540.59,108.338,-26198.8
1.6785e+08,19.2226,1,2.87207,-2193.96,3500.02,-29094.7
1.68472e+08,141.78,0,2.65395,8691.92,16297.6,-5268.24
1.68814e+08,21.4092,0,2.39912,-1875.89,-2784.45,-25833.9
1.68845e+08,3.98112,1,2.41277,-898.133,78.9374,-28766.9
1.69158e+08,66.9576,0,2.66586,3117.85,2493.26,-18489.7
1.69243e+08,33.2775,0,2.53716,6349.39,-3219.17,-29305.1
1.69265e+08,21.2562,1,2.89996,3180.79,2454.11,-26835.4
1.69558e+08,36.134,1,2.50647,7205.01,1792.77,-26986.1
1.70073e+08,45.3,1,2.61467,707.865,-3493.48,-20092.3
1.70321e+08,12.9927,0,2.96308,2593.55,-1104.61,-28489.2
1.70511e+08,69.182,1,2.37676,-9411.18,4630.18,-18566.8
1.70517e+08,43.0578,2,2.94638,8382.54,-635.747,-25559.5
1.7106e+08,46.1215,0,2.95353,5896.5,-7729.24,-29369.5
1.71183e+08,84.6759,2,2.66951,-14922,644.65,-18976.6
1.7152e+08,4.94532,0,2.95263,1128.54,-277.55,-28875.4
1.71562e+08,156.272,2,2.98415,-13803.9,-18803.6,-5725.12
1.7176e+08,52.1251,2,2.7118,4837.26,2227.53,-21071.5
1.71848e+08,45.4284,0,2.50878,1433.26,8137.92,-23855.1
1.71959e+08,111.221,2,2.81,22638.8,1089.24,-23146.6
1.72029e+08,68.3449,1,2.99951,-13563.9,4788.7,-28093
1.72086e+08,68.0343,1,3.04122,4674.27,13484,-27895.5
1.72217e+08,92.8906,2,2.73763,1408.08,-11308.8,-12909.1
1.72731e+08,14.6238,1,2.98747,-3108.37,89.2528,-28719.3
1.72771e+08,48.4813,2,2.38901,5326.6,-4058.32,-21024
1.7285e+08,123.11,0,2.81069,9618.5,-16000.9,-10839.2
1.73163e+08,128.847,2,2.62757,-11792.5,24111.8,-24587.6
1.73368e+08,72.9548,2,2.74555,-4023.64,32.4523,-26135.8
1.73391e+08,88.0298,0,2.42229,-12593.1,8648.54,-18248.4
1.73569e+08,157.075,0,2.89414,9529.48,-15409.4,-1240.21
1.73896e+08,103.05,2,3.00828,-4650.25,-19100.8,-19714.3
1.73968e+08,39.7582,0,2.7095,6789.25,2429.63,-24412.9
1.74011e+08,77.3591,2,2.75416,11936.8,-7902.81,-21022.6
1.741e+08,20.8279,2,2.8868,-3458.96,-241.536,-26063.1
1.74894e+08,50.6825,2,2.90671,-4023.15,4112.02,-19897.4
1.75436e+08,18.3859,2,2.50946,1548.75,-2209.55,-26018
1.75467e+08,139.805,1,2.43931,11879.3,8680.89,-14211.5
1.75756e+08,142.636,1,2.62305,14675.9,18680,-10272.2
1.75777e+08,45.6094,1,2.52366,-5724.53,-902.623,-21083.9
1.75972e+08,85.9268,1,2.68742,-15828.2,8946.76,-27618.4
1.76209e+08,3.1203,1,3.05724,-167.263,722.428,-28716.2
0,3.21322,1,2.44012,0,0,0
1.76248e+08,134.121,1,2.95222,-1771.12,14432.8,-10649.9
1.76315e+08,13.7765,2,2.75854,1046.6,-1383.1,-26465.7
1.76393e+08,72.5126,1,2.62726,11258.5,9271.63,-24081.6
1.76489e+08,22.5486,1,2.78157,2547.53,-3533.22,-27094.4
1.76894e+08,103.922,0,2.88064,-955.775,-11908.6,-10549.9
1.77382e+08,151.736,0,2.68484,-18490.7,-15163.6,-7647.76
1.77481e+08,74.8974,0,2.85494,-8128.6,-5140.85,-16431.9
1.77773e+08,24.4589,1,2.45947,2400.67,-315.647,-24300.1
1.77946e+08,111.399,0,2.83122,-16456.2,-5518.03,-13161
1.77959e+08,74.4364,2,2.72794,8512.93,-11142.8,-21714.2
1.78056e+08,16.1476,0,2.66743,129.119,-3421.2,-28617.7
1.78355e+08,3.34043,1,2.93389,-536.376,587.783,-28990.7
1.78523e+08,29.1388,1,2.98235,535.117,4855.47,-25048.4
1.78857e+08,27.459,0,2.41477,2395.65,936.525,-23570.7
1.79115e+08,181.769,0,2.52351,28055.3,23580.9,-23173.7
1.79387e+08,97.5562,2,2.95053,-3700.53,14494.5,-14905.5
1.79455e+08,25.2335,1,2.72083,-1740.84,4872.93,-27217.9
1.79737e+08,47.7452,0,2.57068,-3609.13,-2941.68,-19910.1
1.79903e+08,9.65987,0,2.56578,1656.1,944.792,-29788.9
1.80017e+08,43.6922,0,2.45659,2150.8,4896.46,-21285.4
1.80019e+08,93.4618,2,2.71899,4215.67,-17215.2,-25378.2
1.80391e+08,32.7598,2,2.82814,-3121.64,-6057.21,-27212.5
1.80523e+08,111.568,0,2.62807,19386.5,-12604.1,-24043.1
1.80767e+08,24.3109,1,2.38077,1481.58,3641.82,-25413.5
1.80823e+08,28.4794,1,2.78526,-608.049,980.896,-26779.2
1.80886e+08,258.902,0,2.57106,-27457.9,24425,11637.6
1.81884e+08,84.8247,1,2.78591,-15734.3,-8266.49,-27214.6
1.82374e+08,14.2135,0,2.429,672.741,2787.71,-27797.7
1.82383e+08,54.002,1,2.54245,3164,6553.14,-19995.8
1.82412e+08,156.203,0,2.67063,5190.2,19324.8,-15954.9
1.82472e+08,95.1968,1,2.48232,-8751.72,14681.6,-18030.9
1.82647e+08,193.387,0,3.02661,19010.5,-27348.5,-5746.96
1.8276e+08,86.2533,2,2.81171,-7610.15,-10721.6,-22478.9
1.83019e+08,46.7227,1,3.02219,-2631.09,-9250.35,-27329.1
1.83037e+08,6.4967,2,2.93477,-313.37,-919.233,-27783
1.83237e+08,58.5635,1,2.79121,-6953.61,-1295.14,-18705.7
1.83347e+08,77.4055,0,2.77788,-6396.74,7952.79,-16149.9
1.8366e+08,144.9,2,2.96237,-18371,24186.3,-29600.8
1.83663e+08,6.45781,0,3.05558,636.895,-984.537,-28052.9
1.83699e+08,29.9377,2,2.47681,2222.39,-3538.41,-24037.9
1.83728e+08,15.5425,1,2.99176,1674.13,2690.33,-29816.9
1.84504e+08,163.276,1,2.77385,-14811.5,-7363.22,1292.34
1.84518e+08,62.0949,1,2.62288,-4899.89,11742.3,-25256.3
1.84532e+08,15.8473,0,2.49091,-724.489,2538.59,-26781.3
1.84584e+08,51.6388,1,2.70246,2399.95,6223.79,-20167
1.85092e+08,34.3895,1,2.51031,-2506.95,5960.93,-25345.3
1.85166e+08,0.788027,2,2.99644,-117.932,-195.93,-28709.6
0,0.791082,2,2.4043,0,0,0
0,0.790809,2,2.68528,0,0,0
1.85917e+08,51.4158,2,2.90907,4676.59,-2544.73,-25670.5
1.86046e+08,69.7961,1,2.63372,6233.41,10929.3,-21139.8
1.86173e+08,9.89684,0,2.5244,-287.51,-1933.9,-28028.4
1.86255e+08,119.531,1,2.52796,-4216.78,-12494.6,-7291.25
1.86497e+08,9.45823,2,2.44132,-405.738,995.711,-27153.8
1.86944e+08,158.362,1,2.49852,22354.4,2649.17,-4085.22
1.87028e+08,190.724,2,2.71008,3428.34,2050.36,1326.71
1.87361e+08,132.444,2,2.99983,-85.0639,-17224.1,-6992.62
1.87611e+08,2.12305,2,2.58721,-419.773,-121.998,-28578
1.878e+08,77.612,0,2.97304,8824.09,1592.48,-22498.6
1.8787e+08,5.24139,2,2.73867,-142.534,-537.995,-27826.8
1.87988e+08,125.611,0,2.80034,3979.2,-18974.2,-10829
1.88097e+08,50.9459,2,2.89819,-5737.36,-4876.47,-23523.4
1.88111e+08,17.209,1,2.63502,504.114,2331.86,-26039.5
1.88614e+08,12.6696,0,2.4383,2754.72,255.93,-29248.7
1.89091e+08,153.916,2,2.92968,13081.8,27782.8,-28786.4
1.89208e+08,69.348,1,2.75933,-9185.47,3740.36,-18051.2
1.89388e+08,40.0826,2,2.4138,-493.332,-6357.9,-29090.3
1.89522e+08,40.9541,2,2.81509,-1510.36,-8311.86,-26682.2
1.89643e+08,131.843,1,2.98913,27493.1,-1904.38,-27272.2
1.89657e+08,6.18107,1,2.43572,-1390.12,166.224,-28825.6
1.90352e+08,96.5441,1,2.82745,-9897.7,7696.56,-12807
1.90457e+08,10.9672,0,2.95708,1228.27,-892.555,-27039.7
1.90934e+08,82.9744,2,3.00815,-8115.8,-12435.2,-19714.7
1.90991e+08,199.273,1,2.67892,16547.2,27242.4,-1438.34
1.91014e+08,106.551,1,2.67681,-10986.5,-11644.1,-13063.5
1.91221e+08,7.5178,1,2.75099,-1010.29,71.4822,-27554.1
1.91431e+08,46.7978,1,2.72052,1801.82,5862.1,-21040.5
1.91658e+08,34.0861,1,2.74066,-3735.5,-2144.67,-23077.7
1.91721e+08,0.243458,2,3.60534,-106.889,-125.509,-28853.9
1.9233e+08,230.089,0,2.53629,-2948.7,29830.1,9369.53
1.92472e+08,117.106,0,2.51198,9366.97,-22050.2,-22377
1.9272e+08,106.41,2,2.8503,-984.414,-16552.2,-13716.7
1.92911e+08,44.3286,1,2.48387,7510.16,-5066.42,-26677.5
1.93147e+08,72.7903,1,3.00253,-12638.5,7540.82,-24471.5
1.93154e+08,73.8879,0,2.9276,13096.4,-1411.81,-20482.2
1.93175e+08,43.6478,0,2.64631,7543.84,2540.45,-24018.5
1.93584e+08,95.9271,1,2.96637,-5280.75,19466.4,-28210
1.93741e+08,76.3893,1,2.7345,-97.4707,15178,-23230.9
1.93776e+08,95.1803,2,2.5279,-10863.2,-476.437,-11861.6
1.94203e+08,6.66702,1,2.43156,1099.15,378.091,-28033.8
1.94256e+08,5.3269,0,2.40772,712.722,503.725,-28020.3
1.94352e+08,11.4924,2,2.57437,-781.169,-969.323,-26699
1.9447e+08,145.8,1,2.53384,21272.4,5057.46,-7176.85
1.94952e+08,136.015,2,2.62974,-1579.86,16726.1,-5732.81
1.95118e+08,186.314,0,2.85323,-29378.7,-20145.2,-12670.5
1.95481e+08,84.4973,1,2.38025,-4766.77,12565,-16937.4
1.95858e+08,6.96438,1,2.41095,-1021,651.842,-27885.5
1.95888e+08,11.1067,0,2.67112,1817.8,8.14115,-27227.6
1.95892e+08,149.207,1,3.03195,11197.8,-20363.5,-7998.61
1.96045e+08,160.55,2,2.43793,-19649.4,-18093.9,-7786.47
1.96327e+08,23.3689,0,3.01311,3444.78,-2282.6,-26093.3
1.96511e+08,79.9552,2,3.02834,1827.62,-15681.6,-23040.5
1.96523e+08,73.8885,2,2.68355,2304.57,-10512.7,-17495.3
1.96678e+08,114.288,1,2.44794,11980,-9699.85,-10272.2
1.96686e+08,35.8274,2,2.99683,4108.72,978.87,-22664.7
1.97324e+08,116.33,2,2.62905,-3717.12,-24306.7,-27408.2
1.97476e+08,276.388,0,3.02892,-5535.96,-29112.5,20892.8
1.97752e+08,102.931,2,2.86966,7606.33,-11007.5,-11817.2
1.98256e+08,189.689,2,3.03299,-17627.5,-16377.5,981.545
1.98827e+08,44.3312,0,2.89908,8398.91,2574.83,-25473.2
1.99345e+08,46.2557,1,2.89913,1763.56,8867.62,-25281
1.99366e+08,97.23,0,2.61371,2141.45,18415.1,-19934.4
1.99458e+08,11.8503,2,2.63822,139.13,-2604.28,-28984.6
1.99698e+08,161.7,2,2.96686,15214.9,-16374.1,-3298.01
1.99888e+08,77.6628,2,2.50013,2544.32,-10294,-16253.4
2.00008e+08,30.2708,1,2.79853,2308.7,-3585.53,-24176.2
2.00061e+08,177.602,2,2.65786,22587.5,24491.3,-11810.8
2.0021e+08,89.19,0,2.5026,14810.4,9973.25,-22612.5
2.00337e+08,29.3118,2,2.98631,-6213.25,-30.268,-28926.7
2.0038e+08,79.9278,1,2.62861,-12155.7,-9073.16,-21455.3
2.00856e+08,11.5578,0,3.01256,-1376.94,-1451.99,-27522.3
2.01044e+08,7.79274,0,3.04166,270.056,-992.996,-27515.8
2.01783e+08,200.13,1,2.86114,-21401.9,-5060.69,7025.17
2.01805e+08,51.7484,2,2.95108,-4420.17,-8774.35,-26259.8
2.01988e+08,74.491,1,2.44389,-1620.83,12560.1,-19322.8
2.02013e+08,32.6451,2,2.62859,1574.29,-4883.07,-24141.5
2.02303e+08,117.426,0,2.38421,-12663.7,-10345.4,-10189.6
2.02635e+08,24.2921,2,2.97405,-2634.96,-2381.49,-25079.1
2.02875e+08,38.2786,2,2.8964,-2456.2,-7335.99,-26400
2.03222e+08,34.9081,0,2.37031,5303.43,1575.6,-23823.6
2.03579e+08,97.8612,1,2.47626,-8853.75,12417.2,-14755.1
2.03628e+08,2.5528,1,2.48833,-540.537,330.678,-28737.8
0,2.56528,1,2.77581,0,0,0
2.04507e+08,4.20959,2,3.0003,-166.695,-356.563,-27992.9
2.04641e+08,91.687,1,2.45068,-9498.31,15579.8,-22018.4
2.04881e+08,7.53244,2,2.44712,373.281,-1482.14,-28222.3
2.04908e+08,49.4759,2,2.54956,-832.831,6547.79,-20770.6
2.05134e+08,82.0883,2,2.75043,-13647.5,8535.55,-22445.9
2.05297e+08,94.691,2,2.91326,-907.408,-10838.9,-12137.9
2.05499e+08,41.3654,1,2.52428,-5239.76,-6985.68,-28337.2
2.05849e+08,98.813,1,2.52561,-9810.18,18461.7,-26886.5
2.05916e+08,19.4766,1,2.65468,-1337.16,-2359.89,-25743.6
2.05977e+08,105.286,1,2.56273,-19321.9,10026.8,-23800.9
2.06239e+08,73.2334,1,2.88954,-754.241,14261.3,-22962.8
2.06734e+08,52.486,0,2.74306,227.6,-4916.39,-18909.2
2.06774e+08,19.3314,1,2.72595,173.686,1798.18,-25143.3
2.07158e+08,38.1371,2,2.71982,-2991.57,5046.68,-23388
2.07283e+08,221.017,1,2.65734,22188.3,4822.01,11885.2
2.07683e+08,22.6595,2,2.98257,2015.91,-4127.5,-27348.5
2.07953e+08,19.1465,2,2.46415,2804.86,-2876.54,-29641.4
2.07956e+08,16.4586,1,2.38498,1480.41,2448.58,-26751.6
2.0797e+08,174.446,2,2.50137,16404.5,-21624.1,-3802.7
2.08531e+08,116.424,0,2.47799,2881,14367,-9020.47
2.08561e+08,68.5429,0,2.74076,-6606.16,-8855.27,-19560.9
2.08737e+08,171.948,2,2.8437,4507.28,24706.5,-2926.75
2.08928e+08,39.6836,0,2.49104,6737.99,1206.32,-23868.1
2.08984e+08,41.5073,0,2.65912,366.356,7506.2,-24311.7
2.09282e+08,36.8596,0,2.55814,145.135,7272.42,-26019.1
2.09507e+08,113.291,0,2.61638,21871.1,5295.72,-20511.4
2.0974e+08,153.766,0,2.53189,24139.4,-5213.39,-7597.03
2.10248e+08,3.60433,1,2.94924,-551.43,544.628,-29210.9
2.10339e+08,39.8917,2,2.93574,-6240.47,3425,-24380.4
2.10345e+08,69.9474,1,2.65736,9390.74,1532.04,-17548.7
2.10743e+08,27.4705,2,2.66005,3474.3,255.919,-24215.3
2.10858e+08,34.5515,0,2.55823,5035.69,2085.72,-23867.2
2.11156e+08,63.8199,2,2.52498,9181.78,-7489.7,-22312.6
2.11274e+08,21.8068,1,2.55459,1551.97,-3687.99,-26635
2.114e+08,86.1007,2,2.48982,2288.87,-15900.3,-20109.6
2.12061e+08,58.6758,0,2.88885,6381.27,1594.09,-18372.7
2.12762e+08,63.2785,2,2.6329,-8971.17,-3891.75,-19645.2
2.13118e+08,31.352,2,2.43271,-5478.27,3544.89,-27495.7
2.13428e+08,34.3509,0,2.44432,6358.04,3726.82,-28835.9
2.13523e+08,102.378,2,2.69482,-1629.16,16040.4,-14522.5
2.13827e+08,145.975,0,2.62997,-12992.8,24915.6,-16243.5
2.13903e+08,89.522,2,2.60459,-3428.96,-18312.3,-25118.3
2.14529e+08,3.12797,2,2.76303,-744.469,-78.6699,-28876.5
2.14688e+08,140.062,1,2.58843,-7179.78,-20461.8,-8734.11
2.15001e+08,36.6512,0,2.43593,-3838.96,5375.03,-24789.8
2.15509e+08,222.49,0,2.58725,20724.9,2329.28,-17909.6
2.15631e+08,62.0669,1,2.49007,-7839.54,-6577.76,-20597.7
2.15894e+08,56.8664,2,2.6258,-9862.64,-6991.33,-28020
2.16093e+08,160.859,1,2.94544,24942.8,-12733,-10522.1
2.16122e+08,108.89,0,2.81032,-1066.86,-13949.4,-10686.5
2.16244e+08,109.853,1,2.63812,-1728.25,16636.3,-12690.2
2.16348e+08,23.421,2,3.00849,-248.972,4645.32,-27359.9
2.16464e+08,2.34856,1,2.50133,78.462,483.502,-28526.3
2.1647e+08,71.2959,0,2.48957,11538.6,-7703.45,-22717.3
2.16722e+08,19.0459,1,2.42534,-3954.23,-863.52,-28434.4
2.16949e+08,24.7623,0,3.03481,2439.09,-2698.91,-25051.9
2.17503e+08,1.63212,1,2.97417,-88.788,383.851,-28638.8
2.17559e+08,14.5855,0,2.88089,3014.08,-587.982,-29022
2.17784e+08,301.818,2,2.62615,22631.8,-19781.1,27207.3
2.18161e+08,81.5492,0,2.80775,13952.6,-9963.09,-27048.7
2.18188e+08,71.1194,1,3.02215,-9613.65,-6788.17,-19679.4
2.18265e+08,120.798,0,2.75159,-7115.05,23248.7,-21382.3
2.18356e+08,55.7893,2,2.87428,-11519.7,836.321,-26451.6
2.18733e+08,8.46969,0,2.79556,16.8996,1242.35,-27569.6
2.1881e+08,151.332,1,2.99314,-16363.8,22973.4,-17997.3
2.18866e+08,29.6576,2,2.50224,2521.49,-5645.84,-27389.6
2.18912e+08,63.2642,2,2.94652,1358.24,10889.2,-21491.7
2.1919e+08,130.024,2,2.63767,19875.6,-5135.25,-17514.7
2.19405e+08,147.803,2,2.44291,2543.37,-25193.3,-10407.9
2.19797e+08,273.146,1,2.94218,-28710.6,-4350.44,-7425.16
2.19802e+08,113.435,1,2.94343,-20859.7,7869.92,-20262.9
2.19935e+08,87.0574,0,2.90083,18282.1,-1985.56,-28373.2
2.20188e+08,97.506,1,2.39217,16746.4,11084.2,-23968.8
2.20691e+08,239.711,1,2.8795,-15231.8,8727.94,-21001.7
2.21092e+08,64.6074,2,2.86976,-1397.66,-9457.2,-19106.3
2.21108e+08,24.2198,0,2.62117,3948.11,3252.98,-27903.8
2.21207e+08,13.0214,1,2.82044,-966.52,2656.03,-28593
2.21339e+08,100.235,1,2.38893,-13757,-9989.66,-16133.8
2.21453e+08,112.411,1,3.00787,-4711.77,-21579.7,-20736
2.21523e+08,30.984,2,2.62597,-3041.68,-1806.93,-23279.1
2.21671e+08,87.4789,1,3.00979,5144.91,13710.7,-17712.4
2.21698e+08,22.886,1,2.77979,3577.34,3066.8,-27619.4
2.21884e+08,9.98932,0,2.77121,-1526.76,-142.59,-27437
2.21915e+08,35.062,0,2.74043,4412.99,-5996.3,-28554.1
2.22229e+08,13.4249,1,2.81959,2661.41,322.19,-27945.2
2.2231e+08,25.6566,0,2.38662,2644.12,89.9791,-24035.3
2.22519e+08,24.9765,1,2.80894,157.877,4357.55,-25786.8
2.22533e+08,8.17814,0,2.60401,244.242,697.758,-27234.1
2.22601e+08,49.5965,2,2.95356,8033.81,-5722.08,-25391
2.23626e+08,64.7315,1,2.87613,-5761.66,-6936.31,-18682.9
2.23667e+08,61.6793,0,2.61735,5454.11,11858.9,-27962.8
2.23776e+08,14.2826,0,2.61509,2649.94,502.229,-27335.8
2.238e+08,18.7362,2,2.38828,145.014,-1879.51,-25321.1
2.24073e+08,120.774,1,2.89565,-10209.8,-12325.8,-9166.08
2.24252e+08,97.7404,2,2.68388,6405.39,-6501.3,-10347.4
2.24511e+08,15.314,1,2.53913,2025.66,92.3501,-26337.1
2.24621e+08,162.093,1,2.69915,12771.8,-26775.9,-12056.5
2.24909e+08,76.3797,1,2.66885,12595.6,10100,-29265.5
2.25146e+08,126.153,2,2.62604,-3600.86,-20454.8,-12056.6
2.25631e+08,5.95079,2,2.87034,1219.04,-95.3227,-28761.6
2.25767e+08,190.389,0,2.43189,-16101.4,28173.9,-5061.55
2.2619e+08,19.7843,2,2.8114,3446.24,830.77,-26676.7
2.26209e+08,56.5981,2,3.00823,755.307,-7479.91,-19577
2.26227e+08,112.809,2,2.7421,-1596.13,-10027.1,-26714.7
2.2664e+08,115.517,0,2.52552,4487.76,-22763.1,-21073
2.26683e+08,15.1398,2,2.7778,-1769.71,-1850.35,-26810.1
2.26714e+08,9.25419,0,2.37907,1156.71,1207.53,-27691.8
2.27145e+08,11.2487,1,2.59534,876.107,1922.59,-27614.6
2.27146e+08,157.808,2,2.48062,-19540.1,11775.1,-4454.45
2.27196e+08,71.7777,0,2.89896,10178.4,-537.997,-17642.4
2.2737e+08,5.95332,1,2.5973,417.823,251.64,-27660.1
2.27732e+08,111.533,1,2.82102,-4766.53,10053.8,-8128.89
2.27733e+08,119.854,2,3.05685,-18350.7,4325.94,-12217
2.27785e+08,4.96898,0,2.93419,679.046,589.806,-28216.2
2.27902e+08,36.9103,0,2.57311,-5375.25,-2961.77,-24069.7
2.27917e+08,13.3851,1,2.36384,-2370.85,-1299.56,-27910
2.28027e+08,74.2245,1,2.54245,1813,-11365.5,-18221
2.28247e+08,74.3098,1,3.00675,13824.7,-32.6008,-21742.4
2.28673e+08,79.4419,0,2.47737,9933.88,4438.2,-15977.3
2.28898e+08,19.1583,1,2.62167,-1528.69,2739.83,-26160.6
2.28969e+08,7.21487,2,2.419,-187.654,1014.36,-27733.4
2.29067e+08,260.351,0,2.93043,24420.3,-22170,14770.2
2.29423e+08,11.7972,0,2.43133,817.636,-1122.05,-26699.9
2.29443e+08,63.9389,0,2.54877,-11557.9,6570.77,-26700.6
2.29628e+08,31.6316,1,2.87568,4751.74,3094.82,-25314.4
2.29697e+08,149.226,2,2.52922,25517.1,-10359.5,-13923.6
2.29998e+08,100.297,2,2.6912,-4241.07,-6809.74,-27074
2.30073e+08,9.41408,1,2.85616,1560.45,1050.46,-29573.6
2.3009e+08,180.151,0,2.82838,27130.2,10992.6,-4728
2.30127e+08,28.2549,2,2.50565,5440.49,650.251,-26564.2
2.30201e+08,32.3509,0,2.85054,6329.69,25.5314,-26093.9
2.30202e+08,103.781,1,2.57834,19751.5,5730.86,-21229.2
2.30388e+08,18.1298,1,2.74062,2708.27,1203.75,-26383.2
2.30474e+08,75.0957,2,2.85586,8315.3,-11311.3,-21595.1
2.30507e+08,9.05761,0,2.96955,1664.52,833.175,-28210.4
2.30624e+08,2.73628,0,2.90574,504.52,-414.057,-29016.6
2.3084e+08,69.0533,2,2.72884,-12608.4,845.975,-21518
2.3087e+08,53.0392,2,2.9328,-4992.12,-6945.6,-21610
2.31124e+08,51.1055,1,2.78397,-5021.83,3076.99,-19763.3
2.31653e+08,13.6486,0,2.86679,900.126,-1443.21,-26478.7
2.31679e+08,165.914,2,2.53139,-14323.2,-5744.25,2698.42
2.32008e+08,24.3802,0,2.76017,-2580.52,-4381.99,-28360.3
2.32181e+08,9.57407,0,2.38954,780.042,216.509,-26982.7
2.32712e+08,40.3377,1,2.45935,-3298.93,7941.54,-29722.3
2.32945e+08,204.405,1,2.75516,24384.9,-17199.1,1559.28
2.33263e+08,16.204,0,2.68504,3210.07,-1133.35,-27924.6
2.33426e+08,92.5386,1,2.54548,1886.67,-16862.5,-19227
2.33842e+08,43.6305,1,2.84924,3362.84,6703.17,-23442.6
2.34184e+08,67.9364,1,2.67444,6223.61,-9855.39,-20574.5
2.34235e+08,0.668278,2,2.69087,-0.617798,-233.776,-28924.7
2.34541e+08,17.6558,0,2.41448,1265.22,3062.41,-27006.8
2.34753e+08,72.168,0,2.74477,6737.83,-3692.74,-15694.7
2.35288e+08,44.3207,1,2.65688,-4990.02,2847.01,-21385.1
2.35468e+08,17.1631,0,2.87221,2468.87,2345.96,-27471.6
2.35474e+08,129.557,2,2.56534,-3538.37,23151,-14761.9
2.35597e+08,68.2484,2,2.54902,4556.89,12848.1,-24264.6
2.35613e+08,47.2077,0,2.60656,4664.08,8312.38,-25787
2.35742e+08,12.6297,2,2.48396,-1443.88,-2208.11,-29752.6
2.35746e+08,10.5918,1,2.85931,879.994,1666.08,-27527
2.35931e+08,26.7147,2,2.51805,-1551.72,-3372.76,-24505.9
2.35983e+08,27.6537,1,2.60079,-2581.68,323.328,-23562.1
2.35994e+08,23.4829,1,2.74402,3448.1,2169.81,-25967.9
2.36405e+08,45.0075,2,3.05019,5319.06,4780.17,-22767.3
2.36516e+08,84.6657,0,2.91163,3316.23,-16656.5,-23452.3
2.369e+08,121.925,1,2.9811,21917.5,-7459.8,-18662
2.36907e+08,79.0527,2,2.40857,3627.87,-1772.52,-29198.7
2.37058e+08,47.7456,1,2.74242,6025.44,8085.26,-29475.5
2.37695e+08,115.493,2,2.6082,463.324,-23187.5,-21001.1
2.37883e+08,51.6784,2,3.0568,4147.26,-2339.8,-19102.1
2.3791e+08,101.04,0,3.04098,15152.4,13936.8,-23667.4
2.37929e+08,117.746,1,2.73796,-23166.9,3508.75,-20539.1
2.37937e+08,125.166,1,2.36314,-13681.5,-8816.35,-7933.79
2.37941e+08,65.517,1,2.68898,-11521.1,-6958.45,-25754.5
2.38267e+08,3.75724,0,2.63221,72.277,-237.475,-28097.6
2.38286e+08,9.83002,1,2.95232,-1896.71,-442.352,-28035.9
2.3861e+08,36.4432,1,2.54039,410.413,5022.55,-22949.6
2.38658e+08,11.81,0,2.41361,478.027,-2492.1,-28897.9
2.38683e+08,92.2987,1,3.05816,5398.14,7040.24,-11653.3
2.388e+08,112.588,2,2.96149,6786.81,-22611.7,-26955
2.38812e+08,7.80886,2,2.74258,-876.94,-1528.08,-29001.9
2.38895e+08,239.114,1,2.86999,-4975.95,3498.08,-26561.8
2.38906e+08,11.4741,0,2.52172,1894.53,304.021,-27239
0,11.4332,0,2.73502,0,0,0
2.39018e+08,51.6497,2,2.67038,-2701.16,-7358.27,-21202.7
2.39177e+08,9.10987,0,2.86246,197.355,1872.27,-28452.4
2.3947e+08,10.7075,2,2.73596,-2094.66,-1013.39,-28559.8
2.39638e+08,83.8727,0,2.89281,-7303.76,-7074.83,-14464.5
2.39677e+08,4.25508,1,2.54717,308.348,802.384,-28435.6
2.39887e+08,33.7934,2,2.65512,-4656.48,-845.289,-23431.4
2.4029e+08,94.268,1,2.4894,7793.54,3366.56,-10791.4
2.40464e+08,22.9063,0,2.64912,4701.03,17.6022,-27324.4
2.40751e+08,122.144,1,2.89356,-15796.8,-5264.33,-9298.73
2.40948e+08,7.05501,2,2.86915,866.856,-342.446,-27654.7
2.41029e+08,199.748,0,2.66096,13513.9,18707.7,6439
2.41199e+08,14.3416,0,2.44239,-354.561,2546.37,-27207.1
2.41335e+08,76.2503,0,2.58146,2000.58,8955.6,-15563.7
2.41685e+08,32.609,2,2.99014,291.247,-3358.2,-22825.6
2.4171e+08,44.4396,1,2.79248,-6886.03,-5876.86,-26445
2.41759e+08,26.1517,1,2.63951,-94.066,228.788,-28873.7
2.42067e+08,5.33767,1,2.98612,-917.875,-357.199,-28236.7
2.42398e+08,105.146,0,2.51777,-2253.07,14708.8,-12298.2
2.42489e+08,81.1668,0,2.56818,16580.9,3916.22,-26065.5
2.42502e+08,185.895,1,2.95018,685.82,7984.82,-22920.7
2.42591e+08,21.5984,0,3.0335,4432.86,-1328.38,-28710.6
2.43244e+08,22.1281,0,2.98526,-3581.12,-860.903,-26092.7
2.43459e+08,87.549,0,2.90973,11273.8,11781.5,-20216.1
2.43563e+08,5.29916,0,3.00646,237.543,1106.12,-28610.7
2.4413e+08,23.0065,0,3.04052,4160.3,-2395.95,-27733.1
2.44706e+08,92.1842,0,3.01681,-2694.88,2941.39,-21089.3
2.44797e+08,91.3455,1,2.86485,-7181.74,17914.4,-28404.1
2.45133e+08,116.427,2,2.78162,-20994.5,-1268.76,-16150.9
2.45343e+08,16.3453,0,2.97845,3384.14,867.98,-29444.5
2.45694e+08,73.0871,0,2.64928,13659.7,-5115.31,-23611.8
2.45727e+08,14.6127,2,2.43029,-1003.33,-1525.54,-26267.8
0,14.5856,2,2.43797,0,0,0
2.45912e+08,169.052,0,2.87682,-1832.63,29897,-9794.56
2.45939e+08,300.206,1,2.75237,28087.2,-15078.3,25456.5
2.46054e+08,32.4149,1,2.58582,-2780.03,3483.45,-23543.6
2.46296e+08,99.7186,2,2.79787,7550.81,-17411.2,-19922.7
2.46305e+08,3.26676,2,2.7575,-234.316,-735.29,-28753.2
0,3.20141,2,2.46851,0,0,0
2.47052e+08,42.9969,1,2.48591,971.464,6516.09,-22520.9
2.47133e+08,105.899,0,2.85672,9389.64,18729.1,-21150.7
2.47231e+08,1.07111,2,2.50249,-87.2345,10.1491,-28594.5
2.47285e+08,19.2635,1,2.95898,-2094.35,-294.411,-25375.5
2.47343e+08,20.6346,1,2.83079,-2414.2,-699.139,-25249
2.47623e+08,118.788,2,3.04026,-1937.04,-12170,-7176
2.47866e+08,22.447,1,2.52738,-2152.16,-4153.03,-28300.7
2.48189e+08,8.3534,1,2.87064,623.683,1706.33,-28517.2
2.48351e+08,109.917,1,2.8968,-7107.85,21717.3,-24902.7
2.48364e+08,196.647,0,2.65854,-27354.1,-20317,-5449.19
2.48419e+08,58.5273,2,2.85558,-4582.19,9372.33,-22351.4
2.48485e+08,49.1591,0,2.66883,-5973.82,7473.86,-24995.7
2.48558e+08,12.4521,2,2.80485,-2216,-1493.9,-28280.6
2.48937e+08,203.208,2,2.66745,28535.8,-28724.4,-14662.9
2.49025e+08,9.59656,0,3.04467,-755.105,1172.46,-27379.8
2.49347e+08,94.0551,0,2.96684,16898.8,3202.63,-19007.9
2.4936e+08,273.748,1,2.50227,-10773.7,707.137,-15457
2.49569e+08,31.9813,1,2.55587,-4407,2021.46,-24024.7
2.49644e+08,8.67544,0,2.9808,836.758,1265.72,-29965.2
