#class tools::wcsv::ntuple
#title time
#separator 44
#vector_separator 59
#column double eventID
#column double t(ns)
#column double copynumber
#column double energy(eV)
#column double x(mm)
#column double y(mm)
#column double z(mm)
112808,32.2268,1,2.98933,3314.29,1108.74,-23042.8
287755,41.8969,2,2.81588,-6253.9,5985.63,-27124.3
364782,52.3993,2,3.00782,1786.18,-5823.26,-19644.3
477021,99.3254,2,2.75046,-19584.9,-1172,-21394.8
509517,11.2639,0,2.57302,233.881,2338.42,-29433.6
853339,76.3218,1,2.45148,-1571.16,14820.5,-22387.4
946032,40.0149,2,2.40848,7391.15,-1874.74,-25198.9
1.23472e+06,67.0538,2,2.70177,-4833.48,-6144,-17014.2
1.74047e+06,106.811,1,3.02356,6757.42,-18445.5,-29918.3
1.74693e+06,100.855,0,2.80725,1316.36,20443.7,-23205.9
1.86138e+06,8.67617,0,3.03333,1765.48,-328.866,-28136.3
1.94577e+06,89.9076,2,2.6241,-9036.75,5345.54,-18729.6
1.96165e+06,109.783,1,2.6899,-22161.7,6806.71,-27604.5
2.22971e+06,47.8769,0,2.65056,7604.09,-1328.64,-22208.8
2.25106e+06,45.9916,0,2.70236,6252.73,-2561.89,-21789.1
2.9208e+06,81.6429,1,2.36337,8967.58,-6152.24,-15479.9
3.12275e+06,104.926,1,2.77786,-3812.96,14396.6,-24707.3
3.42703e+06,72.6981,1,2.99735,-10408.1,4566.77,-18607.9
3.54292e+06,45.3178,1,3.00428,6631.59,255.681,-22036
3.86003e+06,137.859,1,2.69043,-3032.61,10398.9,-1986.64
4.47176e+06,23.0009,1,2.6324,2374.02,4311.89,-28474.6
4.53721e+06,51.8661,1,2.47768,7195.41,3747.2,-21471.5
4.917e+06,122.399,1,2.58355,-23354.2,6517.48,-19624.8
5.22664e+06,197.553,2,2.86515,24823.3,-10790.1,2589.88
5.57656e+06,70.741,2,2.65286,-9141.53,-11515.5,-25688.8
5.83705e+06,139.393,0,2.85672,28535.8,-4461.12,-23376.3
6.162e+06,44.5786,1,2.78099,-8885.51,3127.94,-28007.4
6.28477e+06,125.388,0,2.94691,5289.77,-19851.5,-12397.4
6.61486e+06,6.17268,2,2.83252,896.059,-929.01,-28407.9
6.81539e+06,199.168,2,2.84316,2466.73,-10651.3,-20198.7
6.8295e+06,175.494,0,2.79825,18784.3,-13895.7,-176.653
7.11485e+06,24.7446,0,2.42692,2346.28,4259.58,-26719.1
7.2145e+06,266.536,1,2.95132,-916.605,-16303.5,-1603.46
7.25349e+06,18.6029,1,2.37357,-3409.18,-1547.77,-27537.4
7.71057e+06,99.2245,2,2.37169,11998.4,-6888.82,-13030.5
8.2481e+06,64.0923,1,2.57602,-11460.5,-6270.11,-25195.9
8.38313e+06,13.0533,1,2.54732,1496.39,279.802,-26514.5
8.44207e+06,68.9312,1,2.75039,1955.93,14204.5,-26069.3
8.90057e+06,96.7437,1,2.87261,-17847.8,-9746.94,-28594.8
9.02142e+06,12.8553,0,2.4062,146.593,1062.91,-27495.6
9.04252e+06,61.478,1,2.82081,-9430.38,-7157.97,-23586.7
9.12196e+06,54.5787,0,2.36837,5707.34,-1847.27,-18913.7
9.26235e+06,31.3807,0,2.74049,6252.77,-869.875,-26576.5
9.49705e+06,78.8866,2,2.68693,2608.82,10211.2,-15999.2
1.0068e+07,34.8547,1,2.7964,2718.04,6884.08,-28472.5
1.03224e+07,123.178,2,2.85674,-12513.4,-6649.45,-7140.87
1.0424e+07,2.76539,2,2.72871,256.702,174.987,-28401.3
1.04488e+07,2.94257,2,2.97337,302.983,-11.2039,-28290.8
1.04584e+07,65.4017,0,2.8948,12494.1,-4924.38,-25479.2
1.04675e+07,30.2116,2,2.42808,-1613.72,-5411.35,-25644.2
1.07567e+07,10.5268,2,2.49386,-2231.49,241.618,-28402.8
1.08675e+07,12.2027,0,2.80863,-1134.12,1210.21,-26903.2
0,12.0716,0,2.54532,0,0,0
1.08776e+07,131.42,0,2.50891,21225.8,-1933.86,-10915.7
1.10071e+07,6.11912,0,2.93999,691.419,298.134,-27734.2
1.12335e+07,11.3674,2,3.03715,-1752.51,1583.94,-28377.6
1.13911e+07,18.7881,2,2.63285,-1983.09,-1935.5,-25887.2
1.14241e+07,45.2105,0,3.04524,3761.49,-5620.22,-22177
1.15599e+07,78.87,2,2.89646,-175.329,-16305.3,-25612.3
1.15689e+07,107.737,1,2.86254,-1561.56,20359.8,-18879.9
1.16735e+07,77.3019,0,2.38676,14301.1,-7554.09,-25780.7
1.18286e+07,69.0753,2,2.48511,9306.4,-5578.03,-19023.2
1.19763e+07,81.5421,1,2.45231,2014.47,1755.47,-19284.7
1.23515e+07,118.574,1,2.87157,-13343.5,6856.54,-12407.4
1.25844e+07,46.8632,1,2.64145,-4180.44,3122.33,-20374.5
1.29082e+07,16.1674,2,2.52158,-2560.26,-1057.01,-26743.6
1.36751e+07,16.928,1,2.7485,2184.92,1524.48,-26420.6
1.37461e+07,168.09,0,2.99838,8558.91,24908.2,-21309.5
1.37847e+07,7.02069,2,2.74023,894.989,13.0305,-27673.3
0,6.6405,0,2.54047,0,0,0
0,6.67761,0,2.95422,0,0,0
0,6.66343,0,2.99056,0,0,0
1.38269e+07,3.5516,1,2.37232,-416.889,235.427,-28177.7
0,3.9011,0,2.72141,0,0,0
1.40402e+07,70.384,2,2.72932,3660.92,-8010.48,-16842
1.41171e+07,167.717,0,2.37613,-17065.6,3508.66,2057.78
1.43364e+07,35.1407,0,2.91948,-3837.58,-5266.63,-25443.2
1.51133e+07,97.7811,2,2.72184,-8055.01,-17855.1,-22174.4
1.52355e+07,43.9061,2,2.93859,-2446.93,7225.13,-23723.9
1.52467e+07,169.692,2,2.57424,20703.6,7226.81,-18555.2
1.5673e+07,80.4703,1,2.97071,12548.3,6474.18,-19612.8
1.63707e+07,6.66631,1,2.61085,523.199,499.857,-27586.8
1.64325e+07,15.5088,1,2.88853,-831.615,3066.45,-29960.6
1.67973e+07,53.5895,1,2.40649,8504.81,-6655.22,-25528.9
1.69587e+07,111.267,1,2.54607,22628.5,-4272.97,-24234.4
1.70783e+07,65.9948,2,2.82296,1181.05,-8976.02,-18235.3
1.76293e+07,118.105,0,3.01541,16229.2,5988.57,-11046.3
1.77076e+07,123.204,0,2.75658,-17096.8,-943.868,-9383.24
1.79428e+07,134.015,0,2.56951,-7496.97,-24671.8,-17140.2
1.79517e+07,89.1909,1,2.86936,-3761.25,10942.4,-14014.7
1.80741e+07,54.4204,1,2.68681,-8324.21,-6905.12,-24972.6
1.81834e+07,61.6257,0,2.47012,8181.44,-591.12,-18618.1
1.84805e+07,181.636,1,2.49913,5858.57,5976.8,-25465.1
1.84901e+07,33.6163,2,2.83237,-4640.61,271.022,-23449
1.86134e+07,81.8008,0,2.53288,633.616,-9202.59,-14177.8
1.86135e+07,120.845,1,3.04949,-19635.7,-10185.9,-16536
1.87932e+07,43.8566,2,2.90968,-359.19,4004.11,-29983.9
1.88425e+07,57.5123,0,2.44185,-440.109,-8386.54,-19995.9
1.89937e+07,46.9472,2,2.72883,-8369.62,5254.57,-29342.3
1.9325e+07,62.8545,0,2.89461,11031.3,2582.13,-21901.1
1.93648e+07,63.9144,1,2.97154,2393.62,8523.46,-18713.6
1.9446e+07,54.6429,2,2.60485,6704.09,-9062.14,-26235.8
1.94715e+07,135.126,1,2.53113,-21747.7,-476.401,-10264.2
1.96967e+07,129.079,1,3.02982,-18012.5,-9071.11,-12537.4
1.97713e+07,27.1999,2,3.04491,-1766.45,-5466.28,-29605.5
1.98091e+07,26.6643,1,2.5822,-748.715,2399.17,-23741.9
2.01214e+07,275.631,0,2.73036,-23384.4,24939.4,18049.9
2.02415e+07,146.873,1,2.67509,-21879.6,-5539.64,-7575.11
2.043e+07,79.0253,1,2.4448,-6010.15,829.463,-24206.9
2.04302e+07,8.17492,2,2.89204,1023.23,-1168.54,-27971.6
2.0682e+07,119.261,2,2.94196,19041.1,-13746.3,-20096.6
2.08499e+07,55.9209,1,2.83511,10821.8,187.875,-24306
2.0898e+07,17.9404,2,2.44743,-3822.53,-132.997,-28232
2.11208e+07,38.9952,0,2.58472,3837.57,-3764,-22523.3
2.11798e+07,8.85584,2,3.00567,545.257,-1323.13,-27593.9
2.11798e+07,138.186,0,2.75435,-8922.23,25391.3,-17817.1
2.11933e+07,36.4805,0,2.6892,-2270.52,-6893.78,-26349.9
2.12534e+07,138.25,0,2.69772,-1423.28,-12712.9,-2661.6
2.14018e+07,12.9761,1,2.6087,2124.84,-273.33,-27166.7
2.1784e+07,17.8392,1,2.61737,-1657.16,1718.97,-25837.9
2.21098e+07,74.0045,2,2.37494,-4061.56,-15211.2,-28087
2.21644e+07,24.958,0,2.40446,2059.74,2476.76,-24577.1
2.21768e+07,132.816,1,2.39555,-7980.86,-22882.4,-14664.7
2.24464e+07,36.5892,0,2.60866,3842.76,-4266.5,-23573
2.25677e+07,24.6513,1,2.83359,-550.705,3684.58,-25143.1
2.27062e+07,7.63259,1,2.54508,-122.693,529.981,-27279.2
2.28515e+07,144.765,0,2.48383,10917,13045.3,-3358
2.28948e+07,87.8473,2,3.03054,-9899.13,1779.43,-13381.4
2.28991e+07,49.5703,0,2.90494,1998.94,-8888.28,-23780.6
2.3178e+07,48.6944,2,2.58993,2560.82,5539.64,-20595
2.31988e+07,34.4195,0,2.60187,-2138.12,-3895.35,-23110.7
2.32005e+07,150.389,2,2.81981,24951.6,-9081.16,-21404.6
2.32845e+07,64.9119,2,2.81893,-9948.04,-6405.57,-21851.5
2.33157e+07,19.6533,0,2.82897,-730.046,-3917.89,-27696.1
2.34015e+07,101.21,0,2.72546,-9260.92,-10244.2,-12637.3
2.36283e+07,23.2093,1,2.64607,-863.407,4760.79,-27623.9
2.3647e+07,4.96944,0,2.98695,339.769,-723.115,-28095
2.37484e+07,95.3747,2,3.03672,-18274.1,7970.35,-27051.5
2.3848e+07,83.1548,2,2.37765,-2458.02,-5965.34,-19281.5
2.38588e+07,108.476,1,2.63376,1849.69,21396.4,-20650.3
2.4118e+07,85.923,0,3.01173,1019.06,5484.56,-26505.9
2.41264e+07,112.525,0,2.53877,11858,9898.9,-10680.3
2.49452e+07,141.227,0,2.43728,173.327,28678.2,-20368.7
2.53011e+07,68.6777,1,2.4847,-7949.22,-12058.6,-27575.1
2.57232e+07,130.717,0,2.89769,4310.01,-16997.1,-7706.65
2.61138e+07,129.417,1,2.56564,599.372,11565.8,-4026.2
2.62119e+07,32.5059,2,2.95427,-3535.19,-5206.92,-26008.5
2.62739e+07,92.9683,1,2.88401,-5707,13555.9,-15909.3
2.64053e+07,15.5799,1,2.62751,-1324.06,-285.431,-25805
2.65818e+07,176.331,2,2.74139,-18069.2,-17611.3,-6408.74
2.69181e+07,15.5098,2,2.94985,1071.05,2594.72,-27318.6
2.74699e+07,68.0505,2,2.72625,2794.12,-5583.94,-15889
2.75325e+07,0.415887,1,2.15105,82.2436,85.8833,-28797.8
2.75497e+07,42.8588,0,2.53439,-4649.99,-2718.46,-21620.3
2.76714e+07,69.1411,2,2.51055,8671.82,956.117,-21053.4
2.77377e+07,151.985,1,2.85869,27107.2,-205.571,-11957.7
2.77788e+07,67.1928,2,2.46875,3476.89,-13874.9,-28691.8
2.80172e+07,64.5984,0,2.7436,8767.54,-7696.21,-21734.7
2.82567e+07,116.971,2,2.84474,-24589.9,-1137.04,-27530.5
2.83617e+07,87.2718,1,2.86957,-11746.9,-13959.6,-27147.6
2.84753e+07,82.265,0,2.82565,9490.62,13000.1,-22305.2
2.84979e+07,24.3108,2,2.85304,2168.62,-4061.01,-26489.8
2.86255e+07,86.0956,0,2.75881,5066.5,-12694.1,-16853.7
2.86901e+07,109.506,1,2.63318,-16658.9,-802.166,-14218.8
2.88596e+07,29.3757,1,3.02681,-3132.31,3932.08,-25167.9
2.89726e+07,3.24371,1,2.70352,276.425,566.964,-28428
2.91599e+07,57.5991,2,2.8907,-8260.22,5793.48,-23762.4
2.93152e+07,128.503,0,2.42387,9316.21,-15272.4,-8311.16
2.93472e+07,30.908,2,2.54827,-5076.22,2269.75,-25373.8
2.94623e+07,56.0277,0,2.89879,4449.79,-10938.4,-29608.7
2.95216e+07,99.0361,1,2.61537,1397.42,-1236.72,-26836
2.96697e+07,264.129,1,2.70015,-10978.7,28761.1,7747.97
2.98236e+07,13.3445,1,2.91128,-1228.98,1300.48,-26607.7
2.9873e+07,285.337,2,2.50734,27317.1,4950.85,24684.4
3.02158e+07,123.532,1,3.05365,-7073.11,21267.5,-15742.9
3.02389e+07,38.2283,0,2.43878,6148.88,5384.54,-28967.3
3.03443e+07,103.344,2,2.49318,-14325.2,-16476.8,-26470.5
3.06163e+07,43.9276,1,2.96545,8848.26,-1834.06,-27154.9
3.08113e+07,70.7139,2,2.9282,14032.2,-3928.01,-25953.9
3.10356e+07,69.4723,0,2.90116,13705.9,1931.04,-23949.9
3.10555e+07,45.8302,2,2.41713,-6692.69,-4442.04,-23268.1
3.10964e+07,89.121,2,2.63638,-2892.02,-16080.9,-19336.9
3.13037e+07,4.35954,0,2.89684,835.301,-467.558,-28496
3.13223e+07,85.96,2,2.91294,-1539.24,10669.3,-14466.4
3.1488e+07,40.8474,1,2.57778,1243.78,-8083.1,-26224.9
3.16375e+07,112.582,1,2.53856,6839.05,20367,-18427.8
3.17927e+07,118.416,0,2.61799,13531.7,18315.4,-18428.3
3.2123e+07,18.9962,0,3.02783,535.549,-3508.88,-26943.1
3.21865e+07,116.693,2,2.61404,-7226.92,-17383.9,-12820.7
3.22481e+07,14.2387,0,3.05722,1989.86,1566.23,-27123.3
0,14.1722,0,2.9729,0,0,0
3.2335e+07,52.7039,1,2.94587,9399.06,4600.74,-25214.2
3.23603e+07,179.767,2,2.8805,13036.7,-16196.5,2721.03
3.25746e+07,42.5055,0,2.91686,3736.49,2216.34,-21000.3
3.26364e+07,7.58001,2,2.38679,1469.28,-678.017,-28933.3
3.28846e+07,18.1183,2,3.01418,-3543.43,-1574.08,-28883.6
3.30958e+07,21.1628,1,2.52851,-2198.63,3915.3,-29764.4
3.31111e+07,4.79463,0,2.43945,489.441,328.932,-27981.2
3.31456e+07,167.34,1,2.38788,-29730.2,-16502.2,-18869.5
3.32486e+07,107.609,0,2.73783,11357.3,-18112.5,-21130.3
3.3513e+07,2.92006,1,2.7148,143.033,585.919,-29194.4
3.37131e+07,62.4541,2,2.65866,-6479.82,3300.98,-17824.2
3.39834e+07,36.9118,0,2.39611,7846.72,-763.88,-28787.7
3.40423e+07,51.0442,1,2.68548,-2690.29,-225.508,-28175.9
3.40737e+07,9.48483,0,2.56905,-346.109,1346.32,-27422
3.40994e+07,116.611,2,2.85226,-11681.7,-14107.6,-14266.7
3.434e+07,42.5696,0,2.97556,-2272.64,5608.84,-22281.5
3.45532e+07,63.9766,0,2.67016,1733.48,-8545.26,-18518
3.46735e+07,49.6909,2,2.78787,-6410.08,-719.751,-20539.5
3.47812e+07,130.202,0,2.57611,3805.66,-16689.2,-7288.17
3.49438e+07,72.0761,0,2.8322,13715.5,-1698.59,-22450.2
3.51276e+07,182.858,0,2.6497,12963.2,-15391.8,4117.73
3.53714e+07,28.8887,1,2.40689,-4194.04,3835.99,-26361.4
3.54768e+07,26.1955,0,2.97467,3975.94,3812.62,-27991.9
3.5548e+07,63.1694,1,2.59122,8589.86,8810.62,-23582
3.57601e+07,199.002,2,2.62922,-22003.5,29768.6,-14786.9
3.57861e+07,144.184,2,2.74646,20234.8,-20371.8,-18916.6
3.59637e+07,35.3949,2,2.81408,5727.18,1372.59,-24315.3
3.61441e+07,88.0172,1,2.881,-14712,7102.09,-20013.5
3.68319e+07,11.6736,1,2.42914,-2114.46,-1068.5,-28000.2
3.75129e+07,28.7737,2,3.04267,-3839.71,-898.23,-24203.7
3.78893e+07,105.891,2,2.6258,15922.5,14337.4,-22672.7
3.79306e+07,63.9192,0,2.66881,8982.55,-6363.67,-20924.6
3.80863e+07,198.412,1,3.05188,-9355.85,20080.6,6356.31
3.84278e+07,51.4318,0,2.65557,-1806.07,-2709.49,-23074.5
3.85635e+07,169.432,2,2.76329,5757.35,-20511.5,-168.649
3.91766e+07,33.7931,1,3.00817,62.9568,4007.12,-22947.9
3.92797e+07,33.0157,0,2.62084,304.285,-6980.59,-28746.4
3.94663e+07,129.844,2,3.02807,5575.74,-9507.05,-15801.7
3.97481e+07,98.0924,0,2.77537,8088.71,-12764.9,-14718.7
4.06466e+07,67.043,0,2.68385,7304.83,12199,-28987.3
4.10462e+07,73.5273,2,2.40817,-6989.73,-9549.68,-18613.7
4.13448e+07,23.1545,2,2.61488,-225.735,-4896.18,-29693.3
4.16343e+07,75.5196,2,2.64173,-1541.17,-15246.7,-24148.7
4.16996e+07,7.38057,0,2.43877,342.492,396.606,-27333.6
0,7.40526,0,2.90442,0,0,0
4.1705e+07,153.127,0,2.70887,-14598.3,-11179.3,-2361.71
4.20799e+07,86.8119,2,3.06081,2618.19,-14315.4,-17850.7
4.21207e+07,45.1388,2,2.99211,-7254.68,1477.26,-27121.9
4.23867e+07,122.225,1,2.48536,16854.3,11685.2,-13069.8
4.24915e+07,80.1139,0,2.44026,15604.9,1111.64,-28819.9
4.26525e+07,43.741,2,2.78471,6178.56,5686.23,-25181.3
4.28837e+07,34.2659,0,2.77088,4746.91,-3376.2,-24473.9
4.29366e+07,23.7717,2,2.36582,931.153,3835.71,-25808
4.30143e+07,111.111,2,2.41473,-20607,-10808.8,-24854.5
4.33263e+07,28.0996,2,2.83531,3884.06,-4478.9,-29349.3
4.33615e+07,90.3301,2,2.85851,-7493.44,-15885.7,-21381.9
4.37038e+07,39.9148,1,2.51064,-7526.65,1455.61,-25161.7
4.39142e+07,50.5463,1,3.00439,6059.78,-6899.52,-23649
4.39412e+07,130.75,1,2.76929,-25313.9,10483.4,-25625.7
4.39699e+07,50.2306,1,3.00639,-3758.49,8388.97,-23517.8
4.39972e+07,3.1754,1,2.88316,-597.82,365.871,-28524
4.41922e+07,68.7238,1,2.70411,-12253.4,7205.12,-25560.9
4.45464e+07,6.89439,2,2.45076,-862.129,249.815,-27665.4
4.51262e+07,182.875,2,2.86463,12114.1,-216.573,-12680.2
4.51597e+07,24.0865,1,2.87439,-2349.52,4357.38,-27339.9
4.58981e+07,21.4262,2,2.7975,-958.751,2723.14,-25412.5
4.64306e+07,46.5816,1,2.49122,-4013.33,9119.58,-28700.7
4.64559e+07,46.2327,2,2.92833,-514.281,-2950.1,-24229.5
4.71256e+07,23.7771,2,2.80302,2498.01,-4403.32,-29223
4.71957e+07,18.2043,0,2.83149,761.613,2370.86,-25869.7
4.72812e+07,2.5212,2,2.64619,132.511,-314.283,-28405
0,2.46798,2,2.90168,0,0,0
4.7594e+07,76.1637,1,2.80398,-1002.06,9645.36,-16001.3
4.77221e+07,128.225,1,2.47624,3760.61,-16679.4,-14006.7
4.77875e+07,107.307,1,2.77709,15376.9,11177.8,-16640.3
4.79415e+07,26.2487,0,3.00442,3665.61,3718.05,-26855.9
4.82724e+07,132.963,0,2.68263,1690.8,20133.3,-9378.99
4.88956e+07,66.8808,2,2.87702,1212.17,10558.1,-19681.9
4.95547e+07,42.7745,1,2.70183,-458.112,-4356.44,-20966.9
4.9599e+07,61.0594,1,2.46351,11912.5,35.4979,-23920.1
5.0212e+07,10.1063,2,2.78943,687.506,897.242,-27055.5
5.07056e+07,123.767,2,2.70292,11223.8,-17354.3,-12835.7
5.0764e+07,98.3967,2,2.70209,-6896.66,-12099.9,-13380.9
5.09541e+07,89.9737,0,3.01626,17553.9,-5756.42,-24724.7
5.09748e+07,35.9917,0,2.58096,3943.65,955.424,-22327.6
5.0992e+07,72.9233,2,3.01694,7513.15,-4872.6,-16452.9
5.10057e+07,120.647,1,2.98786,-5294.03,20938.5,-15515.4
5.12082e+07,25.6005,2,2.5226,3143.62,-1282.3,-24595
5.14371e+07,93.3876,2,2.81366,10577.9,-2847.86,-12513.6
5.16358e+07,138.78,0,2.47449,29324.9,2231.49,-27598.6
5.16373e+07,197.702,1,2.69603,2201.87,18146.8,8655.72
5.16381e+07,104.11,0,2.75161,15465.8,11455,-25189.2
5.2063e+07,45.578,0,2.9738,1077.04,6995.56,-22381
5.27808e+07,63.4971,0,2.4414,12351.5,5477.03,-29535.3
5.28278e+07,209.843,0,2.77877,-6574.18,29699,3143.76
5.32857e+07,125.024,1,2.40072,-2511.81,-19915.3,-11655.4
5.3289e+07,108.745,0,2.52546,-16572.6,6781.27,-14484.7
5.33274e+07,3.3298,1,2.86374,491.492,337.406,-28398.8
5.37742e+07,24.8898,0,2.72497,806.501,-2450.33,-24246.5
5.38155e+07,25.5888,0,2.79399,2897.57,-1954.29,-24655.7
5.39558e+07,108.12,1,2.56299,1608.59,22871.5,-27974.3
5.41084e+07,161.94,1,2.6314,-25935.9,20667.7,-20317.3
5.45057e+07,126.965,2,2.69975,-5412.37,-25106.9,-20996.1
5.45826e+07,67.5832,1,2.52203,-7531.5,-6392.49,-18540.9
5.47963e+07,105.374,2,2.73075,16573.5,-14432.7,-25410.4
5.49209e+07,49.4847,2,3.0524,-2157.35,-7023.09,-21426.4
5.50825e+07,45.6156,0,2.75301,8552.03,3380.13,-25812.8
5.50871e+07,3.14169,1,2.40198,-629.33,-134.737,-29168.8
5.53122e+07,133.094,2,2.38334,21046.6,-18028.5,-23589.6
5.56337e+07,23.2358,2,2.86798,-2713.68,1257.27,-24939.3
5.58996e+07,20.2621,1,2.51387,-1708.81,-466.932,-24901.6
5.59623e+07,149.98,2,2.76332,-18097.6,-10775.6,-6309
5.60676e+07,87.3584,1,2.36661,2360.64,14352.5,-28326.5
5.61727e+07,25.0816,1,2.52462,-93.6316,5008.06,-26890.8
5.644e+07,151.004,0,2.96433,10499.6,19943.1,-12539.4
5.71113e+07,60.5879,0,2.82967,4244.8,11995.5,-27564.5
5.75417e+07,72.7235,1,2.74251,1174.03,-14091.9,-23107.6
5.75757e+07,37.8015,2,2.81926,3856.09,-763.526,-21922.8
5.79629e+07,110.96,2,2.62225,6461.61,-22552.4,-27620
5.79993e+07,194.147,1,2.95038,12652.8,-22403,2669.67
5.80911e+07,32.5517,1,3.03036,4162.95,-3460.88,-24738.2
5.8101e+07,49.7817,1,2.65241,8696.56,-5557.54,-27231.8
5.82963e+07,17.3079,1,2.63982,1234.32,2946.66,-26942.3
0,17.3629,1,2.85449,0,0,0
5.85995e+07,47.3484,0,2.84293,-2622.16,8701.55,-24808.6
5.88089e+07,35.9675,2,2.51056,2469.63,-4989.6,-23582.4
5.88588e+07,45.7289,1,2.76997,-2608.6,-4380.47,-20676.2
5.88983e+07,146.912,0,2.86036,-1499.46,18421,-4125.63
5.90556e+07,34.4664,2,2.66069,-364.784,7173.52,-28117.8
5.91482e+07,17.4262,2,2.73065,476.484,-2874.27,-26531.4
0,17.3739,0,2.56317,0,0,0
5.93377e+07,171.633,2,2.70713,-26966.7,-5473.01,-8644.46
5.94248e+07,26.3591,0,2.95329,2503.96,356.077,-23863.6
5.988e+07,87.6685,1,2.605,-6546,-16996.7,-26016.1
5.9883e+07,120.954,2,2.54412,-22080.4,-13045.9,-29536.1
5.9914e+07,208.939,1,2.95809,19682.5,5210.49,9937.56
6.01971e+07,16.3702,0,2.59661,2381.05,1808.44,-26942.3
6.0312e+07,67.8065,1,2.59167,-4130.48,10304.6,-19654.4
6.07108e+07,111.746,1,2.71994,4512.93,-13446.3,-10075.1
6.07724e+07,2.02399,2,2.98513,188.509,-240.039,-28489.8
0,1.99683,2,2.38461,0,0,0
6.09552e+07,71.7406,2,2.80738,8601.42,6800.43,-18516.6
6.13702e+07,34.3851,0,2.72446,3150.16,6568.87,-28151.7
6.15377e+07,12.3022,0,2.42295,-2167.75,1171.96,-28191.2
6.15745e+07,120.963,0,2.40188,12653.7,16175.9,-13455.5
6.16508e+07,10.2833,2,2.56112,-1472.88,261.309,-27225.4
6.1877e+07,111.79,0,2.69914,22675.1,4049.1,-23460.8
6.20863e+07,26.3327,2,2.86065,-4660.37,855.61,-25924
6.211e+07,7.13549,2,3.03581,1296.27,-794.238,-28921.9
6.24883e+07,282.268,0,2.70797,19036.3,-23365.1,22477.4
6.25169e+07,42.3164,2,2.39907,-4774.96,-516.865,-21219.4
6.25404e+07,7.88494,2,2.66438,-345.761,-1733.13,-28704.2
6.2952e+07,31.7808,1,2.90737,-4656.88,-1406.14,-24239.4
6.31726e+07,16.8511,2,2.72463,1928.01,-2855.46,-27784
6.33051e+07,35.7941,1,2.63753,-7332.98,1951.64,-28135.4
6.33903e+07,173.681,1,2.95593,-4996.24,19715.1,1450.88
6.35194e+07,94.0307,1,2.69214,-10276.7,3384.46,-26501.5
6.36081e+07,152.786,0,2.65559,7702.23,-11349.1,-17419.7
6.36779e+07,34.4653,1,2.92935,-1120.72,-193.386,-27815.4
6.38268e+07,153.092,0,2.75464,21372.5,4584.21,-5072.48
6.40267e+07,78.0801,2,2.85296,-1170.2,-14268.1,-20676.3
6.40438e+07,57.5435,2,2.718,10169.7,5345.91,-25158.8
6.40831e+07,68.3946,1,2.84963,3868.9,13650.4,-26301.5
6.4305e+07,81.6371,1,2.60138,947.409,-5853.8,-26939
6.47916e+07,14.6863,0,2.7998,2878.69,369.618,-27531.4
6.48411e+07,32.7688,2,2.76572,3968.31,-5629.4,-29948.3
6.48454e+07,12.9993,1,2.45561,-2229.29,1278.94,-27646.8
0,13.034,1,2.82656,0,0,0
6.50018e+07,17.9657,2,2.97895,602.001,2316.71,-25948.3
6.50598e+07,26.7854,1,2.69867,3478.99,453.018,-24436.9
6.51288e+07,26.7786,1,3.00561,-2613.55,4181.08,-25989.5
6.55453e+07,163.434,1,2.76769,24254.6,5158.32,-5032.76
6.5741e+07,84.2735,0,2.88555,14803.7,1333.92,-19059.5
6.57758e+07,114.985,0,2.7882,-2397.52,17226.2,-11988.7
6.59493e+07,55.4189,2,2.50424,-4137.71,-5753.85,-19440.2
6.61353e+07,117.99,0,2.45167,-11981.3,17689,-15967.9
6.62696e+07,49.6703,2,2.65057,-9977.43,3211.6,-28232.3
6.63794e+07,56.5338,1,2.98969,-9376.92,5306.65,-23677.6
6.66276e+07,213.109,0,2.39217,2088.2,-27857.1,6585.8
6.73209e+07,2.86404,1,2.6274,-642.243,-116.508,-28878.2
6.75815e+07,65.4771,0,2.63083,7304.89,-6125.88,-18747.7
6.76049e+07,24.2276,0,2.71558,5173.34,753.453,-28774.5
6.77498e+07,40.7733,0,2.90837,1770.34,3843.65,-21392.1
6.81464e+07,23.3189,1,2.57038,311.274,4712.75,-27112.9
6.85888e+07,35.3736,1,3.04852,-6938.89,1607.05,-26501.5
6.91086e+07,173.753,0,2.96035,-8724.88,12611.5,-14736.1
6.95497e+07,20.6071,0,2.51474,1132.05,2676.76,-25546.5
6.96583e+07,74.7499,2,2.56384,12775.6,-2389.82,-19839
6.96802e+07,141.666,0,2.55929,29636.3,-1507.84,-24254.7
7.01817e+07,180.717,0,2.77643,11247.3,24983.8,-2407.55
7.0706e+07,247.488,1,2.78928,-11923.4,-4217.42,-14279
7.08321e+07,45.5324,0,2.9107,377.328,-9549.01,-28003.7
7.09918e+07,15.3088,2,2.89625,-2019.39,-1624.03,-26806.8
7.12307e+07,94.0859,0,2.61997,5365.67,5206,-10390
7.1573e+07,83.6379,1,2.8152,6887.26,-8595.35,-15192.9
7.16453e+07,2.15511,2,2.66014,-527.107,-101.781,-28816.8
7.1706e+07,74.8047,1,2.74138,-1427.97,-14967.6,-24237.5
7.21491e+07,114.45,2,2.43705,-13320.6,12299.9,-12839.4
7.21625e+07,34.3844,1,3.00055,-5278.25,-4124.66,-26146.5
7.22842e+07,119.223,1,2.73042,-15982.3,-18854.3,-24462.7
7.24975e+07,60.8199,2,2.92726,-10763.5,4393.66,-23463.1
7.25944e+07,138.254,1,2.5227,18108.7,9996.4,-8182.08
7.26958e+07,60.9826,0,3.01213,1914.25,-6395.1,-17909.2
7.28671e+07,10.7086,0,2.42526,-262.774,1888.45,-27560
7.28907e+07,109.099,0,2.74813,8583.9,1883.73,-7582.01
7.35172e+07,82.0542,0,2.94137,15129.1,-186.559,-20444.1
7.38459e+07,106.757,1,2.97949,-7091.93,17805.5,-17150.6
7.39009e+07,9.33365,2,2.85683,577.444,-1941.96,-28494.6
7.39412e+07,14.7082,2,2.39386,-1110.27,-2539.4,-27234
0,14.7617,2,2.84634,0,0,0
7.40348e+07,82.3982,0,2.59235,1380.15,10123.9,-14709.3
7.43568e+07,111.927,1,2.40219,-8154.5,2223.74,-6685.84
7.45192e+07,120.561,1,2.74217,173.828,25298.2,-25807.6
7.46752e+07,78.2314,2,2.70109,-7687.35,-14687.5,-29351.4
7.47481e+07,70.6107,1,2.49299,-11049.9,10181.9,-29527.8
7.47946e+07,79.162,0,2.46577,11434.4,9308.9,-20777
7.4913e+07,11.6728,1,2.90616,-1297.82,-791.77,-26918.8
7.50159e+07,144.895,2,2.66876,-24131.5,17315.2,-21684.2
7.52374e+07,310.956,1,2.44022,-17415.4,26527.7,28809
7.55186e+07,15.338,0,2.668,2180.4,-367.751,-26404.1
7.58565e+07,20.0701,2,3.02278,3720.81,41.1534,-26904.2
7.62467e+07,56.3043,1,2.37916,-6724.86,3300.06,-21193.6
7.66411e+07,139.451,1,2.90647,-9903.31,9672.08,-2997.98
7.68953e+07,114.054,2,2.82284,5211.77,-12051.8,-8741.3
7.70692e+07,4.51621,2,2.74548,151.912,-1021.59,-28648.2
7.75409e+07,4.44599,1,2.48175,52.4386,719.87,-29539.6
7.75411e+07,166.31,0,2.78765,26677.1,22764.7,-29079.3
7.78115e+07,51.3059,0,2.78971,3173.01,8025.27,-22266.8
7.79252e+07,0.00593921,0,3.17436,107.736,-34.9797,-28843.2
0,0.0046644,0,2.68808,0,0,0
0,0.00645448,0,3.8407,0,0,0
0,0.0254466,0,2.11281,0,0,0
0,0.0203951,0,2.32346,0,0,0
0,0.00588956,0,2.76908,0,0,0
0,0.0966093,0,2.14027,0,0,0
0,0.00543907,0,3.38115,0,0,0
0,0.012718,0,2.14603,0,0,0
0,0.03394,0,3.85326,0,0,0
0,0.0839563,0,3.85326,0,0,0
0,0.00824282,0,3.26603,0,0,0
0,0.0206113,0,2.722,0,0,0
0,0.0368911,0,3.68998,0,0,0
0,0.00611917,0,4.04138,0,0,0
0,0.0165245,0,2.37586,0,0,0
0,0.00796399,0,3.51654,0,0,0
0,0.0161507,0,3.38754,0,0,0
0,0.141154,0,3.27191,0,0,0
0,0.00589558,0,3.55957,0,0,0
0,0.00585663,0,2.29787,0,0,0
0,0.0100057,0,4.0129,0,0,0
0,0.00641363,0,2.52965,0,0,0
0,0.0049462,0,2.80395,0,0,0
0,0.00580253,0,3.91137,0,0,0
0,0.00581085,0,2.29904,0,0,0
0,0.0172216,0,2.9184,0,0,0
0,0.00738435,0,2.46473,0,0,0
0,0.00402255,0,2.30464,0,0,0
0,0.00782632,0,2.60232,0,0,0
0,0.021051,0,2.80963,0,0,0
0,0.00780812,0,3.88762,0,0,0
0,0.00763351,0,2.37707,0,0,0
0,0.0809032,0,3.56991,0,0,0
0,0.00709613,0,3.29606,0,0,0
7.83476e+07,15.1253,2,2.58913,-2892.3,-1481.91,-29374.6
7.84132e+07,62.1993,0,2.51814,-4501.86,-4789.78,-17447.6
7.88675e+07,61.3401,2,2.4081,-7093.52,-4717.03,-28077.7
7.90915e+07,109.027,1,2.46298,17883.4,-5107.43,-15255.3
7.91391e+07,35.0521,0,2.61099,2386.24,-2171.04,-22124.2
7.92357e+07,84.8737,1,2.58359,-10785.1,13257.5,-23186.5
7.92943e+07,64.4193,0,2.95949,10274.9,-6989.11,-23332.3
7.93399e+07,59.5023,2,2.92626,8188.7,-9408.17,-29654.6
7.93764e+07,99.9487,1,2.88742,-12058.3,6609.13,-12929.8
7.97096e+07,83.4142,2,2.61593,692.538,-16798.1,-23298
8.01501e+07,90.2361,2,3.02067,-6457.07,6594.48,-12349.8
8.02094e+07,238.642,2,2.89514,5318.74,22088.3,180.773
8.04449e+07,69.1268,0,2.90039,-9063.65,-5997.46,-19297.1
8.08816e+07,139.128,1,2.8448,11501.6,5810.42,-2570.04
8.11832e+07,58.208,2,2.7263,4608.65,-9243.21,-22098.9
8.14226e+07,124.714,1,2.69862,958.755,17434.1,-9152.77
8.1506e+07,1.92266,1,3.02696,-55.489,129.575,-28410.2
0,1.99451,1,2.60282,0,0,0
0,1.94891,1,2.52296,0,0,0
8.16793e+07,91.028,1,2.78282,-15589.7,9165,-22227.6
8.1764e+07,44.5692,0,2.89881,8441.29,927.669,-24684.2
8.20535e+07,6.65399,0,2.69604,249.342,-416.632,-27502
8.21685e+07,116.351,2,2.98144,-8187.33,6054.28,-6652.24
8.2257e+07,78.4588,2,2.52119,-13565.5,-3711.2,-19914.6
8.22673e+07,59.2201,1,2.76805,-9947.46,6952.97,-25666.5
8.24141e+07,33.7488,1,2.5018,4540.29,-3552.22,-24744.4
8.2704e+07,105.98,0,2.96843,17706.3,-1919.56,-15393.9
8.27254e+07,32.6947,0,2.70965,5063.37,-1736.63,-24396.1
8.30287e+07,70.1343,1,2.91128,-11679,-8031.86,-24816.2
8.30875e+07,83.5773,1,2.38425,4450.09,1069.06,-14024.5
8.33939e+07,192.898,0,2.83119,-29261.7,19664.9,-8933.89
8.37935e+07,32.9447,2,2.51546,-1738.9,2884.49,-22835.5
8.41428e+07,114.574,0,2.44419,21514,2275.15,-17703.3
8.42727e+07,11.6201,0,2.38161,2181.32,883.863,-27850
0,11.6445,0,2.76145,0,0,0
8.43954e+07,55.5001,1,2.64157,-5708.14,7899.94,-22195.2
8.44703e+07,77.1183,1,2.69688,-14684.1,1159.99,-21789.6
8.47648e+07,29.9075,2,2.78625,-1396.03,-3087.26,-23454.1
8.49958e+07,71.3156,0,2.55675,7448.79,-28.1579,-15668.7
8.51021e+07,8.86744,1,2.91319,290.479,-1659.87,-28202.1
8.52989e+07,133.112,2,2.92515,20494,-15365.1,-17604
8.54679e+07,1.46529,1,2.60017,39.9601,65.9372,-28519.9
8.55692e+07,33.8796,2,2.86482,-2075.42,-6749.76,-27309.1
8.58057e+07,101.499,1,2.5058,-20783.4,436.991,-23221.1
8.59212e+07,19.0784,1,2.49998,-852.608,4039.61,-29038
8.62479e+07,22.7948,2,2.96197,1912.71,-4239.44,-27490.3
8.6267e+07,108.61,1,2.97634,-13990.9,1522.65,-10873.8
8.64123e+07,48.6734,2,2.77951,-6336.35,-5321.26,-22656.7
8.64798e+07,134.338,1,2.79263,4856.85,-1466.91,-28733.8
8.73813e+07,17.3008,0,2.64926,-2597.43,1677.48,-26965.9
8.76465e+07,31.6861,1,2.6381,-1362.73,-4505.62,-24096.2
8.78055e+07,7.96578,0,2.8752,142.601,441.98,-27197.1
8.8258e+07,27.1952,1,2.37569,-2648.26,-1229.4,-23871.5
8.83566e+07,54.4595,0,2.50568,98.5479,10225.8,-23503
8.83931e+07,116.737,0,2.63045,-12736,19182.8,-25178.6
8.85525e+07,102.033,2,2.72127,-13825.7,-15501.6,-22906.3
8.89335e+07,62.0884,2,2.46632,-5861.83,-7573.09,-19731.8
8.90709e+07,119.486,2,3.01444,-12667.7,16987.8,-15540.3
8.92512e+07,18.5368,2,2.63743,-2900.09,-814.751,-26232.3
8.93153e+07,83.7852,2,2.97319,-13523.2,7752.21,-20680.4
8.95872e+07,21.8899,1,2.37179,-1934.65,4194.45,-29939.6
9.0279e+07,116.611,1,2.56054,-19396.6,12573.7,-20110.8
9.07732e+07,151.5,1,2.67897,-15166.6,9961.12,-2480.53
9.09531e+07,23.9334,0,2.81445,516.177,2691.05,-24574.6
9.1113e+07,2.66269,1,2.87931,-195.335,61.1674,-28290.9
9.12328e+07,17.812,1,2.48067,79.0333,3812.55,-29535.6
9.13123e+07,24.5845,1,2.87504,989.4,2478.11,-24354
9.1319e+07,131.822,2,2.9112,16313.3,-2374.37,-6602.73
9.13202e+07,161.165,1,2.76898,22581.9,23677.1,-27592.1
9.14018e+07,23.5265,0,2.59748,3638.66,3434.27,-28065.2
9.15095e+07,37.4605,1,2.89566,1470.87,7756.37,-29680.4
9.16151e+07,40.6171,0,3.02257,3008.98,-1204.95,-20943.4
9.16406e+07,51.139,2,2.77228,3188.32,-7139.19,-21349.5
9.16605e+07,3.47918,2,2.73948,-711.6,-140.065,-28527.2
9.18506e+07,23.8249,0,2.65372,2231.2,-1831.1,-24646.5
9.24158e+07,12.1605,2,2.6026,-897.513,-1778.39,-27076
9.25037e+07,60.0166,1,2.90829,-9874.22,162.015,-20969.4
9.26142e+07,41.6845,1,2.47602,317.31,4274.12,-21074.9
9.27402e+07,46.5897,0,3.02368,1828.27,7079.36,-22371.6
9.27861e+07,120.695,1,3.00947,-15206.9,18732,-21743.9
9.28344e+07,163.324,0,2.63197,27609.7,-9369.36,-10315.5
9.29224e+07,33.8668,2,2.56061,5766.58,-1515.07,-24883.7
9.29978e+07,84.686,1,2.98114,-16499.7,6774.45,-29656.2
9.31422e+07,101.408,2,2.41348,-4308.71,-8310.76,-9485.68
9.33437e+07,147.767,1,2.81818,-11922,16424.1,-5248.1
9.3488e+07,8.24092,2,2.88865,-394.691,1522.43,-28154.3
9.35187e+07,22.5792,0,2.8898,928.46,1541.73,-29188.8
9.38303e+07,61.2367,1,2.93539,-2035.88,4898.35,-21813.6
9.41234e+07,71.4398,0,2.45843,10482,-1396.63,-17951.5
9.42104e+07,161.929,1,2.83316,3251.96,28111,-9825.77
9.44478e+07,21.815,0,2.7596,1527.8,2899.27,-25593.5
9.46907e+07,23.9504,0,2.77759,-1236.32,-3843.58,-25799.2
9.47838e+07,104.353,1,2.70347,-7304.85,18306.5,-18910.4
9.49953e+07,78.2005,1,3.05506,6281.01,-3294.01,-14106.6
9.52144e+07,67.719,2,2.93329,-1775.82,-12737.4,-22569.5
9.58784e+07,39.2894,1,2.61173,-7513.05,-3311.37,-27624.3
9.60244e+07,33.358,0,2.90063,4417.97,-5144.88,-26769.1
9.72544e+07,18.4471,0,2.43684,-2314.87,-2080.67,-26514.2
9.73391e+07,4.54191,0,2.99298,803.265,593.817,-28562.7
9.74992e+07,17.4284,0,2.4742,59.8121,3580.43,-27806.6
9.75219e+07,90.8591,2,2.76273,-13856.1,-3088.55,-15930.9
9.75634e+07,37.7462,0,2.50672,3389.62,7275.86,-29382.8
9.77044e+07,8.60163,0,2.83852,1302.31,848.072,-27797
9.83197e+07,23.1247,2,2.71989,-1635.81,-4651.95,-28199
9.83216e+07,94.843,1,2.95847,-16317.3,-7021.52,-19800.6
9.86555e+07,154.259,2,2.84541,19036,-26178.5,-26200.8
9.89711e+07,207.565,0,2.67961,14529.8,29345,264.36
9.92226e+07,17.9568,2,2.5869,-3579.94,-1217.97,-29795.1
9.93869e+07,54.8487,1,2.41048,-1516.54,11171.2,-25794.8
9.94059e+07,52.9768,2,2.87781,2598.44,10459.1,-28694.5
9.95657e+07,99.5313,0,2.87838,15717.1,-12574,-22841.1
9.9571e+07,98.762,2,3.00287,7961.88,-17466.5,-20893.1
9.99227e+07,25.8977,2,2.77046,-1468.96,-2292.52,-24052.9
9.99255e+07,53.9796,1,2.75812,-10440.1,4235.26,-26758.2
1.00012e+08,75.7702,1,2.91052,-10075.3,8187.62,-19518.7
1.00294e+08,21.1607,2,2.82644,-3055.05,2180.65,-26437.7
1.00477e+08,58.2238,1,2.95675,3973.33,4000.72,-17966
1.00777e+08,24.6746,1,2.73514,2609.64,4297.39,-27301.2
1.00937e+08,57.019,0,2.89431,-5041.12,-8992.16,-22761
1.0096e+08,66.9925,0,2.4133,4444.44,-12302.5,-23329.2
1.01155e+08,8.63009,0,2.80212,-150.506,1659.28,-28137.2
1.01241e+08,12.0618,1,2.43782,1338.08,2242.25,-28892.6
1.01576e+08,58.6516,2,2.98631,-4667.36,8165.09,-24055.4
1.0176e+08,14.6428,0,2.50383,-21.487,-2199,-26621.5
1.01778e+08,105.634,0,2.38434,2787.47,16479.2,-13962.1
1.02118e+08,72.3533,1,2.42143,-3249.18,13888.2,-23051.1
1.02267e+08,173.577,0,2.87662,1669.16,23699.7,-3680.1
1.02588e+08,140.505,1,2.92292,4884.63,10176.1,-1601.86
1.02637e+08,138.993,2,3.00912,-19379,4844.75,-7603.84
1.02813e+08,44.6178,0,2.46171,8428.99,-2083.82,-24926.9
1.0287e+08,103.779,2,2.4343,5260.83,-15341.5,-13973.4
1.02979e+08,3.24391,0,2.87136,304.603,36.9126,-28198
1.0301e+08,5.57278,0,3.00492,1065.86,425.076,-28334.8
1.03015e+08,39.4332,2,2.71921,4231.02,-7012.27,-27182.2
1.03566e+08,176.363,2,2.38866,12576.3,-13576.5,3598.02
1.03568e+08,218.931,1,2.46006,-2799.5,24031.1,10661.3
1.03645e+08,57.7111,1,2.6932,6746.16,-8373.36,-23249.9
1.0368e+08,39.4034,0,2.61994,4425.02,7113.56,-28280.2
1.04033e+08,111.758,2,2.87663,13279.5,-10690.2,-12650.2
1.04176e+08,8.38303,1,2.85725,-563.318,1562.65,-28016.8
1.04201e+08,116.623,0,2.9144,19652.3,14545.8,-26302
1.04376e+08,22.4728,1,2.78724,857.92,2391.71,-24784.5
1.04483e+08,125.93,1,2.92864,15583,13462.7,-12226.9
1.04626e+08,113.581,2,2.83348,20828.6,10181.6,-23320.6
1.04802e+08,50.874,0,2.65125,6999.74,-1996.9,-23383.5
1.04878e+08,62.6826,2,2.56573,-12601.8,2061.75,-25164.2
1.04928e+08,39.2192,0,2.48908,2395.72,-2681.62,-21316.1
1.05451e+08,149.114,1,3.0566,-8607.69,19081.8,-5584.8
1.05471e+08,62.0401,2,2.62867,-11391.4,509.039,-22295.9
1.05719e+08,103.06,2,2.8948,16083.9,10140.9,-18628.8
1.05735e+08,158.463,1,2.48791,-28959.5,14408.1,-19772.5
1.0609e+08,57.6678,2,2.9686,2065.5,-8587.86,-20475.4
1.06536e+08,128.767,0,2.71827,-12029.1,-12623.1,-8098.63
1.06616e+08,11.7362,0,2.69926,1818.07,-1368.52,-27662.4
1.06665e+08,7.58728,1,2.79075,-106.326,602.335,-27345.4
1.07055e+08,8.29209,2,2.6347,-1472.16,-974.89,-28302.7
1.0731e+08,162.902,2,2.72381,-5539.04,-17494.1,223.084
1.08095e+08,11.3866,0,2.78482,-519.615,-1662.8,-27168.4
1.08223e+08,4.27074,0,2.65637,885.36,-467.889,-28855.7
1.0846e+08,59.5879,1,2.51816,-5666.88,-886.467,-17610.8
1.08567e+08,51.2579,1,2.56074,2832.41,9687.06,-24706.5
1.09135e+08,80.7958,2,2.55921,1235.02,-17102.2,-28952.9
1.0943e+08,17.1363,2,2.67536,-2958.76,-2218.82,-29351.7
1.09508e+08,46.882,0,2.45832,5130.89,8043.78,-25884.4
1.09581e+08,177.471,2,2.79468,-26579,8110.01,-3892.84
1.09873e+08,38.7894,1,3.00011,-3364.08,-78.5685,-21398.8
1.09971e+08,82.6659,0,2.94362,-9004.6,12499.2,-20912
1.10158e+08,125.811,2,2.76571,11016.4,-24115.7,-27236.8
1.10402e+08,78.1296,1,2.85386,-14847.4,7175.33,-29549.1
1.10437e+08,168.106,0,2.74414,-28185.6,-14302.7,-24498.9
1.10975e+08,168.178,2,2.78917,-19959.2,5854.85,-28593.4
1.10987e+08,46.2591,2,2.54343,-7700.05,-6153.73,-28388.4
1.11334e+08,69.6166,2,2.78412,-5043.09,-4827.52,-23272
1.11612e+08,26.3867,0,3.0248,2119.26,2223.11,-24170.8
1.11759e+08,30.4975,0,2.55159,4421.96,-4757.93,-28165.8
1.12286e+08,238.255,2,2.76297,-18332.5,-20760.9,-3797.09
1.12516e+08,87.304,0,3.02162,16588,7784.42,-27237.4
1.12772e+08,92.6963,0,2.56021,-13373.3,-3206.94,-23006.8
1.12964e+08,148.95,1,2.44801,1503.78,19367.9,-14798.1
1.13265e+08,11.567,2,2.76239,-1892.86,-1457.09,-29668.2
1.13308e+08,83.0159,2,2.58283,-8060.27,2815.38,-13497.9
1.13376e+08,32.6623,1,2.65655,-661.412,6686.77,-26990.1
1.13496e+08,31.2909,2,2.98243,-364.154,-6628.23,-29496.7
1.13572e+08,161.734,0,2.42756,17189.8,14674.2,-3081.34
1.13717e+08,127.876,2,2.74002,-5252.29,-15425.5,-7314.96
1.13909e+08,256.913,2,2.78852,-11705.8,-8150.7,-7833.24
1.13916e+08,6.21325,0,2.45304,1302.74,216.19,-28769.7
1.13939e+08,135.145,0,2.8533,22547.6,17404.6,-29672.4
1.14126e+08,158.46,0,2.708,21574,-23021.1,-17651.8
1.14132e+08,43.4805,1,2.84968,-6719.98,6368.3,-28829.9
1.14706e+08,104.89,0,2.53575,8059.54,15926.6,-15616.1
1.14779e+08,68.7106,1,3.02539,-3436.63,6924.05,-29843.5
1.14908e+08,64.5627,0,2.74674,8100.15,611.958,-17847.4
1.15492e+08,85.3789,0,2.80747,13871.5,-6984.3,-19639
1.16227e+08,116.081,2,2.63974,-23395.7,7190.19,-28682.7
1.16232e+08,55.6123,1,2.60545,10642,4929.12,-28109.7
1.16468e+08,39.3793,1,2.6973,-1668.27,-8090.92,-29056.6
1.16579e+08,67.6884,0,2.44375,-7272.47,7611.83,-19205.8
1.16927e+08,30.6749,0,2.43435,6379.57,442.642,-27205.2
1.17075e+08,22.4694,2,2.8581,4239.52,-764.054,-26894.1
1.17206e+08,7.23113,1,2.42675,-698.845,944.901,-29951.3
1.1732e+08,21.7805,0,2.76653,2555.87,-2291.22,-25715.3
1.17372e+08,31.7664,2,2.53299,-3318.19,-3426.14,-23993.5
1.17588e+08,100.229,1,2.52358,-17265,6455.81,-18314.8
1.17893e+08,142.956,1,2.78275,-3353.03,-15232.4,-3158.44
1.1803e+08,77.7093,2,2.86198,566.206,-8888.69,-15494.8
1.18212e+08,19.5527,2,2.9829,76.0051,-3135.37,-26073.3
1.18339e+08,14.9676,1,3.04193,-3211.6,279.29,-28993.9
1.18451e+08,31.6448,0,3.05867,-381.268,-4066.3,-23584.8
1.18608e+08,95.9926,1,2.44401,10738.9,-14597.8,-19805.2
1.18882e+08,95.2497,0,2.60659,-17096.6,7701.56,-21788.2
1.19123e+08,56.6014,2,2.90019,-6580.58,7853.72,-22794.5
1.19207e+08,38.2697,0,2.43619,6640.1,4734.63,-28013
1.1929e+08,29.2323,1,2.94033,-2753.57,843.743,-23386.1
1.19902e+08,156.326,0,2.38567,20868.3,-13366.9,-7242.03
1.19945e+08,15.3353,2,2.55283,-1726.23,-2744.72,-29653.4
1.20152e+08,113.107,0,2.86512,6639.81,22736.7,-26613
1.20157e+08,46.4888,2,2.55961,4956.69,-8519.58,-29745
1.20773e+08,124.076,2,2.49008,-3258.03,12416.1,-25341.5
1.21476e+08,88.6305,0,2.45858,13388.9,-2480.23,-15863
1.21878e+08,46.2084,1,2.68195,-4660.22,8685.14,-28432
1.21989e+08,8.07121,2,2.77012,495.358,1281.94,-27948.3
1.21991e+08,115.108,0,2.94501,5573.08,-21520.2,-19341.1
1.22008e+08,180.514,0,2.81616,15440.9,-13626.8,-2097.52
1.22062e+08,18.5027,0,2.98789,1812.64,3308.09,-27809.1
1.22077e+08,29.5709,1,2.98721,-2949.84,547.593,-23367.2
1.22356e+08,161.884,1,2.61719,-14977.5,2633.35,1806.41
1.22942e+08,179.798,0,2.54834,29439.3,-23831.5,-25160.3
1.22949e+08,111.036,1,3.02446,-22043,-2755.77,-21748.6
1.23652e+08,116.603,0,2.76985,-12034.6,17455.8,-16500.6
1.23769e+08,89.036,2,2.55164,-179.212,-15590.3,-18170.5
1.23802e+08,168.316,1,2.74618,799.456,12684.8,4287.05
1.24294e+08,0.780257,0,2.37261,55.2246,-188.368,-28798.6
0,0.760044,0,2.80667,0,0,0
1.24471e+08,120.931,2,2.94659,-17851.2,-6226.73,-16806.4
1.24562e+08,93.4139,1,3.05175,-14150.1,-6552.79,-17018.3
1.24845e+08,65.3515,2,2.55009,-3142.96,5396.26,-16505.7
1.25354e+08,59.6142,1,2.80552,2203.42,10079.9,-21643.3
1.25481e+08,9.6227,2,2.573,-274.998,1000.13,-27112.5
1.25663e+08,50.4159,1,2.92716,8743.79,4856.06,-25286.6
1.25942e+08,91.575,1,2.87348,12940,-9317.34,-18158.7
1.26e+08,64.0606,0,2.81837,5259.96,-2072.16,-16573.5
1.2601e+08,69.4047,0,2.98907,-6128.97,-2668.36,-15917.2
1.26728e+08,109.971,0,2.7547,13239.9,6422.68,-10875.4
1.26816e+08,81.7145,2,2.74835,7672.82,-13700.9,-21673.2
1.26896e+08,152.97,0,2.75999,23542.9,-1404.52,-6801.89
1.269e+08,8.43524,2,2.42235,1137.05,-1325.01,-29371.9
1.26973e+08,26.1966,2,2.36579,-2681.68,4832.45,-29147.7
1.27026e+08,68.434,0,2.99002,11816.7,6566.6,-23754.7
1.2786e+08,17.018,2,2.40088,-2170.9,-1641.52,-26368.1
1.27927e+08,226.132,2,2.91676,-18223.8,-19869.6,10294
1.27936e+08,25.714,0,3.01441,4696.11,-2615.21,-29871.8
1.27954e+08,111.251,0,2.65021,20734.2,-10983.4,-26690.1
1.27983e+08,32.8971,1,2.48559,461.137,6274.38,-25685.8
1.2807e+08,64.2006,2,2.58332,10440.5,3645.85,-21022.3
1.28271e+08,13.5674,2,2.63975,1506.51,-2425.89,-29560.1
1.28363e+08,19.7222,0,2.67267,3888.52,1568.93,-28025.8
1.28405e+08,5.09362,1,2.93662,-391.804,363.886,-27866.3
1.28756e+08,19.4641,1,2.50192,-2247.83,-1451.5,-25675.1
1.2877e+08,46.9346,2,2.84271,-6225.42,690.625,-23754.2
1.28831e+08,93.1965,2,2.84624,-1986.15,-15784.3,-17277.4
1.28975e+08,9.04542,2,3.00304,-1593.42,-195.088,-27728.4
1.294e+08,126.517,2,2.76738,-12467.3,2137.71,-24653.1
1.29479e+08,63.893,1,2.63634,11059.3,-6123.08,-24292.1
1.29723e+08,36.9091,0,2.77038,6555.3,4285.38,-29690.2
1.29761e+08,83.1309,0,2.79033,1975.25,-16808.1,-24602.1
1.30117e+08,86.142,0,2.56716,-10818.2,-9544.08,-17813.4
1.30278e+08,18.5587,2,2.77106,3261.47,-1936.67,-27788.7
1.30404e+08,61.6618,1,2.39109,9787.76,-540.668,-20283.8
1.30448e+08,157.907,0,2.80871,3479.79,-16902.2,-12794.3
1.30533e+08,105.241,2,2.43519,-5443.28,-20108.3,-20708.5
1.30608e+08,81.8854,0,2.87825,7404.42,1431.59,-13354.2
1.3081e+08,152.481,1,2.53704,261.031,28458.6,-13577
1.31256e+08,23.6376,2,2.46474,-4751.45,-1804.42,-28528.4
1.31269e+08,85.1644,1,2.46384,7586.59,3484.13,-12863
1.3142e+08,45.2436,2,2.7388,-43.8457,7779.37,-23431.4
1.31448e+08,11.3299,0,2.51721,1077.16,2213.56,-28603.1
1.31637e+08,52.9674,1,2.95189,-5901.63,8348.08,-24266.3
1.31737e+08,14.4902,1,2.63644,2475.36,1599.67,-27949
1.31823e+08,20.0065,0,2.8139,1776.49,-1279.95,-25198.7
1.31895e+08,60.4443,0,2.7892,-2255.86,-6191.88,-17977.8
1.31948e+08,224.504,2,2.60192,-17411.9,-13601.4,13149.2
1.32256e+08,10.8882,2,2.89399,-1703.85,-588.345,-27320.2
1.32374e+08,143.996,1,2.5539,-24073.1,14689.5,-17157.5
1.32459e+08,71.1534,1,2.68919,13564.5,2728.34,-23066.4
1.32512e+08,14.3486,2,2.64726,2129.37,-2182.42,-28366.6
1.33215e+08,10.8706,1,2.99274,-1664.33,790.223,-27378.9
1.33371e+08,23.346,0,2.80369,1408.35,-4266.61,-26737.2
1.33675e+08,184.413,1,2.79375,16681.3,23295.7,-2608.78
1.33743e+08,35.8082,2,2.51102,-3517.08,3188.64,-22924.5
1.33796e+08,34.7304,0,2.77691,3329.99,3776.33,-23452.1
1.33936e+08,26.4421,0,2.37945,4567.35,-3091.92,-27540.2
1.34727e+08,51.4968,0,2.88481,-91.003,10745.5,-27350.6
1.34767e+08,116.857,1,2.38032,-22990.4,-3807.93,-20392.7
1.34777e+08,1.65279,0,2.95085,120.994,-308.41,-28681.8
1.3502e+08,112.307,2,2.79155,6521.22,-11585.1,-9249.13
1.35304e+08,264.362,2,2.75541,1046.99,-4222.42,-23801.2
1.36068e+08,8.52962,0,2.42788,-231.309,1771.28,-29204.7
1.36073e+08,2.50182,2,2.95619,-110.492,-23.606,-28294.7
0,2.61791,1,2.99438,0,0,0
1.36444e+08,46.3363,1,2.73386,5660.48,2025.02,-21131.7
1.36785e+08,208.339,2,3.04712,-22636,-3178.51,-9306.96
1.36868e+08,36.5016,1,2.40639,-6482.42,1023.7,-24647.1
1.36964e+08,92.9381,0,2.41157,18465.9,7039.22,-28631
1.375e+08,64.6528,2,2.62075,13230.1,-1239.01,-25786.4
1.3767e+08,57.983,1,2.36243,-7327.23,456.368,-18945.8
1.37799e+08,54.2356,2,2.58107,10045,-2226.3,-27052.6
1.37893e+08,57.8206,2,2.57662,6569.16,-7072.05,-21280.5
1.38314e+08,125.838,0,2.99831,8730.43,-12508.7,-7286.08
1.38442e+08,37.775,0,2.9346,5657.07,-4015.85,-24821.5
1.38592e+08,15.922,0,2.80664,2667.47,-1619.31,-27384.4
1.38765e+08,11.505,1,2.47358,-217.871,-1434.43,-26887.8
1.38772e+08,195.395,2,2.81966,17958.4,5432.58,7667.77
1.38999e+08,5.98149,1,2.8193,430.061,12.5898,-27687.5
0,5.64324,0,2.97565,0,0,0
1.3915e+08,114.023,1,2.82143,-21076.4,-6852.71,-19642.1
1.39457e+08,150.856,2,2.93815,-16038.8,-16342.3,-6872.64
1.39662e+08,47.8397,2,2.73081,-6959.32,393.638,-21533.6
1.39965e+08,39.2888,1,2.42247,2372.86,-3027.72,-21473.8
1.40374e+08,135.618,2,2.50649,-12065,2121.16,-29177.1
1.40455e+08,15.7981,1,2.98006,-1281.52,-1215.55,-26032.2
1.40483e+08,13.1812,0,3.0488,2374.67,-64.1478,-27257.5
1.40582e+08,78.867,0,2.62061,356.3,16449.4,-26242.9
1.40811e+08,109.015,0,2.90316,-3590.73,-13812,-10963.9
1.40957e+08,35.1847,2,2.47254,878.943,-6597.86,-25392.5
1.41389e+08,56.6166,0,2.53816,4271.85,2785.28,-17972.8
1.41398e+08,39.3372,0,2.51294,8273.62,-356.582,-27247.2
1.41402e+08,23.9833,0,2.53733,865.199,-4064.88,-25869.8
1.41649e+08,5.81428,1,2.86689,863.897,650.886,-28214.7
0,15.655,1,2.49585,0,0,0
1.41687e+08,37.3888,2,2.8216,-4174.89,-3259.18,-22921.8
1.41803e+08,144.297,1,2.96648,729.521,1086.61,-26510.5
1.42705e+08,57.2839,1,2.64808,-8154.81,-8764.34,-27436.9
1.42718e+08,43.9348,2,2.51725,3852.52,-4845.64,-21846.5
1.42751e+08,104.199,0,2.43811,18213,-12425.2,-27037.5
1.42787e+08,7.10438,0,2.88612,517.356,-1442.33,-28726
1.42974e+08,15.0559,0,2.44829,3080.65,-1150.93,-28949.6
1.43239e+08,127.651,1,2.67584,-2257.1,15966.1,-7498.88
1.43616e+08,47.6798,2,2.52504,-9241.45,-3453.22,-26344.1
1.43626e+08,31.2084,1,2.79254,6137.19,1560.32,-27093.6
1.43671e+08,13.481,2,2.55748,-1108.72,478.698,-26220.7
1.43706e+08,10.7007,0,2.99737,2116.43,451.853,-29707
1.43904e+08,19.0177,1,2.76205,3173.63,2377.94,-28190.1
1.4396e+08,164.334,1,3.00506,16328.6,-7686.59,443.538
1.44032e+08,15.7958,1,2.41363,-2871.12,1833.89,-28274.9
1.44254e+08,194.081,2,2.73439,-27073.4,-28840.8,-18247
1.45158e+08,60.1358,0,3.02405,1120.24,-10958,-22688
1.45215e+08,177.255,0,2.7939,28848.2,-21250,-18249.2
1.45305e+08,86.9054,2,2.39968,-7624.59,11732.8,-16936.3
1.45447e+08,74.5349,2,2.83493,-7562.68,-1846.41,-15182.6
1.45619e+08,11.5215,0,2.42529,641.986,2042.87,-27577.9
1.45792e+08,74.8031,2,2.64078,-7510.99,-12057.7,-21741.6
1.46242e+08,9.98067,1,2.52615,-1826.01,1237.28,-28860.7
1.46367e+08,11.314,0,2.4824,349.582,1659.63,-27088.4
1.46569e+08,53.6388,1,2.43976,-289.231,4592.22,-18417.9
1.46814e+08,22.0372,2,2.44962,-2703.24,1095.3,-25152.7
1.4761e+08,84.1183,0,2.37193,-4452.82,-11319.7,-15857.1
1.48171e+08,60.2185,2,2.62928,-11731.2,2305.57,-24368.3
1.48341e+08,7.07242,2,2.66657,-390.815,-1499.54,-28591.8
1.48421e+08,68.2507,1,2.48217,-1467.76,14428.6,-29879.7
1.48529e+08,5.95832,2,2.83132,207.265,524.469,-27726.1
0,5.98955,2,2.69245,0,0,0
1.48695e+08,169.108,0,2.84209,8649.56,13737.3,2790.52
1.49315e+08,14.8315,0,2.99763,713.805,1336.4,-26071.3
1.49342e+08,128.453,0,2.69894,12001.5,-11875,-7605.15
1.49417e+08,38.4443,0,2.54821,-21.8894,7918.12,-26935.8
1.49425e+08,36.8778,0,2.76132,5302.01,2471.98,-23619.2
1.49469e+08,145.406,2,2.7399,-2479.64,-4372.3,-21265.9
1.49594e+08,150.92,1,2.80889,-17209.7,13700.1,-23112
1.5011e+08,29.7122,0,2.95527,-2891.27,4127.24,-25220.3
1.50188e+08,116.461,1,2.74854,-14026.5,5623.68,-11506.7
1.50511e+08,39.8408,1,2.62124,-6783.16,2127.79,-24217.4
1.51049e+08,71.4259,0,2.46525,13054.1,-6206.12,-24129
1.51162e+08,29.5236,2,3.0283,-3159.98,517.574,-23495.9
1.51463e+08,2.33087,2,2.96148,-161.826,-584.983,-28821
1.51697e+08,53.0635,2,2.54327,-3431.57,-5383.27,-24217.6
1.51773e+08,62.8106,2,2.49363,-10372.9,1396.29,-20575.7
1.51942e+08,62.39,1,3.03602,-11174.2,557.706,-21954.7
0,62.2165,1,2.82741,0,0,0
1.52061e+08,83.039,2,3.01539,528.603,10700.6,-15213.8
1.52187e+08,83.6946,2,2.6781,-9140.86,-10065.9,-17465.7
1.52724e+08,207.048,1,2.44708,9333.77,28243.3,3372.19
1.53101e+08,17.0745,2,2.59548,2364.58,-2574.47,-27779
1.53599e+08,5.26787,0,2.98921,116.442,1111.13,-28673.8
1.53692e+08,41.4296,1,2.78083,4138.17,-386.073,-22838.8
1.54112e+08,82.7912,1,2.40822,-9469.41,602.372,-14055.7
1.54225e+08,68.0988,2,2.40203,3821.36,-12541.2,-22709.7
1.54437e+08,90.7709,1,2.44731,2709,9631.28,-12392
1.54555e+08,126.604,1,2.61718,-2790.81,25865.5,-22399.6
1.54664e+08,111.329,1,2.84591,-5588.01,19889,-17672.5
1.54702e+08,22.9311,0,2.59688,2766.65,-492.255,-24832.2
1.54747e+08,33.7201,0,2.94364,-2435.38,-4306.28,-23828.7
1.54942e+08,20.8822,0,2.81924,4418.74,865.022,-29049.5
1.5502e+08,17.1197,2,2.63574,887.738,-2162.16,-26001.5
1.5565e+08,69.67,2,2.86125,-4347.24,-13798.9,-26064
1.55721e+08,85.6239,0,2.81837,13828.5,-2851.58,-17544.6
1.5588e+08,144.239,2,2.84156,-25462.9,-10490.3,-16600.1
1.5618e+08,214.097,0,2.65312,13625.8,13704.3,12024.6
1.56268e+08,13.1116,2,2.73068,-2388.42,496.419,-27496.7
1.56392e+08,99.8553,2,3.01165,-1813.4,-14673.4,-13951.5
1.56477e+08,171.699,0,2.7816,10062.4,-10019.9,4405.52
1.56971e+08,3.19576,1,2.87134,-190.192,744.119,-28668.2
1.57327e+08,70.2207,0,2.96506,1248.25,-6402.67,-15606.4
1.57536e+08,51.937,0,2.49252,1696.94,-7846.81,-27715.5
1.57774e+08,13.1692,2,2.52466,-432.05,-2649.96,-27793.3
1.5785e+08,76.5069,1,2.94858,-7383.42,13001.6,-22734.8
1.57942e+08,71.8881,1,2.6235,-1625.57,13786.7,-22498.4
1.57977e+08,99.6454,2,2.51857,10304.8,-18442,-28037
1.58943e+08,37.4896,0,2.8851,3502.7,6549.74,-26036.9
1.58946e+08,19.3511,2,2.42401,-453.067,3871.47,-27693.6
1.59017e+08,149.613,2,2.7304,-19747.2,-24312.3,-24728.2
1.59146e+08,58.0193,2,3.01867,2307.84,10291.6,-22886
1.5931e+08,63.1809,0,2.45255,11977.5,-4295.38,-24442.9
1.59403e+08,4.85741,1,2.79784,291.426,1071.05,-28758.9
0,4.81473,1,2.79988,0,0,0
1.59779e+08,106.968,1,2.71255,283.166,22643.6,-28528.8
1.59903e+08,7.15141,1,2.60261,-132.845,940.443,-27571.6
0,7.21746,1,2.83522,0,0,0
1.59953e+08,75.0465,1,2.44087,-5762.75,14735,-26693.7
1.6002e+08,32.3818,2,2.7363,-3919.95,-3794.38,-24599.4
1.60029e+08,41.4753,1,2.61409,7646.24,2039.93,-25152.2
1.60409e+08,73.6603,0,2.49706,2496.64,3058.78,-25289.8
1.60719e+08,82.5015,2,2.6175,6779.93,11058.8,-17271.5
1.61007e+08,101.328,1,2.87704,-6741.94,14161.3,-14356.5
1.61202e+08,5.45558,0,2.50087,973.622,-345.206,-28140.6
1.61238e+08,229.432,1,2.71754,2935.77,-27876.9,10507.7
1.61298e+08,43.8808,0,2.91343,-6429.75,6042.25,-26267.5
1.61406e+08,108.536,0,2.62494,2738.51,-16390.5,-13047.3
1.61532e+08,91.0516,0,2.81198,4334.75,8416.17,-12152.4
1.61601e+08,16.9924,1,2.56925,2412.01,-685.591,-26295
1.61802e+08,119.567,0,2.59573,56.1678,-18615.3,-11778.7
1.61836e+08,3.51702,0,2.426,445.183,-70.6272,-28167.3
1.62221e+08,47.8513,2,2.37974,-6880.79,-2884.84,-22115.5
1.62269e+08,17.7946,1,2.69746,397.494,3780.03,-28263.6
1.62636e+08,51.7935,2,2.86775,-9938.54,-2162.99,-24735.1
1.62952e+08,121.56,1,2.79657,-7298.87,10939.3,-6831.87
1.62996e+08,66.1093,1,2.85535,-8944.36,4641.9,-19180.1
1.63531e+08,106.315,0,2.36714,9265.99,5954.94,-9160.23
1.63534e+08,261.959,2,2.83315,-18073,-26290.9,16099.5
1.63575e+08,14.3268,0,2.97886,2451.24,-1017.67,-27231.7
0,14.3283,0,2.97479,0,0,0
1.63668e+08,10.6593,0,2.36828,-310.376,1742.13,-27410.7
1.63701e+08,133.269,0,2.81253,-2467.62,-6061.64,-12619.1
1.63728e+08,3.24313,1,3.01401,-452.593,-20.2745,-28288.8
1.63797e+08,123.578,0,2.67554,7282.74,135.639,-16710.7
1.63894e+08,23.7154,0,2.45015,1447.72,-1498.16,-24244.9
1.63945e+08,94.5067,0,2.66129,-14103,6760.81,-16546.3
1.63968e+08,207.922,2,2.64412,-12012.9,12551.7,11436.9
1.64236e+08,23.9572,0,2.66928,-4167.05,2318.37,-27336.8
1.64491e+08,175.281,1,2.37514,-23636.4,28723.3,-28528.8
1.65303e+08,67.8604,2,2.43988,11253.8,8236.12,-25636.9
1.65643e+08,15.5726,2,2.97139,-2481.33,-114.938,-26633
1.65736e+08,101.641,1,3.03718,18532.4,-1061.42,-18497.2
1.65994e+08,32.228,0,2.79661,1369.86,6639.79,-29629
1.6611e+08,90.0165,0,2.57845,8168.77,-17137.5,-27213.1
1.6641e+08,27.4972,2,3.0427,-3468.15,-4618.2,-27963.7
1.66518e+08,75.487,1,2.69682,-8392.02,13604.1,-28209.5
1.66911e+08,6.74086,0,2.89815,-81.8758,1182.15,-28033.4
1.67052e+08,33.0351,1,2.91996,-4497.18,1757.61,-23776.8
1.6759e+08,144.87,1,2.72594,-8686.63,-25930.5,-15353.9
1.67646e+08,65.9705,2,2.86044,-11935.7,7085.28,-29049.6
1.67725e+08,44.7052,0,2.60863,8250.22,3226.52,-29406.2
1.67768e+08,60.0861,1,3.04078,-3239.73,12185.1,-27336.4
1.6785e+08,12.3685,2,2.66598,-1204.88,-2280.28,-29676.1
1.68438e+08,16.9903,1,2.57192,-572.762,3591.57,-28140.6
1.68828e+08,10.0334,2,2.70937,1100.22,620.445,-27155.7
1.69234e+08,74.8864,2,2.80302,1560.18,-6043.19,-14335.1
1.69258e+08,80.6817,0,2.42104,8742.21,-14357.4,-25561.5
1.69288e+08,7.66574,1,2.94977,508.713,1327.76,-29723.3
1.6929e+08,23.3956,0,2.82773,2857.59,3848.43,-27464.3
1.69521e+08,19.148,0,2.97709,2863.01,467.401,-25958
1.6956e+08,76.4938,2,2.61571,-3141.97,-10141.3,-16570.8
1.69878e+08,43.4764,0,2.6158,-2184.67,-8562.59,-26435.8
1.70038e+08,24.356,1,2.90115,1384.42,-3222.24,-25163.2
1.70121e+08,26.3395,1,2.94519,4328.12,3320.2,-29880.9
1.70311e+08,75.1615,1,2.74542,-6922.93,13922.5,-25402.9
1.70776e+08,21.3896,1,2.5445,-3515.29,2996.74,-28618.2
0,22.3037,0,3.05886,0,0,0
1.70929e+08,109.324,2,2.57314,-3988.87,19440.6,-17062.3
1.71083e+08,111.768,2,2.37904,-14461.7,-12406.6,-14695.3
1.71084e+08,134.202,1,2.44768,-4970.37,25757.2,-17787
1.71592e+08,225.502,1,2.70995,-29645,26812.4,-3007.38
1.71834e+08,46.1606,0,2.37489,-2599.55,-9422.59,-28458.5
1.71869e+08,96.5582,1,2.39549,-13212.8,13244.8,-20437.2
1.72095e+08,138.72,0,2.99917,-15148.7,20145.3,-14403.4
1.7213e+08,119.368,0,2.66226,9925.16,14799.9,-10987.2
1.72342e+08,32.7379,0,2.75734,5368.28,4421.32,-28677.8
1.72369e+08,28.6323,1,2.8279,-1318.42,5973.72,-29242.2
1.72406e+08,32.8254,1,2.86964,-6202.72,3150.97,-29494.7
1.72607e+08,175.999,2,2.36342,-6869.99,23949.5,-1233.88
1.7267e+08,84.2446,0,2.43328,-4294.1,2696.26,-21614.5
1.73204e+08,41.4671,1,2.721,-56.9687,-8594.78,-27631.3
1.73335e+08,1.39887,0,2.64611,265.998,34.4285,-28576.9
0,1.74454,1,2.36949,0,0,0
0,1.72833,1,2.94727,0,0,0
1.73547e+08,11.0584,2,2.40325,-1098.24,61.0859,-26743.3
1.7387e+08,8.10505,2,2.40023,-1423.17,-1054.01,-28399.3
1.74059e+08,2.26623,0,2.65809,361.188,-40.0613,-28437.2
0,2.22474,0,2.72358,0,0,0
0,2.29154,0,2.926,0,0,0
1.74583e+08,45.295,2,2.67844,-8729.5,1361.31,-25075.5
1.74933e+08,137.081,2,3.03842,-3993.73,-2150.01,-20691.7
1.75159e+08,36.0143,2,2.52668,-4311.25,-6110.97,-26919.1
1.75249e+08,0.176671,2,3.08268,-3.04492,-55.4588,-28784.1
0,0.206477,2,3.75067,0,0,0
0,0.141286,2,2.68522,0,0,0
0,0.15869,2,3.75577,0,0,0
0,0.19872,2,2.87798,0,0,0
0,0.147717,2,3.48321,0,0,0
0,0.155429,2,4.12554,0,0,0
0,0.203687,2,3.74454,0,0,0
0,0.141436,2,2.63709,0,0,0
0,0.142411,2,3.42953,0,0,0
0,0.139741,2,2.20628,0,0,0
0,0.141441,2,3.0688,0,0,0
0,0.141033,2,3.43798,0,0,0
0,0.149833,2,3.47327,0,0,0
0,0.141704,2,2.96734,0,0,0
0,0.216134,2,4.1044,0,0,0
0,0.251684,2,3.04082,0,0,0
0,0.143005,2,2.12087,0,0,0
0,0.138818,2,3.25105,0,0,0
0,0.137536,2,3.9865,0,0,0
1.75572e+08,91.2115,2,2.91655,11453,-8469.66,-16028.1
1.75978e+08,132.13,1,2.47408,-14017.8,24166.3,-26379.4
1.76153e+08,21.9289,1,2.40788,1207.8,2637.21,-25167.8
1.76464e+08,169.227,2,2.43546,706.287,-23987.7,-2206.26
1.76558e+08,100.331,2,2.67764,-20705.9,-1900.35,-24682.3
1.76692e+08,196.899,0,2.60444,21283.8,27078.2,-5454.83
1.76956e+08,106.018,1,2.9519,-2048.34,12586.4,-10560.3
1.77043e+08,52.457,2,2.87363,9699.65,-4178.79,-25704.2
1.77149e+08,8.4277,2,2.99057,-1164.81,-8.58192,-27466.1
1.77299e+08,24.6562,2,2.70007,-2515.39,-4661.63,-28411.2
1.78066e+08,148.879,1,2.91119,-12451.4,28558.7,-25398.5
1.78105e+08,97.1587,0,2.85376,754.398,15098.3,-15072.1
1.78543e+08,130.004,1,2.92203,3311.92,27057.1,-26306.3
1.78631e+08,50.8166,2,2.56173,7818.88,-5200.74,-23583.9
1.78645e+08,65.4415,0,2.98191,-6477.48,4903.69,-17807.2
1.78713e+08,70.3418,1,2.79764,2264.38,8729.01,-17038.2
1.78731e+08,167.671,2,2.5143,26855.6,-10790.4,-8348.96
1.78748e+08,150.419,1,2.73945,-14957,20747.3,-10015
1.78795e+08,25.839,0,3.03715,1452.21,-2697.07,-24318.3
1.78803e+08,15.4617,0,2.91518,-205.662,-3143.4,-29689.3
1.78952e+08,98.9944,2,2.64298,-8688.4,-8449.14,-11743.5
1.78965e+08,103.88,2,2.80542,-2554.34,-13884.5,-17032.7
1.79003e+08,30.7606,0,2.66869,3131.53,-5769.61,-28743.7
1.79686e+08,189.373,2,2.66867,16327.7,-16961.4,-9550.26
1.79848e+08,8.99767,2,2.84867,1555.11,131.59,-27816.2
1.80697e+08,57.8417,1,2.64977,4382.87,10991.2,-25606.4
1.81008e+08,16.8743,2,2.87053,-3203.67,1538.14,-29296.3
1.81334e+08,2.66817,0,2.58777,-12.8675,-365.513,-28403.2
1.81521e+08,18.9211,0,2.61146,1409.3,705.454,-25119.3
1.81581e+08,124.729,0,2.6282,19585.2,-12150.6,-15956.6
1.81646e+08,19.8649,1,2.43159,1887.63,-1948.94,-25652.1
1.81767e+08,87.3121,2,2.40345,-18018.1,3935.77,-27365.3
1.82073e+08,22.3869,0,2.4819,1389.17,-487.22,-25713.1
1.82433e+08,122.068,2,2.39301,-380.971,22997.9,-17217.6
1.83294e+08,166.298,2,2.46572,-13534.2,19917.2,-3251.05
1.83326e+08,127.375,0,2.76526,7209.06,-15063.3,-26954.7
1.83388e+08,218.659,2,2.84082,-23253.8,27061.4,85.4179
1.83445e+08,46.8612,0,2.61932,3594.17,-4256.91,-20619.1
1.84018e+08,29.219,2,2.51504,-3811.2,-4916.83,-29784.4
1.84321e+08,13.4812,1,2.58423,-1229.09,2679.65,-28908.4
1.8441e+08,45.3631,2,2.76344,8288.39,2954.88,-25191.1
1.85848e+08,107.945,2,2.88706,11734.1,-15985.6,-17754.5
1.85996e+08,176.082,1,2.57439,-3898.9,25419.9,-1885.67
1.86019e+08,126.103,2,2.70244,-19829,-17474.3,-25348.8
1.86127e+08,92.5844,1,2.92655,-12308.8,89.5523,-13747
1.86223e+08,109.624,2,2.41931,9983.69,-15203.8,-14422.3
1.86369e+08,10.2134,0,2.73003,458.435,1683.64,-27493.2
1.86439e+08,59.3247,0,2.81153,8520.61,-5781.99,-25903.6
1.86451e+08,135.891,0,2.82772,16762.8,695.229,-5643.72
1.86553e+08,142.646,0,2.90482,-20884.7,10686.3,-17511
1.87266e+08,39.0216,2,2.48111,6088.82,528.467,-23291.6
1.87435e+08,38.8751,2,2.42109,-8040.68,1619.65,-27671.6
1.87607e+08,16.4692,0,2.57462,-1220.01,1878.61,-26207.2
1.87814e+08,33.7306,0,2.72623,4160.59,-4808.15,-25495.8
1.88101e+08,9.07732,0,2.79959,-259.551,1832.91,-28262.9
1.89004e+08,68.0366,2,2.54228,-12464.6,5063.63,-23673
1.89067e+08,168.586,0,2.41549,18706,2388.23,583.037
1.89287e+08,25.6284,2,2.73731,1355.63,-5037.17,-27203
1.89731e+08,120.986,1,2.67972,-3970.21,17771.9,-10892.9
1.89855e+08,0.101971,2,2.84465,-9.9836,-65.4359,-28793.5
0,0.102654,2,3.45795,0,0,0
1.89956e+08,135.748,0,2.48692,16003.8,-16243,-11333.4
1.90095e+08,75.3577,0,2.58574,9036.91,9608.14,-19800.1
1.90607e+08,32.9164,2,2.98034,-5723.94,188.953,-24915.1
1.9087e+08,16.1188,2,2.57391,1761.31,-643.438,-25980
1.90924e+08,25.7796,2,2.69892,1036.91,-2249.1,-23948.9
1.90926e+08,112.442,1,2.58317,-22566.1,-2653.42,-21799.4
1.91032e+08,93.525,0,3.05531,-9421.86,14554.2,-19773.9
1.91228e+08,182.724,2,2.99922,13111.2,-14505.2,4125.4
1.91268e+08,76.5001,1,2.92582,-13692.8,-8363.17,-28022.5
1.91482e+08,47.1674,2,2.55863,1577.35,-8881.79,-24429.3
1.92032e+08,161.474,2,2.78901,8169.8,27014.7,-10017.6
1.92186e+08,90.8993,1,2.44789,11035.5,128.38,-13110.9
1.92762e+08,58.3663,2,2.43408,-4836.58,2849.62,-17829.8
1.92841e+08,30.6019,2,2.61791,-5063.48,-1522.67,-25011.4
1.93015e+08,4.02762,2,2.85332,311.79,436.839,-28213
0,4.09439,2,3.01437,0,0,0
1.93035e+08,95.1312,2,2.58637,-4711.33,-11285.7,-12806
1.93719e+08,137.732,2,2.83489,-139.081,7206.07,-13198.3
1.93731e+08,61.0348,1,2.91145,-4495.11,4632.23,-17704.6
1.9381e+08,16.632,1,3.04138,-1980.87,676.952,-25976.6
1.94755e+08,172.771,0,2.79721,-13049.3,-4449.64,2098.58
1.94839e+08,60.8984,0,2.52947,-11823.8,-4023.32,-26027.4
1.94874e+08,66.7365,0,2.8656,-4130.79,-9875.61,-19768.6
1.94991e+08,4.035,2,2.53817,257.147,225.532,-28102.1
1.95177e+08,28.0127,0,2.90302,-676.966,-5063.86,-25897.8
1.95418e+08,76.7815,2,3.02477,-4246.67,13420.8,-21094.9
1.95681e+08,9.02167,0,2.85275,-497.073,-1710.69,-28147
0,9.14769,0,2.74844,0,0,0
1.95727e+08,87.2259,0,2.98085,18210.5,674.151,-26283.9
1.95936e+08,129.759,1,3.04175,-21800.5,16126.9,-26034.2
1.96026e+08,20.6662,0,2.6176,1416.86,2068.05,-25239
1.96116e+08,108.429,2,2.50981,15133.3,-4185.4,-12129.5
1.96191e+08,47.1035,2,2.62018,-9733.81,873.919,-26722.6
1.9649e+08,50.8548,1,2.53499,-6997.84,5097.06,-22365
1.9665e+08,147.836,2,2.79661,-15391.9,-14655.4,-6048.6
1.96827e+08,44.9146,2,3.00356,-8095.37,3502.1,-25494.7
1.97012e+08,98.8419,1,2.73573,5963.28,19453.7,-24054.6
1.97019e+08,151.004,2,2.69791,-22224.5,-4559.47,-6437.86
1.97037e+08,162.821,2,2.96594,27157.4,-15592.5,-15171.6
1.97548e+08,106.803,2,2.62125,14090.4,-7776.77,-13021.4
1.97993e+08,10.3689,0,2.52693,-309.67,-2190.95,-28696.6
1.98312e+08,92.7833,1,2.56405,-3026.49,18513.8,-22798.5
1.99119e+08,97.3034,2,2.96412,4149.84,14072.7,-14702.3
1.99687e+08,44.0757,2,2.86307,-5153.42,-1286.71,-21210.8
2.00365e+08,12.5483,0,3.03036,-1414.95,2198.39,-28959.4
2.00481e+08,96.051,1,2.69967,-12768.8,-6228.58,-14446
2.01078e+08,29.9524,0,2.86086,6345.01,905.523,-28853.8
2.01159e+08,43.3043,0,2.79215,-1294.64,-6287.21,-22351.4
2.01191e+08,22.0646,2,2.92284,2588.18,-2690.98,-26007
2.01423e+08,50.2948,0,2.49294,8683.83,5085.63,-25128
2.01505e+08,33.0326,0,2.607,-1188.62,-5619.69,-24881.8
2.01665e+08,145.278,1,2.99304,-26740.8,-11857.5,-20316.6
2.01695e+08,79.3923,1,2.51712,-8451.94,-11964.8,-20696.3
2.022e+08,10.4256,1,2.45405,464.401,2218.28,-28594
2.02219e+08,32.2773,2,2.91255,-2787.73,-5645.81,-26055.1
2.02226e+08,53.4653,0,2.92581,8130.29,-353.698,-21015.8
2.02255e+08,174.899,0,2.80204,24468.8,-13123.3,-4610.4
2.02292e+08,158.767,0,2.46855,27528.1,-16846.1,-19342.8
2.02438e+08,77.2227,2,2.91005,5664.5,7812.08,-15874
2.02508e+08,94.3757,1,2.72378,7918.19,-9349.56,-13203.9
2.02561e+08,24.1143,1,2.42521,-1755.47,3053.12,-25036.8
2.0279e+08,31.3181,2,2.63663,-4535.07,4739.42,-27908.5
2.03093e+08,123.321,1,2.81596,-19690.6,15518.8,-21842.7
2.03101e+08,41.2166,1,2.78464,-7931.45,-3201.63,-27216.7
2.0319e+08,67.8623,0,2.79774,1570.44,-9570.29,-18335.1
2.03297e+08,145.169,2,2.395,-19810.6,-11174.2,-8128.06
2.03747e+08,24.1431,1,2.8987,-4983.96,-1057.78,-29181
2.03782e+08,37.0938,0,2.86342,6960.5,3400.75,-27415.7
2.03986e+08,44.4444,0,2.86963,8244.27,-82.8512,-24250.8
2.04297e+08,58.7967,0,2.71615,9640.11,3953.14,-22040.2
2.04488e+08,28.9193,0,2.75187,3437.75,3273.25,-24974.2
2.045e+08,143.727,1,2.74071,12802.8,18508.8,-8536.73
2.04536e+08,193.391,1,2.39975,-23319.5,3485.01,4609.29
2.04684e+08,26.5949,0,2.74775,1888.47,3658.4,-24959.5
2.04847e+08,105.461,1,2.94419,-9856.08,15879.8,-16858.8
2.05061e+08,123.815,2,2.74279,-5124.2,-5246.81,-25875.6
2.0516e+08,19.0957,0,2.79435,2345.87,321.154,-25532.6
2.05523e+08,57.5241,0,2.5908,3892.7,8118.5,-20655
2.05584e+08,64.9368,1,2.7922,9631.01,462.066,-19169.5
2.0604e+08,8.54109,2,3.01585,975.124,-1560.26,-28550
2.0617e+08,125.747,1,2.74648,-19187.7,-6737.52,-11850.9
2.06184e+08,94.4583,0,2.71798,14523,12314.7,-22849.9
2.0625e+08,97.2143,2,2.42818,-12708,16129.2,-29726.3
2.06404e+08,53.4265,2,2.82235,-5976.85,3324.64,-20761
2.06753e+08,5.84317,2,2.95518,809.746,465.102,-28112.6
2.06782e+08,14.4354,0,2.78061,1928.31,-440.302,-26434.6
2.06899e+08,74.9267,2,2.77206,-13029.7,-4392.2,-20969.1
2.06938e+08,95.2615,2,2.43559,-17238.5,1911.37,-18512.4
2.07047e+08,264.523,2,2.71515,-25569.8,22980,15009.1
2.07107e+08,65.7721,1,2.62895,7632.64,-7744.86,-20271.3
2.07152e+08,288.596,0,2.641,-25862.9,28923.3,18045.8
2.07323e+08,61.0664,0,2.88361,-827.966,-9045.83,-19747.6
2.07488e+08,48.6828,0,2.84245,-6380.36,-4091.82,-21995.2
2.07682e+08,392.882,0,2.80071,2972.23,12093,27748.6
2.07735e+08,25.6339,0,2.85762,2474.15,-3298.4,-25279.5
2.07792e+08,82.1394,0,2.66983,10955.2,-12927.4,-24964.5
2.07946e+08,266.561,2,2.54533,2836.25,-19230.4,10263.3
2.08242e+08,31.9399,0,2.38416,3504.25,4930.09,-25671.7
2.08272e+08,49.4569,2,2.7499,-3273.53,-9881.32,-27488
2.0849e+08,108.214,0,2.39764,13186.2,14460.6,-16852.1
2.09081e+08,75.3921,0,2.74949,2129.38,14332.7,-22262.4
2.09231e+08,65.2509,1,2.88921,-8161.77,10612,-25422
2.09513e+08,53.7056,0,2.952,3733.22,6515.7,-20382.7
2.0962e+08,14.5724,0,2.62862,-1708.97,2145.53,-27484.9
2.09688e+08,9.90902,2,2.85851,-1203.83,-1123.96,-27424.5
2.09872e+08,30.619,1,3.02245,-4559.05,3989.52,-26506.2
2.10676e+08,101.55,1,2.64151,-17338.5,7924.67,-18867.3
2.10876e+08,259.304,1,2.84276,18882,12646,20678.5
2.1147e+08,68.3425,1,2.44705,-9074.37,8448.27,-21251.1
2.11751e+08,70.9189,2,2.49452,5966.14,-2404.06,-15269.8
2.11857e+08,9.44277,2,2.96431,28.483,-2057.22,-28562.4
2.12215e+08,22.4534,2,2.49297,1968.03,3400.24,-26247.9
2.12295e+08,57.0564,1,2.67529,-679.887,11907.5,-26602.6
2.12501e+08,88.7541,2,2.93796,-4060.62,-6861.31,-11949.1
2.12551e+08,65.4715,1,2.69713,-12208.6,5376.18,-24978.9
2.12771e+08,16.301,1,2.49317,1519.21,102.338,-25728.8
2.12863e+08,176.926,0,3.00806,2288.09,-14585.1,5184.75
2.13322e+08,106.561,1,2.84595,-4520.81,18549.6,-16968.7
2.13325e+08,134.525,1,2.66194,1996.98,3251.07,-27269.5
2.13522e+08,153.877,1,3.03986,19694.1,16870.7,-9681.62
2.1358e+08,20.18,2,2.52003,1056.99,1683.84,-25072.3
2.13842e+08,33.8226,2,3.05794,-4512.25,-3318.42,-24377.8
2.13943e+08,69.9589,0,2.45762,13018.5,-4692.02,-23510.4
2.14032e+08,86.8188,1,2.99222,-404.062,6873.72,-11947.2
2.14043e+08,4.85805,2,2.37753,197.198,-212.006,-27864.8
2.14257e+08,1.90996,1,2.62164,-251.958,-42.8591,-28493.5
0,1.85419,1,2.55285,0,0,0
2.14259e+08,106.39,1,2.80606,-15721,-15618.2,-25736.7
2.14296e+08,108.044,0,2.42435,11974.7,16467.7,-18357.1
2.14638e+08,226.011,0,2.39834,28555.4,-5274.94,-13414
2.15171e+08,37.0803,0,2.52629,-2441.13,4927.82,-23260.6
2.15259e+08,3.58885,0,2.47234,268.161,562.818,-28312.6
2.15526e+08,29.6729,1,2.43106,-6262.1,1102.93,-28846
2.15596e+08,74.4217,2,2.74756,-3684.32,9919.77,-17301.9
2.16015e+08,186.427,0,2.5491,14226.6,13040,-18464.5
2.16101e+08,54.8571,1,2.78793,11295.7,-1384.29,-27042.7
2.16334e+08,7.12375,0,2.4611,851.217,1304.16,-29146.4
2.16434e+08,110.067,2,2.55328,647.199,-16856.7,-12724.3
2.16798e+08,7.08176,0,2.95114,1087.55,-58.9694,-27807.7
2.16853e+08,9.1597,1,2.59287,-1613.94,-911.621,-28228.7
2.16903e+08,46.8358,1,2.54852,9459.04,1992.37,-26723.5
2.1693e+08,44.0777,2,2.7679,-5494.46,-7000.54,-25856.9
2.17012e+08,70.6639,2,2.48605,-7783.34,-10489.2,-21379.4
2.17147e+08,26.6971,2,2.8466,-2602.84,-4395.09,-26269.4
2.17283e+08,34.016,1,2.50776,3037.63,1399.3,-22490.7
2.17349e+08,18.955,1,2.99194,3255.77,-1047.84,-26887.6
2.17528e+08,54.0787,2,2.73624,-2371.35,7299.94,-20434.3
2.18067e+08,8.43415,1,2.6647,482.144,-1037.62,-27525.8
2.1822e+08,29.0385,0,2.85972,1552.56,-4650.47,-25112.2
2.18705e+08,3.87388,1,2.67948,-564.655,286.452,-28209.8
2.18802e+08,26.0379,1,2.36756,-5037.17,2097.42,-27528.1
2.18806e+08,15.7285,2,2.71487,2036.68,1853.92,-27083.2
2.18923e+08,172.712,0,2.75039,19435.6,6449.66,-2670.66
2.19218e+08,97.8279,1,2.99594,-20448.2,2197,-28036.8
2.19496e+08,144.368,0,2.36428,14825.9,-4403.26,-2446.19
2.1961e+08,41.171,0,2.46088,5427.81,1480.1,-22111.6
2.19722e+08,71.4158,1,2.62291,8057.77,-2852.47,-16462.3
2.19767e+08,1.62895,1,2.57818,151.518,100.323,-28555.2
0,1.59764,1,2.49726,0,0,0
0,1.58903,1,2.9618,0,0,0
2.20139e+08,34.3225,1,2.56103,881.813,6390.15,-25392.5
2.20466e+08,151.568,0,2.37043,-19910.7,21761,-16352.3
2.20497e+08,94.279,2,2.8731,-7661.44,227.21,-20358.2
2.20517e+08,165.263,0,2.53683,11744,-17124.5,-726.347
2.20677e+08,24.6668,0,2.68036,1891.35,-3945.38,-25994.1
2.20844e+08,55.2423,0,2.60793,1793.35,7406.25,-20055
2.20893e+08,52.6549,2,2.48715,9385.89,5837.79,-28083.7
2.21036e+08,53.764,1,2.61583,-8394.78,-1136.33,-21222.6
2.21745e+08,150.28,0,2.88464,21026.9,-19826.6,-18281.9
2.22206e+08,93.8475,2,2.5893,8282.59,-18090.3,-28803.3
2.2232e+08,7.77661,1,2.86388,42.0549,1413.44,-28898.5
2.22579e+08,37.4677,2,2.7067,-4455.55,-4200.01,-23738.2
2.22656e+08,157.029,2,3.01087,-27518.7,10160.3,-13879.3
2.22987e+08,15.0802,1,2.37892,-3112.84,1023.7,-29198.4
2.24251e+08,45.9409,2,3.00673,-3792.96,7035.49,-23508.1
2.2437e+08,140.465,2,2.5569,13642.6,-6986.81,-3500.8
2.24523e+08,27.9696,0,2.79962,-2718.33,-687.609,-23690.6
2.24999e+08,12.1772,2,3.03626,228.821,-1222.69,-26557.2
2.25467e+08,28.8981,0,2.79834,4926.51,3371.44,-27387.8
2.25468e+08,19.9985,2,2.85283,2940.23,-1597.25,-26234.3
2.2561e+08,201.783,1,2.90209,-19007.8,17603.8,-2453.52
2.25637e+08,16.9224,1,2.80932,3190.52,-862.873,-27578.1
2.25946e+08,90.9438,0,3.02948,5412.96,12937.7,-15881.7
2.26e+08,57.0613,2,2.65597,7967.84,-3205.1,-20661.5
2.2613e+08,172.073,1,2.99456,3672.53,10121.7,-9199.71
2.26135e+08,240.459,2,2.71296,-8155.65,-22898.4,15675.1
2.26193e+08,118.819,2,2.68733,-6052.87,-16036.7,-10479.3
2.26248e+08,71.4806,2,2.67112,5707.88,-10209.4,-19271.6
2.26287e+08,43.2481,2,2.99471,-7382.55,-2347.44,-24006.7
2.26432e+08,135.812,2,2.41745,8567.42,26511.5,-22039.7
2.26666e+08,55.6832,2,2.56184,-9160.51,-7455.72,-27754.1
2.272e+08,17.4614,0,2.9104,39.4423,-3649.9,-28451.9
2.27689e+08,59.0587,0,2.68013,5097.51,-1841.75,-17566.1
2.27896e+08,41.3257,0,2.8994,8538.57,551.284,-26840.2
2.27996e+08,22.9893,2,2.40234,-3739.35,672.003,-25748.7
2.28443e+08,191.44,1,2.70268,-12619.4,10422.5,-10460.5
2.28497e+08,35.5625,0,2.55646,3773.35,1700.2,-22484
2.28733e+08,98.214,1,2.90866,20544.9,1380.7,-27889.1
2.28766e+08,65.9851,2,2.9359,12423.5,7.25088,-22771.1
2.29101e+08,87.5583,0,2.89288,-6947.17,-16646.7,-25249.2
2.29169e+08,2.96545,1,2.96122,-199.831,664.088,-28748.2
2.2946e+08,6.04425,2,2.52156,-1264.32,-52.2938,-28437.5
2.29664e+08,3.6185,0,2.61114,-495.747,-465.687,-28543.3
0,3.03832,2,2.67415,0,0,0
2.29723e+08,52.9657,1,2.7324,-4303.35,7678.06,-22702.9
2.29894e+08,92.6736,2,2.78283,-17650.9,-7173.55,-24441.1
2.30007e+08,184.718,2,2.94643,-10524.2,-2393.38,-29587.3
2.30133e+08,134.432,2,2.72395,-18114.5,-10222.5,-9518.37
2.30173e+08,16.7085,0,2.86832,2073.25,-1713.51,-26469.7
2.30284e+08,47.3088,0,2.38179,3951.47,-5872.74,-21719.6
2.30528e+08,57.5823,2,2.36695,4667,-4808.8,-18621.5
2.31046e+08,105.072,1,2.82959,-9702.15,-10827.2,-12201.7
2.3109e+08,64.892,1,2.8561,5005.88,-11054.1,-25177.6
2.31219e+08,10.5728,1,2.5431,-1699.81,-825.579,-27577.6
2.31298e+08,78.3082,1,2.60542,6047.76,10047.6,-17134.9
2.31864e+08,32.0183,0,2.46216,6012.62,-2232.65,-26357.1
2.3199e+08,5.98374,2,2.75359,996.592,-819.859,-28596.8
2.32231e+08,32.8294,0,2.95385,5350.16,4177.47,-27203.4
2.32257e+08,106.296,2,2.96363,-2007.99,-16795.3,-14492.3
2.32394e+08,29.4497,1,2.84774,2930.23,5265.55,-27117.2
2.32462e+08,72.5268,2,2.38016,-4084.36,-14668.4,-26213.9
2.32499e+08,68.5297,0,2.5204,-2485.94,10332.3,-18985.3
2.32751e+08,25.3214,1,3.00791,2803.07,-885.516,-24441.6
2.32758e+08,44.2732,2,2.91709,-7093.28,-3254.01,-23640.7
2.33018e+08,6.29505,2,2.43505,-943.129,-402.434,-27907.8
2.33392e+08,1.30065,1,2.52066,148.229,206.1,-28667.2
2.3343e+08,113.83,0,2.60306,11336.9,21233.3,-28743.4
2.33933e+08,49.901,1,2.53138,-5394.58,2314.33,-24837.5
2.34052e+08,144.127,0,2.6736,10427.5,-24415.8,-16247.7
2.34217e+08,15.8892,1,2.54846,2051.87,1004.27,-26367
2.34606e+08,151.397,1,2.63042,92.4171,29939.4,-17420.3
2.35091e+08,28.6487,1,2.6786,-5958.43,-959.115,-27995.4
2.35244e+08,27.0224,1,2.97111,-5175.11,2397.19,-28085.5
2.35305e+08,21.2199,0,2.92705,2080.88,353.041,-24855.9
2.35311e+08,108.743,0,2.90694,-5446.68,-12285.4,-10383.6
2.35964e+08,61.6022,2,2.62004,2139,7625.95,-18561.9
2.36041e+08,0.136122,0,2.38135,124.611,39.9267,-28810.4
0,0.221381,0,2.76889,0,0,0
0,0.166495,0,3.3971,0,0,0
0,0.620374,1,3.9872,0,0,0
0,0.146664,0,3.62674,0,0,0
0,0.160808,0,2.34012,0,0,0
0,0.146192,0,3.90132,0,0,0
0,0.138954,0,3.41953,0,0,0
0,0.134726,0,2.84712,0,0,0
0,0.180918,0,3.88415,0,0,0
0,0.135709,0,3.07862,0,0,0
0,0.134843,0,2.46886,0,0,0
0,0.235394,0,3.89315,0,0,0
0,0.150973,0,3.76278,0,0,0
0,0.228113,0,2.95297,0,0,0
0,0.247837,0,3.84339,0,0,0
0,0.192751,0,2.87687,0,0,0
0,0.149422,0,3.63274,0,0,0
0,0.195648,0,3.86342,0,0,0
0,0.143032,0,2.7955,0,0,0
0,0.266786,0,2.22972,0,0,0
0,0.134709,0,3.1507,0,0,0
2.36074e+08,54.6217,1,2.70054,-8762.16,2715.57,-21761.2
2.36164e+08,76.2984,0,2.46586,12642.3,-325.335,-18686.8
2.36219e+08,9.69468,2,2.46191,1830.01,403.382,-28050.2
2.36418e+08,22.5743,2,2.50478,2814.57,-3344.79,-26773
2.36444e+08,69.6323,0,2.44828,7999.86,-3290.25,-16835.6
2.36868e+08,8.93733,1,3.01077,-1298.29,-387.911,-27524
2.3704e+08,26.1836,0,2.95161,2968.86,4340.78,-27072.9
2.37178e+08,21.9048,2,2.74543,-3607.74,-1442.75,-26212
2.37437e+08,1.91235,1,2.74526,-380.974,333.949,-28859.1
0,1.8432,1,2.63932,0,0,0
2.37438e+08,19.1571,2,2.40009,-3879.67,912.515,-27845.9
2.37512e+08,50.1888,0,2.68805,7324.67,7710.1,-27942.1
2.37615e+08,77.9604,2,2.56901,-8382.17,13075.7,-23451.9
2.37765e+08,15.3111,2,3.05932,99.1459,2657.31,-27120.9
2.37789e+08,74.7644,0,2.73937,12320.1,8119.62,-23074.4
2.38044e+08,49.5693,1,2.93322,5684.33,-3753.11,-21004.9
2.38069e+08,33.3367,1,2.86798,6145.52,-1057.36,-25679.1
2.3815e+08,16.3433,0,2.49953,-2057.85,2173.39,-27199.2
2.38277e+08,17.2955,0,2.60545,-1883.16,3104.84,-28594.9
2.38439e+08,132.166,2,2.48356,-3088.93,-10683.9,-25257.7
2.38475e+08,39.4767,1,2.45522,-6220.7,2671.62,-23830.2
2.38562e+08,161.731,1,2.37093,-20380.9,25914.9,-19275.7
2.3859e+08,30.7444,2,2.5631,-206.786,-6515.66,-29925.5
2.38648e+08,3.49611,2,2.82494,-240.054,-638.559,-29325.9
2.38925e+08,117.562,2,2.80021,19355.7,-1176.63,-13491.4
2.39176e+08,8.61284,2,2.8834,-1520.13,-1110.45,-29130.7
2.39515e+08,58.2708,2,2.47504,402.221,-10403.5,-22096.1
2.3955e+08,101.812,1,2.78144,1672.56,12007.6,-11128.5
2.39627e+08,14.5427,1,2.8758,-1327.91,1032.37,-26223.2
2.39741e+08,16.1553,0,2.4959,2632.69,2325.71,-28800
2.3983e+08,31.6348,0,2.76921,4576.66,-1589.5,-24177.2
2.39897e+08,149.372,2,2.57004,19477.7,24455.8,-25058.4
2.40079e+08,195.106,0,2.94831,-16707.5,-13129.8,6126.05
2.40446e+08,111.907,0,2.54425,5333.13,8758.29,-15736.3
2.40789e+08,42.1011,2,2.68656,-1274.5,-8868.05,-28288.9
2.4096e+08,8.3807,2,2.65576,1186.42,-28.1791,-27519.6
2.40974e+08,159.016,2,2.91724,-14430.9,22224.2,-8550.84
2.41557e+08,13.3901,1,2.6664,273.153,-1694.01,-26664.9
2.41599e+08,50.8431,1,3.052,-379.432,-10076.3,-25560.7
2.41856e+08,114.662,1,2.44769,-1961.93,-16321.6,-11072.2
2.41933e+08,103.222,0,2.5484,17432,955.886,-15639.7
2.4198e+08,28.0335,2,2.69546,-3956.37,-4447.22,-27899.8
2.42039e+08,112.415,2,2.51681,-21948.5,-8482.34,-25055.3
2.42913e+08,176.883,0,2.81815,21853.9,26172.8,-13797.5
2.43e+08,121.736,1,2.76672,15528.9,19793.7,-26012.2
2.43197e+08,191.756,1,2.62752,29538.5,20988,-10777.2
2.43276e+08,1.24871,0,2.48604,263.626,-107.836,-28644.3
0,1.20634,0,2.74322,0,0,0
0,1.67316,2,2.74671,0,0,0
2.43391e+08,110.476,2,2.42053,-1852.97,-23031.9,-24794.3
2.4349e+08,89.043,2,3.04287,4780.88,-10064.8,-13834.9
2.43563e+08,50.1184,2,2.74184,-7388.08,4518.27,-23282.5
2.43603e+08,7.1415,1,3.05837,-729.399,731.664,-27648.7
2.43656e+08,78.6195,2,2.66376,-5938.27,7965.76,-15549.9
2.43696e+08,42.7347,1,2.64487,-1789.02,4951.9,-21428.3
2.43731e+08,94.5909,0,3.02621,4638.56,-17458.1,-24643.1
2.43771e+08,32.2594,0,2.42304,2097.47,6458.26,-27708.4
2.43837e+08,86.6709,0,2.82576,-541.97,-10131.4,-13691
2.43949e+08,135.713,0,2.61036,740.123,7823.34,-12430.6
2.44246e+08,23.005,2,2.92172,-729.027,-2750.4,-24848.2
2.4433e+08,56.858,2,2.75268,-3402.41,-5828.3,-18877.6
2.44413e+08,119.579,0,2.82712,-1290.67,20864.5,-14871.4
2.44549e+08,89.4746,0,2.48683,10997.5,10368.8,-17372.4
2.44693e+08,2.97561,1,2.8566,-160.224,163.469,-28412.3
2.44851e+08,2.79841,2,2.73198,116.222,-643.717,-28938.5
2.44952e+08,231.869,2,2.5126,506.777,-24929,13400.5
2.45013e+08,8.60329,1,2.81249,-104.051,9.82119,-28819.1
0,12.7628,2,3.66264,0,0,0
2.45246e+08,161.677,2,2.58654,-10348.8,23058.1,-5920.51
2.45334e+08,75.2446,2,2.63088,-1309.42,-8490.57,-15429.7
2.45926e+08,110.14,0,2.75114,7883.42,-12675,-11053.4
2.45959e+08,59.5614,2,2.86703,12383,3.41035,-27046.9
2.45975e+08,78.1948,2,2.50958,-7821.13,7133.53,-16126.2
2.45978e+08,54.4911,1,3.03959,-10475.2,1512.14,-24416.2
2.46189e+08,188.235,2,2.88389,1196.89,4421.36,-19558.1
2.46629e+08,23.6869,0,2.50201,-484.692,3234.26,-25066.9
2.46744e+08,12.4707,1,2.84906,-1766.79,-118.516,-26872.9
2.46842e+08,121.251,0,2.881,-8152.27,-15428.6,-10306.3
2.47254e+08,169.088,1,2.74782,16685,17983.2,-3017.23
2.47516e+08,29.2928,1,2.36282,-1164.51,5709.39,-26428
2.48027e+08,49.8474,2,2.85192,-4335.3,-350.484,-19270.9
2.48038e+08,27.3429,1,2.82818,-5202.81,1025.6,-26422.6
2.48745e+08,77.836,0,2.78346,13977,4458.72,-21396.2
2.49418e+08,47.2804,0,2.63899,3051.67,-7923.91,-23529.2
2.49683e+08,38.2492,0,2.62767,2790.26,1244.42,-21315.8
2.49855e+08,18.3015,0,2.46473,816.33,-2934.81,-26396.6
2.499e+08,23.1082,0,2.90014,3725.42,3081.62,-27771.8
