#class tools::wcsv::ntuple
#title time
#separator 44
#vector_separator 59
#column double eventID
#column double t(ns)
#column double copynumber
#column double energy(eV)
#column double x(mm)
#column double y(mm)
#column double z(mm)
416958,120.004,2,2.59861,6490.98,-18647.3,-12882.7
579536,142.861,0,2.96583,25017.9,5924.94,-13305.8
777960,29.3777,2,2.7485,-179.589,-5443.01,-25750
949448,28.6074,0,2.47324,755.752,-5971.96,-27906
1.17981e+06,107.584,2,2.45901,-547.825,10210.1,-14681.9
1.44493e+06,174.003,0,2.64892,8620.75,-8562.44,-15832.2
1.78153e+06,4.80491,1,2.37387,362.452,604.721,-28068.6
2.25422e+06,35.91,1,2.64765,-913.839,-7084.35,-26391.9
2.46434e+06,5.27527,1,2.39219,-1167.44,337.993,-28880.2
3.00936e+06,47.0966,0,2.61983,-6179.59,2295.97,-21415
3.16236e+06,76.0157,2,2.69412,935.511,-14009.7,-21009.2
3.23951e+06,104.473,2,2.94538,11925.8,-15988,-19619.4
3.32973e+06,77.8525,2,2.90751,-1687.64,-16366.9,-28729.6
3.36344e+06,67.4004,0,3.03278,-11221.4,8331.22,-27308.2
3.51729e+06,94.1353,2,2.42853,8478.57,-9673.5,-13604.3
3.67377e+06,64.3529,2,2.4259,-7665.25,-7523.99,-20371.6
3.90516e+06,28.0824,0,2.74258,-1148.86,-3781.97,-24436.9
4.15209e+06,5.08815,0,2.97723,-330.008,-147.348,-27850
0,5.09566,0,2.38263,0,0,0
4.15274e+06,11.7014,2,2.42417,-2529.02,184.366,-28589.7
4.20389e+06,108.953,1,2.80483,-14268.5,17163.8,-23207.6
4.37336e+06,109.416,2,2.43404,6737.11,-21008.2,-21673.7
4.84396e+06,64.7846,1,2.51943,-1302.98,4845.32,-16055.7
4.93934e+06,114.683,1,2.63865,-14772.3,-14537.4,-16336.3
5.28946e+06,146.441,1,2.56479,-22767.9,-20952.5,-28047.3
5.70773e+06,0.0614102,1,3.2784,-19.7881,73.1481,-28817.3
5.76683e+06,220.459,1,2.68043,-16373.5,-9285.72,13665.6
6.03912e+06,94.874,2,2.92109,5508.65,18058.8,-22714.3
6.17181e+06,75.3072,0,2.63754,11140.7,2721.07,-17744.8
6.29956e+06,160.318,2,3.04409,-25142.3,-20770,-20525.7
7.13325e+06,189.53,1,2.6526,-20896.2,19317,-675.987
7.74768e+06,12.9333,2,2.6538,1419.92,-2095.82,-27656.2
7.80649e+06,77.3021,2,2.98872,-11019.8,-4031.33,-17612.5
8.03667e+06,240.834,2,2.43861,-22801.4,-21820,2723.39
8.32504e+06,8.50643,2,3.047,367.509,-343.836,-27102.2
8.44324e+06,66.6224,0,2.76215,5362.7,1540.77,-15935.4
8.66798e+06,167.551,0,2.59085,-18461.2,-21991.7,-8208.21
8.85431e+06,203.486,0,2.70618,-8161.82,23592.9,6028.45
8.91911e+06,112.641,1,2.68786,3161.17,-21427.7,-19260.3
9.09897e+06,286.839,1,2.60939,25665.1,-8036.55,25366.4
9.84595e+06,3.62028,0,2.82634,455.425,-82.9027,-28172.4
1.01823e+07,121.807,0,2.63672,19750.4,-1094.59,-12314
1.0622e+07,91.8332,2,2.66816,749.074,-10809.8,-12722.1
1.0797e+07,42.4827,1,2.95138,-4064.67,7406.33,-25724.8
1.08332e+07,10.5356,0,2.44505,2114.76,-298.332,-27936.3
1.11943e+07,140.665,2,2.45624,-15892.4,-2651.66,-3849.03
1.15012e+07,74.8468,0,2.42511,13608.8,-8032.69,-26782.9
1.15934e+07,182.627,2,2.81536,-21642,2695.77,-22467.9
1.18526e+07,30.0744,2,2.86759,-6160.4,-1007.8,-27414.1
1.18981e+07,156.456,0,2.95525,-21412.5,-5634.93,-4669.89
1.19932e+07,112.444,1,2.68069,12771.8,10216.5,-11625.2
1.2405e+07,138.713,0,2.56918,2043.23,-23867.9,-11926.8
1.2413e+07,63.3951,2,2.41181,970.673,-13325,-26802.1
1.2451e+07,11.4096,0,2.81236,766.318,2319.19,-28602.8
1.2472e+07,162.188,1,2.61269,15855,29906.6,-24652.1
1.24901e+07,16.0845,0,2.78905,-50.5102,-2211.76,-26270.6
1.27986e+07,8.87853,2,2.9452,-384.542,-989.423,-27238
1.28456e+07,41.4446,1,2.60884,5645.1,-4414.78,-23877.5
1.30018e+07,64.3695,1,2.87523,-4844.93,2902.97,-16527.3
1.30521e+07,168.417,0,2.94022,-23771.2,21870.6,-15692.5
1.37124e+07,251.798,1,2.99744,-26214.3,12426.3,-11802.5
1.37279e+07,99.6881,1,2.90018,-7812.16,-10553,-16977
1.39265e+07,31.3535,1,2.71108,-2766.11,6071.24,-29600
1.39403e+07,168.153,0,2.6422,18402.8,29623,-22172.4
1.40406e+07,58.0606,1,2.64665,3788.59,-6221.19,-19021
1.4114e+07,130.458,1,2.98337,12191.4,-15960.6,-20564.2
1.42358e+07,19.2979,0,3.04115,1054.82,1309.14,-25114.3
1.43129e+07,131.084,2,2.72094,26456.9,-7787.57,-27690.7
1.54212e+07,70.6165,2,2.73586,8452.37,7486.83,-19224.9
1.59932e+07,115.636,2,2.91833,-12537.4,-11391.4,-11353.9
1.61516e+07,151.805,1,2.9399,-16516.6,1617.23,-1610.72
1.63358e+07,129.535,2,2.57533,14442.2,-750.506,-5602.48
1.67077e+07,57.2196,1,2.66594,-7836.89,-6402.87,-22247
1.70389e+07,1.57471,2,2.56626,-60.7663,265.705,-28708.5
1.72056e+07,5.69019,0,2.48921,-108.378,-1159.02,-28509.1
1.75605e+07,9.66245,0,2.65505,1142.94,-1759.23,-28961.8
1.76454e+07,73.9469,0,2.92641,-2089.96,15403.3,-28562.6
1.77701e+07,77.1972,0,2.72983,6760.01,3662.13,-14451.5
1.78998e+07,54.5443,2,2.8357,9543.11,-6423.28,-28445
1.81105e+07,0.149062,1,2.88131,-51.8625,91.629,-28841.9
0,0.224683,1,2.64993,0,0,0
0,0.1816,1,2.65248,0,0,0
0,0.121798,1,2.37764,0,0,0
0,0.151545,1,2.50334,0,0,0
0,0.129785,1,3.89524,0,0,0
0,0.179127,1,4.10596,0,0,0
0,0.149727,1,2.72816,0,0,0
0,0.110006,1,2.30145,0,0,0
0,0.223094,1,3.81613,0,0,0
0,0.239202,1,3.45816,0,0,0
0,0.143933,1,2.65079,0,0,0
0,0.116446,1,3.5982,0,0,0
0,0.150627,1,2.32853,0,0,0
0,0.115285,1,3.29779,0,0,0
0,0.184504,1,2.27844,0,0,0
0,0.112963,1,3.45422,0,0,0
0,0.135348,1,2.6264,0,0,0
0,0.209227,1,3.06204,0,0,0
0,0.14417,1,3.23296,0,0,0
0,0.133329,1,2.21619,0,0,0
0,0.126439,1,2.14554,0,0,0
0,0.110066,1,4.0217,0,0,0
0,0.205247,1,2.91947,0,0,0
0,0.14238,1,3.25126,0,0,0
0,0.183682,1,3.64795,0,0,0
0,0.130004,1,2.10395,0,0,0
0,0.177953,1,3.49951,0,0,0
0,0.118651,1,2.81464,0,0,0
0,0.218516,1,3.93775,0,0,0
0,0.140014,1,2.61771,0,0,0
0,0.113633,1,2.26488,0,0,0
0,0.109659,1,3.59249,0,0,0
0,0.162973,1,3.64853,0,0,0
0,0.132523,1,3.02334,0,0,0
0,0.157269,1,3.53187,0,0,0
0,0.253184,1,3.6902,0,0,0
0,0.178624,1,2.68948,0,0,0
0,0.191529,1,2.60816,0,0,0
0,0.246722,1,3.04982,0,0,0
0,0.115181,1,2.63076,0,0,0
0,0.124079,1,3.45203,0,0,0
0,0.195382,1,2.7439,0,0,0
0,0.110878,1,3.07666,0,0,0
0,0.114364,1,2.24937,0,0,0
0,0.18991,1,2.22533,0,0,0
0,0.108163,1,3.63293,0,0,0
0,0.177979,1,2.30723,0,0,0
0,0.12395,1,3.09,0,0,0
0,0.174595,1,3.13683,0,0,0
0,0.114712,1,2.96066,0,0,0
0,0.107851,1,2.56129,0,0,0
0,0.112904,1,3.0467,0,0,0
0,0.199687,1,4.04919,0,0,0
0,0.114624,1,3.28181,0,0,0
0,0.150043,1,4.12116,0,0,0
0,0.106965,1,3.04835,0,0,0
1.81512e+07,99.8643,1,2.39291,14980.9,10991.1,-18693.6
1.81784e+07,12.9679,2,3.02027,897.038,-2440.37,-29846.8
1.86616e+07,79.3936,1,3.0266,-3430.86,8397.03,-14829.6
1.87334e+07,46.2524,1,2.69857,-5132.31,5539.14,-22533.5
1.9087e+07,116.827,2,2.60132,-20093,-8588.08,-17262.6
1.92693e+07,86.2221,2,2.3808,-9565.15,-8517.42,-15751.2
1.93284e+07,25.7584,1,2.59397,4390.82,-2679.52,-27197.3
1.99452e+07,121.175,2,2.87673,-5063.06,-3576.9,-28139.1
2.02759e+07,53.385,1,2.63537,-4974.56,9463.8,-24993.6
2.03934e+07,100.781,1,2.91,-16866,12936.9,-28182.7
2.04038e+07,107.889,0,2.52919,10407,20363.5,-28917
2.07233e+07,108.444,0,2.65623,20657.2,4446.3,-19883
2.08758e+07,53.595,0,2.37578,6481.61,4769.22,-20757.5
2.12803e+07,54.0019,1,2.5328,4742.35,6148.59,-20429.5
2.13485e+07,15.7387,1,2.56593,-2721.33,1617.34,-27531.9
0,15.8126,1,2.84897,0,0,0
2.1459e+07,132.089,0,2.66466,27321,-5905.19,-28068.8
2.15752e+07,41.8243,2,2.82479,7980.04,-1152.2,-25351.9
2.17682e+07,151.313,2,2.68826,526.962,23966.8,-7850.54
2.18197e+07,23.2771,1,2.64437,-4604.55,419.802,-27028.9
2.19018e+07,19.6108,2,2.72256,-2513.42,2044.76,-26309.9
2.21165e+07,28.2241,0,2.95067,2543.24,5420.49,-28784
2.21471e+07,82.7263,1,2.95854,-1690.81,7513.43,-13226.3
2.21976e+07,80.3143,2,2.58527,-8314.5,-12479.5,-20736
2.22735e+07,19.9228,1,2.41394,-2857.23,-1367.52,-25999.8
2.23535e+07,43.3076,1,2.79994,-1756.08,4187.48,-20885.9
2.24613e+07,163.094,1,2.45766,22151.4,14740,-6853.08
2.27746e+07,6.1322,0,2.98456,624.488,-1146.12,-28459.8
2.30577e+07,39.7519,1,2.76982,-5168.84,6683.89,-28262.6
2.31304e+07,71.4186,1,2.55949,-7359.21,3439.26,-16065.5
2.33038e+07,2.1914,1,2.85975,166.061,424.75,-28559.1
2.38706e+07,73.1916,1,2.97616,7127.72,8068.22,-17849.5
2.38915e+07,1.63638,0,2.61785,295.054,-15.0958,-28543.1
2.39591e+07,198.24,0,2.71607,-29635.4,-14480,-3266
2.41141e+07,15.5137,0,2.45691,3203.17,603.028,-29798.2
2.44508e+07,58.5373,0,2.74709,10844.4,-2198.56,-23205.5
2.45154e+07,29.2435,0,2.82048,5170.4,3230.53,-27432.7
2.45972e+07,12.8233,0,2.53637,2621.23,984.764,-29122.1
2.49548e+07,32.9912,2,2.46895,-524.892,-4423.65,-23374.9
2.54269e+07,44.8183,2,2.72414,-2458.62,-8432.34,-25134.8
2.5479e+07,3.5118,1,2.6584,707.105,80.6333,-28682.8
2.55127e+07,90.929,2,2.7343,-17489.6,-6101.08,-23809.9
2.60706e+07,8.70778,2,2.56477,-1738.49,418.469,-28317.6
2.62786e+07,7.38873,1,2.70028,610.276,272.8,-27434.3
2.63068e+07,73.131,0,2.86603,-44.3932,3438.66,-27041.7
2.71554e+07,52.7277,1,2.554,9256.7,-1083.91,-22740.1
2.71905e+07,83.5184,1,2.72986,16250.4,4162.77,-23505.1
2.76495e+07,21.771,2,2.37427,1517.02,-3956.9,-26832.4
2.76845e+07,55.1808,0,2.49039,4278.76,-631.114,-17966.4
2.8162e+07,63.5972,1,2.8714,-3612.96,5704.52,-17232.6
2.81694e+07,68.7371,0,3.01975,-8690.97,-4366.7,-18274.7
2.8532e+07,3.14321,1,2.64616,240.161,641.459,-28574.8
2.85412e+07,13.7379,1,2.98566,-2742.64,1058.63,-29193.8
2.86576e+07,117.692,2,2.68292,-1607.42,-17347.3,-24480.1
2.86947e+07,70.2564,2,2.91565,-6264.59,-10783.4,-20820.6
2.88152e+07,176.726,2,2.51291,1792.84,-6441.68,-1436.91
2.8939e+07,53.5024,0,2.69234,-4483.51,-1904.55,-18678.7
2.91809e+07,54.3279,2,2.4243,-2138.92,-10239.5,-23907.5
2.95045e+07,2.71038,2,2.67988,35.7532,-490.918,-28433.3
0,2.65322,2,2.54749,0,0,0
2.96122e+07,126.916,0,2.96318,-4963.02,-10984.4,-5119.58
2.98497e+07,227.947,1,2.78768,-4048.44,15959.6,10897.1
3.00074e+07,42.1518,2,2.98108,-3895.38,-8026.99,-29368.9
3.00434e+07,143.44,1,2.84777,-15634.5,-4708.97,-3456.66
3.05782e+07,7.45443,1,2.63585,1460.27,236,-28352.2
0,6.875,0,2.66312,0,0,0
3.08515e+07,66.039,2,2.89377,-2621.47,-12064.1,-22317.2
3.08779e+07,38.5631,0,2.79719,3979.83,4812.46,-23577.4
3.09576e+07,52.4425,0,2.70412,4080.21,7113.53,-21347.6
3.09981e+07,9.33952,0,2.45813,-653.489,711.674,-27135.9
3.10083e+07,25.6754,0,2.77454,1373.66,-5167.93,-27850.8
3.11636e+07,32.8293,0,2.5661,3727.98,-1066.54,-23002.8
3.14356e+07,73.1393,1,2.5649,-11438.3,10464.7,-27730.5
3.18716e+07,27.4785,1,2.70796,-1337.22,4799.14,-25742.9
3.19042e+07,44.0214,1,2.93808,3830.71,7835.76,-25627.7
3.24777e+07,17.814,1,2.81841,1700.29,-1113.57,-25708.5
0,17.5275,2,2.64127,0,0,0
3.25142e+07,19.1198,0,2.53026,1697.87,845.262,-25208.4
3.29077e+07,43.7717,0,2.49219,2683.88,-5271.54,-21664.2
3.30885e+07,0.304495,2,3.50035,42.1293,-77.0055,-28823.4
0,0.545233,2,3.59975,0,0,0
3.31214e+07,135.687,0,2.79923,6470.06,-9342.65,-20329.7
3.36044e+07,12.9608,1,2.74105,-439.757,1619.93,-26605.7
3.36442e+07,52.6986,2,2.60885,-2936.25,8726.57,-22623.6
3.37084e+07,106.109,0,3.04065,-851.534,-14266.3,-16813.6
3.37444e+07,23.4773,1,2.38965,1323.19,-2984.23,-25174.6
3.37967e+07,81.4416,2,2.6268,-14682.6,358.733,-19818.8
3.38437e+07,9.74477,0,2.53504,365.166,-177.052,-28889.4
3.38653e+07,17.6014,1,2.9624,-1051.6,2470.4,-26198.1
3.40897e+07,64.1127,0,2.66723,-3827.42,-10641.1,-21421.8
3.41452e+07,43.8914,1,2.54447,4935.45,7931.39,-28426.5
3.42412e+07,5.03222,0,2.8849,949.25,-292.372,-28274.6
3.44238e+07,29.8066,1,2.38242,-2454.22,-5222.25,-26317.1
3.45264e+07,80.2109,2,2.63429,-1254.59,-9433.26,-28002.6
3.46243e+07,64.7138,2,2.78417,-5930.84,-3355.77,-16985.3
3.4735e+07,11.5821,2,2.66283,303.485,1403.78,-26895.5
3.48672e+07,121.662,2,2.76941,13074.6,-19207.8,-19185.9
3.5063e+07,159.026,2,2.83659,-26470.6,-19647.7,-22794
3.52725e+07,84.955,2,2.85774,-6431.38,-7828.22,-14059.9
3.53339e+07,17.3163,1,2.62284,-3165.71,2036.59,-29055.9
3.53444e+07,77.187,1,2.94869,-10310.3,-6916.16,-18436
3.596e+07,91.0441,2,2.68882,-15596.7,-7779.48,-26043.9
3.60245e+07,42.9884,1,2.76216,7149.44,-3019.56,-24240.5
3.66946e+07,14.7359,2,2.96799,761.036,-2633.66,-27237.1
3.68999e+07,102.55,2,2.81312,-5726.18,-14434.6,-13791.9
3.70758e+07,166.666,0,2.57315,17382.2,-13942.1,-1849.95
3.76594e+07,91.192,2,2.72015,6813.37,-12732.1,-16106.7
3.79548e+07,52.1404,1,2.44493,6814.07,6679.24,-23234.3
3.81543e+07,9.58185,2,2.92307,-1870.78,-980.187,-28676.1
3.87025e+07,131.905,2,2.50787,-20725.6,-13002.7,-15299
3.88797e+07,71.9966,0,2.59447,12549.1,5339.66,-21961.3
3.9085e+07,28.883,2,2.90567,-4986.28,-3651.32,-28758.9
3.92835e+07,124.174,2,3.04511,-5091.43,-20440.3,-13459.7
3.93042e+07,103.244,0,2.79734,8895.28,19538,-25240.4
3.9838e+07,49.5079,2,2.86947,1841.27,-10318.4,-29516.7
4.00547e+07,63.173,0,2.44155,6283.24,-2174.85,-17179.8
4.05279e+07,33.2424,2,2.9146,-6483.92,1695.37,-26680.3
4.10023e+07,157.864,1,2.89839,16288.6,26499.3,-17202.5
4.12446e+07,128.438,2,2.52234,25232.2,-10062.9,-29243.8
4.16044e+07,162.101,1,2.48824,-4014.48,-24691.6,-5455.24
4.17644e+07,180.38,2,2.61493,-26385.3,11571.1,-3917.52
4.2375e+07,62.8923,1,2.49455,10617.8,7272.1,-25355.1
4.25326e+07,18.7268,2,2.97176,2364.47,2814.28,-27591.5
4.25751e+07,141.879,1,2.74024,-11266.7,7653.54,-4028.79
4.28406e+07,181.466,1,2.77883,-14929.5,-20032.4,6.98934
4.28755e+07,9.8619,0,3.04136,2161.26,-170.932,-28589.3
4.32459e+07,108.063,2,2.96636,-21502.2,7122.09,-27755.6
4.32485e+07,130.644,2,2.98243,-21570.7,-4665.43,-12524.4
4.35607e+07,80.6344,0,2.74567,7134.5,-14689.5,-25895.5
4.36002e+07,9.06963,1,2.5372,1603.06,-103.223,-28124.2
0,7.95362,0,2.71014,0,0,0
4.36109e+07,1.63241,1,2.78617,282.044,129.036,-28687.7
0,1.59276,1,2.5974,0,0,0
4.36933e+07,57.2998,0,2.39214,8115.95,-8880.92,-26752.1
4.38754e+07,54.3194,1,3.01923,9474.4,1784.63,-23824.7
4.42813e+07,80.1587,1,2.94039,5313.82,-5376.66,-13827.2
4.44181e+07,142.162,1,2.6523,25015.4,9401.52,-15187.7
4.48968e+07,63.4629,1,2.58052,3051.64,-9725.07,-21330.3
4.49697e+07,37.1664,2,2.65868,-6660.23,-777.621,-24672.5
4.50096e+07,7.82214,1,2.60716,-972.531,330.607,-27471.6
4.58531e+07,11.3648,1,2.68409,-376.783,-1830.7,-27388.6
4.59634e+07,27.7197,2,2.52407,887.487,-5576.23,-26958.4
4.61667e+07,171.397,1,2.74161,19026.9,13681.5,-6101.25
4.61838e+07,122.999,2,2.48416,12395.8,-6131.84,-6851.25
4.62673e+07,29.449,2,2.44536,-502.758,-3402.77,-23575.5
4.65099e+07,19.1835,1,3.01012,-1275.96,-1087.58,-25196
4.73214e+07,11.9101,2,2.72061,1538.26,642.608,-27015.1
4.759e+07,221.999,2,2.65623,14071.9,-29596.4,4670.29
4.77339e+07,64.8799,1,2.79649,-3226.59,-11192.9,-21761.8
4.7899e+07,62.9227,0,2.6035,-1211.2,10371.9,-20614.9
4.80988e+07,12.5469,2,2.62158,705.792,-2021.2,-27157.1
4.81568e+07,87.7204,1,2.45105,-1775.71,18465.3,-26996
4.87816e+07,30.6201,1,3.02741,513.294,3511.99,-23430.6
4.87852e+07,220.978,0,3.05686,22843.8,-14571.1,-6128.91
4.88374e+07,160.133,2,2.95338,-14732.9,-3783.74,1141.16
4.89544e+07,58.3427,0,2.89962,9403.04,7858.62,-27345
4.89881e+07,86.1458,2,2.7807,-14109.2,10096.5,-23496.1
4.90479e+07,2.62086,2,2.98059,45.7227,409.639,-28528.1
4.93579e+07,10.3506,0,3.01539,2138.55,-643.738,-28375.9
4.94926e+07,7.68414,2,2.61885,-1348.8,-844.188,-28170.9
5.01044e+07,1.75327,1,2.49425,-272.69,239.843,-28563
5.01064e+07,17.0512,2,2.36521,-755.318,-3631.76,-29206.1
5.02582e+07,24.4715,0,2.76807,-3030.06,3781.6,-27216.1
5.03534e+07,10.8127,0,3.0207,2135.09,-275.606,-27913.6
5.03708e+07,99.9046,2,2.45778,13088.2,-4856.44,-12957.1
5.06903e+07,113.235,1,3.00989,2010.23,22891.4,-22585.2
5.07287e+07,9.6833,2,2.43079,-267.129,972.395,-27051.2
5.09008e+07,3.34728,2,2.9774,-558.335,-74.1991,-28321.3
0,3.33709,2,2.92946,0,0,0
5.10489e+07,3.77807,2,2.61323,131.657,-856.218,-28738.4
5.11209e+07,100.696,0,2.54226,21364.5,756.895,-28419.9
5.14035e+07,5.66877,0,2.54709,47.5965,1213.04,-28939.4
5.14072e+07,8.9251,0,2.98204,1463.33,-39.3648,-27535.6
5.15045e+07,3.43589,2,2.55423,-259.02,-657.138,-28468
5.15624e+07,56.1859,0,2.41715,8531.28,7604.5,-25288.5
5.21669e+07,76.485,1,2.62103,-7964.14,12704,-22603.6
5.23601e+07,3.20908,2,2.83716,-386.819,-700.905,-28902.1
5.24481e+07,124.989,2,2.67893,9184.25,12519.1,-7577.62
5.25243e+07,33.1463,0,2.79101,5725.92,-4057.1,-28007.9
5.25656e+07,91.2098,2,2.98865,16308.7,-5119.49,-20276.5
5.26449e+07,182.043,0,2.60461,13673.7,-26005.3,-3985.39
5.31291e+07,7.19686,0,2.75588,-114.191,-526.805,-27419.6
5.37181e+07,53.1372,2,2.43336,5519.24,7416.91,-22512.7
5.37528e+07,129.178,1,2.68455,-18291.8,17691.9,-18856.4
5.3996e+07,9.24796,2,3.01803,289.388,-1740.63,-27909.2
5.40949e+07,185.278,0,2.71506,-5245.79,20110.2,-11628.5
5.41942e+07,17.38,0,2.60117,1548.44,1363.96,-25737.3
5.44435e+07,98.1841,0,2.41492,19729.7,47.9604,-22020
5.48428e+07,49.2985,1,2.71083,-6124.77,-6814.31,-23952.5
5.49094e+07,207.001,0,2.97402,-27263.6,-25426.4,-7327.19
5.56388e+07,81.7842,0,2.47103,3194.93,-14795.5,-20390.6
5.60598e+07,143.976,0,2.7815,-21529.9,3205.52,-7837.16
5.62872e+07,231.475,0,2.75697,26715.8,9815.03,-3786.46
5.64803e+07,103.055,0,2.44218,17942.9,1427.65,-18772.8
5.66295e+07,140.307,2,2.40875,19754.9,-16457.2,-13949.3
5.6878e+07,54.994,2,2.42586,7886.93,872.592,-20340.4
5.69234e+07,135.592,0,2.8835,-16556,22421.4,-23122.9
5.69385e+07,40.452,0,2.67527,8330.28,2056.59,-27936.6
5.74677e+07,19.6818,2,2.89478,88.8086,-4231.83,-28853.6
5.74921e+07,65.3277,0,2.82771,5879.13,-2768.57,-16686.2
5.75875e+07,62.6271,1,2.99433,1891.53,12569.7,-25235.6
5.7606e+07,0.914505,2,2.78849,-43.8445,-254.804,-28977.8
5.76649e+07,120.794,2,2.86343,-10611.2,-17693.4,-13906.6
5.79656e+07,35.3246,0,2.63254,6058.65,-2464.49,-25098
5.84276e+07,134.757,1,2.63356,-8009.45,7273.66,-2513.34
5.84565e+07,82.2215,0,2.73997,12247.2,-2443.48,-20004.7
5.87194e+07,210.28,2,2.41696,-22276.4,-15701.7,6370.01
5.88565e+07,42.083,0,2.56846,-4133.96,-7847.64,-28484.5
5.98089e+07,61.5136,1,2.96079,1647.18,9748.3,-20471.3
5.9828e+07,118.468,2,2.41168,-18639.3,-16840.5,-27641.2
5.98543e+07,92.9954,2,2.3888,1125.02,-19534.2,-26017
5.99429e+07,32.3107,1,2.87305,-4881.31,2095.25,-24525.3
6.01745e+07,9.40649,1,2.62177,242.349,644.903,-26941.6
0,9.34212,1,2.48719,0,0,0
6.07884e+07,12.8003,0,2.73349,2301.33,-1175.65,-29904.9
6.07956e+07,53.9616,0,2.66368,-3382.07,4431.47,-18952.9
6.08681e+07,61.4389,1,3.04558,1767.34,10403,-21362.5
6.09259e+07,9.75974,0,2.92955,-946.188,-1801.74,-28582.4
6.09729e+07,51.9397,0,3.05917,2246.85,7285.78,-21040.4
6.09848e+07,12.1518,1,2.37933,-2457.49,42.5642,-29765.5
6.1048e+07,244.476,0,2.86302,1050.95,28744.9,13731.4
6.12809e+07,89.3701,0,2.57317,15995.3,9847.73,-26127.5
6.13144e+07,56.9755,0,2.937,10688.9,-5348.98,-27219.4
6.1327e+07,34.5444,1,2.50609,-542.698,7150.1,-26968.1
6.14716e+07,15.8441,1,2.39023,-1494.47,844.396,-25907.5
6.18621e+07,9.91456,2,2.49783,-1643.86,-366.084,-27500.5
6.18974e+07,66.5258,1,2.37883,12107.2,-1882.49,-21933.5
6.19468e+07,61.1438,0,2.4211,9974.49,875.611,-20552.8
6.20242e+07,35.1324,2,2.93094,-5212.05,5173.2,-29677.7
6.21571e+07,80.5602,2,2.79387,95.5154,-498.762,-28748.4
6.22433e+07,100.398,1,2.9883,-5285.7,17113.2,-17609.3
6.23614e+07,5.91713,2,2.71901,49.4758,-503.609,-27653.4
6.25865e+07,43.9449,1,2.89707,-2309.16,2538.78,-20239.7
6.27385e+07,47.9848,2,2.43796,5257.13,-8730.68,-29762.5
6.28928e+07,85.2437,0,2.42776,7341.46,-16058.2,-24951
6.31154e+07,24.7863,2,3.02568,421.357,-2000.18,-24027.5
6.3126e+07,63.1351,0,3.04279,11780,-4905.12,-25004.8
6.32343e+07,84.5013,1,2.92792,-9354.06,-13294.3,-21779.7
6.34347e+07,160.941,1,3.04031,19123.3,62.4689,-1088.29
6.35152e+07,78.1137,0,2.6788,15755,2657.14,-24403.4
6.35384e+07,24.1804,0,2.90845,4080.23,-2973.4,-29969.3
6.4106e+07,198.261,0,2.94035,23020.7,-21329.4,-1446.49
6.42107e+07,33.6979,0,2.49342,-6477.08,-316.642,-26076.6
6.42244e+07,39.4742,1,2.51887,-1630.03,6940.86,-24385.6
6.42627e+07,9.7576,0,3.04959,708.088,-956.764,-27113.5
6.44281e+07,114.376,1,2.91688,-3846.4,21992.7,-19754.7
6.4792e+07,103.009,0,2.60265,14563.8,-2129.26,-12776.6
6.50371e+07,215.66,0,2.985,17437.6,18178.2,8738.97
6.52582e+07,35.8908,2,2.7143,-7105.68,1389.41,-26490.2
6.54445e+07,119.439,1,2.42049,-6789.27,15111.5,-9678.6
6.57313e+07,68.1647,0,2.59619,13639.1,232.036,-23986.8
6.57834e+07,151.108,0,2.6366,7634.61,26903.8,-20053.9
6.58408e+07,276.418,0,2.75715,-25604.7,-1873.13,-16650.7
6.64324e+07,28.4125,2,2.77334,2673.38,-3226.3,-24509.6
6.65771e+07,126.632,2,2.61791,24934.4,-1444.68,-19331.3
6.65771e+07,94.5823,0,2.93665,-5992.1,-4724.36,-28763
6.65818e+07,10.8137,1,2.6691,599.711,1086.24,-26875.3
6.69055e+07,86.7841,1,2.91172,-10232.5,-10793.7,-29009.3
6.70373e+07,18.0905,0,2.56664,2516.1,-676.187,-25940.3
6.72322e+07,53.8775,0,2.70353,3361.2,-5976.8,-19725.7
6.75112e+07,126.334,0,2.91398,24003.2,27.5477,-17359.9
6.7917e+07,95.4979,0,2.60306,-18698.4,6539.63,-25354.7
6.81559e+07,45.7551,1,2.44663,-9025.04,-3581.3,-28340.6
6.81914e+07,128.68,2,2.41766,1322.76,-4407.79,-17616.3
6.83682e+07,73.3809,1,2.74297,-11618,7953.14,-22238
6.89628e+07,88.3592,0,2.41808,-16169.8,-1228.29,-19651.4
6.91016e+07,86.715,1,2.71387,1779.82,-376.062,-27163.5
6.92932e+07,41.1518,2,2.94569,-4011.58,-7219.91,-25974.2
6.94451e+07,168.277,0,2.56891,-2044.29,-15180.7,3254.89
6.95753e+07,47.2282,1,3.05503,1337.86,9085.36,-24970.9
6.96736e+07,26.3421,0,2.91587,-4876.63,-361.651,-26357.7
6.99675e+07,237.519,2,2.90914,16544.8,-2353.43,2085.26
6.99756e+07,14.8103,2,2.51562,-2965.59,-1239.08,-29015.4
7.00973e+07,104.129,0,3.06074,15942.3,14766.1,-26236.6
7.0347e+07,70.7887,1,2.91977,-103.534,14825.7,-27051.8
7.03615e+07,55.5167,0,2.76516,4747.95,-9836.45,-24558.2
7.04146e+07,25.0232,2,2.98909,-4278.81,511.904,-25769.7
7.04292e+07,22.0245,1,2.91663,643.942,3914.82,-26333
7.11179e+07,2.92726,1,2.93635,-73.5449,524.91,-28383.9
0,2.90678,1,2.87274,0,0,0
0,2.89466,1,2.44475,0,0,0
7.16356e+07,60.5373,1,2.57075,-12732.9,1628.26,-27798.7
7.19264e+07,18.6591,1,2.5281,1603.33,3671.72,-28950.6
7.19578e+07,31.2964,1,2.70708,-5503.86,2332.86,-25842
7.20979e+07,112.191,2,2.48371,8739.49,-4578.05,-7279.05
7.21556e+07,116.406,2,2.82888,-22222.8,-1307.33,-18549.1
7.24395e+07,130.877,2,2.61406,-17052,-13351.8,-11568.6
7.24483e+07,94.2764,0,2.94925,16461.9,-3667.15,-18355.7
7.28254e+07,17.0655,2,2.54746,2972.63,-1010.35,-27041
7.28621e+07,86.793,1,3.01762,3564.12,7298.69,-24094.1
7.29731e+07,142.788,1,2.44451,2441.38,15093.5,-2749.79
7.30061e+07,133.212,2,2.72768,23330.9,-11923.5,-18779.5
7.33265e+07,88.5074,2,2.62698,-15689.2,-6616.85,-21029.9
7.3488e+07,64.6656,2,2.44249,-1637.94,9304.23,-18972
7.35307e+07,62.5354,1,2.88788,300.32,13215,-29328.8
7.39111e+07,38.6751,2,2.51485,5005.31,-1527.64,-22545.3
7.39764e+07,59.7496,2,2.38728,-3652.55,-4897.46,-17703.6
7.4156e+07,85.5652,0,2.45102,15999.1,-1618.61,-20328.4
7.45071e+07,65.8052,0,3.0118,6757.76,-7198.94,-22391.1
7.45532e+07,25.1529,1,2.6437,1254.29,4895.5,-26963
7.47226e+07,52.1053,2,2.85344,1398.53,-7123.01,-20588.2
7.47933e+07,27.9679,0,2.96979,1383.13,-397.413,-27943.6
7.48458e+07,18.7309,1,2.6017,-2480.97,-3064.75,-29077.1
7.50588e+07,64.4487,0,2.72363,-8431.01,10429.2,-26916.9
7.5469e+07,15.4463,2,2.8964,2797.43,-1677.03,-29084.2
7.54694e+07,71.4809,1,2.82852,14609.9,-1597.15,-26038.1
7.60227e+07,19.5688,0,2.95041,2744.92,-1852.09,-26294.5
7.60471e+07,221.019,1,2.72448,26148.3,21372.6,-6568.36
7.63724e+07,116.732,2,2.73804,-15743.9,6586.82,-11136.8
7.66139e+07,94.8226,1,2.90682,7860.61,-4146.08,-11039
7.68221e+07,16.8944,1,2.76003,-2538.62,-1793.01,-27050.1
7.69125e+07,81.4131,2,2.99159,-1187.04,16416.4,-24480.4
7.7212e+07,127.823,1,2.91427,-21910.8,-584.843,-13282.9
7.74007e+07,56.646,1,2.56919,-7271.28,1137.04,-19371.5
7.8229e+07,78.934,1,2.9804,-3522.48,-12635.6,-18785.6
7.83634e+07,48.2551,0,2.46311,10315.8,-388.419,-28947.1
7.8732e+07,66.5136,0,2.88911,11309.2,1600.24,-20688.9
7.94787e+07,21.5604,0,2.88961,4445.62,-1063.97,-28128.1
7.94872e+07,86.3386,0,2.39934,16493.3,3526.73,-21674.5
7.96373e+07,63.1554,0,2.45688,7832.91,8370.89,-21842.7
7.96927e+07,30.1234,2,2.85284,-704.696,-3073.55,-23279.2
8.0117e+07,56.3497,1,2.76894,-7851.56,-556.102,-19901.4
8.04494e+07,116.767,1,2.47672,1276.79,-23534.4,-21635.5
8.0814e+07,33.4716,0,2.50601,1711.33,-6191.14,-25769.2
8.11502e+07,57.5961,1,2.72154,8546.6,2766.66,-20670.2
8.13459e+07,92.5954,0,2.9618,13822.2,-13265.5,-25122
8.19325e+07,24.4333,2,2.44821,-828.858,-4868.42,-27058.5
8.19485e+07,75.2536,2,2.89454,10229.1,-1415.72,-16871.6
8.20196e+07,63.9759,2,2.65117,6217.04,-6563.73,-18815.1
8.21776e+07,84.7567,1,2.73673,-10070.6,2324.12,-19163.5
8.22917e+07,77.3447,2,2.75096,8956.93,-10428.5,-20097.9
8.24021e+07,6.00148,1,2.7903,727.966,-262.211,-27846.1
8.29158e+07,135.742,1,2.749,-8644.91,9561.65,-3283.32
8.29575e+07,125.541,0,2.65585,4885.52,16759.6,-8882.36
8.29964e+07,10.0171,2,2.42462,1120.29,-880.022,-27231.8
8.30645e+07,125.658,0,2.8361,6487.43,-13149,-26107
8.34498e+07,1.69194,0,2.8428,256.667,-146.259,-28552.5
0,1.69204,0,2.70249,0,0,0
8.35861e+07,27.1963,2,2.51333,-4836.63,-2814.91,-27694.7
8.36938e+07,91.8032,2,2.81919,-11086.7,13312.5,-20309.1
8.41221e+07,95.1129,2,2.41278,-4118.2,-17563.4,-19750.7
8.4138e+07,176.478,1,2.52202,27172.3,-20284.8,-13454.5
8.44395e+07,17.7971,2,2.51588,1197.44,-3044.29,-26862.5
0,17.8141,0,2.63343,0,0,0
8.46405e+07,9.75671,2,2.64046,-1713.51,1128.83,-28433.4
0,9.77342,2,2.68498,0,0,0
8.46983e+07,49.8908,1,2.71326,-3971.44,-7134.76,-22220.7
8.56278e+07,8.13482,1,2.98504,-388.827,1641.57,-28176.2
8.56658e+07,165.53,1,2.63498,-21665.9,-819.431,-1395.77
8.5775e+07,104.729,2,2.93774,-16865.4,-9219.71,-18005
8.59864e+07,10.198,1,2.72178,1031.94,119.78,-26957.7
8.60694e+07,44.3097,0,2.86505,952.723,4586.86,-20749.5
8.60878e+07,22.1319,2,3.05911,-1765.62,-1847.12,-24913
8.64375e+07,3.34833,1,2.98239,40.3674,736.129,-29169.4
0,3.47999,1,3.03429,0,0,0
8.65396e+07,10.4674,2,2.80727,-794.897,-2154.8,-28666.5
8.66424e+07,87.1844,0,2.36692,5895.43,12479.3,-16527.4
8.67086e+07,43.3758,2,2.60386,-6923.69,1205.65,-22933.8
8.70556e+07,166.824,2,2.99163,-25305.9,16017.7,-10750.7
8.75452e+07,89.1064,1,2.73574,685.073,7793.84,-11907.3
8.75674e+07,56.5616,1,2.79264,9429.18,5106.15,-23620.9
8.76543e+07,61.848,0,2.39357,-658.291,-5128.54,-16825.6
8.79196e+07,55.8615,0,2.96833,-4939.21,-10367.6,-26560.5
8.82356e+07,43.0512,2,2.77877,-7955.99,-4489.33,-28130.9
8.82802e+07,51.0841,1,2.49301,9221.07,3475.46,-24401.7
8.83361e+07,3.34874,1,2.62142,285.139,699.458,-29092.7
8.84159e+07,98.533,2,2.95376,3114.95,515.843,-18042
8.84609e+07,102.167,2,3.05427,14481.4,-4896.43,-13892.1
8.89068e+07,69.4474,2,2.84564,-11598.9,-2321.18,-20214.6
8.95537e+07,53.1872,1,2.85828,-6527.1,7762.05,-23915.4
8.95877e+07,30.3602,1,2.57698,-2515.03,2029.53,-29564.3
8.99523e+07,138.729,2,2.5586,-23104,17873.7,-26499.6
9.00198e+07,63.4617,0,2.85453,7887.71,-10794.6,-27707.1
9.00225e+07,33.2685,0,2.60114,4705.14,3206.05,-24598.6
9.03e+07,99.7117,0,2.38024,20271.8,3628.76,-23838.6
9.04851e+07,50.4786,0,2.45808,4212.21,5314.76,-20539.6
9.06456e+07,3.93688,2,2.86002,133.403,-294.972,-28035.7
9.08958e+07,60.4741,2,2.88212,-12529.9,1128.65,-26662.1
9.11978e+07,23.9052,0,3.03399,1281.2,4889.5,-28962.4
9.12097e+07,44.9924,2,2.90353,739.268,41.0729,-28366.5
9.12736e+07,24.7903,2,2.69522,-3281.38,-3154.61,-26083.3
9.15663e+07,259.827,1,2.72804,-28447.4,17557.4,14543
9.18112e+07,152.029,1,2.65885,6888.14,14597.3,-14140.5
9.18411e+07,36.8498,1,2.71104,2419.98,2434.12,-21872.6
9.201e+07,74.1957,0,3.04687,-6027.8,-8320.78,-17235.9
9.22771e+07,83.8792,0,2.62267,7343.76,-1281.05,-12720.1
9.22897e+07,3.00253,0,2.74179,-191.18,376.558,-28372.6
9.23951e+07,46.6698,0,3.01232,1820.39,-6284.81,-21548.9
9.24084e+07,8.52034,0,2.74232,1656.39,592.206,-29536.1
9.26482e+07,10.4288,0,2.92897,-751.381,1990.38,-28281.3
9.27007e+07,113.768,1,2.67903,-11752.5,21013.2,-29895.2
9.28324e+07,151.48,2,2.74465,26755.5,-363.015,-11492.9
9.28546e+07,25.9253,0,2.57554,-2629.5,2452.7,-24767.3
9.29628e+07,13.1204,2,2.5968,-1798.14,-438.123,-26705.6
9.30187e+07,76.7224,1,2.85415,-3458.6,-11175.7,-17780.7
9.31547e+07,43.4863,1,2.79509,-4670.48,2458.64,-21316.6
9.33724e+07,80.8605,2,2.75806,-853.517,-11856.8,-16573.9
9.34028e+07,173.286,1,2.39978,-9144.88,-22935.7,-1764.74
9.3407e+07,72.9538,2,2.53716,-5032.55,10065.1,-18309.6
9.3857e+07,13.128,1,2.95283,1189.98,631.768,-26442.8
9.38703e+07,158.02,2,2.71545,29925.2,11509.5,-20003.4
9.3967e+07,40.6412,0,2.81601,3136.52,-4859.38,-22501.8
9.41361e+07,85.4155,0,2.6538,16849.4,-4464.24,-23954.5
9.4168e+07,201.1,0,3.01658,-10073.7,19369.3,7198.62
9.43539e+07,10.9609,1,2.94488,1715.07,-862.386,-27614.6
9.44301e+07,192.658,0,2.73165,-18242.6,1767.93,7306.9
9.44362e+07,139.336,0,2.78356,21301,-9111.45,-10748
9.464e+07,74.8789,1,3.04388,2659.81,-10275.1,-17337.9
9.46976e+07,92.8159,2,2.5113,-6276.8,-17923,-23601.5
9.47378e+07,28.3578,2,2.5434,-4698.69,445.745,-25101.7
9.48225e+07,121.893,2,2.45378,-7272.88,13262.4,-16239.7
9.49542e+07,229.906,0,3.06004,26368.5,27205.9,-12903.5
9.51514e+07,7.89343,1,2.88031,402.057,1561.72,-28247.5
9.55478e+07,52.4925,0,2.48896,-2868.16,-5980.01,-19923.6
9.56305e+07,29.2577,2,2.76902,-5995.08,1610.64,-28495.9
9.65552e+07,19.1251,2,2.63408,-1476.98,-3831.64,-29210.2
9.65927e+07,25.6149,0,2.54675,-2302.87,-646.67,-29786.1
9.66232e+07,5.10582,1,2.7577,-546.696,301.403,-27893.1
9.74153e+07,44.4646,2,2.57492,5684.06,7007.43,-26481.5
9.75483e+07,17.2273,0,2.97001,1146.14,1784.59,-25860.3
9.79074e+07,37.5214,1,2.49657,-326.074,-3534.93,-21792.7
9.79759e+07,70.5515,0,2.86237,3098.19,-11119.8,-19498.5
9.80766e+07,5.26184,0,2.4401,859.046,523.662,-29507.2
0,5.28034,0,2.66902,0,0,0
9.82528e+07,149.898,2,2.54949,6785.23,-14213.8,-1309.97
9.83104e+07,38.7911,1,2.70162,-2598.1,3573.65,-21887
9.84325e+07,10.5109,1,2.96229,-1694.72,-232.96,-27530.5
9.84659e+07,81.8625,0,2.68447,3639,-15371.6,-22854.9
9.86432e+07,96.5387,2,2.52366,7376.65,-8147.69,-11636.8
9.88985e+07,30.0931,2,2.7746,-5022.22,3818.48,-28237.5
9.90312e+07,5.38437,2,3.00433,713.644,639.342,-28375.1
9.9068e+07,48.6022,2,2.7838,10042.6,1056.39,-27493.5
9.91088e+07,26.4736,0,2.42249,-3042.12,-2940.86,-25185.8
9.91508e+07,166.711,0,2.90429,19039.9,16138.4,-4219.41
9.92084e+07,51.2354,0,2.51706,3602.77,-4601.72,-19660.5
9.94738e+07,166.523,0,2.89532,-13687.3,-7146.08,2527.2
9.98294e+07,17.3037,2,2.5799,596.749,-2898.86,-26562
9.99147e+07,51.701,2,2.91189,334.345,5415.76,-19443.9
1.00342e+08,92.7083,1,2.39913,-10883.8,13677.4,-19746.2
1.00546e+08,16.0253,0,2.45268,541.91,-1400.05,-25759.7
1.0096e+08,58.1144,0,2.8876,12264.3,-720.978,-28093.5
1.00995e+08,22.5352,0,2.47238,4112.05,313.477,-26314
1.0107e+08,134.475,1,2.74451,7765.69,24277.1,-16383.5
1.01207e+08,90.4314,2,2.74673,-12672.1,-12195.4,-21353.2
1.01414e+08,114.355,2,2.67144,-14090.4,19475.2,-26922.9
1.01657e+08,93.5536,2,2.8212,30.7448,16587.8,-18324.7
1.01673e+08,81.6235,0,2.36827,-8537.25,8896.95,-24582.2
1.02009e+08,43.9361,0,2.67607,7006.05,-5630.03,-26375.1
1.02354e+08,162.49,2,2.46694,-18900.2,-1310.31,-125.357
1.02477e+08,26.551,0,2.96364,2880.55,1670.89,-24298.3
1.02493e+08,3.22455,0,2.66528,94.3258,-319.695,-28240.1
1.02507e+08,6.66567,0,2.62236,1426.14,336.041,-29274
1.0254e+08,1.40185,2,2.59881,-115.338,-170.864,-28541.1
0,1.43139,2,2.8224,0,0,0
0,1.70104,1,2.94423,0,0,0
1.02986e+08,17.7947,2,2.46766,1244.95,-852.915,-25363.5
1.03019e+08,61.6306,1,2.4299,-1387.01,-9545.95,-20105.9
1.03539e+08,43.1656,0,2.43201,6987.62,-5928.96,-29923.6
1.03559e+08,179.655,2,2.69411,-26411.4,-18083.1,-29529.8
1.03613e+08,51.4042,0,2.77163,6829.8,1861.55,-20561.2
1.04251e+08,136.751,1,2.91353,14003.5,-7558.82,-4977.14
1.04361e+08,79.2294,2,2.67475,-16606.7,746.785,-26593.6
1.04424e+08,41.6691,2,2.79381,4562.98,-7536.6,-29462.1
1.04475e+08,144.584,2,2.84797,-9125.11,-19644.6,-7450.35
1.05484e+08,21.394,2,3.03835,1257.16,3040.57,-25875.5
1.05962e+08,21.4013,0,2.88105,1212.07,4360.78,-29087.2
1.06003e+08,145.656,2,2.72132,9336.69,-19459.6,-7006.08
1.0655e+08,72.2732,1,2.57746,8072.42,12514.3,-25228
1.06976e+08,257.734,1,2.82471,-26203.9,20378.6,14062.5
1.07036e+08,85.7666,0,2.87551,11553.6,-3512.99,-15372.6
1.0744e+08,48.2763,1,2.72478,-3313.63,6426.85,-21583.1
1.07475e+08,11.666,0,2.64498,2066.77,464.04,-27435.3
1.07682e+08,83.3435,2,2.6139,-12714.9,11377,-24572.6
1.08129e+08,23.5863,1,3.03343,3203.44,801.117,-25164.2
1.08443e+08,44.6132,0,2.93766,2331.38,-2263.38,-20198.1
1.08752e+08,7.9172,2,2.88608,-439.866,-1125.23,-27579.4
1.08757e+08,164.652,0,2.66628,-17968.5,-28056,-19116.8
1.09039e+08,113.286,2,2.78158,1076.89,-23763.4,-26139.9
1.09074e+08,146.021,1,3.05948,4527.35,3308.71,-10657.8
1.09222e+08,95.6867,0,2.97136,-7303.1,-16075,-19336.1
1.09328e+08,264.113,0,2.72818,16356.2,24711.2,-22697.2
1.09532e+08,96.74,2,2.77542,-10122.5,-13186.1,-16963.8
1.09538e+08,6.15176,0,2.98914,-98.1947,-1005.25,-28014.6
0,6.14828,0,2.6421,0,0,0
1.09604e+08,33.4697,0,2.89249,-2421.09,-5762.33,-25627.3
1.09763e+08,57.4431,2,2.72549,11945.1,-1880.46,-28398.1
1.10156e+08,13.7533,0,2.92269,690.777,1955.44,-26794.4
1.10288e+08,159.454,2,2.98847,-10702.3,-12256,423.499
1.10451e+08,267.595,0,2.49321,-29561.6,-12436.2,17739.9
1.10516e+08,172.109,1,2.81711,-11913.3,25589.4,-6048.98
1.10619e+08,167.917,0,2.8314,2890.54,27969.3,-7771
1.10778e+08,19.8462,1,2.46161,-514.758,3664.53,-26700.1
1.1098e+08,49.822,2,2.87652,9070.8,-4759.87,-26535.3
1.11809e+08,290.481,2,2.70624,-27951.3,24907.4,18336.4
1.1201e+08,118.324,1,2.82391,-21402.2,1050.32,-16093.3
1.12071e+08,54.6022,1,2.55446,-4073.64,-2348.25,-18272.9
1.1254e+08,78.6902,2,2.87063,-8040.26,-11926.4,-20505.1
1.12789e+08,81.6696,1,2.94757,277.69,16477,-23929.5
1.12805e+08,81.9848,1,2.54894,16167.8,4002.28,-24096.4
1.12887e+08,23.6275,0,2.38781,3312.44,2502.37,-25903.3
1.12988e+08,33.1195,0,2.95819,5792.59,-2829.54,-26090.5
1.13018e+08,4.88082,0,2.90528,804.725,618.321,-28387.1
1.13147e+08,58.0762,1,2.50842,-936.099,6218.67,-18232.8
1.14404e+08,139.75,2,2.37746,-10623.7,-23804.3,-14677
1.1495e+08,32.6988,0,2.54758,4183.87,4292.33,-25287.4
1.15413e+08,78.7371,0,2.84135,3240.27,8061.08,-14714.7
1.15492e+08,37.0064,0,2.45754,-3231.04,1394.48,-21894.9
1.15514e+08,27.5825,2,2.90071,-115.863,-2738.87,-23672.5
1.16854e+08,169.848,1,2.84361,2469.2,-1957.17,-26145.2
1.17404e+08,62.5674,0,2.58982,2943.68,12428.8,-25242.3
1.17437e+08,9.39356,1,2.64362,502.112,1181.2,-27252.3
1.17453e+08,108.561,1,2.70701,22405,2992.39,-25529.9
1.17486e+08,33.6476,0,2.43065,5799.25,1414.76,-24824.1
1.1761e+08,14.2839,1,2.79857,-1144.16,2150.3,-26929.6
1.17919e+08,155.92,2,2.59618,6649.71,-25682.2,-11173.8
1.18484e+08,17.3501,2,2.76657,1615.6,-100.068,-25566.6
1.18547e+08,32.8292,1,2.42589,-2037.7,4610.76,-23939.4
1.18563e+08,12.0648,2,2.38453,-2424.34,-395.353,-27928.4
1.18851e+08,18.6531,1,2.70429,-2397.46,2370.6,-26650.8
1.19254e+08,88.7192,0,2.8144,2521.21,-10440.6,-19115.2
1.19295e+08,62.4427,0,2.6824,6707.42,10380.4,-24188.9
1.19652e+08,3.95723,2,2.70554,491.664,463.368,-28429.8
1.19769e+08,58.2495,2,2.90381,-6375.4,-9080.07,-23481.2
1.19812e+08,1.98177,2,2.72906,-94.576,-346.515,-28511.5
1.19851e+08,103.781,2,2.8577,-3106.72,-3376.32,-27929.6
1.20174e+08,56.2492,1,2.92088,-673.907,-11431.4,-26156.8
1.21167e+08,52.7208,1,2.91336,1807.58,-8523.17,-22092.1
1.21179e+08,1.06463,0,2.99403,125.483,246.633,-28934
1.21362e+08,103.923,2,2.92646,-15796.4,13247.1,-21659.3
1.21548e+08,147.705,2,2.92652,-21425.5,-12507,-10144.3
1.21783e+08,59.3394,1,2.79309,-4977.03,-2978.11,-17751.6
1.2188e+08,65.8,1,3.05906,-1527.97,11860.1,-21824.3
1.22164e+08,79.7324,0,3.01335,12654.5,-152.529,-17846.6
1.22487e+08,50.668,1,2.63946,-2127.02,7232.8,-21148.7
1.22554e+08,34.8231,1,2.74164,5323.26,4310.64,-26109.4
1.22877e+08,49.0482,2,2.99675,-1245,-9590.56,-25114.2
1.23026e+08,131.669,2,2.37998,-25054.8,-12112.2,-26678.1
1.23221e+08,172.965,2,2.91697,15200.5,-23998.2,-6218.83
1.2357e+08,39.1384,1,2.80329,-5868.3,-5552.47,-27219.9
1.23772e+08,5.61134,2,2.95788,713.597,-177.979,-27923.8
1.23976e+08,32.0295,0,2.5224,3815.59,5306.42,-26791
0,32.1313,0,2.64159,0,0,0
1.2404e+08,48.6639,1,2.40771,-9801.07,-3161.95,-28152.7
1.2425e+08,21.4366,2,2.55085,1155.46,-3965.28,-26774.7
1.24274e+08,2.7537,0,2.92314,225.219,-216.858,-28308.9
1.24349e+08,25.0988,1,2.7453,545.483,2481.74,-24146.5
1.24822e+08,53.4435,2,2.6982,-9231.19,-1852.6,-22551.1
1.25094e+08,155.877,1,2.54149,-10455.1,-13957.8,-891.511
1.25353e+08,42.0621,1,2.46253,-5299.43,4942.44,-23531.1
1.26051e+08,22.0908,1,2.8346,2510.28,2732.74,-26002.5
1.26605e+08,136.45,1,2.89437,-4575.87,28341.8,-27305
1.26613e+08,82.4773,2,2.56821,3702.28,7252.65,-13446.6
1.26813e+08,82.88,0,2.69063,-1819.87,-8581.72,-13719.6
1.26893e+08,31.1775,2,2.68455,-1543.61,-6498.42,-28418.3
1.26991e+08,138.89,2,2.99459,-6858.46,-16553.9,-5822.28
1.27903e+08,54.5923,2,2.76843,6331.18,6337.63,-21721.5
1.27949e+08,263.243,1,2.59085,-21003.5,12019.7,21240.4
1.27954e+08,59.3183,1,2.88265,-5245.9,-927.988,-17530.8
1.28294e+08,123.928,1,2.89553,2097.73,22437.5,-15663.5
1.28301e+08,37.6856,2,3.03749,-5832.06,-333.184,-23447.3
1.28652e+08,237.088,2,2.7706,-29851.8,-16390.8,7696.93
1.28868e+08,115.052,0,2.94643,-4041.53,13893.4,-9565.72
1.28904e+08,106.444,0,2.69392,1696.56,-22380.1,-28471.9
1.29009e+08,13.0499,2,2.62736,1756.32,-2205.74,-29015.4
1.29031e+08,21.0234,0,2.86146,449.077,-4265,-27590.7
1.29032e+08,6.3501,2,2.51201,-396.38,44.692,-27518.6
1.29179e+08,6.6533,2,2.69853,27.9385,-1396.73,-28303.3
1.29207e+08,43.1505,1,2.51908,-7878.88,4700.18,-27915.8
1.29245e+08,58.0002,1,2.82233,6547.5,-1919.24,-18733.7
1.29533e+08,54.5976,2,2.89063,-2939.15,-9222.22,-22535.9
0,54.5066,2,2.74322,0,0,0
1.29534e+08,15.9911,0,2.7904,1602,2099.73,-26639.8
1.29603e+08,44.5202,1,2.6589,-2559.33,9114.16,-28093.1
1.30169e+08,28.1694,1,2.68916,4293.35,982.814,-24888.1
1.30231e+08,149.04,2,2.67573,22332.7,-14193.2,-11888.5
1.30242e+08,95.1021,2,2.79382,-14430.9,-5220.1,-19977.6
1.30485e+08,32.6543,1,2.4985,-2503.8,1710.55,-22733.7
1.30986e+08,64.8379,0,2.79806,6186.57,5490.73,-17917.9
1.31161e+08,170.325,2,2.81991,-19697.3,28151.5,-18830.8
1.31178e+08,11.59,2,2.8669,-1092.18,-2193.56,-28136
1.31296e+08,21.1155,2,2.45892,138.307,2118.95,-24927
1.31544e+08,184.189,1,2.73718,14867.8,23746.6,-1941.26
1.3191e+08,165.569,1,2.73767,-16618.6,-7249.6,461.722
1.32357e+08,70.8979,1,2.41462,-8654.53,10037.5,-21631.8
1.32547e+08,253.048,0,2.52877,18974.2,-21641.9,16291.1
1.32993e+08,38.3136,0,2.99441,7915.81,109.581,-26927.4
1.33124e+08,18.9332,1,2.98479,-961.004,2068.56,-25515.7
1.33223e+08,59.2426,0,2.77112,-9440.49,2699.49,-21228.7
1.3329e+08,7.24989,1,2.60238,-1462.43,124.085,-29518.9
1.33584e+08,46.9484,2,2.41368,3095.47,-8996.2,-25703.1
1.33736e+08,174.816,0,2.65593,-25505.1,-7261.5,-3294.32
1.33773e+08,117.548,0,2.71396,-7638.9,-9727.9,-7378.46
1.33815e+08,60.7094,2,2.91259,-10678.3,-5761.46,-24630.8
1.33877e+08,177.387,2,2.82637,-22335.4,-6048.13,-29195.5
1.34054e+08,23.2078,2,2.39684,-4110.94,-969.319,-26177.3
1.34214e+08,62.6256,2,2.69603,1011.39,-6439.1,-28047.6
1.34398e+08,138.691,1,2.94655,-16883.2,2219.48,-5221.15
1.34488e+08,49.3303,1,2.80077,-7551.93,1808.26,-21897.2
1.34858e+08,100.036,1,2.40674,-11449.2,15515.5,-19903.6
1.34972e+08,105.808,2,3.02831,-14556.8,16229.7,-24859.4
1.35294e+08,150.462,1,2.41466,-20581.9,20236.1,-15235.4
1.3552e+08,70.7186,1,2.75563,11513.3,-1897.86,-19628.3
1.35621e+08,86.7982,2,2.70791,-11719.8,-413.987,-14755.5
1.35678e+08,35.1485,2,2.59363,-5894.35,-4430.98,-27287.4
1.35815e+08,54.9679,1,2.88105,7079.09,9020.19,-27063.1
1.35916e+08,114.219,0,2.70557,4985.44,13068.4,-9198.33
1.36036e+08,31.8482,1,2.85898,6260.63,2387.07,-28318.3
1.36114e+08,88.2491,1,2.39644,-8741.93,1419.37,-12935.8
1.36285e+08,91.5316,2,2.61554,-7513.94,13401.7,-17181.5
1.36579e+08,15.5401,2,2.46259,-1255.64,-2689.18,-27204.1
1.36862e+08,102.787,0,2.99404,17214.5,-6569,-17504.1
1.37158e+08,42.5595,2,2.40576,-355.783,-4818.24,-21182.9
1.37572e+08,75.8876,0,2.80644,-3702.86,11820.4,-18764.7
1.37975e+08,9.35535,0,2.67105,1385.71,710.703,-27529.7
1.38023e+08,88.7904,2,2.62544,7074.78,-17408,-27745.2
1.38065e+08,240.975,1,2.619,-27688.4,25728.7,5265.22
1.3821e+08,106.88,0,2.53203,20184.4,-10187.5,-26889.6
1.38241e+08,30.9112,0,2.67885,-4324.12,-2245.75,-24559.1
1.38475e+08,32.8464,1,2.69571,1644.13,4691.37,-24556.6
1.38607e+08,50.3271,2,3.05131,9278.98,-5011.66,-29441.5
1.38698e+08,41.4426,2,2.7225,4303.86,-6047.7,-24142.6
1.38876e+08,48.3409,0,2.90983,4777.31,-3081.51,-20369.6
1.38883e+08,289.273,0,2.76078,14684.7,-3444.9,-13673.4
1.39043e+08,10.9855,2,2.78541,1709.21,477.383,-27396
1.3915e+08,12.4138,0,2.50031,2565.48,697.23,-28294.4
1.39253e+08,36.4163,1,2.71258,905.284,5033.58,-23042.5
1.39425e+08,197.313,1,2.50487,22406.6,-48.3008,-12265.2
1.39618e+08,135.297,2,2.78964,-26575.9,-5678.61,-20173.2
1.39774e+08,216.678,0,2.74027,-1481.24,25803.3,8781.72
1.3982e+08,123.952,0,2.6105,-10266.3,-6021.33,-5549.91
1.40026e+08,55.8285,0,3.04972,7659.02,-8139.58,-25275.6
1.40207e+08,19.2582,2,2.8214,-3677.2,979.457,-27314.7
1.40265e+08,107.636,0,2.41608,15007.9,14310.9,-23104.3
1.40337e+08,28.3927,0,2.44757,5483.37,2587.62,-29347.9
1.40339e+08,147.326,0,2.84264,975.565,-12452.7,-490.931
1.40518e+08,101.359,0,3.06094,17728.8,-4010.75,-18053.6
1.4054e+08,169.277,2,2.71742,-13043.2,9811.87,2879.32
1.40686e+08,42.7784,0,2.98124,5755.49,6782.21,-27167.1
1.40688e+08,7.67067,0,2.55968,-67.6342,-1380.56,-27952.4
1.407e+08,5.68702,0,2.85674,701.93,752.299,-28100.9
1.40708e+08,29.3737,1,2.52379,-188.289,5261.88,-25380.3
1.40945e+08,118.001,0,2.78587,24913.9,357.006,-29983.2
1.41185e+08,31.3914,2,2.86493,-2288.3,-6250.44,-29464.1
1.41743e+08,106.96,1,2.37673,5223.6,8573.01,-8534.66
1.41813e+08,29.8564,1,3.01737,-4446.28,-2859.05,-25428.6
1.41963e+08,149.791,1,2.65798,-15903.3,4455.2,-1846.72
1.42055e+08,179.117,2,2.92341,-10794.3,-23312.5,-6656.97
1.42169e+08,217.615,0,2.78996,-24434.7,8853.99,8823.16
1.42256e+08,107.17,2,2.84616,-12689.8,-1208.16,-10216.1
1.42263e+08,101.058,1,2.96795,-886.399,8202.83,-17171.2
1.42685e+08,18.767,0,2.85073,-2733.12,0.790613,-26083.6
1.42986e+08,20.6811,0,2.802,1716.83,-765,-24860
1.42995e+08,133.191,1,2.73964,12128.9,-23148.7,-18789.7
1.43013e+08,38.2022,1,2.84575,-4471.24,6641.48,-27544.8
1.43067e+08,139.379,2,2.74674,22582,-5759.82,-10997.8
1.43088e+08,23.2411,0,2.84204,3559.68,-964.642,-25519
1.43179e+08,23.0005,2,2.38775,4713.11,-427.05,-27720.5
1.43639e+08,55.0321,0,2.71617,-2715.05,8221.17,-21102.1
1.43658e+08,21.6351,1,2.83702,-1063.26,-2880.14,-25488.4
1.44332e+08,58.8712,0,2.65215,-2364.65,-11439,-24633.1
1.44351e+08,20.6454,1,2.63216,-3705.42,1953.76,-27311.7
1.44771e+08,75.767,0,2.95997,7093,-5191.52,-15528.5
1.4502e+08,38.2054,2,2.53579,-7578.03,778.55,-26029.7
1.45192e+08,4.07636,0,2.39416,900.629,177.545,-29149.6
1.45233e+08,106.256,0,2.65469,15924.8,15888.3,-29518.1
1.45523e+08,47.3019,1,2.48793,5344.8,645.059,-20398.1
1.45549e+08,56.6149,1,2.96349,6810.24,-6628.28,-29357.1
1.45685e+08,182.466,0,2.79977,29170.1,-14047.4,-8126.54
1.45701e+08,85.5871,1,2.43186,-1346.02,18107.9,-29897.2
1.45781e+08,39.7243,2,2.91676,-3230.83,-7818.58,-28829.2
1.4595e+08,5.43219,0,2.5122,-52.1765,1182.06,-28900.4
1.46239e+08,77.9928,2,2.60796,-3325.63,13090.8,-19452
1.46333e+08,35.0485,2,2.72988,-5832.77,-2394.25,-29116.1
1.46906e+08,175.881,1,2.93898,-29947.9,-1260.93,-7295.97
1.46916e+08,311.52,2,2.47294,-26126.5,16832.1,25361.7
1.47394e+08,73.4333,0,2.75797,12289.3,-9172.15,-26375.8
1.4784e+08,9.43011,1,2.56843,-1600.64,-539.438,-27737.3
1.48303e+08,131.672,2,2.89266,24283.4,-10446.4,-20798.9
1.48321e+08,19.71,0,2.77043,2187.96,148.204,-25248.8
1.48681e+08,131.194,0,2.81817,19318.6,17689.4,-19897.9
1.49281e+08,12.1838,0,2.48976,-1250.61,-1749.99,-27479.3
1.49407e+08,134.066,1,2.61773,-20448.2,4745.82,-9787.07
1.49609e+08,42.756,0,2.79842,8940.75,-666.361,-27240
1.50003e+08,125.757,0,2.68279,25563.3,2589.33,-21877.7
1.50211e+08,13.2352,1,2.60535,-982.505,-734.159,-26327.6
1.5024e+08,180.201,1,2.4651,-23542.2,-27504.9,-17009
1.50329e+08,33.8321,1,2.66015,-6424.84,-1063.26,-25794.5
1.50387e+08,56.0623,2,2.46929,6809.33,6496.79,-21673.8
1.50542e+08,111.517,2,2.63395,14013.5,-17580.2,-21735.9
1.50716e+08,30.6444,2,2.67775,2934.7,-4194.06,-24797.3
1.51138e+08,40.4926,1,2.96939,4825.75,-6678.3,-27034.7
1.51313e+08,104.229,1,2.52966,18030.9,4924.55,-17162.3
1.5133e+08,48.3543,1,3.03196,-8332.72,5893.99,-28098
1.51365e+08,157.704,2,2.96388,9695.82,-21357.6,-5442.23
1.51705e+08,141.301,0,2.78274,-3264.63,29556.1,-28638.4
1.51787e+08,137.376,1,2.36221,-17191.5,13403.2,-9509.79
1.52155e+08,100.537,1,2.90132,16797.8,6950.77,-18058.8
1.52184e+08,31.7893,1,2.46141,-5859.86,-3154.56,-29838.2
1.52658e+08,26.7806,0,2.91749,-1093.99,3134.16,-24278.4
1.52662e+08,75.7048,2,2.4972,8923.29,2736.38,-15903.4
1.52663e+08,36.7353,0,2.60076,-1694.12,7581.01,-29100.1
1.52781e+08,25.6133,1,2.3878,-5059.93,-1662,-27681
1.53032e+08,161.536,1,2.49681,3935.99,-15687.4,1162.86
1.53141e+08,20.5896,1,2.52981,-280.584,-3964.66,-27190.4
1.54075e+08,38.3602,2,2.67033,-7795.86,-497.156,-26546.7
1.54308e+08,48.8415,0,2.41354,6794.29,-324.735,-20959.1
1.54919e+08,80.0469,1,2.65278,-6662.88,-2782.96,-13555.6
1.54943e+08,134.388,1,2.74754,-8549.53,-18345.6,-9080.54
1.55009e+08,150.573,2,2.81278,-21381.9,-5221.27,-6002.5
1.55087e+08,129.894,2,2.86289,-21095.4,-17439.9,-27509.4
1.55161e+08,99.4737,0,2.42758,13898.6,-14882.3,-23324.6
1.55174e+08,123.905,1,2.53072,-10182.2,2591.8,-27891.5
1.55305e+08,26.0367,2,2.78972,5345.52,-904.094,-28055.6
1.5582e+08,3.13009,0,2.98094,-164.244,643.069,-28753.7
0,2.63684,1,2.70729,0,0,0
1.55853e+08,143.549,2,2.73949,8159.33,27711.2,-20164.6
1.56036e+08,50.1427,1,2.67469,-8751.49,-5724.2,-27155
1.56159e+08,63.4779,1,3.03548,-267.41,-6242.93,-17120.6
1.56422e+08,51.763,0,2.4024,3440.08,-7287.29,-21353.1
1.56433e+08,1.11195,0,2.71031,270.238,77.8328,-28676.8
0,1.11082,0,2.74629,0,0,0
1.56661e+08,120.763,0,2.92793,-9139.5,-20219.9,-16655.9
1.56852e+08,39.4873,0,2.4978,-2691.57,-2722.98,-21452.7
1.56925e+08,81.3421,2,2.72384,2653.73,-16566,-24990.1
1.56962e+08,18.1238,2,2.51871,-2822.23,-2722.83,-28866.2
1.57461e+08,158.181,1,2.40686,11548.6,22821.6,-12618.7
1.57609e+08,148.414,0,2.88717,9295.55,-11807.6,-1509.4
1.57629e+08,184.127,0,2.90138,-22817.8,-16753.6,-2560.27
1.57708e+08,51.6509,0,2.37376,-6405.79,-1149.7,-20080.8
1.57845e+08,56.3701,0,2.57051,-3369.91,-10258.2,-23852.3
1.57845e+08,244.656,0,2.46887,20920.9,-2415.74,18462.6
1.57876e+08,4.26882,2,2.9454,-669.587,297.582,-28256.9
1.57956e+08,107.506,1,2.87466,-19144.7,-6084.93,-18468.4
1.58025e+08,277.819,0,2.71748,24788.7,-10177.8,9685.81
1.58096e+08,55.102,1,2.76662,-11.5455,-552.134,-29374.6
1.58194e+08,17.8937,1,2.37486,-1672,-1144.96,-25609.5
1.58276e+08,44.0321,2,2.93933,-6604.34,-6532.74,-27885.6
1.58353e+08,5.19919,2,2.66725,468.525,820.288,-28380.4
1.58533e+08,144.828,0,2.40425,-15540.8,-11548.5,-5130
1.59084e+08,183.936,2,2.62807,14881.2,-14990.9,3759.12
1.59345e+08,75.0024,2,2.75485,8790.48,2419.29,-15985.6
1.59485e+08,48.636,2,2.47548,3338.22,-8542.03,-24018.4
1.59498e+08,140.707,1,2.73885,-12295.7,16568,-7481.1
1.59632e+08,62.5038,1,2.57224,-2845.53,12883.7,-27019.3
1.59816e+08,21.1814,0,2.93852,4217.97,-1712.95,-28688
1.59947e+08,46.9608,1,2.77174,-8508.18,2751.23,-24439.5
1.59956e+08,11.801,2,2.44452,-2428.69,149.509,-28077.7
1.60115e+08,108.328,2,3.02424,-11750.6,-5336.32,-10104.1
1.60378e+08,65.7894,0,3.05515,12882.9,5083.54,-28800.1
1.60393e+08,25.5025,2,2.85635,2617.06,2437.85,-24883.8
1.60418e+08,9.28259,0,2.81844,1620.47,-750.183,-27853.3
1.60571e+08,21.2852,1,2.69678,634.187,4275.88,-27416.7
1.60594e+08,31.2146,2,2.38588,1832.14,-6305.88,-27686.3
1.60625e+08,18.1682,1,2.66992,1225.29,-1138.35,-25421.5
1.60633e+08,28.5253,0,3.05078,96.1411,2677.4,-23473.5
1.60867e+08,23.4862,1,2.72676,1698.21,4703.22,-29460.5
1.60872e+08,42.7571,1,2.85363,1787.86,8533.9,-26348.5
1.60932e+08,19.5072,2,2.80511,-3893.44,1405.49,-28770.9
1.61164e+08,120.248,1,2.62646,-19576.1,-5251.49,-13499.7
1.6117e+08,185.526,1,2.91206,-28313.6,-4564.11,-2431.2
1.61383e+08,144.593,2,2.92857,-19920.7,-14389.7,-10895.2
1.61396e+08,38.5772,1,2.8716,2879.62,5071.86,-23126
1.61473e+08,19.1351,1,2.40395,-3162.3,-450.169,-26285.7
1.61525e+08,43.9208,2,2.49534,-653.019,-2789.48,-23005.6
1.61547e+08,120.441,0,2.90426,11411.9,-21184.8,-20867.8
1.61664e+08,119.484,1,2.42853,-16100.6,15987.3,-17508.4
1.6266e+08,136.698,1,2.72543,-27610.3,215.009,-20452
1.62737e+08,23.9015,2,2.48201,390.411,-4406.05,-26224.7
1.63909e+08,17.7065,2,2.82394,-994.304,-3678.59,-28443.1
1.63951e+08,12.9377,1,2.39645,-492.389,-1374.01,-26518.7
1.64418e+08,66.6199,0,2.40126,13580.4,-1939.72,-25237.4
1.6489e+08,34.616,0,2.84953,6780.64,2801.88,-28404.8
1.65188e+08,151.095,1,2.6177,4973.94,-15869.8,-1674.72
1.66112e+08,60.7802,1,2.96368,-12417.7,-882.198,-25932.7
1.66667e+08,71.4416,2,2.69085,14981.9,530.857,-27634
1.67001e+08,14.9882,0,2.47836,2404.25,-249.698,-26674.7
1.67243e+08,15.1097,2,2.59324,-512.413,-3210.52,-29365.8
1.67339e+08,213.604,0,2.49578,3178.81,18358.7,12305.1
1.67399e+08,33.8195,0,2.75056,-5735.01,2310.32,-25375.8
1.6747e+08,11.0236,1,2.94038,-396.347,1680.82,-27204.2
1.67875e+08,12.886,2,2.84869,-1101.51,-1621.48,-26876.7
1.68751e+08,17.1711,2,2.57771,-297.035,-3336,-27214
1.68792e+08,84.0334,1,2.82187,6517.3,7868.86,-14387.4
1.68989e+08,8.85982,1,2.79542,663.817,1346.37,-27638.1
1.69446e+08,115.542,2,2.8255,-11327.7,9881.69,-9756.87
1.69466e+08,1.56857,2,2.50695,112.303,-366.924,-28958
0,1.4569,2,3.03976,0,0,0
0,1.4673,2,2.63422,0,0,0
1.69491e+08,68.1249,0,2.45626,6843.54,7937.25,-18858.4
1.69629e+08,101.018,1,2.37987,-6543.31,17827.1,-18829.8
1.69653e+08,111.028,1,2.90201,-3145.01,18615.3,-15033.9
1.69679e+08,161.308,1,2.44631,-20698.1,23092.5,-14399
1.69977e+08,27.2621,0,2.79401,3166.11,80.6744,-23992
1.7007e+08,67.9238,1,2.7427,-14010.9,3100.98,-29906
1.70404e+08,180.759,2,2.74448,16043.1,-11670.6,3673.06
1.70801e+08,83.3272,2,2.39138,-11212.4,-12851.3,-23966.7
1.70829e+08,13.2868,0,2.61061,2126.85,1164.08,-27280.8
1.71112e+08,108.367,0,2.49976,12130.7,16025.1,-17699.9
1.71143e+08,72.7631,2,2.36892,-8083.43,-10153.6,-20394.2
1.71309e+08,0.320435,1,2.92634,-89.9851,-1.83074,-28819.6
0,0.316761,1,2.5435,0,0,0
1.71723e+08,7.64563,1,2.45285,-1625.11,-82.7616,-28541.6
1.71953e+08,4.14944,0,2.68886,-329.066,-255.179,-28074.5
1.72118e+08,158.858,0,2.46868,17676.8,-26827.3,-18932
1.7226e+08,53.6724,2,3.01124,-197.953,-4823.71,-18635
1.73047e+08,16.4778,0,2.79023,692.405,2772.62,-26837.8
1.73372e+08,95.044,1,2.72051,-8544.09,-1552.84,-10769.1
1.73626e+08,126.729,1,2.92394,-14956.6,-8083.14,-8375.74
1.73629e+08,108.503,2,2.61124,-9188.47,-12821.6,-12142.3
1.737e+08,195.99,1,2.80814,23287.8,-15732.9,1198.74
1.73966e+08,96.3831,0,2.68789,4011.01,-9499.69,-11290.6
1.74171e+08,156.05,1,2.9918,-20872.3,3906.64,-4314.11
1.74251e+08,5.72782,2,2.77698,317.071,-725.653,-27873.2
1.74266e+08,72.4124,0,2.69161,3979.69,7472.93,-16087.9
1.74487e+08,114.094,0,2.71403,4461.03,23635.6,-28965.8
1.74743e+08,100.403,2,2.71674,-4708.11,8167.08,-9894.94
1.7477e+08,198.917,0,2.6568,-20083.7,-19418.9,2159.54
1.75484e+08,28.9663,1,2.41236,309.954,4455.4,-24530.2
1.75731e+08,101.757,1,2.85871,-922.046,16699.8,-15393.8
1.76081e+08,21.3447,2,2.65144,-2505.94,-2670.39,-26077
1.76225e+08,181.494,2,2.90437,21681.8,-7069.61,-11701
1.76741e+08,78.6908,0,2.4595,8700.5,13856.9,-25400.5
1.76933e+08,165.712,2,2.77353,21826.9,17472.5,-8061.31
1.77141e+08,30.2731,2,2.63048,3620.53,4253.48,-25819.9
1.78457e+08,24.9679,2,2.54918,2757.1,-2439.43,-24998.8
1.78485e+08,191.971,0,2.97057,11859.6,-2638.61,-20362.6
1.78919e+08,21.0368,0,2.87227,-358.274,3234,-25823.3
1.78958e+08,36.1861,2,2.923,-4051.99,-6562.8,-29166.7
1.79084e+08,49.9169,1,2.93475,-8752.28,-4703.19,-25458.2
1.79183e+08,4.79636,0,2.69378,384.405,543.979,-28040.6
1.79489e+08,207.049,1,2.90871,-2786.02,-6087.52,-22248.7
1.79726e+08,34.7518,2,2.97016,401.113,4951.16,-23532.8
1.79909e+08,7.95024,0,2.8779,-390.487,1642.83,-28789.1
1.80126e+08,107.226,0,2.44856,20855.8,2531.46,-20046.4
1.80769e+08,114.098,2,2.89292,-7591.82,-22820.8,-29270.1
1.80827e+08,150.666,2,2.76731,-18025.9,-24764.7,-20219.5
1.80847e+08,70.1821,2,2.50596,-9592.11,7269.24,-20127.9
1.80922e+08,188.957,1,2.562,17704.4,11693.3,5008.92
1.80923e+08,9.78942,2,3.01961,-2108.57,-146.726,-29132
1.80934e+08,110.87,1,2.71543,-15037.2,82.6921,-10950.6
1.80971e+08,40.3585,1,2.89249,-3467.46,-3480.66,-21911.3
1.81045e+08,17.2879,0,2.75729,2645.34,-2010.45,-27161.2
1.8125e+08,12.25,1,2.65941,1653.54,1442.63,-27406.7
1.81264e+08,6.16512,0,2.38854,-89.8889,-745.672,-27756
1.8158e+08,246.976,0,2.52408,24545.1,24007.2,10535.4
1.81836e+08,85.188,0,2.50535,-151.222,-7871.73,-12621.9
1.81885e+08,7.39151,0,2.51548,-6.99942,1225.51,-27856.5
1.81932e+08,197.752,1,2.6469,-19735.5,21321.4,1179.59
1.82453e+08,8.41577,0,2.86558,802.273,1012.83,-27571
0,8.36496,0,2.81538,0,0,0
1.82516e+08,28.1322,1,2.83712,-4026.57,-4265.92,-29677.8
1.82639e+08,100.266,2,2.84365,-10401.6,-18441.8,-29313.9
1.82729e+08,20.9382,1,2.76192,1268.76,2688.26,-25531.7
1.82746e+08,33.2769,1,2.62602,115.371,-2989.37,-22509.5
1.83286e+08,18.6641,1,2.9773,-3152.51,2193.28,-27736.4
1.83371e+08,123.133,2,2.85689,-421.304,-14655.1,-10420.9
1.8349e+08,47.0974,2,2.58774,-6491.41,-212.304,-21231.3
1.83689e+08,143.535,0,2.86615,17409.2,10848.2,-6655.97
1.84118e+08,85.8627,2,2.97976,11202.2,-2722.66,-15003.9
1.8413e+08,123.872,2,2.57545,-21104.6,-14569.2,-23205
1.84205e+08,31.0212,1,2.50048,812.907,6473.73,-27554.9
1.84693e+08,29.2882,2,2.91878,-3370.01,-4931.46,-26957.7
1.84714e+08,37.0354,1,2.38325,906.399,5676.48,-23468.3
1.84777e+08,108.813,1,2.91239,8351.15,-9878.76,-10034.7
1.84931e+08,76.3695,1,2.48147,4294.36,7813.94,-15347.4
1.8525e+08,134.935,2,2.72798,4425.07,-25017.5,-16024.2
1.85277e+08,12.5655,2,3.01016,-1371.87,-1893.81,-27464.1
1.85374e+08,16.3688,2,3.02307,1824.16,-1158.75,-26164.1
1.85745e+08,98.6169,2,2.70204,-7494.89,-14527,-15863.8
1.85795e+08,22.6516,0,2.92355,809.701,3931.37,-26207.9
1.85854e+08,63.1397,0,2.37191,-10505.2,29.3573,-20678.3
1.8644e+08,51.5233,2,2.56049,6324.12,-8851.99,-27572.4
1.87179e+08,5.26181,0,2.68524,1093.24,80.3723,-28327.1
1.8731e+08,93.6547,2,2.73774,-12018.2,-12406.8,-19119.7
1.87463e+08,105.336,1,2.54996,-18786.2,7904.65,-19745.9
1.87494e+08,24.9082,0,2.47122,4990.95,1705.3,-27891.3
1.87498e+08,38.821,1,2.73887,-1614.85,4283.41,-21991
1.87774e+08,24.8398,1,2.53145,-4286.99,-2791.12,-27544.7
1.88726e+08,90.2706,2,2.45886,712.807,8076.92,-11562.8
1.88799e+08,152.647,2,2.80355,12282.1,-17197.6,-5220.84
1.88998e+08,121.522,0,2.58606,11780.2,13396.5,-10310.8
1.89597e+08,15.0256,2,2.89051,1249.68,836.351,-26065.9
1.89937e+08,130.656,2,2.55572,-25300.4,7495.85,-20660.4
1.90033e+08,68.4002,2,2.77486,799.808,-13859.4,-24682.2
1.90375e+08,81.685,1,2.57914,984.849,8555.93,-13830.6
1.90378e+08,30.0503,2,2.76835,-3526.05,997.168,-23632.4
1.90503e+08,215.346,0,3.00653,11471.2,13380.8,-24595
1.90711e+08,165.614,0,2.60854,16868.5,8281.08,684.071
1.9096e+08,54.8192,1,2.5748,3946.9,-1251.62,-29263.6
1.91078e+08,46.684,0,2.48392,954.96,-9363.87,-25773.4
1.9137e+08,102.481,0,2.65428,14864.9,15109.7,-24307.4
1.9144e+08,133.991,1,2.94289,3770.1,11632.4,-21556.4
1.91448e+08,130.56,0,2.54429,22295.7,10827.4,-16558.8
1.91529e+08,67.0858,0,2.73263,585.605,6981.33,-16529.8
1.91902e+08,16.7467,0,2.44463,-2375.92,-2257.22,-27580.5
1.92338e+08,117.09,0,2.77271,13284.8,297.641,-8012.25
1.92725e+08,27.6435,1,2.57035,-4677.24,-3473.63,-28482.8
1.92868e+08,176.914,2,2.92691,-25320.9,-26457.4,-22144.4
1.92928e+08,222.047,2,2.39259,-18106.3,-21927.4,6323.84
1.93212e+08,79.9566,0,2.55861,-6906.02,14238.3,-22939
1.93285e+08,69.3206,0,2.54036,917.794,-12214,-20770.3
1.93373e+08,86.6866,0,2.90327,15301.8,2831.03,-19220
1.94009e+08,26.5962,2,2.79598,-3573.98,-2027.54,-24922.1
1.9401e+08,26.8059,0,2.53595,2229.69,-5144.75,-27743.1
1.94068e+08,16.0339,1,3.03854,-872.171,-1153.21,-25798.1
1.94074e+08,25.0539,0,3.03024,-504.55,-4370.52,-25978
1.94192e+08,7.91297,2,2.50701,-265.385,569.915,-27281.2
1.94581e+08,12.9777,2,2.44923,-2504.73,-1344.7,-28597.4
1.94886e+08,14.6744,2,2.74856,1545.18,-2762.79,-28732.1
1.94946e+08,84.1524,0,2.42367,7363.8,3845.78,-13042.3
1.95194e+08,53.4555,0,3.05921,5374.39,-3441.26,-26826
1.96997e+08,48.6541,2,2.64397,-4687.39,-8411.11,-25008.3
1.97057e+08,22.8744,1,2.59314,-4819.89,829.763,-28888.9
1.97569e+08,27.1942,0,2.48858,1440.52,5191.37,-26676.3
1.97611e+08,120.376,1,2.43406,-22564.5,-1703.8,-17100.4
1.97874e+08,50.4412,2,2.40313,-111.388,-365.529,-28564.9
1.98124e+08,72.4463,0,2.7488,9586.12,-3244.37,-17350.9
1.98456e+08,12.2434,0,2.46906,-1741.78,278.885,-26985.6
1.98459e+08,170.439,2,2.52294,-23078,-27376.3,-23974
1.98664e+08,147.527,0,2.63841,1750.46,-29038,-17725.9
1.98791e+08,9.81733,1,2.97786,-1311.78,-260.041,-27215.6
1.9882e+08,14.3028,2,2.84773,-2951.01,-444.452,-28293.2
1.99021e+08,71.7475,2,2.8013,8667.1,-9964.98,-21464.2
1.99087e+08,22.8518,1,2.85708,-1070.83,-3323.94,-25547.4
1.99338e+08,178.39,0,2.75808,-10769.6,-451.609,-11888.1
1.99375e+08,13.6285,2,2.67734,154.462,1696.91,-26550.8
1.9944e+08,51.4796,2,2.39811,-5992.75,-5867.21,-21778
1.99989e+08,298.552,1,2.96723,-5010.16,17749,-18686.8
2.00073e+08,45.9101,2,2.68283,-329.715,8010.79,-23448.6
2.00183e+08,101.01,0,2.917,14675.5,-7179.7,-15203.1
2.00277e+08,146.874,2,2.53225,29684,-8783.04,-26911.8
2.00348e+08,8.22032,0,2.91122,-1080.1,1279.93,-28550.2
2.00388e+08,5.29254,2,2.82673,-34.1208,-875.14,-28054.4
2.00737e+08,26.9965,0,2.47157,2695.25,-5061.88,-29387
2.00788e+08,58.1615,1,2.36445,9185.29,7871.95,-26456.4
2.00809e+08,17.4811,0,2.54912,-1756.08,2543.82,-26835.8
2.00897e+08,43.1923,0,2.40816,-4162.04,-1064.5,-20819.4
2.01079e+08,19.6984,2,2.78697,-2739.11,-3144.04,-27959.6
2.01108e+08,63.123,1,2.75087,-445.528,11841.1,-22615.3
2.01477e+08,116.522,0,3.02916,13593.7,20275.9,-26910
2.01542e+08,160.001,1,2.94881,2324.03,-20079.4,-2102.38
2.01967e+08,21.3789,2,2.70701,-1879.16,2056.72,-25304.2
0,21.2185,2,2.58646,0,0,0
2.02122e+08,217.459,0,2.42653,29887.5,-8480.32,5162.61
2.02289e+08,27.4849,0,2.36695,1799.05,1869.19,-23582.4
0,27.5724,0,2.72692,0,0,0
2.03175e+08,112.747,1,3.05942,16275.4,5882.23,-19095.1
2.03406e+08,111.617,2,2.57579,10305.5,12491.9,-11761.7
2.03659e+08,99.4316,0,2.75639,-8609.37,16587.3,-19484.6
2.03698e+08,58.0857,1,2.88585,3175.54,-5726.36,-18573.6
2.03708e+08,152.295,0,2.85314,7831.75,-29217,-18236.7
2.03857e+08,80.7135,0,2.80102,4250.62,9467.61,-15394
2.03896e+08,3.33547,2,2.80515,-472.419,77.7465,-28263
0,3.28527,1,2.65616,0,0,0
2.04203e+08,17.0276,2,2.65615,-2910.76,2139.47,-28997.2
2.04252e+08,3.58384,1,2.74585,-274.921,767.66,-29125.3
2.04282e+08,42.8054,0,2.39088,-2280.08,-3688.78,-20873.1
2.04325e+08,77.3533,1,2.89712,-1286.73,14422.4,-23549.1
2.04337e+08,14.4296,1,2.96448,-2040.22,2378.62,-28603.3
2.04718e+08,32.173,0,2.37623,2340.57,5122.53,-24948.5
2.04883e+08,91.524,2,2.53517,13220.3,3677.28,-15232.1
2.05071e+08,213.823,1,3.03302,26078.7,-11647.2,5593.74
2.05891e+08,6.18756,0,2.93803,744.689,855.904,-28060.9
2.06446e+08,8.09625,0,2.91112,-1036.35,1151.36,-28190.2
0,8.01326,0,2.42148,0,0,0
2.06514e+08,112.325,2,2.80947,9160.79,8887.2,-8996.63
2.0659e+08,128.349,2,2.59824,-14688.1,5691.21,-6767.34
2.06718e+08,26.0494,2,2.73525,-4440.96,1147.17,-28634.6
2.06719e+08,37.8171,0,2.79145,8006.96,-891.436,-28271.8
2.06752e+08,6.32613,1,2.60583,706.671,-336.319,-27778.7
2.06787e+08,14.4155,1,2.74747,-2700.1,1129.43,-27748.2
2.07219e+08,21.5693,1,2.94336,-1513.7,-4052.53,-27594.9
2.07267e+08,7.51893,1,2.47946,-613.311,1567.6,-29089.5
2.07779e+08,110.33,1,2.61248,1126.84,23360.7,-29069.5
2.07933e+08,12.9408,1,2.70434,270.407,1327.21,-26436.7
0,12.7635,1,2.41762,0,0,0
2.07971e+08,8.49178,2,2.45948,1427.16,385.079,-27861.3
2.08061e+08,15.7599,0,2.37577,-782.614,2537.26,-27511.5
2.08455e+08,143.556,0,2.89402,25390.4,-4361.95,-13017.5
2.08557e+08,155.388,2,2.87923,649.113,19288.8,-2544.67
2.08629e+08,24.395,0,2.90505,-396.31,3667.87,-25287
2.08751e+08,131.795,1,2.86608,-4170.52,22685.1,-13397.8
2.09678e+08,21.9087,1,2.64058,-3052.8,3492.83,-29725.2
2.09709e+08,66.8755,0,2.56103,12643.6,386.682,-22345
2.09777e+08,75.821,1,2.58958,-11725.7,9979.67,-24108.2
2.10028e+08,206.823,0,2.72606,-23494.4,13436,5235.65
2.10028e+08,4.88638,0,2.43127,371.738,-652.633,-28062.4
0,4.87896,0,2.38961,0,0,0
2.10132e+08,3.68217,2,2.77919,210.64,-421.533,-28162.7
2.10364e+08,27.033,0,2.7603,-2357.12,3750.31,-25299.4
2.10783e+08,15.4025,2,2.6889,-670.133,-3268.57,-29094.5
2.10911e+08,72.3841,1,2.89468,201.513,11907.6,-21860.5
2.11216e+08,144.615,0,2.95844,16061,-25562.6,-25193
2.11317e+08,40.8668,2,2.44288,5380.48,-1853.1,-22338.6
2.1162e+08,239.928,2,2.62914,-26570.4,-26906,4926.46
2.11686e+08,150.298,2,2.83273,-23727.6,-20907.6,-26710.7
2.11777e+08,25.0228,2,2.3778,3417.09,-1099.3,-24950.3
2.12164e+08,82.1159,1,2.87367,-10746,4184.45,-15924.7
2.1217e+08,80.1412,1,2.6614,7810.24,11883.6,-19610.5
2.13163e+08,5.08591,1,2.96241,-884.411,591.706,-28368.2
0,5.33489,2,2.42165,0,0,0
2.13266e+08,106.044,0,2.39935,19674.1,3910.82,-18586.2
2.13434e+08,71.2554,2,2.87954,-12470.3,6152.86,-23213.1
2.13635e+08,26.7598,1,2.98009,-3508.97,-1031.99,-26770.3
2.14033e+08,89.32,2,2.58827,-11107.5,8924.77,-16510.6
2.14159e+08,2.86303,0,2.80094,45.9112,-437.702,-28403.2
2.14189e+08,23.9859,1,2.4599,3465.48,3740.43,-28980
2.14516e+08,75.5234,0,2.99945,15665.4,-2894.64,-29381
2.14724e+08,90.7713,1,2.71618,2666.24,-12565.4,-14695
2.1489e+08,15.6276,1,2.88699,-1972.54,1462.22,-26549.2
2.15049e+08,62.8295,2,2.90882,776.586,-6533.88,-17340.3
2.15219e+08,76.5388,2,2.39131,-14829.7,3534.13,-23265.6
2.15593e+08,208.309,0,3.04139,28848.8,-15082.2,-21937.6
2.15651e+08,71.3193,1,2.70778,-506.751,-9377.13,-17140.9
2.1594e+08,35.4093,1,2.92083,-5771.17,-1438.77,-24347.5
2.16357e+08,39.3216,0,2.98387,8027.27,1994.66,-27683.3
2.16457e+08,179.544,1,2.41016,29594,-21560.6,-18993.1
2.16475e+08,62.1629,1,2.54353,1606.64,13130.9,-28871.3
2.16695e+08,71.3903,2,2.92298,6847.92,-8162.55,-18234.6
2.167e+08,88.3224,1,2.39305,8042.07,-8894.53,-14554.7
2.16875e+08,155.398,2,2.76128,16279.6,24233.4,-14849
2.17043e+08,79.6566,2,2.42652,-850.073,11542,-16657
2.17048e+08,30.9734,0,2.79558,3754.66,-1197.88,-23560.8
2.1716e+08,24.3312,1,3.01431,-3468.05,424.955,-25078.9
2.1722e+08,14.187,1,2.45719,-1921.82,881.78,-26610.5
2.17425e+08,14.4798,0,2.85435,2386.03,1864.75,-29586.2
2.1749e+08,159.12,0,2.62101,24570.2,22973.7,-29863.1
2.17558e+08,36.3994,2,2.40985,-7649.09,-1393.88,-28306.8
2.18002e+08,87.5476,2,2.65508,-12435.3,-12630.4,-23298.5
2.18629e+08,111.055,1,2.41981,6684.92,9955.48,-21279.7
2.18929e+08,36.7521,1,2.91548,1213.04,3868.68,-22226.4
2.19092e+08,82.7595,0,2.74996,1425.08,17197.6,-26154.5
2.19129e+08,33.2207,0,2.46479,3630.63,4125.03,-24357.6
2.19597e+08,80.6801,1,2.97744,-6266.94,3584.05,-13482.9
2.19613e+08,172.605,1,2.89624,2885.19,-17829.9,2559.42
2.19765e+08,25.6398,0,2.66656,1469.2,2526.09,-24249.3
2.1988e+08,62.3454,0,2.52413,2955.91,-12560.6,-25960.6
2.19966e+08,7.22202,0,2.99557,1537.7,-362.648,-28440.8
2.20817e+08,4.31755,1,2.91996,638.324,700.352,-28622.7
2.21223e+08,6.94914,1,2.99829,-63.6651,1479.24,-28421.7
2.21934e+08,58.1774,1,2.9381,2027.91,9423.76,-21233.9
2.22253e+08,144.534,2,3.06001,-10209.2,-14976.4,-4545.04
2.22436e+08,26.6105,1,3.01818,-1885.93,888.96,-27994.6
2.22794e+08,43.8262,2,2.77682,4458.28,-5710.27,-23035.7
2.22865e+08,31.3417,1,2.83065,-4530.82,666.3,-24008.9
2.23114e+08,63.3071,2,2.69102,2944.38,-2884.53,-26603.5
2.23363e+08,35.7989,2,2.82794,-1091.76,-7222.66,-26610
2.23501e+08,69.1299,1,2.96806,-6524.07,11686.5,-23034.1
2.23542e+08,115.187,2,2.54237,-3147.84,23621.9,-24154
2.23851e+08,83.7497,0,3.0201,13425.1,11414.6,-28590.8
2.24434e+08,38.5365,0,2.43506,1874.13,3508.43,-21672.7
2.24696e+08,28.1624,2,2.46147,3385.69,1663.25,-24279
2.25493e+08,18.7101,0,2.71353,3754.21,-591.03,-27439.3
2.25647e+08,59.3201,2,2.8543,4525.68,-11636.4,-27791
2.26021e+08,28.8078,2,2.93488,-1704.44,-5865.98,-28219
2.26304e+08,63.8175,2,2.91818,-9613.63,4787.84,-22444.7
2.26317e+08,67.0722,1,2.58794,-11887.6,5829.6,-23567.2
2.26587e+08,10.577,2,2.45141,-1845.95,-1409.73,-29140.4
2.2715e+08,1.92165,0,2.53704,227.921,-21.8712,-28430
0,2.00372,0,2.97691,0,0,0
2.27295e+08,55.4785,0,2.91062,-4557.38,9160.68,-23321.7
2.27487e+08,99.9146,1,2.76848,11656.1,-14739.2,-19530.1
2.27508e+08,109.76,0,2.6203,-4258.5,18385,-15372
2.27711e+08,143.156,0,2.49789,-24072.1,17116.3,-22515.1
2.2777e+08,168.062,1,2.85805,23183.1,-20344,-11965
2.28193e+08,118.704,2,2.89925,-16503.5,-18638,-26561.7
2.28368e+08,194.422,0,2.4543,26266.6,-937.692,2833.21
2.28441e+08,35.9367,0,2.57472,6546.84,3173.08,-26465.7
2.28743e+08,1.0497,2,2.98525,97.363,-285.81,-28811.3
2.28796e+08,20.5074,0,2.7597,4243.94,494.443,-27747
2.29027e+08,74.7401,2,2.94575,5816.3,5728.56,-15507.8
2.29104e+08,38.3175,2,2.51984,-6015.72,-1678.43,-23566.1
2.29146e+08,37.258,2,2.42462,-6750.8,-1767.63,-25098
2.29279e+08,98.6503,2,2.71512,-2034.82,10158.6,-10856.5
2.2952e+08,5.1584,2,2.41917,443.743,-63.6086,-27830.7
0,5.1547,2,2.44639,0,0,0
2.2979e+08,127.198,0,2.75869,24301.7,-406.615,-17374.2
2.29833e+08,90.2871,2,2.43706,11167.6,4519.96,-26715.7
2.29975e+08,367.743,1,2.39561,-14801.8,-20685.8,4236.06
2.3007e+08,58.551,2,2.90141,3486.73,7985.61,-20208.8
2.30355e+08,77.217,2,2.46846,-9384.89,-6737.07,-17196.1
2.30491e+08,71.4803,1,2.39067,4508.54,6946.25,-16166.5
2.30518e+08,116.899,0,2.99087,13487.2,-20396.9,-26481.4
2.30922e+08,57.2078,0,2.66568,-3007.08,-11569.2,-27132.8
2.31158e+08,53.2798,1,2.67467,891.173,-9337.26,-22737.3
2.3121e+08,49.9715,2,2.56957,-6479.7,-8180.89,-27775.1
2.31214e+08,37.8305,1,2.37563,-4988.2,-5419.7,-25673.1
2.31461e+08,21.9252,0,3.02997,1603.25,-4312.97,-28125
2.31548e+08,11.2887,0,2.37614,-1106.9,-477.301,-26790.9
2.31912e+08,11.3982,1,2.43794,-652.022,-1030.42,-26767.8
2.31991e+08,27.2555,2,2.63609,-1037.29,-5454.14,-27076.5
2.32064e+08,48.8085,0,2.37098,1634,-9375.56,-24763.1
2.32214e+08,13.5375,0,2.52913,1442.28,-1303.28,-26690.4
2.32274e+08,107.66,1,2.86396,-15989.4,7008.12,-14358.6
2.32304e+08,94.898,0,2.76098,6561.29,18839.2,-26903.6
2.32589e+08,31.0857,2,2.44291,902.897,-4015.07,-23631.8
2.32621e+08,184.584,0,2.81107,-15513.6,-24935.1,-3896.58
2.32643e+08,37.7993,1,2.99137,-1924.31,4525.53,-22538.5
2.32676e+08,96.8672,1,2.85011,-14100.6,14690.5,-26733.5
2.32878e+08,136.908,1,2.88724,-285.669,2911.57,-27870.5
2.32904e+08,61.2601,2,2.52568,-1840.52,10205.4,-21174
2.33224e+08,147.344,2,2.39057,6221.43,-22176.3,-7736.2
2.33813e+08,124.903,2,2.9498,-4880.25,-13916.1,-7128.23
2.3426e+08,143.117,2,2.4369,-723.82,-25908.9,-13045.8
2.34885e+08,74.7652,0,2.66314,3119.82,9096.62,-16301
2.35096e+08,66.5313,0,2.78236,7532.22,-9514.13,-21706.3
2.35653e+08,59.9258,0,2.98893,11543.8,5225.28,-28499
2.35777e+08,86.3607,2,2.7243,-13749.9,6965.96,-19121.3
2.35826e+08,98.9077,1,2.6829,-11804.1,-3230.43,-11908
2.35857e+08,16.89,1,2.60809,-2739.69,624.444,-26528.1
2.36538e+08,165.343,2,2.37612,29169.9,-1950.33,-9669.08
2.36674e+08,87.9709,1,2.52638,-8945.5,10551,-16299.4
2.37e+08,189.421,2,2.61789,-4369.48,2554.33,-10557
2.37044e+08,65.4611,0,2.67278,-4620.12,12293,-24633.8
2.37187e+08,52.1926,0,2.55993,5845.01,6176.58,-21767.8
2.38287e+08,50.1677,2,2.91542,-2124.21,-4773.53,-19619.8
2.38829e+08,61.6537,2,2.69863,6241.63,-7341.67,-20041.8
2.38866e+08,89.4084,1,2.56493,4891.04,12931.9,-15903.2
2.38987e+08,119.829,0,2.39215,18824.2,16756.9,-25511.1
2.39094e+08,166.853,0,2.81267,-10911.9,1716.06,1693.7
2.3947e+08,144.446,0,2.99271,18126,10705.1,-7020.87
2.39686e+08,61.9953,0,2.96111,5658.37,1600.69,-17182.3
2.40258e+08,124.358,1,2.56441,-25616.1,-5657.55,-26804.8
2.40386e+08,58.4235,0,2.97938,10908.1,-5481.8,-26956.2
2.40438e+08,18.0588,2,2.99453,1027.49,1902.81,-25761.9
2.40534e+08,39.0528,0,2.37797,5979.16,-5691.86,-27598.4
2.4066e+08,25.0629,1,2.56153,3851.29,-1449.03,-25528.7
2.41352e+08,1.84728,2,2.67862,14.4245,-416.868,-29073
2.41465e+08,24.6983,1,2.49954,-2447.33,1666.86,-24470.2
2.41671e+08,76.7068,0,2.75419,-11032.1,7099.76,-19471.3
2.41682e+08,145.034,1,2.9062,21009.9,4815.71,-7315.5
2.41873e+08,101.152,2,2.96416,-13419.7,-13482.5,-19265.3
2.42214e+08,78.0265,2,2.72075,-4886.46,-10282,-16871.5
2.42415e+08,187.818,2,2.60813,-5194.14,-18730.7,5766.06
2.42442e+08,24.8305,1,2.8545,-5232.09,-589.439,-28768.3
2.42461e+08,153.08,2,2.64084,19411.9,3737.87,-3315.8
2.42741e+08,266.814,0,2.89739,9537.55,22348.9,21647.7
2.42956e+08,198.75,1,2.78992,22190.5,29651.9,-9322.54
2.43023e+08,47.7215,2,2.84197,-814.416,-5028.91,-20133.8
2.43049e+08,99.2477,1,2.69857,175.528,8664.76,-9765.27
2.4315e+08,97.5669,2,2.89359,-15706.6,1969.38,-15769.4
2.43328e+08,29.9297,1,2.47269,3351.19,443.797,-23481.4
2.43503e+08,148.007,0,2.71641,-17840.3,-2501.15,-3430.99
2.43595e+08,12.7349,2,2.36463,371.96,-2735.78,-28376.4
2.43737e+08,41.9121,0,2.47692,5718.59,2651.33,-22519.1
2.44228e+08,39.7203,1,2.97902,-7437.17,1992.7,-25513.4
2.44255e+08,99.2688,0,3.05024,18014.6,5012.14,-19552.4
2.44278e+08,63.5092,0,2.41387,11903.8,318.735,-22439.9
2.44433e+08,13.9521,1,2.39448,-12.9321,-2052.33,-26786.9
2.44752e+08,27.7666,1,2.98172,-413.51,5849.74,-28044.6
2.44856e+08,28.667,0,2.43495,6139.62,367.825,-29486.9
2.44978e+08,63.1348,2,2.53303,12069.5,4334.45,-25258.9
2.44985e+08,8.12671,2,2.76131,-1256.16,-534.32,-27747.5
2.45031e+08,260.395,0,2.69442,13375.3,26620.2,17065
2.45515e+08,72.4887,1,2.54068,-662.934,547.347,-28300.5
2.4553e+08,15.2736,1,2.7069,2945.66,-494.946,-27686.6
2.46091e+08,109.066,2,2.69489,-11273.7,-16324.7,-17035.2
2.46285e+08,244.927,1,2.74812,-3898.7,-3639.59,-22627.8
2.46572e+08,85.1934,2,2.75082,-10793.6,-12648.6,-21949.2
2.46915e+08,67.4111,2,2.85876,-11470.8,5686.04,-22701.9
2.47215e+08,178.863,2,2.40639,-25301.5,522.194,-688.155
2.47617e+08,106.65,0,2.55057,13912.7,-15295.4,-19778.3
2.47682e+08,8.12619,2,3.00825,-361.675,-1745.34,-29056.1
2.4773e+08,10.9194,2,2.69506,200.637,-1357.64,-26915.6
2.4794e+08,61.3388,1,2.60182,-10804.4,5693.75,-24277.8
2.48033e+08,35.8932,2,2.77221,-3279.57,-2793.68,-22556
2.48387e+08,71.9594,2,2.75694,4938.57,-14402.9,-29341.5
2.48461e+08,90.264,0,2.44215,16998.9,-7017.26,-23352.5
2.48569e+08,4.57653,2,2.70562,-810.899,-704.851,-28856.2
0,4.55191,2,2.58998,0,0,0
2.48692e+08,114.584,2,2.83182,-20677.5,-469.739,-16449
2.48972e+08,25.6962,1,2.81189,4645.85,-1474.25,-26554.3
2.49165e+08,41.0954,0,2.85219,1103.06,-8403.04,-27139.2
2.49215e+08,37.2449,0,2.44949,7527.79,-410.406,-26201.2
2.49252e+08,23.5698,2,3.02162,-1559.22,2437.8,-24829.7
2.49375e+08,147.481,1,2.82104,17090.3,19403.2,-11678.1
2.49491e+08,24.3694,2,2.58212,3660.91,-3642.88,-28252.8
2.4953e+08,95.4775,1,2.86404,-6985.44,4066.89,-21055.3
2.49762e+08,66.7076,0,2.54388,3441.11,-13233.8,-25192.5
2.49955e+08,12.2703,0,2.56041,-1485.12,-1153.17,-27086.3
