#class tools::wcsv::ntuple
#title time
#separator 44
#vector_separator 59
#column double eventID
#column double t(ns)
#column double copynumber
#column double energy(eV)
#column double x(mm)
#column double y(mm)
#column double z(mm)
20409,39.9468,1,2.65905,-7064.34,-4252.82,-27086.3
0,39.8069,1,2.51169,0,0,0
131978,24.6064,0,2.89108,923.546,5035.14,-29642.1
361922,161.529,1,2.6802,23624.8,-10828.9,-7643.87
494547,55.5296,0,2.92511,-10883.6,3740.43,-27022.9
590699,155.369,0,3.01405,22035.8,19344.2,-14730.5
696114,18.16,2,2.92441,-1272.08,-3681.46,-28482.1
715472,54.5844,0,2.92444,-1983.77,-8415.5,-21295
725218,2.49538,1,2.85417,-323.627,340.858,-28467.4
832619,30.8284,2,2.80205,1916.53,-6173.32,-27745.3
873958,279.706,0,2.58551,7023.93,-6263.39,-15999.7
1.01644e+06,18.5011,0,2.73494,386.652,-3910.61,-28480.1
1.06554e+06,2.07495,1,2.60473,46.0295,438.19,-29159.6
1.12868e+06,83.8019,1,3.01835,9664.95,539.901,-14213.2
1.1545e+06,16.593,1,2.82239,-1126.66,1798.78,-26018.3
1.20246e+06,4.43136,1,2.37261,-466.223,-207.718,-28048.1
1.26443e+06,14.1119,1,2.65812,-1230.01,1006.43,-26212.9
1.38043e+06,152.741,1,2.48246,27420.9,10702,-15526
1.45035e+06,11.4788,2,2.59931,-167.291,-1525.9,-26934.9
1.57178e+06,38.2663,0,2.43532,3476.12,-3232.62,-22338.7
1.7577e+06,15.6451,2,2.70336,-1769.91,-1037.9,-26174.6
1.81977e+06,88.3923,0,2.6428,18757.8,-560.336,-28263.2
1.88924e+06,30.4355,0,2.98568,1276.68,5592.23,-26020.3
1.95373e+06,65.4932,1,2.59467,-10239.3,9414.66,-28226.2
1.98152e+06,40.2699,0,3.02971,1090.18,-4424.16,-21760.1
2.03671e+06,310.106,1,2.71485,-25575.9,-15497.1,29205.3
2.13942e+06,41.9492,1,3.01627,2483.63,8135.53,-26417.6
2.18451e+06,60.3776,2,2.91268,-2935.77,-12510.3,-27364.8
2.36837e+06,3.96279,2,2.50241,-175.851,-910.659,-28818.1
2.42443e+06,57.2208,1,2.74187,-1129.19,-7823.7,-19787.6
2.59147e+06,38.1779,1,2.6312,1991.05,-4686.82,-22557.9
2.68843e+06,130.671,0,2.41688,-3986.59,-23696.7,-15158.2
2.71967e+06,27.5188,2,2.80982,-5378.92,-231.179,-26673.3
3.03039e+06,58.1938,0,2.64981,-2925.62,-4282.67,-17673.6
3.04884e+06,40.3574,1,2.78382,-5443.02,-3648.82,-23456.2
3.07266e+06,3.60292,1,2.86594,-652.65,431.024,-29036.5
3.16992e+06,108.438,2,2.611,-16046.4,-15076.8,-22266.6
3.37184e+06,1.87828,0,3.52406,499.725,311.073,-29084.2
0,1.91738,0,3.01474,0,0,0
0,1.90646,0,2.69598,0,0,0
0,1.84145,0,3.33959,0,0,0
0,1.88147,0,2.26057,0,0,0
0,1.86886,0,3.23765,0,0,0
0,1.85548,0,3.53684,0,0,0
3.39845e+06,151.173,1,2.94641,-14377.4,-6595.43,-1346.09
3.46402e+06,89.8765,0,2.75215,-16564.9,-8590.3,-26010.7
3.65180e+06,125.615,0,2.61184,-15044.6,-14112.7,-12337
3.6571e+06,162.875,1,2.97163,-14616.9,27790.4,-21914
3.8015e+06,146.608,0,2.60574,-9481.39,-9719.88,-1199.64
3.82153e+06,10.5992,1,3.02596,-785.178,1746.58,-27623.5
0,10.6554,1,2.95074,0,0,0
3.8434e+06,56.0849,1,2.41783,-5510.49,-10252.1,-26707.1
3.87759e+06,42.9392,0,2.41756,-386.21,-6250.64,-22286.5
4.19381e+06,190.856,0,2.62262,-18149.3,-10953.4,5324.07
4.25299e+06,152.786,1,2.78009,-18273.6,6501.3,-3197.93
4.33698e+06,80.9761,1,2.89835,15755.5,5357.85,-25241.3
4.35718e+06,242.757,1,2.93749,-21707.5,7765,12445.7
4.37094e+06,89.5909,0,2.94223,5786.3,16934.1,-22848.7
4.4624e+06,8.85063,2,2.40815,-1740.43,-289.703,-29710.1
4.51965e+06,15.4025,1,2.73912,2724.21,1149.63,-27565.6
4.52135e+06,31.028,0,2.49961,-717.257,-3815.4,-23526.9
4.52614e+06,27.0325,0,2.60277,5594.96,-1709.01,-29577.1
4.59472e+06,41.192,0,3.0138,1711.18,-8422.02,-28404.6
4.62096e+06,155.649,2,2.82732,-21791.5,-6702.2,-17696.9
4.66684e+06,7.4398,0,2.83174,469.371,1478.03,-28223.1
4.80487e+06,65.8455,1,2.71789,-10027.8,2235.79,-19497.6
4.83304e+06,86.1657,0,2.98809,12871.6,-5452.06,-17276.4
4.86649e+06,55.6718,1,2.82268,-5661.25,-9799.51,-26222.7
5.0772e+06,112.068,1,2.67495,12987.7,17225.2,-19510.3
5.08207e+06,20.261,2,2.98186,1528.02,-3097.18,-26350.7
5.16638e+06,149.825,2,2.86409,8854,-9075.17,-31.2139
5.19197e+06,33.854,1,2.56002,-2721.24,-5931.76,-25839.7
5.25663e+06,30.5967,0,2.99151,-5111.97,3775.98,-27809.9
5.27335e+06,2.50723,2,2.8508,397.001,-269.113,-28574
5.38127e+06,47.091,1,2.50387,-7018.67,5804.92,-24838.2
5.43722e+06,40.3743,0,2.44366,4600.15,2099.35,-21917.3
5.52686e+06,131.862,1,2.54303,-18223,5553.51,-8449.61
5.53312e+06,171.073,2,2.37556,-6565.57,-29881.6,-9323.62
5.53497e+06,50.5052,2,3.04752,-7877.75,-6730.75,-26304
5.5518e+06,73.7941,2,2.71013,8568.41,-12832.9,-26731.9
5.5586e+06,153.028,0,2.77863,-1562.53,-28584.1,-14345.5
5.65402e+06,218.073,0,2.75139,7019.86,-22594.1,10227
5.68831e+06,30.4661,1,3.04864,-2946.93,-2092.55,-23626.3
5.77918e+06,83.7723,2,2.90608,9584.02,8091.68,-16549.5
5.78412e+06,15.8704,0,2.90091,2601.9,1640.88,-27313.2
5.81615e+06,53.7422,1,2.49067,-8099.79,6267.33,-23793.4
5.98265e+06,11.191,2,2.77559,-1377.02,-1627.64,-27615.6
0,11.1729,2,2.79085,0,0,0
6.27732e+06,99.2757,0,2.62377,-9615.14,-18366.2,-25843.7
6.53744e+06,53.9604,0,3.05746,-500.451,-192.67,-29917.6
6.64691e+06,33.3454,1,2.89338,1288.83,6959.53,-28836.3
6.67404e+06,59.1804,0,2.73532,3022.31,-5390.65,-18030.2
6.76925e+06,82.8831,1,2.58101,2567.56,6563.92,-12806.9
6.92127e+06,142.607,2,2.95154,-1460.36,18213.1,-23278.7
6.952e+06,58.014,1,2.89409,11771.7,-463.32,-25966.3
6.95335e+06,20.8734,2,2.73655,-1484.13,-3088.04,-26039.6
7.06984e+06,60.2705,2,2.64231,-8717.42,-3862.95,-20298
7.17373e+06,90.1852,2,2.93081,-18606.5,-2647.47,-26023.7
7.29973e+06,160.756,1,3.06164,-28036.5,4274.89,-10727.6
7.3956e+06,194.758,2,2.91276,-6687.34,21732,-3356.86
7.44404e+06,47.6687,0,2.53822,9753.11,1235.26,-26351.4
7.44543e+06,59.7075,0,2.46578,5727.93,6097.18,-19342.4
7.56261e+06,27.2978,0,2.84017,2695.4,-3946.46,-25459
7.88623e+06,70.669,1,2.95525,9218.78,9601.59,-22323.6
8.12898e+06,278.41,2,2.38682,16348.8,-6369.04,27639.3
8.15280e+06,23.379,2,2.88849,1298.92,-2629.92,-24758.3
8.24086e+06,133.9,1,2.77206,-14745.6,-16367.3,-11234.9
8.35493e+06,19.6071,1,2.58248,1496.19,2196.38,-25544.8
8.39701e+06,70.5598,1,2.83559,-8397.57,-10094.9,-22010.2
8.44403e+06,8.60837,2,2.92258,-491.884,-1213.37,-27554.6
8.69623e+06,120.901,1,2.46691,-3785.58,22095.7,-16786.1
8.72453e+06,13.4886,1,2.99486,2175.44,1642.5,-27942.4
8.72823e+06,78.395,1,2.63379,1147.23,-13160,-18906.5
8.81059e+06,20.284,2,2.63945,2070.52,-3888.79,-28811.1
9.00145e+06,279.139,0,2.87837,6576.78,-25206.7,23673.3
9.08736e+06,86.2753,0,2.60811,6022.66,8325.68,-13938.2
9.61619e+06,51.6646,2,2.69075,1757.83,-10856.7,-28471.6
9.64369e+06,56.5239,0,2.42027,-9800.83,-1952.56,-22385.5
9.77658e+06,21.4287,0,2.66215,4412.96,-1541.77,-27558.5
1.01262e+07,88.0071,2,2.63915,4555.66,-9057.59,-13254.6
1.02567e+07,72.0667,2,2.76551,-14328.1,-5239.36,-28876.5
1.0411e+07,124.198,2,3.01595,-25301.5,-6326.47,-28701.8
1.05155e+07,22.8143,1,2.78553,-4680.68,1660.66,-29447.3
1.0611e+07,67.6783,0,2.73493,11237,5625.68,-21887.8
1.06595e+07,53.8921,2,2.69008,-6928,-8588.92,-25890.7
1.06942e+07,48.2937,0,2.81049,1201.52,5068.81,-20068.3
1.09686e+07,129.111,1,2.38827,-18350,8716.03,-10544.7
1.10129e+07,121.553,1,2.4643,-3461.85,8567.3,-4851.81
1.10463e+07,12.8534,0,2.86601,-272.206,1320.12,-26633.6
1.1361e+07,78.5318,0,2.8392,-13250.8,1120.48,-19018.7
1.139e+07,7.4229,0,2.47183,1590.74,544.491,-28452.1
1.14031e+07,70.5409,0,2.68909,11652.3,1609.44,-19650.4
1.14072e+07,117.82,2,2.46128,-9438.37,-7615.31,-7073.63
1.14362e+07,129.303,0,2.74652,11822.5,-15498.6,-16606.5
1.14411e+07,61.0344,2,2.87137,-9343.22,-7222.08,-23660.4
1.1536e+07,61.0335,0,2.46585,11999.3,-4970.81,-28304.1
1.15993e+07,229.136,0,2.51679,2090.12,-10437.4,11737.1
1.17962e+07,84.6417,0,2.71708,-2504.57,-5609,-12039.8
1.18669e+07,15.5617,2,2.64117,-2.06242,-3338.8,-28113.1
1.19401e+07,37.9579,1,2.46304,4232.79,-4171.48,-24134.4
1.20125e+07,33.7848,2,2.41304,-5617.95,-3136.73,-26113.2
1.20489e+07,242.773,1,2.58664,-5901.92,24902.6,15613.1
1.20852e+07,295.916,1,2.85437,4692.73,-1673.77,8050.22
1.21417e+07,171.47,2,2.93946,-850.097,19817.7,1175.44
1.21935e+07,194.528,0,2.94158,-1076.62,19754.7,-15868.9
1.2327e+07,85.637,0,2.5295,-2903.74,15198.6,-19613.7
1.23693e+07,155.097,0,2.53487,1835.98,17527.1,-1331.47
1.23816e+07,63.5541,1,2.57447,2327.83,13262.1,-29884.1
1.23906e+07,150.527,2,2.79487,18761.7,4536.33,-3838.04
1.24027e+07,149.42,1,2.51323,19965.4,14655.3,-9266.65
1.2449e+07,34.7745,2,2.65244,-7071.21,-2048.94,-27404.5
1.24633e+07,172.242,0,2.62543,6941.25,-20332.5,-76.6188
1.25458e+07,137.821,0,2.88799,-21740.4,5013.1,-10461.8
1.27854e+07,19.1999,0,2.65523,474.936,4039.84,-28701.5
1.28684e+07,36.9313,2,2.65874,60.5567,-2121.9,-21394.1
1.29312e+07,206.611,0,2.66965,-27801.1,-11884.9,2025.66
1.29416e+07,60.1692,0,2.59034,10120.8,-4968.24,-23118.7
1.29697e+07,6.99732,2,2.71895,-1207.64,875.219,-28787.6
1.30162e+07,79.7632,1,2.84941,-8801.15,-9176.05,-17983.5
1.30225e+07,28.3364,2,3.00352,-4361.93,-1871.51,-25633.7
1.30613e+07,51.938,0,2.8949,7595.75,6853.46,-24942.1
1.3256e+07,37.1245,2,2.59942,-6806.11,3477.55,-27068.8
1.32809e+07,17.7682,0,2.89418,191.951,-3108.41,-26747.2
1.33209e+07,29.6718,0,2.6904,4997.09,-3879.51,-28707.7
1.34232e+07,137.337,2,2.41144,17461.3,-6065.9,-9802.04
1.35442e+07,61.9091,2,2.37276,-4293.92,4729.69,-17421.9
0,62.0604,2,2.60555,0,0,0
1.35771e+07,63.2091,1,2.69492,-12443.2,5036.75,-29333.2
1.37112e+07,187.848,2,2.39134,-12098,-13911.3,6378.35
1.39558e+07,11.7885,2,2.70923,-1553.19,-2061.52,-28950
0,11.8276,2,2.74982,0,0,0
1.39603e+07,111.874,2,3.05127,-12522,-11509.2,-12657
1.40737e+07,51.3152,0,3.0255,8622.1,-3881.96,-23562.5
1.41089e+07,31.9136,2,2.5889,-1884.09,-6569.55,-28049.1
1.41094e+07,12.2184,1,3.00228,-1778.62,664.583,-27046
1.41141e+07,42.2257,0,2.80983,6528.02,5569.24,-26649.6
1.415e+07,45.3381,2,2.68922,-9378.01,-1982.21,-28470.5
1.41643e+07,209.638,0,2.43033,26569.7,-21491.8,-961.957
1.4252e+07,132.31,0,2.64791,4035.89,9022.01,-2734.87
1.4298e+07,9.45452,0,2.4977,1343.45,1434.52,-29426.5
1.43978e+07,153.103,2,2.63404,-4926.53,-21213.1,-4850.8
1.44285e+07,59.5533,1,2.38621,-10945.9,6283.25,-28333.7
1.445e+07,43.766,0,2.73687,8921.98,-440.732,-26275.8
1.44554e+07,187.201,1,2.98813,26549.6,-20162.5,-8292.41
1.45255e+07,15.4884,1,2.66945,-385.32,3248.71,-29754.9
1.46749e+07,268.333,2,2.88437,12753.6,13305.1,-26282.5
1.49081e+07,52.5115,2,2.81488,5045.43,-8801.92,-24352.9
1.49147e+07,21.0975,0,2.43181,2425.32,3514.71,-27358.8
0,21.2251,0,2.69796,0,0,0
1.49751e+07,9.40241,1,2.46635,554.705,1830.01,-28112.9
1.50367e+07,38.353,0,2.52124,1218.16,6301.08,-23876.3
1.52057e+07,104.414,2,2.53119,-14456.8,12583.5,-17892.7
1.53095e+07,156.97,2,2.54461,9636.12,14922.3,-943.665
1.53297e+07,12.2516,0,2.49736,-1797.96,-709.417,-27142.8
1.53588e+07,163.195,0,2.73841,-22113.4,-12387.2,-6218.12
1.53749e+07,7.1724,2,2.44715,-975.224,-1001.82,-27916.1
1.54666e+07,31.942,1,2.53908,-1143.53,4074.83,-23597.8
1.55379e+07,99.8215,1,2.37581,19946.4,5723.7,-24719.9
1.55686e+07,27.4203,2,3.03015,-3431.16,-2993.55,-25244.8
1.55748e+07,131.898,0,2.68796,5166.95,13475.6,-5059.1
1.589e+07,87.8974,2,3.03692,-12919.9,12345.4,-24539.9
1.59754e+07,181.85,2,2.39665,-21260.7,-3873.68,2978.29
1.6029e+07,85.9799,1,2.7578,15404.6,-2107.73,-19638.4
1.6118e+07,74.4682,0,2.63048,7543.17,13491.8,-25655
1.64266e+07,124.542,2,2.50319,4375.93,-25704.1,-24935.4
1.66599e+07,176.467,2,2.42572,-23836.4,21471.4,-9761.14
1.6717e+07,12.8036,1,2.82437,784.846,1879.8,-28297.6
1.67601e+07,171.506,0,2.4039,18560.7,20224.8,-5009.76
1.71846e+07,152.901,0,2.3796,16057.7,-28150.5,-28068.1
1.72583e+07,201.357,1,2.73773,14579.6,20902,3581.96
1.73418e+07,128.911,1,2.88624,-20656.5,12009.6,-16023.4
1.75221e+07,21.0122,0,2.82735,2779.76,3522.58,-29155
1.75385e+07,145.064,1,2.52919,633.083,-566.808,-16769.4
1.75993e+07,52.2667,1,2.4114,-3717.57,6978.63,-23194.4
1.76202e+07,55.9265,2,2.37023,-5990.32,783.529,-18665.7
1.77191e+07,16.4015,1,2.95433,-2987.06,-1490.7,-27960.1
1.77262e+07,235.693,2,2.79443,-11275.6,20690.4,14821.5
1.79713e+07,34.6124,0,2.76492,2607.28,-732.418,-27744.9
0,34.7866,0,2.76492,0,0,0
1.79827e+07,66.3057,2,2.76723,11340.9,-1817.72,-20995.9
1.79868e+07,67.4735,1,2.72943,-9620.59,7086.7,-21273.9
1.81983e+07,2.24716,0,2.93077,40.4048,52.1835,-28437.4
1.82489e+07,47.2898,0,2.7358,5586.96,7915.2,-26222.6
1.82641e+07,49.7226,2,2.6107,-348.901,-10465.9,-27133.2
1.83645e+07,142.146,0,2.87599,24979.6,-10328.5,-15966.3
1.83857e+07,108.627,0,2.60222,21273.6,-4967.34,-21493.4
1.85558e+07,23.4876,2,2.38112,-2394.23,-3976.05,-27102.4
1.88305e+07,185.796,2,2.85206,5240.21,-10154.8,8401.01
1.89595e+07,59.4323,2,2.88711,4645.59,6392.34,-20000.9
1.90065e+07,82.872,1,2.99959,-14020.9,-4310.12,-19476.4
1.90175e+07,149.959,2,2.49332,19235.9,-19432.2,-12709.2
1.90571e+07,173.844,2,2.72901,15998.1,-5335.84,3456.11
1.91551e+07,79.1885,2,2.90324,11589.4,3886.58,-17590.5
1.93047e+07,33.1811,1,2.40433,3545.24,6058.46,-27748
1.93768e+07,7.45939,2,2.99108,-272.728,-1035.66,-27748.2
1.94655e+07,17.4321,0,2.60282,967.491,-373.401,-25388.9
1.95772e+07,97.0889,0,2.75237,13465.6,11626,-18694
1.95944e+07,94.7905,1,2.55595,-13208.3,5358.21,-14932.9
1.96758e+07,203.847,0,2.4835,-10134.1,-22892.4,6207.57
1.9772e+07,39.7967,0,2.95108,-1288.83,7631.65,-26256.8
1.98118e+07,89.6715,1,2.99647,16412.9,-2326.92,-19911.9
1.98807e+07,59.3569,0,2.46648,7081.3,5431.97,-20079.7
1.9887e+07,19.4239,0,2.87061,1079.11,-493.996,-24939.7
2.00531e+07,5.87382,1,2.61846,148.676,-644.509,-29671.9
2.01381e+07,57.9267,0,2.78124,-10273.6,4916.45,-24638
2.02327e+07,96.5585,0,2.37986,-719.387,-20426.7,-28105.6
2.04346e+07,215.008,1,2.92559,-19931,15975.2,-6026.12
2.04901e+07,2.41024,0,2.7959,-52.9287,550.602,-28878.4
2.05804e+07,153.913,0,2.80497,-1272.01,9011.57,-16112.6
2.06173e+07,160.386,1,2.95464,-18770.5,17052.7,-7547.6
2.08128e+07,39.1119,2,2.82671,4579.48,2083.2,-22499.5
2.10848e+07,15.0853,2,2.93229,-3205.22,-176.547,-29275.5
2.11075e+07,165.366,2,3.06105,4992.93,-21313.7,-1982.12
2.11079e+07,124.84,0,2.64098,21263.8,-3469.01,-13567.8
2.11216e+07,79.9484,1,2.77025,-11994.4,2072.77,-17222.6
2.12482e+07,307.212,0,2.49956,-2352.27,-6801.62,-28427
2.12541e+07,51.9319,2,2.80073,-175.22,-5507.17,-19366.3
2.13203e+07,3.02605,2,2.55244,-213.387,356.384,-28491.7
0,2.96339,2,2.48962,0,0,0
0,2.84355,2,2.88107,0,0,0
2.13448e+07,66.6007,0,2.38645,-75.8022,9394.29,-25472
2.13943e+07,42.1627,1,3.01038,-1970.4,2153.53,-20463.6
2.14104e+07,16.6148,0,2.86514,3620.4,96.9697,-28545.5
2.14766e+07,147.287,2,2.56992,14142.3,-22074.9,-12096.6
2.15362e+07,46.2348,0,2.52425,7039.74,3974.33,-23076.1
2.16201e+07,55.3874,1,2.39756,2105.56,-9712.21,-22722.2
2.17314e+07,69.2776,2,2.96697,7317.9,-9479.91,-20549.7
2.17452e+07,35.4253,1,2.46981,-6736.49,610.395,-25485.2
2.18671e+07,10.1006,0,2.48115,1321.72,912.292,-27414.2
2.20376e+07,11.0763,0,2.9904,-1350.05,-683.328,-27160.9
2.21587e+07,16.292,2,2.49183,-3467.33,189.901,-28539.3
2.23127e+07,7.38692,2,2.6354,689.366,-1450.9,-29038.6
2.24345e+07,111.343,1,2.42781,-2731.99,1191.19,-6834.75
2.24639e+07,124.277,1,2.60151,4325.1,22581.7,-15962.9
2.27644e+07,33.7539,0,2.50787,-4886.87,-2959.52,-24696.9
2.28563e+07,22.1995,2,2.92451,-834.069,-3799.09,-26258
2.29477e+07,107.681,1,2.45413,-14178.5,-12152.5,-15735
2.29483e+07,44.5103,1,2.51493,8064.88,3573.29,-25563.1
2.30011e+07,99.8945,2,2.425,-7044.16,17904.1,-20277
2.30174e+07,6.77404,2,2.52436,-1377.1,-165.991,-28250.2
2.30808e+07,143.665,2,2.99091,-2829.38,-29702.6,-26208
2.30943e+07,96.6736,0,2.59027,12721.8,3399.71,-13128.7
2.30949e+07,51.2207,1,2.71172,1160.44,-4501.73,-22911
2.32368e+07,68.5829,0,2.82662,4870.7,1867.92,-15377.3
2.32789e+07,97.7035,1,2.61718,5575.4,12162,-17463
2.33714e+07,163.598,2,2.61243,13327.6,-13845.8,-190.544
2.3437e+07,92.9557,0,2.90308,10900.6,12273,-18192.3
2.34428e+07,43.6934,0,2.94573,-7759.49,-4593.96,-27475.6
2.34765e+07,33.2482,0,2.65162,5097.35,4107.9,-26552.1
2.34948e+07,79.5295,0,2.47726,16857.6,-1857.18,-28733.5
2.35114e+07,20.9185,1,2.60586,-188.075,834.192,-24541.9
2.35116e+07,62.9636,0,3.05522,12146.8,4434.89,-29688
2.35968e+07,78.425,0,2.80151,14127.3,4429.11,-21464.1
2.36311e+07,106.014,1,2.71242,-3679.62,19859.2,-19036.5
2.36575e+07,66.1503,0,2.80667,10275.7,-4581.99,-20579.4
2.37153e+07,130.62,0,2.89444,21033.7,17409.4,-26099
2.39217e+07,40.4573,2,2.58386,5460.38,-292.066,-22466.2
2.39236e+07,28.9582,1,2.41191,2607.67,1973.73,-23692.5
2.40121e+07,30.2251,1,3.03965,-577.801,6365.54,-29509.7
2.40412e+07,61.1051,1,2.45619,-2670.27,7406.23,-18410.8
2.40758e+07,46.8432,0,2.77285,4809.1,-3280.44,-20544.6
2.42552e+07,88.1584,0,2.64599,8253.19,-12761.7,-18148.9
2.42981e+07,157.109,2,2.63032,10844.7,-9963.72,844.584
2.43962e+07,51.7557,0,2.60165,-2274.96,10195,-25558.6
2.44572e+07,19.7749,2,2.66035,-1029.39,2850.35,-26228.6
0,19.6834,2,2.59968,0,0,0
2.45043e+07,60.0456,1,2.77496,2166.82,10564.5,-22097.1
2.45386e+07,96.247,0,2.9829,12313.8,15904.9,-26817.2
2.46294e+07,17.8541,2,2.49617,-3334.93,-1945.03,-28611.7
2.46468e+07,40.674,2,2.61713,-2709.32,-5460.82,-22687
2.46628e+07,19.6625,0,2.55259,2466.62,-1508.8,-25804.9
2.46861e+07,3.08035,0,2.46694,717.266,1.31046,-28995.6
0,3.45702,2,2.80679,0,0,0
0,3.46573,2,2.83233,0,0,0
2.47014e+07,206.711,2,2.62161,726.857,-9281.76,4634.04
2.47103e+07,11.7831,2,2.95594,-704.035,-1103.32,-26792.8
2.47305e+07,76.6581,0,2.44356,14562.5,5285.07,-23671.9
2.47629e+07,27.255,1,2.5247,-3659.35,4116.56,-26718.8
2.48193e+07,59.4407,0,2.48111,8551.96,-4879.45,-20939.5
2.49142e+07,5.11523,2,2.42599,-450.787,-172.999,-28685.6
2.49777e+07,2.42936,0,2.9801,151.523,-191.934,-28374.9
0,2.40358,0,2.41536,0,0,0
2.50038e+07,70.4547,1,2.97392,-5811.6,8124.99,-17893.9
2.55545e+07,100.774,2,2.75775,-13528,-5909.42,-13578.9
2.55908e+07,107.46,0,2.90879,9892.1,-12722.3,-12813.3
2.56014e+07,126.356,1,2.77743,-20086.5,3815.46,-11574.1
2.56819e+07,94.7583,1,2.83046,-6577.08,7503.75,-11623
2.57205e+07,21.0753,0,2.56934,4445.2,910.036,-28417.9
2.57629e+07,207.486,2,2.96448,-16838.8,-4726.98,10988.5
2.58179e+07,38.6252,2,2.82093,5843.09,-3645.39,-24388.3
2.58542e+07,61.3911,1,2.89715,-4958.04,4259.66,-17714.4
2.59317e+07,3.62224,2,2.77578,-822.958,-169.53,-28924.6
2.60571e+07,278.873,0,2.4771,-24614.3,-1979.5,-1336.24
2.61177e+07,135.272,0,2.58965,20130.6,-9864.45,-11117.5
2.61479e+07,158.222,0,2.45926,26955.5,-12463.3,-13314.7
2.62158e+07,54.6241,2,2.61821,4666.18,6539.85,-20634.6
2.62853e+07,130.59,1,2.5826,6450.86,15279,-6861.04
2.63399e+07,91.4535,0,2.38558,8526.68,-17444.6,-29524.2
2.63809e+07,196.807,2,2.85875,22900.2,1171.09,5481.2
2.65831e+07,7.99531,0,2.6902,-859.108,1220.74,-28106.7
2.66275e+07,265.245,1,2.37182,10772.8,11679.5,24872.5
2.66563e+07,21.8744,1,2.62113,-3853.56,1114.15,-27254.6
2.67945e+07,72.3543,2,2.74563,14675,-2517.61,-25728.6
2.68143e+07,64.9551,0,2.49932,7892.4,2615.2,-17872.2
2.68663e+07,26.1873,2,2.54342,-3193.44,-1131.48,-24404.2
2.69207e+07,205.796,0,2.66178,7633.2,-9323.02,-17.686
2.70568e+07,70.9156,1,2.38047,-4135.1,-539.91,-14395.7
2.70763e+07,7.17247,0,2.83014,688.526,688.522,-27604.3
2.71033e+07,77.5025,2,2.83602,11465.5,10157.7,-23412.5
2.71524e+07,99.4145,1,2.45501,-19768.9,-1115.13,-21517.9
2.71706e+07,235.761,0,2.5152,625.889,19350.5,17006.6
2.71779e+07,142.597,1,2.80548,-16058.1,19992.7,-22642.4
2.72361e+07,25.2471,0,2.76674,3221.78,-1632.15,-24880.1
2.73705e+07,86.2129,0,2.83431,12130.9,3821.16,-15890.2
2.74198e+07,92.6577,1,2.47743,17190,-8403.01,-24919.4
2.74656e+07,104.215,2,2.41653,-17185.1,-1274.35,-14957.5
2.76606e+07,184.105,0,2.50186,21431.8,-10986.4,1507.8
2.77931e+07,144.051,1,2.93757,13964.2,-21209.8,-12603.2
2.78422e+07,51.8147,1,2.56957,7830.83,1645.75,-21166.4
2.79428e+07,24.1027,0,2.66488,-798.496,4225.55,-27209.3
2.81815e+07,1.71577,1,2.98451,0.344445,316.312,-28584.6
0,1.71832,1,2.38029,0,0,0
2.82234e+07,15.6489,1,2.44953,-1921.13,1589.7,-26684.6
2.82354e+07,18.2269,2,2.4672,-2963.51,544.569,-26380.5
2.82841e+07,53.1826,1,2.58952,7181.81,6044.66,-22624.9
2.83737e+07,134.562,1,2.37671,-28054.1,176.926,-23781.8
2.85152e+07,213.046,0,3.03473,3876.57,-16952.1,11646.4
2.85321e+07,9.84995,1,2.89548,18.2779,2201.67,-28535.2
0,9.805,1,2.56021,0,0,0
2.86519e+07,77.7816,0,2.82069,13335.7,-8178.82,-24060.2
2.86667e+07,5.38228,0,3.05567,1199.09,-275.612,-28630.9
2.88674e+07,128.163,0,3.01428,5961.57,21986.6,-14646.4
2.88701e+07,141.978,0,2.53306,18500.4,15697.4,-11115.9
2.88871e+07,66.4232,0,2.81571,7590.24,-9351.14,-21808
2.89046e+07,93.1225,0,2.89254,-8721.84,-12560.7,-16679.9
2.89288e+07,107.833,2,2.65586,18057.1,-5907.28,-16338.6
2.89536e+07,10.7158,0,2.82363,1679.06,-351.813,-27367.4
2.90719e+07,62.5719,0,3.01584,4670.58,-2667.31,-24573.7
2.91083e+07,3.93619,1,2.55303,-602.592,-28.9895,-28758.7
2.94117e+07,111.497,1,2.42039,21807.1,8966.7,-29108
2.96613e+07,5.49758,1,2.99749,-555.267,1032.92,-28335.4
2.96911e+07,97.4701,0,2.88557,-7896.96,4376.45,-23134.9
2.97187e+07,47.856,1,2.6442,-1445.93,-8009.84,-22951.2
