#class tools::wcsv::ntuple
#title time
#separator 44
#vector_separator 59
#column double eventID
#column double t(ns)
#column double copynumber
#column double energy(eV)
#column double x(mm)
#column double y(mm)
#column double z(mm)
125700,3.81585,1,2.62269,-671.062,-15.2223,-29383
373770,16.5385,2,2.76063,-1117.42,-1624.14,-26043
373933,119.019,0,2.59559,-4714.62,17427.7,-11435.5
406027,7.30742,2,2.67578,749.715,-105.437,-27673.7
417626,57.7377,0,2.9141,6938.08,-4513.58,-19939.1
556187,27.5789,1,2.48172,-3314.24,3475.33,-25410.4
605299,33.3193,0,2.4149,1365.65,2485.33,-22517.4
611069,39.1989,0,2.58438,7056.94,-3379.28,-25975.9
645923,66.2356,1,2.99216,-3206.75,12893.8,-24808.5
659310,189.734,2,3.02044,-11429.8,23598.3,-15572.1
753217,196.139,0,2.70729,-28187.2,-9191.26,-459.004
1.06453e+06,148.776,0,2.8071,25651.5,-12102.6,-21077.2
1.08021e+06,26.3971,1,2.93636,3592.25,-1329.67,-25072.3
1.09702e+06,11.4314,2,2.79895,2209.36,411.942,-28089.1
1.10779e+06,22.5396,0,2.46827,-531.893,-2448.07,-24817.6
1.17431e+06,27.4126,1,2.87416,-3797.37,925.493,-24537.3
1.2093e+06,53.8118,2,2.74201,8821.26,1524.25,-21954.9
1.31497e+06,217.987,2,2.98482,-26742,-23522.9,-132.286
1.45170e+06,78.4328,1,2.51007,-7244.68,8170.9,-16314.9
1.73739e+06,152.728,0,2.72733,14439.8,-11265.8,-17504.6
1.74666e+06,17.6767,0,2.93323,-2623.63,2358.66,-27772.5
1.93317e+06,101.013,0,2.75766,13764.1,-16267.3,-28126
1.942e+06,194.089,0,2.79418,20362.9,-15834.5,2864.68
1.9512e+06,84.678,1,2.42136,-8857.06,-4218.37,-13860.6
2.06514e+06,2.55537,2,2.66131,-61.6928,313.421,-28444
0,2.30672,0,2.71018,0,0,0
0,2.299,0,2.70642,0,0,0
2.14836e+06,26.3718,0,2.62163,5060.5,-94.5384,-26339.8
2.26874e+06,42.774,0,2.80851,-5488.23,-6619.11,-26295.4
2.28058e+06,16.7416,1,2.69165,-909.631,3467.92,-28569.6
2.3237e+06,194.317,1,2.82521,-9709.4,-15343.1,7706.43
2.39632e+06,96.6804,1,2.80629,8110.83,-8328.86,-12287
2.39774e+06,88.9318,1,2.70649,-15919.2,2278.22,-19092.8
2.45065e+06,61.5404,2,2.43997,4511.74,10320.6,-22494.4
2.46967e+06,237.35,1,2.79939,-7929.1,8848.45,19674
2.62398e+06,61.8276,2,2.43113,-886.746,-8394.3,-18921
2.75483e+06,87.2438,1,2.58002,-8186.17,12213.1,-17306.4
2.75528e+06,36.0121,2,3.0406,1475.72,-7425.29,-28302.9
2.87129e+06,169.026,2,2.89864,29176.6,-14819.3,-15187.2
2.88328e+06,42.0411,1,2.37029,-2687.69,-1394.35,-20490
2.96495e+06,1.64662,0,2.77324,4.36647,-18.4271,-28697.6
0,1.72093,0,2.96231,0,0,0
3.15449e+06,134.459,0,2.37977,-11377.1,16510.8,-8855.25
3.15639e+06,19.2189,0,2.7442,732.753,-3864.16,-28335.8
3.30781e+06,140.155,1,2.92763,1000.8,16332.2,-4164.69
3.33055e+06,348.114,2,2.7999,-9414.41,-6099.03,-11404.8
3.39698e+06,118.601,0,2.79872,1103.52,-21116.6,-15500.8
3.55694e+06,138.671,1,2.84157,14811.1,-8832.44,-21641.2
3.58878e+06,72.7968,1,2.38028,12234.4,7444.31,-23177.8
3.65625e+06,141.674,0,2.52547,19093.9,-14817.2,-11119
3.71314e+06,5.63852,0,2.3761,-441.735,-12.4528,-27780.1
0,5.54254,1,2.77406,0,0,0
3.84364e+06,82.5677,0,2.5015,5139.75,-3947.73,-12677
3.87104e+06,104.65,0,2.75849,16484.1,14067.3,-24482.5
3.87863e+06,63.7357,2,2.45401,-1600.18,-6325.68,-16938.6
3.99526e+06,152.648,0,2.87899,-3315.88,20749.8,-4652.3
4.00969e+06,49.633,1,3.03874,149.687,10188.9,-26396.2
4.10275e+06,52.076,1,2.39734,483.443,8609.71,-21797.5
4.15314e+06,32.6726,2,2.72343,-4998.25,-4762.12,-27868.5
0,33.2711,1,2.74901,0,0,0
4.23699e+06,5.02345,1,2.74001,-655.333,909.889,-29336.6
4.33234e+06,128.064,0,2.80699,21615.9,-8500.33,-15164.3
4.38345e+06,179.95,0,2.5203,3613.06,-26625.2,-1920.96
4.39793e+06,30.2589,2,2.36433,-786.842,-5264.19,-25158.7
4.45965e+06,17.6459,1,2.64536,1930.77,2185.95,-26481
4.47336e+06,13.0067,1,3.04817,2210.83,-613.249,-27451.1
0,12.8072,2,2.66129,0,0,0
4.4936e+06,74.7027,0,2.98123,-5068.22,5256.87,-15054
4.53014e+06,25.8409,1,2.55572,580.866,4993.94,-26414.5
4.57502e+06,16.7209,2,2.68687,2710.08,-1452.81,-27108.8
4.6011e+06,115.214,1,2.92888,-22829.3,4346.2,-21907.4
4.68287e+06,143.912,0,2.41071,11010.8,4957.81,-875.644
4.83826e+06,51.537,1,2.95959,2761.11,6556.43,-20558.6
4.84847e+06,27.4373,2,2.94616,-2349.18,2641.66,-24338
4.89e+06,13.0392,1,2.87715,-1153.19,-1572.52,-26986.6
4.89642e+06,109.101,0,2.37394,4835.26,6913.78,-7507.15
4.97943e+06,135.741,1,2.80565,-13660.8,25163.7,-29191
5.00183e+06,69.5658,2,2.62223,-13328.2,5796.22,-28311
5.01006e+06,197.546,0,2.48042,24149.8,-17598,337.511
5.35918e+06,13.0477,2,2.80448,-2669.1,-589.352,-29820.8
5.43987e+06,39.5068,1,2.41059,-3504.22,-5752.88,-23926.2
5.4645e+06,103.897,2,2.83563,-18757.7,8323.83,-21310.7
5.52848e+06,92.4721,2,2.78666,18032.5,-7305.86,-27775.6
5.62442e+06,40.7661,1,2.50124,-1951.49,727.497,-20579.9
5.69603e+06,109.199,0,2.62877,13996.5,-142.549,-10484.5
5.93557e+06,123.033,1,2.90378,5813.27,-16637.4,-10070.5
5.9393e+06,113.834,2,2.83656,9.73693,19564.7,-15293.2
5.95321e+06,35.9488,2,2.41782,-1942.73,-1356.13,-21477.5
5.97554e+06,234.747,0,2.889,7243.56,-2236.63,-10694.9
6.15864e+06,119.376,0,2.67937,16843.5,15838.7,-18727.5
6.29622e+06,46.7438,0,2.88202,8250.89,5334.58,-29301.5
6.53699e+06,21.6932,2,2.49818,2731.73,2432.43,-26022.2
6.54842e+06,15.9053,0,2.42163,2496.73,2124.57,-28255.6
6.59736e+06,63.9864,0,2.97969,13321.5,-1859.05,-28810.8
6.63161e+06,193.975,2,2.98336,-23066.1,-10444.7,1881.09
6.67662e+06,17.8372,2,2.83887,-468.217,-2650.36,-26146.8
6.69456e+06,9.37043,1,2.6066,-1583.85,947.743,-28186.3
6.825e+06,3.99055,2,2.75315,216.211,15.9006,-28108.4
0,3.7891,0,2.58523,0,0,0
6.86287e+06,24.0914,0,2.6045,-2575.42,2562.64,-25335.7
6.94713e+06,27.7472,1,2.45038,-5217.32,2519.21,-27433.3
7.00803e+06,54.2924,2,2.37185,5345.44,-193.72,-18713.3
7.21786e+06,129.971,2,2.5328,1515.86,-21790.8,-12098.5
7.31096e+06,5.88013,1,2.55173,-324.568,1224.52,-28364.9
7.36095e+06,72.8197,0,2.64137,2342.2,-5836.57,-14835.6
7.40173e+06,10.5508,1,2.84292,699.196,2235.03,-28875.9
0,10.5036,1,2.45901,0,0,0
7.45743e+06,37.5872,1,2.64931,3032.98,3829.51,-22571.1
7.49416e+06,85.614,1,2.60411,13968.7,6398.54,-19417.3
7.61926e+06,38.7604,0,2.89566,5145.44,5052.89,-25033.7
8.14006e+06,41.3193,1,2.4332,-5918.17,6690.66,-28678
8.17026e+06,77.5963,2,2.82262,-7178.47,-14276.2,-26460.2
8.29033e+06,44.5505,0,2.83581,317.173,-7995.18,-23968.3
8.35586e+06,111.333,2,2.65641,-6163.89,-6141.24,-6996.03
8.38586e+06,26.5964,0,2.90076,4853.92,1957.23,-26648.2
8.45295e+06,28.0564,2,2.78376,-3764.67,-4624.62,-28043.4
8.45573e+06,34.1801,2,2.57705,-5701.72,4250.73,-28753
8.62292e+06,6.28144,1,2.80314,-520.5,1283.9,-28447.4
8.70894e+06,15.0664,0,2.7699,2968.85,-1226.93,-29176.8
8.76697e+06,54.7138,1,2.93556,2809.5,10224.6,-24258.7
8.93589e+06,9.64245,1,2.84714,478.834,1922.6,-28001.9
8.94156e+06,52.224,0,2.40777,6636.09,8887.34,-29295.7
8.99755e+06,65.7797,1,2.36483,-15.1621,-11628.7,-21377.8
9.05514e+06,17.9103,1,2.42326,-1083.42,1601.36,-25596.5
9.0564e+06,60.2334,0,2.66529,2565.66,-12494.4,-28848.2
9.16418e+06,32.6447,1,2.73545,4979.1,216.067,-24169.5
9.33956e+06,0.915968,1,3.69236,147.61,213.903,-28788
9.37756e+06,116.633,1,2.63377,-7680.3,8664.75,-7295.53
9.38029e+06,4.2164,2,2.91118,-444.158,639.232,-28456.8
9.57279e+06,98.2224,2,2.49194,7338.26,-14452.4,-15789
9.62628e+06,53.7498,2,2.91945,-4673.48,-2663.26,-18856.3
9.75474e+06,109.751,0,2.42662,-10552,-65.922,-8201.63
1.00784e+07,221.944,0,2.83663,2356.33,-19028.5,13633.3
1.00792e+07,144.447,1,2.63682,-6969.73,29650.2,-26146
1.02118e+07,119.703,2,2.44432,-19163,-13754,-19363.9
1.02712e+07,48.509,1,2.79361,8912.65,2457.93,-24447.4
1.03163e+07,67.8737,0,2.41944,6400.48,-12869,-27572.2
1.03717e+07,159.952,2,2.73892,-7159.93,-16826.4,-547.364
1.05037e+07,76.1623,0,2.61884,8150.96,3154.03,-15294.4
1.06275e+07,127.448,2,2.5875,17154.2,-19843.3,-22631.3
1.07927e+07,10.9906,0,2.83446,924.381,-2158.08,-29304
1.08134e+07,33.0389,0,2.56825,5354.13,-28.7253,-24494.9
1.09498e+07,162.797,2,3.01046,-21605.8,-16966.1,-8565.71
1.09738e+07,276.413,1,2.56544,-10352.6,5029.66,28230.9
1.10981e+07,23.7583,2,2.99219,-1927.4,-4682.58,-28272.1
1.10992e+07,90.8832,0,2.95263,12605.6,-3657.2,-14931.2
1.11394e+07,163.801,1,2.69929,2380.01,15037.4,2127.89
1.12783e+07,12.0627,1,2.6527,862.829,2371.43,-29447.4
1.13188e+07,9.62148,0,2.62343,1836.34,-841.938,-28902.7
1.13217e+07,108.341,0,2.43856,19909.9,-11417.8,-26936.9
1.13983e+07,25.3562,0,2.77045,1479.93,2479.52,-24320.9
1.15477e+07,140.793,0,2.78839,22401.2,-17600,-20741.2
1.15712e+07,84.6153,0,2.52975,-6789.8,12390.5,-17918.4
1.15737e+07,19.2188,2,2.60521,1876.11,-3732.47,-28910
1.16094e+07,197.41,1,2.70691,3233.74,1631.75,2818.08
1.17537e+07,146.276,2,2.87364,6430.97,-20384.9,-7264.65
1.1822e+07,12.7758,0,2.56879,1927.62,1014.92,-27156.9
1.18507e+07,160.995,1,2.9026,22486.2,19589,-12679.2
1.18933e+07,21.9217,1,3.02737,-1869.88,3545.15,-26541.3
1.20149e+07,98.8462,0,2.43238,-2910.53,-17686.3,-18062.8
1.20879e+07,15.5944,2,2.9946,1257.27,-2561.55,-27132.2
1.22028e+07,73.4298,1,2.82589,9485.55,12273.3,-28210.6
1.22248e+07,8.63231,0,2.64781,1345.37,1342.45,-28733.3
0,8.69662,0,2.69397,0,0,0
1.22648e+07,114.281,0,2.49466,-18038.2,-2774.46,-13200.6
1.22777e+07,145.67,0,2.84814,4604.55,-19996.2,-6104.13
1.23621e+07,98.067,0,2.61815,13759.8,1884.77,-25403.9
1.24124e+07,67.0642,1,2.52726,10109.6,9950.77,-28835.1
1.25497e+07,4.90356,2,2.5068,-1135.39,-252.426,-29153.6
1.26454e+07,7.28204,2,2.88467,-1332.48,-948.208,-28785.8
1.27627e+07,103.569,1,2.50841,808.217,19114.8,-18100.9
1.28662e+07,4.04421,1,2.38024,-550.555,41.7591,-28347.7
1.30581e+07,59.1612,1,2.92089,5576.64,5683.1,-19320
1.31714e+07,53.0013,0,2.50447,6694.73,8819.02,-26849.3
1.32611e+07,153.043,1,2.72818,3992.21,-27348.8,-12242.6
1.3324e+07,5.36496,2,2.78237,770.069,-166.232,-28067.1
1.34315e+07,169.286,2,2.48099,-26627.4,-22815.7,-21198.3
1.34359e+07,132.888,2,2.536,17521.3,-21551.6,-24396.2
1.34696e+07,75.0192,1,2.39905,3306.62,15654.9,-29675.2
1.35144e+07,141.546,0,2.73715,-4172.58,22340.9,-9628.01
1.35716e+07,47.7062,0,2.73527,5249.79,-3904.41,-21161.2
1.3609e+07,23.9091,1,2.98043,-2815.98,-38.9823,-25019.2
1.3613e+07,11.9794,1,2.56358,412.211,1071.64,-26545.4
1.36133e+07,93.1289,2,2.70418,5400.04,-18870,-26567.5
1.36797e+07,64.9498,2,2.92787,-7290.29,-6905.47,-19780.1
1.37356e+07,21.8209,0,2.61613,-2506.64,2668.95,-26392.5
1.39073e+07,61.268,2,2.87802,4335.28,-2301.31,-16929.8
1.40233e+07,37.6946,0,2.77505,7929.93,-603.352,-28499.2
1.42972e+07,115.224,2,2.54891,-17511.9,-607.077,-11792.8
1.42979e+07,25.766,2,2.60504,-4068.06,3652.04,-29319.7
1.44586e+07,113.637,2,2.68715,-13309.2,-14553.9,-15106.8
1.45429e+07,112.232,2,2.85517,6652.46,-18839.7,-16389.7
1.45516e+07,104.471,2,2.44152,-16472.4,-13740.4,-23001.8
1.45979e+07,51.9861,0,2.75355,9227.94,1953.28,-23225.8
1.46107e+07,4.23867,2,2.96218,348.886,-557.64,-28164.9
0,4.21962,2,2.88177,0,0,0
0,4.13749,2,2.80252,0,0,0
1.47629e+07,140.07,0,2.88491,1147.72,236.753,-27989.1
1.48599e+07,134.137,1,2.79563,-14574.3,-23912.1,-28704.4
1.49519e+07,109.665,2,2.72645,1204.71,-15275.9,-11609.9
1.50095e+07,56.6281,2,2.36761,3227.24,-11511.4,-27185.3
1.5411e+07,68.2356,2,2.57235,-6710.48,-12771.9,-29029.9
1.54353e+07,12.2781,0,2.58636,2254.83,-886.147,-27658.8
1.54782e+07,41.687,1,2.99815,-257.327,7974.65,-25552.8
1.56101e+07,86.0535,2,2.83799,-16237.6,-7837.38,-26976.4
1.56497e+07,4.88318,0,2.54911,134.136,603.894,-28137.4
0,4.92206,0,2.47779,0,0,0
1.57763e+07,247.748,1,2.84788,-9283.71,14863.4,20111.4
1.58399e+07,106.982,0,2.51093,532.621,-15636.9,-15405.4
1.58829e+07,6.84828,2,2.42409,-618.512,72.0016,-27467.2
0,6.91032,2,2.71517,0,0,0
1.59336e+07,90.6522,1,2.86101,-3656.36,18780.9,-27859.7
1.60276e+07,78.9449,2,3.02872,-1336.1,-7975.72,-14395.5
1.61706e+07,169.061,0,2.94626,18200.7,-17813.4,-4117.91
1.61811e+07,56.294,1,2.61873,-4152.36,-3473.71,-18391.7
1.62095e+07,15.9355,0,2.90539,-1440.76,1032.46,-26205.1
1.62799e+07,7.38017,0,2.62615,778.795,-1352.82,-28580.2
1.64056e+07,104.12,1,2.85358,-3444.01,17974.4,-17275.5
1.64518e+07,159.852,2,2.60061,-1025.06,-28152,-10169
1.65403e+07,30.8839,2,2.38937,-4623.46,-4752.24,-29270.1
1.66971e+07,81.2619,0,2.79729,1477.05,15124.4,-21295.5
1.67499e+07,83.9704,1,2.81675,-17295.1,1690.88,-26206.8
1.68083e+07,23.6865,2,2.91908,-44.5957,-2920.99,-24774
1.68112e+07,47.8796,0,2.90268,8592.62,-3754.25,-25079.2
1.6835e+07,46.5966,0,2.37069,-556.782,-8126.99,-23257.1
1.68592e+07,36.5526,2,2.71893,726.892,4957.64,-23293.9
1.69617e+07,112.468,1,2.40723,14975.2,-9803.37,-13262.8
1.72208e+07,19.0905,1,2.80425,3523.11,-1875.38,-28639
1.7289e+07,82.1254,2,2.51778,-8775.14,-1014.06,-14282.7
1.73395e+07,22.5927,1,2.95053,1675.17,4360.85,-28040.1
1.73826e+07,83.3868,1,2.55399,-10250.3,-5317.38,-15877.9
1.73901e+07,6.36184,0,2.87489,1066.39,-824.794,-29229.2
0,6.29193,0,2.69072,0,0,0
1.74372e+07,43.5319,2,3.0481,-3109.96,-151.003,-25372.2
1.75548e+07,168.405,2,2.71726,6732.31,-7458.98,5138.61
1.76878e+07,195.527,1,3.05934,-22337.1,10198,3986.11
1.77309e+07,99.7747,2,2.47637,3983.23,-8669.75,-14224.4
1.78231e+07,28.104,0,3.04531,3062.4,-3483.36,-25393.3
1.78893e+07,77.1776,1,2.51021,8652.07,-5041.81,-16049.6
1.8368e+07,83.2908,0,2.91166,14779.3,5560.96,-21542.9
1.84075e+07,12.9848,2,2.57117,-1937.93,706.063,-27433.4
1.84355e+07,18.2188,1,2.98709,-2214.47,3047.09,-28033.7
1.84364e+07,88.3174,1,2.8867,-6095.87,15474.6,-21226.4
1.86264e+07,22.07,1,2.95795,-2987.87,2948.24,-26809.4
1.86491e+07,103.05,2,2.38325,-12098.2,13692.2,-17044
1.87157e+07,21.9579,0,2.56389,3072.46,-402.29,-25501.4
1.88154e+07,10.3644,0,2.74028,1650.26,-1058.86,-27754.7
1.89397e+07,12.5756,1,2.49489,-41.2649,823.056,-26312
1.89626e+07,43.5518,0,2.4536,-4523.52,-2125.2,-21141.9
1.8967e+07,178.077,0,2.44168,-29242.6,-21184.3,-18191.7
1.90859e+07,127.821,2,2.92135,-1349.12,-16392.9,-10648.9
1.91245e+07,75.5443,1,2.75942,6966.81,2140.88,-14706.1
1.91536e+07,39.1037,2,2.74635,7519.05,2738.68,-27085.7
1.92152e+07,20.2856,1,2.38933,-3995.27,795.878,-27206.2
1.9233e+07,62.1849,2,2.72925,13024.6,983.951,-29337.2
1.92349e+07,132.394,0,2.47218,25225.4,11354.2,-24628.4
1.92769e+07,87.3816,1,2.43981,10101.9,6582.06,-14801
1.92878e+07,178.668,2,2.51858,-21648.4,-22183,-7240.76
1.93203e+07,60.091,1,2.50695,1139.94,-7410.98,-18659.2
1.93264e+07,40.6911,1,2.9782,1792.62,7323.55,-24763.6
1.94018e+07,88.3621,0,2.51978,16543.1,99.0612,-19963.2
1.94091e+07,125.289,2,2.63462,-4440.42,-3655.42,-3026.25
1.94246e+07,76.2552,2,2.51385,-4396.08,-15382.1,-26055.7
1.94485e+07,147.617,2,2.76784,-26428.7,-13940.3,-20009.5
1.94987e+07,26.7081,2,2.58567,-2122.06,-1562.92,-23898.1
1.95883e+07,48.7241,0,2.49858,-8650.02,4828.39,-26295.9
1.96932e+07,9.10228,0,2.64656,1168.6,-822.019,-27453.8
0,9.07857,0,2.54497,0,0,0
1.98157e+07,4.05244,1,2.89645,33.5027,1006.3,-28395.5
0,4.11741,1,2.65224,0,0,0
0,4.06021,1,2.57847,0,0,0
1.99071e+07,213.03,2,2.7783,24451.9,-2998.54,8736.87
1.99077e+07,201.147,0,3.05057,13648.4,22528.2,3930.87
1.9945e+07,229.797,1,2.9857,-24305.5,-6135.96,12275
1.99525e+07,132.419,0,2.42732,13080.8,-20564.9,-15274.5
2.00487e+07,97.9953,0,2.38291,-3076.96,-12875,-12876.1
2.00758e+07,38.1468,2,3.04503,-4861.11,-6151.39,-26971.4
2.02027e+07,6.65294,2,2.93814,1054.57,-765.261,-28199.4
2.02558e+07,33.1177,0,2.51279,2396.97,-5863.5,-25858.9
2.02582e+07,246.16,2,3.05545,-8349.5,-9152.92,-23934.4
2.02714e+07,122.106,1,2.82344,-20174.2,-15758.9,-28413
2.03272e+07,87.1659,0,2.62352,4395.45,-4876.06,-11649.8
2.04147e+07,25.2408,2,2.67412,-4051.04,-1045.94,-26397.6
2.04236e+07,195.325,0,2.77856,-2965.24,-10844.1,-23150
2.04353e+07,63.1987,2,2.63098,-10933.6,-2226,-21415.7
2.04991e+07,23.9852,1,2.79405,-3887.1,-500.757,-25654.6
2.05014e+07,70.8259,0,3.02186,14715.6,283.864,-26191.6
2.0575e+07,130.463,2,2.7727,-20128.8,-3747.27,-10521.2
2.06433e+07,57.7396,0,2.7792,-11129.2,3173.37,-24916.9
2.08342e+07,84.0891,0,2.39607,17225.8,4799.33,-28329.1
2.08949e+07,92.4489,2,2.56647,-2974.95,12696.2,-14336.5
2.09912e+07,222.414,1,2.78819,-4516.03,5317.56,-26591.8
2.10225e+07,1.84943,1,2.80985,173.329,52.3763,-28482.3
0,1.83663,1,2.79963,0,0,0
2.10859e+07,21.7255,0,2.94231,802.97,-4464.29,-28346.9
2.11296e+07,59.0495,2,2.82501,-6967.81,9139.51,-24187
2.13651e+07,258.614,1,2.7882,-13587.7,12317.6,22353.3
2.14386e+07,59.3443,2,2.53882,5446.53,-6317.61,-19812.7
2.14719e+07,69.169,2,2.69542,-11058.9,-7565.97,-22750.3
2.14987e+07,5.43587,0,2.93924,-439.554,-869.501,-28302.6
2.1516e+07,79.5771,0,2.42058,-9219.79,5959.21,-16140.7
2.15249e+07,20.1103,1,3.00523,-2671.6,1941.9,-26100.3
2.15255e+07,64.8217,2,2.45569,-1734.25,-13593.3,-28528.7
2.15338e+07,28.865,1,2.74521,4082.12,-219.344,-24302.2
2.19562e+07,176.016,1,3.03245,-19077.2,10147.9,1074.06
2.20458e+07,35.2525,1,2.75099,-4538.94,4925.94,-25582.8
2.21093e+07,43.9459,1,2.77732,-6010.18,5741.1,-24628.1
2.21217e+07,142.584,0,2.89988,-18601,3673.32,-17507.3
2.22025e+07,20.3344,2,2.7771,-2804.72,1668.5,-26129.2
2.23557e+07,121.841,0,2.53713,23687.8,1105.25,-18470.9
2.2567e+07,131.553,2,2.50332,-1419.2,13591.9,-4665.41
2.26336e+07,10.6917,0,2.44226,1803.55,-412.08,-28926.9
2.27529e+07,97.6895,2,2.98053,18585,1631.85,-20389.2
2.28427e+07,99.8622,1,2.69846,-11055.9,-2323.99,-12278.9
2.30283e+07,18.3548,1,2.43648,-1540.34,623.507,-25364.7
2.31337e+07,19.3269,2,2.55385,206.666,-3863.5,-27357.2
2.3177e+07,84.4864,2,2.6427,15216,-7171.09,-22948.6
2.32648e+07,34.466,1,2.86982,-7275.33,284.68,-29418.6
2.32791e+07,70.9386,0,2.49663,-5638.71,11858.8,-21571.4
2.3359e+07,130.456,0,2.44209,19492.9,-4917.58,-25677.4
2.34081e+07,34.9527,2,2.98088,-3022.76,-3277.56,-22957.9
2.35183e+07,68.795,2,2.82581,-4310.72,2129.4,-15391.5
2.35373e+07,84.1352,2,3.02561,-11871.7,-8305.94,-18639
2.35459e+07,41.1056,1,3.04497,-946.198,-1628.6,-25392.8
2.35926e+07,20.2821,1,2.97517,-3184.99,2947.04,-28199.5
2.35991e+07,71.2032,1,2.54391,-4948.87,7093.68,-19659.4
2.36221e+07,93.1697,2,2.51525,11327.7,-16155.4,-27250.7
2.37615e+07,194.436,2,2.44828,-15049.5,7692.05,8552.11
2.37739e+07,26.6374,0,2.84966,4766.43,2565.82,-29597.1
2.37753e+07,13.044,1,2.69527,454.102,-1339.22,-26504.5
2.3776e+07,25.3352,1,2.4031,-1961.83,-3074.04,-25022.1
2.39851e+07,10.7869,0,2.67455,-342.89,984.437,-26841.2
2.41131e+07,142.723,0,2.59926,-8779.82,-26003,-25519.3
2.42451e+07,15.5946,1,2.80089,1070.21,-2036.91,-26558.4
2.45778e+07,124.991,0,2.46085,23143.4,12908.8,-27005.3
2.45886e+07,6.97175,0,2.78122,356.602,-688.176,-27518.8
2.46822e+07,111.457,2,2.91926,21663,-8731.33,-27815.8
2.47729e+07,44.8003,2,2.89585,7932.29,-4792.34,-27397.4
2.47814e+07,10.2609,1,2.72272,-893.759,1060.59,-27153.1
2.47829e+07,149.675,2,2.54163,-20282.2,-21795.1,-17934.5
2.47924e+07,142.972,2,2.82256,-15523,-20671.4,-13400.9
2.48783e+07,91.4992,1,2.7265,10942.2,14805.9,-23555.8
2.48934e+07,39.4761,1,2.76796,-7703.93,3312.34,-29786.9
2.49e+07,125.883,1,2.88848,-16895.2,20049.7,-24989.3
2.49492e+07,91.1333,0,2.98375,18428.1,-5403.66,-29096.8
2.50753e+07,105.135,1,2.78539,8478.58,-12239.3,-12581.8
2.50773e+07,55.3696,0,2.73464,9759.27,1787.86,-22559.3
2.51591e+07,9.83462,2,2.53448,-2084.89,-314.923,-28877.4
2.51633e+07,28.1093,0,2.76594,3086.56,265.922,-23727
2.52281e+07,37.8629,2,2.93817,-1697.83,-4652.73,-22664.6
2.53631e+07,27.4804,1,2.63963,-2490.42,2604.15,-24094.8
2.54575e+07,67.271,0,2.62833,1021.44,11170.8,-20296.8
2.54822e+07,53.3755,0,2.42082,1766.04,3974.8,-18411.6
2.55116e+07,29.6793,1,2.48129,1774.12,2673.93,-23470.8
2.57296e+07,104.001,0,2.58371,18822.4,-2906.58,-19094.2
2.5733e+07,122.951,2,2.38957,20434.2,2669.25,-13056.9
2.57439e+07,18.9653,2,2.5486,3043.23,-2511.27,-28518.1
2.57934e+07,32.0062,0,2.56376,-5911.07,539.549,-25586.5
2.62278e+07,54.9108,0,2.96724,1333.9,11435.7,-29804.5
2.62594e+07,84.7197,1,2.62482,-12768.8,10781.5,-22236
2.63277e+07,63.5523,1,2.68801,-10847.1,-7578.66,-27023.2
2.64428e+07,34.5915,1,2.53223,-3848.87,4949.68,-25338.8
2.65015e+07,81.5078,2,2.70475,-14433.8,9215.87,-27489.4
2.66622e+07,93.7523,0,2.98806,8337.61,-3238.6,-11279.4
2.67937e+07,51.1227,0,3.05266,-7396.54,-2906.39,-22698.7
2.69159e+07,198.205,1,2.68968,4569.07,29889.6,82.4753
2.69731e+07,8.00047,1,2.71235,-679.58,1748.8,-28338.9
2.69976e+07,80.7241,1,2.78307,-4104.47,7342.21,-14082.2
2.70298e+07,99.8701,0,2.77495,20256.6,-5827.29,-29339.1
2.74311e+07,26.9726,2,2.43932,278.297,-4851.24,-25694.9
2.74639e+07,123.683,2,2.80748,-18504.2,-4417.81,-11192.1
2.77421e+07,18.5215,0,2.74319,-1586.48,3301.1,-27582.5
2.78143e+07,5.44221,1,3.01265,-1091.52,-404.946,-28567
2.80034e+07,129.694,0,2.57474,17948.5,-7856.3,-9372.01
2.81599e+07,2.68578,0,2.91302,277.145,-178.661,-28363.6
0,2.79301,0,2.86747,0,0,0
2.82769e+07,50.2398,0,2.61439,3422.16,5494.85,-20375.4
2.83256e+07,154.425,0,2.45801,8642.58,-20110.5,-12312.1
2.84498e+07,53.1176,0,2.61743,-1399.01,2120.28,-23827.4
2.85322e+07,22.1589,1,2.87631,-1857.81,988.742,-24670.3
2.86469e+07,133.554,1,2.96028,7988.55,-16879.6,-7759.89
2.87369e+07,45.7352,1,2.79918,-8676.03,-4152.66,-28689.3
2.87622e+07,107.757,0,2.90769,15675.3,8300.85,-14681.9
2.87777e+07,131.354,1,2.90239,-10552.4,20657.5,-13900.2
2.88169e+07,151.239,2,2.98867,-4783,-20589.9,-5263.46
2.88851e+07,48.4967,1,2.80053,-3923.43,9135.42,-26312.5
2.89467e+07,76.8816,1,2.80936,8504.12,-5021.48,-16112.4
2.8976e+07,130.04,2,2.59637,-18187.5,-20128.4,-23993.9
2.89831e+07,37.6755,2,2.36947,373.713,-5466.76,-23003.4
2.90793e+07,56.7847,0,3.05645,1174.67,-4384.52,-17855.9
2.91539e+07,95.6932,0,2.64367,-3624.65,-14408.6,-15313.4
2.92286e+07,48.6101,1,2.62523,-1047.29,8325.6,-22805.3
2.92875e+07,126.08,1,2.76051,3052.63,-16198.5,-8083.27
2.93116e+07,126.046,1,2.70464,-11155.7,-624.848,-4784.1
2.94067e+07,54.5389,1,2.53076,9415.82,-763.318,-22197.6
2.94573e+07,33.8973,2,2.5168,-5274.19,3408.13,-25403.4
2.9602e+07,161.616,2,2.86915,152.659,-26191.4,-7754.5
2.96041e+07,86.0429,0,2.47877,16139.8,-8468.36,-28117.3
2.97327e+07,71.8056,0,2.90842,12314.5,-8245.55,-25177.6
2.97814e+07,47.6322,1,2.9333,-2556.36,9741.29,-28235.3
2.97961e+07,147.662,1,2.664,-26286.4,1024.57,-12159.9
2.98038e+07,57.0432,0,2.75682,4618.32,2286.57,-17922.4
2.98129e+07,38.0795,1,2.42558,760.998,2096,-21095.2
2.99277e+07,59.4784,1,2.62852,5177.43,10667.5,-24374.2
