#class tools::wcsv::ntuple
#title time
#separator 44
#vector_separator 59
#column double eventID
#column double t(ns)
#column double copynumber
#column double energy(eV)
#column double x(mm)
#column double y(mm)
#column double z(mm)
287718,38.8815,2,2.71097,-5022.71,6177.92,-26910.7
308296,74.3448,0,2.544,3813.32,14798.1,-28111.4
993300,53.5701,0,2.74193,-251.495,-8156.5,-21058.8
1.2742e+06,44.3161,1,2.52618,-1382.18,4462.87,-20704.3
1.39321e+06,38.5298,2,2.62692,-5563.44,-3073.13,-23675.7
1.50468e+06,170.411,1,2.81481,-26037,-24113.4,-23770.5
1.676e+06,41.805,2,2.6744,-3872.8,-7943.09,-29914.4
1.76623e+06,58.0848,0,2.44952,-7327.93,-2174.45,-19268.6
1.76944e+06,32.5978,2,2.95438,1312.08,-5937.22,-25566.7
1.89428e+06,149.908,2,2.83017,-3406.07,13839.5,-824.046
2.22353e+06,203.214,1,2.46663,-22211.6,29697.4,-7001.23
2.50658e+06,5.40551,0,2.40321,516.358,-997.81,-28415.4
2.59614e+06,9.82455,1,2.38902,632.504,-1677.79,-27880.8
2.6239e+06,93.0331,1,2.64193,-7746.21,1230.63,-26612.3
2.67214e+06,48.758,2,2.70135,8450.63,2363.99,-23547.2
2.80615e+06,130.848,0,3.01605,-16671.8,21576.4,-26771.3
3.25415e+06,125.38,1,2.40857,-206.623,13418.2,-5932.79
3.72978e+06,3.74758,2,2.72502,-685.271,-535.755,-29046.8
3.83637e+06,58.2709,0,3.04948,7121.79,4542.64,-19967.4
4.23616e+06,18.3913,2,2.38652,-1105.63,2775.95,-26424.9
4.35863e+06,57.4806,2,2.49746,3950.2,-3378.2,-17854.2
4.52648e+06,29.8992,0,2.69857,-6187.46,400.048,-28116.2
4.54221e+06,1.53713,2,2.5014,-98.8342,9.43434,-28527.5
0,1.63054,1,2.58188,0,0,0
0,1.52677,1,2.76882,0,0,0
4.62584e+06,44.8369,2,2.41764,-4266.64,-7318.2,-24390.1
4.9589e+06,40.7481,2,2.65425,-5731.94,-297.389,-22404.3
4.96055e+06,38.8965,1,2.69582,-5663.1,3258.77,-23786.3
5.03042e+06,131.878,0,2.70093,3677.61,-22429.7,-12860.5
5.15379e+06,130.187,0,2.59986,-10540.1,9571.69,-5389.95
5.26069e+06,19.3078,2,3.05362,-1201.92,-1788.26,-26849.2
5.33197e+06,227.845,0,2.75724,15825,22611.7,10381.4
5.45579e+06,85.2608,0,3.01483,15194.4,8767.79,-24977.5
5.50339e+06,67.4236,0,2.45564,3361.01,1330.29,-15033.3
5.54718e+06,57.7536,0,2.79708,5543.92,2974.47,-18402.5
5.66298e+06,80.5142,2,2.76545,3830.51,-8472.43,-14661.8
5.79864e+06,80.5108,0,2.58593,4875.09,-7939.93,-14595.7
5.9827e+06,15.7566,2,2.51275,-2846.98,-1938.78,-28896.4
6.0032e+06,41.6691,2,3.0071,-5632.19,3807.91,-29456.1
6.12941e+06,15.6432,0,3.02858,3339.04,-516.764,-28556.6
6.43514e+06,153.97,1,2.9362,-783.553,6451.61,-5931.13
6.45557e+06,6.90317,1,2.86717,671.71,1261.6,-28368.1
6.60616e+06,103.115,0,2.64369,-5251.44,-11678,-11270.2
6.66553e+06,205.115,1,2.73296,-5462.15,9534.64,12857.7
7.0021e+06,65.1934,2,2.52593,-7511.83,-6834.14,-19731.9
7.423e+06,149.303,1,2.94009,-6408,-8401.72,-22973.6
7.96552e+06,136.23,0,2.8801,8334.89,-8295.83,-2742.02
7.98344e+06,63.4388,2,2.94949,9370.39,-5057.43,-20838.4
7.99256e+06,11.8306,2,2.73705,-2186.64,1236.58,-28888.2
8.3047e+06,270.714,1,2.72104,-29975,22126.2,14368.7
8.56066e+06,50.1024,1,2.864,-1391.32,10171.5,-26137.6
8.60263e+06,6.96366,2,2.94728,805.305,-394.435,-27689.1
8.64823e+06,71.0452,1,2.51605,-1496.95,14868.3,-26679.8
8.66962e+06,55.8738,0,2.42228,9745.05,1138.48,-22155.6
8.76508e+06,170.998,0,2.93261,7006.71,-19360.5,539.699
9.22808e+06,7.95423,0,2.51829,471.883,-487.84,-27275.7
9.48922e+06,161.159,2,2.60365,4535.21,-28410.6,-10577.8
9.53255e+06,98.7647,2,2.61778,11610.1,6881.01,-13009.1
9.7329e+06,105.934,0,2.3806,9768.24,8310.44,-10429.7
9.83307e+06,73.6336,2,2.60582,-2128.17,-7376.34,-15290.9
1.00274e+07,62.4547,1,2.85962,143.569,8068.69,-18432.3
1.00647e+07,42.6431,1,3.01496,7609.77,3667.95,-25976.8
1.00905e+07,39.6436,0,2.74872,4208.23,-6407.33,-25414.8
1.03105e+07,26.1334,2,2.64463,-430.723,4654.7,-25992.2
1.04795e+07,39.4173,1,2.8187,1274.58,-4250.97,-21879.5
1.05169e+07,42.3217,2,2.52355,6945.8,2905.73,-24125.7
1.06809e+07,59.5165,0,2.67995,4139.1,10989.5,-24280.2
1.08755e+07,51.5539,1,2.86639,-8764.39,6360.45,-27334.8
1.13839e+07,46.2216,0,3.05885,2567.13,5493.13,-21270.9
1.16424e+07,119.682,1,2.71246,19502.3,-14543.9,-22424.1
1.17239e+07,47.8716,1,2.93705,7771.07,6201.01,-27168
1.1726e+07,29.6096,1,2.47595,-376.071,5024.39,-25034
1.23159e+07,31.9886,1,2.48355,-5045.32,3560.25,-25904.1
1.2361e+07,36.5176,0,2.45094,5540.6,-2516.32,-23976.6
1.24297e+07,19.9918,1,2.41822,-1897.06,1141.09,-25195.1
1.2581e+07,39.5657,2,3.04649,-3083.12,3754.32,-22135.1
1.27451e+07,39.5605,0,2.8664,7930.87,-879.861,-26178.1
1.32553e+07,25.7782,1,2.68783,2925.98,-735.293,-24348.1
1.33796e+07,12.482,2,2.59512,2412.86,532.901,-28028.3
1.34349e+07,19.3257,2,2.67708,-4017.9,-1142.05,-28758.1
1.35429e+07,91.0859,2,2.49199,12319.1,13892.8,-23994.8
1.40916e+07,64.1164,2,2.62311,-13290.8,-2966.88,-29172.2
1.4296e+07,90.4519,0,2.63067,-10235.1,6749.89,-14272.5
1.43214e+07,154.703,0,2.86587,6176.73,-18548.2,-17580.3
1.43455e+07,107.038,0,2.78998,-11419.7,3537.29,-25024.1
1.43821e+07,86.6375,0,2.4482,6929.66,-15696.5,-22314.6
1.46333e+07,14.2253,0,2.37156,2866.06,1093.54,-28330.1
1.47634e+07,6.54341,2,2.68581,182.945,-1004.43,-27873.1
1.48446e+07,62.8936,1,2.73357,10523.4,7584.17,-26184.5
1.53333e+07,55.2936,1,2.66446,-4363.97,7778.83,-21227.9
1.5374e+07,42.7746,2,2.55337,5717.35,6050.75,-25476.1
1.53946e+07,35.9464,1,2.89748,5416.45,1768.95,-23908
1.57011e+07,112.241,2,2.99372,10240.5,11261.3,-11006.8
1.59515e+07,5.04139,0,2.91107,-695.703,-555.969,-28392.1
0,5.0024,0,2.53393,0,0,0
1.61006e+07,11.5019,2,2.73899,258.988,-2511.12,-28963.6
1.62493e+07,55.4236,2,2.65218,-3354.28,-7833.48,-20746.2
1.63553e+07,213.382,1,2.96127,8067.41,25212.8,7175.73
1.63855e+07,79.7741,0,2.5186,10764.5,7637.35,-18246
1.6595e+07,142.615,1,2.58742,-790.653,-13017.9,-1754.8
1.68384e+07,36.139,1,2.97253,-7620.77,542.79,-28584
1.71638e+07,69.6078,2,2.38769,-1966.28,-12262,-20799.2
1.75819e+07,139.426,2,2.67046,10486.2,9507.76,-3120.53
1.77352e+07,2.4705,1,2.4364,-581.264,-73.8077,-28863.5
1.79172e+07,85.3162,2,2.72498,-9362.78,-9382.2,-16627.1
1.79423e+07,27.4725,1,2.5324,-5151.39,-645.02,-26173.4
1.83202e+07,41.063,0,2.36987,-2.55391,-8691.95,-29394.9
1.87039e+07,204.719,1,2.75315,-23945.7,1991.55,6953.45
1.89441e+07,34.1323,0,2.72065,2863.6,4513.25,-23993.2
1.89573e+07,26.3986,2,2.94817,3805.01,-393.344,-24869.2
1.90363e+07,149.153,0,3.01729,7601.95,-16236.5,-24433.8
1.92141e+07,121.951,1,2.38473,-6380.77,2131.05,-3927.98
1.92277e+07,148.881,1,2.83482,-2719.25,7683.17,-245.811
1.933e+07,21.59,1,3.01568,-4455.05,121.594,-27716.4
1.94297e+07,72.9189,2,2.82872,6285.11,12160.8,-22083.5
1.9628e+07,9.60825,2,2.71539,-1809.46,-812.153,-29629.2
1.98705e+07,15.4142,0,2.93534,2315.29,208.23,-26520.1
2.02941e+07,40.3504,1,3.05812,-2746.12,4260.06,-22035.8
2.03152e+07,161.382,1,2.79537,17327.3,-3049.28,-8787.93
2.03572e+07,14.7162,2,2.7659,1081.57,2436.86,-27373.9
2.04635e+07,44.9056,0,2.50146,-2552.44,4969.86,-21235.7
2.04822e+07,63.219,2,2.81577,-2798.25,-4313.52,-16548.6
2.06042e+07,98.9314,0,3.01209,19650.4,-2573.43,-22437.9
2.07892e+07,83.7144,1,2.72117,-5786.9,13816.1,-19399.9
2.09972e+07,45.4802,2,2.73331,2223.03,-8244.52,-24359
2.11682e+07,279.369,2,2.58991,-26897.8,-23468.2,18150
2.12694e+07,19.0976,0,2.77728,2242.17,1374.7,-25737.6
0,19.1965,1,2.60963,0,0,0
2.13294e+07,85.1121,2,2.5432,-3165.75,16321.9,-22080.6
2.15339e+07,0.412884,2,2.66843,-17.2259,-125.318,-28787.8
0,0.359946,2,2.92442,0,0,0
2.15634e+07,8.83848,2,2.60171,-1028.47,1426.67,-29452
2.15921e+07,59.4872,2,2.60182,2081.92,-10563,-22258
2.18096e+07,66.4787,2,2.9377,-10493.9,4653.4,-20924.9
2.18392e+07,81.5481,1,2.39842,8046.99,-4838.73,-14439.3
2.18515e+07,94.6896,1,2.6539,-15127.1,6794.44,-17590
2.18666e+07,50.8041,2,2.84046,2273.36,-10217.3,-26325.1
2.18996e+07,13.4424,2,2.51328,-1243.34,-2058.14,-27197.7
2.21811e+07,7.02713,2,2.45579,-681.652,-845.979,-27742
0,7.03359,2,2.45817,0,0,0
2.26047e+07,147.337,1,2.53459,11941.7,9472.33,-1680.36
2.26297e+07,49.1183,2,3.04574,-7278.92,946.747,-21613.2
2.27363e+07,21.65,1,2.88929,-2115.57,3588.91,-26823.2
2.28162e+07,120.871,1,3.04442,-9145.67,13538.6,-9446.21
2.28946e+07,186.554,2,2.68295,-23469,-18589.8,-3303.7
2.31309e+07,69.4075,0,2.55978,3013.7,-2524.38,-14737.2
2.36566e+07,68.4119,0,2.48343,4474.64,-863.834,-15093.5
2.3875e+07,34.8184,1,2.62048,-1971.08,-4052.87,-23070.5
2.4605e+07,16.8903,0,2.46591,-2339.92,-1007.07,-26399.4
2.48929e+07,8.4341,2,2.4583,-1751.61,-49.7088,-28300.2
2.50589e+07,77.4127,0,2.62231,12457.7,8997.47,-23085.6
2.5322e+07,19.955,0,2.46599,154.2,2611.39,-25559.7
2.54313e+07,30.3892,1,2.98125,-5348.05,3395.3,-27671.8
2.55438e+07,134.288,2,2.70022,-9147.72,-15198.2,-6742.58
2.58243e+07,3.41675,0,2.82268,344.741,-573.938,-28504.8
0,3.38301,0,2.4379,0,0,0
2.58646e+07,52.5394,1,2.56519,1063.92,3231.45,-18255.4
2.62584e+07,10.0489,0,2.88611,532.816,-9.41117,-26778.5
2.63551e+07,93.4301,1,2.75076,-6548.47,18535.6,-26819.5
2.64113e+07,53.7413,2,2.70615,9153.58,2476.1,-22718.9
2.65312e+07,182.582,1,2.70869,6438.78,9799.88,7787.63
2.66549e+07,22.8917,1,2.58501,-1116.56,1974.14,-24531.8
2.67295e+07,110.742,2,2.59641,-5628.74,-6004.53,-22552.8
2.69008e+07,12.5652,1,3.02812,989.649,558.127,-26497.8
2.69069e+07,15.2873,1,2.7597,2913.04,1273.91,-29389.8
2.79363e+07,152.266,2,2.56664,18246.3,-23156.9,-15938.7
2.85069e+07,38.2367,1,2.592,-6764.06,-4465.13,-28568.6
2.8535e+07,2.29369,0,2.64263,-410.994,11.4338,-28770
2.85712e+07,46.9406,0,2.93969,2276.13,-2884.24,-19700.5
2.87652e+07,78.2897,2,2.70757,-6190.21,6308.12,-26640.2
2.89081e+07,58.0272,1,2.98407,3438.81,-9187.92,-21755.3
2.89867e+07,143.108,2,2.66199,16309.4,-9922.7,-11303.5
2.9076e+07,155.965,1,2.98179,-2459.57,24187.5,-6937.87
2.93583e+07,46.787,2,3.06106,-8076.98,-2784.87,-23908.8
2.94947e+07,10.2134,2,2.71669,341.394,-2038.75,-29732.6
2.955e+07,76.892,1,2.39696,4103.73,-10801.6,-17453.8
2.96477e+07,178.704,0,2.58262,18904.5,-17943.8,-1482.16
2.97422e+07,29.9537,2,2.51784,-1483.49,1483.96,-22869.5
2.97504e+07,17.8921,1,2.75655,-3134.94,1435.92,-27161.7
2.98715e+07,89.0252,2,2.9139,4296.79,-14965,-18393.5
3.03461e+07,129.207,0,2.52114,21128.2,-789.363,-11997.5
3.04355e+07,113.097,0,2.65924,-13503.1,-7125.53,-10562.5
3.05854e+07,92.6546,0,2.8857,10316.6,12773.3,-18301.7
3.13111e+07,106.967,0,2.66732,-325.86,-13522.5,-10790.2
3.15297e+07,78.4166,2,2.73781,-14431.2,-6390.18,-23701.4
3.1687e+07,5.48358,1,2.68001,258.636,1167.6,-29205.4
3.19334e+07,100.163,1,2.54588,8355.32,-1090,-9471.05
3.1947e+07,1.82694,2,2.73257,-82.7601,-364.814,-28590.8
0,1.87228,2,2.76233,0,0,0
3.20825e+07,15.7813,2,3.03119,-1664.26,2437.8,-27442.6
3.22214e+07,82.5486,1,3.03201,5501.65,-132.798,-24233.2
3.2241e+07,2.41259,0,2.44844,213.806,467.97,-28626.7
0,2.36994,0,2.47642,0,0,0
3.22526e+07,45.6818,1,2.69857,-6420.94,5851.1,-25002
3.26817e+07,59.7692,0,2.45356,7672.75,-3838.72,-20998.2
3.26865e+07,4.84644,0,2.98538,674.101,-483.956,-28163.5
3.27134e+07,26.2354,1,2.52941,-3442.55,2629.06,-25295.5
3.29335e+07,47.5745,0,3.05247,2441.74,2137.76,-19482.9
3.31067e+07,6.06905,1,2.50365,-932.315,140.571,-27905.7
0,6.10564,1,2.95476,0,0,0
3.31662e+07,11.3783,0,2.82553,1815.98,-1710.79,-29013.3
3.32491e+07,1.22667,0,2.6595,316.964,-165.762,-28869.3
3.35095e+07,10.7364,0,2.83956,305.952,2231.85,-29189.7
3.36645e+07,146.073,1,2.71555,20451,13838.8,-10479
3.37452e+07,93.4334,1,2.38575,-2757.62,19135.2,-24255.1
3.37772e+07,3.39106,1,2.48358,-318.628,114.902,-28186.3
3.3866e+07,210.645,1,2.77692,28012.4,12314.5,-8783.86
3.39718e+07,95.2984,0,2.9284,3053.09,7545.15,-10586.2
3.42605e+07,97.7579,0,2.38327,14279.1,-15022.4,-27528.4
3.43483e+07,77.0807,0,2.47268,2963.23,-7716.16,-14799.9
3.46719e+07,179.473,2,2.46796,-7356.91,9448.39,7142.04
3.48391e+07,24.1902,1,2.95363,-3488.32,3103.01,-26670.7
3.50391e+07,26.5324,1,2.701,201.347,4977.93,-26210.1
3.50834e+07,13.7596,1,2.92841,-1994.99,-1119.4,-27065.6
3.51791e+07,9.9412,0,2.86032,2156.41,-171.767,-28576.7
3.52137e+07,12.8727,2,2.96525,-801.426,-2617.27,-28314.8
3.52205e+07,165.322,0,2.83243,-12676.2,25781.5,-11917.1
3.52508e+07,36.3503,1,2.89587,2638.86,-6416.55,-25784.9
3.52799e+07,31.2671,0,2.68675,1354.33,-2389.45,-22831.8
3.53536e+07,50.8356,1,2.73644,-6297.09,-8632.88,-29205.1
3.53744e+07,33.291,1,2.79793,2927.57,-3860.12,-23840.9
3.54735e+07,27.901,2,2.44085,-5819.16,-1328.24,-28585.3
3.56168e+07,28.0781,0,2.57085,3171.38,163.608,-23785.7
3.57191e+07,31.4011,1,2.79026,-4732.78,2814.13,-25055.5
3.57306e+07,79.596,2,2.60405,-6127.6,-7716.67,-15192.8
3.6339e+07,84.4369,2,2.76837,13551.4,976.52,-17437.2
3.63644e+07,47.633,0,3.02648,4615.39,-6783.2,-23072.5
3.65662e+07,14.582,1,2.78562,-2234.94,1343.26,-27118.7
3.66523e+07,150.793,2,2.78153,21043.8,-6658.27,-6083.79
3.67778e+07,91.1185,1,2.78525,9722.64,10434.3,-16010.3
3.71966e+07,67.7883,2,2.82037,-7293.02,-6681.6,-18522.8
3.74471e+07,98.0455,0,2.4932,-5969.18,2178.2,-20623.1
3.75616e+07,55.4014,2,2.68688,2795.9,-3391.19,-18006.9
3.78004e+07,119.862,0,2.84547,23906.9,8061.23,-27247.8
3.78087e+07,136.766,1,2.87837,-21317.6,14372.6,-15866.5
3.79541e+07,195.561,0,2.93001,-26921.1,-11924.7,-3549.16
3.81368e+07,81.6918,1,2.76719,10980.9,-2727.97,-15931.9
3.83044e+07,263.749,2,2.88056,-19484.3,7364.37,-18513.2
3.85159e+07,114.42,1,2.78334,-4913.12,19051.5,-14841.6
3.85512e+07,134.046,0,2.92419,-20310.5,12352.5,-13909.1
3.86299e+07,16.0534,1,2.49266,-3176.3,-1193.03,-28289.8
3.86388e+07,25.6441,1,2.62709,1418.3,565.091,-23655.6
3.87968e+07,74.1864,1,2.49678,6229.92,-5382.14,-15564.8
3.88622e+07,10.3975,2,2.64506,1567.76,-1613.79,-28829.7
3.88804e+07,118.545,0,2.89567,-18914.1,6435.42,-14074
3.91911e+07,23.7636,1,2.51299,-1786.87,4754.21,-29596.5
3.92199e+07,98.5268,0,2.63691,11968,-6851.34,-22544
3.94255e+07,106.374,2,2.91959,-2425.52,-16327.4,-13727.5
3.95656e+07,56.6656,1,2.55335,753.457,-1749.08,-20826.6
3.97246e+07,137.269,0,2.86094,-26057.8,5099.03,-17723.2
3.98712e+07,89.7388,1,2.5966,-17571.9,2275.45,-21958.6
3.99659e+07,33.1187,0,2.36773,-4809.27,-1690.55,-24097.8
3.99861e+07,105.072,1,2.68899,-18286.9,-3412.35,-16777.7
4.01842e+07,144.661,2,2.84545,3604.47,-8071.03,-17511.8
4.06879e+07,48.2239,1,2.87957,-4519.93,-266.836,-19769.9
4.07241e+07,78.7684,0,2.85089,15100.1,-1310.63,-21978.7
4.08897e+07,23.359,0,2.42668,4887.28,1249.01,-28647.7
4.10703e+07,91.5009,1,2.60494,-10870.7,-10239.5,-21088.2
4.11648e+07,66.6751,0,3.06104,2153.44,3097.59,-16712.7
4.12414e+07,198.66,0,2.42123,27400.6,-7535.95,2147.59
4.12813e+07,296.841,2,2.80644,-5669.25,-21599.1,29386.7
4.15428e+07,64.6934,2,2.3851,5747.78,7639.73,-19132.5
4.16423e+07,113.282,2,2.49345,-20249.3,4594.35,-16905.1
4.18126e+07,95.2834,0,2.97779,-12962.7,7609.83,-15758.2
4.22687e+07,51.9409,1,2.57356,-2081.16,433.767,-18092.5
4.23256e+07,10.5515,1,2.81787,-1091.82,1714.86,-27775.6
4.23376e+07,139.951,0,2.52628,-20150.5,14959.3,-13313.1
4.24749e+07,136.872,1,2.87553,-16384.2,16143.7,-11480
4.31807e+07,90.7637,2,2.69137,-3176.95,-7067.92,-11314.2
4.33482e+07,3.34183,1,2.6713,153.573,625.443,-28423.1
0,3.3511,1,3.02134,0,0,0
4.35221e+07,96.1599,1,2.85805,15542.1,12843.9,-26947.4
4.36971e+07,171.846,1,2.61004,3564.95,22883,-876.838
4.37029e+07,55.9669,2,2.51143,-2937.47,1379.7,-17512.5
4.37466e+07,4.7201,2,2.99081,-461.063,439.907,-28120
4.39676e+07,116.951,0,2.58451,-3246.78,-22450.4,-19061.3
4.40042e+07,48.9896,2,2.59141,-8909.31,5009.22,-27212.7
4.4049e+07,73.7479,0,2.9181,-3299.21,328.569,-19299.7
4.43401e+07,127.962,0,2.6923,15428,-22103.1,-26667.9
4.44246e+07,62.4135,1,2.91402,3309.37,12348,-25666.2
4.44938e+07,44.1318,1,2.99581,-5363.84,-5399.57,-23607
4.45138e+07,107.976,1,2.41501,62.3943,22251.3,-23292.4
4.47024e+07,29.898,0,2.91794,4771.45,-3764.72,-26949.5
4.52289e+07,143.2,1,2.62858,7671.65,8358.14,-829.242
4.52538e+07,128.061,1,2.9522,-7523.65,2679.83,-3185.77
4.52831e+07,66.2058,1,3.06148,-4070.47,-11980.3,-23268.4
4.53225e+07,50.0821,0,3.02279,9223.43,-644.757,-23718.3
4.53383e+07,176.713,0,2.4423,-2105,-19394.8,3009.69
4.54019e+07,23.6661,2,2.61217,4439.42,2178.25,-28486.8
4.5412e+07,150.092,1,2.92179,-20182.8,7746.41,-10940.5
4.54277e+07,8.41222,1,2.63702,1445.37,585.576,-27972.4
4.55025e+07,135.07,2,2.43411,-13326.5,-19678.7,-12865.2
4.55486e+07,8.02646,1,2.44542,-1638.58,-548.336,-29028.4
4.57358e+07,80.7705,1,2.6244,-4566.82,15168.8,-28186.6
4.59711e+07,35.741,2,2.9795,1528.28,3724.47,-22570.6
4.61864e+07,21.1547,1,3.02695,3780.59,2217.33,-28055.6
4.62621e+07,7.8851,1,2.68995,-923.871,13.4293,-27431.6
4.64559e+07,3.04904,2,2.71857,-631.888,-223.431,-29181.7
4.73864e+07,161.448,0,2.65685,-16413.3,-22719.1,-9581.97
4.74583e+07,16.8521,2,2.77139,-3157.86,-1298.96,-27654.2
4.7932e+07,30.8749,1,2.61486,3317.01,-4641.99,-25799.2
4.82131e+07,108.108,0,2.62173,15025.8,-15991.7,-22426.9
4.85565e+07,70.6754,0,2.53328,3185.12,5675.59,-15385.1
4.90444e+07,135.009,1,2.56591,-311.644,-17753.8,-6579.64
4.94224e+07,13.6447,1,2.53829,401.515,2339.72,-27137.5
4.94461e+07,97.4476,1,3.05131,1399.53,15112.3,-15295.6
4.95671e+07,84.5351,0,2.98029,178.088,-6442,-12373.7
5.01029e+07,88.2436,0,2.47448,16214,7204.48,-22799.9
5.01295e+07,3.61364,1,2.96715,236.45,705.655,-28497.4
5.02176e+07,34.5625,0,2.38216,-943.058,5018.47,-23638.3
5.03361e+07,106.976,0,2.49519,9108.18,14419.5,-13927.1
5.05429e+07,40.2754,0,2.6329,2366.35,844.167,-20710.2
5.06929e+07,36.9347,1,2.94829,2917.03,7266.77,-29149.5
5.1118e+07,13.8729,1,2.48762,-2803.7,-744.049,-28143.8
5.12054e+07,180.751,1,2.93098,-16138.9,-26329.6,-6945.01
5.12372e+07,91.3086,1,2.73524,-5807.59,18256.5,-26231.9
5.13996e+07,111.754,2,3.01658,9954.06,-19337.7,-27937
5.20763e+07,143.701,0,2.45578,1535.03,-12304.7,-1098.98
5.20978e+07,11.9041,1,2.817,-893.644,476.191,-26521.7
5.22284e+07,80.2991,0,2.86323,-4659.36,4586.27,-13308.7
5.2255e+07,21.5796,1,2.46576,-1394.94,-837.108,-27494.2
5.22924e+07,78.7582,1,2.94589,-14559.1,1397.54,-21041.8
5.27989e+07,72.6953,0,2.72304,-3985.98,-12094.1,-20378.7
5.28246e+07,97.2227,1,2.49462,3232.46,17322.5,-18155.9
5.30002e+07,76.7213,1,2.46861,12063.3,6753.53,-20414.4
5.3415e+07,19.0768,1,2.96694,-1219.01,2230.96,-25676.8
5.34422e+07,20.2145,2,2.91461,963.016,-3075.83,-25997.4
5.35924e+07,39.5233,0,2.76541,3921.28,-2088.99,-21757.7
5.37108e+07,71.0604,0,2.77167,-4225.77,-13705.9,-24594.4
5.39198e+07,66.2727,1,2.88149,-12461.3,421.136,-22595.3
5.40802e+07,218.011,2,2.79529,4421.11,-12458.1,15083.2
5.42809e+07,25.6712,1,3.03332,-3614.29,-3810.53,-29751.3
5.44266e+07,162.796,0,2.89029,17009.8,18757.9,-5808.75
5.47357e+07,67.19,1,2.77232,1385.76,11553.1,-20742.2
5.47907e+07,82.0846,0,2.45864,1979.73,-13559.4,-18147.3
5.4944e+07,71.5341,0,2.81829,-12353.6,-4798.49,-21876
5.51213e+07,67.0073,2,2.71891,7468.43,-11525,-25313
5.531e+07,70.3836,2,2.75799,-7086.07,-12628.8,-25421.9
5.54542e+07,127.892,1,2.92122,-14646.4,8448.44,-7947.79
5.55857e+07,48.3661,1,3.06166,-8870.41,4318.15,-26276.3
5.55983e+07,115.193,2,2.67495,-17928.8,-15896.8,-24339.4
5.58444e+07,89.0274,2,2.98287,12004.3,-1892.05,-14685.5
5.66471e+07,48.164,1,3.03575,5185.16,3384.67,-20863.9
5.71258e+07,179.699,1,2.44122,-25206,8853.95,-1753.3
5.7168e+07,56.1014,2,2.86861,-9645.35,646.918,-22013.9
5.74728e+07,57.049,0,2.92967,5554.68,6228.16,-20241.1
5.76746e+07,117.235,0,2.56565,24811.8,1428.44,-29860.2
5.79576e+07,202.926,2,2.88375,-28601.9,21510.5,-23967.6
5.8376e+07,5.1888,2,2.56566,-653.512,-1005.44,-28689
5.85588e+07,47.855,1,2.79353,-5785.81,-443.128,-20598.1
5.86577e+07,31.1581,0,2.77615,6182.16,-1081.15,-26620.5
5.8731e+07,121.341,1,2.48905,9126.71,-6522.96,-5860.31
5.88759e+07,57.3932,0,3.04814,-11522.5,2500.22,-26928.2
5.89749e+07,9.62155,1,2.43745,-403.408,883.797,-27033.1
5.89892e+07,4.14343,2,2.36828,-107.735,-752.954,-28286.4
5.89984e+07,188.304,0,2.72937,-20458.7,-25900,-8448.88
5.95935e+07,427.506,1,2.90683,-1225.22,-5168.63,3817.46
5.98642e+07,158.687,0,2.36982,4753.19,15214.4,724.064
6.01386e+07,38.0427,0,2.57195,-4582.09,2787.42,-22927.8
6.10308e+07,115.883,0,3.0421,-6875.65,8686.49,-28279.3
6.10953e+07,169.054,2,2.66858,5057.02,19316.4,622.653
6.11127e+07,100.626,0,2.84765,-5892.94,-18730.3,-21005.6
6.14874e+07,17.9083,0,2.72904,-796.587,-1252.72,-25385.8
6.17068e+07,133.727,2,2.69898,-26051.9,10231.9,-25366.8
6.22569e+07,135.608,0,2.69576,1857.35,-17009.4,-7081.4
6.26573e+07,82.1212,1,2.8203,-1806.7,14820.7,-20060.9
6.26638e+07,21.4602,0,2.7307,-511.693,1707.56,-24715.8
6.29482e+07,123.375,0,2.78238,-1027.09,24608.6,-20623.1
6.31937e+07,20.6014,0,2.69527,-98.4868,-2549.06,-25314.1
6.36758e+07,7.48221,0,2.658,394.997,1496.03,-28416.4
6.36758e+07,145.192,2,2.45277,-20396.9,1846.75,-5944.84
6.37703e+07,43.9533,0,2.36981,4450.78,-8248.06,-29051.2
6.3891e+07,61.6468,2,2.42799,3460.31,-6902.54,-18314.3
6.41957e+07,1.85564,0,2.93345,492.07,98.1961,-28960.6
6.42311e+07,89.3756,2,2.90793,-2287.27,-15911.4,-19026.1
6.43142e+07,255.531,1,3.04956,-24981.5,-7506.47,-10188.9
6.4457e+07,23.7766,0,2.95184,86.3425,2420.34,-24490.1
6.46146e+07,27.3188,0,2.63628,2450.88,-4104.36,-25564.4
6.49653e+07,67.3724,2,2.99003,11424.6,-3013.1,-21108.7
6.52414e+07,180.561,2,2.90478,-730.391,-21835.2,-3475.66
6.53542e+07,141.346,2,3.02125,13609.2,-190.674,-2569.39
6.53852e+07,6.79769,2,2.86641,845.597,-815.403,-27991.8
6.54781e+07,72.891,1,2.72344,9021.53,8261.62,-19518.4
6.54819e+07,101.766,1,2.90263,12024.9,-1462.59,-11293.9
6.55601e+07,6.16789,2,2.65717,-383.062,-53.6715,-27600.4
6.57324e+07,64.7668,2,2.46658,7849.08,-10202.4,-24074.3
6.59059e+07,27.5099,0,2.86862,4779.56,2720.11,-26781.3
6.59154e+07,49.0482,0,2.39631,-8059.69,-153.767,-22415.7
6.59805e+07,21.6955,0,2.77217,-568.393,-3059.61,-25512.2
6.60479e+07,37.0855,0,2.40919,1976.94,-483.374,-21252.9
6.63045e+07,3.29009,2,2.53681,-557.428,-541.235,-28676.9
6.6318e+07,123.782,1,2.5623,-19483.6,-7433.74,-13027.7
6.69722e+07,56.1924,1,2.7815,-5929.06,7781.64,-22059.2
6.7398e+07,23.0609,2,2.44762,1986.43,-4522.06,-28991.3
6.74039e+07,6.57102,0,2.74075,565.56,-1212.89,-28313.1
6.8355e+07,19.5081,1,2.71248,-3184.21,1506.25,-26605.2
6.85263e+07,165.522,2,2.80995,423.352,-27557,-7511.97
6.8729e+07,1.7947,1,2.90801,227.937,-155.823,-28665.3
0,1.32808,0,2.5789,0,0,0
6.88529e+07,104.116,0,2.72557,4384.08,19508.7,-19826.5
6.88928e+07,5.47956,1,2.37008,271.577,1145.11,-29231.8
6.90169e+07,51.1325,2,2.95461,-1595.36,-10670.3,-29790.5
6.92029e+07,28.6075,1,2.68587,-2340.27,-4912.86,-26409.2
6.93175e+07,27.7045,0,2.57408,-4084.99,1025.83,-24858.7
6.96283e+07,55.2611,1,2.74042,637.896,5298.13,-23873.1
6.97854e+07,6.82979,2,2.87582,551.33,-1279.06,-29420.3
7.00434e+07,17.0202,0,2.87222,2074.04,-2750.61,-27686
7.05502e+07,124.977,0,2.66708,9900.09,-9809.15,-6445.86
7.06493e+07,4.21234,0,2.67211,875.48,-102.87,-28434
7.08353e+07,51.6772,0,2.61728,6327.1,-8822.91,-27377.4
7.09227e+07,52.0524,2,2.66496,-3375.46,-622.166,-18397.1
7.11086e+07,39.6957,0,2.95544,-3584.06,2237.92,-21697
7.15118e+07,27.768,1,2.60189,-4971.15,-3039.93,-28058
7.16713e+07,98.0226,0,2.74651,3879.77,-14848.4,-15041.1
7.21254e+07,15.6679,2,2.99456,83.3659,1785.97,-26145.1
7.23556e+07,38.2946,1,2.86412,1933.65,-3074.08,-21709
7.25836e+07,22.7385,2,3.05453,-1340.66,3818.01,-26399.6
7.29298e+07,42.6716,2,2.39709,-2029.76,-4270.21,-21107.4
7.29659e+07,58.5669,2,2.39991,5300.01,-9563.93,-22908.6
7.30297e+07,92.2153,2,3.03573,13403.1,-12342.9,-22323.8
7.30979e+07,84.7141,0,2.58018,1430.14,16871.4,-23052.8
7.33619e+07,70.6822,1,2.85773,11241.9,-5928.23,-21232.7
7.34529e+07,141.569,1,2.86264,19965.3,-20102,-20002.7
7.35109e+07,69.2101,0,2.38825,-2585.34,-10919.5,-19436.3
7.36072e+07,30.2442,0,2.88244,5252.38,-1141.76,-25367.7
7.37171e+07,20.4359,0,2.62367,2142.44,3671.03,-27889.2
7.38693e+07,135.438,1,2.58594,-7188.7,-12466.4,-4176.14
7.3978e+07,67.792,0,2.58391,-7413.78,12059.5,-26820
7.42111e+07,12.8258,1,2.73508,-1048.24,-2413.41,-28315.9
7.42387e+07,14.9984,0,2.82189,2821.31,-1572.79,-28851.6
7.43395e+07,3.02921,1,2.72006,-544.978,-357.848,-28737.1
0,3.04056,1,2.45462,0,0,0
7.44528e+07,52.3656,2,2.80886,-6062.45,-9142.06,-27170.2
7.4871e+07,21.9092,0,2.90021,4082.33,-1622.32,-27195.1
7.4886e+07,114.452,1,2.82359,-18588.8,-8398.61,-16025.4
7.49872e+07,141.357,0,2.85872,-6464.08,12069.3,-2504.64
7.51136e+07,10.8366,2,2.78389,1363.08,-1778.96,-28308.8
7.59181e+07,18.8055,1,2.36947,1131.43,1802.61,-25499.6
7.60628e+07,13.4147,2,2.74621,157.601,2585.17,-27819.2
7.60825e+07,44.9908,0,2.56291,8013.09,-4093.71,-25502.6
7.61787e+07,14.5978,1,2.79505,2326.1,1810.1,-29872.4
7.62988e+07,10.9874,2,2.57719,-2260.4,337.701,-28186.4
7.64283e+07,78.1413,0,2.53922,9759.48,-4158.84,-16130.2
7.64378e+07,179.433,0,2.84787,5240.11,-28100.3,-4232.65
7.6467e+07,136.263,1,2.80158,27273.1,-3937.15,-21081.6
7.65465e+07,193.584,0,2.80736,3583.01,-17097.2,7891.93
7.67425e+07,27.1709,0,3.03364,-882.934,-3175.94,-24211.5
7.68466e+07,134.027,2,2.55914,-21927.9,-17353.4,-23802
7.70826e+07,62.5356,1,2.75949,9051.35,-1646.29,-19478.5
7.73367e+07,10.4,1,2.91159,-2029.49,-258.419,-27987.5
7.73689e+07,103.363,2,2.5635,-4073.39,-5897.78,-8186.18
7.73809e+07,225.339,0,2.69672,22064.3,-19946.6,8214.52
7.74246e+07,23.0388,2,2.66289,-261.601,4200.48,-26490.4
7.75925e+07,71.1835,0,2.55157,8321.26,11778.3,-24342.3
7.7609e+07,8.80358,2,2.87209,-875.071,-1740.7,-28591.2
7.76625e+07,226.755,2,2.89531,-2133.93,5200.85,2862.04
7.78052e+07,31.1099,0,2.36634,-3566.32,843.649,-23458.2
7.79714e+07,24.7548,0,2.54538,-2838.73,2781.15,-25475.2
7.80332e+07,137.589,1,2.81203,11164.8,25559.5,-21017.9
7.83555e+07,10.4314,0,2.51895,1151.83,-390.113,-26953.2
7.84554e+07,84.3797,2,2.54743,2931.62,9294.23,-14017.1
7.87922e+07,65.2036,1,2.98426,231.503,12894.5,-24099.2
7.89286e+07,28.5483,2,2.58324,-226.916,-2505.09,-23340.7
7.90505e+07,71.5463,0,2.86704,10912.5,-9693.12,-25077.3
7.93068e+07,36.3952,0,2.79881,-6122.6,-3114.86,-25689.9
7.94781e+07,132.254,2,2.90629,14987.2,-8254.51,-12303.3
7.94895e+07,191.033,1,2.52228,-21474.5,-16210.3,1194.87
7.97479e+07,49.9779,0,2.46492,10385.6,-1349.29,-26891.9
7.99315e+07,71.9592,0,2.96856,-1575.01,13492.4,-27752.9
7.9942e+07,54.7761,0,2.55535,943.514,-5897.21,-18930
7.99703e+07,64.5811,1,2.82768,5467.89,5865.58,-17865.6
8.0142e+07,33.5843,2,2.50666,-647.136,-6830.15,-26676.7
8.01449e+07,39.7293,1,2.54274,-3720.25,7630.13,-29353.3
8.03439e+07,6.4877,0,2.92388,-576.684,566.279,-27794.4
8.03814e+07,0.441441,1,2.68922,-105.452,45.4121,-28799.7
8.04164e+07,24.4676,1,2.6998,-4004.73,2846.12,-27024
8.04764e+07,109.392,0,2.44187,3192.28,-18150.7,-14835.7
8.09359e+07,12.4482,1,2.62038,-609.117,2467.88,-27934.1
8.0984e+07,144.233,1,2.90678,26270.8,5850.93,-18295.6
8.13043e+07,53.9116,1,2.67529,-3083.14,-3362.96,-18438.5
8.1338e+07,67.0928,0,2.57955,8425.32,9642.43,-22631.5
8.13874e+07,40.7484,0,2.86775,3043.12,-152.591,-20813.2
8.14605e+07,35.4656,1,3.04135,-4582.53,-5572.39,-27070.3
8.15903e+07,62.3533,0,2.571,2947.56,2762.61,-16337.6
8.16044e+07,95.1816,2,2.85577,-15981.5,-990.966,-16775.9
8.16357e+07,13.4016,2,3.05388,-1418.69,-340.284,-26404
8.17546e+07,33.7732,2,2.70486,-2227.03,-386.89,-22087
8.17723e+07,187.998,0,2.42096,20423.4,-14685.1,1980.81
8.19477e+07,73.4157,1,2.49434,-2319.48,5453.21,-14466.6
8.2425e+07,107.445,0,2.62062,11655.5,-6393.83,-10445.7
8.24282e+07,85.1671,0,2.64398,11823.8,-13470.4,-26737.9
8.24367e+07,38.5793,1,2.40571,2174.43,-4270.05,-22321.9
8.24658e+07,3.12589,2,2.47189,-77.5988,-472.154,-28309.8
8.2729e+07,119.672,0,3.01302,-9721.08,8815.11,-7516.01
8.30757e+07,46.4757,1,2.36274,-4937.6,-1157.74,-20397.8
8.38733e+07,180.149,2,2.81216,-24910,-24930.3,-14728.5
8.38743e+07,14.5196,0,2.53647,1400.71,1864.94,-26770.6
8.39228e+07,66.9714,2,2.67489,5663.2,-8591.76,-19160.5
8.40418e+07,85.7943,1,2.48687,3638.99,16046.5,-21029.9
8.42895e+07,39.3011,2,2.36934,4594.28,482.688,-21962.2
8.47134e+07,145.064,0,2.85078,18143.5,-3581.44,-4579.79
8.49191e+07,3.00545,2,2.79235,-559.029,297.161,-28643.2
8.52386e+07,98.3742,2,2.92564,-9708.76,-2334.8,-10745.5
8.54801e+07,72.7372,2,2.83938,-15152.7,2208.87,-27828.2
8.58156e+07,6.06213,2,2.55922,-1278.64,-210.522,-29295.2
8.60711e+07,92.5539,1,2.69065,-18061.3,4095.96,-22477.6
8.61319e+07,5.49807,0,2.44973,-529.375,781.373,-28244.7
8.62954e+07,31.1647,0,2.63496,1395.95,-1721.78,-23799.8
8.63092e+07,50.2792,2,2.90499,-7258.97,-7593.1,-26988
8.6451e+07,9.41783,2,2.56345,-1484.57,-839.963,-27708.6
8.67003e+07,135.585,2,2.672,-23190.8,-16059.2,-23691.4
8.68047e+07,45.9138,2,2.44481,2321.71,-4069.11,-20329.3
8.68159e+07,138.691,1,3.04313,22033.6,7112.3,-11309
8.69361e+07,10.5093,2,2.64464,-678.619,766.998,-26900.8
8.70082e+07,95.4784,1,2.91538,-16737,-10155.7,-24418.4
8.72603e+07,45.5549,0,2.77891,9153.42,3072.42,-27955.4
8.74622e+07,38.1632,0,2.36976,3467.3,5002,-23474.5
8.76464e+07,95.6386,2,2.61187,-17052.4,-3238.26,-18406.9
8.76635e+07,166.812,2,2.49102,-19254.2,-29591.3,-27421
8.77875e+07,44.8396,1,2.57607,-6747.54,4468.11,-23779.5
8.79257e+07,4.52767,2,2.39771,461.24,387.04,-28143.9
8.79296e+07,31.6015,1,2.54541,-6425.59,-1730.85,-27780.1
8.80197e+07,249.071,1,2.85474,19659.4,-23793.7,13361.8
8.83619e+07,178.882,2,2.51388,-15012.1,1334.2,5840.89
8.83986e+07,97.942,2,2.76972,9363.83,8857.26,-12826.9
8.84396e+07,25.0248,1,2.65629,-1616.68,4809.77,-27116.8
8.86877e+07,10.4302,0,2.39393,1879.96,1014.86,-29736.6
8.89635e+07,43.854,0,2.83736,230.219,-8621.55,-25548.5
8.90227e+07,9.23001,2,2.51787,892.515,1040.39,-27515.1
8.9152e+07,66.9275,1,2.57391,5934.72,1548.49,-16124.8
8.91869e+07,0.478709,2,2.78869,-77.2479,-167.214,-28857
0,0.342917,2,2.47012,0,0,0
0,0.331877,2,2.51569,0,0,0
0,0.386734,2,2.95304,0,0,0
8.94663e+07,37.7057,0,2.39197,6860.34,4203.52,-29564.4
8.96319e+07,108.267,2,2.65078,-13317.1,-16353.5,-19854.7
8.9749e+07,11.1546,0,2.94451,529.882,-2028.33,-27762.7
8.98665e+07,29.1446,1,2.74785,-5361.04,-261.038,-25797.7
9.00876e+07,67.1883,2,2.44671,5018.9,3312.81,-16006.2
9.05588e+07,161.234,2,2.63643,19512.1,19183.5,-8777.64
9.07239e+07,210.478,1,2.70019,-21834.6,-13539.9,7319.13
9.0813e+07,206.356,2,2.82484,28255.3,-20449.8,-8303.13
9.08294e+07,108.278,2,2.67003,-13521.1,-15469.5,-18687.1
9.14048e+07,50.3338,0,2.36412,-3031.94,-2560.18,-18981.9
9.14398e+07,72.3892,2,2.82484,14508.7,4497.39,-28774.4
9.15263e+07,19.2996,1,2.52122,245.136,-1616.05,-25133.8
9.21283e+07,39.6665,0,3.04911,8249.9,1519.6,-28432.4
9.21786e+07,42.9909,1,2.93288,7034.89,-5392.32,-27578.7
9.24262e+07,17.4955,2,2.53146,3165.58,-477.263,-27012.7
9.24842e+07,155.965,1,2.97872,25353.7,13776.9,-13438.1
9.24862e+07,18.472,1,2.4938,1146.8,2081.14,-25706.2
9.26331e+07,239.181,1,2.90541,-7920.43,14568.6,18196.6
9.27826e+07,20.3942,2,2.36543,-1523.07,-3203.37,-26250.5
9.30931e+07,86.4863,0,2.53195,9904.48,-8946.23,-21767.3
9.32537e+07,30.1602,0,2.90398,2931.78,3708.08,-24586.9
9.35188e+07,1.39642,0,2.93034,306.423,217.196,-28848.9
9.36396e+07,240.801,2,2.67749,10098.3,-13822.1,-4539.64
9.39688e+07,116.316,1,2.94464,23179.8,6624.56,-25082.7
9.41328e+07,62.3639,1,2.69239,-5860.26,7358.14,-19566.8
9.41775e+07,174.2,1,2.67304,-13704.9,21096.8,-2024.77
9.49744e+07,3.73943,1,2.82252,-542.65,-524.632,-28602.9
9.49808e+07,31.0025,1,2.66338,-3217,1001.64,-23236.8
9.51702e+07,191.22,0,2.76461,21076.5,-12538.5,3087.67
9.54723e+07,44.7222,1,2.49307,-2202.76,8176.93,-24527.4
9.55217e+07,77.9764,0,2.80081,-8555.01,9796.97,-18899.9
9.55877e+07,4.86658,1,2.69534,-39.443,790.753,-28097.9
9.58044e+07,14.8197,1,2.55207,571.339,1724.95,-26258.6
9.59733e+07,61.3661,0,2.78046,4968.93,-2780.49,-17247
9.61606e+07,1.66774,1,2.4881,-420.342,58.5181,-28764.8
9.61712e+07,51.6339,2,2.56478,4983.39,7938.35,-23391.2
9.61964e+07,17.5503,2,2.94866,-1252.34,-2781.42,-26699.4
9.65002e+07,21.6931,1,2.36854,-2286.07,4069.39,-28480.1
9.66839e+07,8.81822,0,2.92504,1097.66,-1403.6,-28158.7
0,8.85673,0,2.69971,0,0,0
9.7306e+07,21.4256,2,2.71021,-3034.01,-155.681,-25447.1
0,21.5875,2,3.03823,0,0,0
9.73545e+07,8.59146,2,2.90839,-844.939,-134.222,-27267.8
0,8.60044,0,2.39957,0,0,0
9.81621e+07,212.071,2,2.73098,-11272,12254.7,12592.6
9.87102e+07,51.1565,0,2.42106,454.591,8246.04,-21852.7
9.88988e+07,60.8015,2,2.87742,-6678.93,-5696.95,-19487.5
9.92337e+07,22.6892,2,2.91922,-2088.7,1394.38,-24810
9.9325e+07,3.73315,0,2.41754,310.676,419.95,-28223.8
9.94621e+07,34.7571,0,2.60073,1366.42,1642.55,-21802.4
9.95902e+07,0.367818,0,2.7163,61.7672,-61.1157,-28800.6
9.97172e+07,16.7945,0,3.04728,2197.18,1937.24,-26782.3
9.98234e+07,42.7752,1,2.91566,1153.7,4153.9,-20932.1
9.98653e+07,116.581,0,2.58375,20722.4,-1196.51,-15469.7
9.99049e+07,59.7183,2,2.52174,900.194,-7688.18,-18818.6
1.00008e+08,40.6641,1,2.90623,-8291.52,-459.562,-26723.7
1.01066e+08,145.916,0,2.49109,10469.6,25144.6,-14261.7
1.01157e+08,284.882,0,2.64976,-2541.17,23735.2,26297.5
1.01435e+08,2.96758,0,2.73952,336.334,207.649,-28325.8
0,2.98458,0,2.72608,0,0,0
1.0148e+08,14.3872,2,2.91835,-1231.25,-487.602,-26103.2
0,14.4626,1,2.68848,0,0,0
1.01499e+08,117.409,2,2.54376,8119.67,13492,-15836.2
1.01895e+08,113.84,2,2.66306,-3863.8,2180.57,-25341.4
1.01905e+08,2.9453,0,2.70214,268.161,454.852,-28485.3
1.02147e+08,3.09033,1,2.42204,-617.836,-30.5003,-28512.4
0,3.08071,1,2.4668,0,0,0
1.02341e+08,10.4375,2,2.50106,1885.11,751.311,-28091.6
1.02547e+08,66.7771,2,2.38444,-2239.23,12941.6,-23748
1.02849e+08,6.24238,1,2.71276,757.584,1098.54,-28640.4
1.03046e+08,39.6895,0,3.0486,6529.97,3889.37,-25272.2
1.03059e+08,50.1138,2,2.6707,8864,-2921.89,-23904.1
1.03299e+08,57.9455,0,2.37397,-11034.9,884.476,-23689
1.03667e+08,10.7258,1,2.80973,1160.54,-600.23,-27039.5
1.03777e+08,130.374,1,2.47398,-4123.93,-8003.01,-3251.01
1.03809e+08,141.875,2,2.7686,2372.37,-16865,-4280.13
1.04128e+08,85.2978,1,2.77547,-6713.77,6136.45,-27184.8
1.04213e+08,135.487,1,2.9269,27281.7,4298.7,-22150.9
1.04332e+08,46.4103,2,3.01348,-3611.95,-8231.44,-24966.3
1.04433e+08,27.3398,2,2.8594,1101.8,-4859.85,-25916.2
1.04659e+08,0.892115,1,3.02936,118.572,209.81,-28821.4
1.04705e+08,44.4307,0,3.0501,-2611.2,4019.08,-20920
1.0494e+08,206.592,1,2.95648,-22130.5,3536.44,8227.43
1.05146e+08,66.8367,1,2.80946,9260.67,3337.62,-18828.1
1.05441e+08,65.797,0,2.89247,7418.86,5521.82,-18557
1.06109e+08,299.493,2,3.03894,-17231,-17009.2,11232.5
1.06434e+08,113.586,1,2.41611,10989.6,15111.5,-13677.5
1.06566e+08,79.3517,0,2.39486,5930.33,12351.8,-19095.6
1.0732e+08,128.895,2,2.6,13754.8,-1835.22,-5450.85
1.07645e+08,51.497,2,2.6244,9571.48,1530.8,-24013.6
1.08128e+08,34.7418,1,2.56115,-5216.81,4910.54,-26830.4
1.08291e+08,160.883,2,2.92164,-8588.21,-5420.39,3361.09
1.08371e+08,22.8903,2,2.9734,-2892.29,-3629.88,-27256.4
1.08648e+08,35.248,1,2.83453,-4553.56,3716.45,-24215.1
1.08976e+08,93.6037,1,2.86481,-3678.89,-18484.2,-23407.3
1.09083e+08,14.6038,1,2.7309,-1891.12,1496.44,-26827.4
1.09296e+08,172.9,0,2.85973,-4823.14,13686.7,4450.9
1.09566e+08,81.835,1,2.80143,-10301.6,-13191.1,-24804.9
1.09682e+08,59.3316,2,2.87078,10380,1860.63,-22264
1.09825e+08,25.8172,0,2.84283,2664.9,-4063.26,-26460.4
1.10078e+08,37.702,2,2.81989,-7970.47,-829.57,-29103.1
1.10427e+08,54.7636,2,2.57953,-2243.27,-6882.93,-19755.1
1.10512e+08,161.423,0,2.9438,-19992,1185.69,-1592.99
1.1059e+08,57.9756,2,2.51449,4738.4,5102.63,-18810.5
1.10723e+08,127.739,2,2.49869,-11045.6,-14305.2,-27656.6
1.11074e+08,95.1097,0,2.45905,10496,3009.02,-11932.3
1.11492e+08,82.3476,1,2.36549,-13222.6,2062.93,-17634.7
1.1155e+08,12.154,1,2.69746,-1116.46,641.33,-26587.5
1.11563e+08,34.2938,1,2.54868,-3254.23,3239.25,-23181.4
1.11647e+08,173.371,0,2.78272,4613.44,7566.44,6539.53
1.11869e+08,63.1702,0,2.52969,6813.09,3334.23,-24181.7
1.11932e+08,1.29167,2,2.98949,65.8013,-158.82,-28644.4
1.12005e+08,50.3543,1,2.44819,64.0066,2296.1,-26487
1.12056e+08,41.8729,1,2.37187,-5109.63,-3304.11,-22387.9
1.12374e+08,208.151,1,2.8648,-4404.25,16460.2,10788.8
1.12501e+08,19.7443,2,2.9698,-3183.37,-2248.76,-27211.8
1.12509e+08,24.488,1,2.99792,-4252.31,-959.422,-26053.6
1.12695e+08,43.3237,0,2.82914,-4108.39,1506.41,-20887
1.12963e+08,67.5437,0,2.56014,-385.486,10641.3,-19331.3
1.1337e+08,83.1684,1,3.02792,-11163,6751.58,-28554.7
1.13481e+08,82.9601,0,2.8374,17139.1,-752.07,-25153.7
1.13582e+08,35.5329,0,2.73626,279.822,3657.74,-22309.8
1.13619e+08,147.06,0,2.84203,-24117.4,-4775.42,-10210.9
1.13715e+08,102.508,2,2.87546,-6126.99,-20379,-24969.7
1.13756e+08,150.272,1,3.04544,-3729.67,-25865.9,-11420.5
1.14016e+08,6.64324,1,2.95641,-1244.49,261.466,-28181.8
1.14416e+08,44.4141,0,2.49604,5387.33,-7412.79,-26530.5
1.15016e+08,39.9916,1,2.51046,-6722.47,-4653.27,-26687.1
1.15018e+08,103.867,0,2.62403,6426.08,-20959.8,-28108.1
1.15527e+08,21.4371,2,2.4544,-3055.44,3167.78,-27762
1.15582e+08,299.304,2,2.52864,-24483.6,-13568.5,27906.6
1.15769e+08,38.5551,0,2.49583,2697.97,1614.83,-21311.4
1.15947e+08,43.6127,0,2.40862,1333.75,9054.73,-27386.9
1.16122e+08,23.2857,0,3.04394,3587.65,1092.88,-25646
1.16238e+08,101.693,0,2.38413,16608.2,8810.99,-18241.9
1.16416e+08,33.9526,0,2.98397,-4610.68,2650.89,-24162.6
1.16479e+08,54.1305,0,2.51492,3551.09,951.561,-17986.5
1.1675e+08,25.0191,2,3.0489,-3222.48,254.824,-24683.2
1.16791e+08,1.80924,0,2.89107,253.909,93.402,-28537.6
1.16971e+08,69.2086,1,2.41155,-8447.29,-8857.21,-20854.7
1.17054e+08,310.537,1,2.7235,-20837.1,-5167.84,-12265
1.17139e+08,33.1182,2,2.44115,-6530.96,-2728.63,-28542.7
1.17291e+08,97.7802,2,2.47791,-18915.5,-6649.12,-23489.9
1.17522e+08,22.3284,2,2.52189,4649.36,-544.609,-29399.2
1.17817e+08,38.3002,0,2.79856,3165.12,-7464.62,-29500.3
1.17841e+08,1.96879,2,2.84774,38.607,-314.867,-28548.7
1.1801e+08,104.311,0,2.74547,-4322.73,12383.3,-29695.4
1.18096e+08,108.908,0,2.72069,-6557.79,-20787.5,-21752.9
1.18145e+08,84.7953,1,2.96389,-7255.21,4205.84,-14343.9
1.18201e+08,19.9432,0,2.64935,2157.42,1002.57,-25320.6
1.18454e+08,134.855,1,2.7797,21234.2,8503.26,-19294
1.1861e+08,45.3254,2,2.81124,-4957.25,7155.87,-24972.9
1.18721e+08,21.3314,2,2.86817,-1628.89,-3338.83,-26213.9
1.18852e+08,68.5885,1,2.66413,-8236.84,8078.67,-19992
1.19031e+08,69.0711,2,2.91773,-11506.1,8793.51,-28069.2
1.19179e+08,46.5734,2,2.58912,-1346.56,-6110.61,-21194.3
1.19247e+08,6.05508,0,2.93942,279.407,-531.234,-27700.6
1.1983e+08,37.6043,1,2.47863,-413.927,7584.33,-26254
1.19949e+08,104.359,2,2.89673,2192.18,-5189.08,-7669.14
1.20244e+08,137.035,0,2.99697,11811.2,18069.8,-9848.06
1.20253e+08,111.785,0,2.59216,10115.9,21366.4,-27766.4
1.20494e+08,55.256,0,2.93099,-924.488,-11538.1,-27790.9
1.20534e+08,27.631,2,2.47875,477.766,-5866.61,-28046.2
1.20744e+08,261.687,2,2.86777,-28376.8,-10705.2,17018.2
1.21498e+08,128.938,2,2.62526,6845.55,16688,-8525.39
1.21752e+08,76.6515,1,2.80915,-11179.5,-4570.56,-18177.8
1.21909e+08,20.9696,1,2.44704,1298.24,4230.43,-29729.3
1.21981e+08,22.5057,1,2.80468,3314.66,1584.22,-25889.2
1.22012e+08,51.3011,2,2.54364,-9428.36,-604.149,-23430.9
1.22215e+08,17.7033,1,2.594,-3662.53,1064.06,-28739.9
1.22268e+08,9.73193,0,2.98167,2121.49,43.3993,-28484.2
1.22853e+08,21.1988,2,2.75104,1148.88,3150.78,-26016.8
1.23031e+08,81.0671,0,2.96724,-8002.52,4622.19,-14613.1
1.23573e+08,37.5526,0,2.77249,-2570.14,4606.94,-22999.3
1.23674e+08,14.5279,1,2.87516,1406.8,1444.41,-26517
1.24182e+08,35.2844,1,2.89956,863.341,3227.58,-22208.5
1.24535e+08,9.23419,1,2.60402,-1858.1,660.654,-28449.7
1.25137e+08,40.1216,0,2.46755,4144.38,5870.06,-24300.4
1.2515e+08,13.2912,2,2.7088,1345.8,-2401.31,-28162.3
1.25261e+08,22.6859,1,2.84852,-2590.35,-19.8307,-24810.5
1.25354e+08,23.6057,2,2.47457,1901.76,-2653.59,-25050.2
1.2564e+08,147.743,1,3.03481,8698.21,4735.2,453.376
1.25648e+08,53.9027,0,2.6419,11165.2,22.0692,-26247.2
1.25862e+08,167.597,0,2.6159,11491.3,-10130.8,3061.33
1.26178e+08,48.8678,2,2.47838,16.1396,821.569,-28033
1.26243e+08,74.0715,1,2.56927,-13071.8,-2842.73,-20712.3
1.26594e+08,13.0927,1,2.60223,-25.871,791.334,-26192.4
1.26638e+08,57.2909,2,2.53072,-8114.29,5722.03,-21916
1.27104e+08,30.9664,1,2.83165,1434.87,-3635.11,-23712.9
1.28012e+08,12.2088,2,2.52778,-2154.64,605.595,-27570.1
1.2805e+08,23.5752,2,2.96925,-1076.3,-4282.69,-26436.5
1.28151e+08,163.536,1,2.9056,-5329.14,-3465.67,-17577.2
1.28208e+08,6.65217,0,2.88972,923.197,-58.4361,-27729.5
1.28875e+08,58.8839,0,2.79892,2253.5,10457.3,-22575.9
1.28959e+08,82.4326,0,3.0082,14533.2,-197.19,-19394.4
1.29136e+08,73.116,2,2.99883,-7495.76,-1986.2,-15616.1
1.29447e+08,9.50317,2,2.53889,-822.895,1451.45,-27820.8
1.29549e+08,108.563,1,2.88098,12910.4,-9642.95,-12780.4
1.29801e+08,46.8338,2,2.59366,-6091.91,-3035.16,-21625.5
1.29936e+08,39.1486,2,2.40145,-2116.05,6179.99,-23781.9
1.29995e+08,101.347,2,2.99438,10380.1,-13610,-16215.8
1.30046e+08,43.7618,1,2.95054,3165.89,4663.54,-21569.7
1.30449e+08,101.333,2,2.81744,1466.83,2009.85,-28113.2
1.30524e+08,55.0628,0,2.88558,-1710.51,-7775.47,-20459.6
1.30739e+08,35.6911,1,2.63481,-7508.36,-855.135,-28259.5
1.30938e+08,41.3276,1,2.40619,2053.54,6354.46,-23152.7
1.31193e+08,11.2894,1,2.49586,-814.02,-945.802,-26836.9
1.31228e+08,78.6699,0,2.47275,15200.1,-6273.64,-25793.1
1.31707e+08,148.314,2,2.66685,-848.412,-28695.6,-16408.6
1.31752e+08,67.1562,1,2.71111,-6775.74,9195.47,-20395.8
1.31845e+08,3.01951,0,2.99949,693.776,49.9267,-28643.5
0,3.01236,0,2.82918,0,0,0
1.31988e+08,13.915,2,3.01453,-282.01,-1771.67,-26476.9
1.32479e+08,268.463,0,2.38654,25905.6,-2597.99,20073.5
1.32576e+08,18.9246,2,2.59153,-803.905,-3604.39,-27084.4
1.32583e+08,135.553,0,2.7687,-7378.62,-12658.4,-4401.81
1.3271e+08,122.535,0,2.52963,-14136.5,7948.83,-8707.45
1.32789e+08,142.056,2,2.99565,12798.5,-6102.57,-18429.3
1.32824e+08,203.049,0,2.7016,18298.6,7015.54,9207.34
1.33055e+08,9.84282,2,2.70335,-1172.46,-292.539,-27121.1
1.33457e+08,88.3297,0,2.68286,16019.7,7777.7,-23085.4
1.33666e+08,164.269,2,2.7179,-28928.9,-18956.1,-27133.1
1.34078e+08,120.209,1,2.43024,23005.2,-5299.05,-19481.5
1.34137e+08,100.357,1,2.77306,-19975.1,-4742.05,-23685.4
1.342e+08,23.4345,0,2.8592,1172.85,4213.08,-26519.9
1.34223e+08,39.5084,1,2.38154,5100.41,-414.577,-22300.8
1.34586e+08,60.0502,2,2.43568,-4922.65,-5024.61,-18225.6
1.34749e+08,94.0374,0,2.64138,11159.4,1849.42,-12483.5
1.34971e+08,101.108,1,2.48746,7242.85,17396.3,-18625.8
1.35071e+08,178.984,2,2.53541,-15567.1,23761.7,-3893.74
1.35266e+08,16.3438,0,2.75344,1452.81,-1800.25,-26245.5
1.3537e+08,8.12092,1,2.68111,-320.862,836.091,-27332.4
1.3559e+08,130.341,1,2.97575,-2793.93,23021.5,-14258.6
1.35624e+08,99.8701,2,2.75619,-11726,-3992.85,-24443.1
1.35659e+08,20.6234,2,2.87506,44.7843,-3449.98,-26135.7
1.35676e+08,108.151,1,2.4209,9659.85,-1296.26,-8190.43
1.36011e+08,112.954,1,2.42613,-7111.14,7681.52,-7332.37
1.36187e+08,28.4149,1,2.50005,2287.13,801.958,-23346.7
1.36206e+08,53.0633,1,2.88911,5793.87,-9244.66,-26932.7
1.36234e+08,97.6225,0,2.82889,-9822.91,-10319,-14837.2
1.36331e+08,34.0667,1,2.57591,3069.94,6575.51,-29015.2
1.36429e+08,264.285,2,2.4354,-17370.9,-2167.96,3621.84
1.36523e+08,33.3711,1,2.44563,-4934.32,5154.46,-28148.7
1.36565e+08,32.9986,0,2.85366,5558.47,-4311.92,-28768.5
1.36702e+08,31.3245,2,2.57132,-3733.16,216.274,-23346
1.36744e+08,41.7089,0,2.53236,2850.84,-7310.49,-24724
1.3676e+08,79.9385,2,3.02211,13040.5,-2715.6,-18721.3
1.3677e+08,14.2471,0,2.63768,1334.45,-76.9065,-26111.5
1.36871e+08,68.3291,1,2.73614,-3523.85,11597.7,-20977.9
1.37168e+08,41.1134,0,2.56261,1055.64,7073.78,-23899.3
1.37295e+08,56.8082,1,2.81261,10340.8,-1275.75,-23052
1.37429e+08,151.455,1,2.8124,-3306.52,27462.6,-12911.3
1.37447e+08,37.2599,0,2.70078,-145.985,-6243.79,-24058.5
1.37976e+08,45.726,0,2.61826,1692.54,7069.77,-22485
1.37996e+08,99.3512,2,2.71559,-3043.26,20292.8,-25014.1
1.38155e+08,278.337,1,2.49783,8962.68,5728.97,-24837.3
1.38567e+08,138.229,2,2.71299,11472.3,14383.4,-6376.5
1.38654e+08,104.111,2,2.85589,-3395.18,-14323.2,-12584.2
1.38737e+08,139.496,2,2.81684,-27025.4,-11341.4,-29669
1.38754e+08,91.8816,2,2.44957,2842.25,-16376.5,-18667.2
1.38804e+08,33.9163,1,2.59615,160.251,-330.142,-26967.1
1.38844e+08,78.158,2,2.64807,11733.7,-2119.43,-17476.1
1.38865e+08,171.505,1,2.75459,29767,15179.4,-15169.6
1.38873e+08,37.0514,0,2.96881,-175.893,6775.23,-25030
1.38895e+08,31.6968,0,3.00701,4302.05,4117.87,-25734.5
1.39014e+08,41.7062,1,2.5791,-2690.25,2226.76,-20719.4
1.39045e+08,11.3796,1,2.95648,776.132,-493.604,-26682.2
1.39064e+08,51.1611,1,2.90297,233.265,-55.1452,-28735.1
1.39282e+08,99.2225,0,2.84891,19590.8,183.528,-21427.1
1.39287e+08,126.777,2,3.04207,11373.7,-2729.39,-28762.7
1.3932e+08,4.52622,0,2.84183,429.137,-193.413,-27976.2
1.39397e+08,95.7228,0,2.46447,13872.2,3459.62,-14427.9
1.39418e+08,155.194,2,2.56919,-26578,-19323.5,-29845
1.3942e+08,9.33618,1,2.52971,-563.391,1290.95,-27380.9
1.39679e+08,167.219,2,2.8075,25979.9,-15483.9,-13473.7
1.39743e+08,14.8821,0,2.40054,2465.54,-2079.47,-28462.1
1.39878e+08,18.0068,1,3.00079,1926.46,3132.61,-27792.8
1.39992e+08,139.536,2,2.68149,14287.6,-4042.02,-3476.85
1.40112e+08,11.9363,0,2.73135,403.507,2512.12,-28662
1.40259e+08,4.86107,0,2.94279,-1.69873,1028.49,-28637.8
1.40461e+08,39.7241,1,2.4502,-2127.71,-1508.96,-20876
1.40605e+08,14.5816,2,2.46879,-975.596,-3009.53,-28404.1
1.40827e+08,98.6357,2,2.6886,-5024.62,-8634.63,-10563.7
1.41073e+08,72.7611,1,2.79284,-1823.7,9892.06,-17244.1
1.41099e+08,69.0273,2,2.724,3535.99,-10229.6,-19162.7
1.41311e+08,49.4836,2,2.39281,8893.46,587.366,-23416.4
1.4158e+08,156.95,0,2.93316,17646.5,1629.09,-1037.92
1.41583e+08,3.90532,1,2.71362,367.404,768.38,-28608.5
1.41813e+08,172.555,2,2.8733,-3831.22,-16221.9,-1863.12
1.42077e+08,19.4009,0,2.79223,2324.79,-3277.06,-29904.3
1.42089e+08,79.1841,1,2.64573,-1551.61,5551.51,-13255.6
1.42168e+08,35.0322,2,2.48982,-1549.96,-6604.56,-25650.2
1.42236e+08,24.7871,2,2.45493,1283.51,-3199.43,-24845.9
1.42799e+08,103.851,2,2.49856,-15799.3,10601.5,-17909.8
1.42871e+08,17.1859,0,2.62574,87.3159,-2679.37,-26368.9
1.42941e+08,23.0861,0,2.69043,2760.98,-2987.35,-26091.3
1.42956e+08,233.094,2,2.67887,26213.5,13592.5,10381.8
1.43204e+08,139.623,2,2.50106,-20949,17147.6,-17092.4
1.43559e+08,53.5274,1,2.67866,-5246.13,9005.61,-24267.2
1.43788e+08,100.391,0,2.64603,20571.8,665.282,-23465.4
1.43912e+08,15.7289,2,2.78033,-2247.87,-2342.28,-27840.8
1.43939e+08,24.0069,1,2.61117,2817.86,3835.47,-26931.7
1.44651e+08,218.432,0,2.73262,29530.6,4876.25,6153.25
1.44781e+08,87.7003,0,2.88957,-2811.32,5642,-23044
1.44789e+08,17.2478,2,2.64537,165.448,-3665.53,-29546.3
1.4507e+08,0.75059,1,2.57735,-134.247,206.313,-28985.9
0,0.75976,1,3.04925,0,0,0
0,0.801017,1,2.98358,0,0,0
0,0.756039,1,2.58123,0,0,0
1.45271e+08,157.87,1,2.41481,-6387.41,-26425.1,-9536.68
1.45329e+08,35.0213,0,2.8126,4854.98,5529.82,-27663.6
1.45346e+08,150.643,0,2.81863,25079.4,-11296.9,-13172.7
1.45714e+08,242.52,2,2.61069,-24793.9,8097.3,15171.8
1.45733e+08,21.0968,2,2.87737,1089.73,-3533.99,-26296.5
1.45735e+08,119.057,0,2.92648,18592,7930.17,-14052.3
1.45862e+08,37.9917,2,2.89981,4720.67,1945.37,-22744.2
0,37.6127,0,2.86133,0,0,0
1.45973e+08,29.843,2,2.82054,-242.813,-6346.52,-29292.3
1.46188e+08,117.468,1,2.64744,-22908.6,-2464.23,-19605.7
1.46451e+08,59.8804,1,2.88597,-3469.72,7236.44,-19087.6
1.46621e+08,165.868,2,2.92962,21316.8,-5617.64,-1936.63
1.46633e+08,56.8237,2,2.58138,8343.24,-6698.74,-23362.4
1.4685e+08,76.0348,1,2.45753,-3755.59,13836.3,-21393.3
1.46971e+08,33.3457,1,2.80218,1958.91,5692.88,-25153.3
1.47081e+08,142.438,2,2.60394,-17673.2,14521.4,-9347.09
1.47152e+08,112.41,2,2.47804,8408.66,-8860.65,-8486.65
1.47176e+08,57.0383,0,2.65365,-7792.43,-2394.21,-21133.9
1.47431e+08,65.5083,2,2.94948,12717.2,3643.51,-25303.7
1.47463e+08,84.2071,1,2.76959,11061.6,12188,-22170.3
1.47892e+08,33.8835,0,2.53894,1194.18,-2855.51,-22365.5
1.48174e+08,36.5125,2,2.72315,5016.33,-3107.28,-23873.6
1.48184e+08,90.7504,1,2.87701,-16089.6,-990.384,-18622.1
1.48335e+08,61.3889,1,2.72506,240.328,10864.9,-21719.1
1.48352e+08,15.4496,1,3.04001,-2443.47,290.988,-26666.3
1.48734e+08,92.5722,0,3.02218,4845.87,-18805,-27815.9
1.48841e+08,84.8714,0,2.73267,7255.39,9457.55,-15466.5
1.49283e+08,48.5258,0,2.98547,-6713.88,-7583.86,-29337.9
1.49831e+08,15.5484,2,2.53958,-336.461,-3373.4,-28919.2
1.49899e+08,93.4186,0,2.62738,-3024.54,-13133.5,-14459.9
1.49959e+08,68.9649,1,2.46964,-6699.09,362.366,-15891.5
1.4997e+08,96.9995,0,2.7073,20278.7,1765.24,-26023.3
1.50245e+08,69.4418,1,2.76149,-323.386,8841.09,-17151.8
1.51166e+08,6.27299,1,2.53606,-1361.15,43.0393,-29119.8
1.51245e+08,93.5994,1,2.81762,-17223.4,6928.35,-23921.4
1.51266e+08,25.7503,1,2.61208,-5438.57,-653.79,-29354.1
1.51534e+08,7.80805,2,2.8329,1542.41,-630.176,-28943
1.51582e+08,39.6069,2,2.64132,-3487.87,-2577.52,-21651.8
1.51754e+08,17.9353,0,2.95425,524.265,2542.58,-26119.3
1.51837e+08,46.0573,2,2.68942,-4595.13,-5720.28,-22390.3
1.5198e+08,46.4623,0,2.74068,-3901.87,5586.26,-21869.2
1.52323e+08,35.333,2,2.83713,3703.44,1993.98,-22749.1
1.52338e+08,125.458,1,2.70986,8393.43,22983.1,-18685.1
1.52648e+08,66.4769,2,2.6043,-8897.53,4001.65,-18742.6
1.52665e+08,176.281,2,2.5707,3476.86,-24127.6,-641.625
1.52687e+08,55.4792,0,2.60206,9721.56,-165.574,-22166
1.52814e+08,71.6938,0,2.81589,1763.05,-6754.27,-15477.3
1.52826e+08,101.411,0,2.80566,13285.6,2333.16,-12260.1
1.52874e+08,15.9025,0,2.82331,347.595,1189.69,-25746.3
0,15.7637,0,2.7021,0,0,0
1.53527e+08,30.202,1,2.67887,-6381.96,-606.64,-29514.1
1.53538e+08,75.7706,0,2.6398,11918.2,7312.95,-20958.9
1.53544e+08,23.4896,0,2.3952,-3530.22,-368.55,-25424.3
1.54128e+08,23.3635,2,2.45208,-3183.15,-2765.51,-26197.7
1.54466e+08,132.76,1,2.57994,4624.76,27127.5,-23019.5
1.54482e+08,116.143,2,2.89191,-15497.8,-1319.96,-10022.2
1.54513e+08,60.749,2,2.63558,10772.6,-4068.12,-23202.4
1.54817e+08,51.7062,1,2.43293,-4100.35,9535.98,-25146
1.55293e+08,152.565,0,2.42806,22113.4,7286.02,-6420.97
1.55297e+08,91.4059,2,2.92449,-4527.46,-18529.9,-26096.2
1.55379e+08,1.97726,0,2.8711,-217.364,-258.529,-28702.5
1.56171e+08,69.3237,2,2.99208,4060.33,-11385.8,-20671.4
1.56196e+08,79.6783,1,2.61352,-2178.11,6891.17,-13636.4
1.56271e+08,23.832,0,2.96694,3515.78,-2444.79,-26153.3
1.56379e+08,141.431,2,2.88685,-7633.35,-24786.7,-14205.8
1.56466e+08,53.1394,0,2.61536,7329.39,-2498.75,-20663.6
1.56482e+08,32.9659,2,2.87118,1311.14,-6451,-26442.2
1.56536e+08,61.3251,0,2.73357,959.49,-9431.86,-20057.2
1.56592e+08,98.5136,1,2.57411,-2664.31,9414.93,-10431.6
1.56653e+08,41.7108,1,2.77671,-8058.67,887.808,-25350
1.56725e+08,85.4045,2,2.86238,-4030.88,-4735.69,-11995.6
1.56829e+08,166.324,1,2.90066,-7306.23,-14703,1916.2
1.5744e+08,86.6994,0,2.51988,9661.89,1650.35,-13329.5
1.57751e+08,24.5514,1,2.42442,2.71588,-2321.75,-24260.3
0,24.4981,0,2.9974,0,0,0
1.57845e+08,71.253,1,2.86144,-3748.94,10932.2,-19222.3
1.5803e+08,21.5897,1,2.96941,2388.79,-2408.7,-25920.3
1.58091e+08,119.846,0,3.00234,18904.3,15413.3,-22634
1.58296e+08,2.22233,1,2.4884,-4.15331,-246.817,-28496.3
1.58455e+08,98.8015,1,2.82486,-16950.8,7329.3,-19207.2
1.59221e+08,6.54389,0,2.56372,-131.309,1322.61,-28474.1
1.59506e+08,0.394473,2,2.99066,-4.39077,-102.504,-28765
1.59577e+08,13.7157,2,2.55677,2763.73,568.043,-28323.9
1.59959e+08,31.4233,2,2.36939,-6478.38,-1478.29,-29920.5
1.60152e+08,12.1957,2,2.57213,-2515.93,590.077,-28441.3
1.60475e+08,100.728,2,2.97672,-13792.4,-11435.9,-17524.6
1.61128e+08,48.2084,1,2.43669,5870.73,-286.718,-20548.7
1.61263e+08,107.448,1,2.72027,-9763.16,14215.6,-14100
1.61292e+08,68.4322,2,2.59114,-5146.29,-3266.82,-15719.5
1.61522e+08,90.142,1,2.84393,-11030.6,79.56,-13403.1
1.61571e+08,129.57,2,2.87563,6174.31,1159.2,-23950.8
1.61635e+08,105.804,0,3.0383,-7880.3,20345.9,-25018.9
1.61666e+08,134.823,1,2.48565,-8456.96,334.289,-1619.14
1.61807e+08,64.5167,1,2.98505,6826.34,4453.65,-18042.7
1.61933e+08,12.3368,1,2.40054,-2084.87,1590.36,-29631.9
1.6223e+08,154.302,0,2.91592,24104,-11440.1,-10360.4
1.62362e+08,3.72693,1,2.94121,-487.758,700.585,-28648.1
1.62391e+08,115.843,2,2.85443,15596.6,-18649.3,-26982.7
1.62458e+08,34.313,0,2.76101,878.714,-4255.02,-23096.9
1.62802e+08,13.8756,2,2.91637,-1672.99,-2495.78,-28569
1.62944e+08,84.4086,0,2.85857,11585.6,11555.4,-21833.9
1.63169e+08,96.4851,0,2.87134,13819.3,12685.3,-20998
1.63477e+08,45.8844,0,2.92098,2705.03,3181.63,-20162.9
1.63479e+08,6.7574,2,2.45367,530.344,-660.881,-27705.5
1.63553e+08,18.264,1,2.48242,796.145,-2101.81,-25781.8
1.63569e+08,89.2564,2,2.55424,-4124.93,-15555.5,-18871.3
1.63614e+08,88.6036,0,2.85862,249.408,-18627.8,-29730.1
1.63693e+08,15.4322,1,2.86374,437.043,3261.73,-28457.5
1.64144e+08,22.2174,2,2.53436,3495.89,1346.98,-26092.4
1.64196e+08,305.997,2,2.7014,-23188.9,-14788.1,26203.6
1.64392e+08,127.513,2,2.90508,2015.94,-16129.7,-7529.02
1.64435e+08,209.129,1,2.76795,-4469.78,-1029.49,-16231.1
1.6454e+08,114.785,2,2.84093,-11804.6,-9402.01,-9969.44
1.64967e+08,16.8363,0,2.89486,-1719.11,-3060.6,-28553.1
1.65014e+08,21.4046,1,2.82198,2410.18,3843.7,-28603.8
1.65505e+08,357.625,1,2.59131,-25960.1,16984.1,-19195.2
1.65698e+08,119.392,0,2.72205,6403.23,9907.48,-6603.8
1.66093e+08,55.0543,1,2.41391,-5060.91,-10339.6,-27168.4
1.66516e+08,109.031,1,2.46479,-22199.2,5330.59,-25298.5
1.66683e+08,14.3224,0,2.44377,625.617,-2590.1,-27374.4
1.66971e+08,11.5467,0,2.85363,1997.71,938.912,-27640.2
1.67194e+08,56.7643,0,2.7028,-1230.15,-10958.3,-24181.8
1.67602e+08,14.6496,0,2.62176,2981.37,-779.966,-28079.2
1.67651e+08,3.66389,1,2.64756,-814.373,-70.0793,-28791.1
1.67784e+08,38.2127,2,2.8166,-5321.4,-6153.15,-29132.9
1.68303e+08,82.2632,0,2.88046,-12503.5,-2055.09,-17180
1.68335e+08,66.3252,2,2.99312,-12743.4,1268.18,-23297.6
1.6879e+08,92.052,2,2.8741,8437.9,-352.255,-11461.4
1.68829e+08,7.49278,1,2.83633,-1380.66,741.724,-29462.6
1.6894e+08,5.88521,0,2.97919,-235.977,988.588,-28152.4
1.69017e+08,45.6376,1,2.74553,-1156.76,6215.91,-21564.1
1.69089e+08,8.87854,2,2.7957,1137,-946.492,-27703.5
1.69326e+08,193.181,0,2.48204,26757.5,-28376,-16574.9
1.69581e+08,202.858,1,2.81114,-2525.34,12501.5,11880.2
1.69585e+08,177.595,0,2.77271,-23157.8,16261.5,-9179.06
1.69608e+08,162.584,2,2.47225,-21816.5,-16789.9,-8329.89
1.69707e+08,50.4215,0,2.45631,9251.11,-5439.95,-28970.9
1.69868e+08,15.1079,0,2.93555,3108.11,-952.832,-28369.9
1.69938e+08,45.3922,1,2.53249,-5457.14,-3638.19,-21834.6
1.70291e+08,52.2638,0,2.80078,9089.39,-2282.39,-22936
1.70325e+08,184.778,1,2.68428,-22950.7,17763.5,-2785.61
1.70367e+08,38.3232,1,2.46235,-4497.01,4288.31,-23538.2
1.70389e+08,4.79247,1,2.95824,-718.772,-648.739,-28548.8
1.70412e+08,63.6594,1,2.38211,9252.02,6793.47,-21738.9
1.70485e+08,166.046,1,2.83746,2250.41,-28375.3,-9210.64
1.70668e+08,45.9668,2,2.71004,-4570.62,-6428.56,-23082.9
1.70764e+08,36.0123,2,2.44601,-336.072,211.999,-28405.4
1.70949e+08,75.0304,2,2.92273,2632.01,-14232.7,-22448.8
1.71069e+08,64.4912,2,2.44689,-9172.72,4814.15,-20009.8
1.7123e+08,4.59151,1,2.80182,649.434,778.928,-29066.6
1.71391e+08,104.71,0,2.80927,20043.2,5794.01,-21492.1
1.71459e+08,22.1268,0,2.4811,-891.108,-2173.78,-29130.8
1.72221e+08,58.1262,2,2.56088,-11607.3,1740.21,-25105.3
1.72266e+08,16.4019,1,2.63815,2598.58,-478.449,-26676
1.72463e+08,36.5405,2,2.59871,1536.24,-7494.65,-27397.3
1.72507e+08,60.3867,1,2.57077,8679.83,9320.1,-27769.9
1.72557e+08,40.7533,0,2.64554,-668.747,4211.61,-21411.9
1.72691e+08,125.757,1,2.96014,-6318.79,6634.96,-4085.44
1.72772e+08,155.591,1,3.0478,3280.33,-23916,-7032.41
1.72989e+08,237.893,1,3.03108,19507.9,-13008.8,14680.3
1.73108e+08,2.4902,1,2.92807,-45.5673,284.118,-28364.6
1.73142e+08,103.317,0,2.86765,10006.7,-834.933,-9583.12
1.73223e+08,125.127,1,2.91747,-16996.5,-20005.2,-28374.4
1.73812e+08,43.5165,1,2.80713,6759.82,474.11,-25337.9
1.74118e+08,116.153,2,2.69774,-23419.7,-1616.22,-21715.7
1.74321e+08,109.19,0,2.48478,2617.76,20592.1,-18762.3
1.74325e+08,46.946,0,2.70344,3824.52,-6690.03,-22626.3
1.74381e+08,17.7973,0,2.48805,1056.71,1469.99,-25520.4
1.74446e+08,121.329,1,2.77895,24995.8,-4007.82,-25805.8
1.74581e+08,172.814,0,2.7846,-11025.9,2526.92,-16638.8
1.74928e+08,46.2896,0,2.63011,-1232.89,-6341.31,-21545.4
1.7514e+08,11.3832,0,2.36941,1203.06,319.724,-26746.9
1.75202e+08,1.07043,0,3.02486,260.197,-39.1538,-28724.2
1.75242e+08,134.71,0,2.866,12145.2,3512.26,-10141.8
1.75542e+08,92.5404,2,2.63314,-17473.7,-2260.33,-20298
1.75567e+08,35.9925,1,2.97175,-2812.48,6809.99,-26778.4
1.75719e+08,65.6135,0,2.77466,5505.61,-2113.74,-16317.9
1.75771e+08,54.4714,1,2.87597,6515.47,8918.32,-25754.2
1.75844e+08,153.693,2,3.03837,18783.8,10712.9,-5056.05
1.76086e+08,42.6004,1,2.79562,-2724.27,516.99,-20314.3
1.76549e+08,104.656,0,2.63223,-16288.2,8532.08,-16685.1
1.76786e+08,14.9353,1,2.94369,1509.83,1948.57,-26846.8
1.76879e+08,94.5781,1,2.97288,3460.23,13333.9,-14519.3
1.77163e+08,130.222,1,2.78242,-678.994,4365.61,-3371.94
1.77165e+08,116.578,0,2.61382,22413,8464.38,-22818.4
1.77338e+08,110.753,2,2.75815,3979.85,19127.4,-16210.8
1.77573e+08,105.397,0,2.88225,16863.3,-7365.52,-16415.4
1.77737e+08,22.8486,2,2.44278,-4348.75,-2305.3,-28494.3
1.77799e+08,166.346,2,2.48533,-17547.8,-13083.4,-10319.5
1.7821e+08,56.1063,0,2.48554,10580.6,-182.672,-23318
1.78241e+08,39.346,0,2.92464,6096.97,-2529.59,-23780.2
1.78413e+08,44.8314,2,2.5889,-8668.21,1257.69,-25122.7
1.78448e+08,5.3521,1,2.78135,1106.01,195.353,-28694.7
1.79721e+08,73.6587,1,2.70707,2744.71,14074.3,-22816.2
1.80417e+08,102.692,1,2.78668,-3904.75,11434.2,-10889.9
1.80517e+08,26.7339,1,3.04375,1108.51,2660.34,-26357.1
1.81033e+08,32.9775,2,2.56565,2740.99,-5038.82,-24832.2
1.81149e+08,96.2489,0,2.96553,7899.8,9873.49,-13062.8
1.81169e+08,247.296,2,2.58896,6571.7,16513.7,-18519.5
1.81354e+08,36.5573,2,2.71599,-5462.02,5161.24,-27121.1
1.81654e+08,77.4773,0,2.84255,-1008.38,-6918.65,-14562.1
1.82128e+08,136.85,2,2.84721,-8650.95,24185.3,-16010.8
1.82392e+08,184.743,1,2.68532,-27275,-24010.3,-14843
1.82834e+08,22.7795,2,2.42152,3638.02,-2903.87,-27494.5
1.82844e+08,10.9634,2,2.67287,-1087.61,1300.77,-27276.4
1.83006e+08,145.138,1,2.70369,1227.38,-28943.4,-19263.9
1.83348e+08,43.9023,0,2.52975,6112.26,-2633.01,-22303.8
1.83516e+08,131.528,1,3.00289,-22075.6,-15541.6,-23242.9
1.83554e+08,54.7926,1,2.78551,-2468.29,-11128.3,-27437.7
1.83576e+08,15.085,1,2.52768,1875.88,955.671,-26438
1.84075e+08,38.1435,1,2.65026,-5360.58,2192.94,-23190.5
1.84108e+08,37.1143,2,2.52909,-5197.6,-5849.75,-27623.9
1.84241e+08,45.8376,0,2.78482,-3215.27,8082.72,-24696.1
1.84283e+08,98.0451,0,2.78303,19236.5,7654.07,-27735.9
1.84561e+08,5.7995,0,2.59341,1114.6,-473.735,-28323.6
0,5.78889,0,2.37976,0,0,0
1.84706e+08,94.4489,0,2.56066,3247.26,6535.22,-10291.7
1.84944e+08,15.5818,2,2.72753,-242.218,1319.09,-25874
1.8507e+08,100.378,0,2.36995,16701.4,-3274.85,-16023.3
1.85219e+08,10.4482,0,2.56989,1466.81,-1405.72,-27874.5
1.8554e+08,86.2035,2,2.57603,-15675.2,4140.59,-20921.4
1.85591e+08,173.575,2,2.53818,-3857.91,15519.4,4100.44
1.85714e+08,19.8834,1,2.37421,-644.699,-2831.06,-25848.3
1.85884e+08,51.248,0,2.40632,6640.18,-41.4824,-20208.5
1.85935e+08,17.9653,1,3.00843,535.578,3645.61,-27704.9
1.85936e+08,93.7332,0,2.86224,8355.95,580.168,-10995.6
1.86027e+08,232.368,0,2.75373,14247.4,-7587.32,17010.5
1.86439e+08,39.9127,0,2.47254,1273.42,2832.18,-20985.2
1.86485e+08,46.0116,2,2.59129,-5471.84,7903.28,-27495
1.86902e+08,13.2465,2,2.5057,-2855.74,-283.953,-28524.7
1.87157e+08,61.4553,0,2.55672,-5099.54,-4256.02,-17706.4
1.87382e+08,40.6355,2,2.56044,-7924.31,-3429.83,-28174
1.87383e+08,122.021,0,2.99493,18299.3,-7345.73,-12464.5
1.8757e+08,23.2133,1,2.49746,-3953.61,-2372.85,-27156.6
1.87582e+08,172.779,0,2.57415,-8637.28,1882.98,-23654.1
1.88064e+08,25.2337,2,2.73453,-2408.4,2314.82,-24717.9
1.88146e+08,131.001,0,2.9316,19971.5,-2313.42,-10016.7
1.8818e+08,37.3232,1,2.60347,-5799.26,5482.78,-28478.7
1.88193e+08,16.5489,0,3.04847,-1535.01,2260.03,-26749.9
1.8822e+08,174.435,0,2.75499,23974.4,401.133,-3466.94
1.88396e+08,30.9896,0,2.55704,-4497.84,-3378.01,-25580.6
1.88461e+08,122.18,2,2.8913,-24779.1,51.1296,-24982.3
1.88473e+08,134.248,1,2.48852,-21601.9,-11599,-14502.6
1.887e+08,115.444,1,2.76684,-3616.28,-8651.11,-6468.47
1.89457e+08,22.924,1,2.54396,1237.01,-3065.2,-25358.4
1.89595e+08,67.5562,0,2.82338,-11686.7,-710.004,-20943
1.89712e+08,9.94102,1,2.71813,-2106.05,376.564,-28483.8
1.89713e+08,121.347,2,2.90543,-15076,-20637.6,-28494.3
1.89913e+08,1.79802,0,2.48538,-15.5925,191.575,-28511.5
1.89965e+08,81.7657,0,2.59856,11453.6,6101.78,-17368.6
1.90103e+08,6.4662,2,2.53961,-1233.76,409.514,-28377.4
1.90183e+08,34.0403,1,2.51883,6281.48,1797.66,-25824.9
1.90553e+08,117.912,0,2.38404,16873.8,15236.4,-18396.9
1.90707e+08,44.9569,2,2.84176,-2562.06,-9127.45,-27669.1
1.90718e+08,123.309,0,2.60439,8474.72,-23776.6,-22277.6
1.9072e+08,106.016,2,2.61466,-6451.39,-16646.2,-15242.8
1.90775e+08,144.498,2,2.60048,15045.7,-2039.92,-2437.2
1.90792e+08,92.707,0,2.43588,15614.5,4488.26,-17764
1.91319e+08,73.1911,0,2.85905,-2067.15,8328.34,-16097.6
1.91526e+08,253.716,1,2.68294,18554.5,-23303.3,15524.8
1.92071e+08,236.83,1,2.83352,-13597.1,-5688.71,18709.2
1.92653e+08,5.87148,2,2.96318,-945.634,-888.418,-29043.3
1.92683e+08,130.042,0,2.62017,-7142.66,-7637.43,-3484.37
1.92709e+08,3.69665,0,2.67379,833.568,205.574,-28654.6
1.92749e+08,12.9578,2,3.01942,-865.378,-2555.15,-28148
1.92904e+08,20.4886,2,2.78675,-2305.92,-2449.04,-26045.2
1.93265e+08,13.1231,0,2.79576,2769.22,327.991,-28293.7
1.93525e+08,171.192,1,2.79413,-19401.9,25952.8,-12967.1
1.9359e+08,17.7081,2,2.94775,2866.35,-1951.61,-27415.5
1.93712e+08,5.57877,0,2.36789,1103.44,-146.891,-28239.2
1.94109e+08,71.6007,1,2.90694,-13653,3792.86,-23647.8
1.94508e+08,24.8257,2,2.56545,-2215.05,-4642.83,-27462.4
1.94512e+08,34.08,0,2.57525,-3585.58,-1162.92,-22753.2
1.94512e+08,103.255,2,2.38061,-21762,-2313.02,-27489.7
1.94738e+08,110.057,2,2.41276,15380.7,-2653.4,-11592.7
1.94821e+08,91.0811,0,2.77299,-15166.6,-199.146,-17215.1
1.95558e+08,160.613,2,2.98339,22751.3,2846.83,-4265.82
1.95561e+08,6.72923,0,2.61711,514.499,-345.33,-27536.5
1.95617e+08,35.9462,2,2.58427,610.918,-3564.44,-22140.4
1.95833e+08,101.256,1,2.65999,-13051.1,14581.6,-20086.8
1.9592e+08,2.01375,2,2.90981,-495.886,-107.749,-28792.5
0,2.04932,2,2.8248,0,0,0
1.96096e+08,141.295,1,2.87472,10226.8,18864.9,-8299.76
1.96119e+08,189.872,0,2.84361,5006.88,518.085,-11827.5
1.96189e+08,10.3508,2,2.36364,-363.935,-1795.95,-27546.7
1.96425e+08,177.105,1,2.46347,-28402.1,18364,-12586.9
1.96457e+08,129.115,0,2.4126,-15087.2,17342.4,-14194.1
1.96691e+08,94.0865,2,2.5807,-7591.68,-4155.43,-15518.9
1.96763e+08,13.3279,2,2.80806,-470.973,-2600.2,-27670.8
1.9717e+08,49.6713,0,2.57984,7059.34,-302.656,-21005.3
1.9721e+08,146.619,0,2.38003,4643.42,-18011.7,-4011.87
1.97624e+08,110.953,1,2.66276,13990.8,16563.6,-22448.6
1.97805e+08,172.662,2,2.92695,-10750.2,-19100.9,44.6805
1.98074e+08,48.6924,0,2.91156,1923.03,-6866.52,-21500.1
1.98193e+08,159.034,2,2.77553,-16262.6,13915,-3138.33
1.9838e+08,15.8705,2,2.92022,2117.5,-2608.16,-28922.7
1.98728e+08,132.36,0,2.87797,26196.7,-8625.33,-24837.6
1.99319e+08,241.691,2,2.76895,21324.7,-22200.3,-2565.56
1.99462e+08,0.767266,1,2.72311,-168.09,114.218,-28734.6
0,0.79724,1,2.76081,0,0,0
1.99708e+08,47.7838,0,2.42596,-2786.05,-6614.62,-21748
1.99713e+08,44.7236,0,2.91872,-5205.66,1217.64,-21184.4
1.99761e+08,34.8319,2,2.37043,5575.61,3172.28,-25298.2
1.99856e+08,48.0765,1,2.82686,5026.89,-646.581,-20158.9
1.99997e+08,151.037,0,2.72453,-11963.5,19595,-7052.14
2.00051e+08,29.4103,0,2.58084,1088.6,-2771.62,-23381.6
2.00207e+08,35.1105,2,2.36272,889.677,3967.92,-22704.4
2.00261e+08,22.4775,2,3.0585,-2612.52,3887.23,-29275.7
2.00286e+08,148.541,2,2.44702,-13114.3,-180.136,-290.22
2.00289e+08,144.23,1,2.55086,5313.74,7811.59,138.408
2.00385e+08,31.4399,2,2.50412,-507.923,5583.3,-25347.5
2.00889e+08,12.6528,1,2.73801,-2710.73,-222.825,-28901.2
2.00969e+08,73.4973,2,3.00801,9214.27,-9981.43,-24297.8
2.01142e+08,116.43,2,2.83036,-17932.5,-11902.5,-17103.4
2.0115e+08,92.88,2,3.04139,-10541.3,13400.1,-19523.6
2.01295e+08,14.4624,0,2.78674,1237.67,2274.38,-27160.6
2.01559e+08,4.22241,1,2.38456,436.863,150.265,-28101.8
2.01685e+08,33.3303,1,2.8963,-5357.43,2736.73,-25124.5
2.01737e+08,14.9568,2,2.79874,-1320.96,-2580.5,-27396.2
2.01869e+08,56.5808,0,2.57808,5853.09,-3776.39,-19085.6
2.01947e+08,155.374,0,2.96399,-2534.88,-12725.4,997.374
2.02146e+08,8.74208,0,2.43361,442.06,-1740.57,-28317.1
2.02407e+08,114.468,0,2.86903,-2358.6,17736.3,-12802.2
2.02477e+08,45.7658,1,2.73491,-6356.36,5091.63,-23538.1
2.02748e+08,28.015,0,2.77175,3095.13,-1531.43,-24443.6
2.02819e+08,54.9386,0,2.83705,11118.3,2808.43,-26752.9
2.02841e+08,196.128,0,3.04409,11734.9,-5295.55,-26965.2
2.02891e+08,175.949,1,2.88502,3477.69,26092.3,-2889.16
2.02989e+08,75.6222,1,2.77412,-5828.49,6093.57,-15294.4
2.03135e+08,26.1795,2,2.67018,2047.92,1599.55,-24006.2
2.03375e+08,87.9763,1,2.43065,-16740.5,-2499.04,-21011
2.035e+08,0.25386,0,3.12221,163.712,-54.8191,-28884.6
0,0.253698,0,3.37813,0,0,0
0,0.249649,0,2.93212,0,0,0
0,0.256879,0,2.87261,0,0,0
0,0.243058,0,4.03366,0,0,0
0,0.25784,0,3.97612,0,0,0
2.03784e+08,203.344,0,2.5708,-22760.1,-863.747,4169.06
2.0398e+08,4.00926,2,2.81397,-516.068,-803.295,-28872.7
2.04534e+08,91.4798,0,2.94854,-136.32,-17227.4,-20386.1
2.04541e+08,78.7937,1,2.9625,-6869.37,-12963.1,-21265.1
2.04981e+08,61.8923,2,2.92996,-7138.89,-2233.21,-18180.2
2.04987e+08,133.795,2,2.98449,-6719.85,11601.8,-4227.84
2.05057e+08,121.052,2,2.92755,-6680.79,-17474.3,-11821.7
2.05654e+08,219.202,1,2.80269,25170.3,25389.1,308.413
2.05814e+08,4.22831,1,2.93307,-946.882,118.609,-28850.9
2.05954e+08,53.6356,1,3.00672,-2874.33,6585.61,-20129.7
2.06216e+08,29.6448,0,2.87471,-3627.91,-5024.93,-28597.2
2.06551e+08,98.9563,2,2.98892,-5603.18,-1554.47,-8926.72
2.06567e+08,46.777,1,2.36733,-2767.71,7664.3,-23093.4
2.06775e+08,25.4361,1,2.59171,-3670.32,2358.27,-25599.5
2.0681e+08,118.547,1,2.39184,-15854.2,6558.29,-10512.5
2.07583e+08,25.0385,1,2.95829,-4148.18,1247.97,-25770
2.07612e+08,30.6103,0,2.6382,5708.77,-1820.41,-26226.6
2.07981e+08,136.32,0,2.44057,14478.5,-18433.6,-11974.5
2.08031e+08,6.26206,0,2.74041,725.637,643.455,-27875.1
2.0867e+08,31.8356,1,2.59628,3010.49,-4775.89,-25318.2
2.08794e+08,18.6529,0,2.39613,3217.28,1208.17,-26809.4
2.0882e+08,45.5695,0,3.03893,7525.77,3140.09,-23751.3
2.09303e+08,1.55891,0,2.54976,-11.7994,-328.538,-28987.6
2.0936e+08,65.8307,2,2.72753,-10655.7,2654.51,-20332.6
2.0939e+08,18.3484,0,2.68389,2817.41,-2543.38,-29946.2
2.097e+08,4.51011,1,2.93981,-584.28,-152.7,-28114.6
2.09811e+08,57.1756,1,2.69123,-10091,4471.69,-23862.7
2.09847e+08,70.8975,2,2.51287,7987.25,-7509.55,-18596.8
2.10258e+08,57.6178,2,2.63032,-3685.35,-5447.15,-21280.4
2.10483e+08,7.70737,0,2.60236,-431.215,387.445,-27336.4
2.105e+08,34.0308,1,3.06021,6253.77,-251.287,-25537.6
2.10564e+08,7.66405,2,2.497,-1671.81,72.1419,-28885.8
2.11056e+08,195.246,2,2.52664,-27160.8,-5206.39,1828.48
2.11203e+08,29.1957,0,3.00816,486.439,-5668.41,-26583.3
2.11253e+08,12.0851,1,2.95385,1495.19,2000.52,-28162.3
2.113e+08,32.9245,2,2.67956,-4020.95,-5609.21,-27467.2
2.11493e+08,16.2855,0,2.63478,1584.99,-3103.38,-28829.3
0,16.1994,0,2.80508,0,0,0
2.11502e+08,37.6313,2,2.81122,3902.18,-5709.21,-24959.7
2.11515e+08,41.9273,1,2.38716,-2381.76,6579.55,-23286.4
2.11539e+08,73.7699,2,2.38806,-6994.92,-9866.96,-18869.9
2.11825e+08,51.2097,0,3.00505,-103.443,-9747.13,-24362.5
2.11914e+08,45.5184,1,2.39101,929.902,9655.01,-29534.1
2.11937e+08,16.2602,0,2.6379,2193.38,2703.34,-29192.1
2.12011e+08,59.9937,2,2.36214,6910.46,5204.3,-19618.1
2.12033e+08,137.192,2,2.86441,13256.2,-25574.9,-26586.6
2.12036e+08,22.4321,2,2.66143,3019.55,-1594.92,-25550.8
2.12076e+08,63.2428,2,2.96187,8142.8,-2226.95,-18671.4
2.12287e+08,166.356,0,3.02272,13937,-3315.51,-26120.8
2.12414e+08,11.7642,0,2.79959,-780.071,1912.7,-27493.6
2.13568e+08,14.3627,2,2.81633,-2681.34,-953.231,-27619.1
2.14004e+08,69.5122,0,2.82068,-9214.14,7672.4,-20536.3
2.14054e+08,13.4992,0,2.50615,-396.895,-1991.94,-26841.8
2.14253e+08,70.7077,2,2.49723,-14685.3,-3164.23,-29643.9
2.14276e+08,41.5205,1,2.68132,3412.87,8133.86,-28748.9
2.14359e+08,53.9052,2,2.62548,1455.1,-7795.32,-20610.2
2.14806e+08,70.4499,2,2.77835,-1573.44,-6024.2,-15349.1
2.15152e+08,40.7022,2,2.59528,3794.93,-669.277,-21216.8
2.15198e+08,171.892,0,2.57984,17723.6,-27130.3,-12349
2.15254e+08,146.726,2,2.56918,-11207.2,-27570.7,-19826.7
2.15982e+08,31.003,1,2.93076,-2065.41,-5563.45,-26233.6
2.161e+08,83.4662,1,2.8156,1398.84,8924.46,-14269.5
2.16185e+08,118.043,1,2.62643,-18553.6,-14398.3,-20486.6
2.16382e+08,199.402,2,2.7439,6327.89,29971.7,-213.228
2.16518e+08,38.9719,2,2.87,2361.02,-7365.49,-25939.4
2.16703e+08,24.9759,1,2.67416,-1829.77,529.176,-23916.6
2.16836e+08,7.6894,0,2.75427,1130.71,-1244.55,-28652.8
2.16878e+08,98.5961,0,2.37667,-189.222,-15611.3,-19298.4
2.17078e+08,120.352,1,2.86593,437.127,23579.1,-19522.2
2.17121e+08,37.2562,1,2.85421,5082.69,-3880.52,-24394.5
2.17275e+08,34.7182,2,2.88651,5921.13,-1294.46,-24789
2.17313e+08,42.7523,2,2.78483,-4273.61,-26.3683,-20910
2.17556e+08,95.8665,1,2.55154,6339.47,4424.73,-10114.3
2.17721e+08,8.48825,0,2.43914,-1241.54,1254.73,-28803.9
2.17885e+08,64.4033,0,2.76369,-9399.91,6942.45,-22086.9
2.18056e+08,96.2111,2,2.49948,-18054.9,1738.38,-19568.6
2.18738e+08,117.369,1,2.73258,-7195.51,6376.04,-6045.21
2.18856e+08,22.358,1,2.69719,-372.824,1220.75,-24285.8
2.19206e+08,104.861,2,2.47073,4301.98,15239.6,-13421.8
2.19467e+08,30.7347,1,2.8752,4139.6,2104.15,-24349.1
2.19565e+08,31.9177,2,2.67876,-4591.21,-4438.11,-26427.9
2.19768e+08,28.7502,1,2.76486,-995.542,4575.31,-24894.4
2.19864e+08,68.3233,1,2.73592,-10345.1,-3318.43,-19380.2
2.19882e+08,59.8321,2,2.68036,-9654.76,4288.56,-21901.3
2.19912e+08,6.52911,0,2.44053,1.56703,1215.4,-28194.6
2.2001e+08,23.5981,2,2.97484,-2772.78,3537.84,-26824.9
2.20183e+08,40.0521,2,3.04512,-4011.62,-6020.31,-24501.7
2.20274e+08,21.4128,1,2.86612,-651.313,-2938.94,-25533.4
2.20645e+08,92.7709,1,2.4586,-3348.61,6193.45,-10510.9
2.21756e+08,8.61533,0,2.40169,-1654.74,-517.502,-28508.5
2.22007e+08,50.431,1,2.60587,1675.49,8430.37,-22464.5
2.22261e+08,113.842,2,2.57235,8573.6,9402.7,-8641.41
2.22333e+08,76.0783,0,2.88513,-3841.52,-5719.15,-14441
2.22525e+08,118.026,1,2.86555,-18351.9,13135,-18364.8
2.22661e+08,71.0934,0,2.96215,10436.8,-10266.2,-25600
2.22863e+08,24.8191,1,2.52022,-3908.91,2842.5,-26577.7
2.22886e+08,39.1906,1,2.83213,5742,2957.28,-23734.8
2.23101e+08,36.5415,1,2.46938,4030.9,-851.16,-22348.3
2.23419e+08,36.2329,0,2.47364,3005.66,-5291.47,-24131.9
2.23857e+08,66.948,2,2.63281,-11728.3,-5842.91,-23356.3
2.23896e+08,52.7676,0,2.79545,6635.38,-284.565,-19896.8
2.23905e+08,114.417,0,2.519,9615.41,11470.9,-9840.96
2.24212e+08,127.97,0,3.03166,14650.8,12895.4,-10790.2
2.24322e+08,40.0835,0,2.93326,-6762.85,-4329.2,-26505
2.2456e+08,150.529,0,2.42295,14635.8,9848.39,-2307.36
2.2463e+08,63.4729,0,2.53843,4455.28,1402.44,-16250.7
2.25199e+08,21.0772,1,2.49566,-669.874,3993.69,-26828.3
2.25413e+08,1.53494,1,3.0387,-279.678,271.995,-29037.7
2.25436e+08,10.8426,1,2.83667,-128.196,2020.9,-27634.9
2.25576e+08,35.5942,1,2.79311,3751.14,4908.67,-24558.7
2.25651e+08,76.6178,1,2.76501,-6770.17,-2196.26,-14376.9
2.25725e+08,46.275,0,2.82634,8008.28,-1538.58,-23423.5
2.25727e+08,134.763,0,2.83573,22178.4,16685.2,-22835.3
2.25824e+08,147.373,2,2.93087,-14437.3,3801.82,-1780.91
2.26084e+08,180.937,0,2.6572,11301.9,-20070.8,-19612.7
2.26141e+08,64.2614,0,2.54445,-614.137,-10839.1,-20673.9
2.2629e+08,116.446,2,2.8032,-9135.01,-22729.8,-26656
2.26409e+08,17.8441,0,2.92191,-726.049,-1738.66,-25626.7
2.26465e+08,128.249,2,2.5674,-11905.8,12819.4,-8172.75
2.26495e+08,138.401,2,2.61463,10811.2,16135.3,-7113.96
2.26517e+08,46.1924,0,2.91827,6946.8,2406.93,-22437.4
2.26767e+08,28.369,1,2.61056,-3193.49,-3076.09,-24862.2
2.26901e+08,215.45,1,2.70698,24488.9,-23406.1,1270.38
2.27149e+08,25.5016,0,2.6052,-1299.44,-4985.27,-27234.5
2.27319e+08,75.0092,0,2.66324,14728.1,5150.18,-25721.7
2.2848e+08,246.899,2,2.89329,-13415.5,14234.4,19135
2.28486e+08,86.4358,2,2.76842,528.741,-11505.4,-18184.7
2.29155e+08,34.3794,0,2.46311,4617.54,3801.6,-24608.1
2.29438e+08,40.3593,1,3.03907,-528.677,1398.85,-20519.5
2.2989e+08,14.0102,0,3.01968,837.376,-2781.08,-28142.9
2.3006e+08,160.036,1,2.95434,5736.21,-5019.73,-20784.2
2.30442e+08,31.935,0,2.67921,5981.74,-3326.96,-28847.4
2.30519e+08,169.951,1,2.89412,-8389.92,15.3459,-25703.5
2.30723e+08,70.304,2,2.708,-1335,6674.34,-15747
2.31088e+08,132.397,2,2.37838,-20115,2163.25,-9418.71
2.31432e+08,207.075,0,2.99114,-5749.28,-18729.6,-12112.1
2.31546e+08,56.5939,1,2.74105,2183.48,5002.87,-18244.7
2.31633e+08,10.7686,1,3.05778,-1978.32,22.5344,-27653.1
2.31633e+08,32.672,1,2.5563,-5470.76,-2812.65,-25740.4
2.31745e+08,53.5859,1,2.53606,-4538.69,9527.21,-24520
2.32176e+08,4.09821,2,2.60241,-64.6928,-868.401,-28469.3
2.32346e+08,37.1474,1,2.52475,-4381.34,-6158.23,-26743.5
2.32581e+08,71.8412,1,2.45104,1194.12,3937.27,-14210.8
2.32977e+08,222.774,2,2.76919,29645.3,-19172.6,2005.32
2.3306e+08,26.6584,2,2.73325,2293.84,4428.35,-26400
2.33134e+08,63.223,1,2.85777,-6886.27,-8217.11,-21068.3
2.33181e+08,9.76745,0,2.75025,310.005,1589.64,-27573.4
2.33191e+08,150.336,1,2.37047,-4280.32,25336,-9981.66
2.33244e+08,10.0155,1,2.45892,-500.202,2168.96,-29138.5
2.33377e+08,43.8757,2,2.55237,-5919.92,-5154.59,-23800.6
2.33528e+08,1.12601,1,2.9054,-171.88,225.38,-28743.8
0,1.00475,1,2.75894,0,0,0
0,0.979143,1,2.45524,0,0,0
0,0.994309,1,2.85079,0,0,0
0,0.971539,1,2.43383,0,0,0
2.33736e+08,86.6584,1,2.51638,-14510,-2316.71,-17910.2
2.33983e+08,116.437,2,2.63488,-1300.47,-15064.8,-9449.35
2.34008e+08,47.7316,0,2.9776,8771.14,-4616.49,-26903.7
2.34115e+08,55.7748,1,2.51803,-749.7,7017.19,-19362.3
2.34393e+08,28.2308,0,2.47435,2537.51,-4467.52,-25711.2
2.34477e+08,18.7408,2,2.64427,-1373.21,-1422.41,-25371.5
2.34493e+08,24.5517,1,2.89296,-3937.45,2875.36,-26953.2
2.3459e+08,32.8691,0,3.01522,1893.53,-3877.06,-23441.1
2.34614e+08,54.8897,2,2.61093,6941.59,-4141.38,-20536.8
2.34927e+08,193.186,0,2.70267,1692.03,16717.3,8224.82
2.34951e+08,28.4971,2,2.9088,-4592.76,1547.95,-25275.3
2.35034e+08,203.092,0,2.78254,-1966.99,3391.15,6943.43
2.35153e+08,21.4476,1,3.02407,-649.32,3669.43,-26214.4
2.3539e+08,108.173,2,2.6103,-6030.56,-2538.57,-6955.35
2.35664e+08,231.943,2,2.65991,-23404.6,-19985.3,9197.27
2.3581e+08,67.7052,0,2.59535,6487.89,-5828.65,-17472.9
2.3584e+08,204.691,1,2.74523,90.7834,-19155.8,9725.59
2.36323e+08,153.408,0,2.74308,3706.01,188.161,3158.5
2.36326e+08,33.1389,0,2.5875,1499.87,6827.48,-27930.2
2.36371e+08,2.65244,0,2.93903,300.816,-225.449,-28375.3
0,2.70629,0,2.77321,0,0,0
2.3695e+08,143.002,0,2.49276,13968.8,444.164,-2002.01
2.37099e+08,25.4391,2,2.78662,-2193.73,-1011.99,-24041.5
2.37101e+08,120.579,1,2.88011,-665.568,25404.3,-27837.2
2.37167e+08,37.8737,2,2.90073,-5291.13,-5719.08,-26788.1
2.37339e+08,8.8558,1,2.83077,1047.33,-637.096,-27494.6
0,8.72368,2,2.98403,0,0,0
0,8.66887,2,2.61645,0,0,0
0,8.69337,2,2.59429,0,0,0
2.37367e+08,22.2686,0,2.74436,-691.852,-4573.9,-29666.7
2.37383e+08,255.816,0,2.9238,14340.2,24872.5,-14835.5
2.37507e+08,15.5345,2,2.69243,2169.51,-2462.82,-29500.6
2.37841e+08,8.78494,0,2.72714,7.9171,-488.503,-27072.9
2.37994e+08,48.7889,2,2.64326,-1581.33,3815.23,-19465.1
2.38015e+08,5.83459,2,2.46827,-672.925,483.751,-27934.3
0,5.85312,2,2.40154,0,0,0
2.38136e+08,11.2231,2,2.46785,205.585,-670.318,-26568.4
2.38188e+08,10.5097,2,2.64988,-1676.19,-1443.95,-29564.8
2.38354e+08,39.117,1,2.64541,-3023.74,5410.8,-23306.1
2.38544e+08,1.18648,0,2.81876,341.383,25.1697,-28780.8
2.38593e+08,93.5793,1,2.58422,12016.6,12603.1,-19434.1
2.38634e+08,1.35812,0,2.439,247.417,54.0308,-28607.2
0,1.38745,0,2.93159,0,0,0
2.38653e+08,55.4933,2,2.47036,8041.84,-8208.34,-26314.4
2.38665e+08,71.9846,0,2.6666,3000.53,9162.38,-17095.2
2.39104e+08,53.0042,2,2.8273,1690.86,-6456.58,-19881.7
2.39527e+08,158.594,2,2.53628,2124.75,-28547.3,-11293.3
2.40762e+08,92.5191,0,2.75323,-5182.8,6551.3,-11262.3
2.40875e+08,115.646,1,2.46017,-2031.59,15702.3,-10146.7
2.40897e+08,17.6266,1,3.04032,-324.134,2546.72,-26129.4
2.40931e+08,195.071,1,2.73879,28893.6,5823.04,-6763.33
2.41333e+08,23.5895,1,2.65568,-3247.43,3186.72,-26672.7
2.41454e+08,2.51679,1,2.62323,-105.404,306.714,-28367.7
2.41735e+08,90.9501,2,2.86246,-3896.79,-6236.24,-11188.3
2.4186e+08,113.412,2,2.87321,944.968,-15264.1,-10542.1
2.42024e+08,108.638,2,2.65327,-6982.6,-15218.5,-13111.1
2.42075e+08,117.285,0,2.62501,13073.7,-16527.6,-15800.4
2.42101e+08,127.617,1,2.88091,-23015.3,8572.81,-17989.8
2.42165e+08,162.468,0,2.47661,-10574.3,-3547.28,3115.26
2.4232e+08,128.117,1,2.70947,-7823.87,1949.19,-27848.7
2.42802e+08,116.606,1,3.0491,-15199.4,1856.22,-9802.11
2.4286e+08,121.78,0,3.04208,18982.1,15855.5,-22422.9
2.43123e+08,69.5622,1,2.51524,-10315.6,7131.11,-21040
2.43131e+08,10.5389,2,2.98085,801.455,-1690.92,-27588.4
2.43244e+08,101.678,1,2.40529,-12079.2,-6029.14,-12083.8
2.43277e+08,51.2189,1,2.69956,-1758.57,-7390.95,-21254.3
2.4334e+08,46.2835,1,2.9042,2811.78,8136.29,-24237.3
2.43356e+08,96.3131,1,2.58324,-49.5064,10584.8,-11446.8
2.43478e+08,93.5054,0,2.82234,-15917,-3192.02,-17864.1
2.43504e+08,10.5764,2,2.94173,-373.483,-1943.37,-27716.1
2.43543e+08,55.3962,2,2.70356,-3697.3,6380.51,-19847.7
2.43654e+08,102.994,0,2.37712,-18971,-1380.59,-18339
2.43974e+08,47.6687,1,2.54187,1443.16,5980.84,-20830.2
2.44303e+08,96.622,0,2.53976,17987.5,-4674.1,-20173.1
2.4446e+08,77.6227,1,2.54172,13326.8,7345.37,-22662.2
2.44561e+08,55.7682,1,3.00045,11524.5,1768.73,-28248.1
2.44642e+08,90.322,1,2.93479,1770.95,6297.87,-17493.1
2.44653e+08,479.926,1,3.00302,-17465.6,9773.88,-14075.6
2.45007e+08,8.69322,2,2.48375,-1835.53,-593.655,-28826.7
2.45143e+08,30.4613,2,3.02594,-5308.24,-2533.46,-26201.1
2.45328e+08,65.5572,0,2.45547,7435.02,-3363.05,-17603.7
2.45563e+08,27.5268,1,2.37049,-3989.95,4121.85,-27330.3
2.45612e+08,66.8946,1,2.47892,-9622.27,-3031.14,-18920.5
2.4599e+08,42.3858,1,3.02201,4391.19,2497.21,-21540.7
2.46632e+08,99.3024,2,2.73363,-13927.9,-5204.5,-14084.5
2.47016e+08,118.802,1,2.98447,-10483,-8971.52,-8110.53
2.4737e+08,8.51567,2,2.37134,1091.94,-1251.73,-29695
2.47812e+08,41.1364,2,2.74896,-4079.74,-5176.55,-23124
2.47847e+08,249.573,1,2.54158,-24426.6,28181.1,8508.16
2.48035e+08,106.288,1,2.93165,-6464.67,12320.2,-11349.5
2.48068e+08,15.7652,2,2.44211,383.864,1627.42,-25995.4
2.48111e+08,110.509,1,2.85456,18307.6,3994.62,-15183.5
2.48244e+08,106.971,2,2.98505,-6565.61,2464.92,-7543.09
2.48441e+08,111.261,2,2.86421,-7140.87,13819.5,-11451.8
2.48518e+08,221.458,1,2.80819,19483.5,18970.2,8959.48
2.48532e+08,4.15942,0,2.77066,895.886,-37.1565,-29273.7
2.48604e+08,104.03,2,2.84272,9381.75,9618.24,-11647.6
2.49643e+08,44.6762,0,2.98469,-3929.56,-7038.28,-24098.5
2.49682e+08,147.131,2,2.80097,16751,-8892.35,-4417.71
