#class tools::wcsv::ntuple
#title time
#separator 44
#vector_separator 59
#column double eventID
#column double t(ns)
#column double copynumber
#column double energy(eV)
123756,53.8481,2,2.56169
151306,123.854,2,2.58957
194800,66.3964,1,2.61382
321409,153.217,1,2.82766
373382,102.892,2,2.77794
395798,59.7416,0,2.69639
406217,167.212,0,2.83407
429175,55.791,1,2.8341
584344,89.2919,1,2.74067
628994,45.0465,1,2.80033
630999,65.9833,2,3.04733
639833,138.289,0,2.55949
673959,96.883,2,2.96998
758866,2.63033,0,2.65124
896567,14.261,2,2.91159
947980,4.92069,1,2.80046
0,5.34188,0,2.37565
958430,89.706,0,2.48398
981451,2.65217,2,3.04348
1.07835e+06,38.3437,1,2.64189
1.46714e+06,106.035,0,2.61697
1.4721e+06,106.782,0,2.78697
1.50465e+06,46.5491,1,2.76446
1.51258e+06,29.4502,2,2.90594
1.61265e+06,18.5549,2,2.82308
1.61412e+06,99.4538,2,2.4164
1.64654e+06,10.6647,1,2.69932
0,10.779,1,2.58239
1.8426e+06,15.2978,1,2.71437
1.90728e+06,6.49731,0,2.7999
1.95922e+06,120.576,2,2.69119
2.03311e+06,73.4836,2,3.0119
2.17557e+06,86.526,0,2.57306
2.17645e+06,18.7442,1,2.59852
2.17665e+06,60.3424,1,2.86468
2.17998e+06,176.097,2,2.75654
2.22386e+06,148.177,1,2.70597
2.31969e+06,83.7297,1,2.66031
2.49841e+06,98.6927,1,2.67492
2.50972e+06,73.0782,1,2.8927
2.52682e+06,45.0656,2,2.54235
2.58303e+06,36.7439,2,2.64066
2.67088e+06,84.8702,1,2.97822
2.67476e+06,28.4116,2,2.43349
2.91193e+06,36.3383,0,2.65327
2.95401e+06,152.068,1,2.91842
3.08911e+06,214.643,1,2.58581
3.23041e+06,15.5484,2,2.72898
3.27107e+06,61.0135,1,2.49682
3.28874e+06,62.524,0,2.85094
3.3211e+06,183.65,0,2.47193
3.45124e+06,33.679,2,2.97316
3.74087e+06,21.8243,1,2.75049
0,21.8469,1,2.76862
3.79819e+06,95.4481,1,2.64486
3.83194e+06,125.248,0,2.55851
4.09459e+06,156.725,0,2.48359
4.10835e+06,40.515,0,2.37459
4.11322e+06,29.7582,2,2.94607
0,29.7374,2,2.9199
4.6358e+06,36.8504,2,2.41567
4.64234e+06,58.4303,1,2.47403
4.66425e+06,155.76,2,2.4511
4.75697e+06,71.2324,0,2.65564
4.94425e+06,11.2834,1,2.99817
0,11.1976,1,2.77634
5.07078e+06,62.66,1,2.92138
5.17378e+06,13.6539,2,2.6527
5.30799e+06,104.316,0,2.96396
5.43591e+06,73.2932,2,2.52668
5.50227e+06,54.8922,1,2.66529
5.51871e+06,84.3776,1,2.91424
5.61515e+06,132.972,0,2.93889
5.74682e+06,32.1571,1,2.98604
5.76244e+06,52.8679,2,2.70329
5.79552e+06,14.5405,2,2.67451
5.82792e+06,66.6963,2,3.00565
5.87120e+06,64.596,0,2.84215
5.98756e+06,34.9002,0,3.05467
6.0054e+06,99.5436,0,2.95481
6.03542e+06,34.6236,2,2.49346
6.23703e+06,97.4571,1,2.68904
6.28382e+06,124.802,2,2.4708
6.39212e+06,146.36,0,2.4717
6.53518e+06,61.3782,0,2.58984
6.84023e+06,115.877,2,2.67811
6.90194e+06,50.634,1,2.38198
7.0645e+06,29.6864,1,2.62235
7.21467e+06,44.315,2,2.74936
7.21506e+06,39.2778,1,2.49311
7.83874e+06,43.1062,1,2.4163
7.93804e+06,79.7842,0,2.8086
8.23946e+06,46.0788,1,2.75631
8.3241e+06,4.15216,2,2.73884
8.34056e+06,7.34134,1,2.37329
8.48371e+06,13.5084,0,2.54848
8.51435e+06,21.8384,1,2.74465
8.71973e+06,10.9894,0,2.59789
8.7227e+06,18.368,1,2.79992
8.74696e+06,72.7571,0,2.46438
8.78802e+06,75.7638,1,3.04821
8.86683e+06,135.193,2,2.98401
8.88413e+06,120.115,1,2.46664
9.01817e+06,87.0396,0,3.03072
9.10928e+06,16.8701,0,2.62069
9.13421e+06,36.8443,0,2.61227
9.41897e+06,51.5422,2,2.88695
9.43144e+06,36.2462,2,2.48135
9.45885e+06,100.055,0,2.72867
9.48417e+06,19.854,2,2.8943
9.62147e+06,39.1536,0,2.99869
9.82724e+06,70.7131,0,2.95865
9.99946e+06,21.5996,1,2.36881
1.01163e+07,50.5356,1,2.97503
1.01483e+07,104.936,0,2.84647
1.01769e+07,289.681,2,2.91043
1.02523e+07,96.4956,1,2.72937
1.05079e+07,163.66,1,2.89443
1.07442e+07,285.613,2,2.97705
1.0995e+07,110.916,1,2.43794
1.10125e+07,157.621,1,2.58201
1.10543e+07,108.65,1,2.67779
1.10543e+07,47.1177,1,2.97802
1.10961e+07,264.582,1,2.89163
1.11607e+07,189.002,1,2.6633
1.11999e+07,51.2475,1,2.6002
1.12158e+07,99.7177,1,3.00961
1.13456e+07,1.58549,0,2.43193
0,1.5861,0,2.39561
1.15335e+07,137.411,1,2.99125
1.16443e+07,8.77713,0,2.86675
1.16973e+07,24.9946,1,2.90529
1.17391e+07,16.036,0,2.908
1.17562e+07,135.294,1,2.88583
1.17787e+07,124.318,2,2.86382
1.17857e+07,170.473,2,2.46675
1.18212e+07,9.30046,0,2.37832
1.2026e+07,15.2259,1,2.39036
1.20843e+07,6.64854,0,2.52586
1.21701e+07,1.8691,2,2.51622
1.23722e+07,177.336,1,2.74424
1.23837e+07,42.6704,0,2.54729
1.24568e+07,79.0001,1,2.48106
1.2517e+07,108.2,0,2.57918
1.25221e+07,144.392,1,2.82984
1.25762e+07,59.0497,2,2.50864
1.27832e+07,55.431,2,2.72037
1.28112e+07,27.3032,1,2.82404
1.2889e+07,2.21096,2,3.02894
0,2.31769,2,2.91926
1.29168e+07,53.2115,2,2.86601
1.31101e+07,164.629,1,2.45597
1.3274e+07,22.6685,2,2.63557
1.32957e+07,91.4849,0,2.65008
1.342e+07,92.8884,1,2.48578
1.36153e+07,78.4157,0,2.77947
1.36304e+07,101.928,2,2.67537
1.37874e+07,2.12984,1,2.71098
1.3989e+07,135.537,2,2.58228
1.39903e+07,88.8445,1,2.6577
1.41486e+07,77.5857,0,2.82341
1.41539e+07,46.7597,1,3.04239
1.4235e+07,209.688,0,2.71884
1.43423e+07,90.7464,1,2.83096
1.44876e+07,42.0454,2,2.86155
1.4567e+07,143.799,0,2.73802
1.46261e+07,9.91963,1,2.71589
1.47975e+07,88.8366,0,2.89836
1.48433e+07,88.9867,1,2.38016
1.48745e+07,35.0483,2,2.78222
1.50906e+07,29.2693,2,2.87774
1.52167e+07,24.777,0,2.76283
1.52452e+07,68.4869,2,2.64548
1.53069e+07,177.011,0,2.58602
1.53481e+07,139.008,2,2.77258
1.54847e+07,61.2485,0,2.66874
1.55364e+07,7.14446,1,3.03952
1.55754e+07,28.5594,2,2.81045
1.57545e+07,51.3597,1,2.96634
1.58169e+07,136.377,0,2.67034
1.5961e+07,43.1611,2,2.48889
1.59784e+07,165.874,1,2.82011
1.6197e+07,39.6071,1,2.6528
1.62267e+07,86.1761,2,2.74623
1.62582e+07,16.3372,2,2.64867
1.62599e+07,244.787,0,2.37267
1.64513e+07,35.5068,1,2.62297
1.65229e+07,59.2811,1,2.38168
1.6704e+07,65.5086,2,2.45935
1.68623e+07,72.321,1,2.64829
1.70184e+07,13.5706,2,2.52085
1.70276e+07,199.504,2,2.56768
1.70501e+07,102.311,2,3.0168
1.70998e+07,204.802,1,2.75584
1.71114e+07,18.5941,1,2.84108
1.73419e+07,58.0812,2,2.86277
1.7372e+07,33.7501,0,2.72593
1.74047e+07,3.65232,2,2.57354
1.75448e+07,7.95452,0,2.91521
1.76219e+07,16.1718,1,2.53479
1.76415e+07,4.55268,2,2.93311
1.76681e+07,137.888,2,2.64636
1.77523e+07,145.251,0,2.77481
1.78267e+07,34.6855,2,2.511
1.7839e+07,192.555,1,3.03239
1.78599e+07,71.7922,1,2.55423
1.79557e+07,75.7527,2,2.72068
1.7971e+07,84.6025,2,2.57873
1.79813e+07,20.1574,0,2.55001
1.81619e+07,59.2774,0,2.51195
1.81903e+07,69.0065,0,2.45892
1.82232e+07,190.35,1,2.86602
1.82423e+07,19.2469,0,2.9996
1.82867e+07,11.5686,0,2.89184
1.83642e+07,157.629,2,2.74625
1.83759e+07,27.9813,1,2.75061
1.84056e+07,58.2397,1,2.86152
1.84399e+07,21.2122,0,2.95987
1.84611e+07,76.1108,2,2.49074
1.84693e+07,123.869,1,2.84103
1.85113e+07,35.7745,2,2.84059
1.85719e+07,44.1661,0,2.56096
1.86103e+07,92.7659,0,2.49808
1.86217e+07,4.65071,0,2.50544
1.86324e+07,104.199,1,2.48359
1.8793e+07,117.021,0,2.44456
1.91303e+07,36.8793,2,2.64741
1.91459e+07,25.9448,2,2.39662
1.92196e+07,82.7331,2,2.96729
1.92248e+07,143.636,2,3.05703
1.94326e+07,136.85,2,2.79103
1.949e+07,87.7733,0,2.92956
1.95227e+07,64.9913,2,2.68305
1.95985e+07,161.337,0,2.56495
1.96527e+07,304.168,0,2.50018
1.99502e+07,72.0162,0,2.60725
2.00225e+07,66.3682,2,2.84132
2.00303e+07,70.8789,2,2.37359
2.01277e+07,33.9726,0,2.84035
2.02479e+07,23.4265,2,2.52028
2.03361e+07,68.2686,2,2.53241
2.06475e+07,16.536,0,3.05607
2.06547e+07,37.6373,2,2.95005
2.06567e+07,10.3086,2,3.01919
0,10.1777,2,2.47361
2.09665e+07,1.71391,2,2.40232
0,1.74262,2,2.73015
0,1.83343,2,2.75924
0,1.72809,2,2.82006
0,1.71213,2,2.84971
2.09903e+07,80.6844,1,2.57986
2.10757e+07,156.289,1,2.81834
2.11067e+07,245.887,1,2.46911
2.11483e+07,60.39,1,2.91826
2.12018e+07,41.9266,1,2.74574
2.13353e+07,157.814,1,2.85038
2.13436e+07,40.0816,1,3.01298
2.13732e+07,124.226,1,3.02228
2.14294e+07,30.3015,2,2.62545
2.14884e+07,302.305,2,2.8387
2.15696e+07,3.97885,1,2.37124
2.15918e+07,92.9381,2,2.84596
2.1853e+07,13.6634,2,2.96438
2.19772e+07,11.5056,1,2.46822
2.20316e+07,14.2796,0,2.89424
2.20689e+07,3.68806,1,2.70197
2.20814e+07,7.72778,1,2.50105
2.20968e+07,5.4546,2,2.41569
0,6.01298,0,2.7374
2.22608e+07,203.576,2,2.93904
2.24242e+07,4.33974,0,2.93339
2.24463e+07,103.382,0,2.43647
2.25804e+07,104.164,2,2.39375
2.29705e+07,98.7242,1,3.05151
2.3012e+07,29.4189,0,2.54195
2.33361e+07,36.3566,2,2.76454
2.33736e+07,132.972,0,2.37222
2.339e+07,18.5904,0,2.47368
2.33958e+07,25.6882,1,2.49402
2.34548e+07,64.6074,1,2.89048
2.34974e+07,92.4817,1,2.3639
2.36168e+07,98.1552,1,2.72699
2.36567e+07,189.826,2,2.7089
2.37281e+07,26.856,2,2.9434
2.38188e+07,111.288,1,2.80427
2.38885e+07,185.106,0,2.9053
2.3984e+07,107.212,0,3.0479
2.39897e+07,89.913,1,2.56459
2.42846e+07,167.262,0,2.85691
2.43456e+07,153.612,0,2.78406
2.43631e+07,25.7029,0,3.05914
2.44361e+07,12.175,2,2.45014
2.45513e+07,29.1067,2,2.79334
2.45535e+07,178.946,0,2.41018
2.46941e+07,34.2724,1,2.89429
2.47405e+07,15.0187,2,2.97205
2.47573e+07,120.175,1,2.59064
2.49121e+07,18.961,2,2.75845
2.49185e+07,147.681,2,2.67909
2.49529e+07,5.78061,1,2.50973
2.49547e+07,18.6923,0,2.89491
2.50464e+07,6.1673,1,2.50527
2.5106e+07,35.0957,0,2.458
2.53054e+07,107.641,1,2.49632
2.54356e+07,133.183,1,2.81231
2.55209e+07,8.74226,0,2.42702
2.55696e+07,54.2714,2,2.90758
2.57575e+07,143.649,2,2.67527
2.58522e+07,75.1007,0,2.73851
2.58825e+07,53.8388,0,2.6567
2.58957e+07,110.443,1,2.59781
2.60127e+07,66.8212,2,2.4848
2.60283e+07,126.655,2,2.9788
2.60993e+07,47.284,2,2.43172
2.61833e+07,73.3765,2,2.42402
2.62994e+07,23.5538,2,2.40314
2.64032e+07,55.7866,2,2.90512
2.67053e+07,74.4545,0,2.80989
2.71657e+07,2.3315,1,2.63895
0,2.32353,1,2.62522
0,2.36442,1,2.9329
2.72108e+07,73.4618,1,2.85611
2.73185e+07,85.7512,0,2.38761
2.74486e+07,18.2409,2,2.62078
2.76209e+07,10.8299,0,2.38801
2.7646e+07,102.137,2,2.99839
2.7728e+07,4.73942,1,2.70306
2.78062e+07,74.209,1,2.50085
2.78229e+07,6.71319,2,2.64974
2.78474e+07,62.4839,2,2.88489
2.79732e+07,3.17222,0,2.8961
0,3.00516,1,2.47353
2.81461e+07,72.299,0,2.96438
2.81835e+07,159.745,1,2.67373
2.8222e+07,95.389,2,2.73885
2.82330e+07,134.785,0,2.55343
2.83247e+07,30.4129,0,3.00223
2.83488e+07,73.5365,1,2.45356
2.83513e+07,31.0779,2,2.48597
2.83536e+07,31.8466,1,2.94334
2.84034e+07,58.3965,2,3.05361
2.84466e+07,50.0438,2,2.41081
2.85129e+07,14.7163,0,2.46586
2.88001e+07,103.522,2,2.72701
2.89747e+07,32.2404,2,2.70803
2.89802e+07,22.242,0,2.81791
2.9043e+07,5.84082,2,2.71134
2.90485e+07,8.42749,0,2.68595
2.939e+07,72.4072,2,2.62714
2.94354e+07,143.181,1,2.76207
2.95292e+07,51.2291,0,2.62693
2.95327e+07,7.59963,0,3.05081
2.95941e+07,163.803,0,2.75999
2.96094e+07,88.5387,2,2.97102
2.97764e+07,100.728,0,2.48537
2.98435e+07,43.0393,0,2.8437
2.98969e+07,74.2473,0,2.9629
