#class tools::wcsv::ntuple
#title time
#separator 44
#vector_separator 59
#column double eventID
#column double t(ns)
#column double copynumber
#column double energy(eV)
#column double x(mm)
#column double y(mm)
#column double z(mm)
24517,26.2583,2,2.7924,-5543.19,54.9939,-28026.5
126962,28.0812,2,2.85754,1497.8,5351.96,-27047.6
257596,5.40226,0,2.54717,509.704,1062.13,-28749.6
387429,147.454,1,2.97145,13601.7,-15823.7,-6191.25
583551,147.056,2,2.69088,21962,-10452.2,-12436.3
621139,174.511,1,2.78138,-21798.2,16228.6,-4020.41
643390,7.88984,0,2.92659,1583.77,-610.539,-29375
685691,38.8816,2,2.94074,-6354.33,-5203.65,-28951.9
883083,56.3725,0,2.63235,7398.05,1707.09,-19628.3
1.06432e+06,1.37765,0,3.05603,-91.219,-74.792,-28594.6
0,1.31561,0,3.00817,0,0,0
1.1401e+06,52.323,1,2.55225,-99.6164,-7083.14,-20445.9
1.14962e+06,7.51313,2,2.63745,-716.436,146.818,-27485.9
1.35097e+06,99.4806,1,2.45792,15438.7,-10725.5,-20043.9
1.66438e+06,148.69,0,2.93652,28681.6,7.20419,-16210.7
1.73801e+06,149.555,1,2.64779,18727.3,17365.1,-10255.4
1.76315e+06,139.055,1,2.36479,14493,-15588.3,-8607.58
1.85553e+06,26.2374,2,3.01626,4262.74,-384.271,-25350.5
1.87741e+06,111.329,0,2.73406,7042.01,15380.1,-12396
1.92298e+06,27.0424,0,2.98223,3645.2,2916.13,-25510.1
1.98029e+06,3.02577,0,2.76438,320.538,459.81,-28409.9
2.03836e+06,40.091,2,2.72657,8510.01,62.8547,-29249.9
2.06356e+06,21.9686,0,2.41955,-2491.73,-2142.55,-25684.4
2.06405e+06,28.8406,1,2.54409,-3503.95,1202.11,-23834.4
2.20852e+06,18.439,2,2.4203,-3503.91,1573.16,-29618
2.25385e+06,63.7861,0,2.81226,-8060.87,-10680.4,-27346.5
2.26583e+06,34.5188,2,2.55728,-888.695,2966.95,-22331
2.30663e+06,1.69308,1,2.66452,19.0256,436.413,-28636.1
2.34603e+06,130.497,0,3.01316,-1816.4,-15647.5,-6482.19
2.57146e+06,101.739,2,2.57698,-601.459,19428.6,-19996.6
2.61741e+06,44.1873,2,2.68756,-7500.75,-4527.02,-25362.9
0,44.4525,2,3.0411,0,0,0
2.62595e+06,121.816,2,2.61931,13974,-18157.1,-16942.5
2.68068e+06,298.868,0,2.91396,-1072.49,-12926.7,15379.3
2.73884e+06,65.5279,0,2.86124,12954.8,-4231.9,-26675.9
2.83443e+06,71.153,0,2.39002,11684.5,7987.91,-23473.7
2.86416e+06,258.284,2,2.68297,10633.4,-93.8086,-21337.8
2.93312e+06,33.8485,0,2.39451,-6817.6,-597.404,-26801
3.08473e+06,35.2792,2,2.42305,3285.95,5257.25,-24804
3.13162e+06,27.9079,2,2.53167,5385.89,1635.28,-27311.4
3.22016e+06,71.961,0,2.67832,14819,-833.655,-24702.1
3.30228e+06,139.571,1,2.77488,19480.2,3792.52,-7099.16
3.33472e+06,89.6487,0,2.83754,18089.5,-5391.71,-28164.6
3.35877e+06,87.715,1,3.0493,-13484.1,-2698.08,-16600
3.42679e+06,10.4294,2,2.83478,1088.73,1829.97,-28639.8
3.4593e+06,75.3947,1,2.70199,-13484,-8434.2,-28856.3
3.46234e+06,31.9673,1,2.46146,-5780.06,1453.68,-25687.5
3.6447e+06,247.902,2,2.7095,-19622.6,-4319.37,19321.8
3.66227e+06,112.584,0,2.76365,19296.9,6588.84,-17597.8
3.7413e+06,72.9381,1,2.72259,-10486.5,-3066.98,-27604.5
3.77196e+06,112.997,2,2.60998,-11543.1,-19574.8,-21163.5
3.90926e+06,118.633,1,2.39087,-13641.5,1149.77,-7718.4
4.01615e+06,47.472,1,3.02467,7941.69,5113.31,-25712.3
4.12536e+06,102.211,0,2.36585,14812.8,-13516.3,-20455.2
4.14462e+06,62.0683,0,2.95629,7563.12,-10519.9,-26610.8
4.20711e+06,21.5744,0,2.96632,3254.65,-2413.22,-26802.1
4.23792e+06,60.2323,2,2.80283,-5962.9,-10771,-25261.8
4.65354e+06,87.2786,2,2.64221,-10013.9,13097.2,-22606.3
4.72231e+06,15.2269,0,2.82997,149.871,-3046.62,-27851.4
4.74502e+06,92.5621,2,2.98694,-8329.55,-17630.9,-29100.1
4.74891e+06,6.64824,1,2.88497,-369.853,569.984,-27528.8
4.95659e+06,46.3499,2,2.95892,-8493.22,-4091.06,-26430.9
5.18438e+06,79.3768,2,2.55537,-10334.5,-11965.3,-24476.2
5.23575e+06,19.9369,0,2.66417,1826.14,1931.72,-25470.1
5.42877e+06,8.16303,0,2.87027,1172.43,-849.675,-29984.2
5.45331e+06,150.478,2,2.91335,9698.21,-12808.2,-1586.57
5.51585e+06,133.26,1,2.456,1125.89,-21631,-10796.1
5.69174e+06,51.1544,0,2.77694,8243.81,-5157.9,-25908.2
5.78109e+06,107.812,2,2.48132,-12485.5,-5580.74,-10540
5.80198e+06,15.4583,0,2.8699,2250.14,1773.03,-27352.2
5.85048e+06,201.379,1,2.80276,-25107.2,22308.8,-3152.76
6.07791e+06,62.019,1,2.68955,-9002.82,3712.98,-20120.9
6.07855e+06,87.9597,1,2.71982,-3470.72,-15747.1,-19779.1
6.18762e+06,154.24,1,2.39798,-22035.1,24137.7,-27817.2
6.27085e+06,29.7845,0,2.96871,5101.08,-1712.29,-25505
6.53421e+06,20.7471,2,2.78904,-1313.13,-3850.75,-27002.1
0,20.6149,2,2.70479,0,0,0
6.53764e+06,47.7859,2,3.04933,-9962.22,867.18,-27569.9
6.54139e+06,19.1835,2,3.01954,-3433.04,356.389,-26610.5
6.70265e+06,89.6559,0,2.58927,14570.1,11619.8,-26851.3
6.72214e+06,77.556,1,2.49157,9693.46,-4055.28,-16386.1
6.90579e+06,100.349,1,2.74981,3370.38,36.502,-22956.6
7.03796e+06,137.047,1,2.92044,-27735.9,417.403,-20082
7.22897e+06,114.602,0,2.87691,17497.6,-11145.1,-16355.4
7.25136e+06,44.888,2,2.44293,-7642.29,1419.12,-23307.5
7.58291e+06,76.608,1,2.50903,11756.5,4519.28,-21096.2
7.5891e+06,113.287,0,2.93976,20103.6,1664.83,-16076.9
7.60212e+06,8.55091,0,2.71552,522.814,-1681.12,-28925.5
7.65091e+06,58.9556,1,2.97684,-10977,1969.69,-23261.7
7.67818e+06,77.8002,0,3.05774,12736.6,-3353.48,-19028.9
7.82036e+06,232.653,2,2.74832,-108.62,-306.485,-28949.3
7.84559e+06,7.6339,2,2.98118,650.368,121.994,-27390.5
8.13968e+06,7.60712,1,2.47628,-1219.94,580.768,-27775
8.40571e+06,17.3788,2,2.51201,-3576.06,890.84,-28299.8
8.57908e+06,51.8737,1,2.84011,-6340.36,7741.51,-25012.6
8.67723e+06,34.8883,2,2.70016,1325.7,-2442.52,-26220
8.68757e+06,18.9476,2,2.82056,444.239,-2742.67,-25845.5
8.88151e+06,34.5705,1,2.57342,-4540.89,5026.7,-25914.7
8.90052e+06,59.355,2,2.56293,119.071,-7564.94,-18882.1
8.97582e+06,102.079,0,2.544,9703.29,14267.9,-15686.7
8.99024e+06,130.321,0,2.55243,5170.28,9527.88,-4011.27
9.11744e+06,49.7653,1,2.77971,-3591.49,-6284.25,-22423.3
9.20883e+06,160.561,2,2.90113,795.741,-28387.9,-10860.9
9.36399e+06,45.9397,0,2.57758,9735.66,-1254.02,-29340.6
9.3855e+06,2.47637,1,2.38805,-366.617,3.62557,-28418.6
9.38928e+06,5.4582,0,2.38647,1130.18,-461.721,-29005.2
9.40875e+06,19.4263,0,2.50046,2124.89,1205.66,-25493.5
9.47489e+06,17.6792,2,2.37982,-3104.31,-1181.22,-26918.7
0,18.0182,1,2.97432,0,0,0
9.50005e+06,74.6081,0,2.67716,-4149.8,-6902.66,-15266.2
9.50036e+06,42.0106,2,2.83224,-2074.25,4584.37,-21636.9
9.50921e+06,141.78,2,2.80572,-15905.1,-13472.3,-7463.08
9.67669e+06,32.2214,1,2.63284,-3651.24,4272.25,-24762.6
9.71416e+06,37.0609,1,2.80274,5461.77,4160.26,-25200.6
9.77633e+06,2.96761,1,2.48988,-64.9852,101.985,-28284.6
9.79841e+06,81.2735,0,2.98076,8749.48,12261.6,-20600.5
9.79882e+06,130.924,0,2.95738,8467.54,1824.12,-13058
9.80367e+06,50.002,2,2.96135,-219.037,3634.08,-24308.9
1.00805e+07,53.3921,2,3.05916,3571.93,-2424.4,-18512.7
1.00988e+07,156.34,2,2.50686,-17086.1,18083.2,-7316.23
1.01938e+07,26.5413,0,2.94468,4992,2580.93,-27973.9
1.02899e+07,108.862,0,2.86088,6771.96,7346.47,-9286.32
1.03683e+07,50.6935,0,2.90821,974.094,8062.8,-21834
1.04028e+07,11.1995,1,2.71862,1095.12,-1975.16,-28232.1
1.05097e+07,101.624,2,3.01716,12703.6,-9656.06,-14808.6
1.06339e+07,26.3023,2,2.63885,2798.43,-733.605,-24004.7
1.06887e+07,14.9622,1,2.48929,-2099.66,2418.38,-29660.3
1.09003e+07,3.34897,0,3.2182,299.2,143.736,-28193.1
1.09251e+07,92.9228,1,3.04731,7510.78,3377.87,-11226.4
1.10105e+07,14.3099,1,2.63193,611.236,2608.76,-27220
1.11422e+07,36.5636,1,2.88912,-4333.36,4252.72,-23983.7
1.13246e+07,8.24475,0,3.0013,1621.79,893.506,-28847.9
1.13334e+07,157.06,0,2.60866,-15951.1,-15410.2,-4284.55
1.13508e+07,58.2538,0,2.45405,-2839.98,-9670.81,-21715.5
1.14091e+07,16.5866,0,3.02002,3289.07,-1347.72,-28249.5
1.14411e+07,34.7871,0,2.39352,6059.91,3899.93,-27688.3
1.14517e+07,180.897,2,2.63432,18913.2,-3647.09,4142.31
1.14729e+07,28.5114,1,2.9694,490.805,3568.02,-24107.3
1.14954e+07,43.6041,1,2.8116,-1309.47,7728.04,-23966.8
1.1851e+07,2.90653,0,3.02344,449.505,-289.725,-28453
1.18814e+07,32.4956,0,2.87168,-3235.48,-459.378,-22909.3
1.2101e+07,205.685,0,2.64407,18304.1,28604.2,-1693.62
1.21183e+07,116.626,2,2.59778,21256.6,-1492.23,-16477.6
1.23156e+07,99.1584,0,3.05184,20466.9,-4346.2,-28769.4
1.25045e+07,76.3147,2,2.80449,-6139.72,-3477.09,-29141.9
1.25608e+07,80.1343,1,2.49375,-85.399,280.54,-28321.1
1.25628e+07,138.377,1,3.03654,-23316.6,3524.99,-11875.6
1.27012e+07,40.7576,1,2.55657,185.002,236.493,-28041.9
1.27591e+07,142.037,1,2.737,-24446,4443.01,-11844.5
1.27747e+07,6.76677,1,2.66289,1083.63,502.775,-28137.5
1.27843e+07,44.7547,0,2.81117,3844.15,736.921,-20160.9
1.28502e+07,54.4365,1,2.46237,1777.08,9329.91,-22661.3
1.30968e+07,101.69,1,2.77864,-10403.5,-6654.92,-11205.7
1.34575e+07,59.5236,1,2.62148,11959.9,-1357.44,-25318.3
1.36041e+07,93.4368,0,3.0083,14371.7,4387.81,-16171.6
1.38046e+07,56.0988,1,2.76463,-4675.34,-9224.18,-23099.3
1.38868e+07,166.804,0,2.73213,23514.7,26257.9,-29536.5
1.39375e+07,26.161,0,2.78211,2374.57,4941.67,-27834.4
1.42476e+07,42.7404,1,2.84307,-8530.65,622.333,-26054.1
1.43033e+07,27.5132,2,2.79289,-998.105,-5636.69,-27545.5
1.4304e+07,22.3659,2,2.40735,-2881.21,-2168.08,-25643.4
1.4341e+07,36.4951,2,3.05949,-4624.97,2726.24,-23353.7
1.43996e+07,152.142,2,3.03612,11537.5,-27399.4,-17230
1.4461e+07,242.36,0,2.83034,-15378,-18157.2,-3507.16
1.4683e+07,86.5719,0,2.92782,-10695.2,-4564.05,-14909.4
1.47254e+07,93.881,2,2.77908,2699.71,11667.8,-13292.4
1.47414e+07,60.4997,2,2.8172,-507.851,-12568.4,-27788.8
1.47637e+07,96.2695,1,2.976,6423.46,4372.7,-10138.1
1.48235e+07,128.008,2,2.44857,-13639.8,-23379.8,-26088.4
1.48667e+07,61.9425,2,3.04722,-7013.98,-6971.35,-20350.9
1.49279e+07,2.19714,2,2.76737,-244.221,-244.686,-28454.2
0,2.18385,2,2.57853,0,0,0
0,2.16432,2,2.49224,0,0,0
1.49888e+07,25.9423,0,2.59653,-344.714,-3705.91,-24839.4
1.50271e+07,17.4636,0,2.52163,3406.03,21.4607,-27202
1.5033e+07,95.7634,0,2.46534,10456.2,-4700.65,-12085.2
1.50683e+07,60.7523,2,2.74835,-8079.2,6004.01,-21070.5
1.51799e+07,135.403,1,2.44051,4266.13,27625.3,-22316.8
1.52443e+07,36.5526,0,2.79005,7744.68,-29.4612,-27779
1.5339e+07,27.508,0,2.95097,2630.29,-1027.07,-23901
1.53462e+07,129.998,2,2.81685,-16074.9,-14227.1,-14599.7
1.55031e+07,88.2151,0,2.59167,9345.87,3373.8,-13039
1.55342e+07,61.5918,0,2.67112,8988.63,-3818.8,-20317.9
1.57004e+07,78.032,1,2.89024,-12457.7,-2042.08,-18297.4
1.57438e+07,126.813,0,2.61036,22234.6,-822.575,-13837.1
1.58666e+07,46.3588,0,3.0219,1326.13,4171.33,-19950.6
1.5971e+07,56.6199,1,2.8764,-7932.09,4437.88,-22765
1.60278e+07,11.2653,2,2.607,-2217.53,-508.806,-29807.9
1.60827e+07,39.8185,1,2.84474,-1826.78,7363.63,-25577.9
1.61519e+07,235.436,2,2.44352,18005.2,-14223.8,15325.3
1.62881e+07,37.4725,2,2.37683,2028.25,-4720.55,-22628.4
1.63e+07,181.993,2,2.70659,3352.8,28366.6,-3438.17
1.63087e+07,198.636,2,2.97008,-27843.4,6630.08,332.026
1.63572e+07,7.24129,1,2.52877,635.732,793.414,-29942.2
1.63902e+07,140.675,2,2.80976,-18328.4,-1841.93,-5693.56
1.65598e+07,81.3692,0,2.77614,8627.2,-271.431,-14029.7
1.66334e+07,16.2234,1,3.05157,-2057.49,-1404.27,-26448.1
1.6732e+07,13.1437,2,3.03703,-1725.54,-2254.88,-29288.3
1.68567e+07,17.4805,0,2.65409,3039.99,-1836.05,-27494.5
1.68883e+07,65.0466,1,2.77584,10024.2,8437.96,-24764.7
1.68922e+07,80.7367,0,2.58294,4777.08,10605.5,-16327.6
1.69959e+07,2.72556,0,2.9837,468.826,21.5633,-28491.6
1.70073e+07,110.31,0,2.57268,114.58,17997.9,-14010.1
1.70421e+07,89.3959,0,2.57157,16220.5,-8426.4,-25080
1.72809e+07,6.36151,0,2.72362,319.592,-263.737,-27805.9
1.73319e+07,24.3059,2,2.96676,1873.97,4314.21,-26976.1
0,24.2527,2,2.79411,0,0,0
1.73457e+07,6.11172,0,2.71345,854.754,-904.424,-28277
1.74344e+07,15.9437,0,2.54351,2204.03,-2667.09,-28739.8
1.75121e+07,38.9832,2,2.40115,5379.69,-2363.19,-23008.9
1.754e+07,14.441,0,2.45952,2251.75,-470.476,-26703.7
1.7702e+07,134.634,1,2.63313,12774.3,-10134.1,-6756.59
1.80901e+07,1.8731,2,3.05159,-394.563,-88.7182,-28578.7
0,1.8708,2,2.71879,0,0,0
0,1.85678,2,2.81518,0,0,0
1.81027e+07,19.7357,2,2.91896,977.761,3851.26,-27536.4
1.81981e+07,137.897,2,2.78697,-5299.48,-27048.2,-19521.8
1.83276e+07,111.971,2,2.50602,-17940.5,9623.59,-16699.5
1.84439e+07,2.28953,2,2.99537,-213.807,-399.808,-28534.6
0,2.30855,2,2.87171,0,0,0
1.84667e+07,30.5592,2,2.88643,1976.45,4286.2,-24563.5
1.85135e+07,59.8017,2,2.44776,7359.66,3040.91,-19903
1.87134e+07,69.4138,2,2.48939,-11773.7,-5814.96,-22054.1
1.87173e+07,34.612,1,2.39657,208.489,5348.93,-23834
1.87804e+07,65.4622,1,2.7469,11169,3046.58,-21378.1
1.889e+07,125.106,2,2.39612,6236.48,-12255.8,-6139.53
1.90034e+07,316.14,1,2.80507,-5749.68,4140.24,-24297.2
1.90153e+07,27.2875,2,2.93834,3177.65,-3445.03,-25286.3
1.91952e+07,55.0785,0,2.56427,5528.36,-650.543,-18777.5
1.93321e+07,146.868,2,2.61164,10317.4,-28366.4,-21531.6
1.93647e+07,58.0652,2,2.58855,10052.3,-492.694,-21929.6
1.94257e+07,32.7386,1,2.50005,-3295.12,-5034.42,-25304.1
1.94335e+07,106.868,0,2.81914,-4864.5,-14854.4,-12463.9
1.95232e+07,21.2118,0,2.44258,3470.31,-1891.69,-26588.1
1.95855e+07,1.31871,0,2.37212,168.297,52.7165,-28548.6
0,1.34879,0,2.83497,0,0,0
1.95879e+07,75.061,0,2.90761,12469.9,-7436.83,-22440.8
1.9664e+07,76.4792,1,2.5658,-10295.5,9816.37,-20972.4
1.99709e+07,32.1313,0,2.96234,6154.54,2963.5,-28558.2
2.0013e+07,111.477,0,2.85597,-17007.3,-15751.6,-26615.9
2.01074e+07,120.099,0,2.53465,11585.7,-10804.1,-9119.03
2.05646e+07,6.77213,1,2.48315,974.261,-461.48,-27880.2
2.07025e+07,64.2709,0,2.45208,13407.7,-2506.06,-27183.1
2.10682e+07,65.413,0,2.64739,1449.39,11987,-22109.5
2.10979e+07,13.1608,1,2.83193,-2531.19,-18.2566,-27811.4
2.1146e+07,61.6101,1,2.71604,-4178.75,-4122.58,-17248.3
2.11969e+07,17.2264,1,2.95066,2085.92,2549.81,-27208.4
2.13466e+07,119.166,0,2.97892,5945.81,-14957.3,-9739.88
2.13488e+07,158.629,0,2.54569,19823.7,24785,-17815.8
2.14898e+07,18.4558,2,2.86655,953.242,-3243.47,-26911.4
2.15388e+07,216.93,2,3.05717,20098.9,11566.7,-27955.6
2.16986e+07,15.4271,2,2.63083,-2818.15,-1483.65,-27777.7
2.17114e+07,16.5726,1,2.37307,2679.26,-330.076,-26660
2.17239e+07,11.7244,2,2.48747,-943.557,-2062.84,-27585.7
2.18713e+07,91.8542,1,2.65221,-3362.78,-19028.3,-27806.2
2.18839e+07,26.4658,0,3.03485,1508.9,-4102.98,-25199.5
2.19773e+07,67.5287,0,2.68803,1778.72,-11789.3,-21598.1
2.20912e+07,45.8091,2,2.51889,-5172.14,2334.14,-20957.5
2.22272e+07,27.8311,1,2.6088,1303.58,3636.29,-24255.2
2.23818e+07,123.783,0,2.52522,17920.9,18776.8,-24807.6
2.24221e+07,39.6654,1,2.56827,5010.66,-5311.6,-24953.2
2.24345e+07,198.892,0,2.71041,1386.36,-28000.6,2272.98
2.24696e+07,122.553,1,2.98367,-18425.2,6869.19,-14003.8
2.25374e+07,76.4622,0,2.40571,3845.11,-5885.48,-14219.7
2.27554e+07,101.651,0,2.70191,153.223,-1516.48,-24425.2
2.27771e+07,11.1046,1,2.65693,-916.375,2335.83,-29167.8
2.29609e+07,77.6723,1,2.89014,-10585.8,-12304.3,-29679.7
2.31309e+07,8.15151,1,2.58605,1545.41,790.227,-28570.6
2.31313e+07,26.779,2,2.79422,-2899.77,4250.9,-26574.1
2.31458e+07,6.72942,1,2.65947,59.9185,740.244,-27800.9
0,6.7393,1,2.92923,0,0,0
2.32945e+07,157.272,1,2.96159,-14979.6,27893.4,-19123.6
2.33862e+07,218.06,1,3.05225,29305.2,-27742.4,-7732.34
2.3388e+07,6.73375,0,2.99685,1330.67,-605.308,-28448.2
2.33929e+07,124.482,2,2.42235,-13855.5,-9106.32,-9367.23
2.35308e+07,3.93584,2,2.66243,-438.359,-799.364,-28909.1
2.35953e+07,37.5226,1,2.51378,-5706.05,5332.44,-28579.4
2.35986e+07,37.6566,1,2.60191,4122.11,5941.22,-25359.4
2.36173e+07,167.525,2,2.37725,-20025.1,-27211.1,-17882.6
2.36261e+07,80.4136,1,2.5216,10671.5,12532.1,-27282.4
2.36905e+07,19.3933,0,2.80513,1986.05,-750.532,-25288
0,19.4179,0,2.82538,0,0,0
2.40232e+07,177.584,1,2.71642,-10338.6,11285,1519.29
2.41134e+07,97.3387,0,2.65252,-1112.68,20289.8,-26655.6
2.42364e+07,104.47,0,2.90988,-3919.73,14833,-13137.9
2.42766e+07,26.9252,2,2.64443,-477.417,-3523.54,-24358.4
2.44627e+07,26.5324,2,2.43493,4525.73,-3330.57,-28597.1
2.44657e+07,81.6088,2,2.61222,-7360.96,-14421.1,-23844.8
2.45125e+07,38.0581,0,2.47453,1879.82,-7444.15,-26495.4
2.45333e+07,40.5694,2,2.53137,1707.12,6009.78,-22925.1
2.45656e+07,113.001,2,2.50723,-19722.9,-5711.89,-16478.4
2.45912e+07,68.8818,0,2.41498,-1806.79,-12127.8,-26461.6
2.46001e+07,53.9294,2,2.68587,201.438,-4500.85,-18362.1
2.46007e+07,61.7043,2,2.74351,12339.6,-1018.3,-25042.9
2.46328e+07,49.3976,2,2.5715,3899.58,7727.59,-23262.1
2.47043e+07,130.388,0,2.9609,12884.1,-3173.82,-4880.44
2.47616e+07,98.4314,0,2.84317,17462,-11050,-26674.1
2.4895e+07,14.8927,0,2.97071,1997.61,-1405.51,-26780.7
2.49875e+07,61.5246,2,2.79746,-10157.3,1824.45,-21132
2.50239e+07,152.03,2,2.88741,27471.9,-9642,-15748.9
2.50485e+07,10.9357,1,2.38325,-2109.06,832.807,-28202.1
2.50564e+07,153.755,2,2.67806,16567.5,-24847.2,-16054.5
2.51138e+07,25.898,1,2.59318,-2546.39,2570.27,-24651.9
2.51187e+07,187.084,1,2.68994,-25935.2,-19563.1,-6444.79
2.52448e+07,120.011,0,2.42897,22466.1,-11489.3,-24954.2
2.53136e+07,50.4489,2,2.99908,-4814.01,-4457.88,-20444.7
2.53494e+07,67.7548,1,2.57828,-12885.4,5565.4,-27094.9
2.53614e+07,54.9724,2,2.68744,-763.032,-8097.87,-23608.8
2.54755e+07,38.9092,0,2.73856,4149.03,3388.39,-22569.7
2.55218e+07,6.06957,1,2.5797,-455.852,1204.7,-29246.1
2.55253e+07,87.1261,0,2.76443,16485.1,4772.25,-22437.4
2.58141e+07,54.4963,2,3.04052,-5930.26,-8032.98,-23298
2.58962e+07,7.19129,0,2.57974,1426.95,638.283,-29034.9
2.59362e+07,69.475,2,2.87285,-5873.81,-11128.2,-21190.8
2.59444e+07,35.8744,1,2.98607,-3690.55,-5469.11,-25216.8
2.5962e+07,82.4132,1,2.74138,-9096.47,-10708.9,-18573.7
2.59654e+07,18.1418,1,2.85714,-678.963,1761.83,-25372.9
2.60573e+07,35.0826,0,2.42379,-4835.87,-2728.6,-23987.9
2.60634e+07,88.8419,2,2.60106,-2726.73,-11830.4,-14468.7
2.60679e+07,76.2838,1,2.58573,4292.83,13022.2,-20282.4
2.61327e+07,29.3127,1,2.76553,4691.72,2802.77,-25916.7
2.6313e+07,17.2657,1,2.76673,-2174.29,1009.53,-26059.2
2.64416e+07,90.4033,1,2.66623,6071.08,2610.61,-11209.1
2.64516e+07,94.6949,1,2.89479,-13939.6,3255.9,-15105.8
2.65344e+07,116.361,1,2.91185,-21799.1,-3568.55,-18318.3
2.68095e+07,50.6581,0,2.59087,3128.99,-4959.92,-19872.9
2.68362e+07,82.4213,0,2.81462,13309.9,7058.95,-20428.1
2.6912e+07,67.0171,2,2.49822,-2817.54,-9463.47,-18588.3
2.70318e+07,26.5102,0,2.54835,4460.13,3471.07,-29439.9
2.74037e+07,172.899,1,2.98604,19079.6,11783.9,-337.933
2.75033e+07,24.9706,1,2.73015,-5179.01,-653.176,-27242
2.75269e+07,12.8348,0,2.91701,-564.238,-1318.83,-26477.2
2.76166e+07,122.106,0,2.75514,-1866.5,-25148.2,-23527
2.76278e+07,14.9792,1,2.99773,-2079.55,2367.43,-29778.2
2.76763e+07,45.7869,2,2.62148,4421.47,-3730.82,-21142.5
2.77213e+07,34.4966,0,2.55008,4631.85,-128.006,-23843.6
2.77312e+07,90.2135,0,2.79554,-12585.1,-10938.1,-19837.3
2.78503e+07,63.802,1,2.93171,12455.2,3889.83,-25633.2
2.7905e+07,20.2849,2,2.55842,-3130.95,-1746.05,-26369.2
2.79811e+07,154.279,2,2.9384,16089.5,-8338.19,-8175.37
2.80593e+07,210.94,1,2.87355,-19769.4,19047.5,6087.3
2.80655e+07,68.7692,1,3.06126,130.694,-14063.2,-25876.8
2.81066e+07,86.4746,1,2.96428,-15492.7,8538.31,-24702.2
2.82737e+07,72.9366,0,2.8065,-7128.42,7731.74,-17719.1
2.83433e+07,19.4249,1,3.05718,-2669.85,-2105.17,-26569.7
2.84004e+07,45.2466,1,2.72666,-6295.14,-4896.16,-23624.5
2.84446e+07,8.9922,0,2.94368,1466.24,1223.62,-29032.8
2.85087e+07,5.50078,1,2.65621,-352.948,-13.2494,-27711
2.85241e+07,28.866,0,2.73956,4582.53,-3207.09,-26314.1
2.86484e+07,37.2854,1,2.68238,-955.405,-4735.91,-22668.7
2.88138e+07,31.3877,2,2.9621,-389.582,5886.65,-26068.6
2.89756e+07,78.2595,0,2.73781,10538.8,4354.63,-16957.6
2.89961e+07,15.7681,2,2.90978,-2663.61,949.484,-27354
2.91109e+07,139.678,2,2.65785,-18469.7,22533.3,-24000.3
2.91408e+07,41.199,0,2.82148,2539.84,2117.78,-20854.1
2.92422e+07,214.749,1,2.5233,-14381.9,8613.04,13388.6
2.92785e+07,3.8667,1,2.73688,150.858,537.806,-28171.6
2.92982e+07,66.849,1,2.91798,-5496.99,12119.8,-24349.2
2.94765e+07,10.9069,2,3.05782,2292.36,513.316,-28674.8
2.95163e+07,79.7746,2,2.40708,-1594.63,9879.48,-15272.8
2.95808e+07,34.8076,1,2.95796,3411.5,-1509.51,-22616.6
2.98321e+07,57.2444,2,2.58673,-5461.69,8077.9,-21602.9
2.98617e+07,9.97555,0,3.01629,1829.73,609.799,-29831.3
