#class tools::wcsv::ntuple
#title time
#separator 44
#vector_separator 59
#column double eventID
#column double t(ns)
#column double copynumber
#column double energy(eV)
#column double x(mm)
#column double y(mm)
#column double z(mm)
17804,104.51,1,2.79594,-8326.53,5016.57,-9035.43
136734,108.798,2,2.67672,4116.24,-11289.4,-9239.61
149833,101.901,1,2.58588,-10853.6,14202.1,-16690
152521,10.8796,2,2.79527,-1551.2,714.456,-27250.4
202908,44.0665,1,2.51446,8633.15,3291.29,-28170.9
438648,14.0508,1,2.95747,-833.964,2823.62,-27940.6
1.00663e+06,8.50066,1,2.97905,98.1134,1519.88,-27724.7
1.0484e+06,17.4716,0,2.79906,3376.27,1477.27,-27782.9
1.13116e+06,54.8934,0,2.51632,-1919.07,-8086.49,-20867.8
1.27664e+06,220.852,2,2.55734,-4952.87,12515.5,-18141.8
1.29538e+06,92.7695,0,3.0494,17930.2,5842.2,-23892.5
1.32641e+06,51.4559,2,2.47416,1235.84,6980.44,-20615.5
1.33519e+06,14.5647,0,2.60868,2177.01,-1094.95,-26864.5
1.40807e+06,16.6883,1,2.96791,-1707.53,138.796,-26055.1
1.53466e+06,154.309,0,2.37195,29271,12159.1,-20847.6
1.60488e+06,173.277,1,2.98624,-14958.3,-10040.3,-5708.09
1.61621e+06,57.0287,2,3.03548,-5243.25,3359.55,-18601
1.65127e+06,35.5744,1,2.43599,944.426,7271.96,-26796.2
0,35.6766,1,2.55846,0,0,0
1.67073e+06,163.684,2,2.46262,-14772.8,-9500.68,-5081.44
1.98554e+06,10.3898,1,2.93137,308.888,-1704.59,-27572.9
1.99353e+06,20.2281,0,3.01893,-3212.7,1044.03,-26325.9
2.10941e+06,51.433,0,2.51983,9053.21,3359.25,-23651.6
2.18759e+06,65.5954,1,3.01837,13558.3,-1656.76,-27560.6
2.21767e+06,62.5677,1,2.99559,-12539.6,-3704.09,-27431.2
2.2901e+06,144.788,2,2.98452,6694.53,29166,-24207
2.30679e+06,224.263,0,2.78899,-5605.48,18752.4,14054
2.32074e+06,320.8,2,2.6653,24682.9,27594.9,13583
2.35524e+06,26.2598,1,2.86057,-3292.67,2160.63,-25221.5
2.35814e+06,12.635,1,2.59817,954.278,-1122.59,-26636
2.45331e+06,53.8392,0,2.74676,-7127.45,-3623.38,-20784.2
2.47862e+06,135.577,1,3.04645,17470.5,22434.1,-29511.8
2.4837e+06,164.179,2,2.89908,-4525.88,-4986.68,3592.1
2.53063e+06,86.788,2,2.78737,-17151.9,-3712.04,-23428.1
2.75755e+06,139.34,2,2.48286,13967.1,-10263,-5122.54
2.86137e+06,101.469,0,2.56901,-13852.8,16089.3,-26135.4
2.93779e+06,101.413,0,2.73867,20478.1,2969.8,-23532.7
2.94406e+06,111.691,1,2.78231,-13728.9,-14020.4,-15903.4
2.95978e+06,4.09222,2,2.9729,207.193,-558.452,-28113
3.10852e+06,64.7655,2,2.59714,-8035.1,-10918.8,-26263.3
3.30114e+06,199.058,0,2.41018,21134,12269.4,-7550.83
3.43375e+06,39.9456,1,2.70266,-5167.14,-6443.33,-27215.8
3.47379e+06,86.6352,2,2.55067,-11221.5,-3261.67,-14935.9
3.86095e+06,17.8606,1,3.01188,653.115,2006.69,-25688.5
3.96598e+06,33.045,1,2.38375,-5113.63,4741.98,-27919.8
3.99837e+06,10.1865,1,2.39717,254.102,-1902.81,-28003.6
4.01212e+06,32.8456,1,2.89571,-1245.14,6856,-28086.9
4.038e+06,118.592,0,2.84794,17936.3,8679.95,-13686.9
4.08332e+06,1.5224,1,2.4838,158.614,-227.268,-28837.9
0,1.53271,1,2.78707,0,0,0
4.11205e+06,21.2553,2,2.69746,3848.05,-1980.9,-27692.8
4.11643e+06,62.3408,0,2.95084,-1228.07,12956.6,-26977.5
4.41743e+06,22.433,1,2.95063,-3147,-2275.08,-26642.8
4.49748e+06,111.515,2,2.79257,-3996.28,552.642,-25019.1
4.54458e+06,25.7755,2,2.49103,-1993.82,-4203.75,-26039.6
4.76683e+06,40.5948,0,2.82267,7734.84,2590.14,-26232
4.85294e+06,22.6065,1,2.55608,-3370.81,-2505.83,-26469.8
4.86033e+06,23.7955,2,2.69372,-932.976,-3904.84,-25551.6
4.93832e+06,200.542,1,2.93652,4154.11,19467.9,8277.86
4.96428e+06,4.9154,2,2.68071,-928.595,-569.951,-28612.3
4.98332e+06,154.952,1,2.68789,481.284,19367.9,-2526.02
5.05195e+06,95.3542,2,2.39026,15036,-7574.17,-17775.1
5.09106e+06,181.198,2,2.75687,601.516,-26332,-1178.82
5.10368e+06,258.47,0,2.88624,-1570.65,-18302.9,-14935.3
5.14925e+06,70.6889,1,2.51539,-10085,6164.07,-19495.4
5.22918e+06,19.4985,0,3.01757,-1531.34,1663.22,-25436.8
5.25639e+06,60.9512,1,3.03274,613.835,11484.1,-23098.4
5.27276e+06,5.13044,1,2.48813,286.201,-256.864,-27812.8
5.29794e+06,40.886,0,2.70209,-590.56,-7136.75,-24106.8
5.46808e+06,65.1776,1,2.42606,-1123.13,11393.5,-21093.8
5.58122e+06,2.8936,0,2.50584,-217.943,320.218,-28239.3
0,2.90425,0,2.48424,0,0,0
0,2.92607,0,2.87608,0,0,0
0,2.90436,2,2.55798,0,0,0
5.58738e+06,101.035,0,2.47665,-15782.8,6942.25,-16323.2
5.64121e+06,137.413,2,2.54122,-13114.8,12852.2,-6258.21
5.72647e+06,100.319,1,2.47805,-13496.8,10825.5,-16448.8
5.79374e+06,127.268,2,2.70398,337.431,21337.7,-12753.2
5.81961e+06,66.3614,1,2.7888,-10091.8,-7046.49,-22113.9
5.92179e+06,190.615,1,2.73611,17029.3,29617.3,-7694.66
6.15325e+06,60.8172,1,2.98682,11464.9,5545.4,-29557.1
6.16152e+06,81.419,2,2.8755,-1750.43,-9601.53,-15933.8
6.24069e+06,127.935,1,2.36997,5462.5,-13598,-6122.39
6.53427e+06,25.5279,2,3.02848,-2863.74,-1626.58,-24471.9
6.58138e+06,22.6125,1,2.44259,-4753.12,-31.9946,-28002.3
6.60318e+06,49.4305,0,2.41749,-6765.94,7426.82,-26736.1
6.70428e+06,89.9255,0,2.37962,1931.35,-10667.2,-13158.5
6.8211e+06,96.668,1,2.65041,1669.44,13559.6,-14116.1
6.94257e+06,103.682,0,2.55177,-18346.9,-2674.92,-17244.8
7.03678e+06,325.013,0,2.78989,-1465.12,-1659.54,-2115.05
7.37074e+06,62.6532,2,2.65348,-3719.87,-11806.8,-24254.6
7.40781e+06,2.90172,2,2.59527,35.0804,-641.108,-28539.6
7.43251e+06,44.5142,1,2.78715,5000.86,1446.99,-21186.7
7.47821e+06,24.3605,1,2.39957,59.5538,-4656.58,-26888.4
7.54362e+06,81.0907,0,2.57948,12969.6,-5961.51,-19414.3
7.62721e+06,36.8505,2,2.66388,-3666.67,-1885.99,-22458.1
7.66299e+06,73.5217,0,2.88885,13327.6,6671,-24443.5
7.70941e+06,11.3313,1,2.99156,917.231,-918.315,-26933.3
7.91924e+06,74.4986,0,2.7692,8043.39,-3907.53,-15891.7
8.37472e+06,79.6069,0,2.63694,-3882.98,-11905.8,-17664.3
8.47718e+06,37.1304,2,2.96399,2961.58,-2379.64,-22000.1
8.54495e+06,70.1918,1,2.79095,9055.65,9458.31,-21930.5
8.57686e+06,37.9614,2,2.83798,-2304.91,3518.96,-22104.2
8.58187e+06,28.8518,2,2.55017,-3927.94,-1880.42,-24583.6
8.70418e+06,42.8986,1,2.85257,-8695.7,2603.25,-29372.1
9.04367e+06,247.971,1,2.71874,654.948,22871.2,18175.2
9.15565e+06,15.5257,0,2.80408,571.236,-1915.6,-26170.9
9.20848e+06,95.2395,2,2.98452,-8379,-14163.7,-18124.6
9.2183e+06,13.9154,0,2.71047,1083.27,686.304,-26165.5
9.22461e+06,22.2872,2,2.87661,-1583.22,-3971.91,-26779.1
9.28892e+06,10.4912,1,2.50929,-1536.35,1384.96,-29905.9
9.67353e+06,21.621,0,2.44604,-2110.63,-3977.06,-29534.8
9.68863e+06,90.8037,1,2.93768,-687.017,8322.3,-11719.4
9.88155e+06,48.9716,2,2.54247,-7419.47,4705.97,-23323.5
9.89118e+06,209.274,1,2.69706,-8894.2,-17062.7,-14513.8
9.92684e+06,106.51,2,2.41477,-10755.4,-5717.98,-9790.66
1.00209e+07,148.026,0,2.66867,-27480,152.928,-13908.2
1.03216e+07,46.2836,1,2.40599,-8737.08,-2479.62,-25122
1.04645e+07,109.341,0,2.92941,6521.18,-18055.4,-16227
1.05023e+07,128.183,2,2.55789,-3282.91,-26261.4,-24083.8
1.05257e+07,85.2444,1,2.45937,-4945.44,4984.77,-12230.1
1.06441e+07,134.409,0,2.44783,3532.85,21929.2,-11015.8
1.07469e+07,186.874,2,2.3823,18042.6,-28850.4,-8590.45
1.08857e+07,50.2557,0,2.73007,4919.15,9087.27,-26296.6
1.09053e+07,98.747,0,2.5106,10422.1,-16757.8,-22994.8
1.11146e+07,140.932,2,2.9126,-13995.5,25528,-23656.3
1.11864e+07,14.9963,2,2.94848,1654.41,-1874.45,-26754.1
1.12515e+07,57.9291,1,3.01066,-1879.47,9156.7,-20922.1
1.12858e+07,42.2229,0,2.6722,6394.88,6000.59,-26941
1.1301e+07,99.8587,2,2.56125,9013.11,-16209.9,-18608.3
1.14473e+07,139.505,1,2.94082,-9135.57,13114.7,-4221.69
1.16011e+07,108.334,1,2.69509,-17233.7,6809.31,-15432.2
1.17793e+07,20.4696,0,2.908,1792.77,-505.611,-24912.4
1.17963e+07,89.9244,1,2.89843,-6141,17565.9,-25022.6
1.18755e+07,38.8,2,2.4167,-3166.18,7043.64,-26272.1
1.18968e+07,15.9343,1,2.93534,-23.7325,-2884.75,-27503.1
1.19173e+07,174.927,1,2.44033,20173.4,-532.36,2168.12
1.19329e+07,88.3473,0,2.67384,-5148.84,-6389.94,-12133.5
1.19557e+07,34.6262,1,2.93284,-5383.1,2095.33,-24874.3
1.19805e+07,178.336,1,2.49858,6587.48,13359.7,5462.12
1.21179e+07,52.6224,0,2.71281,6492,-8341.81,-29773.2
1.21549e+07,121.287,0,2.61672,-6594.62,24823.1,-28463
1.2301e+07,1.76025,2,2.58342,-210.068,282.457,-28738.6
0,1.76445,2,2.5158,0,0,0
0,2.22308,0,2.7116,0,0,0
0,1.74652,2,2.71669,0,0,0
1.2325e+07,27.8579,2,2.5733,-4218.5,4059.66,-28074.6
1.25218e+07,103.205,1,2.63889,-12388,17568.4,-24775.2
1.25289e+07,3.34956,1,2.41643,542.93,511.921,-28539.5
1.2569e+07,87.2244,1,2.46508,-6925.55,16518,-24074.5
1.27817e+07,109.037,1,2.55932,14156.1,1086.19,-11012.6
1.28114e+07,216.642,1,2.55708,20933.4,9213.14,10821.5
1.29341e+07,142.509,2,2.97703,9691.44,-19661.7,-8422.85
1.30756e+07,144.812,1,2.65132,13091.4,3683.26,-1428.89
1.3152e+07,80.2585,1,2.45956,10291.8,12551.5,-23751.8
1.32282e+07,47.7627,2,2.57048,-8382.31,-63.2133,-23424.6
1.33415e+07,21.39,2,2.88925,-2162.51,-2820.86,-26099.4
1.34743e+07,194.66,2,2.66355,-25245.5,27744.4,-12296.7
1.35486e+07,52.2464,0,2.64586,1199.22,-4686.44,-18848.8
1.35793e+07,155.232,1,2.93845,29332.5,1465.71,-14891.8
1.3771e+07,40.2462,2,2.70036,-2699.3,-6430.91,-23896.1
1.40335e+07,128.567,1,2.53336,13125.9,-21935.4,-20405.5
1.41906e+07,84.7359,2,2.50347,-5774.5,-12410.8,-17443.8
1.42913e+07,15.841,2,2.56908,-3513.85,-279.16,-29163
1.4555e+07,41.2051,1,2.82603,-8334.31,1090.52,-26630.7
1.4657e+07,56.859,2,2.69447,10965.4,4620.29,-29722.6
1.47504e+07,23.2568,1,2.93225,653.758,-2957.37,-25085.5
1.4964e+07,30.3625,2,2.65634,-4117.12,-2639.34,-24749
1.50855e+07,73.7902,0,2.44892,5854.99,-14132.9,-28086.3
1.50999e+07,167.361,2,2.96843,19574.1,-6502.47,-568.196
1.51915e+07,68.975,0,2.43864,549.669,-14167.1,-27799.7
1.52582e+07,64.3405,1,2.94962,-10036.7,1319.64,-19906.9
1.54185e+07,50.2742,1,3.00876,-6298.84,-560.187,-20579.9
1.56445e+07,120.636,0,2.88272,16663.1,3652.64,-10030.7
1.56526e+07,140.064,0,2.50499,26668.1,-11182.5,-21688.7
1.5758e+07,37.8118,1,2.63459,-6435.61,-3716.75,-25835.4
1.587e+07,89.0594,0,2.48436,-5227.98,12811.1,-16067.3
1.59779e+07,155.086,0,2.73875,-3455.29,10129.2,-12530.4
1.63143e+07,82.2021,1,2.64282,-11966.3,2884.4,-16702.7
1.64913e+07,16.8421,1,2.75802,2585.72,996.274,-26482.4
1.66302e+07,11.8321,2,2.49441,813.65,-2360.66,-29299.7
1.6671e+07,23.6834,0,2.61061,2656.95,1634.37,-24826.7
1.67226e+07,23.0123,1,3.01259,-1151.08,2596.81,-24811.5
1.68134e+07,81.0707,0,2.97501,-16749.5,-1791.99,-27826.6
1.69118e+07,16.1594,0,2.69224,-1006.91,-2030.75,-26555.5
1.70022e+07,56.4901,0,2.79634,2866.83,-10691.7,-24492.5
1.70291e+07,9.55725,2,2.64233,-845.709,-1523.34,-27628.8
1.70388e+07,90.7362,1,2.82278,-12420.3,13681,-24002.9
1.70623e+07,69.6897,1,2.45012,-8661.65,9318.36,-21199.8
1.71016e+07,130.207,0,2.69826,-11044.7,-11330.6,-6423.15
1.71466e+07,41.087,1,2.59274,-4594.38,-2730.78,-21779.1
0,41.2641,1,2.78226,0,0,0
1.72504e+07,89.9825,1,2.81906,-7264.69,12620.2,-19077.5
1.72834e+07,10.2671,0,2.40519,-1759.44,-452.832,-27829.7
1.74738e+07,177.885,0,3.00075,19044.1,5328.45,2699.86
1.75096e+07,83.8568,2,2.50424,-10222.9,11926.4,-20642.7
1.75289e+07,39.1414,1,3.00735,-2377.36,4752.07,-22510.3
1.75874e+07,123.366,2,2.64462,-8801.89,-14308.2,-8852.29
1.77242e+07,86.565,2,2.46371,8962.34,-14161.1,-21260.5
1.77847e+07,19.3227,1,2.42273,-3373.07,-2300.53,-28882.8
0,19.502,1,2.86802,0,0,0
1.77956e+07,90.3305,1,2.97147,-7016.88,13316.3,-17232
1.78073e+07,34.9787,0,3.0005,917.23,1898.53,-24256.2
1.80647e+07,37.8348,0,3.00899,28.6588,-6941.21,-25214.9
1.81127e+07,334.616,0,2.75798,487.589,1243.32,-26556.7
1.81133e+07,0.805657,1,2.74512,14.2593,-64.7998,-28717.1
0,0.8286,1,3.04594,0,0,0
1.81948e+07,145.645,2,2.83739,-22794.9,-18243.7,-19511.2
1.82883e+07,3.98295,2,2.36569,-50.5205,-858.183,-28692.1
0,3.98123,2,2.38942,0,0,0
1.83209e+07,152.586,1,2.43336,-24718.3,13351.2,-12800.7
1.84552e+07,119.121,2,2.58941,-24202.4,3392.52,-22369.3
1.85112e+07,260.414,1,2.76917,28599.1,-4654.38,-9062.93
1.85986e+07,44.9951,2,3.03915,-5658.16,76.7879,-21418.3
1.87174e+07,47.6409,0,2.43395,1795.07,567.519,-22536.3
1.88922e+07,74.8236,2,2.82008,-4364.57,5557.3,-14860.4
1.88986e+07,149.535,0,2.77395,-19640,-13374.2,-8288.5
1.90736e+07,33.9406,1,2.91363,1651.26,6957.54,-27943.8
1.91882e+07,50.6585,0,2.85745,4155.13,-9876.42,-28241.9
1.95401e+07,68.7815,2,2.72644,-3030.46,-11097.1,-19798.3
1.95671e+07,60.5431,1,2.77399,-4590.03,3506.69,-17439.2
1.97575e+07,12.3506,2,2.59058,-789.039,1525.81,-26901.5
1.97759e+07,12.8457,1,2.52997,-216.56,2724.52,-28088.3
1.97944e+07,146.745,1,2.49587,-10368.1,6516.77,-29472.1
1.98534e+07,2.16308,1,2.92115,-120.165,498.897,-28717.2
1.98635e+07,116.046,1,2.49633,-20071.2,8280.86,-17297.6
1.98854e+07,26.7299,2,2.42226,-2016.95,-2356.73,-24033.2
2.00018e+07,2.04235,0,2.50275,242.445,22.9257,-28441.5
2.00262e+07,75.2226,1,2.64515,-14759.4,-5666.19,-27069.7
2.02088e+07,33.3616,0,3.01284,-3345.7,6106.89,-28746.1
2.04843e+07,37.0283,1,2.68005,-2178.76,-7436.69,-28454.3
2.06363e+07,94.0934,1,2.67632,-1389.18,-17617.5,-19756.8
2.06887e+07,65.1163,0,3.06109,11392.2,6392.67,-24670.1
2.07385e+07,55.133,0,2.90589,6729.16,-5923.76,-21474.5
2.08737e+07,70.4057,2,2.73586,732.02,9921.71,-18358.9
2.09345e+07,37.6619,1,2.93679,4384.76,5914.96,-25768.8
2.09669e+07,34.0722,2,2.77967,-1314.46,-6281.88,-25573.5
2.09911e+07,72.6083,2,2.51268,-9276.43,-11673.7,-25303.1
2.10026e+07,0.948786,2,2.70129,-126.07,-223.498,-28703.2
0,0.95378,2,2.4967,0,0,0
0,1.00035,2,3.05235,0,0,0
0,1.01252,2,2.55166,0,0,0
0,0.982706,2,2.41186,0,0,0
2.10456e+07,49.8209,0,2.85059,9250.24,-3920.51,-26318.7
2.10692e+07,182.542,1,2.83738,5154.37,17693.6,5058.28
2.10851e+07,107.16,0,2.84251,8088.54,16342.3,-15841
2.11568e+07,80.8678,1,2.4739,-11406.6,-4227.8,-16778.8
2.12082e+07,21.1068,1,2.42032,-3015.28,2276.38,-28066.9
2.1314e+07,46.6384,0,2.44184,6450.78,4019.49,-22493
2.13706e+07,97.0674,0,2.36543,-12415.6,-2887.24,-12645.6
2.16536e+07,80.6152,1,2.81938,-10580.2,2353.58,-15753.6
2.17908e+07,122.24,0,3.05217,14023.2,21241.8,-28326.6
2.18251e+07,56.0498,1,2.98041,5006.67,-5361.77,-19695.5
2.24653e+07,47.4585,0,2.78712,-3486.07,-9331.43,-27537.1
2.25464e+07,31.1887,1,2.53368,-1441.32,-4524.82,-24205.1
2.2706e+07,115.291,0,2.7506,21584.3,-5247.53,-18987.1
2.28245e+07,33.3111,0,2.86965,6717.39,779.479,-26648.6
2.28574e+07,19.451,1,2.56705,3722.4,-176.68,-27150.1
2.28821e+07,175.943,1,2.72977,21670.4,25239.9,-12583.4
2.29848e+07,10.3332,1,2.88131,-347.934,832.386,-26817
2.3173e+07,61.0488,2,2.50676,5808.35,-4082.84,-18220.1
2.32926e+07,100.422,2,2.57151,-9568.12,-2972.77,-10053
2.33653e+07,134.373,0,2.65402,11916.1,-7090.61,-4057.69
2.33725e+07,180.922,1,2.69617,-29915.9,10825.6,-7728.26
2.34049e+07,38.4149,0,2.99091,4837.99,-6264.15,-27051
2.34069e+07,54.8709,0,2.98955,-9163.36,6941.51,-28827.9
2.35497e+07,57.7836,0,2.45157,6850.75,-5197.5,-19934.5
2.35724e+07,121.039,0,3.02099,17957.6,8301.14,-12875.2
2.3672e+07,8.78735,2,2.96386,-1675,-1104.57,-29529.8
2.36779e+07,44.6849,1,2.94352,-1057.97,1682.09,-26009.6
2.37782e+07,53.2303,0,2.85878,801.203,-11168.7,-28878.9
2.38164e+07,32.6316,2,2.369,-6661.94,-2062.62,-29419.7
2.38777e+07,48.8063,0,2.50174,5644.56,-3072.82,-22955.6
2.44045e+07,1.82066,0,2.61688,309.392,-244.204,-28950.3
2.44087e+07,14.7933,0,2.88324,-112.057,1363.42,-25926.8
2.44446e+07,26.1156,1,2.66723,-1324.75,5280.14,-27651.7
2.44499e+07,111.199,2,2.76259,11904.5,3480.74,-23616.2
2.44693e+07,43.2435,2,2.90541,-8188.46,-159.151,-24400.3
2.4667e+07,108.388,2,2.64344,-10240.2,-11650.4,-11964.5
2.4899e+07,16.0065,2,2.84747,-2740.58,1696.6,-27836
2.51003e+07,68.8437,2,2.70778,2282.48,10613.6,-19215.8
2.51213e+07,144.095,1,2.49972,25679.7,13171.1,-18707.1
2.53295e+07,2.14391,0,2.80375,277.085,57.2005,-28404.8
2.54053e+07,96.07,0,2.65383,-6316.51,-7366.97,-11061.5
2.5412e+07,171.046,2,2.39796,-3115.4,22880.3,-985.922
2.55352e+07,107.409,2,2.88867,-17261.9,-14635.3,-26149.9
2.56089e+07,2.77631,2,2.42923,28.2066,-715.367,-28777.9
2.5918e+07,32.5974,1,2.80306,-6619.64,2251.37,-28850.8
2.60179e+07,172.499,1,2.8907,-20573.3,-845.339,978.948
2.60493e+07,20.5741,0,2.66245,2171.87,-3662.81,-27341.3
2.60545e+07,58.5278,0,2.37526,10225.9,-2924,-22299.2
2.60898e+07,24.1334,0,2.69195,3380.42,1017.55,-25118.5
2.61603e+07,13.1553,0,2.67327,2366.89,-1045.53,-27586
2.61779e+07,95.1681,0,2.87947,6974.89,7354.87,-11597.3
2.64847e+07,145.88,2,2.44104,3774.48,-25752.7,-12156.9
2.65211e+07,144.82,0,2.78902,14277.1,4790,-2253.97
2.65945e+07,60.4325,2,2.87647,-6519.44,4284.42,-19061.6
2.67346e+07,7.04443,0,2.54501,-978.207,-508.465,-27869.5
2.67356e+07,13.4268,1,2.6675,-756.919,2827.63,-28680.6
2.68325e+07,149.589,2,2.83837,-29047.3,2278.44,-16928.9
2.70783e+07,64.0456,2,2.82242,-11294.8,4337.68,-22888.6
2.72195e+07,153.256,0,2.63394,-18552.6,-15251.3,-7222.6
2.73417e+07,6.74959,2,2.79823,-1183.75,-643.298,-28378.1
2.7513e+07,50.1777,0,2.79257,4744.92,1090.04,-19441.7
2.76061e+07,9.07002,0,2.68505,1915.27,499.291,-28280.9
2.77395e+07,17.729,0,2.37033,337.265,2901.29,-26425.3
2.77984e+07,56.7168,0,2.81791,7003.94,-8602.42,-24272.3
2.78977e+07,19.7263,2,2.40996,-2887.18,-2838.74,-27566.6
2.79375e+07,139.695,0,2.37435,14154.6,12400.5,-22950.9
2.79759e+07,19.2128,0,2.41504,-553.285,2211.14,-25469.9
2.80798e+07,50.8468,1,2.43583,162.883,10798.5,-28066.5
2.80828e+07,214.606,0,2.72739,16228,19058.9,7198.28
2.80929e+07,29.8285,0,2.83664,1636.96,5873.45,-27139.7
0,30.2394,2,2.61825,0,0,0
2.81864e+07,12.4536,2,2.42584,1015.81,-2557.79,-28175.4
2.83072e+07,49.9726,2,2.52391,66.9716,-5604.19,-19801.8
2.83822e+07,47.4,1,2.97051,1425.93,5654.59,-20704.2
2.8393e+07,87.4935,0,2.73055,14488.2,-1215.71,-17460.3
2.83957e+07,22.891,1,2.48634,-4143.39,287.773,-26266.3
2.84112e+07,161.389,1,2.88359,27100.5,15208.4,-15091.6
2.84713e+07,10.3911,1,2.98382,-377.978,-916.051,-27029.5
2.85331e+07,43.3436,0,2.80173,-975.218,8954.5,-27122.3
2.8564e+07,110.388,2,2.93165,-16095.2,-9956.39,-15506
2.87994e+07,42.1683,0,2.4331,-5629.11,-2271.04,-22415.3
2.88127e+07,129.785,2,2.83959,-474.899,-16672.8,-7141.53
2.88669e+07,52.2277,1,2.70503,920.791,9520.19,-23267.6
2.91099e+07,79.8054,0,3.00722,-4284.77,-14985.7,-22772
2.97784e+07,149.552,0,2.86848,17438.8,-1927.4,-2930.16
2.97952e+07,93.147,0,2.43074,13956.6,3715.94,-15765.2
2.99088e+07,56.0344,0,2.79465,11376,2086.47,-26100.8
