#class tools::wcsv::ntuple
#title time
#separator 44
#vector_separator 59
#column double eventID
#column double t(ns)
#column double copynumber
#column double energy(eV)
#column double x(mm)
#column double y(mm)
#column double z(mm)
172222,18.0369,2,3.03228,-697.683,-3801.52,-29111.1
223856,92.1029,0,2.46657,-13659.7,-12617.7,-23201.6
650504,17.4218,0,2.56108,770.794,2337.28,-26034.3
788972,2.8762,2,2.60803,-659.12,65.911,-28793.1
797102,18.8481,2,2.53618,101.442,-3961.38,-27849.5
817107,9.77238,2,3.00218,356.419,1664.3,-27794.8
833242,7.98172,2,2.46871,588.654,-1555.1,-28223.3
908829,19.8062,1,2.75896,-2553.67,3060.91,-27328.2
1.17688e+06,80.3165,0,3.01331,7928.86,-11987.1,-19949
1.7411e+06,53.0397,0,2.55691,-3148.69,-6860.51,-20546.5
1.83809e+06,79.1767,0,2.65755,-12904.8,-3273.68,-18848.8
1.91776e+06,84.5494,0,2.85578,-138.828,11675,-15458
2.01032e+06,53.6367,0,2.37462,7424.92,-2095.84,-20438.8
2.14395e+06,144.925,2,2.79477,-9662.7,-19822.7,-11847.3
2.31986e+06,18.6382,0,2.83572,1188.73,-1645.81,-25434.7
2.32672e+06,77.6584,1,2.51842,-16282.6,2561,-29488.3
2.43255e+06,42.3712,0,2.79387,5324.75,-5689.17,-24347.2
2.53391e+06,4.11143,1,2.79868,-600.921,-111.172,-28193.7
2.60656e+06,119.967,2,2.37091,-11433.9,-18208.2,-15172
2.9676e+06,9.17183,2,2.67256,1114.85,-1553.73,-28305.8
0,9.24293,2,2.48083,0,0,0
3.11546e+06,14.4449,1,2.98562,-1703.8,2575.36,-29352
3.16558e+06,24.3465,2,2.9599,3303.83,2608.13,-26059.3
3.46676e+06,31.4432,0,2.80571,5159.22,-4163.49,-29868.5
3.66241e+06,35.2737,2,2.61615,-1825.86,5979.71,-24824.9
3.80988e+06,159.516,1,2.57212,23733.7,3577.92,-5218.93
4.141e+06,288.961,2,2.94005,-12419.3,-11425.8,3946.89
4.15941e+06,102.629,0,2.65931,16692.2,13669.9,-26371
4.31865e+06,106.395,1,2.81197,-959.131,-3195.86,-28991.2
4.5393e+06,49.5116,2,2.8086,7425.73,6053.41,-24896.7
4.60284e+06,8.77952,0,2.77015,-1310.74,80.2196,-27620
4.62242e+06,29.2763,1,2.51865,-5273.61,3302.79,-29840.8
4.66317e+06,0.67188,2,2.50458,0.115283,-191.999,-28951.8
4.75291e+06,24.5102,2,2.72225,-4601.42,-2335.58,-27761.1
5.07514e+06,464.336,2,2.72081,5275.65,-138.84,-26070.3
5.07806e+06,15.7621,0,3.0276,2173.31,2294.49,-27676.5
5.35874e+06,14.628,1,2.85355,-1659.54,2024.82,-27059.4
5.40135e+06,25.8023,1,2.82586,-1364.86,-4824.64,-26837.2
5.52054e+06,102.246,0,2.41136,-7017.24,-12717.3,-12856.6
5.56329e+06,163.693,1,2.89466,-9240.84,19453.5,-1968.26
5.58317e+06,1.89243,2,2.81877,318.412,-103.423,-28596.6
0,1.55508,0,2.97077,0,0,0
5.98871e+06,48.5709,0,2.78163,5812.32,-2763.36,-20821.5
6.01564e+06,135.767,1,3.05922,-17831.4,2299.59,-6808.08
6.03111e+06,21.193,2,2.59816,-2501.83,-1790.92,-25481.3
6.29029e+06,24.6589,2,2.6552,3669.5,-3696.43,-29317.9
6.36558e+06,73.2931,2,2.96917,-5276.29,-14064.5,-25152.4
6.51568e+06,43.4821,0,2.6655,5939.89,-6770.05,-26697
6.5591e+06,1.21594,1,2.59,-12.812,-2.35981,-28575.9
6.62386e+06,96.4487,1,2.50112,-16464,11253.3,-24197.1
6.73222e+06,22.4429,1,2.99544,-1922.95,824.628,-24578.1
6.86831e+06,67.9663,1,2.82872,9084.5,8882.86,-22225.4
7.17492e+06,1.73551,1,2.70125,148.236,-26.0204,-28494.2
0,1.74081,1,2.87551,0,0,0
7.46147e+06,24.555,2,2.7924,-4331.11,-1019.03,-26063.4
7.7316e+06,98.2434,2,2.72908,17227.8,-5118.43,-18576
7.7512e+06,3.78312,2,2.45017,209.342,-342.406,-28094.5
7.95302e+06,1.08756,0,2.56394,337.1,0.587604,-28854.2
8.24333e+06,158.02,2,2.72769,27401.3,-3047.38,-10205.7
9.55474e+06,8.97568,1,2.44538,-1876.73,-335.624,-28369.1
1.0488e+07,20.3433,2,2.64252,-1722.29,3860.41,-28147.4
1.05184e+07,118.204,1,2.80594,12910.7,-15917.8,-14839.2
1.05952e+07,75.2399,2,2.89516,-12833.1,-2056.75,-19734.3
1.07767e+07,127.81,0,2.55365,-9531.7,22321.7,-16980.9
1.08979e+07,8.8766,2,2.38448,-388.424,-1238.7,-27382.9
1.09366e+07,175.68,0,2.7316,-19048.6,-11451.7,-2889.34
1.10314e+07,58.0305,2,2.85992,2938.96,-11914,-28337.9
1.12168e+07,54.5115,1,2.92289,7896.8,488.049,-20574.3
1.20732e+07,26.9543,0,2.72548,-2301.18,-1458.04,-23853.3
1.23385e+07,110.034,2,2.62312,-5012.97,-12775.4,-10169.3
1.27656e+07,131.633,2,2.74296,11345.8,-9021.47,-5198.55
1.33502e+07,56.4715,1,2.6532,8892.73,3253.09,-21567.6
1.34116e+07,32.4427,1,2.7392,2199.87,-3939.46,-24651.5
1.37314e+07,155.785,2,2.50166,-9386.48,10155.9,1052.92
1.37544e+07,86.0971,0,2.9801,-8220.78,-983.967,-12838.5
1.38963e+07,10.1967,1,3.04057,-1478.59,555.354,-27291.2
0,10.2571,1,2.60999,0,0,0
1.38983e+07,59.7362,2,2.46273,-11026.9,5318.55,-25720.6
1.39283e+07,68.9237,1,2.44242,8956.82,3636.8,-17916.8
1.40807e+07,185.242,1,2.82799,-7516.12,9873.52,-23693.5
1.51019e+07,83.3617,2,2.74525,6903.07,-16171.7,-27470.7
1.60386e+07,19.3718,0,2.51045,3767,-1579.72,-29760.6
1.625e+07,88.202,1,2.9391,1301.91,17958.7,-24208.4
1.64198e+07,112.979,1,2.77946,-22722.2,6339.65,-25191.7
1.64741e+07,109.403,1,2.61257,-408.184,21828.5,-21007.9
1.6571e+07,41.4005,1,2.67349,-559.917,8456.59,-26412.4
1.69944e+07,61.6203,0,2.5323,4970.12,-8492.1,-20214.1
1.72187e+07,13.1012,2,2.66035,-2360.93,-1584.52,-28512.5
1.72367e+07,110.469,1,2.70073,-10177,-10763.2,-10859.1
1.82212e+07,33.3738,2,2.45072,-1144.43,-779.627,-29120.8
1.85703e+07,104.778,0,2.54978,14631.9,1822.97,-12236.1
1.89861e+07,6.62574,2,3.05834,-1314.08,-21.671,-28199.7
1.92505e+07,137.215,2,2.77672,-7582.55,-10918.3,-3146.81
1.9271e+07,249.566,1,2.96647,75.8828,-4710.85,-29258.9
1.93772e+07,38.3631,2,2.41052,2366.2,3068.51,-21729
1.93989e+07,1.09274,0,2.54902,-66.2414,-187.071,-28745.9
1.94604e+07,4.81562,1,2.51612,-913.348,254.976,-28334.3
1.96095e+07,19.3227,2,2.85208,3251.51,-1822.09,-27244.5
1.96235e+07,150.552,2,2.99943,10092.3,29233.6,-22975.7
2.02947e+07,221.987,2,2.82562,-10493.4,-16868.1,5029.17
2.03117e+07,22.5989,1,2.42965,-4801.68,539.031,-29470.6
2.03281e+07,12.4201,0,2.79094,2067.09,-1679.97,-28431.8
2.03919e+07,76.8101,1,2.66955,-8621.44,-2907.09,-15420.8
2.0424e+07,22.3126,0,2.66252,2533.16,-4035.1,-28554.7
2.04298e+07,98.3654,0,3.04546,-479.609,18856.7,-20479.4
2.08313e+07,72.3743,0,2.87171,-2613.05,-7101.21,-15651.6
2.08737e+07,11.7493,2,2.79115,490.578,-2503.4,-28947.1
2.09136e+07,100.675,2,2.52792,6866.48,-15710.7,-16141.1
2.10449e+07,39.0934,2,2.98131,3533.32,-6203.91,-24672.2
2.1059e+07,37.6586,2,2.3988,-6651.15,-2330.86,-24956.2
0,37.6962,2,2.45134,0,0,0
2.11503e+07,17.76,0,2.51217,-1612.33,2889.28,-27107.3
2.11951e+07,170.745,1,2.85499,-23017.6,25845.8,-18985
2.12507e+07,39.7238,0,2.62059,3330.47,7429.67,-26659.6
2.13308e+07,85.5815,1,2.89484,7194.13,16508.4,-27790.4
2.14506e+07,47.4601,1,2.41665,-4454.83,7739.18,-24072.7
2.15135e+07,42.1001,0,2.3847,3372.62,2080.34,-20803.5
2.15524e+07,122.054,0,2.9226,-4607.91,11489.3,-6429.65
2.19733e+07,29.7159,2,2.68147,-3608.61,-5023.42,-27322.6
2.21329e+07,150.578,1,2.4337,-7287.82,27601.5,-14535.4
2.2656e+07,146.865,0,2.73376,-2953.56,14033.1,-1422.66
2.2785e+07,172.152,1,2.99492,24213.9,26534,-26527.7
2.31e+07,33.7602,2,3.01678,-4334.97,62.7868,-26070.6
2.35879e+07,140.402,1,2.55466,-27584.4,2121.32,-17955.2
2.36328e+07,67.047,1,2.67103,-8488.69,4819.08,-18514.4
2.36954e+07,160.151,0,2.80576,18210.8,-27238.1,-20819.4
2.37766e+07,95.2497,0,2.75224,1269.06,20045.7,-29213.8
2.38015e+07,8.74438,1,2.70659,403.358,830.499,-27202.1
2.41154e+07,86.6369,2,2.5748,14513.7,9219.2,-22758
2.41467e+07,71.7256,0,2.80698,-6769.29,4104,-16000.8
2.42683e+07,59.6052,1,2.67964,-3119.37,12066.8,-26543.1
2.44335e+07,49.9086,1,2.70938,-5938.32,-248.701,-20100.7
2.45882e+07,155.988,2,2.91889,19208.8,23483.9,-16670.7
2.46108e+07,126.169,0,2.83936,21472.2,-5038.35,-13943.1
2.46477e+07,92.4021,0,2.7328,11628.3,14625.1,-23131.8
2.49855e+07,105.16,2,2.71586,-10053.2,11968.6,-13115.2
2.53062e+07,91.845,0,2.49676,2747.98,19134.4,-26862.5
2.53612e+07,95.6725,2,2.65169,18750.2,-4764.41,-23824.9
2.54244e+07,74.2082,0,2.91086,5220.23,7496.85,-16175.7
2.56002e+07,17.4491,2,2.57219,-556.377,2923.2,-26679.6
2.57663e+07,21.9159,0,2.64107,710.665,3474.32,-25806
2.64766e+07,89.0099,0,2.98236,14104.5,-6897.15,-18623.9
2.65557e+07,38.2185,2,2.54985,-5850.46,-1145.2,-23304.9
2.65598e+07,27.1062,2,2.98763,819.257,-4693.83,-25588.2
2.80041e+07,30.2427,0,2.96318,3179.86,-5365.96,-27376
2.83843e+07,10.6618,1,2.55846,1039.03,2040.25,-28440.4
2.8451e+07,136.224,1,2.65487,13756.3,-17027.5,-27865.8
2.85126e+07,29.9412,1,3.02845,2179.02,-4097.29,-24679.4
2.89052e+07,10.8042,2,2.85595,-1005.7,-1046.35,-26992.3
2.91476e+07,33.1853,0,2.63073,-249.299,-6026.58,-25274.7
2.92114e+07,5.06283,2,2.85186,-78.3226,-1172.81,-28743
2.93225e+07,147.036,0,2.40683,21631.9,15113,-12220.8
2.9388e+07,60.8761,0,2.84928,-3478.46,3990.6,-22853.8
2.93898e+07,75.8004,1,2.64032,10482.1,-6425.48,-18695.9
2.94535e+07,228.482,0,2.82234,14132.9,-20071.2,12494.4
2.95791e+07,44.4503,2,2.99041,7272.74,57.9253,-23075.2
2.95794e+07,82.3841,2,3.01535,-2762.23,-5976.47,-21728.6
2.97561e+07,67.2134,0,2.54584,9811.93,-431.923,-18488
2.99379e+07,62.0696,2,2.72331,2798.38,-4853.4,-16985.8
3.00954e+07,57.0796,1,2.83667,-7896.82,-8365.45,-25433.2
3.02876e+07,23.6461,2,2.83852,-2583.39,1332.43,-24762.8
3.04866e+07,1.82978,1,2.80319,-298.248,355.306,-28672.8
0,1.83159,1,2.59891,0,0,0
3.06723e+07,10.7288,0,2.72937,-93.7395,1916.4,-27637.4
3.10771e+07,5.35778,1,2.38614,-839.668,674.265,-28240.4
0,5.37081,1,2.56219,0,0,0
3.12954e+07,96.3604,1,2.69836,10114.7,-15044.6,-19776.9
3.12969e+07,117.479,0,2.99694,14865.2,-14252.4,-15251.1
3.14888e+07,161.617,1,2.5024,70.8362,-18532.6,-169.824
3.17401e+07,13.5331,1,2.89228,-2811.21,-153.728,-28079.5
3.18054e+07,57.3172,1,2.49805,-2076.83,4823.41,-17859.5
3.20003e+07,34.9107,0,3.01194,2967.64,325.619,-22107.8
3.21551e+07,0.208,2,2.22605,-96.5998,-119.848,-28820
0,0.831785,1,3.01682,0,0,0
0,0.206306,2,2.15126,0,0,0
0,0.207429,2,2.55215,0,0,0
0,0.203612,2,3.28772,0,0,0
0,0.196205,2,3.41623,0,0,0
0,0.201602,2,2.34087,0,0,0
0,0.207174,2,3.03889,0,0,0
0,0.198856,2,2.11101,0,0,0
0,0.237273,2,3.71846,0,0,0
0,0.220372,2,2.71489,0,0,0
0,0.259558,2,3.01153,0,0,0
0,0.19864,2,3.52554,0,0,0
0,0.229026,2,2.30779,0,0,0
0,0.241249,2,2.98701,0,0,0
0,0.201841,2,2.33701,0,0,0
0,0.226008,2,3.05029,0,0,0
0,0.235416,2,3.06539,0,0,0
3.23288e+07,38.6486,0,3.03982,6465.25,-4725.88,-27117.6
3.24747e+07,19.3936,0,2.87556,1042.74,3044.33,-26298.2
3.24872e+07,91.9199,2,2.5895,-2718.23,3135.93,-28111.3
3.25021e+07,135.657,1,2.41457,24105.9,1026.44,-13355.1
3.25156e+07,48.3315,0,2.47354,-5262.7,-2724.16,-20543.9
3.26468e+07,39.6729,1,2.76192,227.845,7875.55,-25826.9
3.27993e+07,16.8809,0,2.63029,1329.59,2927.94,-27175.5
3.302e+07,7.74178,0,2.49906,-186.724,-715.639,-27353
3.30472e+07,49.1984,2,2.8461,-3976.19,-4171.83,-20185.2
3.31383e+07,16.0137,1,3.04516,2807.69,1697.7,-27998
3.3227e+07,19.1916,2,2.62681,2978.74,873.379,-26291.2
3.39257e+07,50.2006,1,2.80212,-271.226,-7707.45,-21646.4
3.39598e+07,47.691,1,2.37566,5149.82,-1073.58,-20236
3.44107e+07,3.45004,1,2.74284,-123.039,271.142,-28121.1
0,3.42755,1,2.38696,0,0,0
3.50576e+07,7.83728,2,2.75395,508.648,-1067.14,-27609.2
3.52851e+07,103.341,2,2.76731,10311.1,-4198.91,-10135
3.55031e+07,32.5574,2,2.38476,3041.06,-5473.81,-25900.7
3.55437e+07,6.77429,2,2.73156,-645.804,-977.639,-27899.3
3.56374e+07,142.401,2,2.884,-25724,-13801.3,-21984.4
3.61734e+07,11.6737,0,2.83717,292.665,-2366.49,-28104
3.62802e+07,40.4242,0,2.89338,5071.1,-1105.48,-22034.7
3.64167e+07,4.07771,0,2.36803,923.922,226.991,-28638.2
3.6428e+07,106.716,1,2.80586,-21206.7,4149.65,-22582
3.6472e+07,62.6227,0,3.05745,10392.2,-4554.59,-22104.6
3.70376e+07,34.7849,1,2.90934,3325.45,523.862,-22354.8
3.71386e+07,45.9697,1,2.96463,-4600.77,-800.567,-20366.5
3.71425e+07,39.9763,1,2.8633,2503.68,7173.65,-25082
3.73462e+07,43.8513,0,2.3892,9351.85,-735.02,-29330.5
3.7397e+07,37.8089,0,2.90622,3402.97,-553.075,-21621.9
3.75016e+07,88.5569,0,2.87157,-4241.49,-266.567,-24788.4
3.76943e+07,106.082,1,2.3996,17955.8,9604.05,-19338.8
3.79856e+07,15.4763,0,2.705,623.153,1553.08,-26013.8
3.80512e+07,26.7348,1,2.98468,3409.96,4521.23,-29155.8
3.81202e+07,135.033,2,2.68278,-20341.3,19910.7,-29212.8
3.81568e+07,7.85776,2,2.65817,-386.942,-223.278,-27230.3
3.83442e+07,21.6543,1,2.44397,-2704.61,3783.71,-29004.3
3.90647e+07,152.869,1,2.93628,10559,8148.49,-11351.5
3.91255e+07,16.8814,2,2.69179,1270.47,-3005.92,-27231.7
3.91545e+07,19.0815,0,2.71649,3733.01,-1743.94,-28882.2
3.98426e+07,32.1983,2,2.75162,128.198,-4316.31,-23532.9
4.0067e+07,61.0293,0,2.81355,8384.44,-4693.9,-20224.5
4.05957e+07,26.6409,2,2.39451,-4015.44,-4092.88,-28714
4.10613e+07,23.481,2,2.68194,-3212.43,36.8944,-25000.6
4.12577e+07,88.0982,0,2.96981,15444.6,-10108.8,-26888.4
4.12648e+07,56.9621,0,2.52325,6478.52,10226.7,-29219.3
4.1308e+07,89.4446,1,2.40044,-8539.29,9941.84,-15107.6
4.13624e+07,132.882,0,2.43598,3507,-27219.5,-22665.2
4.16285e+07,35.2439,2,2.82805,-1471.6,4953.61,-23536.5
4.16586e+07,13.1805,0,2.49459,-585.211,-2202.52,-27293.3
4.17899e+07,8.3331,1,2.71233,913.025,1405.17,-28162.8
4.1924e+07,61.9575,1,2.89584,-4046.11,-5939.25,-18017.8
4.2071e+07,5.6677,2,2.99217,-826.322,-903.848,-28438.1
4.24706e+07,2.79413,2,2.91223,107.672,-264.154,-28271
4.25217e+07,9.22198,0,3.01115,1939.43,663.073,-29002.9
4.28769e+07,123.274,0,2.61346,9582.86,11839.4,-7678.58
4.31067e+07,85.3686,2,2.4467,9897.12,-3824.68,-14248.4
4.34453e+07,55.6962,1,2.57393,-4615.81,-10741,-27730.5
4.35411e+07,9.01716,1,2.57847,-1457.28,-298.115,-27598
4.41581e+07,74.7805,2,2.68718,3386.82,-8653.81,-16035.5
4.43779e+07,6.23656,2,2.98522,-1275.74,-553.62,-28591.8
4.45672e+07,115.127,1,2.80859,22862.7,-2793.1,-21877.6
4.46119e+07,49.826,0,2.83076,7977.14,1065.28,-22000.2
4.47262e+07,68.4674,2,2.3941,4371.4,6065.98,-16452.3
4.50062e+07,5.86039,2,2.44394,-262.176,-1069.38,-28091.7
4.54782e+07,35.7536,2,3.05017,-5039.66,-4169.59,-25008.7
4.58046e+07,56.4648,1,2.39569,-9023.38,7067.06,-29148.8
4.62866e+07,136.054,0,3.06124,21274.4,6252.75,-20294.1
4.62902e+07,165.972,2,2.85693,-22766.9,2182.23,-2450.86
4.64176e+07,37.0436,1,2.94352,-1313.52,3080.25,-21758.6
4.67346e+07,126.996,2,2.70558,-20233.5,-2673.67,-11460.6
4.70042e+07,220.28,2,2.93131,-4467.37,-7108.24,-19718.5
4.70571e+07,55.1487,2,2.76692,-4061.9,-6740.91,-26231
4.7067e+07,57.9004,1,2.82824,-2042.05,-8370.68,-20774.2
4.71839e+07,186.577,1,3.04099,9687.38,18477.8,4242.38
4.7687e+07,41.8164,1,2.82563,4484.63,-353.53,-21311.8
4.79516e+07,92.3728,0,2.49092,4487.66,9565.16,-12364.5
4.80222e+07,2.11309,2,2.90836,-510.025,-134.002,-28866.9
4.83058e+07,5.68804,0,2.68895,878.53,-900.388,-28549.7
4.88596e+07,109.524,0,2.53885,-11582.4,-6820.95,-10019.2
4.90486e+07,159.87,1,2.8538,18890.9,-13882.7,-4811.98
4.9099e+07,75.5406,0,2.55078,-563.204,-8194.97,-15994.2
4.92623e+07,43.4247,1,2.89563,7919.29,4118.72,-26932.7
4.93374e+07,72.8222,0,2.78457,-11619.7,9926.12,-28891.8
4.9421e+07,24.3975,2,2.36901,4098.9,-3211.48,-28892.9
4.97474e+07,40.16,0,2.41617,8182.02,2099.72,-27214.4
4.97721e+07,105.789,0,2.7579,4375.73,5002.47,-25997.8
5.01121e+07,9.02425,2,2.703,887.137,-1729.26,-29237.7
5.0202e+07,9.30502,2,2.48177,-1651.07,-869.668,-27952.5
5.06091e+07,168.65,2,2.92211,-9021.95,-28593,-9883.44
5.10038e+07,119.425,0,2.91542,-21649.6,-5808.92,-17727.5
5.16947e+07,197.842,0,2.45836,17268.5,23697.8,899.554
5.17752e+07,51.977,1,2.936,3310.48,10442.8,-27918.5
5.19625e+07,41.5378,2,2.87633,5121.53,-6638.39,-26232.4
5.23406e+07,4.11811,1,3.04746,-614.66,715.334,-28701.4
5.24814e+07,84.5356,2,2.51712,6057.11,-4900.33,-20549.6
5.25634e+07,2.86639,2,2.39068,-170.569,491.966,-28612.6
5.28539e+07,34.4285,2,2.72651,-5374.94,4326.44,-26636.3
5.32251e+07,5.53153,0,2.68979,915.62,-30.4575,-27993.1
5.33207e+07,34.9101,1,2.93857,-720.456,6775.98,-25893.7
5.35823e+07,4.57421,1,2.62694,-612.332,283.996,-28060.6
5.37257e+07,53.0131,0,2.80983,9233.19,-3941.56,-23797.2
5.38245e+07,81.0729,0,2.92316,16826.2,3191.18,-29257.1
5.38796e+07,103.045,1,2.92103,3221.68,16253.7,-14828.6
5.39192e+07,26.6412,1,3.01447,1943.41,5238.46,-27958.5
5.39824e+07,39.1656,2,2.70874,-4510.08,4568.28,-23627.2
5.4234e+07,1.38829,1,2.48087,-276.239,282.992,-28898.1
5.44278e+07,152.895,1,2.72224,22626.8,21240.7,-20025.9
5.4586e+07,43.1169,2,2.84872,1432.45,-8305.81,-25298
5.4685e+07,145.27,0,2.84397,-16059.1,-22805.3,-16504.5
5.52405e+07,13.1139,1,2.64755,-2625.23,-18.0745,-27810.4
5.56532e+07,23.6282,0,2.62145,3915.19,-2888.44,-27418.1
5.57442e+07,16.9882,1,3.01551,1535.19,3138.8,-29884.4
5.58771e+07,85.1404,0,2.40701,14781.5,10411.8,-27717.9
5.61397e+07,71.0465,1,2.96869,1084.49,13077.2,-21655.3
5.64191e+07,56.5426,2,2.8353,-3916.6,-5441.53,-18967
5.66642e+07,57.5549,1,2.95823,4886.34,2625.6,-18101.4
5.70797e+07,15.9922,0,2.48483,202.409,3053.43,-27323.9
5.71101e+07,26.3279,1,2.96955,5150.24,-1060.53,-27207.4
5.74217e+07,51.2806,2,2.93828,793.164,8762.82,-22714.1
5.74759e+07,347.884,0,2.92445,8222.67,4922.14,-22319.5
5.75333e+07,4.84797,0,2.49278,321.523,750.509,-29545.1
5.77966e+07,55.448,0,2.80072,2719.92,-4328.12,-18340.7
5.78578e+07,56.3011,0,3.03177,6041.05,-5495.32,-20250.3
5.79598e+07,81.3606,2,2.62504,-14079.9,-3987,-19737
5.79666e+07,70.335,1,2.91823,4171.98,4354.41,-29182.5
5.80208e+07,7.11318,1,2.56071,-1464.8,220.877,-28280.2
5.81242e+07,13.4149,2,2.40032,-2577.26,546.601,-27655.5
5.86071e+07,67.8046,2,2.60792,3742.35,-12210.9,-22198.6
5.86552e+07,7.62275,0,2.93332,-594.193,-1474.91,-28724.9
5.87063e+07,31.1391,2,2.66177,-5069.59,-4337.28,-28441.8
5.87217e+07,5.48396,0,2.87474,1233.47,128.833,-29021.3
0,5.45034,0,2.7043,0,0,0
0,5.49528,0,2.89577,0,0,0
5.87231e+07,109.835,1,2.62432,-14830.7,2023.3,-11070.1
5.90355e+07,81.2204,0,2.92773,3576.74,-15392,-22374.8
5.90689e+07,167.416,1,2.90838,-775.924,25643.8,-4740.55
5.96141e+07,33.4217,2,2.488,-6761.93,-2357.51,-28593
5.97171e+07,40.2902,2,2.42589,-1130.52,-4671.09,-21727.1
5.9834e+07,87.9444,0,2.58588,13404.8,-12677.4,-26010.9
6.01892e+07,113.494,1,2.65955,454.165,22175.1,-19591.1
6.0227e+07,39.9226,2,2.55896,-5523.29,-944.488,-22445.5
6.03653e+07,156.742,2,2.90085,11562,-2297.76,252.171
6.0526e+07,22.4944,1,2.72735,222.563,4706.09,-27846.5
6.16573e+07,25.0952,0,2.39498,1787.18,-2832.47,-24653
6.16937e+07,7.0931,1,2.58254,933.14,1107.7,-28286.1
6.17021e+07,129.649,0,3.03899,14637.4,12182.8,-9450.72
6.1752e+07,46.1646,0,2.64718,4493.45,-5057.26,-21738.9
6.18689e+07,53.4803,2,2.476,525.505,-10695.7,-25030
6.21808e+07,79.4965,0,2.86982,15552.9,6054.47,-26811.6
6.23256e+07,19.9824,2,2.99359,2455.77,117.801,-25485.6
6.23699e+07,7.79895,0,2.98321,1701.91,128.385,-28458.9
0,7.78462,0,3.00328,0,0,0
6.23708e+07,20.4919,1,2.94179,-4273.68,71.885,-27898.4
6.23858e+07,20.3631,2,2.47715,-3357.41,2687.83,-29295.5
6.25136e+07,54.7675,2,2.68263,9800.05,5893.52,-27583.6
6.27745e+07,17.5814,1,2.95632,1023.42,292.535,-26528
6.30035e+07,88.6393,1,2.94586,-4046.34,9233.53,-15122.4
6.30768e+07,13.8415,2,2.63782,-2227.41,-1901.37,-29628.3
6.33148e+07,121.96,2,2.6058,15743.5,12581.1,-12861.7
6.34035e+07,71.834,2,2.81546,-5194.32,-2027.24,-23398
6.38434e+07,101.519,1,2.83948,11379,3848.72,-11213.4
6.42636e+07,41.1875,2,2.78046,-8660.21,-237.32,-29903.6
6.43158e+07,27.5769,1,3.01547,4067.17,246.666,-24795.4
6.44074e+07,22.4958,2,2.90323,2280.11,-1262.49,-24862.7
6.45843e+07,33.8882,0,2.9324,4777.46,956.452,-23562
6.46122e+07,46.0159,1,2.71618,-4268.9,-8675.77,-28701.2
6.47605e+07,55.5498,2,2.54231,-1343.22,-11733.9,-27959.1
6.48658e+07,33.5263,0,2.37603,4592.87,4151.93,-25241.3
6.54982e+07,29.4869,0,3.04289,4265.12,-1270.16,-24445.8
6.56489e+07,0.480648,1,3.02175,-55.9198,178.056,-28763
0,0.495119,1,3.03951,0,0,0
0,0.589849,1,2.57191,0,0,0
6.61008e+07,45.5021,2,2.62385,-564.039,6878.48,-22192.2
6.62694e+07,16.6225,0,2.56607,2092.85,501.365,-25994
0,17.0237,2,3.05365,0,0,0
6.64628e+07,41.7878,1,2.77509,-5409.81,-5963.11,-25346.4
6.66038e+07,97.0267,1,2.72096,-18025,-270.495,-19095
6.73855e+07,134.222,1,2.38228,25470.7,-2910.81,-16681.5
6.75893e+07,103.569,0,2.65873,8598.38,2648.41,-27897.8
6.76551e+07,78.8592,2,2.88743,-15333.5,-6420.84,-28241.1
6.81359e+07,22.3573,2,2.63508,-4072.58,-1631.27,-26907.8
6.81492e+07,126.528,1,2.3926,-12922.6,18042.2,-13702.2
6.83806e+07,49.485,0,2.63088,7092.09,-1764.64,-21312.6
6.86546e+07,77.4514,1,2.52249,-9871.25,-12377.2,-24669.8
6.89218e+07,32.5008,1,2.79731,5545.94,1080.04,-25007.6
6.92141e+07,27.8321,2,2.58641,-3607.64,-3213.99,-25347.9
6.96744e+07,141.191,1,2.40141,-233.287,27720.2,-17493.2
6.97295e+07,45.5429,2,2.6393,-8050.87,-156.143,-23475.5
6.99543e+07,73.791,1,2.62416,-6937.6,-596.39,-14891.3
7.00712e+07,73.2912,2,3.01688,-13011.4,-1538.35,-20737.6
7.01108e+07,199.996,0,2.91339,7451.26,29825.2,-17254.2
7.03104e+07,7.36189,0,2.78599,476.404,1515.53,-28925.5
7.11742e+07,113.649,1,2.6022,-5000.16,8316.25,-6837.01
7.13328e+07,132.278,0,2.72518,26153.9,-3228.23,-19471.1
7.18643e+07,130.958,0,2.67191,24038.8,8876.42,-18303.2
7.21139e+07,108.623,0,2.6824,3370.86,19122.9,-16704.3
7.21739e+07,159.639,0,2.52422,13011,-3013.03,-25293.8
7.22383e+07,0.337304,0,3.31866,148.377,87.0643,-28877.2
0,0.375327,0,3.05231,0,0,0
7.23639e+07,26.4514,1,2.53405,1622.76,-5230.55,-28040.2
7.25422e+07,34.3362,2,2.62961,-3218.5,-5489.26,-25191.6
7.34793e+07,126.985,0,3.01726,16039.4,-5002.15,-8139.75
7.35136e+07,15.7276,0,2.58916,2615.76,492.363,-26712.3
7.35598e+07,2.6162,0,2.98503,-81.2571,-379.817,-28431.5
0,2.58402,0,2.53389,0,0,0
7.36082e+07,77.1165,2,2.4946,3224.48,-15491.8,-24549.6
7.36602e+07,59.7945,0,3.02448,8117.65,-2483.81,-19553.2
7.37422e+07,14.3726,2,2.84883,-1519.54,2156.54,-27349.5
0,14.34,2,2.50277,0,0,0
7.388e+07,24.7837,0,2.8414,-219.173,-2269.43,-24148
7.39204e+07,71.7365,2,2.67754,2945.12,7317.67,-15989.4
7.40525e+07,100.79,0,3.04989,7129.56,-15872.3,-16823.2
7.45525e+07,38.1618,1,2.86679,942.105,1528.6,-28716.3
7.45683e+07,155.339,0,2.98748,-13573.4,-25085.1,-13157.3
7.46512e+07,37.7527,0,3.0556,5098.5,-2652.82,-23375.3
7.49893e+07,117.199,2,2.69212,-21420.5,-12458.1,-27572.8
7.50744e+07,46.0822,2,2.88287,-3918.11,5263.79,-21722
7.5154e+07,48.8026,0,2.89157,489.163,-4052.37,-19417.9
7.53351e+07,99.8673,2,2.44786,14053.1,-7861.47,-15145.8
7.53656e+07,121.314,2,2.61245,6229.21,17910.1,-11693.9
7.54462e+07,20.9429,1,2.42675,1938.78,-1233.03,-25071.4
7.55895e+07,196.785,1,2.79227,-1923.46,14311.6,-27511.7
7.56249e+07,5.90441,2,2.51508,-539.552,-40.3104,-27685.9
7.57603e+07,24.2045,1,2.92705,-1800.36,-1313.93,-24279.3
7.58165e+07,4.25937,0,2.72048,-347.284,285.91,-28100
7.58866e+07,189.034,2,2.37672,-14501.5,-28065.1,-5334.19
7.61209e+07,111.079,2,2.44636,-19829.7,-5825.97,-17519.8
7.65536e+07,12.094,0,2.99001,2596.59,-60.9317,-29329.8
7.66995e+07,88.2943,0,2.81314,17154.2,4828.77,-25747.6
7.67597e+07,168.502,0,2.52453,9462.72,25902.4,-6233.31
7.6859e+07,68.4416,2,2.8964,-139.474,-13854.3,-24674.2
7.69037e+07,50.792,2,2.92853,4188.17,-8457.17,-23728.9
7.73513e+07,185.33,1,2.8191,-15821.8,-7956.43,5872.25
7.75076e+07,8.37292,1,2.43409,710.266,1406.77,-27894.1
7.82752e+07,10.3381,1,2.70321,1528.52,-1245.32,-28014.7
7.84128e+07,3.92387,0,2.47446,690.78,-438.23,-28412.6
7.84816e+07,30.5695,0,2.49623,3074.56,5714.03,-29626.6
7.85231e+07,86.6067,0,2.46663,-13190.1,-72.3289,-16172
7.86284e+07,184.786,0,2.4718,29377.4,-9480.37,-4756.45
7.87571e+07,60.4741,1,2.85501,1012.03,11406.5,-23123.7
7.87748e+07,77.8698,0,2.39922,-7870.75,-10933,-19405.4
7.88097e+07,42.8158,1,2.61116,-6497.95,17.9117,-22470.6
7.97665e+07,108.214,1,2.73877,6490.76,-10247.7,-9611.84
7.98952e+07,218.167,1,2.86006,-26024.6,12635.9,657.362
7.99435e+07,10.4126,0,2.41666,1571.04,585.653,-27279.6
8.0542e+07,168.221,1,2.66889,3334.49,-15258.5,2960.16
8.06109e+07,30.5643,2,2.36965,-3544.16,-2849.44,-24143.2
8.22477e+07,273.769,2,2.50408,-16825.2,-11798.4,25279
8.25996e+07,15.5521,0,2.89843,2974.71,1423.41,-28139
8.26427e+07,16.5284,1,2.82111,-2826.11,-1896.11,-29697.6
8.2658e+07,106.869,1,2.72264,9624.14,14700.7,-14680
8.27427e+07,140.905,2,2.67986,-4654.6,113.394,-28951.9
8.28694e+07,74.5741,2,2.51706,-8402.57,4445.23,-16235.3
8.29124e+07,72.0328,1,2.4611,-5878.06,5392.8,-15813.1
8.33552e+07,31.5671,1,2.39529,3032.08,-312.631,-22943.5
8.34933e+07,79.5746,2,3.05646,-8651.16,3708.03,-15051.2
8.35031e+07,85.1514,2,2.7105,17515.6,-3164.54,-26735.5
8.3703e+07,17.1167,1,2.4921,1898.82,3162.41,-28902.1
8.39286e+07,63.1584,1,2.39567,-4643.45,8353.22,-19437.7
8.39822e+07,72.0014,0,2.86195,13470.9,7089.86,-29087.6
8.40288e+07,65.5904,2,2.46099,-8625.92,-8344.15,-21705.1
8.41824e+07,64.5229,1,2.77761,-10358.1,5545.61,-21908.5
8.41918e+07,19.2477,0,2.90833,2627.09,957.717,-25814.4
8.44122e+07,16.2638,2,2.44473,1569.39,1576.41,-26255
8.46565e+07,72.307,0,3.06059,-1276.88,8096.2,-16360.6
8.48893e+07,95.5987,1,3.04662,-12524.4,2450.48,-13350.2
8.64755e+07,52.7133,0,2.85858,1043.76,-9694.1,-23515.7
8.655e+07,10.5144,1,2.43982,1600.32,77.5548,-27325.2
8.67328e+07,178.813,2,2.92189,-788.252,-2242.57,-25276.7
8.70569e+07,266.347,2,2.95604,7338.84,26839.7,19544
8.72307e+07,2.29833,1,2.89251,-267.615,473.48,-28602.8
0,2.92793,0,2.88522,0,0,0
0,2.38014,1,2.98695,0,0,0
8.75122e+07,37.2541,2,2.51521,1019.77,5303.49,-23133.4
8.75582e+07,4.696,2,3.03138,-586.08,-796.594,-28385
8.7772e+07,25.2502,2,2.93883,419.218,-2321.46,-24033.7
8.811e+07,7.28183,0,2.86322,-149.889,855.691,-27573.9
8.81416e+07,68.0374,1,2.92381,7377.56,4131.59,-18429.9
8.81758e+07,14.3805,2,2.61892,-2689.25,1181.25,-29786.5
8.82351e+07,39.7864,1,2.49711,-3867.72,6412.73,-24795.3
8.86981e+07,107.815,1,2.49568,-11715.2,-351.513,-9238.42
8.90103e+07,107.097,0,2.41914,18367.5,-6650.87,-17199.3
8.92626e+07,102.486,1,2.88719,-12972,12235.6,-16633.7
8.93298e+07,107.852,0,2.79894,17619.8,6794.42,-16147.2
8.93898e+07,15.1252,2,2.72924,-1986.42,-2515.79,-28065.9
8.95205e+07,117.659,2,2.71921,-17527.5,234.732,-11239
8.9558e+07,13.927,0,2.37113,1800.41,-1223.72,-26745.3
8.96677e+07,0.486801,0,2.91536,200.188,-66.7443,-28821.1
0,0.488516,0,3.0314,0,0,0
0,0.548688,0,2.93114,0,0,0
8.99439e+07,206.054,0,3.02562,-26894.4,1008.54,2779.32
8.99454e+07,6.22385,1,2.47083,38.8059,-957.688,-28010.7
0,6.14047,1,2.54432,0,0,0
9.01656e+07,11.2898,0,2.44613,1553.83,-1768.77,-28119.4
9.05522e+07,44.797,1,2.6392,8298.34,3079.24,-25507.2
9.09006e+07,48.1246,1,2.38982,4334.88,7060.04,-22821.1
9.14243e+07,111.331,1,2.52887,-11483.2,6732.28,-9366.93
9.16666e+07,57.8098,1,2.63725,-10437.7,916.205,-22457.7
9.16954e+07,65.5458,2,2.76813,-2430.1,-13677.2,-28764.9
9.18449e+07,95.5451,1,2.48658,-19743.9,4567.17,-28583.4
9.20825e+07,70.8986,2,2.52538,-10430,-7338.15,-20797.3
9.21223e+07,228.767,0,2.88816,11832.6,-14505.5,15446.5
9.23843e+07,17.3408,0,3.04304,-911.607,-3433.98,-28099.4
9.24394e+07,107.762,1,2.38819,1186.6,18684.5,-15744.6
9.25925e+07,100.253,2,2.83148,13197.9,-4399.77,-13011.9
9.27679e+07,297.618,0,2.69733,23813.4,-16113.5,-6600.52
9.31627e+07,45.2794,2,3.02802,-3257.83,-6010.88,-22152.6
9.43999e+07,58.7366,0,2.36817,7118.99,5213.28,-19992.9
9.49809e+07,144.267,2,2.77722,9666.33,-26142.3,-16659.2
9.51509e+07,85.1018,1,2.58874,-7153.83,2910.98,-12555.5
9.5222e+07,56.452,1,2.60426,-8935.61,-7883.49,-29615.4
9.53568e+07,14.3458,1,2.54121,1153.22,964.312,-26172.6
9.5455e+07,11.4402,0,2.45911,-1286.66,346.643,-29522.3
9.54577e+07,108.133,1,2.723,-10037.3,-2097.35,-8457.33
9.54895e+07,31.92,2,2.46329,-5506.63,-4052.06,-29462
9.5747e+07,32.3372,2,2.45032,-6714.21,-1530.26,-29530.8
9.60641e+07,111.14,1,2.84134,-13832.1,13628.9,-15719.9
9.62094e+07,12.8862,0,2.91844,2803.96,209.337,-29135.3
9.62494e+07,49.7826,1,2.45931,6226.09,5395.59,-22217.8
9.64285e+07,17.1761,0,2.68972,173.966,1471.52,-25498
9.65049e+07,25.8252,1,2.81809,-4283.24,2694.59,-26687
9.65451e+07,101.109,2,2.70129,9163.29,6384.26,-10708.3
9.66713e+07,33.0767,1,3.00488,-2038.56,4607.08,-23965.1
9.71497e+07,9.20407,1,2.49041,-897.988,-245.593,-27099.5
9.72106e+07,82.1247,1,2.94915,1968.28,9679.21,-14659.5
9.75897e+07,50.9919,2,2.79225,6961.84,-1408.72,-20828.3
9.77066e+07,64.8809,0,2.91634,-7964.37,4416.7,-18729.3
9.89882e+07,76.5591,2,2.41091,4946.43,14515.8,-23844.4
9.90433e+07,172.847,1,2.60504,-10320.9,27076.5,-14653.4
9.91787e+07,27.2249,1,2.47338,-3529.1,350.851,-24230.5
9.91984e+07,21.0842,1,2.8058,387.303,-3921.44,-26919.4
9.92038e+07,132.085,0,2.53691,15700.1,12264,-9225.74
9.92046e+07,9.68408,1,2.38357,877.211,1087.1,-27310.4
9.92294e+07,0.63597,2,2.94842,-145.165,-7.31846,-28727.3
0,0.60524,2,2.48145,0,0,0
9.93535e+07,126.384,1,2.6721,18554.6,-11046.3,-13285.5
9.96164e+07,125.391,2,2.4493,-16530.8,-19987.1,-22822.8
9.99388e+07,65.032,2,2.38132,8469.94,-4188.57,-18824.3
1.00621e+08,37.3807,0,2.43173,4263.81,-6721.81,-28130
1.00682e+08,46.8823,0,3.02795,-6994.27,-5496.88,-24817.1
1.00788e+08,0.898545,1,2.61724,160.822,104.616,-28732.1
0,1.30814,2,2.78107,0,0,0
0,0.906956,1,3.00547,0,0,0
1.00884e+08,26.3657,1,2.9309,2576.24,198.311,-23927.6
1.01196e+08,113.414,0,2.42545,12801.8,2213.99,-8623.64
1.01903e+08,122.606,1,3.02146,-5321.38,24653.6,-23434.4
1.01927e+08,198.545,2,2.96988,14035.6,-29509.6,-2948.37
1.02475e+08,20.7859,0,2.871,2894.94,-3350.36,-29181.7
1.02554e+08,9.22564,2,2.47752,1397.31,-287.093,-27525.9
0,9.23322,2,2.74205,0,0,0
1.03058e+08,136.543,2,2.93253,-2873.87,-13961.9,-20524.3
1.0345e+08,28.4982,1,2.69031,-4711.59,-3010.2,-26575.2
1.03526e+08,40.358,1,3.03601,724.495,8498.7,-29536.1
1.03532e+08,9.18832,0,2.58413,1456.47,-1388.01,-29166
1.03544e+08,77.4947,1,2.68503,13529.3,-8701.4,-26255
1.0423e+08,168.531,2,2.41017,-17930.8,8385.02,839.435
1.04242e+08,42.0708,2,2.73233,-477.625,-7824.09,-24543.7
1.04533e+08,46.8673,0,2.73461,3084.61,-5725.99,-21369
1.04582e+08,34.9621,0,2.7012,7025.22,694.17,-26372.3
1.0483e+08,172.78,0,2.76262,27988,22880.1,-24205.1
1.05375e+08,1.93251,0,2.94031,361.612,281.857,-28676.7
1.05595e+08,14.2677,2,2.50372,1201.71,-992.022,-26224.7
1.05916e+08,37.8919,2,2.92001,5094.76,-6170.72,-29264.9
1.0606e+08,71.9857,1,2.67105,-2081.33,-8238.73,-16260.4
1.06087e+08,61.7149,0,2.54281,-2151.62,7464.78,-18388.3
1.0612e+08,40.002,0,2.96058,6347.79,5188.51,-26690.9
1.06216e+08,266.866,1,2.78129,12713.1,9888.24,-15214.7
1.06285e+08,27.9883,0,2.78839,3375.97,-4885.65,-29542.2
1.06509e+08,60.1131,0,2.3982,-5466.45,5467.43,-18763.6
1.06657e+08,11.3455,2,2.97894,-1289.58,1376.12,-27410.2
1.07062e+08,19.7506,2,3.02068,2777.55,-3092.74,-28301.2
1.07106e+08,42.4025,1,2.87188,-148.308,-8773.42,-27645.3
1.07271e+08,54.3463,0,2.82991,-467.493,-11316.9,-27250
1.07359e+08,98.4063,2,2.40237,-14595.5,14005,-23876
1.07563e+08,121.037,2,2.55513,10357.4,-22356.5,-21845.6
1.07674e+08,3.87836,0,2.85112,818.457,352.519,-28656.8
0,3.81327,0,2.76059,0,0,0
0,3.80008,0,2.92598,0,0,0
1.07816e+08,65.4119,2,2.75723,1554.62,906.873,-29944.3
1.08334e+08,73.97,0,2.55972,-2953.25,15355,-29048.2
1.08599e+08,100.42,2,2.59991,-10215.9,5389.99,-11045.2
1.08807e+08,39.4162,0,2.58718,-6267.45,4218.29,-25448.3
1.08871e+08,37.3458,1,2.47327,-446.123,7781.5,-27008
1.09058e+08,110.171,0,2.38044,-20820.2,-2681.15,-18851.3
1.09119e+08,84.2966,1,2.8742,-8767.22,5687.15,-14473.4
1.0916e+08,52.4481,0,2.69419,2815.36,6950.03,-20712.3
1.09257e+08,26.6171,0,2.46858,-2825.97,-1267.02,-24175.5
1.09497e+08,8.04002,0,2.50268,-306.816,975.595,-27483.7
1.0974e+08,263.542,0,2.78984,-2493.17,22331.7,21859.7
1.0991e+08,99.9814,0,2.42122,16054,13235.2,-24618.5
1.10211e+08,34.6318,2,2.97925,-3358.17,1940.4,-22662.1
0,34.6505,2,2.91599,0,0,0
1.10281e+08,25.8902,1,2.53532,1405.62,5342.83,-29541.5
1.1058e+08,30.4555,1,2.49459,3541.81,3319.01,-24544.5
1.10649e+08,29.3355,2,2.63699,1191.62,-4043.51,-24250.4
1.1072e+08,3.86552,1,2.6842,-733.007,515.256,-28760
1.1143e+08,58.7778,1,2.93134,-270.163,11021.9,-23096.6
1.11439e+08,76.9813,2,2.78552,-12062.9,-10965.7,-28742.6
1.11648e+08,69.1912,0,2.515,3368.81,-14238.2,-27889.3
1.11705e+08,174.301,1,2.75719,29267.1,12094.5,-10299.1
1.11792e+08,101.359,1,2.58543,11902.7,14649.9,-18674.5
1.11895e+08,82.3422,0,3.00848,-2613.12,-16801.1,-25778.6
1.12055e+08,159.147,2,2.98082,8607.15,-12978.5,695.493
1.12213e+08,141.838,2,2.72041,4502.79,-19798.6,-6839.04
1.12529e+08,10.2092,0,2.45905,1801.29,1020.54,-27939.4
1.12707e+08,13.1418,0,2.71341,1211.34,1023.73,-26498.3
1.13449e+08,87.1399,2,2.60657,10500.8,4760.12,-14543.8
1.13499e+08,75.9508,0,2.48749,95.7673,11462.6,-17554.4
1.13867e+08,146.621,1,2.88024,-29555.5,-7181.52,-24098.3
1.14328e+08,41.5594,1,2.89341,-7053.48,-2135.97,-24137.5
1.14417e+08,18.9233,1,2.79744,-3701.29,-1207.53,-27849.4
1.14621e+08,50.3358,0,2.40115,6203.69,6763.22,-23306.3
1.14747e+08,29.2869,0,2.46488,5259.86,-214.707,-25462.7
1.14873e+08,105.596,2,2.9407,-13272,13543.8,-21307.7
1.14894e+08,20.8031,0,2.59046,3795.51,-608.061,-26507.6
1.14927e+08,8.89323,2,2.85821,-1387.43,-1367.51,-28623.4
1.15021e+08,26.3696,1,2.4815,-2832.22,381.423,-23993.9
1.15064e+08,10.4353,0,2.71954,2075.22,787.433,-28227.9
1.15374e+08,45.5003,1,2.45469,5811.45,7358.06,-26491.4
1.15391e+08,65.4405,0,2.78854,-463.797,-10515.1,-19928.3
1.15475e+08,297.284,0,2.47263,-19086.7,23829.6,26100.4
1.15498e+08,13.6969,1,2.64411,-2460.78,-121.32,-27272.7
1.15964e+08,23.6643,1,2.65127,-4787.52,-1088.67,-29961.6
1.16151e+08,98.2091,1,3.05506,-1110.74,2232.64,-27808.7
1.16345e+08,15.752,1,2.54976,-2709.16,2015.74,-29350.8
1.16389e+08,42.1189,2,2.6516,-8055.43,-3927.35,-28485.8
1.16415e+08,108.778,1,2.4987,-14657.2,3329.34,-11375.2
1.16601e+08,70.7557,2,2.72676,-11837.8,2222.91,-19968.6
1.16737e+08,35.4714,2,2.92236,532.399,-4880.09,-23151.5
1.16932e+08,6.37341,1,2.71803,61.4865,-1115.17,-28134.5
1.17082e+08,87.494,1,2.76806,-6930.46,2086.91,-11852.8
1.17711e+08,5.81674,2,2.47756,-312.395,-558.515,-27712.7
0,5.85534,2,2.54779,0,0,0
1.17777e+08,31.3411,0,2.98425,3024.04,527.78,-22966.4
1.17875e+08,41.6929,0,2.73376,-2695.63,6443.7,-23516.9
1.1912e+08,83.6084,2,2.63094,-13028,5967.85,-18501.7
1.19243e+08,17.6929,0,2.91615,1526.16,3144.57,-27437
1.1936e+08,28.2047,0,2.5221,4492.88,3995.26,-28067.6
1.19623e+08,53.699,2,2.77524,319.681,-7659.64,-20452.7
1.19897e+08,132.869,0,2.90844,21614.1,10455.2,-14478.9
1.20612e+08,33.1869,2,2.47433,-3970.64,-5899.12,-28592
1.20657e+08,197.196,2,2.66881,3690.7,-29372.9,443.666
1.20768e+08,63.2919,1,2.41165,-7107.34,-9853.76,-23212.8
1.20864e+08,31.1565,2,2.82622,1100.74,-2661.37,-22910.5
1.20877e+08,181.62,1,2.82134,13538.9,1840.35,-26888.5
1.20879e+08,249.199,0,2.83522,24974.4,-16698.4,8898.67
1.21039e+08,63.852,1,2.87553,4285.75,4880.99,-17077.3
1.21259e+08,40.9585,2,2.4493,3117.54,-6437.89,-23834
1.21296e+08,53.729,1,2.58838,5998,-4435.4,-20312.8
1.21376e+08,48.9374,2,2.80405,4666.92,-3901.58,-23343.3
1.21386e+08,101.032,2,2.63181,3393.16,-248.535,-28018.7
1.21724e+08,85.9716,0,2.47837,277.812,-14573.7,-18000.3
1.22095e+08,26.294,2,2.52871,-77.722,5148.47,-26859.8
1.22376e+08,4.71174,2,2.79812,-380.044,-426.705,-27957.8
1.22579e+08,163.146,2,2.5986,16538.3,-2605.01,1265.34
1.22649e+08,77.0938,1,2.39641,-14242.7,7756.94,-26580
1.22916e+08,163.863,1,2.54942,26336.5,13459,-10878.6
1.23189e+08,103.005,0,2.89992,7195.23,-10888.3,-11530.3
1.23918e+08,273.651,2,2.68626,-18577.8,23899.1,20263.6
1.2394e+08,19.588,1,2.68554,-2280.37,-3.20669,-25355
1.24273e+08,98.3811,2,2.51619,-4417.39,-2695.23,-26285.4
1.24355e+08,1.27426,0,2.5227,367.995,-82.7108,-28783.7
1.24533e+08,113.125,2,2.69098,-18191.7,15106,-29306.2
1.25095e+08,122.677,1,3.0174,11366.1,5816.91,-6530.89
1.25291e+08,22.3954,0,2.68414,2848.36,1207.76,-25176.8
1.25294e+08,90.2454,0,2.46014,2223.17,11740.7,-13913.5
1.25294e+08,48.0608,2,2.66873,-6786.65,-7650.4,-28215.8
1.2578e+08,17.9235,2,2.46964,-3803.94,233.397,-28189.6
1.26247e+08,4.09867,0,2.94951,262.111,-20.7125,-27973.2
0,4.08152,0,2.59745,0,0,0
1.26577e+08,33.9087,2,2.50677,-5237,1381.06,-24094.7
1.26694e+08,107.066,2,2.91487,-14918.8,5181.56,-12805
1.27051e+08,136.001,2,2.73129,20454,-6511.01,-9846.07
1.27057e+08,158.76,1,2.47589,8162.2,-27847.6,-12067.7
1.27092e+08,33.2867,1,2.64917,-4720.81,5342.19,-28681.6
1.27689e+08,40.1081,2,2.90339,-1835.68,-7724.32,-25724.9
1.27764e+08,0.595068,2,2.92258,-149.038,-156.906,-28800.5
1.27907e+08,133.7,1,2.36238,-16804.4,14509,-11233.7
1.27941e+08,9.58794,2,2.79684,-1924.53,477.93,-28266.7
1.28036e+08,30.3925,1,2.73012,5008.64,3774.96,-27406.6
1.28256e+08,84.6031,0,2.39253,15838.2,7617.69,-24920
1.28365e+08,11.1244,2,2.83638,-396.355,-1987.39,-27495.7
1.28651e+08,135.294,0,2.64934,-21328.2,-2377.27,-10113.4
1.29142e+08,170.784,2,2.82007,-26057.5,-20876.6,-15361.7
1.29148e+08,58.8971,1,2.43114,9488.47,1767.29,-20981.4
1.29267e+08,68.1331,0,2.69508,-4385.59,-7734.99,-17576.2
1.29329e+08,166.195,0,2.41,-11625.8,11947.3,-22137
1.29525e+08,20.8765,1,2.84021,-2871.6,3337.61,-27909.7
1.29947e+08,103.202,2,2.6849,4489.54,-16402.5,-15184.6
1.29999e+08,149.335,0,2.85111,-23788.8,-202.899,-8450.94
1.30032e+08,28.2636,2,2.90744,1157.96,-4233.55,-24743.4
1.30127e+08,112.869,1,2.45087,-20344,6492.9,-18008.5
1.30178e+08,19.9697,2,2.91111,-2364.06,1970.75,-26004.5
1.30308e+08,90.4699,2,2.37488,10919,-11996.8,-18569
1.30404e+08,114.551,1,2.54485,13501.8,2747.03,-8961.78
1.30551e+08,7.42097,2,3.01067,-632.343,868.803,-27758.1
1.30696e+08,101.682,0,2.48583,12596.9,17366,-26686.9
1.31136e+08,52.5741,1,2.51302,8612.23,-479.334,-21844.6
1.31454e+08,58.2202,2,2.54737,-11060.7,-3601.79,-24551.8
1.3147e+08,106.036,0,2.78381,19819.3,-3749.1,-19964.7
1.31556e+08,42.6795,2,2.395,777.09,-6241.55,-22257.3
1.31562e+08,128.073,0,2.7754,12035,12551.4,-8166.56
1.31689e+08,56.9847,2,2.97661,-8470.92,1211.24,-20468.6
1.31883e+08,48.0434,0,2.93645,2854.24,9303.96,-26131.4
1.31987e+08,83.6021,1,3.03688,-11791.3,6011.31,-17259.6
1.32012e+08,3.18335,0,2.66529,-581.155,18.6779,-28605.3
0,2.72456,2,2.3854,0,0,0
0,2.71824,2,2.42414,0,0,0
1.32301e+08,27.4046,1,2.36957,-4689.08,2836.33,-26652.6
0,27.5642,1,2.36432,0,0,0
1.32425e+08,14.3962,0,2.54324,-240.245,-2701.74,-27415.4
1.32452e+08,68.9534,1,2.74489,-10046.3,3652.42,-18930.3
1.32987e+08,13.4555,2,3.05302,-967.486,-1587.71,-26631.4
1.33372e+08,36.4841,1,2.90596,1797.11,5696.58,-23933.6
1.33654e+08,25.9561,0,2.85705,532.217,3081.13,-24343.2
1.33696e+08,159.62,2,2.48235,-27532.9,17526.2,-20210.4
1.33939e+08,52.3664,2,2.6637,3749.32,5073.81,-19797.9
1.34119e+08,128.756,2,2.96175,-21390.8,-4806.86,-12960.5
1.3429e+08,38.3253,2,2.47336,-4257.33,-2200.97,-22227.8
1.34296e+08,23.3504,1,2.49207,-3550.27,161.125,-25334.9
1.34336e+08,24.6386,1,2.49771,328.611,5044.89,-27215.5
1.34428e+08,8.98633,2,2.80298,-1079.94,-1578.26,-28389.5
1.34533e+08,15.4279,0,2.5585,-2793.75,-589.801,-27386.1
1.34632e+08,8.40248,0,2.47616,-831.839,-254.595,-27298.4
1.34706e+08,14.0775,0,2.9297,-784.581,1270.35,-26308.3
1.34793e+08,17.2737,2,2.74998,642.257,-3547.13,-27887.5
1.3509e+08,52.7815,0,2.87519,9863.79,-3068.48,-24556.3
1.35584e+08,7.02957,1,2.56299,-1110.07,-942.097,-28525.3
1.35962e+08,69.4072,2,2.47909,10878.9,-5961.78,-20940.2
1.36465e+08,154.79,0,2.61012,-10714.9,-29845.4,-21044
1.36728e+08,11.8336,1,2.40867,50.1671,1854.36,-27061.4
1.36894e+08,139.608,0,2.83988,-23172.2,17233.8,-23848.1
1.37066e+08,26.1465,1,2.6767,-2186.5,-2009.64,-24181.6
1.37254e+08,10.6201,1,2.68801,-1201.14,374.116,-26920
1.37284e+08,8.98971,1,2.46906,-655.565,1908.58,-28986.3
1.37581e+08,40.0039,2,2.88503,-860.22,-4904.56,-21993.2
1.37688e+08,69.8944,2,2.64302,12408,6129.58,-23894.2
1.37723e+08,163.022,1,2.68295,-12969.3,26934,-11711.2
1.38004e+08,150.638,2,2.69051,-7705.76,-1155.43,-29308.3
1.38068e+08,82.1048,2,2.64045,-13984.9,-7793.12,-21990.7
1.38086e+08,52.2675,2,2.59581,-8196.39,2328.09,-21755
1.38774e+08,61.6183,0,2.73248,-5404.89,-1570.03,-17146.1
1.39123e+08,61.6415,1,2.79646,-7276.93,-10314.3,-25897
1.39246e+08,56.4426,1,2.37837,-10012.5,-6080.66,-26396.2
1.39668e+08,21.3696,0,2.44243,475.98,4495.93,-28168.2
1.39691e+08,136.824,2,2.62031,-21394.7,18597.6,-23284.4
1.39827e+08,81.4119,2,2.73343,-4541.91,-12104.1,-26171.4
1.39966e+08,93.333,2,2.37636,-27.6112,12800,-14511.2
1.40217e+08,96.902,1,2.57047,-2585.99,-12948.6,-13241.5
1.40242e+08,25.8035,2,2.67719,-2349.39,-3047.59,-24884.6
1.40608e+08,23.2851,2,2.99685,-729.678,-3032.11,-24988.8
1.40852e+08,44.8253,2,2.99369,-1817.11,8628.5,-25698.7
1.40887e+08,44.1941,2,2.73554,4568.12,-882.588,-20754.9
1.41077e+08,6.76928,2,2.98025,-881.162,269.464,-27716
1.41154e+08,156.283,0,2.59989,-25414.3,-8579.01,-9731.27
1.41399e+08,95.9864,0,3.05983,12776.8,-8697.21,-15890.1
1.41921e+08,20.4334,2,2.42833,-437.487,-3582.35,-26306.6
1.42166e+08,21.4458,0,2.95373,3021.73,3408.38,-28362.4
1.42383e+08,48.6787,1,2.8479,-7546.34,-6496.49,-26459.5
1.4241e+08,227.825,2,2.37406,-23266.7,22785.9,6698.37
1.42437e+08,281.036,2,2.62389,-23681.3,-6656.92,25167.9
1.42496e+08,160.355,0,2.80941,23673.4,-18814.4,-13779.5
1.42562e+08,41.4149,2,2.74528,2377.48,4045.51,-21504.5
1.43396e+08,114.406,1,2.42951,533.976,24201.9,-26943.5
1.43825e+08,52.3273,2,2.5785,-3899.64,-2118.72,-18663.3
1.44048e+08,29.1974,1,2.36392,-5550.07,2479.01,-27341.4
1.44099e+08,148.096,2,2.40675,-22392.3,1143.39,-6912.66
1.44619e+08,62.2359,2,2.71303,12467.8,306.889,-24803.6
1.44897e+08,161.548,2,2.83858,18019.3,24794.7,-14390.4
1.45027e+08,116.659,0,2.76979,-9377.26,1825.23,-23825.3
1.45041e+08,87.9124,1,2.49212,498.727,-13541.7,-16156.7
1.45362e+08,6.73034,2,2.87821,-1234.67,91.972,-28030
1.45854e+08,62.7597,2,2.80364,-8398.9,-2907.32,-18987.8
1.45871e+08,140.731,1,3.02176,-2232.69,17490.3,-5131.16
1.45899e+08,10.2592,1,2.60803,429.748,1086.26,-26952.4
1.45988e+08,67.2734,2,2.64329,-6201.81,-12900.4,-29083
1.46185e+08,29.4909,1,3.0178,3257.06,292.77,-23576.1
1.46194e+08,3.61532,2,2.66005,628.942,-433.053,-28629.6
1.46414e+08,66.6622,0,2.36732,14030.4,2056.75,-28117
1.46822e+08,48.7598,2,2.58726,-9095.74,2124.53,-24361.5
1.47054e+08,9.27416,2,2.68683,-587.707,-587.966,-27019.9
0,9.1827,2,2.53497,0,0,0
1.47113e+08,41.1041,1,3.05244,-2630.27,7375.9,-25033.5
1.47197e+08,4.92529,1,2.52025,263.358,792.047,-28153.9
1.47299e+08,72.6338,1,2.69442,-12111.7,1624.85,-19502
1.47545e+08,14.9809,0,2.44535,3221.04,-592.228,-28886.1
1.47939e+08,73.2524,0,2.85743,-8351.69,3381.61,-16406.3
1.48041e+08,1.11429,0,3.04285,-10.3559,26.5723,-28588.4
1.48107e+08,47.8086,0,2.66462,1333.29,-5888.22,-20721.1
1.48117e+08,39.8285,2,2.80191,-3405.54,-5684.91,-23564.2
1.4852e+08,131.774,2,2.61469,-6517.42,-20298.9,-10893.2
1.48527e+08,12.5678,0,2.48258,2464.42,-653.165,-29917.3
1.48722e+08,7.75383,0,2.91798,367.093,1267.17,-27834.5
1.48958e+08,39.5096,0,2.48622,143.553,-8368.01,-28917.1
1.49051e+08,103.652,1,2.83956,-7701.68,10199.8,-11110
1.49207e+08,48.1533,0,2.74065,5957.73,6502.9,-23735.3
1.49408e+08,40.3748,0,2.84709,635.934,-8488.58,-28391.4
1.49878e+08,119.388,1,2.48808,-19463.6,-15391.5,-25769.7
1.50176e+08,57.7516,1,2.52412,-9842.82,-4361.4,-23039.4
1.502e+08,25.0643,2,2.493,-364.623,-5099.92,-27158.5
1.50442e+08,28.5671,0,2.38012,-515.179,-5518.7,-26362.5
1.50662e+08,71.7768,2,2.90987,1342.07,9443.17,-17213
1.51165e+08,43.5079,2,3.05483,7019.67,924.669,-23115
1.51375e+08,144.262,0,2.81828,-17933.2,-6548.23,-5304.69
1.51515e+08,66.5231,0,2.82646,6804.4,-4889.18,-17583.9
1.51691e+08,104.794,2,2.62504,-15464.4,-1820.24,-13097.7
1.51935e+08,60.0049,1,2.58184,-8193.41,2323.78,-19366.8
1.52398e+08,48.1488,0,2.93831,-4589.4,-4735.11,-21205.5
1.52454e+08,14.3826,1,2.84353,-1327.17,-1227.66,-26420.6
1.52478e+08,223.706,2,2.84482,26465.6,2397.62,9900.34
1.52542e+08,2.22743,0,2.51864,361.883,-399.222,-28818.1
1.52637e+08,94.1223,2,2.59031,-14924,12255.5,-24113.2
1.52806e+08,22.7143,2,2.66053,-588.621,-3290.61,-25292.9
1.53026e+08,130.618,0,2.97045,23976.2,13445.7,-29513
1.53151e+08,12.5364,1,2.77691,677.939,2241.34,-27461.8
1.53169e+08,0.957103,2,2.93467,-86.7488,-176.4,-28653.9
1.53349e+08,5.10194,1,3.02655,-295.602,1125.87,-28833.5
1.53421e+08,50.0576,1,2.39881,-7947.35,4696.55,-23519.8
1.53583e+08,28.6769,1,2.58212,-4794.73,1974.9,-25548.9
1.5382e+08,103.424,1,2.40356,-2528.56,19314.1,-18699.8
1.54062e+08,11.0404,1,3.03257,1120.86,2083.15,-29035.5
0,10.9327,1,2.69966,0,0,0
1.54313e+08,147.474,1,3.02755,-27737.6,-13610.9,-28330.8
1.5459e+08,129.936,1,2.64809,11803.5,12152.5,-7272.01
1.54793e+08,107.122,0,2.5985,-2734.08,-21941,-23940.8
1.55091e+08,152.395,1,3.03046,-2461.89,-25095.8,-9361.02
1.551e+08,14.9608,0,2.45388,591.703,-1701.55,-26196.1
1.55455e+08,182.985,2,2.77739,-14557.7,8189.28,5876.4
1.5548e+08,37.4759,1,2.84744,-2155.85,-3453.89,-22080.9
1.55761e+08,61.3445,0,2.99954,9444.18,-7207.21,-23721.5
1.55978e+08,28.432,2,2.84599,3315.3,-3443.28,-25166.3
1.55984e+08,107.303,1,2.58793,19435.5,3119.03,-17587.6
1.56176e+08,181.274,1,2.61668,-21041.5,16330.9,-1279.03
1.56414e+08,52.8693,2,2.5821,3393.59,8057.17,-21937.7
1.56946e+08,60.7821,0,2.5783,2524.51,-4625.41,-17086
1.57093e+08,8.6246,1,2.48318,-81.9901,1058.65,-27287.8
0,8.64053,1,2.77984,0,0,0
0,8.58309,1,2.66836,0,0,0
1.57327e+08,119.806,1,2.70449,-23700.3,5930.73,-22145.5
1.57473e+08,15.5373,2,2.46752,-593.349,-1844.32,-26102.6
1.57777e+08,56.867,2,2.50737,-10673,776.974,-23213.4
1.57846e+08,7.37602,1,2.61645,385.191,910.099,-27558.7
1.57914e+08,47.4186,2,2.42172,-3479.39,-5271.84,-20962.8
1.58114e+08,41.2198,0,2.53759,-1084.28,5898.27,-22519.5
1.58192e+08,42.8123,2,2.88734,-3208.23,-6030.14,-22863
1.58294e+08,9.19869,1,2.63175,-174.101,966.725,-27095.6
1.58446e+08,61.9232,2,2.54451,-9546.52,4999.08,-21374.2
1.58508e+08,229.058,0,2.60362,-3864.52,-10430.7,-15392.2
1.58547e+08,114.677,2,3.00413,-7283.77,-16769.5,-13114.9
1.58773e+08,106.952,0,3.00885,15291.8,-16435.5,-28004.4
1.58978e+08,51.0021,0,2.36705,5440,1974.31,-19659.5
1.58985e+08,116.471,2,2.44299,20684.7,-7771.57,-17968.6
1.59092e+08,85.8328,2,2.64926,-3486.09,-11804,-15455.5
1.59273e+08,68.4335,0,2.87159,4130.77,-7090.56,-16981.3
1.59628e+08,62.9884,1,2.43961,2022.7,-6116.72,-17200.6
1.60153e+08,111.364,1,2.67028,20588.2,4215.17,-18378.8
1.60606e+08,26.0955,2,2.70518,-985.118,-4534,-25709
1.60645e+08,12.3022,0,2.61377,2518.27,338.263,-27907
1.60772e+08,70.4316,0,2.67761,12701.8,-7646.74,-26866.5
1.60789e+08,89.9679,2,2.93718,-15778.9,2043.87,-18596.1
1.61058e+08,78.2204,0,2.4483,6298.09,8419,-16018.1
1.61126e+08,30.7393,0,2.44836,2044.58,3351.01,-23591.1
1.61384e+08,36.7643,2,2.50247,5064.75,4133.24,-24745.3
1.6154e+08,9.87029,2,2.81148,-2088.75,-428.391,-28442.6
0,9.93958,2,2.69565,0,0,0
1.61708e+08,34.835,2,3.05575,3768.17,2203.18,-23017.6
1.61718e+08,78.7397,2,2.59246,-3169.35,11190.3,-16967.3
1.62039e+08,139.038,2,2.37941,-4042.51,-17722.7,-5623.02
1.62098e+08,76.0649,2,2.76567,-1539.02,-5942.78,-16710.2
1.6214e+08,10.5433,1,2.69454,-2197.56,173.757,-28259.6
1.6257e+08,3.45987,0,2.55144,180.111,691.252,-28514.9
1.62619e+08,19.0598,2,2.8949,-1981.34,2372.56,-26273.3
1.62959e+08,169.695,2,2.8048,-16584.5,-17516.7,-2433.53
1.63012e+08,17.4194,2,2.54396,-3444.39,892.817,-27719.1
1.63349e+08,26.7506,2,2.977,4094.02,-623.794,-25080.7
1.63393e+08,271.8,2,2.75826,-3863.98,-6864.45,-22375.4
1.63414e+08,56.139,2,2.98074,10572.6,2060.22,-24183.6
1.63447e+08,221.68,0,2.96183,27191.9,25753.5,-1201.14
1.63632e+08,13.7133,2,2.57546,-782.986,-2832.96,-29502
1.64044e+08,5.60346,1,2.87095,78.5042,1148.61,-29328.6
1.64102e+08,51.0136,1,2.9376,-5477.28,-5322.61,-27414.7
1.64239e+08,7.34887,1,2.65578,-1484.31,-573.028,-28992.3
1.64265e+08,118.672,1,2.61956,531.494,-12514,-7174.35
1.64497e+08,73.2476,2,2.60746,7965.8,-1253.08,-15629
1.64552e+08,28.1138,0,2.56473,-4735.34,1072.89,-25534.1
1.64559e+08,4.91226,1,2.69108,565.316,228.172,-27978.2
1.64719e+08,24.253,2,2.8762,731.071,-3708.68,-25371.1
1.65622e+08,8.15546,1,2.40659,-933.971,663.003,-27453.1
1.66179e+08,20.9663,1,2.44954,-1632.26,-4098.66,-28901.2
1.66256e+08,56.2874,1,2.81209,-8280.7,-2093.05,-20581.7
1.66298e+08,5.73699,0,2.37748,334.084,-1053.16,-28226.9
0,5.68837,0,2.49542,0,0,0
1.66485e+08,60.1448,0,3.03912,-12157.9,-1710.12,-26328
1.66706e+08,90.0384,2,2.5133,6377.88,-2540.38,-24647.9
1.66996e+08,24.6777,0,2.82224,3467.62,1216.09,-25086.2
1.6707e+08,44.3644,0,2.56671,6524.98,-5400.03,-24636.1
1.67542e+08,81.2737,1,2.3746,-11569.4,10728.7,-21760.6
1.68049e+08,56.8674,2,2.59728,4040.28,-2863.34,-17863.1
1.68557e+08,90.8401,2,2.80867,4089.34,-817.975,-11769.9
1.68559e+08,26.3951,1,2.70331,-507.042,4087.74,-24989
1.69052e+08,271.834,2,2.63439,22277.8,21563.4,19369.8
1.69217e+08,16.904,2,2.70677,731.872,-2063.76,-25973.2
1.69566e+08,99.0371,0,2.88924,4046.9,6472.16,-23259.5
1.69652e+08,13.8648,2,2.74357,1411.68,-2441.95,-27854.5
1.69679e+08,21.3957,1,2.83239,-1241.21,2850.74,-25490
1.70085e+08,77.5918,1,2.37275,-13082.7,-3343.5,-19408.8
1.70117e+08,17.9453,2,3.02982,-1365.31,2872.14,-26881.4
1.702e+08,16.2287,0,2.56164,-101.913,-3049.81,-27250.3
1.70796e+08,12.577,0,2.91937,447.559,-2308.01,-27603.2
1.7113e+08,52.6936,2,2.99447,-4605.56,-7581.07,-22100.1
1.71312e+08,37.6511,2,2.68686,5519.81,-3412.62,-24227
1.71646e+08,7.8899,1,2.45005,-947.886,1254.79,-28060
1.721e+08,6.34797,2,2.50856,795.985,-1096.14,-28522.9
1.72406e+08,142.108,0,2.45234,17236.1,3408.25,-14081.3
1.72472e+08,3.3193,1,2.48726,-563.288,242.957,-28350.7
1.72856e+08,18.3606,2,2.59966,3663.27,-1042.75,-28054.7
1.73279e+08,7.57143,0,2.91044,1316.4,-792.297,-28218.7
1.73331e+08,158.239,0,2.41679,11131.6,-27088.4,-12545.3
1.73791e+08,9.37033,0,2.70881,-1318.07,-1035.86,-27853.8
1.73964e+08,1.02002,0,2.41969,278.124,-116.88,-28746.9
1.73994e+08,127.718,2,2.78716,-8682.84,-13976.7,-7527.52
1.74174e+08,8.58292,1,2.4571,-1097.77,-485.855,-27424
1.74198e+08,68.5508,2,2.94426,-2464.5,-12436.5,-21882.3
1.74324e+08,5.14543,1,2.91683,721.71,-501.14,-28270.4
1.74362e+08,57.6567,2,2.50882,-10855.6,4334.41,-25252.5
1.74383e+08,19.3924,2,2.44184,494.638,-2637.76,-25646.9
0,19.7065,0,3.02576,0,0,0
1.74477e+08,18.0865,2,3.01389,-1467.31,1815.41,-25862.3
1.74995e+08,13.9721,1,2.73584,-359.788,2931.52,-28095
1.7533e+08,72.7329,1,2.84207,12280,-838.668,-19814.4
1.7562e+08,51.4714,1,2.89472,7248.33,-5013.8,-22669.7
1.75892e+08,41.5982,1,2.56171,-5720.48,6573.91,-27008.4
1.76052e+08,87.5232,0,2.54658,3909.67,13983.8,-17411
1.76506e+08,209.875,0,3.00225,16970.2,-8434.32,10894.6
1.76681e+08,71.0019,0,2.45521,-8798.84,-7168.74,-19038.2
1.76856e+08,47.047,2,3.03695,2960.59,-4416.31,-20523.3
1.7696e+08,4.4774,0,2.60502,625.678,579.526,-29382.4
1.76964e+08,156.567,0,2.76448,-14491.9,25532.4,-13914.2
1.77071e+08,9.00706,2,2.87028,1781.74,-636.964,-29147.4
1.77096e+08,47.5014,2,2.98629,-6287.96,-2656.72,-21504.1
1.77201e+08,10.118,2,2.73143,1168.14,649.214,-27222.6
1.77394e+08,0.748534,1,2.485,13.1972,12.7804,-28668.7
1.7744e+08,69.4499,2,2.84969,6508.87,6969.29,-20056.5
1.77729e+08,4.97064,0,2.79468,811.415,-167.107,-28071.6
1.78113e+08,34.6593,2,2.44608,1123.47,4813.73,-23484.8
1.78194e+08,125.137,0,2.47531,-7366.85,-12143.2,-16495.9
1.78495e+08,26.1348,0,2.94765,2451.86,4960.83,-29049.2
1.78759e+08,16.7443,0,3.05028,-380.439,-3198.33,-27455.4
1.78913e+08,104.855,2,2.84511,9211.54,-20081.3,-27795.7
1.79022e+08,50.242,2,2.47851,-6549.49,4412.2,-21690.8
1.79023e+08,10.0576,2,2.63634,-243.405,1192.1,-27149.2
1.79065e+08,50.8694,2,2.39995,-9434.5,3312.75,-24748.8
1.79079e+08,75.2061,1,3.01119,-4123.38,15306.2,-28331.5
1.79184e+08,108.464,0,2.60345,8166.34,15720.5,-14377.5
1.79247e+08,19.6465,2,2.85332,-1481.95,-2242.31,-25600.2
1.79546e+08,103.417,2,2.79634,-21711.6,-1958.08,-27472.7
1.79587e+08,29.0041,2,2.52397,-5198.38,1826.61,-26066.9
1.7961e+08,267.637,1,2.95821,-23532.7,-326.385,22152.3
1.79653e+08,5.54566,2,3.01287,-126.636,-1202.92,-28519.8
1.79672e+08,194.795,0,2.89547,909.216,24661.8,3776.89
1.79901e+08,45.4229,1,2.66539,-9135.14,2824.62,-27486.3
1.79948e+08,88.7603,0,2.99353,-1343.73,-1643.69,-26869.6
1.8039e+08,17.925,1,2.87911,2223.41,950.433,-25915.3
1.80462e+08,29.3307,2,2.77064,-5226.23,2725.41,-26886.6
1.80472e+08,60.0465,1,2.45526,-9182.47,4292.24,-21079.9
1.81094e+08,55.7602,0,2.65958,10769.3,-4826.09,-27868
1.81154e+08,61.409,1,2.85881,10074.2,-7643.19,-26748.3
1.81201e+08,4.9149,1,2.6971,385.456,959.155,-29257.2
0,4.95478,1,2.77344,0,0,0
1.81375e+08,71.5964,0,2.60131,11997.3,-7197.68,-22864.4
1.81573e+08,8.74609,1,2.40273,694.738,1129.73,-27479.6
1.81607e+08,8.93624,0,2.52843,1612.57,983.526,-28252.4
1.81612e+08,143.807,0,2.53641,19296.7,23493.4,-27014.9
1.823e+08,47.4933,1,2.43813,6465.13,-6143.48,-24298.4
1.83859e+08,11.2833,0,2.38892,1113.25,2179.12,-28993.9
1.84432e+08,50.9339,0,2.97414,10283.8,3198.77,-29417.3
1.84452e+08,77.5072,0,3.05899,6447.04,7582.59,-15948.4
1.84576e+08,34.5801,0,2.61596,6470.43,687.576,-25331.5
1.84579e+08,5.15506,2,2.58332,-975.874,-333.443,-28295.4
1.84876e+08,148.118,2,2.73915,-20082.1,-23982.9,-28182.4
1.85275e+08,10.8808,1,2.726,2146.2,-147.235,-28141.5
1.85394e+08,12.1769,0,2.42383,2586.88,-454.414,-28249.4
1.85463e+08,89.763,1,2.55886,2478.17,-15340.8,-18043.3
1.85469e+08,104.567,0,2.3775,20223.1,2534.11,-20010.1
1.8584e+08,66.8014,0,2.62167,7614.57,10753.9,-23687.9
1.86077e+08,89.0495,1,2.9878,-17518.9,-6050.57,-26442.7
1.86167e+08,77.2144,0,2.51576,11078.4,-5765.53,-18239
1.86256e+08,7.36735,2,2.83728,40.9262,-1488.73,-28137.1
1.8637e+08,27.3779,2,2.85815,-2450.18,-5045.82,-27116.1
1.86525e+08,15.2472,0,2.72609,2676.82,1077.97,-27220
1.86877e+08,43.8189,1,2.82895,2744.79,8731.11,-27154
1.87228e+08,146.056,1,2.75239,-18204.2,-12613.7,-7516.45
1.87281e+08,210.442,0,2.86906,-8410.7,-24938.5,-6863.97
1.87325e+08,27.929,1,2.53886,-4816.78,-957.972,-25464.6
1.87351e+08,1.66683,0,2.37537,56.1234,-342.468,-29001.3
1.87734e+08,113.055,0,2.60078,18401.9,5227.23,-14440
1.88243e+08,8.24081,1,2.54809,-1068.66,-1343,-28592.4
1.88272e+08,94.406,1,2.45861,-18237.8,494.132,-20594.3
1.88314e+08,74.7102,0,2.68631,14548.9,5425.16,-25625.7
1.88487e+08,17.9883,1,2.59776,-231.799,-2006.07,-25653.5
0,18.1379,1,2.85808,0,0,0
1.8857e+08,289.57,1,2.88393,3143.95,-20897.1,-8163.86
1.88622e+08,112.972,0,2.67137,17539.1,-1532.03,-12681.8
1.88692e+08,34.7761,1,2.67544,5393.09,-795.191,-23947.5
1.8878e+08,76.7946,0,2.5393,7029.28,-12722.8,-21474.7
1.89153e+08,119.76,2,2.50831,-16148.5,-9680.71,-11799.9
1.89495e+08,44.3173,1,2.62349,6379.63,1902.62,-22260.7
1.89559e+08,11.3471,2,2.81274,1438.31,491.349,-27008.7
1.89739e+08,94.4277,0,2.42651,9255.89,-5238.78,-11872
1.90023e+08,41.0769,0,2.63634,3023.62,-4255.21,-21849.9
1.90028e+08,126.513,2,2.43835,11552.1,-22616.3,-20242
1.90218e+08,142.418,0,2.76978,-21084,-6421.58,-8609.61
1.90249e+08,25.0787,2,2.7741,1741.18,3235.28,-25089.3
1.90616e+08,70.699,2,2.98651,-11038.3,8694.68,-24064.8
1.90621e+08,62.8651,1,2.89701,2632.87,13034.3,-29124.5
1.90705e+08,174.577,0,2.61274,29791.3,-21575.9,-25339.3
1.91326e+08,56.3884,1,2.72605,-6678.23,-4602.12,-20118.4
1.91722e+08,41.8696,2,2.74344,-8083.59,-1581.19,-25512.1
0,42.0177,2,2.9949,0,0,0
1.92155e+08,153.763,0,2.5464,-201.184,661.621,-28176.9
1.92295e+08,13.7021,0,2.44307,2776.52,1059.31,-28356.2
1.92525e+08,5.83755,2,2.89513,-546.812,82.8327,-27700.9
1.9307e+08,263.055,1,2.41533,-7166.45,23670.5,21055.5
1.93153e+08,23.4722,1,2.952,-3142.09,622.361,-25017.5
1.93322e+08,50.0658,0,2.57731,-6814.79,1550.41,-20978.5
1.93451e+08,21.3596,0,2.91385,1501.38,-2015.37,-25104.6
1.93606e+08,39.8423,1,2.66555,-7307.22,4109.01,-27366.6
1.93654e+08,83.1938,0,2.59109,13371.2,-9919.83,-23047.4
1.93679e+08,35.2923,1,2.92055,4545.59,617.604,-23000.8
1.93862e+08,143.437,2,2.37898,-28325.1,-5569.41,-19288.4
1.93892e+08,19.4883,1,2.44654,-1641.76,1191.47,-25187.7
1.939e+08,26.8471,0,2.70384,4800.78,-2982.72,-27701
1.9396e+08,43.9085,1,2.73229,962.041,9022,-26716.9
1.94041e+08,61.911,0,2.52882,-1135.22,7056.45,-17868
1.94369e+08,93.6124,2,2.36289,-4440.89,10771,-12848.1
1.94734e+08,49.418,1,2.8938,7194.7,7276.35,-26893.7
1.94816e+08,2.82234,2,2.92859,226.768,-440.631,-28428.3
1.95195e+08,415.896,1,2.58643,-21335.3,24613.5,-13643
1.95529e+08,23.885,1,3.00128,3923.45,926.041,-25853.8
1.95649e+08,127.318,0,2.7046,-12843.9,8655.72,-6967.87
1.95789e+08,146.08,0,2.78402,540.2,-480.664,-26395.4
1.95933e+08,13.8462,2,2.68995,-2129.42,-1313.08,-27175.6
1.95957e+08,20.1817,0,2.49842,2325.59,1509.9,-25517
1.95959e+08,58.6228,1,2.79967,-4973.64,-10980.2,-26325.4
1.96038e+08,139.727,1,2.75974,22235.5,-12985.3,-14720.7
1.9609e+08,56.8043,1,2.81427,-5445.68,-9024.23,-27784.9
1.96172e+08,6.16524,1,2.78161,-457.439,777.507,-27806.1
0,6.49557,0,2.8807,0,0,0
1.96641e+08,5.91929,0,3.05685,653.82,576.209,-27866
1.96973e+08,41.815,2,2.61792,3591.78,-7894.76,-26830.8
1.97096e+08,82.3754,2,2.44333,-3548,-17158.7,-29596.5
1.9714e+08,40.4508,0,3.00591,3016.05,7597.39,-26372.6
1.97495e+08,75.8317,2,2.80736,-5081.49,5757.24,-14841.3
1.97624e+08,55.4699,2,2.94846,1151.89,-10859,-24561.7
1.97637e+08,77.6266,1,2.9239,-8109.77,5567.23,-25675.8
1.97667e+08,11.7589,0,2.46487,766.645,-1418.69,-26936.6
1.97872e+08,5.9704,0,2.65091,1287.67,-46.7738,-28371.9
1.98042e+08,12.1098,0,2.77644,1688.72,-1729,-27789
1.98446e+08,0.423481,2,2.84835,-64.0279,4.48932,-28751.6
0,0.409782,2,2.83544,0,0,0
0,0.411769,2,2.98085,0,0,0
0,0.39766,2,2.42944,0,0,0
1.98632e+08,54.3739,1,2.53899,-7338.38,-6503.23,-22856.1
1.9889e+08,8.62182,0,2.40598,-968.754,-582.784,-27456.9
1.99141e+08,118.885,0,2.79657,-8491.36,-4125.99,-16626.5
2.00084e+08,84.5903,2,2.99297,3768.31,10355.8,-14969
2.00198e+08,23.4521,0,2.55864,-4476.28,-64.4917,-26848.5
2.00634e+08,29.2416,0,2.57893,4963.38,930.71,-25137.8
2.00708e+08,169.879,1,2.72988,29256.3,6664.06,-11754.2
2.00882e+08,19.8716,0,2.93528,1222.72,-3661.66,-27120.2
2.01032e+08,8.63582,2,2.95017,-1744.11,-393.728,-28190.8
2.01283e+08,140.617,0,3.05499,11331.3,-6367.27,-25838.2
2.01483e+08,47.6714,0,2.49656,5950.82,7233.98,-24951.4
2.01487e+08,57.9601,2,2.57735,-10849.7,-299.663,-23026
2.01664e+08,72.0308,1,2.87958,-12964.6,7804.51,-27254.2
2.02033e+08,67.2608,1,2.85112,-6732.09,7717.26,-18993.5
2.02186e+08,29.5089,1,2.98555,-98.3807,-3044.26,-28304.2
2.02347e+08,218.656,2,2.79349,-871.22,-7911.74,-13161
2.02363e+08,49.9804,2,2.59327,5861.7,-2159.72,-20299
2.02555e+08,50.2188,0,2.53847,195.505,42.1187,-29104.4
2.02741e+08,123.651,0,2.73232,18835.9,-1077.23,-10798
2.03136e+08,311.386,1,2.87298,-267.545,2378.29,-27942.4
2.03208e+08,1.19887,0,2.64829,-13.8089,-209.255,-28672.9
2.03212e+08,18.4874,2,2.96018,-146.234,-3096.91,-26366.5
2.03372e+08,147.04,1,2.83762,-21467,-18980.3,-17252.5
2.03378e+08,13.0378,0,2.59454,-1522.83,-571.429,-26631.4
2.03586e+08,155.871,2,2.88536,3858.03,13591,664.163
2.03714e+08,60.2622,0,2.55312,12470.6,2558.75,-27105.9
2.03822e+08,14.1212,0,2.95018,-508.615,-1302.65,-26248.9
2.03918e+08,138.545,2,2.5384,16966,18691.6,-14139.8
2.03995e+08,124.179,0,2.94678,17679.1,-18931.5,-25463.7
2.04057e+08,25.351,2,2.36703,-1251,-3913.51,-25280.4
2.04352e+08,47.1406,1,2.98146,-3897.94,3223.92,-20288.3
2.04899e+08,37.4742,2,2.6578,-1039.8,5033.26,-22891.2
2.05303e+08,76.0575,2,2.70686,-9350.88,-10364.6,-20764.2
2.05405e+08,145.815,1,2.79836,24951.4,13350.3,-17030
2.05644e+08,7.64033,1,2.55933,-1351.3,571.534,-27979
0,8.31481,0,2.37685,0,0,0
0,7.68828,1,2.66349,0,0,0
2.06113e+08,36.7598,1,2.91956,-4176.52,-4391.47,-24044.6
2.06208e+08,69.6773,0,2.82107,-12950.3,5515.78,-24928.6
2.0662e+08,12.4166,2,3.01402,-411.901,-1482.14,-26666.2
2.06893e+08,126.636,2,2.94156,11723.2,-3312.82,-5225.61
2.07123e+08,8.49379,1,2.37242,-497.955,1701.8,-29562.3
2.07241e+08,53.4389,2,2.60875,-6731.96,1116.96,-19795
2.0749e+08,12.7236,2,2.81203,-2469.94,440.12,-27859.2
2.07874e+08,22.8525,1,2.51974,-3987.95,1402.35,-26325.6
2.08276e+08,112.523,1,2.75831,-1245.54,2108.59,-29872.3
2.08781e+08,11.3195,1,2.40433,-548.484,2130.22,-27713.9
2.08865e+08,34.6916,1,2.91329,-5502.02,4903.24,-28376.5
2.09216e+08,92.4954,1,2.90548,-5313.35,6544.05,-15458.2
2.09244e+08,62.23,1,3.05156,1225.07,-9202.77,-19785
2.09254e+08,49.934,1,3.05813,-1944.84,10328,-27863.4
2.0934e+08,46.8286,1,2.3874,6406.37,5453.2,-23550.4
2.09788e+08,45.4662,1,2.96052,765.057,-4222.65,-20323.5
2.10105e+08,6.69645,2,3.04867,-370.823,-1329.13,-29452.2
2.10312e+08,178.021,0,2.74769,-864.559,-28353.8,-4441.49
2.10403e+08,40.1734,0,2.83762,2126.49,2860.96,-21135.1
2.10556e+08,70.4995,2,2.64798,-12543.9,-4414.89,-21989.7
2.10657e+08,160.589,2,3.03974,-6561.78,24791.1,-7125.7
2.10671e+08,34.1055,2,2.72821,2030.48,-4664.8,-23714.5
2.1078e+08,161.958,0,2.54664,20078.6,3532.6,-2099.97
2.11198e+08,42.4025,0,2.7513,4717.61,4718.95,-23073
2.11414e+08,56.9949,0,2.51568,6236.43,-6503.76,-20738.3
2.11416e+08,7.41511,2,2.48055,-837.617,-1200.67,-28067.9
2.11525e+08,100.531,0,2.39928,-9.19578,-9712.91,-9917.33
2.11786e+08,31.6227,1,2.71787,-1746.04,2767.07,-22974.5
2.11796e+08,112.342,0,2.88048,6965.45,4834.39,-6803.03
2.11842e+08,25.6317,0,2.51362,3802.12,-3593.02,-27096.6
2.12031e+08,58.6237,1,2.64458,143.968,5881.21,-17910.5
2.12051e+08,68.4361,2,2.93167,-6907.15,-7968.48,-18990
2.12109e+08,16.186,2,2.78195,-1816.59,-2609.65,-27428.8
2.12381e+08,8.6287,0,2.71549,1683.33,762.028,-28320.1
2.1252e+08,86.3686,0,2.62461,-3504.31,-11413.1,-16047.5
2.12785e+08,8.96951,0,3.02733,1806.31,-173.018,-28025.9
2.13585e+08,9.38034,2,2.62627,-1839.26,-179.848,-27932.3
2.13632e+08,1.7336,0,2.87662,-25.8311,-152.569,-28499.1
2.1384e+08,78.2871,0,2.72734,9017.19,13905.5,-29210
2.13897e+08,54.378,2,2.66468,5046.13,-9884.34,-25700.8
2.14072e+08,1.8041,0,2.41108,361.412,-258.004,-28679.2
2.14556e+08,19.2306,1,2.6497,2293.62,3021.16,-27251.4
2.14936e+08,88.8604,1,3.05779,-9237.64,6286.65,-13879.5
2.15254e+08,79.5217,0,2.69419,10428.1,-12997.1,-28214.4
2.1542e+08,6.56249,1,2.51475,147.736,1448.19,-29198.6
2.15642e+08,113.177,2,2.8209,-11652.3,-15920,-15382.9
2.15902e+08,63.3428,0,2.73887,11842.9,-4832.59,-24758.8
2.16373e+08,31.1694,1,2.90823,3891.99,4832.78,-26571.7
2.16715e+08,75.9093,1,2.70858,8838.77,-12361.7,-24012.9
2.16866e+08,58.5024,1,2.72725,2481.23,10824.8,-23326.3
2.16922e+08,242.728,0,2.63095,17290.6,-10534.7,15898.5
2.16998e+08,47.0122,0,2.68396,-9327.79,-1491.42,-26025.2
2.1738e+08,70.2556,2,2.69736,9467.88,-5319.52,-18777.9
2.17589e+08,60.1661,1,2.98294,-7843.23,8871.97,-24197.6
2.17855e+08,46.7252,0,2.79072,9905.09,158.178,-28289.8
2.17951e+08,4.91884,1,2.71228,703.785,6.9728,-28067.1
2.18074e+08,78.0733,1,2.48769,-6617.68,922.274,-13702
2.18206e+08,51.4286,0,2.80272,9586.79,5243.47,-28959.4
2.1828e+08,33.8469,2,3.05288,2242.49,-3611.81,-26006.7
2.18701e+08,70.023,0,2.55386,4113.37,8152.3,-17146.7
2.1901e+08,41.3826,0,2.47186,7053.89,-2247.88,-24001.4
2.19239e+08,56.0572,1,2.465,-8586.4,7759.33,-25848.9
0,57.1575,0,3.00787,0,0,0
2.19406e+08,15.1984,0,2.44917,-1102.35,-1639.43,-26346.2
2.19613e+08,30.3432,2,2.8401,307.366,-4180.24,-23935.1
2.19988e+08,91.4696,2,2.59578,370.161,-18536.7,-23162.9
2.20196e+08,99.4243,2,2.65875,10066,11432.2,-14468.8
2.2026e+08,39.5064,2,2.41077,-3492.25,-6435.46,-24610.9
2.20465e+08,77.483,2,3.05622,-11220.4,9770.97,-22341.9
2.20562e+08,46.0843,0,2.8361,-1236.49,4118.15,-20136.2
2.20694e+08,105.714,0,2.99927,12506.9,-14767.8,-17895.4
2.20809e+08,206.872,2,2.6811,-20240.1,26837.5,-1106.89
2.21031e+08,76.4746,1,2.57383,8898.08,8047.07,-18007.5
2.21157e+08,7.09467,2,2.57888,391.181,-1481.08,-29257.5
2.21195e+08,163.364,0,2.67191,12476.3,-13158.3,508.109
2.21388e+08,90.0114,0,2.91469,16763.5,538.022,-19938.3
2.21715e+08,176.332,0,2.64014,3912.07,-28598.1,-5309.08
2.21749e+08,23.7903,2,2.46233,-4641.68,-926.808,-26889.2
2.21767e+08,125.234,1,3.00853,-3008.63,17693,-9608.54
2.21945e+08,115.053,1,2.93477,12677.6,18935.1,-20846.8
2.2224e+08,2.96375,0,2.47736,563.813,436.725,-28775.6
0,3.05887,0,2.92223,0,0,0
0,2.92543,0,2.55941,0,0,0
2.22669e+08,151.014,0,2.86876,-22658,-14272.4,-11931.8
2.22898e+08,23.8639,2,2.53274,3114.67,-272.516,-24861.6
2.23325e+08,153.225,1,2.41098,1334.39,-20987,-4224.33
2.23669e+08,9.20499,0,2.85982,658.544,1426.65,-29241.5
2.23982e+08,55.3996,1,3.03242,-3575.81,6306.1,-19715.2
2.24262e+08,45.7242,0,2.84805,8903.81,3842.69,-28155.9
2.24358e+08,3.4375,1,2.40636,-336.778,749.116,-28736.3
2.24512e+08,153.244,0,2.65784,-25451.5,11410.9,-12589
2.24652e+08,57.4371,2,3.00284,-8343.28,-1945.25,-20291.6
2.24702e+08,51.2173,2,2.498,4648.05,-9849.09,-28372.6
2.24725e+08,14.6981,2,2.43607,318.783,-1626.62,-26147.7
2.24873e+08,48.6059,2,2.93452,-3495.58,-4651.93,-20372.4
2.25388e+08,2.29274,1,2.46558,-37.9832,-373.695,-28568
0,2.29648,1,2.54405,0,0,0
2.2541e+08,20.2121,2,2.37137,-3025.48,1792.21,-26339
2.25601e+08,116.79,1,2.46942,-2192.31,9042.94,-5909.02
2.25691e+08,31.0227,1,2.83721,355.691,4603.65,-24133.2
2.25715e+08,18.6691,0,2.66562,413.194,-3914.86,-28281.2
2.25801e+08,67.7889,0,2.726,-2773.63,-10719.8,-19809.7
2.26025e+08,90.9418,0,2.70321,-6401.41,-5735.21,-11709.7
2.26192e+08,52.7729,0,2.6098,8790.49,6982.31,-29236.2
2.26211e+08,92.8622,2,2.37135,-15244.2,5525.38,-17804
2.26556e+08,37.5213,1,2.45506,3203.03,6830.15,-26144.3
2.26782e+08,14.8093,2,2.97608,-2755.2,53.7664,-27260.9
2.26898e+08,4.99103,1,2.48118,-920.07,722.685,-28772
2.27029e+08,6.55023,0,2.40186,85.6565,-1358.86,-28428.7
0,6.51949,0,2.50687,0,0,0
2.27104e+08,145.347,2,2.72299,-20392,-7387.51,-7153.49
2.27372e+08,133.899,1,2.41654,-27044,6193.62,-22783.8
2.27721e+08,149.742,2,2.40555,-20627.9,-22362.2,-19677.1
2.27864e+08,43.991,1,2.79365,7851.2,-1995.95,-24518.7
2.28217e+08,46.988,2,2.40623,5762.48,-2496.83,-21145.3
2.28237e+08,8.11144,1,2.59833,-83.8801,-896.232,-27396.7
2.28632e+08,50.2078,1,2.90366,-5705.85,1426.2,-20026.4
2.28685e+08,122.967,2,2.50344,-22952.6,-9217.87,-20571.1
2.29003e+08,54.6128,1,2.57925,372.304,-6662.95,-19442.4
2.29113e+08,138.93,1,2.95369,-12460.4,13950,-6397.3
2.29181e+08,15.299,1,2.45989,2843.26,672.796,-27424.8
2.29243e+08,41.3139,1,2.66202,-2906.75,2757.71,-23450.8
2.29924e+08,131.907,1,2.59079,8640.66,26095.7,-23867.4
2.3004e+08,143.233,0,2.97574,2285.83,29265.3,-22435.7
2.3042e+08,22.4605,1,2.98167,1588.36,-1862.84,-24839.8
2.30465e+08,37.7334,2,2.53788,4154.46,-5564.95,-24787.2
2.30508e+08,104.879,0,2.91323,2788.55,-21748.1,-26504.3
2.30881e+08,4.78955,0,2.3827,-699.351,127.982,-28198.8
2.30904e+08,188.115,1,2.60078,17129.5,-20412.1,574.536
2.30936e+08,87.8599,2,2.59863,4070.91,-9874.52,-13648.1
2.30937e+08,157.934,1,2.87364,-19888.7,8381.59,-15379
2.30987e+08,98.709,1,2.94399,8986.41,-5449.44,-11002.3
2.3112e+08,90.0019,0,2.36846,15894.1,-4935.54,-19387.8
2.31648e+08,98.7617,0,2.64469,2455.55,-17223.9,-17328.3
2.31697e+08,96.2797,2,2.59456,-19767,3184.81,-25113.7
2.31838e+08,16.5652,2,2.72731,2513.3,242.171,-26462.4
2.32027e+08,14.6864,0,2.52478,-2839.95,-39.1081,-27712
2.32262e+08,40.9123,2,2.73295,-2461.39,8212.79,-29202.3
2.32314e+08,26.5804,1,3.05602,125.43,5356.97,-27020
0,26.3728,1,2.61911,0,0,0
2.32353e+08,58.921,0,2.79423,-2699.42,-5425.38,-18049.7
2.32442e+08,5.32106,2,2.46961,899.167,-732.422,-28743.4
2.32495e+08,19.2537,2,2.78903,2992.37,583.304,-26214.9
2.3271e+08,58.5573,1,2.69956,1850.87,6314.27,-18329
2.32724e+08,57.9629,2,2.6541,-8699.97,4396.45,-21403.6
2.33062e+08,41.5491,1,2.78862,7260.6,3094.96,-25029.9
2.3317e+08,86.9387,1,2.95763,-10937.7,12670.7,-21407.3
2.33663e+08,130.31,2,2.81463,17021.1,16168.5,-14786.6
2.33756e+08,35.4397,2,2.53929,-5352.2,2091.25,-23967.5
2.33862e+08,18.1063,1,2.7654,-3875.08,127.818,-28602
2.33864e+08,18.5218,2,2.99907,3087.97,-837.482,-26637
2.33869e+08,161.827,0,2.46409,17429.8,-19220.6,-6437
2.33926e+08,101.021,0,2.81442,-19222.7,-2159.8,-20183
2.34211e+08,87.6753,0,2.65204,10030.7,3226.27,-13571.4
2.34301e+08,28.5223,0,2.45412,3312.89,-2663.13,-24466.9
2.34319e+08,124.232,2,2.70707,-12813.3,2341.58,-11620.4
2.34426e+08,14.7835,1,2.66008,-1371.28,1473.28,-26370.3
2.34533e+08,56.0325,1,3.05044,-7866.42,-3261.34,-20728.8
2.34947e+08,9.49436,1,3.00803,-665.077,-527.529,-27029.9
2.35803e+08,54.3572,2,2.85206,-4628.5,-9204.97,-23670.6
2.35889e+08,4.43263,2,2.92697,-674.918,-284.593,-28154.7
2.36017e+08,31.1828,2,2.99325,5858.17,1251.87,-26304
2.36174e+08,320.23,0,2.60981,-21738.6,-14631.8,-12233.6
2.36218e+08,131.886,1,2.99449,7669.08,-14333.4,-6517.84
2.36269e+08,11.0636,2,2.72637,-1236.59,-425.041,-26842.2
2.36362e+08,120.77,2,2.57738,-15840.5,1737.22,-8864.24
2.36365e+08,80.2166,2,2.89418,16092.7,-4652.76,-27036.6
2.36948e+08,12.8734,1,3.05302,-1635.76,764.447,-26751.8
2.37075e+08,84.5047,2,2.68754,15931.3,-6585.79,-24315.4
2.37131e+08,3.93115,2,2.41689,-231.74,-741.825,-29334.1
2.37147e+08,101.291,1,3.03845,-18490.2,10557,-28599.1
2.37437e+08,88.3502,2,2.71702,-12958,9165.79,-19099.1
2.37869e+08,100.576,1,2.47699,-17907.8,7748.8,-20180.7
2.37872e+08,39.832,0,2.71356,3574.54,-7038.22,-25800
2.38215e+08,19.659,0,2.50274,-2425.46,-280.861,-25513.5
2.38446e+08,53.0715,1,2.47553,-6029.15,-1737.66,-19485.4
2.38632e+08,147.64,2,2.98051,-9396.27,-9680.38,-29501.2
2.39053e+08,140.716,2,2.85829,-13202.8,7609.36,-3640.48
2.39091e+08,49.7584,2,2.5275,-2289.75,-10109,-26696.5
2.39122e+08,29.6484,1,2.55067,-5390.39,2963.07,-27273.2
2.39399e+08,21.9782,1,2.38676,576.213,-3144.91,-25498.7
2.39557e+08,174.402,1,2.83632,24723,27103.5,-28949.2
2.39574e+08,149.986,0,3.03221,15052.3,5963.58,-1849.97
2.39604e+08,91.4152,2,2.58286,-7968.04,6758.12,-12589.5
2.40157e+08,121.732,1,2.63922,-3591.37,23963.3,-20236.7
2.40499e+08,32.882,2,2.76913,-3538.95,-4906.69,-25295.6
2.40698e+08,95.5821,0,2.5536,10378.6,-2625.88,-19712.1
2.40941e+08,131.305,2,2.62658,-23301.3,11980.8,-19708.8
2.40969e+08,64.4501,2,2.85934,-5731.02,-11630.5,-24557.9
2.41228e+08,173.826,1,2.64175,-18015.5,10774,1273.4
2.41346e+08,50.0001,1,2.6773,-6373.11,-5131.77,-22164
2.41517e+08,40.8429,0,2.49412,8495.73,-1980.2,-28893.5
2.41782e+08,54.0649,1,2.36758,-4910.43,-3475.68,-19075.3
2.4179e+08,103.476,1,2.76243,6270.78,-8002.81,-9596.59
2.42199e+08,51.2785,2,2.8718,-10742.4,465.118,-27432.1
2.42228e+08,36.6655,2,2.93739,4983.94,269.541,-22991.6
2.4225e+08,21.2599,1,2.71228,-4108.98,-951.182,-27156.4
2.42494e+08,84.6213,0,2.51402,-3942.22,10396.5,-14817.6
2.42623e+08,29.2787,0,2.78199,-4368.44,-1832.52,-24991.2
2.42715e+08,99.4052,0,2.57078,-10443,8675.79,-12837.1
2.43071e+08,71.3205,1,2.49417,-1260.74,14953.6,-26491
2.43139e+08,24.2172,2,2.64699,-4524.61,139.472,-26374.8
2.43143e+08,28.1516,0,2.99234,3158.98,3028.58,-24769.2
2.4322e+08,24.0269,1,2.72807,2508.15,183.747,-24431.6
2.43235e+08,210.886,0,2.84986,-14960.3,-8097.97,-27562.2
2.43369e+08,34.5695,0,2.53154,6961.09,-2480.82,-28994.6
2.43469e+08,45.88,1,2.98867,-9050.68,3025.23,-27061.8
2.43533e+08,84.0263,1,2.45767,6032.61,-9328.89,-15023.8
2.43712e+08,15.7134,0,2.63682,2677.99,-1799.5,-27781.4
2.43722e+08,17.0241,0,2.50948,3418.37,-1374.42,-28356.3
2.43972e+08,5.35724,0,2.49278,462.325,1040.72,-28536.2
0,5.26818,0,2.90776,0,0,0
2.44193e+08,101.084,1,2.78658,-20945.9,468.846,-24774.9
2.44195e+08,86.8043,1,2.9921,-9489.5,-2800.71,-13530.5
2.44425e+08,22.9007,0,2.8773,-295.494,-2807.3,-24942.5
2.4469e+08,15.9169,2,2.64245,-2632.78,-2258.89,-28839.5
2.44744e+08,14.7426,2,2.78097,-1255.13,499.019,-26020.4
2.44807e+08,128.607,0,2.94303,9158.26,-22335.1,-16800
2.4512e+08,97.2941,2,2.39597,9663.91,-9017.74,-13044.6
2.45191e+08,33.5811,0,2.63492,-975.045,-2943.98,-22472.6
2.4529e+08,70.7328,2,2.88544,-14643.9,-2727.52,-27695.9
2.45392e+08,66.0419,2,3.00775,1512.81,9277.13,-18744.7
2.45509e+08,194.7,1,2.48537,-28061.9,-29209.9,-21645.9
2.45772e+08,63.5874,2,2.79055,1875.1,-12260.3,-23591.1
2.46358e+08,30.2971,2,2.73499,-2842.78,-5166.32,-26147.7
2.4638e+08,54.196,1,2.79608,7319.23,-2355.71,-20430.5
2.46829e+08,197.078,0,2.88597,-9759.14,-17480.4,7392.65
2.46995e+08,109.782,1,2.39592,-5016.46,21761.1,-22092.4
2.4726e+08,28.2607,1,2.83112,-4575.1,3836.25,-29700.2
2.47322e+08,121.004,0,2.6269,-17295.8,-12585.7,-15004.4
2.47727e+08,26.8469,2,2.63644,1201.77,-5326.99,-27009.9
2.47896e+08,112.684,2,2.60657,-5358.66,-15381.1,-11414.7
2.47951e+08,53.2674,0,2.92413,8778.65,1298.69,-21909.2
2.4805e+08,5.506,0,2.40561,864.122,52.6171,-27937.7
2.48055e+08,120.219,2,2.48682,-13446.1,-2966.53,-7433.35
2.48088e+08,5.7155,1,2.9667,-845.166,4.35546,-27969.1
2.48331e+08,29.4159,2,2.47158,-1225,5234.59,-25857.5
2.48662e+08,14.2058,2,2.74179,43.3032,-2112.53,-26655.5
0,14.0971,2,2.49662,0,0,0
2.48745e+08,20.0405,1,2.59077,-1727.55,483.08,-24955.9
2.49157e+08,162.859,0,2.83349,11563.2,-28297.2,-14648.9
2.49228e+08,68.6794,2,2.75951,-8141.92,-11227,-24385.4
2.49484e+08,53.191,0,2.95638,6297.9,3291.48,-20155.7
2.49865e+08,77.5624,1,2.60573,6217.38,-6604.87,-15247.3
2.49932e+08,74.7902,2,2.87684,2886.04,-8548.64,-15919.4
2.49965e+08,11.3782,1,2.6239,-624.779,1929.87,-27430.3
