#class tools::wcsv::ntuple
#title time
#separator 44
#vector_separator 59
#column double eventID
#column double t(ns)
#column double copynumber
#column double energy(eV)
#column double x(mm)
#column double y(mm)
#column double z(mm)
1055,170.603,2,2.7091,-25637.7,-23041.8,-18276.2
79014,77.8067,0,2.60492,12190.4,6927.02,-20166.8
139994,77.5153,1,2.51502,-15459.9,-3485.22,-24446.8
243711,157.709,2,2.51641,17199.1,21092,-9703.26
296088,5.44435,0,2.65288,427.17,-473.836,-27778.4
369742,74.5563,2,2.78035,-11548,2565.11,-22722
385336,11.0394,1,2.90939,-1689.11,1000.36,-27810.9
641196,25.047,2,2.96785,-2600.37,-4744.22,-29576.1
724183,43.2764,0,2.75687,7750.27,-3955.44,-25557.7
769039,66.5032,0,2.4041,7596.15,-4891.97,-17954.7
771163,102.785,0,2.89548,21026.2,4350.02,-26043
815416,11.415,1,2.57739,-927.577,742.988,-26915.3
843380,42.7539,0,2.81495,-595.013,6382.77,-22626.2
1.261e+06,42.9376,2,2.61772,6920.88,-4086.24,-24724.7
1.33461e+06,7.82609,2,2.92904,-1026.49,-989.785,-28161
1.41337e+06,141.579,2,2.96488,-25977.1,-14506.1,-27885.9
1.68794e+06,25.5871,0,2.67222,2556.64,-3549.3,-25469.5
1.88064e+06,34.3705,1,2.54626,3138.46,-1773.32,-22722.8
1.93234e+06,136.592,0,2.3997,-23414.1,77.8632,-12023.2
1.98043e+06,89.4255,2,2.79176,13732,-5429.26,-17110.4
2.19186e+06,20.4056,1,2.70238,-3488.76,1478.5,-26782.1
2.20926e+06,107.7,0,2.60316,13005.1,-1287.46,-10133.5
2.23589e+06,104.18,2,2.50109,9578.8,6524.99,-10092.9
2.27668e+06,139.901,0,2.9226,6529.55,10695.9,-2282.96
2.52153e+06,159.229,2,2.59783,22196.3,-14280.3,-7955.99
2.64259e+06,53.7313,1,2.63551,51.7442,11395,-27976.3
2.77172e+06,15.7537,0,2.89947,2660.54,-1831.53,-28451.6
2.87875e+06,50.0473,2,2.56392,6430.18,-262.31,-20473.3
2.9761e+06,17.826,2,3.02896,-3674.36,-632.883,-29422.3
3.08058e+06,12.3018,1,2.48809,-1714.77,906.415,-26964.8
3.11486e+06,138.968,2,3.00162,-7969.44,-13009.9,-3871.25
3.12754e+06,72.7673,0,3.01037,14019.1,6229.2,-29127.9
3.27822e+06,120.998,1,2.54749,11151.9,14043.7,-13719.2
3.28229e+06,103.119,0,2.65435,3693.07,17734.4,-16777.2
3.36881e+06,96.6225,0,2.73547,-7155.52,-11195,-15683.9
3.43013e+06,29.9727,1,2.90412,-1817.66,5386.49,-26116.5
3.47256e+06,63.599,2,2.59032,872.546,-7522.87,-17722.8
3.56066e+06,3.80001,0,2.55414,-326.48,23.4345,-28084.2
3.69908e+06,148.659,1,2.40957,-17689.2,26062.7,-27954.7
3.7372e+06,67.6193,0,2.73159,8651.15,1099.94,-17487.7
3.8388e+06,72.0686,0,2.85392,5587.57,-12218.9,-25574.2
3.86412e+06,106.515,0,2.89742,20602.3,7649.07,-24709.4
3.92612e+06,99.5913,2,2.51216,-19180,6975.23,-23649.8
4.09126e+06,93.0024,1,3.05035,-8000.7,16878.1,-23306.3
4.19109e+06,38.6258,1,2.89156,-2421.5,-6559.35,-24986.4
4.20225e+06,60.6825,1,2.48029,2767.72,9664.68,-20860.1
4.21828e+06,99.1846,1,2.90378,19697.1,-6577.08,-28097.8
4.22378e+06,96.8262,2,2.92626,3781.94,-17831.3,-19561.8
4.3367e+06,157.247,0,2.45535,-28849.4,-13009.6,-18758.5
4.38708e+06,50.2066,2,2.95503,-10038.1,-3435.13,-28959
4.38901e+06,6.08437,0,2.75989,204.527,1251.91,-28566.2
0,6.13355,0,2.87536,0,0,0
4.49041e+06,5.92961,2,2.84699,-819.42,-899.331,-28248.3
4.49944e+06,170.045,1,2.47665,16517.3,-14146.5,-296.197
4.51387e+06,112.411,0,2.44752,5031.09,-4848.77,-27334.7
4.54272e+06,74.2097,1,3.01003,-7457.3,5772.66,-16954.3
4.6325e+06,79.702,1,2.70745,-4390.79,-8061.35,-14818.2
4.7226e+06,98.6696,2,3.03383,7955.88,-12824.5,-14661.8
4.81548e+06,70.1359,1,2.7247,-5723.89,3431.55,-15600.1
4.86182e+06,91.1784,0,2.56957,9851.54,3378.23,-12577.9
4.9757e+06,25.3551,0,2.52152,2916.14,-1252.57,-24517.8
4.99505e+06,78.147,0,2.67626,14271.9,930.215,-20383.7
5.14481e+06,106.542,0,2.73488,-4659.44,7091.18,-27176.2
5.21424e+06,11.314,2,3.01772,-792.354,-1363.87,-27019.1
5.36559e+06,76.4322,2,2.4475,-2576.67,-6412.56,-14201.5
5.42185e+06,44.3746,2,2.68215,-4853.13,368.591,-20788.9
5.54316e+06,64.3593,0,2.57761,-6876.49,-11463,-26502.3
5.57985e+06,1.58519,1,2.66377,-254.508,-130.878,-28621.9
5.90394e+06,48.4028,0,2.71205,6875.21,-6566.4,-24896.4
5.9123e+06,72.8537,1,2.81767,-2440.33,8239.21,-16083.4
5.9264e+06,113.353,2,2.98075,-14759.4,8547.95,-12240.7
6.12591e+06,90.3697,1,2.97987,9465.54,3053.65,-12768.3
6.2063e+06,55.692,2,2.76537,-5976.04,-4314.07,-19768.4
6.22784e+06,21.8229,2,2.52295,-334.836,-4420.7,-27256.6
6.24397e+06,98.2607,0,2.58418,-1051.89,-18547.2,-28560.9
6.65502e+06,112.058,1,2.73038,-10619.9,18314.4,-18233.5
6.74559e+06,85.823,2,2.48018,16707.8,-4182.62,-23146.6
6.76656e+06,18.2643,0,2.95116,3414.44,-961.308,-28262.2
6.81798e+06,110.527,1,2.9136,-8668.55,10013.1,-9709.56
6.85743e+06,5.81468,0,2.95421,803.597,-346.799,-27877.6
6.91829e+06,11.6998,2,2.61466,-1947.27,-80.5177,-27322.2
7.07312e+06,74.1403,0,2.64115,-6676.46,6733.38,-16614.3
7.18342e+06,44.4067,1,2.43263,8304.91,2782.48,-25479.6
7.23425e+06,55.4519,0,2.48337,758.258,10910.1,-24636.3
7.27888e+06,23.7512,0,2.53876,4794.29,1917.09,-28810.6
7.32381e+06,4.04248,1,2.88715,-658.992,453.463,-28480.2
0,4.2232,2,2.5263,0,0,0
7.35065e+06,38.0314,2,2.37149,-7058.09,-3368.44,-26627.6
7.40043e+06,152.781,2,2.90471,26764.3,13451.3,-24609.8
7.68043e+06,15.8853,0,2.78841,-1855.64,1781.25,-26750.7
7.71943e+06,106.391,0,2.67474,-17616.7,10329.7,-19727.8
7.72836e+06,92.278,2,2.84298,-11464.3,-4218.06,-13808.6
7.72987e+06,8.4338,2,2.75542,-1636.2,-946.545,-28871
7.83838e+06,53.0773,2,2.56824,-9033.96,999.712,-22152.5
7.95732e+06,29.2343,1,2.73056,-5706.42,2241.71,-29202.9
7.99448e+06,60.5091,0,2.49237,6803.71,2631.7,-18335.7
8.01168e+06,13.6556,1,2.99566,2437.04,-633.706,-27691.8
8.08578e+06,36.9698,0,2.95598,5387.79,2306.1,-23861.2
8.08773e+06,54.2905,0,2.59643,2839.54,-6098.07,-19519.4
8.11575e+06,13.2287,2,2.93449,301.768,-2555.05,-27868.3
8.42265e+06,54.0795,1,2.87551,-1144.58,4418.3,-18354.8
8.47201e+06,67.8222,0,2.61593,-8681.13,-10795.1,-25299.8
8.7156e+06,45.6467,1,2.90325,3476.58,5296.72,-21594.1
8.8979e+06,35.9282,2,2.66884,-5478.89,3603.99,-25393.3
8.98597e+06,37.8684,2,2.6361,-147.933,-5155.06,-22648.3
8.99403e+06,89.1031,2,2.49408,5951.1,14393.5,-18407.6
9.05071e+06,98.8727,0,2.9901,-9782.19,-1485.49,-10844.8
9.14321e+06,102.816,1,3.03116,-16189.9,9690.83,-18103.7
9.45557e+06,139.844,1,2.74572,3072.95,29344,-29946.1
9.62887e+06,83.7966,0,2.56609,-1065.57,-16659.8,-23151
9.67307e+06,16.4839,1,2.80832,2037.81,2669.32,-27988.4
9.72937e+06,135.631,1,2.66883,13221.6,25093.4,-24974.1
9.7909e+06,7.84258,0,2.56814,-887.985,771.768,-27684.6
9.95336e+06,6.51446,2,3.0245,529.469,-1329.6,-29027.7
1.00813e+07,47.6785,2,2.62644,-1275.45,-3622.36,-21599.4
1.00997e+07,121.483,0,3.00246,14091.5,9868.81,-9988.09
1.01963e+07,124.834,0,2.72026,20163.8,-5610.23,-12801.3
1.02502e+07,136.357,2,2.45424,-11034.7,-18668.8,-9706.32
1.04118e+07,43.6605,0,2.90311,8660.6,-525.596,-25614.3
1.04389e+07,33.4828,2,2.54734,-4070.39,-3904.67,-24605.4
1.0568e+07,34.7271,2,2.94852,3986.9,-1692.03,-22966.7
1.06063e+07,144.953,2,2.98789,9905.92,-23546.9,-12249.4
1.07362e+07,104.407,2,2.80109,-12241.5,12978.2,-16149.5
1.07685e+07,77.8805,1,2.53762,-10883.2,11658.3,-24339.4
1.09159e+07,11.1453,0,2.59428,1306.83,-1978.24,-28275.2
1.09795e+07,68.0624,0,2.42238,3715.74,12582.1,-22753.6
1.10489e+07,164.026,0,2.58408,-3534.65,-8808.35,-13976.3
1.10531e+07,15.0328,2,2.89283,-1969.13,-2539.54,-28637.8
1.12115e+07,111.001,0,2.38564,3608.89,-10439.1,-8143.97
1.12479e+07,79.2097,0,2.92421,-9974.07,5532.61,-23848.7
1.13159e+07,56.5279,0,2.541,7707.23,9202.47,-28058.4
1.13166e+07,18.8514,0,2.56624,1549.8,-1204.05,-25296.2
1.14046e+07,2.13059,0,2.72161,552.082,115.44,-28911.2
1.14221e+07,102.737,2,2.44686,20095.4,3595.37,-21492.1
1.14337e+07,65.3845,0,2.67298,9465.79,944.012,-19722
1.15628e+07,137.726,0,2.997,23297.3,-17095.2,-26864.6
1.15962e+07,74.9167,1,2.9707,8007.82,-11201,-21463.2
1.18403e+07,65.8523,1,2.65655,-8129.22,9697.45,-22939.3
1.20999e+07,6.60296,0,3.04414,684.765,912.497,-27976.2
1.21414e+07,23.7534,0,2.83017,20.1989,4225.91,-26027.6
1.21992e+07,67.8771,1,2.42355,-5095.89,13497.1,-28315.1
1.22725e+07,1.95497,2,2.45381,356,212.73,-28632.5
0,1.92824,2,2.47418,0,0,0
0,1.96598,2,2.45404,0,0,0
1.23041e+07,117.778,1,2.7011,7550.97,6932.16,-6159.87
1.23982e+07,102.911,0,3.39257,-38.5349,-194.65,-28195.7
1.25224e+07,11.5307,1,2.69849,-1676.54,1899.56,-28530.5
1.26477e+07,301.375,1,2.89449,-10912.4,-2100.09,-26676.8
1.28356e+07,85.8142,1,2.67783,7288.54,-10339.4,-15924.3
1.28614e+07,116.742,1,2.52906,4334.28,12208.6,-7844.2
1.28809e+07,214.786,1,2.69336,-7350.72,28264,5758.51
1.29424e+07,93.4197,0,2.95558,12876.7,-3776.67,-14475.9
1.29773e+07,27.5057,0,2.60482,601.421,-5692.93,-27653.2
1.30146e+07,142.89,0,2.37357,23498.8,-10882.1,-13102.5
1.32042e+07,25.1885,1,2.63954,-3856.03,987.899,-25158.2
0,25.3251,1,2.85219,0,0,0
1.32119e+07,46.44,0,2.66384,1934.89,-8790.42,-24939.2
1.32221e+07,188.165,0,2.36605,27770.5,14398.1,-4258.32
1.32582e+07,110.054,0,2.47732,3449.22,11211.1,-8679.82
1.34567e+07,47.5455,1,2.87,-9390.24,-1415.49,-25487.5
1.34728e+07,61.052,2,2.63409,-4496.78,-12205,-28666.6
1.3533e+07,3.60117,2,2.43804,542.476,177.804,-28566.6
0,3.60431,2,2.54695,0,0,0
1.35628e+07,17.8137,2,2.6949,-2925.84,593.304,-26516.1
0,17.8497,2,2.99206,0,0,0
1.36078e+07,26.1439,2,2.54295,1721.81,-4913.68,-26565.2
1.36246e+07,131.142,0,2.89859,-3646.2,25313.1,-18801.7
1.37186e+07,126.485,0,2.66867,-7181.47,23890.4,-19449.8
1.38896e+07,67.3359,2,2.45288,13336,-773.222,-23808.1
1.41244e+07,65.3702,0,2.49255,-10546,163.598,-19964.1
1.41247e+07,11.3185,2,2.6435,1375.38,-1693.15,-27904.8
1.4239e+07,208.263,1,2.46007,-21201.7,14070.2,7193.13
1.43677e+07,145.036,2,2.41281,23834,-19235.8,-26581.2
1.45382e+07,4.96203,2,2.96998,-747.691,180.924,-28048.1
1.47004e+07,3.07281,1,2.63187,-146.217,512.539,-28357.7
1.4955e+07,196.359,2,2.90476,23638.7,-10663.8,2885.31
1.50694e+07,58.537,2,3.00099,-6426.24,4827.21,-21631.4
1.51735e+07,129.743,1,2.53666,-20706.3,17942.2,-26821
1.53614e+07,162.796,2,2.81117,17869.9,-28705.6,-23702.6
1.53784e+07,168.207,2,3.05865,-5163.13,-9917.83,-26420
1.54903e+07,21.7815,2,2.87764,-3357.46,-2404.91,-26808.4
1.55479e+07,16.1945,2,2.85195,-3117.06,-1099.96,-27821.8
1.567e+07,187.647,0,2.73527,-8322.33,-5797.21,-20037.3
1.56782e+07,50.2436,1,2.92346,-484.872,8303.01,-22198.8
1.56867e+07,44.6732,2,2.71855,-4937.94,-5824.06,-23521.7
1.58061e+07,161.272,2,2.56497,-2266.84,-24038.2,-4738.46
1.5899e+07,115.435,1,2.93167,-3851.33,-18764.4,-14116.5
1.59205e+07,129.006,2,2.84985,-14201,-16693.4,-12921.8
1.59692e+07,54.8179,1,2.77525,-6412.83,9192.41,-26926.1
1.60111e+07,10.1872,2,2.41854,891.359,-1587.34,-27554.1
1.60669e+07,78.8431,1,2.73753,-2129.53,12717.4,-18277.7
1.60803e+07,185.935,1,2.72906,-20605.1,-3241.53,4472.66
1.62015e+07,73.0474,1,2.38729,-1778.91,8950.82,-16244.7
1.63416e+07,13.5499,1,3.03625,178.863,2790.18,-28061.1
0,13.5049,1,2.96365,0,0,0
1.66615e+07,122.46,0,2.49869,1132.86,25030.8,-22818.5
1.66888e+07,22.6516,0,2.75201,2171.76,1474.34,-24956.8
1.67915e+07,158.603,0,3.05696,14485.6,-21845.3,-8434.95
1.70377e+07,67.887,0,2.96656,3861.96,-13704.1,-27550.8
1.70578e+07,257.535,1,2.89448,28021.7,22434.4,11598.9
1.71186e+07,206.778,2,2.99993,-17943.4,24448.4,2116.3
1.72749e+07,46.7112,0,2.92745,6459.42,2817.75,-21977.3
1.73604e+07,10.8252,1,2.8702,-234.365,2361.9,-28909.5
1.73854e+07,110.489,2,2.50603,-15468.9,-14918.8,-19574.5
1.76159e+07,15.9826,1,3.01586,1847.51,-407.013,-26076.1
1.76859e+07,12.7032,1,2.71352,-694.746,2456.37,-29901.1
1.78742e+07,71.6291,0,2.72143,12526.2,-7226.65,-24275.3
1.8008e+07,122.969,1,2.45728,8394.66,-17859.9,-12101.1
1.8021e+07,83.4366,1,2.44822,-14387.5,-6267.43,-20685.8
1.80336e+07,51.2831,0,2.37761,-6852.81,-6462.47,-23234.9
1.80424e+07,78.8154,0,3.02382,15433.5,-99.4205,-22765.9
1.81125e+07,56.9828,1,2.77212,1928.61,-6057.93,-18774.4
1.81804e+07,28.7315,1,2.53938,-993.468,5684.5,-26890.3
1.83498e+07,41.5414,1,2.70547,3902.24,6413.87,-24155.6
1.84132e+07,146.2,0,2.41077,27634.5,2932.36,-17588.8
1.84429e+07,9.85966,1,2.38256,-933.66,-1818.84,-28323.6
1.84489e+07,3.2883,0,2.61986,645.829,205.108,-29390.6
0,3.29022,0,2.36635,0,0,0
1.84716e+07,73.6219,1,3.04594,5854.16,7527.32,-16555.8
1.86992e+07,105.369,1,2.51234,-15302.5,-27.2976,-12757.1
1.88847e+07,40.5457,1,2.76976,4578.82,5286.96,-23869.9
1.90215e+07,68.4062,1,2.73179,-14152,-2868.47,-29425.9
0,68.5549,1,2.72569,0,0,0
1.93281e+07,80.6611,1,2.63947,12481.3,11220.9,-25783.5
1.93433e+07,78.5677,2,2.37243,-5638.59,-10299.9,-16961.7
1.95464e+07,34.9232,0,2.65556,2207.61,-6766.76,-26766.3
1.9636e+07,121.85,0,2.52261,25137.3,-2883.22,-23447.8
1.96547e+07,140.526,0,2.41813,-2361.01,-13473.3,-2452.66
1.97841e+07,6.44479,2,2.43046,-543.59,-744.881,-27743.4
0,6.44546,2,2.4539,0,0,0
1.98412e+07,73.9363,0,2.76236,12888.6,8878.5,-27994.1
1.98811e+07,11.1929,0,2.93698,2370.21,-532.034,-28695.3
1.99166e+07,100.169,0,2.70282,-12082.4,-12182.1,-16484.7
1.99291e+07,21.5251,1,2.84652,-4298.4,-830.403,-27385.3
1.99459e+07,80.1885,2,2.9774,4417.68,15442.5,-24129.7
2.00341e+07,104.719,2,2.9425,-10878.1,-18786.4,-25057.9
2.00634e+07,90.0959,1,2.7696,10082.1,-311.084,-18064.2
2.01736e+07,124.351,1,2.73064,1419.6,26081.7,-25814.7
2.01998e+07,13.8631,1,2.48645,145.426,-1707.25,-26476.9
2.02488e+07,41.4646,1,2.4051,-592.249,4690.31,-21441.5
2.039e+07,3.13445,2,2.81879,-610.483,-321.529,-29119
2.04237e+07,112.555,1,2.94907,-18204.1,-11957.7,-19746.1
2.06953e+07,133.835,0,2.76973,17583.8,-12030,-20455.2
2.07198e+07,24.1721,1,2.78823,-4650.02,978.166,-26794.2
2.07972e+07,32.1557,2,2.84401,-4744.55,2257.96,-24735.9
2.0981e+07,12.4284,0,3.02516,661.246,1402.34,-26698.6
2.12129e+07,168.347,1,2.72994,-8846.44,24600.3,-5297.32
2.12227e+07,86.0722,2,2.43919,4482.35,12309.3,-16403.2
2.14429e+07,154.012,2,2.51673,16956.9,-13204.8,-10597
2.15097e+07,30.0129,0,2.87544,6023.98,256.282,-27162.5
2.17103e+07,10.1447,2,2.74462,-1937.16,36.6777,-27774.3
2.19696e+07,11.2144,2,2.48479,-1352.15,-2053.5,-29008.7
2.20249e+07,96.2464,2,2.82231,-7816.81,-9216.99,-12784.4
2.20656e+07,28.8841,2,2.74815,-1097.02,-6038.3,-28169.6
2.21547e+07,63.7411,2,2.76633,-9356.36,1014.07,-19239.3
2.2175e+07,18.409,0,2.74915,1684.37,-2059.77,-25968.1
2.23905e+07,6.09627,2,2.8538,-331.964,-748.499,-27782.7
2.254e+07,25.6784,1,2.59644,1768.84,-2966.39,-24812.1
2.26132e+07,67.0431,1,2.42667,531.852,12792.4,-22579.4
2.27493e+07,131.089,2,2.78699,-24783.6,-6910.47,-18844.3
2.2917e+07,161.435,1,2.59798,6955.92,12770.5,-3593.41
2.31026e+07,137.101,1,2.83758,-10672.1,2500.38,-2174.49
2.31983e+07,51.3482,2,2.80989,10281.5,-3140.19,-28591.5
2.32011e+07,85.9243,2,2.84113,-14705.3,6502.61,-20738.9
2.32297e+07,134.606,1,2.85423,-19003.7,21101.3,-27079
2.3289e+07,163.537,1,2.53364,-7393.87,-4122.16,-25652.3
2.32924e+07,66.045,2,2.82643,-9699.94,-1295.66,-23544.1
2.33341e+07,141.915,1,2.82486,17173.3,12936.6,-8197.54
2.3448e+07,81.2395,2,2.79238,-16696.4,514.368,-25213.3
2.3459e+07,192.485,0,2.78943,24078.3,-21089.5,-3976.73
2.35159e+07,40.5204,2,2.74636,-4446.25,-2592.42,-21944.2
2.35548e+07,50.1287,1,2.96747,1732.9,8454.91,-22787.3
2.36149e+07,233.968,1,2.71769,-3466.66,15899,-16703.8
2.37081e+07,45.3613,1,2.7087,-3952.07,8315.09,-25988.4
2.39118e+07,13.0809,2,2.66776,-1585.62,-2299.17,-28354.5
2.39472e+07,17.0638,0,2.59366,212.567,-3626.03,-29118.3
2.39747e+07,65.2401,0,2.49785,13851.4,-502.246,-27342
2.40261e+07,147.773,0,2.90117,2543.07,19744.7,-5024.95
2.40276e+07,117.549,1,2.43706,-645.383,13031.7,-7682.04
2.40979e+07,12.0008,0,2.38142,1780.76,-280.837,-26924.3
2.41987e+07,155.247,0,2.66822,18909.9,20713.1,-11917.2
2.42595e+07,89.6937,1,2.79556,-12194.4,10139.6,-18447.3
2.42828e+07,109.975,2,2.63087,-13480.9,4278.06,-10241.5
2.44119e+07,16.5585,1,2.83285,1970.65,2942.16,-28846.1
2.44918e+07,28.9533,0,2.83502,-5312.81,-2295.72,-27144.1
2.45057e+07,26.3355,0,2.88978,4970.27,-1782.71,-26876.2
2.45294e+07,45.8635,0,2.96823,-3095.15,8769.13,-26388.2
2.46046e+07,3.94561,0,2.43604,230.702,-772.032,-28747.8
2.46111e+07,153.931,1,2.90021,28593.9,4944.21,-14780.4
2.48436e+07,88.598,0,2.65707,-17209.2,-6112.55,-25150.5
2.48977e+07,17.1339,2,2.9636,-1598.96,-1259.36,-25762.6
2.49879e+07,10.0387,2,2.79112,461.37,-631.694,-26900.9
2.51026e+07,160.855,0,2.87453,-7499.65,-17212.8,-747.672
2.5118e+07,150.917,2,2.85231,-11067.1,-22681.1,-9400.63
2.54151e+07,115.384,0,2.60409,-7468.92,-3127.73,-24425.8
2.55897e+07,75.7539,0,2.76625,974.481,11624.3,-17991.3
2.55905e+07,13.4852,1,2.70878,-850.169,853.378,-26174.4
2.56386e+07,48.8188,2,2.9896,4056.47,-7802.56,-25629.9
2.56562e+07,53.5558,1,2.67354,-4842.08,9760.16,-25859.6
2.56663e+07,18.4899,0,3.001,2397.34,2918.89,-27483.9
2.57429e+07,31.386,0,2.60997,6376.86,-1994.86,-27576.1
2.5939e+07,43.7208,2,3.00445,-5923.85,-2034.49,-22056.5
2.59529e+07,29.47,0,2.82714,4460.06,-3947.84,-26964.3
2.61053e+07,3.78937,0,2.70566,511.906,-212.818,-28225.1
0,3.79325,0,2.42707,0,0,0
0,3.77929,0,2.51657,0,0,0
2.61826e+07,20.4358,1,2.99859,2572.29,3530.66,-29152.8
2.62863e+07,66.6387,0,2.67154,10419.1,5011.02,-20713.2
2.63195e+07,207.712,0,2.68404,641.891,17080.1,11494.8
2.63512e+07,29.3605,0,2.9702,3266.39,-3757.87,-25220.4
2.64012e+07,67.4982,2,2.9167,5700.48,-9583.33,-20235.6
2.64374e+07,37.4144,2,2.93714,-5141.24,2663.21,-23656.3
2.65038e+07,254.055,2,2.89167,-11238.3,-10227.7,-27591.1
2.65392e+07,23.863,0,2.99633,2638.42,415.844,-24669.2
2.65497e+07,139.525,2,3.06037,24673.6,11655.7,-19940.2
2.6666e+07,23.8891,2,2.88676,-2661.06,3718.61,-26721.1
2.66947e+07,48.7112,0,2.80801,-7980.24,1515.67,-22568.5
2.6751e+07,105.371,2,2.53095,1530.85,-21780,-24060.4
2.67723e+07,118.329,2,2.79766,1167.09,-20077.8,-14020.7
2.68344e+07,38.7326,0,3.05015,2659.18,-3764.24,-22070.1
2.72469e+07,1.91823,0,2.51159,240.221,281.423,-28503.7
2.74492e+07,111.682,0,2.75344,15859.4,714.536,-11450.8
2.77247e+07,185.818,2,3.0447,8057.97,-20946.8,-1077.94
2.786e+07,35.7029,1,2.49741,-1863.28,7206.96,-27148.5
2.80652e+07,133.47,2,2.74727,-6344.17,23626.1,-15346.9
2.81159e+07,80.7686,1,2.88285,-12351.6,2627.57,-17357.9
2.85384e+07,66.7015,0,2.89567,6170.78,-10515,-21878.7
2.857e+07,61.4695,0,2.96089,-6171.08,-5860.75,-19104.2
2.86312e+07,33.8958,2,2.90596,3739.17,4507.9,-24846.7
2.86581e+07,25.0134,1,2.76286,974.924,1924.78,-24021.2
2.87136e+07,70.7383,2,2.71065,-7685.15,-8711.08,-19259.8
2.87391e+07,42.1785,0,2.70252,-5174.27,356.783,-21610.7
2.88989e+07,56.3153,1,2.43075,8399.48,6027.56,-22971.9
2.89861e+07,77.2015,1,3.00981,-7218.08,5920.11,-15994.9
2.9024e+07,98.7549,0,2.90497,6934.17,11424.1,-23427.7
2.91325e+07,36.9869,1,2.50599,-3235.11,-453.968,-21589.6
2.92798e+07,173.712,2,3.0387,1803.09,-15801.6,-82.7722
2.93735e+07,62.5764,0,2.70393,-5896.77,-7019.03,-19434
2.93742e+07,34.376,2,2.75706,-3502.84,-5922.13,-26902.9
2.94045e+07,57.9672,0,2.56112,8947.71,-8530.65,-28510.8
2.95354e+07,7.65213,1,2.96707,-432.331,1390.61,-29693.4
2.96174e+07,89.3078,0,2.91022,-5583.36,16243.1,-21326.2
2.9893e+07,47.1364,2,2.82257,2993.74,9308.9,-27798.2
2.99227e+07,42.7342,0,2.96181,1911.81,6448,-22851.2
