#class tools::wcsv::ntuple
#title time
#separator 44
#vector_separator 59
#column double eventID
#column double t(ns)
#column double copynumber
#column double energy(eV)
#column double x(mm)
#column double y(mm)
#column double z(mm)
31892,62.4726,0,2.59364,8811.46,-3594.55,-19593.2
108569,126.111,2,2.91099,-572.861,728.024,-27606.8
205958,73.6989,1,2.70988,-12181.9,9805.98,-28356.6
224697,73.0592,0,2.79305,-3127.97,-12729.1,-20800.4
230835,183.804,1,2.83277,9276.62,27744.8,-3593.42
301523,139.097,1,2.71548,-4723.47,-11955.8,-7784.88
311688,126.445,2,2.39791,-16892.7,-6187.38,-9270.95
339795,146.884,0,2.74549,-13012.9,-2694.2,-918.415
445866,13.9217,0,3.0585,1151.91,2448.16,-27922.8
463605,154.708,2,2.92479,-1804.57,28388.9,-12917.4
521428,117.072,2,2.52922,20861.9,-13417.5,-29128.5
556718,68.7119,0,2.9773,-10125.4,-7264.08,-21941.6
659308,23.5456,2,2.64445,-1268.17,3708.52,-25844.4
695712,54.1919,2,2.82567,-3073.94,-5026.58,-19003.6
777193,193.41,1,2.47552,22779.5,12113.9,3056.77
935021,153.21,0,2.60457,-14274.5,-16629.1,-5032.32
1.01169e+06,117.22,0,2.88692,15343.9,5014.07,-13182
1.12651e+06,60.1101,2,2.45995,-12564.2,-345.185,-26575.4
1.17323e+06,92.7027,1,2.82556,12936.1,9593.34,-23753
1.18039e+06,39.1726,1,2.50275,1338.37,7517.27,-25256.5
1.3483e+06,13.6887,2,2.70601,1529.54,-935.315,-26552.2
1.58635e+06,47.0295,1,2.69052,-7379.57,-1916.75,-22643.3
1.69787e+06,25.3481,0,2.39692,1137.18,-4995.12,-27053.9
1.7766e+06,17.5606,0,2.75711,3577.57,1319.89,-28872.9
1.79632e+06,127.656,0,2.98059,17859.8,-7189.51,-10197.3
1.83403e+06,44.4855,1,2.62568,3603.9,8643.96,-29059.4
1.88148e+06,10.221,1,2.56243,-1029.94,-173.659,-26930.3
1.88319e+06,30.8404,0,3.00606,-1570.4,3848.42,-27244
2.00995e+06,5.78562,2,2.62266,-819.522,-547.317,-27870.7
2.01278e+06,78.3744,0,2.77193,15801.8,541.188,-23989.3
2.06565e+06,82.395,1,2.64126,-15684.7,682.436,-21674.3
2.12156e+06,114.426,2,2.95721,14420.5,-11098.2,-13385.9
2.23275e+06,12.1347,0,2.5297,2370.6,-1050.75,-29275.8
2.24962e+06,5.56739,2,2.82393,-1147.88,-118.139,-28375.1
2.35316e+06,50.9301,0,2.99227,7052.46,2980.99,-21093.6
2.53574e+06,154.267,1,3.01845,-20708.4,15418.3,-9196.59
2.57575e+06,5.7012,0,3.04305,56.8079,-1171.99,-28258.1
2.64357e+06,75.4586,2,2.99253,-10462.1,-8227.15,-20135.7
2.69506e+06,205.042,2,2.94309,-16343.9,-23168.6,-28810.3
3.01492e+06,21.3875,1,2.87724,1076.08,4189.02,-27493.5
3.02632e+06,63.0973,2,2.70947,-11601.3,6375.78,-27914.8
3.04444e+06,37.8874,1,2.7498,-6153.46,-4890.25,-27616.8
3.1272e+06,84.922,2,2.82082,-1839.79,-15868.5,-20593
3.29623e+06,49.5629,1,3.01511,-4090.09,1417.33,-19353.8
3.31962e+06,148.204,0,3.05289,-7289.22,-23241.8,-9758.62
3.51193e+06,26.0113,0,2.98794,2563.79,684.362,-24043.4
3.5975e+06,54.5042,1,2.48216,9210.36,3931.37,-23104.9
3.71366e+06,164.836,0,2.53498,7777.45,-4405.42,-26444.6
3.72202e+06,55.9255,2,2.98548,-2287.95,10938.8,-25405.6
3.82185e+06,168.732,0,2.94007,28790,16609.3,-16727.9
3.96777e+06,138.704,0,2.96465,10027.3,-12456.2,-4497.02
4.02782e+06,60.8044,0,2.76058,5123.52,11795.3,-28443.7
4.0289e+06,96.964,0,2.7147,16643.9,-3230.01,-20006.6
4.12756e+06,114.294,0,3.00533,-19019.9,-3341.04,-14756.9
4.19269e+06,78.6126,1,2.47731,-12335.2,-4245.94,-18472.1
4.22393e+06,169.538,0,2.68066,-4573.74,-22345,-1373.5
4.39665e+06,94.1214,1,3.05969,-3547.45,14071.5,-23629.3
4.47097e+06,28.426,1,2.74926,-3154.61,4916.03,-27101.9
4.66454e+06,16.8583,0,2.70997,2908.69,-2242.76,-29261.7
4.69689e+06,4.66583,0,2.91277,852.185,-337.518,-28312.9
4.70313e+06,109.552,0,2.68388,7629.04,8159.34,-8572.2
4.83514e+06,41.1104,2,2.98769,5939.78,-3509.78,-29873.3
4.94123e+06,174.121,1,2.60559,20649.6,1216.05,1331.23
4.99959e+06,31.9807,1,2.61736,223.626,2626.16,-22634
5.13785e+06,10.6476,2,2.9251,-492.489,-1823.26,-27536.4
5.16076e+06,1.90394,1,3.28151,87.5034,36.5153,-29104.5
5.26326e+06,28.0436,2,2.90848,-2617.85,44.6858,-23543.9
5.47916e+06,105.816,1,2.78518,15308.6,5090.43,-13433.6
5.75068e+06,53.4688,2,2.5645,1953.68,10916.9,-26854.8
5.79017e+06,207.408,1,2.76327,12308,21992,6880.96
5.83493e+06,26.5078,1,2.37335,-460.9,-3892.11,-24826.3
5.93102e+06,76.2276,2,2.58745,-11792.5,10843.1,-28074.6
5.99632e+06,74.7011,0,2.98921,3518.53,13780.5,-22234.1
6.03318e+06,177.024,1,3.02794,-22905,27341.5,-18338.3
6.09107e+06,6.67955,1,2.46196,276.507,-1271.05,-28491
6.14838e+06,48.6745,0,2.89807,-386.934,9637.62,-25376.9
6.14998e+06,135.159,2,2.98639,-5525.35,-16757.1,-6652.24
6.21195e+06,14.1557,0,2.44219,1328.6,2696.4,-28273.6
6.29424e+06,17.7351,0,2.46289,2089.1,-1980.02,-26335.5
6.42886e+06,67.2148,1,2.51573,-10284.5,-4660.99,-20164.4
6.54875e+06,68.1996,2,3.03776,-12572.7,5836.83,-24935.7
6.54937e+06,40.3927,2,2.6671,-786.542,3010.52,-26095.1
6.71099e+06,137.003,2,2.79999,-14127.4,-24909,-24853.4
6.84037e+06,161.322,2,2.41132,22912.2,-24628.1,-23268.6
6.91579e+06,70.3389,1,2.81498,-2031.74,7410.79,-16115.5
7.1842e+06,5.27088,1,2.51288,-822.864,-510.517,-28294.3
7.23085e+06,46.8421,0,2.86168,3524.08,-4921.56,-22903
7.24175e+06,57.613,2,2.62727,-1322.85,-9235.8,-21197.3
7.48653e+06,121.654,2,2.58494,320.278,25504.9,-27511.4
7.71502e+06,44.0233,0,2.51543,7369.05,-1768.15,-23354
7.89206e+06,11.9997,1,3.02602,803.019,2439.98,-28453.8
7.93992e+06,70.3779,2,2.71187,-6410.58,10844.5,-21188.4
7.94167e+06,9.30603,2,2.76457,-898.544,-749.067,-27243.9
0,9.38458,2,2.75885,0,0,0
8.10442e+06,77.3056,0,2.45353,9907.33,-5146.49,-16819
8.1067e+06,10.5989,0,3.0205,-824.016,753.967,-26938.9
8.19143e+06,11.472,0,2.79755,1991.95,-900.709,-27671.7
8.19392e+06,34.8026,1,2.49508,-6522.61,-3509.53,-27674.1
0,34.8561,1,2.65401,0,0,0
8.28149e+06,37.7947,0,2.37799,-2635.88,4388.96,-22774.5
8.47e+06,35.9858,1,3.02676,-134.869,1799.99,-24322.8
8.50592e+06,85.5509,0,2.58175,-2391.02,-15837.2,-20449.5
8.59943e+06,59.997,1,2.98308,-11679.4,3184.21,-25541.5
8.74904e+06,67.3917,0,2.58507,2589.63,-9605.66,-18646.9
8.84018e+06,37.595,0,2.55325,-1081.72,6151.81,-23996.1
8.8861e+06,154.623,0,2.99409,-26258.2,-16753.8,-20666.2
9.08297e+06,38.8428,1,2.76521,3936.7,7183.66,-27256.9
9.31382e+06,57.2413,1,2.79356,-8020.02,2065.34,-25370.9
9.4779e+06,10.727,0,2.68275,1010.74,1494.98,-27441.9
9.68592e+06,46.3629,2,2.42083,-5121.61,2890.56,-20973
9.69354e+06,37.7308,1,2.62421,2063.03,3450.93,-21888
9.78816e+06,143.712,1,3.01395,-19921.2,-10127.9,-12460.3
9.86046e+06,156.018,0,2.42909,-22478.8,21149.6,-16928.4
9.99804e+06,12.0265,0,2.62613,2635.38,284.077,-28492.6
1.00137e+07,48.9724,2,2.85627,-9940.47,503.184,-25706.2
1.01013e+07,8.62966,1,3.03025,-1693.84,-212.034,-29248.4
1.012e+07,128.266,2,2.74861,-13535.9,-20013.5,-16513.1
1.02449e+07,29.6682,1,2.87379,4203.33,-549.644,-24377.3
1.04836e+07,122.007,0,2.8284,-5306.94,14019.6,-8004.38
1.06464e+07,25.3303,2,2.84505,-327.94,-5397.21,-29048
1.06708e+07,84.519,1,2.43187,-12866.7,-9511.05,-21445.7
1.08645e+07,39.2701,1,2.5525,4700.97,5963.71,-25366.5
1.08825e+07,25.8023,2,2.38035,-3052.74,-4239.96,-26938.4
1.11653e+07,38.7619,1,2.9424,-2946.16,7498.69,-29815.2
1.12649e+07,76.9217,1,2.38346,6731.4,9743.27,-17567.3
1.12815e+07,84.2606,1,2.36445,3369.15,-12002.2,-16744.4
1.13322e+07,63.5068,2,2.61262,-11770,2037.74,-22818.3
1.13715e+07,36.1601,0,2.5067,4256.23,6390.59,-28628.9
1.14343e+07,56.6538,0,2.44099,591.64,10189.5,-22564.5
1.14363e+07,11.2828,0,3.02912,1959.81,-508.421,-27730.1
1.144e+07,25.2344,2,2.87215,1043.5,-2195.33,-24093.8
1.15079e+07,104.452,1,2.47038,7108.78,-11746,-11631.2
1.15228e+07,26.3295,1,2.91276,-654.716,-3550.31,-24911.5
1.16225e+07,39.6493,1,2.60154,7724.05,2961.27,-27008.1
1.17082e+07,98.4292,0,2.61914,12342.3,4616.56,-12917.9
1.18102e+07,190.412,1,2.42199,-19111.5,5530.19,6217.73
1.19593e+07,178.804,1,2.57042,11423.7,10573.7,5688.73
1.21337e+07,78.5967,1,2.97002,-14419,-4033.1,-22031.6
1.2156e+07,39.3014,1,2.72635,-1242.02,-3544.95,-21551.1
1.22052e+07,149.733,2,2.879,11054.8,-18440.8,-16346.2
1.23192e+07,33.9952,2,2.60268,1303.51,-3770.42,-22866.1
1.24725e+07,162.615,0,2.56691,23328.2,-12664.9,-6921.19
1.26974e+07,30.6469,1,2.85804,-2665.45,2375.95,-23393.4
1.27028e+07,92.4373,0,2.49908,15228.9,-8677.43,-20732
1.27938e+07,86.7657,0,2.36544,7791.88,-16135.9,-24530.5
1.28301e+07,72.2371,2,2.50818,-9968,-9222.63,-21709.8
1.28331e+07,45.6372,2,2.70816,6468.06,-4943.9,-23652
1.28978e+07,105.95,0,2.48648,20735.4,8550.64,-27170.9
1.29144e+07,88.7161,0,2.64997,3013.49,16837,-21080.1
1.29881e+07,125.924,0,2.54808,15910.2,-13987.7,-12646.4
1.30345e+07,1.88319,2,2.49225,-50.1854,-57.8076,-28407
1.31038e+07,161.496,0,2.73625,23216.4,-11381.4,-7172.91
1.34863e+07,137.736,1,3.04952,2179.66,8145.5,-20023.7
1.35651e+07,69.998,2,2.46411,-11108.3,9794.51,-28240.9
1.35743e+07,8.85124,2,2.92394,-742.938,-1272.93,-27547.8
1.37284e+07,236.759,0,2.64808,25259.5,-19186,9637.27
1.3857e+07,38.5346,1,2.96364,232.492,5720.96,-23105.3
1.38627e+07,99.7798,1,2.60296,-6160.83,19980.2,-25469.5
1.41483e+07,17.8442,0,2.61889,766.338,3523.66,-27830.7
1.43514e+07,153.343,1,2.54176,-14638.6,28908.2,-26282.2
1.43778e+07,192.603,2,2.8434,21721.1,-2314.95,-775.156
1.43886e+07,126.664,0,2.47845,21298.6,-13281.9,-19487.9
1.44231e+07,56.8651,2,2.55051,-992.931,-11274.7,-24488.2
1.45096e+07,108.422,0,3.0404,-13383.1,-2300.46,-10664.6
1.4672e+07,106.869,0,2.75767,13363.1,-5603.64,-11536.4
1.48024e+07,17.6074,2,2.54335,2140.38,-1712.55,-26282.9
1.5307e+07,67.6743,0,2.44631,12165,-1763.17,-21443.5
1.53421e+07,184.651,2,2.53157,6766.87,-24980.5,-10822.3
1.53949e+07,38.056,2,2.76515,-2061.09,-4437.04,-22472
0,37.9104,2,2.47468,0,0,0
1.56821e+07,84.5183,1,2.82771,-14863.3,338.563,-18992.2
1.57048e+07,89.7293,2,2.54393,9260.4,883.099,-12338.5
1.58305e+07,74.6278,1,2.75073,13657.8,5800.79,-23726.6
1.59425e+07,98.2837,0,2.63835,19021,623.063,-20256
1.59856e+07,12.9587,1,2.61606,-2734.24,511.725,-28672.5
1.60027e+07,6.97121,0,2.7182,1072.76,-35.847,-27899
1.60266e+07,22.1527,2,2.98107,-79.406,-4619.7,-29163.9
1.60285e+07,30.9812,0,3.0057,3761.73,4705.3,-26407.6
1.61015e+07,46.1492,0,2.67649,5822.67,6876.69,-25376.7
1.61574e+07,103.564,0,3.35797,-167.316,-62.3826,-28853.3
1.6189e+07,7.86807,2,3.00852,474.743,-749.276,-27484
1.62061e+07,136.431,0,2.8222,27019.3,-7423.23,-26445.1
1.6349e+07,235.879,0,2.87198,-22922.2,-22621.4,-9133.27
1.66127e+07,54.2851,2,2.55505,8000.96,-8020.74,-26791.7
1.66524e+07,164.072,2,2.98814,10171.2,14013.7,872.443
1.66673e+07,83.8121,2,2.56531,10794.5,-1528.94,-14901
1.6732e+07,32.7854,2,2.74563,-5999.82,3071.44,-27331.2
1.68778e+07,1.24673,2,2.45141,-339.043,-21.1557,-28849.8
1.68949e+07,86.2489,1,2.75812,-5785.47,16433.7,-23286.3
1.69363e+07,197.625,2,2.86189,18843.7,-10743.7,-5327.98
1.69757e+07,159.711,0,2.41433,12605.3,-6704.29,1795.75
1.7026e+07,21.4497,0,2.54558,3657.81,475.711,-26348.1
1.70713e+07,94.0385,0,2.94518,-7890.88,9742.46,-13843.4
1.72365e+07,15.2411,1,2.4468,728.284,-1659.87,-26356.9
1.74891e+07,124.502,1,2.4979,10143.9,16204,-10822.6
1.76724e+07,36.8502,2,2.90664,1017.59,-4720.22,-22755.5
1.77086e+07,95.472,0,2.84184,10235.2,-5561.61,-12489
1.77262e+07,44.7685,1,2.60251,6177.12,7213.25,-28725.5
1.78582e+07,274.416,2,2.75927,-6565.58,-12243.5,-14561.8
1.81222e+07,47.4645,0,2.46307,8084.05,-6089.44,-29391.5
1.81574e+07,87.4187,1,2.85258,-17543.6,4236.07,-25215.3
1.83699e+07,112.061,0,2.62777,-16932.3,-7736.21,-14336.7
1.84488e+07,66.0095,2,2.6303,-6412.97,-4820.47,-17403.7
1.84875e+07,14.8124,2,2.86185,-2976.38,-722.704,-27902.4
1.84965e+07,33.4819,2,2.91491,965.972,6139.62,-25887.5
1.85558e+07,67.4652,1,2.94974,-13512.5,3985.72,-26718.6
1.86489e+07,46.2165,1,3.01315,8957.66,24.538,-25274.9
1.86711e+07,200.525,0,2.98256,28301.7,8793.3,1050.91
1.8702e+07,11.9885,1,2.95078,-2371.55,537.017,-29739.6
1.87302e+07,46.1992,2,2.97809,-9657.15,-941.944,-27180.9
1.89298e+07,113.033,2,2.50672,-21587.2,6202.18,-20716.3
1.89458e+07,166.965,2,2.73933,3850.2,-16535.6,-22308.4
1.89597e+07,211.849,2,2.96701,-14674.8,-24063.8,-24804.2
1.89912e+07,151.957,2,2.72275,-26788.4,16708.9,-24541.7
1.90073e+07,7.8923,2,2.38978,-1587.25,-504.837,-28308.3
0,7.945,2,2.63534,0,0,0
1.90427e+07,35.9324,0,2.9881,6301.74,-4198.03,-28471.9
1.90495e+07,50.2051,2,2.41304,5075.89,-8901.48,-25596.7
1.90942e+07,32.4109,2,2.5429,-4485.62,3073.96,-24776.7
1.94494e+07,150.485,2,2.40807,-11580.7,-29280,-24439.2
1.94635e+07,19.5057,2,2.57293,-1383.49,-3336.62,-27067.4
1.9581e+07,64.9147,2,2.46247,9274.87,-4465.41,-19811.1
1.96308e+07,81.7102,0,2.58042,10720.7,4121.98,-15892
1.99985e+07,114.228,2,2.95009,2677.17,9264.87,-28484
2.00469e+07,114.95,2,2.45689,-9458.95,-8795.56,-8180.01
2.00563e+07,172.284,0,2.72162,10082.9,-8852.67,4913.77
2.02842e+07,37.5993,1,3.01071,-6438.2,4661.12,-27937.8
2.02878e+07,45.1796,2,2.46017,1612.56,4807.21,-20830.2
2.03317e+07,12.1198,1,2.40883,-2237.28,1457.74,-29151.5
2.04657e+07,141.335,2,2.83305,-29077.8,-5761.71,-25046.8
2.05711e+07,15.9401,2,2.61824,-2521.42,-1358.16,-27080.3
2.06965e+07,15.4071,1,2.93434,-148.527,3230.92,-27996.1
2.06983e+07,44.5376,1,2.89936,-2269.37,5177.46,-21301.2
2.07452e+07,19.8746,0,2.45346,3031.69,1092.67,-26009.8
2.10094e+07,93.4706,1,2.36919,-14786.3,-223.707,-15889.3
2.10158e+07,55.7001,1,2.54966,-9232.05,2134.58,-21763.7
2.11031e+07,33.9924,0,2.93529,-1529.81,4222.06,-23378.8
2.11533e+07,115.505,2,2.97005,-24283.2,-652.712,-29961.8
2.11703e+07,116.836,1,2.5629,-18573.5,9844.02,-15655.9
2.14338e+07,30.0442,2,2.75464,3976.57,-292.494,-24009.3
2.14392e+07,29.1367,1,3.0031,749.284,2624.74,-23329
2.14639e+07,129.447,0,2.73805,9854.84,-8937.76,-10790.4
2.15208e+07,99.4006,0,2.92027,13019,11061.5,-16702.5
2.15426e+07,178.021,0,2.71698,16841.1,-1531.41,3107.55
2.16154e+07,5.971,1,2.50655,-197.635,1205.24,-28459.5
2.16617e+07,44.0282,1,2.70962,4187.58,-6546.95,-23839.9
2.17469e+07,85.0271,2,2.38742,-16494.6,-6670.11,-25901.8
2.17773e+07,6.90597,1,2.88162,122.692,1296.2,-29767.9
2.18377e+07,41.2323,2,2.88714,-4914.1,4963.56,-23677.6
2.18403e+07,10.6421,2,2.58204,1216.83,-357.741,-26954
2.19281e+07,31.1184,2,2.79193,-2941.84,-4694.8,-25204.5
2.19484e+07,107.094,2,2.83408,8130.77,7512.55,-9314.12
2.19862e+07,27.2897,2,2.42094,-1665.28,-5639.16,-28434.5
2.23159e+07,24.2449,0,2.71378,-2383.64,4237.91,-27336.7
2.23555e+07,188.748,2,2.52862,-12495.5,-9059.88,7974.87
2.24852e+07,66.3487,0,2.81952,6447.61,-4015.38,-17073.6
2.26401e+07,39.5927,2,2.77746,-6599.17,4107.92,-25729.9
2.26514e+07,144.472,0,2.65593,25860.7,10813.7,-16626.9
2.27416e+07,46.8615,1,2.85351,-3222.76,-5350.04,-21236.6
2.28271e+07,145.953,1,2.46878,23863.9,-2060.74,-9524.02
2.28799e+07,155.742,1,2.91613,22595.9,-9438.85,-7251.75
2.31153e+07,38.2963,1,2.3708,5415.19,4952.48,-25332
2.31218e+07,59.8395,1,2.88501,8655.25,-4149.15,-24169.8
2.31617e+07,55.7133,1,2.39441,-8562.7,2932.9,-21375
2.32334e+07,3.22346,2,2.46731,-636.329,-303.411,-28530.1
2.33056e+07,40.9053,0,2.67393,4163.17,1278.77,-21389.1
2.33089e+07,75.0621,1,2.80494,-8830.84,13200.6,-28257.2
2.33385e+07,77.15,1,2.6955,3548.72,9442.35,-16189.9
2.33682e+07,198.345,2,2.88187,-16343.3,-28469,-3059.96
2.33867e+07,40.9717,2,2.66483,7774.89,-3776.73,-28314.9
2.34058e+07,4.38016,0,2.95538,498.423,92.1346,-27998.4
2.34376e+07,36.0976,0,2.83227,3745.91,4037.11,-23455.5
2.34652e+07,295.051,0,2.61409,26954.9,9990.24,13464.3
2.35029e+07,98.8915,1,2.73457,14182.8,-9828.86,-17243.5
2.35862e+07,8.24545,0,2.537,630.082,-266.873,-27277.4
2.37354e+07,10.5321,0,2.52127,1570.44,-418.871,-27138.5
2.40109e+07,57.4446,1,2.84865,-8725.66,-4011.46,-26616.3
2.42078e+07,38.6094,1,2.36947,-6999.15,-3314.69,-26482.3
2.42339e+07,23.1306,0,2.75502,2356.05,-3797.87,-27343.8
2.43837e+07,64.4332,2,2.37355,4790.98,12346,-26811.4
2.44403e+07,86.4265,0,2.92322,5536.43,13385.8,-22724
2.44615e+07,63.2729,0,2.47978,-635.504,11386.3,-21941.5
2.44707e+07,60.3131,0,2.71763,9975.13,1172.62,-21001.1
2.45301e+07,9.8432,0,2.84452,-159.796,1855.7,-27749.6
0,9.7932,0,2.99974,0,0,0
2.45475e+07,118.399,1,2.96115,-13642.2,18606,-19447.8
2.45896e+07,139.557,1,2.60485,-11755.8,27083,-28413.5
2.46195e+07,122.698,1,2.6219,-5154.25,-18985.2,-12105.5
2.46316e+07,69.1852,0,2.84076,10336.8,-2797.57,-18952.9
2.47716e+07,75.6195,2,2.38514,-9205.28,-9361.88,-19541.4
2.49578e+07,19.4774,0,2.68537,-2015.76,929.538,-25482.2
2.49869e+07,78.6355,0,2.7344,12807.3,7141.02,-20947
2.50834e+07,70.7291,2,2.99741,-6379.71,-5291.52,-16405.2
2.50964e+07,44.4851,1,2.56569,-2801.31,8852.61,-28569.5
0,44.486,1,2.56569,0,0,0
2.52061e+07,3.41043,0,3.02329,531.565,-530.848,-29071.6
2.52693e+07,43.717,2,2.96931,-1107.11,-8143.34,-24579.8
2.52754e+07,108.52,2,2.99826,7238.94,-6585.1,-8285.95
2.52806e+07,11.8844,0,2.49781,-444.602,-2421.2,-29202.4
2.53296e+07,207.776,2,2.38646,10820.8,2967.14,-26193.4
2.56443e+07,78.3134,1,2.51306,-6695.17,-5799.99,-14865.1
2.58515e+07,79.7352,1,2.43823,-6465.77,13519.8,-20887.4
2.59132e+07,128.722,0,2.46694,-21013.7,16667.6,-24628.7
2.59716e+07,1.56161,0,2.86881,339.465,-107.587,-28545.8
2.61031e+07,66.4043,0,2.55923,13418.7,-13.6368,-24735.6
2.62738e+07,96.9623,2,2.69743,8050.01,3026.65,-25809
2.63118e+07,87.252,2,2.95102,-11817.7,2168.69,-15532.7
2.6339e+07,17.2003,0,2.42469,1497.17,1239.15,-25692.2
2.63859e+07,7.9689,1,3.00566,-1678.07,507.822,-28828.2
2.64136e+07,24.6656,2,2.43136,-1402.67,-4449.74,-26311.5
2.65278e+07,181.498,0,2.86293,22565.8,13764.3,-1262.73
2.66453e+07,19.7576,0,2.74477,-2938.57,-1835.42,-26822
2.68104e+07,6.68936,0,2.47361,-371.499,1048.38,-27900
2.68541e+07,17.0508,0,2.67933,3670.69,-109.133,-28422.4
2.68836e+07,93.6723,0,2.45965,7091.98,-1665.58,-10502.3
2.68845e+07,14.3509,2,2.59748,2547.63,-249.422,-27262.2
2.68927e+07,29.8111,1,2.63703,3026.44,4050.82,-24970.5
2.69659e+07,28.6191,0,2.61581,-233.925,3555.33,-24441.4
2.70236e+07,92.7153,0,3.01434,-8832.21,-6439.89,-12896.9
2.71118e+07,42.5252,2,2.59394,4429.32,-3890.59,-22013.1
2.73317e+07,48.7402,2,2.91648,-8048.52,4919.13,-24675.9
2.74297e+07,59.0133,0,2.65354,-6615.4,-7264.8,-21087.5
2.75155e+07,44.4171,0,2.74369,8145.63,-2099.18,-24644.7
2.76321e+07,49.8703,0,2.36287,-6622.89,-7175.59,-24985.7
2.77985e+07,281.427,1,2.75253,-18140.2,11975.4,26300.9
2.78432e+07,45.3554,2,2.38406,-3055.12,-7267.54,-23206
2.7865e+07,21.1354,1,2.59899,-3569.19,2561.79,-28006.2
2.79972e+07,174.065,0,2.70283,2390.45,25867,-2855.06
2.8255e+07,32.5892,1,3.00491,-4483.77,313.382,-23641.1
2.82972e+07,21.4948,0,2.95114,1297.74,4008.06,-27159.9
2.83412e+07,39.1588,0,2.41311,3318.08,498.055,-21170.9
2.84481e+07,22.36,2,2.54542,4497.14,-1059.33,-28981.4
2.84982e+07,1.81592,1,2.3991,17.6857,224.892,-28527
2.85112e+07,99.499,2,2.98615,11611.1,-11589.9,-15772.7
2.85535e+07,6.34154,1,2.48879,701.39,-211.727,-27754.8
2.87137e+07,39.5925,2,2.82908,-1703.27,-7877.01,-27521.2
2.87334e+07,47.788,2,2.86649,-7832.5,6161.9,-29913.7
2.87464e+07,27.2204,2,2.61473,-1455.64,-5554.81,-28007.4
2.87774e+07,128.629,1,2.8883,-824.878,21984,-13265.9
2.88053e+07,11.99,1,2.40396,-2205.43,-1322.26,-28608.2
2.8829e+07,13.3345,1,2.60055,-2440.22,699.401,-27668.9
2.88675e+07,141.803,2,2.83545,10166.4,-12850.9,-3892.16
2.88698e+07,115.495,0,2.57882,10043.3,-7672.1,-8029.51
2.88815e+07,59.4755,2,3.03199,6652.61,-8945.45,-23153.8
2.89533e+07,16.6689,2,2.74792,1999.54,2126.04,-26998.4
2.89796e+07,7.721,1,3.01127,-854.982,-1245.54,-28112.2
2.90713e+07,111.196,0,2.54903,-7851.1,15544.4,-12921.3
2.90986e+07,3.89827,0,2.73344,129.715,806.921,-28551.4
0,3.86885,0,2.89191,0,0,0
2.92226e+07,17.601,1,2.5399,-1832.49,3231.12,-29753
2.92989e+07,196.654,1,2.89337,-11020.6,26510.4,1030.43
2.93604e+07,10.2019,2,3.0262,-1882.95,-442.78,-27740.1
0,10.3271,2,2.82638,0,0,0
2.9508e+07,71.7718,2,2.63033,-13842.1,-6106.23,-27500.5
2.95169e+07,175.943,0,2.36999,10388.2,-4765.42,-9248.43
2.96452e+07,0.908963,0,2.5619,107.464,152.537,-28660.7
0,0.892372,0,2.4507,0,0,0
0,0.919245,0,2.62843,0,0,0
0,0.989968,0,2.99175,0,0,0
0,0.934477,0,2.76646,0,0,0
2.96722e+07,162.924,0,2.36539,19317.9,-21762.6,-10242.9
2.99191e+07,203.589,1,2.58146,21444.9,19160,3150.49
