#class tools::wcsv::ntuple
#title time
#separator 44
#vector_separator 59
#column double eventID
#column double t(ns)
#column double copynumber
#column double energy(eV)
#column double x(mm)
#column double y(mm)
#column double z(mm)
551037,40.9274,2,3.04599,-6120.49,-3373.02,-23729.4
836784,37.9534,0,2.42672,7726.28,-2417.22,-27934.8
1.13772e+06,36.4979,0,2.50532,45.9414,7757.11,-28689.6
1.38016e+06,85.4924,1,2.49352,15181.1,8197.26,-23367.3
1.59007e+06,74.9909,0,2.55368,13711.4,408.651,-20733.8
1.72752e+06,1.74288,2,2.69112,-373.628,-154.091,-28631.1
0,1.73153,2,2.47163,0,0,0
0,1.72801,2,2.44548,0,0,0
1.76732e+06,42.8903,0,2.58651,-6921.49,-4826.78,-25671.8
2.07262e+06,90.1706,0,3.05184,-9007.62,-5195.79,-13121.6
2.14403e+06,89.3517,2,2.98743,8545.21,4374.36,-12765.2
2.38045e+06,13.9506,2,2.69761,-2376.49,-1613.02,-27822.2
2.53535e+06,73.2038,2,2.86972,-2883.73,-11923.8,-19462
2.58726e+06,14.9604,0,3.00601,2436.08,466.095,-26787.9
3.06588e+06,19.8552,0,2.48771,4223.39,-885.314,-28881.7
3.11904e+06,115.614,0,2.49395,24457.7,1622.49,-29434.2
3.72376e+06,108.592,2,2.71394,-22731.3,-2907.69,-27552.6
4.02275e+06,26.8249,1,2.76208,4651.67,2215.51,-26491.4
4.36106e+06,23.5276,0,3.02985,3426.24,-3146.15,-27036.5
4.42227e+06,40.5832,1,2.99059,-7555.36,599.563,-24832.6
4.58518e+06,3.80323,2,2.74989,-88.6111,-641.043,-28292.5
4.65232e+06,42.4007,2,2.41017,-1973.35,6935.11,-23519.2
4.6925e+06,143.838,0,2.5733,-4513.06,-28732.4,-20053.2
5.2029e+06,90.3456,2,2.97721,-9291.46,-4961.45,-13023.8
5.63157e+06,52.7558,1,2.86409,8720.74,1870.58,-22275
5.73601e+06,90.6117,1,2.97354,-5899.25,-5723.47,-11699.9
5.95223e+06,4.08062,1,2.92034,-668.851,718.766,-28866.2
6.2166e+06,28.4218,1,2.97906,-873.072,4547.72,-24951.7
0,28.3024,1,2.78425,0,0,0
6.33062e+06,26.948,1,2.69418,-5425.79,-1530.49,-27990.4
6.75656e+06,9.15236,0,2.70941,1861.22,406.182,-28164.7
7.03286e+06,86.4125,1,2.48987,18083.3,4.25058,-26379.8
7.30992e+06,161.894,0,2.80104,-2637.14,10702.3,-9122.87
8.0761e+06,172.666,1,2.67416,-18518.8,-10429.8,740.077
8.86032e+06,20.8065,0,2.49863,1928.66,-1473.52,-25104.1
8.92515e+06,8.67652,2,3.0327,830.631,535.691,-27321.3
9.4314e+06,176.132,1,2.58455,-20398.4,-24058.1,-9111.82
1.01609e+07,6.66915,1,2.71743,-794.105,1135.41,-29445.5
1.02359e+07,43.2761,1,2.38744,4078.83,-1441.41,-20787.1
1.04126e+07,37.4242,1,2.42065,4639.3,6298.08,-27328.4
1.06039e+07,57.914,1,2.86364,7765.38,9390.4,-28300.1
1.07364e+07,108.644,2,2.92783,5282.96,12734.4,-10735.8
1.08359e+07,115.395,2,2.5401,-2218.8,-5807.6,-12349.9
1.08421e+07,147.333,2,3.02596,8876.72,3617,-19797.5
1.12223e+07,10.2696,0,2.64731,-193.472,-1603.41,-27410.4
1.1247e+07,22.4744,2,2.68485,-3508.04,-3027.74,-27412.4
0,22.4513,2,2.57173,0,0,0
1.14143e+07,41.4209,2,2.47347,3589.55,-4414.75,-22145
0,41.6306,2,2.93876,0,0,0
1.16778e+07,67.6789,2,2.93575,1569.69,3555.39,-22105.9
1.16861e+07,28.4461,1,2.82191,4260.23,4154.77,-27773.1
1.16972e+07,124.876,0,2.5321,12866.2,21023.9,-19208.4
1.17492e+07,8.89077,1,2.62894,377.483,-935.442,-27299.7
1.18707e+07,16.5354,0,2.4357,1012.9,-3074.24,-27465.3
1.23202e+07,30.6724,2,2.80124,1387.91,-3482.74,-23515.5
1.23756e+07,6.30505,2,2.60029,-794.663,619.869,-27972.4
1.2588e+07,23.5049,1,2.85842,-2688.94,3972.26,-27305.2
1.26785e+07,140.663,2,3.00964,22398.2,15814.1,-18151.1
1.28295e+07,22.1278,1,2.61829,886.772,2240.51,-24799.4
1.29684e+07,55.7315,1,3.06061,-9984.5,-5909.86,-27384
1.31274e+07,13.4853,0,2.57144,1658.95,-279.654,-26447.5
1.31527e+07,186.698,2,2.49848,-17177.3,-26550.2,-5097.26
1.324e+07,114.982,2,2.61245,-10441.5,-5641.01,-7602.26
1.33242e+07,5.02472,2,2.75539,495.068,-938.824,-28572.1
0,4.8726,2,2.97565,0,0,0
0,4.87259,2,2.95001,0,0,0
1.33908e+07,39.0238,1,2.71622,-7580.69,2594.63,-26698.4
1.34281e+07,70.8735,0,2.91082,5269.5,-11565.2,-21041.3
1.34433e+07,11.5899,2,2.93203,448.842,-2455.48,-28464.2
1.3505e+07,166.837,0,2.57843,19451.1,9143.23,-838.374
1.37134e+07,21.0346,1,2.79472,1376.47,2711.01,-25541.2
1.40128e+07,14.6168,1,2.49329,1504.89,-851.67,-26282.9
1.42363e+07,143.317,1,2.98825,-16464.5,-1909.87,-3775.18
1.47305e+07,66.8571,2,2.42198,-2403.54,-9493.37,-18526.7
1.48456e+07,69.2798,1,2.51796,-13020.1,-6221.88,-26081
1.52298e+07,24.5528,0,2.7266,3108.76,-1466.05,-24893.5
1.52993e+07,42.0721,1,2.73252,-3755.46,-3961.22,-21872.6
1.5316e+07,195.722,1,2.44457,27361.2,8113.65,1161.8
1.59475e+07,97.55,1,2.54277,7825.63,18781.7,-25080.8
1.61764e+07,26.3828,1,2.60435,-3554.38,-2137.05,-25075.2
1.61831e+07,42.6976,0,2.57683,4596.24,-1790.56,-21212.4
1.62709e+07,66.7031,0,2.40205,9827.53,6588.93,-20993.5
1.66247e+07,105.327,0,2.39818,11075.5,19205.4,-26094.8
1.67236e+07,141.908,2,2.71269,24849.6,-10975.5,-16313.3
1.71377e+07,58.4679,0,2.92195,-10044,-196.893,-21875.9
1.71705e+07,81.6842,1,2.80356,-1175.94,14861.1,-21775.7
1.71875e+07,10.5815,1,2.82926,-1556.5,58.2756,-27177.9
1.72272e+07,179.387,0,2.62945,13791.1,4066.25,6213.81
1.74007e+07,30.6103,0,2.85776,-4076.01,3536.55,-25372.8
1.78309e+07,49.1792,0,2.91215,3717.04,7425.74,-22660.4
1.80125e+07,17.1975,0,2.59802,3250.08,446.002,-27081.9
1.8436e+07,211.969,0,2.7503,-19687,-5728.36,10771.3
1.85358e+07,90.7471,1,2.78092,7484.72,-3832.21,-11701
1.85883e+07,25.791,2,2.49525,-2339.25,1661.2,-24170.7
1.87574e+07,36.5579,0,2.61685,2588.97,-5776.64,-24359.2
1.88001e+07,36.6164,0,2.59028,7352,2280.06,-27417.7
1.8873e+07,15.7794,1,2.67997,-3363.03,-448.998,-28827.8
1.89871e+07,113.709,0,3.00828,11312.5,-20424.1,-23719.9
1.94804e+07,46.8358,2,2.9335,1666.58,-9783.89,-28872.5
1.97089e+07,78.4527,1,2.54302,-4566.1,7631.65,-14770.3
1.98468e+07,25.263,1,2.37504,-1456.95,2840.62,-24472.5
1.9925e+07,30.1655,2,2.37213,-5961.85,1355.07,-26882
1.99849e+07,65.2,2,2.94474,9422.75,9548.41,-26464.2
2.0206e+07,22.0941,0,3.03816,806.391,4542.38,-28079
2.0242e+07,242.289,0,2.83724,25417.5,-28999.5,4161.1
2.02777e+07,229.04,0,2.40666,-7178.34,19576.1,-12638
2.02861e+07,39.3359,1,3.05703,-4400.17,3022.87,-22482.7
2.03269e+07,45.7454,0,2.36642,-4742.86,-7901.45,-25932.5
2.04123e+07,89.6999,2,2.8758,-6672.66,-3175.06,-11461.8
2.05162e+07,73.9388,2,2.87665,12780.6,2877.01,-20527.9
2.05263e+07,107.831,1,2.75235,-19093.6,1176.39,-16522.6
2.05572e+07,135.886,1,2.98291,-1158.59,17388.2,-6223.37
2.06691e+07,57.5398,2,2.96016,10017.1,-1722.89,-22340
2.0703e+07,109.092,1,2.57318,11675.1,12944.1,-13706.9
2.0704e+07,31.3742,0,2.43822,4443.19,725.165,-23854.1
0,31.5611,0,2.66084,0,0,0
2.0742e+07,115.581,0,2.53343,19354.9,-13619.3,-22518.3
2.0761e+07,69.1259,0,2.88577,11256.9,-5698.41,-21484.6
2.07658e+07,14.508,2,2.51198,-1701.16,-258.48,-26286.3
2.0878e+07,12.9638,2,2.47888,-1756.02,1292.66,-27131.3
2.08876e+07,200.76,2,2.79819,8946.92,-7398.56,-293.188
2.14635e+07,83.5284,1,2.95799,-15924.8,4842.78,-23136.4
2.17205e+07,156.587,2,2.79618,-22738.8,-4941.72,-27499.6
2.17271e+07,5.8371,2,2.81409,-137.695,-255.528,-28975.3
2.18283e+07,3.03838,0,2.69247,263.479,-232.026,-28251.8
2.19203e+07,229.336,0,2.75301,-2057.12,-20187.3,2178.26
2.21025e+07,48.822,0,2.38637,-5643.71,4857.31,-21708.9
2.21179e+07,119.156,0,2.62986,3130.98,12676.1,-11862.4
2.23456e+07,19.3733,1,2.61387,-1448.54,2994.07,-26311.6
2.2358e+07,102.682,2,2.65878,-7693.08,-20305.7,-27570.5
2.2395e+07,73.273,1,2.72239,11054.9,-2716.17,-18428.5
2.26192e+07,20.7912,2,2.59601,-1994.26,-3687.09,-27198
2.26366e+07,69.7174,1,3.01886,11543.4,3579.95,-20655
2.35814e+07,30.4736,0,2.9599,2946.83,638.706,-23157.1
2.41266e+07,44.3937,2,2.42238,2733.07,8627.02,-26557.7
2.41352e+07,141.973,0,2.93879,-14226.1,25784.9,-24652.7
2.41614e+07,208.583,2,2.60901,14357.7,-27916.9,2104.71
2.4726e+07,238.027,0,2.95112,26912.4,-11744.7,11545.6
2.4756e+07,4.42324,1,2.95997,-677.938,-589.931,-28650.3
0,4.25986,1,2.62435,0,0,0
2.48522e+07,2.43988,2,2.82718,185.809,-291.843,-28410.2
0,2.82354,1,2.99855,0,0,0
2.48872e+07,144.093,0,2.48288,10439.4,-27070.4,-19404.2
2.50045e+07,7.93309,2,2.36458,115.346,-1726.49,-28614.6
2.50645e+07,119.406,2,2.56898,-5642.68,-22405.1,-18468
2.57594e+07,133.493,1,2.92121,-18755,-17607.7,-17711.4
2.57793e+07,275.622,1,3.03625,-13767.7,8138.5,-26109.6
2.58046e+07,47.5264,1,2.79381,984.31,7726.61,-22481
2.64991e+07,34.5269,0,2.98495,-1713.68,4012.27,-23047.5
2.65959e+07,11.8229,0,2.60266,413.135,-1649.95,-26974.7
2.65962e+07,78.0511,2,2.41752,-10163.6,5634.14,-17068.1
2.69306e+07,170.413,1,2.72681,-14950.7,25767.3,-9583.98
2.70094e+07,112.608,1,2.74925,3972.61,-18145.5,-14169.7
2.71287e+07,125.617,1,3.0609,-1234.45,21012.8,-12987
2.7315e+07,59.1356,1,2.87772,-5779.65,9048.3,-22423.3
2.73297e+07,255.633,1,2.66815,-23368,23711.6,13630.1
2.76171e+07,95.3341,0,2.85734,17657.6,-454.922,-19197.7
2.79279e+07,31.1693,1,2.37475,-4333.92,3900.34,-25556
2.82385e+07,60.8912,0,2.64413,3886.95,-3139.18,-16965.2
2.84357e+07,107.691,2,2.53805,5235.3,-17775.1,-15525.9
2.85789e+07,25.2906,1,2.46669,651.669,2915.47,-24337.1
2.86203e+07,84.019,2,2.88376,-5338.65,11318.6,-16419.4
2.86505e+07,6.76734,2,2.5867,-187.997,556.078,-27523.2
2.88137e+07,77.4034,0,2.86713,-12847.4,-9454.49,-25942.9
2.88561e+07,76.3288,1,2.39211,11784.4,1857.94,-17961.2
2.88836e+07,77.4781,1,2.37861,11895.5,10888.4,-25672.4
2.91094e+07,3.2462,0,2.89795,561.039,-385.064,-28482.6
0,3.57629,2,2.94315,0,0,0
2.91488e+07,120.552,2,2.44798,10980.9,-12206.1,-9297.07
2.9572e+07,109.365,0,2.59581,5359.97,10029.3,-8715.83
2.95743e+07,23.9857,0,2.55863,1468.43,-4687.7,-27440.1
2.99549e+07,39.4044,2,3.04701,7218.02,1730.02,-25322.1
2.99914e+07,152.794,0,2.78234,28322.5,9879.45,-16994.8
3.02893e+07,155.379,1,2.96851,-21897,2594.41,-4790.04
3.03171e+07,8.21914,1,2.49257,1237.81,-668.051,-27874.9
3.03624e+07,45.7117,2,3.01194,-3359.89,-1963.45,-20025.2
3.05507e+07,207.324,1,3.01119,17534.8,12555.1,8880.45
3.09815e+07,42.6287,2,2.79874,4499.76,3458.94,-21941
3.10728e+07,5.53688,0,2.83302,1076.6,99.4584,-29504.4
3.11776e+07,23.5773,1,2.90482,-3835.88,1421.94,-25919.8
3.1213e+07,64.4048,2,2.84767,12141.5,34.3056,-22883.7
3.13517e+07,135.957,0,2.67486,8510.97,-5297.12,-1949.36
3.13648e+07,73.8224,0,2.80244,9084.74,11724.2,-23980.7
3.17804e+07,14.8606,2,2.43042,-1259.11,-1477.86,-26274.4
3.18769e+07,33.7075,2,2.97922,4381.7,-5087.63,-26454.1
3.18832e+07,18.716,0,2.92581,2309.67,1156.87,-25798.5
3.20179e+07,7.05643,0,2.40878,967.628,855.384,-27940
3.27597e+07,107.696,0,2.7952,16989.1,-14712.1,-25478.5
3.3374e+07,66.6796,1,2.83874,290.43,10570,-19513.4
3.40571e+07,162.864,1,2.94834,-29518.9,17335.8,-28406.2
3.41198e+07,55.3587,0,2.92397,1818.69,3658.68,-27334.3
3.41647e+07,144.703,1,2.96805,-24325.1,8069.38,-12446.6
3.42299e+07,18.7074,0,2.7338,964.588,2134.86,-25614.3
0,18.7398,0,2.54686,0,0,0
0,18.6924,0,2.67196,0,0,0
3.43093e+07,130.024,0,3.04161,-6844.49,-26358.1,-28394.6
3.44812e+07,84.0931,0,2.4634,10590.2,-8094.11,-16989.9
3.45023e+07,39.508,2,2.54384,0.78726,-8280.36,-27186
3.47727e+07,44.1354,1,2.49339,3468.62,8215,-25820
3.5193e+07,10.3824,0,2.9551,-2009.44,-438.656,-28353.4
3.5294e+07,11.0338,0,3.00887,-99.7175,2139.58,-27927.7
3.54171e+07,161.833,1,3.04344,-9470.29,29240.2,-14334.4
3.56007e+07,61.9124,0,2.58487,5457.03,1554.69,-17010.4
3.56447e+07,30.5973,2,2.98538,-3687.64,-5390.27,-28964
3.585e+07,67.1849,0,2.87831,-5345.86,-3600.69,-16340.6
3.58815e+07,20.8196,2,2.5656,-2962.28,-2964.6,-27226.4
3.61609e+07,116.106,2,2.79121,20918.1,-212.478,-16275.5
3.63541e+07,47.9548,2,2.42714,-7551.67,-2169.55,-22324.7
3.65544e+07,70.5251,1,2.72863,-3667.19,5773.27,-28433.9
3.75493e+07,4.01571,1,2.77914,-887.461,47.8892,-28600.4
3.76229e+07,1.14766,2,2.88005,-245.835,-198.05,-28710.9
0,1.13395,2,2.57167,0,0,0
3.79058e+07,88.0855,2,2.61416,11330.9,-2707.48,-14343.1
3.79651e+07,69.0898,2,2.67483,-10446.5,-2059.22,-18823.5
3.85995e+07,65.6757,2,2.85745,1153.4,-36.1413,-29581.7
3.8975e+07,35.7548,0,2.84681,-6.81714,-6830.21,-25635.9
3.90027e+07,37.5296,0,2.99077,6933.1,-2455.97,-25872.7
3.90796e+07,8.83828,2,3.00858,750.58,-11.1635,-27158
3.90883e+07,29.1344,1,2.68778,-2241.51,1983.15,-23413.4
3.91204e+07,124.787,0,2.61238,7655.87,-4128.57,-12889.4
3.9145e+07,13.87,0,2.63584,1157.17,-2215.6,-27210.6
3.95613e+07,22.7286,0,3.02284,1860.1,-473.646,-24423.4
3.98922e+07,69.0761,1,2.54827,-1745.13,11152,-19451.9
4.00941e+07,125.045,0,2.68309,15161.7,3572.54,-25022.6
4.01824e+07,14.7247,0,2.65643,-1990.78,-2131.47,-27809.5
4.02199e+07,2.30941,2,2.48532,-543.845,-217.53,-28769.9
4.05767e+07,130.079,2,2.60511,27198.1,-3632.82,-29124
4.06604e+07,97.0272,0,2.66621,19244.4,-6090.14,-24864.3
4.07944e+07,6.98465,2,2.90126,596.085,-1159.46,-28018.6
4.08503e+07,87.0062,0,2.95713,18094.2,-2818.3,-27635.8
4.12248e+07,7.47438,0,2.74845,758.5,20.0213,-27394.8
4.12876e+07,150.504,1,2.47399,-27076.5,9713.34,-15035.9
4.13607e+07,30.2941,2,2.58952,618.025,-3814.06,-23660.6
4.14975e+07,33.3431,1,2.61343,-5795.53,1805.2,-25131.4
4.16869e+07,69.3013,2,2.68001,-7280.55,-4992.05,-17151.9
4.17075e+07,87.491,2,2.74346,14234.5,-3612.52,-17711.5
4.1806e+07,25.2384,0,2.41343,1740.67,-3043.97,-24771.5
4.19199e+07,29.129,2,2.49405,-939.175,3972.23,-24230.8
4.19745e+07,2.05086,2,2.93255,-339.638,-107.433,-28514.6
0,1.9554,2,2.88412,0,0,0
0,1.94482,2,2.39775,0,0,0
4.19877e+07,89.0207,2,2.64062,8894.33,4385.83,-12894.7
4.22404e+07,90.1286,2,2.88173,6908.45,-16924.7,-24508.5
4.23882e+07,185.953,1,2.58669,-2951.48,28729.1,-2114.29
4.25892e+07,9.14801,2,2.55809,641.793,-1812.89,-29448
4.27308e+07,88.6697,1,2.99538,-15572.2,1813.97,-18753.4
4.38282e+07,43.1052,2,2.40953,-3952.18,3038.93,-21190
4.39982e+07,9.70938,2,2.90277,-539.944,-1045.25,-27112.3
4.40471e+07,24.8349,2,2.61078,-2205.29,1699.16,-24377.4
4.4068e+07,85.1749,0,2.79913,-1065.02,-8846.03,-13287.6
4.42924e+07,110.107,0,2.62918,17168.7,-10040.1,-16654
4.46719e+07,19.1994,0,2.42278,-637.57,-3352.08,-26598
4.48303e+07,96.9772,0,2.48249,-6505.85,-19207.9,-25824.1
4.59955e+07,26.2024,1,2.66123,-3781.48,2157.51,-25320.2
4.64497e+07,224.389,0,2.69469,11970.2,15029.5,13689.9
4.65597e+07,163.819,1,2.83357,-1196.88,24581.2,-4811.77
4.68518e+07,163.716,1,2.70822,13929.5,10562.2,-4246.09
4.70016e+07,17.7261,1,2.74295,2631.91,2710.02,-28602.7
4.77816e+07,26.2739,2,3.00821,-281.681,4685.47,-26029.9
4.80144e+07,93.4306,0,2.82495,520.591,14078,-15122.2
4.8227e+07,48.0142,2,2.50207,-1608.12,-6553.09,-21166.7
4.83454e+07,27.1277,2,2.91945,-5600.2,-962.838,-27881.6
4.87508e+07,114.275,2,2.9104,-11446.1,4386.44,-8198.86
4.8999e+07,37.3223,2,2.87378,4086.61,-6193.94,-26120.1
4.90451e+07,189.926,0,2.88021,-27761,9059.17,-1737.09
4.92191e+07,108.516,1,2.43211,-8889.65,-17844.1,-17485.2
4.92541e+07,41.3109,1,2.51884,3965.71,7843.09,-28117.9
4.93514e+07,95.6066,1,2.52079,-16992.1,-6596.74,-20027.4
4.94727e+07,109.984,2,3.05911,8602.41,6521.62,-8514.27
4.97599e+07,146.988,1,2.50687,14683.6,27315.2,-25984.7
5.00893e+07,15.8765,0,2.59629,-2580.6,-1018.24,-27018.8
5.07264e+07,111.185,0,2.82375,10490.4,15495,-14721.6
5.07586e+07,69.9962,0,3.05058,11275.3,5171.92,-20866.8
5.07849e+07,2.30256,0,2.92977,97.7399,303.858,-28423.5
5.10283e+07,136.746,1,3.01038,-12249.2,21335,-13989.5
5.11041e+07,28.517,2,2.42636,-656.973,4548.19,-24951.8
5.11319e+07,73.7581,2,2.83482,8694.25,-6585.11,-17782.5
5.13718e+07,185.695,0,2.75063,16487.1,3873.21,6439.56
5.16581e+07,78.4569,0,2.91559,10340.2,-12530.8,-25668.7
5.16583e+07,115.505,1,2.73542,19175.3,-5712.07,-15034.5
5.18376e+07,163.196,2,2.94537,-19394,-24717.7,-21890.6
5.18657e+07,6.52562,2,2.94524,-673.404,-748.504,-27801.1
5.21721e+07,0.665615,0,2.81397,187.598,107.307,-28754.2
5.21977e+07,24.6973,1,2.81528,-401.405,4880.05,-26818.8
5.22845e+07,51.6397,2,2.79459,-5170.3,-322.35,-19232.4
5.24554e+07,79.3373,0,2.99321,10253.3,-7041.96,-17699.5
5.25271e+07,35.791,1,2.91245,-3615.92,-1178.1,-22361
5.26217e+07,124.346,2,3.02026,-17132.5,-19166.7,-23988.2
5.29711e+07,60.879,2,2.86539,-273.338,-6722.63,-17920.3
5.33409e+07,31.2166,0,2.47427,1899.17,5179.26,-25137.1
5.36689e+07,5.2358,1,2.72067,1024.34,15.7653,-28452.7
5.37169e+07,71.1551,2,3.03765,13740.9,3261.55,-24136.2
5.37517e+07,29.5512,1,3.04448,-3139.91,476.832,-23509
5.4415e+07,57.8535,2,2.96646,-7021.33,-6329.12,-21119.7
5.4435e+07,49.6969,2,2.89572,-7178.06,-7694.6,-28101.2
5.44456e+07,1.41366,0,2.40667,241.772,79.9419,-28575.4
5.50317e+07,82.0063,1,2.96479,10391.1,2914.56,-15453.6
5.53424e+07,120.138,2,2.37638,13551.3,12453.3,-28648.4
5.53734e+07,24.1233,1,2.80354,-4847.36,-1251.74,-29836.9
5.5524e+07,83.7133,1,2.83415,-10653.5,13962.8,-26857.8
5.56118e+07,132.662,0,3.0183,27709.5,-2772.73,-27117.3
5.56167e+07,66.6124,1,2.76091,2843.23,8736.14,-18192.4
5.5856e+07,29.5723,1,3.02518,-163.776,3561.27,-23693
5.58993e+07,149.985,0,2.38553,20901.5,16696.9,-11637.2
5.60775e+07,5.41466,2,2.87133,-748.662,-126.664,-27913.4
5.61404e+07,9.93518,1,2.8314,-2018.52,538.292,-28230.6
5.644e+07,134.389,0,2.93443,-21343.5,-11631.5,-14667.1
5.66652e+07,171.077,1,2.56454,329.664,16416.4,3404.82
5.67802e+07,145.575,2,2.55007,5044.25,29161.7,-20715.8
5.70702e+07,298.316,0,2.43146,8845.93,-23437.9,20341
5.71755e+07,77.3837,0,2.97569,4565.53,-14949.9,-24407.7
5.7573e+07,123.529,2,2.54018,-19728.2,2842.36,-12645.2
5.80475e+07,105.006,0,2.76002,1416.76,-18146.4,-16952.6
5.83207e+07,88.7717,0,2.967,12173,-14032.6,-26745.2
5.83906e+07,69.0522,2,2.47726,-7282.26,-12587.7,-26884.5
5.84496e+07,41.8469,1,2.74694,-2013.19,7071.03,-23816.6
5.84599e+07,198.745,0,2.84812,23175.9,27664.8,-7685.55
5.85411e+07,112.077,0,2.71042,-9369.06,15752.6,-13959.9
5.85781e+07,46.371,0,2.63284,-7056.5,6605.25,-27486.5
5.86397e+07,2.85459,0,2.37184,68.2284,490.338,-28442.7
5.86831e+07,27.1939,0,2.78388,398.042,4506.31,-25296.7
5.88031e+07,2.61912,1,2.62166,42.0361,617.907,-28633.6
5.89126e+07,63.9369,0,2.64865,11316.3,7074.24,-26315.9
5.89541e+07,178.368,2,2.74976,27921.7,-8427.4,-5201.69
5.91759e+07,70.1707,0,2.6202,6061.44,11936.9,-22368.9
5.93212e+07,123.978,0,2.38495,20066.6,8129.74,-13882.6
5.93664e+07,94.0998,0,2.43484,13876.5,3441.14,-14906.6
5.93942e+07,110.462,2,2.3824,4914.48,22257,-23986.4
5.95278e+07,21.0118,1,2.90376,-90.6683,4329.11,-27686.1
5.95349e+07,69.4452,2,3.02319,-6928.19,1762.72,-16164.7
5.95563e+07,109.271,2,2.81541,16973.4,-7083.95,-15063.8
5.97068e+07,121.741,2,2.61769,-17805.1,-16691,-20502.9
5.9815e+07,92.8621,2,2.65318,-12499.7,-12716.3,-20490.8
5.99493e+07,20.3493,2,2.54902,1851.48,-2746.8,-26024.9
6.00478e+07,247.192,1,2.40034,2629.4,15464.2,20337.5
6.01562e+07,38.9013,1,2.40479,-4666.38,6866.15,-29482.7
6.05092e+07,23.4974,2,2.59155,49.3399,2995.08,-24908.4
6.09304e+07,11.3414,2,3.03176,-1950.85,-682.13,-27556.4
6.11902e+07,111.585,2,2.52722,5326.44,-10414.3,-8318.67
6.13933e+07,17.8252,0,2.8795,3478.72,931.419,-27476.1
6.15557e+07,227.588,1,2.9684,22612.8,-16753.5,9642.3
6.17209e+07,18.2289,2,2.71516,3607.64,-914.355,-29828.8
6.17724e+07,16.0117,2,2.85416,3245.19,-739.361,-28388.3
6.20176e+07,20.6642,0,2.59037,-1237.54,4072.7,-27844.6
6.22603e+07,17.6236,0,2.68086,3224.35,2040.93,-28991.9
6.31567e+07,67.7054,0,2.38341,-11907.3,-1491.07,-21114
6.35963e+07,184.771,2,2.96966,-15943.3,29556,-9599.11
6.39042e+07,114.251,1,2.90855,-18008.2,-742.917,-12930
6.4195e+07,62.1865,0,2.58031,12798,-1401.46,-25735.8
6.48544e+07,25.9267,1,2.59155,-4248.31,2233.92,-26057.8
6.48721e+07,23.0311,0,2.38983,4495.58,1636.78,-27454.6
6.49216e+07,30.2544,0,2.79141,310.962,4019.88,-23875.2
6.55071e+07,18.425,2,3.05739,1056.63,-3805.43,-29121.9
6.55116e+07,140.218,2,2.38127,-18855.8,5444.96,-6551.77
6.5848e+07,78.037,0,2.50675,604.111,16343.3,-26386.7
6.61056e+07,34.7678,0,2.73193,1406.84,-5165.94,-23777
6.6203e+07,28.172,1,2.59769,-3405.51,3500.44,-25278
6.62906e+07,39.2353,0,2.72532,-2974.22,6494.86,-24683.8
6.63392e+07,19.4332,2,2.49133,-2723.86,-1250.96,-25937.4
6.64825e+07,4.13848,2,2.71491,-313.693,-816.25,-28423.5
6.64948e+07,112.756,1,3.01612,12004.6,17308.8,-18043.5
6.6708e+07,61.9955,2,2.75738,-4138.88,7779.18,-19223.1
6.67856e+07,21.8089,1,2.60568,-4068.82,2263.9,-28094.3
6.68236e+07,93.595,0,2.61485,-3098.48,-10614,-25578.2
6.70684e+07,86.2467,0,2.92324,1408.86,-7310.59,-12329.1
6.71033e+07,27.725,0,2.67659,2585.68,-4329.66,-25755.4
6.7128e+07,89.4952,2,2.8406,-17181.6,-5374.03,-23135.6
6.72777e+07,13.5415,1,2.63648,-1488.48,-1465.75,-26862.6
6.73346e+07,18.8284,2,2.80192,-598.995,-3972.1,-28256
6.80418e+07,41.8754,1,2.84195,7380.23,4831.16,-28426.1
6.84341e+07,43.6425,0,2.78257,-212.638,-6291.38,-22141.2
6.87219e+07,22.3805,0,2.94894,2770.64,3205.12,-26677.1
6.90266e+07,8.01589,1,2.44703,-107.595,-1033.96,-27538.7
6.903e+07,26.7491,2,2.74026,2571.02,-4260.52,-26139.2
6.9382e+07,21.8108,0,2.91997,336.056,4134.44,-26837.5
6.94003e+07,135.386,2,2.74846,6117.22,-27582.5,-24621.4
6.95178e+07,63.7678,0,2.80396,-3265.89,-7255.87,-18028.1
6.96416e+07,59.534,2,2.56598,5740.35,-1907.94,-17787.6
6.97257e+07,137.577,1,2.99412,26291.4,11157.6,-24757.5
6.97325e+07,131.834,1,2.79458,472.973,27628.1,-25524.5
7.01835e+07,118.73,0,2.9051,3766.43,-6356.56,-22961.8
7.02946e+07,95.7953,0,2.66559,-6448.15,-19138.3,-29532.6
7.03356e+07,125.606,2,2.9897,19430.5,-2167.3,-11225
7.10399e+07,77.0411,2,2.39545,4496.91,-14280.8,-22223.2
7.15739e+07,62.6125,0,2.59241,2196.9,-13055.2,-28181
7.15998e+07,65.6099,1,2.98318,-6954.25,5607.32,-18321.1
7.16385e+07,83.8008,0,2.49194,10307.2,-6810.47,-16036.3
7.21199e+07,27.6928,0,2.78842,-40.5363,3441.73,-24152.3
7.21523e+07,59.6849,1,2.74127,-4372.74,11485.4,-25772.5
7.21976e+07,96.9498,0,2.77696,19922.7,-4651.94,-27710.5
7.23813e+07,152.568,0,2.91651,3090.27,28454.5,-14451.1
7.26396e+07,9.60426,0,2.382,257.421,2050.11,-29068.9
7.29191e+07,62.3192,2,2.94194,-9105.26,8804.54,-25582.2
7.30627e+07,115.161,0,2.65757,3479.18,19353.2,-14593.4
7.30692e+07,23.1199,2,2.77638,-3566.95,3327.24,-28924.8
7.31433e+07,31.1582,1,2.56215,-3625.61,2336.37,-23767
7.33049e+07,51.3243,2,2.84562,7455.47,6165.1,-24155.8
7.35217e+07,38.5762,1,2.41171,-2781.32,7758.52,-28098.8
7.44322e+07,5.98438,0,2.84176,641.808,-1162.98,-28843.5
7.4666e+07,102.284,0,2.97119,-1926.58,17466.7,-16499.2
7.48539e+07,1.94875,2,2.90381,-185.727,-434.014,-28633.7
7.48798e+07,245.25,1,2.61561,-29226,-1457.88,13913.1
7.52675e+07,16.8131,0,2.77158,1253.8,3199.56,-27754.6
7.52811e+07,58.2474,0,2.54213,8685.4,3425.68,-20689.6
7.59544e+07,267.233,1,2.5844,3132.48,26934.8,20629
7.61846e+07,105.419,0,2.83335,-2038.31,-4248.82,-25776.8
7.63327e+07,134.885,1,2.99949,-1254.36,-1670.34,-27549.3
7.63675e+07,164.201,2,2.60832,17408.2,-11528.6,-1143.37
7.67961e+07,61.2307,1,2.47553,2970.57,8232,-19250.4
7.69369e+07,91.0373,2,2.51352,-12567.1,-14596.3,-27276
7.69423e+07,12.2288,0,2.90384,956.31,-1741.86,-27113.2
7.69712e+07,14.6474,1,2.83815,1099.72,2564.04,-27376.9
7.72301e+07,217.663,1,2.70874,20186.3,2567.2,12275.1
7.72709e+07,14.7205,0,2.66449,-1322.3,578.958,-26108.4
7.80687e+07,7.03454,1,3.02994,56.0503,910.506,-27605.6
7.84897e+07,17.5129,1,3.01023,2708.27,254.699,-26391.3
7.86864e+07,98.7019,0,2.77444,16533.3,2757.94,-16441.4
7.88422e+07,52.9713,1,2.42647,-1258.32,3569.54,-23143.7
7.89935e+07,172.349,1,2.94388,12649.4,10868.8,3267.23
7.91858e+07,41.1033,1,3.03649,289.594,4227.79,-29779.7
7.93209e+07,138.502,2,2.662,-28496.7,5440.29,-25021
7.944e+07,16.7166,2,2.56965,-2352.67,2201.15,-27428.6
7.95432e+07,38.8786,1,2.51963,-2944.3,4769.8,-22738.3
7.96537e+07,98.0066,1,2.87817,14613.4,12136.5,-20850.1
7.9755e+07,57.7234,1,2.56401,4661.76,7714.05,-20545.5
8.01537e+07,4.99601,2,2.49807,-137.179,-1085.54,-29158.2
8.01868e+07,18.7082,1,2.64925,-3068.01,2583.17,-28194.2
8.04261e+07,110.998,1,2.65021,-2166.59,2662.35,-20364.2
8.05102e+07,96.8323,2,2.89308,-5731.09,-17177.9,-19409.6
8.0776e+07,214.158,2,2.78376,-22278,-25822.1,603.719
8.09161e+07,28.4687,1,2.77501,-1210.87,5906.84,-27903.8
8.10944e+07,57.6872,0,2.59293,-4384.39,-6947.16,-19835.6
8.15631e+07,10.672,2,2.83576,-1317.19,112.487,-26972.4
8.19907e+07,137.082,0,2.7211,20983.4,8790.57,-10963.2
8.20525e+07,102.869,1,2.63974,137.85,8418.68,-8815
8.23482e+07,109.285,2,2.81818,-10925.1,-6570.09,-9654.12
8.25235e+07,2.753,1,2.69654,-639.193,82.8391,-28866.4
8.25855e+07,4.41362,0,2.40833,795.149,99.2685,-28199.3
8.26766e+07,151.361,1,2.80578,-29262.9,6783.74,-18132.4
8.28659e+07,39.5286,2,3.04252,-134.111,-387.91,-28751.7
8.31211e+07,43.9522,1,2.63075,-6540.03,-6461.55,-27634.1
8.34278e+07,43.1947,1,2.69468,-4800.65,3481.68,-21844.2
8.34924e+07,141.929,2,2.6066,23572.4,-18526.4,-27525.9
8.42244e+07,84.0877,0,2.60177,-12886.7,-4143.64,-17428.6
8.42474e+07,128.893,2,3.01831,-7954.76,-18536.6,-10802.1
8.43658e+07,11.0567,2,2.41035,-1847.71,-1598.29,-29140.7
8.45941e+07,130.873,2,2.81209,-24450.2,7750.35,-18881.7
8.46726e+07,66.1508,2,2.51234,-2213.98,-13884.1,-29610.8
8.51129e+07,99.9646,0,2.45717,19661,-8016.55,-29152.5
8.51832e+07,15.248,2,2.9021,597.391,-2648.87,-26998.7
8.51899e+07,20.0563,1,2.94068,-2386.24,-2733.83,-26727.4
8.52125e+07,16.3747,0,3.03573,1495.44,2183.59,-26558
8.5231e+07,134.318,1,2.956,-20349.9,3988.42,-9688.7
8.52532e+07,40.1825,1,2.5298,-7790.94,-3461,-28731.9
8.55828e+07,67.9516,0,3.01684,-13256,4530.4,-26558.3
8.56971e+07,27.0136,1,3.00063,-1590.93,3700.42,-24764.4
8.59807e+07,5.85372,1,2.50869,-547.356,1024.57,-28176
8.61742e+07,37.7122,2,2.51076,-4889.37,3222.28,-23383.8
8.61926e+07,153.434,2,2.68147,-6632.28,22224.1,-6368.81
8.6305e+07,30.943,0,2.66009,2143.27,-5844.79,-26756
0,30.832,2,2.81856,0,0,0
8.6683e+07,39.4386,2,2.72076,3058.25,-6533.63,-24618.3
8.70127e+07,89.9835,1,2.91755,-10889.9,13988.4,-22109
8.72382e+07,147.133,0,2.57079,24065.7,-8951.67,-25734.8
8.74005e+07,21.4678,0,3.02717,3095.98,2648.7,-26737.9
8.74122e+07,174.298,2,2.4165,-15154.8,-28489.5,-10847.1
8.74988e+07,58.4022,2,2.71921,-2011.98,-9599.88,-21264.6
8.76291e+07,49.7555,0,2.67098,-6158.27,-8337.96,-27358.7
8.86288e+07,94.264,0,2.59981,16686.5,-6789.78,-20169.9
8.86643e+07,46.3083,2,2.81936,1243.61,-9698.11,-29688.7
8.88923e+07,138.078,1,2.45348,-1792.11,20395.6,-8264.6
8.89123e+07,7.16851,2,2.83753,409.609,-1416.49,-28233.1
8.90168e+07,22.3121,1,2.85082,1948.78,366.877,-24569.3
8.93182e+07,89.034,0,2.52691,15046.6,1178.3,-17474.7
8.94797e+07,28.9655,2,2.94392,-757.315,2546.49,-23396.9
8.97831e+07,202.166,1,2.86445,-10458.5,-27746.6,1546.43
8.97928e+07,3.77804,2,2.61465,-12.2496,-843.115,-28566.1
0,3.69384,2,2.47467,0,0,0
9.0031e+07,132.01,1,2.86507,-1441.36,27782.2,-29848.5
9.07228e+07,86.8834,0,3.05639,13995.9,-10108.2,-22844.8
9.07526e+07,22.1673,1,2.7761,-839.367,2792.96,-25097.4
9.08138e+07,31.5661,0,2.59231,-4415.63,4446.79,-26625.9
9.11422e+07,75.3854,1,2.66035,1503.84,9346.51,-15985.6
9.11456e+07,19.7672,2,2.831,-1579.86,-1400.74,-28767.5
9.17645e+07,16.318,1,2.69574,-3362.13,-857.885,-28628.2
9.17836e+07,312.774,1,2.66211,-25818.3,-23743.7,26983.8
9.18215e+07,59.9713,0,2.75698,11940.3,4123.96,-27372.9
9.19734e+07,50.2608,1,2.69333,-5134.29,5276.42,-21111.7
9.24689e+07,59.4251,0,2.45358,2340.64,10631.9,-22464.1
9.28484e+07,31.2546,2,2.43426,-5858.31,884.176,-25786
9.29852e+07,177.055,2,2.95363,-29510.2,-3058.86,-6412.03
9.35584e+07,36.3923,2,2.97746,-2229.95,-7320.62,-27663.5
9.43606e+07,82.7594,0,2.74184,-8507.24,-6969.75,-15345
9.49626e+07,131.54,0,2.85081,3932.08,1202.93,-1921.89
9.51829e+07,30.763,1,2.39384,5191.15,-3764.5,-28096.7
9.51987e+07,4.59611,2,2.52039,-744.482,-174.03,-28127.4
9.55808e+07,24.3402,2,3.0151,1940.21,-3481.5,-25550.8
9.63015e+07,21.2218,2,2.73481,-1008.09,3300.46,-26032
9.6361e+07,45.9497,1,2.91701,-5337.79,7635.66,-25963.4
9.64898e+07,92.7028,1,2.93253,6539.97,12271.1,-15211.6
9.67937e+07,153.164,1,2.54453,-22406.6,-2936.91,-5622.46
9.69513e+07,270.703,2,2.76338,-3722.14,2877.46,-26928.5
9.70696e+07,68.0855,1,2.43018,7698.2,1039.97,-16745.7
9.73483e+07,112.961,1,2.88707,-2008.3,22167.3,-20429.8
9.74512e+07,47.0196,0,2.47379,-1604.63,-7195.89,-22134.6
9.74718e+07,17.6363,1,2.8177,2578.95,2224.91,-27279.1
9.74817e+07,71.6681,2,2.37834,-9601.86,-5199.84,-18236.3
9.74904e+07,20.2832,2,2.81083,-2875.62,-496.922,-25647.6
9.78156e+07,64.9817,1,2.94785,-13228.1,1816.41,-25770
9.79314e+07,11.1776,0,2.82379,1597.8,-951.952,-27306.8
9.8471e+07,21.7088,1,2.3799,-1986.92,196.527,-24662.7
9.89303e+07,113.912,1,2.75475,-3698.86,23795.1,-28463
9.89531e+07,176.296,2,2.59699,11268.9,-14991.8,3344.38
9.90136e+07,37.0204,1,2.40378,4166.69,147.904,-22191.4
9.90266e+07,184.594,2,2.98079,1769.3,17375.7,5681.52
9.9552e+07,48.365,1,2.49825,2386.81,3403.91,-19463
9.9708e+07,102.923,1,2.77351,902.218,19430.2,-19157.5
9.98941e+07,39.6391,0,2.6851,156.561,-2543.94,-24715.1
1.00195e+08,20.1761,2,2.43571,-3930.02,-389.672,-27065.5
1.00214e+08,107.608,2,2.59314,-10351.6,-6515.17,-9623.02
1.00734e+08,4.78771,2,2.83207,-1009.11,-352.158,-28563.3
1.00779e+08,195.654,2,2.83365,29723.4,2276.43,-562.963
1.00811e+08,2.13076,1,2.58092,-172.751,542.086,-28816.2
1.00886e+08,43.4587,0,2.3862,9117.59,809.451,-27160.5
1.01121e+08,93.605,2,2.97003,-3243.56,8457.77,-11419.2
1.01157e+08,74.1581,0,2.77646,4887.49,14054.9,-24022.2
1.01302e+08,166.529,2,2.37609,-9685.85,-13294.9,2387.14
1.01564e+08,7.58586,2,2.6352,-1487.47,-315.639,-29575.5
1.01566e+08,72.9684,1,2.42664,461.232,-8132.94,-15764.7
1.01636e+08,346.814,2,2.96119,-1487.77,-13937.8,-9253.79
1.01783e+08,167.842,0,2.7641,26829.7,2688.28,-5913.53
1.01958e+08,72.6841,0,2.95065,-11512.9,-4853.22,-20169.6
1.0218e+08,1.9601,0,2.80364,-15.9082,-147.277,-28453.8
1.02309e+08,69.868,0,2.8601,817.98,13401.1,-22800.4
1.02457e+08,69.6853,0,2.63033,345.859,-12722.1,-23972.6
1.02526e+08,17.9235,1,2.5582,3004.81,2145.33,-27875
1.02976e+08,127.226,2,2.76084,723.082,-24684.8,-24134
1.03007e+08,22.1157,2,3.01729,-2657.88,1317.13,-25230.2
1.03077e+08,33.5211,2,2.50248,-1686.45,4404.39,-23547.6
1.0321e+08,25.3054,2,2.58021,-2065.56,-3535.88,-25261.8
0,25.2994,2,2.48652,0,0,0
1.03409e+08,44.6666,1,2.70878,6194.57,5240.51,-23970.9
1.03845e+08,25.4741,1,2.6499,1830.6,-1964.92,-24227.7
1.04199e+08,109.359,0,2.58991,1314.88,-9882.01,-8019.11
1.04251e+08,96.3629,1,2.95352,-243.024,-9988.28,-11297.5
1.04312e+08,20.3541,0,2.80205,-129.444,4256.61,-28272.1
1.04363e+08,111.997,0,2.78547,6124.12,-11576,-9209.42
1.04426e+08,24.8378,2,2.78349,-766.759,-4921.93,-27043.5
0,25.1545,1,2.40295,0,0,0
1.04733e+08,19.0701,0,2.6311,-2101.98,-299.532,-25431.8
1.04757e+08,125.242,2,2.81566,-412.287,-17337.2,-20975.3
1.0489e+08,3.1741,1,2.76794,-735.571,14.6423,-28967.6
1.04998e+08,20.5183,0,2.93352,1890.61,-3907.12,-28445.1
1.05127e+08,16.664,0,3.05785,3224.79,1183.32,-29895.3
1.05331e+08,177.866,2,2.5329,-21957.5,-23325.1,-9007.61
1.05789e+08,203.857,1,2.75175,-6326.08,-25662.8,4962.77
1.05992e+08,48.3278,2,2.81199,4927.59,-7527.46,-23994.8
1.06155e+08,118.188,0,2.5639,11807,-18938,-17521.4
1.06516e+08,131.506,0,2.73942,-2449.09,-19119.7,-8920.66
1.07152e+08,38.7443,0,2.49153,1568.64,-8041.84,-29716.3
1.07805e+08,4.60955,2,2.72162,79.5878,373.468,-27961.8
1.08254e+08,9.15612,2,2.4568,-1333.16,493.522,-27483.2
1.08333e+08,86.9623,0,2.86413,13349.4,11195,-23059.6
1.08347e+08,191.608,1,2.8073,-383.405,10240.8,-18846.5
1.08496e+08,151.702,0,2.73633,15716.3,20780.8,-10264.9
1.08919e+08,66.1407,1,2.46166,5199.86,11670.6,-23013.1
1.08957e+08,75.3764,2,2.67573,-15737.4,-2587.93,-29848.2
1.09299e+08,34.9779,1,2.76278,2385.86,4047.4,-23139
1.09439e+08,191.529,0,2.57203,7911.16,-27221.3,-29654.3
1.09703e+08,136.699,0,3.0231,14825.5,-3261.78,-21729
1.09781e+08,23.8198,0,2.44039,-956.35,2783.7,-24778.4
1.09938e+08,39.81,0,2.85901,2039.67,-7778.09,-26381.4
1.10251e+08,25.1658,0,2.87895,2392.64,1502.96,-24309
1.10276e+08,52.9201,2,2.80663,-3684.14,-10584.4,-28055
1.10426e+08,3.07839,0,2.90223,100.692,-160.669,-28202.5
0,3.14037,0,2.88435,0,0,0
1.10674e+08,129.993,2,2.61824,18407.9,3295.44,-8783.13
1.112e+08,24.8051,0,3.04787,414.216,5134.45,-27898.8
1.11246e+08,4.32843,1,2.5259,263.566,722.876,-28252.5
1.11479e+08,160.817,2,2.61832,19561,-27323.6,-23607.3
1.12069e+08,118.933,0,2.73827,22048.1,-9128.63,-20910.1
1.12217e+08,33.4782,0,2.55897,6707.97,1118.17,-26517.7
1.12534e+08,17.3874,1,2.49062,2739.5,-1996.45,-27516.4
1.12613e+08,127.606,0,2.67073,15853.8,12059.1,-29024.9
1.12977e+08,3.9672,2,2.58957,553.775,-674.38,-28621.5
1.13002e+08,29.9757,1,2.47562,-878.733,6361.06,-28178.7
1.13184e+08,87.6614,1,2.57288,-3233.3,6216.35,-20632.1
1.13687e+08,11.3372,2,2.37283,1310.99,-505.266,-26897.1
1.13825e+08,175.228,0,2.66893,12088.1,21789.8,-1531.36
1.14814e+08,49.7466,2,2.82626,-5315.84,5715.08,-21856
1.15059e+08,60.9016,2,2.42198,10907.6,1960.41,-22335.7
1.15914e+08,211.155,0,2.90599,29628.1,-24754.4,-6960.25
1.1599e+08,111.17,0,2.72705,13396.5,-17994.1,-21894.5
1.16082e+08,173.946,1,2.57438,300.304,26149.9,-2925.51
1.16254e+08,133.619,1,2.54081,-17681,-7621,-8139
1.16769e+08,75.1474,0,2.72215,8338.16,13525.8,-29752
1.17193e+08,52.1664,0,2.97395,-7814.64,6817.31,-25434.5
1.1724e+08,46.992,0,2.9133,6012.3,927.88,-20980.9
1.17753e+08,103.687,1,2.74698,18847.2,8668.08,-21947.3
1.17887e+08,38.4766,0,2.61318,7194.28,3947.22,-28967.8
1.18161e+08,136.915,1,2.44562,-21453.9,-15059.5,-16520.7
1.1863e+08,184.066,1,2.93327,-27047.9,-13866.1,-5533.8
1.18642e+08,100.442,1,2.53345,16021.5,-10673.8,-20028.8
1.18656e+08,75.6157,1,2.84567,-13783.9,4461.08,-22143.1
1.1877e+08,13.3962,2,2.6622,-2783.46,-842.778,-28523.3
1.19915e+08,25.6606,0,2.64028,1401.36,5291.43,-29101.1
1.20015e+08,131.858,1,2.60432,-20629.9,-12335.7,-14729.5
1.2012e+08,82.1312,1,2.75628,-11400.8,10363.9,-20795.3
1.20229e+08,38.6954,1,2.46842,-2981.25,7523.96,-27113
1.20709e+08,100.296,0,2.55574,7577.64,5727.6,-9849.94
1.20981e+08,7.28196,2,2.52406,391.591,-853.264,-27550.7
1.21079e+08,35.6533,0,2.93857,6393.89,1192.67,-25000.6
1.21086e+08,37.1036,2,3.02728,-6550.06,4136.68,-27959.5
1.21307e+08,3.6662,0,2.82482,33.2998,705.705,-28480.2
1.21368e+08,19.492,1,2.8528,-27.486,2629.76,-25617.6
1.21741e+08,19.6571,0,2.88103,1891.39,-3683.55,-28129
1.21806e+08,36.9602,0,2.51613,1004.27,-6252.39,-24181.4
1.21832e+08,104.578,2,3.03094,-8408.84,-19574.3,-23395.9
1.2201e+08,61.6716,1,2.81639,705.685,-10849.7,-21826.8
1.22404e+08,36.6318,1,2.94732,3374.47,4855.44,-23890.8
1.22622e+08,149.198,1,2.93657,1030.6,20645.5,-5261.43
1.22685e+08,122.816,1,2.68427,-4416.68,25501.5,-26413.1
1.22837e+08,15.2818,1,2.95666,-2215.9,2443.31,-29263
1.23344e+08,29.6677,0,2.77053,6226.89,1221.47,-29051.8
1.23459e+08,40.1335,0,2.41277,-4635.61,-7010.59,-27703.4
1.23506e+08,30.4496,1,2.73113,2060.91,-5482.56,-26340
1.23521e+08,125.487,2,2.53116,2513.91,17410.4,-9016.73
1.23736e+08,133.447,0,2.54809,-11405.1,23191.9,-17585.7
1.23781e+08,210.657,0,2.71828,-22469.1,23722.6,1174.64
1.23822e+08,26.7529,1,2.81232,2120.94,-1395.49,-23842.3
1.24304e+08,33.4839,2,2.36369,-4428.77,5010.37,-26500.6
1.24599e+08,61.0719,0,2.69922,-6506.18,-1236.22,-19487.2
1.24788e+08,62.1061,0,2.77179,13031.2,-1335.86,-27657
1.2542e+08,90.8903,0,2.95269,16091.4,-2815.24,-19177.4
1.2567e+08,294.15,1,2.51447,-15389.1,-17557.5,5370.69
1.26436e+08,9.3673,1,2.68837,-841.701,-1434.69,-27836.8
1.26553e+08,120.965,1,2.6827,-9222.86,20649.5,-16858.1
1.27015e+08,83.7492,0,2.61337,-7053.17,2749.32,-22018.2
1.27103e+08,29.891,1,2.41729,-5433.67,-1850.54,-26110.4
1.2749e+08,27.6248,0,2.93533,4244.4,2781.87,-25859.4
1.27713e+08,59.1936,2,2.72509,-7408.32,-9323.95,-24812.8
1.27964e+08,114.77,2,2.80758,14145,2300.5,-9421.58
1.28017e+08,13.2196,0,2.72776,-1184.48,2436.04,-29426.1
1.28521e+08,17.1276,0,2.7248,2044.56,-327.42,-25800.3
1.28521e+08,14.8624,1,2.751,-526.555,3063.97,-29732
1.28549e+08,220.195,2,2.69149,83.5372,-266.864,-29774.9
1.29063e+08,218.366,1,3.03243,-29115.2,8713.96,3647.25
1.29175e+08,152.594,1,2.72864,-24404.5,-19438.6,-21075.4
1.29261e+08,3.20613,2,2.44432,82.4049,-227.994,-28160.2
1.29596e+08,141.461,0,2.91418,8525.48,6135.94,-18634.8
1.30454e+08,25.9929,0,2.52821,3908.78,3006.3,-26254.9
1.30536e+08,10.7704,2,2.58052,-475.005,1915.66,-27778.3
0,10.7203,2,2.87738,0,0,0
1.30656e+08,9.14922,2,2.47767,628.827,-1633,-27897.9
1.30802e+08,4.06293,0,2.70756,499.25,-348.115,-28151.1
1.3112e+08,56.0632,2,2.94943,-1205.01,-5778.07,-18611.3
1.31156e+08,17.089,1,2.72208,-3082.49,-1756.73,-28026.4
1.31275e+08,123.915,1,2.57138,14157.6,-8208.99,-8452.32
0,123.886,1,2.56531,0,0,0
1.31402e+08,83.7989,0,2.62222,-9304.48,5645.97,-14956.4
1.31497e+08,91.1383,1,2.4805,-12002.5,2964.47,-13985.9
1.31791e+08,86.3234,2,2.86138,-9782.39,629.768,-20317.3
1.31876e+08,71.7083,1,2.72047,6721.95,2423.28,-15512.9
1.32475e+08,118.991,1,2.37122,-24969.1,-1775.97,-25542.3
1.32497e+08,66.5244,2,2.7612,4764.95,-9605.57,-19750.8
1.32783e+08,89.2285,2,2.4102,-963.369,-13012.2,-15105.6
1.32834e+08,183.229,1,2.96819,-3093.71,-15693.5,6076.32
1.32969e+08,64.7189,2,2.47247,-7400.22,-1748.46,-17415.7
1.33425e+08,60.8772,0,2.51127,7754.66,4331.1,-19443
1.33655e+08,161.068,0,2.75246,-17745.8,-12508.3,-2811.1
1.33734e+08,86.8923,1,2.67208,16489.7,7575.16,-26291.8
1.34063e+08,26.387,1,3.03237,2559.91,4415.49,-26527.8
1.34258e+08,50.972,1,2.55605,-8844.88,470.478,-22607.7
1.346e+08,146.031,2,2.76921,-4067.51,29002.9,-19707.1
1.34685e+08,72.8276,2,2.7045,3511.76,-5687.56,-14980.2
1.34915e+08,61.6684,1,2.68693,-12977.4,1606.5,-28839.2
1.35023e+08,47.8894,1,2.75592,-2325.96,9507.37,-26051.9
1.35102e+08,60.597,1,2.88706,11572.5,4936.63,-26910.9
1.35288e+08,67.1338,2,2.6016,-13651.6,832.547,-24924.8
1.35448e+08,33.4737,2,2.64112,-6126.58,-3706.17,-28859.9
1.36151e+08,36.8581,0,2.54317,5225.64,-5856.79,-29102.8
1.36634e+08,3.79742,0,3.05096,-255.221,-757.686,-28770.7
1.36779e+08,75.2555,1,2.75407,-7444.01,13684.2,-25400.8
1.37188e+08,4.82563,0,2.40161,1008.9,-246.419,-28422.9
1.37224e+08,59.5282,2,2.5139,-7540.68,-10080.9,-27157.5
1.37343e+08,89.1101,2,2.85404,6558.33,-9450.92,-28012.8
1.37507e+08,108.977,1,3.02453,-9601.21,-3394,-8370.48
1.37709e+08,1.52755,1,2.49268,-182.152,116.73,-28535.2
0,1.45862,1,2.45566,0,0,0
0,1.46199,1,2.67456,0,0,0
1.37768e+08,99.086,2,2.99512,-1177.98,-8001.29,-9686.57
1.38068e+08,35.65,1,2.78049,1474.95,7443.5,-28751.1
1.38083e+08,8.82755,2,2.44926,-1023.72,-709.619,-27377.6
1.38701e+08,16.4324,1,2.7687,160.641,-2130.21,-26167.7
1.38982e+08,66.8162,1,3.04406,5617.57,6704.77,-18028.2
1.39278e+08,85.0005,2,2.43484,4348.87,-10505.2,-16512.6
1.39348e+08,168.376,2,2.63011,-12237.2,7926.42,-9855.77
1.39725e+08,47.5618,2,2.4612,-2405.23,-9816.42,-27691.9
1.39795e+08,15.7573,1,2.86407,-1961.43,-2195.8,-27312.5
1.39893e+08,114.023,2,2.64701,-9276.56,22101,-27234.7
1.39991e+08,84.8749,2,2.63187,-6809.74,-1965.45,-12336.7
1.40038e+08,2.304,1,2.68798,-105.348,437.061,-28481.8
1.40222e+08,16.4607,0,2.7797,-3086.82,-914.115,-27741.5
1.40496e+08,216.743,0,2.36878,18795.5,-5822.18,12641.9
1.40567e+08,18.1784,2,2.52234,962.838,2693.61,-26330.9
1.40581e+08,168.729,0,2.38244,20618,-15542,-17401.9
1.40766e+08,8.02758,0,2.94941,191.587,878.363,-27395.6
1.40836e+08,16.1632,1,2.81607,263.15,-2156.18,-26274.8
1.40889e+08,37.2459,0,2.46894,4026.68,6767.87,-27993.6
1.41035e+08,65.2416,1,2.81734,3580.76,1302.78,-21143.4
1.41067e+08,148.745,1,3.0197,6895.31,20952.7,-6740.79
1.41087e+08,2.12297,1,2.88334,-68.3168,447.801,-28600.7
0,2.12147,1,2.9356,0,0,0
0,2.49508,0,2.63993,0,0,0
1.4154e+08,54.7974,1,2.50095,5299.34,-2252.15,-18792.1
1.41574e+08,136.085,2,3.02111,-9062.48,-13972.4,-5645.04
1.41617e+08,150.837,2,2.96939,954.752,26408.9,-11527.8
1.41834e+08,36.6715,2,2.64335,1345.24,3934.33,-22344.1
1.41885e+08,2.96913,2,2.48182,-138.721,319.051,-28317.6
0,2.99617,0,2.73298,0,0,0
1.41986e+08,161.684,0,2.45272,11951.6,24065.1,-7606.44
1.42175e+08,200.906,1,2.38293,-20410.6,-9587.18,7198.27
1.42228e+08,17.794,2,2.90646,1509.34,-3478.88,-28465.8
1.42257e+08,13.5572,0,2.46027,2933.08,442.902,-28732.6
1.42271e+08,86.7006,2,2.79036,10145.8,-7830.14,-15815.4
1.42352e+08,209.574,2,2.53803,-9092.23,-12525.5,-6167.46
1.42649e+08,39.9297,0,3.03479,-2565.1,6239.51,-23873.2
1.43016e+08,10.9396,1,2.87277,844.073,-1881.95,-27985.2
1.43267e+08,48.3525,1,2.54284,-4353.77,-6293.01,-22100.3
1.43488e+08,128.257,0,2.92347,-3552.21,-15594.5,-7176.8
1.43693e+08,30.5583,0,2.71962,5315.64,-3420.4,-27165.6
1.44008e+08,19.4506,2,2.4197,-1887.53,-3708.61,-29424.7
1.44017e+08,43.6284,0,3.00112,3618.97,-5316.16,-22260.4
1.4435e+08,111.261,2,2.41655,-9607.82,-16823.3,-15316.5
1.44473e+08,23.7091,0,2.90002,-3498.25,3166.57,-27386.2
1.44518e+08,6.91301,0,2.41106,361.917,-801.894,-27615.8
1.44999e+08,176.649,2,2.77614,-14059.2,-22551.7,-2742.22
1.45172e+08,20.9239,1,2.74598,1043.57,-3464.18,-26371.1
1.45383e+08,31.5625,2,2.68666,780.341,-407.748,-28688.7
1.45872e+08,85.9414,0,2.80651,3674.67,-17069.2,-24086.4
1.45872e+08,89.6236,1,2.72732,-18872.5,-1141.87,-29767.7
1.46447e+08,1.24184,1,2.65182,-284.423,97.2251,-28667.7
0,1.41861,2,2.58778,0,0,0
1.46545e+08,24.5619,1,3.01099,2842.83,3532.49,-26367.8
1.47141e+08,128.39,1,2.88293,12488.4,21923.5,-19154.3
1.47203e+08,52.073,1,2.70593,6809.49,5213.98,-21930.8
1.47592e+08,72.1844,1,2.56374,9992.38,-7300.88,-26877
1.4777e+08,102.231,2,2.92276,9936.61,-17757.8,-21827.6
1.47775e+08,69.3421,2,2.76821,-5137.87,-11456.7,-21217.8
1.47806e+08,2.08244,2,3.00752,-294.795,-444.446,-28725.6
0,2.06358,2,2.64888,0,0,0
0,2.07783,2,2.4921,0,0,0
1.48027e+08,54.3871,1,2.56177,-1608.28,-7210.99,-20050.1
1.4805e+08,92.7142,0,2.89978,13242.5,5436.85,-15530.3
1.48422e+08,157.063,0,2.91753,12280.1,14852.5,-2034.59
1.48853e+08,125.507,0,2.3814,20339.5,8816.96,-14058.1
1.48867e+08,276.891,2,2.63735,11680.5,26564.7,21716.8
1.49307e+08,15.7668,2,2.9017,-2827.27,-1020.52,-27270.1
1.49851e+08,58.8451,0,2.57614,8963.8,-2933.86,-20613.3
1.49883e+08,35.521,2,2.71143,-290.471,-7505.98,-29746.2
1.49931e+08,42.0805,2,2.94877,-7036.86,-1921.23,-23729.6
1.50035e+08,30.6766,2,2.70694,-3290.6,-4405.43,-25252.6
1.50257e+08,133.377,1,2.74332,25870.9,10360,-25192.5
1.50527e+08,9.44348,1,2.46513,-753.511,1429.57,-27542.2
1.50598e+08,39.1783,2,2.87621,-893.578,-6772.83,-24096.3
1.50658e+08,126.865,0,2.86768,-17127.7,-4979.2,-13686
1.50794e+08,114.209,2,2.95753,-17833.7,-4183.95,-13367.1
1.51133e+08,15.0469,0,2.5776,1764.9,-191.695,-26120.9
1.51163e+08,7.15925,1,2.366,-1052.48,864.169,-27976.7
1.51274e+08,17.0572,1,2.52229,1288.89,3360.47,-29656.7
1.51561e+08,133.269,2,2.56221,-8984.41,-16772.5,-7990.08
1.5179e+08,17.2185,0,2.76918,3380.78,-1574.23,-28805.8
1.51962e+08,77.6668,2,2.67619,-8902.79,-13649.8,-26363.4
1.52036e+08,57.5894,0,2.48081,-10424.2,189.77,-22629.2
1.52172e+08,92.779,2,3.01591,-9381.96,4864.36,-12493.5
1.52241e+08,10.5068,2,2.76692,-2144.31,-723.009,-28391.1
1.52252e+08,2.64319,2,2.59204,-458.484,86.1385,-28482.3
1.52391e+08,16.2566,2,2.93836,730.395,-3164.18,-27563.4
1.52739e+08,28.6248,2,2.8363,-47.6268,-6073.57,-29664.2
1.52776e+08,41.9474,1,2.57386,-5874.48,2453.05,-22596
1.52986e+08,66.3638,0,2.51516,12873.2,-5802.62,-28954
1.53032e+08,144.063,1,2.47041,5438.59,18138.2,-27745
1.53288e+08,279.849,2,2.88963,-1829.7,26263.5,23662.4
1.53584e+08,12.9456,2,2.71098,-1886.72,-266.744,-26795.7
1.5369e+08,10.3258,1,2.62957,376.259,819.229,-26822.1
1.54201e+08,133.481,2,3.05076,3281.24,-26967.7,-21893.7
1.54391e+08,207.921,0,2.96343,-16004.6,23308.8,4239.26
1.54657e+08,250.067,1,3.0093,28087.3,17146.3,11949.6
1.54698e+08,165.105,2,2.89472,-24937.1,951.437,-4703.02
1.55229e+08,161.026,2,3.05729,24836.4,-9120.56,-7919.24
1.5561e+08,80.2556,0,3.04646,12359.9,9813.5,-22866.1
1.56155e+08,78.1341,1,2.97174,5903.57,14369.1,-26236.6
1.56274e+08,27.7096,0,2.5179,3236.44,-3591.29,-25396
1.56283e+08,27.8295,0,2.68443,3290.19,-4162.27,-26153.8
1.56459e+08,140.073,1,2.525,-15582.5,19625,-12926.8
1.56713e+08,57.8317,0,2.73649,-7288.46,-9090.01,-25421.4
1.57384e+08,149.351,2,2.52541,-15369.3,-9784.59,-3012.17
1.57468e+08,70.0332,2,2.95867,6607.54,-5609.96,-16953.4
1.57686e+08,2.53055,1,3.05634,-383.316,376.284,-28582.1
1.57761e+08,44.0054,2,2.39343,-4711.38,3742.25,-21718.8
1.58452e+08,59.3683,0,2.54555,1992.67,11555,-24278.6
1.58896e+08,127.971,2,2.66399,-1520.44,-25818,-20801.3
1.59012e+08,16.9242,2,2.93227,-2779.32,-1230.76,-26860.9
1.59206e+08,23.778,0,2.66169,41.5972,-2086.41,-24274.8
1.5927e+08,114.539,0,2.74051,5579.07,3510.72,-17932.6
1.59429e+08,209.152,1,2.86523,22879.9,-19788.2,-12627.3
1.59633e+08,134.844,2,2.84185,12944,21702.7,-16160
1.59991e+08,40.4921,2,2.57305,3722.42,-4533.55,-22576.7
1.60018e+08,202.443,1,2.57738,-21749.4,5217.21,7667.24
1.60197e+08,29.9072,2,2.65595,694.787,-4252.57,-24131.1
1.60483e+08,95.3674,1,2.98033,13258.6,7180.54,-15663.1
1.60714e+08,164.129,1,2.77287,-25208.5,-4783.68,-19857.7
1.60803e+08,62.774,0,2.91372,9258.56,7116.82,-22563.3
1.61188e+08,76.8019,0,2.93207,-9760.76,4439.85,-16828.8
1.61625e+08,108.71,2,2.59764,-11584.6,-6695.14,-11632.3
1.61873e+08,39.6684,1,2.67173,6120.24,4993.28,-26004.3
1.62495e+08,4.75971,2,2.42101,-503.331,597.695,-28176.1
1.63257e+08,22.6426,0,3.03408,2062.86,-1648.84,-24827.3
1.63389e+08,119.565,1,2.81561,-15769.4,19077.9,-23838.2
1.63504e+08,41.235,0,2.96275,4146.68,3667,-22127
1.63721e+08,45.7225,2,2.92698,-6442.2,-4676.52,-23336.2
1.63764e+08,23.9793,1,2.47346,2889.97,3129.52,-25987.4
1.63897e+08,30.2204,2,2.63623,-4240.43,2770.23,-24927.9
1.64055e+08,102.399,1,2.76433,-3945.95,16286,-15157.6
1.64422e+08,53.4336,1,2.52073,3217.65,9812.69,-24092.4
1.64653e+08,68.8418,0,2.68822,14065.4,-145.606,-24835
1.64703e+08,69.5617,1,2.792,-145.392,10637.7,-18698.2
1.648e+08,62.4959,2,2.88518,-5326.25,-6321.23,-18557.9
1.65061e+08,245.943,0,2.80084,9861.89,-21292.3,17301.2
1.65289e+08,38.1794,2,2.79103,2946.5,7143.6,-26916.6
1.65595e+08,29.0066,0,2.40301,1346.39,-4629.52,-24976.6
1.65676e+08,26.4258,2,2.5833,-2200.37,4666.62,-26781.9
1.65876e+08,67.0523,0,2.6805,-10051.8,-1663.58,-19069.3
1.66208e+08,36.5599,1,2.97081,-913.78,4019.02,-22300.7
1.66253e+08,143.858,2,2.81525,22807.6,-12455.5,-13305.7
1.66529e+08,125.883,2,2.5007,6145.31,-17720.2,-9873.76
1.67057e+08,126.176,1,2.55704,23210.3,13026.7,-27198.7
1.67079e+08,0.995961,0,2.54544,149.677,131.255,-28686.5
1.67285e+08,26.2845,0,2.62651,-4107.43,-1233.47,-25393.3
1.67427e+08,92.2412,1,2.73645,-8820.57,7466.96,-13149.5
1.67531e+08,55.4475,1,2.59405,-4983.01,-9510.47,-24254
1.67537e+08,67.367,1,2.53399,9628.4,10570,-28877.7
1.67739e+08,48.4932,2,2.36832,9890.15,2570.31,-28556.7
1.68049e+08,19.9797,1,2.97345,2338.21,3268.76,-27486.4
1.68101e+08,5.59042,0,2.77388,-69.6949,552.413,-27787.9
0,5.41945,1,2.96006,0,0,0
1.68469e+08,51.9423,1,2.88541,-9177.01,3394.09,-23828.5
1.68492e+08,132.793,1,2.53297,-2618.48,-22478.3,-12355.7
1.68908e+08,69.9542,1,2.50146,-4528.15,14010.2,-26592.6
1.69232e+08,61.212,1,2.5917,8258,9796.41,-26787.1
1.69276e+08,65.9477,2,2.41376,8905.3,-4971.37,-19275.3
1.69282e+08,20.2464,0,2.4863,187.449,-3468.82,-26309.3
1.69577e+08,93.2654,2,3.01275,15976.4,-11334.2,-28908.9
1.69677e+08,11.073,0,2.37684,2131.94,1065.94,-28365.5
1.70423e+08,175.648,1,2.82266,-1186.83,14597.1,5097.79
1.70549e+08,14.9048,2,2.82065,-1664.02,-1696.5,-26677
1.70673e+08,133.61,0,2.73181,13526,-13664.9,-8216.87
1.70772e+08,53.0678,2,2.80976,-7961.75,-6243.33,-23901.8
1.7095e+08,71.496,0,2.91567,8913.74,9609.34,-21420.1
1.71499e+08,9.8143,0,2.36498,1047.11,-1861.49,-28690
1.71654e+08,19.9006,0,2.54762,-2061.76,-2725.91,-26430.4
1.71935e+08,118.287,0,2.72938,3267.65,-24689.4,-27289.9
1.72323e+08,100.62,2,3.01454,5878.75,12807.5,-26753.7
1.72436e+08,112.023,1,2.38263,-9795.4,5678.78,-20586.3
1.72551e+08,147.839,0,2.8017,23153.4,-18459.5,-19045.9
1.72739e+08,126.174,1,2.82818,-14839.3,1510.84,-8325.13
1.73082e+08,92.7607,0,2.8535,18850.5,-3647.9,-25006.4
1.73487e+08,192.78,0,2.83862,19708.2,-25456.5,-4125.29
1.73599e+08,51.4042,0,2.53073,4168.19,-7999.69,-22690.2
1.73623e+08,129.172,1,2.8094,16377,13375.7,-11740.3
1.7364e+08,0.348656,1,2.17426,61.55,114.559,-28848.2
0,0.334246,1,3.38378,0,0,0
0,0.573583,1,3.38378,0,0,0
0,0.32917,1,3.78607,0,0,0
1.73799e+08,177.361,1,2.41824,19058.3,8375.49,2396.43
1.73898e+08,122.222,2,2.39346,13219.8,-21857.8,-24674.7
1.74241e+08,76.5119,1,2.92502,-11645.5,-2824.55,-18552.5
1.74271e+08,12.1502,0,2.94901,-1056.43,1705.12,-27296.8
1.74419e+08,1.20656,1,2.99155,-314.35,28.7533,-28832
1.74521e+08,67.4214,1,2.89431,600.342,8815.58,-17689.4
1.74654e+08,18.2943,2,2.53571,254.937,2268.92,-25760.3
1.74967e+08,30.0355,2,2.6121,-35.5351,-4288.26,-24083.6
1.75014e+08,39.682,1,2.8962,5962.19,4050.43,-24571.1
1.75023e+08,234.869,2,2.67458,28070.1,-3401.04,7781.17
1.75308e+08,45.0645,0,2.43196,3196.63,-3259.54,-21520
1.75428e+08,26.0927,1,2.37404,-3107.22,4288.58,-26944.4
1.75833e+08,205.183,0,2.64322,-16145.6,11350.5,9557.09
1.7601e+08,50.6313,0,2.36728,-7789.63,1854.02,-21780.4
1.76285e+08,93.2775,0,2.64479,13176.5,11133.9,-19199
1.76549e+08,132.499,0,2.43555,-7523.08,-18058.8,-8776.92
1.76707e+08,79.6962,0,3.0534,-13040,-5794.03,-20262.9
1.7674e+08,14.8643,1,2.56685,2499.23,1861.43,-29377
1.77209e+08,48.7931,1,2.80824,6925.25,-523.122,-21319
1.77263e+08,54.0526,1,2.62018,-2262.36,9866.28,-23359.8
1.77613e+08,76.4922,0,2.68867,7991.93,-7795.38,-18219.3
1.77957e+08,151.916,2,2.89363,18890,11562,-7332
1.78002e+08,33.0292,1,3.04566,5354.23,-2992.66,-25734.5
1.78397e+08,6.65095,1,2.80296,566.441,282.783,-27580
1.78442e+08,12.4816,0,2.9654,-1098.04,979.897,-26679.8
1.78647e+08,39.5257,0,2.84394,5987.84,-1564.94,-23167.9
1.79209e+08,11.0721,2,2.4188,-1258.62,27.2462,-26811.2
1.79624e+08,39.2879,0,2.72176,3845.58,1002.09,-21511.2
1.79684e+08,85.9182,1,2.57075,-17291.7,-364.339,-23227
1.80015e+08,7.35795,1,3.0404,-482.219,130.757,-27337.5
1.80221e+08,9.62178,1,2.78072,-1048.55,1281.05,-27520.7
1.80558e+08,74.7437,1,2.57517,-2408.18,14626.6,-23112.6
1.80594e+08,179.844,1,2.83416,9989.58,16517.6,-27960.6
1.80624e+08,113.642,2,2.5543,8045.22,10127.7,-9448.92
1.80657e+08,45.6536,0,2.68362,4123.6,7169.3,-23779.1
1.80748e+08,45.6068,1,2.48662,-5665.69,4822.33,-22573.9
1.81149e+08,42.1952,1,2.71058,54.2496,8951.99,-29623.6
1.81468e+08,0.779089,0,2.5161,111.094,-193.24,-28779.6
0,0.888537,0,2.47552,0,0,0
1.81538e+08,31.2954,0,2.61306,5436.83,3573.8,-27198.7
1.8162e+08,167.67,1,2.89267,-12896.3,6539.62,-20832.8
1.8205e+08,82.7821,2,2.58793,399.881,-8606.32,-13592.8
1.82674e+08,88.6058,0,2.74532,9703.68,-7818.05,-14868.1
1.82708e+08,161.279,1,2.90839,11863.4,26422.4,-11188.7
1.82715e+08,99.4414,1,2.77645,-18923.3,5424.58,-21537.2
1.82884e+08,234.948,2,2.4773,29404.9,12214.3,9218.11
1.83384e+08,44.7896,2,2.83249,-2498.01,4118.43,-20768.2
1.83664e+08,49.9365,1,2.52669,-7196.65,-7681.28,-28984.4
1.83713e+08,139.6,0,2.57143,1731.32,-19288.9,-13799
1.83942e+08,161.94,0,2.75771,16926.7,6713.29,17.732
1.83958e+08,120.855,0,2.64825,19112.6,-2578.03,-12034.1
1.84041e+08,104.924,1,2.58769,-10868.1,15922.4,-17715.9
1.84279e+08,5.73159,0,2.69047,-880.721,535.633,-28292.7
1.84345e+08,38.2384,0,2.9249,5968.3,-641.277,-23381.5
1.84573e+08,89.3346,0,2.99546,12435,-7601.83,-17029.5
1.84734e+08,18.1991,1,2.51565,-2341.48,3008.15,-29901.2
1.84764e+08,89.4305,1,2.50314,8852.34,16099.7,-24160.6
1.84858e+08,120.125,1,2.88175,5889.24,16926.3,-11019.8
1.85027e+08,12.0728,0,2.84214,452.429,1034.14,-26537.6
0,12.1026,0,2.94056,0,0,0
1.85264e+08,15.9109,2,2.83632,-1765.13,410.198,-25980.9
1.85448e+08,104.157,1,2.39474,-15867.2,14231.3,-22864
1.85838e+08,122.64,1,2.69664,-8502.39,-20624.1,-15820
1.85861e+08,2.16185,1,2.91527,-264.122,318.417,-28522.5
0,2.11625,1,2.43537,0,0,0
1.86207e+08,7.61836,1,2.77552,-421.547,1413.92,-29653.9
1.86304e+08,7.05279,2,2.40698,-488.087,1387.24,-28792.9
1.86477e+08,43.9261,1,2.39419,6415.61,6387.82,-26507.6
1.86979e+08,109.638,1,3.05794,-7411.36,1076.9,-22719.1
1.87176e+08,16.7845,0,2.59586,2769.9,-244.447,-26516
1.87795e+08,214.621,0,3.0195,12205.8,29816.2,2585.69
1.88329e+08,33.6957,2,2.47827,-4869.86,4490.69,-26189.3
1.88366e+08,35.8349,1,2.97663,3471.28,-6075.14,-26238.3
1.88526e+08,42.4951,1,2.78116,-5691.6,-1751.2,-22108
1.88543e+08,33.538,2,2.53002,-3098.05,5620.58,-25831.3
1.88585e+08,31.6567,2,2.9908,-3828.13,5408.14,-28434.2
1.88657e+08,48.893,1,2.43301,-2825.57,3657.23,-19534.6
1.88972e+08,26.8105,0,2.83259,1365.91,5112.74,-26762
1.89067e+08,140.959,1,2.95722,-17457.1,6545.47,-5822.85
1.89091e+08,111.143,1,2.92898,-12013,3968.61,-9200.13
1.89303e+08,10.7521,0,2.75533,1099.03,-2037.18,-29092.7
1.89835e+08,176.208,0,2.43243,5874.33,29891.5,-7320.18
1.90312e+08,39.3498,0,2.74033,2281.71,-4771.87,-22455.4
1.90329e+08,13.6533,0,2.64205,1399.25,1096.53,-26499.9
1.90566e+08,36.9065,2,2.53452,-841.701,-4007.33,-22133.5
1.91022e+08,152.997,0,3.00026,-13531.5,9521.79,-1422.98
1.9108e+08,10.5425,1,2.8262,1278.05,-1368.72,-27749.4
1.91121e+08,20.775,2,2.70506,2850.71,-1794.63,-26006.2
1.92178e+08,50.8354,0,2.87526,-5223.76,8218.43,-24472.9
1.9245e+08,13.2853,0,2.55914,-1086.82,-2342.92,-27760.7
1.93109e+08,168.118,1,2.46081,-26643.2,-19869.1,-16218.2
1.93146e+08,22.1339,1,2.90663,-3873.88,177.71,-26477.3
1.93215e+08,128.676,1,2.9152,13914.8,13751.4,-10183.8
1.93229e+08,149.505,2,2.99669,8299.69,-14249.8,-23203.6
1.93307e+08,6.32008,2,2.41382,-334.917,-1032.6,-29782.2
1.93352e+08,72.8324,1,2.71906,-8549.83,10194.9,-21032.3
1.93701e+08,65.9537,2,2.4343,3671.24,-13466.7,-27512.1
1.93776e+08,15.0745,1,2.81493,-3063.27,-963.544,-28500
0,15.0924,1,2.72233,0,0,0
1.93972e+08,73.3183,0,2.78521,2389.15,-13171.9,-21073
1.93988e+08,14.9496,0,3.03051,2166.8,-1531.06,-27030.3
1.94062e+08,19.2448,0,2.89174,-3760.31,41.0698,-27540.4
1.94125e+08,154.239,0,2.88099,-20547.1,12192.9,-20257.7
1.94274e+08,150.102,2,3.01457,14158,-23206.1,-12951
1.943e+08,75.525,0,2.44094,4498.28,-6781.91,-15086.2
1.94342e+08,18.1369,0,2.74006,-1418.87,-3178.32,-27261.1
1.94365e+08,88.0889,2,2.53597,-16989.1,3889.27,-22128.4
1.9448e+08,36.9844,0,3.01592,-7299.76,251.968,-26449.7
1.94672e+08,20.7052,1,2.78711,3277.63,351.475,-25992.2
1.94948e+08,108.305,0,2.96294,15513.7,-12772,-18918.8
1.95154e+08,5.90864,2,2.77174,-880.419,-1038.58,-28775.7
0,5.90479,2,2.57002,0,0,0
0,5.89792,2,2.88508,0,0,0
1.95229e+08,48.168,1,2.62169,7016.1,4466.98,-22932.4
1.95536e+08,105.732,2,2.76391,-1639.04,-8272.69,-8190.95
1.95543e+08,110.742,1,3.0302,8663.76,-12312.1,-11228.8
1.956e+08,28.7231,0,2.73554,-1729.65,3655.75,-24369.4
1.95814e+08,66.6136,1,2.90894,3930.3,4570.73,-16181.6
1.95824e+08,14.9814,1,2.89512,2853.48,1062.05,-28059.6
1.96083e+08,99.7886,2,2.939,-18440.2,-6102.07,-20791.1
1.9617e+08,19.7769,2,2.5134,-2015.64,-2688.87,-26235.3
1.96303e+08,24.3818,0,2.77322,4115.92,3214.47,-29089.8
1.96448e+08,21.4511,0,2.4674,2275.67,-2648.52,-25847.2
1.96677e+08,97.8751,0,2.81448,14658.3,-14151.6,-25549.1
1.96792e+08,65.5952,0,2.36204,7990.39,-5358.66,-18737.2
1.96931e+08,11.9389,2,2.88638,2186.4,419.171,-27730
1.97306e+08,104.532,0,2.84945,20404.9,2649.57,-23998.1
1.97502e+08,138.95,0,2.61293,15768.1,-24735.7,-27022.4
1.97568e+08,40.4062,0,2.91432,-333.637,3909,-21309.1
1.98348e+08,31.3559,0,2.75399,2924.47,-5443.82,-26309.7
1.98443e+08,47.5295,0,2.41838,9582.78,-2074.66,-26151.2
1.9868e+08,83.2347,0,2.65373,-9764.45,413.003,-14312.8
1.98881e+08,5.412,2,2.55738,-23.8976,-768.6,-27905.2
1.99157e+08,31.9278,1,2.70469,1686.37,5594,-25340.9
2.00046e+08,28.654,0,2.75858,1358.7,-3614.2,-24157.2
2.00321e+08,82.3398,1,2.67409,-13230.9,-4027.99,-18307.2
2.00346e+08,140.501,0,2.78541,7368.34,-28647.2,-29982.8
2.00479e+08,72.0457,0,2.7331,2330.15,14716.2,-25785.1
2.00676e+08,13.3234,0,2.65497,2670.43,412.263,-27787.1
2.00736e+08,48.2574,0,2.78509,1292.21,-4502.86,-19820.9
2.0086e+08,305.701,0,2.73842,-28613.5,27216.9,21621.8
2.00908e+08,8.25138,2,2.71371,221.635,-1114.52,-27471.5
2.01826e+08,115.169,1,2.82002,20605.9,-6489.17,-17943.7
2.01989e+08,56.9966,2,2.88149,-9452.4,-6782,-25610.2
2.02075e+08,55.6163,2,2.41269,5174.36,-8065.98,-21920.7
2.02206e+08,68.8305,2,2.45176,2933.6,-5598.22,-15699.4
2.02326e+08,43.515,0,2.68072,4408.74,7306.18,-25276.8
2.02421e+08,70.316,0,2.80691,-9378.1,8243.11,-20951
2.02719e+08,71.2466,0,2.41897,5348.9,14124.1,-29689.3
2.02759e+08,73.0154,1,2.46684,6244.55,8425.42,-17443.7
2.02914e+08,47.1658,0,2.7634,6031.73,-7908.95,-27881.7
2.03116e+08,24.1617,2,2.92173,-2173.03,-4580.98,-27786.6
2.03339e+08,164.352,1,2.58849,597.378,20979.8,-1133.83
2.03371e+08,103.165,0,2.8701,21294.7,-4519.82,-28412.6
2.03752e+08,51.5283,1,2.76992,6883.75,4167.25,-21548.9
2.0411e+08,20.8843,2,2.83314,-1167.34,2500.58,-25412.9
2.04139e+08,160.288,1,2.63232,8930.39,-24987.1,-8003.15
2.04428e+08,57.5059,0,2.88435,9876.34,2026.14,-22024.4
2.04483e+08,57.1325,2,2.63629,9324.43,-4264.59,-23923.7
2.04787e+08,15.2581,0,2.8368,3029.24,-575.338,-27618.6
2.04964e+08,7.5302,0,2.67485,538.1,-113.347,-27306.4
2.05157e+08,22.6228,0,2.76175,-161.306,4067.23,-26303
2.0521e+08,63.5287,1,2.76156,5696.32,1410.23,-16811.3
2.0522e+08,21.4124,1,2.92706,-4048.05,-86.9765,-26732.1
2.05306e+08,3.71675,1,2.76446,-47.6755,277.148,-28063.9
2.0553e+08,99.4357,2,2.5435,-15242.3,1411.19,-14368.6
2.05656e+08,26.3224,0,2.89762,3701.46,2285.47,-25569.1
2.05785e+08,112.175,2,2.85251,-11714.2,17230.5,-17803.7
2.06053e+08,6.44504,1,2.86942,-923.36,432.113,-29826.7
2.0615e+08,168.962,0,2.85983,9862.56,16965.3,489.289
2.06274e+08,39.4845,0,2.57335,6543.42,-4262.95,-25642.8
2.06301e+08,300.73,2,2.71872,28851.2,16567.4,25017.1
2.06406e+08,2.04393,0,2.67245,-92.4171,270.612,-28536.7
2.06525e+08,70.0052,0,2.60756,612.905,7122.42,-15874.6
2.06893e+08,4.55632,2,2.71223,256.515,-697.436,-28139.9
2.07015e+08,92.7923,0,2.39884,14158.1,-13675.6,-29009.3
2.07148e+08,115.214,1,2.88021,-3907.47,15023,-10188.8
2.0734e+08,145.818,0,2.77975,8814.84,25820.2,-17009.5
2.08038e+08,27.94,2,2.66664,-2633.08,-4490.7,-25888
2.08114e+08,136.868,2,2.57224,-17245,12975.1,-9578.74
2.08588e+08,54.4694,0,2.74069,9174.31,4803.83,-23695.3
2.08852e+08,194.216,0,2.94883,25696,-1701.67,2761.97
2.09e+08,126.771,2,2.51379,6177.52,-25029.5,-21205.4
2.09031e+08,44.3261,1,2.99605,-5606.23,7498.26,-29589.7
2.09247e+08,9.26768,1,2.85342,-364.375,1903.03,-29512.6
2.09718e+08,58.994,0,2.7823,5151.5,-1658.82,-17604.1
2.10142e+08,224.319,0,2.68409,22061.1,7113.92,12426.5
2.10231e+08,33.0376,2,2.39555,-6291.42,510.146,-25687.3
2.10233e+08,264.951,2,2.85371,-26544.7,-25192.1,13143.8
2.10992e+08,9.79806,2,2.73216,163.492,1872.22,-28079.1
2.11112e+08,103.39,0,2.55404,4904.03,15793.6,-14508.3
2.11527e+08,14.6423,0,3.05792,1355.91,2588.45,-27798.3
2.1177e+08,22.9718,0,2.58377,-274.297,-4046.55,-26154.1
2.11876e+08,19.0789,1,2.50007,-2731.03,338.024,-25825.7
2.11898e+08,15.3257,2,2.85823,350.337,-2039.74,-26283.7
2.1194e+08,41.478,2,2.81212,3034.38,2000.93,-20922.7
2.12346e+08,186.361,2,2.43541,22956.5,-17276.4,-1829.15
2.12411e+08,113.493,2,2.93426,15434.4,845.265,-10741.5
2.12816e+08,43.8853,2,2.5196,3988.7,5277.23,-22393
2.13383e+08,8.63595,2,2.78766,-640.261,-395.023,-27153.8
2.14013e+08,104.854,1,2.67151,-10074.9,13065.5,-14041.3
2.14133e+08,83.7552,0,2.908,-3672.45,-5721.44,-28703.6
2.14471e+08,72.496,0,2.90813,-1605.72,5691.15,-26946.7
2.14478e+08,173.466,0,2.38362,19919.6,26276.3,-12623.2
2.14905e+08,98.6257,0,2.47352,15138.2,7701.11,-16630.5
2.15047e+08,63.2633,2,2.67007,-579.176,13241.6,-28064.3
2.15192e+08,117.711,0,3.03286,-8630.14,-20514.9,-18307.5
2.15261e+08,12.917,1,2.59534,1491.65,2064.82,-27701.7
2.15586e+08,110.69,2,2.67691,-10156.1,-10954.2,-10808.9
2.15607e+08,177.75,0,2.47745,17753.6,29844,-14311.6
2.15733e+08,160.312,2,2.54544,15954,-10119.4,-685.036
2.16091e+08,301.285,2,2.52879,11469,-3592.51,11818.9
2.16187e+08,4.69494,0,2.81166,-637.718,556.972,-28403
2.16372e+08,117,1,2.59496,-1565.92,12096.1,-24364.1
2.16477e+08,47.7197,0,3.04702,6382.82,-748.788,-21701.2
2.16615e+08,108.347,2,2.71291,-12352.5,3846.29,-10050.9
2.17005e+08,0.578594,1,2.46343,-40.296,91.7137,-28711.9
2.17076e+08,78.8103,0,3.04088,1690.15,-3575.93,-24393.8
2.17449e+08,141.619,1,2.58229,-14989.5,-7761.78,-4108.43
2.17531e+08,27.0233,0,2.5724,4843.99,-3071.57,-27874.5
2.1755e+08,6.52913,1,2.54433,-653.176,1296.04,-29186.7
2.17608e+08,51.1068,2,2.79161,6372.68,-718.572,-20197.9
2.17826e+08,53.1907,0,2.77708,10729.3,-1087.39,-25440.3
2.1799e+08,111.675,1,2.60781,16468.5,-6516.11,-13343
2.18316e+08,15.6762,2,2.8007,931.007,-3198.79,-28281
2.18412e+08,318.458,0,3.05298,5647.17,-8188.87,25909
2.1844e+08,95.5662,2,2.60363,17231,-9935.83,-25267.6
2.1908e+08,140.244,0,2.46866,-17835.9,1629.47,-5254.06
2.19672e+08,48.9251,1,3.05114,-6484.97,-5441.86,-23095.5
2.20077e+08,138.419,2,2.67491,21107.6,-11655,-12356.6
2.2027e+08,132.075,1,2.71181,-8449.79,5807.01,-2922.73
2.20451e+08,40.7519,1,2.95795,-7304.35,4635.49,-28489.8
2.20577e+08,113.479,2,2.62169,-23234.3,-5918.78,-26993.2
2.20672e+08,35.2332,0,2.38222,4148.86,-6140.62,-27511.1
2.20798e+08,129.05,0,2.79827,-1342.68,15849.6,-6808.21
2.20973e+08,39.904,1,2.43682,-284.027,-4916.48,-21991.9
2.21116e+08,3.15616,0,2.75298,691.797,257.954,-28620.8
0,3.13299,0,2.73774,0,0,0
2.21355e+08,37.8266,2,2.91233,4378.42,-1737.81,-22419.2
2.21537e+08,122.084,0,2.82326,20072.7,10058.3,-16239.9
2.21586e+08,16.5653,0,2.98333,2821.71,2118.09,-29444.4
2.21705e+08,96.8277,0,2.80257,17802.2,6844.6,-21404.8
2.21915e+08,104.778,0,2.78764,-5128.71,18501.5,-17966.8
2.22027e+08,26.9656,1,2.66516,-5377.78,20.6143,-26851.8
2.22403e+08,63.4594,1,2.58182,3143.69,-6226.28,-17431.5
2.22644e+08,129.669,0,2.77205,-13293.1,12606.1,-8670.07
2.22662e+08,72.4232,1,2.86596,892.893,14394.6,-23685.2
2.22973e+08,5.82731,1,2.88227,522.346,606.997,-27882.7
2.23111e+08,151.104,1,2.9758,-17125.1,19902.1,-10958
2.23431e+08,42.7773,2,2.48695,-9092.47,-74.7296,-28445.7
2.23596e+08,214.349,2,2.75847,-19457.8,-20868,6192.97
2.23622e+08,68.9943,1,2.37155,7488.74,-186.447,-16310.8
2.23794e+08,219.775,0,2.435,-10027,-15011.3,-14187.8
2.23893e+08,110.287,1,2.87459,-18158.1,12156.9,-20886.4
2.23947e+08,21.0834,0,3.01503,4108.69,229.326,-27039.4
2.23974e+08,101.297,1,2.48267,3064.14,20993.6,-25317.9
2.24305e+08,26.3723,0,2.64053,2255.41,2946.08,-24631.9
2.24397e+08,20.2639,1,3.00107,2803.2,-2373.16,-26816.7
2.24509e+08,37.1257,0,2.42726,2027.95,6011.64,-24200.2
2.24563e+08,56.5597,2,2.76389,5364.66,-1472.24,-18306.1
2.24798e+08,57.1092,2,2.66967,7884.34,-5060.81,-21239.5
2.25301e+08,73.4416,1,2.90826,2324.4,10018.2,-17262
2.25495e+08,164.921,1,2.8147,-21745.3,-14912.7,-6292.32
2.25551e+08,127.114,2,2.48581,-10283.8,-18159.8,-11790.4
2.25582e+08,7.29289,0,2.88455,374.148,1182.36,-27876.2
2.25924e+08,15.2031,2,2.51563,-1097.76,-2906.38,-29962.3
2.26103e+08,47.3641,1,3.00408,-4908.95,3161.98,-20740.6
2.26214e+08,11.9453,2,2.3778,-220.375,1513.14,-26843.4
2.26499e+08,79.8608,1,2.56038,-12156.5,11430.6,-25652.3
2.26574e+08,68.8269,2,2.43602,-8906.92,-10503,-23816.2
2.26641e+08,100.47,1,2.83606,-18028.9,-10544.8,-29243.9
2.26857e+08,16.8705,1,2.51938,-2593.77,2607.32,-29131.4
2.26877e+08,91.5273,0,2.87755,-7605.62,-10534.9,-14675.9
2.27021e+08,37.0996,1,2.72173,-5177.66,5987.96,-28973.7
2.27075e+08,11.6352,2,2.56213,-1977.68,-1339.98,-27942.4
2.27238e+08,2.20735,2,2.79806,152.75,-488.008,-28664.9
2.27485e+08,121.364,0,2.77256,19595.5,-10033.8,-15726.4
2.27492e+08,41.4038,2,2.91953,5261.43,4062.72,-23316
2.27519e+08,30.3524,1,2.8579,242.619,5295.23,-25165.7
2.27938e+08,178.535,0,2.54787,4472.03,24058.9,-90.5276
2.27956e+08,127.854,1,2.82436,-10495.6,23791,-21691.8
2.28072e+08,24.1123,0,2.44095,1302.04,-1889.91,-24247
0,24.2842,0,2.76606,0,0,0
2.28123e+08,8.01128,0,2.57172,1692.81,-612.989,-28678.8
2.28754e+08,3.34582,2,2.58812,-641.695,-219.597,-28434.8
2.2877e+08,138.912,2,2.9599,14276.6,-3739.87,-3731.64
2.2925e+08,8.35834,0,2.89248,-321.63,1606.77,-28136.9
2.29272e+08,420.247,1,2.55499,-14629.9,-6401.94,-16576.3
2.29445e+08,130.31,1,2.55902,-14093.7,-17570.7,-13039.5
2.2999e+08,11.2771,0,2.40858,1818.68,1321.14,-27793.7
0,11.4055,0,2.80029,0,0,0
0,11.333,0,2.84174,0,0,0
2.30786e+08,11.0789,0,3.00525,892.756,-2116.36,-28239.5
2.31042e+08,45.9508,1,2.63389,-3601.97,5003.3,-21258.8
2.31702e+08,337.855,1,2.64227,-19391.2,-7626.9,5675.68
2.31714e+08,61.2414,1,2.61052,8862.17,3789.24,-20199.3
2.31747e+08,76.9655,2,2.91832,-2812.96,-14439.4,-21973.7
2.31866e+08,29.352,1,2.9236,-3444.57,-3297.2,-24944.3
2.32033e+08,3.84946,2,2.93402,-232.423,-892.698,-28732.4
2.3221e+08,181.221,0,2.6716,29833.7,12663.9,-18916.1
2.32226e+08,12.7072,1,2.70056,-1097.07,2382.48,-27892.6
2.32298e+08,35.7576,1,2.5745,-55.0715,6074.56,-24207.7
2.32422e+08,146.529,2,2.67857,11861.9,6913.31,-1187.03
2.32974e+08,45.0697,1,2.7999,-543.528,7545.4,-22988.9
2.33198e+08,43.2438,0,2.80492,7601.29,-5132.84,-28781.3
2.33516e+08,65.9635,0,2.90475,10141.6,7562.56,-22979.3
2.33571e+08,175.589,2,2.94458,-23956.8,878.737,-902.227
2.33591e+08,0.601641,0,2.75801,227.486,-50.1049,-28843.2
2.33649e+08,134.108,1,2.39166,-10182.4,20762.1,-12269.1
2.3378e+08,112.124,2,2.57392,-13258.7,14331.8,-15464.2
2.33845e+08,54.2461,2,2.94004,-4873.13,4366.49,-19498.4
2.34031e+08,133.974,1,2.90443,-11548.2,-24055.1,-20011.6
2.34085e+08,14.2999,0,2.44004,-617.267,1222.67,-26127.3
2.34112e+08,95.7474,1,2.59424,-16022.2,4104.35,-17094.4
2.34391e+08,7.21166,0,2.96287,1365.99,-689.759,-28307.8
2.34508e+08,97.3662,2,2.44764,-4232.71,-1236.64,-26241.9
2.34564e+08,22.0151,2,2.4312,-1841.52,3814.78,-26921.6
2.34737e+08,192.864,2,2.67428,-24351,-9140.92,2468.6
2.34853e+08,16.8072,1,2.96331,-3127.75,-1689.07,-29145.3
2.34857e+08,126.562,2,2.61544,11543.8,-14952.4,-9884.69
2.35114e+08,27.7696,2,2.63565,2146.18,-5342.32,-27378.3
2.35147e+08,137.173,2,2.46592,-11671.1,-645.292,-2332.68
2.35355e+08,126.648,1,2.74746,-4502.84,14475.1,-6819.99
2.35643e+08,93.8105,1,2.44195,-2737.67,7558.63,-10646.4
2.35856e+08,40.8645,0,2.83716,7091.6,-5021.04,-28698
2.36123e+08,12.7755,0,2.6559,2676.73,382.929,-28081.9
2.36282e+08,163.298,2,2.59829,-21531.8,-26042,-24631.6
2.36307e+08,43.8387,0,2.59704,-4743.49,-7912.2,-29085.5
2.36614e+08,80.6404,1,2.97101,-3661.61,15810.4,-23866.9
2.3684e+08,51.4356,0,2.68761,9001.89,592.435,-22652.7
2.36877e+08,260.958,1,2.72224,-7924.5,3077.52,-24562.2
2.37072e+08,67.3516,1,2.82122,-2554.32,12272.4,-22045.1
2.37191e+08,77.0899,1,2.94045,-13759.6,8655.82,-27935.4
2.373e+08,77.8577,1,2.611,98.0157,-14572.4,-21314.4
2.37518e+08,5.94477,0,2.91164,-298.016,1231.91,-28761.5
2.37643e+08,64.1262,0,3.05715,-2771.75,-11125.5,-21858
2.37676e+08,56.8268,2,2.5116,8321.29,427.008,-24637.1
2.38164e+08,124.658,2,2.91397,-14683.9,16417.5,-23167.2
2.38777e+08,47.9263,2,2.91622,3124.74,3077.26,-19789.1
2.38853e+08,24.2557,1,2.97917,1981.18,3613.12,-25778.1
2.394e+08,135.29,2,2.92709,-1960.31,22220.9,-11325.1
2.39433e+08,75.2636,2,2.48191,11329.6,-9196.3,-22380.7
2.39486e+08,75.895,0,2.69357,7111.46,-12027.9,-20970.5
2.39556e+08,125.953,0,2.73096,4483.3,22076.2,-14743.6
2.39587e+08,3.0732,1,2.90448,30.4192,254.4,-28203.6
2.4017e+08,194.187,2,2.90878,-4721.6,-6924.64,-22153.7
2.40225e+08,45.5913,2,2.73135,-8788.83,-4040.78,-28364.5
2.40261e+08,14.4135,1,2.75062,8.21748,3111.19,-28371.3
2.40571e+08,139.143,2,2.76043,2907,-2940.22,-28132.3
2.40633e+08,29.1016,2,3.03623,3160.54,-4958.68,-26997.8
2.40766e+08,134.106,0,2.98848,-14983.3,2333.34,-5242.17
2.41195e+08,4.02877,1,2.40715,-747.368,177.406,-28313.2
2.41733e+08,26.114,0,2.64612,1127.59,-4988.27,-26681.2
2.42101e+08,78.3915,0,2.59031,1485.96,15708.7,-23715.3
2.42283e+08,108.682,2,2.67444,13308.9,-6836.85,-11488.6
2.42349e+08,27.5435,2,2.45512,3146.27,2879.98,-25046.6
2.42415e+08,119.754,1,3.03642,-23871.2,5324.06,-22936.4
2.42569e+08,166.12,0,2.66584,10455.7,17349.3,-12034.5
2.42691e+08,43.4593,2,2.82063,-27.9378,-3731.34,-20456.5
2.42834e+08,33.8048,0,2.39828,6035.71,-2789.84,-25997.8
2.42923e+08,1.64121,1,2.86732,-37.3107,78.0569,-28464.7
0,1.65469,1,2.83021,0,0,0
2.43064e+08,24.4764,1,2.7189,4607,1192.72,-26815.8
2.43301e+08,154.105,2,2.87431,10735.8,22293.9,-8046.56
2.43338e+08,5.78564,0,2.76452,1168.66,-375.027,-29362.6
2.43491e+08,56.3736,0,2.8752,7834.7,6842.03,-23078.7
2.4362e+08,247.067,1,2.95298,-19916.6,-9084.02,-18321.6
2.43663e+08,60.9516,2,2.89596,8479,-9535.58,-27386.3
2.43692e+08,16.1032,1,2.93525,-1409.35,-526.138,-25771.5
2.43754e+08,78.3647,1,2.36526,9903.21,-7476.6,-17919.1
2.43897e+08,36.3752,2,2.71948,7171.66,2402.54,-27923.8
2.43959e+08,127.009,0,2.88299,15639.7,7327.9,-8417.19
2.44134e+08,50.0707,0,2.94509,2824,422.816,-26217
2.447e+08,51.683,0,2.76298,61.3494,10420.8,-25709.5
2.44801e+08,292.96,0,2.78707,11148.8,27967.7,17354.6
2.4488e+08,188.582,2,2.55162,-28342.6,-22965.5,-12606.4
2.45017e+08,63.7828,0,2.38755,4354.18,-3565.12,-16527.2
2.45045e+08,23.2901,0,2.80014,3818.74,-2807.48,-27248
2.45234e+08,244.837,1,2.51021,4668.27,2905.44,-26157.8
2.45331e+08,57.6222,2,2.45985,-9641.05,-4699.81,-22879.4
2.4555e+08,46.3986,2,2.97228,4962.9,-4718.62,-21891.7
2.45564e+08,165.083,0,2.82082,27649.8,-11668,-11240.3
2.45599e+08,5.38662,2,2.83261,-82.3355,-505.857,-27765.5
0,5.71831,1,3.01291,0,0,0
2.45629e+08,54.8749,0,2.93907,6444.1,-4804.67,-23385
2.46451e+08,31.7472,0,2.77344,142.586,6713.16,-29119.4
2.46728e+08,36.4345,0,2.79706,873.44,7636.2,-28146.5
2.4673e+08,316.234,0,2.70118,-13732.7,29380,29349.4
2.46819e+08,119.431,2,2.63703,-11710.9,-17224,-18799.5
2.46902e+08,153.048,2,2.7734,-23553.8,4896.89,-29635.1
2.47024e+08,111.469,0,2.55482,21154,10483.1,-27261.2
2.47115e+08,43.2965,2,2.62408,-7910.7,2901.71,-25253.1
2.47443e+08,35.6975,2,2.92973,-4290.64,4002.46,-24159.8
2.47667e+08,33.249,2,2.88003,4436.14,-5272.83,-27539.3
2.47815e+08,3.97096,1,2.39605,-178.992,189.538,-28005.7
2.47982e+08,31.4423,0,2.98626,-1379.13,6369.89,-29945.5
2.48229e+08,41.4759,0,2.97393,4199.18,-2113.4,-21451.1
2.48435e+08,9.84733,0,2.58133,1565.58,279.33,-27406.3
2.48481e+08,63.6454,1,2.53622,-10703.8,5421.86,-22562.7
2.48489e+08,111.81,0,2.71131,-8655.1,-21898.1,-28031.3
2.4864e+08,41.1777,0,2.96573,-4464,4075.58,-22683.7
2.48913e+08,24.6947,2,2.92989,1453.67,-2296.8,-24386.2
2.49007e+08,121.804,0,2.86358,336.287,24998.7,-23295.1
2.49605e+08,19.7431,2,2.73342,2962.59,-658.223,-25980.9
