#class tools::wcsv::ntuple
#title time
#separator 44
#vector_separator 59
#column double eventID
#column double t(ns)
#column double copynumber
#column double energy(eV)
#column double x(mm)
#column double y(mm)
#column double z(mm)
63970,47.84,2,2.82108,4246.7,-7204.01,-23181.6
67156,163.382,0,2.44483,-17095.8,25500.6,-13029.3
699855,24.5806,2,2.47615,-2662.66,-3147.71,-25546.9
1.1285e+06,111.055,2,2.82213,-15518,-17531.6,-27326.4
1.15907e+06,55.901,1,3.03361,-5932.45,544.875,-27945.2
1.17702e+06,47.2278,0,2.6017,-663.917,-3380.45,-19493
1.19644e+06,82.4227,2,2.70471,7440.79,13827.9,-21516.4
1.31796e+06,155.286,1,2.77969,16998.2,19428.5,-8737.14
1.33566e+06,33.7853,2,2.60024,1311.17,-6867.51,-27029.4
1.41155e+06,57.5801,0,3.03684,3080.73,-4429.59,-18002
1.55747e+06,23.648,1,2.62207,-3140.16,-1117.01,-25070.5
1.69183e+06,111.204,1,2.92703,-8907.66,-17298.2,-15979.2
1.85289e+06,4.80576,1,2.54668,-420.439,449.851,-27943.1
1.88398e+06,39.7598,2,2.53225,617.343,-3082.7,-21000.1
1.95378e+06,24.7345,2,2.76542,-3126.21,-3036.65,-25864.9
2.05815e+06,42.7206,0,2.81325,1633.95,4555.25,-21228.2
2.15448e+06,17.6292,0,2.82665,3123.06,1219.35,-27047.3
2.26132e+06,41.9448,0,2.51562,-2364.95,3114.67,-20868.9
2.29541e+06,19.1356,2,2.54998,-3877.25,-1311.48,-29329
2.96e+06,23.6325,0,2.81535,2842.4,1792.76,-25125.3
3.04406e+06,12.4669,1,2.36591,-1285.08,452.3,-26536
3.09759e+06,169.301,1,2.70394,-17209.9,28193.6,-15089.9
3.19438e+06,30.9342,0,2.49743,-636.662,-6384.53,-27500.9
3.43453e+06,184.021,1,2.37595,-27200.5,-9177.03,-2501.33
4.0004e+06,176.456,1,2.88571,-20443,14125.4,-1273.38
4.09943e+06,5.26267,0,2.81959,971.728,640.594,-28596.4
4.15849e+06,10.3576,2,2.90767,-156.425,-2073.39,-29206.7
4.6741e+06,62.6872,1,2.45759,-7786.31,7774.04,-21350
4.67711e+06,19.7153,2,2.70977,-1701.7,-2951.91,-26304.7
4.68568e+06,183.104,1,2.50132,2737.34,10438.5,-5245.63
4.80674e+06,80.0644,1,2.36419,10973.7,10322.1,-20984.1
5.32765e+06,16.1852,2,3.01868,589.462,-3432.5,-28914.1
5.5423e+06,23.073,2,2.50992,2424.18,-385.321,-24606.2
5.55075e+06,70.1082,1,2.82377,-842.385,6360.03,-28893.5
5.71277e+06,1.56005,0,2.39242,361.443,-11.576,-28619.6
5.97507e+06,1.21681,2,2.55306,-327.797,-137.453,-28792.5
0,1.22141,2,2.36409,0,0,0
6.13483e+06,20.1014,0,2.4222,-1541.66,1686.35,-25253.1
6.30734e+06,15.5735,2,2.99131,1070.61,-3136.38,-28402.6
6.4538e+06,124.917,0,2.56417,23349.9,-12128,-25753.9
6.63101e+06,61.6992,1,2.4082,4062.32,11759.7,-24621.8
6.74174e+06,38.1693,2,2.76465,-526.714,4828.5,-22467.6
7.1304e+06,76.0872,1,2.77304,15704.3,2729.11,-28259.4
7.32153e+06,102.8,2,3.02373,-2959.35,9060.68,-9562.94
7.38776e+06,133.574,0,2.79813,27723.8,-3786.96,-25490.8
8.05881e+06,184.136,2,2.70042,-28275.8,12754.5,-5529.19
8.17499e+06,36.6368,0,2.93029,3445.41,-3295.67,-22736.5
8.28487e+06,124.824,0,2.7156,3178.85,6836.62,-3609.63
8.42754e+06,172.12,0,2.50591,26558.2,-23406.8,-20089.1
8.58317e+06,217.585,2,2.86466,24052.9,-25677.4,401.232
8.8159e+06,84.5433,2,2.62781,-188.529,-9727.35,-13824.5
8.88709e+06,27.7775,2,2.55243,-1574.98,1228.82,-23303.1
9.1314e+06,198.486,2,2.45183,24613.6,392.167,5159.16
9.17595e+06,34.9654,0,2.82254,3126.37,-3049.53,-22844.9
9.2746e+06,21.1146,1,2.61218,-3273.55,2875.14,-27522.9
9.32422e+06,109.747,0,2.4963,5015.54,20165.9,-18481.4
9.58591e+06,22.508,0,3.06058,4596.33,1309.54,-28256.1
9.60984e+06,98.6319,2,2.94162,20158.8,4485.61,-28446.9
9.69544e+06,123.581,0,2.71616,-23460.4,-6270.53,-19601.9
9.94335e+06,117.938,0,2.65437,19339.2,-15773,-29044.5
1.00497e+07,167.523,2,2.62305,-15373.4,-20696.8,-4533.36
1.02439e+07,119.508,2,2.88965,-6483.66,-5879.12,-5277.92
1.02869e+07,11.9648,2,2.58029,533.838,-2547.29,-29089.9
1.03489e+07,68.8051,0,2.83065,14182.3,-3273.84,-28441.9
1.03973e+07,19.2955,1,2.66865,2968.03,-327.107,-26104.5
1.12114e+07,186.198,0,3.00735,-25433.9,-20041.7,-7134.8
1.12164e+07,170.807,1,2.4095,-10258.8,19609.4,-251.136
1.12453e+07,81.9957,2,2.38452,4133.3,-12290.3,-17231.9
1.13589e+07,154.563,2,2.89924,-19562.8,-11723.9,-23615.6
1.14744e+07,15.9076,2,2.43015,-2969.19,1642.49,-28860.3
1.16498e+07,38.1171,2,2.41981,1007.16,-4488.89,-22154
1.20221e+07,37.4919,1,2.49744,-7355.12,1912.69,-26400.4
1.25483e+07,179.709,0,2.74852,206.205,-226.112,-28944.1
1.26838e+07,7.95167,1,2.9619,-1434.63,207.524,-29803.7
0,8.01677,2,2.89588,0,0,0
1.27196e+07,18.3053,0,2.79941,852.802,-2179.33,-25734.9
1.31845e+07,66.3544,2,2.98826,-2963.26,-3741.37,-15736.8
1.3225e+07,48.2979,2,2.73082,7124.76,-6154.32,-24883.8
1.33706e+07,7.75914,0,2.80534,737.764,-662.529,-27465.8
1.35375e+07,182.494,2,2.8125,-7922.92,-29081.7,-5013.28
1.35733e+07,14.5854,1,2.98837,276.217,-1591.89,-26260.3
1.39036e+07,74.3713,0,2.81754,1438.19,-9458.24,-16419.2
1.43663e+07,29.8291,1,2.85748,2854.81,-355.685,-23268
1.45095e+07,44.8672,2,3.02551,-5280.51,-7391.85,-26091.6
1.48037e+07,84.8496,2,2.56382,4095.51,-17022.5,-24775.6
1.48397e+07,48.7509,2,2.96008,-6110.57,-1425.96,-20700.7
1.52642e+07,15.2445,0,2.56612,972.162,-241.287,-25722.5
1.5745e+07,73.4482,2,2.45031,9791.71,5493.79,-18148.9
1.6144e+07,185.486,0,2.72642,12063.5,-26577.9,-2804.55
1.61889e+07,59.6733,0,2.81298,5301,-1320.4,-17487.1
1.66284e+07,13.5315,1,2.80139,483.092,2053.09,-26831.5
1.67646e+07,83.9728,2,2.64032,-13352.4,3486.28,-21789.6
1.68234e+07,27.6686,1,2.4819,-286.158,5718.27,-27201.2
1.68873e+07,37.6773,0,2.98172,-3199.9,-547.426,-21672.5
1.69349e+07,129.981,2,2.54714,-24506.7,-12232.5,-26050.9
1.71792e+07,90.8831,1,2.36214,12124.2,14194.8,-23989.1
1.73182e+07,13.9293,1,2.61905,1040.17,1110.79,-26289.1
1.74023e+07,70.6062,1,2.71536,-4601.92,702.265,-14686.2
1.75099e+07,25.6833,2,2.41817,-908.957,4536.95,-26041.1
1.76817e+07,66.5442,0,3.02641,-8443.53,-6743.52,-20053.3
1.77084e+07,6.28717,2,2.91944,881.988,-894.991,-29380.2
1.77926e+07,158.15,2,2.85411,-17599.9,-3365.86,-787.346
1.80015e+07,39.9155,0,2.56576,-2419.62,5016.29,-22549.2
1.8062e+07,196.129,2,2.6661,-2574.74,24226.7,4513.41
1.83238e+07,96.6095,2,2.7092,1084.72,-19605.4,-23136.3
1.83353e+07,67.148,2,2.67436,-6985.65,-9980.4,-21501.6
1.86559e+07,74.6173,2,2.99756,-11873.9,254.954,-18588.4
1.92083e+07,3.58237,1,3.05644,266.216,105.932,-28118.3
1.9324e+07,33.5813,0,2.53812,7137.26,986.206,-28655.4
1.94462e+07,39.1635,2,2.86947,399.275,-6412.57,-23570.3
1.94895e+07,51.9589,0,3.04152,3661.38,9254.71,-24377.1
1.9874e+07,28.357,1,2.95598,-1600.09,1244.05,-23204.4
2.00722e+07,30.6461,2,2.66596,-6210.6,1942.3,-28444.3
2.01836e+07,13.8514,1,2.70277,1469.24,1635.33,-26837.9
2.07102e+07,157.01,1,2.97679,15431.9,3822.41,-45.7986
2.09035e+07,49.4095,1,2.91188,-2735.43,-4134.21,-19715.3
2.0956e+07,30.0011,1,2.76556,2492.12,1832.71,-23318
2.10394e+07,95.9538,2,3.03911,-696.44,13225.4,-13740.9
2.12221e+07,131.412,1,2.74354,6146.89,9335.81,-24713.7
2.13169e+07,18.0544,1,2.38525,1130.56,2165.46,-25835.2
2.14002e+07,155.486,2,2.9573,-8364.82,-20039.4,-4422.7
2.16458e+07,56.1296,2,2.68444,392.482,9306.57,-21585.7
2.18137e+07,98.2973,0,2.48164,20784.5,-88.8139,-26980.8
2.18516e+07,62.4902,0,2.93458,7438.15,-10409,-25671.5
2.18559e+07,91.1899,1,2.85813,-12453.3,-13335.3,-22968.9
2.20415e+07,23.2126,1,2.62856,4567.11,-812.149,-27407.5
2.20618e+07,17.6336,0,3.0365,3577.73,-518.903,-27759.7
2.2079e+07,32.1077,1,2.80486,6636.47,-1005.31,-28519.3
2.22295e+07,26.087,2,2.65121,-2546,-1638.97,-24166
2.23308e+07,70.5166,1,2.49778,4421.43,12234.3,-21456.2
2.25065e+07,143.97,2,2.39697,-12437,-26107.7,-18971.3
2.25413e+07,38.2206,2,2.52765,561.675,7936.91,-27759.5
2.27501e+07,232.224,0,2.41178,-16596.2,-24841.4,10148.7
2.39838e+07,4.124,1,2.76048,324.723,798.697,-28487.4
2.40498e+07,22.8266,0,2.66339,71.7176,4281.57,-26551.4
2.40703e+07,80.7554,0,2.466,12726.5,6507.45,-19379.9
2.43427e+07,86.7155,2,2.80293,10758.3,4681.45,-14944.4
2.43556e+07,23.8574,0,2.67734,1404.32,-616.257,-24023.6
2.43669e+07,6.25193,1,3.0363,338.329,728.717,-27751.1
2.45187e+07,164.122,2,2.80107,-13531,-21746.7,-5579.1
2.46968e+07,41.7537,0,2.78904,5373.68,1359.53,-21925.2
2.49676e+07,108.166,0,2.97767,-4373.89,22232.3,-29600.3
2.5136e+07,94.9414,0,2.68163,-15283.9,477.506,-15970.8
2.52015e+07,9.63814,0,2.8249,1939.61,535.161,-28150
2.55816e+07,30.6512,0,2.53463,-1671.94,-225.664,-26272.9
2.57763e+07,8.48944,0,2.83228,1628.91,431.554,-28007.8
2.59556e+07,75.0058,2,2.50705,-12370.1,-5432.76,-20403.2
2.60523e+07,216.025,0,2.61234,-12744.5,13218,12859.9
2.62618e+07,27.3206,0,2.86586,4792.86,-2640.45,-26829.1
2.66001e+07,2.59309,2,2.70192,143.018,-305.547,-28346.7
0,2.59567,2,2.50837,0,0,0
2.66038e+07,347.854,1,2.54298,-25633,-25284.6,18953.7
2.66758e+07,36.7574,1,2.73859,-3468.12,4362.9,-23340.8
2.67768e+07,2.90799,1,2.48011,97.4725,-436.447,-28447.4
2.68102e+07,81.6199,0,2.90374,-7892.08,5880.75,-14820.9
2.71975e+07,23.982,2,2.89573,-1148.78,-2623.17,-24608.1
2.73374e+07,6.56681,0,2.87964,893.56,-415.597,-27784.7
2.75445e+07,5.55266,2,2.83123,-241.816,-719.32,-27879.4
2.78933e+07,73.7165,1,2.39531,13506.8,7794.64,-29049.9
2.86623e+07,18.0601,0,2.47034,3901.23,247.67,-28944.1
2.88505e+07,23.6899,1,2.50165,3628.7,2892.41,-26831.8
2.91621e+07,177.58,0,3.00526,13363.3,-16141.5,-14111.9
2.91639e+07,157.858,1,2.80186,27139.8,12170.2,-14032.6
2.91985e+07,14.6284,0,2.66585,-1815.73,1564.29,-26928.1
2.92076e+07,1.78004,1,2.94026,38.7507,257.574,-28502.3
0,1.72402,1,2.80255,0,0,0
0,1.71839,1,2.45199,0,0,0
2.93003e+07,56.3886,0,2.46326,8258.33,-6027.73,-22537.1
2.93832e+07,45.5619,1,2.98331,1078.34,9034.06,-25669.3
2.96016e+07,83.2613,0,2.53522,16029.8,-3351.52,-22229.8
3.04362e+07,92.2868,0,2.40666,6393.74,7409.08,-11885.8
3.08392e+07,58.3963,2,2.75032,10016.8,-5813.84,-24671.4
3.09541e+07,38.2159,0,3.04451,4045.66,-3357.26,-22722.4
3.10324e+07,45.0072,0,2.79676,3592.31,8604.55,-26895.3
3.12109e+07,6.79687,0,2.47646,43.7871,-971.819,-27748.6
3.13207e+07,74.3348,1,2.60577,903.067,7959.7,-15317.5
3.1377e+07,54.4736,2,2.71706,-5596.43,255.98,-18770.8
3.1395e+07,218.16,0,2.82102,-8580.6,7547.26,-21787.2
3.14448e+07,126.544,0,2.47428,6543.84,-25860.1,-26370.1
3.21151e+07,42.1652,1,2.48603,-4103.18,2746.87,-21340.1
3.22036e+07,194.764,2,2.63803,-20988.6,-14266.7,-10267
3.22575e+07,61.6088,2,2.53047,-10621.1,-484.503,-21208.9
3.23362e+07,15.6678,2,2.57532,-1076.63,466.286,-25739.5
3.26677e+07,117.911,0,2.91767,-4424.84,14790.1,-22096.3
3.37444e+07,45.3179,2,2.53175,6640.39,-6957.3,-29102.5
3.38422e+07,167.007,0,2.98595,6742.02,26743.1,-7298.35
3.40788e+07,117.699,2,2.37665,4116.49,21284.5,-16651.7
3.40827e+07,10.6573,2,2.71488,706.935,-2187.84,-28467.4
3.42289e+07,27.0055,2,2.91502,-3429.18,853.614,-24348
3.45997e+07,123.195,0,2.76217,-2890.66,20446.6,-13112.5
3.56099e+07,166.877,2,2.64678,-17373.2,-4655.49,1474.68
3.56449e+07,6.92025,2,2.65791,-424.922,689.053,-27606.2
3.56943e+07,14.9387,2,2.71595,-1154.89,-672.614,-25947.7
3.57007e+07,21.9845,0,2.75058,-2753.66,3287.87,-28424
3.59341e+07,105.538,0,2.99374,6995.46,16971,-16398.5
3.59887e+07,77.9243,2,2.79324,-15828.6,4402.08,-28854.3
3.60408e+07,28.6794,0,2.76312,3008.6,378.098,-23549.5
3.64642e+07,191.448,2,2.83589,-19394.6,-26673.8,-5621.17
3.66007e+07,192.739,0,2.68885,-21648.2,19885.4,-871.888
3.6617e+07,50.0638,1,2.42115,-3220.52,4445.55,-19711.6
3.66657e+07,48.4032,0,2.70349,-5060.33,-2764.08,-20434
3.69434e+07,66.1513,1,2.9865,-131.93,-8036.57,-22963
3.69456e+07,40.7742,2,2.57822,-7296.34,3918.82,-26373.3
3.7033e+07,98.9293,0,2.5228,-13364.2,3663.2,-13238.6
3.71702e+07,109.112,2,2.72573,-56.4032,-8511.98,-16235
3.79903e+07,7.83563,0,2.75232,207.773,713.982,-27341.6
3.88435e+07,143.689,0,2.37355,4256.03,28219.6,-18238.4
3.89533e+07,13.6379,2,2.43511,-2113.63,-72.2424,-26799.9
3.92233e+07,8.29178,0,2.74347,280.184,1042.25,-27436.8
0,8.48141,2,2.7288,0,0,0
3.92621e+07,96.8451,1,2.9538,6192.2,10147.5,-12347.2
3.96767e+07,11.5269,2,2.54565,-1361.44,-1003.6,-26997.1
3.97014e+07,26.2485,2,2.66251,-1851,-7.36182,-23591
4.00962e+07,75.1635,0,2.71148,4208.92,2738.21,-13783.1
4.01092e+07,64.9801,2,2.94829,4998.72,6673.02,-18088.5
4.01499e+07,31.5362,1,3.00976,-5646.48,-473.694,-25319.7
4.03487e+07,36.0863,1,2.73913,-2877.63,1971.51,-22457.2
4.03814e+07,104.907,2,2.57487,7863.41,-14168.6,-25995.3
4.04263e+07,69.1272,0,2.69673,5232.09,-4550.68,-15969.5
4.06151e+07,93.3831,1,2.73659,-9117.76,-7340.72,-13007.7
4.07039e+07,3.50991,2,2.99269,-375.925,-272.903,-28190.4
4.09599e+07,90.4265,1,2.78626,2798.95,-12685.4,-14992
4.10232e+07,10.1683,2,2.40935,-1006.2,-1192.33,-27236.8
4.11295e+07,27.1179,2,3.01063,3872.77,1285.86,-26329.5
4.13079e+07,3.0459,0,2.57649,515.634,348.201,-28455.5
4.16477e+07,13.7696,2,2.52652,-186.889,-2703.62,-27531.1
4.20511e+07,75.0445,0,2.85353,-1612.1,646.238,-24934.2
4.27358e+07,22.723,0,2.96611,1300.65,4543.69,-27884.7
4.27614e+07,125.044,2,3.01222,584.084,14520.5,-7092.59
4.29899e+07,96.4859,1,2.74868,-17446,1813.93,-18847.9
4.29901e+07,45.454,2,2.81138,2281.25,-5884.67,-21573.5
4.34177e+07,173.131,0,2.49235,14335.9,27564.8,-9387.9
4.3638e+07,72.6818,1,2.61266,-7113.88,-9193.56,-18827.8
4.36913e+07,13.4275,0,2.5871,2800.06,-828.624,-28395.1
4.39169e+07,153.477,1,2.47333,-29260.2,6798.08,-16352.5
4.40275e+07,17.4981,2,2.90973,3342.85,-823.887,-27513.1
4.40566e+07,242.837,2,3.03497,-22065.6,-29920.9,-4358.24
4.43237e+07,132.373,1,2.63036,-27093.1,-6903.91,-28609.5
4.4906e+07,109.14,1,2.78726,5355.11,-20343.5,-19825.6
4.55022e+07,37.4002,2,2.50792,4149.79,-6515.44,-26867.4
4.55564e+07,261.727,1,2.86588,28766.8,-21549.4,12718.5
4.55681e+07,21.9126,0,2.64373,3723.42,1373.74,-26289.2
4.56075e+07,101.895,0,2.82254,15900.8,-14406.9,-27645.5
4.57306e+07,122.211,0,2.80041,15643.8,5478.06,-9112.18
4.57389e+07,65.1129,0,2.91812,-9410.3,5072.28,-20440.6
4.60088e+07,170.073,1,2.60985,16056.7,22478.5,-5877.24
4.60452e+07,119.346,0,2.73142,11625.6,-2341.46,-10891.1
4.60604e+07,7.5887,1,2.60823,487.472,-1159.58,-27917.3
4.61074e+07,157.216,0,2.52216,21324,7867.68,-4519.35
4.62678e+07,60.411,2,2.48371,-3788,-10963,-23244.7
4.63147e+07,66.0582,2,2.92483,-13360,1451.68,-25234.8
4.64861e+07,117.559,2,2.87251,3932.03,-7602.07,-14432.8
4.75105e+07,75.2759,1,2.80751,1318.07,10250.5,-16756.7
4.75621e+07,122.591,1,3.01815,-4391.03,17749.2,-12055.3
4.75722e+07,11.2744,0,3.03756,-619.69,2185.02,-28125.3
4.77794e+07,23.105,2,2.74193,-2074.28,-1950.12,-24822.3
4.79889e+07,16.6467,0,2.5851,53.3491,1771.05,-25801.6
4.80318e+07,1.70211,1,2.85869,-228.383,286.496,-29108.8
4.81497e+07,84.9568,0,2.62547,6702.1,15068.7,-21756
4.85783e+07,305.548,0,2.58251,6730.32,-8630.15,851.413
4.85796e+07,73.9379,2,2.7927,-2598.07,-9065.7,-16384.2
4.87482e+07,27.5775,2,2.84197,222.443,-5237.57,-26189.8
4.88163e+07,189.823,0,2.75406,-22205.7,13430,1512.74
4.88364e+07,123.49,0,3.03048,6618.49,-12530.6,-7161.71
4.90332e+07,50.8293,0,2.51748,10183.9,1922.4,-25704.2
4.93203e+07,21.4115,0,2.55469,-2026.79,-2817.95,-25980.3
4.95326e+07,5.28819,1,2.49755,240.089,368.822,-27766.9
4.95362e+07,71.5743,2,2.7641,-13134.3,3185.65,-22091.3
4.98445e+07,49.9109,2,3.03697,-8762.35,336.735,-23028.3
4.98484e+07,145.751,0,2.4732,25211.6,-17800.2,-27471.2
4.99043e+07,35.4427,1,2.38812,1250.04,4053.04,-22585.5
4.99724e+07,29.7946,2,3.04131,-2843.34,1765.97,-25083.7
5.00216e+07,112.363,0,2.83761,5926,16607.6,-13101.9
5.03446e+07,85.9932,1,2.36563,-10780.5,13510.3,-22881.3
5.0579e+07,9.01325,2,3.05412,1786.85,-574.955,-28747.7
5.05918e+07,176.414,1,2.6884,15898,-21029,-2703.55
5.10914e+07,169.41,1,2.73746,16882.5,-17371.2,-26944.6
5.12373e+07,53.2873,2,2.7516,-3061.66,-5007.45,-19215.7
5.12456e+07,58.0625,0,2.7302,-4914.81,8703.01,-21810.6
5.16787e+07,49.8853,0,2.71516,8563.23,-6175.55,-29409.7
5.18867e+07,86.6668,1,2.66503,16400.7,8100.88,-29648.5
5.22158e+07,26.4322,0,2.90334,-3425.46,1799.87,-24908
5.22726e+07,35.3035,0,2.47291,4009.59,-3478.1,-23487
5.24972e+07,4.52878,1,2.90125,155.328,-341.294,-27987.4
5.30531e+07,151.468,0,2.39292,14753.6,-21663.9,-10290.6
5.3082e+07,28.1075,2,2.93199,5305.22,2193.12,-27604.5
5.32547e+07,55.8266,2,2.38085,7468.79,3773.49,-20538.3
5.33424e+07,8.04752,0,2.95658,443.399,-640.966,-27285.6
5.34689e+07,152.898,2,2.45606,-26266.8,-17055.8,-20496
5.36721e+07,43.6863,1,2.38031,1632.79,5385.73,-21431.3
5.40246e+07,30.4079,0,2.80831,4730.48,-2652.94,-25312
5.45532e+07,25.9332,1,2.86787,2589.48,-2667.66,-24923.7
5.45752e+07,115.823,2,3.03119,-1267.34,-11596.6,-21758.2
5.46629e+07,6.43064,0,2.89977,807.961,-353.799,-29106.7
5.46659e+07,13.077,0,2.72451,-2565.98,-769.635,-28430.2
5.49845e+07,109.82,0,2.53658,-635.381,-14126.2,-10427.3
5.50788e+07,241.68,1,2.95116,-2580.75,-11211.1,20000.8
5.52739e+07,50.0578,2,2.97378,-7721.07,-3513.72,-22560.8
5.53752e+07,21.4236,1,2.66853,-2324.39,3949.88,-29139.5
5.5623e+07,79.0085,2,2.5876,-848.463,-14108.4,-19807.8
5.5645e+07,196.824,2,2.63597,16763,-2470.76,9083.03
5.58176e+07,5.69261,2,2.90194,572.431,103.645,-27822.5
5.59348e+07,81.2351,0,2.51276,3126.89,4422.93,-12506.8
5.62405e+07,27.4204,0,2.59771,1978.94,-5481.23,-28968.8
5.6293e+07,1.98944,0,2.37107,429.349,149.65,-28630.9
5.63405e+07,17.4531,1,2.72063,3172.6,1757.23,-28097.8
5.68105e+07,2.50437,0,2.96003,-127.782,-266.366,-28389.9
5.68313e+07,196.72,0,2.86048,28072.9,18639.9,-4774.31
5.6996e+07,137.873,2,2.57715,25168.4,-3422.62,-14640.4
5.7322e+07,24.5399,1,2.74843,-4971.72,992.59,-27589.6
5.77653e+07,5.02103,1,2.93717,-737.735,815.837,-29226
5.77663e+07,13.9866,0,2.7346,136.863,-1491.52,-26272.8
5.80702e+07,94.7435,2,2.97839,-17691.5,-7683.01,-23724.4
5.82001e+07,193.473,1,2.69929,15463.1,23147.3,974.957
5.87842e+07,133.33,0,2.85247,24248.9,3671.95,-21865.6
5.87904e+07,120.835,1,2.67844,7658.42,8611.12,-6087.07
5.907e+07,42.1322,1,2.69882,-7568.62,2392.14,-24702.1
5.91072e+07,9.48394,1,2.85489,1076.71,1693.14,-29196.7
5.91605e+07,130.966,0,2.59897,-17733.6,15105,-13987.9
5.92302e+07,43.989,0,2.85988,348.749,8914.86,-26347.6
5.95655e+07,29.6878,1,3.00712,-3802.73,-3109.73,-24980.6
5.98606e+07,134.944,2,2.69616,-21190.9,-19094.8,-29646.6
5.99462e+07,50.9897,1,2.66624,-3437.61,10206.5,-27402.9
5.99476e+07,41.1791,1,2.47692,2525.34,7637.42,-25459.4
6.00556e+07,61.364,1,2.96957,-9741.2,7424.42,-24619.8
6.01012e+07,34.2535,2,2.90863,-5977.93,2669.73,-25798.8
6.02133e+07,29.0199,1,2.8163,3209.11,5190.22,-29816.5
6.02361e+07,78.6383,0,2.73824,-14491.7,7011.55,-25149
6.04954e+07,28.6411,0,2.52848,3547.36,-3426.94,-25200
6.05365e+07,163.617,2,2.68211,-1822.64,-5902.52,5110.39
6.0959e+07,143.736,0,2.39982,23185.1,-9256.2,-11355.6
6.09699e+07,133.812,2,2.86178,-10093.8,-25039.1,-20667.9
6.10772e+07,59.8769,1,2.86223,-4236.83,9443.82,-22890.3
6.13463e+07,18.826,1,2.8772,-2043.96,2715.83,-26643.3
6.14414e+07,167.228,1,2.62163,12393.8,26895.2,-19593.4
6.17605e+07,27.6065,0,2.93521,-2431.48,-5188.18,-29620.4
6.17626e+07,69.2716,1,2.91934,2680.76,5951.73,-15824.8
6.20445e+07,79.097,0,2.85744,11540.4,-5447.34,-18068.8
6.20542e+07,11.9343,0,2.81629,1629.76,717.531,-26995.4
6.22422e+07,2.27799,1,2.98309,43.8904,-19.8258,-28358.4
6.24062e+07,124.131,1,2.80652,4231.75,-14260,-7411.2
6.24561e+07,111.564,0,2.80532,22473.9,1498.7,-21909.9
6.24693e+07,96.2366,1,2.45242,2557.39,8804.55,-10634.7
6.24981e+07,48.1063,0,2.43814,9827.14,2918.17,-29564.5
6.27184e+07,98.8229,1,2.93374,-3728.38,-13513.9,-13588.4
6.28208e+07,65.1681,1,2.74268,-5779.93,8261.81,-19419.2
6.28945e+07,39.0622,2,2.72183,-4684.1,-4123.37,-23374.5
6.29091e+07,144.026,1,2.4497,12500.7,-24329.5,-15611.2
6.29984e+07,48.4069,0,2.97029,8482.71,-409.557,-23111.4
6.33844e+07,90.53,2,2.78222,1083.57,15730,-18211
6.35387e+07,54.3171,2,2.79896,-498.038,-3634.34,-17983.3
6.35741e+07,118.748,0,2.82675,13539.6,13746.3,-12883.5
6.38087e+07,70.9539,1,2.36561,4483.15,-6362.77,-16032.2
6.38156e+07,130.845,1,2.55383,-23698.2,6720.85,-16119.7
6.38662e+07,4.01699,2,2.42837,-167.174,-339.093,-28013.4
6.40382e+07,71.8902,2,2.56976,325.976,9131.57,-16735.9
6.41002e+07,131.27,1,2.94808,5673.84,-12272.4,-4874.21
6.4202e+07,82.2602,1,2.36812,-14391.7,9897.85,-27575.4
6.42915e+07,45.9423,2,2.7271,1061.97,-1399.32,-29907.8
6.44497e+07,58.1596,1,2.98446,-9982.8,-5408.23,-24291.1
6.4924e+07,20.7945,1,2.48432,1705.19,3974.08,-27735.1
6.49973e+07,117.827,1,2.44163,-3916.61,-12793,-7825.33
6.52444e+07,38.0304,2,2.45902,-8109.41,-316.835,-28801
6.52507e+07,54.2877,0,3.03582,8352.41,-1493.38,-21160.1
6.53242e+07,15.6351,1,2.45584,2451.04,1664.34,-27304
6.54904e+07,121.036,0,2.46754,2102.36,-12369.7,-6505.51
6.56952e+07,34.7553,0,2.48811,2727.46,3634.63,-24244.8
6.57576e+07,23.3405,1,2.37664,1749.45,-961.797,-24327.8
6.57879e+07,141.818,0,2.82861,-16338.8,24364.9,-23706.3
6.59878e+07,55.5928,2,2.89112,-2957.87,-3326.3,-17998.5
6.61694e+07,232.601,0,2.84886,-17406.2,25597.9,8934.14
6.6204e+07,70.8995,1,2.91208,7199.19,-7414.57,-28718.6
6.62414e+07,16.4769,1,2.66175,-3095.04,1292.87,-29997.4
6.6874e+07,123.354,1,2.47906,5696.23,9780.87,-5300.6
6.68813e+07,29.738,1,2.85424,2104.9,-308.227,-23104.3
6.70164e+07,129.145,1,2.93273,-8448.97,-17691.9,-10311.1
6.7103e+07,105.988,2,2.64138,-15720,-663.186,-12866.1
6.71811e+07,39.597,0,2.83811,-627.518,2754.89,-20983.7
6.72974e+07,76.0093,0,2.53855,15449.1,4606.51,-29711
6.75743e+07,121.286,1,2.89756,6720.24,-1297.73,-29051.3
6.75921e+07,137.162,2,2.75913,19792.5,-21064.1,-28569.5
6.7692e+07,31.055,0,2.75164,1567.42,-220.378,-22448
6.7817e+07,53.5319,2,3.0471,-5528.01,-9882.49,-28999.7
6.83028e+07,65.2558,0,2.83657,7058.72,-9202.32,-21431
6.85142e+07,8.91635,2,3.0588,769.458,-106.508,-27118.7
6.86279e+07,2.92476,0,2.82606,-177.908,287.241,-28355.3
0,2.79688,0,2.69015,0,0,0
6.88439e+07,48.008,2,2.41567,933.706,-9782.6,-25978.6
6.89311e+07,20.9466,2,3.02614,-1522.01,-4232.33,-28913.1
6.90029e+07,27.3426,0,2.64978,5668.46,-1086.23,-27740.2
6.90703e+07,21.0492,1,2.62396,-3529.43,2331.94,-27178.5
6.91626e+07,17.1137,0,2.92478,942.79,215.352,-25328.3
0,17.0621,0,2.56222,0,0,0
6.93197e+07,28.9451,2,2.63383,5877.88,1489.88,-28696.6
6.97095e+07,12.8506,2,2.7216,1900.46,-1503.29,-27559.9
6.97294e+07,62.2178,0,2.69046,4423.36,-8801.42,-20119.5
6.97433e+07,123.081,0,2.72991,-2271.55,21434.5,-14394
7.02711e+07,66.5158,2,2.69636,-1449.56,-5668.31,-16052.6
7.04072e+07,172.69,0,2.90755,-8118.98,9261.7,-12041.8
7.05067e+07,4.41418,2,2.9413,327.566,535.596,-28190.6
7.06863e+07,91.9286,0,2.46768,2759.16,18914.6,-25036.8
7.07424e+07,21.216,0,2.79908,-1196.38,-4152.91,-27671.9
7.07896e+07,131.758,1,2.88449,7181.1,5053.5,-28190.5
7.09085e+07,18.4381,0,2.37699,2951.61,-1922.77,-26990.5
7.09703e+07,112.256,1,2.80502,-16001.8,14266.9,-18730.7
7.10867e+07,5.79103,1,2.64233,-800.516,221.532,-27871.7
7.17431e+07,78.6153,0,2.48675,8634.91,-6462.03,-16104.9
7.22422e+07,118.8,2,2.90082,-15899,-961.309,-9625.59
7.22579e+07,4.44137,2,2.4319,-492.24,-640.464,-28196.4
7.23639e+07,42.5787,2,2.53779,-287.424,8653.88,-26553.7
7.23675e+07,18.4376,2,2.9074,3394.65,-467.524,-27021.2
7.26403e+07,89.6233,1,2.98966,13235,8011.24,-18140.7
7.27531e+07,71.8151,2,2.85579,7197.07,3116.87,-15967.3
7.2936e+07,152.43,2,2.80439,10853.2,-17567.7,-4281.84
7.29383e+07,132.982,2,2.8716,-17730.4,-20772.4,-22497.9
7.33953e+07,41.9064,1,2.42713,7863.85,-133.989,-24800.4
7.35609e+07,43.9165,0,2.85325,-1445,8171.34,-24763.2
7.36594e+07,159.065,2,2.45487,-10539.2,-515.673,3136.82
7.38258e+07,112.577,0,2.67097,-1312.98,-21779.3,-19468.1
7.3951e+07,31.3181,0,2.7516,-3192.1,3238.63,-24082
7.42711e+07,114.209,2,2.65312,14081.8,11567.3,-13140.3
7.45341e+07,126.905,1,2.812,2822.97,-22708.2,-15219.1
7.51955e+07,0.341496,2,2.15251,-149.021,-95.5311,-28870.8
0,0.326202,2,3.63625,0,0,0
0,0.419664,2,2.83065,0,0,0
0,0.335249,2,2.94022,0,0,0
7.53041e+07,36.131,1,2.42791,-4035.81,4947.31,-24486.4
7.5468e+07,110.944,0,2.73659,18471.4,14459.8,-28354.6
7.60971e+07,251.771,2,2.86771,7476.14,-29189.4,14685.9
7.6104e+07,28.1985,1,3.01756,-3023.38,2492.64,-24322.3
7.67421e+07,94.4864,2,2.70217,-6606.06,16750.7,-20374.7
7.68009e+07,75.5062,0,2.61784,-11503.3,1375.95,-17950.6
7.69335e+07,21.9668,1,2.85303,-1178.97,1363.65,-24529
7.72855e+07,17.6424,0,2.95908,3595.83,-115.329,-27614.6
0,17.6329,0,2.86779,0,0,0
7.75396e+07,18.1525,2,2.47761,-2732.09,-2840.32,-28823.2
7.82039e+07,61.6434,1,2.90363,-4392.66,-8139.03,-19795.2
7.8211e+07,70.5033,2,2.42568,-13440,1054.24,-22329.9
7.82188e+07,89.6998,1,2.94258,-5950.95,3019.75,-11216.1
7.82334e+07,56.1427,1,2.63289,-4444.39,4035.95,-18572.6
7.89625e+07,55.5169,0,2.70152,6344.1,6755.89,-21614.6
7.90819e+07,23.6346,2,2.5513,-2748.97,-3654.68,-26601.6
7.92309e+07,54.6439,2,2.52811,-5742.84,-10081.7,-27725.8
7.9457e+07,51.2563,0,2.46154,6497.93,-1626.32,-20234.2
7.95446e+07,173.65,2,2.95776,-24153.6,-24751.4,-17222.3
7.97357e+07,59.0671,1,2.5837,4425.13,10095.9,-22877
7.97385e+07,7.70532,0,2.49361,-474.331,-589.097,-27382.9
7.97929e+07,122.956,1,2.74029,-767.036,15865.1,-8320.65
8.00255e+07,30.9592,1,2.43026,1917.58,3477.54,-23563.2
8.01917e+07,79.1686,0,2.92218,10748.5,-11803.9,-24050.5
8.04236e+07,225.15,0,2.52951,24318.1,21586.1,5877.84
8.06441e+07,12.1969,2,2.76446,-1449.01,-2256.58,-28838.4
8.08878e+07,15.0831,1,2.95177,-1529.25,1776.92,-26606.1
8.12059e+07,94.4328,2,2.84427,413.146,-7419.93,-10410.5
8.19576e+07,105.183,1,2.57382,6498.42,3784.99,-7906.42
8.19809e+07,69.3129,2,2.3702,5242.26,13539.5,-27220.6
8.21089e+07,162.482,2,2.93116,-11768.6,-1472.37,-20670.5
8.24724e+07,54.6681,1,2.5414,-2004.21,10381.4,-23963.3
8.25632e+07,51.9648,1,2.57375,9984.44,-808.223,-24400.1
8.30182e+07,87.2974,0,2.97014,16919.8,-4391.64,-23110.6
8.31285e+07,6.95046,2,2.74473,1070.47,-987.04,-29216.7
8.33048e+07,26.9563,2,2.91034,-5303.15,-80.4478,-26671.3
8.3399e+07,17.9956,1,2.50447,2520.14,2773.47,-29793.4
8.37711e+07,41.7162,1,2.96268,-8082.97,1725.92,-25717.2
8.39464e+07,2.88847,1,2.66519,-418.485,458.334,-28538.4
8.44823e+07,28.0855,1,2.70774,2265.51,-451.061,-23380.8
8.46173e+07,71.4959,1,2.62215,-6445.76,13125.4,-24676.3
8.46362e+07,93.1847,0,2.54287,17246.9,-6726.9,-21826.8
8.48601e+07,131.049,1,2.36764,-15635,15315.8,-11675.8
8.48765e+07,101.873,1,2.69467,-3325.4,-14982.5,-13871.4
8.5208e+07,12.8406,0,2.92463,-2399.23,-1059.67,-28537.2
8.53334e+07,9.61908,1,2.64109,110.679,1770.29,-27723
8.54103e+07,71.2641,0,2.77976,-5755.64,-7328.38,-17095
8.55831e+07,46.1114,2,2.73458,-1162.02,-4114.34,-20068
8.57626e+07,13.8476,1,2.59394,-2861.75,996.227,-28885.4
8.60217e+07,75.073,1,2.80563,-12463,-336.378,-19049.7
8.60716e+07,19.3108,2,2.9977,1241.44,2375.41,-25853.6
8.64449e+07,68.7467,0,2.47794,-6796.13,2202.08,-16241
8.6538e+07,120.438,0,2.97529,6087.87,-4305.17,-17288.5
8.68419e+07,113.2,2,2.72654,-15988,-17807.5,-28805.1
8.68928e+07,133.685,0,2.60984,5561.85,-3553.59,-1361.73
8.75254e+07,63.4229,1,2.95786,-12485.3,4775.53,-28251
8.75433e+07,54.8611,0,2.93299,-7495.65,-1870.21,-20358.5
8.7815e+07,12.6458,0,2.6008,634.6,2130.63,-27277.3
8.79154e+07,0.410858,1,2.3967,-60.4374,183.28,-28811.1
8.83307e+07,88.8531,2,2.95318,-9706.36,-15026.5,-23236.4
8.83479e+07,36.87,0,2.58883,-6161.3,-3230.69,-25447.5
8.84546e+07,93.9829,2,2.65416,11051.4,-16535.4,-28885.3
8.84634e+07,123.081,1,2.93603,-778.979,20877.4,-13653
8.8468e+07,44.198,1,2.9607,-1805.18,-8376.3,-25366.3
8.85396e+07,7.45861,2,2.87205,-314.522,1396.68,-28332.4
8.85826e+07,95.7037,0,2.41481,7952.18,-17659.2,-22762.6
8.8733e+07,96.0664,2,2.79055,-2340.8,-3957.39,-23064.8
8.89735e+07,328.827,2,2.87531,-21330.3,4291.44,16113
8.92802e+07,7.65451,0,2.73332,5.63046,508.29,-27276.4
8.98893e+07,45.7645,0,3.02479,7836.62,1972.06,-23505.5
9.00118e+07,130.426,2,2.93774,7099.52,52.0051,-9830.59
9.01252e+07,52.3966,0,2.90574,206.745,-8453.34,-21788.3
9.06104e+07,51.5749,1,2.51137,4162.14,-7821.66,-22592.2
9.08495e+07,64.66,2,2.47711,10848.6,-8361.14,-28431.4
9.09955e+07,20.2801,2,2.37186,-1971.32,-1464.99,-25241.1
9.10005e+07,63.8104,0,2.80576,-130.05,12837.7,-24813.4
9.13011e+07,7.72402,1,2.92168,1367.15,872.055,-29212.7
9.13544e+07,37.762,2,2.76663,-4056.26,-2161.45,-22280.2
9.13773e+07,138.47,2,2.63361,15690,-3720.03,-4460.22
9.14694e+07,156.648,2,2.95854,-4303.39,2819.41,-28188.5
9.15576e+07,198.571,2,3.00108,-20710.4,-231.714,-9436.64
9.16414e+07,132.801,1,3.03666,-22572.3,15261.5,-22888.1
9.19058e+07,35.5499,2,3.05007,5348.29,-5178.79,-28116.1
9.21189e+07,33.4558,1,2.631,-1698.53,6661.05,-26861.5
9.29524e+07,1.8417,0,2.37233,505.063,28.4487,-28823.7
9.36599e+07,3.44139,1,2.5014,597.801,358.967,-28525
9.3683e+07,157.099,1,2.8294,-7602.51,-11485.7,-4796.64
9.36886e+07,66.6426,1,2.71272,6718.16,-7530.03,-19125.1
9.37156e+07,47.3573,2,2.88879,-9678.82,-2210.85,-27449.5
9.42598e+07,8.89682,0,2.83362,1826.02,-763.395,-28774
9.42714e+07,75.2092,1,2.40881,-6795.52,-2509.72,-14646.2
9.43827e+07,6.98921,1,2.96281,1280.85,706.797,-29186.9
9.4523e+07,251.019,2,2.7991,-9454.81,-4069.54,-24823.6
9.46633e+07,71.3248,2,2.38021,-7413.03,-11029.7,-21534.9
9.46815e+07,145.681,2,2.45266,11331.4,-13472.8,-3527.69
9.48713e+07,43.4316,2,2.58554,-3296.63,-2497.99,-20601
9.52279e+07,175.595,1,2.67091,29858.7,12485.3,-10847.1
9.54783e+07,35.1872,2,2.38612,-809.219,-5902.99,-24233.7
9.56167e+07,69.3107,0,2.9854,1124.88,2668.5,-29665.3
9.56807e+07,78.7227,1,2.63767,-16182.7,2316.29,-25510
9.58838e+07,8.5019,0,2.48129,110.42,1612.13,-29700.5
9.58962e+07,26.0322,2,2.87496,2550.4,-4579.84,-27028
9.60856e+07,38.0551,1,2.80735,-2568,-5448.01,-23596.9
9.61061e+07,23.16,1,2.63009,-3999.3,992.446,-26082.9
9.6374e+07,3.45946,0,2.37478,-176.302,-564.534,-28384.4
9.66359e+07,156.231,2,2.73613,11446,9384.64,512.604
9.66578e+07,158.822,1,2.54415,24660.8,-18180.6,-15297.2
9.66603e+07,89.8029,1,2.54382,-4310.27,11587,-14357.3
9.6762e+07,5.03927,1,2.84354,541.934,840.061,-29366.4
9.67914e+07,140.058,2,2.78062,24580.5,6260.04,-13862.9
9.68095e+07,139.682,0,2.40092,29145.1,1370.5,-23513.3
9.68393e+07,54.5531,2,2.60901,-6121.02,-9900.11,-28794.1
9.68852e+07,212.916,0,2.66511,23887.8,-8623.14,8239.22
9.69359e+07,94.53,1,2.96812,-16361.6,4530.04,-18526.2
9.69876e+07,55.5096,2,2.55456,8331.65,-8104.15,-26991.7
9.76155e+07,20.3611,2,2.62106,-2219.57,164.025,-25128.6
9.82429e+07,24.4106,0,2.81456,3089.97,3659.37,-26846.5
0,24.2634,1,2.49749,0,0,0
9.84187e+07,33.6414,1,2.52992,-1491.52,3718.19,-22898
9.86766e+07,26.4879,2,2.94665,199.653,-1769.82,-23538.6
9.87199e+07,79.0408,2,2.53431,-13394.4,-10039,-27256
9.88881e+07,75.9608,2,2.43589,6549.09,-12804.3,-21554.3
9.89117e+07,82.2504,2,2.75075,-2549.26,-14068.5,-18954.2
9.91108e+07,28.5184,0,2.87222,-3369.33,3499.54,-25374.8
9.93144e+07,18.0143,2,2.93578,-1610.48,-3499.8,-28596.5
9.94613e+07,61.4708,1,2.83908,3755.96,12373.6,-27395.7
9.95935e+07,15.5765,1,2.99246,-1385.93,1498.76,-26196
9.9695e+07,140.523,1,2.43683,-20372.9,1212.56,-7162.79
9.98619e+07,140.071,0,2.6424,17931.6,-22185.7,-20807.3
9.9924e+07,228.273,2,2.52995,-16311.7,15350.1,13812.8
9.99669e+07,172.712,1,2.52975,29026.7,15505,-13034.5
1.00086e+08,53.8058,1,2.50935,10583.8,817.911,-24768.3
1.00112e+08,91.5798,2,2.76801,1597.32,14566.1,-16351.9
1.00156e+08,18.6755,1,2.57746,-3221.43,-447.226,-26521.4
1.00719e+08,37.6281,2,2.87132,-3776.66,-3027.8,-22508.8
1.0076e+08,97.4696,0,2.89414,12586.9,-9263.74,-18085.3
1.00825e+08,259.883,1,2.40018,1684.83,22549.8,21307.7
1.00958e+08,150.443,1,2.71438,13042.3,15130.6,-4178.63
1.01049e+08,92.2342,2,2.39453,5780.59,-16091.6,-19276
1.01324e+08,69.981,0,2.75427,14327.8,-1252.75,-25353.2
1.01327e+08,129.942,1,2.83894,1015.66,-21835.9,-12566
1.0141e+08,25.7152,2,3.05612,-1732.02,3126.3,-24825.9
1.01414e+08,104.507,1,2.37932,16567.2,12463.3,-21094.9
1.0161e+08,2.81176,1,2.81563,-75.2349,652.627,-28605.6
1.01744e+08,39.7144,1,2.7582,-8046.66,457.904,-26408.6
1.01755e+08,83.8065,1,2.48841,-12041.6,-10309.4,-20879.1
1.01925e+08,23.8079,0,2.66897,1198.97,-4872.97,-29609.9
1.01959e+08,25.6996,0,2.65008,5532.24,-155.451,-28626.2
0,25.6779,0,2.61031,0,0,0
1.02023e+08,63.7139,2,2.59043,9454.98,-2008.29,-23503.6
1.02186e+08,157.687,0,2.59868,-3314.48,-21068.7,-4142.22
1.02415e+08,119.549,1,2.51905,10676.4,18783.4,-15683.2
1.02929e+08,12.0636,0,2.44286,-70.6019,-1673.78,-26885.1
1.03116e+08,23.103,0,2.89545,409.111,-4459.51,-26948.6
1.03394e+08,155.285,1,3.02353,-12727.1,13241.2,-1931.12
1.03438e+08,44.2201,0,2.71688,6837.46,2361.95,-22866.5
1.03468e+08,31.042,0,3.0015,1716.5,4642.04,-24531.8
1.03538e+08,16.6865,0,2.65487,2823.1,2274.07,-29020.3
1.03547e+08,9.18555,0,2.7475,880.896,-1696.67,-28269.8
1.03574e+08,108.626,2,2.82579,-10881.2,-15700,-16157
1.03665e+08,118.866,2,2.65673,8156.64,5497.66,-6434.6
1.03692e+08,10.1752,1,2.72039,56.7382,1525.89,-27240.8
1.0376e+08,199.174,0,2.50844,29447.5,-17300.3,-4158.59
1.03932e+08,87.9969,2,2.74212,1539.59,9563.86,-13061.8
1.04136e+08,84.9517,0,2.5889,1312.15,7412.72,-15760.7
1.04324e+08,61.2901,1,2.80868,-540.866,-7671.13,-19149.4
1.04572e+08,16.5088,1,2.71853,2165.07,2540.82,-27684.8
1.05059e+08,45.9125,1,2.78518,-9414.04,-534.814,-26507.4
1.05435e+08,132.299,2,2.97992,-17600.1,-11706.9,-17112.7
1.05481e+08,56.2915,0,2.46646,3240.61,3492.96,-17888.9
1.058e+08,19.3755,1,2.89333,3594.2,1306.13,-27414
1.05832e+08,6.80992,1,2.66236,899.129,935.239,-28111.4
1.06039e+08,15.9034,2,2.84873,-2845.28,-1139.37,-27295.4
1.06421e+08,28.252,2,2.78222,-4729.93,-1078.13,-25275
1.06841e+08,38.9721,0,2.86145,2011.04,-4163.45,-22028.9
1.06887e+08,33.3148,0,2.83046,-5397.52,3883.75,-26752.6
1.073e+08,74.6952,1,2.94822,10518,-537.892,-17238
1.07305e+08,182.648,1,2.49023,10746.4,-12865.3,5893.01
1.07433e+08,139.107,0,2.90686,13708.1,-18095.1,-10410.9
1.07491e+08,57.3547,0,2.7234,-3150.96,-1801.72,-29508.9
1.0761e+08,47.122,2,2.90634,7982.7,3478.21,-24204.8
1.0786e+08,71.5059,2,2.90065,-2592.13,-11626.2,-19581.6
1.08159e+08,78.3547,0,2.99222,10494.9,4536.49,-16947.5
1.08216e+08,97.0236,0,2.97874,-3002.05,16828.9,-17813.5
1.08583e+08,90.2959,0,2.88823,-15750.9,-7326.72,-21474
1.08615e+08,70.2266,0,2.9494,5825.14,4765.11,-16113.3
1.08624e+08,30.8421,0,2.52196,369.528,-6024.11,-26379.6
1.08683e+08,118.822,1,2.42132,4006.16,21711,-16693.9
1.08736e+08,22.5759,2,2.81002,-1840.97,2864.92,-25524.5
1.08909e+08,49.4242,2,2.96208,-4803.35,2428.31,-21113.7
1.08951e+08,59.4354,0,2.41472,5281.07,-1785.18,-17513.5
1.08954e+08,46.0558,0,3.01885,2486.82,658.477,-19489.7
1.09375e+08,3.45686,0,2.46548,579.716,447.382,-29230.8
1.09529e+08,16.5374,2,2.69088,-2861.36,125.777,-26748
1.09861e+08,18.986,1,2.51441,824.315,3291.3,-26563.9
1.09954e+08,157.801,2,2.63882,3696.66,-10082.9,2701.19
1.10154e+08,298.222,2,2.71155,-18679.9,3774.6,17707.1
1.10241e+08,124.787,0,2.51165,-9930.97,23716.7,-23061.8
1.10351e+08,72.4937,2,2.46673,7202.35,-11974.8,-22417.1
1.10404e+08,7.47336,1,2.43219,-899.405,1376.12,-28424.3
0,7.5157,1,2.83651,0,0,0
1.1063e+08,95.426,0,2.9368,9812.86,5811.75,-12330.7
1.10658e+08,81.7381,0,2.89603,8117.36,-13827.1,-22544.8
1.1101e+08,39.5623,2,2.95604,-8363.54,235.941,-28477.8
1.11074e+08,233.014,0,2.58032,-10662.4,26154.2,11472.6
1.11127e+08,6.26304,1,2.71638,-607.012,634.323,-27780.6
1.1157e+08,199.4,1,2.64011,26282.3,29347.9,-13956.7
1.11596e+08,167.58,0,2.85837,-18149.7,-29839,-24700.6
1.12207e+08,5.04296,1,2.67469,712.509,775.917,-28564
1.12906e+08,46.1304,2,2.49508,-8273.39,3777.18,-25220.2
1.12979e+08,250.195,1,2.51904,-11932.2,2080.33,-14351.9
1.13016e+08,72.9372,2,2.36799,12023.4,-6688.39,-21782
1.13125e+08,67.2583,2,2.73183,-13334.7,-5013.67,-29383.8
1.1418e+08,15.6545,0,2.49824,2706.09,415.285,-26839.1
1.14326e+08,7.10718,2,3.04623,626.813,-1266.62,-28166.4
1.14356e+08,58.3049,0,2.69877,-5303.28,-1328.05,-17883.3
1.1438e+08,31.564,2,2.94131,-199.271,2141.89,-25214.4
1.14444e+08,19.2308,0,2.47214,3708.74,-1269.19,-27447
1.14571e+08,180.101,0,2.84702,-13171.8,-6435.83,-19916
1.14917e+08,24.3165,2,3.00112,4157.06,662.83,-26046.3
1.15141e+08,106.986,0,2.5198,-10753.1,16422.9,-17633.1
1.15208e+08,40.7229,0,2.62517,325.893,6026.05,-22667.4
1.15455e+08,24.4607,0,2.63233,2328.44,2932.78,-25197.3
1.15587e+08,230.025,0,2.91472,28161.9,-21483.6,4056.66
1.15642e+08,125.753,2,2.42982,16008.2,-11485.2,-10971.2
1.16044e+08,39.074,2,2.65591,6320.46,-5283.58,-29743.6
1.16137e+08,62.2163,0,2.39628,-2097.49,-1637.99,-17881
1.16242e+08,136.384,0,2.96734,19596.7,-1093.43,-7952.03
1.16301e+08,5.84155,1,2.91089,-1095.76,478.715,-29420.1
1.16317e+08,22.3443,2,2.85919,-1989.02,525.87,-24588
1.16544e+08,32.7445,1,2.45234,-3396.89,4461.49,-24629.6
1.16863e+08,3.15982,1,2.43079,332.141,-235.181,-28351.4
1.16865e+08,14.3633,0,2.44859,-132.942,2013.93,-26531.3
1.17084e+08,84.7834,1,2.7561,-13501.2,10143.6,-22745.7
1.17196e+08,63.1076,1,2.4673,-4361.4,4727.33,-17090.3
1.17702e+08,38.2664,0,2.64994,8157.74,-292.212,-29056.6
1.1777e+08,110.262,0,2.65873,-13618.6,-1859.68,-10150.2
1.17787e+08,58.1687,1,2.63296,-5127.28,5966.03,-19335.2
1.17915e+08,67.0844,1,2.53282,3817.68,13713.1,-27859.6
1.18029e+08,108.786,1,2.5209,-13647.8,1891.47,-10361.1
1.18216e+08,177.913,2,2.41788,-9278.52,23661.2,-15387.4
1.18241e+08,8.66189,0,2.98677,1242.72,1434.72,-28841.1
1.18246e+08,197.826,0,2.69054,-26110.3,2144.42,1812.45
1.18754e+08,6.77045,0,2.38008,551.062,-778.243,-27727.8
1.18772e+08,48.3007,1,2.79773,6301.48,6753.14,-24495.4
1.18828e+08,22.878,1,2.81046,1117.59,4621.09,-27664.3
1.18902e+08,55.5758,2,2.74488,-9454.47,3465.02,-22816.4
1.19021e+08,23.6415,2,2.47016,-4629.12,1826.76,-28015.1
1.1908e+08,118.914,1,2.65938,11107.4,22571.1,-29411.8
1.19141e+08,248.48,1,3.0359,5639.98,1795.19,-1824.07
1.19193e+08,27.4433,1,2.55395,1892.46,5535.39,-28103.6
1.19601e+08,19.2689,2,2.6245,-3272.15,2044.66,-27464
1.19631e+08,137.126,2,2.8415,8967.9,5140.03,-10220.9
1.19784e+08,73.1765,2,2.37365,12550.5,-7978.51,-24396.2
1.1985e+08,24.658,1,2.40563,-557.639,4246.44,-25755.8
1.19879e+08,71.6355,1,2.62264,-3940.85,5424.28,-23839.4
1.20142e+08,10.3653,2,2.41161,-2186.21,-376.685,-29387.2
1.21245e+08,18.9996,1,2.72103,-3010.8,2300.79,-27275.5
1.21398e+08,15.5232,0,2.97921,1464.29,-2927.62,-28236.3
1.21543e+08,17.2673,1,2.80306,2791.44,1891.46,-27429.1
1.21549e+08,28.71,2,2.84495,-4145.21,574.975,-24458.6
1.21615e+08,2.24652,1,2.96961,-210.2,-233.335,-28477.3
1.21813e+08,25.8909,2,2.47046,-1441.83,-1384.63,-23698.9
1.22014e+08,155.417,1,2.69062,-14562.9,-2140.56,-5796.15
1.22248e+08,48.193,1,2.61083,31.539,2390.3,-18920.9
1.22752e+08,19.7553,2,2.84087,3024.02,-2095.13,-26885.6
1.22941e+08,14.0197,1,2.76762,-533.843,2719.92,-27571.3
1.23018e+08,129.554,0,2.86786,-12823.4,-20469.4,-16300.9
1.2324e+08,36.5181,0,2.90335,2893.72,-1000.2,-21752.4
1.23484e+08,106.212,2,2.74066,-19929.1,-3611.41,-19734.8
1.24291e+08,82.5822,2,2.57519,-1802.02,-13308.7,-17575.2
1.2438e+08,62.3692,1,2.61029,-3677.91,-5595.55,-17485.5
1.24553e+08,30.3236,1,3.06013,-4873.79,3983.36,-27391.9
1.24718e+08,43.6326,2,2.83578,7681.98,-622.537,-23892.7
1.25189e+08,95.956,0,2.66428,813.346,-1289.49,-28769.2
1.25327e+08,37.4195,2,3.03021,2437.87,5842.92,-24270
1.25346e+08,146.815,0,2.71684,27981.6,-13214.4,-26641.6
1.25786e+08,103.806,1,3.00396,18085.1,-6195.04,-18500.2
1.25904e+08,39.0164,2,2.74974,-5671.69,5791.27,-27468.6
1.25937e+08,202.903,2,2.95832,-26484.4,-22249.4,-3933.31
1.26257e+08,6.88917,1,2.91087,967.38,-4.02736,-27757.7
1.26298e+08,15.4287,0,2.9334,726.552,-2668.04,-27051.3
1.26328e+08,54.6608,2,2.78605,-10994.9,-2698.74,-26446.1
1.26424e+08,150.112,1,2.84583,-29053.9,106.733,-16476.2
1.26424e+08,113.08,0,2.91777,-4326.68,-22898.3,-24245.2
1.26443e+08,258.775,2,2.75493,-769.49,-27777.3,4829.18
1.269e+08,17.3933,2,2.51229,1151.56,-2471.37,-26272.8
1.26912e+08,120.452,1,2.57231,-14589.5,-14076.9,-13451.8
1.27132e+08,27.2136,0,2.49701,3696.1,-2953.16,-25422
1.27451e+08,26.9572,2,2.59065,-4978.47,-2753.8,-29953.1
1.27562e+08,9.4881,1,2.78232,-145.592,-1664.73,-27835
1.27902e+08,110.54,0,2.43588,-20293.7,-4378.2,-18240.7
1.27934e+08,65.2233,1,2.80849,-10695.6,8760.23,-28607.3
1.27993e+08,23.6179,0,2.61254,3525.89,-3094.86,-26995.4
1.28424e+08,123.185,2,2.53374,-16086.7,-1177.74,-8334.56
1.2849e+08,32.6247,0,2.5919,1721.65,3545.59,-23146.8
1.28577e+08,111.737,2,3.0292,-13190.1,-5237.24,-10151.5
1.28629e+08,30.0892,2,2.97063,1620.86,-6044.77,-27531.9
1.28666e+08,294.243,1,2.74118,15467.4,-28579.3,23868.3
1.28842e+08,35.4376,2,2.36963,-6808.12,3184.76,-28943
1.28907e+08,115.434,2,2.64208,-15116.6,-18311.7,-22963.1
1.2909e+08,11.5043,1,2.72902,-1175.7,-1487.25,-27360.4
1.29261e+08,16.631,1,2.67996,-1581.39,1463.44,-25985.7
1.29325e+08,144.552,1,2.43828,12764.8,20941.8,-10504.3
1.29583e+08,61.646,0,2.48675,8855.56,2238.43,-19455.8
1.29743e+08,88.0251,0,2.62242,-6722.88,-3881.79,-11990.6
1.30037e+08,258.986,1,2.86631,12035.1,11987.9,13009.7
1.31005e+08,50.7774,0,2.90442,3017.17,-986.757,-18620.3
1.31121e+08,21.6775,1,2.68742,-2603.46,1655.05,-25374.7
1.32123e+08,14.8425,2,2.4741,-701.016,-3090.92,-28218.6
1.32124e+08,68.8165,1,2.70842,4160.9,-5012.19,-15898.4
1.32248e+08,129.015,1,2.66679,7291.48,7503.12,-3690.48
1.32791e+08,64.472,1,2.41819,9861.68,2402.91,-19736.7
1.32903e+08,99.7576,1,2.78735,-15146.7,487.088,-14233.6
1.32976e+08,61.3894,0,2.9837,2186.41,-12601.1,-27065.4
1.33016e+08,9.60226,2,2.70886,704.919,-534.501,-26981.1
1.33174e+08,14.6593,2,2.62048,-1840.36,-217.079,-26287.1
1.33229e+08,84.1466,2,2.99198,7418.83,10434.6,-17435.1
1.33284e+08,131.515,2,2.64216,-607.256,-2454.96,-4787.84
1.33769e+08,111.463,2,2.59973,3958.88,12084.1,-9049.53
1.33797e+08,68.944,2,2.61553,-10623.3,9056.11,-24680.8
1.34077e+08,4.77941,2,2.97704,-660.46,-895.119,-29013.6
1.34259e+08,109.434,1,2.67993,-460.603,13029.5,-9760.19
1.34274e+08,51.716,1,2.88102,-222.143,10880.8,-27477.5
1.34402e+08,30.1956,1,2.67206,-3466.06,3608.38,-24771.8
1.3444e+08,0.603252,0,2.58311,152.744,121.055,-28752.3
0,0.608834,0,2.55614,0,0,0
1.34928e+08,84.5219,0,2.70381,4126.71,11476.6,-15820.6
1.35142e+08,102.289,0,2.54073,1241.21,13358.7,-11859.8
1.3545e+08,123.504,1,2.88114,17740.7,18006.1,-22818.7
1.35514e+08,199.331,1,2.88584,-14533.2,-24072.9,2172.24
1.35874e+08,0.144439,1,2.19854,8.24157,119.1,-28840.7
1.35883e+08,40.3171,0,2.85683,-570.708,-3249.69,-21009.4
1.35962e+08,91.3792,0,2.42425,8208.26,-13922.7,-18116.9
1.36037e+08,43.0878,1,2.79777,-1336.69,-8896.62,-28032.5
1.36049e+08,18.4061,1,2.65914,-1495.97,2895.12,-26567.6
1.36125e+08,83.169,1,2.80607,14768.2,7386.17,-22963.7
1.36297e+08,77.969,2,2.73379,11282.3,-2475.64,-17165.1
1.36459e+08,31.4297,0,2.75942,6559.57,-1333.46,-29294.6
1.36494e+08,131.093,1,3.02305,-428.451,27106.9,-28544
1.3658e+08,71.8734,0,2.70537,9496.65,11024.5,-24354.2
1.36692e+08,103.179,2,2.88625,16324.8,3851.81,-22481.3
1.36833e+08,105.127,2,2.53778,-16283.3,14909.4,-26364.2
1.37286e+08,85.0739,1,2.47007,12673.5,-430.969,-16090.7
1.37718e+08,105.96,2,2.9207,-8819.68,14513.7,-14495.8
1.37871e+08,5.35628,0,2.59186,843.965,-63.3638,-27994.3
1.37959e+08,73.5216,1,2.4087,-2398.62,9657.42,-19088
1.38131e+08,46.2875,0,3.03741,-6619.44,-2193.16,-22162.5
1.38181e+08,80.0229,0,2.63359,7400.35,10384.7,-17678.9
1.38828e+08,129.951,1,2.89243,-26020.8,5560.96,-22552.1
1.38938e+08,123.294,2,2.92863,212.127,-5704.24,-3565.3
1.39421e+08,18.7152,1,2.38128,3576.55,-281.605,-27279.5
1.39487e+08,246.643,1,2.46556,-17125.4,6511.62,3507.4
1.39835e+08,38.1994,1,2.40095,204.923,-3553.71,-21591.2
1.39946e+08,42.6321,0,2.94463,1485.23,8655.2,-26959
1.39954e+08,30.6514,0,2.39161,2651.95,4311.03,-24679.1
1.40022e+08,94.8911,1,2.49645,191.429,17513.2,-18886
1.40038e+08,114.898,0,2.7512,20352.7,2870.14,-15926.2
1.4033e+08,9.81823,0,2.53162,607.859,786.8,-26964.7
1.40378e+08,170.085,1,2.48369,-14740,-599.238,3950.13
1.40596e+08,63.6865,1,2.8077,11492.3,1790.44,-22186
1.40626e+08,0.976199,1,2.8234,66.891,61.5131,-28640.5
1.41286e+08,36.121,1,2.37592,-7650.03,-829.351,-29358.5
1.41414e+08,111.286,2,2.5602,-7106.52,-10719.2,-9087.86
1.41461e+08,26.8109,2,2.37592,-2249.1,-3777.39,-25124.5
1.41491e+08,170.934,2,2.85923,-23832.7,-6781,-2758.58
1.41579e+08,120.213,1,2.88163,-13112.2,14793.7,-13977
1.41989e+08,93.9131,0,2.39829,6621.06,7981.24,-11866.7
1.42139e+08,20.8695,0,2.96878,2383.74,-853.971,-28133.9
1.42145e+08,54.3508,1,2.6655,-7309.33,7897.97,-24595.3
1.42751e+08,91.5904,2,2.85558,-6016.77,599.946,-10551.7
1.42902e+08,20.6757,0,2.57541,-1962.95,1545.52,-25317.1
1.43033e+08,24.6364,1,2.725,-584.443,4911.9,-26988.3
1.43159e+08,124.41,1,3.01791,-15799,20638,-25805.8
1.43169e+08,79.5396,0,2.70399,4857.39,3804.39,-13223
1.43327e+08,211.691,1,2.82798,24701.3,-17690.9,3649.04
1.43397e+08,7.04817,1,2.55898,-682.592,-1186.87,-28296.5
1.43526e+08,58.9427,2,2.58821,-6467.34,-9780.83,-24425.1
1.43533e+08,23.0681,2,2.65985,-3432.53,2753.22,-26792.5
1.43685e+08,14.1641,1,2.63768,1468.59,1120.84,-26437.8
1.43716e+08,8.56024,0,2.87048,1690.08,-354.419,-28060
1.4383e+08,18.8047,0,2.52671,-2655.91,-696.257,-25998.1
1.43882e+08,69.3816,0,2.89648,-10335.1,2376.42,-18939.5
1.43987e+08,198.689,1,2.72937,-18201,12542.6,6762.11
1.43987e+08,38.3518,0,2.49746,2023.68,-924.232,-20994.3
1.44051e+08,54.4618,1,2.45786,9316.5,4936.67,-24131
1.44622e+08,157.053,1,2.77007,13866.3,15466.9,-3336.91
1.449e+08,52.6357,2,2.75271,2598.89,8405.93,-22181.9
1.45329e+08,26.2534,2,2.66565,770.79,-5306.38,-27127.1
1.45333e+08,30.7107,2,2.51465,-3314.76,4265.12,-25243.3
1.45357e+08,75.8821,2,2.4141,57.7302,7479.74,-14692.2
1.45372e+08,153.102,1,2.6692,22118.9,-15496.2,-11224.3
1.45429e+08,102.88,2,2.88269,-9837.28,14355,-16037.8
1.45479e+08,27.503,1,2.51902,-4102.43,3157.63,-26004.8
1.45848e+08,193.085,0,3.05953,-4885.24,24292.8,-13331.3
1.45866e+08,67.7336,1,2.54364,-1868.83,14038.3,-26267.5
1.46941e+08,221.829,1,2.88813,-25277.4,-707.727,-26888.5
1.46988e+08,18.6949,2,3.0051,3630.65,1059.51,-27988.4
1.47279e+08,30.23,2,2.78992,-2755.71,425.413,-23099.3
1.47284e+08,10.0509,2,2.66648,-1237.62,-1733.96,-29526
1.47692e+08,36.2036,2,2.71145,-4917.76,2907.59,-23769.4
1.47724e+08,71.745,2,3.05539,-9835.2,7806.56,-20599
1.47769e+08,9.10568,0,2.59581,-950.96,843.145,-27442
1.47828e+08,14.0533,2,2.69908,-2161.34,1034.02,-27058.9
1.47928e+08,18.3107,1,2.43427,2332.63,-2212.35,-26745.7
1.47978e+08,107.566,1,3.00521,-10003,6839.99,-9790.34
1.4832e+08,111.59,0,2.80651,6432.52,10472.6,-8966.86
1.4836e+08,66.1562,2,3.00953,-11656,-4102.43,-22369.3
1.48628e+08,71.4583,2,2.47854,-2514.95,-3836.58,-14402.1
1.48644e+08,125.123,2,2.57327,-8062.81,-11482.4,-6361.21
1.48712e+08,146.552,0,2.87081,19333.5,20542.7,-16330.9
1.4883e+08,55.9837,1,2.38481,5274.3,10326.2,-26131.8
1.48924e+08,205.755,1,2.56808,-5560.65,4194.92,11671.9
1.49173e+08,21.3111,0,2.71206,594.272,459.235,-28191.9
1.49331e+08,20.4797,0,2.94009,2755.55,-116.181,-25460.5
1.49981e+08,92.4254,0,2.51318,9257.69,-530.053,-11574.1
1.50049e+08,162.338,0,2.88454,14681,6905.74,1208.87
1.50057e+08,43.8221,2,2.69027,-6315.71,847.931,-22095.9
1.50201e+08,129.795,1,2.82881,-3279.67,-15647,-6732.59
1.50216e+08,64.6428,0,2.42039,-1069.2,-7165.01,-28266.1
1.50388e+08,97.2904,0,2.59298,18017.2,9892.93,-26947.9
1.5044e+08,67.9219,0,2.68227,9396.4,-3350.77,-18464.8
1.5062e+08,124.235,2,2.92436,-16214.8,-13157.4,-13142.4
1.50658e+08,222.977,2,2.69542,13140.4,-23996.8,9415.93
1.50955e+08,85.4688,1,2.63655,-1980.41,5609.67,-11776
1.51036e+08,142.873,0,2.54161,3602.46,10406.1,-692.751
1.51064e+08,11.6202,0,2.94378,-767.207,-1371.62,-26961.4
1.51101e+08,72.4443,0,2.85763,437.875,-14233.7,-23384.2
1.51266e+08,138.306,0,2.71803,-16696.1,-1190.96,-5049.41
1.51416e+08,80.6283,0,2.6274,-12642.9,1651.42,-17649.1
1.51501e+08,85.2446,1,2.79801,598.914,12883.8,-16281.5
1.5198e+08,12.5913,2,2.78754,1504.79,-1156.01,-26930.9
1.52018e+08,0.614907,0,2.59718,-20.4445,19.1242,-28715.5
1.5254e+08,35.6986,2,2.41329,-1552,2435.34,-21876.4
1.52688e+08,1.42401,2,2.53179,-212.212,128.095,-28670.5
1.52718e+08,40.0692,1,2.36773,7497.34,-2621.47,-26042.1
1.52803e+08,158.91,2,2.98709,25312.6,13415.7,-11913.2
1.52925e+08,137.889,1,2.90448,11158.9,13728.1,-5893.22
1.53061e+08,29.943,0,2.91855,-2538.1,-5397.9,-28271.7
1.5325e+08,250.222,1,2.71321,11788.9,28561.8,13593.2
1.5326e+08,77.1494,1,2.47652,1375.86,10186,-16105.7
1.53606e+08,32.914,1,2.53552,-6934.23,1044.55,-28282.6
1.53911e+08,150.788,1,2.70683,-689.604,22042.1,-5859.49
1.54195e+08,55.119,2,2.85303,-6951.26,9228.92,-29363.8
1.54238e+08,83.7876,0,2.74784,11143,9391.55,-18769.4
1.54473e+08,109.531,1,2.81002,3826.26,21438,-21131.5
1.54613e+08,53.9777,0,2.7565,3529.13,10408.3,-25824.5
1.55041e+08,131.934,0,2.58761,19510.5,-19914.9,-26987.3
1.55387e+08,85.4421,0,2.55143,-16675.2,-2716.52,-27597.7
1.55517e+08,191.616,2,2.47961,21067.9,-28254.5,-8749.47
1.55801e+08,89.936,0,2.75594,11659.1,-1904.73,-13947.7
1.55857e+08,29.797,0,2.75135,-1147.41,-3331.06,-23626.8
0,29.9901,0,3.02636,0,0,0
1.5596e+08,79.5056,0,2.45923,8483.91,10261.5,-18461.3
1.5683e+08,63.6391,2,2.43242,-6226.78,11450.4,-25623.9
1.56989e+08,2.14408,1,2.95226,16.9942,426.131,-28533.1
0,2.12763,1,2.91049,0,0,0
1.5703e+08,117.407,0,2.67537,-19863.3,6163.64,-15503.7
1.57115e+08,97.6034,2,2.76578,-15043.1,-14162.9,-29003.3
1.57238e+08,35.7512,2,2.73399,-2872.03,-6268.88,-25557.7
1.57347e+08,7.37018,1,2.45866,-1639.94,28.4774,-28740
1.57794e+08,86.4318,1,2.37464,-9817,-15395.1,-29631.4
1.57822e+08,203.62,0,2.69147,15329.8,16880.5,7563.71
1.57931e+08,76.8472,1,2.96177,-7962.74,4626.43,-15539
1.58054e+08,78.3033,2,3.0558,10338.3,5172.27,-17242.5
1.58358e+08,27.0824,0,2.84943,-843.309,2976.47,-24037
1.58525e+08,64.2901,2,2.93262,7030.26,-8104.61,-20637
1.58555e+08,20.3987,0,2.70176,2173.51,-2630,-26129
1.58567e+08,19.0648,2,2.90055,2886.3,-2184.95,-27119.7
1.58735e+08,86.7435,0,2.46308,-2880.69,-5472.57,-11560.4
1.59686e+08,127.497,1,2.59976,11545.4,7507.18,-5673.14
1.59855e+08,10.7124,2,2.9202,-898.835,-1465.08,-27269.1
1.60081e+08,243.89,1,2.85485,5483.46,-3174.84,-15735.6
1.60156e+08,20.7423,0,2.75761,1572.41,3912.14,-27542.5
1.6028e+08,85.9767,2,2.50259,-12260.6,-7804.37,-17830.7
1.60549e+08,35.2711,1,2.8394,-4783.82,2475.59,-23653.1
1.60939e+08,5.17853,0,2.7729,706.296,230.558,-27946.8
1.60973e+08,169.83,0,2.65287,-14482.6,-16113.6,-14467
1.61212e+08,91.5592,1,3.04364,-355.817,-914.097,-14237.9
1.61754e+08,46.4839,1,2.69047,-7126.1,6686.23,-27245.3
1.61823e+08,95.3029,0,2.9791,1568.34,-11311,-12412.2
1.62082e+08,20.83,1,3.03994,-2115.47,-908.465,-25127
1.62225e+08,78.5668,0,2.36422,-6273.46,6098.02,-28422.6
1.62424e+08,12.8142,2,2.92511,1120.95,-2456.18,-28182.1
1.62808e+08,72.2216,2,2.62647,-10309.6,10118,-23955
1.62867e+08,111.903,1,2.74268,-20686,7886.68,-20551.4
1.62999e+08,80.4399,2,2.66392,-5154.55,-459.198,-12686.6
1.63112e+08,29.9381,0,2.56603,5341.23,2576.82,-26375
1.63215e+08,29.1134,1,2.97953,-4925.5,2044.39,-25746.6
1.63534e+08,13.138,2,3.05758,-2764.28,-557.65,-29138.9
1.63675e+08,48.1757,1,2.59227,-2609.91,8649.82,-23949.7
1.64049e+08,92.5168,2,2.83223,-13747.4,-10126.8,-19394.7
1.64311e+08,62.6387,1,2.85692,3314.01,8963.72,-19695.3
1.64404e+08,20.1111,0,2.45294,1971.38,-705.472,-25084.1
1.64412e+08,60.5854,1,2.45811,14.905,2454.57,-29129.9
1.64507e+08,111.859,1,2.47468,7055.84,-6594.14,-7253.91
1.646e+08,69.2959,0,2.69499,-5850.5,-4558.53,-16292.7
1.64944e+08,154.356,2,2.66643,27996.5,-3740.88,-12664.4
1.64985e+08,62.1358,1,2.62831,10405,-1837.34,-21085
1.64986e+08,17.3895,2,2.51195,546.539,-2090.66,-25826.2
1.65157e+08,73.175,0,2.56326,10916.5,4608.08,-18773.7
1.65171e+08,14.7006,2,3.04118,-2471.49,1844.6,-28747.2
1.65477e+08,22.3851,0,2.42378,-3080.52,513.093,-25366.3
1.65656e+08,34.9163,1,2.84786,-7007.99,-301.075,-26490.8
0,34.9034,1,2.851,0,0,0
1.65668e+08,34.0946,0,2.71434,-5502.07,4138.13,-26878.6
1.66213e+08,14.7848,1,2.4857,2591.19,1161.77,-27466.1
1.66264e+08,72.7337,0,2.48851,-7158.67,9832.5,-19438.8
1.666e+08,89.2897,1,2.94074,-17761.2,-3426.05,-23802.5
1.66895e+08,100.857,1,2.78758,-13769,-15093.8,-23116.6
1.67893e+08,14.4755,0,2.46038,1984.56,-719.168,-26539.3
1.6815e+08,67.4438,1,2.7156,5217.54,4698.65,-16446.4
1.68268e+08,25.4557,0,2.37825,-1262.11,2407.32,-24175.6
1.68515e+08,29.5024,0,2.51118,2802.44,1539.16,-23441.1
1.68575e+08,18.1134,2,2.88388,1696.36,699.991,-25506.3
1.68946e+08,42.3447,1,2.60297,3154.88,3310.95,-21107.7
1.68961e+08,291.014,1,2.88975,6974.45,2822.38,-11104.3
1.68994e+08,181.939,0,2.57299,1968.11,27889.8,-29353.7
1.69686e+08,17.1855,0,2.53114,-363.464,2947.42,-26692.4
1.69899e+08,103.442,1,2.95052,-20197.3,5708.43,-23062.1
1.70779e+08,116.283,0,2.93236,-16965.7,-10961.1,-15213.8
1.7099e+08,19.285,1,2.73849,2795.91,1000.25,-26048.7
1.71097e+08,13.0749,2,2.61966,-803.298,-73.4829,-26189.3
1.71285e+08,107.263,1,2.588,14655.2,6050.1,-12671.9
1.71443e+08,80.9804,0,2.50041,-400.576,1495.11,-27153.8
1.71862e+08,37.8307,0,2.63671,7657.9,-2080.13,-27256
1.72356e+08,17.0407,0,2.42816,2050.12,-1114.24,-26016.4
1.72537e+08,111.738,2,2.4855,11468.8,-7744.97,-17669.7
1.72598e+08,15.3745,0,2.54212,-1251.51,-1308.68,-26158.7
1.73204e+08,132.11,2,2.38163,-20144.9,18937.6,-24787
1.73753e+08,57.1229,1,2.41714,-3278.78,10257.5,-23153.8
1.73928e+08,165.222,1,2.67616,11099.2,22304.3,-4412.44
1.74068e+08,116.67,0,2.40563,16878.7,-17966.1,-26666
1.74239e+08,28.1051,0,2.80744,5569.8,-2188.16,-28187.4
1.74307e+08,169.198,2,2.66726,-10920.1,27506.8,-8996.15
1.7445e+08,29.1826,0,3.05671,1027.3,5325.15,-25965.4
1.74774e+08,6.20275,0,2.60521,218.393,-1157.32,-29470.3
1.74802e+08,71.0821,1,2.66607,-3061.02,7027.06,-15892.4
1.74847e+08,72.8335,1,2.5978,4427.52,12878.4,-21568.8
1.74972e+08,69.7332,1,2.56228,12015.7,8317.51,-26788.9
1.7512e+08,119.385,1,2.77989,-13626.2,9738.64,-10020.1
1.75759e+08,6.00692,1,3.03486,496.087,-237.979,-27699.7
1.75819e+08,34.1432,2,2.83413,-2228.67,-3220.12,-22751
1.75848e+08,41.3635,2,2.99573,-5212.17,-1405.09,-21981.3
1.7598e+08,136.062,1,2.96523,-6132.1,27049.5,-21750.9
1.76269e+08,52.7774,0,3.04909,-3905.8,5333.66,-19986.7
1.76459e+08,94.0352,2,2.79273,-16323.8,-11365,-28854.1
1.76555e+08,87.6929,0,3.05296,6602.63,-15520.5,-21432.8
1.76605e+08,42.5494,0,2.95583,2202.53,8346.49,-26378.1
1.76692e+08,54.3706,1,3.05459,-5828.76,-3850.7,-19813.5
1.76793e+08,13.0932,2,2.92521,1642.95,-2233.71,-28353.2
1.76808e+08,10.9202,1,2.64699,-1002.95,2104.29,-29416.3
1.76837e+08,153.062,2,2.59128,-20567.4,-15439.6,-9123.67
1.7699e+08,50.3439,1,2.72372,-2601.52,1698.55,-18648.8
1.77442e+08,153.766,2,2.80325,-20780.9,-18031.3,-27668.2
1.77508e+08,39.4221,1,3.04722,-3273.88,-5159.3,-23275.9
1.7786e+08,26.3129,0,2.63244,-3144.92,-1584.58,-24558.7
1.78008e+08,2.47114,1,2.56185,-374.353,334.241,-29177.9
1.78088e+08,21.3516,0,2.84272,4359.09,-1462.33,-28710.6
1.78101e+08,22.7332,2,2.49777,584.29,-3775.35,-25794.3
1.78282e+08,25.8882,2,2.70877,-3598.26,-3667.44,-26736.8
1.7829e+08,76.513,0,2.42567,-2409.91,10299,-16592.5
1.78815e+08,14.2591,1,2.79012,-1012.3,2248.87,-26976.8
1.79075e+08,178.794,0,2.97116,4261.18,-2356.68,-23393.4
1.79483e+08,23.455,0,2.69405,-494.875,-4918.77,-29393.5
1.79954e+08,65.8154,2,2.5976,13019.7,-2404.9,-24599.4
1.8048e+08,89.9973,1,2.76249,-6717.23,17808,-29497.9
1.8071e+08,110.717,1,2.58792,-4241.66,19107.2,-15915.5
1.80768e+08,123.307,1,2.54372,6042.33,-14421.4,-8108.47
1.80808e+08,7.417,2,2.54713,402.786,-1601.39,-28970.8
1.80954e+08,27.1275,0,2.51687,5074.61,-1856.08,-26651.1
1.81073e+08,81.0153,2,3.00833,-5786.4,-12363.5,-18612.8
1.81162e+08,48.8197,1,2.67113,2197.11,10141.8,-29205.4
1.81265e+08,151.436,1,2.56336,18010.6,22312.7,-14576.8
1.81296e+08,43.7287,2,3.02015,-9151.56,1206.85,-29067.9
1.81438e+08,108.454,1,2.5927,4771.07,-8370.21,-8068.72
1.81469e+08,8.10453,1,2.45263,1228.11,1242.2,-28632.8
1.81538e+08,23.1297,2,2.82991,999.229,1730.13,-27804.7
1.81807e+08,43.0529,2,2.69487,-5816.49,-7110.58,-29318.1
1.81949e+08,52.5104,1,2.9586,8581.24,173.555,-21969.5
1.82108e+08,44.9314,1,2.58836,-5231.07,-2551.21,-21309.4
1.82194e+08,121.658,1,2.94832,16978.7,-12561.9,-14608.2
1.82493e+08,63.4932,1,2.75347,-8566.27,-3858.35,-19283.2
1.8269e+08,101.585,0,2.96389,8089.19,7562.02,-10596.2
1.82792e+08,0.559637,0,2.47418,171.896,129.707,-28888.7
0,0.573994,0,2.84839,0,0,0
1.82802e+08,13.9956,2,2.6691,375.5,-3008.63,-28757.3
1.83396e+08,61.3995,0,2.5979,6489.54,3325.57,-18135.1
1.83636e+08,57.7131,0,2.74883,8718.41,-831.016,-27584
1.83867e+08,74.782,1,2.97217,-5788.9,6979.51,-15971.7
1.84045e+08,100.882,0,2.73978,18127.1,-8435.97,-21391.8
1.84061e+08,151.089,2,2.43732,4902.26,-11372.4,659.515
1.84156e+08,21.7343,0,2.72889,-1150.82,-4350.26,-27980.7
1.84585e+08,2.97488,2,2.64808,376.23,-442.996,-28478.6
1.84616e+08,125.885,2,2.67208,-14697.2,-6914.83,-7778.47
1.85211e+08,104.185,2,2.86499,5329.58,-14595.2,-13340.8
1.85579e+08,9.49812,1,2.59436,-2073.78,73.8554,-28659.5
1.86269e+08,16.4812,1,2.70573,2773.61,976.462,-26991.3
1.86288e+08,83.6132,1,2.72091,-8656.12,-164.304,-21991.5
1.86384e+08,138.617,1,2.72035,-14781.3,-6076.03,-4368.03
1.86438e+08,39.7243,1,2.52059,7457.18,-2781.54,-26268.1
1.86462e+08,116.323,1,2.38834,-2108.05,21658.2,-17222
1.86589e+08,19.2322,1,3.02258,-3010.09,603.602,-26149.6
1.86736e+08,56.8817,1,2.98537,-1260.85,10877.2,-23938.7
1.86942e+08,29.1417,0,2.85559,5722.04,-1912.23,-27372.6
1.87065e+08,36.0199,2,3.01182,1717.64,3487.3,-22377.2
1.87243e+08,58.6726,1,2.48451,-2830.55,245.818,-16771.8
1.8728e+08,198.997,0,2.57928,17251,-3099.46,9276
1.87331e+08,137.962,2,2.81501,8750.33,-15229.9,-7234.14
1.87534e+08,126.845,2,2.45094,21324.9,8864.55,-15257.1
1.87635e+08,46.6244,2,2.47702,-6038.32,-7877.14,-29662.9
1.87684e+08,83.631,2,2.76072,-4810.3,16695.8,-26308.4
1.87963e+08,43.5238,0,2.87475,3819,8380.12,-28507.1
1.88167e+08,37.6101,0,2.9902,3109.08,96.6604,-21539.5
1.88442e+08,81.0419,0,2.59023,8343.72,-6771.42,-15438.4
1.88579e+08,244.609,1,2.50064,12770.1,17128.3,-6586.46
1.88762e+08,56.3451,1,2.57197,-3230.92,-3781.07,-18009.5
1.89414e+08,30.5187,1,2.93195,-6277.06,1398.87,-28141
1.8947e+08,40.967,0,3.04553,5363.69,1067.43,-22151.7
1.89489e+08,2.15982,2,3.00901,-80.685,-518.537,-28653.5
1.8975e+08,202.479,1,2.3642,-29448.8,1623.93,2308.2
1.89856e+08,30.6131,0,2.42312,2794,1558.15,-23160.4
1.90144e+08,9.45988,2,2.85659,-799.014,-655.932,-27098
1.90345e+08,30.6217,0,2.67334,1744.76,1198.88,-22702.6
1.9039e+08,123.618,2,2.72103,-16298.6,12622.5,-12905.8
1.90727e+08,116.898,2,3.05497,-2560.48,-11815.4,-7503.2
1.90994e+08,32.5419,1,2.51816,-3171.22,3461.71,-23738.8
1.91066e+08,63.7261,1,3.05811,-4417.75,-3969.86,-19827.4
1.91082e+08,17.288,2,2.94535,-1716.92,2297.65,-26606.6
1.91152e+08,4.27976,0,2.69396,803.303,439.54,-28443.6
0,4.57147,1,2.45996,0,0,0
1.9116e+08,34.4203,1,3.02873,-3188.92,6591.29,-29063.3
1.91323e+08,80.4416,1,2.62262,-16863.3,-2286.02,-28343.7
1.9143e+08,50.5847,1,2.99189,-2955.87,1554.99,-26746.4
1.9155e+08,222.752,1,2.96064,-8499.59,13044.2,15249.5
1.91672e+08,32.6758,2,2.95336,-3976.27,5378.64,-27310.2
1.92088e+08,61.5535,2,2.4679,-817.529,5809.09,-17237.9
1.92115e+08,125.166,2,2.86696,-1268.14,6912.14,-15162.7
1.92882e+08,9.73827,1,2.49657,-1309.46,1659.18,-28413.8
1.93185e+08,89.5311,2,2.98455,-220.757,-13077.2,-15274.1
1.9339e+08,20.5887,1,2.42603,363.471,3717.87,-26430
1.9366e+08,41.6536,1,2.80969,1917.01,1323.44,-20375.4
1.94298e+08,137.754,0,2.91572,656.645,-25760.9,-15681.1
1.94375e+08,171.879,1,3.0024,14068.7,-16302.9,-8188.91
1.94601e+08,13.6348,1,2.50362,264.195,2965.99,-28605.1
1.94619e+08,167.094,2,2.50251,12512.4,-7724.79,3267.67
1.94709e+08,34.8217,1,2.53581,-3361.69,-3347.58,-23228.7
1.94727e+08,37.1833,1,2.87858,-947.504,-6153.8,-24159.7
1.94848e+08,49.8295,0,3.05769,5087.13,5932.17,-22524.6
1.94879e+08,51.9635,1,2.69904,-7326.03,-3546.89,-21498.3
1.95228e+08,47.6163,2,2.75163,-7837.66,2019.64,-22870.7
1.95244e+08,200.112,0,2.93446,-9846.97,1342.3,10291.6
1.95265e+08,11.9095,2,2.86148,-494.063,2196.31,-27804.6
1.95429e+08,119.694,1,2.47428,-22769.7,-5453.46,-19136.4
1.95454e+08,11.8479,2,2.37765,1220.33,-1140.53,-26916.7
1.95695e+08,27.6597,1,2.52026,-5100.99,-479.567,-25918.3
1.95816e+08,57.2074,2,2.58084,3383.25,4917.28,-18347.7
1.95939e+08,133.446,1,2.46071,9292.75,17652.3,-8813.43
1.95994e+08,12.7941,2,2.58883,-2563.94,921.942,-29025.7
1.9619e+08,44.6705,1,2.47478,6292.94,-6116.22,-25480.1
1.96333e+08,59.7101,2,2.38936,-1374.65,-10392.3,-21623.3
1.96585e+08,85.1515,2,3.02193,-13661,2424.35,-17598.1
1.96586e+08,1.1977,2,2.76129,-207.661,-148.963,-28633.2
0,1.19558,2,2.39449,0,0,0
1.96884e+08,38.1205,1,2.89336,-6902.16,2151.63,-25216.6
1.97096e+08,27.8289,0,2.84897,-287.22,4288.93,-24832.9
1.97164e+08,162.095,1,3.00641,-20143.8,10421.1,-3466.95
1.97233e+08,55.4372,1,2.56212,-2262.22,7826.76,-20314.3
1.97283e+08,236.192,2,2.80458,-28339.1,-11116.1,10482.6
1.9756e+08,7.85415,1,2.78036,282.987,1366.58,-27833.5
1.97567e+08,146.081,1,2.41237,3204.16,-17647,-3697.13
1.981e+08,33.9348,0,2.591,-887.274,-4957.51,-23711.8
1.98115e+08,34.0783,0,2.7014,-99.6139,-3970.1,-22821.7
1.98249e+08,134.345,2,2.43536,15836.2,-15759.7,-11209.8
1.98269e+08,145.629,0,2.93287,11327.1,-6151.86,-19457.5
1.98323e+08,72.4682,2,2.4726,7632.78,10988.4,-21485.2
1.98373e+08,19.8472,0,2.79066,2887.79,-640.004,-25793.4
1.98763e+08,23.2384,0,2.42044,4236.28,-865.534,-26298.9
1.98765e+08,7.22213,1,2.78864,447.189,800.409,-27567.1
1.98867e+08,68.1681,1,2.59032,-6338.81,4980.1,-16842.5
1.98912e+08,195.148,0,2.37238,11000.6,-22340.5,4135.11
1.99093e+08,79.9638,2,2.70603,16411.7,-3016.94,-26567.6
1.99211e+08,45.1645,0,2.76217,5402.81,5766.34,-23481
1.99376e+08,156.158,2,2.58033,-2253.91,2790.46,-25117.1
1.99594e+08,1.93266,0,2.80574,52.3329,22.1399,-28406.7
0,1.91518,0,2.62046,0,0,0
1.99788e+08,41.9903,0,2.78974,5056.8,7021.88,-26734.3
1.99969e+08,11.7575,1,2.85497,-1284.29,657.263,-26764.7
2.00128e+08,80.1631,1,2.69191,-11099.1,8760.56,-19441.7
2.00183e+08,117.29,2,2.36216,-8499.27,-17533,-13350.1
2.00871e+08,194.48,2,2.4325,-17265.5,10599.2,6949.19
2.00961e+08,14.7155,0,2.89172,2615.17,1141.83,-27412.5
2.01734e+08,241.625,0,2.42664,-22812.5,-4014.92,16697.7
2.01763e+08,54.4297,1,2.66054,-10731.7,1427.6,-24833.3
2.01869e+08,76.226,1,2.79415,-3480.86,10243,-18869.4
2.02298e+08,10.8582,0,2.8457,2286,454.611,-28273.3
2.02304e+08,20.5446,0,2.52991,4080.13,-1174.63,-27568.3
2.02397e+08,208.743,1,2.92649,192.971,10972.5,1083.16
2.02634e+08,217.551,0,2.72838,25101.8,22382.5,2383.36
2.02645e+08,191.544,1,2.37547,18323.8,2115.52,7259.58
2.0303e+08,65.177,0,2.37024,-7707.82,3812.65,-18073.6
2.03072e+08,45.6355,0,2.90301,4584.42,6552.82,-23429.5
2.03137e+08,54.5677,0,2.50108,11460.8,-1825.23,-28290.6
2.0358e+08,57.9235,1,2.51832,-9659.85,-6067.55,-24337.5
2.04063e+08,65.1523,1,2.40583,-9580.43,9839.85,-26874.1
2.04291e+08,188.494,0,2.82471,-26611.9,-12749,-2481.44
2.04413e+08,35.7978,2,2.58175,-3400.75,-1810.62,-22264.7
2.04778e+08,42.2292,2,2.94937,6265.83,-1770.79,-22841.1
2.04863e+08,397.474,0,2.81281,27437.7,6764.52,1903.78
2.05042e+08,73.7335,2,2.43447,-12322.1,-9727.14,-28562.2
2.05138e+08,79.599,0,2.90548,3255.56,14816.7,-21793
2.0521e+08,31.9236,0,2.74752,-5558.64,-3168.93,-26947.6
2.05339e+08,140.243,1,2.73766,-13471.7,25510.3,-22014.9
2.05543e+08,11.7352,2,2.80384,-310.856,-2422.11,-28027.6
0,11.6649,2,2.59094,0,0,0
2.05634e+08,96.9675,2,2.98889,12594.2,9507.29,-16109
2.05748e+08,140.925,1,2.42761,14287,10150.2,-4715.28
2.06403e+08,76.0713,2,2.39958,-8630.15,3855.96,-15814.8
2.06495e+08,33.9564,0,2.3786,-5699.23,3294.57,-26178.7
2.06607e+08,143.067,2,2.75026,-9934.37,-15762.8,-5098.05
2.06663e+08,22.526,2,3.03253,120.518,2191.65,-24671.5
2.07144e+08,39.6597,0,2.40464,7274.43,-2411.29,-25210.5
2.0745e+08,54.5186,0,2.38381,1814.54,4253.75,-18240.9
2.07557e+08,123.748,2,2.79957,12285.5,-12113.1,-16733.7
2.07631e+08,123.832,0,2.87393,3297.73,12607.8,-27863.6
2.07672e+08,104.001,1,2.94939,6353.24,1533.83,-8064.97
2.07831e+08,127.794,0,2.59053,-16851.6,-19636.5,-21371.3
2.07938e+08,14.8489,2,2.66717,-2776.63,110.027,-27266.9
2.08326e+08,91.1511,1,2.84318,11224,13549.7,-21113.5
2.08331e+08,135.834,1,2.67198,-13203.4,-16923.9,-9885.09
2.08683e+08,80.8533,0,2.5747,-8554.39,8253.7,-16599.9
2.08788e+08,43.5533,1,2.39217,-5964.2,7178.85,-28901.5
2.0881e+08,68.3287,0,2.71833,13545.7,3402.44,-24915.1
2.09253e+08,66.8999,2,2.52387,8296.21,-4427.22,-18294.5
2.09289e+08,26.7736,1,2.61136,-3221.29,4645.76,-27680.6
2.09333e+08,54.887,2,2.60628,4455.6,-8724.12,-22549.5
2.09435e+08,38.6265,0,3.0374,-814.255,-4756.51,-22336.3
2.09437e+08,78.638,2,2.86816,14933.8,-233.129,-21787
2.09437e+08,4.03003,1,2.4399,-231.775,819.466,-28436.6
2.09525e+08,3.15343,0,2.84876,483.061,241.245,-28336.8
2.09985e+08,86.1057,0,2.90667,5335.44,10243.2,-14874.4
2.10413e+08,38.6126,2,2.73492,-4121.78,3918.24,-23024.3
2.10539e+08,30.5792,0,2.86469,-2636.92,4899.53,-25654.5
2.1059e+08,200.747,0,2.43255,20725.2,9243.02,7105.81
2.10784e+08,7.89386,2,2.99941,-1223.05,510.606,-27848.2
2.11439e+08,37.1237,0,2.82755,7741.73,872.853,-27520.3
2.11527e+08,15.5246,0,2.76818,1271.9,-2983.29,-28076
2.11556e+08,43.4963,2,2.51238,-5139.63,2598.37,-21644.2
2.11702e+08,197.553,1,2.69401,-1109.91,10212.2,-7154.55
2.1175e+08,7.28757,2,2.93261,-33.091,1393.23,-28291.7
2.12152e+08,28.4222,0,2.70956,4825.48,-3379.94,-27316.7
2.12386e+08,93.41,2,2.414,1531.56,-11859.9,-13036.5
2.12989e+08,57.5459,1,2.56638,-6083.17,4339.49,-19181.6
2.13008e+08,153.499,0,2.46667,27750.9,11033.6,-15939.7
2.13299e+08,9.0208,2,2.96699,-1393.66,-1450.43,-28949.7
2.1333e+08,70.5189,1,2.6906,-416.472,13762.1,-23035.9
2.1407e+08,26.374,0,2.68488,2673.16,4946.18,-28451.2
2.14541e+08,50.2505,1,2.54784,-1541.3,5575.25,-19851.4
2.1482e+08,9.36642,0,2.43417,-1255.64,916.994,-27672.8
2.15007e+08,73.3575,0,2.48487,2204.07,-6737.43,-15001
2.15194e+08,264.423,1,2.84481,-18707.4,-4529.54,-2748.29
2.15421e+08,6.99323,1,2.43145,-1005.05,297.943,-27727
2.15493e+08,86.1488,0,2.79797,3197.8,7859.31,-12807.7
2.15511e+08,17.3164,2,2.91248,-2577.21,-58.3923,-26190.4
2.15622e+08,215.853,2,2.73385,5681.6,4779.65,-7040.53
2.15754e+08,9.16052,2,2.66909,-1592.85,1049.98,-28419.2
2.15916e+08,70.8964,2,2.89003,-5314.07,-4556.02,-15647.9
2.15938e+08,37.2687,1,2.55047,-7532.15,2521.04,-28288.4
2.16193e+08,270.355,0,2.59671,-910.963,24538,22714.5
2.16796e+08,99.7257,2,2.46459,20599.9,4264.8,-29455.7
2.16935e+08,6.98295,1,2.69491,1090.24,769.404,-28114
2.1732e+08,117.161,1,2.62567,15079.4,524.273,-9252.32
2.17378e+08,28.8273,1,2.62349,-2928.54,4892.43,-26487.7
2.17503e+08,59.7385,2,2.96033,4811.11,-10952.7,-24883
2.17747e+08,20.254,0,2.89173,2029.9,3149.45,-26728.1
2.17806e+08,174.653,1,2.56919,-7036.04,-23489,-1275.93
2.18174e+08,32.9897,2,2.91253,2239.58,-4518.32,-24039.7
2.18892e+08,23.4388,0,2.4694,1117.41,4386.47,-26756.1
2.19236e+08,57.4216,0,2.88328,1385,11730.1,-26222.6
2.19354e+08,120.251,1,2.40208,-23607.8,-5668.72,-21161.2
2.19374e+08,50.6884,2,2.95695,5623.47,5847.32,-22009
2.19426e+08,55.4647,1,2.69804,-9593.27,-4007.01,-23401.7
2.19483e+08,13.385,1,2.54651,-2701.38,573.17,-27996
2.19513e+08,2.33878,1,2.78279,128.647,528.713,-28665.9
2.19777e+08,30.0381,1,2.66561,-1661.37,-4559.11,-24818.9
2.19973e+08,24.2535,2,2.70214,4227.2,212.794,-26021
2.20175e+08,174.896,1,2.85196,-12109.9,16320.7,1857
2.20221e+08,17.4948,1,2.36804,-86.5174,1692.89,-25487.1
2.20299e+08,36.4575,1,2.77119,-969.569,6311.27,-24417.7
2.20564e+08,146.154,0,2.88569,1246.51,-24927.1,-10989.2
2.2069e+08,71.3329,0,2.54431,9099.74,-5810.53,-18224.3
2.20722e+08,73.8846,0,2.98221,10988.8,-9512.47,-23224.7
2.20768e+08,78.0496,2,3.00493,-304.41,11065.7,-16860.6
2.20823e+08,68.3211,2,2.88737,-4479.89,8809.26,-18429
2.20843e+08,10.7868,1,2.63104,-2184.33,304.134,-28072.6
2.20858e+08,76.4979,2,2.66025,-9221.89,913.651,-15610.8
2.21082e+08,98.8895,2,2.84876,2392.55,-15664.7,-15271.8
2.21447e+08,53.4401,2,2.42215,191.184,-3428.44,-18056.9
2.21642e+08,168.479,0,2.80709,25558.1,18559.6,-12635.9
2.21721e+08,127.246,0,2.7352,-8208.86,-18283.4,-11053.3
2.21815e+08,40.3506,2,2.59542,-4055.03,-7534.03,-27756.2
2.21897e+08,86.4448,0,2.88134,-12686,-6660.1,-17738.7
2.22048e+08,37.9303,2,2.82383,1322.78,-5858.96,-23533.9
2.22309e+08,10.7859,1,3.05981,-1377.37,1694.82,-27926.9
2.22488e+08,6.6623,1,2.80098,-1156.15,964.083,-28808.4
2.22489e+08,123.126,2,2.63253,-10518.3,380.292,-5040.35
2.22763e+08,105.309,2,2.75058,-15070.1,4275.79,-13096.3
2.22847e+08,14.306,0,2.85139,-265.422,1633.07,-26328.6
2.23503e+08,83.0905,1,2.6343,-16885.6,191.062,-23892
2.23621e+08,60.8297,2,2.73867,10447.2,-4445.13,-22870.9
2.23755e+08,157.337,0,2.49516,-23350.1,1968.71,-11566.1
2.24186e+08,169.519,2,2.81486,-530.345,260.431,-27199.8
2.24386e+08,108.471,1,2.80788,-18932.6,-6984.21,-18101.8
2.24719e+08,91.3926,0,2.82398,592.68,-19114.6,-26862.6
2.24863e+08,20.0202,2,2.5145,-821.601,-3609.74,-26640.5
2.24997e+08,79.54,1,2.6479,-1580.49,-12160.5,-27254.4
2.25081e+08,17.7084,2,2.39724,819.095,-2130.3,-25797
2.25383e+08,26.0486,1,2.4124,2686.45,1120.05,-24126.2
2.25919e+08,151.568,1,2.89416,-8499.4,6470.52,-23196
2.26057e+08,152.974,0,3.03394,16466.4,26559.8,-21462
2.2618e+08,46.5836,1,2.48601,-9558.46,923.062,-26338.9
2.26336e+08,83.7211,1,2.47249,14349.6,5379.92,-19956.8
2.26389e+08,15.5084,1,2.95983,-1687.96,-1641.07,-26600.6
2.26487e+08,102.004,1,2.87981,3618.53,18280.6,-18188.6
2.26501e+08,309.031,0,2.96077,27953.1,17585.9,1243.54
2.26506e+08,54.0093,2,2.39318,-8635.69,-5757.56,-23864.8
2.26508e+08,32.8714,2,2.90785,1660.7,-6252.95,-26186.6
2.26618e+08,6.37481,1,2.65184,641.743,418.023,-27737.6
2.27336e+08,45.1611,1,2.41397,1099.31,9597.37,-29052.3
2.27575e+08,68.3006,0,2.76241,4484.05,-9853.42,-19290.7
2.27781e+08,79.6213,2,2.54744,-4842.86,-4267.36,-13241
2.28305e+08,7.51481,2,3.02947,-2.32522,1499.55,-28470.9
2.28376e+08,80.2221,0,3.01425,4449.69,-15881.5,-25301.7
2.2845e+08,43.6656,2,2.83885,-5941.74,-7082.53,-27928.5
2.2852e+08,3.43233,2,3.00266,154.304,620.35,-28632.8
2.28537e+08,29.3822,1,2.36417,-1375.55,1539.38,-22922.5
2.28593e+08,30.4323,1,2.55634,211.343,-6202.59,-27339.8
2.28759e+08,27.0349,0,2.90213,4588.89,-2695.7,-26601.9
2.28783e+08,68.2384,0,2.99127,6304.58,-2509.37,-16198.5
2.29247e+08,154.386,0,2.88568,17514.4,26780.6,-23174.2
2.29418e+08,127.727,0,2.80667,7269.79,18785.6,-15910.9
2.29464e+08,20.9211,1,2.3876,3844.27,1472.49,-27167.9
2.29578e+08,79.5577,1,2.6252,-1393.84,14885.2,-20991.5
2.29602e+08,89.7544,2,2.40294,-14473.1,-1995.68,-16621.7
2.29618e+08,1.89201,0,2.91352,57.428,258.813,-28498.4
0,1.91175,0,2.57848,0,0,0
2.29648e+08,30.8573,2,2.83,3530.95,4643.22,-26143.1
2.30006e+08,119.667,2,2.62482,10246.4,-20147.4,-17449.7
2.30046e+08,96.6534,2,2.68766,2372.93,-20032.6,-25451.7
2.30547e+08,13.5515,1,2.4126,-815.18,-1535.99,-26565
2.31062e+08,93.7784,0,2.46672,-13733.4,-12927.5,-22883.4
2.31175e+08,49.8794,1,2.36619,-7880.22,5804.1,-24635.2
2.31187e+08,59.2944,1,2.48209,-6331.58,6259.72,-19902.1
2.31233e+08,67.8551,1,2.64669,-12577.4,5388.93,-24395.1
2.31257e+08,9.49584,1,2.82043,-1862.49,42.7929,-27941.4
2.31317e+08,50.5894,0,3.05224,9598.73,3097.94,-25271.7
2.31379e+08,107.361,0,2.36451,22460.6,3073.23,-26233.7
2.31795e+08,170.024,2,2.53286,-18006.6,26729.4,-13024.6
2.32151e+08,53.3574,0,3.03811,-993.837,8838.56,-22035.1
2.32286e+08,50.8401,0,2.94484,10418.8,-2091.44,-27192.5
2.32313e+08,7.28205,2,2.42162,1076.81,757.408,-28136.9
2.32316e+08,1.58379,0,2.56784,321.665,244.09,-28914.2
2.32721e+08,42.3224,0,2.38404,12.2687,2043.43,-20107.6
2.32757e+08,149.356,0,2.52167,10303.2,22539.9,-9216.38
2.33157e+08,232.73,0,2.87065,-22611.6,-28682.7,-6207.5
2.33193e+08,52.6483,0,2.48545,4803.94,-10086.1,-28028.9
2.33866e+08,4.44909,2,2.94817,-498.436,-910.984,-28948.3
2.33994e+08,37.832,0,2.78245,-2195.06,-6467.96,-24763.2
2.34133e+08,31.464,2,2.58191,-3150.47,-3648.83,-24146
2.34171e+08,115.383,0,2.979,-646.427,11085.8,-25409.4
2.34194e+08,118.046,1,2.47678,12134.5,-30.1883,-7049.63
2.34723e+08,35.2154,2,2.52504,-6847.2,-657.875,-25793.8
2.34892e+08,98.1756,0,2.99898,-1963.02,-15863.7,-15913.8
2.35034e+08,11.0051,2,2.83022,-879.774,-1884.22,-27608.5
2.35083e+08,179.312,0,3.05604,24279.3,3400.08,-463.104
2.35129e+08,1.92266,0,2.39321,402.842,149.133,-28601.7
2.35874e+08,75.0343,2,2.68017,-2412.31,-7702.07,-15155.7
2.36252e+08,169.396,2,2.41429,279.109,-12169,4901.57
2.36302e+08,69.2961,0,2.41542,6685.05,1498.4,-15827.8
2.36369e+08,125.368,0,2.48781,-10662.5,-23382.9,-22368.6
2.36444e+08,35.5036,0,3.02226,847.793,4341.62,-22832.2
2.36455e+08,199.058,0,2.61724,10467.1,8427.47,-29063.2
2.36617e+08,16.6566,2,2.37604,-2497.59,-2605.25,-29356.2
2.36748e+08,158.563,1,3.03932,-4984.21,15800.5,1.53487
2.37124e+08,68.1814,1,2.79035,1201.8,14331.7,-27571.5
2.37243e+08,170.772,2,2.89001,-27843.6,-13233.4,-10368.7
2.3786e+08,19.8068,2,2.92132,794.126,-2209.25,-25373.4
2.37917e+08,43.6699,1,2.80176,-5420.99,7508.22,-29537.8
2.38142e+08,126.892,2,2.65583,-13113.3,10508,-27245.5
2.38194e+08,101.298,1,2.99705,-5522.75,-1105.56,-8335.55
2.38369e+08,101.792,1,2.56214,-8968.28,-2355.71,-9416.34
2.38416e+08,43.3738,1,2.66597,-1019.32,-3830.76,-20611.8
2.38586e+08,68.7755,1,2.97138,-1378.55,-10169.5,-18725.2
2.38642e+08,59.7244,1,2.53388,-3521.19,3557.07,-17214.1
2.38668e+08,42.8182,0,2.88615,7909.49,869.132,-24461.3
2.38905e+08,72.1211,2,2.52978,-2926.45,-13513.9,-22265.1
2.3898e+08,113.164,1,2.939,-8739.77,21788.8,-24617.5
2.39055e+08,67.6614,0,2.76953,11456.1,-693.516,-20262.1
2.39115e+08,165.853,2,2.91127,-4835.32,-21572,-17884.7
2.3966e+08,8.34954,0,2.42969,-481.496,-1690.57,-28556.5
2.39927e+08,133.074,0,2.59864,17008,-2629.17,-6549.78
2.39984e+08,48.0437,2,2.95005,6890.21,-5542.74,-23997.8
2.40095e+08,137.355,1,2.43934,20866.1,11405.5,-12162.9
2.40149e+08,67.2771,0,2.72632,10076.8,4871.41,-20018.3
2.40549e+08,40.3667,2,2.97469,1816.44,-4878.84,-22094.1
2.4073e+08,7.41657,0,2.40688,914.688,383.633,-27535.6
2.40738e+08,15.68,2,2.41169,-3395.77,-142.28,-28833.3
2.40756e+08,14.4894,2,2.66026,-539.427,2058.33,-26655.3
2.408e+08,116.386,0,2.96942,4193.84,-21503.9,-18054.7
2.40874e+08,117.496,1,3.05024,6458.37,17917.6,-13370
2.41711e+08,14.5848,1,2.72549,-2785.61,1403.86,-28255.4
2.41793e+08,2.86335,1,2.44951,491.784,267.469,-28548.4
2.41807e+08,9.26955,0,3.04413,232.223,1796.7,-28058.5
2.41835e+08,229.628,0,2.82725,29174,28339.3,-2746.77
2.41906e+08,228.117,0,2.64955,18251.5,-2240.73,-2788.71
2.42008e+08,64.2834,2,2.57443,-11945.7,4079.5,-23713
2.4201e+08,152.911,1,2.91644,-8782.88,21000.7,-6128.17
2.42215e+08,71.6697,1,2.45371,10438.1,513.385,-17858.2
2.42271e+08,177.282,0,2.89029,8724.14,-12296.1,5197.73
2.42441e+08,101.96,2,2.58405,-15842.3,-13340.5,-22585.5
2.425e+08,167.066,1,2.63416,12728.4,9438.93,2655.79
2.42575e+08,141.627,2,2.77447,4560.69,-11978,-1903.88
2.43075e+08,110.171,2,2.78933,4722.56,-21278.9,-20819.6
2.43232e+08,0.780651,1,2.90489,11.1142,-85.5396,-28719.5
0,0.819075,1,2.81391,0,0,0
0,0.811114,1,2.91255,0,0,0
2.4339e+08,126.966,1,2.75086,-4825.58,12731.7,-26586
2.43505e+08,21.8536,2,2.86726,-3559.69,-2701.16,-27389.9
2.43589e+08,1.64473,1,2.42495,-379.055,-61.1605,-28722.1
2.43779e+08,14.4994,1,2.85759,-737.109,1512.2,-26218.7
2.43885e+08,115.541,1,2.45545,20454.2,851.746,-16098.6
2.43967e+08,14.3636,2,2.45051,-2092.68,646.342,-26666.5
2.44091e+08,2.00069,1,2.94543,18.2067,277.38,-28466.5
0,2.0033,1,2.90195,0,0,0
2.44134e+08,179.286,2,3.02346,7203.87,22463.9,357.626
2.44152e+08,15.6318,0,2.73605,2941.17,-230.053,-27174.7
2.44179e+08,65.8495,1,2.51798,7970.58,11495.9,-28837.2
2.44573e+08,95.0423,0,2.66505,6371.08,9261.76,-12187.5
2.44954e+08,57.9328,0,2.95149,5931.74,2624.76,-18497.6
2.45019e+08,21.9627,1,2.71937,1126.46,2757.36,-25229.5
2.45042e+08,85.1684,2,2.6321,8659.72,14131.3,-22004.7
2.453e+08,41.3102,1,2.88828,-600.185,2529.37,-20509.7
2.45356e+08,16.4097,1,2.94151,1329.74,2881.22,-28152.3
2.45456e+08,42.6272,0,2.99488,7367.92,1614.15,-23908
2.45592e+08,15.7463,1,2.47922,-65.0093,2727.75,-26802
2.45727e+08,23.0782,0,2.46556,420.816,-4829.63,-27955.2
2.45755e+08,53.4459,1,2.95303,-6524.02,9144.15,-27563.4
2.4577e+08,106.883,0,2.87103,5074.02,-20060,-20586.9
2.45795e+08,93.7309,2,2.81666,4003.19,11952.6,-13725.2
2.46111e+08,24.4513,1,2.7099,-515.084,-2817.45,-24588.9
2.46253e+08,72.8983,2,2.3849,4786.71,-1757.64,-14257.7
2.4636e+08,97.1905,0,2.78924,12468.9,-5403.01,-13477.1
2.46718e+08,186.148,1,2.75799,-19557.1,-10535.3,3469.97
2.46813e+08,19.8824,2,2.50684,866.851,-1716.8,-25055.1
0,19.8871,2,2.64854,0,0,0
2.4688e+08,75.2404,1,2.95948,-2104.11,-14975.8,-24520.6
2.47093e+08,139.456,0,2.66808,-27185.3,10413.5,-25119.6
2.47463e+08,69.9309,2,2.54688,1487.44,-11261.9,-19269.8
2.47619e+08,96.3765,2,2.78167,700.021,-20090.3,-25467.2
2.47676e+08,172.616,0,2.53365,5193.25,12085.3,-11552
2.48185e+08,61.7536,2,2.57228,1085.74,-12025.8,-23683
2.4842e+08,25.7639,1,2.94738,4121.81,2727.55,-26645
2.48712e+08,102.232,2,2.82822,9457.04,5083.31,-13429.8
2.48787e+08,30.0924,2,2.59601,-3122.52,-395.589,-23268.8
2.49142e+08,42.6307,2,2.72574,-6295.17,6357.11,-27930.1
2.49163e+08,75.1165,0,2.90758,-8236.57,6666.71,-17189.8
2.49431e+08,50.917,0,2.3914,275.683,-9041.94,-22957.9
2.49874e+08,131.599,1,2.38921,9574.7,24820.7,-20373.6
2.4992e+08,122.437,1,2.88898,-10129.2,12195.4,-8549.66
