#class tools::wcsv::ntuple
#title time
#separator 44
#vector_separator 59
#column double eventID
#column double t(ns)
#column double copynumber
#column double energy(eV)
#column double x(mm)
#column double y(mm)
#column double z(mm)
123273,16.103,2,2.36879,-3421.01,-654.268,-28644.3
200667,56.2728,2,3.04003,3563.18,-3692.79,-23040.5
227019,186.43,0,2.78121,29895.5,1873.64,-3404.99
303298,11.581,0,2.56257,1443.21,38.1294,-26703.6
326006,65.3904,1,2.48797,-4460.35,13157.9,-28088.5
326923,40.1561,2,2.55596,750.217,-7964.28,-26181.9
369955,13.7621,1,2.89189,1400.07,-1668.97,-26979.4
397510,134.197,2,2.43397,-18781.6,-8941.62,-9439.39
438363,44.0389,1,2.80933,408.069,7094.18,-22778.8
601535,4.26562,1,2.90606,-420.704,759.633,-28380.5
654682,160.225,1,2.96905,19687.9,18259.1,-27178.1
732213,52.6409,0,2.37004,-8586.02,-6779.72,-27281.5
821250,34.4843,2,2.88407,1062.22,6325.63,-25650
850768,38.055,1,2.84548,-6549.31,3770.17,-25981.7
1.06991e+06,60.8797,1,2.98442,-8350.2,9058.79,-25197.7
1.24649e+06,56.1942,0,2.47276,4881.04,-853.552,-17983.1
1.39501e+06,29.527,0,2.37617,3547.21,-1938.63,-24014.7
1.4232e+06,94.1496,1,2.90449,4086.19,7784.28,-11200.3
1.63703e+06,11.1321,1,2.8915,-1313.27,1927.13,-28242.9
1.70695e+06,118.882,2,2.42262,-21680,-5823.41,-21017.4
1.85145e+06,46.5652,0,2.5573,-450.202,7638.29,-22799.2
2.01132e+06,17.6085,1,2.80672,-1472.81,3032.35,-27095.8
2.06432e+06,75.9311,1,2.96457,-15163.3,1255.69,-23867.7
2.13149e+06,169.276,1,2.59145,-6166.35,20392.1,-74.5318
2.14666e+06,58.0538,1,2.54107,3286.99,-6180.48,-18947
2.1577e+06,91.6445,2,3.0557,10912.6,-14757.7,-23060.9
2.21833e+06,34.7186,2,2.6566,-4396.05,-1275.82,-23048.4
2.36778e+06,248.296,2,2.85706,-23702.1,-17420.2,13391.3
2.39526e+06,128.15,1,3.0024,10342.8,22314.9,-17854.6
2.47029e+06,163.358,0,2.96691,26303.5,7273.26,-12382.7
2.5867e+06,89.9583,2,2.91961,-14329.6,-7673.37,-19047.6
2.58977e+06,20.1958,0,2.56987,2782.92,2995.94,-27359.3
2.72994e+06,93.3265,0,2.97202,8040.69,8724.04,-13212.1
2.99487e+06,14.4882,2,2.63669,-350.314,-3038.95,-28044.6
3.04914e+06,17.2579,0,2.76807,-2777.16,888.018,-26866
3.2187e+06,151.457,0,2.45049,16229.8,9714.23,-15120
3.30412e+06,59.791,1,2.49534,-7680.92,-8766.63,-24064.9
3.30684e+06,237.216,0,2.93628,22039.4,19879.7,9535.55
3.37185e+06,54.8105,2,3.02139,5.44668,3708.87,-26461.4
3.37358e+06,76.0395,1,2.95381,-13950.1,-1065.16,-20830
3.49715e+06,60.9733,0,2.57097,4830.6,-8311.8,-20141.8
3.71352e+06,175.042,1,2.80904,-12264.2,6354.9,5306.27
3.85122e+06,114.97,2,2.62496,-7169.81,-21339.3,-20291.6
3.91352e+06,103.725,1,2.68056,6516.64,6216.97,-8938.25
4.10406e+06,94.9492,0,2.45392,7556.77,2092.99,-10338.3
4.17953e+06,90.0125,2,2.95866,-4975.13,17482,-23772.2
4.25162e+06,120.345,1,2.88253,9374.58,-22988,-24045.9
4.6251e+06,56.4547,1,2.73063,-7202,499.156,-19249.4
4.69239e+06,10.9149,0,2.79821,1572.24,1402.15,-29122.6
4.73706e+06,59.071,1,3.0425,-5836.83,9092.66,-22618.5
4.75059e+06,7.28528,0,2.60233,665.502,1218.22,-28120.2
4.99957e+06,63.0077,2,2.76871,8477.33,-914.868,-18649.1
5.0042e+06,25.6592,1,2.82136,2429.33,3753.28,-25601.3
5.05134e+06,148.403,1,2.76799,-2069.68,-3268.21,-8012.67
5.07312e+06,99.2682,1,2.89271,-18060.8,-6065.81,-20330.4
5.16372e+06,15.4628,1,3.03703,-1672.91,-312.342,-26030.6
5.20576e+06,48.5505,1,2.77641,-8896.13,3261.17,-24807.4
5.22856e+06,126.528,1,2.71394,7879.61,-9654.71,-5514.13
5.34596e+06,197.278,0,2.74835,3346.51,-21952,5788.18
5.41507e+06,213.917,0,2.62009,-19746.7,1017.82,3087.97
5.57547e+06,10.0332,2,2.80884,-1769.69,629.917,-27766.4
5.71192e+06,52.8357,0,3.02593,4555.31,-5142.75,-20081.9
5.74726e+06,82.6051,1,2.86103,-7738.34,2045.76,-13378.5
5.8834e+06,173.039,0,2.79057,-263.396,-8263.97,-25044.8
5.89351e+06,126.427,2,2.38851,-25248.3,1829.64,-20078.7
5.90369e+06,143.32,1,3.04946,15847.9,17705,-11030.1
5.91069e+06,36.6966,0,2.36403,6655.23,1869.64,-25371.6
5.91762e+06,6.6732,0,2.81964,1117.52,45.9567,-27865.4
5.93235e+06,17.47,0,2.37609,-411.409,-3579.2,-27834.1
6.03118e+06,9.32922,1,2.64338,-1688.94,-456.3,-27807.9
6.09371e+06,162.099,2,2.61847,11994.3,21997.4,-5660.19
6.13987e+06,67.7709,2,2.88945,-6309.43,12275.7,-25397.7
6.14208e+06,7.5485,2,2.49122,663.98,-1014.41,-29981.4
6.21284e+06,74.1732,0,2.6766,5786.01,-9312.16,-17661.7
6.22266e+06,78.3425,1,2.86651,-8821.22,2509.11,-15085.1
6.27487e+06,140.408,1,2.82242,23500.7,17575.2,-25879.7
6.29625e+06,21.9902,0,2.92695,4162.11,606.577,-27737
6.29966e+06,11.7987,1,2.68237,-862.191,2394.73,-28392.9
6.34717e+06,64.4855,0,2.91914,-1797.29,13327.8,-27197.4
6.37166e+06,2.09204,2,3.0074,212.764,-229.487,-28466.2
0,2.10117,2,2.65275,0,0,0
0,2.09346,2,2.65657,0,0,0
0,2.08408,2,2.69529,0,0,0
0,2.11202,2,2.7538,0,0,0
0,2.09308,2,2.79544,0,0,0
0,2.10071,2,2.98079,0,0,0
6.5521e+06,34.7971,0,2.93602,-249.189,-2849.86,-22276.7
6.56376e+06,66.9373,2,2.63632,12796,2373.17,-23590.4
6.5669e+06,63.9064,0,2.90978,6581.08,7220.83,-19683.4
6.60678e+06,152.057,2,2.84167,3535.41,-16378.4,-1581.77
6.63172e+06,61.9239,1,2.60233,-10562.5,-1330.38,-21651
6.64194e+06,77.6553,2,2.53964,-9055.13,8466.74,-18010.8
6.78047e+06,57.5867,2,2.88634,-11570.8,-3483.81,-29273.4
7.11297e+06,39.915,2,2.81206,-7040.16,-1851.57,-24437.2
0,39.9408,2,2.88414,0,0,0
7.16766e+06,44.2212,2,2.36315,5688.12,-690.398,-21204.6
7.29332e+06,11.3755,2,2.59562,1268.98,-1115.35,-27040.2
7.32102e+06,13.8876,1,2.6444,772.999,-1487.1,-26417.8
7.42191e+06,156.658,1,2.9387,21947.8,-14805.2,-18018
7.43285e+06,78.4394,2,2.9618,-12752.9,463.558,-18237.1
7.5295e+06,2.08698,0,2.95517,316.98,101.306,-28455
0,2.07697,0,2.88047,0,0,0
7.5464e+06,3.16698,0,2.41938,-33.3768,-629.99,-28546.9
7.69135e+06,26.1829,2,2.38652,-1438.43,-2966.8,-24453.7
7.7239e+06,115.772,0,2.38499,15189.9,11355,-13221.8
7.73625e+06,29.3171,0,2.60576,3597.45,1825.7,-24064.5
7.80931e+06,140.799,1,2.88701,-10258.5,-14054.7,-4984.96
7.88117e+06,72.0633,2,2.57531,-12476,5691.58,-22118.4
8.01033e+06,47.7236,0,2.81368,8628.99,-3592.36,-25002
8.09665e+06,124.44,0,2.65819,-4171.55,25625.1,-24463
8.15326e+06,64.9374,1,2.6939,-10902,-1141.36,-20580.9
8.17709e+06,144.809,1,3.02731,49.2365,-29992.5,-25195.5
8.2691e+06,36.4173,0,2.54313,6446.26,-1861.13,-24971.8
8.41256e+06,139.788,1,2.36901,-1454.44,7558.66,-4120.89
8.63347e+06,243.47,2,2.94931,-5097.97,-7778.48,-12331.6
8.6584e+06,80.7552,2,3.04709,1510.44,13366.3,-18525.6
8.66461e+06,47.589,2,2.40719,-3831.83,7313.82,-23166.5
8.79887e+06,55.3693,1,2.54462,-4949.33,8866.33,-22887
8.85294e+06,40.6256,2,2.62078,-4402.3,6494.09,-25695.2
8.88799e+06,22.144,2,2.67876,-2958.63,-186.508,-25412.8
8.99432e+06,25.0761,2,2.43821,3305.47,3971.16,-27887.6
9.04778e+06,10.4273,1,2.84539,-1946.33,-620.629,-27933.4
0,10.4317,1,2.8877,0,0,0
9.05131e+06,48.1561,0,2.53956,-886.158,7905.2,-22632.4
9.14516e+06,127.759,1,3.03931,20901.8,9599.56,-27887.8
9.14794e+06,39.6775,1,2.54083,5060.06,6410.28,-27417
9.15042e+06,68.3648,2,2.62436,4666.59,-13023.9,-23981
9.25721e+06,78.1062,1,2.55727,-494.806,6277.56,-13709.1
9.39032e+06,10.4017,1,2.79598,902.173,1341.84,-27312.9
9.41201e+06,47.0731,0,2.92718,2897.54,-9213.43,-26361.6
9.41502e+06,10.3237,0,2.59801,-358.357,-1635.63,-27493.5
9.50191e+06,150.95,0,2.90228,2823.27,-18893.4,-3554.95
9.8029e+06,5.31488,0,2.76315,1148.28,351.851,-29159.2
9.85712e+06,111.256,0,2.43885,13261,-12384.9,-13726.3
9.88189e+06,12.331,1,2.79838,1911.4,-1076.27,-27611.6
9.89286e+06,31.1778,1,2.49398,1712.04,4551.36,-24458.2
1.00793e+07,140.306,1,2.54848,18545.4,16714.6,-12821.9
1.01796e+07,72.161,0,2.91445,-3986.57,-6283.24,-15755.7
1.01877e+07,8.6093,1,2.43845,-1017.13,768.48,-27438.1
1.0483e+07,4.42757,1,2.78283,-998.765,-110.785,-28663.4
1.04901e+07,127.343,0,2.80281,26675,3014.04,-27154.1
1.0561e+07,18.2039,0,2.50675,1088.12,-3496.98,-27454.4
1.07892e+07,37.0566,2,2.64272,5263.12,-2848.57,-23869.1
1.11905e+07,22.2778,0,2.64184,-2744.62,1412.77,-25359.1
1.11976e+07,91.0439,1,2.58332,-10237.6,-5579.25,-13587.5
1.12942e+07,81.4826,2,2.57026,-8048.37,-11793.9,-19052.3
1.15635e+07,242.914,2,2.53842,8845,-28267,13168.2
1.16503e+07,30.2975,2,2.88814,-4241,-4853.23,-28793.5
1.18072e+07,124.243,1,2.58914,-7565.08,23856.5,-20949.3
1.18216e+07,235.94,1,2.67039,-9810.32,29082.5,10300.1
1.18252e+07,246.224,1,2.84493,3976.35,12227.3,-18590.1
1.18493e+07,15.9799,1,2.39152,-2060.6,-2446.67,-27575.1
1.19221e+07,31.4914,2,2.67638,-4469.6,-1446.83,-24040.3
1.2006e+07,43.0893,2,2.47768,3392.89,2916.63,-21060.1
1.20456e+07,11.247,1,2.48143,1797.41,-1154.26,-27717.5
1.20864e+07,70.7699,1,3.05315,7818.47,2916.58,-17630.1
1.22508e+07,7.7757,1,2.97258,182.83,1142.43,-27587.3
0,8.24159,2,2.46487,0,0,0
1.23132e+07,3.85141,2,2.94702,156.918,-967.494,-29113.6
1.26095e+07,106.821,0,2.50703,8888.27,19275.7,-21038.3
1.26107e+07,116.931,2,2.59997,9376.01,-22733.6,-26172.9
1.26989e+07,37.3131,2,2.78094,5070.37,371.455,-22855.1
1.28071e+07,86.8815,1,2.48533,12513.5,6918,-22899.6
1.28359e+07,11.5685,0,2.51154,1041.86,-662.561,-26492.7
1.28466e+07,172.116,0,2.82551,-14274.2,7108.57,3612.43
1.28746e+07,149.967,0,2.48834,-13834,8814.13,-1632.57
1.29055e+07,71.4522,2,2.93245,-5807.54,-11981,-21420.3
1.30896e+07,89.9637,0,2.58172,15541.1,7935.64,-21333
1.31149e+07,28.3637,1,2.85117,-2700.74,5357.84,-29642.3
1.31417e+07,127.501,2,2.7943,-10363.8,-23271.4,-20111.8
1.3142e+07,59.614,2,2.55073,5876.21,-10601.9,-27229
1.32112e+07,96.491,2,2.44681,-12301,-14417,-21008.8
1.32723e+07,62.2389,0,2.44228,1832.07,-12698.2,-25582.3
1.32723e+07,31.8819,1,2.48643,-4400.49,-2152.2,-24234.3
1.3463e+07,192.206,1,2.46225,12931.4,-27246.9,-1468.66
1.35722e+07,6.57049,1,2.51089,-229.176,1044.68,-27796.9
1.36034e+07,164.37,2,2.76796,11098.9,20850.2,-3541.28
1.37332e+07,11.6447,2,2.95673,603.354,-1867.79,-27398.2
1.37628e+07,6.94618,1,2.38031,312.155,526.695,-27474.1
1.37797e+07,129.879,2,2.81587,18457,16502.6,-17291.6
1.3781e+07,14.0555,1,2.70375,2531.97,1060.88,-29736.4
1.38274e+07,5.03581,2,2.37773,79.6183,-463.824,-27841.5
0,4.97991,2,2.94997,0,0,0
0,4.99475,0,2.53985,0,0,0
1.40067e+07,120.569,1,2.49536,-16317.8,-12257.9,-13591.4
1.41641e+07,81.4787,0,2.61107,-12431.6,-5010,-18192.8
1.41714e+07,55.0306,0,2.6011,4494,-8746.07,-23354.6
1.41718e+07,4.26548,1,2.73868,147.31,388.052,-28021.7
0,4.24448,0,2.8287,0,0,0
1.4267e+07,123.991,2,2.37718,-22692.4,8419.42,-18675.7
1.43748e+07,54.8433,1,2.5283,4125.94,3541.34,-18525.6
1.47151e+07,79.3584,2,2.4514,-4400.9,-16273.1,-29805.8
1.47334e+07,7.51026,1,2.67683,721.556,329.398,-27456.7
1.48448e+07,33.2631,2,2.5604,4046.37,-3184.39,-24003.4
1.48841e+07,71.3315,2,2.49351,-9438.32,-11842.4,-27479.1
1.49354e+07,24.7331,2,2.84163,-3716.44,-2975.75,-26653.6
1.49775e+07,12.2663,1,2.6018,-947.595,2469.1,-29437.7
1.5005e+07,167.718,0,2.96292,-25746.1,-23300.1,-24745.6
1.51864e+07,20.3942,1,2.45589,3784.69,1529.44,-27484.8
1.52561e+07,84.1544,1,2.74876,-5990.95,-11388.3,-16685.3
1.53944e+07,158.497,1,2.59082,-10404.4,23615,-8162.17
1.54224e+07,12.8913,1,2.70427,1812.35,-1778.13,-27933.7
1.54736e+07,76.6118,2,2.37412,2180.89,-12575.3,-18623.6
1.55154e+07,50.6009,1,2.52478,-9930.19,-3964.27,-29124.5
1.55505e+07,99.6216,0,2.78394,16634.1,-11875.1,-23762.5
1.55928e+07,5.73683,1,2.54101,899.516,28.8644,-28009.9
0,5.36191,0,3.04803,0,0,0
1.56581e+07,26.9534,2,2.96293,-3656.45,-4440.64,-28567.5
1.59266e+07,90.8863,2,2.83242,-12455.8,-11046.6,-19364.8
1.59765e+07,64.0184,2,2.65323,-4420.8,-8857.08,-19750.9
1.5993e+07,46.0963,1,2.44855,-1699.98,-308.193,-22406.5
1.60138e+07,90.0113,2,2.6455,-18573.2,-4488.23,-29086.8
1.60499e+07,24.6422,2,2.71545,-2178.26,3311.62,-25669.8
0,24.218,1,2.94191,0,0,0
1.65067e+07,90.3584,2,2.45997,10096.1,-1364.76,-12722.1
1.65596e+07,103.8,2,2.38942,-10167.4,12208.5,-13683.6
1.65884e+07,189.866,1,2.86469,-27169.2,-2336.86,500.647
1.66076e+07,25.1446,1,2.38049,-1118.34,5355.79,-28868.9
1.66755e+07,69.8977,1,2.74752,-815.828,13875.2,-23808.1
1.68023e+07,34.538,0,2.728,-78.145,3639.88,-22698.8
1.68795e+07,9.67428,2,2.5694,-1356.65,-1550.92,-28175.4
1.71475e+07,165.336,1,2.60247,9026.61,20479.7,-5413.08
1.71561e+07,53.0053,1,2.74419,7600.15,6240.15,-23517.6
1.72379e+07,36.5422,2,2.88216,1804,4224.44,-22743.5
1.72851e+07,115.064,1,2.5868,7271.07,-14856.1,-11161.6
1.75706e+07,13.4034,2,2.87113,-2450.36,1009.01,-27753.1
1.77043e+07,26.1633,1,2.50888,-4361.42,-3258.93,-27608.1
1.78551e+07,90.9664,0,3.05821,-14850.8,-2202.42,-17568.5
1.78903e+07,30.1243,0,2.46712,5456.08,280.628,-25741.7
1.81002e+07,88.3219,1,2.45935,8906.85,16164.8,-25841.1
1.81369e+07,31.3678,1,2.71953,-5889.67,-2760.05,-27798.2
1.81413e+07,89.9862,0,2.57557,17301.9,-6199.32,-23760.1
1.82127e+07,139.802,2,2.58452,22531.1,-17987.3,-22270
1.83584e+07,7.95527,2,2.56252,78.8995,-1522.83,-28136.5
0,8.14445,0,2.61268,0,0,0
0,7.94204,2,2.73858,0,0,0
1.83635e+07,71.0896,1,3.02057,-10773.9,-8584.33,-23042.8
1.83678e+07,81.2009,2,2.40785,-14677.5,8904.34,-28339.2
1.84904e+07,144.961,0,2.83206,25653.2,6572.53,-13544.5
0,144.961,0,2.83206,0,0,0
1.85106e+07,7.07353,2,2.79427,-852.042,-1366.84,-27983.5
1.86161e+07,99.7858,1,3.03391,19080.2,-5862.73,-23085.3
1.868e+07,124.033,2,2.51081,11083.6,-22705.7,-22268.3
1.90488e+07,110.394,2,2.50609,-8680.3,7315.59,-8421.23
1.9066e+07,9.49424,2,2.70686,583.275,1041.04,-27240.1
1.90673e+07,15.3615,0,3.04549,708.931,1060.35,-25917.9
1.93295e+07,124.634,0,2.68387,18109.1,-18090.6,-22598.7
1.94757e+07,76.885,1,2.81341,-9700.87,5095.86,-16943.5
1.95085e+07,25.7019,0,2.79913,-500.339,-4380.51,-25650.3
2.00991e+07,228.373,2,2.51269,15786.4,17134.3,8339.35
2.01067e+07,5.3003,2,2.8671,332.981,878.361,-28403.8
2.02835e+07,130.83,2,2.94868,-5410.2,3716.98,-26321.1
2.02967e+07,80.8262,0,2.83888,15595.2,6767.45,-27746.5
2.03003e+07,21.3633,1,3.04063,-2222.73,-1864.39,-25596.3
2.04154e+07,27.8151,0,2.58842,5021.08,-950.345,-25755.1
2.04688e+07,38.9354,2,2.37292,-1889.33,-5427.62,-22820.2
2.05056e+07,22.2534,2,2.78741,4464.51,-803.27,-27663.9
2.058e+07,93.3387,2,3.0372,-13506.3,-7961.65,-17108.4
2.07568e+07,57.9586,2,2.47,-8832.1,7428.37,-25896.1
2.08676e+07,44.6303,1,2.92102,-252.821,9012.73,-25970.1
2.09371e+07,15.3752,2,3.00524,-924.043,-2029.08,-26460
2.1182e+07,41.8003,1,2.54252,-5941.59,-2474.67,-23180
2.12969e+07,194.71,0,2.85415,22307.2,-13242.6,2690.77
2.1396e+07,181.966,1,2.64685,-28276.3,-5968.76,-3505.82
2.14049e+07,51.0312,0,2.37949,-569.354,6959.69,-20637.2
2.14081e+07,104.417,0,2.94759,16842.8,-7537.56,-17117.6
2.16712e+07,135.453,2,2.41533,-16857.4,-22265.7,-22285.7
2.17358e+07,31.3045,1,2.46897,-879.497,-5138.46,-25068.9
2.18215e+07,6.81115,2,2.99825,-1385.2,-675.818,-28952.1
0,6.87237,2,2.61882,0,0,0
2.19102e+07,50.5922,2,4.08255,-172.01,-191.835,-28952.7
2.19777e+07,37.7951,0,2.57611,-3327.27,3585.77,-22556.9
2.20769e+07,72.8257,0,2.86128,-1799.53,14520.7,-27230.3
2.23322e+07,21.701,2,2.4112,-1946.63,-3248.68,-26215.8
2.23337e+07,68.0762,1,2.67306,-13386.7,412.386,-23268
2.2353e+07,40.1585,0,2.61706,4638,-2594.7,-22297.3
2.24055e+07,104.42,2,2.37401,33.1526,-8549.96,-8350.61
2.24318e+07,100.056,1,2.90705,10659.8,-922.888,-10793.4
2.24557e+07,6.94076,1,2.88163,-543.026,-162.691,-27405
2.2548e+07,9.24195,1,2.48687,331.845,1765.11,-27905.8
0,9.35741,1,2.75957,0,0,0
2.262e+07,52.3646,0,2.69746,-7417.57,6297.18,-23684.7
2.26974e+07,22.5677,0,2.77804,-3595.29,2317.32,-26851
2.2734e+07,174.754,0,2.76018,28104.9,23568.7,-24917.6
2.28618e+07,72.072,0,2.95024,3282.96,9612.5,-17630.1
2.30007e+07,28.3025,1,2.89198,-4270.88,3813.17,-27090.1
2.31149e+07,145.088,1,2.82474,-9544.65,-15357.9,-5195.99
2.33538e+07,208.887,1,2.43796,18841.5,-5594.39,10553.8
2.3726e+07,118.395,0,2.60473,-19441.9,-13080.4,-20595.2
2.3774e+07,127.377,2,2.99197,1580.17,-518.192,-26124.8
2.37888e+07,129.188,1,2.90952,8089.6,25913.3,-24986.1
2.39235e+07,144.115,0,2.57006,-683.175,-26324.3,-13595.6
2.40948e+07,67.7665,1,3.01524,-3312.75,12837.8,-23516.6
2.4096e+07,85.9753,0,2.75349,2274.19,-9727.54,-19099.9
2.43232e+07,48.9987,0,2.70712,-4445.44,-6021.47,-21776.9
2.44989e+07,8.33839,1,2.6349,-67.7561,1530.09,-29299.9
2.45917e+07,87.2407,1,3.04939,-14799.2,-7710.02,-21308.6
2.46174e+07,102.85,0,2.73893,-16461.7,-2516.61,-15003.2
2.46365e+07,101.266,2,2.7652,-17336.4,12473.8,-28525.7
2.46475e+07,44.3526,0,2.69254,720.955,8670.32,-25426.2
2.4716e+07,35.5795,0,2.72103,5575.58,-735.607,-23801.2
2.48909e+07,93.94,1,3.00098,-11641.6,-3007.25,-13232.9
2.50628e+07,2.18449,0,2.61984,-231.393,161.942,-28488.5
0,2.19406,0,3.0579,0,0,0
0,2.04773,2,2.51803,0,0,0
0,2.10285,2,2.36582,0,0,0
0,2.01235,2,2.62906,0,0,0
0,2.171,0,2.93729,0,0,0
0,2.0757,2,2.8712,0,0,0
2.51126e+07,106.015,1,2.70112,-19240.9,8301.6,-28719.8
2.5136e+07,67.7195,1,2.96567,-6495.49,4140.26,-16789.6
2.51576e+07,98.6053,1,2.61485,-12215.9,7482.61,-13675.3
2.51764e+07,42.5018,1,2.6365,7851.39,-4000.57,-27344.8
2.53525e+07,9.29876,2,2.76302,1941.24,-259.677,-28582
2.54886e+07,138.393,1,3.02435,-5571.8,26405.6,-18190.7
2.55744e+07,36.2963,2,2.79442,6296.44,3654.28,-26733.2
2.56154e+07,125.278,1,2.97517,-8615.78,20734.2,-15053.1
2.56223e+07,93.5884,2,2.52113,-2880.31,-17856.5,-20647.2
2.56537e+07,23.8726,0,2.68473,365.905,5030.37,-29132.3
2.57075e+07,124.967,2,2.58311,-3468,16584.8,-8604.13
2.57242e+07,183.62,1,2.51784,-6722.14,-2379.51,-21738.1
2.57451e+07,66.5553,1,2.38914,1142.62,11056,-20186.5
2.57546e+07,61.1904,1,2.50496,-5493.53,937.958,-17144.5
2.58252e+07,7.93448,0,2.59717,-926.289,1048.37,-28016.3
2.59003e+07,16.6473,1,2.83948,2792.03,-168.666,-26770.9
2.59226e+07,115.902,2,2.69569,6451.05,-8722.47,-7019.7
2.59779e+07,10.4896,1,2.76124,-2056.57,375.611,-27840
2.60625e+07,21.8338,2,2.76336,-2418.5,-3936.72,-28558.2
2.63501e+07,82.0828,0,2.54305,-5796.59,16251.2,-27732.2
2.69255e+07,140.483,1,2.63847,-18369.4,-11476.6,-8609.99
2.69456e+07,102.801,0,2.40479,6728.73,-13136.4,-12825.1
2.73815e+07,194.474,1,2.8628,-20710.5,633.012,6448.01
2.75845e+07,12.3006,0,2.38842,553.243,1920.2,-27087.4
2.78349e+07,51.9481,2,2.55658,1592.91,-9585.63,-23537.7
2.79295e+07,85.9247,1,2.51212,-11848.3,1959.47,-15132.4
2.79302e+07,3.81682,0,3.05742,973.212,-6.17458,-28874.8
2.79809e+07,12.875,2,2.90622,517.411,1279.89,-26762.8
2.80029e+07,21.1245,2,2.46517,4251.38,-851.54,-29878.4
2.80087e+07,25.0894,0,2.36386,-2613.57,807.231,-24425.2
2.81973e+07,84.9653,0,2.77959,-10928,-13678.1,-25207.7
2.83169e+07,3.71301,2,2.48986,706.235,-293.187,-28474.6
0,3.97182,1,2.38672,0,0,0
2.83678e+07,79.7443,1,2.92512,-15829.3,-4053.77,-24760.1
0,79.7826,1,2.9687,0,0,0
2.85194e+07,30.306,2,2.42107,5682.03,51.9521,-25872.8
2.85819e+07,148.99,0,3.03259,28758.8,-9464.36,-20933
2.8806e+07,16.0311,1,2.84284,-1011.8,1649.54,-26158
2.88094e+07,6.17935,1,2.8103,-828.745,764.979,-29693.4
0,6.20786,1,2.94227,0,0,0
2.88484e+07,79.8008,2,2.42118,955.463,-13252.9,-18201.3
2.89054e+07,200.257,1,2.51911,-6567.36,18979.8,8585.55
2.89354e+07,12.0641,0,2.98915,1931.41,1539.51,-29151.7
2.89665e+07,126.334,0,2.94515,-5043.46,-10091.4,-4821.21
2.9064e+07,17.4254,0,2.56911,2756.14,-2229.02,-27915.8
2.92594e+07,25.452,2,2.71602,-74.3843,-2703.51,-24137.9
2.93356e+07,51.8962,2,2.72286,5640.51,-8486.1,-24407.3
2.93586e+07,107.155,0,2.91414,11868.1,-9518.17,-12313.7
2.93823e+07,56.4802,1,2.76929,11351.9,3231.36,-27492.9
2.95363e+07,132.684,1,2.51442,-2351.83,13869,-4736.34
2.95743e+07,5.81474,2,2.39484,-1010.31,-635.196,-28317.5
2.96174e+07,36.3976,2,2.64423,1427.68,-6386.61,-27864.5
2.96866e+07,5.16539,2,2.95584,-981.027,209.412,-28326.6
2.97009e+07,1.53077,1,2.98025,-267.309,-128.581,-28567.1
0,1.63864,1,2.43675,0,0,0
0,1.65026,1,2.75668,0,0,0
0,1.5094,1,2.75133,0,0,0
0,1.62908,1,2.74003,0,0,0
0,1.51213,1,2.59537,0,0,0
0,1.63483,1,2.56525,0,0,0
0,2.17674,0,2.92263,0,0,0
0,1.5551,1,3.04097,0,0,0
0,1.52118,1,2.69662,0,0,0
