#class tools::wcsv::ntuple
#title time
#separator 44
#vector_separator 59
#column double eventID
#column double t(ns)
#column double copynumber
#column double energy(eV)
#column double x(mm)
#column double y(mm)
#column double z(mm)
394009,8.45961,1,2.61508,264.451,1656.92,-27934.2
511281,96.0328,1,2.66484,-5336,10360.7,-12217.9
561130,40.0533,0,2.81494,6062.93,5520.41,-26557.8
611851,37.4439,0,2.52229,-2523.47,-4610.58,-22941.4
614230,83.2972,0,2.91458,14964.9,-3364.83,-20326
641515,61.4392,0,2.72601,560.494,11347.6,-22590.2
692994,104.463,0,2.76784,8989,-15251.8,-15451.8
728280,139.729,0,2.81228,20561.8,-6036.43,-8624.81
800930,10.5182,1,2.95148,-1253.67,971.114,-27306.2
909935,130.037,1,2.43407,9181.49,8264.34,-4276.71
933280,59.4083,2,2.71007,4065.69,10708.1,-23823.2
1.07311e+06,36.2577,0,2.88415,2904.14,-7119.24,-28454.8
1.10073e+06,33.1646,2,3.02566,-3857.02,-675.306,-22897.1
1.16979e+06,7.1389,1,2.42618,694.356,-238.304,-27480.5
0,7.21136,1,2.82904,0,0,0
1.26168e+06,12.0064,2,2.64351,1104.06,-1679.89,-27260.3
1.28784e+06,25.562,0,2.95407,4648.53,-858.926,-26175.4
0,25.5471,0,2.91922,0,0,0
1.31506e+06,131.471,2,2.95946,24511.4,-2263.88,-19292.4
1.35506e+06,41.9872,2,2.82176,-300.508,389.234,-28814.5
1.3872e+06,44.2872,2,2.45663,-3851.01,5505.4,-22336.6
1.49746e+06,50.8408,1,2.61818,7261.31,6561.32,-24561.9
1.61334e+06,53.9871,0,3.03889,-1360.13,-7461.79,-20459.6
1.80344e+06,42.6114,2,2.4051,-3898.12,-7016.1,-24404.5
1.80828e+06,43.6567,2,2.7857,3253.65,-2212.3,-20455.1
1.82125e+06,52.6187,0,2.82574,10745,-2148.03,-27182.8
1.8364e+06,72.7885,1,2.72823,-6504.49,-5619.02,-16123.5
1.8922e+06,73.8393,1,2.42001,4566.34,8818.5,-16630.7
1.92708e+06,121.077,0,3.02855,16994.5,-13412.2,-21740.2
2.0201e+06,142.826,0,2.8646,10605.1,6604.8,-1488.43
2.04366e+06,80.6193,2,2.75602,-8992.44,-2547.75,-14601.9
2.06521e+06,71.374,2,2.93461,-8859.96,8493.91,-20257.3
2.19945e+06,9.21725,1,2.70679,827.461,808.327,-27299.7
2.25452e+06,22.2868,0,2.93446,4530.63,1249.8,-29654.6
2.26267e+06,9.57566,0,2.42854,1657.78,-1100.47,-28218.2
2.26315e+06,47.6913,1,2.56702,-5490.91,2646.19,-20761.9
2.41004e+06,2.90575,0,2.93078,642.786,525.977,-28897.4
2.47856e+06,278.087,0,2.68848,-25201.9,-24216.5,18176.6
2.52111e+06,5.92112,1,2.9934,663.246,1011.36,-28758.3
2.54556e+06,5.0747,1,2.94327,-98.2329,1183.94,-28954.2
2.57523e+06,49.8018,2,2.6929,-8541.72,-17.0266,-22635.2
2.63636e+06,47.1278,1,2.48509,-8643.56,4298.64,-26707.9
2.74097e+06,9.74555,0,3.02127,170.619,1097.21,-27073.3
2.82169e+06,40.0621,2,2.51839,-7642.07,-3832.08,-28191.1
2.88767e+06,131.718,2,2.76043,-13947.6,1167.86,-4859.91
2.9037e+06,163.457,2,2.7763,-10744.6,-27752.4,-11387.7
3.1607e+06,63.0151,0,2.45524,-4900.16,-12380.6,-29632.1
3.18072e+06,98.1,0,2.81519,-3905.46,16234.2,-16696.1
3.18368e+06,14.9811,0,2.77642,461.488,-2108.83,-26502.3
3.21701e+06,38.9,1,2.67257,-5569.49,5529.97,-26126.9
3.58949e+06,50.7108,0,2.80112,8083.69,7070.3,-29110.4
3.70786e+06,11.3652,2,2.85401,226.765,-2291.36,-29760.8
3.71814e+06,126.663,1,2.89553,-22531.1,-2411.63,-14953.8
3.88244e+06,117.917,0,2.43935,-2548.9,-24573.6,-25750.1
4.02858e+06,51.0764,2,2.90303,-9840.45,-4432.2,-28132.8
4.13364e+06,68.1148,2,2.53134,-6565.91,-1072.06,-16023.4
4.1733e+06,148.802,2,2.85862,13187.2,23157.4,-12587
4.18269e+06,54.8233,1,2.46756,-5294.66,10172.2,-28096.8
4.45012e+06,80.4865,2,2.64448,-11569.9,-12573.3,-28107
4.49085e+06,37.2299,2,2.99202,-3984.7,-6849.48,-28568.3
4.66271e+06,19.6485,1,2.56861,3036,2712.02,-29494.1
4.67064e+06,134.091,0,2.55829,23218.2,-6930.46,-14159.4
4.68881e+06,89.5226,2,2.58736,9439.3,-16173.1,-25686.6
4.79806e+06,41.0645,2,2.58158,-4235.57,1390.81,-21336.8
4.85997e+06,10.258,1,2.87575,-2124.09,653.601,-29107
4.96436e+06,98.3606,1,2.45661,-4922.6,17892.8,-19266
4.98572e+06,150.66,0,2.99425,-26328.5,-17178.8,-26980.3
5.01016e+06,15.2,2,2.87982,506.672,-2015.33,-26298.1
5.09228e+06,47.0795,0,2.88887,530.719,-5427.2,-20619.3
5.17111e+06,136.105,0,2.8136,14675.5,11562.5,-7106.15
5.31046e+06,54.0834,2,2.9408,11056.5,1136.89,-26379.1
5.31072e+06,33.5016,1,2.97763,-3254.76,-3728.57,-24625.8
5.5063e+06,154.337,1,2.81637,29235.5,-434.639,-17624.6
5.70036e+06,7.85226,0,2.96532,-524.88,730.236,-27467.5
5.9259e+06,18.488,0,2.61292,-1239.14,1513.06,-25447.8
5.96131e+06,24.3839,0,2.69147,4873.74,-1366.17,-27266.5
6.0597e+06,42.7063,2,2.83389,-6490.66,1047.77,-22801.7
6.0766e+06,163.942,2,2.57563,-1559.4,-12292.4,3573.15
6.10403e+06,25.873,2,2.43441,3956.18,3055.32,-26703.9
6.12265e+06,101.428,1,2.81209,973.451,9696.04,-9859.57
6.14653e+06,8.95967,1,3.01523,-106.626,1789.5,-28160.3
6.1574e+06,134.898,0,2.62855,15450.2,23683,-26579.2
6.16444e+06,56.283,2,2.95817,-6429.47,8947.77,-25326.9
6.21723e+06,76.0208,0,2.64888,11623.7,-11252.6,-29072.4
6.26474e+06,51.2314,1,2.42239,5354.8,9406.63,-27091.1
6.35793e+06,34.0708,0,2.57425,2490.91,5026.08,-24250.9
6.39973e+06,43.5243,1,2.85615,4571.44,2685.31,-21382.9
6.43498e+06,70.9617,2,2.62561,-14314.5,-2541.89,-24813.6
6.45795e+06,7.15637,0,2.8237,37.1848,1218.86,-27879.7
6.63204e+06,17.2978,2,3.02843,-943.57,-3093.33,-27117.9
6.94941e+06,18.9958,0,2.73121,2479.12,3179.82,-29244.6
6.99978e+06,13.4014,1,3.00101,-1536.38,2078.66,-27559.3
7.00636e+06,9.15997,0,2.44837,705.027,1513.96,-27693.9
7.08134e+06,70.2612,0,3.02824,-1590.64,-13949.5,-24046.7
7.08461e+06,23.5157,2,2.9198,-4008.46,220.61,-25885.6
7.16935e+06,19.0034,0,2.52594,2899.13,2482.54,-27343
7.18281e+06,54.5061,2,2.48389,-6442.28,-314.775,-19463.6
7.26652e+06,74.3359,2,2.48718,-3555.53,5921.61,-14748.6
7.3367e+06,154.736,0,2.36412,-18074.9,-14958.7,-6010.13
7.4273e+06,13.9502,0,2.83894,3029.22,-907.519,-28861.9
7.47477e+06,117.307,1,2.85659,-23485.3,100.024,-21100.6
7.50497e+06,23.1923,0,2.62696,807.149,4855.18,-29467.1
7.53566e+06,141.564,2,2.926,-9212.9,-20763.7,-9528.37
7.55244e+06,16.8312,0,2.64663,3493.47,1057.11,-28880.8
7.7056e+06,97.7128,0,2.74464,19444.4,5418.99,-23686.1
7.73243e+06,152.198,0,2.91519,13080.3,-28849.4,-24725.2
7.8839e+06,76.6236,0,2.53973,10983.8,12025.8,-28287.7
7.95583e+06,125.373,1,2.4423,-10194.5,6130.56,-5196.78
7.97552e+06,37.6879,2,2.80297,-6996.97,1193.52,-27512.3
7.99664e+06,30.2086,0,2.37379,-2033.46,5904.77,-27612.5
8.03292e+06,54.3052,2,2.93521,-1269.73,-7649.31,-20363.3
8.28166e+06,50.8446,1,3.0226,-7720.84,6623.44,-25298.2
8.29002e+06,15.4081,2,2.74818,-731.101,-396.508,-25745.4
0,15.4003,2,2.61749,0,0,0
8.53844e+06,47.6964,0,3.0231,-1358.74,-7088.35,-21942.9
8.60417e+06,165.61,2,2.62221,-14833.4,10559,884.207
8.60953e+06,139.145,1,2.56208,22052.2,17436.4,-20222.5
8.647e+06,9.13526,0,2.7227,576.995,-1386.46,-28610.7
8.74968e+06,164.104,1,2.37518,3726.69,-27156.2,-7617.08
8.78917e+06,46.3755,0,2.44973,-2441.74,5307.84,-21033.6
8.79534e+06,61.7935,0,2.77803,-463.62,6505.87,-17555.6
8.82816e+06,21.6723,1,2.92725,-3671.04,-1996.89,-27059.2
8.97734e+06,43.6567,0,2.77267,5854.17,3747.51,-22809.1
8.99931e+06,3.38171,0,2.449,-17.1893,-277.809,-28407.6
9.00297e+06,172.115,2,2.5179,16042.2,-28913.1,-13434.7
9.07853e+06,15.0208,0,2.66112,1254.28,-1375.46,-26241.6
9.21547e+06,14.2307,1,2.64112,584.638,2913.89,-29467.5
9.31055e+06,34.0904,2,2.98074,4095.91,-5844.8,-29816.8
9.37508e+06,37.5086,0,2.54213,5211.93,-3684.19,-23987.3
9.39411e+06,31.7976,2,2.97808,529.485,2554.04,-22696.7
9.50713e+06,176.432,1,2.78155,-6208.45,-11598,-2640.94
9.52318e+06,141.663,1,2.8172,24604.7,-11729.8,-17729.2
9.5836e+06,193.727,0,2.95763,4062.87,-25837.2,2272.32
9.62015e+06,28.8465,1,2.53076,-4533.86,-1628.42,-25056.1
9.63183e+06,57.9539,1,2.84741,4998.44,-2428.2,-18004.7
9.63749e+06,68.551,0,2.96637,10089,9636.52,-25087.8
9.64681e+06,109.664,0,2.62394,17454.8,10649.9,-17933.1
9.74918e+06,9.97674,0,2.75589,-1150.61,-1305.49,-27650.9
9.75548e+06,26.9027,1,2.45417,-4263.66,3835.95,-27974.2
1.01609e+07,130.049,0,2.52462,-3721.59,38.4625,-25416.5
1.03173e+07,21.2277,0,2.53845,3243.22,1078.64,-25679
1.04302e+07,21.597,2,2.68704,-2403.19,3729.94,-27943.7
1.05429e+07,154.241,0,2.89816,-9591.32,26789.9,-13381.7
1.05473e+07,52.3242,1,2.53082,4583.07,9632.41,-25742.1
1.12081e+07,16.0908,1,2.68079,-2767.95,-420.513,-27058.1
1.12189e+07,19.5433,0,2.52257,3917.46,1397.13,-29592.6
1.12286e+07,26.4836,2,2.79066,4794.8,1851.48,-28038.2
1.12508e+07,5.55886,2,2.71308,765.245,-1024.64,-28754.7
1.12751e+07,36.3144,2,2.82389,1940.33,4024.31,-22732.7
1.13531e+07,38.3241,0,2.84523,4922.31,6314.79,-27170.8
1.13773e+07,77.0369,1,2.69629,6800.86,3525.86,-14495.9
1.1408e+07,201.721,1,2.65992,-20233.1,19443.7,3227.26
1.14638e+07,210.824,0,2.92143,-16347.3,-25521.8,-8632.35
1.14731e+07,125.02,2,2.45061,-4677.32,-23445.6,-17020.5
1.14889e+07,268.062,0,2.55001,28635.2,-16383.7,17043.3
1.15687e+07,2.4703,2,2.75067,514.488,-32.2555,-28835.1
1.16429e+07,63.7796,1,2.83037,9265.08,8727.26,-24387.9
1.18433e+07,40.7806,0,2.86339,2250.96,2341.41,-20865.6
1.18654e+07,34.5445,1,2.5358,-654.362,3809.91,-22546
1.18959e+07,15.0194,2,2.62721,-1013.1,2084.6,-26797.1
1.19009e+07,66.9285,0,2.67889,-2005.94,-11662.9,-21423.5
1.19585e+07,52.8877,2,2.47804,4729.21,7196.93,-21751.6
1.2082e+07,125.487,2,2.71405,5619.31,-6322.81,-3769.82
1.2102e+07,13.0731,0,2.60891,1674.68,1423.15,-27065.1
1.22774e+07,71.7124,1,2.57125,-14854.1,506.432,-25563.7
1.23484e+07,47.8115,0,2.44467,4238.37,9193.3,-29708.1
1.24329e+07,38.4376,0,2.45035,5993.57,-1263.05,-23703.5
1.24647e+07,4.58488,1,3.05825,-886.794,408.83,-28505.2
1.28758e+07,80.927,2,2.59951,-8538.3,-12928.4,-21313
1.29781e+07,83.099,0,2.87891,1841.75,15274.2,-19982.8
1.30312e+07,10.7618,0,3.06072,2194.06,-911.319,-28680.7
1.3057e+07,112.57,1,2.95804,3054.92,4217.7,-20800.3
1.32884e+07,135.797,0,2.36462,15892.3,23269.9,-22876.9
1.37842e+07,115.357,0,3.0366,14422.8,-465.359,-9381.76
1.38838e+07,119.035,2,2.74058,-11146.5,-7836.43,-7737.62
1.39424e+07,206.815,1,2.93309,-28307.3,11117.6,-4784.66
1.40425e+07,128.559,2,2.81887,-12515.8,-886.538,-10232.5
1.40825e+07,71.3909,2,2.97401,6426.53,-4953.76,-16197.3
1.42166e+07,126.718,1,2.42838,-11261.9,23225.4,-21688.8
1.43503e+07,25.4173,0,2.74551,1540.98,-620.493,-23733.5
1.44108e+07,137.328,0,2.55863,-7429.22,-27919.3,-26075.1
1.44209e+07,176.168,0,2.44859,14600.9,6682.43,4803.96
1.45259e+07,5.89776,2,2.45553,-546.19,-644.022,-27767.5
1.4544e+07,30.5349,1,2.48742,439.522,-4357.56,-24361.8
1.45823e+07,54.1177,2,2.56625,-3812.55,425.334,-18009.1
1.47365e+07,274.878,2,2.75914,-12296.6,15193.8,14452.8
1.47568e+07,44.406,0,2.71071,-358.634,-4464.8,-20587.9
1.47794e+07,49.5855,0,2.58563,67.7002,9966.62,-25238.3
1.48049e+07,173.398,2,2.94729,13070.1,27220.4,-8741.56
1.4816e+07,44.3629,0,2.38662,-1608.31,7487.47,-23260.8
1.49048e+07,114.624,1,2.89494,-3355.75,-16339.3,-11499.1
1.5161e+07,139.941,1,2.86486,8328.17,28040,-25058
1.52387e+07,177.842,2,2.38324,-14548.4,-15651.5,2110.98
1.53363e+07,38.1079,2,2.78092,-5342.62,1235.67,-23248.3
1.55514e+07,76.8596,0,2.93222,-14945.5,-93.7725,-23071
1.56576e+07,31.7039,1,2.61235,6.20898,6743.72,-29335.5
1.56617e+07,13.3356,1,3.00858,-1490.91,709.899,-26548.7
1.57842e+07,72.599,1,2.52361,-12466.8,9026.42,-27748.7
1.60128e+07,14.2906,2,2.55166,-1893.22,-170.203,-26429.3
0,14.7656,0,2.85254,0,0,0
1.61041e+07,3.1342,0,2.74317,326.615,-868.816,-28562.5
0,3.26793,0,2.15892,0,0,0
1.63321e+07,2.58432,1,2.39131,-567.036,145.644,-28568.6
1.64375e+07,19.8531,0,2.88451,3833.8,-1225.47,-27649.4
1.65394e+07,33.4276,1,2.81456,3394.27,-1528.09,-22922.4
1.66134e+07,162.927,0,2.79515,-17856.3,1567.78,341.879
1.6658e+07,47.4546,2,2.8639,9004.01,-1192.75,-24648.8
1.66696e+07,58.0562,0,2.89164,1995.9,-9803.65,-21669.3
1.68796e+07,139.6,2,2.871,-3738.55,-15734.4,-4263.37
1.6886e+07,88.4989,1,3.02737,-6120.14,2583.33,-11569.4
1.69742e+07,124.226,1,2.69148,7543.45,11472.2,-6541.68
1.70155e+07,79.0476,1,2.93738,780.157,-12800.2,-23960.7
1.70247e+07,7.66477,2,2.95181,545.269,-1283.45,-27835.2
1.70728e+07,124.899,0,2.84424,13439.5,-11867.8,-9673.82
1.72259e+07,43.8444,1,2.50822,2319.15,2306.58,-20045.6
1.7314e+07,9.02088,1,2.79603,-1089.12,-1522.07,-28624.5
1.73388e+07,18.1706,1,2.95287,196.727,-2497.57,-26055.4
1.73586e+07,97.9074,1,2.86046,-17695.8,4624.08,-19235.6
1.7403e+07,113.421,0,2.77342,18280.8,-12343.5,-19476.1
1.74882e+07,20.3157,2,2.83856,-1518.03,-1347.5,-25041.6
1.75432e+07,10.0964,2,2.78337,-485.054,-1122.9,-27078.4
1.75936e+07,43.6002,1,2.50986,-5812.2,7061.29,-26960.3
1.76533e+07,26.2971,2,2.4659,-3952.09,-3906.16,-28228.4
1.77206e+07,107.067,2,2.90774,-9724.85,3848.56,-9008.76
1.79751e+07,59.6161,0,2.80857,9135.29,-8693.81,-28125
1.80221e+07,24.608,1,2.69862,-1354.7,2945.73,-25810.1
1.81283e+07,183.506,1,2.99337,-15387.9,21591.7,-963.446
1.81314e+07,88.8376,1,3.0308,2969.29,18141.3,-25486.6
1.81445e+07,9.48632,0,2.8149,1108.9,-871.355,-27349.4
1.81539e+07,144.803,1,2.61967,16579.4,-8270.76,-4601.03
1.81872e+07,44.7885,0,2.59077,357.509,-3024.93,-20157.6
1.8214e+07,8.66819,2,2.92021,-612.861,781.795,-27474.3
1.83139e+07,102.846,2,2.73377,1379.19,19148.6,-19133.4
1.8342e+07,0.829121,1,2.65378,13.2337,222.724,-28764.2
1.8399e+07,41.8498,0,2.76674,5521.19,-5727.86,-25122.2
1.84339e+07,81.4254,0,2.50256,8577.45,-9149.54,-17008.5
1.87823e+07,22.1366,1,2.52323,-3822.6,-118.067,-29764.7
1.89257e+07,160.744,0,2.78733,29.2086,19967.8,-1528.22
1.90134e+07,103.053,1,2.96445,-749.164,15117.5,-13343.6
1.91813e+07,243.224,0,2.96124,24632.5,-12399.6,14132.4
1.92128e+07,73.4991,2,2.37971,8121.77,-5190.38,-16691
1.92445e+07,37.7091,0,2.70161,6189.12,4414.55,-26879.1
1.9272e+07,34.9752,0,2.47092,4562.22,4919.92,-25608.3
1.93382e+07,121.32,0,2.59939,-16871.4,-2307.74,-9756.84
1.9481e+07,122.963,1,2.62199,-23901.9,-7223.25,-21641.4
1.96916e+07,32.6614,0,2.58225,2992.98,-3190.06,-23784.7
1.96993e+07,66.4405,1,2.4914,-3556.25,-4186.41,-15942.3
1.97822e+07,70.4189,0,2.85702,-636.631,-11948.5,-20080.1
1.99359e+07,168.309,2,2.40023,20361.3,-9423.29,-1174.41
2.00468e+07,106.698,1,2.98265,4912.98,-1387.36,-25568.9
2.00484e+07,81.4037,0,2.94202,-2392.56,-6084.87,-13342.1
2.01978e+07,140.117,0,2.65621,5583.19,-9613.83,-1545.91
2.02927e+07,55.7364,1,2.70091,6928.28,-624.714,-19381.8
2.036e+07,14.8907,2,2.97826,-1169.8,2805.33,-29164.2
2.0386e+07,19.6117,2,2.5813,-305.008,-4235.99,-29412.3
2.04261e+07,84.9296,2,2.51958,10024.2,-2733.63,-28032
2.04281e+07,100.15,0,2.63398,19593,-6387.86,-24553
2.0474e+07,170.731,2,2.78023,28833.3,-715.191,-7514.98
2.04745e+07,225.873,2,2.443,4862.27,3151.23,-17965.3
2.05643e+07,41.4061,1,2.90087,-3787.34,5203.64,-22935
2.06828e+07,53.066,1,3.00573,-1885.5,9404.32,-23030.4
2.07261e+07,48.3411,0,2.59178,8523.14,3943.39,-24915.1
2.08291e+07,84.4802,1,2.72909,-7795.6,14485.1,-26473.5
2.08331e+07,18.267,0,2.36389,-2660.07,2120.78,-27289
2.0851e+07,75.2089,0,2.80443,-7307.06,12314.8,-23930.3
2.08857e+07,28.2453,1,2.77939,-3112.14,-220.058,-23772.6
2.09666e+07,135.195,2,2.6428,-22131,8311.49,-20896.8
2.10857e+07,38.5615,0,2.45196,1310.51,-5495.8,-22973.8
2.11125e+07,29.5245,0,2.46149,3125.36,-4133.54,-25553.3
2.12439e+07,100.177,0,2.59664,-10630.5,3807.56,-10998.3
2.12588e+07,140.096,2,2.67771,-5761.77,-17568.7,-5736.71
2.12799e+07,5.78683,2,2.98842,-856.169,717.195,-28276.3
2.13216e+07,124.239,1,2.62286,-5433.43,-21263.3,-14573.3
2.13964e+07,86.1345,0,2.55918,3615.98,17546.9,-25467.8
2.13986e+07,101.638,2,2.79195,13486.9,-2298.9,-12420.7
2.14803e+07,159.009,0,2.87655,2460.22,2505.67,-9865.69
2.15669e+07,42.3877,0,3.01231,5201.27,-7030.18,-26912.1
2.15741e+07,98.6577,0,2.9974,-4566.18,-20108.3,-28649.7
2.1594e+07,23.8346,0,2.67928,2886.06,1159.93,-24869
2.17255e+07,78.3002,2,2.57253,5179.36,-1129.19,-13127
2.17375e+07,89.1402,1,2.97282,-9095.62,8804.87,-14990.9
2.18145e+07,87.64,1,2.43263,2671.32,14049.9,-16958.8
2.19696e+07,176.303,0,2.4289,7634.79,23945.7,-1248.49
2.20891e+07,53.8207,0,2.85354,4345.67,-1230.48,-18371.9
2.22723e+07,96.6063,2,2.77769,1890.96,-17569.7,-18615.1
2.24894e+07,49.4871,2,2.60105,9759.24,-1021.14,-25205.4
2.2621e+07,82.8419,1,2.49839,-13852,6563.06,-20053.7
2.2639e+07,30.1435,0,2.65747,-2182.07,-5694.43,-27013
2.27668e+07,187.167,2,2.69419,25552.6,7850.96,145.159
2.29763e+07,28.1943,2,2.3865,-2712.71,5214.05,-27973.6
2.30637e+07,6.57833,0,2.62003,1058,789.675,-28130.8
2.31521e+07,38.1885,0,2.49754,7211.21,3768.1,-28197.6
0,38.2034,0,2.70222,0,0,0
2.3153e+07,170.251,0,2.89514,6352.37,20071.1,-1.2306
2.31742e+07,171.661,2,2.63688,28042,5921.98,-6764.59
2.32005e+07,256.936,1,2.79972,-17371.8,8470.08,-16314
2.32461e+07,57.4222,0,2.66594,4732.19,-7392.2,-24876.5
2.32751e+07,19.158,0,2.36743,1157.28,2926.22,-26140
2.32988e+07,223.053,0,2.4263,-10699.7,-23692.5,10629.9
2.34484e+07,110.684,0,2.96213,-9324.93,12549.5,-11650.8
2.34863e+07,28.4083,2,2.69818,-5895.82,-217.175,-27377.9
2.3575e+07,17.4255,2,2.72712,-1095.76,-2643.79,-26504.9
2.37249e+07,12.8052,2,2.80974,1876.1,-2017.21,-28942.4
2.37929e+07,88.6995,2,3.04894,-4469.38,7874.63,-12628
2.38349e+07,94.1067,2,2.61104,15276.5,-3331.57,-16564.8
2.40223e+07,7.01802,0,2.53388,-19.7848,-600.085,-27457.4
2.45295e+07,23.3605,0,2.72358,2638.77,-3572.34,-27169.8
2.45885e+07,76.8285,0,2.71231,-6845.79,-7083.26,-16139
2.45959e+07,40.6746,1,2.72778,2816.3,-5389.62,-22941.2
2.46407e+07,181.796,2,2.75341,-25044.3,-24075.5,-12419.4
2.46453e+07,58.1135,2,2.72244,-12071,1334.21,-27008.5
2.46758e+07,168.835,0,2.6003,-10202,13483.9,2244.16
2.47297e+07,2.76345,2,2.52521,-639.049,49.7339,-28772.5
2.47526e+07,90.0877,2,2.60316,-13564.4,-13408.9,-28177.5
2.49564e+07,159.494,2,2.93848,10341.2,29646.2,-24309.7
2.497e+07,149.166,2,2.6113,-23521.2,-1903.2,-8006.62
2.50179e+07,64.3776,2,3.04583,9908.23,-8493.74,-25452.9
2.50955e+07,109.509,1,2.63438,-19551.7,2318.02,-16415.5
2.51209e+07,3.16221,2,2.91032,-710.144,25.7543,-28614.6
2.51818e+07,82.146,2,2.90906,12008.4,-2915.72,-16879.9
2.52154e+07,105.041,2,2.66893,-13535,7466.31,-13294.6
2.52657e+07,175.41,2,2.97881,24209.8,-7937.26,-18642.5
2.52781e+07,28.9885,2,2.78135,-1060.29,-1043.6,-22911.3
2.533e+07,3.05894,0,2.97794,509.691,-436.622,-28541.2
0,3.01953,0,2.96142,0,0,0
0,3.02411,0,3.03164,0,0,0
0,3.00231,0,2.58414,0,0,0
2.53388e+07,42.4676,0,2.61604,2851.43,5052.32,-21922
2.54226e+07,93.572,1,2.86326,-579.962,15423.6,-16378.2
2.54264e+07,1.9912,0,2.56399,427.9,-66.185,-28493.3
0,2.07802,0,2.60513,0,0,0
0,1.98232,0,2.92123,0,0,0
2.54358e+07,37.9551,2,2.70039,4815.25,-5338.98,-25212.7
2.54475e+07,40.758,2,2.57589,-2288.77,-7470.55,-25005.1
2.5522e+07,190.586,1,2.68809,-11058.8,-20082.2,4249.36
2.56287e+07,19.15,0,3.03894,1808.33,1754.04,-25638
2.56486e+07,15.3903,0,2.58345,3063.16,553.997,-27594.4
0,15.4301,0,2.78295,0,0,0
2.57457e+07,20.1492,0,2.56152,3028.32,1082.19,-25974.3
2.57473e+07,135.414,2,2.52769,3729,24108.8,-13975.1
2.5754e+07,4.08368,1,2.71324,-426.332,824.017,-28428.3
2.57865e+07,89.7183,2,3.01187,-15151.9,-11059.8,-26490.5
2.60258e+07,21.1424,2,2.75937,2235.43,-3377.25,-26808.3
2.61915e+07,55.3762,1,2.40564,-6476.04,5820.27,-20907.1
2.62757e+07,82.3868,0,2.73327,7731.22,15120.5,-24967.5
2.63848e+07,59.7926,1,2.96228,-11897.3,-93.6075,-24868.2
2.64151e+07,18.7151,2,2.77164,-2773.63,-2930.49,-28950.1
2.64487e+07,107.447,1,2.57677,-5962.05,17166.3,-15071.1
2.67651e+07,58.283,2,2.45375,165.024,-4367.03,-27224.8
2.68271e+07,48.9868,2,2.52618,-7814.09,997.526,-21976
2.68504e+07,311.002,2,2.52757,-8967.9,-15716.6,9942.63
2.70338e+07,143.772,1,2.94294,-20623.2,-12486.6,-10744.5
2.70379e+07,35.057,1,2.93844,-2152.14,4742.41,-23648.1
2.70966e+07,10.9833,0,3.03181,1807.33,-1409.1,-28098.5
2.71781e+07,5.61178,0,2.4142,1164.47,482.688,-28554.9
2.72241e+07,88.0442,1,2.75811,3940.85,14412.5,-17621.6
2.72538e+07,20.1312,2,2.41801,-1271.94,478.876,-24803.1
2.73175e+07,45.6006,2,2.64379,4571.66,-4652.4,-21508.9
2.74266e+07,32.9035,1,2.96404,-1533.92,4609.41,-23678.3
2.74486e+07,141.118,2,2.75018,-94.9875,-13924.2,-2534.13
2.74689e+07,23.2866,0,2.95842,-486.542,-2981.94,-25067.7
2.75987e+07,31.401,2,2.73202,-474.737,2645.12,-22904.2
2.77325e+07,25.4247,0,2.84183,2169.47,4280.59,-26397.8
2.78084e+07,39.7966,1,2.41464,-1707,7449.42,-25198.7
2.78207e+07,25.1344,0,2.70235,5084.51,1539.48,-28104
2.78365e+07,5.99527,1,2.37389,274.05,922.51,-27923.5
2.79496e+07,44.0936,0,2.45831,3021.92,7260.4,-23901.4
2.81559e+07,46.228,2,2.57193,8812.83,-1482.69,-24872
2.81566e+07,149.695,0,3.05661,17617.6,21666.2,-14518.9
2.81991e+07,89.5168,1,2.94755,2247.09,16030.8,-19294.5
2.82302e+07,230.457,0,2.47768,-27823.2,9336.93,9988.26
2.83953e+07,12.9514,1,2.57038,478.554,2121.63,-27064.1
0,13.0725,1,2.64024,0,0,0
2.8594e+07,51.4782,2,2.49921,-6044.17,7505.04,-23776.3
2.87074e+07,100.628,2,2.85521,-743.324,11141.8,-10815.9
2.87142e+07,53.3563,0,2.51575,3733.88,-3003.39,-18702.2
2.8763e+07,24.8151,2,2.88377,-4051.97,-1744.49,-25985.3
2.87767e+07,100.203,1,2.5229,2927.76,5298.9,-8545
2.92725e+07,58.5371,1,2.78239,6664.4,-2608.74,-18792.7
2.93614e+07,70.8545,1,2.76694,-14175.2,-2014.23,-24469
2.96232e+07,68.0471,2,3.00687,-1419.6,5893.43,-16028.1
2.98584e+07,104.862,2,2.48552,15881.1,-10429.1,-17386.2
