#class tools::wcsv::ntuple
#title time
#separator 44
#vector_separator 59
#column double eventID
#column double t(ns)
#column double copynumber
#column double energy(eV)
#column double x(mm)
#column double y(mm)
#column double z(mm)
201634,65.1407,0,2.46347,3744.97,-10332.8,-20443.1
293450,18.1272,2,2.54085,-2619.51,1889.23,-26727.5
422597,150.306,2,2.64482,-16510.4,-18871.3,-11331
667948,69.1998,0,2.85017,2751.86,-7278.63,-16525.9
968350,51.5669,2,2.78097,-8951.89,-1370.26,-22741.9
986115,41.7428,2,2.71053,4790.87,-3950.9,-22579.5
1.04989e+06,7.2152,0,2.8492,-525.166,946.723,-27799.9
1.3053e+06,170.027,1,2.61294,19644.7,-18824,-5478.49
1.56328e+06,11.5674,0,2.8281,-195.102,2395.39,-28275.4
1.56808e+06,50.4845,1,2.76151,-3324.06,6371.27,-21022.3
1.80974e+06,3.08166,1,3.03944,138.543,400.765,-28277.9
1.90977e+06,116.033,0,2.72038,4977.05,16893.7,-11841.9
2.26429e+06,69.814,1,2.46889,14114.2,-1656.22,-25005.4
2.37004e+06,19.7959,0,2.94257,1840.1,-3729.22,-28055.4
2.68098e+06,10.8186,0,2.65542,-225.593,-2087.12,-27897.6
0,10.4862,2,2.85492,0,0,0
2.78539e+06,4.68266,1,2.51787,480.603,637.077,-28180.4
0,4.74963,1,2.92675,0,0,0
2.83615e+06,42.5954,2,3.05355,-5997.62,739.836,-22228.9
3.12328e+06,258.221,1,2.4557,28877.4,18637.1,5082.06
3.36032e+06,36.6435,1,2.97923,-1482.54,6606.31,-25014.3
3.38424e+06,62.9452,2,2.41039,6988.99,-6653.51,-19616.1
3.44185e+06,81.074,1,2.87002,2074.37,10650.8,-15656.1
3.45967e+06,65.0253,2,2.68298,-7467.97,4685.75,-18300
3.85647e+06,15.95,0,2.82261,-913.583,-1943.35,-26253
4.16581e+06,41.3519,1,2.7796,1390.27,7571.73,-24619.9
4.20208e+06,4.83094,0,2.75241,837.187,663.801,-28525
4.40138e+06,77.5029,0,2.53236,107.855,-15303.8,-22922.4
4.80119e+06,30.021,1,2.88247,-1481.08,4580.28,-24641.3
4.84267e+06,28.1349,1,2.51715,4008.68,3890.56,-26724.3
4.92409e+06,112.886,2,2.63998,-12458,-10923.6,-11628.7
5.01396e+06,115.314,1,2.66308,-17076.4,-1013.31,-11500.6
5.08205e+06,150.219,0,2.64776,-18367.5,406.76,-3065.53
5.17194e+06,6.8347,1,2.90546,788.159,-259.787,-27677.1
5.20291e+06,115.038,2,2.89846,12453.8,-17025,-16953.1
5.4945e+06,127.482,0,2.73879,4073.85,-26233.4,-24639.4
5.5282e+06,80.6632,1,2.45467,-7960.13,-3443.79,-14120.4
5.85208e+06,9.18415,0,2.51224,1476.4,533.612,-27575.8
6.04132e+06,79.074,0,2.87768,15167.5,-152.176,-21838.3
6.35924e+06,115.927,2,2.4539,14984.3,-17911.7,-21229.6
6.85622e+06,3.70388,1,2.59335,-601.538,585.397,-28684.9
7.00134e+06,22.3753,0,2.85319,3903.93,-1603.79,-26567.8
7.2384e+06,3.35465,2,2.54929,-525.118,-445.291,-28425.5
7.29436e+06,66.7164,2,2.71105,-1065.55,-4423.17,-20895.4
7.50562e+06,21.0807,1,2.91634,-2572.28,2986.79,-26658.1
7.73128e+06,31.4649,1,2.57123,-1497.12,5862.3,-25850.2
0,31.4852,1,2.52563,0,0,0
7.88854e+06,79.1559,0,2.57438,16780.5,963.98,-27846.9
7.98107e+06,22.3157,1,2.87164,405.245,555.487,-28482.2
8.29139e+06,154.302,0,2.88021,8720,21514.2,-6189.88
8.59579e+06,156.253,1,2.73733,-11951.8,14845.7,-1934.6
8.68467e+06,29.8596,1,2.88157,-3887.41,-2150.16,-24377.6
8.74925e+06,1.1412,2,2.72769,-280.945,-25.5305,-28717.4
8.93475e+06,55.2761,1,2.46581,-1299.24,9528.29,-22039.4
9.11681e+06,13.1766,1,2.99321,1351.07,2470.1,-28782.4
9.37022e+06,43.8602,0,2.68612,5609.74,-2336.14,-21791.6
9.45939e+06,205.187,0,2.59095,-25948.4,6127.35,5256.96
9.63504e+06,34.2587,2,2.915,-1159.33,4350.31,-23264.3
9.85598e+06,48.3062,1,2.36425,1632.76,6338.37,-20904.2
1.00198e+07,106.851,2,2.56842,-6267.75,-19523.2,-19204
0,107.033,2,2.67517,0,0,0
1.02016e+07,67.5861,2,2.53291,-9186.01,-10188.7,-24497.8
1.03034e+07,90.9405,2,2.69469,-15579.5,-9056.76,-22059.6
1.03667e+07,118.51,1,2.38842,-16397.9,-2965.41,-10091.7
1.03828e+07,28.2187,1,2.97768,-2894.37,-4286.1,-25967.4
1.08991e+07,41.6814,0,2.85125,-4848.24,-2619.04,-22043.2
1.15441e+07,7.65645,0,2.98701,-399.674,1396.14,-28116.6
1.20354e+07,22.7107,1,2.82897,-4010.87,610.601,-26200.1
1.21251e+07,31.9386,2,2.88114,3301.32,4515.04,-25204.2
1.21903e+07,67.5382,0,2.61377,2620.79,13490.9,-24845.6
1.23048e+07,0.392522,2,3.04413,-107.943,-169.183,-28873.3
1.24059e+07,58.6211,0,2.96864,-2197.88,-8322.35,-20058.6
1.2549e+07,3.24532,0,2.53283,453.823,201.2,-28268.3
1.26821e+07,90.8575,1,2.69729,2486.03,8474.48,-11833.8
1.27104e+07,160.4,2,2.68848,-17404,-25864.8,-15514.5
1.27292e+07,9.46176,0,2.55546,628.704,1206.37,-27300.7
1.27621e+07,127.359,0,2.82941,12946,19763.8,-16120.6
1.29912e+07,126.381,1,3.02285,2134.47,25811.2,-22890.1
1.30408e+07,177.948,0,2.75917,19629.8,1227.35,3092.97
1.33473e+07,40.9161,0,2.69682,-5327.18,-389.403,-22089.8
1.33937e+07,5.57417,1,2.68799,-305.98,337.497,-27728
0,5.54902,1,2.84683,0,0,0
1.37007e+07,36.1382,0,2.70673,2764.46,-1398.16,-21821.3
1.38238e+07,35.7048,1,2.42978,-6833.92,-2801.58,-27121.4
1.45849e+07,19.1946,0,2.68089,2461.28,2861.9,-28344.6
1.51666e+07,74.0182,2,2.36862,-15433.5,454.161,-25953.9
1.517e+07,168.579,0,2.87921,-13990.1,11813.5,1430.12
1.56189e+07,35.1435,2,2.78688,-5758.21,-4780.41,-29050
1.56377e+07,95.1317,0,3.00333,-5528.78,-14956.7,-16868.5
1.57244e+07,24.4753,0,2.39385,4988.68,1376.25,-27747
1.60666e+07,59.6101,0,2.59498,1666.29,12513.9,-28788
1.61491e+07,1.71823,2,2.62848,8.97023,-437.88,-28935.3
1.62874e+07,45.7522,1,2.57621,-7480.35,1616.03,-22817
1.64069e+07,33.9496,1,2.74946,6638.03,2589.46,-29469
1.641e+07,22.6633,0,2.60636,4758.72,-878.53,-28142.3
1.66952e+07,33.3817,1,2.92027,-1927.3,5722.04,-25129.6
1.73898e+07,169.632,0,2.91744,5805.6,7704.69,5466.14
1.78145e+07,93.9445,0,2.91159,4147.74,18000.1,-21820.3
1.78229e+07,133.407,1,2.94296,-2673.91,24829.6,-16053.7
1.78974e+07,58.3059,2,2.44327,4844.48,-11322.4,-27454.1
1.84843e+07,184.251,2,2.49905,-6517.09,-14049.8,6950.68
1.85028e+07,86.8096,2,2.80625,-12919.6,-13041.3,-28713.1
1.86817e+07,31.9168,1,2.60426,-2726.36,6268.85,-28461.5
1.8701e+07,90.0884,0,2.46362,-13520.8,-6389.26,-17098.4
1.89472e+07,43.6505,2,2.53862,6982.31,-3642.28,-23968.3
1.90372e+07,103.014,2,2.98866,19298.1,-4359.99,-20173.1
1.93445e+07,6.59938,1,2.4908,-445.002,-1014.41,-28054.9
1.93783e+07,49.779,1,2.55906,1746.57,-8187.97,-22528.9
1.99954e+07,154.882,2,2.5272,-9627.86,7269.34,1533.63
2.0023e+07,76.8693,0,2.63961,-8260.83,-9807.63,-18943.5
2.00987e+07,80.9155,1,2.81478,-8209.31,9646.77,-17352.6
2.02564e+07,43.1354,2,2.63139,-5356.68,-6516.35,-25153.2
2.03316e+07,22.2002,2,2.69548,-1970.16,-1746.19,-24904.3
2.07228e+07,36.8063,0,3.04363,6679.64,2335.28,-25541.6
2.11006e+07,55.8269,1,2.49072,3998.2,-4264.96,-18623.4
2.11391e+07,184.255,2,2.53264,-10950.3,2493.93,8436.16
2.12857e+07,77.822,2,2.74075,-9874.86,-11896.3,-23143.3
2.13629e+07,98.6889,1,2.53206,-19223.2,2936.54,-21152.8
2.14178e+07,115.283,0,2.76239,22196.1,9647.33,-26084.9
2.15437e+07,46.9069,0,2.60444,1718.83,-8738.24,-24399.7
2.15758e+07,5.65126,0,2.47064,529.622,982.337,-28279.6
0,5.69304,0,2.78216,0,0,0
2.17216e+07,19.6047,1,3.00722,1518.59,2567.75,-25968.1
2.18322e+07,103.504,2,2.85284,13009.5,521.389,-11415
2.19436e+07,9.8861,0,2.58881,1818.52,-259.002,-27672.7
2.20215e+07,11.1901,0,2.68103,971.844,-1073.27,-26908.7
0,11.5844,1,2.43696,0,0,0
2.20514e+07,48.5417,1,2.48578,-9785.36,1332.17,-25868.4
2.22188e+07,77.4029,2,2.79028,-4416.77,-15018.3,-27946.3
2.22604e+07,101.53,2,2.74539,8997.73,-10649.3,-12617.5
2.25822e+07,47.5762,2,2.9086,-5081.09,-7148.56,-23895.7
2.35925e+07,13.0912,1,3.02236,297.26,761.634,-26202.8
2.39833e+07,86.8365,1,2.76374,-4311.47,-14109,-18110.1
2.45933e+07,64.0038,0,2.97717,6318.51,6326.07,-18783.9
2.53797e+07,97.3949,0,2.98194,4587.33,4110.18,-29104.2
2.5458e+07,17.7368,1,3.04019,-3079.9,-1251.99,-27125.8
2.56034e+07,26.393,1,2.68791,-835.988,-2502.15,-23963.1
2.58359e+07,8.79175,1,2.9077,-611.858,-1136.84,-27532.6
2.6251e+07,22.6574,2,2.82098,2934.55,3136.76,-26864.6
2.63316e+07,35.6519,1,3.00297,389.789,3830.68,-22365.4
2.63693e+07,1.65733,0,2.75856,330.031,-108.349,-28597.3
2.65826e+07,49.7829,1,2.70419,-9867.58,-365.153,-25140.2
2.66803e+07,5.71977,0,2.43949,-217.606,504.876,-27752.6
2.70528e+07,8.3309,0,2.99456,136.801,-1518.1,-27944.7
2.72027e+07,13.0946,1,2.56221,459.02,2267.78,-27177.8
2.7273e+07,13.2256,2,2.69352,-2608.74,-1083.06,-28415
2.73479e+07,16.6474,2,2.67475,-409.718,-3486.33,-29564.3
2.74723e+07,18.582,2,3.03799,-1818.2,-2415.1,-29875.9
2.75842e+07,67.777,0,2.95753,-3073.73,10653.3,-19974.2
2.7914e+07,71.0396,1,2.86962,-4055.11,-5556.84,-15582.9
2.7938e+07,6.70702,0,2.78212,1029.7,952.277,-29396.7
2.80468e+07,52.5246,1,2.74158,-2526.82,5624.88,-19573.3
2.81293e+07,15.1244,2,2.77118,162.974,-1517.37,-25990.3
2.82737e+07,16.8796,2,2.60774,1356.74,-3378.66,-28593.7
2.83679e+07,81.1232,2,2.80462,11674.7,-3642.93,-16913.1
2.83971e+07,12.5616,1,2.86086,-2243.32,-724.473,-27605.9
2.84039e+07,82.8871,1,2.40783,-3718.13,9422.16,-14438.2
2.84624e+07,133.64,2,2.94202,-20352.5,-19320.1,-27090.7
2.85578e+07,155.004,0,2.72766,22575.6,3012.93,-5344.73
2.88345e+07,18.8787,0,3.00592,1854.6,695.607,-25352.7
2.88556e+07,142.483,0,2.77616,1275.77,-6750.53,-19978.3
2.9079e+07,8.75859,2,2.95411,-1579.52,-764.749,-29651.7
2.91382e+07,54.1889,2,2.68779,9412.13,-5930.41,-26213
2.92336e+07,17.4857,1,2.67645,3236.2,1096.32,-27402.1
2.95062e+07,2.46548,1,2.8433,-536.804,-44.8745,-28645.5
2.97306e+07,25.9528,0,2.63388,4065.08,-3753.33,-28591.3
2.99349e+07,4.20656,2,2.98113,-861.648,-452.547,-28743.7
3.01607e+07,83.4354,2,2.5291,9370.53,4779.13,-17456
3.04281e+07,17.7097,2,2.90485,-513.625,-3215.51,-26921.3
3.05585e+07,33.4771,1,2.39689,-3790.7,-1660.26,-23072.5
3.05729e+07,94.2336,0,2.89308,1859.07,-3873.23,-22309
3.0683e+07,78.9226,2,2.47746,-1224.7,-16692.1,-29953.5
3.08554e+07,9.67535,1,2.61472,-1599.5,-1245.57,-29158.1
3.08652e+07,25.7092,2,3.00316,-2539.55,3511.17,-25645.1
3.08703e+07,28.4133,1,2.8693,-1555.04,-2466.85,-23618.8
3.12761e+07,130.142,1,2.45222,-731.22,8227.55,-2543.94
3.15928e+07,56.9557,2,2.38587,381.437,-6336.59,-18537.3
3.17115e+07,80.6117,1,2.69337,-3090.9,16757.5,-27556.5
3.17834e+07,73.3421,2,2.45484,-9903.97,-7637.45,-19534.1
3.19236e+07,34.7717,0,2.65622,6436.48,-3668.53,-29596.4
3.21863e+07,93.9968,2,2.48469,120.688,-18502.2,-21362.2
3.24341e+07,20.6705,2,2.88252,3677.49,-1974.62,-27554.7
3.25265e+07,97.9648,0,2.37503,4703.05,8981.46,-10712.9
3.25305e+07,20.2273,0,2.85244,3788.25,-1933.15,-27869.1
3.26002e+07,90.348,2,2.97501,-18951.5,-1468.05,-29194.7
3.27021e+07,36.9461,0,2.67554,-397.249,4841.57,-22734.1
3.29708e+07,219.097,2,3.00238,29560.6,-256.875,6265.71
3.31097e+07,73.0191,1,2.50596,389.077,15345.2,-26406.3
3.31334e+07,19.7642,1,3.0106,-337.07,1806.58,-25078
3.31388e+07,48.396,0,3.04453,-3394.92,8542.99,-24608.1
3.33129e+07,29.2623,0,2.88836,4745.62,-4025.97,-29361.8
3.33666e+07,181.863,1,2.76415,-20692.2,-1397.56,-4317.9
3.34097e+07,109.528,2,3.05453,-5970.6,-9957.45,-9010.88
3.40867e+07,78.3733,2,2.94089,-12336.2,-7996.86,-21286.2
3.42747e+07,36.4238,0,2.76107,744.22,6715.83,-25219
3.43903e+07,82.9597,1,2.60827,-14101.2,7453.27,-21432.1
3.46317e+07,68.2991,0,2.9054,9325.19,-5445.03,-19280.4
3.47983e+07,1.18416,1,3.03692,-44.4968,-123.444,-28630.7
0,1.32617,1,2.96571,0,0,0
3.5152e+07,62.149,2,2.70386,4645.33,7807.72,-20550.6
3.52019e+07,60.524,0,3.04508,5886.61,10378.4,-24436.9
3.5547e+07,67.388,2,2.55619,-4303.1,-2315.23,-15409.6
3.56792e+07,81.3632,0,2.81473,2085.53,-6844.93,-13262.5
3.58423e+07,81.6663,0,2.82739,-3119.31,10528.8,-15655.9
3.61227e+07,14.1368,0,2.71596,38.5267,2499.64,-27190.2
3.61655e+07,69.2126,1,2.49504,-2389.4,8528.61,-17099.6
3.64045e+07,69.169,0,3.02273,9650.3,3243.32,-18415.6
3.66334e+07,113.757,0,2.67113,5853.16,-20809.7,-18348.4
3.66949e+07,87.7825,0,2.421,9614.53,12052.6,-18382.3
3.68807e+07,134.197,1,2.84703,13239.4,3120.12,-4119.42
3.69306e+07,188.061,1,2.74407,-12551.5,-27754.4,-3546.71
3.73413e+07,96.1297,0,2.76464,-8771.56,18218,-29095.1
3.73505e+07,50.6518,0,2.91094,-7162.22,2126.62,-21344.6
3.73713e+07,101.611,0,2.42814,2624.19,18668.5,-18443.3
3.76948e+07,37.6512,0,2.7642,5399.26,982.052,-23012.9
3.78087e+07,23.9606,1,2.49492,-1657,1051.42,-24107.9
3.78695e+07,136.178,0,2.87985,6396.28,12086.5,-3669.77
3.83811e+07,6.98599,2,2.74253,1184.35,-190.882,-28008.9
3.89436e+07,127.738,2,2.7961,-7330.93,-2806.55,-10438.7
3.89925e+07,41.9649,1,2.82508,-8709.58,-1330.63,-29884.5
3.94222e+07,67.4325,1,3.0493,-5255.39,9705.62,-19913.6
3.9425e+07,161.438,2,2.53538,-5869.06,20913.4,-3292.03
3.95422e+07,34.338,0,2.98075,7033.89,1561.61,-27570
3.96751e+07,150.077,1,3.00955,22353,-20737.6,-21446
3.98021e+07,70.4406,1,2.44936,4833.78,-4760.66,-15601.4
3.99693e+07,111.597,1,2.79355,-8375.76,-20857,-22114.4
4.01116e+07,79.4182,0,2.90516,-9833.84,9529.83,-19385.1
4.01166e+07,74.1757,0,2.65609,-11605.2,7313.24,-21407.1
4.01461e+07,43.1539,0,2.81335,6170.91,2619.86,-22607.4
4.08628e+07,18.9266,0,2.64555,-748.888,-3938.04,-28632.9
4.09957e+07,27.9441,2,2.60605,518.84,-5030.63,-25696.2
4.11259e+07,46.1042,1,2.66391,-2862.9,5776.13,-21481.7
4.14208e+07,80.6543,2,2.88814,-11063.3,12727.4,-27139.5
4.15204e+07,62.0675,0,2.72422,3261.13,-9775.01,-20702.4
4.21e+07,28.3664,1,2.42233,-4048.7,2072.35,-29738.5
4.2149e+07,37.1107,1,2.86853,886.654,4658.44,-23528.5
4.23936e+07,72.3928,0,2.7506,5417.96,5667.52,-26085.5
4.27949e+07,155.193,0,2.74253,-2463.23,12815.6,1136.25
4.28762e+07,16.971,1,2.84955,-1058.06,2622.67,-26557.8
4.29634e+07,6.07723,0,2.55288,1284.78,241.975,-29359.5
4.31657e+07,84.8434,0,2.44872,12921,-11515.8,-23848.8
4.33406e+07,25.3379,0,2.55534,4842.61,-2340.88,-28134.1
4.33783e+07,7.09072,2,2.6589,-684.672,799.283,-27764.4
4.34094e+07,28.5331,2,2.60678,-5390.07,2739.58,-28352.3
4.3508e+07,55.4329,1,2.74467,1745.23,8257.22,-20672.6
4.35092e+07,32.0076,0,2.61902,1496.22,-5496.04,-25110.1
4.37447e+07,139.583,1,2.47732,-22892.9,8802.64,-12295.5
4.42673e+07,12.8279,1,2.37071,-2399.65,335.382,-27458.9
4.43306e+07,66.1523,2,2.47221,6665.28,10445.9,-22475.7
4.44569e+07,22.3829,0,2.90245,3438.43,1346.18,-25815.4
4.47044e+07,54.5711,2,2.8282,700.445,-10642,-24474.7
0,54.076,2,2.50509,0,0,0
4.56688e+07,113.931,1,2.81893,1335.81,6556.99,-5792.49
4.56797e+07,140.263,1,2.78839,7428.89,-12781,-15607.6
4.61214e+07,18.4321,0,2.53461,2707.53,-569.312,-25994.9
4.6177e+07,57.1155,0,2.82393,5490.63,-5741.11,-26941.5
4.67748e+07,67.603,2,3.01357,4088.66,8530.79,-18336
4.68249e+07,178.1,0,3.01387,16639.7,-24660.8,-6258.47
4.71789e+07,85.6618,2,2.57984,-9570.18,10576,-17682
4.73797e+07,66.0779,0,2.40513,5565.59,3513.64,-16472.1
4.75218e+07,89.8167,1,2.85597,-11374.7,7310.77,-15561.9
4.75486e+07,13.778,2,2.91259,-1302.35,-1225.1,-26473.1
4.76209e+07,49.4985,2,2.72869,7906.69,6480.35,-27127.7
4.77153e+07,59.0732,2,2.96316,-6195.7,-10861.9,-28425.1
4.77715e+07,22.6525,0,2.61848,-1962.15,-4241.64,-27809
4.78548e+07,50.0377,1,2.88102,-4834.54,9450.04,-28451.9
4.78597e+07,169.055,0,2.76797,24351,3147.09,-3021.65
4.84085e+07,46.7844,0,2.46283,4020.81,4137.9,-20739.5
4.86219e+07,43.9639,0,2.65632,3455.12,5694.46,-22305.7
4.97397e+07,32.7663,1,2.68183,-3982.46,5264.45,-26520.4
4.99872e+07,87.2739,1,2.81288,-811.462,-8637.92,-12691.5
5.04458e+07,288.102,0,3.00227,-11540.7,10681.5,-17812.8
5.0702e+07,120.907,0,2.98975,691.806,504.748,-26816.7
5.08259e+07,84.655,0,2.89966,14247.8,-1344.66,-18169.1
5.11446e+07,172.591,1,2.60546,-22880.3,27867,-22913.9
5.1701e+07,46.1604,1,2.84258,156.976,-5555.86,-20916.9
5.18333e+07,114.549,2,2.98601,7372.25,-6859.68,-7046.3
5.18597e+07,47.1237,1,2.79892,8575.98,218.288,-23884.1
5.19663e+07,147.472,2,2.77925,16323.8,-2116.91,-2517.4
5.21475e+07,150.275,2,3.04286,-7577.29,-12680.5,-990.402
5.21596e+07,48.4204,0,2.9706,-4273.48,-6249.09,-22098.4
5.22083e+07,1.12245,0,2.6201,319.087,-125.587,-28926.2
5.27078e+07,86.1111,2,2.93666,9110.57,-1969.58,-17476.6
5.32315e+07,4.05605,2,2.83686,-324.665,-833.956,-28527.6
5.3557e+07,30.0958,0,2.77172,2122.04,5767.67,-27096.8
5.38281e+07,94.9462,1,2.91509,-11889.5,-15494.9,-24950.1
5.41745e+07,168.918,1,2.7916,-17218.1,-2243.72,2197.77
5.43308e+07,82.9197,1,2.86387,17013.1,1497.92,-25461.8
5.46021e+07,60.3632,2,2.83094,3768.09,11112.7,-24145.9
5.4776e+07,30.4747,0,2.5493,3103.03,3318.46,-24180.8
5.49175e+07,103.316,0,2.94863,19767.8,-7862.77,-24180.3
5.54319e+07,0.239214,2,2.94166,-56.789,-98.253,-28850.7
0,0.0627562,2,2.21945,0,0,0
0,0.0809213,2,2.55445,0,0,0
0,0.225988,2,3.81563,0,0,0
0,0.0731284,2,2.47524,0,0,0
0,0.106644,2,4.0715,0,0,0
0,0.0643393,2,3.55369,0,0,0
0,0.0996894,2,2.48713,0,0,0
0,0.0720014,2,2.59824,0,0,0
0,0.181372,2,2.07211,0,0,0
0,0.209614,2,4.0909,0,0,0
0,0.190077,2,2.38963,0,0,0
0,0.0799844,2,3.94712,0,0,0
0,0.0624606,2,3.12587,0,0,0
0,0.0999567,2,3.53409,0,0,0
0,0.235257,2,3.04989,0,0,0
0,0.0613238,2,4.0326,0,0,0
0,0.0869574,2,3.01876,0,0,0
0,0.133375,2,4.10092,0,0,0
0,0.134399,2,3.14284,0,0,0
0,0.0632776,2,2.79433,0,0,0
0,0.112035,2,3.82622,0,0,0
0,0.0830268,2,3.67312,0,0,0
0,0.0906563,2,3.28865,0,0,0
0,0.184862,2,2.95906,0,0,0
0,0.0701392,2,2.93944,0,0,0
0,0.0944484,2,2.41772,0,0,0
0,0.17944,2,3.57367,0,0,0
0,0.190793,2,2.76943,0,0,0
0,0.210453,2,2.80561,0,0,0
0,0.238835,2,3.95107,0,0,0
0,0.0602871,2,3.58379,0,0,0
0,0.0612336,2,2.88068,0,0,0
0,0.123785,2,3.10591,0,0,0
0,0.0797384,2,3.55839,0,0,0
0,0.0617661,2,3.03597,0,0,0
0,0.166288,2,3.66427,0,0,0
0,0.0863635,2,3.20689,0,0,0
0,0.159026,2,2.31369,0,0,0
0,0.0955637,2,3.63587,0,0,0
0,0.171992,2,4.12591,0,0,0
0,0.172409,2,2.83165,0,0,0
0,0.0716009,2,2.20683,0,0,0
0,0.0674189,2,3.69955,0,0,0
0,0.132891,2,2.97557,0,0,0
0,0.138789,2,3.17664,0,0,0
0,0.0637085,2,3.73446,0,0,0
0,0.085514,2,2.21881,0,0,0
0,0.164887,2,2.38405,0,0,0
0,0.0806953,2,3.38845,0,0,0
0,0.129968,2,2.35189,0,0,0
0,0.0719437,2,2.95828,0,0,0
0,0.116539,2,3.69163,0,0,0
0,0.0619021,2,3.12186,0,0,0
0,0.187458,2,3.09665,0,0,0
0,0.0607719,2,2.97764,0,0,0
0,0.177144,2,2.51365,0,0,0
0,0.117132,2,2.14221,0,0,0
0,0.140178,2,3.70204,0,0,0
0,0.157451,2,4.11061,0,0,0
0,0.187807,2,3.70175,0,0,0
0,0.143672,2,2.8494,0,0,0
0,0.0671466,2,3.74633,0,0,0
0,0.0622816,2,2.07503,0,0,0
0,0.085209,2,3.94029,0,0,0
0,0.0730901,2,4.07083,0,0,0
0,0.0944058,2,2.32418,0,0,0
0,0.0731402,2,2.11735,0,0,0
5.56953e+07,89.5142,1,2.52247,-17423.8,1693.47,-21467.2
5.59097e+07,65.8753,0,2.86485,-3366.06,12316.9,-23452.1
5.60517e+07,66.8545,0,3.03201,2599.72,11729.5,-21578.3
5.62035e+07,15.0629,0,2.62861,3145.79,699.879,-28155.8
5.64469e+07,59.2382,1,2.95499,-3145.74,5484.02,-18075.6
5.65919e+07,49.2207,0,2.38808,-2543.96,-6831.07,-21413.3
5.66119e+07,69.9508,2,2.5719,-6793.8,-6380.46,-17307.1
5.67174e+07,76.1277,0,2.98805,-6369.22,2982.9,-14552.8
5.68821e+07,47.3864,0,2.97775,6221.31,-5523.98,-23276.4
5.69263e+07,12.5604,2,2.6203,1049.93,-1910.62,-27236.3
5.70116e+07,60.3997,2,2.52776,-6076.94,-10097.3,-23667.3
5.73438e+07,98.0988,2,2.70467,-1922.02,-19671.3,-22482.2
5.75038e+07,53.069,2,2.77355,-3808.96,2295.59,-18563
5.78039e+07,103.495,2,2.37241,5777.67,7979.38,-9296.65
5.87586e+07,109.341,2,3.02707,-2331.75,-13609.8,-10510.5
5.95057e+07,10.7106,2,2.5034,1884.16,455.918,-27702.2
5.95107e+07,75.9415,1,2.89781,7971.22,2799.31,-15308.6
5.95159e+07,35.2592,2,2.80072,-5668.06,3006.43,-25069.4
5.95852e+07,3.75154,0,2.63775,67.3603,-338.419,-28122.1
5.95921e+07,52.5232,0,2.79403,-8395.43,6135.07,-25179
5.96028e+07,52.2945,0,2.92701,-10390.4,-1993.2,-26095.8
5.9745e+07,57.0919,1,2.76684,-4339.72,8512.22,-21399.9
5.98188e+07,141.591,2,2.5328,-19367,-8371.91,-7551.44
5.98833e+07,100.635,0,2.7249,13719.8,2352.12,-12762.1
5.99713e+07,293.118,1,2.72006,413.293,-582.714,-28661.3
5.9993e+07,37.3372,1,2.82535,4729.54,4684.92,-24588.2
6.00324e+07,17.8585,1,2.59638,782.541,-2966.6,-26718.3
6.00478e+07,147.227,1,2.91451,-23209.1,-20423,-28359.1
6.01654e+07,2.64171,2,2.58285,-39.4453,-554.731,-28522.8
0,2.58161,2,2.76576,0,0,0
6.0307e+07,3.4898,0,2.92517,-157.411,235.059,-28170.6
0,3.52232,0,2.73529,0,0,0
6.05426e+07,41.3433,0,2.56087,-4046.19,4067.76,-22268.3
6.06332e+07,65.788,0,2.65958,3339.95,1772.05,-26766.4
6.06759e+07,22.7661,2,2.62853,-2177.47,-3743.82,-26554.9
6.07372e+07,78.3731,1,2.45865,9649.65,10891.7,-20794.7
6.08154e+07,6.07619,0,2.45039,-490.004,-1194.42,-28896.7
6.09523e+07,73.557,1,2.41154,7482.26,12677,-24673
6.162e+07,95.6398,1,3.00927,75.5481,19515.7,-23928.1
6.1712e+07,41.1733,0,2.92936,8697.74,-815.946,-29521.6
6.18615e+07,3.08819,0,2.84498,-338.97,-361.135,-28435.5
6.20201e+07,25.7557,2,2.69486,-856.413,-3325.91,-24540.8
6.22927e+07,56.4391,1,2.5658,9429.61,-2093.07,-21933.8
6.234e+07,91.6836,0,2.56035,12106.1,10217.3,-17566.1
6.26508e+07,48.6548,2,2.63678,2112.15,-6987.49,-21547.9
6.30153e+07,45.4815,2,3.04789,1500.45,-584.829,-26929.6
6.30534e+07,55.5764,1,2.80664,7334,-4891.33,-21228
6.32143e+07,26.0019,0,2.38449,-1871.7,-2447.66,-24311.3
6.33086e+07,62.7371,2,2.89157,-1822.01,-10409.4,-20889.8
6.36529e+07,15.325,2,2.65418,74.3968,-788.511,-25673.3
6.36672e+07,48.9037,2,2.68046,3493.43,-8059.79,-23297.3
6.39885e+07,94.0906,1,2.95812,7234.75,16118.7,-19938.6
6.42271e+07,166.221,1,2.69824,2268.69,28809.2,-8913.28
6.42739e+07,3.58936,1,2.44135,259.492,776.886,-28842
6.4275e+07,38.4089,1,2.84757,-6778.76,-1405.9,-24578.2
6.44735e+07,92.7431,1,2.51174,-8143.69,5558.46,-11855.3
6.44792e+07,60.5146,1,2.49133,-10248,6737.81,-24858.9
6.4544e+07,52.9245,2,2.83952,7477.03,3528.06,-21432.9
6.47569e+07,25.0006,0,2.5455,3680.68,-1322.07,-25174.1
6.49542e+07,4.69681,2,2.91572,976.796,-217.137,-28830.6
6.50619e+07,6.54275,1,2.86122,538.639,423.903,-27637.9
6.53246e+07,162.286,0,2.40857,12121.3,-24051.2,-7462.75
6.58022e+07,144.37,2,2.8557,-29566.9,-6238.22,-29792.6
6.58247e+07,279.645,1,2.99768,-18780.3,16764.2,22627.4
6.5894e+07,43.2461,0,2.60571,2748.33,8758.14,-28357.7
6.5949e+07,36.0341,0,2.85705,3472,3175.75,-22840.1
6.61726e+07,89.9857,1,2.63765,8240.03,17139.5,-27431.1
6.62188e+07,115.108,1,2.64189,-22137.6,1843.07,-18910.3
6.63372e+07,99.9611,1,2.64827,-4635.7,12466.5,-12385.4
6.64212e+07,65.3732,0,2.99698,2276.3,-1945.68,-15532.9
6.65452e+07,138.345,1,2.76169,-7108.76,19881.9,-8666.9
6.65488e+07,123.533,0,3.02562,23228.6,-11615.6,-28440.3
6.66967e+07,41.5268,2,2.85408,-4148.34,6881.39,-25483.6
6.67241e+07,116.519,0,3.05899,4301.62,2352.5,-26443.5
6.6901e+07,110.438,1,2.93633,3043.88,22771.2,-25233.2
6.69646e+07,27.2255,1,3.02488,4559.82,-3282.25,-28124.8
6.741e+07,207.041,0,2.85864,1376.08,19280.3,10124.7
6.75803e+07,144.53,2,2.85448,24567.9,5443.34,-11896.2
6.78582e+07,53.8804,2,2.93394,-6812.91,-3509.71,-20450.5
6.78785e+07,15.7851,0,2.38862,2616.62,888.772,-26803.3
6.82622e+07,128.507,1,2.55501,9998.64,25227,-26789.1
6.83842e+07,3.04992,1,2.63378,-236.646,591.372,-29208
0,3.02565,1,2.37459,0,0,0
6.84014e+07,21.2448,1,2.89067,-246.549,1943.3,-24791.8
6.89868e+07,73.6901,0,2.45367,-5543.68,8166.6,-24056
6.90267e+07,59.2838,1,2.86003,839.171,11251.4,-23365
6.92061e+07,40.7121,1,2.78009,-3256.37,4825.03,-22463.9
6.94257e+07,1.37038,1,2.42935,-296.435,281.635,-28808.4
6.97722e+07,138.379,2,2.38454,-18454.4,-22748.3,-26667.5
6.98476e+07,177.146,1,2.86019,-11096.6,10414.7,5161.12
7.00969e+07,12.0444,0,2.75679,2282.34,-571.982,-27649.3
7.05179e+07,32.3231,1,2.65688,-3598.75,1530.76,-23175.6
7.0862e+07,94.8727,0,2.64974,5452.36,18609.9,-23652.4
7.08647e+07,39.5755,0,2.49263,5293.16,6500.17,-27914.9
7.08882e+07,36.3894,1,2.66065,-2641.71,-35.4464,-21593.3
7.11394e+07,138.846,1,2.48642,-20427.3,-427.349,-7713.02
7.13579e+07,8.85768,0,2.55083,1268.56,-1112.14,-27902
7.15818e+07,18.5451,2,2.81377,-3685.15,-582.066,-27474
7.15974e+07,87.3939,0,2.81016,-6873.84,-8308.61,-13965.1
7.20144e+07,43.3034,0,2.64752,-1961.16,8903.95,-28366.8
7.2308e+07,60.5866,2,2.43158,4893.81,-10284.8,-22878.4
7.27892e+07,51.5352,1,2.68629,-2889.77,5787.15,-24300.3
7.28805e+07,27.344,2,2.73542,-1526.96,3241.62,-24329.2
7.31808e+07,257.564,2,2.48027,-14378.1,-6605.01,23288.6
7.31924e+07,56.2442,2,2.37204,-880.135,-3630.51,-17492.1
7.34878e+07,74.6589,2,2.7549,6783.89,-3334.5,-15054.2
7.35353e+07,63.9354,0,2.86956,9685.53,-7105.12,-23185.9
7.35808e+07,62.7087,1,2.41574,-10827.1,-3562.42,-22020.7
7.3882e+07,37.0511,1,2.6845,-6605.85,1735.18,-24901.4
7.39891e+07,79.4213,1,2.41747,-6000.98,-9531.97,-16384.4
7.43323e+07,28.6482,2,2.48168,857.775,3500.57,-23991.8
7.43567e+07,60.9122,0,2.93685,9081.98,-7846.09,-24264.1
7.44267e+07,21.6576,1,2.55639,-4254.39,35.3609,-26999.9
7.47476e+07,84.8957,0,2.81331,3785.52,7445.69,-13052.8
7.5568e+07,151.207,0,2.51788,2607.61,7267.04,2206.03
7.58159e+07,49.4952,2,2.64843,8308.93,-6021.32,-26776
7.59522e+07,91.0944,1,2.48235,-8091.64,7944.27,-13188
7.60856e+07,59.1242,1,2.59368,-3404.82,8581.1,-20335.6
7.62421e+07,152.242,1,2.7745,16076,-11001.1,-3471.25
7.63346e+07,107.705,2,2.73354,3000.63,-18917.3,-16561.8
7.65146e+07,66.1843,1,2.71097,-4566.31,10016.4,-20136.8
7.67372e+07,4.74879,2,2.46199,-947.115,-39.0374,-28400.4
0,4.73827,2,2.90921,0,0,0
7.72428e+07,51.3522,2,2.73758,1141.44,-7562.81,-21173.4
7.72929e+07,59.988,1,2.44297,-12749.4,-385.876,-28247.5
7.73615e+07,29.442,1,2.85592,-1477.17,1142.58,-22888.2
7.75766e+07,45.9488,0,2.57581,-746.592,9250.77,-25984.9
7.78003e+07,10.55,2,2.77653,-978.589,990.712,-27089.4
7.80063e+07,90.6163,1,2.46086,10425.7,12112.1,-18174.8
7.8096e+07,56.7781,0,2.79435,-3123.49,8665.68,-21238.8
7.83185e+07,39.3271,0,2.52147,2694.1,4530.87,-22351.6
7.83724e+07,4.11523,0,2.36652,405.387,-89.4195,-28002.9
7.84986e+07,67.6168,0,2.85644,13985.2,1842.89,-26548.2
7.85743e+07,20.52,2,2.75959,-3286.29,-1595.2,-26373.7
7.86324e+07,280.563,0,2.68134,3615.85,-28292.9,18283.6
7.90371e+07,46.4835,1,2.61936,-3641.13,-4719.58,-21055.3
7.91753e+07,6.92831,0,2.58677,652.193,763.352,-27699.5
7.9266e+07,76.4869,2,2.73145,3609.86,-2980.44,-13401.5
7.93006e+07,149.747,2,2.46041,-13578.4,13765.9,-3818.67
7.93435e+07,124.964,1,2.8128,-15057,-1180.46,-19615.4
7.93936e+07,42.2165,2,2.87041,-1972.2,4635.57,-21539.8
7.95634e+07,154.895,0,2.68605,-16284.8,-18267.8,-12231
7.96325e+07,127.263,1,2.76744,19209.5,18353.8,-25226.9
7.9972e+07,31.1099,2,2.79152,4614.41,-4568.73,-29963.7
8.01391e+07,34.6128,0,2.40522,-1451.25,7131.28,-29688.6
8.0255e+07,51.2385,2,2.56381,-6272.12,-67.7087,-19955.3
8.03971e+07,59.3869,1,2.43221,-723.067,12638.6,-29267.7
8.07236e+07,81.5006,2,2.66682,-1243.1,15427.2,-21471
8.07469e+07,4.85059,1,3.06088,-463.694,1024.36,-28729.9
8.0764e+07,82.3189,0,2.80195,-166.399,8805.34,-15979.6
8.14163e+07,92.8053,1,2.38278,-4092.95,8219.6,-11413.3
8.1548e+07,66.6103,2,2.83318,11280.8,-2089.99,-20808.5
8.16134e+07,65.2952,2,2.41108,5125.9,-5577.96,-17247.2
8.18319e+07,122.227,1,2.81596,-25462.8,-1378.77,-25174.9
8.18991e+07,4.14798,2,2.41704,-641.242,-37.2366,-28205.8
8.19942e+07,12.1932,0,2.66675,-1943.73,274.433,-27227.9
8.20281e+07,130.278,1,2.57831,-9170.18,10623.1,-5095.19
8.23639e+07,45.7249,2,2.89348,3347.2,-4235.01,-20868
8.23739e+07,89.389,0,2.8752,7334.88,-14246.7,-18980.8
8.24929e+07,130.385,0,2.54095,12321.1,24065.2,-23201.1
8.25057e+07,13.1334,2,2.97865,-1730.36,-2299.31,-28924.3
8.26784e+07,29.0469,1,2.85285,-241.825,-3185.65,-23666.1
8.26889e+07,137.805,1,2.99933,-11442.2,14411.2,-6503.31
8.29438e+07,156.067,0,2.742,26123.7,-11800.6,-12615.9
8.34881e+07,91.4347,2,2.58358,19254.2,-946.891,-27707.5
8.36565e+07,130.277,1,2.98732,-15061,22826.1,-27121.8
8.37749e+07,192.107,0,2.39762,-4450.87,16629.1,7960.25
8.3805e+07,101.998,2,2.79025,-19901,-6982.45,-24485.2
8.38267e+07,113.147,0,2.53035,6253.16,7846.28,-7081.14
8.44905e+07,128.099,1,2.82931,16668.7,20557.1,-23571.6
8.4678e+07,102.289,2,2.36536,12896.7,2582.23,-11707
8.47108e+07,81.5495,1,2.65709,335.927,6497.95,-12873.8
8.5045e+07,57.7479,1,2.88684,-11939.1,-2276.69,-28290.5
8.50893e+07,125.539,1,2.93981,17152.9,-18209.3,-20775.7
8.51688e+07,13.4285,0,2.97383,2827.35,-648.998,-29260.9
8.54371e+07,48.4455,1,2.93804,10003.5,-1659,-28611.4
8.5499e+07,114.03,1,2.44894,1073.75,17949.2,-26467.8
8.57087e+07,182.81,1,2.52224,-6089.84,2587.25,-25160.2
8.57593e+07,57.9505,0,2.64909,6812.03,-7679.61,-22064.2
8.59784e+07,38.6394,2,2.81038,-3057.16,2336.28,-21656.1
8.6093e+07,34.5559,0,2.5002,-5756.32,-2876.79,-25467.8
8.62187e+07,20.6528,0,2.66715,2953.4,2434.65,-26588.5
8.62265e+07,163.711,2,2.77985,19292.2,1127.37,-2041.42
8.62396e+07,17.5067,1,2.45264,-3395.75,596.315,-27330.7
8.62585e+07,70.0481,0,2.64931,13767.1,-2667.81,-23865.8
8.64081e+07,27.8249,2,3.05217,2305.64,-3307.23,-24560.1
8.69495e+07,110.82,2,2.66876,2125.08,9828.77,-29693.1
8.76609e+07,67.2339,0,2.73053,5007.89,2699.96,-15809.8
8.78042e+07,26.3925,1,2.47245,2054.1,-1481.19,-29840.7
8.78354e+07,175.092,0,2.875,-25368.8,15924.6,-15536.7
8.8055e+07,35.6786,0,2.56471,4262.11,6218.38,-27888.1
8.8158e+07,64.329,0,2.9782,11877.8,-3925.14,-23536.1
8.82373e+07,15.9053,2,2.42928,-3166.11,-318.197,-27557.6
8.82864e+07,52.4665,1,2.58697,4956.09,9989.04,-28206.6
8.82887e+07,29.6129,1,2.42522,3324.04,-2796.83,-24359.3
8.82935e+07,63.386,0,2.39997,-4842.03,-11118,-23162.6
8.83917e+07,127.357,2,2.89459,-21796.9,14938.9,-24613.3
8.84013e+07,79.7314,0,2.97831,5361.96,-9153.58,-22615.1
8.84483e+07,448.478,1,2.66781,-14045.5,-8633.59,9908.46
8.88368e+07,32.5221,1,2.80495,-2836.01,1558.18,-22762.3
8.89415e+07,133.202,1,2.80238,-24969.9,154.709,-16025.7
8.89641e+07,65.4539,0,3.05935,3236.84,7375.8,-20526.6
8.89664e+07,15.2943,1,2.81389,-1880.86,-205.49,-26187.1
8.90583e+07,180.972,0,2.70163,24507.8,23724.6,-11607.7
8.91208e+07,53.8368,0,2.78003,-4581.12,5663.42,-20167.7
8.9504e+07,149.612,1,2.74879,-7744.92,-22291.2,-8993.21
8.95823e+07,264.335,2,2.60369,16670,-20135.5,18620.5
8.95829e+07,5.50896,2,2.42924,-526.038,200.559,-27783.1
8.96277e+07,55.3913,0,2.60133,-4139,-3677.72,-18535.8
8.96917e+07,310.971,0,2.51849,-27181.4,-10934.2,25675.7
8.98332e+07,10.7648,0,2.43516,134.415,-2290.13,-28726.1
8.98545e+07,17.9867,2,3.06006,-1935.47,-2017.47,-26196
8.99133e+07,36.9374,1,2.42689,-566.027,7616.53,-26872.6
9.01283e+07,73.0562,2,2.69557,-14907.1,2870.19,-25916.1
9.05408e+07,130.458,0,2.40289,-1936.69,-27046,-23631.2
9.08605e+07,3.32603,2,2.46827,-300.091,286.905,-28258.8
9.08917e+07,35.2322,0,2.39375,-3371.27,2037.86,-22516.3
9.09249e+07,173.266,2,2.5683,21154.7,-29104.5,-21931.8
9.10372e+07,102.687,1,2.71655,-10268.5,2003.95,-9854.54
9.11509e+07,37.6892,0,3.01879,2380.53,-2128.24,-21581.7
9.1272e+07,339.279,1,2.65521,-6077.87,17614.5,-17689.7
9.14424e+07,149.866,0,2.82932,5354.28,-10731.8,332.513
9.15517e+07,114.981,2,3.05384,-9081.96,-22399.6,-29667.5
9.20347e+07,13.038,2,2.91678,-2611.98,-228.664,-29856.6
9.2068e+07,110.199,2,2.76749,3702.98,-15921.1,-12304.1
9.22392e+07,75.2066,1,2.70752,-13036.8,-5072.9,-21297.4
9.22835e+07,126.197,1,2.59112,11759.1,-5241.4,-5520.84
9.23985e+07,16.9116,2,2.94996,-711.083,-3410.38,-29988.6
0,17.062,2,2.80887,0,0,0
9.26822e+07,108.403,0,2.92081,18278.9,8636.28,-18206
9.27079e+07,134.364,0,2.49569,22936.9,-7151.22,-13516.7
9.27196e+07,28.3933,1,2.63645,1359.31,4313.25,-24850.5
9.28303e+07,66.829,2,2.90209,85.5381,-6395.02,-16297.3
9.31147e+07,72.2614,0,2.83835,-6459.24,-13047.7,-24621.2
9.33054e+07,222.281,0,2.57082,29731.7,22802.1,-416.427
9.34839e+07,8.98144,1,2.75089,-861.401,1404.68,-27728.8
9.35333e+07,44.4981,2,2.5722,-3182.41,-6843.86,-23106.9
9.35855e+07,78.109,1,2.65372,9454.63,9286.58,-18987.9
9.37257e+07,11.5384,1,2.66431,-1618.57,-514.893,-27070.8
9.373e+07,2.97529,1,2.4543,-50.327,537.151,-28398.8
9.43082e+07,37.5523,0,3.00734,6652.48,162.03,-24466.5
9.46577e+07,64.5758,1,3.00564,8474.07,-799.399,-22424.6
9.46785e+07,144.326,1,3.01867,-16748.9,-19912.3,-24667.4
9.47838e+07,25.4464,2,2.71921,-2876.95,-17.5125,-24256.1
9.47937e+07,9.36997,0,2.37082,775.062,-1886.55,-28626.8
9.50111e+07,50.0582,2,2.89971,-4590.6,-3355.45,-19928.9
9.50883e+07,54.0642,1,2.41269,7148.84,4364.26,-21016.1
9.52871e+07,192.103,0,2.58735,11793.8,-16201.7,6487.87
9.56867e+07,32.5804,2,2.3779,4506.08,-1138.23,-23740.3
9.60427e+07,145.745,1,2.83587,-11657.5,10190.7,-2335.55
9.6173e+07,69.578,1,2.59276,13203.1,-3993.08,-23844
9.62609e+07,92.293,0,2.51246,15296.6,-7687.03,-19332
9.62954e+07,118.201,2,2.50066,21459.7,-11134.6,-22482.1
9.65423e+07,105.225,1,2.75051,-5682.92,769.435,-26497.4
9.73577e+07,101.295,2,2.85167,-10776.9,-243.612,-21252.2
9.75585e+07,60.6292,2,2.61332,-4923.21,11775.6,-29431.6
9.77264e+07,137.153,1,2.37124,-24284.4,-12459.9,-18940.6
9.77504e+07,142.379,2,2.40251,-1533.29,29950.4,-26672.4
9.78261e+07,1.73836,2,2.36408,-96.7279,-225.581,-28484.3
9.80674e+07,141.171,0,2.50416,6390.61,11522.2,-26998.8
9.84138e+07,72.5359,0,2.50816,2643.14,-14567.1,-24707.2
9.84661e+07,11.7295,2,2.85934,-721.461,-1713.1,-27087.5
9.88166e+07,23.2294,1,2.38618,1015.15,2709.37,-24794.7
9.88637e+07,109.478,0,2.69243,21547.9,-5996.58,-22751.1
9.89146e+07,58.1577,0,2.86266,-3185.26,-7530.08,-19776.9
9.9143e+07,146.215,2,2.56116,-648.144,-27165,-27352.3
9.93808e+07,102.924,1,2.71671,3089.62,18765.1,-18278.4
9.93963e+07,32.5856,1,3.0131,4002.79,-1186.97,-23458.3
9.95122e+07,108.101,2,3.05248,1668.45,-8166.62,-7782.97
9.95339e+07,98.3933,1,2.64398,-4112.57,-8165.16,-10197.1
9.96496e+07,17.0371,1,2.79954,-3328.1,-103.658,-27371.2
9.9666e+07,103.886,0,2.67125,-18147.8,10354.5,-22459.9
9.97929e+07,21.6684,2,2.85749,4307.5,519.515,-27567.3
9.99427e+07,249.269,1,2.87692,23166.9,10582.1,-8264.01
1.00025e+08,19.1544,2,2.90412,-705.801,-4018.2,-29450.1
1.00038e+08,160.288,0,2.52226,13574,17278.8,-3000.08
1.0028e+08,5.9691,1,2.40212,1045,698.743,-29119.4
1.00334e+08,119.48,1,2.66149,16459.9,-13231.5,-15205
1.00608e+08,511.929,2,2.64194,-1719.66,520.043,-29838
1.00862e+08,180.582,1,3.00369,-20571,17176.5,-2174.48
1.01091e+08,4.17113,2,2.57075,323.01,-918.256,-28808.6
1.01098e+08,73.4352,0,2.69604,-8819.52,6576.39,-18007.2
1.01343e+08,38.1245,1,2.48572,-7903.46,-1833.53,-29122.8
1.02007e+08,26.1307,1,2.52408,2272.46,4246.06,-26022.1
1.02086e+08,44.9104,0,2.53779,-2079.29,8250.04,-24608.7
1.02592e+08,72.4214,1,2.6898,-6852.59,-11021.9,-20829.6
1.02651e+08,31.1588,2,2.76651,-1421.5,-6026.98,-26377.2
1.02696e+08,188.584,1,2.49501,-14696.4,14732.6,5219.43
1.02829e+08,72.5809,2,2.95798,10787.6,7785.15,-21577.6
1.03112e+08,138.624,0,2.90075,5407.83,8102.73,-1378.89
1.03164e+08,128.049,1,2.85951,-15659.3,16948.8,-14893.1
1.04006e+08,116.103,1,3.01565,-2270.87,-18278.8,-12995.7
1.04298e+08,35.1897,2,2.96302,763.287,3511.65,-22410.8
1.04328e+08,38.6567,1,2.64902,522.292,8082.15,-27382.2
1.04705e+08,46.7421,2,2.3814,-2573.84,8981.34,-25732.2
1.04889e+08,46.5822,1,2.87889,-2007.91,3184.21,-19761.9
1.05027e+08,17.656,1,3.03118,-474.531,1857.83,-25610.5
1.05129e+08,11.6042,1,2.47775,-411.572,1981.89,-27331.3
1.05152e+08,79.2518,0,2.89329,11755.2,-5103.67,-18109.1
1.05164e+08,54.8578,2,2.84881,2991.56,9712.44,-23492.8
1.05173e+08,145.678,1,2.66739,27093.2,7284.84,-16291.6
1.05214e+08,10.1993,2,2.89011,502.315,1617.4,-27617.1
1.05263e+08,40.0054,2,2.68225,-4876.71,-1959.59,-22173.5
1.05407e+08,7.56734,0,2.48697,1427.34,174.531,-27929.6
1.05573e+08,261.682,0,2.99672,2925.31,16221,1640.94
1.05922e+08,69.3088,1,3.02246,8293.74,10947.8,-24052.3
1.06217e+08,26.2522,2,2.41971,-891.984,-2617.87,-23963.9
1.06395e+08,44.4025,1,2.5229,7455.39,190.847,-23182.1
1.06534e+08,11.6734,0,2.77788,2530.65,-57.723,-28543.3
1.06731e+08,285.589,0,3.02571,23096.2,-23421.1,-3235.65
1.06787e+08,53.2953,0,2.56866,-1559.7,11152.7,-28367.5
1.07599e+08,15.6286,1,2.46922,2604.79,2058.92,-29016.7
1.07923e+08,76.0297,1,2.45328,14598,5815.15,-25376.8
1.07982e+08,79.9099,1,2.89125,4273.7,-12294.9,-18333
1.08039e+08,156.653,1,2.88933,-14435.7,23379,-10636.8
1.0807e+08,71.5452,0,2.36369,10186.4,-11316.1,-28979.3
1.08379e+08,56.3249,0,2.73492,-8131.76,-6598.63,-23363.2
1.08478e+08,12.4294,2,2.56955,1210.22,2228.91,-28425.4
1.08965e+08,100.988,0,2.46232,1045.49,-17195.7,-16184.6
1.09087e+08,87.3956,1,2.47962,-1564.29,-17032.9,-21954.9
1.09134e+08,163.69,2,2.63489,24758.6,-3228.72,-5491.2
1.092e+08,89.3478,0,2.37076,2867.21,2625.19,-10317.7
1.09235e+08,22.8785,2,3.03553,1479.8,-596.722,-24311.2
1.09817e+08,134.09,0,2.96642,28102.8,723.168,-26250.5
1.09905e+08,97.6381,0,2.76188,14897.8,-14123.5,-26734.9
1.09919e+08,8.62684,1,2.45089,-1630,1014.73,-28593.7
1.10108e+08,126.526,0,2.50891,8817.09,11213.6,-6171.35
1.10825e+08,10.0827,2,2.79634,-1953.94,-684.922,-28125
1.10986e+08,104.769,1,2.79008,-14017.8,10206.1,-22033.5
1.11086e+08,40.8001,2,2.61381,-1735.95,-6607.07,-23472
1.11147e+08,94.7514,2,2.56716,15037.9,-12566.1,-24717.7
1.11214e+08,146.14,0,2.73082,-6931.02,16639,-3894.77
1.11327e+08,11.3227,2,2.41893,1944.98,187.773,-27503.3
1.11659e+08,24.2692,0,2.63212,3996.92,-3309.48,-29397.4
1.11787e+08,116.832,2,2.71036,-21430.6,-2850.08,-16940.2
1.12177e+08,125.043,0,2.52147,9365.51,-24168.6,-23470.8
1.12264e+08,52.6544,1,2.49944,6628.58,1448.51,-20026.5
1.12308e+08,63.633,0,2.81625,1542.79,-7335.04,-20765.3
1.12443e+08,75.7421,2,2.97456,-4082,7473.02,-21595.2
1.12566e+08,21.2793,0,2.57681,-1398.45,1547.53,-24881.9
1.12599e+08,17.7311,0,2.97355,2021.2,-1675.76,-26107.5
1.12855e+08,37.6686,2,2.93515,3782.71,5607.21,-24880.1
1.13208e+08,122.026,2,2.58186,-3831.11,17603.8,-10443.7
1.13373e+08,24.4518,0,2.81146,4113.33,-2763.68,-27207.3
1.13379e+08,232.198,1,2.39919,-16611,5306.69,-7372.7
1.1344e+08,36.4239,0,2.70824,-5678.09,3752.67,-25388.6
1.13477e+08,147.961,0,2.54811,18926.4,-15061.7,-8954.67
1.13511e+08,56.6205,1,2.77289,533.078,10125.9,-22423.5
1.13671e+08,10.3486,1,2.49533,-219.676,-1630.44,-27418.7
1.1385e+08,131.386,1,2.94005,15874.4,11647.1,-9531.02
1.14278e+08,25.5851,2,2.84972,-2733.84,-3384.3,-25544.6
1.14281e+08,87.356,2,2.46653,-16865,1359.97,-26609.5
1.1431e+08,30.5094,2,3.03728,965.479,-4315.03,-24126.2
1.14373e+08,121.283,0,2.74476,-16967.7,-5037.94,-10493.3
1.14431e+08,21.6539,0,2.57164,4105.71,211.502,-26613.2
1.14448e+08,186.096,2,2.38248,-13057.5,10271.4,6872.53
1.14901e+08,72.5478,1,2.47068,-5314.55,329.271,-14409.3
1.15013e+08,21.4741,0,2.98574,1184.42,2792.13,-25464
1.15023e+08,18.1108,2,2.55878,-1816.25,1789.8,-25986
1.15123e+08,13.6633,1,2.74512,-1827.22,171.215,-26556.6
1.15167e+08,77.106,0,2.6757,15646.6,-4497.34,-27205.2
1.15396e+08,89.7031,1,2.7202,-1337.65,14165.1,-16303.5
1.15704e+08,24.3219,0,2.89884,2178.11,4686.36,-28644.2
1.15931e+08,192.619,2,2.65993,20422.8,17231.9,1686.28
1.15956e+08,4.14841,0,2.9358,-302.053,-335.88,-28129.4
1.16284e+08,19.8557,0,3.03333,2411.97,3350.32,-29812.9
1.16402e+08,3.17059,1,2.57093,-267.517,496.831,-28355.1
0,3.13171,1,2.69122,0,0,0
1.16816e+08,132.255,0,2.38934,-6255.39,9730.57,-3366.74
1.17183e+08,37.9677,0,2.74019,-1307.46,4373.01,-22264.3
1.17978e+08,42.6729,2,2.67758,-551.202,5785.17,-21988.1
1.18037e+08,285.394,0,2.63199,21989,10915.9,13633.8
1.18115e+08,43.7507,2,2.85308,-655.974,-1638.57,-26337.5
1.18251e+08,70.245,0,2.51415,-5394.58,2436.57,-15222.7
1.18906e+08,36.3985,0,2.75382,-207.85,5560.52,-23555.7
1.19067e+08,71.5064,2,2.38174,8767.25,-8527.87,-19894.3
1.19176e+08,134.86,1,2.48677,-24497.6,-5759.16,-15356
1.19187e+08,142.85,0,2.81032,26647,-1158.54,-14807.4
1.19241e+08,91.3471,1,2.4045,5372.8,3967.59,-10711.8
1.19341e+08,56.3828,2,2.782,9414.88,342.192,-21663.4
1.19343e+08,110.191,2,2.74211,-21497.9,-831.058,-20019
1.19419e+08,66.4745,2,2.44338,-11178.9,-5086.02,-21865
1.19533e+08,10.2669,1,2.82946,-1533.86,1237.52,-29961.5
1.19538e+08,20.2689,1,2.53075,3186.94,1279.73,-26253.5
1.20126e+08,131.586,0,3.0446,-18740.3,5889.89,-9604.83
1.20632e+08,59.371,2,2.92437,1872.05,-8918.9,-20238
1.20723e+08,8.55523,2,2.58832,1048.19,-1294.25,-29698.2
1.20911e+08,149.616,0,2.74551,10105.7,-3562.21,836.386
1.21315e+08,40.8215,1,2.87767,5697.78,-4705.68,-24600.4
1.21506e+08,139.939,0,2.66996,12791.4,1345.45,-29446.1
1.21543e+08,120.75,0,2.37678,-5865.13,21240.9,-15954.7
1.22082e+08,21.0321,2,2.61555,-4465.05,-171.095,-28162.4
1.22324e+08,9.0689,1,2.72836,-1393.52,1350.43,-28267.1
1.22885e+08,18.4302,1,2.61842,-1127.22,3062.56,-26581.6
1.22941e+08,142.812,2,2.80555,-8318.38,-9923.59,-1706.11
1.23041e+08,68.693,2,2.8109,12857.2,-4619.11,-24140.2
1.23042e+08,38.5797,2,2.63742,-2556.64,-6299.41,-24198
1.2309e+08,187.436,0,2.60719,-14067.4,-9174.02,6948.75
1.23382e+08,62.7252,0,3.01143,-360.194,5015.77,-16680.2
1.23405e+08,14.7823,0,2.82866,2852.25,1409.84,-28865.6
1.23434e+08,170.973,2,2.38722,22279.9,-4013.95,-669.006
1.23461e+08,2.11825,2,2.89067,253.973,283.5,-28751.6
0,1.53835,0,2.63867,0,0,0
1.23774e+08,50.2543,0,2.79535,9625.85,2668.76,-25066.6
1.23999e+08,35.3064,1,2.42844,-3826.95,-3283.14,-23327.7
1.2403e+08,171.477,1,2.68481,15660.2,27218.1,-10807.6
1.24038e+08,117.058,0,2.69697,4870.85,-24215.4,-29071.4
1.24524e+08,107.925,1,2.83746,-9618.55,-19809,-23502.5
1.24557e+08,85.9436,2,2.37244,-7362.03,-16725.6,-27835.3
1.25216e+08,52.3546,0,2.78769,-123.18,1627.63,-29067.4
1.25476e+08,109.104,0,2.99985,15617.1,-9129.08,-14751.6
1.25565e+08,78.8445,2,3.0452,3822.26,588.74,-18132.9
1.25598e+08,112.873,2,2.80708,3058.87,-17883.2,-13416.1
1.25758e+08,41.8589,1,2.78038,-6491.62,-5693.61,-27082.3
1.25759e+08,209.521,2,2.7444,6261.93,-18710.3,-9242.94
1.25998e+08,90.9015,2,2.53476,-1914.54,15461.2,-17629.6
1.26101e+08,40.936,0,2.82708,4656.33,-2381.39,-21933.4
1.26561e+08,60.6357,2,2.66428,-5625.09,-8662.3,-21152.1
1.26809e+08,94.6475,0,3.01422,8098.89,-4116.85,-11168.6
1.2692e+08,60.9319,0,2.92051,11841.5,3364.28,-25019
1.27016e+08,27.5015,2,3.04385,-4773.34,1567.69,-25916.5
1.27167e+08,28.2386,0,2.38993,5300.07,2736.85,-27701.9
1.27258e+08,2.99409,1,2.64827,-128.991,685.124,-28750.7
1.27261e+08,91.487,2,2.60512,-10792.2,-10104.7,-16279
1.27369e+08,202.334,1,3.01346,-27885.5,-23251.6,-6927.15
1.2751e+08,90.7606,0,2.64747,-37.8207,9971.39,-24039.6
1.27588e+08,72.7342,0,2.76156,11264.3,10489.8,-29604.3
1.27804e+08,36.1411,1,2.71468,3914.94,1370.56,-22443.2
1.27946e+08,268.034,0,2.72644,-29016.7,-20018.4,14664.4
1.28052e+08,59.4788,1,2.43563,5633.63,5389.55,-18912.1
1.28265e+08,27.769,2,2.67496,5002.09,-2939.19,-27834.9
1.28302e+08,8.4967,2,2.82468,836.023,-1171.76,-27692.7
1.28481e+08,100.319,0,2.68109,13202.3,-11857.4,-19635.9
1.28569e+08,196.837,1,2.74142,15349.6,14537,3270.94
1.28686e+08,46.3712,0,2.92727,-8015.34,2225.89,-23888.8
1.28982e+08,166.298,2,2.74596,-9006.47,22182.3,-3314.1
1.29042e+08,94.5348,0,2.81544,-10083.5,-15109.3,-20849.1
1.29249e+08,10.9774,1,2.79302,-1049.12,2072,-29446.8
1.29295e+08,21.8807,1,2.89726,3555.34,2942.82,-29167.9
1.30041e+08,102.325,2,2.71388,9112.68,12343.3,-13754
1.30091e+08,83.015,0,2.87214,14833.5,-9351.92,-28903.8
1.30134e+08,22.589,1,2.51735,3944.04,822.634,-26308.3
1.3021e+08,101.133,1,2.86524,2253.52,21203.5,-28041
1.30382e+08,59.968,0,2.82159,4991.31,9776.12,-22536
1.30667e+08,122.81,2,3.02189,-7203.44,-19315.9,-13324.2
1.30738e+08,43.2501,1,2.69935,3313.2,-632.53,-20361
1.31147e+08,76.8315,2,2.77389,-14631.9,3316.89,-22660.6
1.31307e+08,37.8431,2,2.87149,5280.75,-2160.91,-23277.2
1.31806e+08,247.571,1,2.92147,-12016.4,-433.169,734.583
1.31834e+08,211.331,2,2.98026,-20479.9,-18255.5,6015.87
1.32138e+08,5.12885,1,2.81808,158.621,1165.22,-28813.2
0,5.12911,1,2.63399,0,0,0
1.32351e+08,56.8049,1,2.84486,-7101.91,8461.02,-24087.8
1.32403e+08,19.8189,0,2.64858,2780.76,1798.24,-26154.4
1.32451e+08,63.41,1,2.61374,-9298.85,1585.28,-19253.6
1.32592e+08,40.819,1,2.98503,6982.09,1761.05,-24198.4
1.32903e+08,52.7441,2,2.73095,8000,-2469.26,-21537.6
1.32935e+08,125.149,0,2.85991,-5097.81,23280.6,-17703
1.33038e+08,75.9138,2,2.68344,8407.43,-7137.9,-17220.6
1.33185e+08,81.8187,2,2.93341,-15792.2,-6574.02,-26654.3
1.3346e+08,41.5451,1,2.89131,-3970.12,-6480.87,-24803.1
1.33561e+08,86.0732,1,2.58086,-2185.08,12524.7,-15740.3
1.33573e+08,97.3566,0,2.65412,-12646.2,-6359.38,-13993.3
1.33633e+08,70.6542,2,2.88982,-9111.01,-2809.19,-17419.6
1.3365e+08,3.68639,1,2.94985,-544.897,-96.0023,-28232.1
1.33755e+08,51.1192,2,2.96995,-152.197,-10234.9,-25326.5
1.33875e+08,127.149,2,2.38317,-17246.1,-20644.9,-26361.8
1.34021e+08,12.9526,2,2.54548,1187.43,-2521.75,-28912.1
1.34056e+08,40.2144,0,2.69219,5986.18,-918.026,-22817.4
1.34299e+08,185.622,2,2.43873,12207.3,27959.7,-4203.2
1.34361e+08,50.3306,0,2.55971,6283.02,7687.57,-24851.6
1.34575e+08,10.1018,1,2.91227,-1953.45,932.936,-28512.7
1.34817e+08,7.08205,0,2.65049,1284.19,-186.227,-27922.4
1.35009e+08,32.4519,1,2.98804,-363.263,4636.66,-23779.9
1.35342e+08,88.7338,1,2.62885,13336.4,6994.91,-17676.8
1.36e+08,95.5046,0,2.47678,-2102.82,500.31,-12753
1.36123e+08,13.4699,1,2.82957,-1917.17,2159.76,-29382.5
1.36208e+08,151.343,1,2.67319,-10907.9,27956.8,-17790.9
1.36303e+08,88.1991,1,2.89804,6865.13,543.048,-11743.2
1.36336e+08,7.57096,1,2.40448,-1491.74,511.355,-28232.4
1.36511e+08,63.2043,0,2.84836,3338.21,2622.32,-16215.3
1.36538e+08,157.542,0,2.68896,-12344.5,-19651.6,-9041.6
1.36612e+08,207.749,2,2.88969,-24203.6,29785.4,-8163.38
1.36666e+08,63.8489,2,2.7674,-1003.91,-13474.9,-28742.7
1.36978e+08,113.687,1,3.00923,-5187.08,-16958.8,-12999.8
1.37116e+08,126.174,0,2.6627,6956.3,6850.2,-4047.85
1.37291e+08,70.4563,1,2.90287,5982.96,-2287.6,-25922.9
1.37516e+08,15.5673,2,2.81329,-2067.27,-2453.91,-27850.2
1.37658e+08,12.5289,0,2.73713,-900.021,2306.38,-27992.8
1.37795e+08,287.868,2,2.73272,16491.4,-10907.7,28261.7
1.38031e+08,161.189,1,2.6233,11721,-17306.7,-2026.24
1.38195e+08,11.8198,0,2.47086,328.376,-1684.46,-26969.2
1.38625e+08,43.7771,2,2.39721,-4743.26,-3095.85,-21432.1
1.3877e+08,9.762,2,2.62144,-306.61,-2107.41,-28399.2
1.39399e+08,92.0464,0,2.9244,-1128.57,-17065.2,-19846.3
1.39473e+08,29.9526,1,2.53468,1034.46,6316.67,-28405.1
1.39512e+08,7.49673,2,2.59585,183.999,1357.5,-28170.4
1.39746e+08,45.5278,2,2.76005,5951.11,-7123.72,-26321.2
1.39747e+08,20.8098,0,2.92515,3426.12,2840.98,-28729.8
1.39964e+08,156.267,0,2.82859,-17815.8,12611.1,-4550.07
1.40145e+08,141.436,1,2.69608,13144.4,16766.4,-7981.29
1.40173e+08,2.84038,2,2.66116,-194.825,-636.431,-28623.4
0,2.83204,2,2.86501,0,0,0
1.4034e+08,33.1013,1,2.43808,1759.03,6874.06,-28567.1
1.40379e+08,124.525,1,3.01683,16786.5,-5174.85,-9608.59
1.40423e+08,70.3602,2,2.84876,-5770.98,6797.51,-17143.3
1.40503e+08,23.4489,1,2.97941,-80.7563,4872.28,-27768.4
1.40686e+08,118.077,2,2.53746,23589.5,3948.92,-21825.3
1.40777e+08,53.6936,2,2.64846,-10650.1,-3034.39,-26067.8
1.40833e+08,109.795,1,2.70167,8227.45,16898.7,-15252.9
1.41029e+08,34.2071,2,2.70771,461.437,-3873.05,-22728.7
1.41069e+08,93.0221,2,2.59836,-1984.52,15991,-17651.5
1.41327e+08,155.389,2,2.47581,-13525.5,10741.6,-20218.3
1.4188e+08,198.558,2,2.45612,-15697,-5742.49,9723.67
1.41936e+08,69.6638,1,2.50195,-34.671,11506.9,-19525.4
1.42191e+08,36.9683,0,2.91857,-2268.09,2701.58,-21939
1.42214e+08,153.754,0,2.79019,13850.9,2186.85,369.561
1.42385e+08,0.821152,0,3.00772,27.3497,120.664,-28682.2
0,1.07778,2,2.77732,0,0,0
1.42678e+08,55.8699,1,2.40803,2002.95,-7438.56,-19914.6
1.42732e+08,43.2226,0,2.91217,1107.57,-3796.03,-20628.1
1.4283e+08,47.6077,0,2.48062,9135.6,2896.89,-25484.1
1.43142e+08,125.206,2,2.82097,25722,-5649.3,-28510.8
1.4341e+08,228.349,0,3.02901,-4947.32,-4644.34,15608.3
1.43601e+08,27.677,2,3.0609,953.721,-1344.96,-23247.3
1.4401e+08,120.005,1,2.6367,-22416,5993.1,-18567.5
1.44011e+08,201.089,1,2.39755,28469.4,-29655.3,-22643.4
1.44022e+08,30.5832,2,2.57942,-3154.18,-4866.97,-25772.1
1.4441e+08,155.595,0,2.6594,-3910.38,-29948.3,-15955.5
1.44457e+08,130.703,2,2.95182,19123.9,-2954.45,-11574.7
1.44791e+08,226.945,1,2.91924,7929.48,-14714.6,4444.17
1.44882e+08,2.06134,1,2.63546,-56.1116,209.293,-28407.5
0,2.13708,1,2.8361,0,0,0
1.45126e+08,190.435,0,3.02087,29821,-5694.57,-2843.06
1.45163e+08,97.4734,0,2.94317,-6764.63,13011.2,-22218.7
1.45387e+08,23.1107,2,2.75878,-1639.59,2166.01,-24806.2
1.46539e+08,83.4997,0,2.71349,14984.6,-9261.94,-27447.4
1.46574e+08,92.0106,0,2.5403,2705.15,-19034.8,-25694.6
1.46967e+08,174.854,2,2.52429,10506.5,-18524.1,1401.47
1.47249e+08,203.964,2,2.81092,-27594.3,9068.61,2707.76
1.47272e+08,21.2628,1,2.43138,-1144.46,1913.53,-24879
1.47283e+08,159.277,0,2.48508,14758.3,3788.53,-2518.83
1.47391e+08,33.1929,1,2.601,-4932.84,4831.11,-27166.5
1.47643e+08,86.3654,2,2.4636,-18292.8,831.095,-29497
1.47767e+08,117.578,1,3.05332,-8302.39,-2571.47,-5782.4
1.48128e+08,35.2681,1,2.98225,-3217.79,901.197,-22257
1.48184e+08,5.11489,2,2.8713,17.7425,581.968,-27941.7
1.48441e+08,42.8615,1,2.47311,7189.62,2263.63,-23777.6
1.48876e+08,103.09,2,2.53019,-13217.4,15938.6,-22070.1
1.49295e+08,52.0384,1,2.61743,-9129.38,227.945,-26428.5
1.49713e+08,14.4186,0,2.90906,700.36,2444.53,-27118.2
1.49834e+08,69.1885,0,2.79452,951.373,-14326.8,-26277.6
1.49958e+08,161.315,1,2.55291,20405.4,10899.1,-3795.06
1.50111e+08,8.99931,2,2.90165,-631.201,-1236.25,-27440.4
1.50549e+08,105.033,1,2.9973,-9690.51,15825,-16827.6
1.50652e+08,137.493,0,2.94717,14423.1,-20944.8,-15125.3
1.50861e+08,3.44099,2,2.58074,-190.49,-734.4,-28523.5
0,3.4814,2,2.44034,0,0,0
1.50942e+08,17.7297,1,2.74185,3244.86,1527.25,-29964.5
1.51044e+08,86.9451,0,2.92481,10223.5,-9276.9,-16810.9
1.51175e+08,76.0238,2,2.6024,2800.89,7788.94,-15109.5
1.51415e+08,27.9458,1,2.99019,-3229.19,1643.41,-24152.2
1.51589e+08,155.449,0,2.51484,-20813.8,23220.7,-18582.5
1.51766e+08,4.87578,1,2.67616,-1077.39,322.248,-28799.1
1.52095e+08,20.5476,2,2.66623,647.203,-3531.84,-26296.8
1.52357e+08,15.4289,0,2.76627,2602.21,1907.13,-29755.1
1.52527e+08,27.1462,0,2.94319,1373.38,-3407.01,-24438.3
1.52701e+08,24.9353,1,2.79117,-4185.54,2091.05,-26306.5
1.52789e+08,48.7815,1,2.62444,-5030.49,-5810.41,-21985.2
1.52886e+08,32.2619,2,2.54077,-1589.08,742.716,-22221.8
1.52982e+08,176.459,0,2.40355,22071.5,3148.11,-12052.8
1.53046e+08,30.2994,2,2.80417,-363.598,5322.98,-25388.4
1.53049e+08,71.1083,1,2.53149,-13076.4,-5790.43,-24088.2
1.53138e+08,22.9197,1,2.87315,3016.15,-286.777,-25150.9
1.53238e+08,25.1858,0,2.62351,459.693,-3551.12,-24854.4
1.53259e+08,74.3001,2,2.5509,7324.3,-3710.15,-15434.5
1.53436e+08,84.3685,0,2.67343,17124.7,5207.21,-28496.4
1.53644e+08,34.2026,1,2.36347,-4394.97,5332.91,-26477.9
1.53802e+08,42.9989,1,2.46374,-3276.52,7908.03,-25470.8
1.54042e+08,221.793,0,2.41885,7788.03,13255.7,15491.4
1.54307e+08,22.3993,0,3.00871,2286.09,1408.27,-24926.4
1.54536e+08,13.7101,2,3.01239,405.59,-1811.55,-26561.8
0,13.6172,2,2.48507,0,0,0
1.54651e+08,102.437,0,2.68664,2637.97,21415.5,-27856.1
1.5481e+08,52.9998,1,2.98269,-5277.62,5466.06,-20636.4
0,52.6013,1,2.56647,0,0,0
1.54915e+08,4.07969,1,2.91512,88.2215,533.838,-28107.4
1.55014e+08,10.4894,1,2.85763,306.061,1032.56,-26859.9
1.55248e+08,115.786,1,2.83267,17509.6,-15049.9,-21286
1.5528e+08,59.1253,0,2.84905,-493.308,6458.61,-18204.2
1.55362e+08,74.4759,0,2.53038,-333.26,-10049.8,-16738.1
1.55364e+08,54.8004,2,2.42628,-5597.01,-8670.96,-23361.2
1.55459e+08,75.1635,1,2.69368,6007.59,6246.88,-19780.6
1.5571e+08,45.8374,1,3.02255,-5480.83,7201.65,-25337.7
1.55713e+08,60.6951,1,2.98813,-9676.77,5483.39,-22511.1
1.56067e+08,62.2187,1,3.05106,-10051.5,-8257.89,-29330.4
1.56395e+08,40.7123,1,2.69803,3621.24,4746.09,-22600.3
1.56433e+08,76.867,0,2.88767,-7315.19,-2556.7,-17207.5
1.56453e+08,20.9731,0,2.80655,2104.96,-2266.78,-25624.9
1.56804e+08,5.40695,1,2.82031,324.076,883.718,-28090.8
1.56921e+08,67.849,1,2.80992,-727.401,-9240.58,-18020.7
1.56939e+08,101.716,2,2.94783,-14717.8,-988.858,-13346.9
1.57141e+08,183.39,2,3.03433,13852.8,-4391.56,-22441
1.57301e+08,52.0234,2,2.41339,3091.31,6204.76,-26072.8
1.57323e+08,17.7651,1,2.42206,-1767.99,1177.16,-25670.5
1.57566e+08,25.5308,0,2.485,-2930.12,2644.29,-25186.5
1.57713e+08,240.469,2,2.76545,-28780.8,-527.624,12842.8
1.57767e+08,97.1925,2,2.80166,13552.2,-10890.1,-18027.5
1.57774e+08,58.4057,0,2.74798,-6238.49,5925.6,-20102.3
1.57814e+08,35.0669,2,2.93016,2915.74,-669.953,-22103.5
1.58148e+08,14.6729,1,3.01472,2028.7,-411.506,-26599.1
1.58318e+08,13.0974,1,2.87599,-2029.98,1921.52,-29456.3
1.58474e+08,4.33538,0,3.01897,727.527,-352.009,-28257
1.58522e+08,137.582,1,3.03139,-15707.4,8590.55,-14784.1
1.58628e+08,9.89849,2,2.56547,-2044.04,-687.052,-28732.6
1.58822e+08,8.50318,1,2.72263,1538.72,965.683,-28907.9
1.59105e+08,139.474,2,2.81825,5116.64,-26705.4,-18835.1
1.59435e+08,116.27,1,2.61431,17510.1,15726.1,-21691.8
1.59475e+08,139.818,0,3.01671,14337.6,-10516.1,-21960.1
1.59652e+08,257.016,2,2.85505,-16433.1,6884.43,22156.2
1.59826e+08,100.099,2,3.06117,-17077.3,-10567,-22526.4
1.59926e+08,190.308,0,2.99693,663.466,6772.18,-27970.4
1.60244e+08,211.238,1,3.00395,11394.8,1079.52,-5231.11
1.6032e+08,16.2751,2,2.57593,1722.98,-2710.33,-27443.5
1.60374e+08,10.5692,2,2.95679,-1915.22,992.584,-28230.5
1.60596e+08,91.0253,1,2.45581,8385.37,17371.1,-28612.6
1.61104e+08,37.5497,2,2.97096,2056.79,-4592.11,-22707.9
1.61302e+08,7.47152,1,2.44507,29.7791,1666.83,-29122.7
1.61429e+08,20.4327,0,2.63355,1509.79,-2921.7,-25985.5
1.61449e+08,5.90504,1,2.98303,-339.488,1196.04,-28334.7
1.61549e+08,223.276,0,2.38447,13884.4,9907.11,-19342.8
1.61635e+08,134.779,1,2.62921,7836.22,-17693.8,-8050.47
1.61847e+08,31.9654,2,2.57423,-916.979,-2419.97,-22547.9
1.61944e+08,65.5111,1,2.78221,-12604,198.995,-23183.8
1.62045e+08,104.999,0,2.89074,22028.4,-2270.03,-27870.1
1.62055e+08,253.11,2,2.47808,-4621.39,-10995.7,-22197.5
1.62137e+08,50.9113,1,2.92873,-4585.14,836.213,-19167.1
1.6226e+08,90.9015,0,2.49154,8075.97,11748.2,-15881.5
1.62795e+08,315.131,2,2.66843,23144.3,-22882.1,29067.7
1.63217e+08,63.2515,2,2.80011,-9231.53,-8445.99,-24013.6
1.63343e+08,68.6463,2,2.39632,-9353.48,10650.3,-25656.9
1.63666e+08,155.65,1,2.52952,-15397.7,27498.2,-19061.1
1.63687e+08,249.087,0,2.75625,28023.7,-27420.5,6075.93
1.63706e+08,78.3884,0,2.68046,10576.4,11832.7,-23943.7
1.63905e+08,189.128,2,2.77728,-19574.4,6251.67,5248.65
1.64101e+08,7.24874,0,2.62268,1483.17,387.982,-28296.6
1.64526e+08,1.07748,1,2.90257,-142.315,260.307,-28715.1
0,1.02811,1,2.86597,0,0,0
1.64692e+08,63.7361,1,2.43226,-6211.52,-2302.57,-17056.8
1.6482e+08,120.85,1,2.49007,8796.69,14882.9,-9964.45
1.65137e+08,50.6874,1,2.97398,-1779.77,10512.4,-27520.6
1.65227e+08,56.142,0,2.53431,-1541.44,-7984.45,-20164.8
1.6526e+08,19.8119,0,2.87184,3564.16,2122.63,-29871.9
1.65298e+08,49.3934,2,3.00409,6887.22,-3393.28,-21875.6
1.65301e+08,40.9515,1,2.99562,-670.875,-776.514,-29786.6
1.6538e+08,3.71691,0,2.66022,-559.65,-247.126,-28387
1.65442e+08,28.1784,1,2.56861,-1650.15,-5603.16,-27870.4
1.65477e+08,8.79214,1,2.79937,-613.529,-643.994,-27214.4
1.65936e+08,110.366,2,2.60565,-17260.4,-9829.06,-25465.6
1.66082e+08,22.4006,1,2.66806,-4642.41,-624.989,-29723.7
1.66131e+08,0.898409,2,2.64483,55.1694,0.670836,-28664.8
0,0.873246,2,2.85004,0,0,0
1.66154e+08,10.8143,0,2.3946,2169.89,674.069,-29515.5
1.66594e+08,77.3637,1,2.48433,-11219.3,-11462.8,-25574.2
1.66976e+08,1.20367,2,2.47933,-193.826,-307.102,-28935.5
0,1.22919,2,2.53875,0,0,0
1.67035e+08,113.541,0,2.69787,23439.3,-5351.61,-28454.9
1.6708e+08,53.4853,1,2.87949,-4251.56,10480.3,-27908.6
1.67166e+08,18.2838,1,2.71155,721.873,-3627.41,-27994.4
1.67169e+08,62.3019,0,2.66424,1398.41,4158.52,-26148.9
1.67585e+08,65.7461,2,2.7972,6716.17,-1911.19,-16927.1
1.68264e+08,118.652,1,2.77432,-18806.5,16446,-26889.9
1.68342e+08,104.355,0,2.88353,-10849.5,8811.14,-12009
1.68365e+08,155.983,2,2.82122,-21779.6,-24197.4,-24060.7
1.68421e+08,119.713,0,2.84358,21856.2,-1453.63,-16772.5
1.68578e+08,39.5337,1,2.36546,2691.38,2350.91,-21250.1
0,39.5166,1,2.47183,0,0,0
1.68824e+08,34.2116,0,2.44304,6758.76,-2028.05,-26854.8
1.68928e+08,33.3413,2,2.83147,420.497,-6500.71,-26089.6
1.69205e+08,251.685,0,2.40967,21191.8,-15543.7,17505
1.69474e+08,52.5811,0,2.48686,-2563.47,-5263.46,-19418.3
1.69729e+08,16.7375,2,2.51766,-2772.69,-2325.08,-29265.6
0,16.6773,2,2.52899,0,0,0
1.69739e+08,91.6803,2,2.76938,6029.13,-13842.6,-16773.9
1.69886e+08,36.8883,1,3.00942,-6699.61,-3914.43,-28550.8
1.69893e+08,237.602,0,2.87252,-4874.61,-10064.7,-12668.4
1.69958e+08,93.671,2,2.68691,-15178.6,-11788.9,-23973.8
1.70557e+08,22.6987,2,2.36356,-4503.93,1724.42,-28595.3
1.70684e+08,38.9541,2,2.89788,4463.42,-958.321,-22041.7
1.70821e+08,7.96903,2,2.86501,222.4,-584.108,-27235.6
1.70994e+08,146.133,0,2.69138,-7398.47,-29492.5,-23936.1
1.71137e+08,104.087,1,2.42253,-3131.98,-4448.64,-19170
1.71222e+08,3.22075,1,2.40412,221.684,-272.916,-28269.1
1.71361e+08,91.9328,0,2.68809,12520.6,-14590.8,-25815.7
1.71362e+08,28.0588,0,2.74649,469.565,5241.09,-26104
1.71579e+08,15.2171,2,2.36661,-1192.79,-2517.41,-27094.4
1.71802e+08,28.234,1,2.65324,5615.48,1778.3,-29799
1.72023e+08,49.4871,0,3.05946,3273.65,7389.14,-22287
1.72132e+08,98.17,0,2.46281,18669.2,-1494.37,-19713.1
1.72617e+08,19.1073,1,2.94538,1654.98,1307.44,-25387.9
0,19.1078,1,2.94538,0,0,0
1.72894e+08,171.619,1,2.41497,26458,11277.5,-6670.88
1.72915e+08,17.5752,1,2.66923,-1944.4,1503.99,-25968.5
1.72988e+08,100.962,1,2.46571,-15150.8,12463.8,-20272.5
1.73298e+08,49.2272,1,3.02077,3850.39,4354.64,-20283.7
1.7331e+08,117.28,1,2.4044,15305.4,-9414.67,-11772.7
1.737e+08,101.327,2,2.75185,3069.47,-19115.9,-19746.6
1.73705e+08,146.274,2,2.39958,907.226,-24505.3,-9847.88
1.73987e+08,205.372,0,2.78083,-15469.7,11651.2,9787.59
1.74335e+08,133.893,1,2.65717,-19057.1,16023.7,-21488.9
1.74429e+08,68.8513,2,2.42427,-6914.35,-11478.1,-22950.7
1.74433e+08,73.3638,1,3.01895,-2397.48,2740.35,-13878
1.74662e+08,177.037,1,2.73178,-18159.7,295.148,-25924.1
1.7471e+08,188.607,1,3.05978,20227.9,20827.9,-2060.66
1.74792e+08,47.4399,2,2.93404,-5381.17,3638.19,-21268.7
1.74855e+08,169.974,1,2.42135,16584.5,13477.6,61.4776
1.75083e+08,60.2013,2,2.66509,-7123.48,-2445.7,-25456.9
1.75091e+08,73.1073,1,2.98793,3692.63,12749.8,-21072.5
1.75273e+08,30.9749,0,2.53612,5822.02,3092.06,-27919.6
1.75375e+08,94.0922,0,2.9178,17615.1,7484.98,-23676
1.7583e+08,66.9846,1,2.38069,3522.09,-4902.23,-16066.9
1.76081e+08,263.616,1,2.94699,-10540.3,19736.4,21778
1.76247e+08,8.44073,0,2.40488,1230.27,-1372.75,-28475.5
1.76372e+08,101.048,2,2.98827,-14083.9,-1218.03,-12986.4
1.76792e+08,14.9398,2,2.80161,-751.417,-150.484,-25762.3
1.7684e+08,150.185,2,2.52029,-9370.7,-23871,-10008.6
1.77303e+08,46.7494,0,2.42378,7509.19,-1802.02,-22529
1.77499e+08,9.80557,2,2.82669,-1002.33,-245.194,-27019.3
1.77833e+08,20.1521,1,2.66763,-2052.18,3079.97,-26558.9
1.77856e+08,17.5762,2,2.42149,66.9983,2485.59,-26112.4
1.78006e+08,7.09067,0,3.00144,-1227.6,546.193,-28296.8
1.78283e+08,121.356,1,2.96155,-1359.53,7059,-29266.5
1.78285e+08,17.3844,2,2.7474,-2110.42,-724.435,-25878.9
1.78489e+08,36.0063,0,2.66166,1068.9,-7535.84,-29243.5
1.78524e+08,23.1049,1,2.43954,-3869.69,3125.1,-28561.8
1.78559e+08,12.6066,0,2.39147,2701.69,-375.626,-28399.3
1.79172e+08,145.878,1,2.53388,1740.77,-19134.8,-17281.5
1.79228e+08,74.5413,2,2.46894,9631.03,787.154,-16384.7
1.79682e+08,99.0269,2,2.4668,-19069.5,8727.75,-29090.8
1.79686e+08,105.927,2,2.84933,-19315.8,-8854.03,-21933.3
1.79756e+08,1.36994,2,3.02194,-18.0978,-41.1608,-28532.8
1.79991e+08,20.3421,2,2.51302,-3839.92,1688.93,-29929.6
1.80057e+08,139.736,1,2.42366,7643.29,24045.9,-13386.7
1.80172e+08,50.5366,1,2.74451,3091.37,5404.71,-21165.1
1.80731e+08,82.7218,2,2.85111,2980.85,6056.58,-29550.4
1.80884e+08,39.2519,0,2.83401,6739.87,-812.457,-23984
1.80903e+08,16.4205,1,2.6124,-2761.1,-227.919,-26673.1
1.81107e+08,65.9027,1,2.7475,3680.31,12578.8,-24060.2
1.81116e+08,41.706,2,2.87734,-4391.5,-1336.28,-21315
1.8121e+08,65.939,1,2.65839,-2618.39,12398.8,-22862
1.8152e+08,26.1339,2,2.58364,-4951.92,-1055.99,-26452.1
1.81731e+08,34.1926,0,3.02977,-4217.15,-1389.6,-23274.6
1.81953e+08,50.9357,1,2.81934,7781.39,5833.66,-24275.7
1.82272e+08,187.498,2,2.39695,-3685.36,-15341.9,-21194.5
1.82342e+08,89.6703,0,2.96019,13799.9,12333.3,-25031.2
1.82524e+08,8.57703,2,2.52893,92.5382,-661.764,-27112.7
1.82803e+08,118.535,0,2.8517,19087.2,-11315.6,-24812.9
1.83038e+08,61.143,0,2.63716,4176.03,9667.54,-21313.2
1.83067e+08,67.5348,0,2.40395,-13089.9,3824.8,-24825.4
1.83539e+08,85.2843,1,2.63794,7553.54,-3663.82,-23372.6
1.83613e+08,56.0955,2,2.96092,-6607.64,-7405.65,-25889.6
1.8365e+08,38.4157,0,2.75962,1999.21,7114.39,-25432.6
1.83658e+08,45.3475,2,2.55279,4191.83,-1101.64,-20281.9
1.83825e+08,7.4531,1,2.74957,-983.354,-915.338,-28019.2
1.84056e+08,121.32,1,2.37318,10795.3,9948.59,-7772.45
1.841e+08,97.1927,1,2.63707,4227.29,18830.4,-21724
1.84218e+08,45.126,2,2.72926,-7460.07,-3999.77,-24333.7
1.84522e+08,9.46158,2,2.75103,-1768.49,-933.434,-28206.6
1.84564e+08,14.9598,1,2.67723,2475.34,561.517,-26994.8
1.84618e+08,68.1051,1,3.00564,-9354.17,8930,-22612.7
1.84649e+08,10.0377,2,2.93649,-1153.74,-1879.57,-28733.5
1.8478e+08,22.5115,0,2.63921,1901.87,4345.4,-29629.4
1.84853e+08,25.1047,0,2.76004,3826.47,3776.78,-29146.1
1.85463e+08,27.2832,1,2.48967,-3210.3,4894.37,-28183.4
1.85578e+08,36.0618,2,2.73323,3882.6,1108.22,-22427.6
1.85702e+08,51.8293,0,2.37697,6613.12,-1277.96,-20088.1
1.85727e+08,15.8339,2,2.4905,-2425.85,-102.415,-26442.7
1.86012e+08,89.117,0,2.43773,-10314.2,-3426.29,-13455.5
1.86158e+08,99.6548,0,2.8946,18184.8,-798.145,-18343.1
1.86292e+08,281.353,1,2.81879,-12018.7,-7479.95,-21630
1.86418e+08,281.008,2,2.61275,-24792.2,11306.6,-29362.7
1.86524e+08,114.634,2,2.7076,-19410.8,-12069.1,-20728.2
1.8709e+08,58.4012,1,2.73602,6188.55,7883.16,-21624
1.87203e+08,52.9767,1,2.58917,-970.717,4110.97,-18446.9
1.87365e+08,54.4806,2,2.48751,-5807.41,-5738.53,-20620.7
1.87439e+08,35.6355,2,2.8463,-4608.68,1240.06,-23008.9
1.87448e+08,113.159,0,2.65019,-664.156,-15640,-10811.7
1.87472e+08,131.264,0,2.62939,-1588.07,-21706.6,-13249.4
1.87623e+08,90.6514,2,2.5894,-10898.6,9305.25,-16140.6
1.88298e+08,7.18152,2,2.85663,-1470.37,482.032,-28995.8
1.88562e+08,38.864,2,2.52559,6488.02,-4603.47,-26644.2
1.88603e+08,41.9158,0,3.05221,-3574.2,-1517.51,-21006.7
1.89042e+08,2.28594,0,2.65069,337.855,110.617,-28421.7
1.891e+08,29.8489,2,2.95435,-3546.86,2364.28,-24245.5
1.89114e+08,66.5435,2,2.65434,-2838.41,12492.9,-23161.9
1.89424e+08,19.274,1,2.87826,-3897.77,-1183.69,-29221.7
1.89487e+08,136.651,1,2.6767,-13837.8,-12130.1,-6664.92
1.89689e+08,90.5854,0,3.03625,6599.79,-3140.38,-18080.5
1.89747e+08,23.0128,1,2.89473,2924.88,2651.89,-25967.6
0,22.9317,1,2.72441,0,0,0
1.89883e+08,61.1678,0,2.74819,-5606.71,-11262.2,-26061.4
1.90017e+08,24.0649,0,2.49929,5.05792,4145.78,-25861.8
1.90469e+08,64.3833,2,2.83324,-1833.23,-3244.7,-15784.9
1.90606e+08,141.032,2,2.98197,10302.9,-9749.66,-20765.3
1.90655e+08,118.587,0,2.55557,-10464.7,20341.5,-18640.9
1.91165e+08,66.2687,0,2.77345,-9620.47,-9304.37,-24988
1.91176e+08,57.1108,0,2.75496,795.866,11678.7,-25954.2
1.91545e+08,144.316,2,2.74958,15618.9,4657.07,-3204.41
1.91776e+08,142.271,1,3.02808,-12864.3,-23388.1,-15638.7
1.91819e+08,113.357,0,2.58309,-4970.47,-10673.1,-7987.82
1.92108e+08,37.8129,0,2.60965,7315.41,-3466.25,-29078.8
1.92177e+08,88.4516,1,2.42341,8848.55,10819.1,-16365.8
1.92755e+08,40.0378,2,2.61483,-5232.45,-122.473,-22132
1.92782e+08,135.028,0,2.70772,21487.2,2544.03,-21987.5
1.92967e+08,50.9737,0,2.66038,8990.87,-246.99,-22795.6
1.93087e+08,92.0504,1,2.98853,9689.61,-2356.91,-12338.4
1.93287e+08,79.1056,0,2.8316,-2031.96,-8500.96,-14676.2
1.93605e+08,170.644,0,2.81334,6346.51,-21392.3,-705.556
1.93782e+08,85.4407,0,2.76568,6791.53,1906.93,-12259.6
1.94051e+08,101.017,0,2.54257,18914.6,2208.04,-19019.4
1.94107e+08,51.8337,0,2.49811,5524.06,3571.11,-20003.6
1.94578e+08,20.0395,0,2.36834,-1109.93,-4071.35,-29247.4
1.94673e+08,19.2048,0,2.80288,-408.27,-3123.52,-26289.7
1.95371e+08,67.6831,1,2.60232,-3889.37,13833.5,-29142.9
1.954e+08,44.131,0,2.39836,6212.3,-3941.58,-22966.6
1.95477e+08,118.62,1,2.45137,6178.92,9642.73,-6482.93
1.95568e+08,102.164,0,2.57371,11795.8,15662.8,-19638.8
1.9569e+08,55.8633,0,2.61129,11062.5,-1498.98,-24785.2
1.95974e+08,125.657,0,2.68975,26311.6,-1399.82,-29546.4
1.96175e+08,38.2492,1,2.91016,-870.58,7175.06,-25114.5
1.96209e+08,66.9572,1,2.89794,12461.1,6143.98,-26522.9
1.96451e+08,68.2533,0,2.54754,13535.3,5272.3,-28261.9
1.96726e+08,142.618,2,2.88833,14405.7,5478.41,-21257.3
1.96817e+08,47.6774,0,2.88062,-2197.27,-5396.81,-20679
1.97144e+08,21.4571,1,3.06016,4338.15,411.941,-27855.3
1.97512e+08,139.132,1,2.80544,-7949.14,13031.5,-3804.61
1.98113e+08,19.6368,1,3.01249,-2740.67,1343.15,-25965
1.98214e+08,1.52246,2,2.50784,-269.647,-308.198,-28869.8
1.98319e+08,9.44094,2,2.49345,-1237.48,-1206.2,-27724.8
1.98363e+08,73.4247,1,2.40343,-10430.7,1428.36,-17369.9
1.98638e+08,70.7339,0,2.66894,3729.37,-4199.85,-14976
1.98932e+08,10.3347,2,2.57129,-127.062,1756.39,-29937.3
1.99122e+08,89.9093,2,2.9082,8289.16,-12803.8,-17645.4
1.99557e+08,43.4631,2,2.68026,-5150.03,-5455.19,-23417.9
1.9993e+08,108.078,1,2.62898,5900.97,16816.9,-20150.5
2.00002e+08,65.4202,2,2.88565,12277.5,-2706.05,-23263
2.00497e+08,53.4989,0,2.6583,-357.824,5643.8,-19073.8
2.00575e+08,8.34236,0,2.92819,1457.65,-586.745,-27873
2.00624e+08,120.035,2,3.02992,335.158,-24947.8,-25857.3
2.01054e+08,60.001,1,3.0205,-7915.44,9893.82,-28189.5
2.01064e+08,21.6942,0,2.50619,818.392,-67.5981,-24294.5
2.0107e+08,43.5524,0,2.55067,3489.37,-1916.27,-20487.8
2.01374e+08,53.2969,1,2.37517,2388.43,6310.5,-19740
2.0153e+08,40.8769,1,2.83645,-2593.41,-135.783,-20623
2.01627e+08,26.094,2,2.50346,-4820.04,2673.37,-28261.2
2.01745e+08,33.7531,2,2.81296,-5004.85,-3355.72,-24948
2.0177e+08,99.5114,1,2.5333,2358.95,16973.5,-16530.6
2.01812e+08,15.8492,1,2.61292,-1110.68,877.048,-25761.6
2.01995e+08,11.2986,2,2.39317,1257.65,162.475,-26803.2
0,11.1696,0,3.01115,0,0,0
2.02124e+08,15.0842,1,2.43907,-2801.24,-1576.8,-29016.7
2.02296e+08,164.047,1,2.42246,-3891.95,24016.5,-4001.83
2.02975e+08,112.928,0,2.72127,1209.01,-3231.81,-26105.5
2.03146e+08,37.5196,2,2.79898,-19.9035,7458.3,-26426.1
2.0338e+08,72.0015,0,2.6013,8067.79,11228.2,-22352.5
2.03514e+08,11.4831,1,2.73802,988.878,1755.68,-27397.8
2.03533e+08,62.8667,1,2.79201,-4119.64,10009.6,-21118.4
2.03774e+08,215.954,1,2.37682,11911.4,19534.6,10748.4
2.03991e+08,119.464,2,2.81835,-19617.5,-14007.5,-21421.6
2.04124e+08,157.676,2,2.79206,-12704.4,-27365,-14839.8
2.04354e+08,99.5018,2,2.81986,-7703.06,2639.13,-9537.08
2.0456e+08,8.21676,2,2.48427,-1778.69,8.11564,-28475.7
2.04642e+08,117.438,2,2.46941,18213.6,13097.2,-18294.6
2.04692e+08,104.803,0,2.46808,14982.6,-16418.7,-28792.3
2.05055e+08,284.337,2,2.93023,10289.2,-15481.6,4564.86
2.05058e+08,160.5,0,2.65604,5117.57,27539.5,-9766.19
2.05319e+08,41.2347,2,2.3968,-5650.86,-4664.32,-23941.7
2.06024e+08,122.776,0,2.52616,-9988.19,19869.7,-15484.8
2.06154e+08,1.73482,0,2.32284,-195.159,46.5411,-28944.3
2.06283e+08,39.5781,2,2.97882,-3125.52,-3161.38,-21751.9
2.06869e+08,90.3589,2,2.51456,10746,-13592.7,-20710.5
2.07037e+08,35.14,1,2.60875,-4815.82,-3774.35,-24667.4
2.07053e+08,110.545,1,2.5687,-17761.3,-14330.5,-23867.7
2.07212e+08,6.84008,0,2.66058,-554.204,805.602,-27770.6
2.0725e+08,3.91837,2,2.86214,466.645,-721.068,-28658.2
2.07431e+08,44.9327,1,3.00882,-765.065,2675.09,-27115.6
2.07473e+08,40.7751,0,2.82955,6078.47,-3184.78,-23562.7
2.07541e+08,67.0695,0,2.40424,12134.6,6.38528,-21315.7
2.07601e+08,73.1055,1,2.8434,5848.92,-9524.73,-18372.6
2.07835e+08,31.7532,2,2.69868,-6589.97,-727.343,-27647.1
2.08075e+08,179.774,1,2.76016,-18402,-5650.19,3765.34
2.08317e+08,35.1859,0,2.56874,-1718.28,7077.11,-27250.5
2.0879e+08,200.524,2,2.41296,11620.2,-4612.71,-15184.2
2.08811e+08,48.4143,1,2.62494,496.68,5301.89,-20064.6
2.08943e+08,122.966,0,3.01419,14709.1,-21207.6,-29574.9
2.08981e+08,168.286,0,3.0267,-23920.2,-5240.78,-3550.81
2.09265e+08,33.2987,2,2.62285,-5415.79,4359.41,-27649.4
2.09395e+08,21.0533,2,2.67642,3179.48,-1420.92,-26073.5
2.09756e+08,22.2709,0,2.49664,3121.04,-615.797,-25275.7
2.09861e+08,21.0004,1,2.40803,3253.64,-2683.62,-27576.6
2.09875e+08,24.6712,1,2.79327,2214.25,4249.28,-26658.2
2.09938e+08,64.8967,0,2.87955,12343.7,-4426.81,-24762.1
2.1e+08,155.159,0,2.66045,13200.6,-3996.31,874.295
2.1029e+08,24.777,2,2.58588,-434.297,-3774.57,-25129.8
2.10687e+08,8.84853,1,2.93947,-415.137,1836.62,-28336.2
2.10905e+08,2.41885,1,2.6871,350.951,51.8534,-28505.3
2.11696e+08,60.047,1,2.58905,6784.47,1605.15,-18224.7
2.1213e+08,75.9732,0,2.68769,11001.2,650,-28949.5
2.12344e+08,31.4736,1,3.04315,-3556.76,-2849.62,-24060.7
2.12364e+08,65.9396,2,2.41056,3491.46,-2216.7,-23053.7
2.12414e+08,27.0429,2,2.62167,4269.1,942.525,-25186.5
2.12672e+08,236.799,1,2.82968,-3813.11,1086.97,-29115.4
2.12782e+08,2.09219,2,2.6541,-210.37,-232.765,-28453.7
2.12883e+08,81.2229,1,3.0359,-5152.86,-6082.2,-18433.9
2.1348e+08,151.899,1,2.94805,8972.25,6389.28,-17145.8
2.13637e+08,114.469,1,2.83706,-11888.7,-14329.3,-22324.5
2.13841e+08,54.4482,0,2.9938,153.028,-9730.59,-22806.4
2.13936e+08,220.443,0,2.48294,-20665.3,-6069.93,12468.3
2.14176e+08,2.14054,0,2.97774,344.903,259.999,-28529.5
2.14576e+08,40.7398,2,2.64465,2697.02,-8166.43,-27626.9
2.14636e+08,160.176,1,3.0167,-17360.2,1825.84,-129.115
2.14653e+08,271.372,2,2.92392,-20849.6,-9093.79,8506.47
2.14673e+08,147.493,2,2.581,15920.2,-990.72,-2108.47
2.14996e+08,62.2841,0,2.79847,2721.74,6424.65,-22420.5
2.15054e+08,179.608,2,2.80132,10751.9,9267.36,-8976.83
2.15111e+08,107.231,0,2.46507,11397.1,-15155.3,-16342.7
2.1519e+08,5.42241,1,2.78978,-921.538,-607.622,-28468.1
2.15298e+08,75.956,0,2.53994,3961.73,-2798.98,-13488.1
2.15385e+08,374.595,0,2.95682,16064.9,-14771.9,5655.21
2.15487e+08,30.4329,0,2.81268,-548.269,4741.87,-24573.1
2.15679e+08,8.57166,2,2.81178,-506.507,-1067.98,-27373
2.1584e+08,4.78851,1,2.94955,267.378,-659.584,-28206.6
2.16094e+08,21.9811,2,3.02066,1460.98,-1098.16,-24581.6
2.16444e+08,60.6704,2,2.72952,7062.4,-1197.51,-18271.1
2.16609e+08,116.301,2,2.63936,-12669.6,-8916.02,-9717.77
2.16693e+08,26.4356,0,2.67708,5239.91,-1540.47,-27369.5
2.16823e+08,26.1825,0,3.02818,-1342.81,4200.37,-25575.6
2.17109e+08,16.4372,0,3.00346,-342.168,-2030.16,-26045.6
2.17176e+08,48.8941,2,2.49955,2553.32,6147.03,-20960.9
2.17725e+08,74.5821,1,2.97908,15083.3,-3257.71,-26583.5
2.18166e+08,114.955,1,2.87314,5020.72,-10219.9,-7567.19
2.18651e+08,6.06244,2,2.88761,-909.935,-55.3942,-27863
0,6.11115,2,2.48248,0,0,0
2.18683e+08,75.487,1,2.72801,-3054.29,8933.33,-18877.8
2.1879e+08,4.72182,0,2.87078,1020.78,-172.446,-28455
2.1887e+08,259.831,1,2.79528,-24202.5,5651.42,-3093.92
2.19518e+08,160.81,0,2.47901,20833.3,-11329.4,-11552.9
2.19591e+08,98.8605,1,2.46056,5754.18,7614.05,-10197
2.19682e+08,42.4657,0,2.66152,-7312.91,-4085.19,-25797.1
2.20032e+08,53.3622,1,2.42807,-3144.3,-1947,-26221.9
2.20147e+08,11.7811,0,2.43891,1904.49,1716.29,-28494.9
2.20164e+08,39.8968,1,2.55601,-579.829,-7470.11,-25024.2
2.20474e+08,42.8203,0,2.53199,6065.1,-5639.32,-24997.1
2.20816e+08,91.0411,2,2.45517,-8692.41,-15415.7,-21044.9
2.21001e+08,189.463,2,2.92465,6447.49,6071.3,3838.08
2.21015e+08,139.792,2,2.77082,8947.92,3613.93,-24006.9
2.21058e+08,265.602,1,2.97278,-29818.4,-23322.5,11992.3
2.21328e+08,28.415,0,2.90113,-3596.41,4353,-26988.4
2.21392e+08,58.732,1,2.51915,-4718.89,6334.25,-19164.7
2.21427e+08,160.535,0,2.75076,25635.3,2937.88,-14002.5
2.21565e+08,152.852,2,2.61343,23207.5,-22403.1,-27029.2
2.21655e+08,49.8356,0,2.92635,8383.44,6404.96,-28827.2
2.21697e+08,188.125,0,2.74758,8787.9,870.731,9813.37
2.22419e+08,26.0244,1,2.64551,-1941.37,407.37,-23702.3
2.22864e+08,17.7101,2,2.88863,-162.178,3441.25,-27561.8
2.2289e+08,18.6236,2,2.51757,-1620.25,3049.24,-27003.7
2.24013e+08,54.0227,2,3.05855,-2785.92,6702.22,-20201.6
2.24318e+08,62.4393,2,2.87032,-9538.2,264.82,-19789.5
2.24788e+08,85.143,1,2.37783,-5615.67,-4675.3,-12355.8
2.24934e+08,100.383,2,2.51946,6390.98,16890.8,-17775.9
2.24948e+08,69.6508,0,2.78412,782.11,4140.87,-14802.1
2.25273e+08,36.4784,1,2.86616,-5268.68,-4739.81,-25885.6
2.25315e+08,9.93289,2,2.52044,-1358.65,791.089,-27422.5
0,10.058,2,3.03547,0,0,0
2.25816e+08,20.5512,2,2.70395,3143.36,-3016.28,-29333.4
2.2635e+08,110.05,1,2.4888,-18306.4,-12545.6,-21827
2.26457e+08,30.4937,1,2.53296,-3065.02,-2150.76,-23573.8
2.2671e+08,77.4904,0,2.38343,1528.81,-8278.64,-14727.3
2.26761e+08,28.9686,0,2.55442,2243.14,4360.8,-25111.2
2.26952e+08,39.2308,0,2.78585,4287.34,2674.58,-22234.9
2.27123e+08,20.6525,0,2.93262,3208.88,-162.621,-25832.1
2.27199e+08,232.882,0,2.4348,9191.21,-2503.01,-16282.7
2.27255e+08,1.91436,2,2.48742,-15.5208,-320.546,-28825.7
2.27296e+08,111.091,0,2.90555,-13975.7,-7948.15,-11984.3
2.27616e+08,9.67256,2,3.03501,187.823,-1983.16,-28112.8
2.277e+08,49.065,0,2.51177,2653.24,3509.56,-19392.3
2.27977e+08,68.7928,2,2.72637,-1705.23,8448.83,-17208.7
2.27981e+08,10.7722,2,2.58969,1236.61,-1728.41,-29794.2
2.28064e+08,154.366,0,2.62368,16884.6,2543.82,-1028.03
2.2822e+08,60.5942,0,2.66333,-9299.65,4142.48,-21180.1
2.28518e+08,200.551,1,2.49458,-20851.2,17835,3563.9
2.28583e+08,22.1437,1,2.96563,3831.04,344.233,-26252.1
2.28935e+08,160.877,1,2.67798,-13946.7,-29392.9,-21018.2
2.29118e+08,61.8362,0,2.73138,10475.6,-7914.3,-28753.6
2.29379e+08,27.9804,1,2.92346,-2162.45,4719.97,-25888.6
2.30261e+08,21.2857,1,2.51245,-1193.67,-4304.6,-28663.6
2.30389e+08,15.3597,1,2.80703,1633.11,2709.98,-27996.2
2.30408e+08,72.6079,2,2.65727,66.7455,-6873.03,-15104.1
2.30528e+08,14.1032,1,3.03176,213.498,2621.32,-27301.8
2.30602e+08,281.949,1,2.65592,-23962.3,16326.7,23127.3
2.30762e+08,33.5454,0,2.76132,-398.264,6869.71,-27192.9
2.30944e+08,166.684,0,2.8415,12130.2,17103.8,-710.406
2.31151e+08,136.716,0,2.88002,1551.41,-9738.69,-1841.89
2.31204e+08,12.8813,2,2.86593,-319.601,1202.7,-26465.5
2.3133e+08,17.5764,0,2.85337,-2078.77,820.692,-25940.3
2.31458e+08,78.2992,0,2.53365,4328.77,-7070.69,-14483.3
2.31539e+08,130.563,1,2.59921,-11907.1,12748.2,-7402.13
2.31553e+08,10.8431,2,2.37123,17.9216,-1469.62,-26987.9
2.31929e+08,132.995,1,2.52819,15121.5,-12316.3,-18402.7
2.3201e+08,41.6526,2,2.57513,-2295.38,6969.86,-24010.2
2.32476e+08,49.2387,1,3.04999,-10298.2,187.312,-29921
2.32502e+08,30.9033,0,2.44444,6071.4,2596.42,-29380.1
2.32873e+08,108.007,2,2.65257,940.902,-16081.5,-12658.9
2.32932e+08,87.3779,2,3.00962,2569.55,6891.89,-12093.1
2.33489e+08,116.665,0,2.7564,-2921.38,8115.61,-5823.43
2.33719e+08,74.8666,2,2.84324,2612.58,11550.3,-18528.9
2.34e+08,49.1543,1,2.66874,-1301.98,3522.95,-19149.1
2.34291e+08,162.196,0,2.77989,27631.6,-2427.97,-8799.76
2.34335e+08,18.305,0,2.75534,3431.69,266.984,-26885.1
2.34402e+08,139.696,0,2.74498,-23245,6080.32,-15566.7
2.34408e+08,1.87332,1,2.72609,-134.552,188.157,-28464
0,1.87406,1,2.76968,0,0,0
2.34567e+08,104.858,0,2.68437,-10242.1,19387.4,-26110.3
2.34867e+08,204.757,0,2.62226,16783.2,-24254.2,2769.66
2.35241e+08,176.777,1,2.79562,-17386.3,15072.3,-10830.5
2.35306e+08,33.0033,2,2.8453,-5198.53,-2760.54,-25001.9
2.36116e+08,16.998,0,3.00874,3327.33,1554.29,-28719.6
2.36698e+08,1.7901,0,2.76178,100.792,415.239,-28818.3
2.36925e+08,115.914,2,2.55539,12669.4,-21019.3,-28347.4
2.37082e+08,70.2321,0,2.88274,13075.1,6134.77,-25425
2.37264e+08,73.492,0,2.53957,3957.78,1511.54,-13860.6
2.37486e+08,178.999,1,2.77662,-5259.03,16971.5,4432.88
2.37689e+08,138.905,2,2.57099,-8026.51,-7514.08,-9298.99
2.37703e+08,13.7232,0,2.7819,1882.57,262.374,-26582.1
2.37817e+08,144.366,1,2.49331,-11385.4,18238.3,-12182.6
2.37912e+08,147.425,1,2.86487,4038.88,4582.92,1532.52
2.37942e+08,7.32555,0,2.95091,216.432,-1011.46,-27654.7
0,7.16529,2,2.7889,0,0,0
2.38181e+08,34.5679,1,3.0272,-6424.08,-452.111,-25387.3
2.38263e+08,78.0237,1,2.49679,-10537.5,6408.92,-17785.3
2.38268e+08,128.6,1,2.91559,-5682.83,1967.48,-2522.83
2.38366e+08,114.719,1,2.73046,-9287.21,21000.6,-21074.3
2.38659e+08,45.7147,2,3.00179,-8551.67,4353.28,-28079.8
2.38813e+08,147.792,2,2.93015,-15816.7,16142.2,-7633.43
2.38831e+08,100.535,0,2.64704,7427.89,-1535.13,-8981.02
2.38926e+08,18.5255,0,2.73327,1922.4,-3474.97,-29165.2
2.38929e+08,31.0497,1,3.0082,3331.41,85.794,-23234.4
2.38958e+08,4.37966,0,2.84111,406.198,883.669,-29049.4
2.39141e+08,32.0785,0,2.88789,2817.69,4484.2,-24615.3
2.39218e+08,198.744,0,2.64572,-3398.93,-28488.5,1739.47
2.39263e+08,63.2098,2,2.99174,-10418.1,-6402.02,-23491.7
2.39341e+08,29.5766,1,2.7139,-1225.6,5179.76,-25415.6
2.39349e+08,111.364,1,2.77472,-5497.88,-1735.65,-26328.3
2.39374e+08,75.0412,1,2.75241,-9889.07,7681.37,-19078.3
2.39478e+08,67.5291,0,2.88606,1604.5,1654.8,-25301.6
2.39694e+08,139.422,1,2.67228,-15447.6,-7914.13,-5091.19
2.39757e+08,2.98768,0,3.01903,520.908,-140.808,-28380.1
2.39841e+08,150.704,1,2.49148,16656.7,-1175.65,-1705.87
2.39899e+08,25.6261,0,2.60634,1522.33,5206.25,-28443.9
2.40153e+08,0.672932,1,2.34917,125.634,108.728,-28850.1
0,0.662659,1,3.59855,0,0,0
0,0.673587,1,3.13681,0,0,0
0,0.676955,1,3.05275,0,0,0
2.40178e+08,100.862,2,2.82567,9784.74,63.5371,-10030.3
2.40386e+08,34.8375,0,2.88734,695.198,4210.08,-22851.6
2.40402e+08,41.0725,1,2.5019,-650.915,4444.84,-21341.2
2.40567e+08,163.118,2,2.59652,-27961,-9751.18,-11133
2.407e+08,88.2787,2,2.56075,-8905.4,-12666.5,-18274
2.40704e+08,67.0711,2,2.82539,-12228.1,7075.74,-28454.5
2.41288e+08,8.53307,1,2.82617,-1552.93,-276.704,-27863.8
2.42174e+08,39.4731,1,2.58372,714.786,7984.34,-26205.1
2.42211e+08,48.8197,0,2.56508,-4446.73,-1870.41,-19747.1
2.42343e+08,13.3634,2,2.6398,20.6594,-2786,-29690.1
2.4236e+08,117.071,1,2.88883,-14664.2,-7543.32,-10576.3
2.4249e+08,71.6783,1,2.36297,-3775.39,10308,-18247.5
2.42766e+08,60.9422,0,2.56781,9533.56,-8731.34,-29332.1
2.43211e+08,44.6083,1,2.79703,3363.78,1750.28,-20226.5
2.43539e+08,45.8762,0,2.97789,-2814.15,-2809.92,-20071.6
2.43658e+08,38.998,1,2.9103,-2038.27,-7506.91,-26451.2
2.44222e+08,53.226,0,2.60497,-3522.46,9898.76,-24827.6
2.45078e+08,117.767,2,2.5543,-19070.8,-3498.62,-13148.1
2.45246e+08,41.4311,0,2.8962,-6986.3,-3638.35,-25271.8
2.4527e+08,44.2974,1,2.99637,-6366.16,-170.312,-22009.6
2.45372e+08,15.6265,0,2.61354,2186.13,-2594.02,-28743.1
2.45384e+08,13.15,1,2.64003,-265.825,1259.05,-27502.3
2.4544e+08,193.468,2,2.89735,12475.5,-23620.4,1778.09
2.45503e+08,138.56,0,2.37706,-7584.73,18553.7,-7461.35
2.45617e+08,3.49534,2,2.66266,656.307,-268.491,-29081.2
2.45965e+08,31.0591,1,2.53839,3821.69,-3161.31,-24584
2.46036e+08,42.0942,0,2.55478,8233.59,2456.66,-26182.2
2.4634e+08,85.6838,0,2.36249,3907.24,17308.2,-25010
2.46644e+08,15.1099,0,2.73155,2116.2,243.48,-26383.8
2.47012e+08,83.5731,0,2.54117,4111.38,-8015.49,-13592.1
2.47146e+08,1.84839,2,2.84247,164.391,-266.798,-28549.6
0,1.79345,2,2.72376,0,0,0
2.47173e+08,84.6481,1,2.61933,1856.63,6358.53,-12200.1
2.47433e+08,73.0289,1,2.43569,-7233.8,-12708.9,-23894.8
2.4756e+08,51.7953,0,2.93056,-9427.81,1810.15,-23828.9
2.4759e+08,108.804,1,2.9758,-4800.25,-6421.36,-7476.94
2.47839e+08,81.0009,2,2.51356,6291.35,-10810.2,-17057.7
2.48475e+08,67.8355,0,2.531,12009.5,-7481.13,-26027.6
2.48554e+08,41.2657,1,2.84969,1862.69,6065.26,-22836.8
2.48589e+08,8.78693,0,2.75274,-1090.33,-1469.45,-28910.6
2.4874e+08,60.6767,0,2.43025,4446.56,-3328.94,-17225.4
2.49164e+08,65.2318,1,2.60199,-8571,10159,-24950.2
2.49375e+08,32.0818,1,2.58925,-4124.98,1244.41,-23535.7
2.49421e+08,164.672,1,2.43386,-11268.3,26267.8,-8829
2.49591e+08,31.9984,2,2.8026,3528.24,-4170.96,-24816.4
2.4997e+08,116.829,1,2.479,-19640.1,-4823.69,-14590.9
