#class tools::wcsv::ntuple
#title time
#separator 44
#vector_separator 59
#column double eventID
#column double t(ns)
#column double copynumber
#column double energy(eV)
#column double x(mm)
#column double y(mm)
#column double z(mm)
925,158.26,1,2.4915,7986.06,15557.2,-270.889
49562,69.3016,2,2.85025,2131.44,9438.03,-18021.5
90606,71.8243,0,2.94362,972.979,-6877.33,-15433.4
226896,73.0402,2,2.66048,4953.02,-11438.1,-19586.7
577458,14.8299,2,3.05521,1449.4,-1268.66,-26365.1
0,14.8738,1,2.42874,0,0,0
0,14.8913,1,2.70896,0,0,0
618233,52.6875,0,2.97692,4342.38,8991.23,-23900.4
633782,79.9168,2,2.65304,-1574.89,8742.95,-14645.2
710216,20.8453,0,2.51622,-656.762,4443.21,-28914.5
794481,112.496,2,2.59221,-3800.14,-11860.4,-8526.92
797155,6.9829,1,2.75819,-1052.57,507.97,-27863.7
1.05861e+06,81.5215,1,2.57792,-7728.4,14583.5,-23812.7
1.4253e+06,191.568,0,2.43883,21177.4,-20983.2,-1331.61
1.54889e+06,76.5769,0,2.41286,8599.47,5983.55,-16362
1.61824e+06,125.645,1,2.68103,-6619.31,-15680.8,-8550.32
1.6991e+06,26.7456,1,3.05914,-1762.27,-2859.76,-24346
1.84652e+06,117.784,0,2.51888,18668.1,-16638.2,-28485.4
1.86405e+06,135.796,1,2.99317,-2062.33,26968.4,-19843.5
1.91886e+06,197.354,1,2.89463,-29409.6,272.292,426.41
2.10045e+06,22.0915,1,2.41054,961.706,4412.01,-27357.4
2.13714e+06,105.166,1,2.96446,-4647.42,-13490.8,-12074.1
2.51201e+06,149.646,2,2.69201,-12304.9,-26595.4,-17052.8
2.51498e+06,153.875,1,2.75957,-20841.2,-2577.07,-4320.25
2.55034e+06,29.795,0,2.92355,5822.17,-1549.43,-26937.7
3.12317e+06,86.2425,2,2.66417,-15712.8,-8761.44,-29195.6
3.38025e+06,11.3504,2,2.62394,-1607.16,973.649,-27297.5
3.56744e+06,116.661,0,2.7779,11980.6,-9296.28,-9438.38
3.61482e+06,5.91717,2,2.95398,819.074,-896.702,-28380
3.69112e+06,181.912,1,2.65725,-25147.1,-21383.9,-9441.39
3.71039e+06,53.935,1,2.46902,9156.4,3373.1,-23205.7
3.71295e+06,56.2602,1,2.36629,-6084.24,-4442.2,-19672.8
3.78086e+06,18.4067,1,2.80023,2336.79,975.17,-25930.7
3.90232e+06,5.14729,2,2.92045,-1028.17,-157.877,-28516.8
4.0703e+06,5.52336,1,2.75062,-124.626,1083.08,-28367.1
4.31516e+06,101.641,2,2.52705,-14247.4,10878.6,-17122
4.31647e+06,105.838,1,2.56274,10910.3,11229.9,-12900.8
4.35846e+06,124.382,2,2.8924,-13191.9,-8785.7,-7887.48
4.45796e+06,65.17,0,3.01624,-3662.26,-12510.8,-24814.8
4.49225e+06,32.1975,2,2.41938,-2505.53,4566.35,-24565.4
4.5328e+06,163.587,2,2.50362,-13779.9,-20665.8,-4637.21
4.55681e+06,46.5299,0,2.96001,-7286.79,2146.73,-22463.8
4.68482e+06,22.6031,2,2.40703,1852,-4518.86,-28499.1
4.70929e+06,65.7291,2,2.63903,-8464.93,-7232.23,-20453.2
4.7905e+06,11.9416,0,2.7964,2099.84,-1608.51,-28671.7
4.90162e+06,17.1047,0,2.48884,313.814,-3076.29,-26918.3
4.93222e+06,25.513,0,2.84408,-641.446,1296.83,-24052.4
4.98165e+06,4.29408,0,2.61992,1015.72,107.081,-28787.7
5.00289e+06,256.334,1,2.46848,-5910.76,29395,16254.6
5.21513e+06,191.272,1,2.86888,23713.1,-2105.57,3420.29
5.33668e+06,15.0604,2,2.89489,-2910.97,1099.63,-29008.6
5.44094e+06,167.852,0,2.43383,17912.8,-6910.18,-10179.9
5.48895e+06,242.448,0,2.89425,26571.9,2122.6,6715.5
5.50355e+06,33.7169,0,2.92166,6266.65,-1818.46,-25827
0,33.5502,0,2.72759,0,0,0
5.69696e+06,139.627,1,2.68208,-4592.91,18032.8,-5969.09
5.75519e+06,26.8783,1,2.63706,-4824.29,697.015,-25834.8
5.90285e+06,121.871,1,2.82762,189.535,5436.9,-25828.7
5.95495e+06,99.8848,2,2.91311,19850.8,-1184.61,-22489.5
6.02562e+06,11.9381,1,2.57796,2196.85,1018.72,-27997.2
6.0261e+06,137.938,2,3.0555,2213.49,-395.86,-25892.4
6.09447e+06,176.376,2,2.62462,-9841.04,-19282.3,1298.19
6.09765e+06,64.1904,2,2.50584,-9761.05,-3246.96,-19818.4
6.13112e+06,3.49223,1,2.58496,-201.148,177.315,-28147.9
6.231e+06,25.2855,0,2.54166,2151.78,3260.81,-25093.8
6.27837e+06,104.496,2,2.43848,2137.89,-17788.7,-15839.8
6.28844e+06,37.3282,0,2.83041,6759.82,3564.84,-26796.7
6.88133e+06,50.1891,0,2.64716,9226.65,-2922.09,-29079.4
7.01567e+06,98.5449,0,2.55665,18446.8,2075.15,-19128
7.0398e+06,96.8072,0,2.97618,-17386.1,3349.96,-18924.1
7.19531e+06,72.0583,1,3.03217,-11868.8,8621.53,-27096.3
7.26774e+06,13.785,2,2.82793,-1383.84,1782.23,-27065.6
7.31697e+06,115.322,0,2.84956,12848.4,-3568.71,-8561.97
7.31921e+06,134.237,1,2.59041,-17964.6,1317.91,-6833.17
7.34497e+06,253.471,0,2.53094,-15922.2,28925,13330.5
7.41985e+06,103.118,1,2.41554,-10039,-5935.02,-10431.9
7.55275e+06,53.6395,2,2.39841,-11196.5,2189.6,-29428.6
7.61071e+06,3.36506,2,2.48563,163.509,-644.735,-29257.4
7.71703e+06,12.0302,1,2.52916,-2520.41,303.181,-28196.1
7.92235e+06,115.799,2,2.40278,2489.36,-10874.7,-7015.86
8.03974e+06,58.6834,1,2.52754,11686.1,-2225.88,-26383.3
8.05103e+06,61.6336,2,2.85468,-10779.2,-7187.8,-29307.2
8.07723e+06,171.366,1,2.66908,-22146.5,7717.81,-1200.85
8.16857e+06,4.74904,0,2.92276,940.03,-265.962,-28487.5
8.29884e+06,37.6467,1,2.52834,6114.64,4936.33,-28466.2
8.31164e+06,180.694,2,2.65013,-13540.6,-11699.2,-24664.3
8.38142e+06,196.772,2,2.73218,24690.5,-11620.2,-20379.1
8.47262e+06,29.5582,1,2.71056,839.199,6372.02,-28719.9
8.68395e+06,95.1393,1,2.7911,-18980.6,-311.279,-22326.7
8.68484e+06,70.2392,2,2.81365,2797.89,-14421,-27560.4
8.82487e+06,30.8418,0,2.59926,4871.86,-4443.07,-28530.3
8.88532e+06,174.682,0,2.67154,13609.9,-1922.24,-1515.72
8.94221e+06,16.1136,1,2.87155,-150.018,-2913.32,-27265.5
9.02379e+06,65.3547,1,2.55676,-1935.64,-13080.2,-24998.1
9.05492e+06,9.43071,0,2.454,1520.06,1296.18,-28383.6
0,9.48823,0,2.79448,0,0,0
9.10484e+06,27.801,0,2.44943,1119.65,2340.53,-23512.5
9.15805e+06,27.7625,1,2.40472,-5446.89,-2137.26,-29406.3
9.19638e+06,61.9772,2,2.61894,-10719.8,-6037.94,-24120.8
9.21095e+06,43.2333,0,2.65778,-8590.37,1587.68,-26211.9
9.21981e+06,146.328,0,2.613,21944.5,-21814.1,-28275.6
9.30766e+06,55.455,0,2.53914,-359.962,-5385.38,-18335.9
9.44011e+06,134.742,0,2.57944,5595.59,-14035.7,-6447.4
9.46365e+06,81.814,0,2.75508,7129.66,13232.4,-20286.4
9.68093e+06,61.3677,2,2.50888,-1108.31,10533.7,-21391.5
9.69793e+06,4.57304,2,2.76535,-224.891,-328.245,-27906.5
0,4.58772,2,2.43083,0,0,0
9.94364e+06,18.3325,2,2.84127,1155.9,-3493.84,-27267.5
1.01943e+07,83.6508,2,2.46912,15000.2,-6975.6,-24959.6
1.02611e+07,63.6171,2,2.46915,-1056.17,-8106.19,-17999.5
1.05203e+07,83.4221,2,2.85303,-11508.1,-8363.71,-18424
1.05221e+07,66.4318,1,2.66293,-4366.64,5354.27,-16540.9
1.08619e+07,83.2968,2,2.44558,1717.54,-11719.5,-15604.4
1.09289e+07,28.3323,0,2.40913,-3033.12,-3892.56,-25464.7
1.13938e+07,71.1988,1,2.44096,-9930.13,10255.9,-23629.3
1.1476e+07,52.7449,0,2.80579,-4600.72,-8610.95,-23525
1.15074e+07,12.2,2,2.51682,1981.17,-1455.02,-28156
1.18819e+07,73.2422,0,2.7777,-2653.69,13606.8,-22076.3
1.18924e+07,21.7204,2,2.65001,-2026.61,1275.84,-24930.2
1.18981e+07,23.3579,1,2.907,-1939.25,4414.77,-27546.9
1.20283e+07,70.9322,1,2.58581,-9773.63,8368.03,-21854.5
1.2247e+07,61.451,0,2.75694,4526.95,11352.3,-24501.5
1.24555e+07,129.165,1,2.81545,-23606.6,13133.8,-25394.6
1.24888e+07,25.6681,1,2.63042,1013.87,4269.6,-25474.4
1.25283e+07,8.16617,2,2.6494,69.3595,-1865.01,-28794.2
1.25974e+07,66.9347,1,2.92976,-6852.34,5633.2,-17783
1.2643e+07,8.90533,2,2.79034,85.0599,-1669.19,-27891.9
1.26745e+07,14.5377,2,2.95726,-757.907,-1265.38,-26086.1
1.26823e+07,102.601,1,2.54898,-220.107,-16395.1,-14719.3
1.28077e+07,62.1387,2,2.73832,5140.11,-9140.46,-20943.9
1.28743e+07,28.9412,1,2.57457,5867.68,2269.46,-28593.6
1.29167e+07,5.34343,0,2.52208,1045.54,-44.6535,-28208.5
1.29631e+07,3.36296,1,2.59401,206.933,-279.911,-28196
1.30139e+07,101.46,0,2.71506,13896.2,-9105.25,-15318.2
1.31264e+07,85.3086,2,2.83858,-13748.8,3038.21,-17635.6
1.31734e+07,37.6169,2,2.95971,-1724.94,4089.49,-29018.6
1.33632e+07,240.144,2,2.70566,8182.31,-22194,15931.6
1.35091e+07,15.588,2,2.50856,-2754.51,-1763.42,-29739.6
1.38004e+07,15.7401,2,2.50943,-3276.2,306.124,-27999
1.38101e+07,6.75599,2,3.02681,931.125,-1103.87,-28891.7
1.38504e+07,154.586,2,2.52967,-14725.7,6356.41,-5476.22
1.39303e+07,55.8837,0,2.8021,9277.27,-722.589,-21431.6
1.39338e+07,8.41845,0,2.39374,985.678,-249.958,-27262.2
0,8.44247,0,3.03721,0,0,0
1.4023e+07,83.991,1,2.86409,-16638,-4530.83,-24996.3
1.40755e+07,102.329,1,2.55173,-7516.9,18285.7,-19946
1.408e+07,136.573,0,2.5957,6943.1,-13417,-4213.63
1.41109e+07,41.4235,1,2.83512,218.966,5349.93,-22369.4
1.42826e+07,22.176,2,2.64691,4047.2,-1513.92,-27397.3
1.44845e+07,34.6544,2,2.89055,158.843,-3167.69,-22321.8
1.46692e+07,60.255,1,2.61794,7642.52,-6528.53,-21091.7
1.47614e+07,114.158,1,2.692,14656.7,66.1505,-9695.75
1.49036e+07,41.3792,2,2.68251,-3640.07,-7169.24,-25384
1.49584e+07,78.2876,0,2.80434,-12242.9,6863.62,-20936.5
1.50477e+07,29.0713,1,2.57536,3070.64,4877,-27170.6
1.50661e+07,16.2034,2,2.43537,-1641.06,-2056.1,-26486.9
1.54426e+07,55.7402,2,2.99447,4492.53,-10666.9,-26885.7
1.56972e+07,302.908,2,2.61775,29321.5,27689.1,20731.1
1.57405e+07,180.948,1,2.60185,-12010,-11038.9,5722.44
1.58038e+07,3.86181,2,2.86042,-387.803,-138.309,-28100
0,3.87818,2,2.81228,0,0,0
1.60026e+07,12.065,2,2.83836,-1137.33,-262.44,-26739.8
1.6008e+07,182.028,2,2.86453,25251.5,10760.8,-2134.3
1.62261e+07,72.5716,1,2.64969,-6478.56,-55.1433,-14914.7
1.62378e+07,130.274,2,2.76548,14621.6,75.9296,-5693.8
1.63304e+07,133.374,1,2.93118,11143.7,-24126.6,-22866.3
1.63796e+07,35.8387,0,2.95685,277.222,3652.36,-22226
1.65374e+07,7.94848,1,2.69336,904.37,482.186,-27504.2
1.66937e+07,6.3372,2,2.36574,-96.8755,-1412.07,-28931.4
1.67977e+07,137.273,0,2.77009,5119.42,13063.6,-3590.59
1.68372e+07,201.844,1,2.89485,-13035.8,-28918.5,-773.89
1.68497e+07,108.921,1,2.7608,-20351.6,-6005.4,-20363.9
1.71228e+07,39.6944,1,2.41357,6351.86,3443.1,-25699.5
1.71794e+07,37.8694,2,2.82378,4457.3,147.019,-22214.6
1.71898e+07,43.4167,1,2.80042,-3918.33,-7382.34,-26948.7
1.71987e+07,24.6613,1,2.50794,2247.94,4767.07,-29519.4
1.72817e+07,25.6819,2,2.49117,-3780,2825.99,-26102.2
1.73857e+07,76.9207,1,2.99454,-4392.02,15359.1,-27126.1
1.74996e+07,23.4617,1,2.39702,1377.09,3464.71,-25554.1
1.76339e+07,74.1846,1,2.71006,7652.24,12794.5,-24067.5
1.79294e+07,30.2106,1,2.64232,5306.64,1794.57,-25992.2
1.79583e+07,39.1111,2,2.85968,-3544.65,2304.33,-21777.7
1.80434e+07,90.1486,1,2.7706,1424.95,-15077,-17410.3
1.81361e+07,16.8583,1,2.44835,-406.115,3189.26,-27559.8
1.83156e+07,40.5411,0,2.41622,1704.77,4127.11,-21468.6
1.84826e+07,75.7862,1,2.59316,2133.37,-8368.02,-16201.4
1.85293e+07,71.013,0,2.80756,-13397.6,6056.35,-26048
1.87522e+07,68.7691,2,2.59722,-6308.7,-5791.15,-19130.2
1.8785e+07,43.0297,1,2.65878,8179.29,3750.81,-27405.8
1.88416e+07,4.82075,0,3.01947,-346.2,41.0702,-27826.1
0,4.60629,2,2.45497,0,0,0
1.90402e+07,40.5491,2,2.60837,-1677.05,-8014.42,-26766.6
1.93161e+07,64.8484,1,2.77255,-9658.62,-8718.31,-24039.3
1.94402e+07,112.395,2,2.73382,-23129.6,4147.39,-26046.2
1.94887e+07,196.124,2,2.56973,-21668,-22339.2,-1374.89
1.95671e+07,59.1379,0,2.86712,10892.7,2426.29,-23200.9
1.98864e+07,62.016,2,2.8766,-1671.91,5547.61,-17232.4
2.06044e+07,14.9304,1,2.8186,-6.61731,3225.85,-29028.7
2.06461e+07,34.7511,0,2.65709,6130.61,3030.25,-25909.9
2.07346e+07,131.552,2,2.88508,-17156.1,-21765.9,-28707.8
2.07455e+07,41.4565,2,2.48999,30.5584,-7397.17,-23938.6
2.08524e+07,24.8456,2,2.48052,-4489.95,1000.68,-25915
2.09688e+07,86.1097,0,2.83033,-2124.29,12127.8,-15575.3
2.10308e+07,150.5,2,2.54423,-4745.61,21175.9,-5824
2.11814e+07,4.97211,1,2.6497,965.206,110.159,-28511.5
2.12125e+07,31.9256,1,3.0492,-4411.94,4934.04,-29268.7
2.12866e+07,62.915,0,2.71884,7741.09,10868.2,-29498.4
2.13325e+07,10.8394,2,2.77979,445.928,-1446.35,-27168.2
0,10.89,2,3.01032,0,0,0
2.13729e+07,134.27,2,2.8358,26186.1,7195.54,-24174.6
2.15896e+07,40.0987,1,2.67897,-1280.23,4082.6,-21546.8
2.16531e+07,21.4746,0,3.0193,-1668.2,1879.14,-25727.7
2.18115e+07,36.2105,1,2.36586,6314.92,-2264.29,-25409
0,36.2851,1,2.54517,0,0,0
2.18286e+07,64.0736,1,2.8879,9710.94,9315.23,-29988.4
2.18986e+07,9.7926,0,2.89438,-472.317,2015.02,-29486.9
2.19644e+07,53.5321,1,2.58197,5422.58,5993.69,-21155.3
2.22216e+07,33.3517,2,2.50833,-4591.27,-4191.74,-25505
2.22889e+07,153.152,1,3.00515,-45.4297,-25618.9,-13105.6
2.24038e+07,226.373,2,2.91214,-1159.04,5446.83,14274.5
2.24523e+07,87.4177,0,2.46055,5009.79,-15797.4,-20553.6
2.30102e+07,25.7696,1,2.70961,-5001.73,624.224,-26856.6
2.30104e+07,178.098,0,2.96938,-27076.1,18969.3,-11442.1
2.30216e+07,17.1896,2,2.70455,443.128,-3653.38,-28440.9
2.31311e+07,124.045,2,2.45547,-22909.3,-3813.9,-16492.2
2.3186e+07,104.354,0,2.49134,512.743,14990,-12832.9
2.32605e+07,177.5,2,2.80271,15892.4,-13696.8,2067.23
2.34157e+07,241,0,2.99321,29538.8,-4578.26,11586.7
2.34328e+07,188.039,1,2.80264,-10380.7,14032.3,6681.01
2.35719e+07,98.6105,2,2.43936,20541.4,746.538,-25716.6
2.35882e+07,3.80984,1,3.01136,-391.757,-161.29,-28143
2.37045e+07,42.4569,1,2.39224,455.403,-5182.68,-21525.5
2.3781e+07,88.2234,2,2.85008,-6736.2,-5754.61,-12479.1
2.39504e+07,125.165,1,2.80406,-25362.1,981.876,-21843.7
2.40502e+07,73.1931,0,2.65748,8889.99,6650.36,-18061.2
2.41214e+07,166.923,0,2.7596,22879,-13728.8,-24367.1
2.41504e+07,11.4853,0,2.99577,1358.25,1633.56,-28264.6
2.4426e+07,59.8233,2,2.4728,-11891,-1683.24,-24337.9
2.46126e+07,20.0574,2,2.53996,1264.5,2633.47,-25851.8
2.47451e+07,49.7791,1,2.39682,-1360.16,9671.8,-24633.1
2.52395e+07,100.167,2,2.70614,-13668.2,-4072.93,-13372
2.52563e+07,250.865,1,2.8087,2421.7,27948.2,15719.2
2.54288e+07,22.1701,0,2.88602,4327.23,1984.89,-29179.1
2.54377e+07,20.2339,0,2.90436,-2379.17,563.316,-25437.9
2.54444e+07,76.2879,1,2.58983,-3982.49,15585.2,-26475.3
2.5489e+07,89.9596,0,2.86866,14940,2085.61,-17445.2
2.55286e+07,120.914,1,3.02998,-18006.6,-15617.6,-20442.4
2.5532e+07,99.2826,0,2.57222,8160.03,-17029.4,-18820
2.55957e+07,186.693,0,2.46066,-16919.1,8597.2,5706.31
2.56188e+07,9.84426,1,2.42797,-1741.58,-564.017,-28155.2
2.56329e+07,103.686,0,2.73324,12060.9,-9582.58,-13312.1
2.59075e+07,25.1448,1,2.62066,-3633.87,3364.41,-26774.8
2.61006e+07,15.8557,2,2.86181,270.99,-2083.6,-26193.5
2.61672e+07,35.8228,0,2.87907,5557.49,-1092.53,-23768.9
2.62464e+07,94.4861,0,2.67981,10783.5,-915.353,-12070
2.6253e+07,95.414,0,2.5334,13966.5,13564.9,-23248.9
2.62914e+07,47.6792,1,2.41517,-5499.83,2578.13,-20605.4
2.62993e+07,104.839,2,2.80653,-15595.3,-15264.6,-24927.3
2.63345e+07,74.4959,1,2.41582,10238.6,3587.4,-17434.7
2.6511e+07,31.6946,0,2.63287,6561.36,-607.647,-27070.4
2.65691e+07,2.99186,0,2.61263,477.287,536.19,-28754.8
0,3.01476,0,2.86921,0,0,0
2.66666e+07,114.069,2,3.03154,15586.9,-836.456,-10755.8
2.66883e+07,162.389,1,2.80285,-29961.3,-8912.17,-14951.1
2.67361e+07,70.2963,1,2.67179,8603.21,11031.2,-23868.7
2.6776e+07,147.63,1,2.57757,-17711.5,-21286.7,-14551
2.68923e+07,23.4399,2,2.54703,-1287.94,-2109.7,-24469.6
2.70261e+07,101.479,2,2.78363,-16387.5,-2946.96,-15457.1
2.71321e+07,26.7348,2,2.70463,-5700.07,-137.288,-28303.5
2.71644e+07,40.6064,1,3.05319,2541.91,-5343.02,-22789.2
2.71953e+07,107.817,1,2.54866,-20841.9,-9283.35,-26762
2.72945e+07,33.7188,1,2.82077,-613.298,6665.89,-26564.2
2.74296e+07,45.7494,1,2.47558,-6943.69,6639.4,-27865.7
2.74817e+07,9.14194,0,3.35805,23.4808,-159.247,-28720.8
0,0.614307,0,3.55302,0,0,0
0,0.695277,0,3.63338,0,0,0
0,0.640805,0,2.58196,0,0,0
0,0.61523,0,3.60104,0,0,0
0,0.660319,0,3.99351,0,0,0
0,0.65477,0,3.15887,0,0,0
0,0.641327,0,3.68177,0,0,0
0,0.610714,0,3.34017,0,0,0
2.75419e+07,153.546,1,2.52544,15418.9,19058.4,-7512.8
2.76285e+07,152.897,2,2.81807,-4201.45,6626.19,-14080.2
2.76775e+07,88.0956,0,2.54907,9398.01,11434.5,-17531.5
2.77343e+07,275.276,2,2.80558,-3386.39,4262.75,19150.4
2.78915e+07,62.4966,1,2.67246,-11880.9,-5656.78,-28568.8
2.78922e+07,86.5212,2,2.79216,-11474.3,-10730.5,-19835.5
2.79073e+07,102.565,1,2.73644,-1869.09,11423.4,-10558.5
2.81587e+07,49.5812,1,2.43796,-6674.39,-6903.2,-24257.7
2.82115e+07,94.223,0,2.79643,18518.9,-5010,-23448.9
2.83022e+07,174.491,1,2.89574,-8242.62,20616,-711.774
2.83602e+07,78.6399,2,2.78017,-2465.96,-9505.18,-15862.4
2.86449e+07,7.52863,0,2.77473,1008.53,-1118.87,-27968.4
2.87299e+07,33.1082,2,2.8882,-6561.93,-1992.99,-29168.6
2.89898e+07,140.209,0,2.46087,-16632.3,-7945.35,-5647.99
2.89938e+07,21.1632,1,2.69034,-3346.71,3085.68,-28545.3
2.91214e+07,52.0927,1,2.42461,-9599.78,-4392.58,-25588.4
2.92837e+07,71.6445,0,2.59773,-7494.43,11228.4,-22175.2
2.93613e+07,93.8573,1,2.64233,9168.11,3790.06,-11729.2
2.94312e+07,37.7911,0,2.63011,6363.76,-2757.5,-24793.7
2.95124e+07,20.8154,0,2.84585,1518.37,-4171.8,-28859
0,20.7211,0,2.69591,0,0,0
2.95226e+07,51.0779,1,2.40763,-3157.79,6673.32,-20833.6
2.95394e+07,5.05317,0,2.88887,751.773,441.406,-29357.6
2.96375e+07,39.611,2,2.62507,-8360.02,418.253,-28328.6
2.97149e+07,59.7574,1,3.03315,7232.99,3612.13,-21008.7
