#class tools::wcsv::ntuple
#title time
#separator 44
#vector_separator 59
#column double eventID
#column double t(ns)
#column double copynumber
#column double energy(eV)
#column double x(mm)
#column double y(mm)
#column double z(mm)
117508,54.7756,2,2.50735,-912.996,-7099.65,-22716.1
287244,81.3838,1,2.51999,8109.56,14023.9,-22925.6
580536,97.0298,2,2.77969,-4158.38,-4795.32,-9411.15
917077,44.8008,1,2.50424,-4583.41,5110.08,-22233.7
1.14623e+06,66.1367,2,2.99453,-8466.63,-6008.38,-19591.1
1.57884e+06,44.3294,2,2.80718,-698.769,8767.75,-25894.2
1.7875e+06,53.0941,1,2.81633,-6814.86,-7164.29,-23709.6
1.84805e+06,45.0454,1,2.60641,-3743.57,2572.73,-20450.9
2.48174e+06,74.8274,2,2.3854,3910.21,-14532.3,-23740.2
2.58054e+06,71.6776,2,2.75104,-13063.7,-2969.53,-21825.7
3.07382e+06,78.9401,1,2.63204,-13768.3,-3623.39,-27431.8
3.26406e+06,110.85,2,3.03543,-11101.6,-13641.7,-13655
3.94876e+06,111.683,2,2.36566,3291.41,8334.41,-18868.6
4.10913e+06,11.4608,1,2.84054,-1844.73,-602.732,-27432.9
4.33015e+06,64.668,0,2.53195,2390.85,4346.73,-16103.1
4.5611e+06,155.541,0,3.05283,236.672,-905.987,-28066.4
4.66729e+06,33.4292,2,2.82545,665.445,-3774.75,-22915.4
5.2828e+06,227.857,0,2.48971,-18316.8,20831,10456.1
5.36122e+06,44.2361,0,2.82741,-6831.7,269.324,-22620.1
5.38068e+06,133.89,0,2.75676,-13350.2,-8913.1,-5757.14
5.60234e+06,119.762,0,2.3996,13384.9,12303.2,-11155.2
5.76613e+06,15.0633,0,3.02064,1902.43,-1163.17,-26532.8
6.23651e+06,6.15595,2,2.62319,-758.123,-663.582,-27934.7
6.49174e+06,117.812,0,2.51878,-3097.47,-9558.85,-6113.04
6.63107e+06,64.5099,2,2.51015,8974.91,4297.05,-19566.9
6.8204e+06,145.081,0,2.99568,20952.4,-6236.66,-7636.96
6.93101e+06,61.538,0,2.77724,11957.4,2135.9,-24080
7.03268e+06,84.1269,1,2.59623,17475.6,806.052,-26101.1
7.21119e+06,5.47521,2,2.56735,489.15,-84.1055,-27837.1
7.27982e+06,25.2969,1,2.81678,2961.63,4374.53,-27780.2
7.50904e+06,47.0621,2,3.05178,-5355.33,5188.86,-22404.8
8.27017e+06,62.9944,1,2.78833,2299.39,13073.3,-27424.4
8.3992e+06,16.2784,1,2.38785,-2172.78,1824.29,-26757.9
8.49726e+06,13.5369,2,2.7518,-2885.38,-413.516,-28899.5
8.61584e+06,93.4944,2,2.91767,-11594.4,660.413,-13019.2
8.86094e+06,82.3431,2,3.02899,-4008.76,3240.87,-29041.5
8.9548e+06,65.6394,0,2.54831,11452.1,7980.07,-29646.6
9.06387e+06,121.916,1,2.56006,-1890.87,9585.11,-4983.95
9.5635e+06,80.3574,1,2.74937,253.173,15614.9,-22126
9.69537e+06,76.4183,0,3.05643,3980.76,11316,-18217.4
9.74745e+06,18.189,0,2.8752,594.019,3392.82,-27148.5
9.81811e+06,21.9044,2,2.91416,4502.47,108.766,-29689.7
9.86325e+06,271.401,1,2.5989,-24679,-13200.9,20224.9
1.01857e+07,22.7436,2,2.58577,-2162.95,1491.82,-24841.6
1.04115e+07,135.591,2,2.94819,8755.84,7051.41,-9459.64
1.07293e+07,154.513,1,2.54544,10766.5,-19131.1,-4977.05
1.07717e+07,4.81116,2,2.91568,996.523,-188.334,-28835.5
1.08998e+07,73.6641,2,2.44462,-12796.4,-3695.47,-20664.9
1.0903e+07,25.0441,1,2.74294,-1957.15,4438.04,-26596.2
1.13862e+07,49.9517,1,2.41772,-430.557,4257.47,-19155.5
1.15354e+07,156.903,0,2.6328,8752.99,-10695.3,1252.63
1.15993e+07,25.2045,0,2.76198,-4033.15,1094.2,-25651.6
1.16492e+07,86.536,1,2.77014,10694.9,13487.1,-22815.3
1.17146e+07,7.331,0,2.63791,581.395,431.214,-27442.8
1.18788e+07,27.311,1,2.89745,-3922.54,-3205.86,-26145.2
1.22174e+07,72.6904,2,2.71178,-15369.9,-187.331,-29386.5
1.23988e+07,130.346,1,2.53081,4473.97,25888.5,-20342.2
1.24236e+07,61.451,1,2.98761,-10500.2,923.4,-21370.6
1.2636e+07,155.951,1,2.87963,-15338.9,28879.3,-25519
1.26697e+07,5.37561,1,2.91295,-286.171,-951.937,-28387.5
1.26709e+07,19.9537,0,2.78716,58.5851,-2037.41,-25202.5
1.31907e+07,4.10146,2,2.63605,-272.075,-816.275,-28437.8
1.32481e+07,228.734,2,2.73319,13441.8,-29261.6,6992.42
1.39309e+07,50.2967,2,2.90617,-8093.97,5855.63,-26180.6
1.39381e+07,59.9204,1,2.72478,2166.66,9437.79,-20655.5
1.39611e+07,40.4548,1,2.74463,-6746.61,4659.92,-26270.1
1.40612e+07,27.0255,0,2.38097,2827.09,-1163.26,-23970.3
1.40839e+07,92.9701,0,2.58484,-17223.6,5961.66,-21724.7
1.43018e+07,3.14834,0,2.72277,-224.698,-417.067,-28424.5
1.46464e+07,39.7285,0,2.42022,7257.94,-3316.04,-25915.4
1.4778e+07,167.619,1,2.47929,-11323,6630.63,4093.5
1.4812e+07,104.612,1,2.99625,-11417.3,16836,-20453.5
1.48332e+07,85.8744,1,2.83209,699.06,18102.8,-28690
1.48833e+07,83.5428,1,2.50729,-4154.53,15479.8,-21262.3
1.49524e+07,186.145,2,2.83119,-9215.56,1933.21,8603.5
1.58267e+07,25.918,0,3.05079,3250.15,2499.92,-25193.1
1.58423e+07,42.0607,1,2.76369,3634.53,1157.22,-20909
1.59079e+07,134.806,0,3.04887,22088.9,3677.68,-11556.6
1.60228e+07,146.911,2,3.03058,11542.6,-15925.8,-8161.13
1.61662e+07,276.583,0,2.59237,18329.3,-21320.6,22323.8
1.62533e+07,137.598,2,3.0461,5935.4,-14354.1,-10730.2
1.65456e+07,64.4114,1,2.68445,196.901,4986.76,-16213.6
1.69562e+07,260.577,2,2.36661,-29540.6,24770.9,10469.9
1.69735e+07,271.405,2,2.75235,21607.7,-9184.94,23208.6
1.70135e+07,12.1422,2,2.93495,-1117.05,-2393.86,-29200.2
1.71022e+07,17.7954,1,2.37803,-3042.53,1669.54,-27199.6
1.71661e+07,7.63441,1,2.86885,-793.519,17.1639,-27429.3
1.72237e+07,50.1191,1,2.62786,474.539,9525.37,-24103.8
1.76407e+07,51.2207,2,3.04402,-3436.31,-7563.41,-21948.6
1.76438e+07,69.9192,0,2.49367,13630.5,-3495.05,-24000.4
1.80299e+07,71.6493,2,2.70834,-7850.33,-7338.13,-18416.6
1.83571e+07,9.55511,0,2.41808,-247.089,1116.9,-27200.7
1.83906e+07,36.2754,2,2.64144,-724.799,3655.63,-22193.3
1.85287e+07,42.1862,2,2.62128,-3955.79,-3372.96,-21554
1.86218e+07,98.3867,0,2.83072,14885.3,145.063,-14409.8
1.86395e+07,89.562,1,2.9511,2292.22,-15370.2,-18372.6
1.9055e+07,3.67889,2,3.05227,-683.7,-510.809,-28780.5
1.90858e+07,95.264,1,2.38856,-13148.6,1450.67,-13605.3
1.9153e+07,19.8022,2,2.62123,-4117.26,684.841,-28228.1
1.91796e+07,68.0925,0,2.42044,5961,-12262.2,-24023.9
1.95837e+07,199.14,2,2.88421,-19255.4,8652.73,7242.56
1.97498e+07,18.7337,2,2.66196,1626.98,-493.292,-25314.1
1.99681e+07,52.5434,2,2.8152,-2613.16,-9256.46,-23237.1
1.99834e+07,17.0844,2,3.05652,1949.71,2571.35,-27454.1
2.00141e+07,165.179,0,2.68668,-21552.6,-10181.6,-3567.91
2.07613e+07,33.3859,2,2.43348,-4590.34,1377.94,-23643.1
2.08366e+07,126.35,1,3.00352,20399.6,5085.31,-12763.5
2.09707e+07,67.9335,2,2.59763,-6863.43,-2210.82,-16428.8
2.11435e+07,8.4019,2,2.46789,764.117,-1482.37,-28144.9
2.13503e+07,198.461,2,2.85505,-11110.4,10100.9,-7075.29
2.139e+07,28.3462,0,2.93411,1055.3,2105.01,-23366.6
2.14994e+07,54.6048,0,2.46098,9479.72,1025.06,-22233.2
2.16562e+07,173.786,2,2.90251,-27496.3,4255.56,-5622.2
2.18538e+07,5.43795,0,2.38642,1061.3,-645.124,-28931.6
2.20654e+07,5.72313,1,2.51695,380.962,465.431,-27787.2
2.21022e+07,118.999,2,2.55336,-7745,-1891.37,-13654.6
2.22575e+07,13.7805,0,2.58292,1345.47,-2345.15,-27645
2.24088e+07,87.1127,2,2.73321,2725.29,-7443.58,-12307.6
2.28919e+07,175.862,2,2.64254,-5294.31,-9981.65,6513.35
2.29171e+07,5.4546,1,2.76977,-935.11,-469.935,-28331.3
2.31448e+07,24.2845,1,2.65468,-1040.81,2130.95,-24351.7
2.3202e+07,12.257,1,2.53694,-868.063,1642.55,-26947
2.32521e+07,62.6541,2,2.71175,9990.52,2172.49,-20565.7
2.35341e+07,101.832,2,2.76209,-6433.79,10652.4,-11465.9
2.36515e+07,96.9686,0,2.60443,5352.27,3626.92,-9404.77
2.3838e+07,17.1721,1,2.90346,-368.056,-2671.99,-26488.4
2.42828e+07,29.3422,1,2.70829,-3563.02,2192.9,-24216
2.44684e+07,62.9612,0,2.67795,8611.9,1089.36,-18720.7
2.44843e+07,143.799,1,2.89308,-19976.1,-1401.37,-6202.73
2.45652e+07,6.89232,1,2.84741,0.591124,-922.501,-27804.1
2.46246e+07,61.3154,0,2.82468,8048.39,-8005.45,-22608.8
2.47027e+07,93.3408,2,2.38096,1139.4,-18956.9,-23142.3
2.49054e+07,125.853,0,2.76625,-12022.7,6794.42,-6281.58
2.51937e+07,71.9305,0,2.92131,3041.26,-30.0568,-24118.1
2.52314e+07,96.6981,1,2.7384,15891.9,-916.559,-16167.8
2.56622e+07,101.533,2,2.78297,-15057.6,8716.37,-22582.8
2.58675e+07,26.0618,2,2.83753,-797.223,-3669.28,-24768.6
2.60711e+07,224.455,0,2.76402,9457.31,-4672.85,-21198.6
2.61883e+07,167.836,0,2.72049,15403.9,3445.21,2826.32
2.63136e+07,60.9337,2,2.6775,-8626.73,2670.08,-19693
2.64934e+07,60.7313,2,2.49036,-9179.29,-2673.72,-20214.1
2.66792e+07,106.074,1,2.79814,2906.56,-14313.2,-16275.2
2.69598e+07,52.8193,2,2.86544,-10443.6,-3959.9,-29426.3
2.7053e+07,112.151,1,2.80187,-12995.7,13669.6,-14573
2.70643e+07,104.89,1,2.55965,1040.5,20281,-19785.7
2.74833e+07,19.9387,0,3.02494,535.116,-1623.54,-25299.7
2.7502e+07,181.425,2,2.78764,-8577.86,-16357.1,4596.66
2.8128e+07,5.47897,2,3.05537,114.802,684.684,-27976.8
2.82604e+07,35.9395,2,2.4904,2456.78,6310.03,-25531.1
2.82923e+07,2.64896,1,2.55633,187.953,545.704,-28621.4
2.84823e+07,31.7789,2,2.42165,-1251.28,-3282.32,-23083.9
2.8485e+07,34.3975,2,2.77223,-3133.69,-5543.61,-25215.3
2.84926e+07,118.438,1,2.38354,-13846.6,-16913.5,-16611.4
2.87256e+07,82.3666,1,2.47829,-1222.4,15346.2,-20527.6
2.87496e+07,41.103,2,2.77768,-6872.21,-3322.52,-24658.5
2.9195e+07,94.9328,2,2.93617,-8881.27,11281.4,-15047.1
2.97603e+07,71.2239,2,2.92317,-3273.81,14317.2,-26231.9
2.98987e+07,137.009,1,2.37309,18594.1,-2733.64,-6804.99
2.99448e+07,135.647,2,2.41665,23551.8,-13197.8,-19143.9
2.99619e+07,42.832,0,2.51057,8273.44,-3891.39,-28905.9
3.09224e+07,47.6768,1,2.62341,-9548.26,2820.65,-26863.4
3.09641e+07,46.1815,2,2.94307,3704.63,-9004.7,-29404.4
3.10998e+07,158.092,2,2.71413,312.094,-14679.6,-13869.3
3.16375e+07,52.379,0,2.99248,1280.42,9925.4,-24260.7
3.17559e+07,50.5516,2,2.82655,-1225.99,-9517.55,-24092.8
3.19941e+07,33.4369,0,2.39359,3100.51,-5360.5,-25351.6
3.22621e+07,137.272,0,2.80194,-16130.4,-15071.5,-11600.7
3.24445e+07,44.0469,0,3.0213,6110.98,-1848.36,-22100.6
3.25521e+07,29.7247,1,2.55572,-3557.03,3990.49,-25384.5
3.26279e+07,55.9098,1,2.98501,-7325.19,6305.74,-22117.7
3.26835e+07,29.2382,2,3.02337,4292.87,-1198.71,-24649.4
3.27886e+07,45.3369,0,2.56931,1720.87,8018.94,-23882.5
3.2916e+07,55.5582,1,3.01376,-1612.04,1964.31,-17491.4
3.3033e+07,53.7913,0,2.55288,-2452.09,9737.1,-23558.3
3.31311e+07,66.925,1,2.64348,6778.18,-11572.9,-24642.2
3.31694e+07,20.4137,2,2.71714,-2319.2,579.575,-25243.3
3.33157e+07,80.1465,2,2.38903,13491.9,-6744.91,-21089.7
3.33207e+07,20.7288,2,2.58538,-760.385,4257.66,-29177.3
3.34011e+07,44.7891,0,2.74393,3212.26,-8918.25,-29462.8
3.34718e+07,113.257,0,2.83904,10035.5,9077.88,-9227.7
3.38625e+07,47.6142,1,2.88924,-5808.02,-545.815,-20712.2
3.38754e+07,38.2498,2,3.00642,-4684.18,-5859.23,-25749
3.38953e+07,18.1682,0,2.69521,-2768.79,2578.63,-28736.1
3.41539e+07,9.80667,0,2.60543,1100.38,1470.66,-27808.8
3.42643e+07,91.582,2,2.73455,-10711.7,-15582,-24593
3.4409e+07,139.304,0,2.61666,12988.5,26348.7,-26755.7
3.49808e+07,9.23511,0,2.94222,-1342.36,1279.59,-28381.9
3.50811e+07,100.254,2,2.6066,-7094.9,-7544.88,-10354.5
3.52271e+07,40.4345,1,2.48511,1982.11,4807.53,-22016.1
3.52276e+07,83.4425,2,2.59906,15540.5,7923.93,-26725.8
3.52386e+07,129.686,1,2.43,7633.62,709.938,-17681.8
3.55955e+07,48.5387,1,2.64793,-7966.13,1381.06,-22467.3
3.57762e+07,41.801,0,2.77725,-652.419,-4769.71,-21497.6
3.59483e+07,74.2958,1,2.9554,-8712.87,1345.05,-15966.1
3.67832e+07,111.301,2,2.71433,8756,21486.4,-25910.3
3.68393e+07,288.277,0,2.98736,-29727,-2157.64,23579.4
3.74948e+07,118.921,0,3.03948,23168.1,-3294.58,-20055.1
3.75512e+07,8.73725,0,2.72534,-1275.45,-632.276,-27743
3.77084e+07,128.695,0,2.85385,-9221.88,-22632.2,-17342.4
3.7828e+07,19.0156,0,2.63129,-2743.96,-135.464,-25991.9
3.88698e+07,171.123,1,2.8062,-3457.45,-28629.4,-7414.42
3.90412e+07,2.82394,0,2.65901,597.369,374.515,-28894.2
3.90858e+07,30.5787,2,2.81627,-5743.42,-3064.15,-28658.7
3.93154e+07,30.1875,0,2.45321,5170.15,1230.18,-25200.8
3.95098e+07,10.3304,0,2.51889,-1720.93,34.755,-27585.6
3.97449e+07,138.294,1,2.91623,8833.13,10360,-3193.12
3.99528e+07,38.403,1,2.65229,-1605.84,5128.65,-22709.9
4.02492e+07,108.411,2,2.98562,-14772.2,-14860.5,-19814.8
4.04656e+07,110.914,1,2.82776,-20928.6,-512.216,-18453.9
4.0492e+07,86.9649,1,2.80995,11667.7,12620.4,-22491.3
4.05662e+07,32.6222,1,2.40652,3812.82,5125.92,-26188.8
4.08109e+07,36.9927,0,2.91591,-6121,3696.12,-25955.1
4.08788e+07,106.11,1,2.72873,17981.8,-12021.4,-23456.3
4.10097e+07,14.3885,0,2.91166,1647.79,2593.59,-28893.2
4.1084e+07,53.5537,2,3.01649,-10208,-4795.51,-29944.1
4.11318e+07,20.6032,1,2.52175,-1795.48,3310.48,-26518.7
4.14525e+07,25.4855,1,2.53825,1262.86,2711.8,-24345.8
4.15531e+07,76.2151,1,2.46591,15189,-3545.03,-24906.3
4.15805e+07,63.3178,0,2.53058,-9688.04,-2174.07,-19929.2
4.16443e+07,52.1122,1,2.92131,299.28,932.371,-28130.9
4.17343e+07,21.307,0,2.54968,742.907,-1265.77,-24590.2
4.1755e+07,32.4744,0,2.50435,879.782,1928.02,-22308.6
4.19227e+07,100.042,2,2.53558,-5841.55,-20425.1,-29279.7
4.19847e+07,12.6927,0,2.4977,-102.947,-1625.6,-26707.6
4.20804e+07,84.0348,1,2.95901,7393.95,5409.49,-13819.2
4.21156e+07,38.0348,0,2.8712,1434.23,-3868.03,-21984.4
4.21773e+07,137.115,0,2.49626,14897.7,-22581.2,-18273.5
4.2465e+07,52.7787,2,2.99522,5206.76,9326.26,-26184.8
4.29427e+07,35.8811,0,2.4927,4859.23,-4849.88,-25502.1
4.29687e+07,23.7021,1,2.65573,-3617.09,-2403.88,-26328.8
4.29986e+07,25.6714,0,2.7262,4135.5,-183.747,-25265.6
4.30387e+07,77.0288,2,2.41618,-11845.8,-3020.86,-17996.1
4.32828e+07,69.1234,1,2.57301,-4354.3,-11534,-21069.6
4.40275e+07,117.853,1,2.97051,12785.4,-4005.5,-8157.92
4.40645e+07,3.58604,1,2.47167,627.228,-27.2178,-28440.7
4.4284e+07,112.232,2,2.50577,12778.2,-20060,-29625.5
4.42926e+07,114.361,2,2.50385,17963,8050.41,-14895.9
4.45715e+07,66.3612,2,2.48915,-3469.01,-2539.46,-15469.8
4.48774e+07,157.239,2,2.92499,2418.91,19892.1,-17529.8
4.50865e+07,25.307,2,2.40182,167.583,-3553.54,-24787.6
4.5541e+07,18.0591,0,2.51675,2541.76,3.01185,-25915.1
4.61626e+07,25.0873,0,2.79808,-584.076,-2190.17,-24096
4.70467e+07,54.3823,1,2.96298,439.4,5340.79,-26040.3
4.73959e+07,22.6663,1,3.0035,-1373.86,2622.67,-25060.3
4.74712e+07,32.7211,2,2.66018,3015.87,3915.54,-24104.5
4.77672e+07,80.2877,2,2.78873,-7925.23,-1532.92,-13980.9
4.87755e+07,37.0838,0,2.67809,4272.41,6625.14,-28461.5
4.8885e+07,29.0951,2,2.8356,508.723,3642.42,-24007.3
0,29.039,2,2.55768,0,0,0
4.89084e+07,68.4528,1,2.42698,-11185.7,5850.8,-21654.2
4.90356e+07,10.9924,1,2.76563,1468.18,1572.33,-27880.2
4.90842e+07,101.194,1,2.94891,-4218.24,5239,-8698.16
4.94492e+07,85.7522,1,2.67864,-9974.5,8893.28,-16568.9
4.96248e+07,0.19559,1,3.52818,-100.39,92.6061,-28833.9
0,0.200857,1,4.05668,0,0,0
0,0.202425,1,2.79409,0,0,0
0,0.250919,1,3.68356,0,0,0
0,0.198342,1,3.66783,0,0,0
0,0.248271,1,2.79566,0,0,0
0,0.682924,2,3.78891,0,0,0
0,0.193647,1,2.09017,0,0,0
0,0.210623,1,2.46283,0,0,0
0,0.196251,1,4.10422,0,0,0
0,0.241689,1,2.27178,0,0,0
0,0.212378,1,3.5715,0,0,0
0,0.195606,1,2.76796,0,0,0
0,0.196968,1,3.57154,0,0,0
0,0.220028,1,3.03843,0,0,0
0,0.198177,1,2.41843,0,0,0
0,0.218107,1,2.20122,0,0,0
0,0.228574,1,3.01018,0,0,0
0,0.196587,1,2.54547,0,0,0
0,0.22717,1,2.23166,0,0,0
0,0.192582,1,3.22229,0,0,0
0,0.19719,1,3.28076,0,0,0
0,0.238871,1,3.24103,0,0,0
0,0.24884,1,3.47041,0,0,0
0,0.219934,1,2.89443,0,0,0
0,0.249152,1,2.78942,0,0,0
4.97045e+07,30.9835,0,2.77649,-194.749,-4856.01,-24486.8
5.00612e+07,33.4586,1,2.45625,-4893.16,2829.12,-24468.3
5.0077e+07,109.853,2,2.51376,-21754.5,6738.1,-24181.2
5.03203e+07,138.802,2,2.6398,-5705.64,-24535.9,-13760
5.0374e+07,19.9005,2,2.81298,436.391,-3430.56,-26376.4
5.04071e+07,155.863,1,2.7307,19981.1,19517.3,-11575.6
5.0436e+07,86.1379,1,2.54736,-9111.94,11330,-17784
5.04642e+07,49.276,1,2.71458,4398.73,9202.29,-26525.7
5.0722e+07,57.0233,0,2.94229,3038.22,3683.86,-17851
5.08246e+07,164.662,2,3.01712,-9243.23,-1287.5,4345.35
5.09154e+07,189.58,1,2.73325,12981.8,24477.2,-292.746
5.11004e+07,77.3984,0,2.37935,2483.34,-6237.82,-13917
5.15766e+07,157.349,1,2.78004,-20188.3,-20536.1,-12539.1
5.17445e+07,109.798,0,2.82227,-4065.8,9854.55,-8407.07
5.18799e+07,124.695,0,2.50599,9150.83,-5793.63,-11781.4
5.19866e+07,104.256,0,2.73106,12991.6,-17801.7,-28512.1
5.19918e+07,25.9416,0,2.80219,3863.93,-740.979,-24987.2
5.21065e+07,53.2843,1,2.49564,-7577.64,5981.28,-22882.6
5.28487e+07,124.871,0,2.84234,-20659.5,-15229,-23668.8
5.3513e+07,154.235,0,2.64483,-13133.9,6971.75,64.7341
5.36376e+07,4.4025,1,2.80835,292.08,-272.429,-28037.1
5.42136e+07,68.0673,1,2.43618,1930.26,-6036.62,-25747.6
5.42822e+07,49.6579,2,2.72767,9477.03,-763.002,-24505.5
5.44534e+07,121.422,1,2.42623,8246.8,-11995.6,-7753.89
5.44584e+07,89.8983,2,2.46328,10582.9,-14218.9,-21848.7
5.46493e+07,3.58063,0,2.42168,9.97184,-332.57,-28155.1
5.46625e+07,120.611,1,2.97586,-13431.9,-15805.6,-14425.8
5.46667e+07,100.55,1,2.78955,-19187.7,-5917.64,-22052.7
5.49503e+07,184.297,0,2.64315,-2718.67,20210.2,3286.72
5.53429e+07,171.228,0,3.00504,16480.7,28106.7,-16751.4
5.54658e+07,122.178,0,3.01094,2223.61,-12499.1,-6649.2
5.55047e+07,52.6456,0,2.6336,4021.81,3496.1,-19073.5
5.55707e+07,39.2533,1,2.83938,-3493.93,1902.97,-21583.8
5.56832e+07,186.506,0,2.85829,7438.61,5561.6,-27213.1
5.57044e+07,8.03468,0,3.03592,1195.05,-945.079,-28046.7
5.59123e+07,38.4043,0,2.69302,6593.35,-558.526,-24089.6
5.59583e+07,6.44116,2,2.86021,464.611,-1323.91,-29032.9
5.64167e+07,56.5901,1,2.53383,-12016.7,730.78,-29226
5.66178e+07,98.4119,2,2.44088,12297,15698.3,-23069.7
5.70862e+07,69.0798,2,2.8274,-1423.3,-10373.9,-18687.7
5.73665e+07,0.989498,2,2.40906,-179.726,93.2085,-28767.8
0,0.777608,1,2.76098,0,0,0
5.759e+07,99.1404,1,2.50435,-7222.69,-18018.8,-21007.6
5.76662e+07,198.72,2,2.78865,9803.17,21603.4,-4019.07
5.76875e+07,93.9027,2,2.91547,-9091.6,-13286.8,-17365.4
5.82624e+07,198.816,0,2.53926,29297,114.556,1340.05
5.8917e+07,182.253,2,2.61267,-29477.6,19271.6,-13341.4
5.91415e+07,76.3704,1,2.62664,13318,7879.62,-24272.4
5.91622e+07,135.161,1,2.80196,4076.55,19612.1,-8605.62
5.92133e+07,87.0326,2,2.64625,14392.2,8585.47,-21489.2
5.93943e+07,46.8708,2,2.6268,-2280.84,-947.749,-19263.9
5.95135e+07,50.0128,1,2.53512,-5094.38,4202.03,-20523.8
6.01169e+07,41.5666,2,2.63702,-3456.48,-3266.27,-21428.7
6.01779e+07,217.008,2,2.54861,-19817.3,-14660.3,9863.64
6.03234e+07,127.861,2,2.92429,24269.7,-5328.39,-18767.3
6.03688e+07,84.5728,1,2.42877,-16659.9,917.5,-22219.7
6.08319e+07,108.912,1,2.4752,-11004.6,8589.74,-10487
6.14042e+07,104.398,0,2.60645,1435.18,9954.34,-22819.5
6.14392e+07,24.5866,2,2.41417,-5163.39,-1067.71,-29125.8
6.1946e+07,102.546,0,2.99069,3373.33,8008.1,-9169.39
6.19729e+07,75.1935,0,2.44933,12755.6,8625.01,-24617.2
6.20355e+07,3.1374,0,3.01006,308.968,401.512,-28371.5
6.20679e+07,141.802,1,2.75379,-28477.3,-7961.46,-24626.1
6.23751e+07,111.742,2,2.59327,-16333,5978.99,-12880.9
6.26868e+07,128.014,1,2.8991,5186.91,10827.2,-17519.3
6.29907e+07,50.339,0,2.70283,4873.21,9479.7,-28929.2
6.30051e+07,69.381,2,2.36353,-223.503,-14265.7,-25133.8
6.30657e+07,28.7664,2,2.53543,-4659.81,-486.446,-24885.6
6.32118e+07,119.513,2,2.87425,-22400.4,-8923.55,-21665.5
6.32149e+07,7.69042,1,2.76757,-421.941,1348.07,-27896.7
6.3897e+07,229.568,0,2.42903,12833.9,-19585.2,13583.8
6.40598e+07,123.796,0,2.78523,8910.73,16627.9,-10828.2
6.42279e+07,0.0498966,1,3.62492,0.233971,110.02,-28864.7
0,0.0555517,1,2.4335,0,0,0
0,0.115823,1,3.27263,0,0,0
0,0.0523988,1,2.23604,0,0,0
0,0.0920645,1,2.52698,0,0,0
0,0.0498677,1,3.98847,0,0,0
0,0.0511515,1,3.0164,0,0,0
0,0.0487049,1,3.67345,0,0,0
0,0.0581101,1,2.22032,0,0,0
0,0.0626533,1,3.74365,0,0,0
0,0.0692415,1,2.61446,0,0,0
0,0.0556546,1,3.05139,0,0,0
0,0.0869803,1,2.91229,0,0,0
0,0.0508721,1,2.83444,0,0,0
0,0.0926677,1,2.63736,0,0,0
0,0.0591664,1,3.83586,0,0,0
0,0.0743034,1,3.38114,0,0,0
0,0.083125,1,2.21426,0,0,0
0,0.11058,1,2.85726,0,0,0
0,0.0731793,1,2.51418,0,0,0
0,0.0596189,1,2.5757,0,0,0
0,0.0497477,1,2.17899,0,0,0
0,0.0809246,1,2.8447,0,0,0
0,0.0506673,1,2.49892,0,0,0
0,0.0554828,1,3.14122,0,0,0
0,0.0916531,1,3.30289,0,0,0
0,0.0494886,1,3.21644,0,0,0
0,0.0493061,1,4.08627,0,0,0
0,0.0578568,1,4.06122,0,0,0
0,0.0488204,1,2.54684,0,0,0
0,0.0596322,1,3.1048,0,0,0
6.43448e+07,44.6846,2,2.90497,-3973,7575.74,-25071.6
6.45005e+07,53.0685,2,2.97702,-8385.27,7265.27,-27842.6
6.45677e+07,7.82653,2,2.68639,118.363,685.697,-27397.7
6.47013e+07,39.9845,0,2.5593,4205.87,-3690.07,-22473.3
6.48369e+07,74.3514,1,2.94893,-7530.53,13174.1,-24861.7
6.5035e+07,18.9021,1,2.57605,-3162.89,1308.32,-26690.8
6.52269e+07,18.274,2,2.67877,-1221.69,836.132,-25294.9
6.53354e+07,25.3913,1,2.91391,3910.84,3549.45,-29901.2
6.53421e+07,11.3423,2,2.51299,334.277,-1204.06,-26770.2
6.54219e+07,14.3602,2,2.81391,-594.404,1506.51,-26328.2
6.55347e+07,25.2633,0,2.5894,5226.83,907.848,-27788.1
6.57672e+07,58.066,1,3.0606,8973.02,7959.63,-26741
6.62571e+07,32.46,0,2.51017,-208.674,-5272.48,-24439.7
6.66284e+07,3.82466,2,2.93229,-341.906,-851.426,-29025.5
6.66381e+07,25.4096,0,2.65662,2148.29,1238.41,-24061
6.68625e+07,121.579,1,2.66968,7073.13,-18101,-12229.7
6.6924e+07,14.2622,0,3.00227,2615.64,1238.45,-27817
6.69289e+07,106.517,2,2.40099,7921.51,5267.9,-8441.26
6.7018e+07,104.965,2,2.76804,-6862.01,-17977,-17861
6.7116e+07,13.1833,0,2.46663,892.773,-2437.86,-27751.9
6.73583e+07,180.436,0,2.60419,21086.3,6284.38,2281.74
6.77244e+07,127.028,0,3.05237,7009.46,-25595.3,-26565.2
6.82095e+07,60.7706,0,2.6019,8804.58,-8135.08,-24100.8
6.84429e+07,31.8409,2,2.95849,-567.028,-4137.94,-26899.8
6.84658e+07,22.2467,1,2.80009,1945.81,3491.07,-26341.5
6.85655e+07,190.343,0,2.79151,2366.31,27599.6,84.2536
6.87836e+07,26.9355,1,2.61319,670.821,2901.64,-23958.9
6.87927e+07,47.9131,1,2.77711,-871.509,7120.36,-21676.8
6.88042e+07,51.6377,1,2.43167,-8310.44,3202.51,-22409.5
6.8833e+07,165.434,2,2.41538,-25855.7,-23063.3,-23302.2
6.96319e+07,36.176,0,2.81181,-1836.74,5069.56,-23497.9
6.96721e+07,163.174,0,2.46085,21548.9,22228.9,-13537.2
6.98253e+07,49.55,0,2.74311,6462.18,-8211.74,-27934.6
7.03355e+07,89.3756,1,2.50863,-17858.7,1905.79,-22792.2
7.06644e+07,28.3183,1,2.59047,-1424.59,444.782,-23080.5
7.08027e+07,39.4901,1,2.90008,6928.46,-3507.4,-26077.4
7.08096e+07,134.559,1,2.51631,10696,8204.39,-6110.81
7.17734e+07,288.635,1,2.84813,-28130.2,-17344.7,22021.1
7.26156e+07,63.4858,0,2.6398,11614.6,6267.52,-26262.3
7.31489e+07,97.9038,1,2.3967,-13048.3,4162.13,-18055.2
7.32687e+07,218.789,2,2.92112,-22190.2,18222.2,6960.64
7.34361e+07,18.8527,1,2.61969,-2014.36,-2962.19,-27140.3
7.36441e+07,60.341,0,3.00913,6522.82,-50.2841,-22797.6
7.38944e+07,74.6693,2,2.45373,-10342.2,-5094.01,-17978.4
7.40012e+07,153.678,1,2.8302,16331.5,22560.5,-16759.4
7.41491e+07,92.4581,0,2.41791,7999.74,-6746.43,-12297.8
7.43111e+07,217.549,1,2.7407,29971.1,25222.9,-5112
7.4434e+07,104.732,2,2.77127,-8916.82,146.225,-8671.42
7.48734e+07,49.8982,0,2.56121,9161.68,1196.3,-23600
7.51694e+07,27.7751,0,2.44955,-1278.36,-5566.1,-27494
7.54097e+07,40.7733,2,2.97684,7843.32,505.762,-25521
7.57997e+07,108.104,1,2.4562,-12806.5,-11264.8,-13632.4
7.60329e+07,148.866,0,2.61412,23858.3,-15375.1,-15207.7
7.60991e+07,30.5268,2,2.68635,-3477.16,217.278,-23431.7
7.65479e+07,65.6325,2,2.68496,315.863,-13203.3,-24427.6
7.65845e+07,77.1349,1,2.73937,8758.3,13519.1,-26304.4
7.66321e+07,93.1949,1,2.60105,-16343.4,3638.21,-23898.6
7.69848e+07,57.3718,1,2.72548,-3832.58,11390.3,-26833.1
7.73229e+07,11.6746,1,2.45164,1460.68,2074.83,-29087
7.74373e+07,12.3918,0,3.04857,2077.41,153.301,-27195.6
0,12.4285,0,3.02919,0,0,0
7.74767e+07,118.585,0,2.39716,17150.6,5881.98,-11414.2
7.77114e+07,39.5641,2,2.97308,3969.96,-7254.78,-27570.2
7.77955e+07,78.3557,1,2.9341,3870.12,15934,-26814
7.81334e+07,4.57664,1,2.68894,-336.978,928.849,-28470.8
0,4.56446,1,3.03984,0,0,0
7.81761e+07,81.4469,0,2.93602,18.0279,16891.6,-26161.1
7.84372e+07,116.406,1,2.77874,9505.09,16676.9,-13557
7.8463e+07,107.019,1,3.01169,-21028.7,3321.34,-21659.1
7.90757e+07,159.666,1,2.79138,11467.3,29148.2,-20717.2
7.9077e+07,128.786,1,3.01176,-19750.6,-15712.5,-19308.3
7.95061e+07,31.4999,2,2.84898,-3444.31,803.54,-23239.7
7.96467e+07,99.1342,2,2.84881,20109.3,-5181.08,-27151.8
8.01337e+07,9.33729,1,2.92014,978.184,1422.95,-29916.5
8.03004e+07,14.1263,0,2.74032,2294.89,76.8244,-26858
8.09461e+07,5.02019,0,2.42133,614.756,-180.641,-28464.5
8.10063e+07,46.4871,0,2.56559,-4830.32,5070.22,-21991.6
8.11369e+07,27.6272,2,2.57132,-2189.12,-382.072,-23437.3
8.14718e+07,2.42068,1,2.49954,-348.521,458.352,-28696.8
0,2.34989,1,2.55293,0,0,0
0,2.30656,1,2.55555,0,0,0
8.15679e+07,96.7536,1,2.80929,15752.5,-10367.1,-21327.4
8.17107e+07,118.435,0,2.70555,3730.21,15824.9,-18270.5
8.17776e+07,44.0151,2,2.61279,2929.2,-6051.58,-22387.6
8.18489e+07,147.508,2,2.68446,-9085.45,-28390.4,-19762
8.19129e+07,85.1425,2,2.56185,-4751.99,-10230.4,-14790.4
8.20819e+07,139.828,2,2.72417,-26241.9,13413.9,-28604.1
8.20979e+07,1.60458,2,2.4155,-99.1716,-429.698,-28930.6
8.23318e+07,78.2296,2,2.66215,14195.7,4458.82,-21847.9
8.24379e+07,157.279,0,2.91901,22610.6,17235.7,-11991.3
8.25996e+07,4.69836,0,3.01365,271.084,-957.574,-29116.9
8.29364e+07,169.628,1,2.54548,2104.16,-17599.5,2279.75
8.29772e+07,94.4741,2,2.73537,6569.35,-10209.1,-13074.5
8.31515e+07,66.8552,2,2.99709,-10104.1,-9754.98,-27496.9
8.35333e+07,23.7882,0,2.93,3454.92,-3674.11,-28290.6
8.37494e+07,139.389,0,3.01038,812.803,-24243.5,-12559.5
8.45544e+07,31.9984,0,2.61146,-449.552,-6527.91,-27144.2
8.45934e+07,42.0965,1,2.72411,-3572.07,8047.84,-27187.4
8.46301e+07,24.5069,1,2.96607,-3422.21,-457.799,-25004
8.46398e+07,22.4611,1,2.5123,-2923.2,-1046.47,-25219.4
8.47431e+07,49.1548,0,2.84338,5622,-8669.86,-27796.7
8.48258e+07,76.4473,2,2.98707,-4843.57,6637.87,-15095.4
8.48738e+07,16.7712,0,2.53844,2903.64,-321.325,-26721.8
8.48856e+07,70.647,2,2.58532,-7547.23,-11516.4,-22856.2
8.50035e+07,135.114,0,2.39988,8314.21,8317.63,-2765.25
8.50127e+07,6.03809,2,2.89334,-1342.32,-17.2232,-28804.3
8.5309e+07,20.609,2,2.74999,-2963.64,3110.27,-28152.1
8.56584e+07,16.065,2,2.59355,-3158.15,-1085.22,-27877.9
8.58307e+07,20.2277,2,2.46273,1719.33,-780.721,-24998.1
8.58317e+07,96.2008,2,3.04206,-11862.4,6339.35,-13856.3
8.59133e+07,22.7305,0,2.62355,3098.42,-3665.67,-27993.8
8.59836e+07,150.042,0,3.01798,26599.1,6522.67,-13270.4
8.62572e+07,137.429,0,2.64183,-15888.4,10984.9,-7306.05
8.63095e+07,85.8962,1,2.94794,6703.74,666.727,-12183.5
8.63823e+07,44.4184,1,2.83831,7646.05,2263.92,-23964.9
8.6556e+07,27.4428,2,2.46834,-3031.76,-4984.09,-27936.6
8.67779e+07,33.6729,2,2.98777,5402.96,2884.79,-25424.9
8.68599e+07,18.6314,2,2.64227,-1011.23,-2169.65,-25668.8
8.6917e+07,165.465,2,2.69856,-13586,-219.961,3271.81
8.70881e+07,60.4665,2,2.99914,7344.72,-2048.87,-18746.9
8.73307e+07,62.1559,0,2.96217,10952.7,6997.47,-26944.4
8.73525e+07,143.986,1,2.5022,-2954.15,10796.9,-539.319
8.73994e+07,26.961,0,3.02759,3686.9,454.367,-24533.9
8.75181e+07,59.0066,0,2.41154,2311.43,-12051.3,-26314.6
8.81993e+07,48.6111,2,2.92447,-1168.58,8176.97,-23425.2
8.82453e+07,5.13045,0,2.81501,-91.3973,1035.27,-29177.4
8.84021e+07,20.0733,1,2.589,-1506.28,104.017,-24877.7
8.85966e+07,39.0302,2,2.4041,3711.17,-3598.56,-22374.4
8.87528e+07,101.27,1,2.47133,-20480.6,-1641.41,-22661.3
8.88845e+07,89.6135,0,2.51965,16923,-2420.56,-20517
8.90676e+07,15.9223,1,2.68004,-1772.29,-281.73,-29033.3
8.91863e+07,120.114,1,2.43709,3457.41,-21978.8,-16678.3
8.91895e+07,81.216,0,2.85777,3253.87,3203.14,-12401.7
8.93455e+07,45.333,0,3.03896,2739.86,1355.66,-19846.2
8.93593e+07,215.564,2,2.95651,-10620.4,-19266.6,-3997.51
8.95068e+07,32.9889,2,2.98463,-5690.78,-3009.32,-26089.3
8.98686e+07,70.2787,1,2.83191,4443.07,9521,-18398.2
9.00161e+07,18.0784,0,2.40356,1104.09,3584.95,-27892.3
9.02871e+07,82.8442,2,2.81383,2146.24,-7910.84,-13439.1
9.06451e+07,100.878,1,2.44609,3545.57,13573.4,-13529.3
9.07788e+07,20.2442,2,2.93419,2309.06,2462.79,-26341.6
9.08562e+07,199.818,2,2.74545,-24502.1,-25817.4,-6313.92
9.09421e+07,128.723,0,2.41421,1100.5,17860.3,-8316.65
9.12932e+07,71.2672,2,2.62677,7322.44,-735.576,-16836
9.13587e+07,4.88737,1,3.00535,411.602,-129.951,-27957.9
9.14201e+07,12.2652,0,2.54842,1653.06,-81.2677,-26784.1
9.14922e+07,10.0493,0,2.77529,1446.57,598.593,-27328.1
9.16763e+07,10.3082,2,2.48363,-393.433,-1851.65,-27624.6
9.17023e+07,114.461,2,2.73544,420.492,-16117.6,-16995.8
9.17133e+07,98.0945,2,3.03533,1245.6,-20245.9,-25015.5
9.25984e+07,46.8248,1,2.46609,7257.35,-4164.2,-23622.7
9.27369e+07,88.5004,0,2.73806,9528.28,-12350.2,-18535.4
9.30091e+07,121.138,2,2.50522,-3157.83,-1379.66,-24717.3
9.31679e+07,169.031,1,2.47806,-10793,19266.8,-682.018
9.35544e+07,145.219,2,2.71757,-13128.5,-13681.6,-16517.3
9.42608e+07,17.1475,0,2.90654,51.5022,3150.62,-27089.6
9.49371e+07,7.67494,1,2.93788,327.735,1363.87,-27933.2
0,7.63681,1,2.58668,0,0,0
9.50338e+07,113.523,1,2.80948,-16985.7,7730.47,-13850.4
9.56726e+07,145.929,0,2.8628,28322.2,9390.99,-22394.2
9.57747e+07,110.319,1,2.69233,-581.766,5502.51,-6253.69
9.59947e+07,153.564,2,2.38945,-17010.1,-25170.2,-17141
9.64862e+07,61.5869,0,2.868,5540.79,10522.7,-23705.3
9.65035e+07,20.5487,2,2.72406,1829.93,-3639.89,-27182
9.653e+07,57.1919,2,2.79555,-4108.11,-7911.16,-20703.3
9.66059e+07,12.2969,1,2.94297,-1841.33,-860.404,-27225.4
9.66203e+07,84.0789,2,2.5925,2579.28,-15876.1,-21252.7
9.69588e+07,32.0373,0,2.85765,-1509.23,3160.74,-23099.6
9.70961e+07,109.106,1,3.00173,2231.4,17896.2,-14686.4
9.71595e+07,31.1156,1,2.70446,4199.07,5119.99,-28700.3
9.7411e+07,34.6938,0,2.75119,7335.75,819.62,-28797.1
9.78617e+07,34.9535,2,2.40078,-2736.76,-6798.9,-27282.2
9.80799e+07,44.8111,0,2.50053,7456.26,-498.601,-22902.7
9.83028e+07,76.7937,0,2.71284,2936.58,4399.29,-13536.6
9.85208e+07,26.7627,2,2.74205,1648.92,-5398.8,-28066.6
9.85844e+07,27.6163,0,2.8731,5243.21,1865.63,-26922.7
9.88717e+07,111.55,1,2.74007,-17305,10314.8,-21450.3
9.89185e+07,173.935,1,2.85865,-4351.69,14093,4565.3
9.90486e+07,6.58549,0,2.48417,1260.9,361.272,-29569.5
9.90724e+07,71.3017,2,2.97235,-11649.5,3067.23,-19976.5
9.91041e+07,76.3747,1,2.54987,-8222.64,12471.9,-22554.6
9.92264e+07,180.779,1,3.00438,17106.1,16148.9,845.853
9.96476e+07,115.779,2,2.73031,-20465.5,-6675.26,-17232.6
9.96757e+07,21.0407,0,2.9527,-2080.69,1559.98,-25333
9.98338e+07,75.2515,0,2.75936,9685.14,4444.02,-17067.5
9.98655e+07,150.767,2,2.68669,-19318.6,2881.42,-3744.29
1.00007e+08,155.366,0,2.9953,580.25,10107.1,-20511.3
1.00093e+08,189.695,2,2.60262,-1851.63,18852.1,-13757.4
1.00283e+08,32.3842,1,2.52216,2394.35,5024.02,-24771
1.00302e+08,101.148,2,2.94098,16260.1,2939.14,-26073.7
1.00777e+08,47.0846,1,2.49726,9074.11,-2089.84,-25427.2
1.00958e+08,5.04554,1,3.01545,-1058.35,358.705,-28681.3
1.01062e+08,203.705,0,2.51701,-29506.9,-4189.68,2108.65
1.01222e+08,10.5129,2,2.37612,-1799.4,200.939,-27492
1.01236e+08,14.2152,1,2.87543,391.982,2987.34,-28292.3
1.01373e+08,29.6929,2,2.63531,5833.12,1451.65,-27285.3
1.0181e+08,272.748,0,2.85046,7806.34,-3363.53,-22870
1.02103e+08,56.2205,2,2.64729,-11673.1,1947.29,-27527.3
1.02117e+08,155.61,1,2.71527,-15966.2,10422.5,-2142.36
1.02304e+08,33.6571,0,3.05834,-5646.51,95.6935,-24716.2
1.02404e+08,79.0407,1,3.02843,-9960.16,12488.7,-24150.2
1.02443e+08,0.638401,1,2.64436,-1.46582,206.779,-28960.7
0,0.628415,1,2.22578,0,0,0
0,0.598043,1,3.22254,0,0,0
0,0.660851,1,4.03387,0,0,0
1.02597e+08,16.2094,2,2.88503,-3307.78,-821.245,-29623.7
1.02673e+08,43.9455,0,2.68562,8403.2,350.666,-24740
1.02718e+08,64.1099,1,2.72615,2208.93,3595.37,-16025.8
1.02823e+08,32.4626,2,2.78943,-2398.52,-6451.92,-28055.8
1.02945e+08,183.907,2,3.05925,16681.8,2840.62,5681.76
1.0306e+08,43.3295,1,2.94487,-4419.05,661.549,-20922.2
1.03165e+08,55.8927,1,2.79869,-4772.95,-10719.7,-28703.5
1.03428e+08,5.59276,0,2.40097,-385.752,539.127,-27891.7
1.03472e+08,144.303,2,2.4528,6306.78,19247.3,-6090.37
1.03658e+08,83.6516,2,2.6238,7102.18,6893.93,-14303.8
1.03735e+08,85.1195,1,2.37086,-10353.9,14860.4,-28299.7
1.0404e+08,18.6765,1,2.37346,1003.38,793.351,-25095.4
1.04516e+08,13.2813,2,2.85231,772.41,-1369.25,-26501.6
1.04939e+08,8.18691,1,2.54163,-1507.63,1022.55,-28597.5
0,8.23858,1,2.63518,0,0,0
1.04982e+08,52.3987,2,2.67229,4661.32,5089.96,-20285.6
1.05053e+08,72.3396,2,2.6776,6438.15,-7910.19,-17492.9
1.05405e+08,135.862,0,3.05441,11398.5,-21942.4,-14745.2
1.05687e+08,61.5101,1,2.43784,5777.14,5943.9,-18788.4
1.05735e+08,71.0927,0,2.49888,-6473.67,8249.39,-18115.6
1.05869e+08,13.8608,2,2.53547,1271.09,-340.12,-26239.8
1.06132e+08,25.8515,0,2.43678,-819.945,-3001.58,-24348.1
1.06328e+08,9.68028,2,2.43904,380.663,-2021.98,-28257
1.06752e+08,71.865,1,2.70612,-4704.48,-1846.74,-14608.3
1.06965e+08,79.2078,1,2.69473,6879.93,-7270.99,-15522.8
1.07303e+08,29.8539,1,2.54491,670.297,-5333,-25626.6
1.07356e+08,31.9945,1,2.92003,-2288.4,-4242.79,-24214.9
1.07377e+08,214.639,1,2.67797,-15506.3,-28300.1,2774.33
1.07873e+08,36.2773,1,2.39579,-6180.37,753.768,-24259.3
1.07946e+08,169.832,1,2.43372,-3838.38,17920.9,2089.53
1.08638e+08,70.995,0,2.74522,-5679.82,2798.28,-16478.1
1.0888e+08,11.5152,2,2.39386,-469.649,1377.82,-26909
1.0912e+08,2.02677,0,2.56462,370.549,167.763,-28555.7
0,2.11082,0,2.89696,0,0,0
1.092e+08,5.15075,1,2.38367,-11.9897,1130.98,-28581.7
1.09443e+08,0.0933351,2,3.55201,-16.8341,-132.094,-28882.1
0,0.0890104,2,3.97889,0,0,0
0,0.0884645,2,2.79619,0,0,0
0,0.0929665,2,3.36241,0,0,0
1.09811e+08,8.50955,1,2.40031,-296.87,1821.19,-28477.6
1.09865e+08,34.2152,1,2.65691,1323.34,6001.21,-24966.1
1.10017e+08,165.119,2,2.43203,25028.4,-23015,-20717.7
1.10027e+08,7.59651,1,2.83421,279.156,719.319,-27437.3
1.10356e+08,140.948,1,2.74019,-22115.5,-15393.8,-23484.4
1.10723e+08,27.9377,0,2.71974,1985.21,-5567.83,-29450.9
1.10761e+08,87.0086,2,2.94821,3579.34,-5063.89,-11678.8
1.10926e+08,3.86617,1,2.88451,-166.093,255.447,-28144.3
1.11117e+08,109.84,2,2.40849,13647.7,-16794.4,-20237.4
1.11401e+08,98.538,2,2.79972,-13074,-4741.53,-13428.1
1.11738e+08,4.79555,2,2.50423,38.4494,-353.23,-27880.4
1.11739e+08,88.5961,2,2.42642,13366.4,-4714.67,-18265
1.11919e+08,41.7444,0,2.55241,-5254.25,2399.05,-22226.5
1.12253e+08,112.788,1,2.62814,11483.1,15024.3,-14335.7
1.12394e+08,41.8523,1,2.72089,-8440.57,319.292,-26161
0,42.3871,0,2.72873,0,0,0
1.12583e+08,31.2698,2,2.49889,2171.63,-5812.11,-26352.1
1.12887e+08,17.8535,2,2.75384,669.244,-2665.02,-26233.9
1.12892e+08,60.1952,2,3.01856,-8791.17,-7633.39,-23771.8
1.12918e+08,87.4791,2,2.77636,-9283.77,-5444.14,-13880.1
1.12961e+08,10.0744,0,2.39264,1398.61,-1234.19,-27671.4
1.14471e+08,130.502,2,2.63794,-20093.6,-10102.9,-12842.1
1.14571e+08,8.23037,2,2.63978,1223.27,-1053.76,-29642.8
1.14579e+08,0.710155,0,2.87079,32.123,-168.599,-28807.7
1.14633e+08,140.702,2,2.93737,-15803.7,-13851,-16014.1
1.14975e+08,28.6546,1,3.05614,3537.13,-2915.53,-25035.6
1.1562e+08,101.767,2,2.79104,-4717.3,20678.5,-26257.1
1.15788e+08,135.824,2,2.48892,-20812.3,11710.2,-12894.8
1.16006e+08,133.362,0,2.4432,23446.2,-9674.23,-16350.6
1.16009e+08,9.97075,1,2.45852,-1855.95,797.988,-29779.3
1.16065e+08,77.4989,1,2.90231,11154.4,2107.41,-17192.1
1.16092e+08,40.3321,1,2.84386,-4235.04,-4505.59,-23039.1
1.16479e+08,74.0852,0,2.58669,12916.3,-2926.06,-20402.5
1.16824e+08,9.67338,2,2.36335,1772.66,-1027.58,-28584.5
1.17174e+08,121.207,2,2.82982,-22703.7,-11550.5,-26590.1
1.17299e+08,171.866,0,2.70621,8392.41,-15981.7,2551.05
1.1735e+08,12.597,2,2.78088,1326.79,334.935,-26607.4
1.17421e+08,23.0928,1,2.85141,3005.45,-2927.97,-26553.8
1.17701e+08,10.4728,2,2.37965,-2068.77,-1046.62,-28858.1
1.17778e+08,62.8483,0,2.69145,11439.3,-3486.49,-22962.5
1.18516e+08,58.6068,1,2.44054,-6378.36,-10554.3,-29999.8
1.19026e+08,17.1399,2,2.7442,400.938,-3155.42,-27047.7
1.19147e+08,9.68963,0,2.59286,1691.73,-528.508,-27677
0,9.77366,0,2.97902,0,0,0
1.19305e+08,172.696,1,2.84699,18694.4,27126.7,-13545.9
1.19345e+08,63.1783,1,2.78399,-813.172,11815.2,-22621.5
1.19589e+08,33.4629,1,2.77009,4764.21,5011.43,-27485.1
1.1979e+08,11.6495,2,2.92646,898.561,2050.82,-28046.3
1.1988e+08,70.6841,1,2.38763,-5369.6,13840,-26299
1.19991e+08,36.5415,1,2.57192,-2459.89,1575.8,-21675.8
1.20143e+08,14.1708,1,2.76008,-2421.86,-238.087,-27054.9
1.20365e+08,65.2475,1,3.03657,20.3404,5475.59,-16302.4
1.20573e+08,92.2538,1,2.56469,-11619.3,-15509.1,-28262.4
1.20937e+08,62.7842,2,2.80533,-9637.09,5481.82,-21636.7
1.20947e+08,190.982,1,2.77826,2492.97,28972.7,-27338.7
1.20953e+08,13.6135,2,2.8943,8.9835,-2927.54,-28436.1
1.21051e+08,22.6581,1,2.74438,-2858.81,2600.23,-25936
1.21066e+08,18.7616,0,2.56305,2120.29,1088.41,-25636.5
1.21352e+08,164.362,2,2.90977,22653.9,-5325.6,-3421.7
1.21401e+08,3.42215,1,2.42074,184.94,413.747,-28275.2
1.2152e+08,4.32842,2,2.47131,-115.071,-769.038,-29489.4
1.21598e+08,84.239,0,2.58384,17066.5,1615.27,-23790
1.2161e+08,74.7408,2,2.70591,9880.71,6138.88,-18273.6
1.21636e+08,90.6265,1,2.74996,-4898.38,2337.99,-17850.6
1.22222e+08,14.4905,1,2.96566,900.08,1920.52,-26609
1.2227e+08,41.8624,0,2.40621,90.9391,4745.55,-21413.5
1.22426e+08,132.074,0,2.90848,1314.34,-11405.4,-3603.33
1.22439e+08,138.863,0,2.83823,17284.7,3204.37,-5514.61
1.22629e+08,177.312,1,2.73014,-597.951,19691.7,2911.43
1.22679e+08,101.842,1,2.69566,10941.3,3143.74,-10651.9
1.22747e+08,168.346,0,2.5182,12797,7586.21,-28421.3
1.2292e+08,76.0446,0,2.61428,15090.4,-5802.79,-28929.5
1.2297e+08,17.0023,2,2.49698,2633.95,4.1063,-26471.1
1.23034e+08,70.3291,1,2.89025,-4106.75,7432.3,-16697.4
1.232e+08,111.892,0,2.55503,20025.4,-2576.59,-16406.5
1.23208e+08,12.4975,0,2.85115,-835.726,1659.57,-27001.3
1.23395e+08,52.731,0,2.41637,5125.46,1873.33,-19066.6
1.23696e+08,51.0423,2,2.58835,1381.08,-10591.8,-26837.8
1.23913e+08,2.87757,1,3.00272,-49.0233,706.155,-28819.7
1.24036e+08,16.1774,1,2.40587,-1211.08,2041.33,-26286.4
1.24289e+08,151.862,2,2.76281,8213.83,-24841.7,-10394.3
1.24313e+08,3.215,0,2.98158,91.832,712.254,-28922.2
1.24317e+08,48.9159,2,2.49188,-6320.22,-7225.59,-24741.4
1.24551e+08,72.2913,1,2.63226,-8575.49,-1683.2,-16314.5
1.2457e+08,8.78374,2,3.05957,1228.62,507.423,-27613.9
1.25109e+08,166.93,1,2.64591,-12644.2,13310.4,1230.12
1.2519e+08,30.4733,0,2.39139,5086.55,2151.59,-25386.8
0,30.4511,0,2.45367,0,0,0
1.25315e+08,44.166,1,2.4274,4362.3,6988.63,-24327.3
1.25391e+08,3.64704,2,2.73896,-157.023,447.616,-28266.9
1.25403e+08,75.5525,0,2.37097,4816.46,5442.89,-14573.5
1.25455e+08,108.298,2,2.74579,-3878.52,4685.59,-23352
1.25459e+08,61.6909,0,2.87099,369.517,10212.5,-20847.2
1.2549e+08,135.837,0,3.03159,-15530.9,-23215.2,-23987.2
1.2583e+08,59.4842,0,2.6489,-4297.25,-11717.4,-27455.4
1.25872e+08,78.8188,2,2.58126,-6913.51,-5546.79,-14720.3
1.26396e+08,14.9362,2,2.52698,361.675,-3137.95,-29697.2
1.26425e+08,36.946,2,2.81535,-5406.77,-5509.41,-27356.6
1.26484e+08,38.8179,2,2.52304,-627.246,7643.27,-26022.3
1.26715e+08,30.3484,1,2.9192,4444.35,-2319.12,-25859.9
1.26856e+08,52.3091,0,2.43304,9509.61,295.865,-23031.9
1.27234e+08,19.1695,1,3.02063,-1013.07,3711.44,-27469.2
1.27342e+08,74.0497,2,2.78854,4357.73,14159.9,-24258.1
1.27515e+08,19.6507,0,2.82014,2575.07,2044.96,-26248.9
1.27606e+08,11.7863,0,2.40252,1157.6,-1496.89,-27175
1.27782e+08,44.6359,0,2.41753,2392.72,-6654.73,-22531.2
1.28042e+08,58.4944,2,2.92964,-12197,-1900.99,-29431.6
1.28102e+08,136.125,2,2.97419,-17466.1,-10395.4,-8734.65
1.2812e+08,52.249,1,2.74966,-6516.44,-4829.47,-21396
1.28741e+08,7.96355,2,2.81624,-222.61,586.987,-27343.7
1.29671e+08,43.1141,1,2.49407,2705.95,4440.28,-21321.1
1.3007e+08,17.0617,2,2.3679,-1191.44,-3488.42,-29356.2
0,17.1666,2,2.89562,0,0,0
1.30485e+08,111.054,2,2.66887,21734,-3246.78,-20795.2
1.30524e+08,5.11578,1,2.78448,-26.5365,770.029,-28017.2
0,5.12154,1,2.67903,0,0,0
1.30614e+08,55.3593,0,2.42685,11589.6,-1991.93,-28135.8
1.30902e+08,118.218,2,2.80724,-4668.91,-18280.2,-12562.5
1.30973e+08,25.1686,2,2.67021,-2730.19,-1267.96,-24448.2
1.31078e+08,112.699,2,2.51455,20273.7,-8161.01,-19364.6
1.32127e+08,68.928,1,3.02941,5618.97,5729.9,-16819.8
1.32525e+08,16.5137,2,2.99105,-3371.75,-566.607,-29857.4
1.32584e+08,139.9,1,2.52745,15546.3,-3392.38,-3981.9
1.32655e+08,22.2457,1,2.96265,-3259.22,3022.46,-27149.7
0,22.1658,1,2.84234,0,0,0
1.33161e+08,29.2805,1,2.69705,4421.81,3174.49,-25882.2
1.33161e+08,39.9302,2,2.80719,-375.148,-1818.24,-20640.5
1.332e+08,89.6897,1,2.96411,-8608.07,5669.21,-13067.9
1.3322e+08,21.8624,1,2.44098,1407.67,-2096.75,-25017.8
1.33372e+08,83.7238,2,2.53779,-7132.96,-6039.43,-13776.7
1.33377e+08,98.1681,0,2.84245,4577.85,-8119.36,-10423.4
1.33439e+08,18.7951,2,3.02157,-2623.37,-1694.59,-26341.2
1.33466e+08,102.602,1,2.5188,4743.95,15386.6,-14251.9
1.33603e+08,21.6767,1,2.43219,-1588.51,2714.3,-25418.1
0,21.6848,1,2.48172,0,0,0
1.33818e+08,11.7835,1,3.01787,-1391.74,2133.03,-28495.5
1.33857e+08,194.238,1,2.88732,29249.8,-9754.39,-2233.44
1.34275e+08,3.58605,1,2.64998,-44.0887,840.509,-28687.1
1.34588e+08,31.4775,2,2.9279,3606.67,-3893.34,-24864.2
1.34796e+08,7.38298,1,2.47392,-816.173,1295.76,-28236.8
1.34976e+08,65.6784,0,2.66236,-1656.53,-11087.7,-20725.5
1.35457e+08,180.697,0,2.74909,27017.3,-13237.8,-5485.61
1.35632e+08,7.93978,1,2.88399,703.361,-1224.72,-28184.5
1.35677e+08,295.619,2,2.82866,-6762.55,10946.5,-17147
1.35692e+08,21.1664,1,2.36768,2640.57,732.609,-25329.6
1.35777e+08,15.9555,1,2.78824,668.26,-1406.56,-25903.5
1.35793e+08,77.1902,1,2.71853,-13068.6,-5279.14,-20667.1
1.35812e+08,80.9186,1,2.55529,-17147.5,361.697,-29278.1
1.35869e+08,229.278,2,2.57143,-23001.1,29085.4,2257.03
1.35944e+08,220.959,1,3.01206,17339.4,15253.3,-6243.77
1.36047e+08,24.2757,2,2.40106,-1639.11,-3113.07,-28433.3
1.36167e+08,2.82055,0,2.62707,507.014,-458.915,-28981.2
0,3.10226,2,2.78258,0,0,0
1.36611e+08,132.72,1,3.00664,-12.9479,13593.9,-4569.43
1.36792e+08,132.4,2,2.8541,-15615.9,-562.958,-19066.5
1.36812e+08,16.7528,1,2.72678,1505.14,-1126.41,-25927.8
1.36886e+08,65.4236,2,2.88741,11273.2,3143.78,-21738.5
1.3689e+08,11.3492,1,2.50229,906.032,1248.92,-26971.5
1.36919e+08,22.7884,0,2.922,-3652.46,-2489.62,-27186.2
1.36967e+08,130.749,1,2.6284,-10185.2,25762.3,-28269.7
1.36969e+08,25.5066,0,2.9284,2223.74,-4851.39,-29758.8
1.36998e+08,209.174,1,2.7823,-21841.2,12976.9,-11316.2
1.37015e+08,120.121,0,2.77662,18910,15302.8,-21673.8
1.37017e+08,18.1327,2,2.99427,-2269.08,1892.26,-26488.3
1.37201e+08,49.6996,1,2.59518,-6889.92,4023.15,-21955.9
1.37458e+08,74.0158,1,2.84477,-6441.48,5755.38,-15850.5
1.37566e+08,10.6596,1,2.51843,1178.95,1043.88,-27215.5
1.37918e+08,65.857,1,2.50814,12964,-809.619,-23912.3
1.38181e+08,80.4452,0,2.75883,5053.01,-16118.6,-27224.3
1.38199e+08,175.351,0,2.4705,19026.1,-8992.54,1708.29
1.38485e+08,39.139,0,2.41498,6790.64,4115.92,-26198.8
1.38507e+08,41.4131,1,2.41024,-6893.46,3864.92,-24952.4
1.38863e+08,13.6029,0,2.71299,962.566,-2706.6,-29249.9
1.39055e+08,180.89,0,2.55313,6825.26,-27099,-16576.8
1.391e+08,86.9617,2,2.74691,-16154.2,5310.8,-22026
1.3916e+08,33.5352,0,2.56799,-4962.3,-4987.67,-28536.9
1.39314e+08,33.6959,0,2.87897,4518.18,-2001.6,-24134.8
1.39828e+08,16.6108,2,2.84332,-3029.89,-162.398,-27015.7
1.40014e+08,156.615,2,2.56942,-6350.31,20711.3,-3905.51
1.40054e+08,3.65159,2,2.48514,-799.893,-73.4945,-28588.6
1.4075e+08,45.6384,2,2.92622,8296.76,2659.07,-25013.6
1.40812e+08,49.0635,1,2.42655,-10383.3,1116.88,-28294.2
1.40844e+08,9.68356,2,2.52673,1590.84,-983.232,-28030.4
1.41142e+08,11.8864,0,2.85679,2160.79,791.707,-27662.2
1.41267e+08,44.956,2,2.38915,-7154.01,-6215.49,-27193.8
1.41345e+08,13.555,2,2.42066,-2540.23,-1480.01,-28548.4
1.41368e+08,139.807,2,2.4652,-9157.76,-11014.8,-2957.31
1.4143e+08,33.3185,0,2.61111,601.647,-2174.6,-22197.4
1.41573e+08,26.7947,2,2.75324,-3657.73,-4451.94,-28982
1.41855e+08,160.649,1,2.74122,-2447.47,18640.3,-691.703
1.41937e+08,47.0526,0,2.49368,-3840.44,-5578.4,-21608
1.41956e+08,57.4576,2,2.5992,-9252.27,715.613,-20962.1
1.42007e+08,162.97,2,2.72316,22192.6,1156.68,-2712.89
1.42071e+08,114.709,1,2.4005,-4832.08,-16380.9,-11646.5
1.42124e+08,66.0992,1,2.93188,-4388.66,13017,-26409.5
1.42195e+08,13.8349,2,2.4038,-1759.39,707.553,-26588.6
1.42274e+08,13.738,0,2.97526,2102.6,-682.327,-26895.5
1.42346e+08,29.2724,2,2.68362,-1792.22,-1082.54,-23020.6
1.42512e+08,37.57,1,2.62778,-5559.39,5725.22,-27965.3
1.42642e+08,14.3771,1,3.04509,-2263.92,1982.83,-28056
1.43175e+08,35.7536,0,2.52802,3416.14,-723,-22105.9
1.43207e+08,96.8737,2,2.47196,-12894.8,-15784.8,-25977.7
1.44157e+08,51.4069,2,2.92311,-163.471,-7940.47,-21481
1.44235e+08,145.567,1,3.06032,-16733.4,5263.85,-3920.95
1.44389e+08,88.8904,0,2.65894,9015.79,-9642.81,-15466.4
1.44591e+08,105.494,2,2.51413,-7646.9,7348.15,-23726.7
1.44759e+08,56.2702,2,2.50279,5405.53,9353.33,-24035.7
1.45309e+08,15.677,1,2.67476,592.874,1721.56,-26052.2
1.45345e+08,101.504,1,2.6231,7298.78,7828.98,-10300.5
1.45373e+08,228.795,1,2.46828,-28153.9,26175.6,629.296
1.4609e+08,143.726,0,2.49147,-24419.4,17540.1,-24807
1.46317e+08,182.229,2,2.61266,-29019.6,-24070.9,-27626.8
1.46368e+08,145.355,0,2.53186,17406.1,-16973.7,-9987.91
1.46385e+08,147.833,2,2.96703,-14353.7,-7423.15,-20636.7
1.46734e+08,107.135,1,2.50623,15138.7,4635.81,-12648.2
1.46986e+08,26.1526,1,2.83794,-5477.75,-48.8712,-27808.8
1.47272e+08,52.6863,0,2.58854,8117.92,-4720.8,-22758.4
1.47619e+08,71.4564,0,2.57916,3720.81,-9760.28,-20492.7
1.47655e+08,3.66365,2,2.50077,-289.602,-785.63,-28650.2
0,3.72991,2,2.96298,0,0,0
0,3.67646,2,2.67704,0,0,0
1.48382e+08,106.152,2,2.9795,-7870.09,12683.8,-12582.6
1.48407e+08,33.8564,1,2.38602,-6998.2,1251.55,-27524.3
1.48431e+08,120.13,2,2.67103,-504.05,-24416.3,-21817.5
1.48434e+08,90.5818,2,2.41377,15280.2,-5167.8,-18509.3
1.48709e+08,33.1495,0,2.63784,2243.04,6592.07,-29908.8
1.48791e+08,100.32,2,2.55201,16427.7,11360.6,-21981.5
1.48968e+08,51.6816,1,2.68895,-4147.66,-242.834,-18795.3
1.48995e+08,76.2081,2,2.69201,-3247.94,6456.26,-14511.8
1.49012e+08,12.0335,2,2.78071,-1460.63,-1039.22,-26980.4
1.49076e+08,3.65445,0,2.43783,-468.165,-111.076,-28294.6
1.49229e+08,154.765,0,2.80401,-7665.19,-25306.4,-9886.44
1.49366e+08,34.4086,0,2.40545,1024.36,-7164.87,-27858.7
1.4971e+08,58.0936,0,2.60197,1813.98,-1571.44,-16818.5
1.50345e+08,40.8301,1,2.7791,-3145.27,-1788.2,-21044.6
1.50574e+08,97.8176,2,3.02057,10342.3,11960.5,-15893.8
1.50813e+08,14.3347,1,2.67071,-1670.05,-788.743,-26447.5
1.5085e+08,11.742,1,2.50716,2245.47,1043.91,-29254.5
1.5087e+08,82.5404,0,2.84525,12469.9,6639.56,-24943.2
1.50923e+08,109.875,1,2.74757,725.152,20300.7,-17610.8
1.50993e+08,125.995,2,3.02258,-21366.8,-15601.6,-27707.1
1.51151e+08,166.779,0,3.02116,-5052.87,-24855.1,-4848.31
1.51263e+08,327.754,1,2.7676,-9713.75,17221.8,22763.4
1.51294e+08,41.4923,2,2.92614,-7041.93,341.544,-23665.9
1.51329e+08,3.61337,1,2.76762,616.888,-170.142,-28526.7
1.51573e+08,104.854,1,2.66692,-6988.11,-4834.48,-8431.24
1.51597e+08,41.9684,0,2.59193,4027.64,7722.02,-26872.5
1.51734e+08,319.539,0,2.93551,419.14,-8216.2,-13893.6
1.52057e+08,27.4364,2,3.01636,4584.83,-549.286,-25446.3
1.52127e+08,17.1796,0,2.67978,1633.15,-3293.93,-29146.1
1.52431e+08,191.173,2,2.93111,-19864.2,21273.2,-1259.6
1.52493e+08,109.543,0,2.64164,-11970.7,-6419.04,-10241.9
1.52617e+08,11.948,2,2.78916,390.608,-2528.23,-28455.9
1.53262e+08,83.8897,2,2.72501,17069.1,-4267.35,-27139.2
1.53607e+08,2.22575,2,2.92555,-361.754,-273.743,-28568
1.53773e+08,35.7894,1,2.89629,4591.96,-5104.67,-25963.6
1.54059e+08,22.404,0,2.55482,2119.16,4271.54,-28468.6
1.54103e+08,145.106,1,2.92797,-12278.5,-7281.71,-1949.86
1.54174e+08,98.1654,2,2.74475,-19737.6,-5536.14,-25561.6
1.5457e+08,26.7082,0,2.72511,-4720.17,807.314,-25999
1.5498e+08,4.46517,0,2.49488,368.04,-830.957,-28432.6
1.55029e+08,1.66854,2,2.64913,-412.163,-135.054,-28798.9
1.55597e+08,59.9145,1,2.98857,-2095.3,3011.8,-16830.9
1.55831e+08,113.124,1,2.57809,20202.7,3176.09,-16527.2
1.5597e+08,88.5652,0,2.38964,-717.954,5428.14,-10929.2
1.56079e+08,13.92,1,3.00513,494.403,1993.46,-28631.7
1.56153e+08,7.32343,0,2.5534,1223.55,-1035.65,-28584.4
1.56218e+08,99.5938,0,2.37337,-14490.2,-3625.72,-14069.4
1.56513e+08,36.2058,0,2.50673,-2913.51,7049.78,-29439.2
1.56918e+08,33.379,0,2.8928,5235.98,-3601.71,-25771.7
1.57382e+08,15.1525,2,2.68137,1774.36,-1178.74,-26471.5
1.57561e+08,73.5115,0,2.39271,-11312.1,9969.45,-25191.5
1.57734e+08,6.89557,0,2.97806,354.959,-566.173,-27536.2
1.57834e+08,2.73205,1,2.37198,199.632,478.954,-28536.8
0,3.09154,2,2.49756,0,0,0
0,2.65751,1,2.78176,0,0,0
0,2.67135,1,3.06035,0,0,0
1.57868e+08,18.1648,0,3.02996,3116.6,1411.16,-27006.3
1.57882e+08,34.565,0,2.5055,5802.01,-27.1488,-24302.3
1.58742e+08,50.813,0,2.69705,148.025,1058.22,-29187.1
1.58856e+08,31.5135,1,2.39563,-5490.59,-2492.12,-25934.4
1.59065e+08,74.9235,1,2.59212,3619.48,13038.7,-20528.4
1.5918e+08,0.849091,1,2.68406,63.2469,238.528,-28829.6
1.59453e+08,95.7398,0,2.70884,-6955.48,-11488.6,-13826.5
1.5966e+08,89.9164,1,2.64566,-8200.49,10115.2,-14971.3
1.59682e+08,26.5427,0,2.60614,1325.62,614.202,-23415.2
1.59803e+08,34.8801,1,2.99472,-3749.53,6411.63,-28740.7
1.59922e+08,102.97,2,2.87822,-16580.1,13232.8,-24690.8
1.60294e+08,27.1664,0,2.88245,-4186.7,-3720.39,-27984.7
1.60303e+08,23.5274,1,2.38616,4282.93,1961.56,-27227.8
1.60568e+08,6.27764,1,2.5804,373.102,-471.646,-27713.7
0,6.00258,0,2.65497,0,0,0
1.60615e+08,102.478,1,2.84587,-4876.78,-11724.7,-11468.8
1.6069e+08,65.845,2,2.85843,-9345.26,-3923.86,-19382.4
1.6073e+08,5.99662,2,3.0359,-1275.22,-38.2352,-28500.7
1.60883e+08,54.4929,1,2.69034,-6306.34,-9554.76,-28270.6
1.61061e+08,3.77906,2,2.8487,-303.663,-768.54,-28549.1
1.61326e+08,31.0855,0,2.82405,3439.11,24.7107,-23240.9
1.6232e+08,26.9643,2,2.67335,-2563.42,-5047.8,-27711.4
1.62365e+08,217.126,2,2.75902,-23107.6,-17164.2,4070.27
1.6252e+08,7.53942,1,2.78704,-842.668,1277.39,-28172.5
1.62781e+08,30.3626,1,2.92685,519.423,6296.16,-27523.1
1.62859e+08,47.0109,1,2.62963,8690.04,-4641.64,-28218.2
1.62956e+08,93.615,2,3.02613,4969.98,-17374.5,-21110.8
1.63331e+08,172.488,0,2.50588,16699.7,14510.4,185.907
1.63415e+08,195.808,2,2.80292,18044.5,20962.8,1592.25
1.63565e+08,150.955,1,2.59848,-21891.9,23268,-27456.8
1.6372e+08,69.0365,1,2.37615,1350.33,5873.72,-15513.4
1.64002e+08,39.2129,2,2.60682,-6395.94,3573.29,-24989.6
1.64006e+08,139.11,2,2.95579,-10745.3,-8875.83,-3178.46
1.64065e+08,141.989,1,2.76433,-585.595,28520.6,-19657
1.64109e+08,119.042,0,2.68889,12724.4,14682.5,-12911.2
1.64134e+08,62.4632,2,2.98891,-5554.82,-2217.06,-17168.7
1.642e+08,12.3537,0,2.77647,2687.5,-447.09,-28954.5
1.64264e+08,199.66,0,2.74597,-17827,18077,4620.93
1.64422e+08,55.7063,0,2.96488,727.679,-9914.47,-22685.3
1.64473e+08,48.3757,0,2.85421,4176.73,8335.28,-24651.1
1.64531e+08,56.1279,1,3.02312,-1874.14,6936.12,-19850.9
1.64783e+08,35.7593,2,2.53345,4950.68,-738.612,-23193.2
1.64995e+08,116.292,0,2.66481,14237.3,10526.1,-11806.8
1.65293e+08,85.0723,2,2.79749,-9498.26,-11035.2,-18307.1
1.65789e+08,50.03,1,2.6895,6721.9,-6188.65,-23681.5
1.66035e+08,91.9217,0,2.96589,2009.4,678.975,-22831.8
1.66226e+08,59.8693,2,2.93443,-9584.71,-8249.23,-29467.1
1.66267e+08,44.0386,0,2.8286,-5922.72,1775.27,-27318
1.66354e+08,29.8144,0,2.59992,-5158.81,3446.92,-28093
1.66363e+08,225.207,0,2.77374,13835.2,12942.1,14584.1
1.67202e+08,65.8531,1,2.67317,5187.39,-9197.54,-19917.1
1.67268e+08,76.3382,1,3.01768,-5433.45,2013.89,-13942.2
1.67471e+08,25.3623,0,2.68003,5403.11,-734.05,-28695.6
1.67751e+08,46.7145,1,2.69812,7348.93,427.199,-26194.4
1.67761e+08,89.5328,0,2.69763,18822,2168.84,-28176.5
1.67908e+08,57.362,1,2.53292,-8815.46,6850.5,-23921.1
1.6843e+08,146.389,1,2.70256,-15267.9,20921.6,-11946.9
1.68621e+08,105.78,0,2.37775,13520.8,4747.8,-11593.9
1.68686e+08,12.9891,0,2.8127,806.201,-2499.35,-29760.6
1.68715e+08,121.234,2,2.69825,981.875,-21318.4,-14683.7
1.68795e+08,13.5907,2,2.45287,-2533.98,-669.314,-27529.5
1.68879e+08,153.252,2,2.59394,-12939.8,-22403.7,-9345.7
1.68906e+08,6.38992,0,2.98614,298.264,-1065.87,-28045.1
1.69018e+08,62.4289,2,3.0502,-4352.52,12236.8,-27779.5
1.6907e+08,18.1586,1,2.65066,-2395.16,-2983.44,-28843.3
1.69414e+08,28.7758,0,2.3692,69.7095,-1949.03,-23100.5
1.69886e+08,28.6974,1,2.47154,-2275.91,4315.32,-25111.3
1.69908e+08,77.0658,1,2.41189,281.372,-11532.9,-17374.4
1.70594e+08,5.613,2,2.47733,-1018.94,-754.984,-28827
0,5.57864,2,2.78935,0,0,0
1.70749e+08,82.0547,0,2.43626,9658.9,9369.04,-17801.9
1.71118e+08,139.118,2,2.95263,6085.16,-10578.9,-2324.2
1.71201e+08,3.00569,0,2.76466,363.825,456.057,-28479.6
1.71588e+08,97.9104,1,2.64278,3633.8,9658.92,-10921.9
1.71781e+08,20.3986,2,2.40239,2220.78,-1955.21,-25689.7
1.72037e+08,89.6438,2,2.40373,-9518.66,-11867.3,-17409.5
1.72038e+08,115.719,1,2.48954,-23394.2,-7319.99,-29248.2
1.72439e+08,258.28,1,2.51483,-3011.95,25834.4,19183.9
1.72739e+08,81.2466,2,3.03395,1867.47,-6099.81,-13053.7
1.73131e+08,70.0018,0,2.72176,14237.6,342.88,-24680.4
1.73421e+08,57.5104,2,2.95904,-6019.13,-10013.2,-25446.1
1.73515e+08,25.1913,1,2.73675,-1194.13,5201.89,-29690.4
1.73548e+08,84.4262,0,2.70018,15354,9201.3,-29234.6
1.73633e+08,85.7313,0,2.70916,-3794.6,17649.9,-27892.7
1.73913e+08,16.0381,1,3.0243,3049.39,-754.338,-27750.7
1.73949e+08,12.2633,0,2.79552,2268.73,-1425.62,-28681.4
1.74129e+08,72.2555,2,2.90739,-2140.44,-9620.15,-17250.3
1.74297e+08,106.089,0,2.36315,9285.62,-16330.1,-17307.1
1.74395e+08,7.37836,0,3.03153,889.054,-1307.97,-29267.5
1.74402e+08,58.3407,0,2.98451,6337.08,1495.33,-19138.6
1.7446e+08,31.8872,0,2.4241,-4016.3,-1570.53,-23721.1
1.74476e+08,145.508,0,2.50898,10516.2,-23709.5,-12228
1.74693e+08,16.4473,1,2.80468,2508.92,2437.38,-28496.4
1.74915e+08,144.338,1,2.70279,-11341.5,18692.2,-7609.86
1.75085e+08,1.94462,2,2.74675,-310.04,-139.333,-28527.3
1.75358e+08,161.345,0,2.79521,23555.3,23526.6,-21855.1
1.75806e+08,99.8594,2,2.69811,-12100.6,-12861.8,-17267.9
1.75925e+08,21.8847,1,2.67822,-2698.03,1066.72,-25205.5
1.76068e+08,82.7378,2,2.8848,-1056.62,-13469.9,-17833.5
1.76217e+08,24.3223,0,2.38999,4001.39,3350.06,-28914.7
1.76373e+08,167.31,2,2.65463,20547.8,-22809.1,-11385.1
1.76447e+08,33.9332,2,2.95236,-6098.76,3700.82,-28628.6
1.76679e+08,37.8775,0,2.93057,3321.35,-4878.37,-23456.4
1.76695e+08,109.887,1,2.63828,1322.53,7869.86,-7073.88
1.76721e+08,67.6461,2,2.63101,-2184.79,-13037.3,-23280.2
1.76751e+08,181.655,2,2.84385,-6221.21,-9063.16,-21423.3
1.769e+08,12.2937,0,2.82274,-9.76662,-2168.14,-27439.7
1.77107e+08,33.8709,2,2.8623,-2102.24,5109.74,-24460.5
1.77243e+08,105.82,2,2.57284,9913.04,16143.2,-17091.6
1.77382e+08,79.5577,1,2.78648,-12786,-3100.26,-18447.5
1.77946e+08,100.645,0,2.63431,-155.763,6624.82,-8686.51
1.77981e+08,28.4945,0,3.00925,453.846,2024.51,-23235
1.78448e+08,72.8032,2,2.47009,-1778.85,-15166.3,-26309.5
1.78606e+08,326.454,0,2.55856,-11199.2,-17824,26355.5
1.78635e+08,47.2789,2,2.44988,-2276.59,-9827,-28107.8
1.78769e+08,11.0903,1,2.57631,-1699.54,720.577,-27334.5
1.79062e+08,128.268,1,2.66002,-18893.8,18631.6,-23182.8
1.79298e+08,42.1624,2,3.00158,8693.06,1087.2,-29765.1
1.79393e+08,19.886,2,2.43487,-1264.41,-2686.89,-25784.9
1.79494e+08,77.222,0,2.37894,-3382.7,-13061.6,-19629.4
1.79586e+08,285.923,0,2.86833,-15803.3,-13703.7,732.53
1.80305e+08,26.7841,1,2.52745,-2257.92,2789,-24412.2
1.80372e+08,106.046,0,3.05673,12847.1,18063.2,-26712.1
1.80651e+08,102.77,2,2.97673,1756.53,-18520.5,-17834
1.80686e+08,33.3342,2,2.92256,2533.31,-6022.07,-26252.2
1.80846e+08,1.52301,0,2.82346,370.041,-82.1873,-28688.4
1.809e+08,207.344,1,2.39255,-26112.7,-16908.4,-12412.7
1.80992e+08,57.5624,2,3.04085,-11762.2,-2901.56,-29299
1.80994e+08,78.3836,0,2.68175,14410.8,5767.45,-22943.9
1.81081e+08,126.264,1,3.01999,25476.1,7092.98,-29633.8
1.81342e+08,26.8611,2,2.68693,-4611.14,-3019.62,-27310.9
1.81519e+08,69.5187,1,2.77211,-11005.4,-2941.36,-19629.8
1.81672e+08,55.9743,1,2.98196,-2103.07,6796.24,-19452.8
1.8176e+08,159.755,0,2.5684,-7160.34,-28862.1,-12939.8
1.81782e+08,43.0971,2,2.85216,122.733,-2419.21,-20097.3
1.81909e+08,19.2943,0,2.52048,1256.47,-2566.66,-25880.4
1.82004e+08,13.7766,0,3.05303,2534.93,-1272.67,-27924.2
1.8204e+08,147.873,2,2.99091,21313.1,-8438.32,-13284.5
1.82265e+08,23.8003,0,2.63827,-592.033,3487.94,-25305
1.8252e+08,97.2598,0,2.70076,12218.4,-115.534,-12331.9
1.82701e+08,5.36754,2,2.70908,-809.38,734.972,-29144.5
1.82771e+08,113.556,1,2.61843,-22870.4,-4730.81,-23223.5
1.83257e+08,40.9065,0,2.9787,4661.63,-7143.94,-27499.8
1.83439e+08,131.812,0,2.64925,21937,-16873.1,-25394.5
1.83796e+08,4.20531,2,2.79572,-925.668,129.666,-28739.4
1.84041e+08,21.0262,0,2.76549,-2192.39,-2829.28,-26305.3
1.84066e+08,31.4186,0,2.7409,5689.61,-2155.13,-26049
1.8412e+08,67.6637,1,2.77457,-6998.87,-5641.03,-17813.1
1.84219e+08,149.555,2,2.54662,-4641.5,27780.3,-14591.9
1.84243e+08,62.7729,2,2.57372,3409.89,-9513.36,-20175.7
1.84262e+08,8.2825,2,2.54578,-876.368,84.5694,-27303.5
1.84357e+08,54.2491,1,2.46335,-5909.63,1003.8,-19027.9
1.84459e+08,30.7324,0,2.86955,-2583.79,-1809.87,-23265.3
1.84645e+08,37.8647,0,2.53438,7619.17,2679.37,-28060.2
1.84716e+08,101.717,2,2.65325,4071.46,-21066.7,-26804.4
1.84842e+08,11.526,0,2.46209,-96.8786,844.769,-26568.3
1.85178e+08,145.004,0,2.73824,25578.7,-14996.9,-21152.8
1.85208e+08,157.86,0,3.00075,20657.4,-9386.93,-4725.49
1.85265e+08,136.59,2,2.86364,-27405.7,6417.93,-22981.7
1.85462e+08,171.008,1,2.38028,-10019.1,7471.26,5119.02
1.85579e+08,19.4913,2,2.52832,530.991,-4058.18,-29886.1
1.85867e+08,47.7498,1,2.62458,4944.79,8771.25,-27790.4
1.85869e+08,126.944,0,2.69139,-1950.12,-12410.1,-5218.39
1.86133e+08,119.682,2,2.77288,-10186.7,20198,-17820.2
1.86226e+08,117.727,0,2.798,24372.2,-3559.52,-25368.7
1.86312e+08,137.964,2,3.00009,-27260.6,2227.58,-22908
1.86408e+08,34.3003,0,2.38684,4130.52,4821.4,-25246.9
1.86688e+08,140.823,0,2.52937,1911.16,2696.82,-25525
1.86981e+08,54.7858,2,2.79769,-10548.8,-4802.91,-28664.4
1.87061e+08,5.84987,2,2.914,-437.06,-1200.34,-28456.6
1.87173e+08,33.0758,0,2.38781,-3665.98,5399.35,-26360.2
1.87527e+08,24.7409,1,2.88187,4681.18,2131.84,-27938.9
1.87775e+08,49.8067,1,2.37828,-10156.3,3146.04,-28909
1.87899e+08,69.2554,0,2.60519,-2247.08,-14335.4,-27074.8
1.87936e+08,183.749,0,3.02181,-4781.98,13116.1,7014.04
1.88202e+08,36.2599,2,2.78165,-7359.39,2087.71,-29576.6
1.88569e+08,27.7049,2,2.82813,-4673.88,717.667,-25373.5
1.88741e+08,39.8994,0,2.68117,5255.23,-246.996,-22234.6
1.88815e+08,0.585342,0,2.61512,219.525,50.9466,-28961.3
0,0.6238,0,2.96346,0,0,0
1.88979e+08,15.9715,1,2.40807,-2076.53,2620.6,-27998.4
1.89034e+08,71.6027,2,2.63386,12668.2,-2381.65,-21024.6
1.89277e+08,42.5701,0,2.94687,3276.49,-2371.37,-20842.1
1.89322e+08,30.3443,1,2.85494,468.489,-5371.25,-25582.2
1.89687e+08,129.989,1,2.86541,15211.3,8097.7,-7674.99
1.90073e+08,35.9451,1,2.72045,61.4734,3627.22,-22159.7
1.90088e+08,124.556,2,2.49645,15933.4,-3372.66,-8158.61
1.90475e+08,137.82,0,2.81802,8746.84,10760.3,-3384.46
1.90487e+08,155.923,1,2.65602,6793.24,28031.3,-12914.5
1.90537e+08,42.4453,2,2.89471,-2969.75,6355.14,-23398.8
1.90682e+08,15.3822,2,2.90692,-652.592,-681.527,-25763.3
1.91064e+08,31.4056,2,2.73133,-543.771,4814.54,-24409.9
1.91117e+08,241.388,1,2.71009,5514.92,-24036.5,15589.4
1.91379e+08,66.1784,2,2.94079,-6973.48,-5400.94,-18081.7
1.91536e+08,126.791,0,2.62801,-18466.4,16300,-18580.5
1.91603e+08,23.3986,2,2.83058,-3730.97,1497.25,-25988.2
1.91736e+08,44.2591,0,2.70512,-5275.98,-7022.43,-25782
1.91881e+08,27.1086,1,2.70524,-2162.74,2662.37,-24223.4
1.91907e+08,13.3401,0,2.78084,-429.832,-1923.23,-26835.2
1.92463e+08,200.968,0,2.75021,-24605,-28988,-10386.1
1.9252e+08,18.3837,2,2.77847,-1806.32,-1883.07,-25921.9
1.92569e+08,24.5572,1,2.67645,885.588,5170.94,-28654.9
1.92622e+08,241.819,0,2.48648,21575.4,-8050.86,16816.4
1.92684e+08,34.733,1,2.58581,4824.4,5582.76,-28262.8
1.92686e+08,3.93212,1,2.39527,-880.628,72.5414,-28690.6
1.92868e+08,16.6152,2,2.46831,3115.83,-498.394,-27325.2
1.93111e+08,24.2396,1,2.91131,-46.261,5140.65,-29555.8
1.93202e+08,254.269,1,2.78353,-15802.4,26682.6,-10362.5
1.933e+08,23.6527,0,2.38993,-246.423,-4916.38,-27784.4
1.93406e+08,6.69513,0,2.95026,1225.62,630.706,-29461.6
1.93467e+08,84.0957,0,2.8296,-13714.5,591.929,-17819.2
1.93768e+08,35.8538,0,2.92255,4308.66,1968.47,-22962.5
1.93892e+08,52.5237,1,2.79359,953.207,7015.37,-20308.9
1.93944e+08,110.274,2,2.8683,17494.2,-8179.27,-16056.6
1.93956e+08,47.9515,1,2.5679,-2284.84,2818.7,-19354.7
1.94067e+08,15.6321,0,2.67139,3323.09,-144.068,-28123.5
1.94533e+08,16.6146,2,2.51098,-2834.14,-2118.87,-29508.9
1.95025e+08,123.489,1,2.65565,-7219.58,-765.122,-3832.3
1.95039e+08,76.2013,1,3.02882,-1755.03,3039.65,-28101.8
1.95144e+08,6.15336,2,2.47694,-801.498,4.88651,-27826
1.95435e+08,75.8266,0,2.66,-2030.02,15264.2,-24523.1
1.95449e+08,93.2138,0,2.52287,11412,-1953.76,-12857.3
1.95869e+08,63.7228,1,2.44135,-3482.34,13118.4,-29556.4
1.96148e+08,57.3625,0,2.59823,-10242.1,-1313.44,-22612.3
1.96809e+08,97.6966,2,2.64776,10311.3,8150.49,-13211.2
1.97111e+08,21.0208,0,3.00433,277.877,4423.77,-28970.8
1.97441e+08,5.01308,2,2.64748,-5.58637,-649.297,-27961.3
1.97609e+08,75.0863,0,2.70065,5892.27,-11026.9,-19083.4
1.98276e+08,33.8082,2,2.4833,-3273.71,-6009.37,-26448.6
1.98297e+08,116.316,0,2.60806,20571.1,12568.9,-23688.9
1.99035e+08,19.2674,1,2.37676,-4035.68,-848.633,-29177
1.99883e+08,15.6462,0,2.6414,2607.18,-364.049,-26730.5
1.99953e+08,26.8144,1,2.8618,4677.34,401.219,-25809.8
2.00168e+08,95.9099,1,2.68225,-5098.35,3968.34,-9683.49
2.0024e+08,52.895,0,2.84332,2942.35,7138.38,-20826
2.00325e+08,90.9809,2,2.75391,17291.4,5348.09,-22874.6
2.00326e+08,39.566,0,2.90904,6049.98,836.862,-23126.1
2.0049e+08,50.3976,2,2.81506,-9731.82,-4329.53,-29608.4
2.00864e+08,121.283,1,2.73202,-22459.9,12224.6,-29814.7
2.01078e+08,72.7307,0,2.97353,-8950.47,-3569.56,-17071.6
2.01271e+08,5.9923,1,2.63121,-1134.64,102.817,-28222.6
2.01749e+08,38.4878,1,2.56379,-7890.64,322.342,-26679.5
2.0218e+08,54.3056,0,2.92242,2272.99,-1867.35,-26588.9
2.02183e+08,101.307,0,3.04263,-7228.39,-19124,-23184.7
2.03058e+08,12.1796,1,2.5011,180.565,2626.2,-28439.4
2.03242e+08,26.9121,0,2.64595,1950.69,5320.29,-27966.2
2.03367e+08,63.3451,0,2.36361,1611.27,-10096.8,-20167.1
2.03547e+08,128.837,2,3.05053,-8953.43,-10021.1,-5420.37
2.03766e+08,47.6135,0,2.47693,-762.155,5694.9,-20570.1
2.04001e+08,69.5097,1,2.50602,11677.1,4564.12,-21162.7
2.0427e+08,56.5344,1,2.73483,-1294.8,11931.4,-28180.3
2.04359e+08,105.957,1,2.85379,-9871.05,-1829.65,-8963.17
2.0445e+08,102.594,0,2.52213,14949.7,-11633.8,-18150.9
2.0458e+08,79.0515,2,2.73553,-6891.44,-12705.3,-20407.3
2.04817e+08,4.91045,2,2.736,-981.199,-367.147,-28511
2.0485e+08,99.0591,2,2.96904,12192.6,-4310.75,-12607.8
2.053e+08,7.43115,2,2.43325,-1500.23,-678.151,-28563.8
2.05802e+08,44.6215,2,2.93057,-5770.18,-5126.63,-24758.6
2.05963e+08,17.2431,1,2.58094,1869.8,3163.41,-28394.5
2.06105e+08,154.222,1,2.87246,24968.6,-10967.7,-11428.6
2.06163e+08,73.9831,1,2.44944,-8577.54,8339.23,-18660.9
2.06369e+08,6.8647,0,2.42258,375.904,884.39,-27758.4
2.06746e+08,76.4088,2,2.85128,7885.41,-13526.2,-25134.6
2.07084e+08,115.143,0,3.05554,13070.3,12788.2,-13078.6
2.07253e+08,150.468,0,2.55492,8862.71,9419.55,221.078
2.07524e+08,11.2097,2,2.8148,-946.039,-2004.65,-27800
2.07565e+08,46.6162,2,2.73464,2172.61,7319.67,-22758.9
2.0796e+08,17.5968,0,2.6101,3142.36,1793.68,-27744.9
2.08065e+08,29.3868,2,2.8348,-4741.77,-2190.84,-25408.6
2.08384e+08,217.168,2,2.64073,-1647.01,-27788.8,7587.61
2.08449e+08,128.187,1,2.82315,-10298.4,20395.1,-14415.9
2.08988e+08,46.2623,1,2.72531,9465.6,-1431.41,-27122.4
2.09236e+08,161.094,1,2.54705,24985.2,18472.3,-14876.8
2.09265e+08,40.4426,2,2.51448,3461.53,-4058.36,-22145.4
2.09382e+08,21.7989,0,2.792,493.952,-1108.45,-28821.6
2.09792e+08,74.2101,1,2.68015,11477.9,-9195.05,-23659.9
2.09878e+08,203.908,0,2.99106,5246.39,-9582.23,-22420
2.09934e+08,19.6381,2,2.92308,2188.15,198.983,-25376.2
2.10389e+08,154.995,0,2.62048,14128.5,11091.6,-27220.5
2.10557e+08,10.6779,2,2.51942,2175.81,-235.887,-28321.3
2.10583e+08,172.441,1,2.66779,17552.5,-28973.2,-15867
2.1087e+08,2.15543,1,2.98521,-93.3568,490.516,-29107.1
2.11387e+08,128.781,2,2.62447,20668,-900.502,-13951.7
2.11435e+08,13.8623,2,2.81289,1505.15,-2302.21,-27718
2.11536e+08,193.357,1,3.01486,-23301.7,-22655.2,-4703.3
2.11652e+08,200.434,1,2.88316,11306.9,12234.7,9821.03
2.11824e+08,84.906,0,2.88618,3481.48,-11650,-15780.5
2.11996e+08,39.1982,0,2.98205,990.141,8197.04,-29082.2
2.1238e+08,27.7773,2,2.59573,-4260.51,-4164.16,-28681.5
2.12413e+08,138.426,1,2.53478,-17442.1,1031.66,-5338.7
2.12898e+08,146.761,1,2.92655,-5904.49,13001.9,-1529.74
2.13142e+08,9.22512,1,2.40982,-743.372,1640.89,-29861.2
2.13365e+08,84.0049,2,2.82059,-2638.39,-4907.59,-12055.5
2.13411e+08,10.9408,1,2.81698,-1683.71,-1450.59,-28209.9
2.13447e+08,113.7,0,2.88478,19495.8,10075.5,-19219.3
2.13603e+08,148.357,2,2.854,-20490.2,3304.74,-5546.27
2.13631e+08,89.576,2,3.03301,-4676.87,-4345.45,-11182
2.1403e+08,42.6455,0,2.97617,-369.796,5530.35,-21841.7
2.14139e+08,24.3147,1,2.94229,-1459.89,31.132,-24895.2
2.14467e+08,4.14446,1,2.51996,-896.689,268.08,-28846.2
2.14504e+08,54.9617,2,2.79557,3470.92,-11041.8,-27613.3
2.14582e+08,1.24681,1,2.96614,114.719,216.102,-28699.3
0,1.14302,1,3.04118,0,0,0
2.15274e+08,137.726,0,2.77812,17496.9,5165.21,-6262.8
2.15359e+08,14.8698,1,3.02062,-1730.64,57.0727,-26226.2
2.15383e+08,199.523,0,2.55073,19998.1,14137.2,5497.84
2.16089e+08,40.2922,0,2.69212,3493.58,5925.66,-23787.4
2.16119e+08,36.9882,2,3.0556,2492.72,-1493.93,-21674.7
2.16129e+08,123.166,1,2.87253,689.14,-21457.7,-14479.5
2.16771e+08,111.933,0,2.82607,14940,12141.2,-15195.3
2.16867e+08,80.7722,2,2.85706,12983,1234.24,-18036.4
2.1733e+08,2.9631,2,2.50861,-449.777,-564.738,-28697.7
2.17356e+08,15.9052,2,2.76781,-694.497,-2600.61,-26731.8
2.17405e+08,24.5171,2,2.92809,2288.23,-309.179,-24287.5
2.17564e+08,42.0528,2,2.55329,4082.15,-7928.96,-29793.9
2.17746e+08,55.1757,2,3.01928,-1191.33,-9850.03,-22765.4
2.1782e+08,27.2055,0,2.85905,29.7605,-5097.94,-26234.2
2.18048e+08,18.4131,2,2.39137,-2082.49,1744.79,-26045.5
2.18167e+08,137.632,1,2.81019,4118.95,28622.8,-26505.9
2.18192e+08,119.154,2,3.01184,-17694.1,-42.3065,-11234.3
2.18649e+08,299.504,1,2.72221,775.373,-1126.04,-29906.4
2.1894e+08,163.206,0,2.8068,17543.2,-10916.3,-1379.83
2.18998e+08,190.43,0,2.46858,29886,-10529.1,-3949.47
2.19195e+08,12.1658,1,2.36818,-1109.38,-710.469,-26654.8
2.19225e+08,197.104,0,2.94719,-8264.39,-6993.31,-22811
2.19282e+08,3.7138,0,2.73864,447.889,-364.235,-28263.8
2.1953e+08,12.9276,0,2.54378,2257.32,-145.094,-27201.6
2.19806e+08,63.3521,0,2.89246,-6875.8,-6959.18,-27086.1
2.19814e+08,251.45,1,2.93253,-23731,19786.4,13943
2.19951e+08,170.153,2,2.90248,16282.5,-13362,22.3906
2.20175e+08,166.398,2,2.59467,4707.46,-4566.52,-18851.8
2.20681e+08,151.87,2,2.65869,9853.34,19751.7,-5712.08
2.20804e+08,73.7051,1,2.84345,-7154.18,144.684,-19863.3
2.21082e+08,112.478,1,2.85062,-10161.8,2661.06,-7645.34
2.2113e+08,3.74487,1,2.40336,-290.871,656.466,-28355.4
0,3.82584,1,2.84971,0,0,0
2.21191e+08,18.4635,2,3.00474,-3101.55,-1645.53,-27088.4
2.21328e+08,228.898,1,2.81497,13166.6,-14924.6,-3750.54
2.21815e+08,186.2,1,2.48606,-22025.5,29371.1,-14378.1
2.22161e+08,96.8513,0,2.4582,-9260.61,15144.9,-18678.2
2.22332e+08,133.743,0,2.9167,19101.9,13597,-13343.1
2.22536e+08,22.6406,1,3.03946,756.127,1295.79,-24344
2.23023e+08,46.5644,1,2.98584,-7290.93,-6398.54,-27688.3
2.23156e+08,64.962,0,2.88288,-10222,-2321.39,-20183.8
2.23204e+08,193.691,1,2.8812,-14270.5,10213.5,7488.7
2.23269e+08,81.8938,2,2.72527,-11017.6,11567.3,-22342
2.23562e+08,148.274,0,2.69197,20965.8,-7466.46,-6824.67
2.24823e+08,53.5066,0,2.4427,-6280.01,-6564.34,-22147.8
2.24872e+08,36.4998,2,2.62719,6433.42,-4063.03,-27468
2.25062e+08,24.2671,0,3.05575,5152.78,234.923,-28310.8
2.25072e+08,161.589,0,2.53632,21359.5,2467.37,-2285.97
2.2514e+08,128.092,2,2.6867,8474.35,-473.101,-3221.72
2.252e+08,100.618,0,2.76422,11127.6,-3672.05,-11153
2.25365e+08,66.5672,0,2.90547,-2303.3,-7598.99,-17356.7
2.25603e+08,17.2656,0,2.49969,-390.994,3645.15,-28530.1
2.25857e+08,36.8906,0,2.57059,5900.12,-3836.84,-25315.1
2.26196e+08,62.5008,2,2.91443,-4115.69,-9780.63,-21019
2.26215e+08,25.2208,2,2.58709,-4536.97,623.83,-26102.2
2.26783e+08,130.896,0,2.79895,5352.38,25610.5,-20213.9
2.26883e+08,88.0636,0,2.87418,5521.74,-16702,-23040.6
2.27037e+08,15.4246,1,2.91823,-694.991,-1574.28,-26166.2
2.27818e+08,46.619,1,2.54514,-5898.65,7763.97,-26942.2
2.27907e+08,13.6751,1,2.59491,-1262,2638.71,-29493.8
2.27987e+08,165.401,2,2.86094,398.441,-13753.6,3083.77
2.28109e+08,43.4749,2,2.8262,-5323.08,-6903.67,-25809.6
2.2811e+08,102.998,1,2.66191,-7626.36,9843.03,-10985.3
2.28578e+08,46.7976,2,2.66744,-3153.46,-4184.09,-20434.2
2.28989e+08,3.9606,2,2.79299,690.898,-370.824,-28532.5
2.29073e+08,90.215,2,2.89519,1804.87,12502.6,-14804.2
2.29184e+08,5.80897,1,2.74519,-857.805,372.175,-27984.5
2.29204e+08,31.5163,0,2.81386,5186.3,817.219,-24675.3
2.29348e+08,55.3434,2,2.71339,-4052.94,-10947.6,-27443.8
2.2937e+08,81.9133,2,2.65952,11236.2,1516.67,-15867.5
2.29447e+08,200.251,1,2.89692,-14580.9,24105.9,-20169.2
2.29604e+08,135.319,0,2.86326,27452,4706.47,-22719
2.29645e+08,74.3851,0,2.50189,-1780.58,5837.27,-14363.3
2.29717e+08,16.9562,1,2.81015,-2678.02,1780.04,-27158.4
2.29809e+08,44.3986,0,2.53107,-1614.11,-3746.29,-20421.2
2.30134e+08,66.2937,2,2.93083,-8807,6955.52,-20607.6
2.30904e+08,53.4373,2,2.71043,-4310.35,2028.72,-18640
2.31062e+08,221.1,1,2.86573,28613.6,-9864.22,5088.68
2.31224e+08,68.9633,1,2.37171,-12428.6,-4657.21,-22911.4
2.31565e+08,148.09,2,2.65113,11064.1,-29182.6,-26325.2
2.3222e+08,78.5992,0,2.75677,-15047.1,4949.2,-24274
2.32247e+08,175.287,0,2.83875,17683.4,-16706.3,-1144.11
2.32294e+08,47.3093,2,3.03376,1396.83,5798.78,-20977.4
2.32591e+08,145.305,2,2.44419,-23964.3,-15066.8,-16776
2.32822e+08,62.5257,0,2.73512,7699.57,4617.44,-19146.1
2.33171e+08,8.7741,1,2.61354,-537.081,1743.46,-28151.1
2.33296e+08,68.0569,2,2.89191,-3568.43,-10012.3,-19218.6
2.3372e+08,2.90631,2,2.46407,-529.685,-340.004,-29221.2
0,2.92381,2,2.849,0,0,0
2.34228e+08,46.1776,2,2.64228,2274.2,-5165.68,-20883.5
2.34444e+08,65.5131,0,2.63634,10461.6,-166.802,-19708.9
2.34493e+08,46.9616,0,2.42854,8781.11,-3105.43,-25142.2
2.3464e+08,121.911,0,2.9176,4869.87,-8976.33,-5384.13
2.34821e+08,8.80752,2,2.80678,1703.8,-715.09,-28509.9
2.35034e+08,322.312,1,3.00205,16085.3,-8799.42,12441
2.35259e+08,31.4063,2,2.66186,-3520.82,-3325.14,-24243.5
2.35398e+08,117.399,1,2.50651,9183.12,12979.1,-9768.11
2.35499e+08,89.21,0,2.86706,14298.2,10630.5,-22768.8
2.35511e+08,35.9479,0,2.76305,3760.25,450.893,-22260.1
2.35638e+08,27.0176,1,2.43584,2060.78,-3516.22,-24898.9
2.35814e+08,53.7183,2,2.9677,7873.6,160.656,-20835.8
2.35985e+08,12.335,1,2.98482,1617.1,-1921.47,-28521.1
2.36383e+08,53.162,1,2.85889,-4621.3,-7833.34,-24332.7
2.36404e+08,85.0438,0,2.44467,8642.64,-4168.38,-13605.5
2.36639e+08,40.797,1,2.66157,539.123,3117.67,-20812.3
2.37167e+08,143.742,2,2.98337,-17502.9,-19944.3,-14408.3
2.37387e+08,119.539,2,2.52979,-20703.3,6774.85,-15983.3
2.37727e+08,342.178,1,2.77422,-9165.52,-7267.26,-9975.32
2.3776e+08,24.122,1,2.85521,964.193,3696.97,-25436
2.37974e+08,133.478,1,3.02358,19074.9,170.957,-8436.75
2.38063e+08,38.9637,0,2.65901,2620.53,-1981.66,-21287.6
2.38325e+08,96.6921,2,2.72038,-6894.4,-18766.1,-24489.9
2.3843e+08,94.7783,0,3.03915,9070.76,9276.62,-13780.6
2.38668e+08,215.625,0,2.9981,18.7379,29636.7,5274.67
2.38791e+08,10.2407,2,2.66992,-1548.89,396.256,-27358.6
2.38883e+08,87.8066,0,2.38662,-1801.64,13837.1,-16590.6
2.38892e+08,12.7359,2,2.69526,-2480.45,-1156.24,-28666.1
2.39039e+08,45.6189,0,2.39824,4705.65,6894.45,-26204.9
2.39048e+08,14.2235,0,2.60253,-1666.67,-2119.29,-27622.7
2.39191e+08,27.2662,1,3.03721,-1434.61,4707.02,-25844.5
2.39233e+08,12.5225,1,2.51927,102.16,2626.68,-28127.2
2.39609e+08,65.4865,0,2.86838,7721.88,-7875.4,-20556.5
2.39641e+08,228.755,1,2.77523,-22171.1,-4436.72,13641.4
2.39661e+08,176.249,0,2.67246,17908.2,28253.6,-12531.2
2.40623e+08,38.5528,2,2.94671,-6527.32,-4393.98,-26609.8
2.40664e+08,216.89,1,2.81819,22087.8,19062,789.854
2.412e+08,82.5654,2,3.02488,5487.03,-6509.1,-13768.1
2.41419e+08,71.1681,1,2.58,-3692.66,11698.8,-20046.1
2.41559e+08,92.882,0,2.59134,14831.1,6801.73,-17837.6
2.41731e+08,175.817,0,2.54999,22831.9,-26708.3,-16577.6
2.41879e+08,7.37135,0,2.92791,1391.28,704.229,-28422.2
2.41891e+08,61.0288,0,2.73052,5927.26,880.217,-17439.1
2.41971e+08,80.3192,0,2.80584,-1170.14,9324.22,-14808.7
2.42316e+08,30.0071,1,2.84233,6208.71,-381.859,-27984.4
2.42419e+08,112.233,0,2.85888,14797.3,-14106.6,-17001.9
2.42622e+08,1.09556,1,2.68057,-188.262,138.534,-28670.6
2.42638e+08,16.4887,2,2.95768,3142.08,-62.3275,-27452.3
2.42652e+08,41.6872,1,2.77538,3362.02,-2540.63,-21179.7
2.4279e+08,114.785,2,2.76201,19038.8,-3571.33,-14421.6
2.42801e+08,60.9848,0,3.03153,10851.8,-3152.79,-22750.9
2.43167e+08,16.912,1,2.80542,1167.31,-1929.13,-26173.7
2.43335e+08,119.073,1,3.0471,12356.8,20695.2,-22329.1
2.43449e+08,41.7879,2,2.64581,-6134.54,4762.1,-24639.4
2.43644e+08,80.9013,0,2.60796,7948.77,13606,-22097.5
2.43715e+08,111.913,2,2.5935,15515.6,11124.6,-15022.1
2.44024e+08,14.3912,1,2.38063,-1177.18,2931.44,-28677.7
2.44228e+08,46.1977,0,2.48144,455.602,-5298.53,-20641
2.44347e+08,61.4537,0,3.04425,2989.73,7419.21,-18743.1
2.44406e+08,33.0895,1,2.45016,6817.32,1274.79,-28012.3
2.44414e+08,52.1626,0,2.82353,4108.01,-7587.88,-22047.4
2.44562e+08,64.8255,0,2.95445,-959.104,7817.55,-24565.7
2.44928e+08,199.573,0,3.05798,1984.18,20540.8,7447.84
2.44984e+08,80.633,0,2.615,-9575.77,12289.8,-22078.9
2.45109e+08,168.318,2,2.52247,18406.8,-5396.97,1099.43
2.45191e+08,36.5651,2,2.49235,-3488.87,-6261.76,-25704.5
2.4543e+08,46.0751,1,3.03351,665.794,7520.81,-22783
2.45738e+08,5.71574,1,2.64347,460.8,-802.768,-28160.8
2.45773e+08,7.71585,2,2.73577,1274.25,-913.421,-28327.6
2.45959e+08,59.6019,2,2.72957,-4961.52,-8374.29,-20804
2.46297e+08,121.966,2,2.60912,4781.96,-6689.25,-4472.19
2.46329e+08,0.159176,1,2.80567,-42.9246,123.151,-28838.9
0,0.253874,1,2.21955,0,0,0
0,0.150265,1,3.62829,0,0,0
0,0.152754,1,2.67763,0,0,0
0,0.160817,1,2.67624,0,0,0
0,0.15458,1,3.99541,0,0,0
0,0.15022,1,2.12494,0,0,0
0,0.223386,1,2.86722,0,0,0
0,0.184851,1,2.7547,0,0,0
0,0.149567,1,2.23976,0,0,0
2.46445e+08,15.2531,2,2.97719,1096.75,-2600.71,-27230.4
2.46473e+08,44.2543,2,2.86043,635.131,-8766.01,-25552.4
2.46713e+08,271.575,2,2.83635,21580.2,-21856.8,19287.6
2.46803e+08,23.4923,0,2.83728,3656.58,170.398,-25441.7
2.46931e+08,87.8343,1,2.85857,-10358,-6829.59,-15194.2
2.47306e+08,84.0507,0,2.90327,13913.8,10663.5,-26293.5
2.47377e+08,140.764,2,2.63396,21665.6,15174.6,-15474.5
2.47681e+08,147.311,0,2.46999,551.505,27379.5,-13978.5
2.4777e+08,18.2572,2,2.96854,-1180.64,2413.47,-26142
2.48125e+08,0.685579,0,2.63232,31.3421,136.716,-28756.7
0,0.68161,0,2.76389,0,0,0
0,0.728204,0,2.86497,0,0,0
2.48242e+08,57.0579,0,2.84277,3165.57,10205.8,-23324.8
2.48645e+08,63.0247,0,2.53421,-3648.54,-7103.4,-18194.2
2.48894e+08,66.3953,1,2.76485,2110.83,-8017.67,-17637.7
2.49003e+08,44.8779,2,2.73267,792.786,-9479.65,-29417.7
2.49016e+08,74.4361,1,2.80423,-14348,-4769.75,-24703.4
2.49039e+08,169.257,0,2.83062,-28484.3,-18438.6,-18346.7
2.49117e+08,89.916,0,2.65758,7598.97,5173.44,-12228
2.4928e+08,0.293309,0,3.96041,82.6298,-37.408,-28818.3
2.49387e+08,115.55,2,2.9466,-230.571,-4854.67,-5101
2.49746e+08,14.0195,1,2.84499,-99.6971,2526.28,-27186.5
