#class tools::wcsv::ntuple
#title time
#separator 44
#vector_separator 59
#column double eventID
#column double t(ns)
#column double copynumber
#column double energy(eV)
#column double x(mm)
#column double y(mm)
#column double z(mm)
30392,91.9907,0,2.43152,12770.4,14189.3,-24923.8
36639,117.507,1,2.82773,3103.14,22341.7,-18530.7
220550,142.997,1,2.55609,-25655.7,-12204.8,-18510
349675,29.3337,0,2.96457,5356.91,2585.32,-27014.9
353629,78.4504,0,2.94824,-15869.4,-82.1398,-24570.5
583215,17.4303,0,3.05046,-1499.19,-694.376,-25630.1
603112,5.32913,1,2.96148,-961.882,-445.433,-28417.9
653082,54.6893,0,2.4545,8511.96,-6718.76,-24590.7
695919,35.4362,0,2.83587,3555.41,6233.59,-26586.6
746455,127.863,2,2.54422,2409.65,9578.84,-12716.4
758817,43.1829,2,2.60434,-5968.29,6210.2,-25890.3
766486,29.2566,0,2.49564,-2877.14,-3497.37,-24696.1
893848,23.9222,2,2.9048,-3752.34,-3469.31,-28446.6
1.12904e+06,38.9676,0,2.83424,-3476.21,6981.93,-27039.7
1.42972e+06,42.0201,1,2.3622,-4078.88,8052.92,-29833.3
1.59242e+06,24.4654,2,2.41002,-14.0917,2423.96,-24234.8
1.75081e+06,2.73546,0,2.50955,218.49,-488.851,-28779.5
1.76153e+06,145.092,2,2.38272,-26916.6,-14241.1,-24269.5
1.78764e+06,18.3991,2,2.7016,467.527,-2738.11,-26742.1
0,18.5105,2,2.75733,0,0,0
1.888e+06,74.0401,0,2.87183,330.793,-3507.36,-26417.3
1.98233e+06,70.5899,0,2.45348,1891.6,-14829.3,-27498.4
2.05514e+06,40.8581,2,3.01149,-1136.88,-4835.92,-22197
2.076e+06,10.6397,2,2.56415,-1341.75,207.821,-27078.7
2.14284e+06,140.949,0,3.021,27187,9048.97,-21409.6
2.15754e+06,156.69,1,2.42378,-29937.7,12473.9,-22466.2
2.36675e+06,38.7477,2,3.02252,-6024.73,-4976.96,-25994.2
2.43763e+06,65.4151,0,2.41964,4564.98,10787.3,-21340.6
2.44588e+06,34.8695,1,2.92964,4866.55,5237.94,-27092.8
2.7454e+06,62.3288,2,2.87701,-1540.88,-5565.39,-16999
2.91364e+06,17.9139,2,2.43188,-3223.28,1895.85,-28143.1
2.95052e+06,179.938,0,2.85859,23856.5,-4485,-1306.32
3.04451e+06,62.251,0,2.75999,8450.72,-6613.16,-21202.4
3.06632e+06,9.85372,2,2.72738,-395.381,-1125.23,-27085.8
0,9.80442,2,2.44973,0,0,0
3.21352e+06,27.4483,1,2.94654,-4180.73,3996.36,-28115.9
3.23734e+06,51.2924,2,2.54039,488.61,8217.4,-21841.7
3.37834e+06,24.6888,0,2.81178,297.325,-4226.11,-25774.7
3.51049e+06,11.0768,1,2.83986,1301.6,-1171.22,-27352.7
3.54914e+06,7.20006,2,2.69444,-1058.19,-473.14,-27780.9
3.60064e+06,30.7468,2,2.86957,-6117.14,-1978.46,-27897
3.60128e+06,174.947,1,2.93477,-12319.9,-8610.15,4653.54
3.63432e+06,77.1735,2,2.8083,14508.2,-6544.76,-25497.4
3.68266e+06,45.7806,1,2.91115,-2501.25,3985.02,-20398.4
3.80196e+06,5.26402,0,2.65634,-71.8073,-1137.44,-28666.3
0,5.22761,0,2.48208,0,0,0
3.86421e+06,21.1458,1,2.68023,-335.87,3172.41,-25599.9
3.87554e+06,44.7171,2,2.9581,-1074.35,8603.88,-25360.1
4.07743e+06,133.766,1,2.77187,-2212.05,20148.4,-9231.54
4.08863e+06,29.2437,0,2.54511,2569.49,4964.07,-26066.6
4.10749e+06,22.0691,0,2.45077,4112.11,688.188,-26535.6
4.13113e+06,35.2295,0,2.74721,6797.91,-2483.44,-26571
4.15665e+06,27.2949,0,2.45839,-2947.73,-567.86,-23887.1
4.18654e+06,57.716,0,2.80118,2346.35,-7202.85,-19337.2
4.22192e+06,38.65,1,2.38844,7584.6,-2837.59,-28014.5
4.24887e+06,2.27335,0,2.79837,583.796,-132.011,-28798.5
0,2.33561,0,2.86185,0,0,0
0,2.26745,0,2.75065,0,0,0
4.2547e+06,10.8497,1,2.44791,-417.906,1956.8,-27574.2
4.37438e+06,117.187,2,2.36572,13041.4,-21080.1,-27825.6
4.55028e+06,76.6145,1,2.44595,15195.9,5292.51,-29115.5
4.5506e+06,152.158,0,2.96201,-20623.3,-10854,-7070.39
4.5853e+06,11.1663,1,2.9267,-365.623,2269.51,-28034.7
4.71241e+06,85.3449,2,2.46922,-15903.9,-8701.89,-29640
4.72185e+06,46.7406,0,3.02638,2309.39,-6617.66,-22180.7
4.79869e+06,9.86094,0,2.61354,2169.84,168.323,-28968.1
4.87121e+06,10.5217,1,2.68808,-1847.61,1221.81,-29523.5
4.89882e+06,109.336,1,2.8552,-11560.7,-1997.64,-8899.72
4.9458e+06,66.9462,0,3.04247,4000.98,-12828.3,-24500.6
5.04485e+06,68.8866,0,2.93359,-5267.33,-13190.4,-26052.4
5.39422e+06,79.6628,0,2.94061,14796.7,-5039.91,-22698.4
5.80478e+06,100.816,2,2.83281,-4686.3,-7218.83,-9459.34
6.00948e+06,97.6604,1,2.4247,-19388.3,6292.03,-24787.6
6.01284e+06,83.2816,1,2.75429,11778.3,60.5824,-28953.7
6.04643e+06,55.7883,0,2.60398,3227.78,-8036.18,-20602
6.32602e+06,115.979,0,3.02595,3808.1,-23816,-25658.3
6.32873e+06,69.7034,1,2.78511,-9657.88,6947.25,-20079.3
6.38112e+06,61.5833,2,2.70707,9625.12,8360.46,-27749.7
6.41676e+06,128.183,1,2.82911,-15136.7,20812.5,-20406
6.60792e+06,173.782,0,2.86348,-20491.7,8856.14,-7.81
6.8828e+06,158.403,0,3.03149,19505.1,-16821.4,-7854.87
6.92658e+06,3.78124,2,2.67526,247.726,-375.031,-28237.9
6.95221e+06,7.88979,1,2.78716,-220.429,819.033,-27407.8
6.99945e+06,88.994,2,2.58596,-7198.09,-1061.01,-11292.8
7.08458e+06,25.727,2,3.01334,-1112.2,-4777.47,-26239.9
7.30355e+06,34.6087,1,2.55191,-1829.6,-6074.93,-25104.9
7.31171e+06,55.9969,1,2.57961,-8517.8,1007.06,-20637.9
7.34741e+06,0.981898,1,2.95348,-270.473,133.095,-28766.1
0,1.59106,0,2.56441,0,0,0
0,1.04394,1,2.37114,0,0,0
7.47922e+06,74.8159,0,2.68425,9519.12,-5381.19,-17407.1
7.85445e+06,8.92059,1,2.42178,-1673.99,-917.843,-28553.8
7.87291e+06,9.39481,2,2.98731,249.776,-1870.4,-29536.1
7.89153e+06,58.244,1,2.38931,1475.41,9791.89,-21244.4
8.20311e+06,65.7341,2,2.54968,-12062.9,-5799.89,-24769.1
8.21957e+06,135.701,1,2.38117,-6225.48,25197,-16369.3
8.27821e+06,176.254,2,2.75896,25201.4,9107.43,-3797.45
8.35594e+06,120.967,1,2.64636,-6170.54,24810.8,-26941.2
8.39032e+06,14.6853,2,2.93302,-686.549,-2492.38,-27028.3
8.80055e+06,257.243,2,2.83469,-27646.1,8494.23,6130.96
8.85564e+06,9.93251,2,2.75692,320.505,-1979.34,-29677.8
8.8715e+06,88.1357,1,2.86366,3449.96,13069.3,-15984.3
8.8895e+06,183.079,2,2.82208,21872.2,-14801.2,-25016.5
8.91108e+06,34.5074,0,2.55054,6251.44,1824.24,-25482.1
8.97514e+06,75.9284,2,2.71794,8352.68,1385,-15268
8.98968e+06,83.6515,0,2.63985,11694.7,-3850.39,-16032.3
9.11535e+06,32.1159,1,3.06033,-5364.08,2931.52,-26137.9
9.16316e+06,28.4841,1,2.52338,-3741.48,2205.08,-24656.2
9.28581e+06,27.8527,2,2.85103,2913.66,-5169.02,-28260
9.5892e+06,33.2809,1,2.75086,-256.155,254.773,-28881.6
9.70012e+06,197.671,0,2.82437,28744.3,-29505.8,-23228.4
9.77452e+06,143.764,1,2.43973,-14997.1,24014.9,-17774.2
9.99002e+06,90.1086,1,2.81828,4150.38,-9243.17,-12866.8
1.00118e+07,53.8463,1,3.03543,-8697.69,3446.86,-22395.8
1.00179e+07,250.837,0,2.64206,12060.9,-28263,14196
1.01884e+07,7.84291,0,3.00902,1679.23,297.911,-28638.7
1.024e+07,41.8251,1,2.39532,-4147.51,-3485.99,-21986.7
1.03042e+07,6.36314,1,2.57961,-257.519,1183.94,-28089.9
0,6.37279,1,2.4929,0,0,0
1.03317e+07,81.1391,2,2.50068,5375.43,13316.4,-20483.2
1.0407e+07,3.93032,0,2.50628,-297.434,746.461,-28710.6
1.04139e+07,39.9279,1,2.9074,1603.83,-7507.99,-26079.4
1.04517e+07,9.1368,0,2.71601,-447.721,374.488,-27015.3
1.067e+07,164.434,1,2.60899,-1921.51,20246.8,-1045.53
1.07003e+07,139.521,1,2.62991,5851.91,13012.1,-3067.31
1.07527e+07,62.3976,2,2.53353,-12987.1,1248.12,-26682.5
1.07611e+07,121.056,0,2.72053,-17527.8,17188.6,-22219.1
1.07669e+07,92.8158,1,2.9703,-6842.54,-5248.47,-11470.3
1.07877e+07,18.8474,0,2.75015,-555.615,-1987.37,-25274.9
1.09764e+07,5.41335,2,2.68687,-60.3563,1130.98,-28693.5
1.10284e+07,22.8222,1,3.0434,4661.25,-70.7213,-28060.7
1.10354e+07,9.10467,1,3.03881,132.151,646.499,-27041.2
1.10433e+07,141.815,2,3.02567,-14579.6,-18187,-10348.2
1.13265e+07,7.90146,0,2.52755,-1023.41,1199.31,-28085.2
0,7.84922,0,2.42606,0,0,0
1.13416e+07,26.4731,1,3.02713,842.157,5062.6,-26593.2
1.14532e+07,47.657,1,2.54462,-3504.82,4536.31,-20475.4
1.15284e+07,27.2501,2,2.76177,-3988.75,-4269.73,-28916.4
1.16675e+07,8.94908,2,2.86784,-367.318,-1879.98,-28384.6
1.18536e+07,140.367,0,2.53177,-24657.7,-3816.1,-13081.3
1.19041e+07,13.7356,0,2.54798,495.252,2712.37,-29864.3
1.19103e+07,39.7897,2,2.49088,-5776.33,-4936.43,-25016.6
1.20434e+07,98.579,1,2.7938,19278.6,4007.29,-22293.7
1.21923e+07,34.8366,2,2.81635,3560.09,-4924.75,-24698.7
1.22499e+07,18.8442,0,2.52428,1470.52,-2956.52,-26460.4
1.23109e+07,35.8078,2,2.64933,-7223.46,513.762,-26659.3
1.2366e+07,106.006,0,2.58534,14351.1,4368.63,-12177.8
1.24185e+07,112.922,1,2.43677,13341.6,17081.4,-18597.5
1.24635e+07,107.174,1,2.5342,-11351.4,1319.02,-9143.7
1.24955e+07,36.8508,0,2.86927,5988.22,4694.33,-27003.9
1.26289e+07,66.5151,2,2.80664,-12840.9,533.278,-23298.1
1.27093e+07,27.4901,2,2.83715,390.975,2275.86,-23469.6
1.27149e+07,50.4281,1,3.03098,-7764.42,1629.6,-21760.8
1.29216e+07,94.1771,2,2.57933,8434.33,-322.688,-10843.2
1.29382e+07,17.0361,0,2.72165,2930.19,1224.75,-27125.2
1.30482e+07,20.618,0,2.63564,104.266,-3438.77,-26105
1.32432e+07,5.75456,0,2.78324,1306.1,-768.368,-28834
1.33008e+07,21.3036,2,2.55084,3901.48,-993.071,-26771
1.33112e+07,19.7887,0,2.63922,3566.47,-2151.27,-28227.6
1.34775e+07,31.3855,1,2.90251,-1302.01,2340.9,-22734.2
1.3507e+07,28.7374,2,2.84879,-5249.74,-544.942,-25815.8
1.35748e+07,28.958,2,2.79503,-2220.12,-4579.14,-25240.1
1.37813e+07,46.9025,2,3.037,-5417.72,6859.93,-24380.4
1.38434e+07,82.2861,2,2.58875,11048.5,-5311.32,-16576.6
1.38679e+07,18.425,2,2.39113,3155.89,-287.642,-26507
1.39637e+07,22.972,1,2.48551,-66.4798,4884.63,-29717.1
1.40195e+07,10.0294,1,2.45305,1535.44,869.41,-27641.7
1.45597e+07,72.8387,0,2.75685,-4880.24,-6314.76,-15620.9
1.47815e+07,65.3268,2,2.45692,-8324.91,10853,-27614.2
1.48474e+07,16.4004,1,3.01979,-847.219,2631.53,-26614.3
1.51086e+07,46.9259,2,2.77756,-2637.8,-3721.45,-24698.8
1.52111e+07,89.2227,0,2.47479,18542.7,-3023.66,-26575.9
1.52633e+07,5.90296,0,2.97432,642.326,-909.93,-28181.5
1.53054e+07,23.5471,0,2.5058,-2496.11,-1218.79,-24757.3
1.5384e+07,36.619,1,2.63818,-537.141,5631.01,-23490.6
1.54435e+07,179.967,2,2.61895,-20524.8,-4414.93,2874.27
1.54946e+07,110.881,0,2.38115,-16765.3,12018.4,-17871.4
1.5531e+07,53.3598,1,2.47822,-10273.6,-1602.23,-24282.5
1.56051e+07,256.683,0,2.46257,15764.3,-11282,-19566.7
1.5824e+07,78.4649,2,2.56243,-2288.53,-12740,-18534.8
1.58535e+07,69.0785,1,2.53542,-4736.87,12825.2,-23390.5
1.58754e+07,141.456,2,2.77,29606,-2963.2,-27480.2
1.58942e+07,22.6617,1,2.41119,3849.53,-2260.47,-27037.3
1.58962e+07,117.746,1,2.5305,7291.06,23073.4,-22463.4
1.59626e+07,81.6421,1,2.82716,-11589.6,-2155.9,-16406.7
1.59679e+07,113.627,0,2.884,18224.1,-10725,-17710
1.61088e+07,134.824,0,2.4315,17603.5,-11382.6,-9401.31
1.61748e+07,13.2941,0,2.51084,1760.53,-2418.11,-28384.8
1.62026e+07,76.6092,1,2.62027,824.992,-6510.02,-14291.4
1.63614e+07,192.981,2,3.00135,15928.8,11589.5,3529.06
1.64853e+07,114.052,0,2.653,16223.2,-17442.4,-24982.2
1.66251e+07,132.34,1,2.75233,-26439.2,-1486.1,-20320.7
1.66649e+07,57.1437,1,2.43263,-9192.71,4966.47,-22745.8
1.67851e+07,103.756,2,2.52299,-12017.4,6775.75,-11856.8
1.68551e+07,34.4656,0,2.77654,3569.54,1889.03,-22742.9
1.69196e+07,143.888,0,2.68999,22847.2,19807.2,-25342.7
1.69478e+07,19.8705,1,2.61728,2399.15,3339.37,-27738.9
1.69976e+07,4.69687,0,2.96878,753.056,700.31,-28902.3
1.72516e+07,52.8951,0,2.56441,6421.12,-1806.3,-19779.9
1.7501e+07,43.5843,1,2.76766,-4110.43,8407.75,-28120.3
1.75313e+07,54.3139,1,2.50095,-11369.2,195.124,-26723.3
1.76042e+07,42.4903,2,3.05458,-2097.27,-7365.41,-23909.5
1.76207e+07,176.394,1,2.83653,11083.2,22293.3,-1307.27
1.76374e+07,139.878,1,3.05539,-3812.86,22695.2,-10678.9
1.76912e+07,37.9128,2,2.68016,111.194,-8102.65,-28651.6
1.78234e+07,3.98703,0,2.45572,678.162,107.693,-28244
1.80087e+07,27.6045,2,2.51579,-1339.63,-5797.12,-28916
1.80119e+07,31.2627,2,3.00549,-1941.34,-5665.32,-25984.1
1.80874e+07,18.5057,1,2.92634,2768.77,-1969.49,-27029.3
1.81963e+07,43.8225,0,2.59223,-4800.76,-6085.76,-23856.4
1.83879e+07,74.4362,2,2.72413,-8344.62,-7881.18,-18036.9
1.84059e+07,93.2354,1,2.72676,-5442.47,7654.17,-11535.7
1.84245e+07,16.9187,0,2.77491,-319.59,-2923.13,-26749.2
1.8481e+07,18.6364,1,2.94598,-1220.31,3587.27,-27952.3
1.8503e+07,161.918,0,2.61105,20688.7,3912.63,-1841.11
1.86789e+07,30.7096,2,3.00049,-1996.32,-3158.01,-23835.7
1.86803e+07,155.194,1,2.44984,-21097.3,6399.68,-4465.32
1.87399e+07,19.7132,0,2.88313,3085.48,-805.104,-25965.7
1.8749e+07,133.863,1,2.56999,25137.1,3625.72,-16347.6
1.8909e+07,114.996,1,2.85346,-22851.2,8153.39,-29546.1
1.89935e+07,100.313,1,2.91899,-9437.45,14938.8,-17237.5
1.89955e+07,70.6331,0,2.86042,4395.36,9634.22,-18428.6
1.93364e+07,4.67005,1,2.7228,-697.551,48.1526,-27790.5
0,4.87968,2,2.90767,0,0,0
1.93386e+07,180.316,0,2.72989,-3213.06,-27835.3,-25883.5
1.93727e+07,70.2407,2,2.68557,-4462.98,12209,-21852.3
1.93934e+07,26.3953,0,2.54105,3290.32,-4568.95,-28592.5
1.94842e+07,44.2673,0,2.51018,7002.61,32.444,-22560.6
1.9786e+07,40.7542,1,2.61078,1204.79,6417.52,-23437.2
1.98338e+07,9.55716,1,2.37111,902.08,604.525,-27210.5
1.9835e+07,114.931,2,2.93168,-7896.37,-21021.7,-20365.3
1.98916e+07,239.959,2,2.41609,-2324.53,-28207.5,13316.3
1.98954e+07,64.1927,0,2.85027,1381.85,-12804.5,-24624.4
2.00864e+07,139.359,1,2.51946,12837.9,26598.4,-29619.3
2.00978e+07,54.3959,1,2.95834,-6770.92,7180.93,-22938.6
2.00998e+07,52.8037,2,2.65676,-5505.33,-5628.06,-20982.2
2.02435e+07,30.8488,0,2.67791,2377.26,-4101.14,-24298.4
2.02488e+07,26.3738,1,2.858,-2809.26,775.424,-24082.7
2.02495e+07,83.6472,0,2.83119,-1780.46,-17506.9,-29448.5
2.03338e+07,212.613,1,2.38217,8850.86,-22318.5,-1355.35
2.03819e+07,166.558,2,2.70627,17881.3,15044.4,-2652.77
2.05893e+07,2.8752,2,3.03456,-66.8577,355.106,-28345.4
0,2.87214,2,2.73738,0,0,0
2.05963e+07,131.176,0,2.59752,476.769,-14227.2,-5080.34
2.0625e+07,62.687,1,2.86322,-3416.89,12296.7,-25364.4
2.06499e+07,141.137,2,2.59118,-13063.4,-14692.5,-6657.87
2.07691e+07,109.172,1,2.83534,-19475.6,-12103,-26844.6
2.0776e+07,73.8212,2,2.84282,-3131.63,7547.33,-15649.9
2.08851e+07,196.312,2,2.66922,-14758.9,-15528.6,6602.84
2.10162e+07,28.5619,0,2.52845,1344.94,4511.97,-25172.1
2.12594e+07,99.3445,0,2.81386,11787.9,11530.1,-16485.4
2.14211e+07,186.358,1,2.68963,18637.9,29689.8,-11193
2.16313e+07,18.5997,1,2.44152,-1423.08,1245.42,-25324.9
2.17459e+07,46.9101,0,2.79232,6159.57,6903.47,-25262.6
2.17574e+07,100.318,2,2.69985,-15768.6,-13144.1,-23170.9
2.19207e+07,17.9576,0,2.65122,3325.46,2012.37,-29006
2.20066e+07,90.8728,2,2.95093,-15871.6,-10703.6,-28509.2
2.20115e+07,14.3978,2,2.41956,2696.06,-592.831,-27665.4
2.20886e+07,12.0585,2,2.52196,2228.16,-14.9672,-27719.7
2.2362e+07,31.4773,1,2.44618,249.555,6611.06,-27379.1
2.23996e+07,19.6663,1,3.0315,-2701.54,3245.62,-27843.6
2.2469e+07,189.224,0,2.80164,22666.3,15706.2,-10128.7
2.25533e+07,4.03285,1,2.53823,315.389,694.654,-28321
0,4.08721,1,2.87267,0,0,0
0,4.23553,1,2.58995,0,0,0
0,4.19611,1,2.66814,0,0,0
2.26088e+07,20.9039,1,2.47488,-3380.71,2145.98,-26809.8
2.27686e+07,75.6807,0,2.71101,-3829.7,-15510.2,-27607.7
2.28817e+07,15.172,2,2.90751,-677.204,-1644.32,-26153.1
2.33025e+07,14.8104,2,2.90435,-1865.75,-1526.78,-26767.6
0,14.8421,2,3.04721,0,0,0
2.33214e+07,151.963,1,2.53419,16201.1,-5597.94,-1763.36
2.33268e+07,109.235,1,2.94197,-13112,-17003,-20991.4
2.33633e+07,10.2262,1,2.46475,494.798,2171.44,-28925.1
2.33774e+07,23.9887,2,2.82988,-2881.71,-2572.38,-25371.5
2.34084e+07,192.823,0,2.46444,20150.5,5339.56,6240.26
2.37728e+07,37.9052,1,3.0473,-7312.9,-2815.97,-27396.5
2.38659e+07,136.486,1,2.3664,18803.8,18253.9,-16819.4
2.39402e+07,69.2809,2,2.37427,-2165.23,-14378.4,-25317.3
2.4076e+07,25.1755,0,3.05176,-1573.4,-1840.62,-24156.2
2.40862e+07,17.0491,0,2.8472,-2752.96,1860.67,-27565.5
2.41154e+07,174.931,2,2.60885,-20137.5,-16353.9,-2487.73
2.41774e+07,40.8253,0,2.72316,8206.37,-1275.94,-26483.7
2.43609e+07,132.651,0,3.03279,11992,-9067.39,-5403.01
2.44379e+07,22.9248,1,2.8724,-4318.55,2199.2,-29687.1
2.44697e+07,40.9883,0,2.91922,5714.41,-978.88,-22290
2.45142e+07,70.8462,0,2.99272,9337.88,-144.542,-17138.9
2.46187e+07,117.47,2,2.50543,-21755.2,7129.75,-19530
2.47648e+07,47.7148,0,2.75629,2706.54,5375.14,-20731.3
2.4885e+07,6.41477,2,3.05504,-799.47,-1099.43,-28641.9
2.51296e+07,11.9408,0,2.59714,1980.36,-1462.23,-27955.3
2.5356e+07,61.5905,0,3.01518,-10555.4,-4283.01,-22855.6
2.55633e+07,116.93,2,2.42076,-8443.22,-10180.6,-7967.09
2.56695e+07,35.3156,2,2.75408,215.426,-522.362,-28940.7
2.58101e+07,85.842,0,2.68984,3299.31,-10729.1,-14796.2
2.59451e+07,112.474,0,2.80008,21161.6,-10898.8,-28095.8
2.60337e+07,47.2261,2,2.71119,5824.36,6863.52,-24719.4
2.60487e+07,16.9626,0,2.971,-884.312,-1937.6,-26194.7
2.61383e+07,39.151,1,2.80453,-7554.46,-1870.69,-25983
2.62508e+07,49.6802,0,2.71556,1173.86,-5320.98,-27784.3
2.62583e+07,11.0982,0,2.57834,2357.28,271.106,-28598.4
2.6391e+07,69.3109,2,2.69799,-13561,-2825.49,-24022.5
2.63972e+07,32.1861,1,2.54412,6054.22,-2868.13,-28025
2.6436e+07,18.3943,1,2.66312,-2803.65,2765.39,-29440.6
2.64859e+07,98.5843,1,2.90499,4993.18,-16298.9,-17232.1
2.65115e+07,113.486,2,2.69961,-21561.9,-9847.01,-24693.7
2.65242e+07,114.686,0,2.85948,13506,-4089.97,-9247.83
2.66405e+07,30.498,2,2.49858,-524.069,5894.21,-26233.2
2.67008e+07,36.9983,0,2.6574,6839.53,2518.24,-25769.1
2.68609e+07,21.3079,0,2.97684,-47.5395,-2483.42,-25078.3
2.68735e+07,135.315,0,2.86929,20369.7,-16182.2,-17330.2
2.70225e+07,73.8769,1,2.83719,-12365.7,-7656.25,-22801
2.70591e+07,138.684,2,2.63407,26366.5,-1406.14,-16280.6
2.71963e+07,19.4791,2,2.65867,3753.65,-933.429,-27403.8
2.72103e+07,61.6755,1,2.92074,-3212.74,7711.31,-18845.2
2.72474e+07,77.7038,2,2.97447,-9499.34,-13085,-25915.2
2.72513e+07,65.9474,2,2.68622,-5513.05,-11939.2,-23868.3
2.72736e+07,86.7364,0,3.02235,-1118.71,16990.1,-22594
2.73509e+07,183.932,0,2.57199,3959.68,22014.6,2980.67
2.73852e+07,22.7464,0,2.84378,2014.86,-1643.93,-24776.6
2.74535e+07,66.2568,0,2.85373,-1829.68,-8423.53,-17755.7
2.75024e+07,93.4967,2,2.74504,-7513.54,8110.76,-12508.4
2.75036e+07,14.6979,1,2.76515,-473.07,-1748.81,-26221.9
2.75389e+07,38.9015,2,2.46405,-1600.05,-6745.83,-24909.4
2.75492e+07,116.428,0,2.94292,19246.9,-5775.18,-14510
2.75708e+07,70.3822,1,2.49394,7317.73,-6408.64,-17657.1
2.75977e+07,106.564,2,2.97889,17678.8,-11605.2,-21533.7
2.76034e+07,275.681,1,2.8667,23058.8,-8039.08,23694.6
2.76781e+07,7.12092,1,2.43211,581.889,738.965,-27792.9
2.78395e+07,22.9324,2,2.51719,-4590.24,-567.286,-27097.5
2.79381e+07,8.2982,1,2.67003,987.169,426.837,-27623.4
2.80217e+07,93.6332,0,2.94299,8396.65,2948.19,-11335
2.81701e+07,25.7714,2,2.93817,3348.27,-3335.94,-26100.6
2.82304e+07,20.9837,2,2.54292,2392.05,3559.27,-27895.3
2.83314e+07,64.438,1,2.44292,2484.08,13230.9,-26113.9
2.83812e+07,128.185,0,2.95271,4277.11,-2258.94,-29686.1
2.86351e+07,93.6346,2,2.66841,2280.4,-1786.32,-22830
2.86366e+07,63.8003,0,2.90745,7614.45,-2357.98,-17989.2
2.878e+07,47.6052,2,2.85205,5301.72,-6521.03,-23092.9
2.88419e+07,32.8508,0,2.52047,2239.21,-1928.11,-22503.3
2.88675e+07,12.388,2,3.03703,1456.44,-2170.87,-29537.2
0,12.3341,2,2.96417,0,0,0
2.88687e+07,130.369,1,3.0095,-9654.63,9914.84,-5226.52
2.89881e+07,4.80752,0,2.89341,868.388,-268.239,-28282
2.9014e+07,43.5126,1,2.67155,-7840.29,4949.71,-27566.3
2.90326e+07,72.9692,1,2.94157,2496.77,9784.28,-17261.3
2.91134e+07,21.7038,2,2.79356,1240.71,1974.96,-24958.3
2.9288e+07,54.845,0,2.97031,8541.41,-2686.06,-21548.8
2.93005e+07,110.858,1,2.5025,-10224.9,-13622,-12872.5
2.93241e+07,152.105,2,2.62195,5989.37,-10727.1,-300.371
2.9461e+07,82.9885,1,2.52479,-14929.5,8794.34,-26605.2
2.94679e+07,21.0201,0,2.96734,-2261.71,-712.913,-25232.6
2.96381e+07,107.486,2,2.80529,19247.2,6681.54,-19183.5
2.97147e+07,35.0627,0,2.48267,-1311.35,-2871.72,-22116.2
2.97949e+07,93.6729,1,2.92189,-3832.3,10088.3,-12579.7
2.99257e+07,18.5488,2,2.74889,3189.05,1869.13,-27764.1
