#class tools::wcsv::ntuple
#title time
#separator 44
#vector_separator 59
#column double eventID
#column double t(ns)
#column double copynumber
#column double energy(eV)
#column double x(mm)
#column double y(mm)
#column double z(mm)
273424,30.7906,2,2.64485,2748.97,2332.77,-23505
301064,113.172,2,2.83309,-10378,-8112.2,-9001.42
1.11794e+06,50.241,1,2.77477,-10450.5,-1754,-28042.6
1.75571e+06,136.928,0,2.8082,-5967.88,26578.6,-19482
1.87421e+06,7.00366,1,2.37566,1160.55,-817.558,-28565.9
2.25556e+06,124.977,0,2.68122,-236.742,18920.1,-10473.5
2.49165e+06,70.512,2,2.68437,-3385.43,-9373.75,-17714.9
2.51049e+06,287.203,1,2.52796,17983.5,11658.7,23400.8
2.53166e+06,41.0751,1,2.71145,-2693.01,-7072.8,-24684.1
2.64442e+06,55.5607,2,2.39185,-4155.23,5788.45,-19477.9
0,55.8291,0,2.60035,0,0,0
2.78303e+06,0.753965,2,2.48424,-110.362,-166.703,-28703.6
3.22957e+06,83.5971,0,2.92805,-13999.7,3459.41,-18905
3.23164e+06,3.81968,0,2.43318,771.864,-432.9,-29042.9
3.80028e+06,67.9535,1,2.45744,1893.08,-8133.48,-25978.8
3.8297e+06,20.5589,0,2.69061,1610.07,-876.071,-24848.4
3.84082e+06,194.606,2,2.85752,-16724.8,-20239.3,2547.61
3.85149e+06,165.645,1,2.85435,-24524.2,16719.5,-10496.6
4.00046e+06,69.7675,2,2.88505,-7809.11,350.275,-16406.5
4.264e+06,175.683,2,2.45453,18392.6,-14309,-86.3879
4.67083e+06,239.07,0,3.00644,-7926.94,-12592,17705.1
4.83718e+06,44.4194,0,2.57837,6455.65,6881.62,-28740
4.83944e+06,76.3147,0,3.05032,11003.8,-2618.5,-17439.7
4.84209e+06,11.7244,1,2.78103,-2003.37,1042.92,-27645.1
4.86935e+06,128.988,2,2.9613,-19603.3,-18801.7,-28962.6
5.06707e+06,9.88236,0,2.47668,680.79,999.195,-27079.4
5.28164e+06,176.679,0,2.45642,27666.1,14357.6,-8109.61
5.49939e+06,146.193,1,2.54989,11032.7,18317.4,-6472.13
5.60624e+06,16.2494,0,2.63994,3490.45,36.23,-29272.5
5.61659e+06,18.8466,0,2.79565,3533.65,-12.988,-26824.8
5.67567e+06,0.882138,0,2.68714,113.445,-189.652,-28753.4
5.77892e+06,128.347,1,2.39807,-4160.99,11384.8,-4484.34
6.89791e+06,121.781,0,2.99314,-4489.71,-13168,-7429.97
6.99529e+06,58.7371,0,3.03948,-8229.53,3168.7,-20291.1
7.01306e+06,254.779,1,2.65929,-4917.28,3277.7,-28441.5
7.11003e+06,21.505,2,2.65637,2933.5,-2843.03,-26790.9
7.43683e+06,55.7263,0,2.75157,919.687,-2067.91,-28210.4
7.77472e+06,115.61,1,3.00328,-6846.64,10615.6,-8128.65
7.96178e+06,35.256,0,2.65676,6007.09,-2841.69,-25306.6
8.24899e+06,43.1966,0,2.43913,1445.08,4026.46,-20759.4
8.55348e+06,98.5009,0,3.02839,-16421.5,12215.1,-26615.7
8.80858e+06,15.3317,0,2.47719,-291.76,2547.32,-26842.6
9.73192e+06,53.7791,0,2.97802,2884.54,10838.7,-27236.8
1.00664e+07,105.777,0,2.36791,22199.4,-3634.82,-29262.6
1.00954e+07,21.4263,1,2.50905,1964.13,3292.83,-26318.6
1.0103e+07,96.2949,0,2.90445,18219.5,8636.2,-26565
1.02362e+07,93.3528,2,2.66905,-15277.1,-7526.16,-18793.3
1.06476e+07,10.487,0,2.9053,1505.65,1426.14,-27876.4
1.0727e+07,105.915,2,2.86583,20548.3,-1220.68,-20407.1
1.07676e+07,64.4706,2,2.58912,6661.38,-11761,-26698.3
1.08741e+07,157.35,2,2.53041,10242.4,-17149.1,-2219.77
1.12023e+07,223.374,2,2.77885,25059.8,-29276.6,-1876.21
1.13096e+07,96.1638,0,2.74806,-9127.11,-17932.5,-27339.4
1.13386e+07,89.4375,2,2.39714,-2986.9,-15133.1,-17731.2
1.15555e+07,84.9007,0,2.6555,-9055.23,-6533.83,-14894
1.1741e+07,11.9483,0,2.51872,2028.39,-404.942,-27236.6
1.1806e+07,3.63004,1,2.4242,368.939,640.337,-28484.1
1.20866e+07,11.2415,2,2.90056,805.6,-1660.97,-27283.3
1.21386e+07,32.3836,0,2.93391,5076.1,986.588,-24300
1.23071e+07,3.44532,0,2.44337,783.496,215.124,-28613.7
0,3.45614,0,2.60377,0,0,0
1.28863e+07,26.4085,1,2.90583,3571.56,-3098.11,-26025.2
1.3281e+07,37.0887,2,2.71894,5110.26,1898.43,-23285.4
1.33291e+07,197.712,2,2.70375,632.741,-17841.2,8855.64
1.34094e+07,66.3338,1,2.82823,7266.84,3636.21,-17472
1.35629e+07,225.069,2,2.55807,-16398.5,23845.3,8886.62
1.35894e+07,205.114,1,2.79339,-14386.1,15971.9,8604.52
1.37703e+07,87.8547,1,2.49374,-366.965,-16600.5,-20575.6
1.3992e+07,5.82793,0,2.85408,1346.68,72.3652,-28879.4
1.42427e+07,59.3243,2,3.06027,-6053.41,5363.5,-19389.3
1.42445e+07,24.8443,1,2.76536,-3380.58,-3861.09,-29857.5
1.4653e+07,83.6443,2,2.50809,-13559.3,-11345.4,-27188.7
1.47874e+07,32.4961,1,2.73867,-3291.3,6111.09,-28551
1.49337e+07,92.3726,0,2.89992,12810.6,-800.717,-14208.1
1.50521e+07,1.30159,2,3.03028,52.0447,-356.842,-28824.9
1.53371e+07,44.9207,0,2.50164,4852.38,8061.37,-27160.5
1.53498e+07,65.6214,1,2.89162,-10152.6,8744.36,-25253.4
1.5612e+07,36.2711,0,2.39719,-2779.24,6846.24,-26758.3
1.56754e+07,74.8467,2,2.64587,3068.32,733.721,-24854.5
1.59726e+07,79.9548,0,2.84292,-13475.3,-8016.55,-22936.3
1.60137e+07,94.059,2,2.48497,-507.427,-14234.2,-14855.2
1.60438e+07,74.586,2,2.78828,-14482.9,1101.99,-22714
1.60909e+07,7.0112,2,2.78281,882.538,-642.405,-27809.3
1.61833e+07,10.5296,2,2.50615,-123.202,-1626.29,-27214.9
1.62038e+07,62.9773,2,2.6889,-4554.78,-8011.88,-19174
1.63424e+07,104.237,2,3.00251,-18305.2,1817.77,-16978.8
1.63549e+07,289.655,0,2.77792,19832.1,-12906.9,27372
1.68256e+07,192.114,2,2.70299,197.641,-24070.6,3779.47
1.70699e+07,18.5551,2,2.50048,-825.385,2083.87,-25625.5
1.71855e+07,7.05916,2,2.97297,-1314.55,-207.527,-28049.5
1.72216e+07,159.293,2,2.43449,16042,19518.3,-6596.5
1.72894e+07,14.5496,1,2.54225,-1657.93,-1492.3,-26704.5
1.75147e+07,23.8026,0,2.41193,-576.963,3218.9,-24987.8
1.82955e+07,146.487,2,2.92875,-16193.1,-23860.5,-17964.8
1.87876e+07,78.4324,1,2.69888,-11820.4,-1169.63,-17270.7
1.88403e+07,78.3827,1,3.04703,5936.82,-13614.3,-26553.5
1.88902e+07,79.118,2,2.91475,7728.95,4788.14,-14989.8
1.91465e+07,21.566,2,2.92893,-4206.23,-1806.75,-29482.4
1.91534e+07,2.5011,2,2.81089,-176.946,393.626,-28603.9
0,1.83937,1,2.45088,0,0,0
1.9324e+07,57.5467,0,2.83393,-6345.27,-6642.36,-21027.3
2.02946e+07,35.3856,1,2.47289,-4280.99,-2950.29,-23436.2
2.07051e+07,280.74,0,2.79623,8038.49,-28566.3,22225.8
2.07366e+07,12.6462,1,2.39093,-272.694,1054.21,-26328.9
2.09314e+07,12.0012,2,3.03226,-2177.27,-137.98,-27508.2
2.10867e+07,25.2128,2,2.42788,3124.61,1554.98,-24830.5
2.13955e+07,76.9273,0,2.55957,7875.64,3566.31,-19976.7
2.15663e+07,10.5675,2,2.75517,920.185,793.663,-27000.6
2.15704e+07,87.0281,1,2.77867,11075.6,-7581.08,-16423
2.15947e+07,22.5357,1,2.94941,977.093,4189.68,-26671.2
2.17155e+07,119.43,1,2.57518,-834.415,18131.4,-11228.5
2.17934e+07,41.5768,0,2.96254,600.288,5112.57,-21753.3
2.18848e+07,8.50316,2,2.70579,-271.135,-1614.65,-29807
2.19193e+07,85.4858,1,2.91187,-17174.2,4878.64,-26327.9
2.20391e+07,57.9342,1,2.41598,-10324.6,-6617.89,-28899.1
2.20411e+07,6.11406,1,2.43514,-224.794,1362.64,-28722
2.23094e+07,84.1841,2,2.63146,-9667.2,10350.5,-18088.1
2.24689e+07,34.2433,0,2.73458,-3873.58,-5948.64,-27745.2
2.3333e+07,98.7215,1,2.97197,-17188.6,7860.36,-20188.4
2.3477e+07,102.412,0,2.68257,-6883.33,-20401.2,-27470.1
2.35308e+07,20.9669,1,2.61679,3684.23,1210.37,-26695.7
2.35341e+07,59.3027,1,2.49531,-5125.36,11301.9,-26578.2
2.38559e+07,17.8617,1,2.48054,-3801.14,-176.93,-28407.3
2.41951e+07,39.8073,2,2.40072,-6876.22,4406.71,-26696.3
2.48104e+07,47.0662,1,2.5233,-1272.28,5895.38,-22182.6
2.48372e+07,151.737,0,2.72741,-6584.31,18066.4,-3319.98
2.52546e+07,33.7961,2,2.56705,2642.22,-6655.8,-29625.3
2.53176e+07,30.4621,1,2.86192,2747.47,5825.67,-28136.2
2.5356e+07,9.76212,0,2.43939,1081.01,-827.244,-27191.6
2.54476e+07,32.1682,2,2.93505,3190.08,-5984.85,-29406.5
2.5528e+07,82.0681,1,3.04126,-11333.7,12972.6,-27220.7
2.60728e+07,148.145,2,2.654,-13931.6,-27060.5,-21432.2
2.62747e+07,12.961,2,2.77735,237.838,-1313.76,-26416.5
2.69414e+07,71.2356,0,3.03886,-1042.39,10007.3,-17800.5
2.713e+07,86.2227,2,2.60832,17364.5,1223.46,-23566.6
2.72239e+07,39.0176,2,2.46494,1384.35,-6028.23,-23279.1
2.73966e+07,195.664,0,3.01435,20218.5,16060.2,3073.12
2.747e+07,233.131,1,2.7715,23413.9,8964.4,13191.8
2.77665e+07,18.4737,2,2.81382,1674.82,-3480.51,-27958.4
2.78387e+07,164.762,1,2.46618,7346.45,26718,-7604.23
2.8262e+07,40.8484,2,2.68793,-5616.34,-4902.06,-24340.6
2.85166e+07,74.0398,1,2.76436,7688.91,1717.24,-15383.8
2.8616e+07,182.581,1,2.52149,-4035.26,-1983.25,-27307.5
2.89006e+07,11.9863,0,2.59164,1415.37,416.095,-26711.1
2.92265e+07,69.7941,2,2.64732,-8949.79,-5986.12,-18680
2.92754e+07,59.7704,2,2.90641,-7916.31,-6716.42,-21626.6
2.9463e+07,9.36261,1,2.70619,-1482.86,-1261.38,-28478.7
2.95849e+07,37.1606,2,2.41353,4103.06,-6162.01,-26016.8
2.98219e+07,108.829,2,2.48316,14479.8,-13114.5,-16604.7
2.98533e+07,20.2516,2,2.46939,3999.92,1331.64,-29283.2
3.04099e+07,15.1797,1,2.42168,-500.783,-2902.73,-27652.1
3.07692e+07,57.3639,0,2.69759,6073.06,-3532.48,-18926.9
3.07965e+07,102.851,2,2.61621,-6889.38,-18712.9,-19993.6
3.09934e+07,18.3751,1,2.49469,624.803,3163.8,-26580.7
3.13819e+07,66.8927,0,2.61567,3207.21,-6988.3,-16939.7
3.22265e+07,39.7539,0,2.81664,3480.02,-3362.89,-21950.3
3.2372e+07,4.81063,1,2.61258,-931.203,68.0521,-29364.6
3.27678e+07,120.712,2,2.85621,-3837.14,-18215.9,-11523.5
3.30004e+07,63.8378,0,2.86559,7112.44,-907.334,-17437.6
3.32597e+07,29.062,2,2.63612,-4351.27,-4418.3,-28185.4
3.34926e+07,83.0025,0,2.79384,7528.49,-8800.08,-15698.1
3.35176e+07,200.276,1,2.99865,-19177.4,24202.5,-552.573
3.35586e+07,38.7472,2,2.57845,188.709,-5550.61,-22726.8
3.44614e+07,7.68366,1,2.89818,-352.248,1526.28,-28156.1
0,7.82626,1,2.95028,0,0,0
3.45375e+07,174.349,1,2.68511,-11497,29885.7,-10631.7
3.5335e+07,89.6503,2,2.85262,-12890.9,-11428.5,-20973.3
3.54043e+07,4.90298,1,2.87451,-1055.29,205.147,-28617.6
0,4.97835,2,2.76379,0,0,0
0,4.79945,1,3.01548,0,0,0
3.62482e+07,127.222,0,3.02457,2213.37,12376.5,-6424.4
3.63164e+07,26.1853,0,2.47607,2009.23,-1879.88,-23992.6
3.71841e+07,36.0318,1,2.95941,-3491.14,4813.61,-24055.6
3.73811e+07,22.0791,2,3.05485,-1035.09,-4606.91,-29151.3
3.74416e+07,31.1772,0,2.56438,-3591.1,999.857,-23438.6
3.79471e+07,7.09458,2,2.61142,-1225.4,-174.419,-27918.5
0,7.00446,2,2.55265,0,0,0
3.79505e+07,38.0449,2,2.92415,-6868.9,-4004.73,-27322.5
3.82319e+07,50.6088,1,2.63813,-3007.55,-7850.1,-22287.2
3.83647e+07,161.866,1,2.54387,-14234.5,-7228.25,-16535.8
3.84647e+07,53.255,0,2.70081,3887.01,9581.51,-24373.7
3.91548e+07,8.3814,0,2.49956,-307.448,1743.36,-29080.6
3.92476e+07,111.822,0,2.63087,11112.9,10382.3,-10733.6
3.9486e+07,72.7404,2,2.99349,-8417.63,172.048,-16086.2
3.95928e+07,8.11684,2,2.39514,1200.47,-469.342,-27695.6
3.96148e+07,93.9827,2,2.41765,-15443.1,12527.1,-28615.4
3.96274e+07,140.447,1,2.39385,11169.2,7412.85,-18801.6
3.99065e+07,217.062,0,2.64788,28180,24143.5,-4998.13
4.0107e+07,38.8579,2,2.70649,-6347.02,-3767.19,-25111.4
4.02808e+07,174.599,0,2.50095,1790.95,2572.26,-24079.3
4.03709e+07,122.483,1,2.78638,-19232.9,12361.1,-16765.7
4.05698e+07,54.9538,2,2.99127,-9511.34,6413.21,-28221.1
4.07795e+07,83.3714,2,2.79727,-5335.39,5940.93,-13347
4.08307e+07,14.0812,0,2.80597,818.636,2720.96,-27835.7
4.11083e+07,42.8899,0,2.979,3512.17,-7747.67,-25712.9
4.12138e+07,52.8726,2,2.97048,2086.36,-9258.46,-22947.2
4.1368e+07,116.096,0,2.49042,4886.31,17744.6,-13489.6
4.15731e+07,149.86,2,2.58818,10138.4,24957.2,-12296.2
4.16574e+07,57.7923,1,2.39547,4992.17,5568.03,-19137.1
4.1866e+07,22.4418,1,2.93571,3385.79,2066.66,-26230.7
4.22492e+07,191.752,1,2.97677,12550.4,10412.9,7936.87
4.23134e+07,85.76,2,2.5708,3507.77,15935.8,-21356.2
4.25644e+07,17.7606,1,2.67613,2268.1,2619.96,-27255.1
4.27109e+07,16.3997,0,2.5365,-2474.04,-985.746,-26679
4.28909e+07,22.4886,0,2.60096,-3436.81,639.461,-25692.1
4.31425e+07,136.9,0,3.03948,10245.3,-14213.9,-6116.23
4.35374e+07,48.0636,2,2.57899,-5676.08,-5767.79,-22560.8
4.36034e+07,58.8222,0,2.6041,2475.31,11968.8,-26422.1
4.3612e+07,116.585,2,2.90669,-11949,1461.29,-7496.16
4.37401e+07,37.6426,0,2.89868,7682.62,-24.1987,-26661.3
4.38437e+07,94.8384,2,2.83283,-18783.7,-5870.12,-25170
4.40209e+07,29.7417,2,2.71473,-3626.57,4983.93,-29856.1
4.41247e+07,77.4459,2,2.48675,-2183.35,-7281.98,-14271.7
4.41348e+07,143.9,1,2.77658,1520.68,3596.26,-27042.5
4.41436e+07,6.39293,1,2.57679,697.097,-205.89,-27695.2
0,6.46469,1,2.8616,0,0,0
4.42755e+07,41.6616,1,2.43648,-5923.34,1192.99,-22345.5
4.45205e+07,92.7101,0,2.95331,-15749.9,-5736.38,-19064.5
4.47881e+07,61.357,1,2.94216,-3965.97,5108.51,-17658.6
4.4978e+07,15.9479,1,2.95824,89.7022,-1962.17,-26156.5
4.5022e+07,280.912,0,2.90164,15346.4,5786.24,-29495.9
4.51859e+07,43.8131,0,2.84427,-6604.3,-4366.32,-24180.9
4.54419e+07,21.3045,2,2.65284,-2655.21,-3713.45,-29440.2
4.56569e+07,5.53264,1,2.83404,-888.503,388.228,-29536.3
4.60786e+07,131.641,1,2.62896,-22707.6,-15688.4,-25476.6
4.62747e+07,43.6549,2,2.60191,-8240.54,15.1323,-24646.6
4.64703e+07,8.14748,2,2.62263,323.208,-1795.06,-28763.4
4.64966e+07,177.911,2,3.02996,13027.9,1693.03,5087.54
4.64991e+07,88.4978,2,2.84872,9946.8,4224.05,-13714.3
4.68751e+07,244.806,2,3.05301,-4344.57,-10483.6,-19133
4.73577e+07,26.6542,2,2.70007,-4566.68,-975.776,-25747.8
4.76033e+07,52.324,1,2.71307,8075.64,2556.5,-21762.9
4.78665e+07,45.2552,0,2.57532,6507.16,-2049.03,-22036.3
4.79691e+07,28.2039,0,2.91045,-2220.81,-5471.63,-29339.2
4.80244e+07,332.118,2,2.95261,14153,-22616.6,-25503.4
4.80393e+07,85.445,2,2.95887,-3950.7,-14709.8,-19216.6
4.93573e+07,144.367,2,2.9437,-18020.1,-15933.8,-15344.5
4.96299e+07,208.101,1,3.02763,-15326.3,28474.5,-12149.1
4.99276e+07,62.159,2,2.73438,-2660.12,-7158.86,-18118.3
4.99747e+07,146.188,2,2.49694,8786.6,-29480.5,-25178.2
5.02035e+07,42.6123,0,2.81484,-1770.91,-8790.4,-28360.3
5.0433e+07,45.1444,0,2.94571,4524.16,-2721.34,-20899.7
5.17857e+07,57.0828,1,2.73527,-6769.78,-3703.44,-19600
5.18935e+07,125.538,2,2.88915,14246.6,10537,-9349.42
5.19469e+07,150.173,0,2.73672,26566.5,-12122,-16451
5.28821e+07,59.9429,1,2.68446,-10891.5,2507.3,-22793.8
5.28891e+07,143.387,2,2.44391,-22456.4,-2528.08,-8523.98
5.32183e+07,2.12787,0,2.66769,256.036,-95.3034,-28408.4
5.34715e+07,39.4057,1,2.51694,-650.421,6093.02,-23076.4
0,39.542,1,2.65396,0,0,0
5.34921e+07,144.893,1,2.99389,1179.77,19334.9,-5369.63
5.38046e+07,21.9477,2,2.62426,-3703.92,-436.785,-25991.9
5.38198e+07,123.807,0,2.46274,-23858.2,-6325.73,-20306
5.39004e+07,128.147,2,2.89883,-15697.2,-17809.2,-15995
5.41407e+07,22.8823,1,2.78286,-679.361,-3956.08,-26263.1
5.46873e+07,88.6889,0,2.50926,-9450.67,-10469.7,-16501.6
5.48478e+07,12.2678,0,2.53079,-1291.36,756.105,-26761.5
5.50384e+07,241.358,0,2.39686,-17924.1,-15109.7,-701.036
5.50874e+07,14.4311,0,3.03749,-1845.46,-121.551,-26474.4
5.55617e+07,170.704,2,2.75711,28236.3,-18188.8,-16022.8
5.56191e+07,55.832,0,2.50162,7482.13,3575.9,-20340.6
5.56807e+07,168.861,2,2.41354,-27481.2,-19649.9,-16950.1
5.61979e+07,18.6658,2,2.60974,-2958,-1500.21,-26553.7
5.64805e+07,10.6069,0,2.95354,1944.92,1058.98,-29549.1
5.73758e+07,63.0158,0,2.3991,9853.69,-227.532,-19773
5.75666e+07,243.608,1,2.83077,4853.45,-23310,3726.34
5.75919e+07,133.173,2,2.71018,6605.46,-25819.9,-19800.6
5.76571e+07,64.5961,2,2.75359,-2910.09,-10461.3,-20509.3
5.82651e+07,40.2362,1,3.0195,1080.48,823.694,-28695.7
5.84339e+07,80.9655,2,2.79491,6896.31,-15601.8,-27911.7
5.84561e+07,111.057,2,2.37167,7496.29,-9020.16,-8447.38
5.86666e+07,81.2906,2,2.94645,15067.2,-8046.08,-29283.2
5.89017e+07,72.0616,1,2.65681,-3686.42,-12798.5,-21557.9
5.93797e+07,139.467,0,2.98493,24665.8,14185.2,-21708.2
5.95388e+07,67.0288,1,2.59505,-5249.55,11330.5,-22075.2
5.96621e+07,237.815,1,2.55144,20540.3,17786.9,9758.62
6.02083e+07,16.129,2,2.92483,462.576,-3228.58,-27681.8
6.0445e+07,47.8035,2,2.93348,-4995.97,6661.44,-23273.2
6.07154e+07,24.6706,0,2.55192,1119.09,-3912.69,-25519.5
6.08179e+07,51.8739,2,3.03713,-3567.2,-7567.95,-21793.5
6.09018e+07,25.5832,1,2.55028,-2883.96,1178.28,-24342.3
6.12269e+07,66.1801,2,2.37648,-14035,-242.369,-29903.4
6.13109e+07,105.942,1,2.75421,-20262.1,6730.94,-22186.6
6.14235e+07,90.7727,1,2.70189,-7214.02,8451.16,-13202.3
6.15675e+07,144.801,2,2.95715,-7771.59,10041,-1333.41
6.20655e+07,50.7001,0,2.70244,-4476.82,-6454.34,-24168.3
6.21217e+07,141.906,2,2.40285,18058.1,-6603.09,-7141.41
6.25284e+07,3.52375,0,2.91047,221.519,-47.3607,-28087.1
6.26511e+07,17.1576,0,2.86164,-2063.62,2521.92,-27350.9
6.31786e+07,16.6701,1,2.71058,-662.405,3482.79,-28132.5
6.33082e+07,78.5716,0,2.60649,3764.25,-11794.5,-17760
6.35854e+07,11.4988,2,2.89009,-1429.09,-890.223,-27004.4
6.39041e+07,207.535,2,2.7103,-26447.3,-21926.8,-2840.89
6.40179e+07,134.75,1,2.59435,14159.5,4124.48,-4528.52
6.43417e+07,20.8999,1,2.71338,-3890.27,2193.46,-29509.5
6.47432e+07,42.5694,2,2.44805,1239.33,-86.3497,-29093.7
6.50947e+07,13.278,0,2.65262,1467.85,-1458.53,-26842.3
6.51912e+07,48.501,1,2.46854,-1221.38,4652.3,-24999.5
6.52151e+07,75.6859,0,2.93344,-9413.01,-7058.8,-18214.2
6.52432e+07,54.1682,2,3.04097,2405.84,-7462.82,-20576.7
6.53165e+07,28.5896,0,2.71331,4583.31,4049.01,-28622.5
6.53696e+07,94.1584,1,2.37992,-11311,10723,-16327
6.5654e+07,133.342,0,2.8594,21283.9,-4095.08,-10959.1
6.60615e+07,265.285,2,2.60015,18879.6,-9979.17,-9594.59
6.61212e+07,81.4691,2,2.63281,-8728.61,-14947.6,-29181.2
6.61963e+07,74.0278,2,2.82927,1632.65,-10469.9,-17374.6
6.634e+07,74.4029,1,2.83698,-2709.09,6540.08,-14844.7
6.65666e+07,27.0124,1,2.91063,-4722.43,3343.57,-28793.2
6.76527e+07,130.725,2,2.95835,-6953.96,-24916.7,-21394
6.79878e+07,78.7651,2,2.51028,10099.2,7467.1,-17948.3
6.81233e+07,4.22033,2,2.49567,415.262,-80.4601,-28053.9
6.81647e+07,22.1191,1,2.65586,-4261.73,1138.37,-27153.4
6.82384e+07,25.1579,1,2.56706,1918.17,-3299.62,-25200.4
6.83431e+07,98.1643,1,2.6563,2222.29,11316.8,-11615.8
6.83556e+07,247.106,2,2.57553,21120.4,-15642.5,16280.9
6.85906e+07,35.0446,2,2.8696,6809.32,-2826.18,-28947.2
6.88999e+07,34.2222,1,2.78481,5699.15,3280.87,-25826.7
6.89616e+07,17.4619,1,2.89063,-1122.36,3528.73,-28054.5
6.9598e+07,29.1914,2,2.57694,-4626.68,2947.37,-25952.7
6.96172e+07,114.464,1,2.62002,-23680.1,4292.95,-25876.5
6.97517e+07,71.2474,0,2.87659,-13154.5,-4143.05,-23157.8
7.01018e+07,4.2852,1,2.42254,483.404,-183.297,-28133.8
7.01305e+07,76.0381,1,2.82075,4497.19,11421.7,-18520.2
7.0163e+07,175.079,1,2.74017,23477.4,168.167,-26182.4
7.02843e+07,85.8112,2,2.64923,-10190.6,-3649.92,-14621.6
7.0299e+07,2.63749,2,2.72093,357.948,-429.449,-28596.5
7.09483e+07,22.2867,2,3.00487,-3974.92,2355.7,-29763.8
7.09499e+07,96.1197,2,2.9859,-6915.75,14823.3,-17097.4
7.0975e+07,29.7009,2,2.448,1883.33,3831.08,-24281
7.09856e+07,103.576,0,2.46662,18219.4,-8495.46,-19977.9
7.10088e+07,6.08596,1,2.37211,-1027.83,635.576,-28200.9
7.10531e+07,9.00632,0,2.53598,601.946,250.853,-27011.9
0,9.02812,0,2.67485,0,0,0
7.11717e+07,179.161,2,2.67736,-27557.2,-42.0536,-2969.65
7.12727e+07,18.2925,1,2.41248,-407.54,2735.16,-26043.6
7.15403e+07,11.2178,1,2.4842,-2215.8,-90.7446,-27814.4
7.15827e+07,41.5214,1,2.84382,6602.95,5740.92,-28651.6
7.16966e+07,23.4448,0,2.69527,3907.78,-2430.02,-26807.1
7.17251e+07,36.4259,0,2.67589,7443,1736.75,-27400.1
7.18827e+07,3.86861,1,2.54471,29.3979,311.257,-28031.8
7.2115e+07,24.3294,2,2.61231,924.471,2920.42,-24747.6
7.21768e+07,18.8596,2,2.99686,-3178.83,-2501.64,-28397.3
7.25063e+07,207.844,2,3.02522,20287.2,-16028,6201.1
7.27207e+07,168.608,1,2.49099,-17829.9,26142.4,-12255.4
7.28844e+07,47.6587,1,3.03031,-3185.72,9251.89,-26366.5
7.30311e+07,117.176,2,2.7688,-6464.29,-19469.7,-15011.3
7.30958e+07,41.6982,1,2.36822,-6281.65,-1329.35,-22737.9
7.35073e+07,184.069,0,2.95129,14937.4,26383.7,-4858.85
7.38017e+07,47.2448,0,3.00001,8304.8,5571.19,-28704.4
7.39436e+07,7.26895,1,2.92519,910.251,1159.87,-28244.2
7.41577e+07,75.5344,1,2.74122,3860.13,4314.68,-15258.3
7.42674e+07,68.7181,0,2.65288,8221,11065.2,-24426.7
7.49083e+07,98.3298,1,2.89048,18836.2,6572.52,-23482.1
7.56891e+07,95.0004,1,2.49573,-8725.08,-1697.44,-10791.7
7.58664e+07,34.2406,2,2.98039,-2207.33,3586.9,-23027.8
7.6535e+07,102.1,0,2.96029,9043.13,14279.2,-15591.5
7.66274e+07,12.9459,1,2.36191,-1886.32,512.088,-26833.7
7.66833e+07,7.52342,2,2.70265,166.369,1171.65,-27832
7.67593e+07,76.1373,0,2.74938,11158.8,2730.24,-17550
7.70358e+07,45.7855,2,2.96605,-7857.12,2417.2,-23829.7
7.72001e+07,6.69352,2,2.45992,1239.79,-411.051,-28260.8
7.72212e+07,23.9625,2,2.80925,3592.76,-720.936,-25413.1
7.72472e+07,42.1554,0,2.90106,-6169.18,-6032.91,-27025.6
7.73403e+07,24.6659,2,2.51464,-3286.35,-88.252,-24718.1
7.73967e+07,102.337,2,2.38482,1230.18,-21712.4,-28459.6
7.74178e+07,90.1136,1,2.44391,-8170.39,17345.6,-28538.1
7.74516e+07,108.25,0,2.88408,19105.8,6939.23,-18447.9
7.74607e+07,47.6849,2,2.7814,3628.23,-6354.88,-21886.1
7.79191e+07,63.1032,1,2.95217,1009.05,10451.3,-20675.3
7.85076e+07,59.0313,1,2.44738,-10070,6352.13,-24757.6
7.85766e+07,131.498,1,2.36421,-22400.5,15326.5,-22318.5
7.85794e+07,17.0925,2,2.48233,-1186.88,-3464.38,-28438.3
7.86015e+07,40.6523,0,2.36872,6763.49,2507.09,-24007.4
7.88984e+07,195.322,2,2.71721,9954.01,13572.3,2811.44
7.90318e+07,84.4205,0,2.78101,-10420.5,12614.7,-22025.1
7.91165e+07,29.3723,2,2.69194,-2738.93,-750.281,-23291.4
7.94332e+07,6.7285,1,2.37491,-984.412,-1013.32,-28562.4
8.04298e+07,79.2102,2,2.79724,-1069.07,-7857.67,-14123.7
8.05575e+07,24.8978,2,2.47521,878.408,2169.98,-24145.1
8.07166e+07,146.269,0,2.6804,27764.7,452.412,-19155.4
8.08425e+07,134.226,0,2.50137,26589.8,-7582.51,-22012.9
8.09203e+07,177.331,2,2.83606,-15054.5,-1743.95,5255.95
8.12411e+07,177.573,1,2.58733,8777.48,-18521.2,2500.75
8.13502e+07,277.468,1,2.63182,-7425.57,-27011.8,22549.1
8.15693e+07,77.0755,2,2.78449,2043.58,-15893.7,-25760.7
8.17442e+07,54.9166,1,2.77668,9411.48,-4378.89,-23813.7
8.18383e+07,170.594,1,2.89407,-21175.5,9605.33,-22526.8
8.18412e+07,148.675,1,2.5666,8493.95,18902.2,-5208.13
8.1965e+07,15.2851,1,3.00325,751.364,2590.58,-27018.2
8.23025e+07,37.444,0,2.99672,-5823.04,-5144.36,-28053.2
8.24428e+07,32.8605,0,3.03603,2590.25,-1888.57,-22690.9
8.26016e+07,96.2024,1,2.45651,-8599.42,-15706.1,-19185.9
8.30534e+07,62.3002,2,2.39329,-6610.14,-10380.8,-23857.7
8.3148e+07,2.62892,1,2.972,-519.1,-259.977,-28822.9
8.32561e+07,162.951,1,2.87651,-21640.3,21883.4,-13647.6
8.34242e+07,42.0102,0,2.68511,7033.01,231.882,-23311.8
8.35299e+07,105.103,2,2.63725,11619.4,-13125.2,-15220.6
8.38515e+07,26.7099,2,2.61592,5287.39,330.389,-26958.8
8.41086e+07,3.09067,2,2.51084,235.079,81.2393,-28229.1
8.41459e+07,25.0691,2,2.71502,-1465.13,4980.71,-28104.1
8.44688e+07,3.09249,0,2.73825,148.81,-492.58,-28388.5
8.45263e+07,50.6657,2,2.52806,10492.2,1434.96,-27481.7
8.45412e+07,5.41368,2,2.40719,446.038,-1122.12,-28956.2
0,5.32548,2,2.46895,0,0,0
8.45464e+07,34.1528,0,2.86047,4436.27,-5054.55,-26215.1
8.47121e+07,69.8171,0,2.88983,2480.65,7890.55,-16708.1
8.49419e+07,19.3816,1,3.02655,-3130.3,-1890.23,-27060.2
8.52303e+07,10.997,0,3.0157,-736.904,-1407.4,-27160.6
8.53735e+07,22.8368,0,2.59274,4376.76,2239.86,-28932.4
8.54218e+07,86.3665,2,2.69678,5896.87,-13893.9,-18570.1
8.54824e+07,25.2506,1,2.36663,3584.02,4015.16,-28264.9
8.56148e+07,84.2381,2,2.80364,-13523.5,-11105,-25510
8.59523e+07,3.31827,2,2.36963,110.041,-611.23,-28385.4
8.64036e+07,33.4005,2,2.71504,3535.64,-1185.22,-22869.2
8.65062e+07,45.5259,0,2.6045,8053.57,5351.8,-29757.9
8.67662e+07,25.2207,1,2.83585,-546.792,-4222.12,-25739.1
8.71871e+07,8.68246,1,2.77716,-469.675,1652.38,-27958.6
8.72217e+07,43.2276,1,2.87808,-4881.36,7748.22,-29356.3
8.74849e+07,131.03,2,2.59297,1984.5,-16620.8,-6755.89
8.76475e+07,96.8199,1,2.98127,-8274.63,-2062.03,-10404.3
8.77803e+07,117.292,2,2.87135,-6034.17,-17861,-12843
8.77837e+07,74.6808,2,2.53992,14547.9,3756.27,-24093.7
8.79039e+07,4.31484,2,2.88976,331.481,-923.511,-28757.6
8.79804e+07,91.3719,2,2.55661,-17469.8,8095.46,-27058.9
8.81564e+07,80.9167,2,2.93587,-16778.8,1221.78,-26121.3
8.8334e+07,176.96,2,2.67102,-937.407,25758.4,-1908.27
8.85372e+07,104.905,2,2.53923,-8519.7,-20198.7,-24909.9
8.87239e+07,6.2977,2,2.68723,480.791,-1194.92,-28358.1
8.87558e+07,99.5169,0,2.97107,2109.48,-15943.7,-15514.5
8.87711e+07,163.265,0,2.79012,-2551.56,25826.4,-6343.58
8.93608e+07,45.4263,2,2.59667,-6850.11,243.033,-22048.4
8.98404e+07,14.6033,0,2.42099,602.13,-1960.68,-26466.6
9.04094e+07,10.7995,0,2.61067,-271.271,1831.17,-27462.9
9.06074e+07,78.5083,2,2.79454,-8006.27,-10428.7,-18732
9.0676e+07,82.9342,0,2.95887,-29.6619,-5197.48,-22390.4
9.07084e+07,4.89708,2,2.41616,-781.58,-108.92,-28077.2
9.08931e+07,63.2201,2,2.44923,5687.71,-3399.19,-17234.3
9.17713e+07,23.9587,2,2.57264,3904.24,-3083.6,-27724.5
9.18193e+07,217,1,2.83194,-1127.33,-23296.6,10337.6
9.24279e+07,84.8348,2,2.5969,-16143.7,-6736.63,-24631.6
9.28178e+07,3.62477,0,3.00349,-298.317,156.945,-28200.9
9.28879e+07,15.8338,1,2.71537,796.996,1749.92,-26065.7
9.3197e+07,96.0393,1,2.70999,-8464.83,17048.3,-21677.8
9.34272e+07,35.4134,1,2.36314,3294.87,261.55,-22103
9.34581e+07,137.049,2,2.58809,-9590.92,-18500.8,-8642.19
9.37606e+07,17.4152,2,2.46863,-1283.49,-3184.45,-27248.5
9.38556e+07,9.88173,1,2.46572,200.298,-1591.95,-27556.4
9.4424e+07,51.1282,0,2.7386,8984.2,-2523.38,-24234.9
9.50518e+07,85.6649,0,2.5471,7218.58,-16549.2,-27057.4
9.5103e+07,122.875,2,2.5309,19817.2,-16716.6,-26639.5
9.52475e+07,32.9182,0,3.00369,1290.75,6826.85,-28799.6
9.60655e+07,45.7158,2,2.70675,1862.16,-4622.68,-20543
9.60819e+07,168.643,1,2.79205,21632.6,21496.4,-10629.2
9.64373e+07,13.4904,2,3.02051,1650.57,-79.5111,-26538.3
9.64433e+07,38.4941,2,2.72589,4989.67,2068.33,-22842.1
9.75337e+07,67.9584,0,2.70162,1736.89,8504.73,-17402.6
9.77549e+07,58.9415,1,3.06032,-10517.1,6657.07,-28758.9
9.7799e+07,6.53298,0,2.6259,695.999,-1001.54,-28065.7
9.78325e+07,29.0124,2,2.43928,-3782.88,213.836,-23945.4
9.79716e+07,142.063,0,2.99192,-5429.8,-28238.6,-21130.9
9.82553e+07,62.7688,1,3.03812,6147.11,-31.6992,-25400.3
9.82896e+07,22.6416,2,2.39773,2384.86,-1130.91,-24834.2
9.84668e+07,121.689,2,2.47324,19120.7,-17158.9,-26655.3
9.85832e+07,26.3975,1,2.38562,2137.27,3825.48,-25272.9
9.86464e+07,80.7994,0,2.50835,1218.2,16414,-24170.2
9.89776e+07,47.4238,2,2.65494,2397.27,-6907.56,-21923.7
9.90624e+07,3.61986,2,2.5262,600.948,114.424,-28464.8
0,3.45576,2,2.44163,0,0,0
0,3.50933,2,2.74587,0,0,0
9.90839e+07,116.678,0,2.41571,22312.1,9427.76,-23592.3
9.92919e+07,30.8708,1,2.57304,-1463.7,3524.27,-23474.5
9.95019e+07,167.49,1,2.80098,-13458.3,7566.65,2880.64
9.95752e+07,28.6849,1,2.3884,-2974.61,5192.31,-27291.7
9.9663e+07,21.6162,0,2.37667,3942.06,167.41,-26338.7
1.00292e+08,10.2102,1,2.47794,-1815.2,1271.79,-29334.4
1.00684e+08,180.009,0,2.69648,29678.8,-17008,-12246.4
1.00879e+08,44.427,2,2.5255,-2273.76,-5669.42,-21627.4
1.01389e+08,229.462,2,2.99489,-21663.2,3999.84,-19586
1.01821e+08,1.66309,1,2.51546,-427.129,114.18,-28774.5
0,1.82821,1,2.92814,0,0,0
0,2.40633,0,2.72263,0,0,0
1.02378e+08,53.3451,2,2.50749,-5439.86,-7288.71,-22028.3
1.02561e+08,52.2074,2,2.9855,4556.48,-3376.33,-19437.9
1.02657e+08,80.4764,1,2.88178,2460.45,11479.3,-16581.4
1.02711e+08,140.605,2,2.92679,-16028.2,533.351,-5268.32
1.032e+08,161.714,2,2.46439,-1422.1,-26024,-6594.1
1.03266e+08,164.983,2,2.43614,-18195.7,14541.1,-2857.81
1.03696e+08,64.3343,1,2.90354,-8596.46,9535.89,-24315.4
1.03975e+08,144.37,2,2.71236,-19471.8,-20372.9,-17185.3
1.04026e+08,94.311,0,3.01914,3165.38,8632.68,-11351.8
1.04155e+08,53.8309,0,2.6775,7523.11,-4825.58,-21764.5
1.04329e+08,4.66512,2,3.00471,-300.311,-833.977,-28263.6
1.04355e+08,286.478,0,2.88141,23700.2,17588.1,15030.6
1.044e+08,30.8203,1,2.58625,-964.081,4852.27,-24492.6
1.04617e+08,109.422,1,2.72317,-17253.6,-3321.22,-13870
1.04689e+08,49.836,2,2.62431,-7402.56,-3385.51,-22074.6
1.04897e+08,71.3876,0,2.43133,-9142.21,-2370.6,-27620.4
1.04939e+08,125,0,2.58226,19301.4,13656.5,-16914.4
1.0497e+08,125.286,2,2.56769,2279.91,-20939.7,-12701.8
1.05011e+08,223.711,2,2.47485,-3806.67,3108.48,2177.22
1.0545e+08,177.33,1,2.42773,7246.86,20786.9,1592.82
1.05511e+08,60.7802,0,2.63821,6709.51,5612.86,-19377
1.05752e+08,36.6795,0,2.745,1530.33,-7553.97,-27879.9
1.06133e+08,6.95941,2,2.51441,-1046.83,885.944,-28287.8
1.06316e+08,23.0447,2,2.50362,-4202.84,1780.54,-27038.1
1.06389e+08,17.9322,1,2.62491,521.235,3416.32,-27162.1
1.06655e+08,151.057,1,2.72649,12479.3,28793.5,-23206.1
1.06927e+08,43.523,1,2.88912,-6885.13,1818.88,-23005.8
1.06958e+08,120.978,2,2.70995,-12713.5,-17152.9,-19886.6
1.07368e+08,26.2201,1,2.64628,2497.87,2254.88,-24429.8
1.07447e+08,49.9085,2,3.05886,5454.14,7986.92,-25008.2
1.07842e+08,41.6052,1,2.60173,-4579.09,1717.52,-21486.8
1.07894e+08,122.775,2,2.7137,9493.18,20264.6,-15949.3
1.08425e+08,0.855829,1,2.41236,-119.457,226.334,-28716.8
1.0849e+08,77.4123,1,2.93262,-4644.78,-10319.6,-17218.3
1.08631e+08,167.703,2,2.96858,11010.5,-20934.2,-2760.7
1.09539e+08,58.5169,2,2.83632,-6411.08,-10516.7,-27377.4
1.09638e+08,3.46165,2,2.65536,-323.443,-607.241,-28394.2
1.10165e+08,30.2838,1,2.53888,-1943.92,3441.9,-23717.8
1.10355e+08,87.2788,2,2.78949,-11651.9,-14281.9,-29882.4
1.10985e+08,85.55,2,2.72245,-9090.51,-15537.7,-26644.2
1.11485e+08,58.1591,0,2.89471,6609.2,8975.49,-23677.5
1.11507e+08,163.77,2,2.98606,-7395.02,-17819.2,-8288.25
1.11967e+08,72.0347,1,2.48362,11615.1,9827.81,-27573.2
1.12115e+08,65.3617,0,2.41011,-6414.76,8240.88,-19833.5
1.12475e+08,171.224,0,3.05594,-20362.4,12216.7,-2038.68
1.13297e+08,61.9081,0,2.40763,-1897.5,-12655.8,-26038.7
1.13444e+08,42.763,0,2.74337,1297.43,-7273.62,-23619.8
1.13546e+08,81.1681,2,2.80575,4946.22,-14624.5,-21362.2
1.14135e+08,148.198,1,2.52689,-14854.5,15312,-5809.15
1.14144e+08,59.4326,1,2.43169,392.872,-5766.17,-17721.5
1.14314e+08,12.1601,0,2.92455,31.5398,1962.24,-27166.8
1.14323e+08,51.6175,0,2.40676,8463.5,7036.83,-28854
1.144e+08,90.1637,1,2.39929,-10036.2,-7411.27,-14402.4
1.14599e+08,92.0381,2,3.01432,-7742.46,4029.7,-23563
1.15222e+08,106.662,2,2.3905,-8328.51,1572.02,-10920.8
1.15307e+08,45.0657,2,2.42169,4329.33,8172.47,-26756
1.15465e+08,8.29748,2,2.65777,-187.907,-1846.59,-28896
1.15826e+08,123.195,0,2.94893,10017.9,-12441.4,-18619.6
1.16301e+08,44.3389,1,2.64941,-7112.68,584.556,-22830.9
1.16327e+08,45.0355,1,2.58872,2985.26,8436.11,-25484.7
1.165e+08,195.917,2,2.42707,19044.9,-29167.4,-6327.89
1.16576e+08,140.635,0,2.52307,-5438.9,-28773.7,-23657.1
1.16598e+08,27.8466,0,2.37397,613.912,-2746.6,-23616.3
1.16647e+08,21.391,1,2.51779,-4459.76,1076.74,-28324.3
1.16777e+08,52.3554,1,2.38637,-7748.95,-488.979,-20866.1
1.16828e+08,98.7533,2,2.91745,-2138.27,-16771.6,-16700.8
1.16924e+08,48.9421,0,2.70203,5065.68,-3236.74,-20519.7
1.17033e+08,97.1722,2,2.65161,-15119.7,-10795.5,-19965.7
1.17047e+08,50.1068,0,2.92359,4714.53,2610.41,-19740.3
1.17204e+08,71.1225,1,3.01543,2484.27,9485.21,-17561.4
1.17405e+08,166.52,1,2.37811,-9500.26,27258.8,-8508.61
1.17446e+08,107.083,2,2.41149,-20741.7,6699.51,-22563.4
1.1752e+08,22.4921,1,2.64954,-3907.63,-583.454,-26174.8
1.17612e+08,19.3942,1,2.75448,-3792.41,1196.87,-27563.7
1.17798e+08,50.6174,1,2.9313,8081.87,3271.14,-22791.5
1.1789e+08,27.6373,2,2.58382,-3675.82,-2735.97,-25102.1
1.18249e+08,172.243,1,2.84986,-11537.4,23247.2,-3512.89
1.18493e+08,12.0041,2,2.64301,-1776.4,1778.28,-28466.7
1.18612e+08,16.5473,1,2.98282,-2066.24,2584.44,-27509.6
1.18621e+08,160.632,2,2.91792,-25577.9,2044.88,-6923.06
1.18827e+08,60.7802,0,2.74613,-3044.35,-3286.06,-20069.2
1.18886e+08,123.07,2,3.03506,11351.3,-12173.7,-19353.6
1.19082e+08,0.650477,0,2.81111,119.901,165.257,-28810.6
1.19097e+08,43.9857,1,2.4293,-6274.49,7017.18,-28757.6
1.19351e+08,25.1002,0,2.87974,2185.06,340.027,-23997.4
1.19627e+08,6.37256,1,2.62428,417.129,1352.56,-29027.5
1.20288e+08,35.3172,0,2.53647,-1507.18,4153.64,-22807.6
1.2036e+08,47.9077,1,2.90866,7755.58,5142.17,-24959
1.20546e+08,187.15,2,2.83759,-22305.3,28093.4,-12814.7
1.20886e+08,113.782,1,2.60604,23253.1,5062.48,-25611.8
1.21118e+08,159.03,0,2.7322,28758.3,1639.85,-26145.7
1.21236e+08,254.575,1,2.80825,-4689.05,10085,555.877
1.2156e+08,0.0358144,2,3.01205,-39.6789,-103.956,-28841.2
0,0.0527847,2,3.50349,0,0,0
0,0.0467296,2,3.12975,0,0,0
0,0.0379868,2,4.12162,0,0,0
0,0.0432171,2,3.51014,0,0,0
0,0.0523647,2,2.98726,0,0,0
0,0.0713972,2,3.00574,0,0,0
0,0.0381784,2,2.88889,0,0,0
0,0.102495,2,3.59301,0,0,0
0,0.0514297,2,4.12109,0,0,0
0,0.0418667,2,2.49559,0,0,0
0,0.0423492,2,3.82487,0,0,0
0,0.0509074,2,2.86753,0,0,0
0,0.0433858,2,3.71645,0,0,0
0,0.037113,2,3.53504,0,0,0
0,0.0405993,2,3.522,0,0,0
0,0.0370996,2,3.44415,0,0,0
0,0.037461,2,3.98889,0,0,0
0,0.0858151,2,3.44157,0,0,0
0,0.069532,2,2.49829,0,0,0
0,0.0366168,2,3.25445,0,0,0
0,0.0370374,2,3.927,0,0,0
0,0.0551392,2,4.08027,0,0,0
0,0.0553379,2,3.13206,0,0,0
0,0.0743778,2,2.74912,0,0,0
0,0.0855211,2,4.11731,0,0,0
0,0.0485187,2,2.79777,0,0,0
0,0.0393983,2,3.07268,0,0,0
0,0.0403982,2,2.41692,0,0,0
0,0.0999415,2,3.80396,0,0,0
0,0.061073,2,4.10264,0,0,0
0,0.0423444,2,2.54802,0,0,0
0,0.03866,2,2.96659,0,0,0
0,0.0503827,2,4.04147,0,0,0
0,0.0514745,2,3.86663,0,0,0
0,0.086228,2,2.23531,0,0,0
0,0.0369297,2,3.15502,0,0,0
0,0.0372875,2,3.94734,0,0,0
0,0.0420289,2,3.59351,0,0,0
0,0.0403529,2,3.26888,0,0,0
0,0.0526813,2,2.88407,0,0,0
0,0.0380436,2,3.05148,0,0,0
0,0.035924,2,3.86037,0,0,0
0,0.0363573,2,3.10292,0,0,0
0,0.0528827,2,3.57934,0,0,0
0,0.0417539,2,2.17114,0,0,0
0,0.0785912,2,2.1758,0,0,0
0,0.0902425,2,2.17357,0,0,0
0,0.0361856,2,3.49075,0,0,0
0,0.0630663,2,3.66451,0,0,0
0,0.0390923,2,3.54742,0,0,0
0,0.0499534,2,2.92302,0,0,0
0,0.0387723,2,3.39045,0,0,0
0,0.0715547,2,3.52479,0,0,0
0,0.0383544,2,2.88132,0,0,0
0,0.0407016,2,4.06499,0,0,0
0,0.0465964,2,3.02304,0,0,0
0,0.0411848,2,4.06534,0,0,0
0,0.106,2,2.54602,0,0,0
0,0.0809088,2,3.61352,0,0,0
0,0.0367618,2,2.33413,0,0,0
0,0.0802482,2,2.79094,0,0,0
0,0.0722788,2,2.19463,0,0,0
0,0.0426067,2,3.0289,0,0,0
0,0.106599,2,2.4887,0,0,0
0,0.206579,2,3.56965,0,0,0
0,0.0741257,2,2.85079,0,0,0
0,0.0870447,2,2.91879,0,0,0
0,0.19452,2,3.99779,0,0,0
0,0.0717883,2,3.84168,0,0,0
0,0.116458,2,2.8467,0,0,0
1.21668e+08,145.349,0,3.00445,22861.6,20103.2,-26335.7
1.21956e+08,54.6441,2,2.52997,-7836.03,-8615.43,-28535.9
1.22027e+08,199.81,2,2.88798,-21199.6,7768.57,6539.3
1.22181e+08,31.3721,1,2.51868,-744.567,5259.7,-24723.2
1.22277e+08,21.9222,2,2.72974,-4557.45,-308.503,-27828.2
1.22306e+08,127.309,0,2.72312,12661,8825.9,-6853.69
1.22502e+08,16.3176,2,3.03105,-2493.08,-1629.97,-26974.5
0,16.1835,2,2.49517,0,0,0
1.22831e+08,237.466,2,2.78058,-10387.4,-14825.9,-8553.14
1.22844e+08,157.673,1,2.65502,-26508.5,19176.5,-22551.5
1.2289e+08,94.4513,1,2.71602,-17008.9,-6090.98,-20471.2
1.23027e+08,110.662,2,2.57677,-4178.79,20003.6,-17559.3
1.23215e+08,39.1518,2,3.0282,-3901.28,-515.369,-21587.8
1.23305e+08,61.6447,1,2.84946,-4476.14,12258.7,-29611.2
1.23469e+08,2.5222,2,3.00349,-286.841,-147.515,-28348.5
1.23505e+08,119.63,1,2.6891,-11412.8,18871.3,-16413.2
1.2412e+08,72.1159,1,2.50043,10697.3,10877,-29954.4
1.24204e+08,8.06167,2,2.64083,893.461,-1427.38,-28277.9
1.2427e+08,45.7608,1,2.79904,-4225.31,-4539.72,-21462.5
1.2457e+08,90.4034,0,2.79759,9307.29,15973.6,-24052.9
1.24578e+08,14.5978,1,2.93108,1963.84,415.215,-26511.4
1.24843e+08,84.2525,2,2.75529,-6803.88,7817.66,-14447.8
1.25326e+08,81.9393,0,2.74633,-947.206,409.011,-28198.2
1.25424e+08,0.562972,2,3.56588,-52.1543,-197.259,-28912.5
1.25482e+08,35.6518,0,2.70247,1323.12,6831.2,-25925.7
1.2568e+08,98.122,2,2.92857,-5896.05,6703.86,-10278
1.25792e+08,172.916,1,2.80702,20069.2,21826.9,-7719.66
1.25958e+08,2.36455,2,3.0491,-188.286,-80.9486,-28361.9
1.26018e+08,75.8024,1,2.85019,4335.3,-7965.75,-20277.9
1.26306e+08,183.001,2,2.94995,4316.05,533.806,-13571.5
1.27103e+08,8.68108,2,2.41255,-512.093,-501.801,-27101.4
1.27461e+08,20.0845,1,2.78855,1329.24,-2899.15,-26132.9
1.27934e+08,28.1354,2,2.91716,4423.44,592.125,-24995.6
1.28124e+08,97.7692,1,2.41163,-110.065,13588.4,-13215.2
1.28967e+08,96.7092,1,2.50532,-18225.4,4360.07,-20480.5
1.29053e+08,15.661,2,2.77232,835.286,-2682.55,-26974.6
1.29179e+08,48.4678,0,2.84496,262.44,-5118.89,-20051.2
1.29354e+08,21.4693,2,2.56772,1291.56,2278.17,-25151.1
1.2937e+08,85.3153,0,2.46655,5755.08,-17053.8,-28933.7
1.29694e+08,57.9488,0,2.3748,6592.56,-3909.52,-19177.5
1.29734e+08,58.2573,2,2.56028,9331.04,961.367,-20910.8
1.29784e+08,42.4419,2,2.40597,6761.24,-5426.55,-26392.1
1.31478e+08,57.4198,0,2.64598,7674.03,9481.92,-28686.5
1.31583e+08,291.87,1,2.97145,27935.4,20894,21433.6
1.31724e+08,10.8151,1,2.79483,-1043.33,1813.27,-27720.7
1.32121e+08,53.9888,0,2.93212,-8631.86,5876.1,-24601.6
1.32505e+08,36.6505,0,2.44763,6847.08,-234.739,-25000.4
1.32618e+08,65.3584,0,2.49867,1228.98,10963.4,-20484.9
1.32792e+08,79.183,0,2.75116,16098.8,2410.26,-24837.6
1.33226e+08,5.13831,0,2.82422,804.544,-806.861,-28789.1
1.33405e+08,22.4881,2,2.86716,-3787.51,-2356.13,-27004.6
1.33455e+08,97.4222,2,2.97561,8685.01,-7512.83,-11903.3
1.33793e+08,19.867,0,2.51422,-1382.74,-2637.37,-25883.7
1.3396e+08,4.05396,2,2.7082,-92.6095,754.304,-28506.5
1.34275e+08,140.434,2,2.74975,-6039.24,-28767.5,-24981.8
1.34407e+08,33.2666,2,2.58319,-2252,-6434.76,-26739.8
1.34444e+08,107.879,1,2.87475,22369.6,2295.87,-26113.6
1.34623e+08,31.5168,2,2.97394,-3912.54,-3613.28,-24961.6
1.34765e+08,114.433,1,2.43477,-6933.02,-22082.6,-23715.5
1.35482e+08,97.6097,0,2.68668,5749.78,-12948.6,-13847
1.35547e+08,32.3354,1,2.52928,5792.73,2653.41,-26312.4
1.35679e+08,172.085,1,2.81783,4766.86,24026,-2120.8
1.35682e+08,11.4753,2,2.63702,-2049.68,583.368,-27592.4
1.35966e+08,44.2257,0,2.7055,-2874.97,3891.09,-20906.9
1.35997e+08,71.85,2,2.78449,-10909.2,-7856.64,-21746.2
1.36259e+08,14.5175,1,2.70535,-1187.31,2328.47,-27072
1.36319e+08,69.5826,2,2.99053,-5590.61,-12053.4,-22609
1.3709e+08,74.681,1,2.64066,-14268.6,-2616.4,-22624.7
1.37384e+08,80.078,1,2.68502,2341.23,13775.5,-19282.3
1.37691e+08,38.4836,0,2.7346,2242.51,3518.52,-21833.4
1.37737e+08,4.32378,0,2.9899,648.864,-706.966,-28651.9
1.37864e+08,87.4086,2,2.50714,-8122.62,905.214,-22485.1
1.38092e+08,45.8603,0,2.89748,8103.69,5226.18,-27495.5
1.38502e+08,122.736,2,2.88446,-6776.11,-24953.1,-28298.4
1.39318e+08,18.3662,1,2.41844,1272.66,3686.81,-29386.4
1.39447e+08,28.9797,1,2.43559,3231.89,4551.28,-26158.8
1.397e+08,46.4764,1,2.65675,-7626.54,1489.6,-27116.8
1.39831e+08,62.3786,1,2.8852,9434.81,3935.32,-20624.5
1.39907e+08,33.9441,2,2.60104,1535.25,4842.8,-23860.9
1.39955e+08,70.4638,0,3.05507,10812,-10171.5,-28715.3
1.40076e+08,59.8298,0,2.92722,6322.22,10760.1,-27106.5
1.40499e+08,57.2548,0,2.78418,10647.6,2060.9,-23370.6
1.40522e+08,142.638,0,2.42091,-9763.94,9021.29,-1788.48
1.40608e+08,37.2562,1,2.64711,730.731,-5831.2,-23715.8
1.40761e+08,96.7695,2,2.76381,-4148.99,-16233.4,-17107.8
1.40768e+08,68.6758,0,2.62541,5184.79,12823.1,-24405.1
1.40923e+08,5.01058,2,2.91974,-489.092,-572.516,-28002.7
1.40973e+08,60.297,0,2.51825,-4199.66,-3205.22,-17253.5
1.40996e+08,44.7577,1,2.78566,6418.48,-122.871,-21940.9
1.41276e+08,36.6113,1,2.57834,-1822.37,6561.71,-24986.6
1.41607e+08,15.9133,2,2.65603,-3394.14,293.208,-28793.1
1.41808e+08,77.5928,1,2.97115,6370.73,-5008.33,-14755.5
1.41975e+08,28.6597,1,2.65518,-3961.28,-3354.7,-25754.7
1.42066e+08,19.8665,0,2.81351,1660.24,3786.83,-27898.5
1.42482e+08,84.1009,2,3.03991,-6679.75,583.597,-14526.1
1.4249e+08,68.2682,2,2.46416,7657.2,1084.37,-16694.2
1.42587e+08,53.807,1,2.7971,1949.48,6400.94,-19649.4
1.4265e+08,93.6353,0,3.01246,17364,-102.166,-19577
1.42739e+08,66.0784,0,2.76691,-445.408,4322.77,-24095.4
1.43127e+08,28.2566,2,2.55663,4772.03,-23.7698,-25238.3
1.4326e+08,18.4603,2,2.6713,1546.34,-3287.49,-27323
1.43277e+08,31.0431,0,3.05279,5164.75,-1765.54,-25135.4
1.4361e+08,84.4233,0,2.59358,17306.9,-3541.64,-27125
1.43641e+08,65.7511,2,2.95813,-9226.68,3763.91,-28046.5
1.44569e+08,21.1774,2,2.6786,-3051.37,-3387.86,-28424.4
1.44666e+08,37.967,1,2.52277,6258.93,5028.64,-29542.3
1.44761e+08,40.9919,2,2.80687,-614.407,2395.38,-26953.3
1.45052e+08,23.7095,0,2.53838,3879.72,1412.65,-25840.8
1.45082e+08,15.9561,0,2.62329,2438.09,494.075,-26473.8
1.45321e+08,104.165,2,2.92296,18847.8,9211.71,-22853.4
1.45561e+08,124.139,1,2.5599,23741.3,1697.14,-22782.4
1.45689e+08,13.979,0,2.66572,1837.11,-1213.68,-26760.9
1.45955e+08,101.798,1,2.52169,-10098.1,13819.8,-15659.8
1.46012e+08,234.199,1,2.91618,-10140.9,14544.6,-10306.5
1.46187e+08,46.4829,0,2.46144,6220.57,-5417.56,-23344.7
1.46469e+08,1.27716,2,2.67679,-285.218,-59.8723,-28688.6
0,1.34464,2,2.53871,0,0,0
1.46486e+08,159.007,0,2.5986,-7897.41,14488.2,-1307.03
1.46842e+08,73.3506,1,3.01034,11930.2,4939.53,-20475.2
1.46974e+08,139.76,0,2.77225,-27651.6,9545.79,-26582.9
1.47217e+08,44.6338,1,2.74815,-6306.53,4718.35,-23554.7
1.47277e+08,72.5658,1,2.77914,5395.99,9610.44,-18186.1
1.47333e+08,93.5704,2,2.68678,11407.5,-772.599,-12804.2
1.47353e+08,3.84605,0,2.87893,799.805,-382.908,-28719.5
1.47449e+08,31.9023,2,2.75044,-4366.89,1450.05,-23882.1
1.47459e+08,6.39287,1,2.50077,-1157.33,898.734,-28745.4
1.47529e+08,111.351,2,2.87982,-6797.05,-2497.08,-22187.3
1.47948e+08,61.1154,2,2.68076,11462.5,1300.4,-23168.7
1.47991e+08,80.6336,0,2.50279,6255.83,-14872.2,-23143.1
1.48291e+08,53.5324,0,2.92725,9048.38,3910.09,-23317.7
1.48326e+08,89.7125,0,2.75929,13705.2,9378.9,-19707.5
1.48377e+08,113.178,0,2.84091,13649.9,-9078.62,-25930.4
1.48413e+08,10.3273,2,2.94456,869.437,-1962.36,-29532
1.4869e+08,235.242,0,2.76768,-9171.32,3315.61,-29010.2
1.49161e+08,50.8399,1,2.90148,-9963.25,3470.24,-26712
1.49323e+08,105.733,0,2.63238,1755.34,5558.22,-8462.43
1.49489e+08,95.9637,0,2.96965,15330.1,8757.25,-25714.9
1.50051e+08,111.671,0,2.48232,-20267.7,2305.68,-18168.3
1.50101e+08,46.594,1,2.65983,-2842.18,-2414.53,-19735.4
1.50238e+08,248.902,2,2.54722,-20997.1,10805.9,-17706.4
1.50373e+08,1.98792,2,2.54191,-464.188,95.3127,-28936.2
0,2.03531,2,2.68373,0,0,0
1.50393e+08,83.5703,0,2.9647,17325.4,-3225.21,-28102.5
1.50537e+08,10.3229,2,2.92727,752.691,-2069.82,-28353.6
1.50834e+08,54.8818,2,2.80756,-4526.88,-8543.83,-22374.8
1.50836e+08,5.96193,0,2.88055,1341.59,255.245,-29022
1.50848e+08,141.8,1,2.74837,6407.56,26318.2,-20917.9
1.50905e+08,125.273,2,2.7999,1807.57,-19768.1,-11495.8
1.51191e+08,185.051,0,2.71961,-18182.9,-18692.5,-156.306
1.5136e+08,113.801,0,2.45703,13432.3,-5836.41,-27904.4
1.51424e+08,49.27,2,2.43291,-5447.87,-2488.56,-20247.2
1.51535e+08,44.4421,1,2.88687,-9313.96,1368.37,-28327.6
1.52051e+08,25.2548,1,3.06139,-1493.37,-2625.88,-24490.6
1.52101e+08,152.085,1,2.89147,-10615.8,27761.4,-16932.4
1.52114e+08,77.3857,0,2.47676,16290.5,1998.28,-27430.7
1.52521e+08,32.923,0,3.01318,4022.39,-1933.47,-23484.7
1.5276e+08,117.113,1,2.7859,6813.61,-8264.67,-6656.2
1.52843e+08,98.8144,1,2.49418,7059.3,3560.16,-9503.58
1.53637e+08,208.74,1,2.83726,19061.9,8164.76,2021.66
1.53648e+08,84.0858,2,2.41925,-5885.1,-15676.7,-22538
1.5403e+08,30.7399,1,2.46558,1686.26,1044.09,-29657.8
1.54164e+08,70.5867,1,2.4113,-12189.7,7162.8,-23759.9
1.54633e+08,134.402,2,2.71514,-27598.8,-2945.65,-22889.7
1.54875e+08,93.7227,0,2.64812,-5766.92,-13773.2,-15884.5
1.54889e+08,156.171,1,2.5088,7618.41,28921.2,-14703.8
1.55194e+08,116.432,0,2.82176,-18715.8,-6740.88,-26665.6
1.55207e+08,97.2541,0,2.96934,-17566.8,4338.21,-19522.2
1.55962e+08,90.9428,1,2.54448,-9700.69,14878.8,-21227.9
1.55992e+08,169.112,0,2.84686,-79.7184,18721,1389.46
1.56131e+08,29.0275,1,2.61648,-2937.18,5489.31,-28429.2
1.56306e+08,69.8864,1,2.81039,-10626.9,-10165.7,-28507
1.56334e+08,94.4592,2,2.69075,5852.41,8334.69,-11768.2
1.56942e+08,146.042,0,2.85098,-13616.8,14133.1,-5266.82
1.56975e+08,47.3051,0,2.86137,-7409.61,2100.81,-22650.7
1.57036e+08,208.158,0,2.53121,12262.9,-7776.63,9128.74
1.57772e+08,99.5536,2,2.90652,16988.6,11309.7,-24602.1
1.57844e+08,58.3471,0,2.713,-10133.7,-4912.77,-24003.6
1.58055e+08,56.6854,1,2.58167,-11837.5,-538.069,-26653.6
1.58139e+08,112.139,2,2.49312,-15132.8,-13768.3,-16692.1
1.58147e+08,56.5139,2,2.93626,-11227.2,3734,-27663.6
1.58328e+08,11.0467,1,2.6418,426.391,-1030.96,-26816.3
1.58449e+08,91.6036,2,2.63553,-4214.88,-13349.1,-15405.7
1.58454e+08,8.63695,2,2.60664,438.969,1573.2,-28181.6
1.58471e+08,47.2204,1,2.78658,-7484.37,1749.31,-22468.2
1.58483e+08,17.1017,2,3.01127,900.895,-3521.05,-28405.6
1.58562e+08,128.586,2,2.85838,-20136.9,11803.3,-15169.4
1.58854e+08,1.16958,0,2.62507,312.081,-154.778,-28923.9
1.59294e+08,110.522,0,2.41958,10983.4,-8160.24,-9818.43
1.59763e+08,239.891,2,2.9907,-4302.55,1217.74,-27761.6
1.59928e+08,74.3618,2,2.40713,-14674.9,-5197.54,-26117.2
1.60063e+08,44.7177,0,2.78253,2279.99,-5484.41,-21475.8
1.60127e+08,46.0621,1,2.95199,456.936,-8801.68,-25024.7
1.60524e+08,55.216,0,2.65983,5274.87,-517.089,-18420.9
1.60597e+08,50.2621,0,2.80862,-7007.63,-2057.87,-21269.2
1.60658e+08,16.2323,0,2.78394,2837.93,-2018.26,-29272.6
1.61022e+08,129.853,1,2.61266,9803.15,-16337.4,-9176.21
1.61266e+08,28.4203,2,2.96034,-4756.58,-3722.2,-28499.4
1.61396e+08,4.56613,1,2.85073,-883.498,412.955,-28449.9
1.61448e+08,88.611,1,2.68029,8284.94,1514.87,-12170.8
1.61464e+08,130.319,2,2.82802,-7082.44,5164.86,-10495
1.61762e+08,46.4784,0,2.79309,8485.58,484.26,-23823.6
1.6187e+08,11.5472,2,2.46227,-1202.72,-2073.13,-28010.3
1.62244e+08,152.962,2,2.47781,-15275,-25297.8,-15452.4
1.63381e+08,223.713,0,2.89507,1490.95,2162.31,-4863.58
1.63392e+08,137.827,1,2.76555,-474.383,-20196.1,-8093.73
1.63591e+08,68.5416,1,2.84559,-2514.81,11411.8,-20371.7
1.6361e+08,13.663,1,2.64459,-1951.22,1600.87,-27296.4
1.6398e+08,4.5657,2,2.95048,-366.677,-773.6,-29449
0,4.52168,2,2.87399,0,0,0
1.64087e+08,38.5343,1,3.03485,-4196.16,6996.4,-28624.6
1.64119e+08,11.1211,1,2.90379,-1946.6,1317.44,-29535.5
1.64231e+08,115.365,1,2.54095,-21125.9,5637.57,-17903.9
1.64275e+08,146.123,1,2.78666,-25903.9,10307.8,-20462.3
1.64315e+08,236.844,1,2.88986,9103.12,-31.7662,-26576
1.64618e+08,268.997,2,2.85901,-22643.3,-9122.19,22175.7
1.64689e+08,103.432,2,2.87402,-19282.1,-6836.42,-21346.4
1.64782e+08,81.0539,2,2.81344,-9980.53,-11250.7,-20692.6
1.65322e+08,111.142,1,2.61772,-15872,14300.8,-18922.2
1.65401e+08,21.0618,1,2.47447,-1855.42,2394.84,-25476.9
1.65466e+08,82.2885,2,2.56788,-6856.52,15877.3,-27402.9
1.66009e+08,90.605,0,3.03903,12415.7,11349.8,-19900.5
1.66014e+08,51.3899,2,2.68703,5314.45,-9513.11,-28790.6
1.66267e+08,117.498,0,2.897,-9349.53,5661.6,-6738.66
1.66496e+08,59.7263,2,2.75521,-9590.88,7019.13,-24726.2
1.66609e+08,92.5169,2,2.88193,9759.39,2902.33,-12316.4
1.66618e+08,6.53188,1,2.81659,-1072.89,968.075,-28486.9
1.66973e+08,28.3251,2,2.71774,-3661.6,1464.41,-24328.6
1.66992e+08,97.8848,0,2.65643,-2665.92,-16482.1,-16673.8
1.67231e+08,33.8113,0,3.0526,5317.62,846.715,-24123.7
1.673e+08,67.1773,2,2.4965,-1029.28,2107.67,-29082.2
1.67401e+08,131.249,1,2.58337,-27156,5479.98,-26476.5
1.67437e+08,108.651,2,2.93559,-14180.6,-17995.4,-28360.6
1.67698e+08,53.9496,2,2.4804,-1528.87,-9478.78,-22509.9
1.67844e+08,139.793,2,2.54793,-3510.71,-14709.6,-3415.69
1.67951e+08,6.95826,0,2.71908,937.892,1170.12,-29255.8
1.68388e+08,12.505,1,2.84831,-700.689,-2372.16,-27995.9
1.68425e+08,25.6505,1,2.47311,-453.778,5429.33,-27948.2
1.686e+08,3.45401,1,2.92503,-101.56,646.358,-28356
1.69005e+08,149.283,2,2.4106,-24890.3,19398.3,-28338.7
1.69055e+08,112.794,1,3.02691,19118.2,-13605.1,-26705.9
1.69326e+08,10.8025,2,2.85426,-1054.86,-378.42,-26804.4
1.69446e+08,5.08148,0,2.40824,1173.12,-62.6168,-28705.2
1.70099e+08,18.9543,2,2.57692,-3901.98,-557.975,-27818.8
1.70426e+08,5.43119,2,2.91384,-902.264,-842.023,-28622.3
1.70435e+08,69.1583,0,2.68305,7664.22,7477.88,-25185
1.70462e+08,61.3534,0,2.63143,-7002.87,8894.36,-22627.9
1.70742e+08,60.3654,0,2.94148,6097.85,-8908.85,-22092.9
1.7128e+08,98.1256,0,2.56845,12515.7,10191.8,-15705.7
1.71584e+08,125.288,0,2.67768,6314.52,-17963.1,-10477.8
1.72485e+08,18.5393,0,2.85392,2302.76,1370.01,-25939.6
1.72596e+08,15.3491,0,2.40875,-2313.13,191.949,-26634.7
0,14.8584,2,2.49551,0,0,0
1.72677e+08,5.11375,0,2.9972,-478.441,-143.851,-27894
0,5.10499,0,2.83483,0,0,0
1.72757e+08,83.0339,1,2.51796,-12761.3,8555,-20163.7
1.72827e+08,87.8945,2,2.72203,-15152.3,-7101.94,-20701.2
1.73229e+08,37.6289,1,2.93261,-4476.9,2997.09,-22962.6
1.73248e+08,7.41414,0,2.92878,604.758,785.099,-27566.4
1.73466e+08,64.9263,1,2.39101,-8771.05,8865.72,-22870.7
1.73837e+08,101.76,0,2.38032,3446.95,-11220.8,-10742.1
1.74024e+08,342.881,1,2.8193,3215.5,1858.76,-28538.8
1.74155e+08,30.0254,0,2.904,2653.36,-4481.39,-25205.2
1.74225e+08,2.80298,0,2.77087,223.591,-193.066,-28266.7
1.74312e+08,58.262,2,2.53203,1805.06,6637.87,-18646.4
1.74598e+08,26.4002,2,2.99733,-4718.88,1223.22,-26116.7
1.74678e+08,1.2314,1,2.81042,-179.05,283.915,-28972.1
1.74926e+08,159.214,1,2.9837,8404.67,-18429.4,-2378.34
1.75708e+08,76.8795,0,2.37043,7845.75,-13675.4,-24545.3
1.76149e+08,11.5295,2,2.6722,-1999.57,-932.685,-27616.1
1.76159e+08,123.336,0,2.67547,7212.48,-10667.8,-8408.78
1.76208e+08,32.6744,0,2.49689,2753.92,1063.96,-22535.4
1.76301e+08,25.2401,2,3.06138,4485.49,-2333.31,-27240.6
1.76436e+08,35.5869,2,2.41116,-1410.76,-7465.08,-28060.6
1.77083e+08,5.46149,1,2.87153,-348.405,82.939,-27743.3
1.77167e+08,116.933,0,2.5578,20483,-13983.6,-28579.2
1.77814e+08,204.852,1,2.85854,408.042,617.248,-27765.6
1.78046e+08,134.711,0,2.95314,14253.7,-4908.88,-20844
1.78305e+08,86.7788,0,2.95348,-12886.5,-623.972,-16072.6
1.78436e+08,33.39,0,2.84238,5250.37,3864.5,-26051.4
1.78602e+08,64.833,1,2.38203,-7876.73,1266.82,-17613.8
1.78703e+08,17.6681,0,2.51863,1921.9,2498.53,-26719.6
1.78776e+08,128.991,0,2.75505,-26443.9,-3477.35,-24103.7
1.78856e+08,108.066,2,2.44805,319.238,-18223.4,-14922.7
1.79113e+08,290.073,1,2.82393,-2808.4,-27178.7,25560
1.79399e+08,5.74676,1,2.51131,-1162.5,239.067,-28351.5
1.79869e+08,53.7902,2,2.78268,-194.802,-854.467,-27121.9
1.80034e+08,7.91475,0,2.37311,1125.92,1257.11,-28324.7
1.80044e+08,69.097,2,2.98587,-7630.93,-11800.8,-25023.8
1.80165e+08,40.6753,1,2.64488,4321.46,4182.76,-22665.3
1.80174e+08,61.493,1,2.55541,-11337.1,-6380.63,-28599.2
1.80563e+08,13.725,2,2.78307,-1491.73,-2387.03,-29818.6
1.80711e+08,330.294,0,2.901,-930.206,-7070.64,-19176.2
1.80757e+08,170.534,0,2.38373,15010.9,-25892.3,-8576.79
1.80766e+08,0.686034,2,2.80849,-144.241,42.9141,-28740.7
0,0.700847,2,2.40065,0,0,0
1.81441e+08,54.2991,1,2.43384,6848.96,8432.49,-24928.8
1.81457e+08,147.237,2,2.6723,-13059.8,6359.47,-4721.47
1.8154e+08,106.344,2,3.02542,5764.28,-6430.68,-8276.85
1.81553e+08,178.477,0,2.93893,27480.5,-24474.7,-21550
1.81702e+08,224.473,2,2.75759,-29011.3,-3095.38,8383.03
1.81733e+08,2.32892,0,2.73815,42.3501,327.788,-28439.8
1.81887e+08,15.1263,2,2.8574,-1498.29,-2701.89,-29996
1.8195e+08,292.356,0,2.72083,28337.2,10203.9,24922.5
1.82017e+08,56.9995,2,2.82142,4049.58,6676.87,-19792.6
1.82058e+08,9.1799,0,2.74095,1600.62,894.233,-27996.6
1.8209e+08,209.118,1,2.82433,-27012,-13774.6,2985.49
1.82327e+08,2.90845,0,2.62652,344.812,195.773,-28334.8
1.82386e+08,90.8659,0,2.75459,1343.71,-8876.53,-11936.3
1.82474e+08,115.296,0,2.70828,-4371.38,-15252.1,-10431.7
1.82603e+08,42.8115,2,2.5531,-2670.56,-5278.7,-21904.2
1.82861e+08,10.6904,1,2.62463,-1132.37,310.245,-26852
1.82922e+08,43.029,0,2.39938,-7633.89,3095.39,-25118.8
1.82953e+08,43.8517,2,2.48857,8183.36,-4363.09,-29525.4
1.83408e+08,149.289,2,2.9295,-29899.1,7178.1,-25044.4
1.83586e+08,15.3229,1,2.86507,-1452.64,795.669,-26012.7
1.83612e+08,86.6752,2,2.64347,-3205.88,-7134.5,-12251.3
1.83895e+08,96.0599,2,2.79212,-17387.2,-6737.75,-20814.7
1.84361e+08,69.3779,0,2.68146,-2145.53,-14492.2,-28639.6
1.84502e+08,14.0588,1,2.86791,-1959.3,-2103.57,-28089.2
1.8475e+08,135.434,0,2.82511,-6238.1,-27784.4,-29440.4
1.84961e+08,19.1326,1,2.93176,-1648.55,3301.65,-27042.8
1.85009e+08,48.0233,2,2.66988,-2243.8,5721.05,-20815.3
1.85135e+08,24.2832,2,2.45563,2597,-4492.89,-28470.7
1.85307e+08,10.2595,1,2.91606,-465.397,-1418.38,-27332
1.85939e+08,0.405642,0,2.24366,57.5472,103.336,-28808.1
0,0.434664,0,2.22541,0,0,0
0,0.368837,0,2.61096,0,0,0
0,0.364963,0,2.53077,0,0,0
1.85966e+08,58.2762,0,2.6569,-3022.38,5793.7,-18418.9
1.86028e+08,20.4458,0,2.80081,3928.13,-245.853,-26875.3
1.86229e+08,122.432,2,2.41924,-11265,-21240.3,-18956.6
1.86436e+08,11.0259,2,2.79762,-2200.6,-121.615,-27977.6
1.86688e+08,47.9492,1,3.01319,-9028.15,-1401.71,-26140.6
1.87049e+08,93.9104,1,2.5687,13659.2,-6092.91,-15872.9
1.87408e+08,107.907,2,2.49046,14676.8,-9327.05,-14035.2
1.87989e+08,139.175,0,2.7026,-17873.6,-7232.37,-6782.39
1.88032e+08,158.13,0,2.39687,-1310.48,24933.3,-6559.81
1.88095e+08,160.293,2,2.70231,-17882,-12746.2,-3107.96
1.88383e+08,65.6798,1,2.57315,2102.33,9799.75,-19162.7
1.88662e+08,128.177,0,2.75437,8251.65,-16365.1,-8962.58
1.88928e+08,20.1691,1,2.41633,-2410.05,1598.39,-25595.7
1.8895e+08,19.8118,0,2.49452,1469.34,-2980.22,-26238.9
1.89043e+08,156.04,1,2.94891,12957.4,4319.45,923.271
1.89075e+08,65.4495,1,2.6011,9306.89,-1309.63,-18736.3
1.8941e+08,60.5583,2,2.54464,8776.09,3828.5,-20492.5
1.90129e+08,15.2554,2,2.37044,-360.884,-1578.29,-25989.2
1.90147e+08,69.1475,1,2.40284,663.887,-7945.11,-16621.8
1.9019e+08,96.1104,1,2.55328,12932,920.81,-13221.4
1.90208e+08,455.742,2,2.44595,19431.3,26515.5,24265.9
1.90599e+08,131.955,2,2.49898,-21540.1,-17474.3,-25228.7
1.90883e+08,80.2013,2,2.71354,8586.72,6795.93,-16022.5
1.90924e+08,127.246,2,2.37762,10335.1,-13654.4,-8004.52
1.91204e+08,27.2077,1,2.99797,2415.49,3466.15,-24938.5
1.91241e+08,7.42766,0,2.50109,752.961,-925.057,-27770.1
0,7.42817,0,3.02393,0,0,0
1.92014e+08,66.8586,2,2.9455,-4324.97,-9089.96,-18956.5
1.92028e+08,217.011,0,2.99391,-3303.51,-9230.22,-5959.13
1.92256e+08,2.4732,1,2.37578,374.069,386.197,-28731.6
1.92256e+08,3.41891,0,2.8286,407.618,-35.6389,-28166.6
1.92274e+08,33.4481,1,2.9727,-4295.87,5675.66,-28921.2
1.92569e+08,41.3377,2,2.43688,6421.67,-874.279,-22993.5
1.92853e+08,13.2367,0,2.70612,2318.06,-385.636,-27161.3
0,13.2401,0,2.58464,0,0,0
1.92986e+08,103.227,0,3.05434,-11177.2,-10826.9,-13887.8
1.93317e+08,2.55529,2,2.84408,204.851,-549.904,-28699.1
1.93507e+08,7.47542,1,2.57488,-1415.74,812.06,-28422.6
1.93559e+08,121.71,0,2.6541,10663.6,-17137,-12878.7
1.93578e+08,70.9006,2,2.5101,2639.19,12791.3,-21583
1.93619e+08,32.2512,0,2.75785,2132.81,1242.91,-23548
1.93738e+08,16.3732,2,2.61182,965.545,-2912.14,-27083.1
1.93994e+08,91.3615,0,2.7287,-5569.29,18401.5,-28459.2
1.94255e+08,35.8643,1,2.95904,-2686.88,1765.83,-21976.8
1.94865e+08,6.04956,2,2.54457,-1339.82,-167.813,-28643.9
1.94937e+08,99.3726,1,2.46211,-20259.6,5922.42,-29093.9
1.95083e+08,61.2445,0,2.93121,10795.6,-3523.94,-22665.8
1.95218e+08,142.734,1,2.70852,7700.89,24135.2,-12534.9
1.9522e+08,86.6129,1,2.69357,-6556.31,-7684.27,-13616.8
1.95482e+08,66.2961,1,2.37471,6119.53,9473.94,-20393.5
1.95596e+08,124.99,2,2.87934,-12240.9,14964.8,-11097.9
1.95727e+08,108.33,2,2.50837,-9489.15,13330.2,-12829.3
1.95894e+08,120.166,0,2.62436,5678.22,14093.3,-8478.5
1.96088e+08,100.353,2,3.05418,-11603.8,17263.3,-26014.6
1.96459e+08,153.324,2,2.68837,-16093.3,-24081.9,-14300.2
1.97037e+08,50.9647,2,2.45029,-2515.68,-10530.6,-27699.6
1.97445e+08,165.704,2,2.74414,21009.8,3676.82,-1272.2
1.97636e+08,21.8881,2,2.36973,-4682.06,251.787,-28862.5
1.98524e+08,122.398,0,2.66105,3051.03,15614.7,-8506.82
1.98571e+08,113.52,2,2.7356,-13491,5754.18,-9920.67
1.98697e+08,32.9369,1,2.91128,-3600,-5619.5,-27012
1.98833e+08,5.56322,1,2.4322,-995.087,-150.91,-28127.8
0,5.53005,2,2.63149,0,0,0
1.99013e+08,22.594,0,2.46404,-546.486,-2883.43,-25048.5
1.99332e+08,77.9838,2,2.81928,-870.381,12562.2,-18392.2
1.994e+08,28.9687,1,2.53766,774.119,6139.44,-29585.6
1.99945e+08,86.7772,2,2.74511,-6118.32,-7731.32,-13382.4
2.00003e+08,16.0273,2,2.65728,-2401.89,-2533.97,-29049.7
2.00065e+08,62.2812,2,2.85102,-11420.2,-3488.53,-23284.3
2.00207e+08,66.8393,1,2.40701,-966.741,13413.5,-24191
2.00454e+08,29.0842,1,2.60614,3315.45,4184.85,-25694
2.00544e+08,21.9351,1,2.37398,-2545.99,659.523,-24962.7
2.00565e+08,39.2045,2,2.49001,3320.29,6358.26,-24808.2
2.00586e+08,159.494,0,2.65601,-12800.5,-9259.87,835.001
2.00613e+08,53.5883,2,3.0515,6956.04,-2252.91,-20333.5
2.00648e+08,30.7672,1,2.41365,-3729.67,5405.96,-29523.5
2.01102e+08,62.9649,2,2.58134,6613.75,1382.93,-17377.9
2.01215e+08,6.20111,1,2.61528,139.196,842.033,-27781.3
0,6.1236,1,2.61967,0,0,0
2.01411e+08,122.083,1,2.58352,17838.1,5833.83,-11141.1
2.01541e+08,84.9287,0,2.6319,3993.16,-7498.64,-13012.3
2.02002e+08,106.082,2,2.56335,9063.19,-17912.4,-18705
2.02055e+08,82.4441,1,2.40551,-9504.05,138.21,-14173
2.02066e+08,87.1822,2,2.92351,1478.53,-18302.2,-28540.5
2.02602e+08,126.99,0,2.75696,-285.513,1183.66,-28979.6
2.02647e+08,30.3673,2,2.47347,4922.08,-123.383,-24706.3
2.02824e+08,54.535,2,2.98195,-4436.85,10122.5,-26003.9
2.02836e+08,37.3384,1,2.71253,-6452.73,530.547,-24263.5
2.03217e+08,11.3795,2,2.97743,-1107.52,-961.872,-26867.3
2.03267e+08,187.073,2,2.88204,23093.3,3069.18,-4954.96
2.03289e+08,21.7188,0,2.72333,2461.47,2126.46,-25528.2
2.03339e+08,25.9921,2,2.60143,3623.35,-4207.23,-28667.2
2.03358e+08,55.4672,0,2.82089,6394.32,-3063.63,-19854.9
2.0336e+08,33.0756,1,2.59582,-6683.42,712.855,-26743.1
2.03622e+08,4.4972,0,2.59877,-30.0198,953.459,-28663.5
2.03623e+08,33.5547,0,2.6758,3284.26,2346.61,-22954.3
2.03642e+08,12.239,2,2.65608,-452.798,2418.91,-28204.4
2.03972e+08,67.222,2,2.79499,6968.06,3722.49,-17132.5
2.04077e+08,105.108,2,2.96611,-18657.3,3921.2,-17690.3
2.04243e+08,14.4782,1,2.60329,-528.334,-2274.57,-26946.7
2.04292e+08,85.7305,0,2.37962,12928.4,-2493.35,-16240.6
2.05159e+08,8.93597,1,2.80868,1710.4,-176.019,-28130
2.05247e+08,31.9805,0,2.504,6497.88,247.244,-26652.1
2.05431e+08,77.1003,0,3.00943,1646.2,-6714.02,-14202
2.05508e+08,8.16539,2,2.53241,-1723.37,-345.542,-28417.6
2.05604e+08,17.0572,0,2.45449,2699.13,2480.33,-28761.6
2.05723e+08,59.0532,2,2.71945,7048.17,-8146.43,-22523.3
2.05935e+08,95.6118,2,2.99123,-12930.9,-14735.1,-24199.8
2.05969e+08,138.71,0,2.50451,10411.8,-24920.7,-17262.8
2.06489e+08,19.298,2,2.9722,-1215.84,-3856.24,-27870.8
2.07044e+08,14.4932,0,2.69902,2891.93,-708.238,-27790.7
2.07588e+08,216.361,0,2.62216,15419.6,-29137.9,2800.49
2.07612e+08,230.736,0,2.673,17649.1,28670.7,6349.28
2.07626e+08,127.85,1,2.76937,-2006.82,-24026.1,-17002.1
2.07638e+08,92.8545,0,2.76892,14988.9,-5377.04,-17365.3
2.07779e+08,14.559,0,2.51657,2462.27,1864.29,-28074.8
2.08071e+08,1.20937,1,2.71745,-230.477,219.72,-28718.1
2.08182e+08,2.69945,0,2.91453,657.555,-189.839,-28910
2.08223e+08,34.5732,2,2.58175,-1500.19,-7203.62,-28036.6
2.08461e+08,82.6618,0,2.72327,410.323,7373.18,-13045.8
2.08614e+08,142.783,1,3.05302,11366.9,24553.2,-24991.8
2.08831e+08,55.8747,1,3.02739,-6323.15,8810.11,-24184.6
2.08895e+08,4.12435,0,2.8774,301.425,585.769,-28218
2.09052e+08,49.7425,0,2.4653,7343.49,-6272.62,-24469.1
2.09064e+08,154.25,0,2.90584,17666.6,-10730.3,-3832.16
2.09109e+08,121.878,2,2.72743,-24717.5,-7105.81,-27946.3
2.09612e+08,26.0788,2,2.49119,-4874.92,-2785.02,-28848.3
2.09664e+08,65.133,0,2.41975,8492.12,4006.44,-18661.8
2.10315e+08,17.1453,0,2.78347,1155.32,3265.48,-29992.2
2.10432e+08,3.18686,1,2.89114,-716.869,213.703,-28752.7
2.10468e+08,197.635,0,2.71273,24137.8,-7623.27,4305.14
2.10561e+08,13.1138,1,2.64059,-777.066,1821.3,-26799.8
2.10844e+08,44.8991,0,2.76579,5485.85,-7179.37,-25799.9
2.1118e+08,151.384,0,2.464,1416.17,-25338.6,-9318
2.11214e+08,110.394,1,2.98253,21448.5,6579.01,-25938.1
2.11472e+08,166.115,2,2.65037,6243.6,-7949.2,-26785.6
2.11743e+08,131.553,0,2.8611,21144.8,-1901.06,-11001.8
2.11811e+08,8.93032,0,2.80934,775.324,1713.17,-28325.4
2.11935e+08,7.39464,0,2.43535,126.029,-1575.55,-29090
2.12104e+08,39.8752,2,2.57475,-6409.58,5106.27,-26898.8
2.12105e+08,73.1437,1,2.99702,-14357.2,5545.6,-27810.6
2.12216e+08,52.4893,2,2.61888,-3853.31,-2976.12,-18825.4
2.1227e+08,79.3696,2,2.91157,-2582.59,8476.89,-14727.3
2.12299e+08,7.64748,0,2.61789,-299.26,517.055,-27322.7
2.12559e+08,224.373,2,2.94202,26683.1,27099.1,-1190.54
2.12621e+08,18.5822,1,2.97255,-2949.32,-789.674,-26335.9
2.12673e+08,29.0443,1,2.66905,-3847.38,-4752.1,-29196.7
2.12741e+08,15.443,2,2.5564,-3237.81,-335.698,-28257.8
2.12779e+08,61.4696,2,2.60525,-2198.59,-12817.7,-27725.2
2.1279e+08,18.6131,0,2.42174,-2334.39,1691.37,-26204.1
0,18.6091,0,2.38769,0,0,0
2.12799e+08,8.55583,1,2.55436,-1314.43,1193.36,-29549
2.12868e+08,77.2293,1,2.44169,-707.446,7676.06,-14378
2.1291e+08,14.9307,2,2.64956,2675.46,632.954,-27342.3
2.12922e+08,233.2,2,3.00989,-4330.56,-24903.2,13017.9
2.13008e+08,4.50498,1,2.86885,89.3891,1054.85,-28839.8
2.13143e+08,6.05553,0,3.01339,718.835,1115.83,-28925.4
2.13275e+08,78.7076,0,2.37967,-9819.28,7732.3,-17855.9
2.13405e+08,130.038,2,2.90493,-13432.6,19779.2,-15683
2.13482e+08,36.4441,1,2.82656,-7506.76,-1603.18,-27925.9
2.13714e+08,7.62883,2,2.7454,-656.997,-1600.06,-28804.4
2.14305e+08,53.994,1,2.76399,-5361.43,9492.28,-25266.2
2.14477e+08,59.696,0,2.54347,11091.6,-4480.99,-24558.7
2.14709e+08,88.3408,1,2.37647,9173.13,-6640.48,-13985.8
2.14892e+08,51.9326,0,2.36767,9328.19,-3973.1,-24347.5
2.1526e+08,136.879,2,2.93282,-4080.9,-3757.87,-22581.1
2.15365e+08,145.162,1,2.6769,5246,4602.95,-28175
2.15748e+08,109.27,2,2.621,16923.2,-12666.1,-19549
2.1601e+08,143.465,1,2.51877,-13575.8,13564.8,-5278.73
2.1614e+08,29.7225,1,2.39498,2713.93,4588.06,-25460.7
2.16427e+08,40.213,0,2.89485,10.3938,4654.46,-21754.6
2.16476e+08,0.838595,2,2.36903,7.90277,-117.819,-28659.4
0,1.04261,0,2.9479,0,0,0
2.16487e+08,29.6438,2,2.57707,3389.36,-5255.55,-27792.7
2.16624e+08,47.8523,0,2.63539,8548.66,3056.96,-24215.3
2.1669e+08,125.112,0,2.7114,-15296.9,-18386.9,-17989.3
2.16726e+08,48.6008,1,2.97663,-6131.3,6694.86,-23995.5
2.17281e+08,27.282,2,2.44617,-962.111,-5172.49,-26230.1
2.17285e+08,85.6553,0,2.86461,409.471,561.614,-28354.7
2.17647e+08,31.4534,0,3.02507,6312.73,2036.05,-29828.1
2.17712e+08,71.3916,1,2.92612,-6173.94,-1111.94,-15189.7
2.17914e+08,137.739,1,2.64744,-9155.1,9167.45,-13843.9
2.18067e+08,9.55092,1,2.87915,1268.47,432.22,-27318.8
2.18749e+08,2.79285,2,2.94672,-118.209,-199.886,-28266.1
2.18895e+08,4.45073,0,2.77722,1012.58,-107.148,-28624.1
2.19004e+08,103.668,0,2.71468,16635.7,10124.7,-18766.7
2.19166e+08,61.248,2,2.41883,-7795.73,-8608.6,-22877.4
2.19594e+08,2.5847,2,2.98825,-494.838,-413.395,-28851.1
2.19608e+08,50.2502,2,2.54777,-2889.84,-9660.44,-25245.2
2.19747e+08,184.374,0,2.72957,-16993.7,21149.6,-1106.93
2.1996e+08,172.078,0,3.05668,14419.6,4434.79,2152.74
2.20026e+08,6.99153,2,2.57878,-260.125,-788.647,-27548.5
2.20135e+08,12.7319,0,2.56509,-1494.21,-1944.9,-27768.3
2.2069e+08,87.4463,0,2.7981,4620.3,-5235.22,-11805
2.21076e+08,6.3427,2,2.76687,-841.891,1029.17,-28827.8
2.21697e+08,134.499,0,2.70138,5267.63,-21756.2,-17880.3
2.21821e+08,8.87631,2,2.62397,-1567.73,-382.721,-27779.1
2.21871e+08,28.673,1,2.61542,-5269.29,-2507.14,-27076.5
2.22065e+08,168.128,2,2.3927,-6816.76,-29239.9,-9632.2
2.22119e+08,243.511,0,2.46105,25517,-18483,11763.3
2.22348e+08,73.2588,0,2.71827,-8177.15,12665.8,-25662.8
2.22843e+08,11.8365,0,2.59115,-341.908,1520.19,-26894.9
2.23134e+08,14.0214,1,2.5448,-974.742,2903.31,-29205.2
2.23237e+08,93.5328,2,2.68925,-7412.75,-18135.3,-26063
2.23278e+08,141.418,2,2.67683,3219.46,-3497,-25909
2.23416e+08,0.511562,2,2.44589,-180.134,-53.1037,-28800.3
2.23569e+08,33.4903,1,2.74228,-5790.27,2275.02,-25367.2
2.23619e+08,69.293,1,2.48006,2167.03,-13709.2,-24267.1
2.23731e+08,68.7574,0,2.66048,-12341.6,-6580.09,-25159.9
2.23842e+08,251.783,0,2.81256,25053,-4250.16,-7626.19
2.23953e+08,25.1967,0,2.73237,2251.79,2848.01,-24885.4
2.24257e+08,9.82559,0,2.90161,531.07,-1867.51,-28063.3
2.24614e+08,137.467,2,2.64605,-16014.1,-24218.7,-26975.5
2.24629e+08,20.1336,1,2.63902,-3329.03,-1429.1,-26544.7
2.2481e+08,51.8318,0,2.4359,10916.3,-1829.49,-28540.8
2.24957e+08,189.727,1,2.73438,-4350.02,-18089.4,6485.1
2.24989e+08,25.5103,0,2.86901,-529.583,4942.47,-26744.3
2.25022e+08,24.473,2,3.00387,-2768.3,-4398.8,-29609.4
2.2511e+08,14.3825,1,2.56621,-2590.55,-1618.08,-28546.4
2.25133e+08,130.287,0,2.48728,-3138.16,-24241.7,-16091.7
2.25433e+08,183.075,2,2.65519,-27787.4,-18734.4,-9500.06
2.25493e+08,119.736,2,2.88375,6623.52,-8284.73,-6003.09
2.25597e+08,150.158,2,2.75481,490.838,-23276.6,-7341.01
2.26061e+08,38.2195,1,2.54723,-7388.24,847.776,-25576.1
2.26204e+08,159.255,2,2.8346,-28379.5,16656,-23750.8
2.26867e+08,28.6557,1,2.63142,2929.73,1289.9,-23676.7
2.26868e+08,41.8863,2,2.41507,2981.67,-5711.46,-22665.9
2.26927e+08,116.611,0,2.68756,-1616.94,22334.2,-20782.5
2.27156e+08,50.9271,2,2.79487,-10599.5,1465.03,-27684.2
2.27941e+08,83.0119,0,3.00334,-941.065,-451.895,-28137.6
2.27942e+08,13.9521,1,2.60257,-2274.94,-58.7726,-26875.4
2.28988e+08,18.4191,0,3.00221,32.0705,3193.99,-26647.3
2.28996e+08,46.0569,0,2.53345,6531.88,-1621.89,-21726.7
2.29125e+08,3.96394,0,2.86887,-144.394,224.486,-28037
2.29736e+08,128.21,0,2.4072,13004.6,13178.9,-8943.14
2.29913e+08,1.99261,2,2.81318,-497.546,-83.1857,-28817
2.3007e+08,21.0328,2,2.73805,347.47,-4511.28,-28769
2.30305e+08,104.533,2,2.54713,3982.56,20866.1,-22966.3
2.30325e+08,83.4822,1,2.86226,9059.84,9815.48,-26674.3
2.30479e+08,154.838,0,2.97568,21720.2,-13539.7,-8749
2.3055e+08,62.8279,0,2.88932,6656.48,10771.6,-24925
2.30645e+08,119.538,0,2.65121,16818.3,-13688.6,-15833.3
2.30737e+08,44.1692,0,2.67722,-3798.87,5613.08,-22490.7
2.30758e+08,21.579,0,2.84349,4279.17,-1596.22,-29719.4
2.3092e+08,11.056,2,2.78159,-1054.71,1893.53,-28036.3
2.31153e+08,109.079,1,2.42972,-1540,-18494.4,-15218.7
2.31213e+08,44.5762,1,2.6367,-7971.29,-2240.14,-24270.2
2.31394e+08,47.4462,0,2.97817,-6023.79,6326.59,-24135.5
2.31835e+08,149.366,0,2.53761,14890,10411.2,-4749.93
2.32208e+08,107.458,0,2.85371,14963,16738.6,-25915.4
2.32587e+08,39.4417,2,2.53224,1277.02,-8198.15,-27313.2
2.32776e+08,56.825,1,2.40064,7728.46,5342.7,-21292.6
2.33498e+08,1.83871,0,2.85239,19.122,420.679,-28770.9
2.33522e+08,7.37082,0,2.70716,-215.402,-1048.09,-27690.3
2.3375e+08,96.5284,0,2.63782,303.379,-15658.5,-15812.7
2.34704e+08,41.1319,2,2.61155,-7988.38,-37.0013,-25338.7
2.34804e+08,249.748,1,2.41311,-17260.9,20392.2,-8682.75
2.34971e+08,129.33,1,2.79338,-18754.5,-285.309,-9094.2
2.35257e+08,193.029,2,2.75883,27603.3,1902.81,-3371.56
2.35301e+08,150.087,0,2.80194,-3914.28,-23064.8,-7643.4
2.35333e+08,17.1987,0,2.98054,-699.63,2039.16,-25925.2
2.35381e+08,176.971,1,2.67978,17850.5,7257.95,-12759.3
2.35412e+08,66.4846,1,2.38435,438.997,8872.24,-17843.4
2.35607e+08,70.5,2,2.5062,-3253.35,-11506.1,-19804.2
2.3575e+08,56.2745,1,2.58332,-9062.24,-7611.49,-27508
2.35766e+08,28.3639,2,2.95471,-5580.7,-1022.26,-26795
2.35781e+08,22.4077,0,2.40951,-3295.07,816.595,-25612
2.35957e+08,54.5415,2,3.0494,-200.641,-8567.55,-26697.6
2.36265e+08,16.1728,0,2.55837,-1479.29,-2303.72,-26796.5
2.36389e+08,53.4936,1,2.43912,-7994.46,4425.19,-22096.4
2.36575e+08,6.2784,1,2.93889,-1383.47,153.085,-29009.5
2.36609e+08,123.551,0,2.75271,-4582.68,1196.5,-7203.96
2.36686e+08,23.3224,1,2.97857,-696.807,-3869.84,-25989.1
2.36975e+08,22.61,2,2.62056,538.164,-3306.01,-25347
2.3715e+08,168.31,2,2.44109,-19324.3,27985.4,-18370
2.3726e+08,186.524,0,3.01782,-20928.9,-20993.4,-25736.8
2.37632e+08,202.74,2,2.66525,11442.4,17674.3,8317.67
2.37754e+08,32.844,0,2.36772,6532.13,2569.66,-29524
2.37781e+08,65.9736,2,2.48741,6405.65,2888.41,-16827.1
2.37885e+08,54.1921,1,2.61935,9109.93,169.857,-21945.5
2.38038e+08,90.9505,1,2.49836,8491.37,12270.2,-16640.6
2.38105e+08,137.366,0,2.59761,23023.3,8093.97,-13513.1
2.38722e+08,19.9564,1,2.93921,-3996.08,-416.283,-27434.2
2.38932e+08,16.5591,1,2.56769,970.25,3350.53,-28021.1
2.39412e+08,116.283,0,2.79119,10579.8,-21634.7,-24237.4
2.39794e+08,102.02,0,3.00433,2410.9,19914.5,-21393.3
2.39865e+08,174.807,2,3.06036,-11533.7,25569.5,-16833.9
2.40073e+08,117.218,1,2.95655,10580.7,16375.7,-13795.4
2.40178e+08,5.8905,0,2.83308,690.568,-1106.84,-28824.1
2.40182e+08,149.963,0,2.82433,12064.5,28694.9,-23586.8
2.40193e+08,165.476,0,2.66021,26054,1921.96,-5576.47
2.40233e+08,106.04,2,2.69454,15800.5,-13080.4,-19900.4
2.40809e+08,70.7499,1,2.74368,5396.45,9739.76,-18849.2
2.41648e+08,192.181,0,2.88681,587.366,-18069.6,246.511
2.41733e+08,3.83464,1,2.9115,121.581,300.749,-28086.2
2.41883e+08,1.52057,1,2.53337,-135.708,402.272,-28848.4
0,1.46997,1,2.67163,0,0,0
0,1.48483,1,2.3725,0,0,0
2.42121e+08,193.123,0,2.64554,-13982.7,-6887.96,-11695.3
2.42123e+08,49.6927,0,2.87349,6404.02,6389.95,-23487.1
2.42312e+08,81.5027,2,2.89257,-5707.99,4116.47,-13214.6
2.42818e+08,73.0413,1,2.8126,-8034.01,-9323.52,-19631.8
2.42877e+08,266.906,0,2.63612,14989,-4961.25,17169.3
2.43045e+08,114.154,0,2.37408,13469.8,-19704.7,-24780.4
2.43224e+08,9.14618,0,2.71243,-342.417,-691.213,-27051.5
2.43341e+08,18.8352,0,2.95495,-625.81,-3704.5,-27569.2
2.43425e+08,24.7609,0,2.76025,2731.04,4483.97,-29476.4
2.44155e+08,162.755,2,2.43191,-23693.3,5957.01,-4540.57
2.44442e+08,5.4538,2,2.75313,647.159,780.255,-28389.7
2.44562e+08,28.0363,1,2.66144,-3102.47,3798.4,-25383.4
2.44863e+08,156.36,2,2.45503,-29697.3,-10629.6,-18634.2
2.44865e+08,49.225,1,2.95623,-6358.61,2934.62,-21152.2
2.44923e+08,50.392,2,2.45405,930.525,-10712,-29038
2.45252e+08,77.7753,2,3.00122,-1651.04,-7187.4,-25532
2.45388e+08,34.9795,2,2.36659,-655.789,-6036.57,-24456.3
2.45439e+08,268.817,2,2.67972,-23608.1,-23013.8,17322.7
2.46087e+08,35.9829,0,2.68227,-211.123,-47.3958,-29671.8
2.46336e+08,30.1008,1,2.66716,-3556.91,4008.79,-25311.1
2.46736e+08,125.107,0,2.73995,12349.5,-22975.9,-24788.6
2.47351e+08,32.3567,0,2.94526,2664.67,-2103.69,-22894.2
2.47419e+08,27.4226,2,2.8155,-5486.1,-1692.15,-27647.4
2.48097e+08,19.1004,2,2.55758,1860.63,30.6392,-25257.4
2.48696e+08,138.099,2,2.38906,12843,-15888.5,-8150.81
2.48732e+08,103.103,2,2.72638,3632.59,13090.1,-11964.6
2.49142e+08,72.3284,0,2.63934,10376.8,-483.113,-17547
2.4928e+08,74.9635,0,2.64754,12288.4,8406.31,-23315.5
2.49374e+08,7.62051,0,2.58315,1685.79,-181.342,-28559.3
2.49467e+08,79.5771,1,2.73787,-7213.82,8658.77,-16330.7
2.49689e+08,4.65864,2,2.44503,-707.152,680.891,-28975.3
2.49702e+08,46.1553,0,2.53482,5613.79,-5603.78,-23047.1
0,46.1979,0,2.52698,0,0,0
