#class tools::wcsv::ntuple
#title time
#separator 44
#vector_separator 59
#column double eventID
#column double t(ns)
#column double copynumber
#column double energy(eV)
#column double x(mm)
#column double y(mm)
#column double z(mm)
37903,106.453,0,2.65133,14114.3,2740.4,-11499.6
425606,158.922,1,2.74987,-24121.2,-8510.08,-7240.19
443021,124.411,0,2.89177,24801.2,1069.61,-20369.7
520852,4.47837,1,2.87128,20.6774,981.789,-28549.1
559424,6.3489,0,2.6977,670.143,903.026,-27990.8
615644,72.5343,0,2.68985,2548.88,-12641,-20561.5
1.3797e+06,72.7847,2,2.66483,3595.54,-14999.1,-29696.7
1.4106e+06,40.9244,1,2.43807,-2691.35,-888.514,-20628.3
1.94544e+06,2.97758,2,2.95881,-322.221,-456.045,-28405.9
2.03097e+06,15.9579,2,2.55011,-1474.24,-2706.52,-27298.5
2.03389e+06,120.875,2,2.52147,7635.9,23123.9,-21339.2
2.08908e+06,34.9911,2,2.99258,3481.02,6226.2,-29666.7
3.08833e+06,12.5091,2,2.47679,-2549.02,-973.566,-28553.4
3.25721e+06,9.68752,2,2.62649,-822.031,-1342.57,-27439.4
3.39778e+06,21.6523,1,2.90174,-1165.48,4478.98,-28903.4
3.45426e+06,32.6721,0,2.7424,5604.1,3518.57,-26633.4
3.5045e+06,95.4371,2,2.75506,11674.9,-16348,-27332
3.62668e+06,37.9524,1,2.51342,-2533.22,2653.74,-21639.5
3.77752e+06,3.26905,2,2.6058,-357.159,-619.636,-28490.2
0,3.27645,2,2.90784,0,0,0
4.37061e+06,134.42,0,2.5554,17930.4,791.834,-6744.3
4.392e+06,83.1456,1,2.8801,16378.7,-5575.84,-26731.4
5.25714e+06,72.0287,1,2.41532,-6894.86,10257.5,-19772.2
5.26175e+06,13.667,2,2.89756,-1447.67,-763.015,-26405
5.28471e+06,28.2686,2,2.43729,-3368.26,-4979.66,-27840.9
5.33024e+06,34.1242,2,2.71277,-1136.76,-5815.79,-24619.3
5.3843e+06,5.68238,1,2.76187,-414.387,-451.545,-27810.8
5.54847e+06,34.0017,2,2.42002,1685.58,3706.24,-22930.2
5.57728e+06,49.6129,2,2.95896,-5604.83,-4968.18,-21510.8
6.24502e+06,95.8068,1,3.00827,-4157.18,9505.57,-11580.3
6.54e+06,110.542,2,2.79706,-2686.02,9606.17,-7834.74
6.5691e+06,121.557,1,2.50641,18565.5,-50.7069,-11119
6.93593e+06,46.5593,1,2.7937,-2623.26,1353.83,-19472.7
7.32389e+06,128.398,1,2.76745,-8622.96,6122.32,-3913.28
7.38316e+06,43.2535,1,2.82748,4578.93,5805.01,-23465.2
7.61307e+06,85.8566,1,3.00604,11270,-3706.06,-15325
7.6795e+06,74.2322,0,2.46768,3078.01,11416.6,-18515.9
7.86926e+06,73.491,1,2.82052,-11800.6,9861.42,-26452.3
7.94399e+06,33.3368,1,2.68406,858.695,6173.08,-25398.6
8.27869e+06,21.1862,2,2.39762,1441.06,2751.72,-25648.5
8.39128e+06,62.1855,0,2.41127,13232.9,-509.005,-28252
8.52722e+06,134.757,2,2.60291,-863.746,-7949.88,-1494.73
8.53104e+06,36.4354,0,2.45001,-4465.16,-5151.62,-25273.1
8.55144e+06,122.348,2,2.76439,4647.57,-19858.2,-13018.3
9.12766e+06,90.6896,1,2.36399,6960.39,13896.9,-17469.1
9.49276e+06,14.6076,0,2.87513,1007.88,2826.49,-28033.8
9.55397e+06,37.0589,2,2.51113,-2217.32,-4435.58,-22672.8
9.55522e+06,87.7511,0,2.72243,13690.2,3189.5,-16700.6
9.65362e+06,125.04,0,2.77055,-18397.7,17406.9,-21877.7
1.00616e+07,4.03905,0,2.97105,910.215,-259.139,-28812.7
1.00768e+07,11.9436,1,2.79914,-901.98,-2019.23,-27695.1
1.01528e+07,199.296,0,2.6071,19285.4,-9895.75,3327.62
1.01966e+07,70.0512,2,2.36487,-10445.8,-4165.06,-19098.7
1.03101e+07,41.9637,2,2.83282,5244.72,-6565.41,-25956.4
1.07619e+07,6.88934,0,2.5501,201.517,1058.48,-27807.5
1.09516e+07,13.8533,2,2.66337,-2094.44,-1882.57,-29992.1
1.11338e+07,39.5056,2,2.78882,-3035.33,535.182,-21110.4
1.11402e+07,67.4921,1,3.01677,3359.3,8821.61,-20373.9
1.13689e+07,60.1038,0,2.55286,4772.6,-6028.97,-18681.2
1.1688e+07,249.196,2,2.43987,-2424.88,21567.6,19173.8
1.18414e+07,22.7297,2,2.98924,489.797,-4334.88,-26801.7
1.20073e+07,232.906,1,2.58654,-6731.77,-10429.8,-10159.8
1.23992e+07,64.5965,0,2.38218,5654.43,4129.57,-17055.4
1.2405e+07,65.4782,0,2.91636,9489.47,1327.7,-18870.4
1.24351e+07,166.083,0,2.68997,1232.7,-5864.72,-24337.4
1.25048e+07,83.8515,1,2.62631,-9743.19,-9710.86,-17685.5
1.25127e+07,5.27876,1,2.36297,-96.3232,-581.59,-27904.7
1.27936e+07,130.803,1,2.56362,-23004.1,9915.77,-17002.3
1.2864e+07,110.329,2,2.74792,6300.71,16876.5,-14259
1.28822e+07,96.2381,0,2.88843,-15094.3,843.566,-15518.4
1.28841e+07,37.1175,2,2.61814,-2034.12,-432.724,-21253.3
1.33112e+07,54.9589,2,2.49656,-11090.1,3489.24,-27975.5
1.35668e+07,98.5835,0,2.40815,19683.9,7177.11,-28453.7
1.38383e+07,159.512,0,2.37907,11691.5,-29852,-18156.6
1.40063e+07,43.9305,0,3.01352,8033.18,-3442.04,-25637.1
1.40252e+07,137.574,2,2.6267,4363.05,24209,-13484.7
1.40606e+07,38.3424,1,2.68551,2432.6,1821.64,-21322.9
1.41103e+07,54.1351,1,2.73082,-8980.52,2059.17,-22028.8
1.43031e+07,79.5692,1,2.70737,-12304.3,7089.72,-19807.5
1.45198e+07,75.7997,0,2.84701,-5526.63,-11355.3,-19144.6
1.46994e+07,50.3445,0,2.64949,10015.5,-3177.01,-26765
1.4776e+07,15.3079,1,2.77677,-1622.99,125.714,-25998.4
1.48584e+07,197.513,2,2.87982,21.2673,-26853.9,2866.7
1.49075e+07,98.6306,2,2.72586,6865.73,-11844.3,-18762.2
1.50823e+07,60.8183,1,2.70757,-11790.6,1673.66,-23910
1.52778e+07,0.398826,1,2.87592,-135.521,52.79,-28770.7
0,0.395586,1,3.0197,0,0,0
0,0.437988,1,3.01759,0,0,0
0,0.39187,1,2.64172,0,0,0
0,0.390396,1,2.93712,0,0,0
1.5548e+07,20.4787,2,2.88867,-1689.78,671.658,-24926.4
1.59216e+07,14.427,2,3.05534,2487.57,-522.023,-27182.4
1.61196e+07,1.25517,0,2.99219,169.628,-17.5992,-28574
1.63211e+07,66.6204,2,2.5911,-3588.35,2705.38,-15954.5
1.66329e+07,24.6514,1,2.59914,-3225.69,-1600.4,-25052.8
1.72676e+07,48.0485,2,2.73027,-8204.31,-2475.63,-29072.9
1.73238e+07,5.36605,0,2.38946,705.618,-647.301,-28122.3
1.75188e+07,1.6248,1,2.44267,180.301,361.839,-28753.5
1.7753e+07,30.3484,0,2.6618,-1638.49,1838.35,-22946.1
1.81859e+07,12.5192,1,2.37601,653.008,2156.88,-27308.8
1.82294e+07,141.245,0,2.68221,-4134.11,-26924.2,-16769.8
1.82887e+07,37.7212,2,2.71435,-5228.87,1558.23,-23037.5
1.83229e+07,95.2223,0,2.94045,-3466.59,4177.26,-12722.9
1.90004e+07,109.986,2,2.60299,-15631.9,-13535.9,-18058.2
1.90972e+07,61.0208,2,2.7508,-1995.47,10639.3,-21980.1
1.94576e+07,94.7701,1,2.88814,-11519.9,5167.27,-13413.8
1.94718e+07,13.0494,1,3.01678,-2212.7,908.86,-27337.9
2.02187e+07,6.83481,0,2.51351,71.4979,-1453.7,-28845.5
2.04212e+07,42.8999,2,2.63084,2555.94,-1674.35,-20298.1
2.05389e+07,177.341,1,2.88458,-21357.6,28715.6,-18170
2.07347e+07,60.8314,2,2.62923,3561.88,-12381.7,-27729.8
2.09102e+07,42.809,0,2.38754,8999.83,1513.45,-27869.5
2.10192e+07,138.266,2,2.71601,-11700.7,-6748.84,-2984.3
2.12956e+07,104.837,0,2.52881,4603.24,17742,-16330.9
2.17716e+07,51.3567,2,2.54582,-985.302,-6110.04,-23814
2.17987e+07,5.49924,0,2.49513,466.396,116.467,-27718
2.20493e+07,114.361,2,2.75291,-13087.2,5377.05,-9345.31
2.21911e+07,59.9656,1,2.70221,6612.35,-703.392,-18096.4
2.22542e+07,135.68,2,3.03942,-25850.6,-11959.1,-28584.6
2.27998e+07,53.7686,0,2.75887,-86.8747,122.679,-29091.1
2.30536e+07,82.5151,0,2.36726,5598.51,4296.5,-12854
2.32426e+07,33.2455,0,2.65162,6412.88,2035.21,-26535.3
2.33435e+07,438.726,2,2.68374,10897.6,19283.7,-26971
2.35191e+07,32.7115,0,2.65545,5147.05,-1401.85,-24344.6
2.35927e+07,27.0648,2,2.97314,2017.61,1752.65,-23834.3
2.37358e+07,150.636,1,2.80573,6635.99,-12698.2,-591.508
2.38185e+07,127.288,1,2.96966,-10172.4,24768.8,-29736.8
2.38656e+07,19.2801,2,2.39709,-1097.24,2858.18,-26157.3
2.38658e+07,10.3218,1,2.79373,-1500.85,450.044,-27244.9
2.4355e+07,16.8992,1,2.39832,-3322.27,-144.917,-27335.6
2.44698e+07,77.5808,0,2.61671,-10502.3,-12049.3,-25502.5
2.47141e+07,4.98169,1,2.54106,307.916,851.79,-29508.5
2.47544e+07,30.0226,2,2.46413,-1582.25,-1783.89,-22902.4
2.47584e+07,20.9049,1,2.44814,586.864,953.308,-24532.8
2.51711e+07,52.7748,1,2.48868,4741.72,8459.73,-23222.1
2.55404e+07,154.758,0,2.88105,-7655.11,-9395.38,-29130.3
2.58845e+07,2.18866,0,2.38982,500.34,246.317,-28836.1
2.63367e+07,61.058,2,2.41347,-4598.79,4038.5,-29080
2.65715e+07,29.8501,0,2.38306,3005.33,-1933.5,-23562.1
2.66707e+07,46.3231,0,2.89719,-6942.58,-5557.7,-28062.2
2.70189e+07,110.704,0,2.83047,10522,13292.6,-12803.4
2.70293e+07,155.286,2,2.67195,-1730.73,-12713.2,-20120.3
2.70342e+07,122.669,0,2.60299,-3240.21,-10949.3,-5623.17
2.73125e+07,28.9159,0,2.52826,3167.86,4780.33,-26599.7
2.73421e+07,35.6537,1,2.45833,4378.15,2446.39,-23205.3
2.74995e+07,85.1652,2,2.74818,-13671.4,2553.53,-17506.1
2.76143e+07,75.3999,0,2.99447,14231.1,-6248,-25456.4
2.76152e+07,150.499,0,2.564,2425.48,9368.38,1449.36
2.79667e+07,163.045,1,2.608,-21725.2,12966.9,-5396.48
2.79765e+07,59.6104,2,2.38441,-4476.65,-11625.1,-26309.8
2.80276e+07,120.944,2,2.43397,22618.8,-6446.2,-18832.3
2.81564e+07,22.9243,1,2.7828,-4280.74,2226.5,-29747.7
2.82369e+07,9.21819,2,2.48439,-183.249,-2047.66,-28861.7
2.82991e+07,21.946,1,2.77325,1609.61,-3845.92,-26993.7
2.83229e+07,12.059,0,2.54094,1456.55,495.179,-26723.6
2.83246e+07,110.778,2,2.7344,-13791.6,-2739.84,-10171.1
2.84532e+07,134.425,1,2.96692,-13689.3,21927.3,-17351.6
2.87824e+07,142.666,2,2.77224,-17378.3,9282.47,-6141.07
2.89967e+07,43.3929,0,2.39298,3307.29,-5419.41,-22143.6
2.91577e+07,39.61,1,2.45255,-875.936,8252.23,-27081.2
2.91763e+07,20.3404,2,2.50423,-1089.16,-1238.7,-24820.6
2.95427e+07,19.8749,0,3.02688,1443.09,3175.79,-26491.3
2.9687e+07,95.9225,2,2.55745,-5684.14,-5479.39,-10187.2
2.98708e+07,224.412,1,2.45604,-24991.2,19842.5,6350.67
3.00057e+07,54.5327,1,2.38453,7789.14,-981.39,-20385.1
3.00453e+07,47.3292,2,2.88714,-6058.8,-4681.47,-22366
3.0106e+07,4.91963,1,2.75694,-89.1615,901.902,-28171.5
3.04553e+07,96.2744,0,2.78319,3851.96,3381.88,-9205.76
3.07226e+07,156.473,1,2.74559,-12428.2,-23984.3,-10077.1
3.09962e+07,14.3111,2,2.78039,964.51,1218.46,-26290
3.10599e+07,25.9006,0,2.57402,-4858.8,-968.102,-26609.4
3.11183e+07,88.895,0,2.65965,6987.91,-8358.5,-13578.9
3.16845e+07,142.487,0,2.56546,-3450.95,-25572.1,-13320.1
3.21588e+07,6.52972,0,2.43587,1019.47,-1032.88,-28916.4
3.26363e+07,159.493,0,2.90552,-29645.5,-733.457,-13657.8
3.26495e+07,16.9909,1,2.69542,1445.52,-1508.02,-25980.1
3.28558e+07,63.1915,1,2.55139,-7353.34,3385.94,-18155
3.30945e+07,63.9671,0,2.78455,-7024.23,-10182.6,-23581.6
3.32638e+07,115.066,0,2.87961,6906.53,12528,-9332.13
3.338e+07,113.104,0,2.60089,6446.59,-569.94,-5808.16
3.38919e+07,94.5631,2,2.92734,4960.28,-12921.8,-17818.9
3.39272e+07,58.2043,2,3.05565,873.861,-2670.88,-28334.2
3.41941e+07,29.7587,2,2.66827,-5796.15,-2111.16,-27342.3
3.42412e+07,125.667,1,2.47672,8592.71,-18703.5,-24362.5
3.44101e+07,35.2522,1,2.38744,-3604.97,3474.97,-23214.8
3.45584e+07,48.2126,1,2.50133,-374.202,5511.77,-20201.4
3.45646e+07,179.729,1,2.78621,18135.2,27930.7,-10793.9
3.47638e+07,190.037,0,2.40437,14281,6749,8176.99
3.49659e+07,109.017,1,2.84258,9433.84,9356.28,-10370.4
3.50148e+07,64.4606,0,2.75968,10935.7,-2088.33,-20921.2
3.50173e+07,6.83947,2,2.84574,-948.006,-1122.4,-29358.5
3.51806e+07,64.1294,0,2.76234,7494.45,10081.2,-23696.1
3.53792e+07,48.0176,2,3.05105,2768.91,-7590.21,-22742.9
3.55288e+07,9.29155,2,2.43083,1089.99,-7.82718,-27202.3
3.55314e+07,103.488,1,2.40004,-13496.3,15936,-21913.4
3.58445e+07,92.7678,0,2.84536,17427.7,-8781.99,-27057.7
3.62367e+07,115.599,1,2.67315,8982.47,49.0821,-6196.5
3.62622e+07,11.2419,1,2.95911,961.351,1466.98,-27196.1
3.69558e+07,49.4826,2,2.71505,-2707.54,2448.98,-19062.7
3.69639e+07,43.9921,0,2.75656,234.739,3944.78,-20432.7
3.71594e+07,34.2076,0,2.94726,5114,3253.9,-24839.2
3.72267e+07,117.927,2,2.84341,-9047.94,-18717.4,-15197.3
3.75073e+07,138.864,2,2.58586,-2195.91,13498.4,-2898.17
3.75134e+07,70.017,2,2.78939,8130.8,5202.32,-17754.1
3.75453e+07,23.6535,0,2.6888,-3162.69,3761.23,-28137.9
3.75719e+07,99.1832,2,2.46952,-2075.39,-20931.6,-29224.4
3.78013e+07,36.6778,0,2.40626,5957.63,-301.092,-23757.9
3.78481e+07,50.0066,0,2.56228,-8144.36,-4885.24,-24307.1
3.78926e+07,0.809966,0,2.74635,245.93,89.2135,-28847.6
3.79855e+07,91.2248,2,2.82501,-2807.58,-17952.4,-22380.9
3.82492e+07,55.0537,1,2.48606,-3905.47,-7640.43,-20991.3
3.84359e+07,4.89256,0,2.81143,930.861,-576.009,-29098.4
3.84577e+07,261.503,1,2.73724,-3771.14,243.291,-21152.3
3.85004e+07,35.9761,0,2.80862,-1524.84,2830.25,-22004
3.85599e+07,108.31,2,2.59149,3941.81,15301.8,-12775.3
3.87164e+07,18.5825,0,2.99295,3140.15,-1913.17,-27341.9
3.87571e+07,163.135,2,2.95158,-26526.7,21204.2,-24545.6
3.91647e+07,76.3907,0,2.97883,-3033.96,15502.2,-26209.8
3.92322e+07,19.3812,0,2.47444,4024.64,-998.921,-28128.9
3.92442e+07,100.919,0,2.88683,13174.2,-4028.77,-14799.3
3.93241e+07,28.6893,2,3.04959,-4168.51,-218.704,-24443.8
3.93802e+07,64.1319,1,2.38037,5630.15,-5358.82,-17784.5
3.94934e+07,72.853,2,2.48769,-11904.6,-8927.28,-24526.3
3.98216e+07,124.822,2,3.00931,14230.5,-2515.47,-7078.64
4.00347e+07,82.9307,2,2.93031,2602.06,3421,-20010.6
4.07477e+07,10.2796,0,2.56512,1390.02,98.2325,-27089.8
4.12384e+07,128.307,2,2.71466,-13866.4,3779.02,-5926.89
4.16143e+07,146.989,1,2.89482,4880.34,20703.4,-8160.84
4.17297e+07,44.281,1,2.69932,2415.55,-5362.37,-21617.1
4.17318e+07,0.612971,2,3.04591,-37.3069,-204.623,-28888.2
4.19211e+07,64.7253,0,2.79611,9853.36,855.699,-19356.6
4.22281e+07,74.4362,2,2.99835,972.04,-10606.1,-17346.2
4.22357e+07,75.2439,0,2.75245,6812.68,4155.07,-15086.9
4.27281e+07,156.137,1,2.3842,-23612.3,23050.2,-25778.7
4.29076e+07,17.9127,2,2.75985,2876.93,357.221,-26430.6
4.33303e+07,6.31384,1,2.81875,-121.663,947.584,-27808.6
4.34483e+07,70.3621,0,2.4124,12913.5,-6934.08,-25687.7
4.35263e+07,210.763,0,2.39373,4014.07,-20116.2,10763.2
4.38972e+07,23.0013,2,2.51449,-4588.14,965.049,-27402.8
4.4042e+07,65.5003,0,3.01792,4703.44,-6098.14,-17421.5
4.40616e+07,20.5005,1,2.63711,-3317.47,2950,-28756.6
4.40738e+07,147.062,0,2.64149,-13524.7,9262.43,-18117.1
4.40781e+07,13.3896,0,2.87039,2763.25,-112.858,-29751.2
4.44125e+07,28.9417,1,2.40962,-2792.09,-2150.49,-23797.6
4.45133e+07,11.6735,2,2.62469,-687.699,-1081.42,-26681.6
4.47062e+07,162.482,1,2.63823,-2276.49,-23697.5,-27981.7
4.4749e+07,266.757,2,2.48512,21536.1,22442.5,18131.9
4.49451e+07,13.6671,2,2.59577,459.832,-2951.84,-29065.2
4.50594e+07,66.641,1,2.51355,-1910.55,9834.96,-18820.2
4.56889e+07,42.6955,2,3.03732,-6017.09,-614.807,-22197.1
4.59122e+07,23.784,1,2.41814,-1092.81,1649.5,-24157.1
4.60904e+07,64.7444,0,2.48199,2117.6,13562.1,-28511.3
4.6367e+07,170.941,0,2.60761,-17411.7,-212.959,2712.06
4.64162e+07,5.17333,0,2.85564,247.348,1082.45,-28600.7
4.66744e+07,48.6032,1,2.90414,2967.55,7630.05,-22666.5
4.69599e+07,75.6114,1,2.72558,-9293.54,9326.49,-19715.4
4.70146e+07,6.1509,0,2.56581,782.99,37.2157,-27720.5
4.71182e+07,94.3351,1,2.68715,-14459.7,-5721.57,-16419.7
4.71726e+07,97.2624,2,2.69201,-18657.4,-7922.61,-25229.6
4.72698e+07,103.195,0,2.69638,11571.7,392.205,-10346.7
4.74342e+07,103.637,1,2.59085,-11473.3,16695.6,-20285.4
4.76599e+07,81.3366,2,2.45776,6099.54,-2361.89,-12919.3
4.81604e+07,155.483,2,2.41783,-12559,-11174,-531.26
4.82325e+07,138.251,1,2.98937,-19623.3,-3640.68,-19988.8
4.84179e+07,45.6246,1,2.88272,-6805.49,247.968,-22036.3
4.84694e+07,209.15,2,2.59866,17529.2,-13494.4,9380.91
4.88937e+07,37.2731,2,2.73995,-6104.73,-4072.53,-25777.9
4.93568e+07,40.2446,0,2.67139,1709.47,4086.78,-21593.3
4.96007e+07,81.0813,2,2.43203,-9745.71,4103.46,-15297.3
4.97541e+07,31.231,0,2.55039,-2027.3,5505.48,-25826.7
4.98354e+07,80.8614,2,2.7104,-14155.3,-7911.65,-23328.1
4.99035e+07,69.9153,2,2.70338,347.816,-8000.33,-16397.3
5.00861e+07,60.125,2,2.54067,-10169.3,-7737.19,-29239.1
5.01219e+07,50.4886,1,2.65096,8211.39,5603.82,-24925.7
5.04375e+07,13.7537,2,2.36405,-1059.1,-2790.63,-28332.3
5.10128e+07,11.4953,1,2.66343,0.944561,2519.95,-28825.6
5.11945e+07,3.52489,1,2.52465,595.673,540.406,-28809.9
5.13761e+07,136.598,0,2.48942,-7261.05,-9247.44,-2453.05
5.14197e+07,95.0838,2,3.00781,-10718.1,13879.3,-19392.1
5.15818e+07,65.437,0,2.62183,13491.1,2076.23,-26156.8
5.18389e+07,10.7356,0,2.51961,1196.81,-1541.91,-27604.4
5.19712e+07,6.28267,1,2.81438,750.529,1180.6,-28761.4
5.22741e+07,75.8002,1,2.98262,420.232,-6229.86,-14242.5
5.25246e+07,187.109,0,2.91361,7773.89,27911.5,-2290.15
5.25316e+07,10.8843,0,2.38951,431.6,-944.529,-26734.8
5.25966e+07,92.8947,1,2.74857,5741.53,18756.1,-28397.6
5.27452e+07,16.8621,2,3.0357,-1426.36,2587.8,-26910.6
5.29543e+07,2.69373,1,2.57192,-587.561,261.269,-28655.1
5.36197e+07,65.981,1,2.7665,-8905.14,-5553,-19767.2
5.37962e+07,11.1881,0,2.94973,41.1682,-310.893,-28674.5
5.3804e+07,26.1317,2,2.50292,-1092.2,-5471.38,-29563.7
5.42494e+07,144.252,2,2.70726,12456.6,-17241.3,-7067.99
5.45974e+07,99.5967,2,2.65213,-17290.8,8018.94,-19917.6
5.46609e+07,4.00648,1,3.03307,-879.539,208.307,-28602.3
5.47853e+07,34.3543,1,2.92392,2916.18,-3381.6,-23204.1
5.52916e+07,69.454,0,2.61775,-6340.63,11319,-22012.8
5.56019e+07,150.6,1,2.92332,-1699.3,19271.1,-3779.58
5.5603e+07,46.9277,0,2.99255,5110.12,-8451.52,-29312.4
5.56128e+07,67.7539,2,2.93987,3009.15,12300.5,-22507
5.56572e+07,14.8825,2,2.6846,2642.63,-752.097,-27349.6
5.58251e+07,7.20234,2,2.90278,-328.904,537.781,-27444.3
5.60308e+07,101.357,0,2.85116,-10019.8,-6009.28,-11038.5
5.62017e+07,109.181,1,2.82047,-4497.12,19056,-16695.9
5.63561e+07,135.546,2,3.05686,-2130.79,-11267.1,-2833.02
5.67617e+07,168.632,0,2.80441,26261.3,-23855.4,-26361.1
5.68706e+07,5.96114,0,2.53349,-266.636,-756.665,-27879.9
5.68901e+07,46.8558,1,2.62259,2911.49,5267.05,-20935.9
5.69975e+07,284.184,0,2.56047,578.814,15802.7,29088.4
5.7125e+07,57.0207,0,2.62249,1500.32,-7407.65,-19432.6
5.71955e+07,93.1491,1,3.01303,-12800.7,6225.94,-15381.7
5.74003e+07,75.5982,1,2.67318,-2138.01,-6165.68,-14646
5.74168e+07,135.34,1,3.0571,10130,11960.3,-12077
5.75101e+07,204.931,0,3.03758,-12213.8,-17199.4,8493.28
5.76239e+07,104.258,2,2.68547,-15122.4,3087.53,-13124.7
5.78708e+07,55.7891,2,2.98576,-2313.46,-11396.5,-26959.8
5.79142e+07,26.0469,2,2.81544,-3391.93,-904.865,-24557.1
5.7982e+07,31.7885,2,2.39612,-2649.05,-1762.3,-22876.2
5.81652e+07,45.9754,2,2.96974,499.997,-5442.68,-20835.1
5.82978e+07,36.8709,2,2.9582,4792.84,2465.99,-23328.9
5.83114e+07,10.7407,1,2.63674,1798.07,993.163,-29872.9
5.86822e+07,191.673,0,2.7331,25648,18041.7,-3316.35
5.87754e+07,21.3036,0,2.38227,1710.08,-4162.99,-28098.9
5.91619e+07,128.199,2,2.94775,24537.9,-9106.48,-22683.7
5.92025e+07,52.6795,0,2.75095,-6442.49,3720.52,-20661.3
5.92255e+07,126.659,2,2.48531,-3700.1,-15210,-7039.19
5.93514e+07,22.0364,0,2.65742,-2976.82,3340.94,-27677.2
5.95168e+07,100.02,2,2.50525,18127.8,-5256.18,-19291.6
6.00057e+07,12.7998,0,2.74212,1608.35,1081.64,-26871.9
6.00076e+07,128.486,0,2.69379,11118.3,-7822.78,-5353.06
6.03857e+07,248.362,2,2.67594,-6893.57,-9495.76,22206.2
6.09401e+07,124.927,0,2.81177,-13790.4,11852.9,-9894.53
6.097e+07,6.71602,1,2.78544,960.771,-602.18,-28088.8
6.10029e+07,158,0,2.94759,-10853.2,19069.6,-4002.47
6.15052e+07,27.7413,1,3.02463,-5450.3,511.958,-26654.7
6.17741e+07,4.0561,2,2.94009,-610.009,-643.592,-28478.8
6.19207e+07,5.80829,1,2.71944,-200.006,868.99,-27902.7
0,5.78261,1,2.40284,0,0,0
6.19277e+07,95.1506,0,2.39391,-2039.09,-9629.49,-11255.4
6.20368e+07,20.8515,1,2.966,999.356,3756.78,-26673.3
6.21603e+07,83.3115,1,2.69326,5110.99,5291.22,-12896.4
6.2185e+07,46.3422,2,2.7107,-3640.9,-4098.03,-20684.5
6.23045e+07,203.645,2,2.57826,-4608.36,23085.8,7121.19
6.24577e+07,17.3309,2,2.62093,-1306.77,1067.4,-25569.4
6.24684e+07,106.717,0,2.85004,3214.5,-21237.3,-22282.6
6.27437e+07,78.6498,1,2.85716,-7197.55,-7570.07,-16020.7
6.33064e+07,201.589,0,2.97731,2903.84,2182.26,-23330.4
6.33865e+07,79.6333,1,2.43392,11082.1,-11381.2,-23368.9
6.35671e+07,24.7033,2,2.64603,3830.75,-3316.66,-27434.1
6.35829e+07,122.281,1,2.69282,-12687.6,17542.6,-14723.7
6.36785e+07,10.3194,1,2.59717,-1124.77,1415.43,-27473.6
6.40683e+07,11.4072,2,2.58327,1531.5,1718.39,-28410.1
6.44884e+07,30.7619,0,2.37011,-180.657,2520.53,-22819.6
6.45504e+07,101.804,2,2.70069,-3708.77,16695.4,-15909.1
6.45822e+07,75.7192,1,2.83487,-11091.2,11532.8,-27836.5
6.46198e+07,21.4689,2,2.83466,3873.64,-581.021,-26621.5
6.47348e+07,20.9133,0,2.97196,919.278,2321.63,-25218
6.49682e+07,107.126,0,2.94272,10409.8,11186.2,-12275.3
6.5089e+07,47.1691,2,2.55893,3543.79,-4851.7,-20858.5
6.52018e+07,53.3926,0,2.81605,3219.54,5261.17,-19405.5
6.52861e+07,68.7926,0,2.80197,8604.51,8479.11,-20751.2
6.56292e+07,193.043,2,2.86003,11624.1,21264.1,3647.83
6.67659e+07,24.5669,1,2.66716,417.759,5048.12,-27333.5
6.69567e+07,37.5289,1,2.99691,-3584.26,-2149.51,-22146.1
6.75327e+07,63.2428,2,2.44434,-4366.68,-2966.22,-16490.5
6.77397e+07,17.5109,1,2.7327,2482.81,-543.557,-26167.1
6.77663e+07,97.0172,2,2.63056,3920.6,-14235.5,-14715
6.78667e+07,10.9681,0,2.7571,1135.82,1708.15,-27650
6.78902e+07,15.2779,1,2.85391,-2233.61,2402,-28305.6
6.80739e+07,144.325,1,2.64081,-16105.1,19834.9,-12114.9
6.80921e+07,81.9158,2,2.54961,-7992.34,7641.05,-15544.9
6.8212e+07,94.3629,1,2.78458,-15063.7,-12068.9,-24122.5
6.82876e+07,13.8532,0,2.83133,37.9193,2845.1,-29633.3
6.84691e+07,20.9256,2,2.44662,-3808.6,2314.62,-29050.1
6.85474e+07,206.761,0,2.62985,15142.7,26626.2,2291.83
6.85605e+07,183.23,1,2.39772,-3476.49,-14819.8,5868.6
6.88232e+07,78.4388,0,2.7982,984.775,-11917.2,-17436
6.89845e+07,22.228,2,2.71218,2083.1,3613.15,-26790.1
6.90383e+07,52.1197,1,2.70154,739.791,9781.24,-23693.1
6.90449e+07,148.995,0,2.47005,26279.4,-10715.6,-14966
6.91205e+07,144.522,1,3.02317,17570.2,4220.77,-4542.14
6.9343e+07,139.562,1,2.85158,-2976.05,-10020.3,-8800.05
6.97435e+07,119.001,0,2.65336,11196.2,3133.87,-6531.97
6.98781e+07,8.90712,0,2.9577,511.971,-1526.74,-27795
7.02157e+07,130.139,1,2.42273,-26761,5724.38,-25138.1
7.02987e+07,28.7857,0,2.46245,5530.72,-2769.07,-28406.7
7.05209e+07,91.6294,2,2.78487,-11566.2,-9215.02,-16342.7
7.07966e+07,153.92,0,2.5738,-7946.37,14516.5,-872.731
7.08733e+07,61.3064,0,2.50268,-6955.07,-6059.11,-19778.7
7.10448e+07,88.1485,0,2.43552,617.622,-3105.2,-19037.3
7.10636e+07,9.14576,1,2.41964,146.691,1827.09,-27974
7.13087e+07,76.9186,0,2.94903,15196.6,5678.62,-29754.2
7.13793e+07,26.1674,2,2.80468,39.4548,2909.7,-24176.5
7.14439e+07,20.5427,2,2.47951,168.288,-4407.61,-29006.7
7.14934e+07,5.40286,0,2.73837,875.11,533.868,-28178.2
0,5.58085,0,2.94858,0,0,0
7.15071e+07,42.9019,1,2.70424,-7201.77,2169.17,-23698.5
7.17861e+07,110.99,1,2.76183,-26.5282,5203.06,-6041.29
7.18446e+07,53.2598,1,2.91198,-1886.3,6024.04,-19539.6
7.24617e+07,28.2553,0,2.76958,5331.54,2738.98,-29413.3
7.25948e+07,40.8928,2,2.95579,3539.72,1152.8,-24146.7
7.26504e+07,13.4796,0,2.5529,1733.6,2318.07,-28346.1
7.30127e+07,22.4964,1,2.40003,-3243.39,-3374.44,-27949.4
7.30771e+07,116.748,2,2.53478,-992.803,10044,-8634.13
7.31718e+07,42.4822,2,2.84272,-4128.55,-7263.07,-25416.4
7.32886e+07,43.6548,2,2.95373,-6467.89,-6441.06,-27206.7
7.42327e+07,5.93803,1,2.86524,-190.902,962.392,-27932.9
0,5.95885,1,2.41954,0,0,0
7.42552e+07,150.408,1,2.85442,1046.1,15264.5,-1147.08
7.44023e+07,158.131,2,2.57113,-8365.25,-20524.7,-3749.07
7.4746e+07,93.1874,1,2.99256,-8625.91,-8221.4,-13352.9
7.49811e+07,93.9168,2,3.02278,-8199.47,-17410.4,-24253.3
7.49892e+07,42.224,2,3.01939,-4715.3,520.529,-21316.9
7.51137e+07,57.5277,2,2.94371,-10901,4641.02,-26346.7
7.52287e+07,59.6701,2,2.71935,-7222.04,-10368.4,-29712.8
7.52917e+07,10.8533,2,2.89212,-271.4,1184.55,-27164.3
7.53094e+07,35.8775,1,2.39505,-1211.88,2494.82,-21713.1
7.57234e+07,16.0256,0,2.8744,2977.42,1351.45,-27774.2
7.57669e+07,19.5626,0,2.48918,-274.191,-4031.53,-27840.2
7.57788e+07,8.31985,0,2.90542,249.237,887.311,-27331.2
7.57803e+07,58.6491,1,2.61373,4820.08,-10502.3,-24551.6
7.61278e+07,164.021,1,2.41988,-16713.8,2339.23,1525.19
7.62743e+07,86.1223,1,2.65794,5938.84,7473.49,-13338.9
7.64528e+07,67.8265,0,2.73171,12160.5,-946.157,-21238.5
7.64552e+07,23.4373,2,2.48824,-1591.88,-1028.54,-24227.7
7.64571e+07,18.7546,1,2.63703,-319.589,4018.6,-28517.7
7.65957e+07,98.3339,1,2.43848,11784.5,6344.91,-12914.2
7.66924e+07,85.1077,1,2.90793,13439.8,-8705.55,-21011
7.74121e+07,44.0157,0,2.52296,8137.97,4682.43,-28421.6
7.75097e+07,173.316,0,2.60122,-18153.5,-14193.3,-447.095
7.77666e+07,137.05,0,2.73879,-13220.4,14230.2,-7535.01
7.77948e+07,0.803807,1,2.88607,-57.5596,40.3432,-28644.5
7.81758e+07,35.1165,0,2.76742,6092.1,-3390.26,-26089.9
7.84514e+07,28.7208,2,2.67853,2132.28,284.811,-23198
7.85075e+07,44.6665,1,2.71986,-2303.33,8355.24,-24930.8
7.87999e+07,207.267,1,2.48931,-12558.5,26390.9,3905.48
7.88223e+07,77.9864,1,2.62682,-1539.15,8728.86,-14904.6
7.90046e+07,179.79,0,2.8084,-7235.41,-13286.7,3226.95
7.92339e+07,10.4457,0,2.65559,2060.64,695.758,-28131
7.97943e+07,34.64,1,2.45907,-4079.9,2508.46,-23234.3
7.99513e+07,43.7448,0,2.66622,5383.32,4628.73,-22832.8
7.9979e+07,204.53,1,2.91674,18202.2,26381.7,-212.7
7.99813e+07,24.3033,1,2.77877,-2107.37,-4369.85,-27309.4
7.99909e+07,123.659,0,2.44684,-1807.95,-20011.5,-12068.4
8.08577e+07,10.7319,0,2.92778,2243.04,-691.818,-28747.1
8.09233e+07,153.239,1,2.52302,-281.017,1631.68,-28120.5
8.10684e+07,94.9852,1,2.616,5293.32,19302.5,-26692.2
8.11644e+07,139.401,2,2.7385,-21022.6,-20165.7,-25518.8
8.12591e+07,167.797,2,2.61997,7228.68,-19306.5,19.3654
8.14193e+07,56.9539,1,2.8715,-3915.66,11392.2,-29600.9
8.1516e+07,169.987,1,2.45605,-7845.99,-9066.6,5037.55
8.16036e+07,60.4581,2,2.99534,-4031.15,-2394.07,-17026.9
8.16578e+07,133.993,1,2.69691,-7139.41,293.951,-1492.83
8.20862e+07,12.5488,1,3.04896,-1110.03,2264.16,-27793.8
8.21805e+07,21.3438,1,2.94063,-248.661,2979.1,-25417.2
8.24847e+07,0.391565,2,2.68533,-73.0561,-176.344,-28818.5
8.27071e+07,132.86,0,2.84621,-3576.65,15458.5,-5865.31
8.27259e+07,95.7189,0,2.55264,15971.1,-11836.2,-24611.5
8.31545e+07,28.5925,1,2.89229,-2853.29,1494.16,-23700
8.32331e+07,46.8258,1,2.59367,-8968.07,4164.96,-27411.2
8.3242e+07,47.7533,1,2.9731,-6264.89,-6508.28,-24491
8.33512e+07,27.8275,2,2.58931,-1860.85,-520.602,-23245.7
0,28.0975,1,2.91489,0,0,0
8.34452e+07,4.9118,0,2.83748,857.509,-549.808,-28374.4
8.34799e+07,18.0428,2,2.78318,-2553.52,1889.99,-26703.7
8.3614e+07,56.554,0,2.62868,8631.56,8362.33,-28256.9
8.37112e+07,60.0745,1,2.60945,-6548.59,-1203.64,-18027
8.37968e+07,21.4833,1,2.87614,-413.575,3640.69,-26051.5
8.38279e+07,0.608527,1,2.86588,-137.074,-29.8737,-28750.7
8.39003e+07,184.713,1,2.49566,19506.5,-8287.32,3916.86
8.45751e+07,52.106,0,2.71605,2511.23,-4301.28,-19035.3
8.50007e+07,51.1764,1,2.95191,-6301.72,-1884.53,-20327.4
8.50354e+07,60.3507,1,2.49915,-8809.18,-9213.5,-28810.3
8.5092e+07,10.9344,2,2.39634,626.412,-1582.07,-27179.8
0,11.0296,2,2.68715,0,0,0
8.51461e+07,48.8302,2,2.59906,-862.388,-10211.4,-27149
8.52326e+07,22.987,2,2.7031,-3823.94,-2531.34,-26981
8.53228e+07,4.66831,1,2.46909,436.957,-110.791,-27961.7
0,4.6986,1,2.40656,0,0,0
8.53897e+07,156.978,1,2.51303,27282.1,-3432.01,-10289.5
8.55255e+07,49.0893,0,2.53958,3661.44,-4470.79,-23560.1
8.55608e+07,86.3168,2,2.77022,-14898.8,-10283.5,-26370.7
8.56984e+07,248.864,0,2.84381,-1681.13,21110.4,18487.9
8.57237e+07,32.6372,0,2.7622,-2849.15,-3537.5,-23694.6
8.57421e+07,100.469,0,2.71888,7302.45,12961,-13730.9
8.60326e+07,10.7046,0,2.97168,763.923,-221.122,-26708.7
8.6242e+07,46.2803,2,2.40221,-1704.18,-9336.46,-26122.4
8.63955e+07,88.3591,1,2.62667,-7048.32,16215,-22664.7
8.64099e+07,87.5061,1,2.65958,-3010.02,2371.54,-10750.7
8.65231e+07,6.09786,0,2.60447,1046.92,-379.808,-28066.6
0,6.07882,0,3.04643,0,0,0
0,6.05333,0,3.02333,0,0,0
8.65307e+07,194.982,2,2.75402,-23545.8,-5801.68,-12913.7
8.70242e+07,173.522,1,2.5037,-11022.4,-11359,4244.14
8.70492e+07,74.1868,0,2.64655,14241.7,-1748.14,-22365.3
8.7092e+07,177.537,0,3.01839,13371.6,6406.97,5294.37
8.72235e+07,20.0881,1,2.71752,-2079.89,2584.58,-26091.9
8.72833e+07,49.4637,0,2.44319,-8167.09,5591.21,-25606.3
8.73332e+07,8.78748,0,2.97706,43.3376,1032.33,-27284.8
8.74282e+07,29.5565,1,2.79564,751.984,5834.32,-26613.2
8.74394e+07,58.8605,1,2.94712,-11588.7,648.311,-24468.3
8.79168e+07,21.5076,1,2.79056,3139.27,-2974.32,-28081.3
8.81377e+07,169.829,2,2.46331,-25989.6,-24354.2,-23762.5
8.82555e+07,112.896,1,2.75112,6749.44,21977.2,-22623.9
8.86157e+07,39.2549,0,2.49229,-1040.41,1605.11,-21460.5
8.86463e+07,15.037,1,3.01428,-1909.23,-2105.16,-27480.5
8.94082e+07,143.423,0,2.87217,25502.3,-14447.8,-21443.7
8.94241e+07,38.948,0,2.63406,6178.87,3410.99,-24471.3
8.9865e+07,65.7047,0,2.42678,-2653.67,9885.78,-19427.4
8.99393e+07,100.813,1,2.86184,-2813.87,-16366.7,-15744.9
8.99404e+07,27.734,1,2.43677,-2405.84,4344.63,-25536.8
9.03183e+07,61.3666,0,2.88052,7583.61,-7828.96,-21808.9
9.06213e+07,91.6073,1,2.44083,-12871.1,-4251.19,-21132.8
9.0858e+07,51.5028,2,2.66318,10246.5,1772.01,-25812.4
9.09517e+07,83.4657,0,2.84619,-1135.09,11475.1,-15583.6
9.1035e+07,220.34,1,2.88808,-9517.22,13157.7,14531.7
9.10723e+07,62.8361,0,2.82312,9243.65,9572.52,-28757.6
9.15054e+07,160.199,1,2.88501,18779.3,-1725.97,-1024.73
9.15354e+07,176.307,1,2.87307,19724.8,-8876.15,1161.08
9.17351e+07,60.1589,0,2.67463,181.209,-12032.9,-24805.4
9.22291e+07,505.428,1,2.74493,-9631.5,-17982.3,7411.77
9.30765e+07,90.0806,2,2.63571,14120.1,1032.62,-16162.5
9.32631e+07,254.371,0,2.58342,16090.5,-27855.5,11859.6
9.34482e+07,127.471,2,2.75358,5304.96,-7402.72,-3578.32
9.35395e+07,15.86,2,2.4382,-2076.15,-2569.16,-27937.2
9.35949e+07,26.8401,1,2.40294,-5362.94,-1894.65,-28376
9.36811e+07,156.44,2,2.93527,14897.4,-21884.8,-9382.64
9.40688e+07,5.65731,0,2.98683,393.507,1049.76,-28333.7
9.40795e+07,26.7991,0,3.04946,4774.82,-1747.2,-26258.6
9.41583e+07,32.7428,1,2.61321,5917.87,-2038.96,-25966
9.42793e+07,12.0163,2,2.92207,1022.02,-1986.99,-27978.8
9.4368e+07,3.49192,2,2.71245,-682.225,-392.652,-28568
0,3.79723,1,3.06095,0,0,0
0,3.52447,2,2.85841,0,0,0
9.47633e+07,196.486,1,2.92308,-17944,-13871.6,-26660.2
9.4833e+07,18.2528,0,2.93649,3832.07,967.81,-28904.6
9.5068e+07,161.699,1,2.79078,18108.3,23018.1,-11428.2
9.53076e+07,103.054,0,2.66516,9907.97,-3659.31,-16824.5
9.54149e+07,68.2049,2,2.63738,-994.905,-126.604,-28781.6
9.54454e+07,100.396,1,2.86756,11879.1,10687.1,-15060.1
9.54879e+07,48.5637,2,2.49385,-9825.63,2223.75,-26765.2
9.55591e+07,111.242,1,3.0074,17488.9,4451.69,-14083.5
9.5591e+07,139.85,2,2.53353,-7457.31,-24275.1,-13558.2
9.59741e+07,131.751,2,2.93569,-17727.1,-11943.2,-11225.7
9.60788e+07,55.3096,2,2.70113,-7106.44,6698.49,-22460.7
9.67705e+07,153.301,1,2.6328,-13053,-24435.7,-12206.7
9.69137e+07,3.16721,2,2.6772,284.251,516.223,-28661.6
9.69264e+07,10.8021,2,3.02349,-1572.76,728.657,-27346
9.70025e+07,124.462,1,2.74392,4895.92,22665.2,-23790.8
9.71852e+07,14.6799,1,3.03384,-3025.71,-581.381,-29399.3
9.73761e+07,15.3593,2,2.54859,938.871,1264.54,-26024
9.73795e+07,42.1406,0,2.87256,4451.84,5937.57,-23893.4
9.76139e+07,33.6391,2,2.50683,-2315.58,2216.96,-22491
9.77416e+07,91.9053,1,2.84422,2126.41,13307.8,-14902.9
9.81314e+07,82.868,0,2.8382,-6039.61,7089.19,-14127.8
9.86246e+07,102.128,0,2.74072,6279.7,-18489,-19718.5
9.8694e+07,60.9882,0,2.80363,5201.82,-3097.46,-17460.8
9.87974e+07,15.6818,0,2.95196,2689.79,-1840.04,-27948.1
9.88931e+07,148.307,2,2.83458,16883.8,-26291.6,-28320
9.89951e+07,19.8802,2,2.73331,-3801.96,730.015,-27181.5
9.90649e+07,71.8251,2,2.80171,5539,-13687.7,-25245.9
9.91303e+07,205.695,1,3.00877,-13565,-5083.62,11747.5
9.93587e+07,23.7282,1,2.6605,-787.098,2903.38,-24763.6
9.93615e+07,94.3963,2,2.87377,-17998.6,-4445.73,-22008.9
9.94143e+07,41.5147,2,2.55328,-8267.34,-3096.57,-29762.2
9.94329e+07,13.1782,0,2.421,2126.84,-1850.15,-29393
9.95922e+07,10.8187,2,2.67741,-1471.25,-1726.37,-28072
9.96254e+07,78.2764,1,2.71358,6035.26,14223.5,-22891.3
9.97322e+07,41.3697,0,2.96608,2201.48,8192.4,-26741.9
9.99552e+07,17.3388,2,2.64981,2435.73,-471.055,-26125.4
1.0008e+08,72.408,2,2.51047,-5831.99,-13843.2,-25460
1.00166e+08,186.605,1,2.47842,13172.4,22588,749.713
1.00197e+08,11.8484,2,2.95045,2132.11,-1225.77,-29270.1
1.00392e+08,157.767,1,2.68892,4199.11,-2145.5,-23861.4
1.00469e+08,14.1223,2,2.49174,-1201.66,-254.904,-26070.7
1.00726e+08,127.18,1,2.72256,-4378.09,-10280.5,-4492.24
1.0083e+08,63.8436,1,2.88169,-23.0056,-6318.52,-17040.6
1.00971e+08,18.8089,2,2.83558,-753.329,-3456.46,-26879.2
1.0151e+08,12.1055,1,2.99898,747.548,-2320.45,-28377.7
1.01687e+08,28.1464,1,3.05923,-2273.35,-3336.77,-24555.8
1.01689e+08,83.9345,1,2.45406,-14842.1,-9697.67,-29744
1.0179e+08,47.0052,2,2.59217,-8757.15,2361.43,-24727.3
1.02031e+08,112.253,1,2.55691,-20319.3,-8039.73,-19503.6
1.02039e+08,18.1614,2,3.0303,2578.93,701.407,-26155.2
1.02058e+08,88.553,2,2.6961,12961.3,10283.4,-20313.6
1.02382e+08,59.7933,0,2.71086,9369.55,-3914.09,-21245
1.02413e+08,117.465,1,2.78173,18322.7,16505.3,-26701
1.02433e+08,78.3731,2,2.97652,-1682.96,10328.1,-16183.5
1.02492e+08,94.3452,2,2.37809,1702.16,-19942.3,-27434
1.02599e+08,73.3864,1,2.93229,8956.67,2220.18,-17684.9
1.02791e+08,3.24265,1,2.53473,-457.766,489.178,-28428.5
1.02862e+08,171.156,1,2.94039,-28063.4,-7685.63,-7717.23
1.02917e+08,14.0692,1,2.66738,-808.435,2940.21,-28494.4
1.02964e+08,123.099,2,2.93696,23353.1,476.449,-17880.4
1.03017e+08,139.425,1,2.59043,-4932.03,14735.1,-3770.92
1.03152e+08,32.0499,2,2.44569,675.091,5968.7,-25809.6
1.03178e+08,211.091,0,2.38034,26168.7,16706.5,3331.08
1.03542e+08,122.642,0,2.67286,22185.7,11262.6,-21509.5
1.03584e+08,61.8899,2,2.88376,632.306,-8091.87,-18595.6
1.03806e+08,57.6059,1,2.77768,-5829.95,8899.35,-22839
1.04018e+08,35.6918,2,2.58359,3453.75,-2654.65,-22666.4
1.04111e+08,75.2197,2,2.69826,-7960.05,-12396.1,-22712.8
1.04294e+08,145.41,1,2.99706,19298.3,8689.89,-6884.95
1.04305e+08,53.7628,0,2.75422,-3084.01,-7612.73,-21038.1
1.0486e+08,20.1027,2,2.74465,-3732.82,-2096.27,-28123.5
1.05461e+08,16.5181,0,2.40948,-749.903,2092.28,-26129.3
1.05739e+08,29.3413,2,2.70902,1770.58,1585.11,-23134.6
1.06227e+08,12.2047,2,2.96639,853.136,-2474.16,-28430.8
1.0624e+08,154.473,1,2.85785,2262.73,5957.54,3018.43
1.06438e+08,47.9214,2,2.44954,1228.6,4913.74,-20068.7
1.0672e+08,9.76706,2,3.05995,-1715.12,-1089.67,-28180.2
1.06917e+08,46.3155,1,2.37241,-3114.85,9050.6,-26281
1.07103e+08,33.2749,2,2.48258,-2784.75,-1097.64,-22432.6
1.07196e+08,58.499,1,2.46686,-1850.36,1745.03,-16702.7
1.07258e+08,97.8874,2,2.56943,12543.2,-339.394,-12391.7
1.07274e+08,45.2386,0,2.9007,-7930.1,-4267.72,-25934.2
1.07469e+08,170.455,0,2.65842,26187.9,-24709.9,-29217.6
1.0787e+08,104.311,1,2.96955,-12029.6,17666.4,-23752.3
1.08071e+08,113.74,1,2.89944,647.141,9850.26,-7040.97
1.08524e+08,181.627,0,2.8582,-15962.2,13025.7,3226.93
1.08806e+08,54.8696,2,2.87078,-10823.7,4100.47,-29006.7
1.09131e+08,200.273,0,2.70738,-13257.6,16342.5,7122.25
1.0925e+08,145.814,1,2.67903,26580.3,-5681.23,-14525.5
1.09547e+08,108.165,2,2.43816,11682.3,-19446,-25593.4
1.09566e+08,60.4977,0,2.99039,-6047.11,5701.33,-19291.5
1.09621e+08,16.7653,2,3.01984,2195.71,-2527.98,-27582.2
1.09723e+08,13.4418,1,2.53535,-875.029,2741.33,-28236.1
1.10078e+08,62.9793,1,2.3999,-2557,12614.4,-24995.7
1.10144e+08,4.81019,0,2.74022,745.435,770.195,-28749.3
1.1026e+08,25.4728,1,2.39793,-4278.62,3328.33,-29749.4
1.10328e+08,54.5729,0,2.66854,1173.11,-4409.49,-18235
1.10343e+08,123.499,2,2.60746,15338.6,20303,-23439.2
1.10363e+08,19.565,0,2.97091,1804.8,-114.569,-25089.6
1.1059e+08,5.04224,0,2.55119,-37.7563,1035.56,-28536.9
1.11184e+08,79.626,1,3.17359,-70.3238,-41.6046,-28807.7
1.11339e+08,5.50576,1,2.88123,-897.393,480.213,-29576
1.11491e+08,35.1577,2,2.48851,-2845.63,4439.32,-23745.7
1.11779e+08,82.341,2,2.58032,14845.1,-3371.15,-20454.6
1.11825e+08,31.7397,2,2.62851,-3064.15,-5389.64,-26028.4
1.11984e+08,26.2284,0,2.89385,3550.43,-219.54,-24553.9
1.12079e+08,154.505,0,2.61486,813.315,9308.06,2430.71
1.12327e+08,8.62217,2,2.49137,1751.84,-546.169,-28761.5
1.126e+08,190.893,0,2.67302,3783.09,20233.9,5766.5
1.132e+08,92.7616,1,2.73889,-19275.5,-3343.22,-27560.5
1.13245e+08,4.85226,2,2.42334,-680.663,-856.098,-28550.9
1.13404e+08,123.896,2,2.98331,-1089.53,-21400.3,-14020.7
1.13898e+08,123.232,2,2.71321,-12948.9,-11060.4,-9161.19
1.14119e+08,95.131,2,2.41989,-4008.73,19255.3,-25086.2
1.14126e+08,47.6812,2,2.9001,-5401.75,-7639.92,-25057.5
1.14141e+08,52.3053,2,2.61903,-1549.14,8742.48,-22335.6
1.14202e+08,56.7086,1,2.97989,-11128.4,3675.94,-26362.1
1.14203e+08,183.013,1,2.47228,-8775.71,5767.98,6361.16
1.14722e+08,40.602,1,2.62211,-7146.19,-158.389,-24009.1
1.14747e+08,66.8249,2,2.75842,-3272.22,-6325.57,-16651.7
1.14972e+08,3.61745,1,2.4533,750.528,150.057,-28696.2
1.14984e+08,53.1528,1,2.50142,-5573.63,9597.78,-26448.5
1.15112e+08,102.043,1,2.99099,-4303.63,21004.4,-28287.6
1.15579e+08,9.13062,1,2.59787,-1303.51,-1347.91,-28471.5
1.15911e+08,52.3893,0,2.93546,-8681.6,5056.99,-24497.5
1.16051e+08,34.0662,2,2.64686,-6765.02,1546.23,-26832.4
1.16092e+08,64.3441,0,2.61539,4624.39,-7005.33,-18119.1
1.16269e+08,45.6268,0,2.46846,-4686.9,-6188.93,-23186.3
1.16302e+08,1.42893,1,2.5752,-271.808,299.823,-28740.9
1.16702e+08,29.7282,0,2.43764,-1379,1659.15,-22935.6
1.16821e+08,22.3254,0,2.9422,2746.63,1718.81,-25353.5
1.16891e+08,14.4565,0,2.79797,-691.597,-1395.39,-26235.7
1.16953e+08,217.402,1,2.76269,-20209.9,20981,6514.43
1.17103e+08,3.12024,0,2.85202,701.584,-289.686,-28763.6
1.17206e+08,64.2435,1,2.80195,6413.97,11713.7,-26578.5
1.18021e+08,18.4766,2,2.42697,-2489.93,2760.23,-27641.7
1.18078e+08,30.8828,1,2.96718,5105.59,3283.07,-26554.8
1.18615e+08,53.7983,1,2.54535,6660.24,-9002.31,-27266.7
1.19004e+08,28.2299,0,2.44344,5884.05,-1298.83,-29616.9
1.19268e+08,93.0091,0,2.56244,17705.9,273.606,-20094.4
1.19583e+08,258.795,0,2.45118,-3213.83,-14490,21453
1.19664e+08,98.4869,0,2.73598,3448.63,4539.07,-8859.03
1.19697e+08,141.04,2,2.53793,-23309.4,-18503.7,-25775.6
1.19728e+08,11.3128,0,3.00567,1627.75,-1848.86,-28843.2
1.20525e+08,46.3118,1,2.97495,-3426.48,-7518.39,-23751.5
1.2058e+08,99.3201,0,2.5237,5041.78,-7243.39,-19875.9
1.20601e+08,76.5533,1,2.61431,7617.04,14296.2,-29999.1
1.20627e+08,87.0845,0,2.9794,4842.58,-17052.6,-24307.4
1.20824e+08,202.914,1,2.88757,26331.9,18139,-627.189
1.20924e+08,57.7956,2,2.61623,-7603.29,9536.07,-28944.4
1.21033e+08,51.1423,0,2.42749,4851.69,1878.68,-19301.5
1.21337e+08,50.488,1,2.9003,6763.53,2193.3,-20973.8
1.21357e+08,55.5502,2,2.89183,359.453,-11115.9,-25084.9
1.21779e+08,62.8903,0,2.67579,-6714.51,2097.28,-17607.2
1.22013e+08,23.4427,0,2.52541,4874.13,-1206.21,-29593.6
1.22157e+08,107.412,1,2.94606,-13863.1,-11503.2,-15373.3
1.22298e+08,10.9681,1,3.04531,-1455.24,1698.48,-28065.9
1.22346e+08,25.6344,2,2.99722,-2309.19,4793.16,-28318.9
1.22424e+08,56.6514,1,2.57571,-4068.89,9953.34,-23388.8
1.22519e+08,71.3213,0,2.94199,6969.02,7364.32,-20053.1
1.23483e+08,72.1029,0,2.3998,1906.93,-2888.28,-13957.4
1.23647e+08,204.977,2,2.49377,-1016.31,-19811.5,9744.11
1.23662e+08,119.312,1,2.51149,766.003,12033.2,-6636.37
1.23884e+08,76.2194,1,2.81442,-11878.9,-3744.41,-18694.4
1.23985e+08,129.094,0,2.81683,1650.53,-12783.7,-4917.28
1.24181e+08,13.7119,2,2.66899,981.418,-2672.38,-28081.5
1.24312e+08,57.8587,1,2.50284,7413.31,9806.25,-28507.3
1.24421e+08,127.293,2,2.93242,-400.663,-12682.2,-29149.3
1.24478e+08,174.709,0,2.84384,27681.4,-10410.6,-6946.07
1.24707e+08,26.271,1,2.61836,5215.15,1078.69,-27281.9
1.25177e+08,19.1646,2,2.82627,-130.527,-2864.12,-25924.5
1.25399e+08,2.65717,2,2.66698,127.67,-251.849,-28310.1
1.25573e+08,73.179,2,3.02105,7978.03,-4704.82,-23908
1.25991e+08,11.8801,2,2.40338,1524.57,620.063,-26946.5
1.26218e+08,184.146,1,2.89813,-15106,-12110.5,4614.35
1.26334e+08,107.191,0,2.49503,-4022.57,-22111.4,-26060.5
1.26523e+08,158.948,2,2.43577,-13357.5,-18268.8,-3897.75
1.26735e+08,5.72763,2,2.55609,606.04,-635.036,-27941.1
1.26864e+08,92.4026,2,2.98584,-7491.39,-1166.35,-10967.5
1.27038e+08,98.3732,0,2.95214,11565.6,-2777.32,-11892.7
1.27097e+08,89.6705,2,2.50108,13454,12834.1,-25411.3
1.27235e+08,39.0626,0,2.3992,4400.69,-3360.57,-28929.8
1.27258e+08,315.419,1,2.6994,4977.87,3486.24,-14429
1.27358e+08,97.8645,0,2.91507,-6086.15,6841.67,-10455.9
1.27549e+08,201.402,1,2.47812,1724.39,16315.1,10453.1
1.28233e+08,166.75,0,2.47163,-15664.4,5579.81,2238.98
1.28253e+08,95.7475,2,3.04829,-620.019,-11395.2,-12806.7
1.28392e+08,21.921,0,2.71521,2611.46,3900.43,-28521.8
1.28628e+08,64.6551,1,2.66077,-10315.4,1366.86,-19919.3
1.28862e+08,33.3352,1,2.44913,6479.7,-907.843,-26246.1
1.28974e+08,64.6931,0,2.39078,9083.83,10247.8,-27446.2
1.29268e+08,73.9555,1,2.47278,9043.27,-4793.73,-17086.3
1.29491e+08,3.81505,2,2.92645,-786.445,-124.212,-28538.2
1.29493e+08,159.649,1,2.89707,5492.75,-11131,549.407
1.29822e+08,17.1599,1,2.59926,2247.27,1469.25,-26416.4
1.30216e+08,66.7248,2,2.95998,4508.84,3141.44,-24500.6
1.30715e+08,8.92518,2,2.70227,812.026,-1567.23,-28012.3
1.30874e+08,3.35827,2,2.9166,-751.118,-246.412,-28922.9
1.31015e+08,24.9672,2,2.84393,2220.36,-4621.41,-27428.8
1.31123e+08,148.612,1,2.70351,27926.7,14147.7,-29762.2
1.31634e+08,37.6436,1,2.48501,-4902.53,4396.67,-24225.8
1.31684e+08,75.3778,1,2.54768,14291.8,1354.22,-21933.3
1.31718e+08,136.978,2,2.50755,-2394.97,-21460.1,-9460.18
1.31985e+08,262.679,2,2.66098,436.747,-4704.73,-9036.36
1.32293e+08,206.036,1,2.82487,4873.08,20315.2,81.7801
1.3237e+08,164.657,2,2.84456,-6374.54,12376,-16778.4
1.32511e+08,78.4923,2,3.01231,-7648.22,1864.27,-14358.9
1.33294e+08,29.8658,2,3.05713,495.108,2937.63,-23383.7
1.33718e+08,157.012,0,2.84452,-20936.5,-11475.6,-6107.96
1.33885e+08,45.6268,1,2.81658,-7602.32,-681.866,-26382.4
1.34003e+08,52.5985,1,2.5512,88.8881,5252.99,-18975.2
1.34043e+08,25.9654,1,2.80622,-2756.43,4695.67,-27782.5
1.34142e+08,15.0543,1,2.64463,-357.833,1465.1,-25986.1
0,15.321,2,2.63716,0,0,0
1.34212e+08,66.9225,2,2.41364,-12875.9,-6028.16,-27818.7
1.34408e+08,40.0044,2,2.45286,-3949.17,-6091.16,-24320.4
1.34711e+08,8.04125,2,3.02114,-990.414,-132.031,-27423.5
1.35082e+08,120.132,0,2.73617,23040.9,-6230.94,-20137
1.35942e+08,1.48984,2,2.79514,-248.234,208.995,-28881.2
1.36017e+08,157.015,2,2.68974,1665.19,20023.8,-2559.28
1.36072e+08,31.1886,0,2.83876,5649.51,3485.54,-29385.5
1.36087e+08,3.79531,2,2.39738,-93.1184,-589.199,-29505.7
1.36161e+08,54.764,1,2.85284,-7195.7,7029.27,-23099.3
1.36164e+08,117.856,0,2.43714,-2821.23,-13612.4,-8143.09
1.36441e+08,64.5024,2,2.42127,6291.33,-11247.6,-24243.4
1.36579e+08,54.6048,1,2.86222,-2620.75,4065.37,-18369.5
1.36614e+08,99.6248,1,2.62672,7739.65,12950.6,-14155.1
1.36615e+08,23.125,0,2.58821,1033.33,512.744,-24069.7
1.3673e+08,73.6789,0,2.69924,15493.1,-2054.12,-29134.2
1.37336e+08,23.3338,1,2.41275,-3967.53,2202.28,-26726.7
1.37803e+08,26.4584,2,2.59145,-5646.17,-148.541,-29397.4
1.37889e+08,31.9723,1,2.78473,-1995.75,5864.48,-29693.9
1.38007e+08,17.4127,0,2.92709,-1323.27,-2332.09,-26353.9
1.38189e+08,41.353,2,2.37275,-640.524,-8750.81,-29859.1
1.38196e+08,249.522,0,2.44335,-8279.38,-14705.1,13498.2
1.38216e+08,20.3808,2,2.49439,-3445.7,-2773.22,-28913.6
1.38337e+08,112.248,0,2.52988,5232.18,22131.6,-21913.3
1.38391e+08,57.1617,0,2.76386,-6044.12,-2551.32,-22050.8
1.38548e+08,16.4842,2,2.57382,-3399.95,688.025,-28194
1.38669e+08,24.885,1,2.87498,-1600.17,4944.05,-27642.4
1.3974e+08,77.6317,2,2.61847,-1616.28,-4984.73,-13273.5
1.39746e+08,63.1893,0,2.83149,9856.22,-1600.29,-19953.3
1.39965e+08,34.3528,2,2.69674,5086.86,1486.18,-23919.1
1.40076e+08,41.6924,2,2.55074,-3397.11,8024.05,-29992.3
1.40209e+08,18.0247,1,2.62436,-2917.33,1536.69,-26795.2
1.40219e+08,61.3004,0,2.84667,-10146.3,4583.07,-22478.1
1.40504e+08,3.89427,2,2.88299,-388.615,-432.285,-28179.1
0,3.83901,2,2.9293,0,0,0
1.40541e+08,131.166,1,2.50621,738.188,22668.8,-12746.3
1.4059e+08,110.319,0,2.90555,22504.6,3959.71,-24471.8
1.4059e+08,42.8341,0,2.94746,4735.17,-5977.64,-23970.8
1.40656e+08,16.9904,2,2.58778,251.902,-2974.1,-26718.1
1.40694e+08,21.0034,2,2.65933,-2956.92,-3194.94,-27540.4
1.40775e+08,13.0657,0,2.72617,1652.76,-1590.84,-27182.1
1.40974e+08,226.187,0,2.45171,-7108.72,16721.5,15412.5
1.4125e+08,42.5241,1,2.90667,7611.56,462.206,-24199.5
1.41808e+08,27.4162,0,2.99328,-383.536,5437.49,-26938.7
1.42027e+08,112.027,1,2.73998,9574.94,21106.5,-24168.3
1.42155e+08,64.7831,1,2.69308,-9653.41,5451.7,-20753.8
1.42188e+08,11.0893,1,2.76188,-0.144667,1739.2,-27167
1.42201e+08,128.954,1,2.679,5482.34,18297.9,-9425.74
1.42201e+08,102.428,2,2.47686,-12252.2,-942.031,-10957
1.42224e+08,20.8122,1,3.03065,-2905.56,2765.66,-26987.6
1.42237e+08,41.5699,0,2.84719,4160.22,-6546.68,-24734.3
1.42413e+08,39.7078,2,2.84566,567.036,-7244.72,-24584.7
1.42497e+08,48.9828,2,3.0081,2033.74,9267.81,-25033.2
1.42565e+08,66.2211,2,2.76173,137.543,-14001.2,-29197.8
1.42575e+08,21.2952,0,2.99613,-2564.16,2866.93,-26647.7
1.43135e+08,45.1171,2,2.49451,1442.1,-7618.12,-23165.3
1.44056e+08,152.028,0,2.7807,11784.7,2976.57,805.607
1.44192e+08,12.9327,2,2.63435,-1508.18,-1179.02,-26801.3
1.4431e+08,43.8092,1,2.9447,6218.15,6185.87,-26018.8
1.44342e+08,8.07355,2,3.04209,449.206,-1252.17,-27683.8
0,8.03686,2,2.58065,0,0,0
1.4446e+08,25.4371,0,3.03237,3383.25,2090.63,-25199.8
1.44485e+08,53.4988,0,2.62929,5094.03,9867.91,-26542.8
1.46105e+08,19.1248,2,2.62159,-407.746,-307.2,-27530.2
1.46399e+08,71.7012,1,2.43936,4473.51,12202.9,-20918.9
1.46487e+08,3.27416,0,2.72656,157.097,644.805,-28528.8
1.46978e+08,108.39,0,2.9461,8210.01,-20728.9,-24231.6
1.47314e+08,82.546,0,3.00406,709.745,9199.91,-16081.5
1.47376e+08,16.741,2,2.82458,-2971.46,-2043.05,-28412.1
1.47441e+08,47.1719,2,2.82384,-573.263,-5034.08,-20270.8
1.47489e+08,153.322,1,2.79341,-5252.68,4169.21,2742.91
1.48125e+08,241.916,2,2.60251,-1122.52,-22521.1,17026.8
1.48308e+08,111.595,2,2.5271,4415.59,-22558.2,-23161.5
1.48447e+08,73.8265,2,2.54858,15197.1,-2832.38,-26658.7
1.48562e+08,33.803,2,2.78395,3026.75,-4634.68,-24273.4
1.4882e+08,55.232,1,2.60275,1068.91,5654.82,-20189.8
1.48831e+08,48.7425,1,2.85564,5641.1,7406.83,-24437.4
1.50045e+08,4.67558,1,2.41182,-92.9016,370.589,-27875.5
0,4.6446,1,2.40724,0,0,0
1.50063e+08,2.68237,2,2.91291,243.982,-549.621,-28614.1
0,2.73994,2,2.95011,0,0,0
1.50238e+08,8.59721,0,2.45394,639.78,945.075,-27362
1.50373e+08,86.3818,2,2.8517,887.009,-7404.95,-21130.7
1.50415e+08,86.1378,0,2.70881,9044.99,2328.23,-13205
1.5054e+08,164.941,0,2.69246,17574.4,-7955.28,39.725
1.50626e+08,34.9574,0,2.77036,5458.64,-4737.66,-27036.7
1.50699e+08,24.7934,1,2.45209,-2122.14,1794.72,-24345.7
0,24.6779,1,2.39039,0,0,0
1.50753e+08,147.512,2,2.48187,-26367,10228.2,-16200.7
1.50878e+08,26.9864,2,2.99961,1352.6,3645.72,-24757.1
1.51103e+08,20.6242,0,2.92396,-1587.08,-2998.57,-26161.3
1.51348e+08,43.463,0,2.93964,2302.3,-791.957,-20034.8
1.51501e+08,260.8,1,2.68343,-25500.7,8135.53,19066.7
1.51796e+08,120.543,2,2.75617,-19750.8,684.469,-15083.4
1.52061e+08,20.0795,2,2.9365,-3407.38,977.685,-26462.6
1.52198e+08,204.988,1,2.5942,11285,13576.3,10706.5
1.52696e+08,200.436,2,2.63875,28688.7,-24.6606,2208
1.52739e+08,24.8158,2,2.66806,895.453,-913.236,-23736.2
1.52759e+08,53.866,2,2.74819,-8197.06,394.861,-20979
1.52937e+08,56.629,0,2.44802,3477.21,9649.72,-22544.3
1.53371e+08,141.966,1,2.42234,-22066.8,-17512.6,-18380.5
1.53464e+08,106.986,0,2.67297,-12743.3,8121.58,-12121.2
1.53546e+08,12.1738,2,2.43952,-1179.15,-1809.8,-27307.4
1.53745e+08,36.4807,1,2.98751,-3722.41,3900.27,-23316.6
1.53805e+08,59.3109,1,2.84394,-496.288,4753.26,-17269.5
1.54053e+08,78.7811,2,2.6456,-5948.68,13964.6,-22126.9
1.54072e+08,114.429,2,2.99703,-17443.4,12404.2,-18028.9
1.54967e+08,12.5708,2,2.89314,2283.47,1115.06,-28288.2
1.55083e+08,22.4616,0,2.7514,-149.811,-3028.62,-25185.1
1.55207e+08,57.3082,0,2.48627,142.296,-7780.23,-19531.4
1.55467e+08,109.958,2,2.91179,-9552.71,-18429.4,-18534.6
1.55533e+08,34.828,1,2.56489,-4921.83,4302.75,-25252.3
1.55549e+08,3.18836,2,2.87845,90.6912,-441.972,-28259.9
1.55806e+08,159.296,2,2.76643,-3461.19,-17786.1,-645.823
1.55925e+08,83.3714,1,3.01065,-11426.9,-8494.28,-18702.1
1.55951e+08,55.655,0,2.40156,8189.01,3946.44,-26370.3
1.56412e+08,8.66207,2,2.86739,-1733.67,-838.541,-28688.7
0,8.62966,2,2.51049,0,0,0
1.56658e+08,165.362,0,2.4465,8838.25,20447.2,-1839.88
1.57218e+08,107.892,0,2.45771,4163.03,7584.89,-7698.6
1.57277e+08,75.537,1,2.70741,338.775,-8008.59,-15106.5
1.57314e+08,55.3171,2,2.50621,-8281.4,-1632.48,-23777.1
1.57429e+08,39.3224,0,2.89144,1677.44,6748.46,-24355.9
1.57431e+08,156.075,2,2.75925,-2938.03,23844.4,-6461.8
1.57586e+08,87.4079,1,2.64533,-4856.9,16572.8,-22500.5
1.57649e+08,73.2249,2,3.01533,-8622.31,9197.42,-20090.5
1.58643e+08,22.9735,2,2.82008,1463.61,-1380.69,-24418.2
1.58674e+08,1.49532,1,3.0168,-243.655,297.688,-28675.1
1.58732e+08,12.2094,1,2.39585,-2576.03,664.803,-28639.2
1.58754e+08,8.31444,2,2.38662,138.461,-1266.12,-27541.6
1.59474e+08,46.1431,2,2.80104,1999.5,-1898.48,-19506.6
1.59906e+08,57.7786,2,2.76642,3006.93,-8038.89,-20128
1.59966e+08,99.6329,2,2.77782,19499.5,-7475.7,-26977.6
1.60129e+08,43.5721,1,2.58833,-5940.37,7171.09,-28714.9
1.60313e+08,93.8138,1,2.57236,-663.525,12482.7,-13372.4
1.60408e+08,128.754,0,3.02767,15513.1,-10347.4,-9268.99
1.60572e+08,196.586,0,2.76185,-29809.8,24378.1,-13851.8
1.60689e+08,6.49459,1,2.45853,389.762,853.385,-27811.5
1.60691e+08,35.0173,1,2.47419,-1068.16,6981.06,-26365.1
1.60702e+08,73.7597,2,2.98965,-15336.5,-1933.51,-27175.4
1.60744e+08,70.4135,1,2.80379,-5506.57,13507.9,-25677.2
1.60914e+08,24.8821,0,3.00043,3266.68,-3499.16,-26571
1.62027e+08,67.7051,2,2.53,5297.9,-9872.1,-19857.5
1.6226e+08,335.473,0,2.96842,5139.29,4036.25,-27425.2
1.6233e+08,51.4375,1,2.56057,9754.06,4865.54,-28825.1
1.6292e+08,113.238,0,2.46781,14067.7,-18800.5,-23768.6
1.63345e+08,20.4326,1,2.71678,-1403.08,517.335,-24765.2
1.63353e+08,4.80468,1,2.37837,348.353,33.387,-27884.2
1.6346e+08,128.356,2,2.5232,-25195.5,-9132.99,-24051.8
1.6355e+08,116.472,0,3.00909,18666,13462.3,-20460.3
1.63571e+08,7.20964,0,2.40383,-399.743,890.001,-27664.1
1.63578e+08,23.6966,0,2.61321,4281.25,2776.27,-28535.1
1.63724e+08,39.683,1,2.51564,-3153.53,-6642.03,-24834.7
1.64089e+08,47.2864,0,2.80675,-9390.97,579.064,-25808.8
1.64289e+08,5.78701,1,2.66358,-67.5368,490.397,-27663.2
1.64414e+08,14.1358,0,2.50719,-92.562,-3015.82,-28597.9
1.64885e+08,16.4573,0,2.69589,2422.35,1270.89,-26581.2
1.65181e+08,3.5256,0,2.9792,-335.655,-639.838,-28732.1
1.65184e+08,67.6578,0,2.8759,-7812.92,9675.16,-22004.9
1.65194e+08,119.84,0,3.00803,3432.84,10387.6,-6211.85
1.65656e+08,69.0036,0,2.86592,1496.11,-4903,-15248.1
1.65694e+08,26.8264,1,2.73087,-2954.8,4935.04,-29189.1
1.6571e+08,6.98204,0,2.77229,1014.21,-1102.62,-29303.7
1.65949e+08,20.3987,0,2.83949,4109.22,705.295,-27565.8
1.66001e+08,6.79978,2,2.96007,865.137,62.9474,-27732.8
1.66041e+08,86.2655,0,3.03509,13117.1,10189.5,-21528.3
1.66621e+08,16.0824,0,2.49558,-905.262,-2200.77,-26406.6
1.6666e+08,4.84043,1,2.53808,-366.038,56.939,-27836.6
1.66662e+08,66.3975,1,2.73694,-9341.99,5013.94,-19606.5
1.66807e+08,57.928,2,2.69122,883.204,-8214.2,-19749.7
1.66891e+08,14.8004,0,2.66692,-1133.61,2008.65,-26779.4
1.67312e+08,4.98897,1,2.36678,484.038,955.186,-28538.6
1.67348e+08,61.843,2,2.84118,7719.33,-3178.49,-18886.2
1.67539e+08,32.297,1,2.71062,-3392.36,-5699.79,-27353
1.67615e+08,199.891,2,2.66873,15200.3,-11070.3,8540.73
1.67754e+08,21.0178,0,2.66436,-3687.71,-654.904,-26550.1
1.68165e+08,79.1365,0,2.83616,13696.4,-9443.34,-26993.2
1.68332e+08,24.6207,0,2.85685,-998.313,3438.45,-25134.2
1.68381e+08,195.864,1,3.02275,-12509.4,14420.7,6835.4
1.68475e+08,149.828,0,2.72764,-21264.4,13135.9,-9627.94
1.68803e+08,113.063,2,2.74601,2903.56,-8409.66,-6711.92
1.68815e+08,51.7674,2,2.74596,-782.077,-7027.85,-20448.7
1.6884e+08,68.7179,2,2.47154,-1326.43,-14563.8,-28213.4
1.68854e+08,94.5209,2,2.7193,10957.1,1689.65,-12311.1
1.68953e+08,96.4297,2,2.893,13098.2,-4293.7,-13994.4
1.6969e+08,159.834,1,2.67919,-13330,-13005.3,-4931.86
1.69711e+08,28.7856,1,2.4292,-3121.25,4963.17,-26891.4
1.69835e+08,10.8291,1,2.5017,-1309,1750.3,-29836.3
1.69847e+08,63.8941,1,2.51357,-9898.25,8600.5,-25202.5
1.69971e+08,139.376,2,2.94752,-22134.1,-18593.7,-23904.3
1.70006e+08,6.84085,1,2.70202,90.9451,1418.63,-29406.7
1.70253e+08,38.4286,1,2.63863,1011.57,7572.07,-25954
1.70311e+08,8.12719,0,2.39754,1600.95,-635.679,-28238
1.70382e+08,72.3188,2,2.67768,-11318.7,-8504.98,-22940.4
1.70775e+08,188.998,2,2.87106,-4986.28,-10075.6,-22993.7
1.71061e+08,48.8213,1,2.88777,-9688.44,2810.74,-26540.3
1.7111e+08,5.04175,1,2.96345,446.717,-689.092,-28263.2
1.71189e+08,28.5852,1,2.79491,-1601.76,2806.25,-23701.8
1.7133e+08,6.64815,2,2.47858,-935.507,-1105.8,-28429.6
1.71553e+08,9.26535,2,2.63148,-1294.15,-896.907,-27552.5
1.7161e+08,155.35,1,2.95217,-29768.3,2827.03,-15776.8
1.71823e+08,235.509,0,2.9626,4152.56,1267,-28192.3
1.72189e+08,179.556,2,2.5623,-6904.1,25020.3,-1186.53
1.72218e+08,1.01344,2,2.43099,-251.518,61.7592,-28780.6
1.72224e+08,43.1058,1,2.75392,-8526.89,-988.767,-25695.2
1.72237e+08,124.831,1,2.94474,-14436.9,-1540.1,-6999.24
1.72382e+08,165.051,0,2.54148,27957.4,4261.83,-8293
1.7241e+08,28.2768,1,2.5293,-4483.28,2020.83,-25309.3
1.72457e+08,115.445,0,2.54089,20211,-5068.46,-16015.6
1.72748e+08,41.6926,2,2.99767,-3173.5,-8228.11,-28032.6
1.72753e+08,50.5597,2,2.4841,-8425.99,-4393.27,-23779.3
1.73175e+08,23.89,2,2.83761,4418.61,117.126,-26493.3
1.7326e+08,7.21905,2,2.42768,503.758,-1474.84,-29220.6
1.73462e+08,35.4075,1,2.46126,-2062.77,6107.32,-24840.5
1.73993e+08,81.293,0,2.63113,16606.1,-1220.33,-24297.4
1.74504e+08,47.5425,1,2.67903,-8871.23,-3289.13,-25475.2
1.74621e+08,0.857486,0,2.39887,285.716,-96.0508,-28872.5
0,0.939396,0,2.46516,0,0,0
0,0.858406,0,3.03413,0,0,0
1.74698e+08,1.80357,1,2.5461,-20.1305,-182.336,-28514.5
0,1.89073,1,2.62127,0,0,0
0,1.7655,1,2.53654,0,0,0
1.75171e+08,23.7587,0,2.68658,3584.38,2820.16,-26623.3
1.75199e+08,100.005,0,2.39058,12285.7,-17323.8,-28551.1
1.75249e+08,19.6824,0,3.02901,-1154.44,3935.03,-28344.7
1.75292e+08,34.5719,1,2.84955,3870.69,2416.49,-23324.3
1.75307e+08,138.634,0,2.61326,-22247.9,-13740.6,-15832.2
1.7534e+08,135.505,2,3.01368,-5089.14,-9398.58,-26333.1
1.75678e+08,46.7152,1,2.37969,5526.96,7198.24,-24773.2
1.75829e+08,38.9371,1,2.7092,4481.59,-5385.37,-24744.3
1.76333e+08,63.2247,2,2.44362,9030.21,4864.82,-20308.5
1.7636e+08,172.637,0,2.69947,11501.2,11921,3581.77
1.76376e+08,82.0733,0,2.38828,8840.38,6275.64,-15197.6
1.76417e+08,30.1664,1,2.63403,-6124.72,-1504.26,-27775.1
1.76934e+08,10.7943,1,2.51461,457.346,1822.04,-27440.4
1.7735e+08,17.4398,0,2.41774,3014.3,-462.637,-26618.5
1.77383e+08,80.6925,2,2.3936,15023.8,-7747.24,-26220.2
1.77536e+08,37.3692,2,2.54743,-3090.63,2142.45,-21881.1
1.77918e+08,117.07,0,2.53678,-7733.5,-17665.5,-14345.6
1.77962e+08,18.3191,2,2.52456,-1541.41,3511.4,-29095.5
1.78046e+08,250.319,0,2.43233,14490.9,-20948.9,17615
1.78069e+08,34.5781,0,2.49106,2584.4,599.883,-21976.4
1.78167e+08,177.223,1,2.88609,3293.36,25272.2,-2014.98
1.7853e+08,11.3282,2,2.5811,420.48,-2156.81,-27739.6
1.78939e+08,22.0654,1,3.01013,-4307.79,1582.42,-29932
1.78984e+08,122.211,2,2.77559,-9008.23,-21146.4,-17115.3
1.79293e+08,45.744,1,2.64399,-4605.27,-778.797,-20348.2
1.7949e+08,161.706,0,2.75235,17801.8,19723,-7475.85
1.79501e+08,98.2149,1,2.49361,-13354.1,4687.62,-13561.1
1.79637e+08,50.575,1,2.9053,7577.51,-594.744,-21425.1
1.79695e+08,224.048,1,2.44315,22638.7,26488.4,3330.84
1.79742e+08,1.7577,2,2.56407,-294.573,-326.979,-28691.5
1.80139e+08,14.5466,1,2.85441,-0.110637,2912.69,-27658.2
1.80448e+08,101.988,1,2.8594,-3104.88,19373.6,-19988.6
1.80518e+08,10.3162,0,2.84757,1515.53,1563.82,-28243
1.80732e+08,40.5306,2,2.79477,-1879.96,-7102.78,-24327.5
1.80748e+08,155.821,1,2.71328,-11844,-13052.2,-20482.2
1.808e+08,3.46246,0,3.06043,619.657,543.468,-28840
1.81034e+08,23.6045,1,2.69522,-2012.27,-4414.25,-27851.7
1.81065e+08,151.665,2,2.37802,-27783.4,1002.04,-12687.4
1.81457e+08,17.559,2,2.42033,-867.131,-2052.81,-25784.1
1.81599e+08,43.8357,0,2.71988,-1920.02,8502.68,-25722.9
1.81629e+08,58.4718,1,2.7004,-4801.49,1767.77,-17573.7
1.81703e+08,120.328,1,2.50235,13833.6,6480.86,-8476.03
1.82193e+08,9.83117,1,2.93107,-2130.02,136.245,-29107.8
1.82234e+08,59.2577,0,2.5714,1505.35,-8255.69,-19494.9
1.82378e+08,20.2672,2,2.96134,24.131,-3842.01,-26802.5
1.82506e+08,6.42485,2,2.75912,-661.87,-73.7537,-27607
1.8274e+08,36.9392,2,2.64867,5484.81,-1675.96,-23526.6
1.82991e+08,106.608,0,3.01302,-14645.3,-16740.4,-27387.8
1.83054e+08,174.265,2,2.61742,-15896.4,-10794.1,-6973.56
1.83161e+08,86.3511,1,2.78039,-15049.9,-1404.98,-18647.8
1.83246e+08,62.0323,0,2.54218,-5635.77,10880.7,-24180.2
1.83501e+08,48.8541,0,2.44542,-5657.46,7460.34,-24485.8
1.83525e+08,10.0317,0,2.51327,224.371,1864.54,-29915.3
1.83533e+08,182.406,1,2.44374,4146.87,-15085.4,-28861.4
1.83691e+08,48.9923,2,2.85696,-451.634,-10372.2,-29574.6
1.83748e+08,105.043,2,2.43332,-11277.3,3105.12,-9932.83
1.83938e+08,40.8911,0,2.8945,-2700.49,7657.16,-26120
1.84104e+08,65.7866,2,2.59565,4208.81,8506.04,-18779.7
1.8415e+08,63.2689,1,2.70264,-2868.61,-11621.5,-23038.6
1.84392e+08,191.278,2,2.79074,-1160.35,-2496.5,-28759
1.84528e+08,36.4158,1,2.66175,-3252.68,-763.197,-21882.2
1.8469e+08,9.13144,1,2.78196,1852.74,-197.962,-29138.7
1.85521e+08,30.3461,2,2.61421,-1846.28,-4829.54,-24920.8
1.85527e+08,72.4383,2,2.66626,-3482.56,-14787.9,-26438
1.85678e+08,20.9009,2,2.72082,-3445.8,1960.35,-26850.9
1.85856e+08,82.3712,1,2.76661,-14984.8,7152.5,-23514.8
1.85908e+08,29.9025,1,3.02928,-6121.05,1300.8,-27729
1.8609e+08,72.7141,2,2.87018,-9724.14,8359.59,-20503.4
1.86257e+08,183.99,2,2.62043,989.901,-14032.3,7404.96
1.86335e+08,181.77,2,2.42173,12193.6,-26450.8,-3698.35
1.86574e+08,23.5001,1,2.68687,-266.827,-3097.36,-25022.1
1.86606e+08,23.3184,2,2.42791,-1206.84,-2526.23,-27090.1
1.86614e+08,104.074,1,2.63577,-11093.4,1669.05,-9917.85
1.86798e+08,97.6848,1,2.97368,-16801.3,-9176.85,-21550.6
1.87126e+08,174.511,0,2.41454,19577.2,-10928.2,558.626
1.87144e+08,12.3574,0,3.01539,1929.67,1628.35,-27925.6
1.87309e+08,89.2704,0,2.4629,861.215,-18052.2,-23245
1.87389e+08,11.5942,1,3.0176,973.304,1342.62,-27021.3
1.88055e+08,136.999,0,2.41546,8295.69,21374.8,-11035.2
1.88188e+08,2.47958,0,2.93144,250.317,-334.936,-28457.4
1.88289e+08,77.6749,1,2.95982,-13460.2,-5310.52,-21255.4
1.88329e+08,145.6,1,2.63489,12824,3382.59,-1129.53
1.88472e+08,7.20535,1,2.45925,-1174.69,-958.085,-29057
1.88551e+08,70.7968,0,2.69385,2341.07,5856.52,-18272.3
1.88965e+08,15.6343,0,2.48441,3003.73,1344.14,-29656.4
1.89068e+08,97.1257,1,2.93148,-9242.13,17256.1,-22995.9
1.89246e+08,62.8883,0,2.83344,-9983.01,-6401.61,-23113.9
1.89568e+08,15.4237,0,2.98693,1919.13,-806.022,-26277.2
1.89937e+08,92.5026,2,2.8862,-9456.87,-10384.5,-15298.5
1.89947e+08,42.1396,2,2.57641,4243.12,1786.58,-21399.4
1.90238e+08,193.473,0,2.84726,-16613.3,-8035.58,-18443
1.90292e+08,100.212,0,3.01914,8427.09,-12222,-13914.9
1.90557e+08,238.228,1,2.46144,-6137.85,28286.1,12454.4
1.90664e+08,146.96,2,2.51324,22202.3,-21283.5,-24119.4
1.90816e+08,45.8632,1,2.46721,3483.67,5073.57,-21332
1.91047e+08,166.529,1,2.49338,16838.9,-18263.1,-3937.57
1.91272e+08,33.4441,1,2.52505,4623.58,-4139.52,-25552.1
1.91629e+08,46.4774,2,2.61094,1389.84,7482.5,-22740.5
1.91653e+08,31.8727,0,2.74304,5564.22,2061.75,-25527.4
1.91802e+08,39.1732,0,2.8902,3242.35,2226.9,-21558.4
1.91956e+08,114.438,2,2.46161,-7907.87,-10746,-8574.87
1.92298e+08,50.8075,1,2.8532,-6505.27,8597.74,-29251.1
1.9263e+08,6.42757,1,2.5852,-887.981,-406.185,-27871.9
1.92689e+08,15.4971,0,2.39393,1720.78,-2226.6,-27015.5
1.92887e+08,214.8,0,3.05566,2763.08,-27901.6,2800.48
1.93123e+08,41.3209,1,2.99838,-3830.04,-1019.14,-21121.2
1.93545e+08,140.765,1,2.88939,27111.7,6507.27,-19051.6
1.93853e+08,218.499,1,2.48367,16830.3,15741.4,11222
1.94377e+08,39.9345,2,3.04879,3606.68,3802.87,-22668.1
1.94639e+08,45.5126,2,2.79713,-8362.69,-267.123,-24099.2
1.94719e+08,18.9739,2,3.04726,-1944.78,2290.74,-26214.5
1.95088e+08,175.692,1,2.6771,948.384,-12332.2,-28787
1.95247e+08,36.7493,1,2.94369,2241.98,-4361.74,-22954.5
1.95892e+08,16.8213,0,2.90555,1495.62,-3111.88,-27815.7
1.96161e+08,37.1971,0,2.53286,2331.58,-6664.51,-25256.7
1.96535e+08,49.835,1,2.74576,-4133.04,-4567.91,-20334.4
1.96629e+08,17.1251,2,2.36866,-1201.02,-3549.59,-28762.1
1.968e+08,55.2998,2,2.789,-9957.55,2475.29,-23270.3
1.9685e+08,167.265,2,2.6437,12666,13025.1,1375.45
1.969e+08,17.9058,2,2.96901,1638.23,-2513.31,-26485.3
1.97095e+08,12.8656,1,2.39752,673.772,1577.13,-26672.5
1.97126e+08,205.834,2,2.78268,-14742.7,-26871,1874.87
1.977e+08,11.5399,2,2.59367,-1217.02,-1909.89,-27695.5
1.98009e+08,23.8207,1,2.73758,-3933.44,3045.21,-27590.8
1.98132e+08,15.8391,0,3.01467,3052.87,1301.58,-28061.8
1.98458e+08,130.986,2,2.58748,3448.8,11995.6,-27190.1
1.98471e+08,14.397,1,2.8261,11.4032,2804.54,-27460.4
1.98496e+08,47.2357,1,2.99758,2965.17,-3225.77,-19968.4
1.98555e+08,170.51,2,2.74484,-20868.9,9903.98,-1359.29
1.98608e+08,74.227,2,2.72623,8531.67,-1127.85,-15800.8
1.98863e+08,116.316,1,2.40092,1133.23,20182.6,-14723.4
1.98884e+08,112.758,1,2.42871,-19296.2,13160.4,-23571.3
1.99029e+08,32.9084,0,2.68963,473.574,5714.69,-26817.9
1.99137e+08,12.4764,1,2.71741,-630.911,835.085,-26375.7
1.99187e+08,62.7134,2,3.01907,-349.164,-2982.96,-16016.9
1.99481e+08,25.6061,2,3.00332,-497.088,-3368.21,-24606.1
1.99963e+08,69.747,2,2.46399,-10981.9,-901.472,-19013.5
2.00092e+08,22.1654,1,2.42938,363.459,-3898.43,-26369
2.00127e+08,0.950056,0,2.41426,280.798,21.8013,-28735.4
2.00213e+08,8.64153,2,2.44754,-623.428,1458.31,-27941.4
2.00253e+08,53.6188,1,2.45607,-5080.54,1648.6,-18788.4
2.00516e+08,48.1024,1,2.81156,-8454.37,2273.66,-23617.9
2.00546e+08,74.5982,0,2.64178,10923.6,-9735.06,-22936.5
2.00851e+08,108.973,2,2.83815,12280.2,-12328.4,-13876.2
2.01219e+08,0.0333677,1,3.81931,-76.8098,59.658,-28816.9
0,0.0599641,1,3.99184,0,0,0
0,0.0301557,1,3.00212,0,0,0
0,0.033176,1,3.43404,0,0,0
0,0.0254454,1,3.19268,0,0,0
0,0.0254978,1,3.1627,0,0,0
0,0.0497422,1,2.28722,0,0,0
2.01234e+08,67.5315,1,2.49329,-5394.51,12964.8,-25692.3
2.01487e+08,23.33,1,2.89354,-2793.17,1949.99,-25228.8
2.01718e+08,119.09,2,2.87086,15096.4,-18352.6,-21302
2.01978e+08,5.84149,0,2.96612,531.892,-206.904,-27698.7
2.02041e+08,30.0243,0,2.49523,6407.36,75.2298,-28065.6
2.02197e+08,170.328,1,3.0207,-10198.9,2396.57,5298.03
2.02291e+08,360.518,2,2.80368,9053.71,-19003.2,-24191.2
2.02445e+08,19.989,2,2.38766,-1070.1,1451.98,-25002.3
2.02573e+08,33.7852,1,2.39556,6867.89,1708.87,-27795.8
2.03042e+08,5.03604,0,2.6877,312.084,-1007.31,-29231.4
2.03109e+08,59.7034,1,2.71617,6822.02,-2087.55,-18479.2
2.03133e+08,183.857,2,2.65559,18217.1,-2549.18,910.806
2.03315e+08,11.7459,2,2.75491,-1629.1,-1612.75,-27678.6
2.03712e+08,23.7993,0,2.50798,-2685.76,-4228.01,-28679.5
2.03751e+08,37.918,0,2.43159,6802.78,-957.409,-24561
2.03922e+08,55.2101,0,2.68064,5647.43,10244.7,-28271.4
2.04001e+08,53.9948,0,2.78167,-1969.76,8248.84,-21260.6
2.04138e+08,14.0707,2,2.60563,2840.5,-636.657,-28168.9
2.0417e+08,12.0014,2,2.89344,6.45359,-2443.73,-29807.4
2.04264e+08,23.3657,0,2.76648,-4670.81,-509.304,-27610
2.04745e+08,23.6434,0,2.78968,1902.96,2456.77,-24905.8
2.04852e+08,120.6,1,2.93544,-4599.22,15687,-11308.2
2.05017e+08,65.4157,1,2.59387,-951.609,10628.2,-19935.3
2.05078e+08,12.0847,2,2.56149,-476.96,-1603.01,-26831.1
2.05151e+08,51.3975,1,3.03848,5526.37,-8575.9,-25552.1
2.05786e+08,49.6279,1,2.96597,-2023.69,-3865.67,-21221
2.0584e+08,119.348,0,2.70213,19546.7,-15950.9,-29708.4
2.05967e+08,33.8202,0,2.39361,-2564.04,6586.46,-27700.4
2.06024e+08,29.3886,1,3.05484,-1145.26,1284.99,-24494.7
2.064e+08,27.8382,1,2.87768,3801.3,-1991.04,-24927.1
2.0717e+08,35.6877,2,2.59671,-1814.68,5386.28,-23900.6
2.07295e+08,41.8042,1,2.80042,-2746.68,-5069.85,-22191.8
2.07963e+08,68.1512,1,2.86469,5297.7,214.704,-15538.5
2.08017e+08,2.24625,0,2.45085,339.856,388.414,-28634.5
2.0816e+08,14.2841,0,2.84578,2328.84,1522.83,-27496.6
2.08268e+08,14.1029,1,2.74799,-2109.19,1466.49,-27170.1
2.08798e+08,139.636,0,2.71395,-6422.31,-15313.2,-4537.62
2.08932e+08,10.8626,0,3.02877,722.185,1812.8,-27564.6
2.09111e+08,178.098,2,2.78462,8338.77,-525.027,-20686.6
2.09227e+08,140.295,0,2.88847,26569.5,9270.55,-19837.5
2.09356e+08,48.0991,0,2.84876,8777.6,-4580.57,-26384.2
2.09374e+08,154.571,1,2.49137,-11617,21710.5,-18544.2
2.09573e+08,73.9197,0,2.86836,-3644.03,12015.8,-19951
2.09942e+08,19.8558,2,2.77184,-3712.55,235.196,-26798.3
2.1004e+08,145.676,0,3.00141,18443.6,1820.01,-4503.96
2.10342e+08,8.24288,0,2.87578,699.615,-830.318,-27415
2.10554e+08,59.9315,2,2.65907,-10564.2,-1868.88,-22047
2.107e+08,146.919,0,2.50147,-8567.43,21004.6,-7629.29
2.10732e+08,24.1677,2,2.99954,2223.09,-2420.56,-24961.6
2.10865e+08,25.8832,1,2.50951,-2919,-1235.92,-24352.1
2.10974e+08,57.8828,0,2.39975,9327.2,5929.03,-23368.3
2.11044e+08,30.9468,2,2.82572,-1892.03,955.222,-22666.9
2.11277e+08,163.706,0,3.02333,14312.5,16637.4,-3758.74
2.11441e+08,115.396,0,2.68823,18974,-1040.2,-13535.9
2.1153e+08,40.0241,0,2.72427,6606.39,-5349.53,-28293.5
2.12218e+08,156.892,1,2.64059,-27686.6,14034.4,-17072.6
2.12369e+08,25.2496,0,2.90867,876.671,2322.67,-24131.6
2.12944e+08,54.341,1,2.79796,4639.49,7988.43,-22011.2
2.13082e+08,96.7031,2,2.39269,811.357,-19134.3,-21391.5
2.1316e+08,22.8711,2,2.87569,1538.39,3654.29,-26243.9
2.13306e+08,61.9899,0,2.56526,9128.01,-2497.65,-19687.7
2.13357e+08,64.3764,2,2.67724,-10589.2,-5423.96,-22121.5
2.13382e+08,192.101,1,3.05973,-22124.8,7550.87,3945.5
2.1355e+08,13.5212,0,2.6746,2148.75,1971.9,-29111.2
2.13787e+08,125.17,0,2.78445,7496.49,4185.11,-4052.29
2.14241e+08,4.13053,2,2.61113,-507.486,-356.898,-28121.9
2.14362e+08,104.176,1,2.37228,12449.2,7459.39,-12239.2
2.14609e+08,55.035,0,2.79888,5114.98,6687.14,-20795.7
2.14682e+08,16.6025,1,3.04597,1603.92,2955.09,-27676.3
2.1487e+08,186.562,1,2.83198,-24939.9,3412.71,1308.75
2.14916e+08,71.905,0,2.62154,5823.51,12352.3,-23908.1
2.15359e+08,142.179,1,2.79974,-13310,23129.7,-15133.3
2.15466e+08,39.6613,1,2.44457,6838.77,2817.85,-24872.9
2.15937e+08,74.2653,2,2.68844,10092.4,11513,-25904.4
2.1597e+08,4.88269,2,3.05933,-299.523,-859.081,-28591.7
2.15994e+08,22.1959,0,2.83473,-3316.55,913.861,-25720.4
2.16116e+08,22.1981,0,2.74567,-2678.71,814.19,-25122.8
2.16608e+08,17.5145,1,2.63314,88.5967,1367.7,-25358.6
2.1667e+08,122.547,0,2.48406,-20159.9,-12609.6,-18671.6
2.1671e+08,95.9143,1,2.87314,669.059,-14362,-14775
2.17353e+08,4.66832,2,2.40029,-879.776,461.301,-28932.4
2.1744e+08,31.5569,2,2.48442,411.192,-6112.09,-26013.1
2.17549e+08,38.7741,0,2.71598,-3613.94,1373,-21643.3
2.17963e+08,38.1477,0,2.97264,5879.18,-5528.32,-29421.3
2.18069e+08,75.2889,1,2.81196,-4202.48,13344.9,-21247.6
2.1808e+08,60.733,0,2.81017,1691.11,5552.63,-17415.8
2.18115e+08,98.5572,1,2.60175,-19200.6,349.819,-20664.7
2.18212e+08,185.936,0,2.78658,-139.211,-21381.6,3937.24
2.18366e+08,80.3741,1,2.81235,-190.924,16923.6,-27851.6
2.18369e+08,63.8403,2,2.9164,-10485.5,-3500.89,-21146.5
2.18397e+08,262.044,1,2.94799,11644.9,21845.2,20265.6
2.18519e+08,171.948,0,2.89288,-19491,-24137.2,-10413.9
2.18831e+08,151.743,0,2.58489,23274.7,18442.1,-16578.5
2.19495e+08,174.322,0,2.44462,22010.2,13277.8,-2328.25
2.20002e+08,28.0651,0,3.03393,409.493,5092.41,-25894.2
2.20119e+08,60.3911,1,2.38202,-267.757,-7534.39,-18577.6
2.20131e+08,5.22024,0,2.54028,777.801,-141.564,-27967.9
2.20166e+08,24.3557,2,2.98186,-4885.95,-1516.28,-29711.2
2.20586e+08,12.9184,0,2.67731,2219.23,-1685.72,-29319.8
2.20592e+08,66.3577,1,2.74607,-4144.66,13464.3,-28877.7
2.20863e+08,113.846,0,2.83465,2367.32,21728,-19053.2
2.20991e+08,94.1304,2,2.96904,-12279.7,-15211.6,-25617
2.2101e+08,6.9298,1,2.68137,303.268,-865.28,-27725.7
2.21027e+08,86.2357,2,2.6257,14075.5,2435.25,-17587.7
2.21249e+08,13.8098,0,2.38811,459.88,-1413.66,-26276
2.21269e+08,42.019,2,2.56534,-6517.85,2472.8,-23296
2.21511e+08,42.1747,1,2.45486,-2013,-5986.58,-22560
2.21511e+08,42.1787,0,2.65385,4525.05,-5389.05,-23279.8
2.22017e+08,133.887,2,2.38689,-24731.7,2224.53,-15182.3
2.22021e+08,54.1827,0,3.0522,3435.44,-1207.86,-18044
2.2208e+08,43.8082,2,2.64541,5561.66,-3665.35,-22408.3
2.22865e+08,128.097,2,2.84831,1508.28,-10501.8,-4054.07
2.23058e+08,94.8071,2,2.48049,-417.417,11426.9,-12394.4
2.23154e+08,13.6018,2,2.7768,-2402.6,-1567.41,-28122.5
2.23159e+08,64.7645,0,2.54663,962.819,-12866.4,-24216.5
2.23176e+08,36.2202,0,2.94932,3274.41,5398.14,-24509.6
2.23567e+08,6.88529,1,2.45148,510.224,1235,-29608.2
2.23697e+08,16.7828,0,2.7688,2123.22,929.692,-26096.7
2.23765e+08,31.5224,1,2.77947,-2364.16,-2642.92,-23210.7
2.24557e+08,82.4454,1,2.76596,-5700.61,16077.2,-25091.9
2.24652e+08,84.4482,2,2.52544,-15438.3,6044.33,-22151.8
2.24767e+08,49.0161,1,2.39555,1262.88,10213.4,-27019.7
2.24786e+08,170.24,1,2.54722,16926.3,-29109.1,-16325.6
2.25227e+08,145.025,1,2.92486,-29405.9,-6172.11,-23837.5
2.25262e+08,71.6648,2,2.9884,-4989.58,13843.8,-25938.6
2.25465e+08,107.521,1,2.85024,19884.2,8150.72,-21783.9
2.25554e+08,67.1648,2,2.8427,-6519.58,-1712.88,-16388.4
2.25782e+08,34.446,0,2.36623,-2639.58,1880.22,-22314.6
2.26258e+08,86.7312,1,3.05543,12973.5,11175.3,-22678.9
2.26309e+08,12.0375,2,2.73728,1413.15,771.404,-26926.8
2.26472e+08,35.5662,0,2.70813,3503.55,3013.39,-22861.3
2.2654e+08,11.9738,1,2.82685,1682.58,1118.46,-27278.7
2.26598e+08,21.8924,1,2.69296,-1027.92,-4036.85,-26964.7
2.26652e+08,77.5613,2,2.84089,-13971.2,-3892.85,-21261.2
2.26733e+08,15.4434,2,2.87603,-2437.8,-1377.26,-27033
2.26848e+08,51.7935,1,2.45355,915.669,9877.09,-23998.9
2.27255e+08,44.6842,2,2.4782,-4872.33,-1627.01,-20860.4
2.27363e+08,102.472,1,2.73834,-1507.08,10122.1,-9777.12
2.27511e+08,32.748,0,2.72601,-2571.26,-2998.17,-23185.1
0,32.5884,0,2.48702,0,0,0
2.27633e+08,87.5123,1,2.87115,-10313.7,7042.53,-15277.7
2.27799e+08,31.0636,2,3.05597,-2423.2,4794.63,-25183.2
2.27872e+08,160.787,1,2.56257,14419.4,4385.64,1614.66
2.27903e+08,39.4098,0,2.8365,-684.007,-3133.17,-21187.3
2.28028e+08,96.7675,2,2.42051,-5194.58,-19662.2,-25783.4
2.28227e+08,18.3466,2,2.86906,-3271.45,-2068.75,-29729.7
2.28295e+08,38.7932,2,2.56126,5360.65,5307.13,-25797.1
2.28324e+08,55.7269,2,2.5135,11265,-2892.19,-26915.8
2.2837e+08,128.255,0,2.65553,26706.6,3881.55,-29778.4
2.28546e+08,47.1885,0,2.87777,5373.54,-2881.48,-20970.8
2.28801e+08,101.495,1,2.82325,-15960.5,-14158.7,-28575.3
2.28932e+08,115.013,1,2.65819,15650.6,3069.77,-10565.2
2.29037e+08,30.1174,2,2.85734,2266.07,-5490.38,-26437.1
2.29041e+08,193.599,2,2.57345,-4063.81,-22382.9,5207.69
2.29046e+08,54.9746,2,2.81026,3727.54,-10160.1,-24545.4
2.2943e+08,41.3832,0,2.7829,8109.01,118.66,-25396.7
2.29598e+08,10.3077,2,2.85676,913.43,-431.978,-26920.3
2.29782e+08,96.389,2,3.04842,7309.28,-6107.01,-23315.1
2.29839e+08,13.1158,0,2.64876,2138.8,1148.86,-27346.9
0,13.1291,0,2.83309,0,0,0
2.29951e+08,103.382,1,2.60018,-20997.8,4278.64,-24358.6
2.30036e+08,85.8063,0,2.94194,895.071,11335.9,-14868
2.30044e+08,17.4575,1,2.49683,-41.2339,1331.41,-25365.4
2.30345e+08,2.16868,2,2.5972,308.761,-342.919,-28702
2.30536e+08,149.438,1,2.61307,17474.9,9420.59,-4299.42
2.30792e+08,76.7993,1,2.6415,-9183.37,5854.71,-16777.5
2.31085e+08,119.242,0,2.75041,1721.61,25039.1,-27410.2
2.31101e+08,48.593,0,2.76846,-219.163,9842.23,-26053.6
2.31245e+08,44.2204,1,2.95727,-9039.07,1646.23,-27110.1
2.31502e+08,86.8691,1,2.94747,1445.97,5581.59,-11536.2
2.31623e+08,12.8463,0,2.91895,-963.791,1499.54,-26825.1
2.31817e+08,11.2198,0,2.89009,1030.68,581.723,-26731.3
2.31835e+08,8.02258,2,2.65018,-588.772,-1274.01,-29969.4
2.31974e+08,6.65713,1,2.84002,430.141,1280.94,-28335.9
2.32031e+08,50.3723,0,3.01683,10640.8,-421.66,-28580.1
2.32253e+08,15.3536,0,3.00471,2762.97,917.901,-27263.2
0,15.2839,0,2.58505,0,0,0
2.32331e+08,130.725,2,2.9822,20479.8,-17265.5,-22828.1
2.32364e+08,101.493,1,2.50986,-10765,17173.2,-21599.2
2.32447e+08,102.536,2,2.4078,-3083.55,-10159.1,-9865.21
2.32458e+08,57.3204,2,2.59204,-9882.15,-7086.17,-29428.3
2.32515e+08,86.7714,1,2.53272,-13240.5,8747.57,-19483.6
2.32617e+08,21.0032,2,2.68892,-1187.78,-3608.71,-26384.4
2.32713e+08,34.8772,1,2.65244,-301.175,-3388.98,-22354.6
2.3275e+08,74.8336,0,2.77868,8848.05,-10316.8,-20737.8
2.32793e+08,151.798,2,2.86151,15051.5,1873.06,-784.955
2.32872e+08,32.6459,1,3.01872,-5301.64,4433.34,-28573.4
2.32873e+08,73.7501,2,3.01455,8976.94,-2705.4,-16540.6
2.32896e+08,0.355803,0,2.43768,83.7407,26.0807,-28742.8
0,0.404132,0,2.67001,0,0,0
0,0.387369,0,2.82058,0,0,0
0,0.418941,0,2.3888,0,0,0
0,0.352048,0,2.98146,0,0,0
2.32919e+08,111.222,0,2.764,4999.08,-22319.1,-23615.9
2.33314e+08,37.8649,2,2.39609,1221.33,6624.93,-24559.5
2.33361e+08,0.873236,0,2.60231,240.703,-59.0523,-28704.4
2.33649e+08,70.0554,0,2.36348,2784.6,-2709.12,-14490.7
2.33947e+08,86.5968,0,2.7174,6536.91,10534.5,-29692
2.33966e+08,19.67,1,2.39035,3713.25,1230.11,-27396.3
2.33991e+08,69.5032,2,2.64449,11206.6,-1127.31,-19481.9
2.34028e+08,33.2998,0,2.74748,1243.41,6765.83,-27318
2.34191e+08,36.8386,1,2.57456,50.2499,4064.98,-22142.8
2.34372e+08,35.1558,0,2.36397,7043.05,2663.98,-28828.7
2.34893e+08,133.718,1,2.82838,-8020.14,1505.88,-1919.73
2.35039e+08,8.30983,1,2.41855,801.008,-853.755,-27551.6
2.35148e+08,69.7119,2,3.04425,-14535.7,-1662.51,-27603.7
2.35154e+08,19.2174,1,2.68153,988.615,917.159,-25020.8
2.35369e+08,110.981,2,2.70708,-4529.92,-14367.6,-10875.5
2.35617e+08,38.4644,0,2.68608,1916.01,7240.93,-25580.8
2.36296e+08,101.873,2,2.80601,-6325.94,-18077.2,-19013.9
2.3638e+08,36.1696,1,2.98358,410.026,-5551.83,-23755.3
2.36599e+08,177.971,1,2.98805,13504.2,26844.9,-6690.53
2.36698e+08,37.6715,1,2.57921,-5139.26,-5892.26,-27618.8
2.37366e+08,21.4734,0,2.88761,236.961,-4366.03,-27576.1
2.37403e+08,55.3496,2,2.79688,-6666.04,-9222.75,-25962.5
2.37471e+08,28.1613,1,2.9509,-4030.07,-3279.05,-26064.8
2.37583e+08,19.0344,1,2.73714,3847.27,1129.74,-28928.2
2.37835e+08,88.6618,0,2.94925,9639.91,6301.65,-15798.5
2.38032e+08,27.774,1,2.73544,3116.07,-2022.37,-24338.6
2.38075e+08,104.54,1,2.89302,929.798,16672.5,-14471.1
2.38208e+08,89.239,2,2.83812,2233.85,10855.8,-13735.4
2.38272e+08,119.3,2,3.00372,19514.8,-11277.1,-17952.5
2.38517e+08,42.2474,0,2.82755,-8234.91,2610.16,-26959.8
2.38794e+08,27.8609,0,2.49145,5413.78,2127.93,-27361.4
2.39112e+08,48.5392,0,2.56585,2626.28,2927.46,-19326.3
2.39444e+08,30.443,1,2.70199,-3468.94,3206.86,-24372.4
2.39468e+08,28.2323,1,2.86097,-1696.16,-4245.76,-25063.5
2.39727e+08,33.3677,1,2.49413,-3728.27,-3181.69,-23734.8
2.39771e+08,26.5613,2,3.04485,2516.59,1072.11,-24029.1
2.39876e+08,77.011,2,2.92127,-4474.58,-2617.02,-14123.1
2.40019e+08,37.6172,1,2.72598,7082.59,-1670.64,-25820.5
2.40067e+08,76.8115,2,2.91175,-2102.22,-13657,-20396.3
2.40204e+08,170.06,1,2.90977,-10488.9,1293.45,5282.85
2.4021e+08,32.5492,2,2.54188,-2192.97,1744.65,-22549.9
2.41072e+08,36.834,0,2.61472,6880.97,-1285.44,-25256.9
2.41216e+08,89.557,1,2.83368,-4687.72,15582.1,-19240.6
2.4127e+08,46.2236,1,2.95249,-1264.88,8265.72,-23762.2
2.41612e+08,59.6161,0,2.69293,10870,-6041.13,-26469.8
2.41616e+08,351.209,1,2.93699,22825.8,27713.5,8479.46
2.42126e+08,11.9464,2,2.78018,-2275.75,-1296.31,-28661.3
2.42151e+08,48.2582,1,2.41014,-7575.73,-2568.84,-22814.3
2.42347e+08,49.9534,1,2.64091,1756.33,10349.7,-27225.3
2.42432e+08,8.21789,2,2.40728,-595.727,-1579.1,-28101.6
0,8.28851,2,3.04454,0,0,0
2.42873e+08,155.918,1,2.39535,-9991.57,29473.8,-17597.7
2.42916e+08,154.513,0,2.45378,17308.9,16768.3,-6685.8
2.4293e+08,59.7243,1,2.3767,-10384.4,6977.8,-26594.6
2.43151e+08,11.7615,0,2.92999,1424.12,597.249,-26836.6
2.43408e+08,53.1064,1,2.73712,-7545.97,-4592.58,-21945.5
2.43592e+08,59.1853,2,2.56991,5807.9,-8649.92,-21832.8
2.43769e+08,77.2969,2,2.41664,-14585.4,3450.15,-22212.8
2.44288e+08,162.898,1,2.51301,-26419.3,-4550.66,-7156.41
2.44324e+08,23.9872,0,2.76049,-2102.76,-4580.39,-28878.9
2.44358e+08,5.46524,0,2.8276,560.214,1049.39,-28571.9
2.44488e+08,86.8395,2,2.69016,-10538.7,-15065.2,-29930.9
2.45605e+08,84.3865,1,2.66401,-14953.1,-3119.92,-19626.2
2.45828e+08,103.864,0,2.81892,21301.8,-1960,-24115.5
2.45941e+08,61.6117,2,2.92796,-2072.45,-12744,-27134.2
2.46316e+08,62.0784,1,2.79595,6532.78,3996.32,-18220
2.46514e+08,60.4886,0,2.84556,9801.82,-2156.16,-20911.8
2.46667e+08,71.2296,0,2.83691,-10362.3,-514.304,-18080
2.46679e+08,12.9603,1,2.4339,-1474.49,2034.86,-27564.6
2.46779e+08,43.7525,0,2.90232,-879.411,8507.01,-25465.9
2.46806e+08,24.0786,0,2.81532,3853.41,1218.47,-25696.8
2.46899e+08,56.994,0,2.54316,2120.91,10298,-22902
2.47194e+08,6.98289,1,2.9641,-860.137,1301,-28575.9
2.47331e+08,52.5507,2,2.89943,-5709.64,-9557.54,-28485.7
2.4742e+08,64.3018,0,3.05379,11118.1,7582.48,-27397
2.4743e+08,21.8972,0,2.54498,3075.33,-184.249,-25298.6
2.4774e+08,66.7951,1,2.83961,-4482.14,-1014.83,-15573.4
2.48352e+08,115.647,0,2.90436,7900.38,-13096.2,-9915.36
2.48466e+08,115.942,0,3.04552,989.13,-23704.9,-23572.4
2.48696e+08,7.83147,1,2.82111,1416.67,93.9072,-28014.1
2.48966e+08,8.02767,1,2.8198,-876.177,-1186.05,-28040.9
2.49031e+08,109.635,0,2.77436,17375.6,9777.61,-17116
2.49085e+08,45.4861,0,2.61772,1983.3,-6382.43,-21876.9
2.49414e+08,41.8178,1,2.6287,-3195.22,7994.81,-26459.3
2.49817e+08,40.943,0,2.54481,-658.261,-3614.71,-20977.2
2.49822e+08,15.9384,0,2.58982,-271.333,-2590.77,-26678.6
