#class tools::wcsv::ntuple
#title time
#separator 44
#vector_separator 59
#column double eventID
#column double t(ns)
#column double copynumber
#column double energy(eV)
#column double x(mm)
#column double y(mm)
#column double z(mm)
91525,5.41115,1,3.03209,937.151,729.325,-28633.3
123563,102.551,1,2.79839,892.158,-6132.64,-8385.35
231571,118.604,1,2.7313,-19525.6,11771.9,-18372.4
303405,37.1306,2,2.99825,-3526.56,-5116,-24091.5
538435,8.3399,0,2.74097,-151.89,-1699.79,-29343.8
585947,196.207,1,2.95665,-17022.3,-28262.4,-4318.53
717709,44.1692,1,2.48627,-8117.6,-5016.34,-29041.5
724624,77.2303,1,2.67178,-2156.17,4528.56,-13419.6
864468,13.7986,1,2.38294,-2964.97,-246.641,-28458.1
866551,133.037,2,2.77868,-6979.68,21697.7,-12537.7
904677,3.18605,2,2.78784,537.539,-508.65,-29481.6
0,3.20796,2,3.35198,0,0,0
0,3.19562,2,3.02167,0,0,0
0,3.19257,2,2.62309,0,0,0
0,3.18214,2,3.8383,0,0,0
0,3.17754,2,3.06094,0,0,0
0,3.23652,2,2.90161,0,0,0
0,3.21575,2,2.634,0,0,0
0,3.17441,2,2.78854,0,0,0
0,3.17569,2,4.03437,0,0,0
0,3.22068,2,3.91146,0,0,0
0,3.1726,2,3.57687,0,0,0
0,3.17221,2,2.90876,0,0,0
0,3.19692,2,3.86196,0,0,0
1.01968e+06,5.48487,0,2.5295,375.884,-24.7385,-27703.6
1.16279e+06,23.3637,2,2.44185,1164.82,-4092.69,-26129.8
1.4027e+06,1.15033,0,2.94301,249.481,-104.969,-28673.4
0,1.0533,0,2.40807,0,0,0
0,1.52537,2,2.67377,0,0,0
0,1.05659,0,2.44102,0,0,0
1.54949e+06,14.4745,2,2.78325,-1632.86,-2612.42,-27857.9
1.60733e+06,2.15157,1,2.91151,27.4237,375.49,-28415.9
1.83633e+06,111.936,2,2.48402,-7665.58,-16134.6,-13271.4
1.96177e+06,93.3565,1,2.96327,-1545.44,19526,-28114.9
2.06319e+06,46.3984,1,2.70549,9384.28,-2809.58,-28312.3
2.14634e+06,245.418,0,2.37589,25017.1,13996.4,14492.9
2.46254e+06,138.42,0,2.70982,18830.6,15398,-12730.9
2.55557e+06,114.63,2,2.67325,2613.54,-10403.9,-7149.52
2.58052e+06,28.6091,0,2.59821,1987.8,-945.408,-23200
2.81239e+06,29.3874,0,2.78196,3623.65,-2713.13,-24483
2.81401e+06,36.7288,2,2.55161,-3420.89,-2744.31,-23060.7
2.85931e+06,19.2698,1,3.05533,-3933.88,1092.24,-28351.7
2.92708e+06,157.455,1,2.89386,19348.5,-1711.9,-2101.76
3.04273e+06,107.21,0,2.72166,12828.2,-4292.25,-10655
3.29357e+06,213.09,2,3.02851,12115.2,-21209.4,-17074.8
3.35305e+06,15.7719,2,2.68589,-2504.65,-1052.28,-26880.5
3.38708e+06,86.3886,1,2.61416,-14078.3,-8376.34,-21185.3
3.65115e+06,91.0616,0,2.49368,-15420.4,8563.77,-21254
3.68343e+06,58.9891,1,2.77498,-3878.78,5924.4,-18550.1
3.75873e+06,6.21734,2,2.5375,114.545,-222.535,-27665.6
0,6.31123,1,2.42787,0,0,0
0,6.44044,2,2.91926,0,0,0
0,6.24157,2,2.87366,0,0,0
3.88383e+06,6.28221,0,2.81351,512.066,-298.222,-27613.6
3.98549e+06,93.9538,0,2.47559,-17873.8,3641.76,-21181
4.01266e+06,61.3778,2,2.87433,303.103,-12818.6,-26861.3
4.27506e+06,18.5056,0,2.59833,3330.01,2017.39,-29299
0,18.5607,0,2.90572,0,0,0
4.28576e+06,194.434,1,2.53696,-5453.12,5214.78,11533.9
4.29054e+06,52.1388,0,2.56474,10498.7,1114.78,-25334
4.4177e+06,24.9318,0,2.58624,141.8,4523.72,-26055.3
4.61231e+06,58.6308,1,2.94345,8393.09,4811.5,-21196.8
4.63031e+06,215.224,0,2.96705,-17430.4,-8100.53,11949.5
4.70111e+06,143.401,1,2.54491,-13801.7,18078.2,-8712.28
4.77366e+06,102.913,0,2.83528,4350.06,-21266.1,-29880.3
4.84983e+06,81.105,1,2.49489,-13491.7,357.776,-18512.7
4.94055e+06,7.59813,1,2.93216,-900.039,495.506,-27405.6
5.00307e+06,73.199,0,2.59038,-832.16,-8166.76,-15715.6
5.00466e+06,235.901,0,2.67686,13439.5,-20808.1,-13574.3
5.06316e+06,102.405,1,2.72594,-15655.4,-1973.36,-14172.6
5.07948e+06,154.712,0,2.40926,8254.54,-27692.3,-13180.3
5.11236e+06,28.3917,2,2.96264,-1670.63,-2150.23,-24160.6
5.28195e+06,91.1339,2,2.45492,-11111.6,-15550.4,-26308.6
5.39618e+06,55.3815,2,2.96356,6537.59,-1485.7,-19569.3
5.42583e+06,67.4694,1,2.9077,-1774.71,5779.88,-16281.3
5.62724e+06,176.711,0,2.55637,-12300.9,-14069.2,3493.48
5.70844e+06,119.364,2,3.00741,11998.4,784.602,-6859.34
5.87289e+06,29.8725,2,2.71478,4010.86,1932.44,-24425.3
6.0188e+06,171.45,1,2.53001,-1997.53,14628.1,1701.79
6.0268e+06,156.983,1,2.73714,-7026.55,5359.31,-398.685
6.10412e+06,16.7972,1,2.77706,-1091.02,2860.72,-29442.9
6.16694e+06,3.07705,2,2.5782,302.114,86.2959,-28182.9
6.28565e+06,8.20721,1,2.58677,-1046.34,1072.86,-27958.8
6.3002e+06,147.055,1,2.71974,24511.2,11848.8,-15884.6
6.36219e+06,54.1046,1,2.37111,-5437.08,4775.76,-19716
6.40721e+06,10.8287,0,2.39146,1904.91,1342.5,-28934.1
6.43453e+06,160.595,2,2.62118,29961.2,5430.74,-13688.2
6.68341e+06,14.314,1,2.73077,2162.19,1578.82,-27472.2
6.84582e+06,63.3944,1,2.90533,-806.852,-12455.1,-24656
7.1409e+06,16.638,2,2.76515,-1307.59,327.144,-25560.4
7.29532e+06,7.42268,1,2.92053,693.708,-442.329,-27482.1
7.38406e+06,60.7809,2,2.55318,4892.32,-4705.98,-17994.1
7.5286e+06,3.47229,0,2.50242,635.217,13.3162,-28302.1
7.61884e+06,5.19246,1,3.03758,-733.486,236.351,-28086.5
7.73504e+06,44.7229,2,3.01898,15.0962,-7395.62,-22975.4
7.75339e+06,81.3888,2,3.0116,10557.5,-13093.3,-29118.6
7.85857e+06,14.8698,1,2.56894,1508.73,2233.43,-27127.1
8.09945e+06,4.72245,2,2.79084,733.703,226.392,-28265.8
8.1612e+06,33.1308,2,2.84793,3431.15,-1497.61,-22922.9
8.27111e+06,22.4371,0,2.82753,-1626.31,1826.97,-24737.2
8.31982e+06,154.342,0,2.98059,28321.7,15169.2,-24972.7
8.36459e+06,14.2738,1,2.97514,-505.925,744.559,-25940.2
8.4239e+06,21.7014,1,2.52268,-4050.67,1285.31,-26948.6
8.53309e+06,173.589,0,2.85892,-6232.49,-24340.7,-2471.26
8.63238e+06,88.2489,2,2.61554,-8078.02,-4143.54,-12554.9
8.69223e+06,130.088,2,2.55317,-13650.4,9506.03,-6915.38
8.73239e+06,44.0483,1,3.05788,-1574.44,5286.56,-26211.1
8.78754e+06,22.0058,0,2.53078,-891.438,-1831.61,-24536
9.08191e+06,33.9235,0,2.79385,2476.56,-1344.68,-22541.1
9.16933e+06,42.1077,1,2.89444,-8454.87,-1681.88,-26181.3
9.22206e+06,32.8641,0,2.92209,1173.64,4208.89,-24104.4
9.27598e+06,5.86589,1,2.43122,-206.856,500.01,-27784.4
9.38143e+06,99.0577,1,2.56077,-19776.4,-2.64032,-21588.3
9.43623e+06,128.676,2,2.8939,-17244.4,16239.4,-15939.1
9.57727e+06,37.3238,2,2.90301,-1390.49,-7495.61,-26500.8
9.58599e+06,43.7549,1,2.65929,-3224.35,8235.94,-25841.4
9.74922e+06,16.7983,1,2.90772,515.219,2549.55,-26383.3
9.75236e+06,143.224,0,2.79119,6909.89,-2512.63,372.211
9.75776e+06,22.7727,1,2.42158,-558.397,-2896.59,-25092.8
9.87852e+06,17.3248,0,2.9466,1649.5,2092.97,-26267.4
9.95328e+06,76.4483,2,2.37227,-5356.36,9219.41,-16654.6
1.00167e+07,175.974,1,3.04176,-18177.8,27893.9,-25754.6
1.01519e+07,59.0776,0,2.94339,5942.85,1641.78,-23966.6
1.02562e+07,30.206,2,2.85165,5324.64,-1816.09,-25658.2
1.0511e+07,74.1352,1,3.04119,9688.95,4094.36,-17506.9
1.05373e+07,21.2147,0,2.61475,-1808,-3315.47,-26448.2
1.07367e+07,16.9366,0,2.98191,-1960.34,-2860.01,-29150.3
1.07425e+07,59.0908,1,3.05619,1945.22,5196.77,-17793.4
1.07797e+07,90.5158,2,2.78776,6700.97,-5928.68,-12015.5
1.07962e+07,21.0099,0,2.73803,-1904.22,1722.13,-25359.2
1.08066e+07,46.3082,0,2.96084,3451.28,-449.787,-19717
1.09628e+07,60.2866,0,2.73322,-1942.18,7545.73,-18797
1.10534e+07,96.1511,2,2.50241,8691.78,-16759.6,-20989.9
1.10905e+07,48.6002,1,2.69278,-8121.86,997.851,-22581.4
1.11289e+07,18.2156,1,2.77473,541.413,3849.75,-28349.1
1.11396e+07,84.2451,1,2.87849,1561.21,-6578.46,-26460.3
1.12101e+07,61.7011,2,2.69418,-6676.92,3534.35,-18230.4
1.12722e+07,169.929,1,2.51037,-18393.9,24308.7,-10021.5
1.14755e+07,127.148,0,2.49736,22172.6,-8958.74,-16389.1
1.14944e+07,15.0541,2,2.44215,2050.07,-901.977,-26546.7
1.15295e+07,33.0256,0,2.61156,3960.86,-3913.6,-24525.1
1.15358e+07,145.662,1,2.90547,659.435,4563.11,-19587.3
1.15482e+07,86.3181,2,2.84866,1695.79,-16953.8,-22819.9
1.15936e+07,22.0887,1,2.87353,-2400.15,2669.09,-25798.3
1.16199e+07,4.42908,0,2.73217,401.817,833.876,-28533.5
1.16437e+07,87.339,2,2.7046,-7649.95,-3030.57,-12798.2
1.16827e+07,191.081,1,2.94962,13888.1,18715.6,-5987.34
1.18278e+07,137.902,2,2.70467,-27944.2,-3584.06,-21411.4
1.19504e+07,16.9949,0,2.51226,382.964,1910.91,-25788.4
1.19663e+07,48.296,1,2.3712,4324.52,6080.53,-21830.4
1.19809e+07,37.8728,2,3.0001,1798.84,-2904.96,-21616.3
1.21094e+07,91.461,0,2.50299,150.415,-19142.9,-25991.2
1.21125e+07,49.8077,1,2.63747,2690.51,-9578.2,-25672.8
1.21804e+07,20.9989,2,3.02886,-3098.38,-3079.53,-28499.6
1.22439e+07,93.0579,2,2.37721,-17305.5,-8573.06,-24675.5
1.22948e+07,35.7253,1,3.04132,-5310.11,-5276.09,-29321.8
1.23089e+07,98.5538,0,2.51991,3583.13,12987.4,-12914.9
1.23778e+07,84.5499,0,2.71059,7218.56,8363.97,-15097
1.25979e+07,223.03,0,2.79666,13946.2,-26839.7,7076.54
1.27381e+07,135.959,2,2.96947,1334.07,-18821.4,-7384.4
1.28273e+07,248.906,0,2.57921,13645.3,-24837.9,15433.7
1.28336e+07,1.66865,2,2.88418,-240.514,-98.2461,-28498.6
1.28607e+07,60.068,1,2.74059,-1697.3,6983.04,-18346.3
1.29187e+07,110.966,1,2.74901,-22317.3,-2189.97,-22064.1
1.2952e+07,62.0018,2,2.42874,7324.14,-10837.5,-27356
1.3063e+07,180.699,1,2.54044,17566.5,6168.24,4485.45
1.31749e+07,168.535,1,2.61593,29216.5,-10752.4,-11842.9
1.33498e+07,28.177,0,2.79188,-3049.11,-2270.95,-24319.4
1.33576e+07,144.517,0,2.78339,11804.7,-9435.68,-2401.86
1.33771e+07,3.29246,0,2.49648,-366.723,-182.268,-28319.8
1.35636e+07,13.4012,0,2.71577,2218.62,1543.23,-27669.5
1.36118e+07,55.8488,1,3.01133,2914.47,8406.07,-21134.4
1.37566e+07,14.5312,0,2.96956,-2445.94,-969.778,-28101.4
1.37643e+07,86.3857,2,2.56708,-9287.79,-1899.37,-13325.5
1.40104e+07,25.2355,0,2.90109,2747.82,-4654.89,-29352.4
1.41531e+07,36.9679,2,2.85765,5468.78,-201.655,-26935
1.43005e+07,90.0762,0,2.62427,-13060.2,-6488.73,-16559.7
1.43159e+07,62.1421,2,2.79742,-6917.56,4375.91,-18914.2
1.43772e+07,48.8334,2,3.01009,-5472.08,-5019.35,-21623.1
1.44184e+07,21.3139,0,2.59319,-659.741,3237.63,-25747.4
0,21.2476,0,2.6469,0,0,0
1.47181e+07,92.8857,2,2.78909,-14832.2,-6572.04,-18151.1
1.47279e+07,98.9974,0,2.87389,7570.41,-8030.06,-11146
1.48624e+07,96.8289,2,2.74068,-17328.2,6946.78,-20555.4
1.49895e+07,77.8592,1,2.91631,-14740,5392.54,-23694.4
1.50385e+07,60.5372,2,2.85929,-1334.5,5268.53,-17328.2
1.50731e+07,161.499,0,2.41659,-6698.52,-10412.9,2929.04
1.52255e+07,50.1148,0,2.44436,4694.36,7264.38,-22527.4
1.52777e+07,6.73424,1,2.96419,317.28,693.016,-27655.4
1.54529e+07,47.8655,2,2.69169,-8599.96,4122.79,-25525.6
1.55026e+07,35.596,0,2.90646,1720.93,-6126.93,-25088.7
1.55037e+07,9.32911,1,3.04135,1403.1,1072.67,-27910.6
1.56401e+07,82.6068,0,2.79357,10178.3,2916.21,-15610.7
1.56752e+07,49.5152,2,2.9974,-9986.88,-768.283,-25989.3
1.58636e+07,40.8195,1,2.9377,-6167.66,3965.05,-24600.4
1.59114e+07,37.9318,1,2.55052,1287.89,6174.65,-24254.9
1.60472e+07,71.471,2,2.69809,-11752,-7429.8,-23086.7
1.61824e+07,1.26007,2,2.9036,-44.6789,-182.197,-28563.7
0,1.25543,2,2.79423,0,0,0
0,1.27052,2,2.83028,0,0,0
1.62543e+07,41.6349,2,2.69357,-2681.1,931.599,-20449.3
1.62665e+07,68.3689,1,2.56643,4147.7,11378.9,-21084.2
1.64112e+07,62.6522,2,2.42915,-9019.04,-4650.75,-20168.4
1.64518e+07,107.414,1,3.02402,7080.14,21419.5,-28805.8
1.65014e+07,8.784,1,2.84788,-1826.9,-570.114,-28938
1.66572e+07,124.906,1,2.44432,-19277,6544.92,-11894.4
1.68334e+07,145.794,1,2.37836,12714.6,20195.5,-9230.37
1.70303e+07,51.273,1,3.03498,-8383.49,-4702.48,-24158.6
1.72995e+07,1.62401,1,2.86105,-296.668,287.259,-28635.6
0,2.2256,0,2.74941,0,0,0
1.73386e+07,37.5186,1,3.04335,1834.7,7640.93,-28033.8
1.73738e+07,1.35098,2,2.51223,-284.206,43.2243,-28682.7
1.75742e+07,65.1765,2,2.82407,12557.4,-5492.71,-27022.9
1.78086e+07,35.7024,0,3.01205,7095.47,-1069.92,-26451.1
1.78424e+07,8.52619,1,2.67119,200.15,1828.63,-28377.3
1.80194e+07,26.9822,1,2.40595,3674.6,2973.65,-25426.3
1.81207e+07,90.6118,1,2.36316,-12802.9,14279.3,-28167.7
1.81928e+07,98.921,0,2.77307,-6210.36,16355.1,-21753.6
1.85427e+07,254.588,0,2.44587,-27777.9,-28468.5,7512.06
1.85448e+07,73.5504,1,2.93311,-11362.7,-6662.14,-20821.8
1.85921e+07,123.665,0,3.0066,9902.15,18506.4,-13527.8
1.86123e+07,42.0401,1,2.7205,-5659.32,-1459.24,-22058.5
1.86633e+07,139.411,0,2.48609,22852.6,15059.5,-17919.8
1.86787e+07,75.0824,0,2.77873,378.83,-5162.8,-13905.5
1.86885e+07,4.80382,1,2.91798,-56.556,1090.78,-28610.1
1.87278e+07,162.291,0,2.87721,-1676.31,2919,-24858.6
1.8924e+07,8.70694,0,2.98113,245.521,1427.36,-28067.2
0,8.70717,0,2.98113,0,0,0
1.9325e+07,125.499,2,2.8493,-19210.5,13189.7,-16476.2
1.94615e+07,21.2385,0,2.73599,2194.44,2471.2,-26069.4
1.94679e+07,22.87,2,2.76282,-1642.82,1200.21,-24496
1.96237e+07,109.14,1,2.83454,10447.9,-7445.66,-9944.82
1.964e+07,55.541,2,2.89813,3542.71,-9840.07,-23475.5
1.97574e+07,140.495,2,2.98767,-20727.3,17896,-18049.1
1.98441e+07,56.0041,0,2.80062,-10114.3,-5496.93,-26630.3
1.98644e+07,41.7926,0,2.66568,-4558.45,-470.678,-21381
2.01535e+07,30.8794,0,2.67651,-2294.1,3911.86,-24080
2.01681e+07,6.14608,1,2.7866,-1326.3,371.469,-28818.2
2.02051e+07,14.8503,2,2.82131,-365.796,1513,-26174.1
2.02614e+07,169.616,1,3.04713,-1174.58,21215.6,-7589.43
2.03408e+07,220.788,0,2.74763,9099.13,-26443.9,-27999.5
2.04329e+07,8.0575,1,2.94907,-323.233,1458.81,-27837.5
2.05083e+07,19.191,1,2.45785,-3880.77,-152.556,-28136.8
2.07898e+07,55.6801,0,2.97928,9649.53,-4677.62,-24015.9
2.09706e+07,64.1696,1,2.49658,-3170.08,763.845,-15636.1
2.10723e+07,44.6395,2,2.98289,-2816.64,6182.05,-22434.6
2.1336e+07,157.536,1,2.73042,26212.2,6921.05,-9741.3
2.13461e+07,86.9033,2,3.03749,-8240.24,13348.2,-19812.7
2.16945e+07,153.047,0,2.80762,28237.2,-9225.97,-16521.7
2.19016e+07,4.11762,0,2.82362,-437.918,676.45,-28546.3
2.21144e+07,76.3429,0,2.69121,-2711.53,11846,-18373.7
2.22259e+07,259.409,1,2.84041,-21952.1,-9955.19,20023.3
2.23082e+07,134.425,1,2.53904,-3639.44,-19710.3,-17927.9
2.23186e+07,5.58494,2,2.77071,152.509,-1169.2,-28584.3
2.23792e+07,27.4544,1,2.47945,-3615.68,4417.87,-27207.6
2.25059e+07,78.443,0,2.7712,1277.35,16374.7,-26887.8
2.26033e+07,67.2317,1,2.46769,-3902.27,-9429.51,-19093.3
2.261e+07,136.26,1,2.71495,23336.5,10016.9,-15551.6
2.27016e+07,86.0607,2,2.77986,-5195.07,-8258.36,-13529.3
2.28539e+07,18.3155,2,2.43902,-1047.45,2114.23,-25797.4
2.28804e+07,6.88288,1,2.43053,-1277.61,682.877,-28295.8
0,7.00494,1,2.81433,0,0,0
2.28899e+07,127.379,2,2.85486,13530.6,-17543.5,-13896.9
2.28943e+07,184.751,1,2.52679,-16333.1,23709.2,-3447.39
2.29248e+07,7.94719,2,2.97771,-648.879,-1276.25,-29882.5
2.29851e+07,22.7266,1,2.7014,2912,-1907.46,-25615
2.3073e+07,53.4819,1,2.81465,2983.89,-7559.16,-21098
2.3203e+07,80.5993,1,3.04994,-2167.06,-8889.72,-14629.7
2.322e+07,43.4706,1,3.05899,1105.37,2371.86,-20108.4
2.32303e+07,12.1443,0,2.6354,2473.31,-610.512,-28099.7
2.32544e+07,9.54346,2,2.61063,-577.085,-1949.73,-29448.9
2.33925e+07,120.467,0,2.56135,3608.85,-816.538,-3599.59
2.34818e+07,94.958,0,2.51054,-2300.39,-17305.6,-18708.8
2.35475e+07,7.1897,0,2.57102,1285.38,-633.25,-28530.4
2.35848e+07,48.7516,2,2.55458,-3050.27,7191,-22166.9
2.35925e+07,44.2801,2,2.41949,-3131.77,-6815.6,-23107
2.36898e+07,206.742,2,2.36935,-29860.3,4921.98,2795.88
2.378e+07,88.6343,0,3.0204,-371.049,16523.1,-20971.5
2.37883e+07,56.6893,1,2.39472,-11795.4,-2425.23,-29398.2
2.39214e+07,71.413,0,2.53732,10886.1,-8101.76,-22045.8
2.39395e+07,36.9008,2,2.66242,-856.018,-6302.64,-24280.1
2.40262e+07,109.582,0,2.71047,2888.41,17131.5,-13579.2
2.41205e+07,47.9789,2,2.95432,-6520.88,-1782.11,-21281.7
2.41322e+07,40.3699,2,2.96672,-6584.44,-2972.99,-24380.1
2.42152e+07,3.42306,2,3.04294,-377.73,-387.123,-28278
0,3.64756,1,3.04434,0,0,0
0,3.32946,2,2.70026,0,0,0
2.44063e+07,145.088,1,2.47372,-14296.2,14068.1,-5549.14
2.44201e+07,3.59,0,2.54726,548.803,-478.081,-29283.8
2.45217e+07,57.6765,1,2.94857,-9545.32,5886.24,-24258.4
2.45559e+07,39.5367,0,2.96525,1417.96,-7453.12,-25418.3
2.47603e+07,139.43,2,2.97026,-15568.4,4380.34,-4545.89
2.48301e+07,47.8257,1,2.50362,265.092,6232.72,-20807.7
2.48547e+07,17.3071,2,2.71124,-1834.25,1840.88,-26250.5
2.48701e+07,87.2439,0,2.5754,-8180.25,-3731.32,-12728.2
2.49161e+07,67.0795,2,3.01143,6071.21,-4336.82,-16903.3
2.49779e+07,133.95,1,2.89893,18331.6,-6682.51,-8555.13
2.51556e+07,1.01916,2,2.73876,-165.387,-267.126,-28871.2
0,0.991577,2,2.73659,0,0,0
0,0.999766,2,2.85424,0,0,0
0,0.99612,2,2.78548,0,0,0
2.51666e+07,35.8088,0,2.80455,1764.07,-5269.56,-24026.7
2.51895e+07,19.6716,0,2.41613,3957.49,-982.208,-29926
2.54117e+07,11.6068,0,2.95385,2212.85,-1125.66,-29369.6
2.54733e+07,9.94499,1,2.80163,495.161,-1184.95,-27461.3
2.54926e+07,23.2138,1,2.81306,-3209.79,-2309.75,-26505
2.55077e+07,12.5861,0,2.74955,510.438,-2443.23,-27881.1
2.5528e+07,78.5612,2,2.97308,-2164.67,-5761.91,-14140.2
2.56023e+07,109.064,2,2.54348,-7639.62,-19413.6,-18789.2
2.56257e+07,14.6459,1,2.55667,-2865.81,891.8,-29946.9
2.56358e+07,22.9277,0,2.98274,-615.345,-4778,-28736
2.56672e+07,107.101,2,2.90413,12758.7,18139.8,-25300.9
2.58003e+07,162.749,2,3.03813,-18611.9,-24912.3,-14629.4
2.6099e+07,42.7765,2,3.01856,5113.29,-2695.38,-21890.7
2.61175e+07,145.528,1,2.94076,-21232.3,-15842.4,-14801.7
2.63447e+07,54.8906,0,2.93273,5756.06,2931.45,-19231.6
2.6379e+07,44.6804,0,2.57607,5270.82,1633.43,-21109.9
2.64118e+07,18.2245,2,2.57005,3246.61,-349.684,-26915.1
2.64724e+07,108.124,0,2.51174,18912.8,-3965.4,-16407.7
2.65652e+07,50.9953,1,2.61278,-5525.22,-1747.52,-19687.5
2.66832e+07,191.63,0,2.41444,1144.87,-21778.2,-21162.4
2.69628e+07,40.4128,0,2.54051,-138.263,8177.3,-26206.3
2.73055e+07,23.432,0,2.52858,2252.22,-3165.67,-25658
2.73253e+07,70.1484,2,2.85985,-1811.77,5368.54,-22266.2
2.74166e+07,43.8507,0,2.50358,7451.43,3435.88,-24335.3
2.75313e+07,185.49,0,2.73894,22362.4,-22594.3,-6417.12
2.75449e+07,14.9422,0,2.38468,3096.27,-268.823,-27536.8
2.77115e+07,111.174,0,2.48805,-263.023,-789.78,-27811.2
2.78318e+07,52.8711,0,2.92873,1463.44,11017.6,-28292.1
2.78619e+07,42.3372,1,2.90145,-8731.43,-899.68,-27267.4
2.78663e+07,149.029,2,2.56818,-25084,15242.5,-17486.8
2.78793e+07,137.059,2,2.4123,-24290.4,14009.3,-21195.3
2.79907e+07,57.2807,2,2.87043,-5973.72,-2632.08,-18681.2
2.80032e+07,64.7879,1,2.39195,-6588.16,11544.4,-25239.6
2.80761e+07,326.55,1,3.04952,183.806,14351.5,-26733.2
2.80898e+07,39.9945,0,3.00415,6368.61,5465.31,-27700
2.81755e+07,85.8871,0,2.87644,-8909.81,15363.3,-25939.8
2.83253e+07,82.7037,2,3.02241,7509.63,-10356.6,-17898.2
2.8366e+07,26.0008,1,2.48514,3994.04,3470.11,-29934.7
2.85085e+07,6.03076,2,2.39979,-802.586,-1015.23,-28482.4
2.85102e+07,29.1352,2,2.61474,-3430.83,-1565.04,-24161.9
2.86007e+07,103.977,2,2.5784,-9901.06,-2569.44,-28745.7
2.86668e+07,65.0442,1,2.9127,-3409.54,-12025.8,-23327.1
2.88722e+07,154.214,2,2.42877,-5660.23,-13223.2,499.63
2.89249e+07,44.788,2,2.94893,6815.21,-2209.85,-22655.7
2.89681e+07,118.26,1,2.76278,10466,-2430.89,-6390.57
2.93173e+07,9.50396,1,2.87976,-255.698,742.858,-26972.9
0,9.52342,1,2.96203,0,0,0
2.94524e+07,141.414,0,2.6981,19319.2,14578,-11321.6
2.94983e+07,63.2196,2,2.81362,-5217.24,-8363.44,-19898.7
2.95814e+07,132.542,1,2.63881,-15896.5,11378.4,-8739.62
2.96782e+07,147.665,0,2.66368,29226.3,-11027.6,-28213.3
2.97513e+07,5.51577,1,2.93838,-925.021,823.098,-29085.8
0,5.5399,1,2.97995,0,0,0
2.98915e+07,5.43194,0,2.56793,1191.77,-399.287,-29072.8
2.99159e+07,46.3462,1,2.91068,-9777.09,881.519,-28780.5
2.99225e+07,37.4938,1,2.47504,-5705.69,4834.94,-25917.5
