#class tools::wcsv::ntuple
#title time
#separator 44
#vector_separator 59
#column double eventID
#column double t(ns)
#column double copynumber
#column double energy(eV)
233534,17.957,2,2.72298
0,17.9816,2,2.72298
395112,41.309,0,2.89401
549315,52.8452,1,2.63946
575476,86.81,0,2.85827
578144,278.138,0,2.80011
650174,118.582,0,2.81549
671418,4.38293,1,2.6924
744321,38.0078,1,3.0002
0,38.2346,1,3.0002
746389,50.0255,2,2.44577
1.06897e+06,83.567,2,2.99257
1.18386e+06,174.159,0,2.5546
1.21491e+06,141.254,2,2.7752
0,141.62,2,2.7752
1.3185e+06,84.537,0,2.78998
1.40202e+06,165.222,2,2.95206
1.66859e+06,39.5144,0,2.95438
1.6938e+06,28.5541,1,2.4733
1.69564e+06,111.347,2,2.56071
1.74462e+06,149.946,0,2.40858
1.75422e+06,44.3555,2,3.04696
2.08515e+06,134.775,0,2.82338
0,135.159,0,2.82338
2.77291e+06,96.41,0,2.50474
3.11961e+06,39.3738,1,2.85675
3.39958e+06,47.2421,0,2.69456
4.04553e+06,23.2368,2,2.43143
0,23.5852,2,2.43143
4.1447e+06,105.377,2,2.85593
4.26207e+06,179.524,1,2.45405
0,179.703,1,2.45405
4.40551e+06,130.055,2,2.82826
5.07054e+06,45.9809,0,2.81774
5.15134e+06,3.13646,2,2.83178
5.17849e+06,53.6321,0,2.81624
5.68882e+06,204.483,2,2.67317
5.87934e+06,205.175,1,3.00009
5.89069e+06,93.6804,2,2.79289
6.06765e+06,53.4723,0,3.04475
6.91746e+06,155.289,1,2.82615
0,155.546,1,2.82615
6.99469e+06,139.56,2,2.93798
7.23503e+06,283.288,2,2.86621
7.35588e+06,194.137,1,2.87662
7.38353e+06,67.7902,1,2.99758
0,68.008,1,2.99758
7.55868e+06,96.4429,0,2.61545
7.719e+06,3.5008,0,2.8493
0,3.49978,0,2.68966
8.41946e+06,53.1208,0,2.88702
8.602e+06,209.635,1,2.71909
8.69801e+06,8.9949,2,2.48242
8.81678e+06,31.6862,0,2.40324
8.95640e+06,65.3459,0,2.63735
0,65.5333,0,2.63735
9.30569e+06,23.8182,2,3.05852
0,24.0706,2,3.05852
9.31869e+06,180.178,1,2.41142
0,180.404,1,2.41142
9.32448e+06,141.86,0,2.81956
0,142.043,0,2.81956
9.68904e+06,182.873,1,2.49423
9.79453e+06,19.6849,1,2.87525
1.00854e+07,336.48,0,3.01835
1.04359e+07,100.22,0,2.55211
1.04991e+07,23.317,1,2.55389
1.05639e+07,64.6477,1,2.56299
0,64.899,1,2.56299
1.09551e+07,10.4499,2,2.91072
1.12612e+07,19.0983,2,2.96317
1.17062e+07,7.34348,0,2.70468
1.18368e+07,155.726,2,2.52004
1.23346e+07,18.7635,2,2.81459
1.2414e+07,36.9502,0,2.5452
0,37.1428,0,2.5452
1.35041e+07,62.7443,0,2.44475
0,62.9336,0,2.44475
1.36311e+07,88.9331,0,2.51658
1.39104e+07,178.154,0,2.59681
0,178.392,0,2.59681
1.41172e+07,94.7149,1,2.65967
1.43396e+07,104.985,2,2.604
1.4652e+07,45.1166,0,2.86047
0,45.3797,0,2.86047
1.48277e+07,65.7619,0,2.46992
1.50187e+07,61.444,2,3.00743
1.52693e+07,35.4813,1,2.94169
0,35.6491,1,2.94169
1.53723e+07,148.58,1,2.48421
1.5642e+07,41.3617,1,2.81194
1.56574e+07,143.327,1,2.80924
0,143.473,1,2.80924
1.57335e+07,12.8031,0,2.96117
0,12.812,0,3.05359
1.57493e+07,95.1798,1,2.37745
1.57741e+07,14.3211,1,2.90415
1.58056e+07,142.576,1,2.39673
1.59551e+07,35.9019,2,2.55735
1.62402e+07,145.647,0,2.94097
1.63884e+07,187.601,0,2.80188
1.71128e+07,229.205,1,2.38634
1.71716e+07,59.0539,2,2.79043
1.75391e+07,272.491,0,3.05121
1.76088e+07,59.2578,0,2.50662
1.7987e+07,35.8641,1,2.83932
1.79979e+07,81.0889,2,2.93731
1.82731e+07,47.2276,1,2.43974
1.84594e+07,27.1228,2,2.42353
1.85344e+07,310.058,0,2.85831
1.85733e+07,194.352,2,2.98125
0,194.493,2,2.98125
1.87564e+07,29.7258,2,2.4529
1.90391e+07,34.1108,2,2.42953
1.90815e+07,72.8228,0,3.05691
1.93056e+07,84.4619,1,2.9226
1.9689e+07,156.855,0,2.98805
1.97403e+07,57.7175,0,2.89646
0,57.8862,0,2.89646
2.0017e+07,91.2914,1,2.41843
2.03124e+07,202.764,2,2.53665
2.03245e+07,36.2669,0,2.46521
2.09268e+07,188.525,2,2.9716
2.11786e+07,69.5582,1,2.37455
2.12952e+07,176.847,2,2.646
2.13017e+07,23.841,2,2.98366
2.14386e+07,256.375,1,2.45154
2.16766e+07,79.7041,2,3.01867
0,79.9881,2,3.01867
2.26189e+07,270.041,0,2.50998
2.27577e+07,56.1625,2,2.90208
0,56.42,2,2.90208
2.27769e+07,88.955,0,2.42311
2.31293e+07,91.0744,1,2.55044
2.34671e+07,300.99,0,3.00639
0,301.119,0,3.00639
2.34745e+07,200.907,0,2.60383
2.35395e+07,10.0434,2,3.03665
0,10.3213,2,3.03665
2.39183e+07,13.8469,1,2.78781
0,13.9815,1,2.78781
2.40372e+07,107.864,0,2.8801
2.4079e+07,30.0989,2,2.50633
2.43874e+07,27.5913,0,2.96078
2.45319e+07,15.3611,2,2.86999
2.49812e+07,82.7558,0,2.5759
2.5112e+07,102.912,1,2.95394
2.53571e+07,18.9838,0,2.82569
2.55583e+07,204.147,2,2.42964
2.57754e+07,79.5683,2,2.41685
2.58915e+07,76.7274,1,2.5089
0,77.065,1,2.5089
2.68054e+07,4.11281,0,2.91434
0,4.06999,0,2.59678
2.68249e+07,39.426,0,2.55651
2.69346e+07,173.657,1,2.77545
0,173.842,1,2.77545
2.70601e+07,132.258,1,2.42347
2.72279e+07,149.333,1,2.93558
2.76462e+07,43.9648,2,2.80376
2.77495e+07,47.8063,1,2.72012
2.78646e+07,54.7272,0,2.96964
0,55.057,0,2.96964
2.81709e+07,44.2947,2,3.02101
2.83845e+07,14.7684,0,2.89422
2.85096e+07,64.4011,2,2.75149
2.89405e+07,66.5322,0,2.98715
2.95033e+07,91.835,1,2.88102
