#class tools::wcsv::ntuple
#title time
#separator 44
#vector_separator 59
#column double eventID
#column double t(ns)
#column double copynumber
#column double energy(eV)
297549,73.4193,0,2.7063
2.23071e+06,282.37,0,2.37581
3.00821e+06,22.5789,1,2.89571
0,22.7482,1,2.89571
3.38508e+06,259.446,1,2.49771
3.39298e+06,139.874,1,2.66118
0,140.164,1,2.66118
3.60550e+06,43.3995,1,2.62752
3.96898e+06,27.0006,1,2.99098
4.21571e+06,48.7973,2,3.01841
4.4804e+06,173.755,2,2.78905
4.52573e+06,256.862,1,2.95042
4.61605e+06,141.801,1,2.74833
5.03019e+06,112.861,1,2.79882
6.13349e+06,31.8664,2,2.6201
6.27114e+06,239.324,1,2.51789
6.28635e+06,26.8555,2,2.73383
7.44918e+06,70.2869,0,2.70527
0,70.4215,0,2.70527
7.63978e+06,101.361,2,2.96646
7.89325e+06,48.5541,0,2.4545
8.12493e+06,150.373,1,2.54655
0,150.593,1,2.54655
8.84566e+06,95.0618,1,2.93515
9.73314e+06,8.11362,0,2.67348
1.08297e+07,9.03533,2,2.40162
1.35623e+07,38.2701,2,2.78087
1.44742e+07,10.2676,1,2.60263
0,10.6259,1,2.60263
1.67439e+07,250.088,2,2.48832
1.69845e+07,94.466,2,3.02848
1.70467e+07,37.9722,0,2.53274
1.74958e+07,54.6447,1,2.45653
0,54.9619,1,2.45653
1.81206e+07,54.7113,1,2.91177
1.83193e+07,80.2264,1,2.59518
1.86764e+07,10.9961,0,2.90595
1.87359e+07,135.576,2,2.7301
1.94396e+07,33.9845,2,2.80661
1.94602e+07,68.1943,1,2.78708
0,68.3767,1,2.78708
1.94843e+07,89.4652,0,2.94201
0,89.6028,0,2.94201
1.96786e+07,15.7737,2,2.9273
2.0683e+07,143.061,1,2.90864
2.12626e+07,23.4007,1,2.87456
2.14946e+07,87.5846,2,2.51772
0,87.8103,2,2.51772
2.17808e+07,61.7106,0,2.3634
2.35129e+07,53.3706,0,2.93395
2.49791e+07,189.946,2,2.55176
2.58274e+07,92.5781,0,2.87374
0,92.7202,0,2.87374
2.60429e+07,44.5483,2,2.63972
2.65695e+07,52.5732,2,2.85452
2.69821e+07,272.499,2,2.95539
2.81853e+07,71.0086,0,2.75968
2.88285e+07,16.5892,1,3.00925
2.89169e+07,90.59,2,2.93762
2.93988e+07,155.023,2,2.49528
2.96396e+07,334.27,0,2.87846
2.99432e+07,283.429,2,2.50106
3.12661e+07,277.399,0,2.85009
0,277.579,0,2.85009
3.29317e+07,98.5639,2,2.52852
3.33968e+07,143.355,2,2.63357
3.50404e+07,116.675,2,2.67263
3.5939e+07,76.9449,0,2.5334
3.72292e+07,104.343,1,2.71013
3.73586e+07,28.9424,0,2.88217
3.78634e+07,200.529,2,3.05495
3.8081e+07,0.467046,0,2.50667
0,0.482799,0,2.39922
3.86565e+07,32.2783,1,2.99799
3.89214e+07,243.254,0,3.00664
4.08722e+07,31.0417,1,2.48481
0,31.2824,1,2.48481
4.19433e+07,48.6785,2,2.68275
4.30918e+07,85.4954,2,2.45634
4.31464e+07,19.4228,0,3.05501
0,19.6925,2,2.8573
0,19.8705,2,2.8573
4.31591e+07,91.1081,1,2.75467
4.35875e+07,71.1485,0,2.46959
4.45361e+07,224.223,2,2.81581
4.61401e+07,27.8933,2,2.46626
4.81991e+07,22.8865,1,2.50871
4.94176e+07,23.728,0,2.51785
4.98189e+07,47.3134,1,2.739
5.03984e+07,222.304,0,2.51087
0,222.626,0,2.51087
5.16914e+07,61.6864,1,2.58767
5.24027e+07,12.8741,2,2.87342
5.25689e+07,132.656,2,2.95044
5.26112e+07,315.216,2,2.89009
5.32044e+07,59.4321,2,3.04257
5.41526e+07,139.506,2,2.97646
5.4662e+07,42.9442,0,3.00183
5.47848e+07,176.989,0,2.47824
0,177.131,0,2.47824
5.55902e+07,5.393,1,3.02956
0,5.32692,1,2.84586
5.60946e+07,106.971,0,2.52355
5.95599e+07,62.1121,2,2.69302
0,62.392,2,2.69302
5.9912e+07,24.6721,1,2.97659
5.99796e+07,209.007,2,2.65835
6.05646e+07,97.9253,2,2.93429
6.14058e+07,170.178,1,2.77148
6.14438e+07,252.447,1,2.75936
0,252.762,1,2.75936
6.16559e+07,65.7186,0,3.00467
6.21737e+07,111.284,1,2.99585
0,111.557,1,2.99585
6.26097e+07,358.469,1,2.83947
6.27484e+07,47.2957,1,3.0568
6.31296e+07,2.54802,2,2.88991
6.36144e+07,61.4206,1,2.98505
6.37163e+07,22.9866,0,2.74163
6.37727e+07,24.7463,0,2.48808
6.4095e+07,124.633,2,2.52681
6.4179e+07,122.701,0,3.04414
6.53364e+07,42.3565,2,2.68793
6.5369e+07,101.55,2,2.5676
6.55497e+07,182.129,1,2.67171
0,183.003,0,2.67171
0,183.268,0,2.67171
6.6053e+07,240.984,2,2.997
6.65577e+07,37.662,0,2.85127
6.74079e+07,188.129,0,2.61202
6.77168e+07,26.6562,2,2.55555
0,26.9795,2,2.55555
6.78823e+07,41.1956,0,2.87108
6.78865e+07,13.2087,0,2.93875
6.8496e+07,19.5664,1,2.3658
6.85083e+07,11.0789,0,2.41357
6.93339e+07,54.2636,1,2.90277
7.00583e+07,22.8611,2,2.64506
7.02152e+07,164.196,0,2.66809
7.19425e+07,115.109,2,2.54607
7.24432e+07,10.1319,1,2.89574
7.44658e+07,254.96,0,2.84663
7.46716e+07,58.8067,0,2.96306
7.56815e+07,62.552,1,2.45782
7.61648e+07,20.616,1,2.48151
0,20.8824,1,2.48151
7.66382e+07,33.7522,2,2.68472
7.67897e+07,108.867,1,2.9938
7.70607e+07,44.3915,1,3.01235
7.80652e+07,113.633,0,2.94814
7.8987e+07,166.404,1,2.50063
7.91645e+07,60.3646,0,2.48889
8.00098e+07,42.3405,2,2.61586
8.01525e+07,9.22579,1,2.61063
0,9.5461,1,2.61063
8.04209e+07,142.788,1,2.77358
8.06178e+07,50.8784,1,2.39301
8.10532e+07,94.8128,0,2.56854
8.20663e+07,28.8433,0,2.58184
8.37931e+07,78.121,1,2.58198
8.39137e+07,229.335,0,3.04415
8.44118e+07,54.4276,2,2.36542
8.50298e+07,239.962,1,2.4019
8.64829e+07,29.2904,2,2.45835
8.76919e+07,33.29,2,2.92985
8.78546e+07,31.4569,1,2.83451
8.81299e+07,39.9861,1,2.50191
0,40.22,1,2.50191
8.82436e+07,2.44907,0,2.97716
0,2.4108,0,2.61017
0,2.44769,0,3.00526
0,2.46845,0,2.74999
8.83058e+07,135.371,2,2.66612
0,135.649,2,2.66612
8.91626e+07,165.892,2,2.72446
8.92143e+07,115.255,1,2.50667
8.97698e+07,39.5604,0,2.66795
8.99433e+07,50.2321,1,2.81211
9.0046e+07,19.3195,2,3.04814
9.018e+07,20.4258,0,2.48189
9.07258e+07,115.163,1,2.55191
9.07413e+07,88.1177,2,2.49714
9.3979e+07,114.782,1,2.51451
9.52751e+07,129.513,0,2.86234
9.56254e+07,163.422,0,2.59726
9.66313e+07,22.3221,2,2.65729
9.70083e+07,131.495,1,2.4649
9.81652e+07,29.0597,0,2.66345
9.84138e+07,41.5755,1,2.81531
9.84336e+07,17.1221,2,2.56449
0,17.4374,2,2.56449
9.84844e+07,6.2587,2,2.44277
0,6.52976,2,2.44277
9.85448e+07,130.516,2,2.95003
9.92886e+07,77.2939,2,2.58657
0,77.6755,2,2.58657
1.00213e+08,19.5665,0,2.41202
1.01312e+08,138.347,2,2.97716
1.01321e+08,115.878,2,3.02107
1.01333e+08,21.5082,2,2.82657
0,21.71,2,2.82657
1.02019e+08,149.024,2,2.82554
1.02568e+08,317.008,2,2.84059
1.0299e+08,49.5627,0,2.47842
1.05192e+08,257.341,0,2.77557
1.08738e+08,87.0101,1,2.87129
1.10072e+08,34.4652,1,2.39476
1.10564e+08,1.65537,1,2.42251
1.11078e+08,28.7728,2,2.6677
0,28.9555,2,2.6677
1.11972e+08,88.4351,0,3.02798
1.12104e+08,106.925,2,2.63256
1.12453e+08,154.229,1,2.64988
1.12651e+08,100.39,1,2.40535
1.13316e+08,4.92348,0,2.41053
0,5.2446,0,2.41053
1.13347e+08,152.846,1,2.49097
1.14374e+08,43.7635,2,2.70027
1.14505e+08,114.978,1,2.89407
1.14607e+08,4.70346,0,2.67628
1.16242e+08,49.6789,1,2.99977
1.18241e+08,26.2181,2,2.41498
1.20021e+08,24.1547,0,2.98144
1.21004e+08,137.296,2,2.8472
1.21193e+08,47.7992,0,2.45508
1.21462e+08,26.8373,1,2.51888
1.22312e+08,80.2138,0,2.83837
1.22594e+08,52.0837,1,2.51439
1.22849e+08,127.076,1,2.45643
1.23983e+08,5.75301,0,2.58184
0,5.93875,0,2.58184
1.24271e+08,2.2617,0,2.48568
1.24375e+08,107.909,0,2.4671
0,108.094,0,2.4671
1.24875e+08,52.984,0,2.47982
1.24974e+08,79.859,1,2.93928
1.25052e+08,111.601,2,2.91859
0,111.841,2,2.91859
1.25186e+08,38.2841,1,2.53169
1.25403e+08,1.3154,1,2.63338
0,1.32428,1,2.95962
0,1.45465,1,2.38665
1.25441e+08,14.603,2,3.04369
0,14.8374,2,3.04369
1.25521e+08,282.695,1,2.50478
1.2589e+08,206.883,1,2.86723
1.26104e+08,7.70183,2,2.66805
1.28283e+08,52.6489,0,2.60731
1.28753e+08,146.841,0,2.70842
1.30081e+08,211.488,2,2.89367
1.3294e+08,13.6197,0,2.65641
1.3427e+08,79.8428,0,2.97939
0,79.9878,0,2.97939
1.34277e+08,17.9075,2,2.56068
1.35219e+08,2.60059,0,2.62705
0,2.61696,0,2.74433
1.35714e+08,164.582,2,2.74772
1.37365e+08,31.9765,1,2.67969
1.3803e+08,20.8625,1,3.01596
1.38225e+08,118.771,1,2.81288
1.38819e+08,12.1596,0,2.661
1.38836e+08,45.8135,0,2.75664
1.41466e+08,354.352,1,2.49225
1.41472e+08,137.095,1,2.62784
1.41598e+08,9.15153,1,2.90699
1.4198e+08,32.0617,2,2.96427
0,32.4172,2,2.96427
1.41994e+08,123.028,1,2.40396
1.42321e+08,220.11,1,3.04193
1.42358e+08,28.3505,1,2.58892
1.42699e+08,153.89,2,2.71836
1.42936e+08,4.40736,2,2.88162
1.44024e+08,66.7686,1,2.88102
1.44119e+08,250.842,1,2.70978
0,251.112,1,2.70978
1.44365e+08,48.11,1,2.4778
0,48.2673,1,2.4778
1.44567e+08,52.6062,2,2.84098
0,52.8,2,2.84098
1.45595e+08,61.3505,1,2.91709
0,61.1806,1,2.73612
1.48046e+08,134.123,2,2.99879
1.48169e+08,38.0488,2,2.54126
0,38.2175,2,2.54126
1.49887e+08,9.98249,2,2.67637
1.50014e+08,15.2883,0,2.42201
1.50347e+08,191.153,1,2.65164
1.50499e+08,226.667,2,2.83298
1.50532e+08,61.5004,1,2.83273
1.50867e+08,150.717,1,2.87921
0,151.065,1,2.87921
1.51078e+08,100.579,2,2.51594
1.515e+08,89.5853,0,3.03425
1.51524e+08,78.4297,2,2.38462
1.51811e+08,27.0999,2,2.41796
1.53047e+08,78.8776,1,3.0519
0,79.1048,1,3.0519
1.53618e+08,5.22457,2,2.97255
1.53688e+08,35.0003,2,2.4751
1.55695e+08,158.433,0,2.57855
1.56343e+08,274.301,2,3.0316
0,274.512,2,3.0316
1.56462e+08,194.557,1,2.80626
1.57057e+08,70.7265,1,2.86474
0,70.9537,1,2.86474
1.57726e+08,187.952,1,2.78791
1.58314e+08,4.92703,0,2.65843
1.59566e+08,69.8482,2,2.8003
1.59615e+08,81.5979,1,2.93587
1.60292e+08,21.0107,0,2.79319
1.60819e+08,1.69275,1,2.85224
1.60973e+08,97.1246,1,2.55956
1.61566e+08,103.829,0,2.50609
1.61573e+08,220.288,1,2.43377
1.62151e+08,77.3597,1,2.54629
1.62679e+08,56.8824,1,2.85183
1.63123e+08,23.381,0,2.47726
1.63207e+08,76.5024,2,2.77919
1.63646e+08,136.984,1,2.54217
0,137.252,1,2.54217
1.64291e+08,223.02,1,2.81099
1.65343e+08,184.602,2,2.77349
1.65594e+08,23.0375,2,2.70004
0,23.2598,2,2.70004
1.65801e+08,175.742,1,3.01807
1.66361e+08,30.7793,2,2.70542
1.66474e+08,203.787,2,2.37932
1.66711e+08,152.783,0,2.99554
1.67671e+08,82.245,1,2.87732
1.68432e+08,46.637,0,2.80489
1.69232e+08,165.367,2,2.59724
1.69588e+08,73.4474,1,2.39407
0,73.6082,1,2.39407
1.69594e+08,67.1206,0,2.6701
1.70486e+08,49.5849,0,2.41832
1.70752e+08,69.2474,2,2.47891
0,69.4322,2,2.47891
1.71551e+08,188.554,0,2.62983
1.71652e+08,51.5667,2,2.85027
1.71876e+08,147.69,1,2.64443
1.76165e+08,18.0058,2,2.41849
1.76191e+08,93.5448,0,2.62846
1.77007e+08,68.4476,0,2.38672
1.77592e+08,77.2865,0,2.48543
1.78119e+08,8.79924,1,2.75141
0,9.10173,1,2.75141
1.7986e+08,96.6414,1,2.68695
1.80639e+08,143.931,0,2.67917
1.81006e+08,98.8083,1,2.93021
1.81788e+08,30.0201,1,2.40045
1.82435e+08,41.1954,2,2.74543
1.84101e+08,47.4741,1,2.3971
0,47.7046,1,2.3971
1.84316e+08,83.4764,2,2.79026
1.85237e+08,86.4363,1,2.80495
0,86.5884,1,2.80495
1.85389e+08,51.5892,0,2.9335
1.85451e+08,327.532,1,2.51935
0,327.813,1,2.51935
1.85901e+08,94.2235,2,2.81399
1.86078e+08,266.641,2,2.56648
1.87211e+08,0.853111,0,2.77481
0,0.77318,0,2.90943
1.88292e+08,66.8803,2,2.62617
1.88663e+08,137.302,0,2.72616
1.88855e+08,182.974,1,2.59675
0,183.317,1,2.59675
1.89074e+08,17.8582,1,3.0607
1.89175e+08,30.1319,1,2.55456
0,30.3136,1,2.55456
1.89243e+08,215.596,0,2.78771
1.90756e+08,146.063,2,2.96438
1.91796e+08,28.0398,2,2.81686
1.91875e+08,105.688,0,2.63245
1.94146e+08,213.836,0,2.61548
1.94322e+08,84.6763,1,2.6572
1.94836e+08,93.5596,1,2.38115
0,93.7153,1,2.38115
1.95661e+08,28.2779,2,2.93503
1.96732e+08,169.502,2,2.63369
1.97332e+08,10.1072,0,2.84273
1.97982e+08,450.11,0,3.05154
1.98079e+08,15.184,2,2.74414
1.99282e+08,1.88412,2,2.81612
1.99826e+08,43.5019,1,2.44903
1.99874e+08,285.107,0,2.90428
1.99933e+08,76.1283,0,2.59517
1.99945e+08,31.9156,2,2.5141
2.00288e+08,90.3056,0,2.57277
2.00633e+08,2.15225,2,2.8803
2.00807e+08,76.1829,2,2.64132
2.01413e+08,85.6067,1,2.69561
2.01488e+08,23.1284,0,3.7845
0,23.4281,0,3.7845
0,0.134345,0,2.18207
0,0.131179,0,3.92004
0,0.124301,0,4.12219
0,0.135191,0,4.06858
0,0.127178,0,3.72259
0,0.119736,0,3.94857
2.01812e+08,29.6847,0,2.93175
2.02579e+08,8.25117,2,2.64742
2.02962e+08,28.3482,1,2.77625
2.03549e+08,24.6499,0,2.53466
0,24.8971,0,2.53466
2.03812e+08,23.8485,1,2.93149
2.04124e+08,193.596,1,2.8856
0,193.912,1,2.8856
2.04133e+08,188.383,0,2.59529
2.04961e+08,31.9662,1,2.37225
2.07552e+08,217.618,0,2.42035
2.077e+08,132.095,1,2.76389
2.07923e+08,48.0585,2,2.42896
2.08151e+08,25.2705,2,2.76369
2.08199e+08,76.7144,2,2.78864
2.08582e+08,67.178,0,2.78855
2.0896e+08,23.3311,0,2.51961
2.0931e+08,187.429,2,2.71988
2.09888e+08,334.466,1,2.6085
0,334.656,1,2.6085
2.10334e+08,80.0994,1,2.79386
2.10465e+08,131.545,0,2.90534
2.10652e+08,260.272,0,2.48386
2.12178e+08,2.69186,1,2.90718
0,2.87547,1,2.90718
2.12269e+08,223.342,2,2.85438
2.12704e+08,44.5083,1,2.72434
2.12786e+08,15.8319,1,2.74151
2.13196e+08,44.6076,0,3.0481
2.13263e+08,49.6383,1,2.68152
2.13864e+08,58.3757,1,2.55543
0,58.6006,1,2.55543
2.13879e+08,27.0794,2,2.97486
2.14133e+08,236.188,0,2.96935
0,236.332,0,2.96935
2.14972e+08,78.592,1,2.79345
2.1526e+08,287.879,0,2.94555
2.15753e+08,6.22255,1,2.37555
0,6.6963,0,2.79608
2.16087e+08,30.533,2,2.72776
2.16241e+08,74.2213,0,2.98792
2.1633e+08,183.714,2,2.94479
2.18147e+08,134.704,1,2.49845
2.18211e+08,26.5411,2,2.6865
2.19759e+08,54.2943,0,2.49408
2.21161e+08,46.3495,2,2.6959
2.21198e+08,62.5864,0,2.47977
2.21455e+08,9.94883,0,2.53358
2.21815e+08,49.5703,1,2.60006
0,49.8287,1,2.60006
2.22295e+08,155.874,0,2.69046
0,156.052,0,2.69046
2.2242e+08,104.473,2,2.55187
2.22448e+08,190.802,0,2.94436
2.22559e+08,12.7602,2,2.84683
2.23091e+08,23.5075,0,2.95852
0,23.559,0,2.95852
2.23266e+08,33.106,1,2.78501
2.23495e+08,77.0877,0,2.5223
2.24274e+08,108.25,2,2.46752
2.24876e+08,42.1852,1,2.82948
0,42.4384,1,2.82948
2.25515e+08,156.916,0,2.64288
2.25883e+08,43.0156,2,2.72157
2.25929e+08,206.855,2,2.88022
2.25937e+08,94.1956,1,2.9633
2.26535e+08,38.1521,2,2.45493
0,38.4297,2,2.45493
2.27511e+08,27.045,1,2.76058
2.27657e+08,7.23769,2,2.93266
2.27991e+08,5.29184,2,2.43772
2.28164e+08,154.213,2,2.58341
0,154.461,2,2.58341
2.28186e+08,11.8683,0,2.97534
2.28255e+08,24.5065,1,2.86017
2.28594e+08,109.617,2,2.95226
0,109.833,2,2.95226
2.28905e+08,34.5016,0,2.92343
2.2941e+08,14.1376,0,2.83946
2.29897e+08,7.85851,2,2.49845
2.30298e+08,9.9146,2,2.64773
2.31054e+08,3.66537,1,2.82756
2.32112e+08,94.5443,2,2.77443
0,94.7594,2,2.77443
2.32126e+08,48.8144,2,2.66427
0,48.1564,1,2.38823
2.32416e+08,271.268,1,2.73601
2.32487e+08,166.436,1,2.58674
2.33311e+08,24.7658,0,2.56046
0,24.9954,0,2.56046
2.33419e+08,91.9506,0,2.45788
2.33746e+08,81.9465,0,2.92727
2.33749e+08,100.519,0,2.67994
0,100.831,0,2.67994
2.339e+08,11.5522,2,2.81919
2.34021e+08,7.93433,0,2.60937
2.34517e+08,59.9733,1,3.04756
0,60.2968,1,3.04756
2.34825e+08,14.1846,2,2.81439
2.34945e+08,23.5526,0,2.90549
2.3551e+08,139.701,0,2.43997
0,139.994,0,2.43997
2.35704e+08,45.3674,0,2.67932
2.36867e+08,59.4866,0,2.46928
2.38206e+08,62.9304,1,2.46958
2.38539e+08,173.8,0,2.64967
2.38991e+08,21.2536,0,2.62526
2.39767e+08,32.8845,2,2.89962
2.40019e+08,31.6026,1,2.67348
0,31.8304,1,2.67348
2.40315e+08,136.514,0,2.93604
2.40538e+08,140.394,1,2.67202
2.40739e+08,110.059,1,2.55684
2.41108e+08,13.5777,1,2.47107
0,13.4725,1,2.58907
2.41414e+08,108.521,2,3.00505
2.41467e+08,208.283,0,2.36879
2.42961e+08,75.5178,2,2.95137
2.43247e+08,83.8996,2,2.78776
2.44396e+08,224.461,2,2.75502
0,224.612,2,2.75502
2.44727e+08,33.3405,0,2.80447
2.45122e+08,160.126,1,2.38112
2.45418e+08,204.742,1,2.92795
2.45941e+08,30.7282,1,2.53884
2.46631e+08,65.0116,2,2.40023
2.47664e+08,62.7387,1,2.93652
