#class tools::wcsv::ntuple
#title time
#separator 44
#vector_separator 59
#column double eventID
#column double t(ns)
#column double copynumber
#column double energy(eV)
#column double x(mm)
#column double y(mm)
#column double z(mm)
193899,61.5551,0,2.4321,-1317.06,10813.2,-21669.8
206769,108.185,0,2.64116,11888.6,5852.94,-10189.2
584816,105.438,0,3.02725,20259.3,-6190.83,-22228
973725,59.2534,1,2.98176,-2355.62,12236.5,-29863.5
1.46219e+06,64.5965,0,2.841,1758.19,7777.52,-17823
1.5368e+06,7.90512,2,2.4082,36.2516,-931.717,-27399.5
1.81901e+06,93.0988,1,2.86713,-1580.84,14768.7,-15993.8
2.02816e+06,21.2163,1,2.4561,2705.86,-1177.56,-25489.3
2.1072e+06,11.8576,1,2.7698,-2428.12,883.775,-29039.9
2.43444e+06,33.2134,0,2.77197,4960.23,4716.47,-27044.5
2.45103e+06,49.7911,0,3.04277,-5398.17,1818.15,-29243.3
2.53698e+06,83.6444,2,2.79133,-14491.6,9286.1,-25083.9
2.7776e+06,140.163,2,2.78307,6004.77,18251.6,-6537.44
3.47182e+06,183.222,1,2.77981,-29087.8,-22521.8,-17319.6
3.49023e+06,23.7233,0,2.86859,-1858.23,965.609,-24316.1
3.53321e+06,145.822,0,2.97743,17291.2,-2308.19,-14665.6
3.86816e+06,124.47,1,2.88187,1873.66,25803.3,-24427.9
4.07377e+06,7.4143,0,2.82552,1177.81,1065.61,-28492.4
4.693e+06,1.04913,0,2.48116,325.87,-59.6007,-28822.2
5.15025e+06,119.577,0,2.83164,24249.1,6836.01,-27658.8
5.56861e+06,149.646,0,2.42289,773.936,29546,-17408.6
5.77345e+06,70.3589,1,2.65193,8461.69,8486.73,-20008.4
5.78723e+06,41.0803,1,2.72001,-3117.66,-1428.01,-20867.3
5.96972e+06,111.794,0,2.90304,9918.45,-15132.1,-13797.7
6.20007e+06,55.5691,2,2.98055,-4189.25,10826.8,-28191.1
6.90815e+06,37.1393,1,2.44768,-6381,3715.94,-25920.5
7.13121e+06,26.4797,1,2.6405,2037.17,5020.82,-27158.8
7.29555e+06,110.191,1,2.65373,15390.5,3865.34,-11869.8
7.34368e+06,13.4773,0,2.59329,1717.19,304.123,-26499.7
0,13.4834,0,2.65827,0,0,0
7.37389e+06,91.0879,2,2.53196,-17016.8,-9229.47,-28644.1
7.54912e+06,141.095,0,2.43188,26411.2,7383.11,-16816.7
7.58645e+06,52.1624,0,2.7711,10213.3,-4250.27,-28791.7
7.68557e+06,78.7483,2,2.9098,12821.9,-1516.12,-20963
8.00428e+06,99.5108,0,2.83871,-13118.8,-13511.1,-19793.9
8.03812e+06,34.4518,1,2.70912,-5867.53,4393.95,-28254.7
8.09505e+06,14.2625,1,2.46859,-2115.15,2227.87,-29476.7
8.20835e+06,181.645,1,2.65364,6970.22,-2169.13,-7038.83
8.30704e+06,53.8982,0,2.67649,10250.7,4486.01,-26371.9
8.30823e+06,7.65134,1,2.93523,628.776,1401.47,-29520.6
8.34305e+06,109.972,0,3.02815,3153.61,3396.44,-23266
8.4316e+06,55.3893,0,3.01054,7451.7,1764.84,-20032
8.7544e+06,34.0811,2,3.0125,544.375,-4438.64,-23211.2
8.82371e+06,50.0329,1,2.7,-6708.59,8256.7,-28646
9.08689e+06,67.3618,1,2.59927,6091.23,-10393,-21373.5
9.44866e+06,62.2123,1,2.60791,-7860.32,-2153.25,-18486
9.51445e+06,80.5984,1,2.71265,10046.2,13694.4,-27405.1
9.59708e+06,137.261,0,2.88868,28563.3,4561.76,-28241.9
9.69325e+06,92.2664,0,2.77582,12483.8,-8277.58,-16423.8
9.74032e+06,52.7449,1,2.4871,-3453.96,10634.7,-27501.8
1.01508e+07,136.077,0,2.98685,-3465.31,22005.7,-11001.7
1.04297e+07,72.719,2,2.53653,-9417.05,-11122.1,-23717.9
1.04484e+07,236.71,0,2.55524,8910.08,-29627.6,10492.2
1.06535e+07,102.186,0,2.97617,15962.3,6738.71,-16140
1.09753e+07,88.9324,1,2.92924,-16365.2,-7741.38,-24169.6
1.19249e+07,70.9209,2,2.99838,-1932.49,-6004.95,-15317.9
1.21992e+07,101.421,1,2.9252,-5854.25,19353.5,-21944.8
1.22144e+07,12.344,0,2.72586,2034.55,-1690.04,-29350.6
1.25538e+07,25.4537,2,2.79483,-5119.04,1039.98,-27398.3
1.26718e+07,72.3841,2,2.91743,-8102.23,-9268.28,-19829.9
1.2791e+07,126.117,1,2.92389,7059.27,-13708.1,-7388.84
1.29559e+07,18.1061,0,2.87799,3782.88,-938.129,-29012.1
1.29885e+07,91.9183,0,2.87117,2201.34,-17447.2,-20776.4
1.30165e+07,130.481,1,3.04168,-2206.21,-11460.6,-4152.34
1.37566e+07,60.3583,2,2.41483,2758.3,-8551.95,-19683.4
1.4767e+07,163.223,2,2.72178,6221.21,-28834.4,-29061.2
1.5141e+07,19.0281,0,2.84101,2445.67,-2501.41,-26735.5
1.54374e+07,73.1444,0,2.3749,12676.5,-2085.13,-20041.5
1.55237e+07,229.652,2,2.70228,-2856.38,-21127,14031.4
1.56086e+07,27.9725,2,3.00705,4314.44,-3007.74,-26207
1.60752e+07,161.961,0,2.89409,24311.5,13840.2,-9354.27
1.6103e+07,74.4943,1,2.9341,114.289,9652.87,-16457.2
1.641e+07,5.7668,2,2.97667,-1224.27,130.866,-28562
1.66602e+07,20.1366,2,2.70315,-721.286,-2120.79,-25154.6
1.70211e+07,19.1221,0,2.92952,-2185.82,-2358.36,-26466.9
1.7344e+07,42.6355,1,2.40102,-8636.58,-340.293,-26017.1
1.7651e+07,18.4784,0,3.01053,636.052,2825.27,-26207.2
1.7875e+07,80.2991,1,2.76815,-7526.81,6758.86,-15212.3
1.80225e+07,11.7682,2,2.65917,1020.82,-895.061,-26720.2
1.81262e+07,23.5556,1,2.9549,3912.73,3086.94,-28608
1.81745e+07,54.8732,2,2.94676,-529.815,-9345.07,-21988.3
1.83484e+07,151.841,2,2.89476,-11358.8,-29094,-21918
1.83699e+07,62.5798,0,2.82318,8458,7321.17,-21759.5
1.86917e+07,13.0185,1,2.52516,599.38,-1329.75,-26551.7
1.87662e+07,68.236,0,2.469,13281.1,724.87,-23034.4
1.87765e+07,12.9814,0,3.00443,2791,-57.1583,-29180.4
1.89974e+07,6.39288,1,2.5874,-1234.13,676.614,-29208.2
1.93038e+07,15.1478,1,2.4727,-3233.32,-482.545,-29069.9
1.97683e+07,8.89531,1,2.91022,-1441.66,1338.32,-28857.3
1.98729e+07,15.3375,0,3.01005,229.352,2478.35,-26747.3
2.06617e+07,84.7562,0,2.55667,13623.1,-167.637,-17100
2.08048e+07,54.5183,1,3.02352,-8202.82,2783.28,-21302.8
2.08105e+07,32.0046,0,2.46061,5403.56,-3550.17,-26546.2
2.12251e+07,14.5389,0,3.05858,2831.8,1368.72,-29059.1
2.14328e+07,19.8997,1,2.79325,3969.01,1078.04,-29631.9
2.15447e+07,5.40248,2,2.89879,-747.086,-814.51,-28287.7
2.21357e+07,42.9659,1,2.38618,684.916,8987.05,-27169
2.22028e+07,98.7388,1,2.78115,10855.2,-11882.5,-17669.8
2.24057e+07,149.492,0,3.05102,-11825.7,22303.9,-10382.2
2.25007e+07,48.8065,1,2.88225,4042.05,7043.95,-22512.7
2.27769e+07,215.514,0,2.42482,14728.3,21285.2,8734.37
2.34372e+07,0.607175,2,2.81271,-156.514,-179.76,-28794.4
2.3538e+07,43.6895,1,3.01913,6083.32,-6710.61,-28001.3
2.35579e+07,59.8568,2,2.53544,9133.36,858.326,-20129.8
2.41166e+07,53.1329,0,2.9933,-6989.56,-1032.88,-20281.7
2.41356e+07,150.265,1,3.05218,-1143.36,-1203.79,-18323.7
2.41452e+07,69.1363,2,2.87348,-694.45,12531.9,-21629.1
2.47709e+07,94.5213,0,2.92211,12165.5,-12573.8,-19315.6
2.49358e+07,111.159,2,2.7788,-5721.26,-9226.51,-8075.59
2.55191e+07,3.28917,0,2.97359,311.201,648.84,-28607.9
2.5878e+07,40.4574,0,2.70475,5612.65,3595.73,-23390.2
2.61813e+07,41.5456,1,2.91091,3585.64,7690.36,-26558.2
2.69644e+07,56.8012,0,2.75441,3731.63,-5229.28,-18692.3
2.72655e+07,19.3663,1,3.00093,2326.09,1932.74,-26134.5
2.72902e+07,274.713,0,2.73296,18989.4,-23477.3,-27184.1
2.75504e+07,41.3158,2,2.90854,-5746.77,-1065.61,-22362.3
2.77212e+07,7.72913,1,2.9682,-34.0667,-1217.05,-27849.6
2.80984e+07,99.7922,1,2.81951,-9196.19,17694.3,-22000.2
2.80985e+07,89.6965,0,2.80494,-12130.2,793.515,-23129.7
2.82676e+07,37.3211,0,2.53781,4937.38,3859.34,-23914.9
2.83658e+07,153.226,0,2.79379,-28035.4,-540.009,-13037.8
2.86341e+07,202.606,2,2.82923,-7316.06,-23448.8,6030.32
2.89059e+07,124.253,0,2.83462,16313.2,20171.9,-25323.6
2.89826e+07,92.0196,0,2.82811,-2020.04,-14625.6,-29228.2
2.9098e+07,117.544,1,2.84718,16902.2,16901.3,-22459.7
2.92988e+07,29.3307,1,2.64172,1937.78,2754.26,-23591.3
2.93036e+07,20.6559,2,3.00333,-2042.79,-2176.21,-25596.2
2.94331e+07,282.025,2,2.89621,10229.4,-25962.8,23365.4
2.96912e+07,12.3265,1,2.74289,-2502.3,271.559,-27950.6
2.96967e+07,107.365,1,2.56378,-8662.87,-1907.83,-7924.37
2.97394e+07,17.1447,2,2.80625,2922.08,32.2451,-26717.4
2.98303e+07,36.9966,1,2.50265,-4319.49,5382.72,-24979.9
3.00516e+07,87.4188,2,3.02915,-8945.66,-10024.7,-16297.3
3.04109e+07,74.7582,2,2.51021,-9249.67,1902.21,-16136.3
3.0588e+07,93.8056,2,2.97833,-14289.3,-13041.6,-24723.7
3.09029e+07,51.9182,0,2.69846,-6378.3,4265.66,-21073.4
3.11796e+07,16.5802,2,3.01993,-305.09,-1440.56,-25641
3.13193e+07,46.732,0,2.5523,-869.552,-8735.09,-27823.5
3.14149e+07,75.3296,2,2.59114,-1158.05,-12164.6,-18529.6
3.25509e+07,113.136,2,2.79511,2367.27,-14965.5,-10408
3.27457e+07,47.3325,1,2.93167,-744.293,-7877.76,-22875.2
3.30576e+07,17.8332,0,2.71441,1641.43,-570.675,-25471.3
3.32338e+07,68.1902,2,2.61056,-3160.28,-13831.5,-25846
3.33631e+07,89.2996,0,2.53425,12616.7,-6649.36,-16396.4
0,89.8571,1,2.65031,0,0,0
3.34723e+07,78.9336,1,2.38438,6311.81,9928.35,-16906.5
3.3739e+07,42.8632,2,2.81004,-8194.4,3412.3,-27092.7
3.37913e+07,38.0799,1,2.76492,5818.29,5242.83,-26958.1
3.41461e+07,54.7496,1,2.53396,9783.25,4452.16,-24489.1
3.46196e+07,39.9881,1,2.63741,-102.916,-4919.13,-22000.9
3.46746e+07,43.1086,0,2.75972,7467.44,2637.76,-24241
3.48042e+07,23.9336,2,2.69141,3972.16,-300.688,-25766.9
3.48663e+07,224.994,1,2.87076,-20424.3,17817.7,9928.41
3.57057e+07,7.999,0,2.37747,1027.97,98.6343,-27405.6
3.58581e+07,156.978,2,2.81043,-18583.9,-5056.91,-1967.04
3.59279e+07,17.7452,1,2.37766,-1701.88,636.47,-25501.8
3.61211e+07,240.423,0,2.56469,28398.4,-18239.9,9176.02
3.61667e+07,171.488,1,3.00197,28142.4,-21437.1,-22813.2
3.6188e+07,20.2184,0,2.71844,126.93,4025.62,-27420.2
3.6454e+07,59.4545,2,2.56857,9579.67,-662.455,-20730.1
3.64945e+07,30.103,2,2.40029,-1086.31,5021.85,-25102.8
3.65123e+07,69.7302,0,2.36864,13623.3,-5345.89,-26418.7
3.66431e+07,2.69377,0,2.8606,460.407,345.228,-28542.5
3.68661e+07,4.37451,2,2.63303,-910.413,-328.222,-28524.8
3.71952e+07,77.4749,2,3.00727,-14842.6,-5322.39,-24591.5
3.73663e+07,23.5063,1,2.71494,1031.57,4730.12,-27409.4
3.75809e+07,60.9134,0,2.93151,3365.52,-6207.71,-18126.1
3.76771e+07,52.0509,1,3.02864,4486.01,5857.64,-20777.7
3.78812e+07,137.497,1,2.5775,-20427.1,-14440.5,-14071.5
3.78823e+07,33.7891,1,2.91331,593.449,2985.75,-22412.7
3.81874e+07,5.69418,1,3.00782,-824.427,-841.501,-28571.5
3.83284e+07,86.6264,1,2.6365,-8786.01,13290.8,-19686.2
3.8679e+07,44.5286,2,2.61028,-509.7,6051.08,-21675.3
3.8755e+07,181.65,0,2.56142,11033,12366.6,5820.22
3.88554e+07,171.633,1,2.99586,26902.3,-13050,-8910.94
3.89119e+07,109.218,2,2.43926,-22445,-2192.03,-23507.9
3.89639e+07,39.5262,2,2.52922,-2377.19,2778.89,-21349.5
3.8992e+07,48.9206,0,2.99013,4767.94,-5950.52,-21881.4
3.9281e+07,32.3889,2,2.57886,-3809.2,-4968.45,-25858.5
3.92857e+07,97.7952,2,3.00319,2573.58,-16172.3,-16425.5
3.96939e+07,18.6647,0,2.93768,3553.13,950.815,-27210.3
3.98133e+07,112.767,1,2.77692,-12288.4,20433.7,-28724.8
3.98137e+07,15.0979,0,2.99826,3260.77,129.56,-28446.1
3.9882e+07,64.4981,1,2.79574,-3659.6,11601.8,-22611.1
4.00648e+07,96.1776,0,2.96705,4629.93,-17582.5,-21541.4
4.01823e+07,43.1874,1,2.79414,-7444.01,-5083.4,-27472.6
4.11303e+07,38.6974,1,2.56937,-4807.83,4262.24,-23645.4
4.11818e+07,194.416,0,2.77337,-15283.8,-24976.6,-269.069
4.12662e+07,96.3793,0,2.98421,2517.48,-11553.7,-26291.2
4.13087e+07,53.7227,2,2.95235,-4828.64,-7099.42,-21427.7
4.15515e+07,104.531,0,2.39872,18604.6,-7880.81,-19668.8
4.16218e+07,43.2937,2,2.57362,2488.07,-8858.15,-28077.2
4.16877e+07,8.43524,2,2.77488,-1458.07,-482.541,-27858.5
4.186e+07,70.2653,1,2.58115,-11092.6,7936.04,-22759.5
4.20073e+07,218.322,0,2.90286,-21756.6,-21425.2,5307.14
4.21004e+07,38.5914,2,2.83767,367.883,-7504.46,-25560.1
4.23315e+07,79.5101,2,2.39911,2660.4,-11592.2,-16898.2
4.25964e+07,160.639,1,2.69588,-6163.14,-17638.1,-629.192
4.27897e+07,57.9218,0,2.79645,-6119.48,-562.598,-24164.1
4.35494e+07,55.0639,1,2.93593,4645.78,10627.8,-28896.6
4.37905e+07,87.9705,2,2.50616,-12273.6,-12128.8,-21637.8
4.39701e+07,165.811,0,2.68753,-6588.73,-20197.1,-1073.67
4.40799e+07,187.065,2,2.80189,-6485.56,24382.4,1321.99
4.45571e+07,42.6476,0,2.76989,-1672.64,-6783.78,-23210.5
4.49377e+07,37.4245,1,2.91864,2289.19,-7433.21,-28406
4.54288e+07,75.2,1,2.3743,-15850.8,874.693,-26869.7
4.57673e+07,252.625,0,2.78238,12053.7,-22576.4,-5530.53
4.58406e+07,28.2382,1,2.83843,-4215.41,3924.25,-27066.7
4.5926e+07,103.735,1,2.90871,-10561.2,-15139.5,-17287.4
4.71376e+07,175.338,1,2.43574,-23990.9,-26297.5,-18545.9
4.72713e+07,24.544,0,2.47762,-649.014,4966.33,-27462.6
4.75726e+07,153.063,1,2.90076,17614.6,-636.902,-1980.33
4.75985e+07,77.8711,0,2.57547,6389.76,4645.38,-14351.4
4.78426e+07,3.3109,2,2.99931,-293.838,172.74,-28211.6
4.8098e+07,6.03334,1,2.41313,-580.077,-737.819,-27954.8
4.83353e+07,222.084,0,2.80128,16599.8,-3691.61,-6037.71
4.85151e+07,81.026,0,2.38439,-11682.3,-10906.5,-22771.9
4.86322e+07,39.2534,2,2.70484,-2726.75,-7916,-29189
4.87351e+07,79.3606,1,2.89842,12571,9540,-23348.5
4.87705e+07,32.1225,0,2.49251,5764.16,-2848.66,-26359.8
4.87743e+07,52.038,1,2.86186,-720.666,-8193.69,-21692.9
4.88013e+07,61.0229,2,2.36302,-4765.49,9439.03,-21451.7
4.88471e+07,79.4586,2,2.78963,5089.95,-12118,-18434.8
4.89111e+07,39.7856,1,2.95546,-3422.84,3676,-22094.4
4.90998e+07,113.096,2,2.93122,-17656.2,-5677.3,-14044.4
4.91812e+07,177.018,2,2.5731,-19868.6,19802.4,-4180.18
4.92461e+07,96.4641,2,2.40221,-1896.64,-19960,-24550.3
4.9603e+07,62.9863,2,2.5631,-8021.92,10501.4,-27362.1
4.98539e+07,57.9739,0,2.82961,793.272,-3512.53,-26940.4
5.00556e+07,114.887,2,2.75426,22019.3,1961.89,-19063.7
5.01078e+07,26.1029,2,2.47813,-1227.48,-4008.54,-25118.6
5.02012e+07,195.174,0,2.66821,-22177,-6556.29,5170.62
5.03174e+07,10.5116,0,2.56544,872.953,-1951.04,-29601.2
5.04231e+07,117.029,1,2.41579,19455.1,15339.3,-29928.9
5.09409e+07,176.154,0,2.50691,-10696.2,-28010.3,-6813.86
5.11812e+07,124.56,1,2.67719,2148.5,-18915.5,-10778.1
5.11953e+07,5.07354,0,2.47217,736.494,-811.216,-28458.3
5.12091e+07,39.3018,2,2.41779,-5889.39,5837.37,-29457.8
5.13391e+07,90.9379,1,3.04285,-3922.99,2341.34,-28180.6
5.148e+07,12.4348,2,2.59129,1378.69,975.969,-26857.2
5.17911e+07,19.5566,1,3.03538,-2964.17,644.42,-25982.3
5.18522e+07,118.094,2,2.55817,23851.3,-7288.63,-29839.7
5.2031e+07,5.77971,1,2.48597,128.452,-443.756,-27710.4
5.21957e+07,54.1885,0,2.488,8940.62,3140.71,-22280.7
5.22011e+07,38.4044,2,2.87629,3185.11,-1759.74,-21605.4
5.26377e+07,91.9747,1,2.94543,-6855.29,15550.4,-19500.1
5.26381e+07,110.476,1,2.39928,-4208.05,20057.3,-17427.4
5.27628e+07,125.862,2,2.93862,-21995.7,-3049.98,-14427.9
5.33043e+07,51.2114,0,2.64745,5146.66,8517.08,-24481.3
5.33787e+07,67.1571,0,2.51092,6523.44,-2526.46,-16417.7
5.34674e+07,18.7198,0,2.96627,3508.95,1901.49,-29483.8
5.3613e+07,209.522,2,2.792,7788.14,-19049.3,10181.9
5.36188e+07,173.321,2,2.70327,24709.3,-25832,-26958.3
5.36365e+07,8.69207,1,2.374,182.516,1610.74,-29842.8
5.37065e+07,138.854,2,2.38513,-22808.5,-15252.4,-18085
5.38501e+07,36.4009,2,2.71904,-4668.66,-1685.41,-22923.2
5.3926e+07,6.96576,1,2.55463,212.208,1203.17,-29796.3
5.41119e+07,10.4306,0,2.97599,-1042.75,-377.974,-26989.5
5.41627e+07,132.713,1,2.37731,2780.67,-26648.5,-20637.3
5.42206e+07,25.1674,2,2.9795,-2985.09,2424.99,-25192.3
5.47488e+07,27.828,0,2.77471,53.258,-4006.45,-24559.5
5.47984e+07,0.622606,1,2.42918,-40.3766,233.418,-28824.6
5.50606e+07,39.0012,0,2.88603,-282.461,-285.45,-28857.2
5.51893e+07,77.9259,2,2.45344,-13480.9,-5493.92,-20966.8
5.51914e+07,170.312,2,3.01679,24761.5,-5079.15,-3652.62
5.52617e+07,11.7378,1,2.95282,-1488.21,1773.45,-27761.5
5.54709e+07,14.858,1,2.45116,-655.217,3188.93,-28881
5.54964e+07,27.6336,1,2.75571,-4152.59,-138.275,-24703.7
0,27.4376,1,2.413,0,0,0
5.57316e+07,16.3302,1,2.91811,-703.88,1754.46,-25895
5.59044e+07,42.4945,1,2.78936,-7087.23,4646.43,-25693.9
5.66469e+07,25.2687,1,2.61329,5115.58,-1373.03,-28959.3
5.6745e+07,6.17588,1,3.03989,945.714,941.509,-29035.6
5.68329e+07,44.3295,0,2.81018,-1040.02,-8715.76,-25638.9
5.69071e+07,82.9222,1,2.39996,-1179.87,14679.4,-19172.5
5.69423e+07,90.7217,0,2.94995,9045.29,8837.97,-21117.3
5.71136e+07,110.119,2,2.77653,-20740.2,-8199.75,-22200.3
5.77322e+07,227.586,0,2.90798,-21607,-14059.6,11365.2
5.78056e+07,45.4463,0,2.47189,5236.31,-4504.4,-22055.5
5.79071e+07,44.8328,0,2.51115,1347.28,5866.62,-21513.6
5.85067e+07,8.6602,1,3.03367,-1769.87,694.773,-28790.5
5.87713e+07,9.95773,0,3.03072,1435.14,-1602.93,-29219.9
5.88132e+07,44.7349,1,2.65909,882.402,8150.6,-25335.5
5.88508e+07,37.1823,0,2.45749,4652.84,5777.68,-26007.9
5.89076e+07,172.11,0,2.38022,21587,20787.3,-8028.02
5.89864e+07,141.735,0,2.97207,-25474.8,-2139.23,-19405.5
5.90407e+07,111.402,0,2.86669,13546.8,-179.013,-9668.63
5.91778e+07,18.3819,1,2.3923,-2120.35,-21.1882,-25522.8
5.95968e+07,32.75,0,2.67005,2551.73,-5921.38,-26297.7
5.96976e+07,52.8487,0,2.7557,9327.48,-6210.68,-28992.5
5.98418e+07,1.95906,0,2.4264,254.115,-406.5,-28745.1
5.98431e+07,23.5081,0,3.00266,2985.88,-2414.04,-25662.8
5.98501e+07,17.4915,1,2.54999,2034.71,-2157.69,-26691.7
5.99277e+07,97.2603,1,2.80997,-13653.9,12318.9,-19696.8
6.08133e+07,228.975,1,2.87026,18937.4,-10963.6,13980.5
6.08332e+07,13.1518,2,2.55627,-1841.61,149.798,-26693.9
6.13119e+07,97.7261,1,2.88097,-2829.16,14793.7,-14825.5
6.14062e+07,152.622,1,2.60285,-24804.5,-813.942,-8249.7
6.1427e+07,12.0987,2,3.03336,-999.365,-676.236,-26577.3
6.18792e+07,26.9538,2,2.44023,843.753,4855.95,-26076
6.19965e+07,76.3144,2,2.8,-10641.1,-5310.8,-17942.4
6.2043e+07,63.4857,2,2.6886,-3396.67,-8826.81,-19256.9
6.20812e+07,106.823,1,2.80498,8821.24,7441.12,-9518.96
6.21689e+07,26.0536,0,2.59896,5038.53,1304.46,-26830
6.22364e+07,65.9142,1,3.03582,6468.43,7891.92,-19528.6
6.2551e+07,32.6725,1,2.86709,-860.476,-5930.03,-25590.5
6.26815e+07,30.8798,0,2.9846,380.684,-484.248,-28554.6
6.2687e+07,4.73412,1,2.97255,-892.938,579.611,-28776.8
6.30343e+07,39.0911,2,2.45189,-6922.62,1497.45,-24481.8
6.32526e+07,110.653,2,2.95103,-16544.8,-2431.98,-12718.5
6.35524e+07,125.446,2,2.45643,14917.5,-20436,-20664.2
6.3952e+07,133.992,2,3.01016,7362.09,-3264.9,-9744.69
6.41289e+07,82.4019,0,2.36634,-9007.51,-5182.7,-14856.2
6.43983e+07,61.8907,1,2.73584,5872.83,8471.98,-20811.9
6.44721e+07,12.7909,0,2.60343,218.093,-1960.34,-26963
6.45106e+07,107.274,0,2.57067,11980.5,1647.18,-9607.06
6.49547e+07,9.73255,0,2.52985,-795.733,1694.11,-28024.6
6.50242e+07,39.4405,2,3.02942,7441.1,2753.41,-26672.5
6.51543e+07,4.7469,0,2.99676,799.927,745.034,-28911.1
6.52309e+07,36.9491,1,2.59514,-7050.78,3324.2,-27610.7
6.53307e+07,62.6993,2,2.56579,-1009.11,-13293.6,-28271.8
6.53405e+07,103.271,0,2.99282,9986.04,8000.38,-11324
6.60597e+07,300.809,1,2.75143,-28161.6,5402.58,27662.6
6.62357e+07,21.8166,1,3.00225,600.637,3828.34,-26307.9
6.65894e+07,8.05707,0,2.81758,1668.86,-497.068,-28378.2
6.67168e+07,26.8601,0,2.37565,5717.99,-558.142,-28174.4
6.67516e+07,22.6763,0,2.38327,3416.19,1166.04,-25563.9
6.75006e+07,41.4312,1,2.55286,-2787.2,8405.75,-28466.6
6.76358e+07,121.658,2,2.7486,2336.99,21592.6,-15381.4
6.7785e+07,68.5328,2,3.04658,2593.19,9721.75,-18652.3
6.79915e+07,25.9462,1,2.53184,1870.81,2404.03,-24223.5
6.80345e+07,52.1996,0,2.72457,9342.44,4095.28,-24499
6.8064e+07,34.0135,0,2.47302,4172.7,430.564,-22903.4
6.83158e+07,8.40696,2,2.6789,-1818.3,-328.522,-28611.3
6.84557e+07,42.6322,2,2.86864,7003.87,-4956.08,-26260.5
6.87086e+07,158.668,0,2.63738,19192.8,1381.15,-1381.4
6.87162e+07,23.3968,2,2.40543,2683.12,773.837,-24780.9
6.87753e+07,108.639,1,2.58798,16731.4,-1820.52,-13304.7
6.88358e+07,119.649,2,2.78901,15777.5,3544.22,-9602.56
6.90589e+07,92.923,1,2.7773,-14032.2,-10162.5,-20822.9
6.92533e+07,13.574,0,2.68789,1589.84,2442.48,-29051.9
6.94437e+07,123.532,0,2.62757,3310.71,-21981,-15185
6.95503e+07,53.788,2,2.71153,-392.892,6000.14,-19248.2
6.99532e+07,100.197,1,2.79515,9730.26,15697.4,-18558
6.99726e+07,102.083,0,2.37926,5138.64,-19619.3,-21343.9
7.00482e+07,54.7499,2,2.50929,-6417.15,-9284.1,-25798.3
7.01399e+07,32.765,0,2.84616,2741.89,4152.27,-24010.2
7.04361e+07,4.49655,0,3.05113,-205.531,379.291,-27986.1
7.07182e+07,113.492,2,2.53221,11798.3,-4200.9,-8378.44
7.0798e+07,31.1354,0,2.49344,5762.52,-1855.76,-26080.7
7.11091e+07,49.5202,0,2.70585,-3024.95,4847.27,-20094.2
7.13833e+07,83.6022,1,2.73902,42.787,1390.69,-26591.1
7.1413e+07,6.2357,2,3.02593,-1026.06,246.902,-28010.7
7.16603e+07,64.0326,1,2.90266,10425.8,-3869.95,-21335.6
7.16663e+07,82.8515,1,2.6918,1894.02,2874.97,-13635.8
7.20206e+07,33.6,1,2.56406,5115.36,1328.15,-24071.4
7.21119e+07,39.8826,2,2.44136,-7574.4,3148.47,-26844.6
7.23592e+07,82.2044,2,2.36523,8193.09,-4407.66,-14107.1
7.24621e+07,11.8743,1,3.04598,-1531.48,1190.65,-27160.3
7.27561e+07,24.911,0,2.52203,2736.19,1438.74,-24498.9
7.28039e+07,5.59217,1,2.72225,724.232,530.724,-28024.5
7.33498e+07,35.3741,0,2.9822,2841.16,2024.43,-22242.5
7.34701e+07,126.363,2,2.76327,20770.8,-11317.9,-16678.4
7.37769e+07,90.4081,2,2.94932,-7313.56,-3401.24,-11615.3
7.41588e+07,76.449,1,2.49076,12840.9,-8196.64,-24691.1
7.46665e+07,37.404,2,2.47037,6427.35,-4378,-27375
7.47389e+07,27.3104,0,2.41613,-3889.89,3107.72,-25944.4
7.49394e+07,115.094,0,2.79814,-10419.9,7793.57,-8442.83
7.51509e+07,26.1767,0,2.91605,-5219.68,836.627,-27521.4
7.5363e+07,31.3052,0,2.45267,-2186.44,1949.55,-22895.7
7.5442e+07,46.1104,0,2.43123,-2968.96,4849.86,-20911
7.55907e+07,193.622,2,2.90662,-1047.71,28924.5,-4165.89
7.58191e+07,103.928,1,2.62996,-15747.1,13806.1,-22130.2
7.62463e+07,62.9464,1,2.7832,-11238.9,5694.08,-24509.3
7.64053e+07,107.887,0,2.89829,19834.2,2965.9,-18127.2
7.66128e+07,67.5059,2,2.57232,-5552.5,5904.51,-17087.5
7.66837e+07,50.9046,1,2.96569,-4716.05,-6004.55,-21362.6
7.6861e+07,88.7084,1,2.97876,-1450.82,-1917.68,-28995.3
7.69635e+07,57.6456,2,2.43417,-8939.55,5692.79,-22785.4
0,57.604,2,2.40135,0,0,0
7.76003e+07,198.894,2,2.52505,-15280,-26464,124.584
7.78438e+07,85.1784,2,2.7816,13613.8,7704.77,-20182.4
7.8188e+07,17.9557,1,2.65431,1211.58,3558.93,-27877.8
7.82595e+07,32.5618,0,2.94684,6355.31,-504.663,-26107.3
7.83409e+07,151.198,2,2.5466,-11435.3,-2676.23,-7784.98
7.8498e+07,77.3216,0,2.92306,12641.8,4175.85,-19405.9
7.85436e+07,25.1996,1,2.97453,2786.21,4139.55,-26901.7
7.86049e+07,125.869,2,2.86305,15719.1,7683.82,-9028.86
7.93214e+07,4.21916,0,2.89739,531.234,-634.441,-28346.4
7.93935e+07,17.1551,2,2.72702,2583.95,2291.31,-28026.6
8.01111e+07,40.5084,2,2.68967,8456.36,-52.8178,-27744.9
8.04935e+07,82.751,2,2.68673,-15283.1,-1953.49,-20553.2
8.0522e+07,138.535,2,2.84937,-18615.2,-656.81,-28785.2
8.07142e+07,24.6733,1,2.52423,-3220.07,3055.71,-25946.5
8.07601e+07,108.975,2,2.83076,-13517.3,14557.4,-17427.6
8.0938e+07,60.6367,0,2.91324,7932.12,-8802.19,-23994.8
8.09633e+07,8.99395,0,2.71038,-325.546,-1888.33,-28879
8.12471e+07,138.031,0,2.49901,7435.07,8440.81,-1898.78
8.1303e+07,28.7198,2,2.40956,-3332.51,-3990.93,-25542.3
8.13967e+07,35.2814,1,2.93881,-7146.9,2169.15,-28957.7
8.15136e+07,67.497,2,2.90451,-2737.99,-9100.89,-18255.7
8.17995e+07,23.7176,1,2.79331,3587.59,2710.9,-26586.5
8.18478e+07,6.62327,0,2.53704,-489.14,1049.05,-28052.1
8.22081e+07,51.3358,0,2.82664,9177.6,266.01,-23042.9
8.27242e+07,45.8204,2,3.04358,-7999.83,-4177.31,-25322.3
8.3142e+07,18.9544,1,3.02698,-2503.75,3053.6,-27818.5
8.34166e+07,7.97091,0,2.58088,-451.026,-1607.32,-28731.6
8.39662e+07,15.3635,2,2.75502,-1956.61,780.88,-26350.5
8.40102e+07,157.22,2,2.99556,1460.71,-19656.2,-2372
8.40324e+07,73.5101,1,2.96297,-4296.91,7474.03,-15992.6
8.42981e+07,41.8204,0,2.77189,6455.99,3702.81,-23980.7
8.49445e+07,51.3388,2,2.54225,-7149.34,-4230.62,-21738.2
8.50225e+07,101.23,2,2.55837,-5778.23,-19692.1,-22434.7
8.52056e+07,100.193,1,2.58838,7254.92,18822.7,-22197.8
8.52809e+07,26.3715,0,2.85936,5094.89,-821.673,-26628.6
8.54096e+07,38.1829,2,2.75845,7314.57,-1699.03,-25986.6
8.6236e+07,37.5357,0,2.65565,-2617.36,7446.68,-28168
8.62494e+07,88.0427,0,2.86185,-2611.98,13174.1,-16133.9
8.63435e+07,122.797,2,2.87327,21431.8,-1784.14,-14616.7
8.64162e+07,34.7083,1,2.49317,1243.95,6072.86,-24756.3
8.68549e+07,124.517,1,2.51628,15125,-13286.9,-11928.4
8.68803e+07,140.798,0,2.8243,9959.88,-13601.8,-19484.2
8.69955e+07,92.6895,0,2.67913,-3333.8,16068.1,-18516
8.70986e+07,39.1066,0,2.68028,-2143.43,-6832.63,-24842.4
8.71678e+07,23.6676,1,2.4005,-4038.64,2545.49,-27042
8.72436e+07,48.7791,0,2.89086,7198.2,-5802.48,-24261.1
8.74062e+07,54.9893,0,2.74451,-8704.87,-2925.91,-21831.6
8.76757e+07,0.387737,2,2.89834,10.4328,-28.0442,-28771
0,0.371515,2,2.97869,0,0,0
0,0.322133,2,2.63609,0,0,0
8.78256e+07,1.92137,2,2.75884,128.794,-437.953,-28749.8
8.81868e+07,0.754392,1,2.71625,-232.439,17.5657,-28829.3
0,0.844984,1,2.94801,0,0,0
0,0.742359,1,3.04482,0,0,0
8.83471e+07,38.5654,2,2.52372,4182.64,1243.55,-21971.9
8.84184e+07,26.0817,2,2.62609,-120.718,2481.36,-23933.9
8.84431e+07,15.0333,0,2.86062,2477.45,668.406,-26856.2
8.88743e+07,53.0672,0,2.64766,-3087.09,4062.66,-18863.6
8.89012e+07,123.829,0,2.92469,7920.25,5663.98,-4726.11
8.89777e+07,4.33863,1,2.39001,-654.175,784.911,-28688.7
8.91022e+07,125.56,2,2.83058,20914.6,-8220.08,-20072.6
8.91247e+07,63.7404,1,2.89496,3281.18,13035,-29391.2
8.953e+07,86.1452,0,2.8373,5815.27,-8389.46,-13845.6
8.95846e+07,81.5533,2,2.90891,-14590.1,5250.69,-21528.7
8.97928e+07,58.0376,2,2.94464,8486.44,-6545.58,-23013.7
9.03945e+07,205.505,2,3.04231,14581.8,-24045.7,3749
9.04171e+07,20.2848,1,2.79881,599.21,3714.79,-26641.7
9.06427e+07,3.25358,2,2.82231,-594.267,-470.772,-28603.5
9.06458e+07,52.5642,0,2.41933,3240.45,-3869.95,-18891.4
9.06892e+07,144.237,1,2.60413,12019,28046,-27855.4
9.08394e+07,112.525,1,2.67694,-6923.2,20181.3,-18293.9
9.08626e+07,85.5684,0,2.89299,-1416.06,8567.25,-13082.6
9.10137e+07,26.0946,0,2.6094,-2525.33,-4164.81,-26338.4
9.1418e+07,82.212,2,2.51389,-15991.9,4387.23,-23463.2
9.19242e+07,141.531,2,2.50185,-1050.36,-24974.3,-12250.4
9.19386e+07,276.08,2,2.65059,4154.54,13975.3,2990.12
9.30933e+07,57.212,0,2.37557,-11044.9,-795.85,-24140
9.31079e+07,181.597,2,2.39805,-6527,-24623.4,-13469
9.33391e+07,47.5129,0,3.01527,-1155.2,-4447.18,-20006.5
9.35995e+07,25.9668,2,2.95601,-5022.83,-979.913,-26854.3
9.36357e+07,35.9079,1,2.42209,2006.3,6773.75,-25815.4
9.38477e+07,62.1705,1,2.88344,7145.61,8367.3,-21748.4
9.39942e+07,171.353,1,2.71694,-10822.9,-15252,2037.82
9.46304e+07,20.3144,2,2.49452,-3286.87,-2690.74,-27726
9.48582e+07,13.2624,2,2.4996,-888.204,-2780.53,-28980.3
9.51842e+07,21.0951,0,2.75578,2573.98,3553.78,-29872.5
9.52292e+07,34.0441,2,2.8533,4751.12,-4022.22,-25241.1
9.56723e+07,102.383,2,2.39095,-21014.1,-3675.46,-24633.7
9.57811e+07,11.8663,0,2.4448,695.956,-2173.82,-27734.2
9.60783e+07,201.969,1,2.94352,21997.5,28857,-6914.67
9.6128e+07,86.894,0,2.57314,9828.82,1073.38,-13314.1
9.66973e+07,100.185,1,2.98127,11376,12251.1,-22644
9.67546e+07,2.51932,1,2.88974,502.462,-13.6523,-28688.9
9.71363e+07,78.9386,1,3.0389,-12416.5,5321.15,-20315.7
9.71623e+07,81.9671,1,3.03059,-5860.72,10429.1,-29511.3
9.73618e+07,51.4485,0,2.64446,5619.2,9213.23,-27171.6
9.75891e+07,75.6862,2,2.90369,-9599.35,-1420.22,-26144.9
9.76547e+07,45.5955,2,2.36541,-2000.05,-9343.96,-27007.2
9.79049e+07,121.68,2,2.99083,-1981.03,-20280.4,-13372.4
9.81394e+07,81.0448,1,2.9293,10044.9,1834.06,-15231.1
9.82898e+07,7.17766,1,2.42641,939.654,521.579,-27742.3
9.83613e+07,118.481,0,2.50811,7331.19,23966.4,-27615.4
9.84964e+07,125.395,1,2.59069,11614.2,12160.8,-8326.53
9.88118e+07,49.9829,2,3.01689,-6047.64,-1895.8,-20420.7
9.88189e+07,53.0488,1,2.51517,-980.322,-5828.34,-19317.2
9.89156e+07,112.568,1,2.7723,-8911.65,17493.9,-15413.1
9.89477e+07,103.814,1,2.5455,-7012.66,20245.5,-23705.1
9.93154e+07,19.3968,2,2.69633,-2562.03,2592.55,-27008.3
9.95863e+07,145.978,1,2.83949,17250.3,17649.8,-10701
9.96186e+07,47.0004,2,2.5031,-7154.07,-6333.81,-25786.1
9.98847e+07,46.7231,1,2.45044,-8951.8,-4207.33,-28720.8
9.99277e+07,75.0096,1,2.74916,-13124.8,8941.2,-29157.8
1.00038e+08,10.9328,1,2.59831,1915.84,711.106,-27743.7
1.00376e+08,262.513,1,2.83852,7361.24,2864.96,-11580.6
1.00811e+08,72.0327,2,2.51386,-935.447,7721.03,-15776.7
1.00877e+08,78.229,0,2.54892,11660.4,-2915.06,-17387.3
1.0093e+08,255.378,1,2.75404,8541.57,9535.85,-24143.3
1.01057e+08,39.0157,0,2.74193,255.39,-295.618,-28653
1.01065e+08,155.359,0,2.44022,22625.9,-10887.9,-7561.76
1.01285e+08,158.998,1,2.44217,-16328.8,7296.38,-298.554
1.01931e+08,3.50429,2,2.65564,-120.501,-760.635,-28532.2
1.02146e+08,71.9797,2,2.91819,-8416.85,-11801.4,-24280.9
1.02388e+08,19.5822,0,2.78539,4224.31,-18.8497,-28538.4
1.02426e+08,13.3574,1,2.42234,-33.7799,2888.06,-28797.1
1.02584e+08,172.151,1,2.44023,-27929,-20012.7,-16779.3
1.02599e+08,67.036,1,2.97091,5294.75,4694.08,-16678.5
1.03397e+08,35.6524,2,2.87568,-2546.1,1533.8,-21933.3
1.03536e+08,62.0334,1,2.46798,-9626.18,-2017.33,-20119.6
1.04109e+08,20.8076,0,2.77289,2015.46,44.4477,-24903.5
1.04217e+08,253.985,2,2.93251,11081.1,-28552.8,1476.04
1.04237e+08,63.8926,2,2.56732,7413.42,1876.14,-17742.7
1.04369e+08,49.2219,1,2.51245,-2800.21,9016.92,-24226.1
1.04422e+08,136.532,2,2.90018,-1094.92,-28596,-28976.1
1.04465e+08,109.495,0,2.68435,23136.6,433.497,-27156.5
1.04483e+08,6.06415,2,2.52463,-231.925,-1227.77,-28242.3
1.0499e+08,20.6368,2,2.47761,2251.15,-3782.81,-29439.6
1.05186e+08,58.3334,2,2.78776,11664.4,-3226.25,-26778.9
1.05281e+08,33.4905,2,2.73347,3588.98,-1018.7,-22852.5
1.05676e+08,184.308,1,2.78719,-17802.5,-8391.17,4604.66
1.05895e+08,76.8268,1,2.7123,12634.4,2783.59,-19145.4
1.0608e+08,79.5693,2,2.68296,14295.8,8212.83,-26025.7
1.06322e+08,66.5855,1,2.59983,-2134.04,13357.5,-24693.3
1.06472e+08,45.2136,2,2.67049,-4830.01,-7184.7,-24599.3
1.06571e+08,3.8332,0,2.65763,-480.228,2.12199,-28215.1
1.06828e+08,247.735,2,2.51301,-27832.6,27645.3,5853.05
1.06873e+08,28.7824,1,2.51194,-2132.55,5053.99,-25975
1.06907e+08,20.1779,0,2.41641,762.834,3971.72,-27318.6
1.06917e+08,90.3783,1,2.837,-18182.2,873.66,-23171.8
1.07309e+08,253.071,0,2.75198,-28251.1,10444.2,15088.6
1.07338e+08,49.8476,1,2.95176,-1419.26,-6300.05,-20625
1.07375e+08,11.7963,0,2.83391,1111.11,-2006.55,-27720.6
1.07493e+08,21.7393,0,2.41285,1090.23,1663.42,-24670.1
1.0751e+08,54.0339,0,2.51891,8934.03,3044.23,-22256.4
1.07581e+08,91.43,1,2.39906,-13464,8985,-18086.6
1.07612e+08,88.1102,0,2.47004,11425.8,1324.74,-14095.4
1.07741e+08,11.3335,0,2.64828,1834.47,1377.41,-29772
1.0802e+08,18.8321,0,2.421,1782.87,-1930.18,-25765.1
1.0844e+08,37.1187,0,2.60044,5889.09,-3078.63,-25078.9
1.08465e+08,69.2063,0,2.78705,10618.7,-429.975,-18810.2
1.09052e+08,49.4402,1,2.46226,-9926.14,1057.23,-25587.8
1.09361e+08,299.495,0,2.86856,-25378.5,29873.7,20346.6
1.09799e+08,51.6086,0,2.95401,4936.2,5447.9,-20801.8
1.09988e+08,54.1916,2,2.96741,10831.3,-1410.04,-25772.4
1.10192e+08,156.545,1,2.67118,-21038.7,18406.4,-13102.7
1.10298e+08,111.082,0,2.64009,17004.9,10871,-16752.7
1.10731e+08,152.976,2,3.04227,-27340.2,2556.93,-12283
1.10802e+08,76.2134,2,2.75752,-8479.46,11495.6,-21609.2
1.10813e+08,162.405,0,2.54384,21551.4,-9036.08,-3640.05
1.10906e+08,120.816,2,2.65085,-13833,-7692.86,-8777.78
1.10976e+08,17.1481,1,2.40103,-796.451,1700.02,-25664.8
1.11408e+08,100.978,2,2.83495,-7340.91,2510.91,-17321.5
1.11665e+08,61.8259,1,2.40121,-10445.7,5157,-22698.7
1.12082e+08,101.806,2,2.37855,3188.74,-11156.6,-10626
1.12333e+08,24.0574,0,2.70806,3253.48,-3994.36,-29233.8
1.12758e+08,163.96,1,2.62098,-3649.9,28895.6,-9997.8
1.12774e+08,15.0422,0,3.00271,941.457,1673.7,-26273.8
1.13124e+08,46.9624,0,2.57415,9515.96,2559.57,-27039.8
1.13154e+08,179.248,2,2.5174,-13666.5,-16914,1805.28
1.13386e+08,51.21,1,2.92765,-3447.05,-6925.55,-21389
1.1351e+08,246.38,2,2.68515,12994.7,25026.5,7307.48
1.13547e+08,196.978,1,2.87187,18458.1,16364.2,-29993.8
1.13661e+08,68.7483,2,2.91027,2598.3,-6490.29,-22742.6
1.13713e+08,193.136,0,2.42893,12368.8,24517.6,1432.07
1.138e+08,48.5092,2,2.39857,8754.99,-5053.93,-26849.6
1.14088e+08,124.285,0,3.00621,13451.2,14579,-11913.9
1.14212e+08,248.171,2,2.63743,19468.9,27166.4,-5523.28
1.1428e+08,45.2633,2,2.76845,-4496.17,1211.04,-20482.2
1.1443e+08,63.1436,2,2.50914,-6864.6,-8570.04,-21092.8
1.14521e+08,104.709,2,2.64994,-6301.53,-5722.9,-8400.33
1.14631e+08,199.128,0,2.48871,13731.8,10074,9682.33
1.14915e+08,21.8161,1,2.71072,105.399,3109.82,-25366.9
1.15075e+08,8.75766,0,2.36804,-147.094,-623.362,-27098.1
1.15096e+08,115.204,1,2.4846,253.26,20948.2,-16247.9
1.15583e+08,72.7707,1,2.8927,-12715.5,1741.95,-20455.1
1.15615e+08,51.7353,1,2.45614,6401.6,3416.93,-20611.7
1.15719e+08,2.2542,2,2.549,-466.937,183.707,-28943.2
1.15831e+08,31.2641,0,2.96485,-792.096,-3144.16,-23115.5
1.15937e+08,48.9153,0,3.00537,1223.9,-7805.27,-22266.2
1.15954e+08,24.4415,0,2.47191,3380.56,-3955.4,-28109.4
1.15969e+08,60.807,2,2.52069,3677.55,-5445.57,-17754.5
1.1635e+08,22.4869,0,2.36241,286.713,4153.43,-26522
1.16556e+08,9.93223,0,2.49837,94.2677,-710.724,-26840.2
1.17015e+08,40.8114,1,2.60976,-5566.87,-1737.76,-22483.2
1.17534e+08,133.542,0,2.52555,4029.33,-16381,-6172.25
1.17735e+08,74.9288,0,2.61481,-15370.2,2823.7,-26838.1
1.17998e+08,185.727,2,2.68617,-17822.7,-15546.2,2437.89
1.18042e+08,118.245,0,2.86344,24221.6,-2439.7,-23359.9
1.18045e+08,49.9536,2,2.78947,-8644.5,4459.56,-24816.9
1.18385e+08,141.271,1,2.62472,305.613,26790.6,-19730.5
1.18676e+08,14.9191,2,2.87008,-882.595,-1942.58,-26447.3
1.18682e+08,60.8405,1,2.80376,-12090.1,4135.35,-27129.3
1.18725e+08,39.8406,0,2.51158,3297.43,-5871.74,-25202.4
1.18774e+08,53.8889,1,2.55413,-8343.63,7865.69,-29799.5
1.18787e+08,36.0299,1,2.79699,-3806.68,4035.19,-23564.9
1.19108e+08,26.5958,2,2.71646,-4461.85,-281.66,-25352.7
1.19115e+08,144.966,1,2.54921,-18012.3,19752.2,-13757.2
1.19375e+08,44.6709,0,2.41647,9507.53,-676.517,-29562.1
1.19742e+08,69.0099,1,2.53426,-853.538,10694.9,-18842.7
1.19889e+08,171.643,0,2.57282,15613.2,2039.19,3866.74
1.20085e+08,26.8345,2,2.83027,-1017.81,-1843.3,-26206.4
1.20136e+08,29.2851,1,2.97956,-805.265,3771.82,-23994
1.20203e+08,31.9219,2,2.36276,2338.48,-6381.6,-28083.9
1.2024e+08,9.70981,2,2.88665,853.881,1216.82,-27511
1.20241e+08,6.93172,1,2.84094,-335.825,1448.97,-28457.8
1.2027e+08,211.754,0,2.73696,15069.1,12054,11406.7
1.20613e+08,138.787,1,2.50196,-10673.6,-24124,-16055
1.20782e+08,18.6802,2,2.95996,953.417,-3870.73,-29102.2
1.20845e+08,52.5405,2,2.65814,-4543.1,-5365.66,-20193
1.21006e+08,167.411,2,2.51154,-27539.3,-19075.5,-17160.5
1.21272e+08,51.9954,2,2.49486,-410.446,8441.48,-21856.7
1.21544e+08,75.6543,1,2.88449,8737.05,-3839.14,-16155.7
1.21873e+08,138.428,2,2.84431,28896.4,904.312,-25798.1
1.21914e+08,7.63405,2,2.44437,-606.465,1461.01,-28837.8
1.2206e+08,183.151,2,2.51321,23264.6,-13705.5,-1069.49
1.2216e+08,79.859,2,2.87244,-3448.6,-9520.31,-15376.5
1.2223e+08,21.1834,0,3.02532,3372.9,-3027.93,-29065.6
1.22292e+08,146.579,2,2.76471,6195.64,-24538.8,-11098.5
1.22347e+08,10.2896,0,2.63018,915.102,-1701.93,-27719
1.22365e+08,119.523,2,2.56949,-6930.12,-7367.42,-5660.32
1.2283e+08,47.5303,0,2.97303,3585.73,4455.96,-20628.9
1.22879e+08,87.2181,1,2.79944,3002.17,256.581,-17086.5
1.23139e+08,11.4472,1,2.36244,-2419.34,-521.593,-28996.5
1.23233e+08,249.867,2,2.62971,-25838.1,-6488.28,16683.8
1.23316e+08,17.8567,2,2.6038,-1407.19,2894.76,-26950.8
1.23369e+08,28.4105,2,2.95788,-2949.73,1193.84,-24764.2
1.23436e+08,53.7055,0,2.65656,4928.47,-188.196,-18576.9
1.238e+08,89.3684,1,2.63036,-12367.9,-5899.31,-15847.2
1.23807e+08,109.284,0,2.71715,13400.6,-5264.3,-10783.8
1.23879e+08,26.1455,2,2.83689,2667.73,4500.89,-27386.2
1.24067e+08,31.0412,2,2.71777,-1105.66,-3601.99,-23405
1.2428e+08,22.3312,1,2.63056,-3063.95,1845.99,-25668
1.24363e+08,27.8895,0,2.82577,4566.8,1967.59,-25601.5
1.24713e+08,180.594,2,2.64856,21854.4,-4983.37,1938.98
1.24763e+08,96.6526,1,2.63419,-17580.9,-10152.7,-26899.1
1.25089e+08,5.72472,2,2.72732,435.422,269.129,-27741.6
1.2519e+08,193.677,2,2.63503,-21584.8,-7034.58,5182.8
1.25584e+08,2.76089,1,2.99743,-105.366,240.487,-28266.8
1.25802e+08,20.4399,0,2.72627,2856.52,2320.48,-26490.7
1.25897e+08,219.244,2,3.02468,25509.9,9315.18,7660.37
1.25899e+08,8.828,1,3.01469,-181.17,495.652,-27029.6
1.25991e+08,127.342,1,2.99135,-17514.1,7363.67,-10030.1
1.26104e+08,29.5281,1,2.62398,-5237.06,2734.29,-26593.4
1.26164e+08,6.18705,0,2.48453,23.4417,1140.77,-28145.2
0,6.29219,0,2.65635,0,0,0
1.26293e+08,452.584,0,2.71168,660.241,11892.6,-4172.99
1.2663e+08,9.68042,1,2.97993,850.179,1903.02,-28733.4
1.26967e+08,7.33851,0,2.66084,912.109,-873.842,-27859.1
1.27014e+08,59.9839,2,2.51607,1596.24,423.481,-24494.1
1.27272e+08,110.429,2,2.74111,-7874.1,-15342.7,-17712.5
1.27286e+08,10.5304,1,3.04747,-442.544,2002.9,-29905.3
1.27516e+08,115.578,1,2.71012,5620.3,17245.9,-12500.6
1.28193e+08,181.143,1,2.54936,-29311.3,6645.69,-5021.34
1.28555e+08,185.746,1,2.53796,13481,19619.9,2422.85
1.29039e+08,133.062,1,2.68635,-16238.8,-21694.7,-21732.3
1.29178e+08,47.7595,0,2.9106,6821.9,4259.94,-22724.8
1.29592e+08,44.1272,1,3.00461,9179.14,-179.223,-28061.7
1.29826e+08,12.259,0,2.94327,-37.8437,-1923.19,-27128.2
1.30302e+08,60.097,2,2.79701,7884.87,-9906.5,-28151
1.30486e+08,23.951,0,2.78617,4655.62,1969.04,-27863.4
1.30558e+08,106.302,1,2.3685,-9898.48,16152.6,-16546.4
1.30565e+08,103.34,2,2.38277,-7721.59,-3274.32,-8628.58
1.30602e+08,38.0566,2,2.61111,1883.01,-66.3372,-27486.3
1.30964e+08,116.509,0,2.87706,-13639.2,8625.17,-10465
1.31005e+08,14.6639,1,2.81207,1486.85,2182.69,-27122.6
1.31314e+08,143.753,2,2.66382,17884.2,1297.81,-27800.8
1.31349e+08,34.3438,1,2.82904,-1307.89,6901.62,-26799.7
1.31548e+08,88.9085,1,2.94925,-17179.1,-7254.4,-27788.9
1.31819e+08,121.237,2,2.6837,-14190.9,-18784.8,-18707.7
1.32048e+08,47.3922,1,2.89407,4311.46,-2848.83,-20336.9
1.32053e+08,87.8504,0,2.99913,13465.4,8108.94,-19267.3
1.32305e+08,3.30824,2,2.64078,-207.853,-436.165,-28240
1.32699e+08,28.0262,1,2.4534,-4755.75,-304.211,-25244.2
1.32851e+08,50.123,2,2.81307,-8190.08,-890.074,-22161.2
1.32934e+08,116.599,2,3.0164,2184.88,-19046.6,-13586.5
1.33026e+08,60.8278,1,2.53229,-5962.72,4885.63,-18470.2
1.33049e+08,20.6089,1,2.4181,-4175.28,-518.43,-27455.6
1.33337e+08,128.315,2,2.75167,-19823.3,-11592.1,-14866.8
1.33514e+08,89.9421,0,2.48889,5109.08,-5340.09,-11269.5
1.33594e+08,21.4297,0,2.66714,2821.34,-2560.79,-26307.7
1.33645e+08,107.98,1,2.60451,3378.95,-11695.5,-9601.43
1.33655e+08,158.36,1,2.54959,1020.88,-16217.3,396.853
1.33931e+08,105.704,0,2.57413,19070.4,-3859.76,-17711.1
1.33948e+08,14.3057,2,2.76941,-411.958,-2120.33,-26633.3
1.34437e+08,62.3701,1,2.74979,-8787.96,3366.12,-19599.1
1.35074e+08,50.5488,2,2.54034,-3922.65,2833.25,-19291.9
1.35263e+08,122.904,0,2.55445,14237.8,5941.89,-7883.49
1.36346e+08,202.849,2,2.91613,-1213.36,-8395.68,-24461.3
1.36725e+08,3.65769,1,2.99071,-533.255,186.622,-28245.5
1.37027e+08,108.082,0,3.00347,11255.1,-1321.61,-13092.4
1.37036e+08,56.7381,0,2.60129,8623.52,-6147.1,-23133.2
1.37266e+08,69.1513,1,2.50766,2838.78,7861.03,-16821.1
1.37517e+08,52.3518,0,3.00521,-5693.58,6733.6,-22342.7
1.37563e+08,3.0481,1,2.53832,384.98,418.986,-28437.1
1.37578e+08,21.036,0,2.43689,-1801.22,-3724.33,-27222
1.3763e+08,211.065,0,3.03122,1154.76,-1149.74,-29451.8
1.37864e+08,36.7223,0,2.5717,2694.17,-4782.84,-23324.7
1.37996e+08,100.325,0,2.82835,-9392.48,18746.1,-26554.9
1.38086e+08,147.012,2,2.60236,-12460.5,-9469.4,-1964.73
1.38429e+08,47.0653,1,2.44733,-3977.58,-9071.26,-28453.3
1.38471e+08,44.6095,1,2.76256,987.332,8238.48,-24285.5
1.39137e+08,58.9177,2,2.63596,10580.6,1189.97,-22471.8
1.39172e+08,8.04576,1,2.41017,-1581.65,-187.988,-28097.8
1.39393e+08,15.8444,2,2.72694,-2159.78,-2662.19,-28413.4
1.3941e+08,11.2661,1,2.46907,-2383.26,-500.836,-29057
1.39747e+08,210.47,2,2.98209,-19231.8,-18378.9,6405.27
1.39787e+08,14.317,2,2.77109,351.969,-1239.48,-26091.6
1.3985e+08,26.6234,1,2.67511,3286.8,-743.821,-24394.4
1.39969e+08,53.7885,1,2.83377,1131.47,-9150.02,-22344.1
1.40382e+08,30.0094,1,2.60067,-3763.89,3709,-25182.8
1.41218e+08,41.9248,1,2.82728,-5077.53,7281.63,-28053.7
1.41565e+08,104.231,2,2.65858,-17270,-9907.97,-19386.8
1.41638e+08,120.109,1,2.89152,-4699.01,16015.1,-9891
1.4165e+08,50.6025,0,2.64892,-852.604,10033.9,-25320.1
1.41739e+08,96.3571,1,2.63794,-16289.6,-11844.8,-25997.4
1.41862e+08,1.8206,2,2.76588,-382.005,-255.346,-28761.7
0,1.70295,2,2.6661,0,0,0
0,1.78542,2,2.71569,0,0,0
1.41904e+08,92.5754,1,2.87637,-10259.6,3346.67,-12626.5
1.43048e+08,25.8852,0,2.98055,525.002,-5433.96,-28649.2
1.43093e+08,44.0596,2,3.04208,-7252.85,2083.26,-23451
1.43606e+08,37.8957,0,2.83696,6007.25,5340.26,-28569.6
1.4398e+08,43.1865,2,2.64932,-5887.87,-5964.15,-25064.3
1.44059e+08,111.964,0,2.9397,-10626.3,14484.2,-13740.7
1.44114e+08,137.084,0,2.52577,-2886.68,-21019.3,-9116.09
1.44252e+08,229.24,2,2.47016,-27142.6,-10175.3,8928.39
1.44317e+08,20.5164,0,2.38937,-334.57,-3860.8,-26875.7
1.44359e+08,108.955,1,2.51451,-10641.3,1342.89,-8413.81
1.44707e+08,21.9295,1,2.87426,-4621.8,779.843,-28525.6
1.44831e+08,3.6916,0,2.78791,727.537,271.834,-28440.6
1.45031e+08,27.3319,2,2.67165,3892.03,-134.504,-24588.4
1.45796e+08,1.68958,0,2.5754,352.78,193.52,-28683.2
1.46001e+08,232.131,1,2.43738,-21891.2,20592.7,10027.7
1.46072e+08,76.6283,1,2.45206,6620.4,-5892.38,-18987.5
1.46425e+08,14.2299,0,2.52209,1719.76,-445.455,-26334
1.46753e+08,112.898,2,2.708,20472.5,-8953.43,-20623.5
1.4679e+08,156.047,1,2.79774,-15740.2,24682.6,-13793.1
1.47028e+08,175.688,1,2.43988,-6085.68,-7133.36,-29724.9
1.47088e+08,77.8413,1,2.83286,677.697,-11416,-17464.5
1.47368e+08,23.1557,1,2.5788,-1324.55,3155.4,-25224.9
1.47639e+08,37.4217,2,2.55866,1087.96,-7727.69,-27160.1
1.47712e+08,164.022,1,2.75463,29089.9,8349,-12191.3
1.4808e+08,71.2058,1,2.85622,-739.989,8009.16,-16147.1
1.48137e+08,85.89,2,2.90193,10525.9,13742.4,-23947.5
1.48299e+08,168.055,0,2.62554,14172.8,21789.7,-4672.31
1.48443e+08,156.563,1,2.70696,8290.65,-12508.5,527.409
1.48522e+08,44.1791,2,2.70564,7900.37,-3217.8,-25035.3
1.48817e+08,136.828,0,2.93734,20245.2,8408.34,-10885.9
1.49012e+08,214.345,2,2.85797,-7595.26,-16756.3,12282.4
1.49599e+08,17.5845,2,2.59855,-2860.06,2302.14,-29506.1
1.49697e+08,129.777,2,2.72138,21320.9,-16953.9,-26119.2
1.49724e+08,128.118,0,2.63845,1721.68,-149.15,-27799.8
1.50204e+08,72.1613,2,3.02527,12714,-8187.25,-28127.3
1.50359e+08,88.2592,1,2.83941,-8344.51,-4821.08,-13023.9
1.50385e+08,180.314,1,2.51567,-21588.8,941.801,2612.24
1.50398e+08,93.5295,2,2.72947,15620.6,-2537.11,-17086.8
1.50527e+08,115.64,0,2.94428,7656.41,-304.642,-21279.6
1.50659e+08,50.2334,2,3.02868,-3688.59,-5664.2,-20674.9
1.5072e+08,173.248,0,2.58145,21481.4,-23854.7,-11154.5
1.50733e+08,75.8,1,2.36873,-4852.59,3157.78,-13828.7
1.50744e+08,31.6347,1,2.65737,-3141.72,5359.67,-26713.6
1.50996e+08,18.8767,2,2.39846,-93.6248,-1767.31,-25208.1
1.51499e+08,156.895,1,3.03741,1726.11,6146.43,-2698.21
1.51523e+08,81.575,1,2.90725,-4163.06,-9972.02,-15567
1.51676e+08,184.696,1,2.96053,-4349.5,4275.64,-28076.4
1.51874e+08,11.9866,0,2.71175,-854.726,-2144.94,-27795.5
1.52114e+08,41.289,0,3.04082,-5607.26,-5236.01,-24907
1.52165e+08,185.959,2,2.99843,-22160.8,-19544.6,-3426.44
1.52333e+08,95.1577,1,2.82297,3929.45,17436.5,-19663.3
1.52663e+08,21.2018,0,2.73092,2163.1,-2282.26,-25578.4
1.52768e+08,64.5048,0,2.69098,12282.9,-6073.31,-29141.6
1.52894e+08,20.4065,2,2.74654,3349.29,483.502,-26227.5
1.53627e+08,37.645,2,2.7219,-3235.16,-6034.07,-24641.1
1.53946e+08,90.6002,1,2.48016,17437.1,-1506.24,-21119.8
1.54541e+08,164.473,1,3.00788,-22940.9,-8301.76,-4449.36
1.54946e+08,67.9797,1,2.40707,-8761.81,11543.1,-28379.2
1.55096e+08,33.7531,2,2.42818,1176.61,-7113.54,-29349.3
1.55314e+08,157.303,2,2.71778,-6329.71,13469.2,777.154
1.55322e+08,72.213,0,2.88036,11056.8,6117.45,-28470.1
1.55356e+08,159.371,2,2.88798,-28527.7,-3730.92,-11599.5
1.55412e+08,208.939,1,2.54712,-2962.59,-28610.6,4629.58
1.55425e+08,7.8961,1,2.47158,-1217.47,1278.35,-28604
1.55789e+08,97.7476,0,2.91571,13001.4,-2858.6,-13165.1
1.5597e+08,12.3764,2,2.87421,44.2724,-1965.78,-27018.7
1.56671e+08,43.4475,1,2.9927,1138.32,8964.1,-27861.7
1.57057e+08,25.7388,2,3.03225,4512.69,-2968.84,-29254.1
1.57248e+08,71.4387,2,2.9958,-5367.95,11291.6,-28424.3
1.57363e+08,23.3769,1,2.88573,-1279.41,2973.44,-25042.4
1.57376e+08,22.5226,1,2.96693,-4331.79,2113.25,-28535.2
1.57801e+08,24.5833,0,3.02228,-1275.1,-4687.65,-27148.7
1.57818e+08,131.488,1,2.9334,8480.29,-18480.4,-10258.3
1.58279e+08,38.88,0,2.5819,7774.95,2783.76,-27771.7
1.58307e+08,55.1269,0,2.67403,6669.03,2635.61,-19605.7
1.58351e+08,10.9183,0,2.49026,1788.35,-935.405,-27559.8
1.58369e+08,51.0025,0,2.90598,6703.24,-393.682,-20409.9
1.58371e+08,128.555,0,2.51996,-4363.62,-25519.9,-20635.6
1.5838e+08,234.636,2,2.87883,1807.66,-842.509,-22050.3
1.58496e+08,105.268,1,3.02752,-16333.4,-2397.06,-25967.5
1.5856e+08,24.5539,0,3.0529,3666.07,-3618.27,-29790.3
1.58646e+08,89.1057,2,2.37818,4080.81,-11548.3,-14429.4
1.59108e+08,158.219,1,2.56307,-23513.8,3916.31,-5314.77
1.59142e+08,19.1947,1,2.5135,-2082.03,3233.3,-27236.8
1.59321e+08,45.1632,0,2.85385,6215.28,3277.22,-22368
1.59537e+08,20.5853,2,2.97622,-678.966,4021.28,-27525.9
1.59555e+08,30.2723,1,3.0159,1913.02,-2370.75,-23306.1
1.59634e+08,12.3451,2,2.82972,1605.62,1164.78,-27205.4
1.59794e+08,5.37932,0,2.82524,1198.35,289.846,-29031.2
1.60014e+08,119.5,0,2.97992,-2090.43,7672.97,-29345.6
1.60119e+08,68.8072,1,2.80588,-12674.9,-5838.22,-24884.1
1.60172e+08,53.579,1,2.53299,-5881.76,9798.33,-28482
1.6029e+08,9.10534,0,2.76274,245.184,858.284,-27097
1.60479e+08,3.37765,2,2.46872,-581.354,-308.735,-28416.5
1.60516e+08,87.6916,2,2.52783,14622.4,-11281.7,-27158.3
1.60764e+08,20.8086,2,2.86557,4068.57,-1432.56,-28113.6
1.61204e+08,91.6127,1,2.57086,-744.562,-12278.5,-13925.2
1.61487e+08,52.6907,2,2.76468,4972.4,-7440.9,-22240.2
1.61509e+08,164.359,0,2.36871,14212.3,-18301.8,-2852.55
1.61636e+08,51.3724,2,2.37758,4069.49,5712.39,-20580.4
1.61657e+08,43.1095,0,2.6549,4085.08,-1191.46,-20750.4
1.61831e+08,110.977,0,2.89659,12576.5,-137.39,-9141.57
1.62187e+08,90.3761,1,2.77146,-10232.9,15729.7,-25243.8
1.62228e+08,58.3931,1,2.86314,4580.06,7129.23,-19934.3
1.62251e+08,32.5817,0,2.54746,5297.32,4504.1,-28136.7
1.62263e+08,36.2066,1,2.8547,3333.88,6891.71,-28450.8
1.62265e+08,3.56572,1,2.41295,84.4597,-273.655,-28137.6
0,3.56746,1,2.37785,0,0,0
1.62328e+08,75.7568,2,2.63666,1659.79,15012.8,-23723.5
1.62533e+08,37.8431,0,2.74942,7769.55,1885.63,-27656
1.62553e+08,130.512,2,2.53201,-10447.8,11174.6,-5882.14
1.62663e+08,95.3453,2,2.84856,17122.5,-4332.33,-19350.1
1.6304e+08,11.1388,0,2.80814,-583.874,-1208.32,-26924.6
1.63056e+08,24.2878,0,2.66983,1928.28,1773.87,-24378.9
1.63192e+08,99.5639,2,2.67853,-3347.93,-6884.94,-21344.2
1.63404e+08,201.852,0,2.42327,18865.4,2318.18,9397.24
1.63519e+08,195.11,0,2.76016,-7056.7,23303.1,4254.35
1.63691e+08,21.4079,2,2.88162,-976.53,-1894.92,-24819.2
1.63965e+08,57.7133,2,3.0259,995.022,-9846.24,-21750.5
1.6542e+08,197.902,0,2.72962,15900.2,-27172.3,-1438.97
1.65769e+08,31.5793,2,2.83963,-6552.84,1041.11,-28139.8
1.65825e+08,100.194,1,2.84307,-4106.37,17637.5,-17924.6
1.65982e+08,117.257,2,2.44915,-23185.8,-6052.28,-22141.8
1.66021e+08,29.203,1,2.9411,-4139.34,4634.52,-29470.4
1.66133e+08,8.04311,0,2.50512,1159.52,-391.644,-27552.4
1.66214e+08,99.7903,0,2.67807,2267.43,-12861.8,-12298.9
1.66894e+08,82.0771,0,2.44259,-3321.16,-12963.5,-17763.1
1.67069e+08,110.886,2,2.70997,3021.68,-22929.2,-24929.5
1.67113e+08,25.2201,0,2.97457,1618.74,-5082.91,-28495.4
1.67149e+08,24.5469,1,2.86753,-3106.46,3946.78,-27277.4
1.67286e+08,12.2984,1,3.02682,-2034.34,421.894,-27221.2
1.67695e+08,118.78,0,2.89769,14865.3,-17736.1,-19394.8
1.67944e+08,4.81323,1,2.8642,-637.881,896.793,-28834.1
1.68067e+08,55.0658,0,2.72206,9635.12,1369.55,-22382.9
1.68117e+08,218.591,2,2.71787,16952.7,9681.71,12865.1
1.68123e+08,9.19459,1,2.6411,-243.978,1550.57,-27551
0,9.29733,1,2.80193,0,0,0
1.68231e+08,24.8251,1,2.43436,3321.53,-1434.84,-25054
1.68408e+08,70.9782,0,3.05493,4713.16,12192.7,-21708.7
1.68465e+08,59.5265,2,2.46461,-5684.17,496.009,-17570.6
1.69085e+08,63.5737,1,2.92341,9292.71,9612.59,-27934.8
1.69093e+08,63.489,2,2.53346,-12588,-2374.07,-24567.9
1.69393e+08,11.8596,1,2.96887,-2548.62,194.326,-29176.6
1.6992e+08,93.3668,1,2.43832,2714.5,18253.4,-21556.3
1.69951e+08,98.3434,2,2.55805,9531.74,-325.284,-10378.6
1.70018e+08,163.022,2,2.69192,8250.04,-13384.4,1753.02
1.70061e+08,49.1743,2,2.92359,564.8,-7774.86,-21991.8
1.70477e+08,43.8663,0,2.8864,7754.1,-4681.77,-26852.2
1.70811e+08,15.6178,1,2.86579,1802.15,551.819,-26133.8
1.71082e+08,104.549,1,3.05319,-739.925,11391.4,-10108.3
1.71166e+08,36.1541,2,2.76838,-2915.78,-4511.09,-23336.4
1.71503e+08,147.918,0,2.97251,-19767.8,9515.78,-6962.85
1.7163e+08,176.128,0,2.65601,26024.7,-9978.29,-4180.6
1.71959e+08,112.545,1,2.51522,17022.1,16635.3,-28063.3
1.7197e+08,13.0611,1,2.56593,-2614.35,-797.841,-29534
1.72049e+08,185.438,2,2.57911,-25226.4,-12517.5,-1564.17
1.72204e+08,145.619,0,2.53125,-3484.88,-223.728,-14928.7
1.72542e+08,182.291,2,2.60536,14757.4,-26450,-5032.54
1.72684e+08,106.718,0,2.64669,17930.3,123.016,-15090.3
1.72783e+08,69.3828,0,2.94926,957.504,-8848.92,-17287.1
1.73083e+08,32.7004,1,2.77643,-6618.89,293.181,-26699.6
1.73269e+08,37.4905,0,2.92337,-4411.89,6218.49,-27014.1
1.7401e+08,93.6263,1,3.03045,12707.7,-187.745,-13910.7
1.74387e+08,43.9867,2,2.67004,657.232,-9331.55,-28711.6
1.75193e+08,120.167,0,2.58747,18764.6,-17206,-28972.5
1.75556e+08,64.9456,2,3.02916,580.069,5836.95,-16598.3
1.75622e+08,54.9615,0,2.93722,2259.99,11282.6,-27529.9
1.75748e+08,41.7351,1,2.82053,586.545,677.385,-28635.1
1.75916e+08,109.779,0,2.89028,-20548.8,-7893.73,-22202.2
1.7638e+08,23.4406,0,2.89689,640.464,-4334.5,-26695.8
1.76526e+08,272.317,0,2.92619,-13675.1,-29727.8,18009.3
1.7658e+08,164.536,0,2.59764,28151.3,-338.555,-8326.88
1.76647e+08,65.0366,0,3.03388,6746.47,-2346.28,-17161.9
1.77042e+08,134.494,0,2.80455,-6083.98,-22372.5,-12630.2
1.77411e+08,12.5868,0,2.70283,1839.44,1522.8,-27531.9
1.77515e+08,73.9355,0,2.42185,-7419.88,-12562.1,-23214.8
1.77785e+08,16.1504,1,2.65756,-2405.12,-1440.08,-26838.4
1.78183e+08,145.529,1,2.62246,13335.6,15257.2,-5719.77
1.78249e+08,55.8388,1,2.58325,357.812,7636.61,-19771.3
1.78975e+08,283.592,1,3.00634,20465.4,12415.1,-1279.89
1.79139e+08,184.472,0,2.88601,13420.4,18523.1,2484.57
1.79428e+08,29.4584,1,3.02364,-1826.46,-5691.13,-27360.5
1.79455e+08,54.5921,1,2.78391,-11545.3,634.464,-28492.2
1.80069e+08,42.3751,0,2.39924,6043.92,-2148.26,-22489.7
1.80266e+08,2.50022,1,2.97521,-470.107,349.629,-28628.9
0,2.84432,2,2.78958,0,0,0
1.80285e+08,51.5402,1,2.84032,8155.63,-5270.96,-24140
1.80472e+08,26.9663,0,3.05716,-1875.44,3642.58,-26493.4
1.80494e+08,14.2976,1,2.91599,-2059.78,416.214,-26608.9
1.80535e+08,131.736,1,2.39961,-5620.74,13539.6,-5074.07
1.80918e+08,219.904,2,2.62778,-25776.4,-27350.4,-1505.78
1.8112e+08,68.4108,2,2.68802,-9362.65,4087.05,-18604.4
1.81131e+08,27.6058,2,2.73921,1399.39,-4265.18,-25033.7
1.81551e+08,85.5932,2,2.51165,-5086.92,-10730,-15087.3
1.82228e+08,82.2221,1,2.43873,2946.25,-13403.6,-18268.8
1.8231e+08,57.8821,1,3.06019,-4187.78,6794.43,-19617.8
1.82653e+08,95.9202,2,2.60476,-14956.9,-8597.95,-18069.7
1.82761e+08,128.265,2,2.7018,-13729.6,-4013.26,-5876.56
1.8285e+08,76.9622,0,2.78489,6118.48,-14727.4,-25749.5
1.82862e+08,57.1401,0,2.89169,1185.91,11883.6,-27340.7
1.83242e+08,66.3613,0,2.70035,11528.8,2460.77,-21134.6
1.8328e+08,13.6989,1,2.98256,2176.18,-251.544,-27011.2
1.83292e+08,102.28,1,2.36198,-8543.96,19943.4,-27192.6
1.83411e+08,163.09,1,2.75358,13035.9,28534.9,-14786
1.83546e+08,69.3316,1,3.0308,-5263.61,13293.6,-25747.5
1.83683e+08,185.019,2,2.97288,-207.866,-20687.5,4022.52
1.83694e+08,34.5269,1,2.75359,-4229.84,-3769.69,-24265.8
1.8425e+08,4.05379,1,2.75145,-523.795,-78.0566,-28121.5
1.84702e+08,7.7012,1,2.96529,-1310.45,1077.84,-28655.4
1.85032e+08,89.2158,2,2.75946,2277.59,-16600.1,-20167.9
1.85961e+08,24.5743,0,2.48179,2468.03,453.227,-24234.1
1.85966e+08,16.0988,1,2.73998,1990.21,2815.57,-28794.5
1.86135e+08,66.5544,2,2.67778,-5168.15,5394.04,-16945.2
1.86357e+08,30.1696,0,3.03036,-586.854,2912.63,-23265.3
1.86421e+08,45.0587,0,2.92481,4124.63,-8370.87,-26957
1.8722e+08,201.985,1,2.86847,-16696.2,-12608,8096.37
1.87271e+08,5.4025,0,2.45378,-163.365,861.571,-28068.5
1.87456e+08,94.7355,0,2.7667,15685.9,3781.79,-16988.4
1.87558e+08,79.2558,0,2.64877,8247.37,-7875.48,-16519
1.87873e+08,140.002,2,2.39806,-2014.91,-12013.2,-1793.15
1.87977e+08,38.009,1,2.45289,-4585.75,-2657.08,-22750.8
1.88225e+08,43.9202,0,3.02055,-2786.36,-5423.03,-21956.9
1.88269e+08,2.83193,1,2.60257,-197.748,326.676,-28287.7
0,2.82429,1,2.36676,0,0,0
1.88321e+08,102.199,2,2.91364,16543.1,-2138.73,-15344
1.88485e+08,46.5008,2,2.51393,-5797.67,-1807.51,-21033
1.88511e+08,96.1852,0,2.58182,17606.8,-6832.11,-21121.2
1.89001e+08,32.0823,1,2.47388,-3954.26,-2975.37,-24176.1
1.89023e+08,40.8106,1,2.7989,8014.75,-1585.26,-26291
1.89059e+08,77.9277,0,2.54806,12400,-4922.08,-19056.7
1.89156e+08,128.452,0,2.93774,17610.6,3376.63,-17174.1
1.89477e+08,34.2379,1,2.93746,-3095.24,-3474.43,-23343.3
1.89667e+08,131.358,2,2.76604,-13962.1,22858.3,-22120.9
1.89762e+08,50.2916,2,2.64292,-5057.62,6654.75,-22300.5
1.90093e+08,63.7228,0,2.86754,5802.25,-8227,-26271.1
1.90279e+08,8.40542,0,2.88487,1024.11,1525.81,-28645.5
1.90538e+08,155.92,2,2.45557,26233.5,-14445.5,-15020.7
1.90554e+08,154.49,1,2.9026,-6762.93,24146.9,-8175.08
1.90573e+08,249.81,0,2.93746,-20263.3,-14038.2,-16509
1.91253e+08,77.149,2,2.40575,-1965.68,-15820.9,-24930.5
1.91521e+08,89.509,0,2.81324,7369.22,-17331.6,-27291.7
1.91576e+08,8.2893,1,2.44088,-1207.16,1253.53,-29491.5
1.92656e+08,174.672,2,2.99426,2603.81,-13369.8,-20568.3
1.92767e+08,17.3559,2,2.3872,-1401.57,-519.904,-25429.4
1.93245e+08,130.307,1,3.04044,4994.12,16261.8,-7441.57
1.93387e+08,128.377,1,2.78403,11814.1,23839.2,-23755.4
1.93408e+08,42.038,0,2.58311,7344.59,2578.55,-24374.3
1.9343e+08,25.8437,1,2.87678,736.289,4853.09,-26326.8
0,25.6839,1,2.3773,0,0,0
1.93688e+08,29.3989,2,3.0485,-4356.65,-554.36,-24449.5
1.93826e+08,12.3228,1,2.46099,-2212.1,1447.07,-29323.4
1.93891e+08,252.908,2,2.52553,16389.7,-27284,14148.7
1.94256e+08,91.4276,0,2.48594,7155.77,-2550.23,-11011.1
1.94624e+08,17.2935,1,3.04706,-3273.86,-356.033,-27230.2
1.94655e+08,62.9769,1,2.48984,-2444.1,10317.2,-20672.6
1.94674e+08,34.6867,0,2.91681,-4168.44,3040.14,-23720.5
1.94762e+08,112.444,2,3.02983,19717.6,2358.79,-16257
1.94802e+08,10.0739,1,2.73773,-2163.07,2.96577,-28469.5
1.94961e+08,40.8597,2,2.99484,-4282.1,1595.18,-21579
1.95027e+08,20.7768,0,2.76156,-483.437,4220.4,-27721.3
1.95079e+08,100.123,1,2.64699,11430.6,4943.53,-11761.2
1.95119e+08,28.2641,0,2.81478,3328.76,896.534,-23913.3
1.95168e+08,83.7983,2,2.58968,-7861.62,-3988.81,-13425.3
1.95567e+08,50.6919,2,2.94363,6693.51,-7830.22,-25964.5
1.95879e+08,150.256,1,2.42447,-10288.9,10335.1,-544.262
1.96271e+08,64.066,2,2.78731,-12746.3,3820.36,-26374.6
1.96875e+08,82.553,0,2.86067,-10882.6,7965.21,-17965.2
1.97597e+08,0.814592,1,3.02239,-6.58663,248.721,-28889.9
0,0.679928,1,2.63534,0,0,0
0,0.71128,1,2.43065,0,0,0
1.98395e+08,126.743,1,2.51274,-24887.4,9088.99,-24588.4
1.98599e+08,91.5007,1,2.71034,5931.91,-6882.16,-11849.2
1.98806e+08,37.0022,1,2.60859,-5995.44,2738.32,-24491.1
1.98894e+08,141.056,0,2.60129,22424.7,19363.8,-27507.1
1.98906e+08,30.7802,1,3.03889,1879.97,5978.33,-27056.7
1.99163e+08,9.8377,1,2.88462,936.048,-302.618,-27038.6
1.99364e+08,23.3242,1,2.79874,3699.94,3187.6,-28053.6
1.99397e+08,15.3752,1,2.90098,2682.32,1733.43,-28210.7
2.00065e+08,188.912,1,2.75997,-27840.3,-6099.87,-1055.14
2.00423e+08,10.9183,1,2.58019,-2284.29,553.195,-28341.4
2.00644e+08,24.4421,2,3.0503,-3355.81,-1438.11,-25202.5
2.0112e+08,118.614,2,2.69356,-11186.1,12171.3,-10079.2
2.01429e+08,35.9136,2,2.5307,-5243.68,-3017.18,-24137
2.01522e+08,84.7575,1,2.54368,6102.23,14522.3,-20171.2
2.01561e+08,17.3782,0,2.40961,-1228.39,1441.36,-25690.4
2.02166e+08,169.028,2,2.68212,-23186.5,-18645.8,-10114.3
2.02272e+08,29.4796,1,3.03834,-1045.37,3290.25,-23641.1
2.02573e+08,55.7932,2,3.00216,-10233,-4117.94,-24798.8
2.02603e+08,70.4135,1,2.71669,9753.56,11119.2,-27081.6
2.02953e+08,87.6227,0,2.8607,6968.59,-13594.9,-18492
2.03142e+08,168.378,1,2.8831,12055.1,-23658.3,-5551.93
2.03482e+08,67.1233,2,2.59484,389.989,7552.05,-19445.5
2.03785e+08,306.454,1,2.44462,-2705.61,28479.6,29350.3
2.03804e+08,92.6921,2,2.89439,-11577.8,464.16,-13136.8
2.03883e+08,6.23612,2,2.67802,-948.321,-1066.44,-28733.2
2.04022e+08,118.938,1,2.5443,-4815.75,-15241.5,-9464.71
2.04267e+08,64.3486,1,2.78855,-12403.6,739.46,-23392.2
2.04271e+08,63.0287,2,2.88691,-10631,7772.39,-27325.7
2.04279e+08,108.175,2,3.02622,-4670.28,-8993.55,-8528.91
2.04481e+08,157.199,0,2.64194,18422.3,-2721.48,-1328.2
2.04598e+08,27.0876,0,2.4447,3559.46,4224.78,-27130.1
2.04835e+08,31.7571,2,2.70372,-230.882,-780.846,-28172.1
2.05173e+08,28.6737,2,2.3826,-242.58,-2384.44,-23219.4
2.05307e+08,5.89848,1,2.70589,-1219.02,-445.243,-28851.2
2.05318e+08,62.7945,1,2.51606,-6820.08,2291.99,-17629.5
2.05551e+08,100.277,1,2.43962,-20753.4,-614.598,-24274.4
2.05645e+08,132.336,0,3.04256,16367.8,16748.1,-13911.6
2.05843e+08,84.7774,1,2.75384,-14277.2,-6377.94,-28185.2
2.06675e+08,55.6784,2,2.40763,-803.428,-8573.58,-20690.9
2.06726e+08,42.4421,2,2.68738,5147.14,-4270.8,-22850.7
2.06808e+08,228.819,0,2.93169,17324.3,-19152,-7787.4
2.06993e+08,85.2377,2,2.69058,12158.8,-2488.72,-15840.7
2.0743e+08,72.3172,2,2.93557,-11866,8453.13,-24499.8
2.07451e+08,90.4049,0,2.98233,2713.43,-8543.8,-12109.3
2.07514e+08,4.76813,0,2.69242,-356.222,950.848,-28802.9
0,4.80689,0,2.8394,0,0,0
2.07683e+08,63.4774,1,2.59402,-5969.14,11782.4,-25995.6
2.07784e+08,2.91949,2,2.82688,-621.265,-141.992,-28550.5
2.08439e+08,51.7939,0,2.82346,333.236,7820.87,-21272.5
2.08591e+08,28.5961,1,2.85792,4122.09,3578.79,-26198.8
2.09259e+08,150.325,0,3.05355,-3004.21,15755.9,-1780.92
2.09615e+08,14.4097,1,2.80986,-1922.37,357.291,-26442.3
2.09661e+08,98.8675,2,3.03732,-11226.6,7400.02,-13073.9
2.09675e+08,74.6838,1,2.73133,5942.91,8251.94,-16768.8
2.09821e+08,107.351,1,3.02239,-14218.3,11461.2,-17459.8
2.10022e+08,79.0271,0,2.85062,107.325,12911.6,-19966
2.10143e+08,16.5928,0,2.78187,-1974.6,1985.32,-26768.1
2.10284e+08,50.8769,1,2.71099,-8301.29,-299.386,-23065.2
2.10589e+08,4.82159,1,3.04982,-678.539,-745.863,-28685.6
2.10623e+08,6.95131,0,2.40588,-88.916,-965.333,-27698.7
2.10655e+08,100.943,1,2.43729,-14025.1,-3422.49,-13059.9
2.10879e+08,53.1893,0,2.86325,-342.607,-5789.98,-19266.8
2.11072e+08,19.4876,0,2.63611,2336.02,-369.071,-25403.6
2.11242e+08,11.2198,1,2.81136,-533.666,2352.42,-28304
2.11258e+08,72.1671,0,2.37819,12408.8,7431.88,-23676.9
2.11354e+08,19.9635,0,2.65276,2422.07,-128.186,-25306.9
2.11484e+08,107.386,0,2.47383,13092,9250.54,-14488.2
2.11499e+08,44.6842,2,2.79092,-4251.84,-7469.01,-24836.7
2.11518e+08,14.7243,0,2.95642,3085.44,-474.673,-28596.5
2.11708e+08,3.50026,2,2.80005,-144.064,-569.305,-28297.7
2.12094e+08,74.8573,0,2.58822,-9523.02,-385.261,-18288.3
2.12832e+08,17.4952,2,2.36451,-1306.24,2902.9,-27000.4
2.13073e+08,150.276,1,2.55161,-26217.1,-10048,-13939
2.13166e+08,222.891,0,2.70419,28654.4,-2357.52,8364.1
2.13199e+08,84.8995,1,2.40367,-6559.61,6841.46,-13515.2
2.13509e+08,26.4988,1,2.91553,208.29,-5324.4,-27380.3
2.13696e+08,75.0315,1,2.82326,-8777.26,10704.9,-21089.3
2.13796e+08,61.7708,0,2.5598,-10725.5,6664.78,-25718.8
2.13826e+08,118.353,0,2.94579,4952.79,9845.15,-6582.01
2.13998e+08,33.1597,1,2.93118,2891.33,-1281.52,-22669.7
2.14065e+08,21.9232,0,2.45574,4253.34,-1005.42,-27061
2.14183e+08,79.3044,1,2.5628,-6881.01,1912.84,-13640.5
2.14215e+08,18.7644,2,2.76746,3253.82,-690.952,-26733.3
0,18.775,2,2.87391,0,0,0
2.14259e+08,152.307,0,2.56203,3218.02,25433.2,-9337.82
2.14401e+08,55.1005,1,2.6799,4820.09,-6216.23,-20328.9
2.14474e+08,277.295,2,2.91388,-644.657,-679.292,-28910.8
2.14777e+08,12.8488,1,2.4628,1760,871.327,-26928
0,12.8564,1,2.46865,0,0,0
2.14894e+08,59.029,0,2.42919,-4316.17,-10747.4,-24176.8
2.1524e+08,13.3161,2,2.82982,1663.77,1310.28,-27073.7
2.15327e+08,38.4159,2,2.8468,3518.87,3456.24,-22467.9
2.15352e+08,5.54507,0,2.38151,1145.94,552.713,-28894.5
2.15634e+08,16.7912,1,2.96169,1115.44,3121.41,-27476.3
2.15803e+08,9.82018,2,2.36837,-1418.01,1504.7,-28883.1
2.15822e+08,84.0819,2,2.72905,-3340.02,-16600.6,-23351.4
2.16042e+08,8.67041,2,2.51368,173.693,-1695.03,-27962.9
0,8.67946,2,2.74003,0,0,0
2.16111e+08,20.9248,0,2.4506,1352.41,-1527.65,-24850.4
2.16205e+08,71.4953,1,2.38721,-14341.7,438.632,-23841.6
2.16395e+08,99.0299,0,2.43931,8706.75,6430.58,-10849.3
2.16692e+08,34.8212,2,2.99134,454.575,-6267.94,-24989.8
2.16761e+08,66.2179,1,2.37394,-9915.56,3426.19,-19450.3
2.16915e+08,48.4734,1,2.62834,-6330.69,4454.85,-22074.5
2.17289e+08,35.8208,2,2.87591,-3711.6,-2825.19,-22842.5
2.17364e+08,119.89,1,2.54736,-14247,-15908,-15207.3
2.17615e+08,0.988019,0,2.78819,20.187,-127.657,-28640.9
2.18161e+08,12.6459,0,2.43029,-1234.69,1576.79,-27109.2
2.18207e+08,87.5856,2,2.5983,-9177.28,-11089.3,-17097.8
2.1831e+08,24.4954,1,2.45626,988.816,3423.77,-25010.6
2.1845e+08,19.9448,1,2.80317,-3810.55,1936.27,-28984.6
2.18666e+08,42.3428,0,2.42272,-7291.53,-2370.93,-24331.9
2.1884e+08,12.6353,2,2.54862,870.82,-828.19,-26458.3
2.19368e+08,169.546,0,2.6031,-9222.22,16251.1,1693.25
2.19684e+08,9.41425,1,2.45736,-584.433,1370.75,-27397.6
2.19918e+08,167.709,0,2.66864,20353,5344.52,-330.891
2.20099e+08,181.755,2,2.72649,29897.4,-20320.1,-16206.8
2.20143e+08,39.7658,0,2.4494,-3302.52,-1380.68,-21245.5
2.20389e+08,42.4982,2,3.03293,-498.146,-2875.32,-21223.4
2.20461e+08,87.9502,1,2.73926,3398.12,11946.2,-15059.2
2.20554e+08,182.708,1,2.8357,27129.6,24186.8,-16300.1
2.20945e+08,182.919,2,2.87798,-16179.6,25242.1,-28336.6
2.21172e+08,20.9008,2,2.43491,3357.95,-2895.51,-28615.8
2.21433e+08,17.4246,1,2.58228,3231.63,1045.43,-27370
2.2166e+08,3.3783,1,3.06135,-527.394,613.915,-28811.9
2.21711e+08,74.1546,2,2.90427,-14037.2,4518.55,-23691.1
2.21719e+08,89.9533,0,2.75801,15898,-10440.1,-28313.4
2.21727e+08,14.7401,0,2.37879,2010.56,862.188,-26513.5
2.2188e+08,63.1788,1,2.4848,934.454,-9126.08,-19186.3
2.22194e+08,32.5705,1,2.4281,-2724.49,6339.05,-27607.9
2.22262e+08,90.773,2,2.95102,-9285.75,1226.1,-23675.5
2.22593e+08,13.9201,1,2.36772,-2342.47,1110.06,-27262.5
2.22724e+08,165.023,2,2.77743,-872.401,-24304,-4112.55
2.22818e+08,86.7666,0,2.8464,7058.21,-3511.2,-12350
2.22962e+08,123.629,0,2.71544,-19444.2,-3087.71,-11871.8
2.23103e+08,9.15911,0,2.81634,209.154,-568.333,-26982.4
2.23337e+08,49.2287,1,2.50503,-2180,-4658.94,-19820.1
2.23466e+08,35.9844,2,2.49295,-1186.36,3987.04,-22479.2
2.23521e+08,10.971,1,2.9656,-1194.9,1513.91,-27436.2
2.24075e+08,59.1637,1,2.96995,-4896.62,-6637.07,-19592.9
2.2414e+08,81.7675,1,3.05227,-7225.42,10818.1,-17575.5
2.24242e+08,219.389,1,2.81608,12923.9,-27255.8,6027.36
2.24391e+08,83.5536,2,2.43411,-13343,-9652.89,-22156.6
2.24448e+08,140.898,1,2.66254,-10510.2,25679.9,-18020.4
2.24488e+08,100.691,1,2.61789,911.586,14734,-13483.3
2.24624e+08,177.393,2,2.96474,1703.81,-19072.7,3103.14
2.24693e+08,84.9935,1,2.5194,3548.43,-15326.8,-20263.3
2.24984e+08,41.7772,2,3.02629,2256.71,-6268.54,-23584.1
2.25103e+08,13.0938,1,2.39464,-2294.42,1754.03,-28980.1
2.25125e+08,44.4522,2,2.42863,8218,-4599.6,-28401.1
2.26235e+08,52.1778,1,2.59004,-4355.45,9791.51,-25820.7
2.26802e+08,139.199,0,2.53849,-27108.5,-7398.38,-20333.5
2.26841e+08,25.8411,2,2.37108,2347.29,-1391.89,-24085
2.27039e+08,76.4758,2,2.40616,10454.4,9956.47,-21642.8
2.27289e+08,75.6212,2,2.99171,-11195.1,-5659.28,-19028.8
2.27743e+08,24.3767,0,2.68165,-1229.42,-4241.26,-26260.6
2.27846e+08,137.724,1,2.79396,9523.15,26906.3,-23413.2
2.2785e+08,62.2904,2,2.68021,5832.62,-11606.7,-26423.7
2.27858e+08,10.7192,2,2.64832,-244.673,-2115.11,-29862.7
2.27904e+08,89.4206,0,2.67823,10337.8,14009.2,-21422.3
2.28069e+08,128.529,2,2.96272,7642.26,-18523.6,-10720.8
2.28237e+08,5.26145,1,2.66659,-1144.71,219.002,-29095.1
2.28285e+08,6.30799,1,2.57897,-773.295,874.604,-28056.4
2.28676e+08,42.7666,1,2.70348,-2412.31,-1106.46,-21215.6
2.28804e+08,62.0059,0,2.96337,9503.92,7285.33,-23560.1
2.28848e+08,148.336,2,2.38731,-12282.7,-1990.88,10.6192
2.2898e+08,75.6433,2,2.56438,15683.8,1180.9,-26134.8
2.29051e+08,26.1089,0,2.91201,4505.27,58.156,-25567.9
2.29151e+08,33.5326,1,3.04649,4431.46,2430.79,-23934.7
2.29284e+08,61.8111,1,2.46397,-1824.27,-5339.95,-17043.4
2.29291e+08,110.615,0,2.81611,17546,-13827.3,-22104.3
2.29897e+08,28.6734,0,2.81735,5472.34,680.93,-26182.1
2.30438e+08,117.555,0,2.39147,-15638.4,17196.2,-20041.9
2.30745e+08,41.3112,1,2.43519,-1033.75,6898.88,-23446.2
2.30952e+08,155.689,2,2.56075,27199.9,4541.73,-10980.9
2.3102e+08,122.797,1,2.52808,11398,13926.8,-10070.7
2.31205e+08,110.942,2,2.46707,-11598.8,4116.2,-8830.87
2.31255e+08,162.762,0,3.01061,13611.8,22170.9,-6719.78
2.31436e+08,173.848,1,2.53506,7417.41,-19830.9,1138.89
2.31568e+08,5.97283,0,2.49045,-684.276,728.771,-28095.6
2.31715e+08,21.2341,2,2.93826,-2947.84,-447.85,-25462.6
2.31848e+08,47.6685,0,2.93846,-1804.73,-9661.8,-26900
2.31897e+08,5.71964,2,2.54369,-1216.08,271.619,-29046.8
2.31989e+08,15.9182,0,2.41283,-1846.24,-1355.37,-26418.2
2.32197e+08,70.7435,0,2.46545,9788.36,-7295.22,-20048.7
2.32263e+08,9.17483,0,2.8541,-1679.53,336.611,-28101.9
2.32296e+08,19.7356,2,2.66174,-177.336,-4224.2,-29485.1
2.32423e+08,103.292,2,2.52552,-16839.5,-12740.7,-23009.6
2.3254e+08,204.672,0,2.46965,23664.9,-7488.05,6664.82
2.32669e+08,110.938,2,2.7113,9393.86,-9077.62,-12603.5
2.32845e+08,138.257,0,2.38513,-1314.53,11584.7,-1987.6
2.33699e+08,0.712493,1,2.85892,47.0005,168.759,-28711.7
2.34404e+08,55.654,2,2.71004,3356.21,4086.05,-18398.6
2.34629e+08,28.112,1,2.98221,-3333.87,4966.12,-29475.5
2.34743e+08,20.7141,2,2.97066,1173.46,-2640.68,-25514.2
2.34809e+08,30.494,1,2.55416,4742.01,-3009.16,-25776.9
2.34902e+08,37.8531,0,3.0086,3370.91,-4808.45,-23407.1
2.34908e+08,11.4497,0,2.74081,1057.98,-2233.92,-28708.7
2.3491e+08,17.1021,0,2.82796,3000.35,2151.84,-28795.2
2.35105e+08,38.5155,0,2.54568,7374.25,2424.22,-26094.1
2.35304e+08,201.521,1,2.95735,-23350.4,-22941,-2123.99
2.35469e+08,95.7021,0,2.81174,16669.1,-2033.07,-17582.7
2.35761e+08,22.451,0,2.7301,3563.58,-1305.44,-25875.2
2.35807e+08,120.571,0,2.5568,12427.8,11316.3,-9614.06
2.35971e+08,61.0614,2,2.96892,6484.57,-10535.9,-25321.2
2.3685e+08,73.6169,0,2.62655,13879.8,-1938.47,-21907.3
2.36887e+08,26.3377,1,2.49817,-2941.79,-3911.08,-26189.6
2.36999e+08,2.02479,1,2.65267,-68.1063,498.153,-28942.7
2.37001e+08,72.4014,0,3.01524,3503.55,11941.1,-20107.7
2.37213e+08,49.5488,0,2.44459,4953.55,3288.34,-20135.9
2.37883e+08,33.7236,1,2.89372,5667.51,2124.99,-25120.2
2.37951e+08,23.368,0,2.45279,1676.42,-1470.26,-24371.9
2.38167e+08,2.0073,1,2.57821,355.805,185.989,-28703.7
2.38573e+08,170.951,2,2.76076,21334.4,-5924.25,-466.647
2.38889e+08,24.329,0,2.64101,-293.627,-2076.09,-24147
2.39339e+08,134.774,1,2.92631,-10261.4,-14211.3,-6632.36
2.39483e+08,21.3147,1,2.86555,-44.7989,3341.58,-25751.2
2.39703e+08,6.65453,2,2.69763,-1100.76,-887.655,-28329.2
2.39852e+08,62.9395,2,2.55242,-7670.65,-3686.9,-18534.2
2.39922e+08,45.4967,1,2.85515,7459.62,-1296.72,-23031.7
2.40157e+08,113.106,1,2.99125,-661.359,23021.9,-22828.9
2.40453e+08,0.196346,2,3.29261,-26.7834,-73.6518,-28823.5
0,0.173141,2,3.7779,0,0,0
0,0.172785,2,3.35688,0,0,0
0,0.231858,2,3.19824,0,0,0
0,0.19189,2,2.78319,0,0,0
0,0.185554,2,2.4799,0,0,0
0,0.183098,2,3.75179,0,0,0
0,0.205571,2,3.75217,0,0,0
0,0.167975,2,3.63473,0,0,0
0,0.219596,2,2.66095,0,0,0
0,0.174327,2,3.09619,0,0,0
2.40494e+08,32.371,2,2.49932,-1325.61,-3514.91,-23033.5
2.40575e+08,83.8287,1,2.96809,4948.6,16760.6,-26488
2.40609e+08,44.1284,0,2.82013,8845.83,-2417.32,-26847.7
2.40901e+08,240.688,0,2.70049,-25587.4,25000.9,-27537.6
2.40972e+08,27.3581,1,2.54941,-2802.91,-1073.04,-23877.5
2.41073e+08,55.6849,1,3.04685,-4408.23,10885.5,-28852.1
2.41148e+08,54.7154,0,2.43278,11647.1,-55.4159,-29572.9
2.41296e+08,47.4767,0,2.37496,4743.25,6544.62,-22759.9
2.41318e+08,197.715,1,2.83018,24047.2,-3295.07,-8870.27
2.4142e+08,29.2474,1,2.36545,-4511.1,1352.89,-24741.5
2.42113e+08,77.1869,1,2.85109,2776.64,-8601.93,-15417
2.42882e+08,110.938,2,2.53915,16488.1,-7371.16,-13856.9
2.42953e+08,50.1348,2,2.38104,9371.14,-2116.7,-24364.2
2.43138e+08,387.514,1,2.78957,-17983.1,28799.8,-12859.3
2.43227e+08,60.4589,2,2.78184,-9643.64,6164.38,-23200.1
2.43362e+08,63.6427,1,2.83613,-8649.95,-1177.88,-18636.6
2.43662e+08,28.471,2,2.70353,-4053.5,-4002.58,-26684.6
2.44432e+08,16.7924,0,2.50303,1155.89,3152.13,-27549.8
2.44939e+08,29.3435,1,3.00442,927.151,3620.91,-23917.8
2.45075e+08,80.9877,2,2.38657,77.139,-13996.1,-18884.4
2.45224e+08,25.0499,0,2.8189,-788.787,4991.67,-27308.5
2.45473e+08,12.9815,2,2.77803,-978.475,635.903,-26337.7
2.45576e+08,21.9493,0,2.93281,-1532.1,2353.96,-25186.9
2.4571e+08,17.368,1,2.49534,-2253.92,131.652,-25880.1
2.46188e+08,35.085,1,2.98784,-2456.48,5958.74,-25095.3
2.46218e+08,32.2469,2,3.06123,-4940.51,-3229.59,-25454.7
2.46566e+08,284.824,2,2.85998,-7880.3,27676,7604.29
2.46783e+08,78.1044,1,2.65633,-11963.3,-11021.9,-26193
2.47438e+08,96.9202,2,2.8443,-10962.6,-6215.09,-12752.3
2.48074e+08,23.7823,0,2.76761,-3224.9,3730.74,-28067
2.48099e+08,224.727,1,2.85078,-18800,18258.2,10516.4
2.48393e+08,4.76392,1,2.37154,-150.008,310.078,-27836.8
2.48699e+08,8.67946,2,2.75002,-1309.39,190.818,-27512.9
2.48811e+08,7.00086,0,2.87187,1442.86,-347.437,-28300.5
2.49139e+08,46.3592,2,3.0007,-8995.9,-520.187,-25037.1
2.49247e+08,115.586,0,2.88894,1231.68,-24238.3,-28053.7
2.49332e+08,11.5897,2,3.02547,-1938.47,185.496,-27326.7
2.49419e+08,10.0505,0,2.67218,765.294,-516.24,-26877.7
