#class tools::wcsv::ntuple
#title time
#separator 44
#vector_separator 59
#column double eventID
#column double t(ns)
#column double copynumber
#column double energy(eV)
#column double x(mm)
#column double y(mm)
#column double z(mm)
18687,57.9235,1,2.76893,-8720.9,-7878.05,-25427.3
366308,24.1659,2,3.00799,-2741.97,-9.02837,-24497.8
457447,238.624,1,2.38004,25918.7,21707.2,8641.35
466667,8.5036,2,2.85271,-497.729,952.541,-27381.7
552461,157.735,2,2.70638,-8574.17,-12294,998.753
651226,87.5646,0,2.61008,7357.37,-10106.9,-15365
1.01984e+06,32.8417,1,2.50629,647.383,2753.84,-22449.3
1.07396e+06,155.726,0,2.7888,2296.47,29083.1,-13844.2
1.11559e+06,64.5261,0,2.4599,9740.51,-2003.1,-27840
1.12798e+06,77.1176,1,3.03701,-2410.68,15836.3,-26470
1.19115e+06,23.1924,2,2.64305,1970.5,-2691.58,-25234
1.22584e+06,45.1714,1,2.52983,-4178.6,8588.12,-28618.4
1.26971e+06,11.3803,1,2.95821,-1616.25,-1435.47,-27361.4
1.48854e+06,55.5377,1,2.58167,-6367.32,5367.28,-20389.4
1.50587e+06,59.7864,2,2.41966,-10507.2,7053.06,-28136
1.51356e+06,64.0332,0,2.89463,6605.9,-7959.92,-20174.2
1.56257e+06,47.8229,2,2.99216,-7959.9,-3473.28,-23672.6
1.57968e+06,15.2421,0,2.64003,-3015.05,-404.909,-28305.3
1.66064e+06,128.879,0,2.84919,56.0861,8553.11,-16993.6
1.83728e+06,11.4888,1,2.52065,2368.84,631.473,-28471.5
0,11.1185,0,2.52321,0,0,0
1.87377e+06,4.74838,2,2.69729,-600.119,-235.227,-28115.5
0,4.99495,1,2.47615,0,0,0
1.9663e+06,37.5046,2,2.78036,447.917,-7327.27,-27483
2.11637e+06,97.2617,0,2.67285,-421.02,-15830.7,-15919.9
2.31584e+06,35.8823,0,2.96005,3131.52,-1780.9,-22194
2.33943e+06,6.39452,2,2.52405,-682.722,176.358,-27597
2.34833e+06,67.4915,2,2.70029,-10014.7,-3473.39,-19274.7
2.40795e+06,23.4504,0,3.02123,1458.95,-1409.76,-24304.8
2.53264e+06,34.1153,2,2.65177,-1927.66,6720.6,-27064.1
2.86286e+06,37.999,1,2.44168,-6980.74,4055.19,-28322.5
2.88806e+06,61.3977,1,2.44174,6550.78,-6154.66,-19510.3
2.91575e+06,9.69505,1,2.40032,516.552,1638.2,-27508.9
3.08078e+06,54.2195,2,3.01898,-6214.06,-3909.5,-20177
3.13232e+06,84.2645,1,2.93871,-12340.2,7597.26,-18555.3
3.19215e+06,24.7318,2,2.72946,-3254.16,-943.361,-25184.3
3.30481e+06,186.341,2,2.60144,28361.4,-21917.7,-12615
3.31548e+06,43.7947,1,2.38891,-3815.06,8338.36,-27088.2
3.3942e+06,114.897,2,2.95615,7210.67,-19673.6,-17871.4
3.42029e+06,156.758,1,2.60389,-22765.4,2918.64,-6709.23
3.44782e+06,5.47517,1,2.36517,-368.907,-82.6417,-27791.3
3.57933e+06,59.8924,1,2.94633,5790.48,-9653.09,-23393.7
3.66589e+06,148.503,0,2.48308,-9594.13,28479.8,-19747.3
3.69574e+06,113.617,1,2.56606,-14251.6,-12797.4,-14349.4
3.7487e+06,15.2947,2,2.77549,-2788.23,-1667.73,-29039.2
3.8402e+06,170.365,0,2.8289,20040.7,-24014.8,-11218.3
3.88009e+06,59.3199,1,2.65353,11531.1,402.463,-24043.8
3.98921e+06,9.84098,1,2.8074,-1072.41,782.915,-27226.6
4.11643e+06,75.7562,0,2.44474,-2910.38,-14376.9,-22190.7
4.12267e+06,121.56,2,2.45548,16489.6,-15568.9,-16592.3
4.26779e+06,136.867,1,2.64094,19118.2,12810,-11398.7
4.42888e+06,72.6912,2,3.02677,-7655.64,13017.2,-27060.2
4.48925e+06,18.0234,0,3.04969,-1147.67,-3484.87,-29230.6
4.64998e+06,58.5712,2,2.79753,7599.15,5028.54,-20776
4.67834e+06,37.3457,2,2.82059,827.116,-7027.68,-25257.5
4.78399e+06,0.36391,1,3.50736,-115.976,44.4757,-28794.3
4.83891e+06,98.9913,1,2.95299,4013.47,20497,-29974.2
4.85141e+06,14.0959,2,2.70677,-1364.62,-32.5506,-26219.4
4.85688e+06,70.205,2,2.87565,-7542.41,-2467.78,-16345.1
4.91844e+06,7.44621,1,2.55994,660.16,1505.41,-29305.5
5.13278e+06,28.0274,2,2.76747,-5258.07,2852.82,-29370.5
5.45072e+06,80.4779,1,2.50308,-11195.2,8379.49,-19024
5.462e+06,18.4017,1,2.72061,3436.91,-867.81,-27233.6
5.48025e+06,5.59064,2,2.38928,-1186.89,-443.214,-29087.1
5.51886e+06,46.1317,0,2.57286,-2843.45,-6204.73,-22020.5
5.65766e+06,36.2287,2,2.77152,-7381.19,-1445.39,-28681.9
5.66856e+06,23.2077,0,2.75778,1448.22,2965.51,-26097.1
5.6694e+06,10.3644,2,2.67424,-1196.92,-1618.82,-29509.2
0,10.3543,2,2.56231,0,0,0
0,10.3448,2,2.58289,0,0,0
5.73369e+06,66.8894,0,2.66541,9116.43,-9522.29,-23447.1
5.81832e+06,115.638,0,2.72958,10970.9,9229.09,-9122.24
6.25392e+06,101.265,1,2.73352,13564.5,15351.6,-22678.8
6.27236e+06,46.2213,2,2.53778,-4903.72,-8015.16,-25584.4
6.29576e+06,143.07,2,2.3669,11886.9,-21612.7,-11262.3
6.34048e+06,76.0215,1,2.8311,9075.35,11737.5,-22823.9
6.39161e+06,107.714,0,3.05391,12770.7,-6628.07,-11388.9
6.45121e+06,67.9844,1,2.90129,-7417.42,-10085.8,-22182.8
6.5247e+06,27.397,2,2.93075,-4711.09,1489.31,-25663
6.53292e+06,42.9501,2,2.53827,-9152.33,-132.487,-28266.9
7.07954e+06,66.2029,1,2.86272,-5473.62,8340.86,-19174.7
7.15352e+06,75.9479,0,2.4118,9749.8,2617.22,-16273.9
7.36956e+06,16.9721,2,2.64419,-2064.43,-2741.27,-27007.6
7.51743e+06,28.8033,2,2.4186,3891.18,-483.951,-24117.3
7.56453e+06,71.0149,1,2.9326,3749.12,-7817.26,-16775.3
7.70409e+06,97.9867,2,2.7515,-20629.6,730.117,-27312.5
7.73633e+06,37.0156,0,2.95308,3872.13,-4102.17,-23420.3
7.78163e+06,77.383,0,2.56282,10211.5,12314.5,-24502.3
7.97115e+06,34.5134,2,2.57695,-4879.14,-2615.97,-23870.6
7.98052e+06,48.2253,0,2.40387,5917.14,-8382.93,-29057.9
8.10435e+06,17.104,0,2.75442,3532.56,849.545,-29673.2
8.16363e+06,64.3823,0,2.63251,2264.28,-8126.02,-18124.9
8.22293e+06,108.725,2,2.87328,-2812.64,17294.3,-14150.8
8.27225e+06,87.4114,1,2.8025,-10125,5145.06,-14279.9
8.37618e+06,22.4274,1,2.86691,-392.99,2348.75,-27654.3
8.4182e+06,64.1959,2,3.00735,-9265.05,3930.35,-19981.1
8.43841e+06,80.5091,2,2.72826,9487.96,-13585.2,-24529.6
8.45096e+06,36.6411,1,3.00731,-3403.46,6192.71,-26365.1
8.5027e+06,23.8574,0,3.04391,-1175.56,161.232,-28404.9
8.60723e+06,8.40402,2,2.91186,-513.06,-1664.65,-28154.3
0,8.40445,2,2.78666,0,0,0
8.82419e+06,26.6519,0,2.88736,-4693.81,-929.519,-25849.7
8.85527e+06,40.0039,1,2.54454,-6785.58,2483.78,-24273.6
8.90482e+06,2.11387,1,2.50769,-53.4934,-343.308,-28638.9
9.01657e+06,219.713,0,2.51912,-28723.3,-11446.7,5879.08
9.03876e+06,26.9915,0,2.8349,898.523,-4772.04,-25939.6
9.10886e+06,55.2823,2,2.71993,4954.54,-9203.71,-23586.6
9.1646e+06,22.559,2,2.64141,-3226.02,-2754.81,-26530.4
9.18248e+06,88.2756,1,2.80579,-2117.41,18132.3,-25355
9.31364e+06,1.95542,1,2.56273,-483.927,238.192,-28742.3
9.39003e+06,121.774,1,2.89202,-21353.3,14268.3,-28309.2
9.3974e+06,17.4815,1,2.88367,-2543.07,2214.16,-26407.3
9.42936e+06,117.313,2,2.96752,2190.76,-18204.6,-12230.9
9.48181e+06,159.929,0,2.68014,8074.59,17127.4,-986.447
9.51101e+06,7.7718,1,2.41996,-1389.33,923.095,-28380.8
9.57594e+06,10.6837,0,2.63165,1113.44,-207.413,-26811.5
9.59912e+06,47.0048,1,2.67453,-5716.31,1476.77,-23244
9.87218e+06,71.7925,1,3.03309,2812.97,-8283.53,-16611.5
9.88341e+06,11.0083,1,2.87608,-2184.12,950.501,-29008.1
0,11.2464,2,2.36608,0,0,0
9.9056e+06,80.4026,1,2.77983,-14539.4,3488.37,-20698
1.00014e+07,142.394,0,2.72412,-379.434,-28979.1,-25060.6
1.00071e+07,41.9992,2,2.60056,678.533,4723.69,-21334.4
1.00426e+07,80.7221,1,2.7718,15085.6,769.997,-21062.2
1.01756e+07,132.557,1,2.66729,23208.4,10603.8,-16822
1.0189e+07,93.6219,0,2.50848,17128,-450.583,-18806.6
1.03421e+07,85.094,0,3.02932,9168.51,-15385.9,-29502.6
1.04223e+07,60.8925,0,2.88574,-8880.61,-6735.5,-22684.4
1.04514e+07,36.6211,0,2.52874,800.091,6279.82,-24393.7
1.04843e+07,63.5279,1,2.96419,4668.13,12275.9,-26085.9
1.04884e+07,40.5182,0,2.76091,7169.48,4708.58,-29771.8
1.06373e+07,106.301,0,3.03072,7958.25,-18264.7,-18777.1
1.08945e+07,35.3485,1,2.51416,3474.95,5457.6,-25091.5
1.09103e+07,120.369,2,2.4581,-6794.63,11362.8,-10515.9
1.09365e+07,90.747,0,2.62394,15449.2,-7278.45,-20102.7
1.10781e+07,144.559,1,3.01927,-25633.7,13781.5,-20052.9
1.11156e+07,60.2697,1,2.6288,-3062.94,7424.06,-19137.9
1.1117e+07,59.0741,1,3.02862,-2552.18,1425.37,-25381.1
1.12253e+07,169.36,1,2.93125,-21802.7,-13518.3,-4179.26
1.12585e+07,86.1835,1,2.6809,-13445.5,10412.4,-22088
1.12692e+07,141.313,2,3.00562,-2260.52,-9285.05,-22858.9
1.13257e+07,42.0661,0,2.77859,6085.84,-6170.01,-26378.2
1.17137e+07,33.7288,1,2.92348,-6034.48,2327.77,-25612.3
1.17592e+07,21.2419,0,2.66757,-1824.28,3355.57,-26349.3
1.18128e+07,71.6592,2,3.01212,-10465.9,5474.5,-19539.1
1.20192e+07,130.061,1,2.3657,-11811,15652.8,-9472.59
1.21778e+07,117.819,0,2.99466,20073.7,-1713.98,-14564.9
1.2228e+07,37.7781,2,2.89592,3575.23,-2680.66,-22288.2
1.23091e+07,3.52457,0,2.61014,400.672,-523.393,-28657.3
0,3.56422,0,2.41333,0,0,0
1.24405e+07,141.79,2,2.59878,-29230.3,6657.22,-28684
1.24636e+07,37.6587,1,2.93014,3895.34,3485.42,-22905
1.26472e+07,26.5382,0,2.72036,3225,-259.119,-24142.1
1.27308e+07,25.4277,1,2.50152,-3870.38,2401.51,-26120.3
1.29173e+07,22.871,1,2.41479,-4612.77,-1210.86,-29503.7
1.2999e+07,151.667,0,2.82011,11086.7,-23199.2,-12132.8
1.30789e+07,44.3161,2,2.69019,3089.42,7859.03,-24977.1
1.31995e+07,34.3755,2,2.7706,-4712.74,523.789,-23434.2
1.33066e+07,105.257,1,2.9349,-6507.28,17689,-17192.9
1.33428e+07,35.1793,0,2.63711,4568.42,-2602.74,-23485.5
1.3628e+07,13.396,1,2.53762,-1726.5,-1292.06,-26996.3
1.36984e+07,35.6829,0,2.93889,-3490.02,3598.16,-23263.6
1.37972e+07,102.963,0,2.59944,3393.48,6662.11,-13951
1.41109e+07,55.2374,1,2.75861,71.2265,2508.2,-28411.9
1.43705e+07,32.9783,1,2.46126,-1707.95,-3316.1,-22915.1
1.44505e+07,46.8476,2,2.55742,56.3238,9455.17,-26162.8
1.4475e+07,109.874,1,2.37623,-17952.3,-4176.73,-14680.2
1.45356e+07,7.33201,2,2.6417,-1082.5,-795.358,-27899.6
1.45376e+07,32.9055,1,2.80175,1608.8,4898.09,-24177.5
1.45735e+07,38.2808,1,2.65188,-885.18,-3664.14,-21693.3
1.46404e+07,121.288,0,2.4225,11751.5,-21463.1,-21036.2
1.46729e+07,15.8501,1,2.5119,237.484,3418.42,-28846.8
0,15.9494,1,3.01797,0,0,0
1.46909e+07,12.4497,1,2.49712,-922.019,-2111.41,-27629
1.48575e+07,56.5399,1,2.46819,-10748,-4557.32,-26079.2
1.49343e+07,35.3748,1,2.75539,-5312.26,3589.53,-25363.6
1.5015e+07,83.7644,1,2.80753,-2525.53,-13074.3,-17238.9
1.50411e+07,2.07448,1,3.02582,-164.05,90.8795,-28426
0,2.10098,1,2.44081,0,0,0
0,2.04521,1,2.97839,0,0,0
1.50743e+07,19.8133,2,2.84204,4068.68,-367.714,-29397.2
1.50761e+07,52.4204,0,2.85971,-6657.23,1537.75,-20246.6
1.52014e+07,51.2642,1,2.62633,-7111.98,6712.65,-24076.1
1.53159e+07,152.58,0,2.77439,-13043.1,10979.3,-1769.5
1.53415e+07,38.5895,0,2.97418,7521.32,3170.18,-29107.9
1.55515e+07,37.6645,0,2.67161,6644.1,-1489.38,-24533.8
1.56107e+07,36.6849,0,2.90097,6847.51,-867.644,-25144.2
1.58875e+07,105.054,0,2.39144,-1279.72,-10898.6,-9516.2
1.60973e+07,55.863,2,2.37236,-4498.42,-11033,-29374.5
1.61605e+07,52.9713,2,2.56049,-6987.96,-8610.12,-28210.3
1.61986e+07,69.058,2,2.50473,-13967.5,311.696,-24603.8
1.62102e+07,99.9121,2,2.87626,6757.96,2589.97,-27627.7
1.6565e+07,7.55748,0,2.58049,400.74,531.247,-27323.8
0,7.90519,2,2.48075,0,0,0
0,7.89331,2,2.7176,0,0,0
1.66787e+07,12.7024,2,2.75175,-1581.37,-1050.31,-26956.9
1.67532e+07,158.093,0,2.52907,14344.3,-29777,-23638.4
1.68164e+07,11.3276,2,2.90701,-1790.04,1608.43,-28824.5
0,11.2586,2,2.44113,0,0,0
1.6976e+07,18.7764,1,2.36218,-3149.38,-1284.19,-26583
1.70227e+07,23.9486,0,2.96037,1352.85,4747.16,-28022.2
1.71268e+07,2.27436,0,2.62223,335.68,445.359,-28811.6
1.72476e+07,323.946,1,2.77452,-22709.3,7787.31,17634.2
1.72494e+07,77.4475,1,2.58892,5590.09,14567.7,-23167.1
1.72918e+07,146.851,0,2.54189,21155.2,-21642.6,-21473.1
1.74042e+07,130.571,2,2.76415,-26313,-585.4,-20607.4
1.74592e+07,130.421,1,2.74327,24809.6,-377.225,-16935.1
1.75128e+07,55.7949,0,2.39003,8012.17,705.362,-20094.8
1.77816e+07,9.38363,1,2.82229,-1630.16,-710.902,-28078.9
1.77834e+07,120.572,0,2.76245,-9788.78,1487.86,-12568.6
1.79611e+07,2.08319,1,2.69042,-28.6766,474.943,-28696.1
1.79934e+07,124.361,0,2.45815,12879.3,18902.1,-15749.4
1.80277e+07,170.117,1,2.98808,-16205.7,22699.9,-14943.3
1.808e+07,31.0578,1,2.69479,-327.124,3406.04,-23257.4
1.81477e+07,112.995,2,2.44261,-20986.7,9422.17,-22247
1.81809e+07,83.2855,0,2.40242,-14723.4,717.039,-19439.5
1.83233e+07,27.8303,1,2.53184,2425.18,5069.32,-26509.9
1.83882e+07,6.02231,2,2.95505,-408.55,-461.094,-27686.6
1.83999e+07,3.99434,2,2.42597,-253.805,-758.764,-28361.2
1.86298e+07,35.0128,2,2.57445,-1463.44,-6961.9,-26433.6
1.8655e+07,61.995,2,2.72875,2965.65,-7690.3,-18574.2
1.87213e+07,94.4977,1,2.72541,-19125,-981.245,-23684.4
1.87865e+07,89.416,2,2.71884,9771.77,12190.1,-18619.1
1.88387e+07,48.6737,2,2.44192,9302.8,891.079,-24680.2
1.88971e+07,226.957,0,3.04115,1352.87,2145.53,10932.4
1.8936e+07,54.3691,2,2.72883,-8560.69,-132.43,-21096.3
1.89788e+07,300.522,0,2.7752,24880.5,474.538,6975.4
1.91521e+07,112.25,2,2.88456,-2409.16,-11240.3,-8230.06
1.9258e+07,13.3365,1,3.0196,-1038.09,-841.192,-26371.4
1.93144e+07,122.898,0,2.71975,4573.93,-25368.6,-25900.5
1.93597e+07,23.5135,2,2.86745,-2065.09,3523.79,-26039.3
1.93676e+07,156.093,1,2.77409,-14555.8,6000.43,-316.779
1.93975e+07,33.3207,2,2.63812,-162.15,-4404.48,-23322.2
1.94568e+07,104.259,2,2.54408,-9820.01,-13161.6,-14046.5
1.95373e+07,17.9476,2,2.46377,-2341.75,1759.53,-26410.4
1.9562e+07,135.776,0,2.58437,-10637.6,-5925.26,-14092.3
1.96811e+07,132.037,1,2.51262,-14088.5,-21583.2,-18187.7
1.97719e+07,34.6094,0,2.62021,4807.85,-5575.52,-28776.4
1.99259e+07,48.6972,1,2.37789,3024.88,3074.27,-19639.9
2.03334e+07,199.517,0,2.64831,27737.6,-25017.7,-9392.66
2.05193e+07,15.1378,0,2.49674,8.92508,-3460.45,-28578.9
2.05732e+07,16.675,0,2.66339,2792.31,-1234.33,-26945.2
2.0644e+07,192.765,2,2.76169,9096.33,18045.9,6594.54
2.06594e+07,23.0636,0,2.99312,4615.93,1280.06,-27430.9
2.06989e+07,107.488,2,2.51426,-22290.5,-266.223,-24205.3
2.08174e+07,95.2047,0,2.87311,6019.24,-4943.33,-10377.6
2.08523e+07,51.415,0,2.8585,-5509.23,-7247.68,-23127.8
2.09422e+07,28.5754,1,2.67423,-4389.9,-3248.92,-26371
2.10625e+07,228.87,0,2.81126,-15429.8,-23390.4,10302.6
2.11124e+07,15.0404,1,2.97507,1236.38,-1365.57,-25985.2
2.13884e+07,150.295,0,2.8789,17858.9,9102.28,-4310.99
2.17454e+07,149.999,1,3.04409,-5144.81,-6105.42,-26529.5
2.17465e+07,119.772,2,3.05985,-12031.5,2777.27,-7028.98
2.19275e+07,64.189,0,2.98492,2084.2,8518.09,-18616.1
2.20055e+07,8.41241,2,2.86123,-412.99,-438.689,-27226.9
2.21248e+07,10.8744,1,2.59904,2021.73,1055.48,-29281.1
2.23569e+07,20.3446,0,2.66306,-3014.14,-1709.15,-26604.7
2.24608e+07,55.9293,2,2.84096,-2258.29,4256.62,-18452.2
2.25858e+07,44.3456,2,2.80554,-1279.76,-5829.1,-21576.2
2.25919e+07,41.6101,1,2.48906,8317.87,1125.9,-26416.5
2.26004e+07,188.389,0,2.71486,15073.1,4041.93,7708.55
2.27489e+07,73.0058,0,2.73317,7845.9,8414.75,-18529.3
2.27726e+07,59.6572,1,2.56893,-6540.28,9442.74,-23518.4
2.2805e+07,5.8087,1,2.88731,812.553,552.06,-28110.6
2.289e+07,89.4714,1,2.46299,-287.312,15929.4,-18481.3
2.29394e+07,8.58167,2,2.62847,1111.97,-527.745,-27495.8
2.30645e+07,13.9526,2,2.71934,-1665.45,1779.41,-27188.3
2.30749e+07,35.4406,2,2.67874,-6455.36,2391.18,-26781.1
2.3145e+07,43.324,0,2.7038,6472.21,-5791.89,-25877.5
2.3357e+07,13.1691,1,2.51754,-2464.5,830.56,-27706.7
2.33724e+07,3.69613,1,2.423,-615.603,493.999,-28433.5
2.33962e+07,35.6131,1,2.76727,-5938.84,4580.05,-28156.3
2.34012e+07,120.772,1,2.96018,-4233.21,-17380.6,-10932.1
2.34324e+07,78.5205,2,2.40095,-15154.1,5030.48,-24150.1
2.35251e+07,124.912,2,2.7628,8731.83,-11780.6,-6975.62
2.35892e+07,29.2421,0,2.95195,4452.26,-4280.58,-29582.8
2.36839e+07,5.19218,1,2.60409,-712.033,214.239,-27958
2.3694e+07,286.426,1,2.54874,-13885.7,-12239,8458.99
2.37271e+07,11.2087,1,2.56428,433.55,-1445.09,-27059.1
2.37591e+07,15.4742,2,2.60652,2073.58,-1483.89,-28030.3
2.37886e+07,15.2191,2,2.97315,550.375,2404.25,-26833.9
2.38042e+07,46.8031,2,2.92108,-2739.49,3267.3,-19803.7
2.38255e+07,71.1211,2,2.48262,-6786.68,-13366.5,-26550.6
2.38836e+07,163.19,0,2.65728,-15096.7,-25485.3,-11314.9
2.39492e+07,132.521,1,2.48761,20311.6,18554,-23364.8
2.40135e+07,73.0678,1,2.8115,6.06607,-7124.46,-15268.1
2.4033e+07,80.4223,0,2.43108,11368.2,-4406.96,-17175.8
2.4045e+07,40.0076,0,2.70726,1937.7,8066.26,-26949
2.40994e+07,96.5971,1,2.42092,8726.08,14899.8,-17847.1
2.42388e+07,46.8046,2,2.74488,5714.68,-2068.76,-20959
2.42566e+07,106.418,2,2.73313,-21405.1,-4937.16,-24170.2
2.4293e+07,81.4121,0,2.99584,13883.1,-6401.62,-20986.3
2.43268e+07,30.6823,0,2.57837,5069.32,2882.43,-25661.2
2.44196e+07,17.4778,1,2.83906,2374.11,-596.679,-26143.6
2.44512e+07,63.6687,1,2.87329,-6566.22,1936.42,-17346.9
2.44536e+07,48.4124,0,2.67938,4751.29,7946.9,-24330.6
2.45156e+07,52.7374,0,2.94464,3414.29,-10257.2,-26285.3
2.46974e+07,46.8161,1,2.51395,-7661.42,6487.93,-29575.6
2.47256e+07,153.101,2,2.87295,12030.2,-12522.4,-1742.33
2.47276e+07,7.82627,1,2.76877,728.654,-660.311,-27530.4
2.49263e+07,58.1476,0,2.82773,9646.65,672.188,-21285.9
2.49399e+07,235.13,0,3.04391,25894.9,-27433.6,2853.7
2.50573e+07,112.52,2,2.72149,-7698.81,6321.69,-7230.72
2.52743e+07,32.0136,0,2.36989,5063.27,-2757.55,-25016.7
2.52788e+07,100.965,1,2.61736,17161.2,-10957.4,-22994.4
2.55902e+07,159.442,1,2.66844,-15415.2,10322.2,-735.818
2.56301e+07,6.76162,2,3.01057,-363.068,-677.964,-27582.4
2.57122e+07,160.544,1,2.48536,-25372.5,20352.1,-19154.5
2.57638e+07,73.7301,1,2.63898,1328.23,7203.75,-15057.9
2.59165e+07,111.71,1,2.78748,-2317.18,23376.8,-27349.1
2.59183e+07,69.0583,1,3.03537,3185,5142.56,-15599.1
2.59384e+07,150.107,0,2.6914,-26578.9,5039.79,-12601.4
2.60728e+07,21.7908,0,3.02517,4514.99,1252.66,-28619.2
2.61664e+07,136.243,0,2.77422,4461.13,-12049.1,-9820.06
2.62201e+07,104.142,1,2.86796,4454.91,8312.82,-9034.56
2.6355e+07,153.678,0,2.70938,25154.9,19893.9,-24093.3
2.63856e+07,30.0505,0,2.96308,446.2,-6261.59,-27857.1
2.64812e+07,42.1818,1,2.42532,-8160.07,1452.95,-25567.8
2.65187e+07,106.614,0,2.52894,-1701.06,-3400.04,-25403.9
2.68124e+07,10.9661,0,2.87374,696.216,-1664.6,-27402.3
2.68178e+07,100.321,0,2.72831,9341.25,-18567,-24348.6
2.68306e+07,142.336,1,2.88919,-18249.9,22292.7,-20548.6
2.6912e+07,248.51,1,2.95589,-27410.7,29862.8,4056.14
2.70898e+07,8.41647,0,2.76638,1917.62,117.703,-28860.8
2.71839e+07,55.6504,2,3.05847,8003.36,-6721.68,-23547
2.71954e+07,13.9284,1,2.7316,455.317,2606.04,-27298.7
2.7273e+07,113.805,2,2.73457,5889.98,-22854,-23617.4
2.7437e+07,31.2035,1,2.97989,3339.57,5446.91,-27071
2.74927e+07,51.1874,0,2.80366,10059.1,-4000.95,-28502.5
2.74998e+07,60.7475,2,2.61978,6837.31,7964.82,-21525.7
2.75393e+07,153.42,1,2.99667,23624.4,-3996.13,-7470.86
2.76885e+07,34.3933,0,2.4223,1914.31,6437.27,-25937.9
2.79566e+07,2.93683,1,2.83862,-614.836,47.6856,-28527.3
2.81037e+07,121.129,0,2.36972,22361.6,4251.19,-17327
2.81484e+07,115.391,0,2.94358,8634.3,3650.6,-25485.4
2.81519e+07,42.0745,1,2.66247,-4862.44,6821.7,-25655.3
2.81755e+07,154.828,1,2.97676,3085.16,15541.1,-436.191
2.82865e+07,49.1512,2,2.87767,-4946.2,-4049.13,-20644.8
2.8379e+07,22.6857,2,2.53717,832.888,-4681.51,-27434.1
2.84863e+07,164.285,1,2.84722,1420.56,-26606.4,-6893.42
2.87383e+07,114.943,2,2.48348,-8580.33,-11747,-9244.4
2.88073e+07,13.3332,1,2.63331,-1848.26,1102.52,-27425.9
2.88402e+07,24.5187,1,2.94996,1113.59,-3123.26,-24985
2.89183e+07,177.408,1,2.8229,-25066.4,17997.9,-7775.49
2.89788e+07,11.9637,0,2.6969,2209.31,780.502,-27751.9
2.89791e+07,99.6486,0,2.76179,-13383,13813.1,-20532.5
2.91073e+07,8.06798,2,2.67024,-1337,744.227,-28138.5
2.91205e+07,67.7513,2,2.53671,6063.93,12520.7,-25816.6
2.91681e+07,19.1639,1,2.82191,-3104.31,-1013.95,-26479.5
2.92962e+07,52.0668,2,2.94652,-10088.2,4322.37,-28729.7
2.93213e+07,20.4221,0,2.67638,2640.33,2838.19,-26690.9
2.93329e+07,77.4246,2,2.70118,13024.6,-5994.22,-21051.3
2.94449e+07,27.3797,2,2.95313,-985.492,-5767.07,-28825
2.96042e+07,177.38,1,2.74543,26105.4,-9818.74,-4026.21
2.96139e+07,36.2162,2,2.64334,-6999.67,-2689.02,-29571.7
2.96634e+07,175.456,0,2.7098,29320.8,19919.2,-21368.1
2.97675e+07,94.9938,2,2.62219,-11890.3,11878.3,-17841.2
2.98396e+07,3.96825,2,2.90316,648.496,-598.832,-28952.2
2.9881e+07,81.0462,1,2.36529,1390.53,11831.4,-16388
2.99027e+07,115.933,2,2.91969,13127.8,2020.05,-8432.78
