#class tools::wcsv::ntuple
#title time
#separator 44
#vector_separator 59
#column double eventID
#column double t(ns)
#column double copynumber
#column double energy(eV)
#column double x(mm)
#column double y(mm)
#column double z(mm)
135218,39.7723,0,2.51302,2640.18,-3102.92,-21487.8
232082,127.852,2,2.57834,17716.8,-4225.82,-9382.62
308598,27.5788,2,2.93776,-5839.98,-182.781,-28882.6
534563,130.263,0,2.5793,23955.8,-6668.37,-16862.9
636383,82.5268,2,2.78384,211.939,-17093.5,-25427.4
888889,23.1639,1,2.38987,-1989.3,3953.92,-26576.1
988913,115.763,0,2.77162,19679.5,-8111.49,-16840.9
1.08193e+06,2.61326,2,2.88217,93.2188,-626.631,-28966.4
0,2.58819,2,2.53033,0,0,0
1.11322e+06,28.1629,0,2.58926,-2972.17,877.966,-23824.7
1.19371e+06,5.27494,1,2.83362,-413.8,-399.514,-27902.5
1.67213e+06,57.5165,1,2.9558,-4030.87,10963,-25446.8
1.82278e+06,97.2324,0,2.89062,-17607.2,-9736.07,-25665.2
2.09921e+06,63.5731,0,2.50159,2661.37,12764.8,-25552.2
2.57518e+06,51.5419,1,2.71583,-10130.5,221.332,-24884.1
2.59867e+06,59.9017,2,2.41427,8650.74,-6724.24,-22421.3
2.96399e+06,46.523,2,2.89515,5708.79,6062.24,-23854.7
3.1026e+06,47.3217,0,2.37975,8661.99,2052.68,-24084.6
3.12619e+06,18.6332,0,2.4418,220.35,-2639.71,-25955.8
3.23446e+06,17.0972,0,2.63348,2461.62,-1170.02,-26381.2
4.00718e+06,154.066,2,2.73757,22434.7,7912.18,-6899.47
4.04219e+06,35.6653,0,2.76235,1053.47,6128.55,-24589.6
4.12408e+06,210.304,0,3.00451,-3812.51,-16216.7,11937.2
4.18741e+06,36.2851,0,2.96548,1875.38,2446.62,-21879.8
4.19759e+06,32.1656,2,2.4633,-2150.1,246.515,-22409.4
4.73438e+06,10.5174,2,2.86644,-2084.82,-721.444,-29558.4
4.92203e+06,72.1886,0,2.85524,-5659.91,-10381.8,-19367.3
4.92501e+06,258.809,1,2.8193,-13399.8,26847.6,-4660.75
5.03554e+06,25.3356,1,2.84963,2096.51,-2373.51,-24616.3
5.46268e+06,177.385,1,2.59676,106.56,-579.08,-29232.1
5.60193e+06,70.8359,1,2.87595,13484.7,4800.1,-24722.7
5.86667e+06,76.6198,0,2.9063,14984.3,-3730.42,-24054.4
6.41484e+06,81.4123,2,2.7677,-5940.22,2770.51,-13034.6
6.46461e+06,73.2786,2,2.36492,-6009.33,5361.39,-15600.4
6.60145e+06,29.7441,2,2.96508,5954.33,1633.82,-28393.6
6.83343e+06,132.532,2,2.57794,9195.64,-14616,-6776.04
7.63924e+06,148.761,1,2.78115,16659.1,-18040.5,-9535.69
7.84066e+06,37.2181,2,2.55176,2481.07,3850.8,-22545.9
7.90474e+06,47.1796,2,2.45246,255.611,-5215.12,-20300.5
8.06276e+06,69.1178,2,2.76056,-9353.01,1861.64,-17822.1
8.31917e+06,11.4553,1,2.95224,-1500.55,363.247,-26942.5
8.34025e+06,12.4347,1,2.89084,-2036.55,1799.25,-28629.3
8.34682e+06,18.4244,0,2.85512,1578.23,2184.94,-26000.7
8.64424e+06,68.0963,1,2.97013,-5725.48,8202.65,-18571.2
8.73854e+06,83.2785,2,2.55427,4638.32,7347.89,-13613.5
8.75199e+06,36.6418,1,2.39232,2319.32,5304.34,-23671.6
8.78781e+06,36.1357,1,2.50448,2909.46,2599.17,-22261.3
8.87195e+06,62.1641,1,2.69118,9263.88,7568.04,-23443.1
8.90341e+06,165.874,2,2.90372,25726.4,-11612.7,-8654.62
9.14505e+06,96.9865,0,2.93126,13214.5,-11902.4,-18815.5
9.2648e+06,4.41017,2,2.97825,-945.364,-418.439,-28890.5
9.40489e+06,35.9807,2,3.0045,1449.2,-281.554,-29194.5
9.4751e+06,76.3873,2,2.84967,13585.6,-7215.11,-24232.2
9.6246e+06,289.44,1,2.47392,1071.62,29788.5,-4441.78
9.8113e+06,62.1307,0,2.74535,-10702.3,-5211.68,-23875.1
9.82233e+06,79.142,0,2.65821,15223.5,-1865.2,-22084.7
9.99002e+06,30.1284,2,2.75478,5154.67,-2139.05,-25794.2
1.00032e+07,125.137,2,2.60686,-1542.3,-4802.44,-2927.98
1.00442e+07,1.45902,2,2.94214,-112.585,-367.128,-28740.9
1.01947e+07,125.631,0,2.62451,17103.4,-2390.23,-8655.54
1.0224e+07,2.41322,0,2.79901,493.901,-301.299,-28809.4
0,2.26347,0,2.5193,0,0,0
1.03632e+07,188.116,1,2.80862,-18718.8,512.211,6028.73
1.03722e+07,123.425,2,2.533,23599.5,7362.57,-20690.2
1.05541e+07,83.1394,0,2.82729,-2200.35,5423.37,-25556.4
1.05572e+07,181.287,0,2.45419,14122.6,13986.6,3971.69
1.05698e+07,64.4362,2,2.88396,-752.045,1762.91,-26196.7
1.05707e+07,13.3029,1,2.40626,1273.09,2536.67,-28270.5
1.06371e+07,78.5547,0,2.5145,16296.8,3090.43,-26909.6
1.07983e+07,146.336,1,2.77982,-3565.75,22550.4,-8084.65
1.11827e+07,193.829,2,2.68213,-2663.12,-26.5747,-23639.3
1.12366e+07,4.73438,1,2.65213,-688.664,-707.859,-28922.3
0,4.74312,1,2.46954,0,0,0
1.12691e+07,56.2335,1,2.76412,-2076.07,6953.09,-19425.1
1.15647e+07,92.6477,2,2.82502,12840.7,9980.2,-18251.2
1.18244e+07,11.9506,0,3.0477,315.855,-1309.39,-26715.6
1.19081e+07,46.3079,0,2.96949,-3944.93,36.4933,-20018.8
1.24698e+07,76.8306,0,2.69429,-6687.04,14038.8,-24333.4
1.24719e+07,31.8822,2,2.82446,-6329.15,2232.41,-29295.3
1.26363e+07,8.63511,1,2.93787,571.744,-464.478,-27220.7
1.28634e+07,121.8,2,2.76001,-21568.6,-644.795,-14946
1.32213e+07,26.1083,2,2.51744,1080.95,5156.4,-27389.2
1.34332e+07,109.422,1,2.39801,-10893.7,3326.64,-9882.07
1.35278e+07,59.6988,0,2.5221,-775.18,10093.7,-21285.1
1.46357e+07,99.439,1,2.51537,-14604.2,-1739.63,-13795.8
1.52133e+07,126.637,2,2.82185,12095.6,-19986.2,-20956.6
1.52671e+07,130.527,2,2.53718,17862.9,-16389.4,-15624.2
1.52725e+07,3.15241,0,2.52927,523.686,321.683,-28460.8
1.60683e+07,0.995938,2,2.5203,34.1834,23.7025,-28693.6
0,1.01971,2,2.77683,0,0,0
0,1.00278,2,2.9887,0,0,0
0,0.886955,2,3.04603,0,0,0
0,0.886143,0,2.66917,0,0,0
1.61432e+07,128.462,1,2.51527,18640.1,-2078.53,-9254.42
1.62572e+07,12.8368,1,2.42422,-208.411,1890.72,-26822
1.63517e+07,18.5465,0,2.40348,2723.21,2005.55,-26742.7
1.67273e+07,71.8004,2,2.47926,-3633.48,-588.012,-14134.1
1.68394e+07,88.7288,2,2.54578,-18445,2934.63,-26881.1
1.68512e+07,11.7957,1,2.78982,-1661.36,1931.85,-29363.2
1.77215e+07,39.3298,2,2.66394,6796.53,-4167.54,-26548.7
1.77378e+07,90.3078,1,2.59633,-7476.2,16709.9,-23301.4
1.78096e+07,40.9475,0,2.5316,5130.77,1653.74,-22022.2
1.78173e+07,13.1208,1,2.94544,511.118,-1752.5,-26878.6
1.78257e+07,22.5697,1,2.91057,-3391.39,2225.68,-26257
1.8129e+07,114.689,2,2.3861,-13793.1,-11295.5,-12295.7
1.84449e+07,110.132,1,2.83221,-5445.14,16818.2,-13811.3
1.84753e+07,64.835,0,2.78431,-2082.9,11745,-22223
1.86354e+07,33.3827,2,2.71952,2757.57,-6245.64,-26891.5
1.86604e+07,67.8996,1,2.95375,-10929.7,-4044.31,-28853.1
1.88046e+07,156.475,1,2.71659,5005.08,-17632.2,-24746.2
1.88672e+07,77.2683,0,2.50112,2565.11,5776.25,-13783.7
1.90347e+07,106.121,2,2.62155,5198.64,19731.4,-19793.7
1.91401e+07,185.953,1,2.83964,13731.2,25362.2,-2435.2
1.92309e+07,120.149,0,3.02732,-10522.9,13189.4,-10246.7
1.93323e+07,38.6084,2,2.73828,-7419.38,1752.77,-25935.4
1.97874e+07,19.0899,0,2.39343,3537.99,-552.811,-26853.4
1.99531e+07,72.1851,2,2.84514,-1660.28,-14607.8,-24705.4
2.02375e+07,75.5388,0,2.66954,15451,906.069,-24654.6
2.03267e+07,102.114,1,2.50523,13870,-2655.88,-12597.6
2.04952e+07,35.5083,1,2.47304,-2252.65,6554.2,-25765.6
2.06199e+07,3.59655,2,2.91871,-354.173,522.619,-28439.6
2.07934e+07,98.323,0,2.7019,4162.63,-12914.8,-13177.2
2.08498e+07,144.141,1,2.53906,-18337.6,23746.5,-23126.2
2.0915e+07,91.4359,2,2.90654,-17964.9,2117.58,-22316
2.09754e+07,5.75817,1,2.78316,518.804,455.354,-27835.4
2.17656e+07,86.7183,0,2.9226,595.49,8816.36,-12926.8
2.18761e+07,58.7855,0,2.39039,-8691.08,-2109.92,-20295.7
2.20656e+07,120.961,0,2.43003,6312.11,14377,-8659.91
2.23714e+07,26.712,1,2.89789,-4124.83,2027.77,-25533.9
2.24515e+07,69.9202,1,2.74618,-7786.08,11404.6,-23543.6
2.27083e+07,31.6957,2,2.36927,597.196,-4632.59,-23955.1
2.30159e+07,163.899,0,2.56543,18688.4,21228.8,-8791.35
2.32947e+07,49.041,1,2.80477,-3181.73,-8879.59,-24766
2.39567e+07,79.2263,0,2.77448,-15455.4,-94.6752,-22770.5
2.40939e+07,24.5021,0,2.39946,-2737.27,4376.89,-28482.7
2.41087e+07,106.739,0,2.9675,20016.6,730.51,-18656.2
2.43723e+07,24.448,1,2.59141,-177.857,-4427.87,-26291.7
2.4601e+07,190.675,0,2.54656,1911.06,21493.7,5193.9
2.47316e+07,22.2051,0,2.84656,-2491.68,-3194.57,-26587.7
2.48537e+07,140.894,0,2.76816,3753.89,29450.3,-28046.3
2.51256e+07,22.93,1,2.57665,-441.886,4865.88,-29554.5
2.51726e+07,22.6364,0,2.65811,3402.04,-3217.44,-27556.6
2.5174e+07,35.574,1,2.56266,-4900.16,2626.52,-23735.8
2.56098e+07,123.539,1,2.39564,2617.57,11658.8,-5600.35
2.57168e+07,291.639,0,2.87113,3730.13,3972.13,-20033.1
2.61486e+07,136.689,1,2.73739,-11756.1,-12627.5,-5816.57
2.62332e+07,61.5271,2,2.89998,-9379.28,-8029.76,-24717.9
2.6251e+07,119.441,0,2.37466,5546.28,-16217.4,-16293.1
2.65224e+07,152.413,0,2.77893,-7458.93,24940.6,-10175.1
2.65326e+07,152.146,1,2.72435,23534.2,731.684,-7122.85
2.69015e+07,188.068,1,3.06119,-25857.4,6540.8,162.177
2.69742e+07,193.317,1,2.44683,-21952.5,-509.651,5651.03
2.72824e+07,50.6161,1,3.03746,-9014.51,5764.63,-29416.7
2.72893e+07,61.696,1,2.66887,3413.21,10218.5,-22352.5
2.734e+07,11.9251,0,2.62761,1575.92,2073.35,-28865.4
2.73588e+07,53.3829,0,2.74865,3330.13,6474.37,-20246.3
2.7466e+07,43.3518,1,2.94373,-3012.03,3537.13,-20999.9
2.76332e+07,65.2321,1,3.00563,4195.31,-3485.19,-25081.7
2.77288e+07,90.7293,1,2.92476,-17077.4,472.565,-20300.1
2.85374e+07,30.8712,1,2.41426,-2271.36,-1927.45,-23037.5
2.88094e+07,44.0234,1,2.50996,-4142.15,-4799.13,-22040.9
2.89292e+07,189.763,2,2.98716,19349.1,-24425.1,-26142.6
2.90466e+07,72.0479,1,2.44779,-5780.75,-7966.54,-17255.2
2.90813e+07,68.5798,2,2.8491,6358.29,-5891.9,-17310.4
2.95271e+07,108.27,0,2.50183,-18293.7,413.923,-15210.2
2.95548e+07,5.3356,2,2.88213,467.58,-1094.57,-28933.9
3.00137e+07,59.7911,1,2.50949,-8476.17,5448.77,-21130
3.00399e+07,51.5043,1,2.8344,8013.37,7254.47,-27560
3.03045e+07,27.5647,1,3.00842,-1299.9,5663.48,-27921.9
3.04339e+07,143.82,1,2.78874,-501.863,27924.7,-16977.4
3.05732e+07,14.5221,2,2.60088,921.504,-2286.9,-27561.2
3.07468e+07,60.5404,2,3.05886,8983.22,860.936,-19973.5
3.08357e+07,37.4192,0,2.66618,5555.28,-337.861,-23161.6
3.08812e+07,19.3772,1,2.66421,1553.97,-2399.25,-25984.5
3.09313e+07,10.7713,0,2.67795,2129.16,-936.199,-29346
3.1271e+07,53.569,1,2.36927,-3957.02,-5726.48,-19904.8
3.14214e+07,143.643,0,2.65702,-16503.7,19706.6,-12874.9
3.16331e+07,198.388,0,2.64287,-6655.53,26681.9,2701.25
3.1814e+07,95.964,2,2.69867,-8009.41,-12254,-28018.9
3.19365e+07,36.5986,0,2.60428,1356.2,13.6545,-27905
3.21203e+07,168.979,1,2.60334,23957.6,22645.3,-15099.7
3.22379e+07,45.8463,1,2.82319,8199.96,1576.13,-24049.8
3.23073e+07,84.3301,1,2.73862,16291.8,-2710.9,-22383.4
3.23217e+07,38.2517,2,2.66013,-3580.92,1677.2,-21801
3.26616e+07,172.097,1,2.46881,-15885.4,27602.1,-11101.1
3.27944e+07,0.540275,0,2.47912,21.0275,-112.659,-28804.1
0,0.484273,0,3.02946,0,0,0
0,0.547536,0,2.80269,0,0,0
0,0.48496,0,2.88459,0,0,0
0,0.49554,0,2.57473,0,0,0
3.28072e+07,112.264,1,2.44591,5200.55,18383.6,-14668.8
3.30933e+07,67.7398,2,2.85209,-5475.09,-12680.2,-25093.9
3.33429e+07,64.8105,0,2.67645,6131.13,5558.63,-17945.7
3.3398e+07,180.014,0,3.03299,-15534.1,7746.88,4587.92
3.37381e+07,84.6183,0,3.03627,7133.47,-10178.6,-16176.6
3.42698e+07,13.2548,2,2.47103,-1957.98,1176.21,-27200.7
3.4484e+07,36.3613,0,2.55159,5962.18,-222.654,-23888.1
3.48028e+07,87.0346,1,2.6313,-5351.75,13180.7,-17137
3.49855e+07,12.2314,0,3.0506,2584.46,-269.101,-28394
3.50766e+07,169.49,2,2.57109,-5801.86,-24073.8,-3155.39
3.52198e+07,106.591,1,2.60282,-14316.9,3775.47,-11837.6
3.53922e+07,46.6061,2,2.73364,6216.82,608.906,-21327
3.55045e+07,156.563,0,2.50352,-4608.22,-5336.58,-16771.2
3.58279e+07,41.6694,2,2.58273,2142.74,-4684.12,-28347.2
3.59347e+07,208.97,1,3.04533,-29855.7,6315.11,1700.8
3.59778e+07,103.244,0,3.05788,15829.3,665.143,-25312.9
3.59781e+07,115.419,1,2.60974,9852.92,4170.24,-6951.68
3.60723e+07,50.8525,2,2.99971,-1582.77,-2120.42,-28693.8
3.61196e+07,18.1764,1,2.99632,-499.173,-3215.86,-26968.4
3.61413e+07,48.2408,0,2.76572,1541.1,3350.74,-19373.1
3.64324e+07,70.5857,2,2.48933,-7680.65,-12170.8,-24639.5
3.65228e+07,13.5743,2,2.7757,-1612.47,-2501.37,-28830.6
3.65513e+07,196.192,0,2.42492,9612.51,-7450.08,10805.1
3.66971e+07,85.0204,0,2.46523,6237.28,1554.26,-13266.3
3.68133e+07,8.26123,0,2.72211,320.541,-1310.39,-27730
3.68951e+07,82.5212,2,2.48414,-8894.32,1317.83,-13869.1
3.69839e+07,104.731,1,2.66434,-21768.5,2127.47,-25358.9
3.70157e+07,26.1597,1,2.95198,-492.46,601.172,-28463.6
3.73572e+07,45.7811,2,2.55426,1980.18,-2900.62,-19843.8
3.74194e+07,74.5896,0,2.45392,1625.68,-6018.15,-14355.6
3.7729e+07,99.3271,2,2.76826,-20809.3,77.1411,-26224
3.77551e+07,46.5876,0,2.39997,6743.67,-5051.61,-23620.5
3.77849e+07,246.337,2,2.77415,17838.5,21333.3,14810.6
3.78088e+07,96.0347,0,2.68731,4230.04,-19445.2,-24968.2
3.80029e+07,186.187,2,3.01347,15365.8,-872.636,-22751.8
3.81146e+07,59.5729,0,2.61026,5111.39,2717.41,-17652.9
3.83538e+07,93.9772,0,2.76459,-2240.11,-11303.8,-12776.1
3.8361e+07,144.012,2,2.589,11302.1,19274.9,-8364.12
3.85418e+07,195.621,0,2.98709,-19431.3,28378.7,-6589.44
3.87044e+07,1.22454,0,2.46042,21.6635,-53.1123,-28595.7
0,1.19906,0,2.8358,0,0,0
3.89024e+07,3.42266,0,2.91623,100.806,384.72,-28264.2
3.95041e+07,18.2023,0,2.4442,-18.5913,3195.36,-26685.3
4.00424e+07,85.1507,0,3.05878,4208.74,-4366.02,-12076
4.01167e+07,11.2207,0,2.95107,1085.68,-2150.32,-29047.9
4.06636e+07,126.394,0,2.74466,13597.9,-12584.5,-9683.77
4.12367e+07,38.181,1,2.89786,-5628.3,-5679.3,-28518.7
4.12509e+07,124.804,1,2.97343,-19618.1,-12550.8,-16885.5
4.13962e+07,123.543,0,2.85883,1118.18,-23368,-27477
4.14463e+07,51.4724,1,2.55872,-8572.09,-3463.97,-23081.6
4.1904e+07,43.7666,2,3.02319,-5432.75,2832.44,-22022
4.19093e+07,115.961,0,2.61826,3266.07,-4006.06,-29489.6
4.21329e+07,58.0175,0,2.98226,-1469.97,-11759.2,-26049.7
4.22624e+07,28.8689,2,2.80436,-4288.54,-3471.16,-26135.9
4.2334e+07,35.7789,0,2.67151,1423.17,6083.15,-24558.2
4.24318e+07,140.684,1,2.61494,-18914.3,22955.8,-27153.6
4.27978e+07,29.9621,2,2.399,3882.03,-665.692,-23881.9
4.30311e+07,41.714,0,2.95648,4456.43,-6145.89,-24383.5
4.3084e+07,43.7841,2,2.86656,-1769,6356.86,-22498.5
4.31386e+07,4.54553,0,2.65195,373.574,302.869,-27979.6
4.32526e+07,47.0777,2,2.91935,-8108.98,-5805.81,-28743.6
4.33569e+07,6.21858,0,2.82233,1058.18,-148.265,-27963.6
4.34451e+07,132.26,1,2.87299,-715.048,21748.7,-11474.2
4.37804e+07,127.657,0,2.38563,18463.8,17273.8,-19183
4.39275e+07,102.127,2,2.49561,1747.66,-21625.8,-28802.3
4.40862e+07,80.0557,2,2.43899,-9298.43,-14254.7,-29734.6
4.4432e+07,23.2853,1,2.41805,-1136.75,892.721,-24120.6
4.45492e+07,87.5939,2,2.72841,15864.6,-1393.36,-19657.5
4.47047e+07,41.9662,0,2.47098,1009.15,2955.69,-20525.2
4.48779e+07,130.629,1,3.02269,-12612.4,7722.85,-7531.11
4.50107e+07,17.3114,0,2.56239,-2331.36,-2511.72,-27680.7
4.53427e+07,55.8228,0,2.51765,10904.4,-4233.22,-26647
4.55224e+07,2.01011,2,2.95204,-497.573,-62.8965,-28936.1
4.55527e+07,139.648,0,2.83048,29028.9,-2279.66,-24434.4
4.56983e+07,130.563,0,2.54432,-5187.23,-24530.7,-17315.6
4.60837e+07,77.1455,1,2.84667,3960.2,14700.5,-23078.4
4.60889e+07,45.4728,1,2.41978,5072.92,-2097.89,-20972.8
4.61172e+07,106.911,1,2.80696,-4505.83,10594.3,-9489.63
4.62543e+07,20.8427,2,2.7252,-1871.71,3859.44,-29700.8
4.65239e+07,40.6807,1,2.84226,2211.81,4123.63,-21660.1
4.67544e+07,147.467,2,2.78189,-19916.6,21934.5,-21568.6
4.6794e+07,28.9483,1,2.65267,2520.83,-2377.07,-23856.4
4.68858e+07,174.539,2,2.98173,2907.4,-15337.6,900.864
4.77767e+07,119.568,2,2.57502,-7813.67,-10632.3,-7254.36
4.78377e+07,41.0164,0,2.88691,-880.711,-3978,-29335.7
4.79414e+07,107.987,1,2.57985,-6602.4,-13827.5,-11977.4
4.83632e+07,157.003,2,2.81331,-9646.34,13176.8,-200.799
4.85015e+07,88.4414,0,3.04113,9599.97,14040.3,-21392.1
4.88192e+07,21.4948,1,2.94672,-3377.43,3009.19,-29847.9
4.89775e+07,123.521,0,2.61846,11009.4,22657,-21894.3
4.91615e+07,34.5773,1,2.78918,-3651.37,4533.37,-24357.6
4.92112e+07,13.0865,0,2.51333,1183.28,-2104.73,-27414.4
4.94563e+07,73.8778,1,2.40886,-9541.54,-2161.35,-19914.3
4.95895e+07,5.37797,1,2.77622,721.324,947.09,-28695.4
4.96878e+07,138.947,0,2.57854,19962.7,-523.718,-7286.47
4.99752e+07,16.8958,2,2.87464,1314.76,-382.553,-25754.6
5.01706e+07,27.9717,2,2.73876,-2292.82,-4467.22,-25671.5
5.02491e+07,16.4413,2,2.81638,-118.705,-2164.01,-26084.7
5.03199e+07,166.025,0,2.43506,-14545.5,-21799.3,-5523.23
5.03896e+07,36.2481,2,2.47612,6797.16,-3555.53,-29221.5
5.04085e+07,19.9441,2,2.96597,-1668.59,-3958.81,-29167.2
5.06409e+07,70.9909,1,2.99345,-8666.31,5494.93,-18007.2
5.06624e+07,88.0397,1,2.3893,-17392.2,6931.33,-29051.5
5.08908e+07,298.406,1,2.4385,-18136,4466,-1801.5
5.15844e+07,84.3081,2,2.60619,5967.63,-3600.53,-12943
5.18992e+07,34.7908,1,3.01578,3338.82,6526.66,-29706.8
5.19881e+07,40.1157,2,2.99689,8313.11,-636.181,-27760.9
5.20482e+07,183.152,2,2.50921,-4003.08,-28162.4,-2500.73
5.22733e+07,26.9205,1,2.83602,-147.512,5700.77,-28348.6
5.25661e+07,34.2092,2,2.54639,-1747.5,-1925.11,-22078.5
5.25997e+07,69.7914,2,2.43427,-11919.2,2959.62,-20638.6
5.26079e+07,96.6341,0,2.3999,-18150.9,4494.57,-20737.7
5.2774e+07,174.887,2,3.01361,-5622.85,-17117.3,-20975.9
5.28282e+07,287.772,1,2.49522,7308.37,22434.4,21490.8
5.29287e+07,19.5623,2,2.53311,-2916.87,2878.09,-28188.5
5.30827e+07,39.5549,0,2.39567,-5030.88,4333.5,-23797.9
5.33541e+07,116.424,0,2.96507,18987,-14233.6,-22905.7
5.33759e+07,101.554,0,2.71183,14631.9,-3695,-25278
5.35391e+07,98.4045,0,2.88271,19768.6,-3564.94,-23559.7
5.37541e+07,27.1567,2,2.64388,-3584.43,-1952.29,-24749.9
5.38489e+07,53.4764,2,2.59537,-4427.42,6506.25,-20803.2
5.41403e+07,55.1712,2,2.65358,-2757.98,-358.388,-17545.2
5.43807e+07,47.5338,0,2.98993,7834.51,1239.01,-22711
5.46536e+07,218.541,0,3.04416,-1608.12,13945,14668.2
5.50307e+07,49.7162,2,2.84328,-9332.18,2185.74,-24579.6
5.53609e+07,38.5031,1,2.60828,-2461.7,4140.55,-22239.2
5.54602e+07,84.7105,0,2.37901,2716.91,11881.2,-15673.6
5.59583e+07,12.1467,0,3.05568,2531.92,-274.192,-28108.5
5.6031e+07,3.5032,0,2.63982,521.109,620.83,-28842.3
5.65251e+07,31.0168,2,2.99862,-4814.41,-4417.16,-27855
5.7337e+07,51.9438,0,2.66908,-2680.1,-3186.52,-18739.4
5.7349e+07,22.7922,2,2.57558,-2907.24,-1432.54,-25226.8
5.76073e+07,48.243,1,2.56682,-8858.43,-4372.37,-26203.8
5.81131e+07,122.045,2,3.03961,3258.27,246.199,-9819.31
5.813e+07,118.436,2,2.91589,-19059.3,7697.46,-15345.4
5.81366e+07,234.355,2,2.63037,-27560.8,6593.21,11665.5
5.83286e+07,26.6886,2,2.73747,1689.78,3065.8,-24530.5
5.8545e+07,78.7258,2,3.01877,12307.3,9468.79,-23497.6
5.86897e+07,4.86867,1,3.04397,57.5348,786.965,-28111.6
0,4.85958,1,2.37281,0,0,0
5.87925e+07,41.2049,2,2.61643,-7968.92,480.268,-25335.9
5.89411e+07,50.7241,2,2.89091,1977.88,-10147.6,-26056.6
5.93044e+07,3.76025,2,2.77152,-628.344,-182.308,-28305.9
5.93128e+07,121.958,2,2.88533,-18211.6,-17219.4,-23170.8
5.93195e+07,1.36394,1,2.86455,-182.827,-173.04,-28756.2
5.94833e+07,98.5767,1,2.4137,-13019.2,-15622.9,-24227.6
5.95582e+07,7.31292,1,2.94375,-652.468,1091.18,-27890.9
5.9806e+07,12.7751,2,2.74048,-2666.15,-741.275,-28641.1
5.98823e+07,38.0126,2,2.65337,7373.77,-1631.29,-26192.6
5.98986e+07,78.1746,0,3.05231,-9039.54,11670.9,-21831
6.00228e+07,63.6593,0,2.66969,-4966.81,11773.5,-24747.9
6.01139e+07,185.443,0,2.78127,11362.4,-24373.4,-4999.67
6.01736e+07,138.84,1,2.66485,-16927.6,23423.2,-23526.1
6.0223e+07,16.141,1,2.64711,-2068.12,2192.14,-27091.1
6.02393e+07,5.07096,1,2.94328,-264.885,-831.899,-28289.5
0,4.70188,2,2.4967,0,0,0
6.02428e+07,108.809,1,2.67964,-5007.81,-5775.99,-27697.8
6.02798e+07,97.4995,2,2.53337,6172.44,5820.89,-10098
6.05354e+07,63.6855,0,2.73129,11243.9,1045.08,-21470.2
6.05888e+07,32.7344,0,2.96355,1219.79,-6621.86,-27462.7
6.07914e+07,72.8724,0,2.54546,-4465.51,9239.26,-17382
6.15172e+07,47.3159,0,2.55889,-2247.81,-6136.54,-21312.4
6.17509e+07,268.893,1,2.48069,11495.2,25034.4,-2105.49
6.18262e+07,112.624,0,2.55185,13673.6,5869.81,-10218.6
6.20029e+07,60.5713,0,2.94718,-4260.69,3473.89,-17407.9
6.23912e+07,51.1562,2,2.6633,5721.04,-7829.85,-23996.9
6.27058e+07,7.26507,1,2.87547,629.146,-787.817,-27759.9
6.29208e+07,32.7308,2,2.45823,-4274.74,2326.32,-23948
6.30944e+07,225.904,2,2.88327,-18037.4,12677.6,13158.7
6.32049e+07,50.3203,0,2.74524,7847.15,-2064.88,-21920.4
6.33578e+07,185.346,0,2.98178,-1724.8,9136.39,2504.2
6.33996e+07,56.2612,1,2.84783,-9278.65,-3246.47,-22262.6
6.34909e+07,75.4649,2,2.87697,-9883.12,-10874.5,-22658.5
6.35093e+07,41.853,1,2.43326,5146.86,5152.51,-23829.7
6.35431e+07,12.9404,2,2.51198,-786.98,-2377.74,-27536.2
6.35513e+07,141.882,1,2.66598,-21168.4,5794.59,-8438.15
6.45246e+07,59.3427,0,2.77134,12327.7,2462.69,-29813.3
6.45576e+07,3.9866,0,2.78083,274.653,821.355,-28618.5
6.46248e+07,6.67643,0,2.95879,1074.76,-495.214,-27984.8
6.48092e+07,50.6346,0,2.48049,-6199.51,-7064.15,-23767.4
6.49196e+07,22.0856,0,2.84667,4639.98,692.914,-29648.8
6.50012e+07,95.8563,2,2.78933,-2968.47,11293.3,-12431.2
6.51447e+07,232.31,1,2.98359,-5854.86,-29342.7,9516.71
6.52862e+07,72.0425,1,2.43526,12422.9,8687.1,-27152.5
6.54091e+07,23.7228,2,2.97544,-334.528,-4086.89,-25893.9
6.54314e+07,119.684,0,2.98785,24480.5,-5234.01,-26003.9
6.55169e+07,151.187,1,2.63513,14408.2,6317.02,-1097.81
6.5706e+07,58.099,1,2.85165,-979.329,-240.933,-28938.2
6.57135e+07,81.1683,0,2.40338,-2315.74,-13181.4,-18082
6.5751e+07,14.8805,0,2.73913,1750.97,975.504,-26398.6
0,14.9168,0,2.98228,0,0,0
6.57616e+07,56.9297,2,3.01122,-3197.25,-7063.91,-19710.6
6.594e+07,67.0248,0,2.40391,-7112.21,-10012.6,-21803.7
6.59787e+07,13.4321,1,2.38235,-2443.46,1567.16,-29266.6
6.60402e+07,67.1095,0,3.0098,10414.7,-2233.22,-19552.9
6.60851e+07,55.4128,1,2.83063,7636.83,-1612.46,-20233.2
6.61637e+07,7.71541,2,2.40388,428.12,-1567.95,-29385
6.62878e+07,148.481,2,2.97977,13291.2,-26609,-19454.9
6.6442e+07,49.8743,0,2.96791,-1008.07,-3091.05,-18906.1
6.65649e+07,88.6039,1,2.98424,-9771.44,-5951.11,-14215.2
6.68352e+07,44.9112,0,2.93659,5371.98,7803.33,-29183.6
6.68392e+07,80.9024,0,2.54206,16646.5,-2517.25,-25360.5
6.68827e+07,102.551,0,2.87498,17075.2,12082.8,-23369.8
6.69673e+07,19.1118,0,2.54477,2124.09,1962.13,-25950.2
6.70544e+07,73.2495,1,2.88907,-1009.05,1556.73,-27680.8
6.73211e+07,153.001,1,2.72728,14093.8,27767.2,-20328.1
6.73416e+07,100.248,0,2.46565,-120.647,10751,-10603.6
6.76476e+07,51.5308,1,2.77219,6866.34,7762.9,-25536.4
6.78754e+07,10.9035,1,2.84072,-761.793,1350.14,-27071.2
6.8025e+07,111.194,1,2.86179,12856.5,18613.1,-22803.7
6.82883e+07,35.0016,2,2.97571,-449.259,-6469.41,-25262.9
6.84998e+07,46.8617,0,2.66136,7026.44,-5441.69,-24396.1
6.8576e+07,52.3917,2,2.68392,-9621.61,-634.695,-27489.1
6.86604e+07,261.151,0,2.6363,10317.9,-21009.8,20532
6.8676e+07,23.2289,1,2.68979,-1802.6,-3800.38,-26431.7
6.87175e+07,44.9598,2,3.00064,7460.1,-2774.85,-23777.5
6.87285e+07,114.581,0,2.90062,2242.06,-8019.97,-13675.4
6.88288e+07,32.0648,2,2.37436,399.669,-6414.69,-26406.1
6.8833e+07,52.3642,1,2.67726,6590.36,6810.9,-23106.3
6.90861e+07,16.1467,0,2.65385,2001.6,-2607.62,-27831.5
6.91044e+07,17.3044,0,2.68939,-451.858,-3152.23,-27027
6.92455e+07,80.2218,1,2.9364,-16438,2123.91,-25839.7
6.93746e+07,80.7876,1,3.05759,3179.13,5670.71,-13225.2
6.94555e+07,32.0929,2,2.62593,-5013.06,-3141.7,-25409.8
6.94688e+07,91.8375,2,2.63142,8821.12,-15030.8,-20237.3
6.94956e+07,27.2766,1,2.79396,-24.5558,554.436,-28924.8
6.9907e+07,52.8008,1,2.41503,-5950.72,-8771.15,-25385.8
7.05349e+07,20.0588,1,2.53413,-1684.15,-2981.67,-26360.4
7.1317e+07,19.2985,0,2.9019,1928.57,-757.441,-25321.1
7.17441e+07,35.2344,0,2.48935,3268.52,6670.83,-27774.6
7.17832e+07,52.2761,0,2.45103,7367.82,2010.4,-20787.8
7.23333e+07,1.05557,1,2.89566,13.0423,203.373,-28690.5
0,0.996788,1,2.41096,0,0,0
7.29606e+07,166.392,0,3.00795,20141.3,-8866.86,-23637.7
7.30348e+07,112.473,1,2.60263,-9639.59,11086.2,-19734.8
7.31716e+07,46.041,1,2.44319,-6953.22,6807.33,-27375.2
7.33305e+07,18.8792,0,2.84607,-1431.34,2013.01,-25757.6
7.37655e+07,17.167,0,2.4856,2023.23,-201.672,-25784.9
7.4177e+07,69.1163,0,2.61907,-1878.64,13265.2,-23105.3
7.464e+07,186.504,2,2.41529,-8385.41,568.511,-6918.77
7.47241e+07,171.707,1,2.37152,1024.41,29210,-7789.48
7.50631e+07,19.9062,1,2.65744,-1015.81,600.342,-24807.2
7.54364e+07,63.402,0,3.0325,10386.6,2495.03,-20831.9
7.55494e+07,85.4443,1,2.91031,7549.14,14056.9,-20550.9
7.56099e+07,193.104,0,2.79679,27177.6,-23619.8,-9919.7
7.56702e+07,5.51123,2,2.8405,236.887,-917.914,-29678.1
7.58448e+07,227.192,1,2.56827,10329.3,-23152.5,11856.1
7.58997e+07,12.5937,1,2.92301,-715.47,2601.04,-28582.9
0,12.3596,1,2.6356,0,0,0
7.60068e+07,39.4719,2,2.60599,-2549.86,-1598.25,-21044.9
7.60179e+07,57.6,2,2.87722,-9373.55,7671.65,-28765.4
7.61028e+07,143.416,0,2.57703,2366.32,-27886.9,-17178.9
7.62715e+07,54.0611,1,2.45517,-3191.87,1782.24,-18002.8
7.6483e+07,154.657,0,2.74677,6858.32,-8229.59,1915.84
7.68653e+07,122.902,1,3.04175,21276.7,2992.54,-14691.8
7.68663e+07,6.03001,0,2.98178,400.161,-957.038,-28053.6
7.70166e+07,39.0292,2,2.93577,-3762.16,3921.14,-22731.7
7.71169e+07,119.793,1,2.66215,-20843,12249.2,-21286.1
7.72388e+07,159.937,2,2.87308,-22173.9,22036,-16565.3
7.72863e+07,5.56935,0,3.02134,1041.25,220.713,-29565.3
7.73964e+07,28.8024,0,3.02932,4505,2503.98,-25575
7.76264e+07,45.5174,1,2.68603,-3014.37,2544.31,-20059.6
7.85131e+07,28.5104,1,2.7621,-5044.6,-1149.37,-25750.4
7.86795e+07,110.819,2,2.69298,15577,-10814.5,-15183.6
7.88135e+07,26.5632,0,2.53204,5514.13,1463.47,-29075.8
7.92355e+07,105.798,0,2.63899,4401.65,5811.08,-14002.3
7.93179e+07,61.9434,0,2.6504,11011.3,-7040.93,-27385.6
8.00453e+07,64.4778,0,2.68262,-345.547,-12047.5,-22545.9
8.02337e+07,285.007,2,2.66229,-7625.53,-18417,27870.4
8.02446e+07,4.65131,0,2.86538,-42.0245,-989.226,-28931.8
8.04558e+07,82.5623,0,2.66442,4216.22,-9575.33,-14891.3
8.08566e+07,85.8344,2,2.66514,4190.49,-11437.2,-15425.9
8.11076e+07,92.7442,0,2.83973,-5266.8,-6574.62,-11298.8
8.14259e+07,74.5842,1,2.4966,9987.93,-8489.56,-21874.5
8.15139e+07,98.6526,2,3.01499,-2577.78,11491.7,-11911.9
8.17737e+07,7.78465,2,2.85483,88.0231,-1496.76,-28049.8
8.18748e+07,254.105,0,2.79393,-23470.7,-6959.46,17599
8.19451e+07,45.1116,1,2.85018,3845.98,7654.26,-24730.4
8.24142e+07,28.619,2,2.94872,-5266.66,2950.15,-28907.9
8.26502e+07,191.738,2,2.84262,-20921.2,-14319.4,2527.5
8.27488e+07,79.7484,0,2.67395,-85.219,7247.75,-13673.7
8.2786e+07,99.1601,2,2.8009,6362.65,-7810.87,-10581.4
8.29877e+07,73.65,0,2.40567,-7918.53,2541.21,-15729.7
8.3185e+07,30.4263,1,2.75141,-3773.02,4321.91,-25791.1
8.33077e+07,70.4842,0,2.72084,5483.82,7236.53,-17054.7
8.34922e+07,159.78,2,2.99593,-4866.42,-24076.8,-12818.9
8.41458e+07,30.7252,1,2.46489,1050.32,4820,-24566.4
8.48858e+07,51.7889,2,2.49303,346.855,-5023.01,-26173.4
8.50065e+07,62.8267,1,2.61256,10048.8,8703.44,-28266.6
8.63654e+07,85.3435,1,2.94719,8102.13,15951,-27100.6
8.63908e+07,20.929,2,2.68978,-3311.33,-1600.37,-26276.4
8.66178e+07,127.814,2,2.73856,4195.91,-18533.9,-9741.92
8.67172e+07,83.7045,1,2.67418,14815.4,-576.014,-19320.8
8.72048e+07,11.2563,0,2.98442,1898.81,-1546.78,-28662.3
8.7263e+07,178.134,1,2.64839,15853.8,11847.9,3081.33
8.73222e+07,7.94457,0,2.76367,-0.590864,-1625.4,-28415.6
0,7.95082,0,2.80788,0,0,0
8.76667e+07,120.377,1,3.00938,16817.9,13562.1,-15791
8.78073e+07,36.2272,2,3.04794,-979.139,-832.447,-29336.4
8.80194e+07,106.112,0,2.99823,15338.8,-6976.35,-14232.8
8.83454e+07,145.627,0,3.03217,-3825.31,12758.6,-1414.41
8.83824e+07,25.3859,0,2.49637,2649.47,-3252.2,-25407.6
8.85437e+07,9.84611,2,2.92599,838.803,324.801,-27022.6
8.87875e+07,17.9314,2,2.95614,-1047.09,-686.65,-25290.6
8.89004e+07,12.5499,2,2.73848,1493.53,1751.75,-27685.4
8.91474e+07,55.4708,1,2.69111,857.344,9933.45,-22609.5
8.93192e+07,169.003,2,3.01483,11309.5,22400.7,-3940.93
8.9865e+07,16.869,2,2.8777,-1184.59,709.9,-25573.4
8.99038e+07,88.2579,2,3.02755,-16639.6,-8235.65,-29272.9
9.00255e+07,124.527,2,2.43318,7069.47,-15489,-8700.9
9.02403e+07,29.0862,2,2.84173,929.471,-4917.76,-25221.1
9.0483e+07,60.678,0,2.91375,4055.98,10400.8,-22606.6
9.05252e+07,109.611,0,2.89562,-9080.1,-20367.7,-23299.8
9.07562e+07,15.931,2,2.67636,2416.16,-1393.64,-26955.4
9.07752e+07,44.9375,0,2.37676,9234.69,-437.114,-26314.8
9.11599e+07,52.219,1,2.60788,-8461.4,809.003,-21765.4
9.16558e+07,183.158,1,2.47165,-2805.15,22736.2,2426.24
9.19751e+07,39.1806,0,2.94261,8132.4,1008.4,-27554
9.22226e+07,75.6721,1,2.72949,8954.92,-12102.8,-23777.3
9.22936e+07,52.4872,2,2.67164,9067.36,-6300.7,-27818.9
9.23155e+07,22.3901,0,2.4372,98.695,1439.67,-24328.8
9.24579e+07,1.53508,0,2.80659,239.787,-160.005,-28596.2
9.25889e+07,34.5915,2,2.78412,-544.559,-2659.69,-22075.8
9.2693e+07,14.1121,2,2.95149,-1786.37,-1644.47,-27021.3
9.28332e+07,50.0915,2,2.39277,6558.82,7643.61,-25782.2
9.29167e+07,45.308,0,2.56979,3285.66,9027.17,-28197.7
9.29423e+07,22.4475,0,2.37242,188.227,-4010.23,-26295.9
9.29774e+07,52.6401,2,2.9311,-2216.8,-1280.91,-18118.3
9.29975e+07,112.501,0,2.8862,1936.63,7173.57,-10363.3
9.36009e+07,163.606,2,2.94763,214.2,-21142.1,-1765.24
9.38802e+07,16.8334,2,2.65364,-478.311,-3347.63,-27491.6
9.39799e+07,14.2187,0,2.57833,1219.48,2131.28,-27050.8
9.40963e+07,55.0436,0,2.76134,1369.85,678.037,-23591.8
9.42053e+07,198.42,1,2.60265,6074.2,-10453.3,-10339.3
9.44721e+07,47.4044,1,2.88942,791.196,2240.56,-19159.7
9.50318e+07,125.731,1,2.7143,-10970.4,6266.27,-5534.44
9.52929e+07,41.71,2,2.96419,-340.641,-341.868,-29250
9.55703e+07,19.985,1,3.00493,-2099.59,-3076.77,-27009.6
9.69917e+07,52.6116,1,2.73154,-7949.3,2138.28,-21358.2
9.76412e+07,173.958,0,2.48164,6217.09,1026.46,938.896
9.7752e+07,57.5198,1,2.67729,-10584.1,5110.69,-25498.6
9.85278e+07,8.44374,1,2.79886,-486.128,1400.09,-27741
0,8.45501,1,2.84239,0,0,0
9.85716e+07,56.2938,2,2.36662,2633.76,-11628.9,-27404.9
9.88483e+07,16.9802,0,2.53301,-197.52,-3556.35,-29410.3
9.89758e+07,17.3406,0,2.42738,3713.23,445.705,-28294
9.91107e+07,137.61,0,2.49701,18004,5357.94,-6559.75
9.94672e+07,27.6901,0,2.51663,3222.07,1743.34,-24248.4
9.95403e+07,39.9401,1,2.77033,3806.65,7570.11,-29043
1.00549e+08,124.949,1,2.50809,-10098,1109.85,-4486.5
1.00647e+08,58.3948,0,3.05601,5684.05,5598.43,-19542.7
1.00662e+08,79.6169,2,2.49107,3925.86,-11928.4,-17588.7
1.00669e+08,7.1496,0,2.82294,-77.6994,974.73,-27742.4
1.00817e+08,5.98933,1,2.554,-809.575,781.677,-29640.3
1.01e+08,45.2761,1,2.50794,-7631.54,-3604.49,-24360.2
1.01082e+08,77.2055,1,2.8333,3301.48,15464,-24827.7
1.01278e+08,26.2377,0,2.65608,-3939.87,110.018,-25016.4
1.01307e+08,31.4582,2,2.65649,5208.05,1876.27,-25288.3
1.01475e+08,21.6842,2,2.96479,-504.189,-3308.38,-25720.9
1.01756e+08,15.6561,2,2.60414,149.115,-2957.29,-27214.8
1.02143e+08,83.6711,1,2.47586,5049.37,12992.4,-17924.1
1.0216e+08,16.9222,1,2.8902,-2310.8,2815.11,-29250.2
1.0239e+08,295.617,0,3.05612,-18326.4,-9779.55,22915
1.02936e+08,42.1159,1,2.45429,-5350.95,7262.83,-28530.2
1.04072e+08,131.775,1,2.58772,-12099.9,-4263.36,-4140.98
1.04253e+08,22.2387,1,2.49924,-921.42,3411.9,-25684.1
1.04351e+08,28.8365,2,2.87979,-3060.21,-5348.76,-29016.1
1.04459e+08,6.49737,0,2.37814,1208.27,745.047,-28516
1.04543e+08,4.55851,0,2.75738,140.534,-851.726,-28359.8
1.04694e+08,233.014,1,2.71303,20982.2,5736.95,15148.1
1.04956e+08,140.649,0,2.69436,-1159.51,-8140.6,-18414.5
1.04993e+08,96.1017,2,2.78616,-20044,-3098.03,-28913.7
1.05762e+08,144.371,1,2.99,1572.6,19038.7,-5317.03
1.05977e+08,60.5867,2,2.44646,7730.91,3779.4,-19395.1
1.06024e+08,50.7999,2,2.82393,2740.01,-6774.02,-21009.4
1.06037e+08,70.8893,1,2.89607,-1204.87,8333.03,-21389.5
1.06104e+08,74.623,2,2.69863,-15670.7,1043.04,-27203.5
1.06381e+08,148.135,1,2.80828,-9691.37,22556,-9572.77
1.06465e+08,75.2127,0,2.37884,16001.8,-1028.72,-28988.7
1.06555e+08,93.1332,2,2.93426,6548.74,-411.764,-26948.4
1.06684e+08,15.2227,1,2.8018,-2664.9,1878.31,-29206.1
1.06783e+08,12.6875,1,2.70203,-970.687,288.397,-26344.1
1.06919e+08,5.18913,1,2.92068,-465.831,851.126,-28189.1
1.07127e+08,117.044,2,2.41149,5305.69,-3937.36,-4979.93
1.07127e+08,314.323,0,2.63824,-22163.1,-20969.8,29992.1
1.07307e+08,7.08911,2,2.45506,935.53,-595.69,-27861.7
1.07497e+08,56.093,1,3.03472,-11296.8,-2223.12,-26306.9
1.07514e+08,2.1668,0,2.62388,242.6,-183.089,-28452.6
1.07563e+08,77.5361,1,2.88345,-9755.35,9330.94,-19646.1
1.07873e+08,188.691,2,2.70651,19825.5,15131,2061.82
1.08007e+08,1.10282,0,2.86168,73.9833,-225.028,-28716.5
1.08079e+08,21.6713,2,2.41203,-1331.22,-408.666,-25281.6
1.08112e+08,53.6711,0,2.79239,1259.32,-10887,-26078.5
1.08182e+08,225.882,1,2.67958,-14944.5,28524.3,6298.59
1.08271e+08,95.929,1,2.80608,1334.05,-12407.4,-13043.9
1.08526e+08,25.1081,1,2.8253,2521.59,-4039.99,-26712.6
1.08925e+08,41.9202,2,2.86388,4863.59,-5819.67,-24283.9
1.08984e+08,60.213,0,2.90197,7465.75,-4869.39,-20820.9
1.09199e+08,135.633,0,2.98892,6024.57,22617,-12661.4
1.09599e+08,28.8718,2,2.82736,-5844.89,-353.731,-26982.3
1.0968e+08,44.389,2,2.99452,7414.87,5424.2,-27714
1.09811e+08,1.18085,2,2.56459,-133.215,-133.219,-28621.7
1.09919e+08,15.8419,2,2.87969,-963.577,1907.97,-26323.3
1.10026e+08,12.3453,1,3.04527,-2251.49,1303.36,-28210.2
1.10528e+08,44.2138,2,3.00967,122.876,-3155.44,-29009.5
1.10693e+08,58.9694,2,2.86902,-5719.83,-10550.7,-25479.8
1.11076e+08,125.671,1,2.37998,21768.7,-7250.37,-15528.8
1.11176e+08,57.2663,1,2.67742,-5840.14,9760.27,-24524.7
1.11344e+08,20.7066,0,2.43711,1851.8,-1870.58,-25309.8
1.11562e+08,148.026,1,2.75291,3641.16,23367.8,-8505.79
1.11732e+08,39.494,0,2.6052,-4333.56,-3796.1,-22892.2
1.1175e+08,65.7259,1,3.05416,-1158.98,-2524.8,-27963.8
1.11756e+08,75.8689,2,2.62816,-7939.98,-2370.63,-15113.7
1.12297e+08,45.9212,1,2.51225,-9660.65,1382.48,-28440.9
1.12333e+08,35.622,2,2.83749,-1045.26,4080.36,-22703.8
1.12406e+08,9.32502,1,2.92841,-1621.38,1276.85,-29101.2
1.12446e+08,107.183,2,2.87309,-2871.42,15437.9,-12761.7
1.12568e+08,63.2154,2,2.53575,10099.8,-7859.4,-24867.4
1.12596e+08,74.899,0,2.82018,7773.85,10654.1,-20166.1
1.12735e+08,71.1635,0,2.68932,12221.3,6070.94,-22455
1.12891e+08,16.7723,0,2.683,2927.97,1906.62,-27855.4
1.12911e+08,170.303,0,2.72941,-18089.7,10730,-392.64
1.12961e+08,106.195,0,2.70931,-15629.9,-14058.9,-21311.9
1.1313e+08,13.3067,0,2.8525,-1541.96,60.684,-26604.2
1.13185e+08,82.3832,1,2.84146,-6822.78,13028.1,-19564.9
1.13275e+08,90.9726,1,2.6895,-11272.1,-1207.76,-19937
1.13325e+08,8.5765,1,3.04618,1393.38,-412.267,-27870.2
1.13936e+08,67.4447,0,2.47125,487.905,-8472.39,-17370
1.14663e+08,96.118,1,3.05164,-3005.7,7834.76,-10533.3
1.14818e+08,122.945,2,2.8889,-10428.5,-22375.6,-21007.3
1.14842e+08,57.2393,1,2.40856,-8272.1,-3394.73,-20646
1.14923e+08,50.2711,0,2.90185,3267.82,-5380.59,-20349.9
1.14953e+08,50.7838,2,3.00062,-1213.23,-3859.46,-18984.2
1.15272e+08,38.1821,1,2.84446,7950.52,-98.7443,-27923.5
1.15384e+08,18.9818,0,2.91478,1638.71,431.071,-25197.3
1.15701e+08,86.8816,0,2.96512,-4219.4,1619.02,-26648.1
1.15707e+08,261.677,0,2.47699,20873.3,3655.62,4833.55
1.15807e+08,33.0728,1,2.85937,-5687.82,4077.36,-29674.3
1.15906e+08,80.2422,2,2.86835,-5850.67,8926.7,-15823.2
1.1632e+08,66.3938,0,2.83087,6762.82,-4751.61,-17542.8
1.16391e+08,35.7797,2,2.61623,1487.15,-7488.23,-28813.1
1.16424e+08,54.4328,2,2.51839,-1713.56,-3871.09,-18116.9
1.16647e+08,110.323,1,2.39099,-16804.4,1985.71,-12732.3
1.16748e+08,34.7435,2,3.02686,-5547.97,-1403.35,-24262.5
1.16959e+08,15.5221,1,2.42992,683.639,3290.73,-28470.8
1.17024e+08,61.731,1,2.94214,-10461.3,-2952.36,-21777.3
1.17567e+08,245.939,0,2.96283,18669.1,4102.06,-14082.2
1.17691e+08,125.953,0,2.74445,22558,-10557.6,-19474.2
1.17709e+08,104.417,1,2.41159,10480,-12133.2,-13762.4
1.17885e+08,48.8709,0,2.82915,7190.29,-4148.58,-22674.7
1.17955e+08,25.2346,2,2.7991,-4544.5,-2887.04,-29553.1
1.1804e+08,112.897,1,2.84752,-347.245,17447.8,-12700.9
1.18042e+08,35.4607,2,3.05455,4712.59,-4970.02,-25933.4
1.18063e+08,78.6227,2,2.78298,10225,10564.5,-21399.3
1.1807e+08,36.9968,0,3.05329,4018.2,5481.41,-24999.1
1.18484e+08,1.20227,2,2.78968,-169.392,-297.463,-28781.7
1.18801e+08,202.276,2,2.6671,10974.7,20545.2,6726.58
1.19099e+08,22.3237,2,2.71992,-1687.6,-3582.61,-26180.6
1.19225e+08,13.451,0,2.64146,2792.29,719.151,-29510.1
1.19342e+08,5.29884,2,2.37947,587.801,-656.849,-28106.2
0,5.26344,2,2.58917,0,0,0
1.19441e+08,64.7198,0,2.67504,-2028.74,11627.7,-22051.7
1.19601e+08,54.2433,1,2.72504,-2869.85,-5264.73,-19163.6
1.19739e+08,87.8932,0,2.63472,10188.8,-11923.1,-18832.3
1.19893e+08,21.0834,0,2.46789,2974.1,-1638.05,-25886
1.19996e+08,58.289,1,2.56103,-9873.76,5916.72,-24227.2
1.20132e+08,110.361,2,2.86574,-9475.97,-1259.68,-7715.59
1.20274e+08,206.764,1,2.38234,29059,1672.33,-14150.3
1.20344e+08,50.7462,1,2.64741,4826.85,-2552.31,-19661.1
1.20504e+08,146.478,0,2.89988,19799.9,6880.02,-6317.09
1.20641e+08,43.0517,1,2.40185,-3758.08,6225.68,-23239.2
1.20896e+08,67.6338,0,2.41172,979.409,12583.8,-22140.8
1.20998e+08,45.2022,1,2.53014,-4376.28,7919.14,-25548.4
1.21043e+08,25.7125,1,2.91689,-2231.55,-1573.68,-24183.9
1.21164e+08,5.4042,2,2.46709,-86.3115,-346.99,-27730.2
1.21169e+08,122.896,2,2.94626,-113.291,-5929.85,-3742.58
1.21234e+08,34.7235,0,2.82673,-470.21,7008.49,-26754.8
1.2148e+08,235.256,2,2.5132,-22582.6,21809.3,9690.69
1.21515e+08,36.0765,2,2.57579,5332.26,3713.96,-24960
1.21661e+08,76.301,0,2.68742,-10618.3,-7789.22,-19712.5
1.21814e+08,11.5597,2,2.74666,-1069.27,2144.25,-28531.6
1.21916e+08,28.3014,2,2.48822,-5915.11,-1427.66,-28860.9
1.22618e+08,117.899,0,2.77751,13479.3,-18489.1,-19164.4
1.22631e+08,155.11,1,2.52887,-2344.81,-8801.47,-16501
1.22667e+08,86.1924,2,2.94134,14137,-6528.03,-19661.1
1.22755e+08,268.667,1,2.95343,14575.2,1303.54,-27421.5
1.2285e+08,55.8598,2,2.5946,-11750.4,563.562,-27494
1.22947e+08,116.575,2,2.98949,-18050.6,16356.1,-26749.4
1.22947e+08,4.91769,1,2.71915,-60.7446,761.899,-28083.2
1.23254e+08,242.571,1,2.76852,3887.25,-556.766,-22386.3
1.23261e+08,123.918,1,2.41129,24177.3,667.123,-18840.5
1.23426e+08,44.7974,0,2.62917,1444.55,8436.05,-24754.9
1.23749e+08,6.99033,2,2.42121,752.773,226.294,-27632.8
1.23985e+08,32.6663,1,2.52577,-6739.79,1688.93,-28304.1
1.24207e+08,207.373,0,2.83333,-24055.1,1546.5,7416.46
1.24259e+08,18.294,2,2.58728,-3582.12,807.133,-27477.1
1.24595e+08,65.8628,2,2.50429,1403.55,-7677.06,-17270.4
1.24659e+08,7.54841,1,2.55537,-299.355,-533.865,-27400.3
1.24675e+08,14.7648,2,2.55087,81.9465,1432.18,-26106.6
1.24791e+08,37.5029,1,2.59682,5344.26,4581.44,-25214.6
1.2509e+08,16.1993,0,2.54356,-209.021,-2711.01,-26750.2
1.2519e+08,98.5063,2,2.92856,-3074.68,-15658.3,-15641.8
1.2555e+08,205.501,1,2.51441,16650.8,-12843.8,9124.02
1.25694e+08,3.86756,0,2.8403,851.214,280.733,-28801
1.26203e+08,53.0354,1,2.76754,-2596.86,1571.33,-18104.7
1.26878e+08,93.314,1,2.70221,10650.1,2240.8,-14214.4
1.27038e+08,187.743,1,2.66747,-28387.5,-15584.3,-8192.51
1.27175e+08,42.5135,0,2.67265,6956.67,5778.74,-28863.1
1.27623e+08,29.517,2,2.57383,-1831.93,-2498.72,-23397.7
1.27701e+08,171.769,0,2.55031,21709.3,12967.2,-2780.36
1.27745e+08,16.1406,0,2.62584,-2173.22,555.296,-26345.5
1.27948e+08,55.8279,1,2.91734,-352.807,9894.6,-22477.1
1.28151e+08,33.3673,0,2.83844,-4786.45,2448.81,-24405.5
1.28158e+08,22.3794,1,2.44647,-4380.12,-1544.62,-29939.2
1.28209e+08,172.809,1,2.56248,-16232.3,28882.7,-13324.3
1.28265e+08,159.116,0,2.95927,20927.6,-347.231,-2793.83
1.28395e+08,51.6536,2,3.00308,-5236.35,-6034.65,-21451.1
1.28434e+08,1.84988,1,2.9805,-190.939,433.876,-28789.9
1.28457e+08,106.227,1,2.79334,12207.8,-9079.66,-12598.2
1.28581e+08,25.5963,2,2.38239,-2039.91,-4645.6,-26746.6
1.28939e+08,192.025,1,2.57708,-10686.8,28472.9,-1924.71
1.28961e+08,11.9791,1,2.9915,-566.984,1894.4,-27175.8
0,12.3982,0,2.85683,0,0,0
1.28989e+08,112.881,0,2.59806,-14749,13425.5,-15896.1
1.29261e+08,60.5076,0,2.64631,3030.71,-7510.48,-18936.6
1.29353e+08,176.293,2,2.86602,-20984.2,-23837.8,-11906
1.29368e+08,110.143,2,2.65455,-9175.76,-9618.75,-9772.63
1.29544e+08,180.818,2,2.93414,21183.8,-5394.62,-8078.66
1.29651e+08,12.0818,0,2.42701,1802.12,939.367,-27179
1.29818e+08,130.317,2,2.41054,-5997.54,-11305.9,-4394.41
1.3032e+08,78.162,0,3.03398,15025.6,6364.88,-26751.4
1.30342e+08,10.5202,2,2.60286,1196.48,110.405,-27018.3
1.30361e+08,55.3917,1,2.87691,3320.33,10356.8,-24572.7
1.30642e+08,61.6249,2,2.53915,-3497.34,-12665.6,-29076.8
1.30694e+08,277.205,0,2.91354,136.656,-25512.1,23437.8
1.30937e+08,100.492,1,2.89588,16334.7,13290.7,-26977.2
1.31003e+08,64.431,1,2.40166,11152.9,637.958,-21116.6
1.31046e+08,171.868,1,2.94662,2359.73,-7986.8,-29412.5
1.31102e+08,67.5825,0,2.75941,2157.91,-1511.63,-14863.7
1.31608e+08,131.236,0,2.94176,15820.7,-14701.4,-12614.5
1.31993e+08,178.189,1,2.37528,-14898.6,-10461.2,4146.19
1.32138e+08,29.9442,0,3.0081,1180.13,5693.58,-26450.5
1.32199e+08,28.5236,1,2.72741,399.224,5843.08,-27140.3
1.32204e+08,45.2074,0,2.94634,2397.32,-9042.85,-27021.7
1.32216e+08,43.2505,0,2.70206,8027.1,881.466,-24496.9
1.32356e+08,19.6608,1,2.913,-1409.11,1109.34,-25535.6
1.32441e+08,71.6345,0,2.77282,9362.4,5153.01,-18144.4
1.32494e+08,17.6874,2,2.78444,2376.72,-2855.27,-28152.4
1.32509e+08,171.897,0,2.62552,-12857.1,24274.7,-5406.82
1.32514e+08,152.451,1,2.43141,11023.8,21018.4,-7009.57
1.32533e+08,62.5414,2,2.81153,-12269.1,-2779.45,-24761.6
1.32668e+08,4.98863,2,3.01307,-997.199,-155.712,-28390.5
1.32744e+08,5.07418,1,2.4226,645.641,-336.69,-28136.2
1.3292e+08,28.265,0,2.62501,5406.12,-2109.22,-27175.1
1.32935e+08,46.8388,2,2.65058,-2646.98,-4604.07,-20464.5
1.33122e+08,59.8385,1,2.7648,-5555.66,11345.5,-29186.9
1.33147e+08,97.7152,1,2.52287,-14808.8,4553.3,-15107.7
1.33728e+08,6.18592,0,2.98427,1313.29,-379.183,-28602.8
1.33919e+08,31.1659,2,2.69152,-4228.65,3089,-24878.4
1.33939e+08,81.4981,2,2.46989,8753.71,-12011.9,-20068.6
1.34089e+08,154.811,2,2.76568,-18891.5,24979.1,-19952.4
1.34232e+08,20.7803,1,2.80098,-3298.25,97.8324,-25902.7
0,20.7649,1,2.76481,0,0,0
1.34319e+08,33.8139,1,2.47932,-3954.3,-895.709,-23025.1
1.34697e+08,97.8447,2,2.74244,-17459.6,-11017.8,-27198.8
1.35065e+08,162.732,0,2.9131,4751.44,-19929.2,-8017.99
1.35579e+08,43.4532,0,3.00384,5609.08,242.903,-21616.7
1.35725e+08,90.2989,0,2.92892,7959.91,-16919.9,-25450.7
1.35772e+08,24.2187,2,2.56208,-1573.36,-4964.05,-28712.9
1.36052e+08,148.079,1,2.55939,-28434,-9692.58,-20015.1
1.36116e+08,9.43962,0,2.76643,149.763,-117.509,-28966.5
1.36179e+08,47.7335,1,3.00285,4941.93,-4173.63,-21264.7
1.36315e+08,110.209,0,2.40315,9837.35,20791.2,-24696.5
1.3712e+08,39.0538,0,2.50761,6938.69,370.059,-24246.4
1.37413e+08,84.5189,0,2.69837,14629.6,-9974.58,-26207.9
1.3758e+08,158.565,2,2.82122,-17796,-4457.19,-968.813
1.37659e+08,29.7381,1,2.6648,-1230.09,4457.29,-28456.4
1.37786e+08,14.7004,2,2.36259,219.665,3047.49,-28719.4
1.37873e+08,118.846,0,2.64446,14909.8,-5169.74,-9316.06
1.37949e+08,18.2676,0,2.87327,3487.66,583.627,-27131
1.38149e+08,124.655,0,2.73463,-11089,-20705.1,-17209.2
1.38159e+08,44.733,2,2.66131,-4074.89,-8642.67,-29037
1.38183e+08,29.0054,2,2.56068,4173.6,-4536.43,-28627.1
1.38516e+08,28.814,2,2.71376,-564.728,-6151.97,-29273.9
1.38922e+08,15.0819,0,2.87142,851.747,2569.33,-27169.2
1.39003e+08,80.1958,2,2.48581,-5117.25,2234.91,-12830
1.39365e+08,8.22532,2,2.69475,-642.154,491.38,-27314.6
0,8.19168,2,2.46877,0,0,0
1.3975e+08,18.2297,2,2.8565,1049.27,-746.356,-25250.4
1.39777e+08,92.4598,2,2.88944,12748.4,-14715.3,-28878.2
1.40146e+08,25.7721,2,3.05922,-2460.33,2069.92,-24509.8
1.4037e+08,115.66,1,2.4291,10832.1,17315.1,-15301.3
1.40595e+08,230.724,2,2.8239,-12819.5,-28890.9,8026.95
1.40651e+08,4.31964,0,3.05075,458.048,-475.841,-28160.8
1.40695e+08,52.1456,2,2.45554,-10232.8,-3474.54,-26433.4
1.40796e+08,16.5961,1,2.57701,-2977.65,2061.81,-28991.2
1.40797e+08,9.77038,1,2.44171,-2081.2,-105.525,-29386.5
1.40806e+08,76.3088,1,2.72618,12111.7,-925.76,-18377.5
1.41125e+08,55.8736,0,2.80971,10616.6,-1216.32,-23745.2
1.41244e+08,8.7617,1,2.88683,1637.17,840.877,-28518.4
1.41485e+08,186.956,1,2.77726,5845.49,-10525,-4508.05
1.41528e+08,30.4529,0,2.44813,5744.25,-1054.15,-25949.9
1.41777e+08,7.35764,2,2.85078,708.198,-922.354,-27767.4
1.42457e+08,11.9714,0,2.51636,2165.72,1435.73,-28490.2
1.42689e+08,63.0071,1,2.9483,-27.999,12663.8,-24798.8
1.43002e+08,63.9077,1,2.61063,-3959.38,7682.18,-18416.6
1.43369e+08,140.426,1,2.39227,-6700.05,-13549.9,-3318.46
1.43465e+08,110.656,2,2.89147,3459.67,-2107.63,-15675.2
1.43673e+08,141.445,2,3.03082,-20575.9,-15468.7,-14028.6
1.43765e+08,99.5959,0,2.40869,7907.71,18131.3,-21458.5
1.44244e+08,23.7926,0,2.88206,4764.32,-1606.25,-29840.5
1.44303e+08,16.9639,1,2.53573,928.098,1293.71,-25606.2
1.44332e+08,32.1367,0,2.53473,-490.254,5138.68,-24409.9
1.44336e+08,18.5866,0,2.98872,39.5672,-2625.41,-25980.8
1.44338e+08,36.1721,1,2.86469,-326.973,162.142,-28505.7
1.4439e+08,85.5922,1,3.05847,13910,9313.89,-22386.1
1.44665e+08,61.1758,1,3.00862,-8000.55,1514.6,-18896.4
1.45097e+08,24.556,1,2.44593,-2287.41,3277.19,-25423.8
1.45416e+08,76.4413,2,3.04182,-3195.44,5950.12,-14415.2
1.4554e+08,33.6332,0,2.92791,1347.51,-3493.53,-22835.9
1.45639e+08,40.1353,1,2.9379,-8275.48,1712.36,-28036.4
1.45802e+08,14.4484,0,2.98018,1491.87,-641.674,-26248.3
1.46023e+08,216.878,0,2.72023,-2412.33,-11478.1,-8221.07
1.46159e+08,137.18,2,2.51039,-19790.5,13695.5,-12700.5
1.46299e+08,8.92407,2,2.50085,-1930.22,226.099,-28614.4
1.46396e+08,85.9888,2,2.67074,-6630.07,-12247.8,-17131.8
1.46496e+08,24.5011,2,2.60178,1978.36,-1293.48,-24251
1.471e+08,107.584,0,2.50374,5437.17,-17036.2,-14763.6
1.47147e+08,6.27968,1,3.02715,-1134.66,781.951,-28600.2
1.47296e+08,58.845,0,3.02865,5374.47,3933.37,-18425.2
1.47427e+08,73.0515,0,2.50082,4602.25,12998.5,-21785.7
1.47541e+08,19.9365,0,2.50136,1141.56,3622.37,-26979.5
1.47609e+08,23.7101,2,2.5843,-29.1992,2657.79,-24665.6
1.47692e+08,39.9386,0,2.98332,8020.38,-1176.72,-26440.7
1.47772e+08,17.8477,1,2.89953,-513.948,2175.18,-25768
1.48131e+08,86.3586,2,2.38633,-10805.6,-14804.2,-27866.5
1.48262e+08,19.8798,1,2.98956,-3684.59,-980.382,-27093
1.4858e+08,13.0699,0,2.59346,-2308.99,-411.996,-27474.4
1.48605e+08,20.9265,2,2.60819,2169.41,-1341.8,-25226.3
1.48654e+08,77.7212,1,2.77832,12061.9,2810.3,-18876.9
1.48758e+08,137.688,0,2.41932,13990.5,-13201.9,-6931.22
1.48786e+08,12.3856,1,2.38443,-739.801,1646.53,-26897
1.48837e+08,39.9329,1,2.65195,7399.4,-2845.21,-26140.7
1.49043e+08,51.1516,1,2.79482,-4296.33,9652.77,-26304.4
1.49146e+08,103.427,1,2.36251,-7788.14,5597.85,-9142.04
1.49449e+08,224.231,1,2.37401,6639.55,15963.6,15341.8
1.50188e+08,156.765,1,2.37399,-16399.3,-19089.8,-7291.88
1.50575e+08,32.9976,0,2.49304,6845.28,1788.05,-29177.9
1.5063e+08,70.6263,0,2.37386,10146.5,-9396.9,-23044.2
1.50776e+08,240.158,0,2.95957,-25008.3,17865.6,1570.9
1.51019e+08,71.9516,2,2.5442,-12986.7,-8062.09,-29860.7
1.51183e+08,13.6427,1,2.80231,-1706.95,-405.358,-26549.4
1.51232e+08,97.2209,0,2.80554,6328.4,-9528.19,-11860
1.51259e+08,47.5612,2,2.47695,2214.66,-7817.25,-22825.1
1.51332e+08,1.01764,2,2.76204,-217.583,114.855,-28836.2
0,0.861178,1,2.82661,0,0,0
1.51536e+08,151.249,1,2.93789,18010.6,-879.12,-2752.21
1.51708e+08,89.7634,0,2.54048,6285.17,16613.8,-22183.3
1.51877e+08,86.6339,0,2.64977,9986.37,-15355.6,-28074
1.52017e+08,116.147,2,2.89102,-4897.23,10487.1,-7391.06
1.52115e+08,5.56364,2,2.90665,-570.63,405.809,-28904.6
1.52185e+08,3.58483,1,2.65226,-82.0519,862.657,-28972.1
1.52436e+08,104.49,0,2.59465,-10377,-4636.98,-10041.9
1.52885e+08,115.216,2,2.424,11428.3,-5388.8,-8039.94
1.52969e+08,101.796,1,2.83125,2768.88,-7887.33,-28643.6
1.52982e+08,26.7374,1,2.43539,3979,-1940.58,-25386.3
1.52996e+08,20.4805,1,2.48014,3802.25,-952.386,-27083.5
1.53218e+08,68.1541,0,2.57245,-5329.18,-3946.87,-16097.6
1.53296e+08,117.344,1,2.38219,-18405,12822.4,-18013.2
1.53376e+08,53.4492,1,3.02783,-2778.78,1177.91,-18049.3
1.53461e+08,72.7872,2,2.41442,-5882.49,2402.81,-14853.7
1.53771e+08,141.46,1,2.8304,7149.89,24051,-12770.1
1.53828e+08,184.541,1,2.5862,13117.6,-9249.13,-19117.9
1.53992e+08,155.57,0,2.96397,-1213.9,-16854.7,-1132.53
1.54264e+08,89.8919,1,2.65484,1726.03,-13028.3,-15261.8
1.54376e+08,44.6357,0,2.36786,1971.26,3845.89,-20424.4
1.54566e+08,309.755,0,2.55908,25504.4,14942.4,29557.2
1.54734e+08,31.2388,0,2.76233,-3353.95,1873.3,-23565.9
1.549e+08,169.821,0,3.04161,-3696.72,-14332.7,3452.39
1.55037e+08,177.26,2,2.67345,-24302.4,-12501.3,-3265.44
1.55106e+08,204.66,1,2.63771,-17216.7,-4096.34,10545.6
1.55177e+08,123.523,2,2.90675,-20340.3,-15989,-25948.4
1.55188e+08,157.821,2,2.64555,-6211.45,-8335.73,2803.78
1.55326e+08,3.39896,0,2.62819,209.872,-716.458,-29058.6
1.55377e+08,41.4427,1,2.94925,1056.74,1896.13,-20449.8
1.55668e+08,42.031,1,2.96767,-306.586,8098.87,-25197.8
1.55791e+08,88.1559,2,2.65694,-11791.3,-14222.8,-26065.6
1.56039e+08,305.321,0,2.38972,-20129.3,22921.3,26987
1.56105e+08,86.8369,2,2.64511,-9217.03,-15916.8,-27606.7
1.56172e+08,21.9257,1,2.92871,-1871.97,4106.85,-27499.6
1.56678e+08,66.7999,1,2.64705,9793.23,-867.812,-18770.8
1.56804e+08,68.7885,0,2.71236,-7203,-85.931,-16324.8
1.5685e+08,182.243,0,2.9266,10518.7,-17503.1,3504.23
1.57107e+08,74.1319,0,3.05134,8192.77,-10289.4,-21034.6
1.57528e+08,132.037,1,2.60299,-18059.2,4134.32,-7962.12
1.57531e+08,99.3342,0,2.79608,15306.4,-12368.6,-21678.3
1.58457e+08,149.502,0,2.84674,-2019.04,27911.6,-14871.3
1.58614e+08,67.5157,1,2.66775,-12764.8,-3369.28,-23453
1.58691e+08,166.755,2,2.56581,-3247.5,25824.8,-5175.26
1.58825e+08,62.3138,0,2.85603,-814.079,1660.43,-24922.3
1.58829e+08,125.395,0,2.56598,-11964.2,5136.58,-5821.35
1.5887e+08,4.6522,0,2.71597,406.698,942.38,-28646.2
1.58976e+08,86.5684,1,2.80702,4729.4,16670.1,-22996.1
1.59036e+08,168.904,2,2.4841,4957.41,-26051,-4851.74
1.59062e+08,11.8539,1,2.95373,-1926.36,-240.976,-27281.2
1.593e+08,11.4488,2,2.47626,264.545,-499.645,-26505
1.59363e+08,122.27,1,2.80909,-6524.41,6081.43,-6212.35
1.5951e+08,19.4224,1,2.43317,-1829.36,931.699,-25253.3
1.60495e+08,49.8778,1,2.8167,-8220.04,6519.19,-27344.8
1.6098e+08,80.3723,2,2.53752,4385.26,-11014.2,-16644.1
1.61128e+08,38.1302,2,2.46591,-4409.25,-6873.15,-28638.3
1.61582e+08,43.9743,2,2.96957,-6042.13,-7084.07,-28351.3
1.61741e+08,136.865,2,2.36716,21666.9,4717.68,-10300.5
1.61751e+08,122.368,0,2.38663,-13677.5,3428.48,-7171.17
1.62216e+08,74.7176,0,2.51696,15637.4,-2646.35,-27694.5
1.62505e+08,59.5399,2,2.72532,7155.94,-2315.06,-18816.1
1.62666e+08,9.56468,0,2.62461,-254.696,-1516.93,-27533.1
1.62752e+08,53.589,0,2.88179,8676.68,6749.28,-29423.1
1.62927e+08,52.3642,1,2.80656,798.498,7317.77,-20598.9
1.62967e+08,55.9497,2,2.62968,-4498.43,-5384.95,-19290.4
1.63091e+08,31.5218,1,2.97491,1962.88,3100.01,-23324.8
1.63119e+08,90.9162,0,2.83505,-3002.81,14902.4,-17254.3
1.63275e+08,11.8685,2,2.40904,920.509,-2338.4,-29474.8
1.63546e+08,75.6679,1,2.56479,8533.33,10433.1,-20193.2
1.63716e+08,91.2996,2,2.54965,-1768.4,13215.5,-14973.7
1.63843e+08,186.384,2,2.73895,21143,19391,-15985.3
1.63868e+08,66.4353,0,2.84153,11563.9,5450.97,-23078
1.64033e+08,63.0618,0,2.4278,6529.67,3006.43,-17572.4
1.64061e+08,248.29,1,2.77764,2966.56,25049.7,16931.5
1.64129e+08,33.7931,0,2.85568,3991.88,-1713.24,-23190.5
1.64149e+08,146.95,0,2.91485,-2799.34,-13287.8,-1172.48
1.64169e+08,227.795,1,3.01359,18325.2,-583.146,15188.6
1.64296e+08,5.48909,2,2.63746,-365.745,-207.427,-27738
1.64841e+08,108.062,2,2.99539,-12692.4,13692.5,-16096
1.64992e+08,93.2267,1,2.76703,-10471.5,16123.3,-24618.8
1.65165e+08,22.0115,2,2.6606,-1874.98,-2866.45,-25645.1
1.65269e+08,219.279,1,2.78209,17450.1,9847.4,12712
1.65284e+08,283.434,2,2.64565,161.221,26913.1,24508.1
1.65297e+08,186.188,2,2.38788,29554.8,-4942.9,-3291.59
1.6563e+08,12.5583,1,2.58118,-944.467,135.376,-26380.3
1.65832e+08,188.078,1,2.80896,18827.9,25554.4,-5228.46
1.65898e+08,0.541845,0,3.56155,-24.4978,-5.58377,-28794.4
1.66225e+08,19.3709,2,2.44516,-191.321,1970.83,-25282.9
1.66494e+08,118.069,1,2.67158,8392.01,4819.58,-5925.59
1.66619e+08,80.9026,2,2.52663,2845.86,-15318.4,-21606.5
1.66812e+08,2.8715,2,2.63684,436.827,153.964,-28550
0,2.8221,2,2.4288,0,0,0
1.67096e+08,98.3006,1,2.82324,-563.04,18895,-20363.9
1.67163e+08,31.9075,2,2.84228,-4177.61,-5365.95,-28881.3
1.67336e+08,39.9486,1,2.47913,-5285.6,2058.8,-22531.2
0,39.9676,1,2.53192,0,0,0
1.67646e+08,61.7968,2,2.50731,3986.64,-2603.53,-16675.8
1.67683e+08,6.70562,1,3.04244,707.985,928.725,-27985.7
1.67691e+08,68.6301,0,2.7464,-9539.02,-7779.42,-21349.6
1.67888e+08,137,0,2.87725,18744.2,6474.05,-7922.99
1.67971e+08,2.74247,0,2.96677,642.681,-30.627,-28634.4
1.68113e+08,58.3623,0,2.5937,9412.8,-3141.21,-21408.2
1.68116e+08,13.0605,1,2.78102,1857.3,966.587,-27046.6
1.68181e+08,1.05139,1,2.3998,-244.539,35.2459,-28714.5
0,1.05291,1,2.94368,0,0,0
1.68868e+08,14.0923,1,2.95928,-2875.51,135.36,-27953.4
1.69198e+08,28.2194,1,2.57663,-3315.52,2940.95,-24806.9
1.69247e+08,33.6479,0,2.77589,5457.52,1730.82,-24556.6
1.69331e+08,28.1585,2,2.67191,-1684.5,-3911.29,-24628.8
1.69382e+08,68.7137,2,2.67218,-12153.2,-7873.67,-27044.5
1.6973e+08,122.467,1,2.76093,13788.2,21855.8,-28653.9
1.698e+08,50.5473,1,2.61698,3834.7,9728.31,-26349.7
1.70597e+08,88.9984,2,2.50917,9718.9,-9784.33,-16007.9
1.70608e+08,51.3581,0,2.48346,10900,416.879,-28016.3
1.70769e+08,4.42642,2,2.40818,35.35,563.878,-28150.1
0,4.2092,0,3.00327,0,0,0
0,4.21756,0,2.61993,0,0,0
1.7088e+08,144.903,0,2.89959,15895.5,25444.7,-23426.4
1.70882e+08,79.5443,0,2.58407,16335.2,-785.588,-24596.8
1.70978e+08,37.3841,0,2.85044,5104.21,1939.37,-23115.1
1.711e+08,102.442,0,2.39094,478.863,21700.1,-28522.1
1.71273e+08,117.484,2,2.97208,12045.3,-21298,-25458.2
1.71549e+08,115.964,2,2.91502,19999.4,6448.26,-16632.7
1.71741e+08,51.4887,1,3.03243,-1454.98,1924.84,-18328.3
1.72172e+08,100.53,1,2.90629,-10692,7314.2,-22690.6
1.723e+08,16.4185,2,2.63633,-2669.1,-365.733,-26580.6
1.72589e+08,1.27716,1,2.85864,190.21,135.404,-28689.4
0,1.15407,0,2.61611,0,0,0
1.72744e+08,1.34483,2,2.8188,-124.646,-75.6967,-28575
1.72791e+08,90.0873,1,2.53551,7871.14,-13408.1,-18833.8
1.72986e+08,54.2807,2,3.05337,-1019.79,8288.95,-21181.5
1.73019e+08,4.4742,2,2.57981,-612.897,-824.589,-28603.3
1.73087e+08,45.2457,2,2.99989,-570.268,6356.05,-21877.6
1.73247e+08,212.763,0,2.94281,-27763.1,-8871.72,-11186.7
1.73467e+08,22.0548,2,2.54193,-405.684,-1454.12,-24406.4
1.73584e+08,166.909,0,2.36274,-23797.4,-163.038,-2826.28
1.73587e+08,326.526,0,3.03824,-8050.13,10473,-2823.1
1.73613e+08,16.1255,0,2.98284,3060.53,63.808,-27208.3
0,16.0559,0,2.77695,0,0,0
1.73913e+08,21.3729,0,2.8065,-480.437,-4081.01,-27047.2
1.74056e+08,55.6815,0,2.71771,10768.7,-4251.26,-26481.7
1.74105e+08,51.3038,0,2.58182,7878.16,7296.53,-26848.3
1.74132e+08,64.3316,1,2.63163,6717.74,6091.13,-18707.7
1.74684e+08,151.669,1,2.81711,-23306.5,-17438,-15767.8
1.74851e+08,90.2115,0,2.8861,17073.2,-420.68,-20465.2
1.74971e+08,10.4559,0,2.40925,901.435,-1582.12,-27537.6
1.75047e+08,23.3251,0,2.45072,1819.57,-3504.6,-25804.7
1.75081e+08,144.882,1,2.38951,-8216.6,-25793.1,-14537.5
1.75282e+08,58.3805,1,2.80798,-7257.78,499.772,-18941.8
1.75366e+08,55.3322,0,2.6386,9939.39,-4742.55,-24697.5
1.7549e+08,28.6068,1,2.73582,2417.97,5602.67,-28988.8
1.75517e+08,73.4605,1,3.04027,13555.9,7314.74,-28699.7
1.75602e+08,29.5687,1,2.58544,-2076.8,3060.33,-23759.9
1.75622e+08,152.224,1,2.59159,-27323.1,1397.78,-11911.8
1.75629e+08,97.5445,2,2.51479,15085.1,-4065.96,-15403.5
1.75683e+08,25.7588,1,2.39625,3967.05,3127.7,-26714.1
1.75735e+08,84.2636,2,2.9914,6853.28,-15146.5,-28864.7
1.75927e+08,17.4485,0,2.58838,1172.9,-1306.25,-25653.4
1.75937e+08,26.2685,0,2.87049,-2934.89,-2336.92,-24861.1
1.7612e+08,153.313,2,2.59582,-347.452,29026.8,-14677.2
1.76242e+08,54.8861,0,2.60754,7587.93,-8630.17,-26869.3
1.76643e+08,24.8357,2,2.90243,1328.96,-4293.75,-26082.8
1.76778e+08,147.204,2,2.91588,-8254.17,-26763.2,-15590.7
1.77325e+08,21.7779,2,2.60577,-4474.89,1032.99,-29638.2
1.77331e+08,105.37,1,2.97353,-12488.8,17690.4,-24023
1.77529e+08,10.5785,2,2.82981,2167.46,-585.098,-28842.9
1.7776e+08,173.506,0,2.91775,12034.3,19670.1,-671.644
1.77774e+08,70.3224,2,2.45635,-11815.4,-3287.45,-20342.2
1.78205e+08,69.4459,0,3.01694,-5631.07,880.679,-25735.1
1.78636e+08,42.101,2,2.53407,-3554.22,-6835.49,-24269.8
1.78898e+08,108.621,1,2.49548,17010.5,7912.82,-15589.6
1.78966e+08,244.402,1,2.83264,29229.9,-4010.44,13160.2
1.79084e+08,135.697,2,2.86377,-9619.34,20178.7,-11177
1.79266e+08,56.6164,0,2.69307,-5733.3,3569.26,-19066.2
1.7939e+08,51.6589,0,2.80373,-4361.17,-383.876,-18926.4
1.79458e+08,81.4067,0,2.85771,12444.3,11869.1,-28642
1.79484e+08,109.334,0,2.86867,8939.32,-14704.5,-15906.8
1.79545e+08,220.674,2,2.73936,-11197.3,-25006,7988.11
1.7968e+08,6.11648,2,2.9336,209.431,-599.789,-27709.3
1.79893e+08,135.06,1,2.76189,-6115.47,5039.33,-1532.41
1.79931e+08,49.1363,1,2.83626,-7277.7,4919.94,-23343.8
1.80406e+08,190.912,0,2.53951,28624.9,19608.8,-18156.3
1.80484e+08,36.2979,0,2.46349,-6125.07,-2139.7,-24860.6
1.80938e+08,38.9577,2,2.56509,4758.86,-3316.88,-22981.9
1.81193e+08,15.6778,2,3.00032,2432.07,-1471.22,-27151.9
1.8128e+08,120.623,1,2.86853,-5234.77,2347.49,-4147.85
1.81461e+08,187.338,1,3.01642,16496.6,-1023.89,-2149.54
1.81964e+08,8.70393,2,2.50048,836.887,848.483,-27538
1.82018e+08,7.34744,0,2.78276,1580.41,446.465,-28756.2
1.82142e+08,139.29,0,2.42389,775.765,-17561.9,-5188.2
1.8221e+08,55.4131,0,2.92472,-4949.82,-2603.09,-18799
1.82245e+08,8.13344,0,3.02244,146.692,1362.9,-27853.4
1.82305e+08,177.143,0,3.0401,5203.97,12842.6,5574.58
1.82307e+08,9.3592,2,2.95357,1712.41,120.226,-27955.5
1.82529e+08,137.727,0,2.67707,14789.4,-23969.9,-21549.9
1.82618e+08,21.4594,2,2.77374,-4221.04,1495.48,-29650.1
1.8274e+08,3.17693,2,2.92019,-200.697,-168.54,-28205.3
1.83249e+08,101.98,2,2.59475,7533.53,-13286,-14529.2
1.83515e+08,119.682,1,2.51925,4584.74,20041.3,-14010.1
1.83544e+08,46.7988,2,2.48508,-7576.62,6346.01,-28296.3
1.83855e+08,83.8229,2,2.83262,8236.28,5682.84,-14372.8
1.83906e+08,97.028,1,2.84347,19174.4,-2715.84,-22528.3
1.84185e+08,45.6147,2,2.41222,3323.29,8057.24,-24851
1.84217e+08,61.1933,2,2.88674,-9015.34,-49.3613,-19658.5
1.84221e+08,233.563,2,2.39115,18466.3,-5424.42,16651.4
1.84848e+08,71.3334,0,2.67181,13317.4,6231.38,-25257.8
1.84944e+08,39.5828,2,2.52388,438.59,-6375.63,-23365
1.8531e+08,102.551,2,2.67811,-14129.3,-9481.23,-17271
1.8537e+08,44.593,2,2.74281,-7959.47,3900.3,-25699.7
1.85547e+08,33.5626,1,2.44519,-1895.67,742.038,-22023.7
1.85776e+08,18.8512,2,2.96089,2864.6,-2796.04,-28733.4
1.8584e+08,89.8756,2,2.49499,-13744.7,-1433.72,-15739
1.85926e+08,81.7346,0,2.95855,4295.68,-186.566,-12486.4
1.86089e+08,95.0668,1,2.7407,7366.01,18581.8,-26655
1.86204e+08,32.8922,1,2.64585,-6710.03,246.72,-26852
1.86344e+08,20.5166,2,2.9723,1070.45,-3647.17,-26717.2
1.86618e+08,2.30337,2,2.71719,344.321,62.2839,-28562.5
0,2.23329,1,2.76597,0,0,0
0,2.27226,1,2.85146,0,0,0
0,1.86173,0,2.64828,0,0,0
1.86957e+08,10.0225,1,2.82891,-1785.85,861.672,-27915.7
0,10.0422,1,2.928,0,0,0
1.87192e+08,13.4252,1,2.97409,-1101.61,-278.931,-26265.1
1.87258e+08,107.077,1,2.45207,-19482.2,-5507.65,-18689.3
1.87265e+08,63.9745,0,2.6861,3160.63,3287.28,-16165.2
1.87282e+08,255.962,0,2.60423,25203,-5701.11,18640.8
1.87566e+08,107.881,0,2.72685,-1649.98,-10470,-8741.58
1.87955e+08,21.5158,1,2.93972,3140.5,1181.45,-28350.1
1.88218e+08,49.202,2,2.43821,4412.78,-7619.54,-23221.6
1.88257e+08,275.162,1,2.93099,-13304,12114.4,2329.07
1.88285e+08,96.6898,0,2.90934,15640.1,-9326.31,-19724.2
1.88427e+08,89.87,1,2.67336,7491.89,14657.2,-19338.1
1.88516e+08,216.422,2,2.88704,-4940.47,8855.21,-15496.1
1.8858e+08,41.9624,2,2.72978,-8358.21,1933.13,-26573.2
1.88656e+08,31.3867,2,2.62575,-4143.19,-3140.71,-24633.1
1.88743e+08,52.2063,0,2.84053,6680.08,-8636.98,-27167.2
1.89297e+08,23.371,2,2.68521,430.544,-4980.83,-28977.1
1.89569e+08,169.984,0,2.59179,11952.5,-14451.6,1783.54
1.89686e+08,163.66,0,2.43017,6635.46,13006.8,2554.87
1.89992e+08,16.9468,2,2.86367,-2603.97,1204.99,-26715.1
1.89993e+08,5.28959,2,2.46755,-541.172,-1031.64,-28469.9
0,5.31461,2,2.73635,0,0,0
0,5.46922,2,3.01189,0,0,0
1.90213e+08,11.5339,1,2.57687,-2351.86,-98.2883,-29715
1.90239e+08,12.6686,0,2.82084,782.947,-251.13,-26285.9
1.90416e+08,9.3847,1,2.76271,-1919.42,241.866,-28182.4
1.90485e+08,44.2721,0,2.73961,6506.26,-4324.43,-23622.9
1.90931e+08,43.9234,1,2.56918,-2570.18,-55.6523,-19923.4
1.91095e+08,35.8703,0,2.93385,4675.57,4750.8,-25213.1
1.91138e+08,21.5771,2,2.952,-4502.42,-668.797,-28095.1
1.91521e+08,0.223401,2,3.30754,-34.7895,-19.8647,-28807.2
1.91793e+08,113.777,0,3.03692,7940.76,16801.7,-13868.4
1.92011e+08,192.452,0,2.76439,4681.77,3506.42,-3641.29
1.92139e+08,21.936,0,2.82454,-1769.57,2308.16,-25304.8
1.92365e+08,20.5876,2,2.8245,-4280.74,954.832,-29104.4
1.92408e+08,53.8284,2,2.5148,-5701.18,-6774.19,-21586.9
1.93544e+08,145.232,2,2.5027,-21238,-8316.12,-8218.84
1.93607e+08,42.3272,0,2.37015,4669.97,-2541.07,-21584.3
1.93657e+08,22.4037,1,2.95201,2752.51,72.0919,-25058.1
1.93718e+08,16.5431,2,2.94421,1934.77,-1909.33,-26693.4
1.94141e+08,60.1693,0,2.38558,313.354,4340.08,-16884.6
1.94289e+08,73.9507,2,2.45099,-9346.71,5758.75,-17733.5
1.94828e+08,4.94409,0,2.47667,84.2247,-622.795,-27997.7
1.95085e+08,32.9832,1,2.77814,-4142.41,2407.32,-23748.4
1.9524e+08,86.849,1,2.74242,-7639.22,-12527.5,-18014.3
1.95402e+08,7.90826,2,2.77273,-884.536,-263.789,-27446.7
1.96036e+08,53.2127,2,2.41954,-5483.36,-5837.38,-20862.2
1.96119e+08,141.676,2,2.60546,-12648,5132.23,-2257.31
1.96273e+08,140.58,1,2.57418,-7319.99,28813,-26819.6
1.96766e+08,8.97135,2,2.99511,-1452.34,-823.451,-29873.6
1.96785e+08,128.556,0,3.04106,17418.8,4181.56,-8690.85
1.96969e+08,70.4745,1,2.7874,-3018.63,-8157.44,-16857.8
1.97651e+08,52.9817,2,2.95622,-2266.8,-4648.95,-18989.3
1.97743e+08,5.2647,1,2.73921,380.079,11.0509,-27825.1
1.97864e+08,19.2023,0,2.52848,2852.06,2911.03,-28154.3
1.98255e+08,58.0047,0,3.02816,6443.75,-9276.03,-24182.9
1.98394e+08,63.5365,2,2.55041,4882.9,-4340.45,-17121.4
1.9842e+08,88.5839,1,2.85532,12113.4,6718.65,-16404.9
1.98429e+08,15.1884,0,2.97059,-740.878,856.177,-25896
1.98603e+08,136.164,2,2.39192,17852.6,-18455.2,-15707.4
1.98757e+08,36.6718,2,2.59836,-1498.21,-1687.04,-21409.7
1.98798e+08,67.4259,0,2.89884,715.908,11435.9,-20491.5
1.98862e+08,146.928,0,3.05061,7785.68,-7205.28,-13380.1
1.99124e+08,5.5706,0,2.75166,634.267,-1069.94,-28766.5
1.99243e+08,33.839,0,2.72187,2874.53,5191.74,-24800.4
1.99998e+08,87.6021,0,2.98651,5670.97,-13430.3,-21489.2
2.00014e+08,25.0323,0,2.72983,-4591.3,2471.82,-28552
0,24.3096,1,2.79891,0,0,0
2.00324e+08,94.4017,1,2.63007,5207.37,-11861.9,-13775.1
2.00844e+08,15.826,0,2.64775,-1919.45,1500.29,-26608.2
2.00961e+08,106.32,2,2.73039,-12471.3,9412.36,-12818.8
2.01138e+08,187.513,1,2.71481,-16901.2,-25860,-4258.32
2.01162e+08,234.034,2,2.73928,-13750.9,-16208.9,15647.9
2.01386e+08,82.9538,2,2.75372,-5202.31,7783.22,-14141.1
2.01434e+08,91.2735,0,2.4899,5914.3,10155.2,-13499.4
2.01498e+08,9.86315,1,2.62067,-1055.16,1259.68,-27450.2
2.01866e+08,61.4438,0,2.8594,-10350.3,2697.17,-21711.1
2.01901e+08,17.0852,0,2.42605,908.716,3559.85,-28739.8
2.02078e+08,48.0617,0,2.61113,-3640.42,-3662.23,-20147.1
2.02122e+08,168.522,2,2.84747,16756.6,-22144.3,-6821.8
2.02323e+08,62.0013,1,2.98866,-4894.22,2324.28,-17005.9
2.02476e+08,34.0475,0,2.44591,1024.82,-7171.84,-29110.3
2.02882e+08,182.836,2,2.90522,13453.4,-9893.98,5709.29
2.03401e+08,87.9319,1,3.00922,-2924.17,-4987.72,-24267.8
2.03526e+08,25.0657,2,2.48176,45.2037,2528.91,-24225.9
2.03624e+08,23.9353,0,2.43788,2892.33,-4188.87,-28195.4
2.03897e+08,144.845,2,2.77014,-16210.3,-23260.2,-17429.2
2.04316e+08,133.107,2,3.04839,-20783,-13400.7,-25129
2.04338e+08,102.503,0,3.0394,-9328.05,-1546.67,-9601.38
2.04355e+08,51.8393,1,2.81522,-5776.7,-6484.02,-22277
2.04369e+08,1.86141,2,2.95488,238.814,-293.186,-28695.5
2.04819e+08,5.79824,0,3.00393,513.681,-421.229,-27807.6
2.05182e+08,83.5721,2,2.98205,-2910.8,-10310.9,-14943.4
2.05294e+08,15.3264,0,2.46053,2284.76,-1541.53,-26998.5
2.05318e+08,10.2144,0,3.06059,-115.483,698.752,-26826.8
2.05389e+08,28.1229,2,2.73647,389.226,-2045.84,-23276.2
2.05434e+08,16.5859,2,3.01119,-564.583,-857.288,-28024.9
2.05533e+08,73.6119,1,2.78633,-6130.72,-4931.94,-15624.4
2.05718e+08,63.7927,2,2.43774,-1324.61,-9413.31,-19184.2
2.05721e+08,5.77137,1,2.43113,-14.6493,1092.33,-28180.8
0,5.76274,1,2.53687,0,0,0
2.06072e+08,253.004,2,2.64346,14636.4,-25994.9,675.371
2.06163e+08,21.5335,2,2.9099,1250.08,-3498.78,-26188.3
2.06198e+08,203.571,0,2.9845,-16516.9,-7542.56,9706.5
2.0629e+08,80.1627,1,2.71186,-4442.67,605.861,-12556.6
2.06298e+08,17.5315,2,2.58219,-2538.53,-46.6692,-26091.6
2.06353e+08,15.8103,0,2.82402,1755.26,-2849.98,-29341.4
2.0646e+08,42.0834,1,2.72665,1358.04,2471.63,-21026.7
2.06642e+08,27.6266,0,2.5696,3703.18,3412.21,-25794.7
2.06889e+08,58.1692,1,2.46598,-3684.45,-11258.1,-25669.4
2.0709e+08,12.6353,1,2.92458,-1950.52,1442.13,-27626.1
2.07636e+08,298.298,2,2.414,-26894.4,-29792.9,19896.7
2.07702e+08,16.3559,1,2.65876,-1417.82,1873.26,-26242.4
2.08012e+08,280.663,1,2.78163,8867.23,-5014.15,-24483.3
2.08201e+08,67.1707,2,2.77917,-12086.3,-7052.11,-26426.7
2.08269e+08,88.4725,1,2.86216,-1472.91,18547.6,-27207.6
2.08336e+08,9.68553,0,2.58604,2084.81,-582.828,-28918.9
2.08533e+08,9.00232,0,2.65286,-466.968,677.774,-27159.8
2.08852e+08,113.012,0,2.47666,-21904.1,-3261.28,-20076.5
2.09067e+08,25.7798,2,2.5804,-3807.75,2981.99,-26307.8
2.09156e+08,17.3444,0,2.56737,-992.597,-3497.89,-29255.6
2.09196e+08,134.606,0,2.67666,17313.9,-13069.6,-10486.1
2.09902e+08,14.9306,0,2.57294,-123.012,-1963.37,-26399.4
2.10069e+08,35.2646,0,2.71838,3241.51,-2913.79,-22783.1
2.10099e+08,82.3551,2,2.91046,-3116.92,-7823.57,-13712.3
2.10193e+08,167.349,0,2.71248,22133.1,7946.96,-2518.83
2.10375e+08,3.00398,0,2.63244,307.83,572.435,-29142.7
2.10394e+08,33.477,0,2.6651,1317.39,-2401.22,-22319.1
2.10744e+08,2.05798,1,2.54275,185.465,340.598,-28557.5
2.10801e+08,57.4685,2,3.00144,-3894.39,-11469.8,-29889.9
2.1094e+08,86.6538,2,3.04718,11046,-12058.2,-20882.5
2.10967e+08,25.2536,0,2.9254,1877.96,-2480.94,-24526.7
2.11133e+08,86.8988,2,2.97121,4524.32,-17752.1,-29112.3
2.11287e+08,2.06613,1,2.78778,-210.031,519.526,-28847.9
2.11439e+08,55.5959,1,2.65985,-5559.67,3444.06,-19062.8
2.11486e+08,140.541,2,2.88356,2062.42,-8160.68,-579.939
2.11511e+08,2.86291,2,2.87235,-164.061,-540.115,-29293.3
2.11559e+08,62.0105,2,2.39744,4658.33,-7368.71,-19009.6
2.11696e+08,52.3887,2,2.54156,-2888.15,-3589.4,-22383.8
2.11806e+08,60.8648,1,2.93295,-4804.96,3876.03,-17624.3
2.11872e+08,127.431,0,2.45675,-8285.69,25010.4,-23300.3
2.12547e+08,14.1685,1,2.37991,-59.1798,1384.75,-26148.2
0,14.2746,1,2.69621,0,0,0
2.12613e+08,2.52142,2,2.94648,5.25015,475.142,-28772.9
0,2.50143,2,2.47539,0,0,0
2.12881e+08,33.691,0,2.5763,2816.47,-423.317,-22285.3
2.13136e+08,6.67613,2,2.76942,933.207,-184.955,-27856.3
2.13532e+08,153.447,2,2.87088,-353.174,6257.64,-28306.6
2.13817e+08,62.65,1,2.39362,-1821.7,11379.6,-22128.1
2.14018e+08,7.98687,2,2.99794,940.757,-448.415,-27569.6
2.1427e+08,73.2394,0,2.48809,-1447.93,15411.4,-28669
2.14465e+08,78.1645,2,2.70079,4744.66,-11276.7,-17762.5
2.14737e+08,97.3063,0,2.54864,5941.91,-14308.1,-15279.2
2.14866e+08,37.162,0,2.53154,5352.13,-5019.81,-25902
2.15077e+08,116.449,2,3.03663,-6006,-21450.7,-18694.2
2.15537e+08,80.9784,0,2.36506,15523.2,7499.89,-28443
2.15538e+08,47.1862,1,2.42888,-78.7719,2090.61,-19070.2
2.15566e+08,173.413,1,2.49425,20612.2,-28365.2,-18354.2
2.15623e+08,97.0918,2,2.42591,-16924.8,-2486.3,-17409.5
2.1573e+08,63.6762,0,2.8519,5407.31,-4229.47,-17336.5
2.1578e+08,18.2629,1,2.47683,2774.87,2721.74,-29319
2.1588e+08,45.1708,0,2.90771,2004.18,-7676.28,-23603
2.15891e+08,46.4228,0,2.87557,-1440.7,-1784.93,-21428.6
2.16316e+08,12.5556,0,2.37289,465.798,-2060.72,-27176.4
2.16385e+08,41.8776,0,2.65437,1544.83,-6624.64,-23201.3
2.16712e+08,69.8031,1,2.927,-11960,2647.4,-20754.7
2.16805e+08,17.1155,1,3.02923,-879.375,-243.53,-25368.4
2.16817e+08,79.121,0,2.50553,11630.3,-4845.26,-17757
2.16853e+08,55.1876,2,2.92244,-8524.09,6357.81,-24217.1
2.17015e+08,76.7478,1,3.05237,-10121,12539.4,-27580.5
2.17155e+08,273.463,0,2.84942,-22758.1,27117,15768.3
2.1745e+08,28.5045,2,2.90362,5489.72,1887.13,-27604
2.17501e+08,127.814,1,2.84733,15506.2,-10333.8,-10624.9
2.17725e+08,116.143,0,2.40404,21792.5,5072.83,-18544.9
2.18012e+08,53.0058,1,2.83298,-3582.98,1446.37,-18379.1
2.18077e+08,124.844,1,2.45411,-125.259,17804,-9315.87
2.1816e+08,66.0684,2,2.88718,-2903.16,9336.55,-19036.2
2.18171e+08,65.0643,0,2.97574,-5718.47,-8105.16,-19521.2
2.18225e+08,18.1552,0,2.58417,1748.13,3071.17,-27253.9
2.18235e+08,105.522,0,2.73278,12813.1,12931.2,-16030.6
2.18754e+08,64.7035,0,2.94711,945.277,7699.3,-18293.6
2.1909e+08,102.135,0,2.89345,-4156.91,-18992.8,-20331.1
2.19819e+08,150.925,1,2.48204,-24341.5,11719.5,-11753.8
2.20078e+08,82.8468,0,2.5068,12107.7,10383.9,-21473.6
2.2009e+08,80.045,2,2.78003,-14633.4,-1862.2,-20585.8
2.20169e+08,57.2554,0,2.49977,11383.4,-1754.56,-24829.6
2.20178e+08,16.5919,2,2.36274,-3566.17,-381.51,-28651
2.20413e+08,151.553,0,2.70283,-26873.4,-11043.4,-15705.1
2.20471e+08,139.893,1,3.01967,12804,4865.48,-2948.8
2.20539e+08,2.51133,2,2.81315,-440.88,163.389,-28542.1
2.20823e+08,51.5346,1,2.73955,-9397.24,3162.85,-24286.8
2.20922e+08,95.0287,2,2.7471,-11404.9,-5260.2,-13228.6
2.20956e+08,17.4758,1,2.9593,-2125.18,1719.3,-26306.3
2.21006e+08,26.2471,2,2.42245,2961.92,-3324.17,-25499.5
2.21069e+08,56.9564,0,2.39281,10048,-5689,-25153.1
2.21429e+08,61.923,2,3.00474,-392.73,-79.0293,-28312.6
2.21578e+08,16.2848,0,2.94738,-513.981,-936.17,-28238.9
2.21644e+08,69.6849,2,2.42909,-8667.81,9088.17,-21119
2.22038e+08,44.0038,1,2.83958,-5582.94,4094.01,-22611.4
2.22057e+08,188.367,2,2.70934,9924.55,-28659.8,-3208.53
2.22096e+08,80.6109,0,2.86669,-5036.91,-15939.2,-26102.7
2.2211e+08,138.541,1,2.68357,-14202.5,-11415.3,-6062.97
2.22287e+08,1.72904,2,2.91213,-24.9698,-460.275,-28983.7
2.22465e+08,182.204,2,3.00178,-15321.1,-26130.9,-5511.08
2.22823e+08,92.1121,0,2.7088,-14430.5,7377.9,-18250.6
2.22865e+08,189.307,0,2.58358,-9742.3,-26388.3,-3119.56
2.22876e+08,211.772,1,2.66597,5223.01,17792.9,10841
2.22918e+08,98.2549,0,2.94091,5798.04,-15696.9,-17667.3
2.22944e+08,9.15398,0,2.48368,-1441.67,944.338,-28071.2
2.23118e+08,51.098,0,2.40485,6335.13,-4230.56,-21091.5
2.23405e+08,10.1279,2,2.60734,-1441.31,-115.389,-27239.2
2.23446e+08,55.6424,2,2.86848,-3701.91,-2641.58,-18054.1
2.23464e+08,42.1312,2,2.49218,-6648.08,2070.85,-23290.9
2.23511e+08,51.9132,2,2.67895,1666.92,-7588.73,-21837.5
2.23623e+08,46.9809,1,3.00634,3414.58,2572.16,-25256.7
2.23673e+08,25.5888,2,2.44343,4015.01,1770.94,-25731.7
2.23764e+08,18.416,0,2.70963,-3244.19,-1198.47,-27211.7
2.2421e+08,147.187,1,3.03373,-16328.7,16148.5,-8744.24
2.24294e+08,86.5976,0,2.71882,10232.7,-7672.93,-15755.5
2.24399e+08,23.9272,0,2.58644,2976.18,-3745.93,-26992.3
2.24444e+08,131.545,1,2.53066,2628.7,-321.256,-28936.9
2.24476e+08,61.3849,2,2.76682,4607.39,2007.06,-27411.4
2.24728e+08,59.5573,2,2.77986,-2444.93,-12257.7,-26929.1
2.2479e+08,128.834,2,3.01163,-26350.4,-3926.32,-24136.3
2.2525e+08,99.2553,2,2.85858,-6761.94,-16122.5,-17321.7
2.25391e+08,22.4946,0,2.41681,811.872,4617.14,-27981.2
2.2556e+08,94.1158,2,2.48886,258.288,-18942.4,-22461.8
2.25584e+08,15.6204,1,2.68029,-60.8896,3217.98,-29985.1
2.25589e+08,151.597,0,2.90771,-2936.79,12152.6,415.349
2.25727e+08,181.182,0,2.38908,17097.3,-18523.5,-28214.4
2.25766e+08,10.8479,2,2.38114,-1578.99,1019.8,-27527.5
2.25838e+08,54.9741,1,2.52846,4683,4934.24,-19425.1
2.25898e+08,35.9133,2,2.53417,-4964.05,-2399.19,-23541.5
2.26043e+08,70.5148,1,2.54554,3239.56,14622,-28912.9
2.26202e+08,155.993,0,2.93318,24670.1,21293.2,-25037.4
2.26322e+08,16.0098,0,2.37727,2983.96,719.051,-27250.4
2.26666e+08,133.797,1,2.51937,202.604,11846.1,-3134.55
2.26747e+08,10.89,0,2.44997,1040.71,379.725,-26779.6
2.26935e+08,87.9063,2,2.55727,-13419.1,-7717.75,-18443.8
2.27149e+08,82.9696,0,2.36797,10101.1,-2622.9,-14677.6
2.27301e+08,101.399,0,2.40004,11682.9,-14340.6,-17883.5
2.27803e+08,38.0041,0,2.63868,7000.4,4098.52,-28599.9
2.27897e+08,95.7076,2,2.74752,-9504.91,-583.844,-11069.9
2.28086e+08,132.022,1,2.67404,-8013.15,7382.71,-6132.54
2.28214e+08,90.8783,0,2.75038,11798.8,-15108,-27621.3
2.28215e+08,64.969,1,2.87415,7122.23,-2953.05,-17653
2.28509e+08,96.5866,2,2.8151,-18167.7,2639.6,-20034.8
2.28522e+08,42.2245,0,2.54606,-6790.19,-3062.51,-24272.1
2.2889e+08,46.8616,2,2.68162,7729.61,-6107.24,-29986.3
2.28981e+08,81.2254,0,2.95742,7238.1,1793.75,-13503.5
2.29094e+08,167.871,0,2.92254,16810.2,19942.2,-7653.59
2.29154e+08,95.0152,0,3.03626,-1821.83,-18559.9,-21925.6
2.29228e+08,7.36697,2,2.46292,-494.473,959.769,-27770
2.29312e+08,47.8486,1,3.00673,-9655.21,1695.69,-26377.1
2.2932e+08,75.6347,0,2.61557,15288.8,2590.79,-24637.5
2.29451e+08,98.7132,1,2.63131,-4628.42,19012.5,-21491.4
2.30258e+08,81.006,0,2.47307,8273.38,8038.44,-16124.3
2.30845e+08,95.3651,1,2.66644,5864.74,-7245.38,-11057.5
2.30988e+08,51.1971,1,2.61244,6834.19,5109.79,-22202.8
2.30994e+08,91.9297,2,2.66791,-2437.57,-11186.2,-13155.3
2.31044e+08,69.3454,1,2.38742,5818.41,-8594.56,-18551.3
2.31238e+08,163.96,0,2.75915,-115.47,18200,448.304
2.31246e+08,9.10564,2,2.56157,-1372.39,1106.54,-28044.3
0,8.87255,1,2.87905,0,0,0
2.31247e+08,57.6695,1,2.79362,-288.901,10674.7,-22981.3
2.31334e+08,13.6398,1,2.55193,-1756.36,-1445.48,-27088.7
2.31519e+08,57.5509,1,2.52363,-6945.98,9972.3,-27275
2.31608e+08,7.92796,1,2.65708,-899.342,1544.35,-28965.1
2.32144e+08,102.918,2,2.56291,4872.63,-7385.6,-8961.83
2.32245e+08,26.6735,2,3.04719,-2487.54,-5057.79,-29720.1
2.32626e+08,76.7569,2,2.47608,-1781.99,-14220.3,-21067.9
2.32631e+08,22.2361,0,2.39853,292.098,-2004.63,-24599
2.32663e+08,35.0718,1,2.61704,-2476.98,5013.11,-28097.1
2.3296e+08,140.752,0,2.81805,18077.6,19898.2,-16296.2
2.33041e+08,40.6751,0,2.77234,1468.69,6344.88,-29569.7
2.33253e+08,113.14,1,2.39371,-12122.5,1357.52,-8239.55
2.3379e+08,127.364,0,2.9196,21640.7,1872.73,-13162
2.33872e+08,23.6592,0,2.72826,3777.18,2319.84,-26391.4
2.33965e+08,31.076,0,2.57133,2528.2,980.061,-26297.6
2.34022e+08,40.6484,2,2.44441,6822.61,-5299.72,-28759.9
2.3423e+08,102.599,2,2.73667,12295.1,4096.16,-12384.5
2.34718e+08,172.245,1,2.52161,9739.85,16982.7,1869.11
2.34756e+08,77.2317,1,2.85402,5058.14,-6236.98,-24866.5
2.34765e+08,7.02578,1,2.57014,-1185.4,1032.25,-28685.8
2.34923e+08,116.935,2,3.05619,-22450.3,-680.96,-19038.8
2.3509e+08,102.107,2,2.41422,-8801.41,-15508.9,-16558
2.35091e+08,30.0511,2,2.77894,-5913.98,2309.19,-28590.2
2.35145e+08,10.7335,2,2.50058,-1948.05,1178.6,-28625.5
2.35366e+08,81.6007,2,2.97566,-6434.57,-15258,-24241.2
2.35376e+08,73.4259,1,2.6717,-6906.89,-8373.23,-17819.2
2.3562e+08,183.741,1,2.51104,-26219.2,13412.1,-3464.01
2.35828e+08,68.0646,1,2.59239,-5935.1,7574.31,-18091.9
2.36155e+08,16.3815,1,2.46888,-3449.66,-304.584,-29587.4
2.36411e+08,19.5136,1,2.75053,-1407.69,2046.18,-25504.7
2.36841e+08,68.2842,2,2.42328,-10215.6,449.664,-18594.3
2.37083e+08,75.6737,2,3.01439,-12438,-5669.64,-20718.6
2.37085e+08,50.1143,0,3.01439,2592.73,-4726.71,-19836.3
2.37091e+08,7.35398,0,2.85754,872.905,-918.036,-29879
2.37175e+08,4.59438,2,2.98806,741.074,-666.963,-28794.5
2.37256e+08,145.949,1,2.62353,3468.44,-19449.5,-5302.7
2.37417e+08,83.1484,1,2.47714,-7254.03,-4039.8,-13369.1
2.37814e+08,28.2596,2,2.69257,-4054.76,1918.45,-24886
2.37854e+08,50.2019,0,2.77934,3004.15,-8897.18,-23898.5
2.37976e+08,206.586,1,2.77343,-23173.6,6322.95,7433.53
2.38111e+08,26.1646,2,2.54292,-3935.98,1562.46,-25272.2
2.38115e+08,7.19404,2,2.83905,-532.528,-213.54,-27427.9
2.38664e+08,76.8098,2,2.93744,-5726.68,-14855.4,-25745.3
2.38714e+08,198.354,2,2.72841,-26955.9,11720.4,813.02
2.38775e+08,170.51,1,2.80246,10327.6,22079.4,-2614.8
2.38785e+08,56.4343,0,2.66952,10238.3,5490.6,-25947.5
2.38954e+08,113.205,0,2.79127,-22177.9,-3695.58,-21217.9
2.39116e+08,272.058,1,3.04699,4572.25,-14164.5,-808.021
2.39131e+08,93.9622,0,2.63921,7950.32,17602.5,-25045.1
2.39231e+08,46.2628,1,3.00527,-759.583,-6881.01,-22111.4
2.39317e+08,88.2765,1,2.58455,-2832.79,11713.8,-14545
2.39739e+08,139.01,0,2.38016,17054.6,24032,-28038
2.39796e+08,19.467,2,2.87843,117.681,1658.86,-25162.4
2.40022e+08,71.7065,0,2.89393,9731.49,497.824,-17306.9
2.40093e+08,140.772,0,2.52807,-25467,4248.53,-14194.6
2.40347e+08,2.37335,1,2.69635,-551.55,194.813,-28831.6
0,2.30064,1,2.70677,0,0,0
2.40701e+08,106.165,2,3.01136,-16014,-11037.6,-24262.3
2.40703e+08,137.443,1,2.91374,24015.9,848.523,-13000.9
2.40762e+08,96.4801,2,2.47292,-16035.5,-12017.7,-24514.9
2.40809e+08,5.14803,2,2.83784,-883.121,-454.964,-28251.1
2.41228e+08,87.2972,0,2.53577,8231.04,-3872.15,-27640.9
2.41426e+08,2.39643,1,2.47813,-525.928,200.975,-28663.4
0,2.45455,1,2.84263,0,0,0
0,2.39432,1,2.51136,0,0,0
2.41623e+08,15.2181,2,2.96571,3103.63,-722.529,-29104.6
2.41799e+08,88.646,2,2.84947,-1955.09,-3378.18,-10612.4
2.41986e+08,6.28845,1,2.48578,-438.98,1047.97,-29747
2.42186e+08,8.71658,2,2.5497,1540.91,-257.257,-27892.7
2.42326e+08,264.371,1,2.72066,27703.5,-1834.69,19403.5
2.42361e+08,48.2383,0,2.55232,-2300.12,7584.12,-22488
2.42398e+08,43.5996,0,2.8475,2960.3,5592.44,-22162.9
2.42772e+08,180.957,2,2.92657,14968.6,1805.28,5967.48
2.42779e+08,32.4174,2,2.84823,6198.98,389.212,-26167.6
2.42852e+08,99.4513,1,2.61579,-15476.6,2357.97,-14793.5
2.42898e+08,53.2321,2,2.52516,-2830.49,-7637.81,-21000.1
2.43011e+08,137.996,0,2.46009,-6517.89,-8867.82,-1852.67
2.43369e+08,220.324,2,2.99372,-16535.7,-13299.9,11575
2.43701e+08,23.4277,2,2.70029,3038.09,99.4834,-24965.8
2.44565e+08,57.9065,0,2.78048,-6995.76,-1760.37,-19061
2.4506e+08,21.5768,0,2.65446,4631.46,458.36,-29051.2
2.45296e+08,37.2826,1,2.70967,-827.938,7404,-26128.6
2.45369e+08,87.9922,0,2.76843,13025.7,-8002.88,-18312.7
2.45512e+08,153.544,1,2.77052,20700.7,2896.89,-4254.98
2.45589e+08,37.848,1,2.99707,984.573,3819.81,-21943.6
2.45612e+08,70.762,1,2.89418,2452.25,1057.53,-20526.1
2.46032e+08,277.082,0,2.77108,21343.3,26932,18300.1
2.46124e+08,115.781,2,2.62226,3481.43,-13692.2,-8870.98
2.4643e+08,58.4815,2,2.37381,138.249,-3194.17,-16894.1
2.46597e+08,26.7884,0,2.87647,5539.75,1287.48,-29732
2.46662e+08,31.7704,0,2.9142,-1428.42,6049.7,-26454.8
2.47257e+08,102.282,2,2.56237,-2508.55,-10340.1,-10009.2
2.47463e+08,44.5068,2,2.88268,-5640.67,5835.93,-24614.6
2.47585e+08,30.9934,2,3.05605,1000.98,4831.4,-26362.6
2.47741e+08,37.422,2,2.84187,463.749,4819.04,-22703.5
2.47976e+08,24.1042,1,2.48515,-1562.54,3639.89,-25568.6
2.48212e+08,91.7782,1,2.98184,-2689.51,3516.56,-10100.6
2.48231e+08,2.05469,1,2.41037,-63.5623,439.183,-28590.2
2.48494e+08,16.8786,2,2.61661,85.8188,-295.292,-27973.1
2.48598e+08,11.3888,2,2.9495,-537.347,-1336.21,-26896.4
2.48656e+08,72.7762,1,2.88173,-11985,9575.62,-27574.5
2.4901e+08,18.6393,2,2.51103,-2817.21,1571.22,-26575.9
2.49137e+08,22.3144,2,3.01389,4593.29,648.093,-28809.2
2.49528e+08,28.896,2,2.66774,-4849.22,-252.393,-25078.3
2.4953e+08,4.25157,0,3.01993,558.462,799.527,-28821.4
2.49676e+08,171.115,1,2.93623,10242.4,11703.3,3519.74
2.49687e+08,98.5175,0,3.0247,-8183,1232.1,-9967.59
2.49884e+08,45.5308,0,2.99984,6426.72,-2174.81,-22053.1
0,45.2924,0,2.76801,0,0,0
2.49965e+08,25.2699,1,2.7703,-1555.26,-1419.6,-23957.9
