#class tools::wcsv::ntuple
#title time
#separator 44
#vector_separator 59
#column double eventID
#column double t(ns)
#column double copynumber
#column double energy(eV)
#column double x(mm)
#column double y(mm)
#column double z(mm)
121500,141.558,2,2.5196,-22336.6,-14407.6,-14887.5
145834,7.60514,0,2.42888,1592.92,861.904,-28548.6
197409,147.927,2,2.87188,28003.9,10545.3,-20579.4
276613,315.129,0,2.45571,754.802,-3021.98,-24191.9
293289,11.7114,0,2.88072,1157.99,1894.57,-27649.8
368114,149.919,2,2.51529,-19590.3,16279.1,-9953.21
626391,70.1138,0,3.02106,-3758.69,-13067.9,-23097.9
714820,11.3585,2,2.58169,1403.3,-189.117,-26936.1
0,11.3813,2,2.76041,0,0,0
790175,51.1567,2,2.46632,252.169,-5386.58,-19397
822015,30.8017,0,2.92382,1810.06,5777.77,-26365.8
965262,14.1539,1,3.05981,-2281.24,-1586.59,-28190.8
987226,139.483,1,2.53313,-16964.7,-20786.7,-16738.4
1.00836e+06,140.124,2,2.66851,18751.6,6067.73,-6848.75
1.05857e+06,249.332,0,2.82603,-12352.6,-8973.12,-8877.28
1.06065e+06,77.9434,2,2.67074,1013.37,-8743.03,-14837.2
1.46673e+06,112.577,0,2.68648,4847.22,-21519.7,-19980.5
1.5469e+06,75.5788,1,2.57794,-3728,6174.09,-14416.1
1.56807e+06,49.9492,1,2.57355,-1617.58,-10326.6,-29019.7
1.73727e+06,66.8324,2,2.51317,8312.64,-9880.17,-22919.5
1.75619e+06,234.564,0,2.43308,25931.3,-15019.3,10682.4
2.00413e+06,23.2706,0,2.42076,3055.37,3889.85,-28322
2.17811e+06,182.835,0,2.59855,-21072,13068.4,739.504
2.29761e+06,16.5408,2,2.87363,-1152.51,-2905.13,-27127.8
2.44908e+06,36.0501,2,2.71056,-4119.8,-194.145,-22381.1
2.46408e+06,43.2329,0,2.7534,7944.73,-4726.03,-28033.5
2.56986e+06,14.8746,2,2.70997,464.073,1233.65,-26045.6
2.60837e+06,8.97896,1,2.42989,-553.295,1604.98,-27853.3
2.65371e+06,86.1644,0,2.79756,9538.4,2677,-13642.5
2.66144e+06,11.0638,1,2.57143,-1539.77,1548.17,-29997.6
2.68227e+06,3.86837,2,2.83571,-14.3554,-616.102,-28201.6
2.87236e+06,47.0721,0,2.37156,-7865.1,-78.5471,-22817.2
3.10668e+06,5.72654,2,2.47489,-296.874,-1247.6,-29090.1
3.20008e+06,21.7958,1,2.8314,74.5995,4657.61,-28141.5
3.26664e+06,65.1543,2,2.76803,2562.19,-7983.35,-18035.4
3.36045e+06,119.144,0,2.3851,17397,16269.2,-29724
3.37355e+06,107.898,2,2.85301,16653.5,4146.35,-13967.5
3.40969e+06,90.0393,2,2.63102,10217.5,13623.3,-21057.4
3.42473e+06,93.2963,0,2.73068,8390.23,-13378,-16935
3.49453e+06,52.2228,1,2.69692,5737.76,6771.37,-22394.6
3.67176e+06,18.5453,0,2.98597,432.929,66.7573,-25076.1
3.67289e+06,204.183,2,2.93006,23632.4,-21455.9,-223.28
3.85587e+06,42.4718,0,2.68569,8192.47,914.024,-25176
3.86648e+06,86.7773,0,2.8167,13526.6,377.621,-16479.8
3.8941e+06,170.829,1,2.57255,-26807.3,19550,-24678.5
4.0427e+06,3.35794,0,2.47216,-161.315,-467.894,-28352.7
4.1991e+06,80.1147,2,2.42237,13505.1,-5813.66,-22497.5
4.36385e+06,111.532,0,2.64471,4379.16,23057.7,-27401.3
4.41613e+06,108.323,1,2.90695,-4009.36,-6060.72,-26906.3
4.47412e+06,153.622,2,2.41834,9449.99,15829.2,-2125.58
4.48754e+06,2.24951,2,2.4328,-183.009,-52.2284,-28375.5
0,2.27832,2,2.69244,0,0,0
0,2.30321,1,2.93867,0,0,0
4.68591e+06,94.2503,2,2.94788,-7038.37,-18200.2,-24829.2
4.72201e+06,63.6017,0,2.96801,-1453.26,11961.6,-23183.8
4.79123e+06,103.371,0,2.61273,7051.13,-15695.6,-15669.1
4.80702e+06,102.705,2,2.73537,20351.5,-1207.78,-23422.5
4.94353e+06,26.2366,0,2.60837,-3414.05,-4115.05,-28986
4.98714e+06,125.458,1,2.89889,-10915.8,21750.1,-19017.6
5.06744e+06,87.8654,0,2.57331,3186.81,-6052.25,-11560.1
5.21742e+06,65.0453,2,2.89746,-7656.68,7968.93,-20759.9
5.26671e+06,4.61504,1,2.81954,472.295,-360.296,-28102.8
5.90463e+06,63.2645,0,2.97898,10716.5,-7981.1,-28551.2
6.00798e+06,30.0442,1,2.51594,4882.64,2637.87,-25554.5
6.12684e+06,82.9606,1,3.04346,-7238.83,7913.04,-15068.1
6.14121e+06,24.6455,2,2.89813,-3163.68,-4053.72,-27855.8
6.20332e+06,30.3897,0,2.79929,462.504,6389.25,-29313.7
6.22663e+06,127.683,0,2.62016,10169.5,24880.8,-26765.1
6.45573e+06,12.1349,0,2.62583,-1367.58,433.438,-26705
6.52649e+06,87.4253,0,3.0604,1163.77,11005.7,-14270.6
6.57248e+06,7.38801,0,2.70493,1538.49,257.221,-29464.3
6.68002e+06,142.106,1,2.74088,3503.45,-16890.5,-4526.58
6.6822e+06,2.65387,2,2.54445,-480.229,312.728,-28781.5
6.99273e+06,55.5397,0,2.94148,-2836.39,6530.38,-19626.1
7.17258e+06,3.49808,1,2.99691,811.096,-75.8288,-28877
7.29317e+06,104.312,2,2.48657,20990.6,2908.41,-22501.8
7.29517e+06,65.1509,0,2.92534,3475.64,5518.96,-17023.3
7.31149e+06,116.833,1,2.63321,-22240.8,-3713.45,-18739.2
7.32122e+06,66.5277,2,2.41135,12535.4,1273.16,-22680.1
7.37929e+06,26.0462,1,2.7475,1120.53,5475.66,-28442.7
7.40104e+06,10.2296,0,2.53921,-184.283,1922.1,-28084.4
7.44378e+06,10.6711,2,2.74309,47.1015,-2340.85,-29223
7.48127e+06,3.92815,0,2.42486,238.217,692.586,-28309
7.58313e+06,136.647,0,2.53989,14998.6,16410.1,-10341.3
7.58528e+06,155.863,2,2.41699,-7160.86,-17781.8,-27811.6
7.60064e+06,52.845,2,2.42385,-4418.54,756.434,-28319.4
7.6129e+06,141.673,2,2.3853,-19195.7,-19476.3,-16357.2
7.87314e+06,68.5351,1,2.81463,-6306.71,12616.1,-25568
7.9337e+06,62.0977,0,2.59042,-4818.48,-1473.34,-16687
7.99212e+06,67.0415,1,2.64478,-8637.48,-8860.92,-22324.5
8.04783e+06,88.3619,1,2.83575,-12715.5,-1729.54,-16439.4
8.15673e+06,54.4308,1,3.03533,2874.67,-4724.19,-18931.3
8.29497e+06,14.229,0,2.66447,132.278,-3039.96,-28529.6
8.43409e+06,137.82,2,2.78957,-7999.6,-18404.2,-7800.8
8.64938e+06,19.7958,2,3.00572,1954.88,-2253.49,-26443.4
8.77753e+06,20.4,1,2.83374,-1722.42,-1286.59,-24971.8
8.87792e+06,70.4996,0,2.59481,-3668.03,-8163.78,-17029.2
8.92665e+06,47.0766,2,2.62537,-243.079,-8363.29,-24431.9
8.95147e+06,3.62344,1,3.03678,-802.768,-119.596,-29008.7
8.95273e+06,72.3413,0,2.78212,10050,10898.6,-25070.9
9.08616e+06,30.3186,2,2.36596,5.4875,-6456.78,-29832
9.20299e+06,69.3612,0,3.00399,3901.07,-5521.9,-15833.9
9.20951e+06,105.495,2,2.6523,5734.26,-14281.7,-12699.9
9.23078e+06,36.4872,0,2.36201,4626.11,3864.6,-23972.5
9.30364e+06,5.44268,0,2.59266,1051.16,872.349,-29065.7
9.36566e+06,83.8827,2,2.87066,-10066.8,-9509.8,-17834.4
9.36603e+06,40.4246,1,2.64776,-5235.82,1789.39,-22320.2
9.44154e+06,5.93591,0,3.04133,175.776,349.267,-27656.2
9.44209e+06,154.307,2,2.6075,-4712.98,-28165.8,-12996.8
9.5381e+06,33.1373,1,2.88759,-5713.39,642.651,-24759.7
9.70894e+06,65.0663,0,2.68109,5757.61,8660.9,-19828.8
9.74282e+06,48.8353,2,2.71599,5302.48,3070.08,-20577.9
9.81145e+06,122.151,0,2.8822,18210.5,12227.4,-15595.4
9.81176e+06,60.4495,0,3.03604,11565.7,-5315.99,-27990.5
9.81422e+06,205.207,1,2.89402,167.734,8151.72,-22542
9.88307e+06,209.015,0,2.71962,-5625.16,15230.2,12216.7
9.93759e+06,258.071,0,2.97846,22620.5,6856.07,19869
9.95134e+06,173.922,0,2.60796,-2259.72,-6740.55,-8050.29
9.95637e+06,114.398,0,2.43541,15461.6,14199.6,-16696
1.00535e+07,62.2058,1,3.00913,-1623.04,9316.25,-19746.1
1.02257e+07,70.9878,1,2.7738,-9778.73,11152.9,-26030.9
1.0228e+07,33.3253,0,2.38762,6788.61,-263.056,-26423.5
1.02464e+07,44.7468,0,3.05777,8511.42,4152.6,-29031.2
1.02934e+07,24.9092,1,2.75072,-894.902,-2125.38,-24123.6
1.04157e+07,84.3337,1,2.47367,14433,-803.608,-18675.9
1.04345e+07,33.1551,0,2.4905,3007.45,-5693.92,-25689.6
1.05053e+07,8.0179,2,2.48464,583.528,-1704.62,-28913.3
1.07472e+07,34.8204,0,3.04909,-5395.22,2269.14,-24535.1
1.07573e+07,46.1799,1,2.61364,5414.19,-1222.19,-20741.6
1.08548e+07,83.0462,2,2.49975,2666.51,14896.3,-19926.7
1.08616e+07,161.003,1,2.51351,-25126.1,-11140,-8887.61
1.08627e+07,108.201,0,2.62179,11826.7,-14295,-15409.9
1.09276e+07,3.78954,1,2.5351,-526.372,-599.072,-28703.6
1.10688e+07,92.449,0,2.48564,941.797,13508.1,-15091.6
1.10939e+07,61.493,0,2.88442,-8381.1,1232.65,-19115.2
1.11184e+07,146.993,2,2.85426,-3866.77,-16200,-2781.84
1.1119e+07,56.2084,1,2.38301,-8267.44,-8491.73,-27056.3
1.12074e+07,60.8894,0,2.40757,6175.78,-3217.4,-17767
1.12843e+07,12.7772,2,3.01203,510.828,-2711.32,-28663.6
1.12878e+07,26.971,0,2.78687,2022.73,-645.265,-23552.8
1.15258e+07,208.569,1,2.74448,-27049.9,19827.1,-20189.7
1.15606e+07,4.84007,2,2.40923,342.744,-1048.59,-28452.6
1.15841e+07,17.5976,2,2.79239,-2921.88,-1813.53,-27068.7
1.17049e+07,45.8925,0,3.01829,5304.69,7907.72,-29504.4
1.17848e+07,5.14005,0,2.75491,-480.074,-731.041,-28276.3
1.18211e+07,70.1412,1,2.87177,-12531.2,4144.53,-22108
1.18477e+07,97.888,0,2.80669,-9276.86,-17835.6,-24409.7
1.18862e+07,21.0988,0,2.73675,4397.01,378.755,-27929
1.19216e+07,45.08,2,2.9184,-2217.22,-9291.49,-29066.1
1.22979e+07,16.8279,1,2.45032,-2095.5,-2845.39,-28081.8
1.23928e+07,79.5489,2,2.88569,-1874.59,-13768.4,-19413.3
1.27295e+07,112.73,2,2.92379,-16646.5,-6779.01,-17555.5
1.27664e+07,46.7858,2,3.04269,8187.21,3008.43,-24390.7
1.28657e+07,35.3066,1,2.41212,5081.53,4905.57,-26219.5
1.298e+07,149.255,0,2.8767,-21096.8,-15119.7,-11292.9
1.30777e+07,23.2687,1,2.44567,-4698.47,467.526,-29136.5
1.32508e+07,135.694,1,2.71396,22583.7,10121,-14511.6
1.32959e+07,112.59,0,2.83177,20936,7211.64,-20233.1
1.33581e+07,7.70168,1,2.95886,626.198,1458.36,-28080.3
1.33614e+07,49.6957,1,2.46856,-1491.67,3391.4,-18961.8
1.33778e+07,76.6392,0,2.94526,5533.84,1924.96,-13976.8
1.35949e+07,154.143,0,2.61582,10651,-25540.3,-11586.7
1.37005e+07,62.8229,1,2.58269,-855.639,-8239.56,-18517.2
1.37197e+07,26.9653,2,2.76241,-3549.25,-3083.86,-25555.2
1.37895e+07,83.5231,2,3.02446,9035.79,-14396.6,-24351.8
1.38321e+07,31.671,2,2.43758,2327.57,-4659.87,-24947.6
1.39062e+07,71.3144,2,2.71098,-6934,-7789.19,-17916.7
1.40261e+07,22.6433,0,2.66611,963.43,308.515,-24128.6
0,22.729,0,2.78075,0,0,0
1.40586e+07,16.824,1,2.66867,-1042.72,-1912.6,-26943.6
1.41277e+07,33.0819,1,2.87319,5634.74,4017.1,-28396.6
1.41314e+07,2.31055,0,2.38033,339.435,-154.486,-28604.9
1.415e+07,64.3328,2,2.93587,-9709.36,5983.25,-21571.6
1.43394e+07,22.759,2,2.84636,-2437.51,-3303.89,-26223
1.4373e+07,4.67213,1,2.91519,-738.882,743.37,-29223.3
1.44785e+07,48.7351,2,2.37177,-3225.58,3238.42,-19541.4
1.45633e+07,68.9544,2,2.79596,43.3285,-10490.8,-18844.5
1.45936e+07,45.9854,1,2.85332,4818.65,3564.24,-21221
1.46507e+07,149.502,2,2.90927,-4745.02,-27291.8,-13835.1
1.4887e+07,145.787,1,2.55875,-16101.5,18618.1,-18861.3
1.49068e+07,46.6725,1,2.81403,-3905.35,-7767.43,-24122.1
1.50142e+07,13.7851,0,2.42177,-1199.79,-2551.44,-28166.5
1.50627e+07,90.946,2,2.6012,-6205.53,-8802.6,-12956.5
1.50888e+07,57.1034,0,2.45209,9742.4,1164.09,-21575.5
1.5153e+07,19.8249,0,2.97885,3423.96,-1020.46,-26819.8
1.51974e+07,40.814,1,2.47836,-5229.66,-184.448,-21887.5
1.53437e+07,46.0354,2,3.04729,-3556.55,-4660.32,-29382.5
1.54938e+07,174.703,0,2.92598,-19806.1,-22050.8,-7283.05
1.54939e+07,80.687,1,2.55303,-7336.88,15229.2,-25855.8
1.5536e+07,86.0803,1,2.74712,-4212.7,16973.9,-24330
1.56617e+07,29.4329,0,2.68633,2060.9,-2804.3,-23687.4
1.58221e+07,198.067,1,3.01337,26422.8,4498.33,-11703.9
1.58549e+07,56.8534,1,2.97435,5198.74,-3454.63,-19021
1.59303e+07,169.032,1,2.73714,1863.7,12065.8,4631.04
1.61463e+07,10.6542,1,2.36216,-1974.71,-955.528,-27929.6
1.61836e+07,131.104,0,2.8061,8611.23,5832.54,-3287.1
1.61875e+07,173.85,0,2.56443,24195,-11415.8,-3554.55
1.63223e+07,21.0397,2,2.85584,331.584,-3873.52,-26656.5
1.63621e+07,24.6645,0,3.03746,2874.65,-4333.64,-29440.8
1.64328e+07,36.5981,1,2.75592,7077.02,700.788,-25604.2
1.66881e+07,69.8848,0,2.67324,-6613.33,-7813.84,-18274.9
1.68208e+07,55.8722,0,2.45893,-10455,-2406.55,-24097
1.68379e+07,97.0848,1,2.6163,6549.59,-17103.8,-19873
1.68776e+07,74.8611,1,2.64155,14323.8,6460.72,-28260.1
1.68896e+07,24.3485,1,2.87735,3012.42,-2164.27,-25390.2
1.69201e+07,73.51,1,2.66014,-4001.84,-12036.3,-19986
0,73.7572,0,3.0336,0,0,0
1.69372e+07,31.1636,2,3.03568,-3937.68,-5271.99,-28399.2
1.70437e+07,49.1602,2,2.63308,5806.39,-8517.84,-27561.2
1.71023e+07,43.5921,2,2.47534,-7775.41,4889.41,-28175.5
1.72035e+07,59.2906,1,2.96915,-7727.83,-5122.08,-20565.7
1.72286e+07,197.897,0,2.90597,1662.35,4396.71,9485.22
1.72631e+07,51.5079,1,2.64703,-7766.62,7473.88,-26807.3
1.73298e+07,5.92996,0,2.75144,166.433,-922.255,-27994.9
1.73526e+07,38.7601,0,2.6735,-3209.57,-7278.38,-27046.4
1.7378e+07,87.326,1,2.74943,8635.43,10470.3,-24990.5
1.73947e+07,91.8933,2,2.48894,-14772,-147.461,-16175.4
1.74076e+07,37.6216,2,2.70173,-7190.45,2379.49,-26453.1
1.74129e+07,231.473,1,2.92374,6716.61,-26594.6,7864.05
1.76784e+07,28.3279,2,2.9868,2779.37,-3227.93,-24664.1
1.76859e+07,64.9159,1,2.93731,-6793.36,11364.6,-25257.2
1.77081e+07,128.681,1,2.75955,345.387,18930,-9331.09
1.78564e+07,7.47116,2,2.37685,-465.947,-398.035,-27371.6
1.78852e+07,23.8373,2,2.67228,4928.92,708.566,-29270.2
1.79069e+07,126.652,0,2.38006,12250.2,2309.52,-5060.68
1.79702e+07,31.7104,2,2.79463,530.555,-5006.08,-24370.1
1.80591e+07,111.254,2,2.99464,18228.6,-7729.23,-16685.2
1.81244e+07,15.4454,1,2.54545,2127.14,-1138.04,-26669.4
1.81267e+07,42.4361,2,2.87629,-7153.07,1916.97,-23881.7
1.83911e+07,53.4312,2,2.87495,-2669.96,-4036.87,-18645.6
1.846e+07,126.709,2,2.88388,-12458.1,3074.7,-5651.77
1.85971e+07,78.2801,2,2.85388,15111.5,-6597.38,-29449.6
1.86431e+07,40.7704,2,2.70506,1641.6,4666.07,-21826.8
1.87834e+07,141.07,2,3.04648,-20475.4,-18136.3,-17537.4
1.88389e+07,21.5005,1,2.86576,-2066.9,2094.69,-25335.8
1.89136e+07,119.32,2,2.61093,-13048.7,-8151.01,-8838.38
1.89279e+07,39.8013,2,2.96127,-2267.66,-5173.41,-22840.5
1.89721e+07,82.5153,0,2.76038,-2136.01,12313.6,-16596
1.89944e+07,87.2691,1,2.94506,-1146.88,-10149,-18389.9
1.91496e+07,49.5005,0,2.51599,-4332.76,9412.27,-27403.1
1.94851e+07,51.8834,1,2.53015,1137.84,7184.87,-20679.7
1.96383e+07,85.669,2,2.56898,-3173.49,-11270.6,-21671.3
1.99185e+07,109.174,1,2.94777,2862.04,4491.38,-25311.8
1.99548e+07,174.114,1,3.03499,-26669.3,19693.9,-13428.5
1.99815e+07,114.755,0,2.54314,15196.7,8424.74,-11780.2
2.00079e+07,106.608,0,3.05751,15027.8,6555.7,-13465.5
2.01415e+07,89.1971,2,2.66392,987.198,13276.1,-15615.1
2.01749e+07,5.65946,2,2.87483,335.57,-1186.14,-28340.4
0,5.73343,2,2.70215,0,0,0
2.02253e+07,83.4222,0,2.72727,3910.44,14149.3,-19052.1
2.02614e+07,83.1235,0,2.48479,-9070.9,7398.68,-15780.6
2.0292e+07,66.4443,0,2.47019,10769.8,-6050.82,-22986.1
2.03246e+07,135.365,0,2.62103,19537.9,3247.45,-8232.3
2.03878e+07,101.412,1,2.5558,-18585.3,6913.5,-20585.5
2.04339e+07,164.483,1,2.69242,-20287.5,-28052,-28009.8
2.05822e+07,40.3076,1,2.77358,-3267.09,-5153.17,-22920.5
2.06232e+07,11.864,0,2.51945,2180.82,-1158.19,-29698.9
2.06518e+07,101.261,2,2.86209,1640.34,-14993.8,-13829.9
2.0752e+07,35.5914,2,2.9168,-5401,4797.49,-26541.6
2.09194e+07,15.0597,2,2.37211,-3204.5,-48.1739,-29435.6
2.09576e+07,23.6449,1,2.67135,-4159.08,2711.98,-29919.1
2.10207e+07,59.1478,1,2.84863,-3325.33,8517.63,-20285.3
2.10286e+07,160.67,1,2.76423,-28916.4,-900.74,-11420.1
2.1038e+07,161.677,2,2.96698,-10162.3,-24375.9,-7442.61
2.12187e+07,17.098,2,2.45713,2067.63,-1809.4,-26378.5
2.12559e+07,123.591,1,2.84509,-7585.07,16564.5,-10142.7
2.12717e+07,63.6131,0,2.37225,-1123.09,5787.67,-16714
2.1298e+07,119.903,2,2.88432,5078.78,8133.51,-5783.87
2.1306e+07,73.0087,1,2.75648,9541.21,-6009.27,-18524.4
2.13864e+07,153.225,2,2.80205,-426.173,-28642.2,-13626.7
2.13902e+07,38.1874,0,2.67469,-6696.62,-687.58,-24674.8
2.14342e+07,169.293,0,2.39174,-475.794,-10574.2,5346.34
2.14512e+07,18.5357,1,2.38959,-3186.59,984.207,-26619.4
2.15255e+07,84.6425,0,3.02817,7946.45,-3757.35,-21768.5
2.16109e+07,35.0002,0,2.50844,4060.65,-1659.19,-22829.7
2.16699e+07,119.961,0,2.68051,4302.76,5163.27,-4485.95
2.17205e+07,146.043,0,2.86618,20926.2,-3852.6,-6575.26
2.1886e+07,42.755,0,2.82319,8410.52,-519.301,-25540.5
2.19414e+07,154.93,0,2.42056,-6540.34,-15323.7,-830.387
2.2226e+07,49.5557,1,2.80788,-8270.79,-6180.73,-27740.3
2.23371e+07,238.825,1,2.57285,7930.97,-8493.9,-14472.8
2.23446e+07,20.7563,2,2.7325,-1929.9,-4044.14,-29144
2.24186e+07,14.2701,1,2.83625,-601.11,2457.85,-26971.9
2.25305e+07,13.9532,1,2.90019,29.4706,2244.05,-29723.5
0,14.0128,1,2.75254,0,0,0
2.26711e+07,126.467,0,2.5109,17993.4,16154.6,-17352.8
2.27491e+07,21.5125,0,2.64111,-881.894,3925.66,-26808.9
2.27666e+07,96.3206,1,2.79613,4312.54,4412.37,-21180.5
2.2828e+07,106.442,0,2.85623,-9715.66,2635.51,-9001.46
2.28545e+07,19.6284,2,2.8108,363.093,3452.1,-26884.4
2.29311e+07,9.65131,1,2.49652,-1998.41,193.741,-29513
2.29387e+07,68.2254,0,2.69766,-1597.32,4712.78,-15407.1
2.29501e+07,96.8672,0,2.74745,15890.8,-7027.97,-27770.5
2.2961e+07,30.4513,2,2.75068,-1551.78,1761.69,-23652.3
2.29816e+07,70.4442,0,3.02835,14280.6,3781.23,-29695.1
2.31235e+07,43.5009,2,2.86569,-2241.42,7495.86,-24249.4
2.31854e+07,12.0579,2,2.71046,-1175.09,-2293.42,-29599
2.333e+07,65.1723,0,2.64678,4653.16,2194.83,-27894.1
2.33487e+07,201.316,2,2.87937,-24290.9,-5336.92,-2151.05
2.35025e+07,142.247,2,2.63161,-22404.9,-12707.9,-13298
2.35052e+07,12.3295,1,2.9872,-876.186,-1000.96,-26614.2
2.36503e+07,11.9559,1,2.79949,-628.311,2436.37,-28098.1
2.37247e+07,21.1381,1,2.48708,-4090.41,799.68,-27296.2
2.37278e+07,9.59738,2,2.91517,263.475,1516.37,-27961.4
2.37786e+07,38.4773,1,2.98589,-4215.27,6499.29,-26232.7
2.38708e+07,53.938,2,2.83275,6875.1,2643.84,-20232.9
2.40742e+07,18.7493,1,2.68328,-2700.76,3160.96,-28299.3
2.4115e+07,116.077,1,3.05714,7206.57,5425.78,-6303.38
2.41813e+07,75.3043,0,2.94414,8629.16,12648.8,-24634.7
2.41822e+07,208.634,0,2.80541,10712.8,5816.28,13295.5
2.4609e+07,57.918,1,2.62019,-7808.72,9490.68,-28443.9
2.46247e+07,125.429,0,2.66812,19574.5,9869.51,-13873.3
2.46457e+07,11.0948,0,2.36835,673.633,-2030.73,-27677.8
2.46785e+07,35.5513,0,2.97678,1779.93,-5406.86,-24021
2.46888e+07,103.822,0,2.58374,-20341.6,2579.8,-21172.9
2.47539e+07,18.3672,1,2.72653,-1796.44,-2091.05,-26120.8
2.47716e+07,11.0919,0,2.54884,891.878,1357.9,-27059.4
2.48725e+07,39.0924,1,2.79431,211.928,8277.96,-27935.5
2.48953e+07,3.85673,0,2.8786,394.248,-661.239,-29229.2
2.49152e+07,19.1244,2,2.44288,1073.84,-2390.35,-25489.5
2.49216e+07,11.2391,2,2.72895,-400.841,-1738.02,-27113.3
2.50732e+07,42.4643,2,2.5559,-1486.54,6186.9,-23404.6
2.51102e+07,21.8907,2,2.62424,-4557.35,672.735,-29677.6
2.51612e+07,44.2283,0,2.84577,5666.69,7439.11,-29844.5
2.52815e+07,99.9725,2,2.65925,-6313.68,4343.11,-9198.1
2.54118e+07,143.563,0,3.01017,-508.761,-654.886,-28283.7
2.54304e+07,15.7918,1,2.51884,289.535,1903.93,-26044.1
2.547e+07,62.3013,1,2.70014,-1392.65,-8012.9,-18568.3
2.55569e+07,257.013,2,2.82692,14688.9,28004.5,-8079.48
2.56096e+07,30.5219,1,2.99843,-6115.35,1474.96,-27245.4
2.56122e+07,73.7311,2,2.4786,10501.3,-11249.8,-25688.9
2.56626e+07,173.011,0,2.43651,27968.6,-11606.3,-7974.96
2.59171e+07,21.6948,0,2.85531,3459.6,3053.52,-28396.4
2.59964e+07,15.5388,0,3.00266,-217.948,2975.06,-27373
2.60943e+07,82.0717,1,2.65519,-11406.2,13076,-27191.6
2.60973e+07,100.463,2,2.43251,15109.6,-8492.9,-16507
2.61045e+07,51.4366,1,2.8309,6536.12,-3757.13,-21193.4
2.61234e+07,11.4626,0,2.9522,1719.56,687.177,-27183.1
2.61498e+07,12.1144,1,2.38833,-497.343,1954.91,-27146.7
2.62328e+07,37.7134,1,2.67695,-7570.79,-2577.29,-28867.6
2.63034e+07,40.7225,0,3.01767,-5079.97,-5394.89,-24732.3
2.63093e+07,21.6786,1,2.66167,1709.6,410.391,-24632.2
2.63199e+07,11.3293,1,2.60817,-437.686,2275.41,-29752
2.64347e+07,33.5825,0,3.03032,-3630.74,-5367,-25806.1
2.64732e+07,186.697,2,2.42337,-7858.95,27147.1,-1265.93
2.65866e+07,13.6461,0,2.51531,2792.28,-531.564,-29727.4
2.68707e+07,91.5658,2,3.02762,1098.97,-19180.2,-29614.2
2.71524e+07,21.5112,1,2.74176,-1033.28,2562.18,-25269.4
2.72208e+07,39.2104,0,2.58218,513.082,-4013.21,-21591.8
2.73258e+07,173.225,2,2.92384,-29735.3,-19578.2,-22884.9
2.76711e+07,49.2049,2,2.95273,-3433.21,1057.14,-19138.3
2.76867e+07,109.032,0,2.74758,11932.1,-7281.18,-10613.1
0,109.059,0,2.76827,0,0,0
2.77253e+07,3.71411,2,2.95078,-140.599,772.404,-28670.8
0,3.28845,1,3.06081,0,0,0
0,3.19505,1,2.53186,0,0,0
0,3.18342,1,2.57863,0,0,0
2.78248e+07,153.107,2,2.51241,-7015.72,-7186.59,-26760.7
2.78319e+07,98.3209,2,2.89507,7506.62,18346.7,-23619
2.78432e+07,145.729,0,2.86528,26457.6,-12485.4,-19610
2.78726e+07,9.62657,1,2.89842,-1255.1,-226.223,-27233
2.79766e+07,57.6793,0,2.67115,2279.01,-511.493,-16854.9
2.80601e+07,18.9425,0,2.68656,1599.74,-3741.22,-28918.3
2.82462e+07,21.568,1,2.54363,-4395.96,39.013,-27770.6
2.82828e+07,67.6182,1,3.02945,5328.03,11094.8,-21808.7
2.83e+07,2.33837,0,2.82785,-296.126,182.694,-28530.9
0,1.93078,1,2.4832,0,0,0
0,1.92819,1,2.77863,0,0,0
2.84183e+07,2.27579,1,2.70565,-293.56,-187.828,-28498.4
2.84598e+07,114.525,2,2.86222,9944.55,3031.06,-7162.54
2.85446e+07,33.525,1,2.7166,-7118.64,197.707,-27966.3
2.86449e+07,4.67609,2,2.69245,-946.265,89.6315,-28572.3
2.86595e+07,73.3328,2,2.77307,5718.54,-11074.7,-19705.7
2.86713e+07,65.4461,0,2.89734,2988.08,6709.28,-17171.1
2.87608e+07,45.9423,0,2.63701,2647.23,-9190.43,-27259.9
2.90885e+07,49.4972,1,2.56003,-6605.44,8206.37,-29462.1
2.9119e+07,28.9443,2,2.94748,-310.759,-2857.16,-23440.5
2.92927e+07,82.5767,0,2.66233,3318.21,-10351.6,-15209.4
2.9664e+07,125.729,0,2.69595,-8882.29,19203,-29871.6
2.97738e+07,84.9181,1,2.53042,-10174.3,14004,-23734.9
2.98474e+07,280.543,0,2.81364,-26030,2746.19,23338.2
2.98685e+07,122.861,2,2.80527,16616.1,-14847,-24082.7
2.98746e+07,105.769,0,2.59706,5486.31,19029,-18504.5
2.98933e+07,85.9818,2,2.82501,-5701.16,-9751.28,-14657.6
2.99488e+07,62.5559,1,2.51286,-9120.93,8961.55,-24544.5
0,63.1614,1,2.96263,0,0,0
