#class tools::wcsv::ntuple
#title time
#separator 44
#vector_separator 59
#column double eventID
#column double t(ns)
#column double copynumber
#column double energy(eV)
#column double x(mm)
#column double y(mm)
#column double z(mm)
92986,69.9918,0,2.84759,9463.43,6845.28,-19761.3
305171,137.158,1,2.74244,6710.75,4422.37,-3970.61
309331,99.604,0,2.78696,-17539,-5013.22,-18629.5
344099,26.5064,0,2.77789,5405.77,885.89,-27211
444611,120.544,0,2.70278,8902.63,20886.1,-17515.1
480533,16.6297,1,2.87505,1109.75,1411.03,-26281
496598,3.6238,2,2.67154,415.875,-704.278,-28647.5
531714,184.609,0,2.88192,10124.6,-23601.1,339.293
535856,33.0497,0,2.79096,5000.26,4967.37,-29267.2
561252,43.2226,1,2.95065,-2540.07,5768.57,-22308
701231,41.4606,2,2.63708,7959.33,489.35,-25286.1
703992,15.4822,1,2.36848,-1503.52,-423.803,-26024.3
795527,40.5614,0,3.05102,-1073.94,-8078.88,-26442.9
946406,132.345,2,2.604,9342.05,-1304.91,-2562.18
990685,12.5042,0,2.87175,2489.15,1174.39,-28850
1.20259e+06,71.4026,2,2.70532,-8785.4,-10432,-22018.5
1.2292e+06,2.38213,0,2.45588,402.732,73.1121,-28533.2
0,2.5433,1,2.55777,0,0,0
1.25488e+06,5.59034,1,2.95819,-284.879,621.358,-27808.7
1.34677e+06,115.97,1,3.04637,-5666.09,16038.4,-11413.2
1.45919e+06,85.924,1,2.90242,13055.7,8179.11,-19396.4
1.51856e+06,4.61115,2,2.83341,-214.38,-223.1,-27871.7
0,4.58811,2,2.61929,0,0,0
1.51961e+06,31.0626,2,2.63983,-1644.24,-550.193,-22511.2
1.70439e+06,20.9905,2,3.03806,3706.02,-160.875,-26502.6
1.84704e+06,104.394,0,2.43151,1899.27,21568.9,-24285.9
1.90785e+06,81.1502,2,2.84511,-9126.16,576.545,-14370.4
1.92741e+06,43.8614,0,2.61405,-2925.79,7581.85,-24972.7
1.93996e+06,106.621,0,2.82927,12211.4,-16453.6,-19628.2
2.55556e+06,8.32292,0,2.72425,1192.36,1052.02,-29034.2
2.65798e+06,37.2726,1,2.36666,-5567.2,2929.87,-23905.6
2.68424e+06,12.8055,1,2.66013,-118.104,-1294.48,-26546.3
2.73486e+06,70.7866,0,2.47676,12938.4,-1539.54,-23146.3
2.80161e+06,48.181,0,2.83577,-6855.46,-1098.18,-21510.1
2.83034e+06,42.2601,2,2.65038,-299.317,11.5581,-19829.6
2.92012e+06,12.0496,1,2.94548,1325.17,-291.94,-26689.2
2.92918e+06,83.6901,2,2.73387,6376.31,4665.36,-18042.7
2.94569e+06,65.0476,1,2.67262,242.508,13290.7,-25173
3.0026e+06,13.1089,0,2.7496,2805.27,282.223,-28157.5
3.034e+06,5.14512,2,2.60945,-1133.99,-204.943,-28954.9
3.09402e+06,168.228,0,2.70905,12561.2,8292.3,3249.35
3.12289e+06,31.119,0,3.02529,-1553.91,-3484.33,-23538
3.12727e+06,15.1597,1,2.86822,-1579.58,-2490.86,-27639.3
3.20795e+06,37.9236,1,3.0063,-5041.33,5000.53,-25088.5
3.30175e+06,149.213,0,2.90913,15275.3,-17678.8,-7881.96
3.40751e+06,11.618,2,2.83411,-907.276,-1686.07,-27282.1
3.43948e+06,75.7698,0,2.98846,4584.42,2919.62,-15051.6
3.44049e+06,25.7988,1,2.52723,-65.1011,2692.71,-24011.1
3.45202e+06,42.8316,0,2.57324,-1919.82,-8293.25,-25637.7
3.48989e+06,22.481,1,2.45653,414.726,1206.38,-24185.8
3.49127e+06,12.5921,0,2.70415,-1674.53,-1072.06,-27112.9
0,12.5948,0,2.76278,0,0,0
3.57562e+06,72.2403,0,2.82659,5707.63,-4234.01,-15512
3.64847e+06,72.1596,2,3.05577,-9308.71,-11173,-24497
3.66478e+06,157.421,0,2.4946,3044.79,-14822.2,-11908.5
3.92252e+06,65.7515,2,2.40398,-13460.1,-3683.07,-28157.6
4.08274e+06,29.6921,2,2.72689,4135.57,-2200.59,-24651.1
4.1535e+06,99.2305,2,2.89286,15344,2085.98,-14810.4
4.16968e+06,7.87865,0,2.80017,1627.97,386.134,-28170.5
4.19508e+06,155.976,0,2.78618,-6952.24,19559.3,-3402.69
4.3347e+06,80.5798,2,2.89596,-10198.6,-11170.8,-21378.3
4.45568e+06,15.7002,0,2.80292,3298.24,458.361,-29071.4
4.46074e+06,44.6584,1,2.85619,6780.52,-4585.92,-24294.8
4.86023e+06,31.8052,0,2.4171,-4834.37,3145.99,-25448.6
4.90688e+06,52.5906,0,2.90648,-1412.41,4603.79,-18867.9
4.95235e+06,44.6659,0,2.95476,5048.46,-3328.18,-22360.9
4.98233e+06,112.058,2,2.9452,-478.412,-21506.7,-20471
5.00519e+06,10.8296,0,2.79983,600.152,1449.78,-27294.8
5.04032e+06,42.3232,1,2.59454,2732.53,5362.5,-22258.6
5.18103e+06,1.39766,2,2.39534,-9.11668,-203.201,-28557.2
0,1.67828,0,2.60709,0,0,0
5.22199e+06,116.636,1,2.70318,350.443,24702.4,-28275.2
5.25026e+06,20.2725,1,2.39936,-2199.26,1270.35,-25338
5.28003e+06,141.506,0,2.74522,12086.4,26767.2,-24738.7
5.37742e+06,94.1179,0,2.91199,18380.1,-1010.53,-21405.9
5.38203e+06,18.955,1,2.40735,4.35429,1765.36,-25141.4
5.42966e+06,164.551,0,3.02014,10557.2,-19651.6,-2629.9
5.45591e+06,3.95286,2,2.70832,839.29,136.036,-28828.5
5.50609e+06,16.4022,0,2.77064,256.332,-2760.95,-26797.9
5.5744e+06,15.8747,1,2.82675,-240.277,640.602,-25575.5
5.61247e+06,23.508,0,2.65073,2016.7,-1713.04,-24728.6
5.75244e+06,17.8414,1,2.93327,1338.51,-1356.25,-25593.8
5.79846e+06,103.335,2,2.91714,-2155.54,-20815.6,-23195
5.8116e+06,57.507,0,2.37467,-8258.79,8711,-27693.7
5.85258e+06,242.816,0,2.58549,9028.86,23096.9,4527.25
5.87065e+06,57.4999,0,2.68138,-5264.18,-3132.07,-18438.4
5.97752e+06,21.0306,1,2.73706,-1995.34,1750.97,-25521.2
6.10637e+06,66.5697,2,2.62177,7205.72,3836.61,-17533.9
6.17725e+06,35.3183,0,2.99117,4219.16,5651.22,-26392.6
6.47075e+06,97.5007,2,2.54766,-6779.46,6366.66,-10315.7
6.84113e+06,3.86493,1,2.9809,-342.447,548.636,-28186.3
0,3.85029,1,2.77997,0,0,0
6.84164e+06,74.8775,0,2.70209,-196.43,-835.744,-29716.8
6.9293e+06,81.6762,2,2.97689,-845.107,-2860.69,-28276.2
7.00849e+06,115.561,0,2.66582,-2998.32,1490.02,-24472.1
7.09212e+06,3.13335,2,2.40762,529.022,-430.181,-28660.8
0,3.14242,2,2.84868,0,0,0
7.11146e+06,65.1823,2,2.94438,2672.37,-13425,-28033.7
7.22794e+06,50.701,0,3.05631,-1481.56,-7394.29,-22013
7.24915e+06,134.354,2,2.81923,-27757.8,-5839.18,-27231.5
7.27918e+06,113.03,2,2.59974,-20007.7,-12719.9,-26954.8
7.3311e+06,61.083,2,2.4745,-11155.1,-5680.52,-25636.6
7.38469e+06,70.9339,1,2.5937,6258.78,5323.67,-16184.1
0,71.5077,1,3.00312,0,0,0
7.40653e+06,159.746,0,3.04518,-21580.5,-19646,-13005.3
7.79162e+06,279.688,1,2.66958,-23971.8,13844,649.653
7.98296e+06,79.6942,2,2.60645,14600.9,391.845,-20565
8.06379e+06,98.6135,2,2.5182,-15436.1,13076.6,-22975.7
8.11956e+06,97.8113,0,2.479,15121,13370.9,-23819.2
8.57698e+06,298.61,1,2.72012,25515.8,-23962.8,23479.1
8.58956e+06,39.0724,2,2.66065,1195,-8240.76,-28432.2
8.5954e+06,113.988,0,2.38607,23797.4,-164.319,-24456.5
8.92484e+06,72.1246,2,2.58215,-11521.8,2206.61,-18972.8
9.04696e+06,6.07768,1,2.68879,-1277.82,869.127,-28452.1
9.07563e+06,16.6036,0,2.5318,-1273.27,-615.373,-25682.1
9.10646e+06,27.1521,1,2.8361,-1892.83,2766.21,-24164.7
9.11049e+06,108.631,2,2.59647,17700,-13061.5,-22573.6
9.23458e+06,112.724,1,2.70799,-12048,10944.9,-11466.4
9.26085e+06,91.7059,2,2.84148,-18089.3,6569.4,-27209
9.27691e+06,54.0142,1,2.8562,793.638,8608.87,-21565.7
9.31356e+06,133.094,1,2.76702,9672.34,17131.2,-8797.63
9.40938e+06,88.9576,0,2.75046,-12960.9,1184.84,-15404.3
9.49483e+06,48.446,1,2.78161,5056,6713.42,-23005.1
9.5056e+06,48.7408,2,3.0445,-8743.28,-5153.23,-27085.9
9.55059e+06,17.3723,0,2.606,3190.43,-992.402,-27136.6
9.57559e+06,42.7546,1,2.72753,3529.7,-1632.7,-20900
9.57598e+06,18.2188,2,2.59193,-2384.75,-3097.47,-28807.2
9.59314e+06,48.1862,1,2.55364,4033.18,7559.02,-23280.6
9.73322e+06,60.3517,1,2.39802,-7703.05,-7846.04,-22321.1
9.78411e+06,48.9946,1,2.93301,2985.24,2633.05,-19621.7
9.88637e+06,3.47372,1,2.44158,796.717,81.3774,-28488.7
0,3.47896,1,2.89521,0,0,0
1.00081e+07,11.8211,0,2.76067,-632.995,1811.3,-27257.2
1.00417e+07,84.2966,0,2.79598,7846.38,-11981.2,-18539.3
1.01165e+07,163.518,1,2.59614,15856.2,-24009.2,-9889.2
1.01641e+07,61.5012,2,2.70873,-12967.9,181.138,-29782.1
1.03028e+07,12.3288,2,2.98267,1149.77,983.643,-26813.1
1.03239e+07,8.14216,0,2.60428,1153.28,595.393,-27558.9
0,8.14497,0,2.54149,0,0,0
0,8.14121,0,2.90348,0,0,0
1.04853e+07,16.2708,1,2.94064,-243.067,2518.97,-26454.3
1.05353e+07,79.1811,0,3.01872,5397.29,-8949.23,-16139
1.05397e+07,15.6353,1,2.47209,1867.63,1660.98,-27417.4
1.06133e+07,114.347,0,2.84602,7892.14,-6245.95,-7003.93
1.06675e+07,47.239,2,2.71273,-5836.1,-2300.23,-21048.4
1.07029e+07,77.286,1,2.66258,6678.54,9935.13,-17696.9
1.07347e+07,34.3776,1,2.65093,2899.35,5751.96,-25266.9
1.07374e+07,65.1229,1,2.52606,-12258.3,3496.98,-23469.1
1.07473e+07,120.796,1,2.88686,6518.96,7702.89,-6315.36
1.08881e+07,28.6772,0,2.7013,3830.6,613.152,-24153.1
1.0906e+07,56.2017,1,2.62758,-6547.96,8410.23,-23527
1.10742e+07,13.5213,1,2.71511,2125.15,1398.04,-27920
1.11238e+07,104.918,1,2.77976,13024.8,1998.15,-11328.4
1.11272e+07,65.6125,0,2.48561,-12871.8,1346.01,-24010.2
1.11547e+07,153.974,0,2.47766,28821,7049.76,-15462
1.11568e+07,208.096,2,2.68295,-28987.9,24694.1,-7362.28
1.14615e+07,133.312,2,3.05806,-11812.6,22365,-17017.9
1.14899e+07,8.96754,2,2.99985,1145.77,-555.521,-27492.8
1.15075e+07,137.675,0,2.39218,26670.4,398.362,-16957.6
1.15612e+07,113.042,2,2.91804,6329.3,16840.6,-13477.2
1.15916e+07,46.5771,2,2.60045,-9799.23,1139.89,-28599.7
1.16402e+07,121.258,1,2.74378,-11429.6,9371.58,-7983.26
1.16999e+07,278.77,0,2.43866,15474.8,-19152,24845.3
1.18006e+07,18.6394,2,2.98975,-2795.72,-1894.17,-27204.1
1.18661e+07,39.8451,2,2.44734,-187.437,4668.85,-21850.1
1.18799e+07,25.5987,2,2.48787,2864.62,-462.52,-24288.2
1.19348e+07,99.4009,0,2.82189,8265.24,-13613.8,-20812.1
1.19688e+07,4.29921,0,2.59545,-344.212,-561.185,-28184.7
0,4.24639,0,2.54302,0,0,0
1.20611e+07,12.5252,0,2.54273,901.246,35.5646,-26252.6
1.20673e+07,10.1845,1,2.47453,380.406,1440.73,-27203.6
1.21169e+07,67.2423,1,2.69177,7783.52,10131.6,-22437.6
1.22185e+07,1.90137,2,2.65032,-186.727,-240.964,-29162.8
1.24188e+07,131.857,1,2.82253,4523.18,27421.6,-28705.7
1.24191e+07,8.81127,1,3.02304,716.357,849.834,-27335.3
1.25545e+07,35.0856,0,2.36423,3891.97,-3754.77,-23556.4
1.25872e+07,116.206,1,2.55946,-128.635,8950.85,-6071.41
1.27054e+07,163.173,2,2.48897,20517.7,-22186.5,-24789
1.32537e+07,115.428,0,2.60199,-18321.4,4737.53,-24903.4
1.3286e+07,133.417,2,2.65916,-22319.2,-17187.7,-26514.5
1.32951e+07,88.8208,0,2.3802,289.74,-17290.6,-21370.4
1.33514e+07,52.4163,2,2.6412,-10381.5,598.028,-24593.7
1.33667e+07,33.4794,2,2.48025,-3283.22,-984.65,-22560.7
1.34147e+07,141.855,0,2.93108,3290.81,-11529.1,-7796.09
1.34746e+07,73.8777,0,2.61903,5418.77,14678.7,-29271.9
1.35499e+07,47.4935,1,2.95506,1493.55,207.457,-19440.6
1.37383e+07,193.786,1,2.76541,163.167,26921.2,1883.97
1.37455e+07,16.4206,2,2.75157,-3162.01,-971.755,-27644.2
1.37498e+07,81.5708,0,2.86164,-2179.91,5553.79,-24496.2
1.38067e+07,210.288,0,2.80998,-15620.4,-6326.84,11955.6
1.38861e+07,41.4521,0,2.93828,5528.59,826.863,-23475.1
1.39644e+07,86.3925,0,2.73566,-1224.88,6116.02,-11737.8
1.39695e+07,29.9117,2,2.5203,6168.73,-81.7954,-29992.7
1.40896e+07,57.1639,0,2.38121,-10890.2,-2705.67,-24269.1
1.41215e+07,96.5517,1,3.04779,8336.07,13728.8,-16529.6
1.41232e+07,21.3835,0,2.62258,2563.39,-3608.48,-27759.6
1.42608e+07,256.121,0,2.65082,-2777.16,6134.88,-6515.7
1.43803e+07,41.5151,0,2.52508,8449.75,2831.95,-28799.4
1.44134e+07,6.88542,2,2.54602,343.133,770.548,-27820.9
1.47523e+07,140.442,1,2.7859,-13178.2,-629.627,-2362.47
1.47881e+07,133.35,0,2.63532,13603.8,19415.9,-13621.9
1.48192e+07,25.2207,0,2.68728,400.628,3782.22,-25045.1
1.48978e+07,47.2454,1,2.73944,-2845.17,7082.38,-22485.3
1.49412e+07,38.9754,2,2.90984,1965.5,-7882.73,-28729.1
1.49774e+07,7.4445,0,2.86763,846.972,-1292.39,-29225.8
1.50326e+07,64.147,0,2.49557,9661.47,-7283.74,-22766
1.51452e+07,4.04892,2,2.77288,-399.593,-661.682,-28364.3
0,4.15403,2,2.84259,0,0,0
1.53495e+07,83.1159,1,2.96285,-2463.3,10609.7,-15156.2
1.54461e+07,196.689,1,3.04912,-961.905,-19195,7600.04
1.54488e+07,62.1006,2,2.51444,-4929.3,-11900.1,-26131.7
1.56481e+07,70.8356,2,2.38485,-6119.34,-3003.66,-15460.5
1.56521e+07,69.0245,2,2.72688,8293.33,9419.38,-21774.2
1.56821e+07,3.5527,0,2.57323,599.585,-591.154,-28972.4
0,3.58933,0,2.67993,0,0,0
0,3.53158,0,2.58307,0,0,0
1.57207e+07,41.9614,0,2.70196,1316.89,8606.26,-27709.3
1.57484e+07,5.92544,1,2.53692,-801.857,1142.29,-28776
1.5906e+07,50.6975,2,2.48563,-2405.88,5986.66,-20247.6
1.59275e+07,174.333,2,2.42772,29240.7,-5847.69,-7153.01
1.59307e+07,114.577,2,3.05621,-169.173,9653.45,-6761.11
1.60105e+07,114.222,0,2.94915,-12669.2,-13348.8,-13559.8
1.61176e+07,26.9829,0,2.45036,-1295.78,5437.43,-27673
1.61274e+07,103.904,1,2.8801,18403.6,368.377,-18273.4
1.62371e+07,7.52593,1,3.04809,822.92,373.207,-27520.3
1.62791e+07,196.65,2,2.84494,6299.71,23793,-27267.3
1.63235e+07,13.965,0,2.41251,-2169.73,1818.38,-27972.6
1.63915e+07,17.4589,1,2.99977,-2050.76,744.95,-25727.4
1.67406e+07,47.0009,2,2.76396,4132.55,-7948.5,-24658.2
1.68339e+07,59.7362,2,2.83105,-3157.36,7470.59,-19296
1.70139e+07,219.822,2,2.78903,-5278.9,-16252.2,-24190.8
1.70248e+07,105.124,2,2.72351,-5161.72,-16355.2,-14692
1.71492e+07,30.1084,0,2.59174,2061.02,-1130.98,-22863
1.71772e+07,10.1998,1,2.92226,-725.907,636.524,-26859.7
1.71802e+07,16.156,2,2.84467,342.289,-3013.3,-27176.3
1.73325e+07,52.3852,1,3.03084,2010.75,10171,-25231.2
1.74443e+07,49.3668,2,2.56809,1390.85,-2961.89,-18903.8
1.74507e+07,18.7891,0,2.98645,3072.4,-463.263,-26668.3
1.74984e+07,69.5349,2,2.53172,-9349.14,6923.29,-19763.1
1.76553e+07,14.9693,2,2.7423,-753.076,-3167.65,-28652.1
1.77074e+07,10.919,2,2.62237,248.982,2188.11,-28183
1.77709e+07,139.983,1,2.69863,-988.296,-42.8743,-26173.9
1.78213e+07,45.9523,2,2.92246,-2008.17,-1710.54,-19530.5
1.78861e+07,15.8445,2,2.60887,-733.292,-2583.76,-26538.4
1.80942e+07,107.046,2,2.43293,-10212.5,-3039.74,-8799.89
1.81584e+07,27.6043,1,2.94406,-590.836,5261.28,-26539.5
1.83522e+07,51.7443,0,2.98944,2240.79,7927.45,-21741.3
1.83739e+07,56.7058,1,2.73336,-3673.21,8373.77,-21023.3
1.84857e+07,9.30189,0,2.38611,1764.41,958.722,-28463.4
1.86686e+07,61.8472,0,3.055,2261.52,10255.3,-21169.7
1.86947e+07,73.8853,1,2.85853,-2065.1,7364.19,-16693.1
1.87643e+07,25.7573,2,2.45205,-4169.17,1708.34,-26315.2
1.87901e+07,132.842,1,2.64665,19619.5,4048.58,-9231.88
1.88519e+07,112.64,1,3.04098,5701.02,9576.57,-8009.9
1.88777e+07,76.9669,0,2.83865,11703.2,5439.09,-19526.1
1.89222e+07,85.1679,2,2.7839,-9790.83,-12139.3,-19810
1.89296e+07,96.6961,2,2.6026,19026.5,-1991.34,-21729.1
1.90309e+07,50.3598,0,2.46148,5440.1,-296.864,-19517.1
1.90506e+07,6.06417,0,3.0513,353.48,728.554,-27710.9
0,6.04072,0,2.99591,0,0,0
1.91377e+07,247.738,2,2.43948,23751.3,767.165,16183
1.91955e+07,65.9245,0,2.64435,-4374.25,2560.87,-16122.1
1.9415e+07,36.9016,1,2.48012,-1716,4192.54,-22460.4
1.96029e+07,118.705,1,2.87879,12053.8,21886.1,-27685
1.96444e+07,74.1495,2,2.4427,-4692.38,-4533.2,-14598.5
1.9712e+07,62.2234,2,2.39871,4979.51,-5374.31,-17853.4
2.01376e+07,44.8819,2,2.39946,4833.63,-1943.56,-20904.3
2.04475e+07,83.5682,0,2.37494,11423.2,4658.92,-16035.8
2.052e+07,59.1306,0,2.64911,8567.2,1510.26,-19976.5
2.06319e+07,43.2392,0,2.42076,1725.82,-7134.95,-24069.4
2.07782e+07,79.2772,0,2.51324,-10814.6,-3651.88,-26295.8
2.08526e+07,156.208,1,2.42561,-10887.1,9527.97,847.223
2.08891e+07,1.56273,0,2.46263,230.697,135.507,-29128.4
0,1.54906,0,2.66574,0,0,0
0,1.60088,0,2.59906,0,0,0
2.09228e+07,66.7215,2,2.60847,2428.2,5760.38,-16310.3
2.10543e+07,35.0265,2,2.9432,-1987.88,5374.2,-24379.6
0,34.6117,0,2.65894,0,0,0
2.10601e+07,13.1587,1,2.80865,-2068.58,1550.61,-27593.7
2.10779e+07,27.499,0,3.00464,3318.45,-2058.76,-24560.9
2.11044e+07,80.7712,0,2.55938,-7177.11,7035.69,-15044.9
2.12373e+07,274.719,2,2.61133,15174.7,5529.93,-17191
2.12642e+07,31.5643,2,2.64169,-6324.73,-2146.97,-29947.7
2.13967e+07,42.8602,1,2.4886,1890.91,5162.14,-21582.5
2.15602e+07,0.609433,0,2.70409,221.152,138.081,-28880
0,0.617546,0,2.30683,0,0,0
0,0.629247,0,3.84288,0,0,0
0,0.606189,0,3.10919,0,0,0
0,0.597349,0,3.7999,0,0,0
0,0.691082,0,2.75512,0,0,0
0,0.662416,0,2.09729,0,0,0
0,0.609859,0,4.01315,0,0,0
0,0.609799,0,2.10901,0,0,0
0,0.624111,0,2.63456,0,0,0
0,0.643603,0,2.48535,0,0,0
0,0.590185,0,4.11921,0,0,0
0,0.588302,0,3.05552,0,0,0
0,0.669194,0,3.91795,0,0,0
0,0.597935,0,3.39183,0,0,0
0,0.593359,0,2.18345,0,0,0
2.16548e+07,14.0198,1,2.84769,-1238.05,-1178.77,-26418.9
2.1892e+07,9.48599,1,2.83981,-614.39,2050.38,-28682.2
2.2166e+07,25.1999,0,2.50457,3511.27,1449.97,-24997
2.24711e+07,57.1916,1,2.60146,1968.74,5801.82,-27070.9
2.25642e+07,85.4148,0,2.76501,-4750.19,4282.63,-22229
2.2566e+07,36.3261,1,2.91053,-5947.83,-3974.64,-26181.8
2.26407e+07,68.5967,2,3.04545,-13907.8,-2601.41,-26029.1
2.29454e+07,36.6245,0,3.04617,4419.75,489.178,-22468
2.29961e+07,156.466,1,2.68973,-3347.1,25033.6,-9965.28
2.31216e+07,303.459,0,2.69732,-28690.9,-25666.9,22192.7
2.31756e+07,16.6909,1,2.71944,-3147.88,878.534,-27405.1
2.33273e+07,66.0735,2,2.7337,-846.224,-11852.4,-21468.1
2.37353e+07,206.953,2,2.41537,-591.513,19084.7,10516.5
2.38008e+07,128.33,1,2.53416,-5635.77,26524.4,-26365.7
2.40513e+07,15.8137,2,2.50825,-3340.9,-264.277,-29246.9
2.43642e+07,55.9248,2,2.72046,-9350.3,5955.43,-24910.5
2.44116e+07,93.8713,0,2.39019,-1003.01,-17947.4,-20452.4
2.4509e+07,9.17885,0,2.69827,612.843,-1784.12,-28148.9
2.48006e+07,119.444,1,2.56978,5388.07,23900.4,-24087
2.48387e+07,22.0768,2,2.38976,-4257.43,1926,-28294.3
0,22.2454,2,2.90019,0,0,0
2.5051e+07,51.8422,0,2.97818,7435.61,-5063.6,-22595.1
2.50521e+07,119.875,1,2.38741,23546,9163.27,-26462.8
2.54011e+07,25.217,0,2.9945,2947.15,-776.248,-24444.9
2.56462e+07,57.6162,1,2.94457,-11457.4,-3771.78,-27756
2.57528e+07,25.0101,0,2.61952,-1723.95,-1673.18,-24159.4
2.57586e+07,117.651,2,2.76455,12997.5,-20817.7,-26050
2.58087e+07,98.771,0,2.42624,15773,2638.81,-15252.7
2.58626e+07,8.65344,2,2.50898,-1713.59,-637.535,-28269.7
2.59279e+07,9.5444,2,2.76566,580.437,669.139,-27000.3
2.59965e+07,78.3011,0,2.54175,16238.1,2621.38,-27077
2.60372e+07,27.1167,2,2.90355,-4775.82,963.515,-25737.4
2.61359e+07,110.942,0,2.74157,3807,-4055,-10871.7
2.62243e+07,263.565,0,2.61067,16252.7,8305.32,23673
2.63872e+07,47.7806,0,2.89047,4944.42,8766.62,-28091.2
2.64071e+07,87.9285,0,2.38357,-5040.29,17776.5,-26053.9
2.64114e+07,117.393,2,2.44992,-21663.8,4597.03,-17701.7
2.64835e+07,90.7233,2,2.9952,-8828.43,14367.1,-19977.6
2.64838e+07,24.117,0,2.94261,766.386,-5040.21,-28395.2
2.6512e+07,41.7807,2,2.64223,-4014.04,-52.4051,-28336.2
2.65729e+07,116.02,2,2.41294,14383.4,-6532.49,-10211.6
2.65802e+07,48.76,2,2.54082,-2587.87,-10087.4,-28226.4
2.6592e+07,38.5463,0,2.99007,3728.08,-7235.51,-27199.7
2.66146e+07,148.032,2,2.58092,6934.55,-14515.5,-1908.57
2.66814e+07,151.315,2,2.53467,-13461.3,3248.51,-205.883
2.67807e+07,128.168,2,2.58903,-18479.4,-14546.7,-15260.6
2.68044e+07,125.491,0,2.57831,4379.22,12060.3,-5672.24
2.68171e+07,129.297,1,2.53025,-25451.3,-1318.48,-18893.8
2.70079e+07,24.8283,2,2.99078,-197.917,4105.14,-25780.8
2.70402e+07,54.2078,2,2.80601,4202.33,-5868.34,-20031
2.70547e+07,38.0179,0,3.0195,3450.97,7101.97,-27048.2
2.7112e+07,15.7104,2,3.00598,1405.05,-3028.26,-28546.1
2.73183e+07,13.8205,0,2.88889,1539.65,1335.82,-26577.3
2.7324e+07,114.255,2,2.9272,-6413.42,-6515.45,-7092.38
2.74669e+07,65.95,2,2.53267,-7107.13,-9018.07,-20764.8
2.75176e+07,6.75165,0,2.4098,1032.13,-582.266,-29814.8
2.76198e+07,121.542,2,2.89497,-18694.1,17068,-25703.9
2.7622e+07,34.0756,0,2.98407,5752.9,2141.84,-25116.2
2.77094e+07,134.102,0,2.47932,22753.7,15856,-22544.2
2.77853e+07,21.8156,0,2.45571,-1661.98,4016.32,-27309.5
2.8088e+07,11.4335,1,3.03741,-610.82,-1615.85,-27218.5
2.81357e+07,164.891,1,2.73061,-14988.7,-6341.43,-13419
2.81994e+07,31.2397,2,2.66964,4198.02,-3196.4,-24764.3
2.8256e+07,42.6865,2,2.77287,-2914.29,-4257.44,-21535.5
2.82611e+07,220.985,0,2.41599,29070.6,25990.3,-3005.67
2.83009e+07,69.9543,0,2.95955,13850,2503.67,-24949.7
2.8388e+07,19.3879,1,2.88179,-1277.88,1549.65,-25212.6
2.84008e+07,71.6373,1,2.89564,5385.7,12723.1,-23432.1
2.84065e+07,7.58239,0,2.92345,1014.58,-59.1901,-27527.1
2.84865e+07,69.3905,0,2.88122,5026.44,-10955.8,-20477.7
2.85395e+07,108.681,1,3.00194,13594.6,-7772.85,-12430.3
2.86364e+07,62.9687,1,2.92813,-1612.87,9737.95,-20015.7
2.87943e+07,8.63132,2,2.79009,-948.758,-1437.05,-28076.4
2.87989e+07,96.7905,1,2.77596,10165.1,3305.02,-11476
2.88055e+07,87.5701,1,2.84174,11382.3,-724.657,-14411.4
2.88869e+07,9.21214,2,2.50898,284.819,-1508.25,-28998.4
2.89328e+07,61.6337,0,2.50463,-1193.56,-7963.85,-18561.7
2.91509e+07,30.441,2,2.37524,-6148.56,-2304.92,-28791.8
2.92665e+07,24.4441,0,2.68461,5238.03,369.647,-29208.2
2.93353e+07,14.7895,2,2.71647,-1637.99,-2635.88,-27960.8
2.93953e+07,7.963,0,2.40279,-1468.69,-185.228,-28057.6
2.94943e+07,39.8168,2,2.74349,-1140.16,-3343.3,-21124.7
0,39.7533,2,2.49083,0,0,0
2.95174e+07,32.5918,2,2.67112,-6848.29,-1120.53,-28455.4
2.95346e+07,84.8593,0,2.56441,17854.8,-1797.57,-28154.2
2.9879e+07,85.561,2,2.91018,-9970.9,3913.01,-14367.9
2.99143e+07,119.338,2,2.61889,17629.7,-6280.07,-12186.3
