#class tools::wcsv::ntuple
#title time
#separator 44
#vector_separator 59
#column double eventID
#column double t(ns)
#column double copynumber
#column double energy(eV)
165634,86.5058,2,2.57903
587751,51.0588,2,2.50145
1.15289e+06,21.0365,0,3.00413
1.21120e+06,28.4497,0,2.82769
1.79461e+06,12.0739,2,2.51566
1.82982e+06,13.0528,1,2.75424
2.90494e+06,113.277,0,2.44271
3.11807e+06,93.0362,0,2.45772
3.33241e+06,8.9226,0,2.45977
3.48332e+06,174.231,2,2.65296
3.50326e+06,136.507,2,2.67084
3.5105e+06,25.2645,2,2.94346
3.64569e+06,76.5143,0,2.62541
3.89355e+06,40.8597,1,3.05586
4.25399e+06,109.698,2,2.47291
4.29056e+06,21.0953,2,2.81125
4.71434e+06,163.237,0,2.62052
4.86921e+06,67.3561,2,2.43312
4.8711e+06,58.6137,2,2.99866
5.23193e+06,8.90385,0,2.44421
5.88508e+06,45.4145,0,2.94391
5.91323e+06,10.9973,0,2.78308
5.98568e+06,2.42242,1,2.52483
6.08858e+06,92.18,1,2.94657
6.18776e+06,98.605,0,2.54155
6.21372e+06,51.2957,2,2.88592
6.34048e+06,85.568,2,2.4153
6.49975e+06,14.1852,2,2.84686
6.5598e+06,108.009,2,2.95858
6.71367e+06,128.139,0,2.45659
7.60293e+06,9.34494,2,2.81332
7.98515e+06,101.902,0,2.62799
8.02993e+06,38.8099,0,2.41958
8.30883e+06,8.10193,1,2.9125
0,8.17326,0,2.98216
8.46003e+06,151.634,2,2.66062
8.59164e+06,23.548,2,2.73516
8.8264e+06,24.9447,2,2.42495
9.14272e+06,116.636,2,2.74809
9.54061e+06,26.5758,0,2.66795
9.54445e+06,18.8125,2,3.00244
9.95217e+06,38.7977,1,2.95051
1.10834e+07,40.2285,2,2.50954
1.11299e+07,2.14899,1,2.88472
1.11987e+07,117.084,1,2.69409
1.12722e+07,260.587,0,2.7942
1.14479e+07,33.7866,0,2.83269
1.14777e+07,164.34,1,2.75478
1.23662e+07,173.705,1,2.67854
1.26756e+07,180.961,0,2.59156
1.27708e+07,48.3527,0,2.44753
1.30085e+07,17.5791,1,2.72043
1.31209e+07,101.926,2,2.36742
1.32611e+07,137.95,0,2.59014
1.3342e+07,187.181,2,2.75947
1.33626e+07,9.49258,2,2.94083
1.36354e+07,18.7859,0,2.49301
1.37162e+07,80.4871,1,2.60599
1.40606e+07,187.041,2,2.75767
1.40624e+07,13.2594,1,2.88847
1.42928e+07,62.7472,2,2.62375
1.44692e+07,17.4957,0,2.76681
1.47285e+07,45.2513,0,2.50794
1.49949e+07,32.0095,2,2.96694
1.52711e+07,72.7978,0,2.95525
1.53732e+07,155.512,2,2.84138
1.53806e+07,94.7206,0,2.45662
1.55222e+07,43.4468,1,2.71381
1.56494e+07,16.3804,0,2.68046
1.58737e+07,183.388,1,2.83929
1.5939e+07,11.788,1,2.6247
1.60687e+07,137.768,0,3.0253
1.63677e+07,112.195,2,2.72109
1.63923e+07,12.0335,0,2.75955
1.66821e+07,34.0556,0,2.63651
1.66904e+07,147.017,2,2.55094
1.68474e+07,64.0059,0,2.47704
1.74897e+07,29.3281,0,2.44343
1.76442e+07,81.4888,1,2.87627
1.78712e+07,72.079,1,2.69446
1.88051e+07,124.485,1,2.69442
1.88183e+07,74.1673,2,2.80198
1.88431e+07,6.55958,2,2.50027
1.97177e+07,139.794,0,2.92481
1.98342e+07,147.199,1,2.73628
2.03601e+07,18.1028,0,2.7401
2.03639e+07,35.4006,1,3.03384
2.04387e+07,77.6477,0,2.76419
2.05479e+07,1.86128,2,2.70512
0,1.88513,2,2.40866
2.05924e+07,0.657457,0,4.10523
2.0651e+07,69.3407,1,2.74708
2.08546e+07,83.0717,1,2.60223
2.09609e+07,249.713,0,2.89793
2.14216e+07,180.099,0,2.49179
2.20304e+07,201.66,1,2.87836
2.21872e+07,22.1854,0,2.88806
2.23506e+07,31.0571,1,2.88675
2.26038e+07,56.8575,0,2.49337
2.27894e+07,172.594,0,2.36289
2.30335e+07,156.498,0,2.94423
2.314e+07,8.94108,0,2.76306
2.32137e+07,39.5114,1,2.65528
2.3652e+07,121.321,2,2.67109
2.36759e+07,4.25424,1,2.65717
2.36761e+07,45.3319,1,2.76906
2.37109e+07,71.8104,1,2.51851
2.38533e+07,51.2177,0,2.57071
2.39091e+07,70.625,1,2.3969
2.39334e+07,262.955,0,3.02242
2.40489e+07,98.6505,0,2.48873
2.42593e+07,107.065,2,2.71148
2.43115e+07,30.3447,0,2.38417
2.43379e+07,19.993,2,2.67651
2.43794e+07,67.449,1,2.90003
2.47034e+07,42.7023,1,2.97852
2.4709e+07,24.6505,2,2.38677
2.48985e+07,28.3697,1,3.02265
2.49208e+07,9.98703,0,2.51119
2.49239e+07,60.5237,2,2.87026
2.62573e+07,65.0975,2,2.87748
2.67115e+07,43.5155,1,2.90816
2.6837e+07,29.6217,1,2.6077
2.68957e+07,39.5732,2,2.61334
2.70314e+07,160.728,1,2.95344
2.71785e+07,77.4612,2,3.01219
2.7456e+07,103.271,1,2.53948
2.75468e+07,126.406,1,2.66946
2.77144e+07,30.0792,1,2.52134
2.77802e+07,24.5779,2,2.54105
2.78811e+07,15.033,1,2.50506
2.81003e+07,6.20606,1,2.72986
2.81489e+07,86.7259,1,2.4782
2.81702e+07,33.4987,2,2.8896
2.86594e+07,33.0873,0,2.43862
2.87697e+07,1.40505,2,2.78243
0,1.38474,2,2.5142
2.91859e+07,69.4314,0,2.78017
2.92724e+07,89.0021,1,2.74324
2.96674e+07,134.227,1,2.53296
3.04231e+07,47.2808,1,2.6515
3.08546e+07,55.7057,2,2.48122
3.08746e+07,68.2164,1,2.3976
3.10744e+07,16.1666,0,2.4969
3.17362e+07,40.4746,0,2.75417
3.18613e+07,64.4518,1,3.01091
3.19729e+07,33.8641,2,2.7003
3.2248e+07,173.745,1,2.96898
3.26598e+07,158.919,1,2.38957
3.2936e+07,55.7264,0,2.43967
3.29374e+07,130.426,2,2.81528
3.29557e+07,230.286,2,2.87543
3.30454e+07,54.5755,2,2.72587
3.32564e+07,160.113,2,2.91321
3.32916e+07,56.9763,2,2.57412
3.33318e+07,112.477,2,2.73585
3.38396e+07,106.909,2,2.61909
3.38772e+07,46.382,1,2.38727
3.38799e+07,188.704,2,2.54513
3.39715e+07,93.6195,2,2.65118
3.40118e+07,74.04,1,2.75703
3.41811e+07,3.62368,0,2.93729
3.46595e+07,9.76109,2,3.04306
3.4749e+07,95.724,2,2.8839
3.47555e+07,106.284,1,2.49764
3.48876e+07,85.4105,2,2.96672
3.51647e+07,40.0817,0,2.90591
3.54674e+07,55.8443,2,2.74061
3.55522e+07,38.0197,0,2.46796
3.56398e+07,32.5586,0,2.52554
3.56918e+07,168.492,2,2.87024
3.57312e+07,30.4812,0,2.71063
3.57605e+07,140.808,2,2.47221
3.57777e+07,127.859,1,2.42938
3.61275e+07,45.1878,2,2.65002
3.62639e+07,20.113,0,2.53754
3.6414e+07,154.172,2,2.84595
3.64717e+07,99.2222,1,2.90068
3.75668e+07,68.1618,2,2.70307
3.78176e+07,37.1789,0,2.82569
3.8398e+07,43.4126,2,2.94154
3.85794e+07,169.524,1,2.53889
3.87152e+07,56.6679,1,2.58204
3.87836e+07,43.1142,0,3.03886
3.88973e+07,226.831,0,2.38945
3.94817e+07,44.1193,1,2.84481
3.95851e+07,43.87,0,3.032
3.96556e+07,12.4188,2,2.76563
3.99604e+07,92.6896,2,2.72764
4.06766e+07,12.6909,2,2.96313
4.07399e+07,99.6104,2,2.90963
4.17574e+07,16.96,1,2.95123
4.20253e+07,22.3792,1,2.92116
4.20347e+07,85.4775,2,2.66927
4.23018e+07,91.5183,1,2.72819
4.35437e+07,16.5964,0,2.67738
4.38696e+07,162.626,0,2.4796
4.39109e+07,24.3741,2,2.59009
4.39561e+07,82.4747,2,2.82102
4.40543e+07,40.3019,2,2.67907
4.40869e+07,34.5135,0,3.02653
4.40985e+07,52.038,1,3.03754
4.43304e+07,18.5973,0,2.43683
4.43513e+07,141.036,0,2.81164
4.4476e+07,60.0271,2,2.6627
4.44842e+07,83.1895,1,2.75287
4.47696e+07,26.6767,0,2.92226
4.48054e+07,229.857,1,2.37534
4.5751e+07,51.6113,0,2.54893
4.58014e+07,14.1306,2,3.0556
4.59708e+07,14.7168,1,2.39586
4.60231e+07,71.6441,2,2.93482
4.6105e+07,188.54,2,2.78873
4.64265e+07,42.2694,1,2.95425
4.6427e+07,24.4779,2,3.06006
4.65885e+07,94.8702,2,2.59659
4.68238e+07,47.1652,2,2.78786
4.69863e+07,342.679,2,2.73709
4.70589e+07,80.0709,1,2.75981
4.71404e+07,33.8083,2,2.79989
4.7168e+07,92.5048,2,2.4378
4.73053e+07,130.281,1,2.41066
4.74587e+07,35.0141,2,2.91805
4.74623e+07,158.176,0,2.6877
4.78393e+07,117.37,1,2.75502
4.80523e+07,14.0743,1,2.45321
4.81719e+07,28.3652,2,2.75167
4.83597e+07,92.9608,0,2.66873
4.84522e+07,189.346,2,2.76049
4.86448e+07,22.8606,1,2.64591
4.89951e+07,192.4,0,2.70361
4.90943e+07,138.412,2,2.48424
4.9219e+07,43.9803,1,2.94352
4.98607e+07,217.007,2,3.05721
4.99405e+07,25.8886,1,2.86609
5.00027e+07,30.6372,1,2.92872
5.01185e+07,74.356,2,2.83907
5.04372e+07,98.7587,1,2.52131
5.05171e+07,21.3512,1,2.64865
5.09086e+07,28.9176,0,2.37171
5.10825e+07,112.726,2,2.58747
5.11061e+07,23.8606,2,2.92128
5.18121e+07,15.8877,2,2.69677
5.18423e+07,99.5071,2,3.05873
5.24202e+07,49.2825,1,2.41201
5.24919e+07,344.724,2,2.63804
5.26105e+07,5.25126,0,3.02418
0,5.21137,0,2.84089
5.30116e+07,282.179,0,2.88067
5.30539e+07,80.8886,2,2.85636
5.31911e+07,73.3035,0,2.91783
5.38594e+07,96.5706,0,2.80907
5.38662e+07,144.625,0,2.99773
5.39103e+07,170.107,1,2.7866
5.40211e+07,40.1085,1,2.49367
5.40391e+07,104.741,2,2.64342
5.41006e+07,169.686,1,2.65978
5.4224e+07,52.0766,2,2.86392
5.46523e+07,202.074,2,3.04911
5.46622e+07,87.0397,1,2.48162
5.48029e+07,35.7957,1,2.69316
5.49622e+07,10.3501,2,2.96579
5.52672e+07,45.4903,1,2.76733
5.56199e+07,289.341,1,2.71157
5.56735e+07,48.8292,2,2.79576
5.61066e+07,207.702,1,2.99414
5.62575e+07,96.0953,0,2.42976
5.64793e+07,52.1847,0,2.92604
5.65638e+07,31.9907,1,2.46819
5.68738e+07,76.9813,1,2.40912
5.71369e+07,106.326,1,2.37955
5.72647e+07,27.2913,1,2.94569
5.76546e+07,62.8273,1,2.64253
5.76822e+07,19.407,2,2.78248
5.7905e+07,9.53122,1,2.96257
5.79843e+07,4.30993,1,2.44935
5.82947e+07,10.5397,1,2.48967
5.83737e+07,112.115,2,2.87015
5.88754e+07,55.8854,1,3.03043
5.90169e+07,121.864,1,2.57293
5.9266e+07,15.328,2,2.93692
5.94784e+07,185.949,2,2.61498
5.94947e+07,57.7456,1,2.69103
5.9981e+07,16.5221,1,2.68371
6.00469e+07,9.8684,0,2.3698
6.03855e+07,184.448,2,2.72163
6.05246e+07,229.269,1,2.50811
6.05309e+07,10.1468,0,2.97416
6.05427e+07,38.9164,2,2.38501
6.06132e+07,16.2877,0,2.59047
6.06558e+07,167.617,0,2.66037
6.14413e+07,89.6967,2,2.82689
6.14548e+07,114.215,0,2.3836
6.14836e+07,133.11,1,2.66884
6.17006e+07,56.3998,2,2.4496
6.18608e+07,130.96,1,2.49665
6.19341e+07,32.2008,1,2.8287
6.1961e+07,80.4916,1,2.86393
6.21517e+07,14.7238,2,2.77439
6.23741e+07,71.6338,0,3.05675
6.24288e+07,6.89777,2,3.00451
6.24556e+07,66.1871,0,2.63001
6.26225e+07,207.123,2,2.7773
6.27538e+07,81.5414,1,2.57928
6.27864e+07,42.994,1,2.7287
6.28643e+07,33.163,0,2.77394
6.31208e+07,2.63819,0,2.60833
0,2.64928,1,2.8765
6.34439e+07,261.174,1,2.83971
6.3568e+07,164.674,0,2.7954
6.38397e+07,48.0029,2,2.90803
6.39082e+07,9.78359,1,2.66463
6.43523e+07,26.4142,1,2.73467
6.46614e+07,97.9414,0,2.52106
6.47193e+07,151.968,0,2.68407
6.51947e+07,26.1611,0,2.79269
6.52587e+07,163.621,1,2.90344
6.54492e+07,63.125,1,3.04737
6.55509e+07,166.99,2,2.63272
6.574e+07,83.2829,0,3.02571
6.5807e+07,20.6746,1,2.53723
0,20.7714,1,2.60516
6.60392e+07,9.25628,0,2.57948
6.60569e+07,14.0067,0,2.63503
6.65496e+07,180.434,2,2.6141
6.71348e+07,162.181,1,2.55503
6.72151e+07,49.2588,0,2.4674
6.72743e+07,26.4771,2,3.00752
6.72881e+07,12.2241,1,2.52168
6.73601e+07,68.5113,0,2.51444
6.74974e+07,21.6003,1,2.6041
6.7562e+07,74.0507,2,2.80641
6.78939e+07,101.581,1,2.91326
6.80371e+07,41.1485,2,3.01076
6.81764e+07,149.905,2,2.37407
6.84759e+07,13.2547,0,2.96916
6.86825e+07,69.5429,1,2.50697
6.91598e+07,138.945,0,2.42845
6.93308e+07,67.5091,1,3.05668
6.93787e+07,44.9349,2,2.95224
6.95169e+07,67.8869,1,2.85471
6.96374e+07,153.635,2,2.96597
7.0174e+07,11.2997,0,2.47185
7.04022e+07,46.3856,0,2.72159
7.08094e+07,16.278,1,2.88062
7.08142e+07,6.06018,2,2.85609
7.15679e+07,143.353,2,2.59515
7.16239e+07,147.388,2,2.87795
7.18485e+07,8.01836,0,2.77473
7.20175e+07,249.578,1,2.90067
7.23128e+07,73.6269,2,2.74698
7.28891e+07,163.257,0,2.45903
7.32476e+07,131.96,0,2.73053
7.32514e+07,61.1419,0,2.81895
7.33733e+07,165.483,0,2.9977
7.34493e+07,55.7128,1,2.82976
7.35143e+07,162.517,1,2.82632
7.35924e+07,101.722,0,2.8246
7.36401e+07,100.313,2,2.81872
7.36539e+07,10.4908,2,2.44292
7.38614e+07,89.6894,2,2.90289
7.38622e+07,19.5179,0,2.37882
7.43113e+07,42.6003,1,2.83317
7.44899e+07,22.9322,1,2.47981
7.45795e+07,85.7644,1,2.73842
7.46221e+07,59.2527,2,2.73542
7.49466e+07,115.332,2,2.419
7.5189e+07,174.05,2,2.7962
7.52826e+07,3.34157,2,2.49918
7.53124e+07,15.8325,0,2.79838
7.54641e+07,131.285,2,2.84564
7.56827e+07,98.7449,2,2.70087
7.58493e+07,107.5,2,2.39402
7.59123e+07,151.161,2,2.76238
7.59536e+07,168.317,1,2.75757
7.61017e+07,42.3649,1,2.38256
7.62421e+07,23.1749,2,2.82169
7.62489e+07,47.9273,0,2.59018
7.6517e+07,129.195,0,2.74458
7.6674e+07,102.982,2,2.8193
7.67923e+07,52.2325,1,2.78594
7.68193e+07,41.3031,0,2.92128
7.69657e+07,92.9946,2,2.72371
7.69789e+07,69.7869,2,3.00336
7.70458e+07,40.9671,0,2.39528
7.70871e+07,63.7764,1,2.75013
7.71853e+07,19.1684,0,3.04027
7.79799e+07,9.97285,0,2.62181
7.81011e+07,26.3121,1,2.69798
7.85621e+07,129.689,1,2.41797
7.85892e+07,22.0319,1,2.96925
7.85991e+07,24.0168,1,2.85838
7.88875e+07,35.3968,2,2.76909
7.90369e+07,29.172,0,2.9459
7.91789e+07,96.9776,1,2.47259
7.97844e+07,1.28878,2,2.91027
7.98081e+07,2.90263,0,2.48139
7.99254e+07,53.3577,2,3.03219
8.00994e+07,156.5,0,2.38072
8.03637e+07,40.7879,2,2.60049
8.10273e+07,154.174,1,2.60085
8.10393e+07,121.366,1,2.6915
8.11984e+07,12.7159,0,2.40027
8.20655e+07,15.4128,1,2.81579
8.26345e+07,185.28,0,2.77886
8.27382e+07,127.958,2,2.63798
8.30264e+07,41.5944,2,2.54023
8.3182e+07,17.505,1,2.57338
8.33005e+07,107.878,0,2.48251
8.34688e+07,76.7439,2,2.85378
8.35182e+07,186.38,0,2.91663
8.35681e+07,106.361,1,2.91161
8.42782e+07,75.6401,1,2.56824
8.46245e+07,39.097,1,3.0289
8.49654e+07,89.6815,0,2.69916
8.54495e+07,26.7391,0,2.58324
8.5596e+07,155.715,1,2.59446
8.60767e+07,160.13,2,2.49715
8.61001e+07,30.1987,1,2.41966
8.66196e+07,129.324,1,2.51448
8.66365e+07,5.87175,2,2.83253
8.672e+07,84.8966,0,2.8122
8.67633e+07,41.8414,2,2.54651
8.70304e+07,55.1723,1,3.04151
8.70574e+07,15.4152,1,2.62338
0,15.8463,2,2.7754
8.70727e+07,25.0341,1,2.78771
8.70879e+07,29.8494,1,2.73721
8.71283e+07,109.056,1,2.82209
8.72756e+07,154.191,2,2.43022
8.74639e+07,114.919,1,2.77201
8.7517e+07,5.90436,2,2.81977
8.76817e+07,14.2356,2,2.83635
8.78277e+07,25.7272,0,2.73313
8.78792e+07,23.1048,0,2.77316
8.8098e+07,14.4072,0,2.72128
8.8176e+07,49.3517,0,2.66672
8.82422e+07,62.9243,1,2.47645
8.8405e+07,28.9065,2,2.70298
8.84254e+07,66.9176,2,2.97651
8.8445e+07,211.801,1,2.86199
8.85592e+07,16.4096,2,2.94949
8.85635e+07,361.018,2,2.71814
8.86205e+07,34.9816,0,2.86382
8.87981e+07,115.178,1,2.83284
8.89318e+07,18.1241,0,2.82625
8.89747e+07,36.8073,2,2.91018
8.91056e+07,108.008,2,2.41856
8.92781e+07,24.4156,2,2.99174
8.93358e+07,95.5357,1,2.43246
8.9369e+07,25.0311,0,2.44383
8.93741e+07,102.119,1,2.70191
8.9389e+07,146.316,2,2.66338
8.94966e+07,23.7853,1,2.65008
8.95814e+07,188.499,2,2.75379
8.97588e+07,114.366,2,2.48667
9.00236e+07,103.871,2,2.66953
9.01462e+07,11.5705,0,2.48453
9.01581e+07,94.3821,0,2.91951
9.05625e+07,136.71,0,2.75185
9.06051e+07,76.0015,1,2.77024
9.08088e+07,37.6922,2,2.66107
9.11542e+07,12.3672,0,2.41757
9.12185e+07,80.3185,1,3.00591
9.14528e+07,11.784,0,2.47656
9.16932e+07,3.28981,1,3.0344
9.17515e+07,154.574,0,2.74636
9.21962e+07,12.0539,2,2.82323
9.22225e+07,135.946,0,2.92808
9.25154e+07,24.2672,2,2.83382
9.2591e+07,28.4002,0,3.00908
9.26364e+07,109.431,0,2.80018
9.26821e+07,101.235,1,2.9753
9.33061e+07,50.4616,1,2.96142
9.35728e+07,18.4279,1,2.58176
9.36963e+07,44.2139,0,2.38704
9.37219e+07,63.1856,2,2.49626
9.37849e+07,99.7201,2,2.81715
9.41303e+07,62.4261,1,2.38312
9.4289e+07,23.0767,1,2.54038
9.43146e+07,184.025,0,2.63103
9.43575e+07,22.0983,2,2.40222
9.44283e+07,136.277,1,2.62996
9.51514e+07,93.9067,2,2.76007
9.53663e+07,106.521,2,2.6585
9.54103e+07,109.656,0,2.83546
9.54746e+07,114.574,0,2.9114
9.55011e+07,24.8623,0,2.73301
9.58186e+07,220.022,0,2.75186
9.65332e+07,19.2279,0,2.68289
9.66214e+07,24.5578,2,2.75172
9.67592e+07,41.2711,1,2.91628
9.68881e+07,31.6857,0,2.71453
9.69429e+07,23.2181,0,2.89623
9.70377e+07,7.31595,2,2.99755
9.70598e+07,94.5442,0,2.46591
9.74129e+07,113.605,0,2.61301
9.75548e+07,90.6814,1,2.42946
9.7683e+07,139.168,0,2.70915
9.78921e+07,167.774,1,2.72492
9.7926e+07,60.2284,0,2.77949
9.87952e+07,163.726,2,2.54469
9.91721e+07,168.21,1,3.00868
9.92476e+07,54.9771,2,2.65011
9.96764e+07,73.7641,1,2.76815
9.96858e+07,92.2046,1,2.64033
1.00001e+08,32.0462,1,2.42066
1.00111e+08,110.462,0,2.36599
1.00303e+08,173.64,2,2.87618
1.00394e+08,32.1765,0,2.55962
1.00798e+08,151.932,1,3.02364
1.01116e+08,133.099,2,2.66772
1.01254e+08,18.8488,2,2.76892
1.01434e+08,39.8386,2,2.69487
1.01649e+08,54.0333,0,3.00428
1.02712e+08,93.4061,2,3.04591
1.02762e+08,142.473,0,3.01009
1.02836e+08,88.9604,1,2.58673
1.03405e+08,91.5118,2,2.86152
1.03408e+08,120.07,1,2.39822
1.03624e+08,36.3966,2,2.93396
1.03648e+08,113.182,0,3.06109
1.03922e+08,104.493,0,2.97416
1.03957e+08,33.0148,0,2.9973
1.04074e+08,121.782,0,2.93819
1.04088e+08,0.039081,2,3.90716
0,0.0563182,2,2.74721
0,0.0522605,2,2.84466
0,0.036016,2,3.43312
0,0.0365561,2,3.78396
0,0.0363218,2,3.48923
0,0.0543982,2,3.76751
0,0.0380932,2,3.85762
0,0.035646,2,2.31489
0,0.0347057,2,2.70287
0,0.0375067,2,3.56708
0,0.0364911,2,3.45371
0,0.102188,2,2.21462
0,0.0374401,2,2.9477
0,0.0350991,2,3.62761
0,0.0760928,2,2.34157
0,0.0361811,2,4.12653
0,0.0367328,2,2.21736
0,0.0377241,2,2.37601
0,0.0368629,2,2.10235
0,0.0359499,2,3.94252
0,0.0460065,2,3.136
0,0.0438551,2,2.33058
0,0.0376545,2,3.11663
0,0.0464578,2,2.10723
0,0.0360042,2,3.14724
0,0.0389006,2,2.83337
0,0.0745928,2,3.18851
0,0.0371511,2,3.30582
0,0.0478875,2,3.73832
0,0.104821,2,3.2753
0,0.0486544,2,3.25931
1.0433e+08,175.673,0,2.70295
1.04386e+08,106.876,2,2.59766
1.04398e+08,62.9311,0,3.02082
1.04559e+08,14.3776,2,2.69696
1.0459e+08,23.1562,1,2.39292
1.04884e+08,28.5681,2,2.43861
1.0492e+08,61.1745,2,2.55863
1.05534e+08,4.92778,0,2.95852
1.05752e+08,48.1011,2,2.66045
1.05848e+08,40.4351,1,2.64007
1.06164e+08,194.592,1,2.84703
1.06287e+08,102.038,2,2.67646
1.07022e+08,157,2,2.64533
1.0747e+08,148.122,2,2.40446
1.07942e+08,14.7037,1,2.95266
1.07975e+08,16.4452,0,2.75159
1.0822e+08,85.61,1,2.6403
1.08289e+08,29.4041,2,2.93634
1.08852e+08,137.163,1,2.46497
1.09146e+08,20.557,0,2.97998
1.0938e+08,110.799,2,2.72313
1.09914e+08,40.832,0,3.02039
1.10139e+08,5.38217,1,2.96148
1.10259e+08,85.3949,0,2.37251
1.10261e+08,2.30297,2,2.8907
1.10311e+08,184.042,1,2.59554
1.1037e+08,39.3794,1,2.55522
1.10661e+08,56.0878,2,2.72568
1.10864e+08,6.10516,0,2.4292
1.1089e+08,161.268,0,2.79094
1.11053e+08,13.0092,1,2.63652
1.11168e+08,23.1073,0,2.45581
1.11209e+08,6.82206,0,2.98136
1.11532e+08,11.1295,2,2.70656
1.11687e+08,18.0303,1,2.77451
1.11782e+08,22.5201,0,2.68873
1.11845e+08,27.7344,2,2.48498
1.11887e+08,7.85479,0,2.46781
1.12197e+08,63.5481,0,2.98578
1.12211e+08,30.4147,2,2.78218
1.12404e+08,55.4278,2,2.61228
1.12454e+08,252.444,1,2.82
1.12628e+08,70.8552,2,3.04838
1.13376e+08,17.3766,2,3.02132
1.13458e+08,40.9724,0,2.81753
1.1371e+08,21.6341,0,2.72013
1.13762e+08,72.1315,0,2.44373
1.13774e+08,17.6713,1,2.41558
1.13782e+08,62.2083,0,2.40895
1.13987e+08,176.404,2,2.7816
1.14093e+08,1.49595,1,2.78547
0,1.52395,1,2.89254
1.14293e+08,349.969,2,2.63376
1.14413e+08,21.4747,2,2.40906
1.14439e+08,1.46163,2,2.58429
1.1507e+08,108.728,0,2.83667
1.15116e+08,19.1728,1,2.96154
1.15797e+08,106.965,1,3.01971
1.16411e+08,24.719,0,2.74541
1.16455e+08,126.547,2,2.74335
1.16521e+08,105.907,2,2.8217
1.16796e+08,35.2296,0,2.40635
1.16864e+08,3.37756,2,2.3855
0,2.79511,0,2.78189
1.16911e+08,29.0878,0,2.46627
1.17017e+08,182.093,1,2.70455
1.17233e+08,155.522,2,2.81297
1.17735e+08,58.8593,2,2.74845
1.17844e+08,87.9694,0,2.39446
1.17915e+08,95.7546,1,2.68954
1.18122e+08,25.0716,1,2.97077
1.182e+08,177.23,1,2.62071
1.18212e+08,61.7382,1,3.04238
1.18217e+08,42.8319,1,2.89938
1.18526e+08,180.678,1,3.00272
1.18992e+08,67.3033,2,2.81189
1.19145e+08,43.1061,0,2.82776
1.19232e+08,17.2414,1,2.65846
1.20015e+08,340.903,2,2.55524
1.20176e+08,102.549,1,2.63149
1.20267e+08,41.8108,0,2.81623
1.20455e+08,113.81,1,2.88937
1.20664e+08,113.985,0,2.80068
1.20999e+08,146.46,1,2.83867
1.21064e+08,6.34807,2,2.39225
1.21441e+08,48.3741,1,2.47758
1.21615e+08,73.1417,1,2.49318
1.21799e+08,82.7937,1,2.94798
1.21816e+08,49.5721,2,2.48223
1.22024e+08,23.761,1,2.82442
1.22192e+08,191.436,0,2.79765
1.22362e+08,58.1137,0,2.79022
1.22728e+08,30.2003,1,2.66353
1.22913e+08,154.703,1,2.77902
1.23199e+08,2.84082,1,2.56767
0,3.39256,2,2.85153
1.23688e+08,41.0496,1,2.67783
1.23781e+08,132.626,0,2.54014
1.23922e+08,24.3477,2,2.5488
1.24157e+08,189.485,1,2.68129
1.2435e+08,137.943,1,2.48859
1.24435e+08,82.8978,1,2.59559
1.24695e+08,63.2777,2,2.50873
1.24811e+08,11.8228,2,2.81082
1.24887e+08,9.63882,2,2.60149
1.24952e+08,103.5,1,2.62644
1.25054e+08,13.3893,2,2.50023
1.2539e+08,8.75519,1,2.38917
1.26044e+08,150.46,2,2.52069
1.26078e+08,66.2078,2,2.90548
1.26212e+08,111.529,2,2.42086
1.26452e+08,103.255,1,2.44881
1.26808e+08,30.9696,2,2.90369
1.27102e+08,46.6498,0,2.70848
1.27219e+08,111.411,2,2.80443
1.27406e+08,41.1624,0,2.87745
1.2741e+08,4.16622,1,2.81322
1.27427e+08,45.4242,1,2.78898
1.27464e+08,28.9581,0,2.93379
1.27548e+08,0.396875,0,2.77677
0,0.360581,0,2.71704
0,0.372466,0,2.51739
0,1.01088,1,2.75064
0,0.358706,0,3.01234
0,0.396893,0,2.68782
0,0.367756,0,2.73119
0,0.355262,0,2.59216
1.28093e+08,56.9671,1,2.48921
1.28257e+08,116.237,2,2.46977
1.28579e+08,72.6814,1,2.84122
1.28895e+08,52.8506,2,2.49427
1.2938e+08,61.7821,2,2.99187
1.29529e+08,39.6781,2,3.01564
1.29685e+08,70.6784,2,3.02369
1.29775e+08,64.7047,2,2.4564
1.29786e+08,42.0401,0,2.92073
1.29937e+08,61.2273,0,2.48391
1.29952e+08,41.5867,1,2.49287
1.3013e+08,80.9608,2,2.51338
1.30621e+08,195.16,2,2.41123
1.30803e+08,40.4203,1,2.57894
1.31274e+08,108.614,2,2.99533
1.31732e+08,8.00188,0,3.00633
1.31944e+08,81.9275,1,2.88709
1.32079e+08,103.544,0,2.90193
1.32124e+08,47.5707,0,2.71896
1.32209e+08,166.912,0,2.93069
1.3226e+08,185.22,2,2.41823
1.32333e+08,120.059,0,2.76572
1.32535e+08,5.5152,2,2.99864
1.32824e+08,67.67,0,2.38114
1.32971e+08,179.496,2,3.02256
1.33113e+08,6.09075,0,2.50276
0,6.04889,0,2.69935
1.33494e+08,307.628,1,2.46982
1.3355e+08,28.0445,1,2.4651
1.33715e+08,137.691,2,2.41869
1.33796e+08,46.4052,0,2.96999
1.34053e+08,111.664,0,2.78602
1.34099e+08,130.873,1,2.95949
1.34537e+08,49.5529,1,2.61862
1.34616e+08,148.045,1,2.8513
1.34715e+08,75.0496,0,2.5061
1.34877e+08,162.647,1,2.70905
1.35266e+08,110.956,0,2.76328
1.35727e+08,18.5326,2,2.60451
1.35886e+08,75.3882,2,2.77795
1.36035e+08,71.5113,1,2.87291
1.36282e+08,23.2874,1,2.64114
1.36341e+08,120.512,0,2.57808
1.36465e+08,20.2753,2,2.78835
1.36474e+08,17.5347,2,2.3843
1.36529e+08,3.84435,1,3.03919
1.36784e+08,72.0402,0,2.80653
1.37224e+08,47.2399,0,2.48683
1.37411e+08,95.5215,0,2.93686
1.39102e+08,226.975,1,2.90563
1.39372e+08,13.3978,1,2.61169
1.39434e+08,114.67,2,3.00235
1.39631e+08,141.67,2,2.57572
1.3969e+08,38.4639,2,2.62935
1.40369e+08,11.9743,0,2.63027
1.40408e+08,6.62158,2,2.44732
1.40425e+08,30.9339,0,2.77055
1.40732e+08,34.2155,2,2.90433
1.41042e+08,165.16,2,2.60943
1.41102e+08,25.3243,2,2.85477
1.41138e+08,169.109,2,2.95319
1.41228e+08,19.8952,1,2.79808
1.41245e+08,278.735,1,3.02628
1.41432e+08,29.7549,2,2.47967
1.41499e+08,147.379,1,2.99187
1.41723e+08,177.202,2,2.66884
1.41726e+08,14.1134,2,2.50303
1.41835e+08,7.519,2,2.779
1.41843e+08,68.0145,2,2.63258
1.41998e+08,62.8047,0,2.52922
1.42083e+08,8.08173,0,2.67345
1.42149e+08,154.618,1,2.91563
1.42376e+08,6.70396,0,2.93536
1.4259e+08,28.797,2,2.91039
1.42815e+08,39.9433,1,2.79117
1.42938e+08,210.144,2,2.9201
1.43045e+08,22.0717,0,2.78665
1.43137e+08,157.726,2,2.88658
1.43448e+08,97.594,2,2.77624
1.43609e+08,53.1349,0,2.64087
1.4372e+08,123.932,2,2.86432
1.43984e+08,125.419,2,2.56255
1.44266e+08,108.39,1,2.63639
1.44481e+08,35.281,0,2.62923
1.44577e+08,41.1999,1,2.53598
1.44647e+08,43.3654,2,2.36719
1.44806e+08,109.648,1,2.41655
1.44949e+08,109.383,1,2.53549
1.45646e+08,165.401,2,2.80682
1.45748e+08,15.4948,0,2.44531
1.46096e+08,19.8663,1,2.88763
1.462e+08,96.8403,1,2.66084
1.46321e+08,153.354,2,2.80266
1.46476e+08,36.0678,2,2.56649
1.46539e+08,29.4128,1,2.76157
1.46846e+08,71.6765,0,2.71103
1.47899e+08,38.7918,1,2.44193
1.48208e+08,81.8146,1,2.51992
1.49144e+08,26.6271,0,2.49566
1.49673e+08,36.7156,2,2.99124
1.50202e+08,94.1561,0,2.49314
1.50316e+08,89.3758,2,2.8574
1.50406e+08,38.545,0,2.42702
1.5092e+08,27.8363,0,3.01957
1.51357e+08,104.338,0,2.52528
1.51478e+08,184.418,0,2.94485
1.51501e+08,35.3847,2,2.76626
1.51795e+08,3.63862,2,2.44261
0,3.7254,2,2.91815
1.5212e+08,389.252,0,2.57638
1.52344e+08,16.0904,2,2.55735
1.52692e+08,113.731,0,2.62295
1.52743e+08,15.5146,0,2.75916
1.52964e+08,3.16061,0,2.49403
0,3.16475,0,2.45811
1.53023e+08,67.3855,2,2.59435
1.53026e+08,72.6069,0,2.67234
1.53138e+08,101.635,2,2.67976
1.53488e+08,162.586,0,2.47789
1.53604e+08,1.75485,1,2.50705
1.53751e+08,22.7304,0,2.40072
1.53914e+08,90.7218,2,2.67451
1.54082e+08,177.873,1,3.00093
1.54411e+08,11.3681,1,2.39633
1.54579e+08,64.5454,2,2.64991
1.55149e+08,72.3548,1,2.84944
1.55213e+08,47.8991,1,2.94342
1.55243e+08,18.1471,2,2.73554
1.55294e+08,17.1386,0,3.03811
1.55314e+08,135.863,1,2.74573
1.55401e+08,8.4568,1,2.63081
0,8.42212,1,2.67142
1.55552e+08,4.9422,0,2.4958
1.56072e+08,6.2791,0,2.43685
1.56187e+08,54.2465,0,2.7106
1.56349e+08,59.3889,0,2.99586
1.5639e+08,49.1771,2,2.61485
1.56727e+08,48.7762,0,2.5696
1.56872e+08,28.2047,1,2.53791
1.57108e+08,24.5138,2,2.73541
1.57265e+08,55.1704,1,2.72932
1.57606e+08,67.9719,0,2.76787
1.5778e+08,10.5512,1,2.543
0,10.6733,1,2.87044
1.58584e+08,101.491,0,2.52096
1.58888e+08,34.9071,1,2.71159
1.58963e+08,121.596,1,3.04885
1.59115e+08,90.9394,0,2.92482
1.59369e+08,11.9683,1,2.72534
1.59495e+08,81.4375,2,2.94207
1.60174e+08,24.8941,2,2.98162
1.60336e+08,59.1129,0,2.74277
1.60348e+08,9.15294,1,2.72985
1.60824e+08,18.6084,2,2.39244
1.60845e+08,124.138,2,2.43031
1.61079e+08,15.8566,2,2.50618
1.61112e+08,9.23393,0,2.92134
1.6118e+08,63.9391,1,2.72723
1.61238e+08,35.7154,1,2.96089
1.61688e+08,52.9268,1,2.72528
1.6186e+08,129.985,1,2.62677
1.62544e+08,17.3475,2,2.99253
1.62668e+08,25.8377,2,2.46141
1.62753e+08,147.34,0,2.52812
1.62983e+08,32.3876,0,2.74099
1.63098e+08,21.8194,0,2.59303
1.63419e+08,81.2781,1,2.57082
1.63468e+08,51.6964,0,2.982
1.63507e+08,98.6089,2,2.45067
1.63719e+08,55.4668,1,2.67939
1.63865e+08,10.413,2,2.89776
1.63959e+08,51.1808,1,2.84974
1.64048e+08,137.035,0,2.84238
1.64099e+08,10.288,0,2.68475
1.64449e+08,117.688,2,2.73108
1.64568e+08,171.448,0,2.95467
1.65014e+08,143.637,2,2.83165
1.65075e+08,58.9939,0,2.39035
1.65308e+08,68.0971,1,2.62686
1.65327e+08,1.86113,2,2.69794
1.65332e+08,151.249,1,2.99528
1.65481e+08,76.0527,0,2.5795
1.65587e+08,90.7598,1,2.68922
1.65609e+08,1.35737,1,2.85214
1.65927e+08,163.369,1,2.90274
1.6666e+08,4.729,2,2.75186
1.66849e+08,109.784,0,2.48004
1.66928e+08,136.035,0,2.88177
1.66972e+08,36.3019,0,2.79883
1.66974e+08,35.035,1,2.5284
1.67078e+08,201.409,2,2.96744
1.67141e+08,64.5226,0,3.02677
1.67662e+08,117.322,0,2.98182
1.67823e+08,166.924,0,2.64475
1.6803e+08,204.558,0,2.63463
1.68331e+08,56.1341,0,2.36438
1.68697e+08,40.4197,0,2.90949
1.68698e+08,31.4657,2,2.88381
1.68705e+08,133.856,1,2.43925
1.68812e+08,54.0602,0,2.97993
1.68965e+08,10.7915,0,2.87521
1.6937e+08,49.0559,0,2.59267
1.69452e+08,106.886,0,2.39482
1.69538e+08,170.834,0,2.81729
1.69558e+08,165.91,2,2.5344
1.70046e+08,80.8612,0,2.66141
1.70289e+08,72.2315,0,2.39786
1.70577e+08,146.134,1,2.55072
1.70694e+08,15.4879,1,2.81933
1.70981e+08,60.5217,2,2.89953
1.71055e+08,101.6,2,2.44263
1.71205e+08,54.4443,1,3.01887
1.71364e+08,43.5125,2,2.65485
1.71372e+08,39.8672,2,2.75021
1.7181e+08,4.0708,1,2.41924
0,4.40207,0,2.93566
1.72014e+08,171.592,0,2.63801
1.72172e+08,70.0806,2,2.70123
1.72557e+08,211.503,1,2.39533
1.72561e+08,2.66136,1,2.46188
1.72809e+08,185.668,1,2.67947
1.73556e+08,50.9592,0,2.41354
1.74294e+08,35.123,2,2.43981
1.74402e+08,85.7369,2,2.765
1.7445e+08,32.7798,0,2.41324
1.74631e+08,90.1197,1,2.49194
1.75211e+08,160.396,0,2.58873
1.75316e+08,52.7703,0,2.94141
1.754e+08,62.9916,0,2.39943
1.75593e+08,21.9686,2,3.05392
1.75715e+08,19.4527,0,3.05889
1.75967e+08,9.53034,1,2.49409
1.76045e+08,151.808,2,2.40764
1.76075e+08,10.914,0,2.82604
1.76142e+08,96.7943,2,2.74797
1.76364e+08,116.257,1,2.64079
1.7658e+08,29.2842,2,2.83891
1.7737e+08,52.7403,0,2.68645
1.77719e+08,76.8539,1,2.40969
1.778e+08,119.786,1,2.89765
1.78088e+08,115.161,1,3.00116
1.78225e+08,51.069,0,2.51786
1.78369e+08,133.592,0,2.46293
1.79092e+08,17.3159,2,2.39772
1.79522e+08,45.5967,0,3.04614
1.79689e+08,7.89629,1,2.63846
1.79728e+08,36.6427,0,2.85203
1.79899e+08,147.536,1,2.48009
1.8073e+08,18.1114,1,2.74029
1.81617e+08,26.5746,0,2.89482
1.81897e+08,45.6484,0,2.80665
1.81977e+08,147.189,0,2.41898
1.82057e+08,18.6242,2,2.60026
1.82114e+08,7.86342,0,2.72968
1.82116e+08,16.7998,1,2.73976
1.82152e+08,188.46,1,2.75604
1.82274e+08,21.3263,1,3.01818
1.82332e+08,177.479,0,2.8687
1.82657e+08,13.3231,1,2.93919
1.82906e+08,55.6733,2,2.54495
1.83293e+08,13.8634,2,2.48528
1.83423e+08,38.7532,0,2.78295
1.83484e+08,181.125,1,2.86307
1.83494e+08,160.79,0,2.74918
1.83761e+08,58.3279,2,2.38327
1.83962e+08,12.6384,2,2.80663
1.84007e+08,59.7903,0,2.78245
1.8402e+08,72.9695,2,2.61117
1.8425e+08,24.9284,2,3.00909
1.84369e+08,102.864,0,2.53744
1.84977e+08,40.9298,1,2.51011
1.85142e+08,27.419,0,2.51605
1.85418e+08,62.3153,0,2.86116
1.85724e+08,8.07705,0,2.60026
1.86105e+08,11.5809,1,2.6134
1.86117e+08,104.47,1,2.94035
1.86268e+08,8.20337,0,2.45383
1.86297e+08,144.272,0,2.38981
1.86595e+08,18.4444,1,2.56892
1.86596e+08,55.6222,0,2.70717
1.86617e+08,240.164,1,2.54887
1.86877e+08,50.8803,1,2.81818
1.86885e+08,54.2175,0,2.61582
1.87023e+08,38.5618,2,2.60779
1.87289e+08,22.9768,1,2.8114
1.8782e+08,38.3875,0,2.46713
1.87932e+08,99.1882,2,2.72121
1.87936e+08,28.7402,1,2.70121
1.88092e+08,99.8785,2,2.52933
1.88119e+08,128.652,2,2.5815
1.88162e+08,16.5468,0,2.46073
1.8862e+08,118.019,0,2.50086
1.88728e+08,77.9924,2,2.90799
1.88908e+08,53.866,1,2.43508
1.89041e+08,20.6107,2,3.00578
1.89126e+08,130.772,1,2.44063
1.8986e+08,102.217,2,2.55603
1.89891e+08,118.047,1,2.59011
1.89964e+08,48.2236,0,3.05244
1.90665e+08,110.663,1,2.85337
1.90705e+08,36.1373,2,2.59493
1.91131e+08,102.455,2,2.93645
1.91174e+08,49.9616,2,3.00494
1.91316e+08,29.0234,0,2.90783
1.91443e+08,67.246,2,2.8965
1.91638e+08,159.586,2,2.71987
1.91702e+08,72.6477,1,2.52005
1.92297e+08,131.055,1,2.77555
1.92416e+08,72.6587,2,2.9422
1.92446e+08,84.7079,2,2.91498
1.92848e+08,165.244,0,2.79429
1.92973e+08,121.185,2,2.95682
1.93117e+08,86.9309,1,2.60203
1.93198e+08,107.867,1,2.37558
1.93357e+08,16.1298,1,2.94063
1.93379e+08,48.3802,0,2.83496
1.93409e+08,156.296,2,2.7461
1.93773e+08,42.7842,1,2.40941
1.93846e+08,126.234,0,2.77334
1.94763e+08,119.782,2,2.67661
1.94844e+08,11.1558,0,2.39105
1.95082e+08,114.969,0,2.71548
1.95124e+08,60.2691,1,2.67676
1.9513e+08,28.0744,2,3.04276
1.95363e+08,83.0103,1,2.44364
1.95539e+08,181.573,0,2.4849
1.95598e+08,178.083,0,3.04484
1.95718e+08,123.149,1,2.43017
1.95725e+08,71.5706,1,2.42491
1.95968e+08,4.41778,0,2.66603
0,4.44448,0,2.95097
1.96038e+08,24.5127,0,2.80684
1.96226e+08,29.1848,2,2.59095
1.96274e+08,35.8114,2,2.37918
1.96356e+08,23.8683,1,2.64124
1.9674e+08,29.9428,2,3.03355
1.96758e+08,150.133,1,2.79117
1.96896e+08,305.996,1,2.89395
1.97745e+08,48.182,2,2.8908
1.9794e+08,15.9891,2,2.71016
1.9796e+08,16.8972,2,2.42501
1.98064e+08,118.157,0,2.93967
1.98174e+08,52.6986,0,2.79457
1.99219e+08,94.9667,2,2.36397
1.99553e+08,5.37921,0,2.94618
1.9957e+08,83.316,1,2.75572
1.99801e+08,55.1768,1,2.547
1.99873e+08,18.3047,2,2.60172
2.00191e+08,75.6336,0,2.97735
2.00275e+08,32.1336,1,2.7952
2.00783e+08,86.9133,2,2.99971
2.00886e+08,13.0625,2,2.79196
2.01104e+08,143.408,2,2.64325
2.01138e+08,119.476,0,2.54089
2.01587e+08,32.9889,0,2.73015
2.0167e+08,50.7762,2,2.69448
2.01768e+08,56.0898,2,2.87827
2.0187e+08,127.315,1,3.02475
2.0199e+08,34.1731,2,2.65883
2.02134e+08,46.9033,0,2.45439
2.02677e+08,61.4631,2,2.58149
2.02684e+08,123.998,1,2.38302
2.03051e+08,57.0195,2,2.47192
2.03097e+08,81.8174,1,2.68576
2.03269e+08,82.9456,2,2.4884
2.03428e+08,53.7746,0,2.41556
2.03493e+08,19.4319,0,2.45005
2.03534e+08,21.9609,0,2.85258
2.03711e+08,109.261,0,2.94097
2.03888e+08,21.7337,0,2.63459
2.04673e+08,33.2836,0,2.72094
2.04738e+08,30.7341,0,2.77213
2.04787e+08,165.272,1,2.78039
2.05158e+08,6.6772,2,2.55708
2.05182e+08,139.668,2,2.755
2.052e+08,76.4029,1,2.66007
2.05274e+08,54.6072,0,2.99008
2.0548e+08,214.506,2,2.48732
2.05675e+08,35.192,0,2.69547
2.05736e+08,89.8633,0,3.05089
2.05738e+08,10.8381,1,2.72078
2.05924e+08,63.5666,0,2.50535
2.05957e+08,50.1922,0,2.94574
2.05986e+08,7.58203,2,2.77071
2.06072e+08,75.9074,1,2.51531
2.063e+08,21.1774,1,2.75238
2.06475e+08,77.0994,1,2.80408
2.06493e+08,99.0469,0,2.62047
2.06963e+08,142.155,2,3.00534
2.07148e+08,17.8185,0,3.0481
2.07156e+08,39.8817,1,2.94877
2.07191e+08,77.3221,2,3.03919
2.07949e+08,7.14942,0,2.43277
2.07986e+08,59.9177,1,2.51261
2.08045e+08,51.4617,1,3.02183
2.08614e+08,16.2684,0,2.79604
2.08664e+08,74.2857,1,2.61665
2.08676e+08,116.169,0,2.93426
2.09302e+08,118.305,1,2.73116
2.09616e+08,25.7035,2,2.77378
2.09765e+08,30.8124,1,2.39858
2.09801e+08,97.8567,0,2.43756
2.10049e+08,65.4466,0,2.40644
2.10124e+08,245.969,1,2.5928
2.10561e+08,45.792,2,2.79128
2.10975e+08,44.5536,1,2.55316
2.11511e+08,18.268,1,2.81775
2.11682e+08,41.9492,0,2.3699
2.12184e+08,64.1915,0,2.89456
2.12652e+08,41.2465,0,2.61089
2.13259e+08,165.945,1,2.59862
2.13419e+08,107.347,2,2.75828
2.13841e+08,83.4853,0,2.61084
2.14187e+08,34.2847,2,2.8138
2.14994e+08,162.91,1,2.84332
2.15015e+08,13.0379,2,2.67989
2.15327e+08,162.305,1,2.84637
2.1554e+08,78.4428,1,2.82731
2.15621e+08,80.8505,2,2.82003
2.15658e+08,58.2918,1,2.45341
2.15799e+08,13.653,1,3.05657
2.16257e+08,52.1669,2,2.6779
2.16714e+08,77.7695,1,2.93622
2.16928e+08,45.8216,2,2.65345
2.17104e+08,0.16413,2,2.29723
0,0.164296,2,3.63793
0,0.166372,2,3.40608
0,0.195994,2,3.87983
0,0.184962,2,3.30427
0,0.169052,2,2.94369
2.17119e+08,74.5326,0,2.84506
2.17196e+08,116.983,2,2.60483
2.17267e+08,30.8464,2,2.80798
0,30.8709,2,2.75177
2.1731e+08,19.6566,1,2.62539
2.17511e+08,51.404,1,2.40031
2.17615e+08,56.6805,1,2.8858
2.17797e+08,14.0438,0,2.70595
2.18024e+08,22.6445,2,2.41876
2.18044e+08,1.22346,0,2.54577
0,1.29689,0,2.91026
0,1.31417,0,2.53467
2.18054e+08,187.756,1,2.73799
2.18167e+08,35.2343,2,2.75555
2.18422e+08,32.749,2,2.37832
2.18424e+08,84.4555,2,2.65545
2.18432e+08,28.8965,0,2.92398
2.18598e+08,176.618,1,2.74903
2.18659e+08,3.14775,2,3.0502
2.18857e+08,9.95074,2,2.83938
2.18912e+08,110.405,2,3.04007
2.18925e+08,110.588,0,2.8273
2.19093e+08,5.97454,1,2.9508
2.19146e+08,119.029,1,3.0247
2.19318e+08,112.055,1,2.9623
2.19617e+08,7.4555,2,2.40011
2.20119e+08,7.13573,0,3.01192
2.20466e+08,8.37895,0,3.01698
2.20659e+08,44.4444,2,2.93828
2.20931e+08,41.3299,2,2.85957
2.21102e+08,96.8074,0,2.37274
2.21126e+08,68.2705,2,2.5018
2.21637e+08,18.8134,0,2.47793
2.21698e+08,152.01,1,2.59375
2.22402e+08,54.6707,1,2.66857
2.22476e+08,98.1703,0,2.57051
2.2252e+08,73.7812,2,2.62635
2.2254e+08,67.8298,2,2.50888
2.22581e+08,185.087,1,2.69246
2.23139e+08,9.44054,0,2.84741
2.23294e+08,151.293,1,2.98209
2.23381e+08,27.4244,1,2.57789
2.23383e+08,36.7389,2,2.43299
2.23697e+08,119.648,2,2.64111
2.23718e+08,52.5896,2,2.49934
2.23851e+08,8.57836,1,2.70578
2.23889e+08,98.9416,2,2.77172
2.2414e+08,36.6835,2,2.365
2.24154e+08,85.5793,2,2.46743
2.24194e+08,58.0147,0,2.85002
2.24509e+08,107.86,1,2.58145
2.24629e+08,33.7436,1,2.57719
2.24869e+08,133.652,2,2.50773
2.25037e+08,114.466,0,2.93637
2.25146e+08,26.8239,2,2.38276
2.2525e+08,121.357,2,2.85386
2.25359e+08,10.7093,0,2.63178
2.25598e+08,66.0546,0,2.60565
2.26466e+08,72.5638,2,2.93104
2.27444e+08,51.6611,2,2.99013
2.27588e+08,27.6217,1,2.46586
2.27624e+08,85.6547,1,2.61015
2.27862e+08,64.8103,2,2.45168
2.28073e+08,55.0669,1,2.92044
2.28085e+08,18.5877,1,2.39628
2.28118e+08,38.8804,1,2.57693
2.28191e+08,168.87,2,2.73142
2.28257e+08,46.4808,1,2.57266
0,46.7343,0,2.8783
2.28268e+08,20.5359,0,2.98818
2.28321e+08,47.6725,2,2.46753
2.29058e+08,101.364,2,2.59688
2.2954e+08,7.61235,1,2.6306
2.29756e+08,174.689,0,2.61742
2.30482e+08,29.2421,0,2.60513
2.30506e+08,121.827,1,2.56141
2.30693e+08,27.1803,2,2.78746
2.31167e+08,68.1896,2,2.71885
2.31211e+08,12.5282,0,2.64456
2.31268e+08,56.7772,2,3.04444
2.31353e+08,94.8423,1,2.87008
2.31416e+08,53.7595,2,2.7543
2.3144e+08,37.3992,1,2.55159
2.31508e+08,3.61774,0,2.66631
2.31882e+08,38.5775,1,2.64932
2.32122e+08,70.6767,2,2.77984
2.32125e+08,77.7438,1,2.42029
2.32811e+08,27.8907,0,2.40423
2.32893e+08,227.58,1,2.71656
2.33271e+08,78.9661,1,3.0032
2.33318e+08,32.0067,0,2.86016
2.33532e+08,7.1851,1,2.37059
2.33719e+08,130.038,2,2.98592
2.34111e+08,29.4142,2,2.49883
2.34157e+08,93.3646,2,2.4473
2.34193e+08,14.6006,1,2.67378
2.34349e+08,54.8133,2,2.49763
2.34438e+08,32.3262,2,3.01028
2.35099e+08,30.1293,1,2.61741
2.35139e+08,1.7395,0,2.69246
2.35142e+08,26.1587,1,3.00949
2.35837e+08,18.1472,1,3.02786
2.3592e+08,68.8672,2,2.55431
2.36393e+08,20.172,2,2.65791
2.36629e+08,95.6257,2,2.54889
2.36783e+08,73.9459,0,2.9093
2.36806e+08,146.964,1,2.7054
2.36811e+08,17.2014,1,2.80385
2.37043e+08,15.3555,2,2.62624
2.37247e+08,72.6847,1,2.61308
2.37377e+08,15.4566,0,2.62466
2.37461e+08,32.7306,2,2.89557
2.37527e+08,61.3797,0,2.89311
2.37603e+08,14.9669,1,2.4062
2.37872e+08,179.458,2,3.02051
2.37994e+08,4.6209,0,3.01115
2.38296e+08,7.69163,1,2.39998
2.38408e+08,112.894,0,2.76394
2.38723e+08,65.7564,2,2.94211
2.38727e+08,12.2124,0,2.85003
2.39459e+08,83.6011,1,2.77259
2.40052e+08,11.5326,0,2.48182
0,11.6392,0,3.02098
0,11.6257,0,2.96078
2.40646e+08,22.2074,0,2.59893
2.40746e+08,32.1658,1,2.40861
2.41093e+08,70.966,0,3.006
2.41563e+08,133.039,1,2.7458
2.41752e+08,24.5047,2,2.54886
2.41817e+08,139.137,2,2.79716
2.42207e+08,89.1037,2,2.65809
2.4244e+08,0.271846,2,2.56461
2.42727e+08,230.806,2,2.68444
2.4273e+08,40.9705,0,3.03978
2.4274e+08,17.4217,2,2.37338
2.42741e+08,113.72,0,2.88278
2.42819e+08,1.69645,2,2.8821
0,1.66865,1,2.73027
2.42856e+08,114.826,2,2.38629
2.42901e+08,89.8319,1,2.63645
2.43022e+08,88.607,1,2.93137
2.43366e+08,27.7289,0,2.65047
2.43456e+08,80.6463,0,2.82579
2.43769e+08,56.1503,0,2.76061
2.43803e+08,89.6632,1,2.42056
2.44053e+08,3.67785,2,2.59813
2.44182e+08,197.832,2,2.79302
2.44224e+08,28.1624,1,2.858
2.44444e+08,42.8899,0,2.58046
2.445e+08,44.6204,1,2.91837
2.45603e+08,92.0695,2,2.43403
2.45738e+08,116.771,1,2.61843
2.46175e+08,68.8901,0,2.74338
2.46273e+08,55.1346,2,2.80562
2.4644e+08,412.781,2,2.80863
2.46718e+08,50.2825,1,2.54347
2.46765e+08,18.075,0,2.86358
2.46875e+08,154.48,1,3.04129
2.47531e+08,20.5631,0,2.39237
2.47894e+08,0.0317017,1,2.95736
0,0.0476706,1,2.79637
0,0.0356943,1,3.79207
0,0.0354793,1,3.0842
0,0.0328305,1,2.51901
0,0.0320109,1,3.26999
0,0.0437476,1,2.53478
0,0.0317289,1,2.7322
0,0.0594956,1,3.2559
0,0.0347679,1,2.66567
0,0.0630657,1,2.49368
0,0.0318158,1,2.44105
0,0.031134,1,3.37399
0,0.0668154,1,3.69175
0,0.0350954,1,3.98063
0,0.0322646,1,3.72483
0,0.0314477,1,3.89189
0,0.036724,1,3.76212
0,0.032778,1,3.81352
0,0.0280129,1,3.21058
2.48683e+08,77.9109,2,2.81648
2.49656e+08,22.8425,2,2.43059
2.49826e+08,54.6234,0,2.76572
