#class tools::wcsv::ntuple
#title time
#separator 44
#vector_separator 59
#column double eventID
#column double t(ns)
#column double copynumber
#column double energy(eV)
#column double x(mm)
#column double y(mm)
#column double z(mm)
145675,32.7836,1,3.033,1761.31,4012.53,-23496.6
220025,40.7658,1,2.84456,-7748.02,3702.03,-27597
308077,166.268,1,3.05543,18856.6,25086.8,-13755.4
397160,163.036,2,2.6195,-20246.9,-12859.1,-3935.75
419684,130.283,1,2.66093,7602.17,26459.9,-27282.2
497585,5.31886,1,2.74111,-828.615,-128.773,-28012.7
505195,9.87864,2,2.84836,-239.611,-1238.83,-27173.1
572509,11.1186,2,2.90955,-516.537,-1821.9,-27347.2
664927,164.351,1,2.58082,-15620,10639,214.055
962863,48.6668,0,2.53898,3943.74,722.901,-19313.6
1.02801e+06,21.2362,2,3.05901,2499.91,-3409.98,-27397
1.08054e+06,89.5386,0,2.49147,15389,-11119.6,-27938
1.12444e+06,123.037,2,2.53215,16515.7,-964.215,-8775.05
1.15036e+06,48.5684,1,2.5348,-9669.67,3143.08,-27855
1.18496e+06,28.1659,1,2.68769,3006.6,4187.95,-25932.2
1.23098e+06,79.6651,2,2.6058,-9278.34,-2355.55,-14969.9
1.28862e+06,102.928,0,2.4444,14940.2,15933,-28412.3
1.31914e+06,50.1022,0,2.83327,-792.851,6050.16,-20226.6
1.33446e+06,71.6207,1,2.57196,7632.27,9785.09,-20327
1.65037e+06,23.8379,0,2.91475,1725.79,1273.9,-24360.6
1.74347e+06,5.09716,2,2.66585,961.744,-261.536,-28189.2
0,5.18487,2,2.63855,0,0,0
1.91266e+06,7.12788,0,2.47472,-908.539,164.302,-27637.4
1.99243e+06,136.828,0,2.64641,-9830.38,26060.7,-21021.2
2.09725e+06,17.0559,0,2.99653,2957.14,-2145.67,-28737.3
2.15477e+06,36.0473,0,2.40141,-4893.49,-5194.97,-26273.8
0,35.4653,2,2.57432,0,0,0
2.24028e+06,89.6102,0,2.78752,7322.67,17421.5,-28919.6
2.25633e+06,25.6501,2,2.87413,4226.52,-1693.27,-25921.7
2.26041e+06,14.8091,2,2.99679,-2981.21,625.926,-28033.9
2.31735e+06,20.0613,2,2.78309,-3006.7,-3046.44,-28772.8
2.34754e+06,150.371,0,3.00377,4964.87,-19755.7,-4736.55
2.34769e+06,174.706,0,3.02167,14433.9,-9018.94,3526.65
2.48518e+06,64.9607,2,2.84005,5198.27,8988.97,-20019.6
2.50204e+06,185.744,2,2.4825,-20226.4,11935.5,2592.2
2.60604e+06,21.5574,2,2.46431,927.925,-3220.35,-25597.4
2.67361e+06,9.73977,0,2.72909,-332.245,-1250.35,-27380
2.68632e+06,106.136,1,2.69726,10753.9,10802.7,-12373.7
2.71763e+06,5.57175,2,2.43521,-282.399,-329.018,-28953.7
2.86749e+06,56.2104,1,2.97874,68.7469,8038.69,-20155.2
2.92663e+06,11.7663,2,2.78896,-296.153,-1746.92,-27064.9
2.96101e+06,15.0319,1,2.80131,2344.58,-331.534,-28312.6
3.00574e+06,38.5548,1,2.86402,-5432.14,5607.92,-26402.5
3.20296e+06,50.7786,2,3.04614,-5940.4,4735.37,-21595.6
3.31223e+06,66.3069,1,2.96288,-721.589,11309.5,-20620.5
3.32104e+06,87.1498,0,2.60906,4050.36,13080.6,-17492.9
3.3707e+06,3.30904,0,2.37768,15.681,81.6579,-28222.2
3.43477e+06,8.7099,1,2.611,-1851.79,378.39,-28965.2
3.47417e+06,29.8863,1,3.03609,-1925.04,3413.55,-23885
3.51404e+06,48.0545,1,2.77978,-313.098,9141.85,-24408.1
3.62588e+06,47.5516,0,2.85374,870.914,-4175.31,-19812
3.63549e+06,6.33593,0,2.82696,-543.924,-879.843,-28150.8
3.7115e+06,57.2533,0,2.66085,-10554.6,1539.42,-23340.6
3.72341e+06,141.908,0,2.67717,20493,8189.01,-8763
3.73318e+06,1.97722,1,2.58218,-445.706,89.1888,-28598.9
3.80572e+06,27.5038,1,2.89631,-2494.71,-4421.71,-26395.1
4.00383e+06,252.07,0,3.01673,27303.6,3221.12,6068.42
4.05483e+06,36.1447,2,2.80185,-2815.47,2820.65,-22462.4
4.10782e+06,47.0019,0,2.41762,6299.71,-2367.88,-21472.1
4.28487e+06,79.9354,0,2.85622,-1724.69,-11123.4,-16353
4.2887e+06,103.694,2,2.39366,-5828.58,16860.4,-16137.1
4.35806e+06,296.835,0,2.56275,27043,8443.5,26991.3
4.46351e+06,125.105,1,2.76018,-23634.7,-3374.74,-17813
4.49207e+06,55.6805,1,2.62785,2660.23,7361.85,-20251.8
4.55417e+06,14.615,1,2.97223,-833.963,-1452.5,-26278.5
4.58565e+06,207.819,2,2.41121,-12070.4,-26269.3,4447.42
4.60884e+06,132.992,0,2.92231,2741.99,6853.24,-19210.7
4.69797e+06,30.8674,0,2.73167,6281.36,447.084,-26785.5
5.03387e+06,20.6117,2,2.43177,-1141.89,-1918.13,-24990.4
5.10432e+06,140.445,0,2.7032,7139.96,-22054.3,-10420.9
5.308e+06,21.2836,1,2.92548,-3329.38,-2740.37,-27539.1
5.34423e+06,73.4973,0,3.06013,-140.732,14246.2,-22960.9
5.48768e+06,164.586,1,2.66602,-28.9856,2243.92,-27189.9
5.63241e+06,82.724,1,2.63181,-16467.7,2560.68,-23094.9
5.65031e+06,27.8585,2,2.77763,1604.08,2655.07,-23975.7
5.83867e+06,20.9885,0,2.82772,-30.6314,2334.54,-25058
5.98009e+06,89.6743,2,2.82892,-6912.45,-15420.7,-20492
6.01575e+06,29.2419,0,2.42301,-2200.44,5657.57,-27636.6
6.1396e+06,167.579,2,2.58667,-5349.3,-24839.9,-4025.8
6.28857e+06,7.51786,0,2.63942,184.557,1596.54,-29002.3
6.47896e+06,72.7837,2,2.88165,4546.27,9120.51,-17527.6
6.58255e+06,33.5363,2,3.01785,5966.58,-1990.69,-25641.2
6.58441e+06,34.7611,2,2.79236,-3010.33,-2521.34,-23420.9
6.60396e+06,88.5092,1,3.03464,486.659,-2633.58,-26485.9
6.68933e+06,19.4675,0,2.90992,481.844,3710.16,-28093.1
6.91989e+06,38.6713,1,2.58601,-6274.9,-4934.45,-28797.7
6.93675e+06,50.0479,1,2.80283,10065.4,2274.13,-27370.6
6.93742e+06,138.883,0,2.58913,-5217.42,-26113.2,-16595
6.96758e+06,49.7725,1,3.00289,-4649.75,7297.92,-23104.1
7.04272e+06,49.7301,1,2.88064,326.591,10349.7,-27553.6
7.15927e+06,30.3064,2,3.01603,-882.831,2961.23,-23223.8
7.59996e+06,67.4029,1,2.78225,-6652.26,-3542.58,-16811.9
7.73817e+06,5.75626,2,2.7906,15.7146,-835.11,-27861.6
7.78521e+06,21.2872,0,2.91265,-408.868,2384.3,-25187.8
8.10497e+06,1.93781,1,2.90436,-377.582,275.473,-29061.1
8.13306e+06,102.442,1,3.02553,-11068,9491.09,-13345.7
8.18391e+06,87.5555,0,2.80127,12077.1,-11385.9,-20793.4
8.19042e+06,25.4224,0,3.02445,3359.09,-4098.16,-27905.7
8.27394e+06,57.9685,2,2.70558,-6911.58,9810.07,-26345.7
8.30362e+06,39.8317,2,2.96434,-4597.7,1125.34,-21924.6
8.42692e+06,190.772,1,2.43806,10226.3,22028.6,3448.56
8.50214e+06,6.66912,0,2.91419,1481.21,175.436,-28541.5
0,6.77303,0,2.92504,0,0,0
8.61982e+06,7.81474,2,2.42354,-428.119,-590.278,-27191.7
8.66617e+06,91.2774,1,2.49396,-3501.48,18878.7,-26445
8.7235e+06,30.9605,1,2.88164,-2528.9,-3918.66,-24302.9
8.79517e+06,109.016,0,2.89649,-18727.7,-9746.85,-20766.1
8.89579e+06,59.63,0,2.80037,5798.02,4835.25,-18673.1
8.91661e+06,172.099,0,3.0392,-27347,9820.89,-14397.2
8.95564e+06,42.5343,2,2.79976,423.416,4601.46,-21196.8
8.97012e+06,197.636,0,2.6164,-26519.1,-28368.4,-13775.3
9.20387e+06,95.6703,0,2.39186,13830.9,3512.52,-14863.9
9.26091e+06,2.66373,0,3.65618,149.398,-19.5445,-28280.8
0,2.73837,2,3.03581,0,0,0
9.36307e+06,213.593,1,2.62001,-25692.7,6237.38,7848.3
9.39066e+06,140.631,2,2.68388,-2190.71,18303.9,-6109.77
9.52514e+06,1.99437,1,2.43026,239.858,321.967,-28603.8
0,2.28612,2,2.99229,0,0,0
0,1.92267,1,3.05631,0,0,0
9.62901e+06,194.583,1,3.0219,-20379.6,-14799.5,3221.63
9.74537e+06,11.7377,0,2.87516,868.07,2377.65,-28852.6
9.79505e+06,30.9071,0,2.71239,4125.19,-2870.42,-24623.9
1.02199e+07,120.768,1,2.36988,-20343.3,12250.9,-19371.8
1.03944e+07,41.873,0,2.38991,7275.31,-4500.1,-26179.9
1.04018e+07,208.107,2,2.69903,17757.3,-5805.92,10857.9
1.04519e+07,10.7632,1,2.88365,-2024.69,991.005,-28636.4
1.05791e+07,69.8982,2,2.98974,-6341.44,11399.5,-22287
1.06368e+07,167.954,2,2.91226,-11066.3,22684,-23000
1.07849e+07,104.882,1,2.76518,-12519.1,18286.3,-28365
1.07923e+07,25.5665,1,2.79229,3850.85,3088.74,-26638.7
1.09061e+07,111.969,0,2.68487,7367.52,-12233.1,-9968.36
1.09833e+07,5.84532,0,2.84179,1062.02,-230.771,-28084.4
0,5.86137,0,3.05751,0,0,0
1.13396e+07,4.91645,0,2.44037,648.691,-819.245,-29246.8
0,4.78844,0,2.40152,0,0,0
1.13956e+07,11.5118,2,2.45936,-1388.52,-53.5384,-26788.6
0,11.4712,2,2.62965,0,0,0
0,11.5991,2,2.44129,0,0,0
1.15149e+07,67.7816,2,2.64473,-6788.57,-12285.1,-25537.2
1.15952e+07,12.1227,0,2.50631,1943.35,-1712.49,-28233.8
1.16222e+07,20.6433,0,2.41875,2931.98,-3241.28,-27956.7
1.16225e+07,141.208,2,2.66795,-19091.8,-10553.6,-8444.4
1.16743e+07,24.0196,0,2.8461,-2514.61,-1223.02,-25002.6
1.18354e+07,144.194,0,2.93568,12142.1,-11166.5,-3409.98
1.18378e+07,28.4226,0,2.69939,-85.9952,-5259.63,-26087.8
1.18822e+07,14.4048,0,2.47918,2113.4,-1036.22,-26839.4
1.19302e+07,308.052,0,2.44295,-25561.9,16385,28697
1.19765e+07,138.342,1,2.86742,11782.7,-25455.7,-21648
1.20638e+07,80.4499,2,2.82719,15110.4,-3676,-22114.2
1.21251e+07,62.9389,0,3.05978,10345.5,-3286.04,-21289.4
1.21502e+07,177.537,0,2.54174,19901.5,-11946.4,601.479
1.21648e+07,119.089,1,2.47382,13389.9,17962.8,-17319.1
1.23839e+07,81.7443,0,2.77041,8123.62,-14413.8,-23920.9
1.25416e+07,124.327,1,2.42923,-4899.3,24932.3,-21893.7
1.27812e+07,165.852,2,2.80939,-11756.8,-19932.9,-2694.06
1.27954e+07,54.0621,0,3.01904,-1816.93,-5941.14,-19624.7
1.28149e+07,27.6658,1,2.80735,278.96,-5204.21,-26315.9
1.28637e+07,140.161,1,2.82122,-1579.5,17380.7,-5002.03
1.28989e+07,0.823686,2,2.44093,25.1259,-241.021,-28762.6
0,0.765558,2,2.40781,0,0,0
0,0.813931,2,2.84251,0,0,0
1.31164e+07,2.90834,0,2.63171,684.744,-243.495,-28726.5
0,2.79268,0,2.66865,0,0,0
0,2.93377,0,2.5981,0,0,0
0,2.8078,0,2.71711,0,0,0
0,2.8002,0,2.73921,0,0,0
0,2.83185,0,3.00022,0,0,0
1.3272e+07,11.1509,0,2.80754,2303.3,-639.196,-29051
1.33909e+07,71.0619,1,2.88902,5731.17,7620.95,-17305.5
1.34626e+07,31.5965,1,2.92605,-5078.6,2589.63,-25477.8
1.36271e+07,22.397,0,2.91753,4733.74,474.15,-27903.9
1.37301e+07,139.881,1,2.97805,-18657.6,3795.28,-6690.26
1.3757e+07,107.675,0,2.85367,972.429,16288.1,-13144.8
1.44723e+07,3.83337,1,2.75031,205.879,608.805,-28223.3
1.45522e+07,21.0304,0,2.5872,4519.89,-352.882,-28459.4
1.45756e+07,119.477,2,2.75888,-8389.08,12408.2,-10865.7
1.47021e+07,6.11578,1,2.5977,408.606,-338.627,-27665.6
1.48824e+07,15.8427,0,2.94615,-2045.23,1968.14,-27150.4
1.49019e+07,31.1811,0,2.95325,4432.3,2160.73,-24421.4
1.4961e+07,247.168,2,2.61462,-25739.7,-22523.2,10647.4
1.50623e+07,156.115,0,2.75336,4018.18,-29286.5,-14466.7
1.50974e+07,64.7693,1,2.68199,-5766.47,-10135.7,-21874.9
1.5123e+07,26.3292,2,2.74067,1772.7,2099.45,-23980.4
1.53318e+07,135.895,1,2.96376,-25172.5,2769.93,-23069.5
1.53929e+07,93.873,2,2.77727,-4386.5,-10640.9,-12731.7
1.54072e+07,27.9427,0,2.89344,2638.27,5277.78,-28135.2
1.55185e+07,57.3709,0,2.55422,7370.31,6096.62,-21502.2
1.56997e+07,71.2776,2,2.58381,-3193.01,9659.14,-17859.2
1.57259e+07,27.2965,0,2.95298,1797.4,2622.45,-28134.4
1.58378e+07,139.906,1,3.05899,-20314.4,15491.2,-14309.7
1.58504e+07,7.73693,1,2.58428,359.031,268.534,-27268.8
1.59534e+07,58.1284,1,2.74046,-4990.46,6309.06,-19507.8
1.60186e+07,25.2846,0,2.59787,-1931.65,-255.174,-23881.1
1.60433e+07,150.574,2,2.70459,7732.63,-13578.3,-1048.36
1.60821e+07,15.4124,2,2.46992,2646.05,-1883.46,-28326
1.61842e+07,5.98237,1,2.75213,-1086.37,-656.664,-28752.9
1.64013e+07,42.4979,2,2.90768,-3304.23,-8358.9,-28748.9
1.66546e+07,102.398,2,2.52697,3270.68,9736.67,-12842.6
1.66657e+07,59.7391,1,2.71918,-2032.56,-8258.25,-19636
1.67984e+07,36.7627,1,2.68114,4685.63,-3100.36,-23852.5
1.6805e+07,52.424,0,2.9408,7513.74,2127.22,-20736.7
1.70665e+07,59.9085,0,2.62932,-2866.83,6380.73,-18233.9
1.72385e+07,53.9083,0,2.55267,9360.87,-1736.86,-22308.8
1.73447e+07,48.2755,2,2.53507,-8030.43,5191.08,-25404.5
1.73493e+07,28.9914,1,2.98067,824.538,3637.46,-23941.7
1.75879e+07,43.6512,0,2.64773,6494.49,-5343.19,-24839.7
1.76573e+07,26.9245,2,2.61019,2001.88,-5149.13,-27316.7
1.78132e+07,63.78,2,2.78669,-12271,2001.85,-23614.7
1.78904e+07,97.8252,0,2.81843,-10944.9,-12022,-16486
1.80017e+07,23.2907,0,2.61806,3508.69,1452.28,-25580.7
1.80178e+07,18.8522,2,2.65185,1874.77,-3515.26,-28166.6
1.8128e+07,7.95698,2,2.75085,-598.113,670.438,-28937.6
1.81283e+07,81.5437,1,3.04233,-6895.37,14963.2,-23978.6
1.82077e+07,32.5442,0,2.50311,6376.45,12.3042,-26071.7
1.83876e+07,42.7815,0,2.48773,5316.91,7182.49,-27032.2
1.84164e+07,23.8331,2,2.67493,-4046.83,2974.52,-29303.2
1.84892e+07,23.0286,1,2.69441,-4367.27,-676.599,-27009.4
1.86349e+07,94.5494,2,2.93821,-14454.7,-11375.5,-21171.2
1.86786e+07,32.1726,1,2.87713,1002.55,3715.49,-23280.3
1.88158e+07,316.756,2,2.80148,-10831.2,-11552.5,-28976.2
1.91119e+07,112.949,2,2.88166,-16370.7,-5304.79,-12469.5
1.91149e+07,30.7236,1,2.39644,-4502.09,-511.25,-24167.7
1.91454e+07,38.479,0,2.75695,-569.134,3338.66,-21401.5
1.91793e+07,10.4499,2,2.52347,66.3561,1369.82,-27120.5
1.93907e+07,104.559,1,2.71847,967.552,21237,-22510.7
1.94569e+07,115.692,1,2.80055,18739.1,-336.275,-13361.2
1.95336e+07,49.4535,0,2.50909,1845.37,-7604.78,-22044.2
1.95597e+07,31.5084,1,2.48272,-3742.8,-1537.18,-23499.7
1.96011e+07,291.687,0,2.77779,19509.9,-11065.2,28347.8
1.96121e+07,76.703,1,2.56199,-3193.58,5278.87,-14522.7
1.98366e+07,8.50295,1,2.39935,-1706.51,328.998,-27970
1.98701e+07,5.97735,2,3.04706,-1241.85,-27.6199,-28402.2
2.0049e+07,9.22529,0,2.59913,1701.93,404.565,-29911.1
2.00563e+07,24.4119,1,3.01233,2393.76,-30.1703,-24264.5
2.02071e+07,39.089,0,2.6476,6794.06,-2082.39,-24623.3
2.02422e+07,12.2188,0,2.63626,-2354.86,-120.623,-27954.9
2.02581e+07,188.753,2,2.67826,19522.2,12521.9,3430.57
2.02721e+07,5.71608,0,2.55663,456.872,-1336.6,-28759.1
0,5.53386,2,2.47099,0,0,0
2.0349e+07,33.6155,1,2.55359,3290.35,-3229.18,-23422.9
2.06043e+07,3.75022,0,2.46387,-159.907,-653.292,-28247.9
2.06516e+07,61.9288,1,3.02767,-4884.77,10058.4,-22533.2
2.06736e+07,71.2369,0,2.87046,174.767,8945.14,-16788.5
2.0984e+07,130.041,1,2.88867,952.297,9646.86,-3410.51
2.10735e+07,111.731,2,2.67898,11853.8,-9837.57,-11038.3
2.11652e+07,173.113,2,2.54097,-21927.7,-12387.5,-2249.34
2.13915e+07,37.3843,1,2.83764,3535.57,-5950.19,-25159.6
2.13937e+07,19.8681,0,2.55763,-2163.03,3427.25,-27860.6
2.14115e+07,54.3265,1,2.41734,22.638,-4890.68,-18430.2
2.15138e+07,24.9327,1,2.79604,1903.67,4055.32,-26122.7
2.17982e+07,189.926,0,2.63131,23496.2,-25265.2,-8301.74
2.19637e+07,3.13076,0,2.84164,686.977,150.693,-29165
2.1978e+07,116.397,0,2.43963,8195.07,-13445.1,-9682.9
2.20068e+07,125.164,2,3.00657,-11321,-241.796,-9787.23
2.2075e+07,279.15,1,2.64924,-26541.9,-5338.28,23431.8
2.22749e+07,10.4102,2,2.95661,1473.75,-1571.72,-29515.4
2.23532e+07,64.7529,1,2.82339,-12810.1,4894.56,-28919.9
2.24514e+07,82.2182,2,2.45632,10684.2,7530.68,-17401.6
2.24529e+07,33.0406,0,3.0562,6344.01,-3184.72,-27958.9
2.24708e+07,24.0269,0,2.45126,1348.45,-4936.15,-28764.3
2.25011e+07,141.016,2,2.46467,-25799.6,4012.92,-14331
2.25727e+07,7.68739,2,2.84386,1387.42,-11.0635,-28031.2
2.26969e+07,211.569,2,2.42595,-23013.6,25236.2,146.136
2.28519e+07,56.4827,1,2.47266,-6682.19,14.4511,-18913.7
2.29843e+07,95.1399,2,2.38632,-3112.13,11310.4,-12535.1
2.31388e+07,89.9804,1,2.63863,-14150.9,5255.35,-17206.2
2.31519e+07,169.089,2,2.77248,-27632.1,-22564.7,-29150.6
2.31746e+07,14.2581,2,2.61982,-2796.88,1151.79,-28682.3
2.31806e+07,31.6873,2,2.55651,-2147.71,-4295.72,-24148.6
2.33338e+07,178.788,0,2.91531,-7669.57,16028.5,4302.69
2.33986e+07,62.9183,1,2.99375,12102.4,2166.28,-24120.2
2.34819e+07,95.7641,0,2.61423,2537.76,4810.88,-21468.7
2.36021e+07,135.374,0,2.87506,-10326.7,-9270.24,-4038.87
2.37497e+07,114.091,0,2.43643,1710.17,-12003.2,-24966.3
2.38526e+07,130.744,2,3.06168,-17206.2,2597.81,-7783.79
2.39456e+07,4.62462,0,2.84319,269.212,817.083,-28274
0,4.51601,0,2.6854,0,0,0
2.39496e+07,119.147,2,2.99633,-1841.75,21362.7,-17553.2
2.41348e+07,115.724,2,3.0289,-5266.73,-9276.43,-7021.59
2.43232e+07,24.596,1,2.59215,3951.54,-1191.03,-25714.4
2.43639e+07,164.677,2,2.43494,-853.982,-17896.9,190.663
2.43864e+07,144.401,2,2.57278,12201.9,-7561.99,-1983.11
2.44377e+07,14.8228,0,2.88626,1201.43,-2591.16,-27446.2
2.47801e+07,33.1857,0,2.46654,-5616.4,-2858.65,-25792.3
2.49412e+07,32.8244,0,2.81939,5643.61,-1816.91,-25201.9
2.50065e+07,141.41,0,2.4587,29384.4,-3346.65,-23682.2
2.50746e+07,6.27189,0,2.5059,-1087.16,7.93051,-28790.4
2.51264e+07,84.9342,0,2.39861,8496.38,-15615.5,-25588.2
2.53305e+07,69.7587,1,2.82784,-7750.19,-12283.2,-26961.1
2.53562e+07,120.805,0,2.37159,10732.5,5279.57,-6757.55
2.53563e+07,32.5193,1,2.55885,-4479.3,4509.83,-26812.5
2.56138e+07,35.2555,2,2.68962,-6095.09,584.842,-24696
2.57205e+07,101.974,0,2.59666,16575.7,-4636.73,-15925.4
2.57389e+07,9.02813,0,2.48721,-326.168,1750.66,-29514.7
2.59473e+07,171.732,2,2.97456,17069.6,-27177.1,-12462.2
2.60866e+07,61.2056,2,2.65869,1568.61,-12767.8,-28321.9
2.61616e+07,79.9609,2,2.50889,14533,1809.16,-20403.4
2.62903e+07,132.218,0,2.7939,25151.4,10314.8,-22325.1
2.64377e+07,28.5331,1,3.00654,2649.4,-5152.12,-27059.3
2.66422e+07,62.9683,2,2.85981,-7142.48,501.633,-17689.8
2.66603e+07,18.4091,1,2.54307,-3231.97,1499.74,-27341.2
2.67772e+07,41.0849,0,2.63133,3853.46,2110.58,-21305.6
2.69372e+07,84.5209,1,2.77279,1757.49,-8528.32,-13363
2.70664e+07,104.316,1,2.77943,-17422.5,1245.01,-15488.7
2.709e+07,89.0912,2,2.92242,3740.75,5315.07,-12233.4
2.72785e+07,2.96301,0,2.85729,-201.953,266.764,-28454.6
2.73589e+07,97.7506,0,2.42946,20712.8,-1448.73,-27917
2.74493e+07,152.643,2,2.77536,12311.6,-28640.1,-20700.7
2.74767e+07,9.59439,0,2.57795,1727.94,-372.68,-27713.6
2.74805e+07,79.8556,1,3.02482,10971.5,10164.6,-21167.6
2.75599e+07,3.93358,1,2.44803,-444.01,819.493,-28618.2
2.76596e+07,85.2524,0,2.46176,2508.57,-8810.48,-13400
2.77666e+07,32.7353,1,2.92645,5525.1,225.849,-24787.7
2.77682e+07,69.259,1,2.69887,6404.79,5756.87,-17084.2
2.77909e+07,70.3665,1,2.66321,-13396,-1193.24,-22406.7
2.78092e+07,101.919,2,2.74481,-17217.2,-13044.5,-28587.5
2.78139e+07,70.7851,1,2.43855,-4326.23,-13507.8,-24505
2.78792e+07,13.7034,1,2.45793,-412.986,1185.49,-26276.9
0,13.7283,1,2.42883,0,0,0
2.79063e+07,12.2331,1,2.9236,-2523.01,-376.009,-29605.3
2.80507e+07,102.303,2,2.37507,21295.6,-2547.59,-26248.4
2.8088e+07,54.5808,2,2.47717,-5326.58,-8964.56,-23755.5
2.85132e+07,180.97,0,3.03045,13504.1,11759.8,4608.88
2.85155e+07,51.1783,1,2.98361,-10120.9,-3067.4,-26628.8
2.88075e+07,43.811,1,2.39247,-6825.82,5752.27,-25989.8
2.89586e+07,54.6817,1,3.02777,-6722.26,-2194.92,-19980.1
2.90248e+07,166.565,0,2.93261,15473.9,21654.5,-6130.36
2.94148e+07,27.1898,2,2.85698,1740.03,-4895.04,-26058.1
2.95821e+07,89.1314,1,3.03509,2754.19,-11241.1,-14251.4
2.96816e+07,143.505,2,2.55186,21167.2,-21776.4,-26097.1
2.97043e+07,158.807,0,2.8282,27219.6,6923.22,-10867.7
2.97137e+07,84.7865,1,3.0378,1000.52,15778.3,-20512
2.97314e+07,17.193,0,2.77145,-432.879,-1508.1,-25590.7
0,16.8797,2,2.66558,0,0,0
0,16.9149,2,2.77686,0,0,0
2.99477e+07,35.8604,2,2.75326,-457.805,-7567.42,-29092.9
