#class tools::wcsv::ntuple
#title time
#separator 44
#vector_separator 59
#column double eventID
#column double t(ns)
#column double copynumber
#column double energy(eV)
287144,11.8853,2,2.81962
320619,10.0583,1,2.89764
324603,227.623,1,2.66563
397502,115.956,0,2.96396
420392,34.8737,1,2.50546
430043,63.209,2,3.00656
780256,23.1612,1,2.68981
786309,15.1992,2,2.43143
940496,20.3304,0,2.54335
1.02761e+06,133.172,1,2.75472
1.15367e+06,4.69066,0,2.37374
1.30483e+06,10.4556,2,2.79421
1.3552e+06,20.1023,2,3.01125
1.43114e+06,34.1783,1,2.45846
1.60166e+06,16.4499,0,3.05447
1.64266e+06,41.5403,2,2.479
1.97926e+06,26.1669,1,2.62607
2.03514e+06,50.308,0,2.6991
2.05614e+06,210.356,0,2.42814
2.11639e+06,55.0977,2,2.95079
2.32142e+06,402.584,1,2.42652
2.48571e+06,220.199,2,2.51176
2.59228e+06,63.12,1,2.75055
2.65306e+06,55.267,0,2.47395
2.76011e+06,64.4921,0,2.37711
2.82613e+06,21.3829,1,2.77672
2.85767e+06,23.2073,2,2.79127
2.85772e+06,38.7954,1,2.39423
2.95684e+06,135.507,1,2.66139
3.03108e+06,35.3394,0,2.4915
3.06913e+06,76.3405,1,3.05583
3.18117e+06,63.8505,1,2.9151
3.27546e+06,98.9624,1,2.87038
3.28298e+06,9.59076,1,2.67756
3.58424e+06,66.7211,0,2.41224
3.60486e+06,66.893,1,2.65296
3.61352e+06,58.4103,2,2.98571
3.65521e+06,60.3208,1,2.69667
3.82853e+06,33.9424,1,2.48789
3.86180e+06,100.206,1,2.71637
4.56992e+06,89.6262,2,2.75063
4.62261e+06,43.8905,1,2.4292
4.72544e+06,44.1454,1,2.69605
4.75822e+06,8.65421,1,2.89086
4.8141e+06,151.512,1,2.96763
4.92174e+06,39.969,2,2.74703
4.9414e+06,24.4436,1,2.81629
5.01808e+06,184.832,0,2.80702
5.0229e+06,94.3469,0,2.62082
5.03878e+06,60.8581,2,2.66199
5.09713e+06,60.6143,2,2.78327
5.12464e+06,58.0896,1,2.64479
5.15124e+06,99.6759,2,3.01328
5.1631e+06,33.4603,1,2.99721
5.34433e+06,5.55281,0,2.46273
5.35115e+06,107.786,1,2.39887
5.36244e+06,227.594,0,2.85659
5.46523e+06,19.9907,2,2.94405
5.5738e+06,3.09805,2,2.77026
5.60681e+06,73.4049,0,2.81406
5.6649e+06,40.8239,0,2.69023
5.69737e+06,42.073,2,2.39189
5.93198e+06,52.9573,2,2.56795
5.93911e+06,63.2325,1,2.57267
5.98244e+06,22.8814,2,2.82372
6.26254e+06,12.8363,2,2.94748
6.40024e+06,79.661,1,2.7676
6.41372e+06,70.1896,1,2.68592
6.46959e+06,135.618,1,2.73786
6.56208e+06,38.3112,1,2.8221
6.71073e+06,68.7812,0,2.55789
6.74618e+06,3.41659,0,2.87897
0,3.44563,0,2.85324
6.75352e+06,13.6896,1,2.93007
6.79194e+06,11.0268,2,2.46195
6.83263e+06,46.1759,0,2.61882
6.87653e+06,6.53436,1,2.71831
6.8787e+06,94.5561,1,2.88381
6.91172e+06,161.36,0,2.80439
6.92314e+06,13.117,2,2.58279
7.09338e+06,98.4419,2,2.8634
7.16728e+06,18.3362,1,2.81269
7.16815e+06,113.57,0,3.06069
7.29282e+06,30.0469,2,3.04117
7.30093e+06,34.209,1,2.48246
7.3021e+06,122.298,1,2.75529
7.49056e+06,57.5002,1,2.65496
7.53601e+06,54.4446,0,2.80612
7.76778e+06,20.5541,1,2.98024
7.82627e+06,17.0108,0,2.80546
7.9908e+06,39.6443,0,2.59
8.10649e+06,12.2796,0,3.0109
8.11553e+06,2.67662,1,2.93176
8.19004e+06,135.351,2,3.04094
8.25926e+06,213.836,1,2.81676
8.69358e+06,115.374,0,2.74384
8.7137e+06,34.6212,0,2.89107
9.03123e+06,20.5012,0,2.6803
9.27201e+06,216.953,0,2.88736
9.48872e+06,23.4941,0,2.5153
9.5615e+06,12.7362,2,2.72699
9.97272e+06,100.314,0,2.88592
1.00081e+07,5.80377,0,2.68528
1.00231e+07,101.762,2,2.56592
1.0317e+07,51.2453,0,2.85185
1.0347e+07,263.941,0,3.01412
1.04064e+07,161.131,2,2.8457
1.0763e+07,57.0267,0,2.43719
1.07988e+07,65.4184,0,2.96497
1.09277e+07,146.111,2,2.48584
1.11348e+07,119.537,2,2.80392
1.13188e+07,155.129,1,2.71231
1.13299e+07,37.7167,2,2.90648
1.14498e+07,10.5722,1,2.62125
1.14728e+07,113.676,0,2.75514
1.15141e+07,223.437,1,2.40899
1.1563e+07,67.04,1,2.56837
1.15646e+07,21.4162,0,2.44409
1.15937e+07,5.63782,0,2.96662
1.16614e+07,14.5844,0,2.61234
1.16756e+07,30.2095,2,2.39259
1.17721e+07,146.56,0,2.90278
1.18799e+07,3.82513,0,2.9417
1.20558e+07,72.8789,2,2.60095
1.20788e+07,46.2136,1,2.98831
1.20796e+07,124.249,2,2.73745
1.2085e+07,12.704,1,2.96525
1.21005e+07,51.1873,0,2.9775
1.21283e+07,153.99,0,2.62727
1.21456e+07,35.5405,1,2.76661
1.24487e+07,64.7823,0,2.59287
1.25193e+07,28.7538,2,2.56641
1.25439e+07,38.563,2,2.74963
1.27351e+07,36.3093,2,2.70463
1.29079e+07,43.8621,1,2.4312
1.30991e+07,170.197,1,2.7356
1.31614e+07,89.1417,1,2.88328
1.32478e+07,177.819,0,2.76781
1.32902e+07,146.253,2,2.95707
1.32927e+07,66.7505,0,2.81452
1.33393e+07,41.7004,2,2.39299
1.3468e+07,3.12455,1,2.90924
1.35019e+07,82.5849,1,2.53017
1.35229e+07,162.233,2,2.70406
1.37105e+07,2.22901,2,2.42424
1.37723e+07,49.0079,1,2.60366
1.38106e+07,10.7764,0,2.78037
1.38235e+07,44.1528,0,2.65036
1.38879e+07,202.689,1,2.82883
1.39082e+07,12.2214,0,2.47778
1.40225e+07,37.4472,1,2.4336
1.41618e+07,15.4937,1,2.50678
1.41696e+07,89.4615,1,2.55687
1.4372e+07,72.6394,0,3.01795
1.51065e+07,3.71879,2,2.88504
1.52718e+07,49.1628,2,2.85161
1.54242e+07,52.3482,1,2.50191
1.54477e+07,68.3558,0,2.5149
1.55007e+07,84.8374,2,2.36818
1.57393e+07,88.2287,2,3.03769
1.58049e+07,232.229,0,3.05906
1.58947e+07,26.4605,1,3.02396
1.59034e+07,112.11,1,2.87942
1.59188e+07,81.1384,2,2.4683
1.59522e+07,22.665,1,2.38655
0,22.7324,1,2.63426
1.60723e+07,192.739,2,2.52266
1.61625e+07,132.833,1,2.44243
1.65536e+07,2.90193,2,2.55393
0,2.92052,2,2.85874
0,2.92251,2,2.50395
1.66505e+07,7.31096,0,3.01977
1.66805e+07,154.355,2,2.9872
1.66863e+07,2.52823,0,2.76011
0,2.51927,0,2.60115
1.67059e+07,133.632,2,2.87803
1.68047e+07,44.1097,2,2.46605
1.68506e+07,13.6641,0,2.84098
1.69769e+07,64.0932,0,2.40007
1.72166e+07,19.0537,0,2.88938
1.72318e+07,35.2292,1,2.489
1.73835e+07,5.81788,1,2.86353
1.7504e+07,82.4694,1,2.51744
1.75495e+07,78.453,0,2.40249
1.76855e+07,53.3859,1,2.62528
1.78329e+07,34.1834,1,2.49746
1.78472e+07,108.722,1,3.05389
1.79766e+07,136.736,2,2.69142
1.82006e+07,13.8697,2,3.04395
0,13.7121,2,2.96858
1.82119e+07,60.7226,2,2.45765
1.83052e+07,62.0803,2,2.61711
1.84642e+07,15.8655,1,2.82925
0,15.1947,0,2.92968
1.85093e+07,91.4712,2,3.016
1.85725e+07,88.587,0,2.94524
1.86854e+07,19.0531,0,3.01922
1.87141e+07,111.203,1,2.78824
1.87751e+07,104.777,0,2.70815
1.87887e+07,21.4414,2,2.52933
1.8904e+07,41.8105,2,2.37757
1.90892e+07,8.34503,2,2.93087
1.91039e+07,123.616,1,2.81768
1.92965e+07,30.0551,1,2.90864
1.9404e+07,70.6938,0,2.59691
1.95686e+07,21.6336,1,2.85297
1.9594e+07,32.0953,2,2.51698
1.96191e+07,30.3659,1,2.93992
1.98877e+07,100.116,2,2.65654
2.02245e+07,64.1909,0,2.59262
2.05113e+07,43.9407,0,2.99604
2.05185e+07,66.4756,0,2.98023
2.05551e+07,23.947,1,2.78308
2.06175e+07,17.4531,0,2.7806
2.06448e+07,40.2537,2,2.72322
2.06488e+07,10.9008,2,2.39195
2.07727e+07,7.95999,1,2.76587
2.07919e+07,148.703,1,2.89337
2.08076e+07,64.4192,0,2.94734
2.08163e+07,18.5746,2,2.89455
2.08167e+07,167.47,0,2.76917
2.09111e+07,43.9314,1,2.80628
2.1117e+07,2.11661,0,2.91971
0,2.06684,0,2.48112
2.11729e+07,13.9235,2,2.88449
2.12572e+07,241.604,0,2.73712
2.14046e+07,5.19726,0,2.80916
2.14108e+07,29.9518,1,2.79554
2.14775e+07,23.9158,0,2.4091
2.14778e+07,65.4514,0,2.94316
2.17116e+07,157.748,2,2.68744
2.1977e+07,163.386,2,2.66648
2.19993e+07,28.5864,0,2.72919
2.20515e+07,88.4666,2,2.48461
2.20789e+07,182.996,0,2.62911
2.23865e+07,30.0144,0,2.93229
2.24319e+07,143.261,0,2.86594
2.2549e+07,194.887,1,2.38467
2.25783e+07,70.5626,2,2.97923
2.26545e+07,24.0735,2,2.71063
2.29886e+07,10.8642,2,2.7271
2.31897e+07,126.335,2,2.96995
2.32379e+07,5.75152,0,2.79581
2.32463e+07,122.356,1,2.57136
2.3325e+07,1.56896,1,2.67533
0,1.57506,1,2.79029
2.33385e+07,14.8317,1,2.67236
2.34154e+07,6.59226,2,2.99098
2.34801e+07,83.2214,0,2.59583
2.37457e+07,134.442,0,2.85314
0,134.508,0,2.86872
2.39192e+07,121.298,1,2.93944
2.39453e+07,30.1476,2,2.68124
2.39548e+07,157.525,2,2.55818
2.39881e+07,139.295,1,2.55976
2.40799e+07,44.8932,0,2.75311
2.4136e+07,19.5089,0,2.65032
2.41712e+07,66.2939,0,2.9192
2.43351e+07,9.1308,1,2.99293
2.43628e+07,192.847,0,2.76091
2.44991e+07,31.1798,0,2.66123
2.46602e+07,28.5743,1,2.57909
2.49836e+07,56.7808,1,2.81676
2.49901e+07,75.8295,0,2.43956
2.50794e+07,108.431,2,2.90594
2.54177e+07,56.7415,0,2.84717
2.55601e+07,90.1775,0,2.80512
2.57249e+07,7.91611,2,3.05888
2.58573e+07,103.075,1,2.38497
2.59359e+07,48.2164,0,2.59511
2.59524e+07,77.5625,2,2.59604
2.60038e+07,180.604,2,2.43859
2.60236e+07,23.1176,0,2.8832
0,23.1288,0,2.84117
0,22.9193,0,2.57636
2.61809e+07,21.1466,0,2.67594
0,21.2029,0,2.90033
2.62058e+07,23.1591,0,2.95377
2.64179e+07,117.379,2,2.63014
2.65547e+07,22.6583,0,2.83986
2.66897e+07,226.374,0,2.57248
2.67628e+07,66.7281,1,2.7484
2.68053e+07,14.2084,1,2.7205
2.69443e+07,21.9191,0,2.71394
2.69673e+07,34.0843,1,2.76311
2.69682e+07,133.063,2,2.59836
2.72222e+07,121.638,0,3.00375
2.72438e+07,5.16903,1,2.97351
2.72531e+07,9.90878,1,2.82605
2.7255e+07,106.312,0,2.6503
2.73242e+07,126.347,0,2.51401
2.73763e+07,3.15884,2,2.7061
2.73892e+07,64.3812,1,2.85375
2.75864e+07,82.4014,2,2.81157
2.77837e+07,81.1225,1,2.92894
2.81091e+07,111.031,2,2.73486
2.81625e+07,37.7595,0,2.89404
2.81634e+07,15.0159,0,3.01605
2.8203e+07,95.1273,1,2.46274
2.8204e+07,118.989,1,2.88603
2.82076e+07,100.61,0,2.4933
2.82589e+07,7.37417,1,2.9487
2.82767e+07,63.6186,2,2.8194
2.83909e+07,66.8183,0,2.62837
2.8441e+07,2.69064,0,2.56281
0,2.7339,0,2.86235
0,2.68322,0,2.53524
2.85085e+07,202.428,2,2.71031
2.86747e+07,13.7083,0,2.84565
2.87427e+07,74.7649,1,2.40558
2.88425e+07,76.1095,2,2.67449
2.88842e+07,21.5482,0,2.60214
2.89208e+07,105.874,1,2.68348
2.92455e+07,59.799,1,2.64532
2.92513e+07,24.378,0,2.94962
2.9257e+07,24.1383,2,2.97941
2.93459e+07,32.0516,2,2.9253
2.94368e+07,172.196,2,2.46815
2.97977e+07,60.1179,1,2.54019
2.98982e+07,163.5,2,2.82481
2.99268e+07,191.086,2,2.6024
