#class tools::wcsv::ntuple
#title time
#separator 44
#vector_separator 59
#column double eventID
#column double t(ns)
#column double copynumber
#column double energy(eV)
#column double x(mm)
#column double y(mm)
#column double z(mm)
55246,14.7277,1,2.85473,1843.53,2182.46,-27499.1
177776,156.778,0,3.02708,17591.8,-27778.5,-29145.9
254944,141.527,2,2.8484,-7146.63,-17990.6,-6182.84
457517,231.893,2,2.8748,18027,13957.6,14157
549900,48.8608,2,2.77071,-3359.54,-4335.5,-20057.2
681512,58.7619,2,3.06134,2223.71,-10886.8,-23357.2
965879,26.9487,0,2.36269,3289.18,287.081,-24127.4
1.5025e+06,198.223,0,2.94159,-7841.02,19011.7,7299.03
1.80219e+06,66.6646,0,2.62684,9668.61,-7211.73,-21478.2
2.06314e+06,130.201,2,2.36323,-10.1105,23494.2,-14531.4
2.38633e+06,142.523,1,2.62888,20161.7,8970.63,-8408.87
2.50269e+06,0.0743107,2,2.22726,-86.9968,-90.9681,-28849.4
0,0.061961,2,3.11842,0,0,0
0,0.0303622,2,2.44212,0,0,0
0,0.0352548,2,3.67133,0,0,0
0,0.0322779,2,2.38514,0,0,0
0,0.0685733,2,2.50764,0,0,0
0,0.0589013,2,3.46436,0,0,0
0,0.0293963,2,2.31785,0,0,0
0,0.0497157,2,2.55391,0,0,0
0,0.0341135,2,2.37981,0,0,0
0,0.0290565,2,4.06648,0,0,0
0,0.0685513,2,3.28768,0,0,0
0,0.0369673,2,2.62723,0,0,0
0,0.0520399,2,2.8934,0,0,0
0,0.0281144,2,3.16093,0,0,0
0,0.0317809,2,3.97219,0,0,0
0,0.0325269,2,3.02691,0,0,0
0,0.075729,2,2.66922,0,0,0
0,0.0306636,2,3.33728,0,0,0
0,0.0278046,2,3.41393,0,0,0
2.51373e+06,11.4809,2,2.90157,-2036.31,-473.047,-27481.4
2.66883e+06,124.105,2,3.06031,7147.67,-14645.5,-8549.5
3.24672e+06,82.3645,0,2.56902,7832.43,-1135.38,-13287.5
3.37246e+06,234.024,0,2.94531,153.183,1876.23,-12861.8
3.40577e+06,11.9625,0,2.8212,-612.398,1292.31,-26756
3.51368e+06,10.7163,0,2.75835,2210.45,-481.7,-28130.3
3.71661e+06,35.2459,1,2.65321,2882.2,-1519.38,-22167.9
3.86356e+06,39.502,2,2.94527,6877.57,-3843.15,-26161.9
3.93623e+06,74.3816,0,2.50681,7533.39,-11152.4,-20580
4.22178e+06,113.371,1,2.38545,8885.46,19755.3,-18449.6
4.5938e+06,38.1754,1,3.03416,-5426.24,2730.5,-23526.6
4.64347e+06,76.8707,2,2.5688,-7420.76,-13793.4,-24156.4
4.9345e+06,6.67876,2,2.63923,-663.459,533.905,-27682.6
5.15721e+06,18.8963,0,2.54572,2972.18,2770.02,-29207.1
5.5117e+06,12.1247,0,2.4921,-324.097,1309.91,-26673.7
5.7442e+06,32.702,0,2.49026,5049.66,32.2153,-24001.1
6.14842e+06,5.77693,2,2.91569,391.473,-1235.81,-28648.3
0,5.74886,2,2.39803,0,0,0
6.28089e+06,2.19419,0,2.60367,219.316,-458.188,-28675.9
6.5156e+06,170.829,2,2.62436,-13136,-25462.6,-6835.22
6.62912e+06,57.623,2,2.46223,-12028.1,-1954.94,-27548.3
6.73029e+06,100.764,2,2.94257,16128.1,-12408.3,-22954.8
6.87929e+06,23.0634,0,2.81067,-686.957,3974.33,-26163.9
7.05377e+06,29.1631,0,2.67773,5774.41,-542.385,-26560.5
7.09807e+06,135.167,0,2.86693,12653,-25471.8,-29753.9
7.13125e+06,29.1659,1,2.59417,-3996.41,4301.68,-26672
7.15273e+06,6.1448,1,2.58373,-239.805,933.368,-27852
7.15845e+06,3.64492,2,2.82235,-236.397,-189.95,-28096.4
7.64723e+06,31.1326,0,2.6166,5211.51,-4108.83,-29600.3
7.73843e+06,140.517,2,2.81042,4860.29,-17922,-5799.41
7.73944e+06,6.04251,1,2.89526,-1063.04,855.901,-28696.6
0,6.04383,1,2.73799,0,0,0
7.94955e+06,50.844,1,2.53216,6168.46,-2376.13,-20373
7.96824e+06,78.4467,2,3.00975,-3291.78,-11139.5,-17096.9
7.97087e+06,215.943,2,2.73029,8604.73,-17936.2,10132.2
8.07444e+06,7.19752,1,2.67973,-1165.71,1055.14,-29106.1
8.08096e+06,99.3188,0,2.4427,-3785.63,-19351.2,-21579.6
8.33507e+06,48.9425,2,2.59855,7721.25,6286.74,-26285.9
8.53744e+06,76.4927,2,2.9083,-16015.5,905.602,-27296.5
8.90653e+06,64.8677,0,2.83197,-4874.57,5398.5,-17340.8
9.22858e+06,70.8394,0,2.97635,9502.71,11321.1,-26725.7
9.4082e+06,11.9023,1,2.49545,536.03,2340.85,-29815.1
9.5157e+06,93.7088,1,2.37701,-13419.1,9949.95,-18028.7
9.71813e+06,7.12046,1,2.5763,1243.54,96.454,-28028.3
9.78556e+06,113.357,0,2.89774,3639.97,15118.1,-10765.1
1.031e+07,142.191,2,2.89035,-29805.8,791.978,-26469.4
1.04359e+07,26.219,2,2.53863,-2236.81,-1486.79,-23931.5
1.06942e+07,24.5888,2,2.38382,2871.16,-3571.09,-26305.1
1.07524e+07,15.0918,2,2.66341,-3087.89,-787.824,-28287.2
1.0847e+07,67.6418,2,2.41071,12349.3,1694.7,-21872.5
1.08859e+07,26.4391,0,3.0175,-3880.64,-2670.35,-26034.6
1.11858e+07,143.624,1,2.59048,-21327.9,18746.8,-17921.3
1.12056e+07,57.1365,1,2.39099,4611.98,5962.43,-19369
1.12611e+07,2.89157,2,2.99099,-410.534,-468.143,-28543.2
0,2.8648,2,2.9121,0,0,0
0,2.81552,2,3.00445,0,0,0
0,2.8596,2,2.70242,0,0,0
1.14494e+07,41.8721,2,2.54452,-3669.56,-8149.89,-28119.4
1.14964e+07,2.82471,1,3.01034,-199.434,-361.808,-28456
1.19e+07,271.352,2,2.71736,-27522.6,-27412.2,8495.91
1.24309e+07,34.0714,0,2.72439,5199.24,-3824.41,-25513.2
1.24573e+07,92.2914,2,2.63382,-12646.5,13292.2,-22287.3
1.2496e+07,22.7304,2,2.63484,984.36,-1857.41,-24519
1.29809e+07,116.688,0,2.81228,12961.5,-1444.73,-7978.64
1.35965e+07,10.6561,1,2.66103,-2236.58,471.591,-28386.1
1.38889e+07,302.072,0,2.84056,-25607.2,-1735.81,-29137.8
1.39015e+07,74.1445,2,2.74191,-7351.29,5986.68,-16402.3
1.4737e+07,167.477,2,2.95116,3095.76,26744.5,-6350.8
1.50517e+07,143.093,1,2.47422,-10123.8,20848.9,-9274.54
1.52254e+07,139.381,1,2.43152,-5966.73,-27470.2,-20155.5
1.52466e+07,23.5208,0,2.94358,4916.52,-825.04,-28051.7
1.56402e+07,57.9658,1,2.40524,2056.11,8713.73,-20371.4
1.60408e+07,110.115,1,2.65607,-345.336,-21541.4,-20265.9
1.61043e+07,126.807,1,2.8319,-12627.1,19129.2,-15090.1
1.61713e+07,57.4418,0,2.39607,7289.69,6754.67,-21719.4
1.6315e+07,57.3626,2,2.77106,10656.7,1293.38,-23358.9
1.73573e+07,15.6155,2,2.95931,-1663.63,-670.665,-26031.5
1.776e+07,26.5452,2,2.52735,-2092.27,-3448.12,-24835
1.791e+07,122.651,2,3.0535,9321.07,17686.2,-20345.6
1.79901e+07,8.90265,1,3.01002,-265.508,1032.58,-27250.7
1.82477e+07,26.3525,2,2.68838,-3938.95,-3989.84,-29686
1.90953e+07,84.246,0,3.04322,12204.6,12372.1,-25480
1.92548e+07,34.3037,1,2.8347,-397.153,-3993.35,-22873.4
1.94567e+07,101.161,2,2.80747,-3326.43,-7409.8,-9124.77
1.97918e+07,77.267,1,2.77533,-11797.9,-7160.55,-20194
2.00001e+07,27.773,0,2.4232,2943.84,4429.49,-26249
2.0361e+07,20.5464,1,2.73761,2669.21,-267.222,-25472.6
2.06193e+07,22.9078,0,3.06026,2422.04,-2669.58,-25816.7
2.0663e+07,40.5738,2,2.41394,8117.2,114.87,-26117.7
2.08167e+07,24.3004,2,2.79895,3848.98,-2730.96,-26797.9
2.09536e+07,41.3042,0,2.95866,8110.66,1822.54,-26057.8
2.10835e+07,24.9351,0,2.56422,-3989.54,-1003,-25616.3
2.11923e+07,188.775,0,2.56156,16249,19509.8,1983.65
2.12727e+07,32.8405,1,2.93232,-1221.11,6562.16,-26740
2.23125e+07,38.5103,2,2.38031,-8007.99,-1512.48,-29879.1
2.24057e+07,11.6406,2,3.05277,1181.37,-741.228,-26797.2
2.24889e+07,127.019,0,2.41178,16913.3,6543.48,-8912.74
2.25036e+07,99.5675,1,2.4497,16315.4,7201.73,-17620.1
2.25977e+07,135.428,1,2.85552,-15703.8,-9419.19,-7018.12
2.27851e+07,53.1886,2,2.36464,-5446.71,9372.11,-25927.3
2.34268e+07,132.334,2,2.8879,14480.5,9507.85,-7137.72
2.34662e+07,1.77973,1,2.45889,-305.426,346.308,-28748
2.35788e+07,58.3547,2,2.55335,6639.88,-10020.8,-25799
2.36214e+07,15.5176,0,2.46914,-1220.36,2958.98,-28097.6
2.3881e+07,57.4942,2,2.82276,-5948.1,4087.39,-19115.6
2.41026e+07,1.5524,1,2.90727,-112.718,395.108,-28943.7
2.41577e+07,21.9057,2,2.73858,181.254,-4082.3,-26505.9
2.419e+07,48.2385,2,2.70556,-6868.44,-6952.83,-25686.6
2.439e+07,39.9803,1,2.57333,5325.77,-2683.5,-22901.4
2.50671e+07,56.6569,0,2.51042,11237.3,-2032.88,-24938.6
2.50981e+07,24.2984,2,2.42473,-1523.71,-4565.42,-26805.7
2.51203e+07,22.1741,0,2.40802,4587.08,1382.57,-28653.2
2.51216e+07,5.28652,1,2.72593,229.431,1015.65,-28278.8
2.51839e+07,219.358,2,2.54882,-12908,-12287.4,-27161
2.55083e+07,145.913,1,2.73446,-18159.1,22429.5,-17982.5
2.57857e+07,48.2418,2,2.36965,-4750.67,9025.86,-28729.6
2.59656e+07,54.6855,0,2.39829,9903.06,3891.42,-24060.4
2.67423e+07,42.2382,1,2.89501,170.234,5203.91,-21612.6
2.6988e+07,16.1945,2,2.96214,-20.9865,1582.54,-25850.9
2.72178e+07,112.877,0,2.70731,18438.2,-3482.52,-14101.4
2.72635e+07,242.978,2,2.53746,12525.9,-24926.8,-22725.3
2.76353e+07,42.0647,2,2.69027,-4754.28,1594.92,-21505.9
2.82841e+07,131.595,2,2.82594,-1845.53,20364.3,-10253.3
2.85526e+07,50.8439,1,2.70729,10333.2,-921.842,-26257.3
2.87595e+07,33.455,1,2.71172,-2192.64,5910.5,-25467.9
2.88531e+07,129.585,0,2.83214,15824.6,15549.4,-12914.6
2.8948e+07,12.4322,1,2.62807,1000.5,1214.78,-26697.4
2.90556e+07,93.4513,1,2.51621,-16682.5,9301.29,-23538.4
2.94915e+07,47.2177,0,3.03475,-8294.3,-141.007,-23552.9
2.97866e+07,36.0033,1,2.73365,151.139,4585.43,-22716.5
3.0136e+07,75.5794,1,2.45666,-10393.5,-11732.5,-25706.3
3.0558e+07,178.206,1,2.64559,27483.8,18004.8,-10529.4
3.05896e+07,79.161,2,2.68118,5742.83,4038.57,-13701.8
3.05917e+07,20.5094,2,2.64746,7.9235,-4402.53,-29242.8
3.06077e+07,147.698,2,2.89824,-3701.23,14814.4,-1876.62
3.06789e+07,20.972,2,2.99557,2470.82,-845.043,-26508.1
3.06875e+07,151.143,1,2.98159,-28199.5,1804.25,-14360.9
3.07056e+07,104.751,0,2.88563,22.5027,147.756,-28800.1
3.17418e+07,87.4339,2,2.86421,-7567.88,-2695.26,-12265.7
3.18825e+07,174.981,0,2.41432,-17945.5,-11150.6,1528.09
3.20531e+07,43.7945,2,2.49788,-2233.53,-4066.93,-20769.7
3.21886e+07,17.037,2,2.49375,723.577,1443.54,-25640
3.24007e+07,135.427,2,2.4295,-27500.6,-7686.45,-25705.8
3.24284e+07,105.825,2,2.95245,-14662.1,8880.98,-14710.1
3.25773e+07,65.1088,2,2.6282,-8728.02,-10736.1,-28029.6
3.26678e+07,73.1783,1,2.41985,-2447.96,7436.72,-15420.2
3.26855e+07,3.90127,1,2.86507,-805.981,-261.609,-29041.8
3.33927e+07,131.823,1,2.50492,23669.7,11741.6,-19883.2
3.34371e+07,124.474,1,2.62439,-24378.5,-5197.67,-20686.3
3.34592e+07,78.7252,2,2.49898,-4476.61,-6516.9,-14136.2
3.34885e+07,36.7462,2,2.54092,-1861.12,-3213.81,-21957
3.35002e+07,18.6388,1,2.52353,-2894.22,-1966.45,-26975.9
3.37645e+07,19.2341,0,2.44122,3142.62,1837.53,-26839
3.37855e+07,19.9107,0,2.70061,3740.37,-1149.71,-27059.3
3.44027e+07,4.57833,0,2.52373,-282.62,336.21,-27990
3.4421e+07,66.9088,2,2.92723,-3953.49,-12315.8,-23122.4
3.45578e+07,147.709,1,2.98745,-7988.16,9032.67,-17773.8
3.48201e+07,52.7827,0,2.54,6006.31,-294.788,-19387.3
3.488e+07,18.4605,1,2.87631,-1978.26,2569.68,-26541.3
3.52475e+07,104.844,1,2.44466,-6833.88,21193.6,-28062.8
3.53178e+07,132.256,2,2.91357,-19183.1,-9093.87,-13549.8
3.53288e+07,3.48412,0,2.36668,-238.426,314.442,-28216.4
3.53303e+07,174.804,0,3.05035,6946.5,614.234,-26328.8
3.53781e+07,35.6741,0,2.9358,4658.3,-3364.13,-23977.6
3.54378e+07,54.5311,0,2.46715,4577.43,8766.06,-22853.3
3.54506e+07,1.45894,2,2.7893,-248.108,-67.5767,-28575.6
3.54628e+07,24.4124,0,2.88436,1303,-4511.49,-26688.5
3.55135e+07,55.1838,0,2.93641,4487.94,607.221,-18145.9
3.58156e+07,55.8243,0,2.96294,-2006.32,9629.28,-22499
3.58662e+07,53.1174,2,2.85489,-2427.76,-6512.36,-20016.1
3.63275e+07,109.754,2,2.98108,3200.27,-20473.5,-18652.1
3.65129e+07,150.265,0,2.78303,15133.2,11767.9,-3625.25
3.65422e+07,99.8149,0,2.42514,-3512.48,161.662,-22988.5
3.67143e+07,22.9963,2,3.0615,-1074.57,-2169.79,-24600.9
0,22.9412,2,2.87538,0,0,0
3.68917e+07,5.35398,1,2.67585,-292.316,230.928,-27726.8
3.75832e+07,67.6812,1,3.03039,-1569.99,-2891.08,-24744.2
3.7594e+07,52.6167,1,3.04764,4054.79,6327.07,-20719.4
3.76497e+07,16.5903,0,2.4807,2498.55,2230.45,-27522.6
3.79728e+07,24.3671,1,2.45771,2667.75,4363.61,-27758.7
3.81384e+07,59.9641,0,2.46669,10077.6,-2889.9,-21557.3
3.82145e+07,42.9023,2,2.77177,-5650.01,-5268.11,-23999.6
3.83861e+07,2.26735,1,2.71178,402.43,150.045,-28634.4
3.84634e+07,40.6086,2,2.82705,5929.99,-5057.75,-25231.4
3.859e+07,37.4046,2,2.62305,-5867.67,-204.847,-23467.3
3.90893e+07,54.1285,2,2.5856,6245.92,-1937.47,-28208
3.92107e+07,52.6685,1,2.86509,-7092.98,-555.921,-20839
3.92269e+07,92.0267,1,2.77489,13157.3,7760.29,-16900.8
3.92896e+07,106.805,1,2.84374,-15840.5,15343.7,-24265.9
3.94676e+07,104.157,0,2.86111,-18713.8,2731.63,-17932.7
3.97466e+07,147.014,2,2.47918,20869.3,-18880.5,-15527.8
4.08247e+07,25.7342,0,2.65225,2372.21,-1158.57,-24050.2
4.09335e+07,24.4079,2,3.06011,2864.12,-1910.21,-25012.1
4.09468e+07,14.2857,2,2.65117,-1525.66,-1090.24,-26399.2
4.10544e+07,34.5876,2,2.84625,-2340.86,-3404.38,-22778
4.12247e+07,99.4493,2,2.9899,7092.86,-18386.5,-21840.1
4.13777e+07,3.9403,1,2.6863,-265.24,-400.092,-28185.4
4.13996e+07,88.3609,1,2.99559,-2122.7,14933.2,-18186.4
4.18622e+07,81.4652,0,3.00087,-416.228,-15892.9,-22576.2
4.1881e+07,57.5886,0,2.88733,9961.31,-6612.47,-26430.9
4.19888e+07,4.75149,1,2.61889,351.106,-160.873,-27916.2
4.23212e+07,108.27,2,2.59005,-4531.09,-8600.05,-8094.55
4.23549e+07,77.1815,0,2.97979,-2886.91,8879.38,-16868.3
4.25268e+07,98.1558,2,3.03431,11031.8,2722.36,-11723.4
4.27351e+07,18.637,2,2.52752,5.71856,-3997.06,-29342.1
4.28625e+07,155.943,0,2.72004,25359.2,-20285.2,-23501.2
4.29088e+07,131.405,2,2.46907,8575.52,-17642.9,-9081.96
4.33494e+07,29.1874,1,2.38595,-4687.86,2077.73,-25281.5
4.35009e+07,82.6452,0,3.01571,-6454.92,8378.42,-15129.8
4.36027e+07,5.24996,1,2.7326,-78.5062,-835.85,-28137.1
4.42176e+07,165.51,1,2.95853,-13734.5,9226.99,-27815.5
4.42497e+07,12.4596,1,2.40712,1588.77,622.562,-26804.8
4.43055e+07,107.814,0,2.74097,5740.19,11265.7,-9926.51
4.49185e+07,31.368,0,2.50784,6066.51,-2022.89,-26768.6
4.49379e+07,40.6931,1,2.65865,4501.23,1791.16,-21756.1
4.5528e+07,86.4664,2,2.99909,-16208.6,365.638,-21275.7
4.5576e+07,55.9094,0,2.62678,-4910.09,-2689.56,-18662
4.58078e+07,11.3753,2,2.7774,1453.75,1216.74,-27418.9
4.5916e+07,45.3394,0,2.4003,-242.424,7590.55,-22934.3
4.59381e+07,96.4338,1,2.74061,-938.94,11765.6,-12235.9
4.62771e+07,62.575,0,3.0003,-1091.83,13081,-28558
4.71635e+07,67.6466,0,2.50767,-1842.48,7512.01,-16824.1
4.7408e+07,26.5118,2,2.98228,4877.92,-1698.01,-26710.7
4.74233e+07,7.60369,2,2.7857,-210.218,-1585.12,-29448.9
4.77007e+07,132.715,0,2.49586,23910.9,-4532.01,-14738.1
4.77999e+07,18.727,2,2.47886,-2719.36,-1721.83,-26407.6
4.81476e+07,47.3752,2,2.49611,2086.25,-6464.41,-21407.4
4.81703e+07,5.3895,0,2.98746,338.235,-1004.83,-29361.5
4.8272e+07,21.315,0,2.78388,695.494,-4184.02,-27317.3
4.84586e+07,129.527,1,2.74867,12770.8,-20665.6,-16616.4
4.8592e+07,8.10189,2,2.54591,-756.724,-827.747,-27460
4.87091e+07,50.781,0,2.93455,6828.85,-2937.65,-21096
4.88527e+07,228.394,1,2.62907,-1618.48,4095.16,-20697.9
4.88715e+07,7.37868,2,2.5871,-582.837,-927.501,-27615
4.90042e+07,11.9718,1,2.67453,-801.671,-2215.62,-28053.7
4.91418e+07,106.078,0,2.40365,-9516.84,3155.42,-8773.62
4.94181e+07,12.4742,2,2.79229,1050.79,-2317.93,-27912.4
4.97915e+07,39.3744,0,2.99448,3470.05,-3892.12,-22376.1
4.99148e+07,264.741,2,2.95388,-2603.43,-22350.9,21925.8
5.08457e+07,52.0053,2,2.93673,-10147.6,-2223.84,-25229.1
5.12717e+07,109.516,0,2.6057,6434.5,3533.18,-24314.9
5.14585e+07,40.1741,1,2.90108,6252.36,4477.52,-25330.9
5.1787e+07,6.44067,0,3.00737,613.102,625.274,-27749.2
5.18565e+07,25.4519,1,3.04745,-3755.25,3923.34,-28443.1
5.21629e+07,85.2577,2,2.57544,6290.92,4059.69,-12499.4
5.22237e+07,138.228,1,2.50067,-246.616,12673.7,-2468.08
5.22543e+07,141.818,2,2.80469,11546.4,-14239.8,-5251.93
5.25421e+07,161.995,2,2.82828,-23683.7,-24579.7,-28214
5.2715e+07,122.405,0,2.99034,23883.8,-2183.46,-19553.2
5.27717e+07,10.2964,1,2.7858,1881.27,-877.491,-28327.3
5.2787e+07,34.1615,0,2.71828,-4845.59,-3719.82,-25082.5
5.30203e+07,58.3645,2,2.4155,1196.66,7502.07,-19152.5
5.30881e+07,136.592,0,2.62798,25137.7,-1674.34,-14657.7
5.35274e+07,63.8953,1,2.99656,5768.51,7062.13,-18997.5
5.35531e+07,69.2974,0,2.45271,13005,-5202.53,-24253.3
5.35633e+07,40.3406,1,3.02381,2571.07,7539.17,-25777.6
5.36031e+07,46.3763,0,2.62407,-1883.72,-8632.69,-24612.7
5.38204e+07,199.898,2,2.7255,-6510.64,-20637.2,7346.26
5.38249e+07,77.2064,2,2.7719,-788.499,-11925.3,-17721.2
5.38623e+07,45.6204,2,2.74982,-6812.04,-5205.01,-24292.5
5.38652e+07,102.072,1,2.54192,-20157,1658.94,-21121.4
5.39575e+07,87.0386,1,2.56441,11316.1,11414.4,-19831
5.42687e+07,32.6235,2,2.3736,5332.23,1087.77,-24624.3
5.43962e+07,106.97,2,2.74226,-12152.9,-17601.8,-21478.2
5.45626e+07,88.2535,1,2.63014,-12364.4,3138,-15178.6
5.47179e+07,14.5309,0,2.8477,-1168.19,527.11,-26083.2
5.48815e+07,8.69149,0,2.58418,-1521.28,-36.2996,-27944
5.49715e+07,61.3619,2,2.63347,8774.81,-9541.31,-29554.1
5.49955e+07,4.69059,0,2.5584,776.472,-158.104,-28115
5.50877e+07,257.667,0,2.58996,29858.9,28368.9,6792.9
5.53174e+07,29.757,2,2.73541,353.685,-6280.04,-27840.2
5.53539e+07,86.4223,1,2.59415,2943.75,10346.2,-14053.5
5.58842e+07,206.867,2,2.85491,6892.03,-29515.5,2391.64
5.59873e+07,269.341,2,2.59353,-5224.64,25999.4,19786
5.61234e+07,7.73225,0,2.47914,507.403,-185.129,-27249.9
5.61604e+07,60.8503,1,2.70782,11924.6,3128.05,-25254
5.6492e+07,93.7657,0,2.93113,15332.2,-10289.8,-21770
5.67042e+07,18.9574,1,2.79678,-3337.91,-1566.36,-27257.3
5.67105e+07,202.02,0,2.70886,15259.8,-14593.1,8154.89
5.71688e+07,5.29258,2,2.62745,-663.893,-747.647,-29512.5
5.72064e+07,99.2832,2,2.89243,-17769.5,8921.22,-22541.7
5.7328e+07,78.3401,0,2.86341,-2589.14,-16266.3,-28908
5.76427e+07,134.777,2,2.69355,2987.96,-14872,-4758.54
5.78358e+07,81.9568,2,2.56046,-7198.43,-8062.4,-15225.1
5.79476e+07,22.4429,0,2.80738,-512.868,-3317.6,-25510.4
5.79497e+07,69.2736,2,2.48532,-7405.69,3180.57,-16588
5.81421e+07,24.6428,2,2.5725,-3345.93,-2140.45,-25356.7
5.82378e+07,160.161,2,2.70102,-27808.8,-16831.6,-22380
5.86036e+07,28.2941,1,2.52689,717.388,3661.43,-24086.2
5.86891e+07,77.5165,2,2.91514,4649.89,-900.074,-25105.1
5.87159e+07,15.5171,1,2.60065,1229.14,2316.3,-26794.3
5.89142e+07,11.9892,0,2.60121,-510.498,1673.05,-27007.9
5.98388e+07,31.9708,1,2.54366,-3568.75,5824.52,-29196.4
6.00346e+07,44.3403,0,2.90387,1658.99,-8458.46,-25229.7
6.03191e+07,45.7616,1,2.44691,3069.99,6826.08,-22599.2
6.03655e+07,43.6128,2,2.37479,2836.48,-2728.27,-20474.9
6.03931e+07,164.772,0,2.48509,28345.6,-17719,-18761.1
6.04268e+07,22.2605,0,2.9545,364.68,4283.73,-26948.9
6.08669e+07,29.1524,0,2.92048,1686.35,-5890.25,-29435.6
6.08861e+07,111.721,1,2.93944,-4441.38,20748.8,-18646.2
6.09504e+07,83.8949,2,2.77889,-8606.29,7651.55,-15433
6.1019e+07,53.9064,2,2.44438,11295.3,-1043.21,-27716.1
6.13219e+07,14.5454,2,2.76101,232.784,1734.38,-26349.1
6.13377e+07,7.01243,0,2.43902,1432.61,641.512,-28576.8
6.15654e+07,84.7816,0,2.82942,13166,6204.6,-18407.1
6.21564e+07,29.2194,0,3.05555,768.143,-6085.19,-28551.4
6.22738e+07,2.1368,0,2.91106,298.747,-102.184,-28447.7
6.2429e+07,41.8051,1,2.60987,7963.6,1361.9,-25294.5
6.26864e+07,3.76759,0,2.93048,241.097,-276.467,-28118.4
6.31128e+07,20.6285,2,2.54806,2170.32,-3013.7,-26443.7
6.31607e+07,6.72405,2,2.8113,-296.091,780.753,-27701.6
6.3475e+07,3.40408,0,2.87532,717.753,363.331,-28781.9
6.37923e+07,42.9591,1,2.52824,312.772,-3932.87,-20669.7
6.37999e+07,131.811,2,3.0142,-8314.77,-18001.6,-9506.37
6.3977e+07,30.8555,2,2.51565,-2452.17,-5465.51,-26088.8
6.39981e+07,8.97692,2,2.55081,-869.951,-19.108,-27109.1
6.40137e+07,121.425,2,2.49378,-1606.65,-15001.3,-7998.66
6.42207e+07,86.7871,0,2.7779,-12287.3,3674.36,-15872.9
6.43457e+07,47.7083,0,2.73862,-8254.29,-4247.73,-25083.4
6.43544e+07,53.6101,2,2.51586,-7734.3,3596.5,-21341.4
6.46508e+07,131.184,0,2.91039,14496.6,1362.54,-5393.7
6.51753e+07,88.1593,1,2.76541,-2624.43,-9256.18,-12988.2
6.53666e+07,32.2921,0,3.052,4452.59,-2803.07,-24470.6
6.54364e+07,7.94934,0,2.89674,146.541,-1422.01,-27931.5
6.59094e+07,56.0141,1,2.90859,-5578.22,9754.29,-25078.8
6.59541e+07,136.145,1,2.54103,5721.62,23554.3,-13252.4
6.61475e+07,118.329,0,2.86114,-22077,-6798.87,-19818.8
6.67971e+07,133.547,2,2.79237,15069.7,-16769.5,-12049.7
6.70249e+07,37.026,0,2.62992,2988.92,6329.96,-26496.3
6.70705e+07,182.678,2,2.41659,-13381.1,-28744.5,-6605.32
6.72086e+07,179.366,2,2.68113,7520.65,-27373.6,-3757.97
6.74861e+07,93.764,0,2.67379,-8691.97,16380.2,-21996.4
6.75022e+07,32.2704,0,2.48704,-3810.54,-3633.87,-24533.9
6.75278e+07,15.0194,1,2.67728,2472.58,1995.31,-29354.3
6.78247e+07,66.2426,1,2.71993,6915.45,-1338.04,-16782.7
6.78769e+07,9.30835,0,2.39328,853.988,9.9567,-27017.1
6.81006e+07,165.244,0,2.47084,-1863.31,9000.46,-23756.4
6.81033e+07,67.7134,1,2.68885,-8656.69,11471,-28485.2
6.88899e+07,46.6525,1,2.96884,-9072.96,-3453.34,-27261.3
6.88957e+07,38.5988,0,2.79727,-5559.93,-2763.15,-23651.8
6.89192e+07,174.88,1,2.72194,-5322.8,-28337.4,-10954
6.89316e+07,21.0532,2,2.57667,-2058.96,3677.1,-27432.9
6.90887e+07,9.1277,2,2.7185,-1047.42,-356.984,-27217.2
6.92126e+07,53.4309,2,2.97818,-6266.1,3473.55,-20181.9
6.93016e+07,84.5817,1,2.79702,-12487,8224.84,-19056.7
6.9308e+07,7.80309,0,2.9934,101.323,-1172.16,-27661.4
6.94967e+07,117.999,0,2.88272,-3048.89,16112,-10243.8
6.96817e+07,16.143,1,2.3786,1416.04,-1730.96,-26315.9
6.98228e+07,229.688,0,3.04817,-24564.8,-12426.8,-10381.1
6.98297e+07,41.5486,1,2.71441,-8609.47,392.02,-27102.6
6.99035e+07,75.8366,0,2.98251,-14628.9,-2818.81,-23514.1
7.01135e+07,37.9258,0,2.69751,5481.3,5643.79,-27091.6
7.06595e+07,50.7401,1,2.94787,-5249.43,-1466.72,-19659.9
7.0891e+07,38.993,0,2.90119,5777.45,1163.61,-23054.3
7.12743e+07,56.8706,1,2.59092,-10277.4,6289.07,-29787.3
7.13773e+07,33.3219,1,2.85947,-4169.75,-521.296,-23179
7.14153e+07,61.1886,1,2.88764,-5551.09,-6861.82,-19487.9
7.14203e+07,50.7954,0,2.84958,-1657.25,10468,-27441.6
7.14921e+07,86.5821,1,2.88745,-10493.8,11844.8,-19720.1
7.20272e+07,167.667,0,2.82189,23424.5,-25073.1,-20413.9
7.23558e+07,32.7301,0,2.46275,3586.86,248.27,-22869.1
7.24911e+07,16.4276,2,2.36241,-1411.13,-3257.48,-29397.4
7.25268e+07,11.6044,1,2.76273,289.866,2423.91,-28201.3
7.25981e+07,56.435,2,2.81951,-8084.68,1757.24,-20315.5
7.26307e+07,33.9837,2,2.61318,-817.338,4760.05,-23584.3
7.27351e+07,51.908,2,2.79056,4539.23,1561.16,-19058.4
7.28652e+07,89,2,2.59345,2718.84,14893.3,-17759.2
7.2894e+07,107.528,2,2.47889,-22760.9,-1466.68,-29516.1
7.29871e+07,78.2242,1,2.51198,12173.3,11186.2,-29970
7.3124e+07,38.6971,1,2.38811,-6015.05,5110.82,-26293.4
7.35033e+07,114.196,1,2.94708,15748.5,7811.85,-13852.3
7.3878e+07,8.59415,0,2.82207,-801.452,66.8674,-27250.8
7.39387e+07,8.86196,0,3.02549,1247.61,-886.385,-27666.2
7.40073e+07,2.5531,0,3.03401,-33.6522,-330.147,-28401.9
0,2.53892,0,2.85249,0,0,0
0,2.36948,2,2.66054,0,0,0
7.42691e+07,3.32375,1,2.60978,-381.628,538.479,-28411.4
7.45722e+07,45.9526,0,2.69317,7946.15,-4381.57,-25199.9
7.45981e+07,24.2135,1,2.78147,4396.63,-1201.69,-26652.3
7.47934e+07,109.773,0,2.60423,-20344.3,-4587.84,-18823.1
7.48629e+07,34.1032,0,2.38191,3205.17,-1389.21,-22451.9
7.4897e+07,26.5972,2,3.03725,-3694.36,995.196,-24731.3
7.50183e+07,43.6972,2,2.54661,3269.89,-2958.2,-27766.7
7.52312e+07,185.559,1,2.42951,7612.21,14189.5,-20461.4
7.55034e+07,28.0671,1,2.85747,-3990.03,-3631.84,-26410.7
7.59109e+07,44.9102,2,2.38821,973.151,-4480.1,-20463.9
7.60225e+07,32.7561,0,2.66036,4118.8,-2434.68,-23753.7
0,33.5176,1,2.86857,0,0,0
7.61269e+07,149.439,1,2.97505,-12295.8,-21712.2,-9891.7
7.62725e+07,35.0643,2,2.70434,-7153.97,1725.32,-29892.2
7.63216e+07,31.4624,0,2.72387,1407.56,3272.12,-23194
7.63989e+07,46.3438,1,2.84418,-9798.54,-249.981,-28602.9
7.74459e+07,58.0908,2,2.97418,6849.69,598.505,-18806.4
7.74815e+07,36.5218,2,2.40279,5789.29,-3558.15,-25142.5
7.76718e+07,21.9924,0,2.89703,-479.32,2330.44,-24852.4
7.80369e+07,148.301,1,2.9191,16506.4,-10668.2,-4874.11
7.8051e+07,28.5605,2,2.98742,103.216,-5994.02,-29753.7
7.82726e+07,14.5121,2,2.90101,-1839.06,753.41,-26523.1
7.83246e+07,71.5325,1,2.62326,9808.41,7616.83,-20212.7
7.87174e+07,29.8273,1,2.98297,-2815.69,-2823.09,-24005.7
7.87184e+07,6.48603,2,2.51989,-806.556,-866.469,-29719.2
7.88631e+07,49.1627,0,2.59673,4816.53,-3242.23,-20283.7
7.90417e+07,28.6294,0,2.49518,-1833.6,5463.43,-26948.4
7.92809e+07,73.5378,2,2.78386,-14427.9,-2028.64,-23384.8
7.92867e+07,50.9548,1,2.97523,-3773.44,-9040.82,-24599.1
7.96084e+07,39.8801,1,2.67435,-331.247,-3756.66,-21367.4
7.97023e+07,43.7113,1,2.70471,-6254.43,-6513.8,-27028.6
7.99664e+07,83.359,2,2.64142,-16680.8,1542.37,-23295.8
8.01744e+07,29.0464,0,2.73417,2897.48,-5157.6,-27073.1
8.03452e+07,74.3422,1,3.05636,13088.3,-5852.39,-24631.9
8.03628e+07,24.1626,0,3.00636,4316.22,-2843.76,-29066.2
8.09012e+07,61.901,0,2.95561,8267.18,-6616.35,-21185.9
8.1198e+07,76.7463,2,2.99766,-506.079,-8937.61,-20967.1
8.14416e+07,15.8764,1,2.39358,-2135.36,-2499.02,-28182.5
8.15803e+07,36.248,1,2.94885,-2138.97,7403.2,-29360.3
8.19515e+07,40.3996,0,3.0568,8212.01,2155.71,-29853.9
8.27227e+07,50.5398,0,2.79768,-4703.44,2962.59,-19786.4
8.27929e+07,24.8346,0,2.43464,384.342,4249.96,-25752
8.2812e+07,75.4267,0,2.42238,3179.66,15396.2,-25902.1
8.29018e+07,65.1586,2,2.6865,6438.98,2860.16,-17049.6
8.30294e+07,72.21,0,2.38066,-12463.4,5342.72,-21905.6
8.31561e+07,53.4077,2,2.87399,-3369.86,-10760.1,-29833.2
8.33253e+07,45.5443,0,2.64032,6768.15,6898.46,-29693.7
8.36917e+07,51.7173,0,2.7221,-4530.06,-7862.87,-22836.5
8.38943e+07,8.30238,1,2.52759,-501.321,142.568,-27116.7
0,8.54907,2,2.94365,0,0,0
8.39238e+07,41.2804,0,2.5267,3751.55,7239.11,-25648
8.43617e+07,80.4589,2,2.72188,9216.5,-10313.7,-18958.8
8.45965e+07,3.73627,2,2.60948,2.2703,-836.106,-28530.6
8.46886e+07,68.0295,0,2.44245,3677.15,11077.3,-20333.6
8.50466e+07,59.1522,1,2.47726,-5046.53,-11400,-29198.7
8.53287e+07,93.162,2,2.61261,-16392.6,-10813.5,-26574.1
8.53925e+07,101.8,0,2.98726,-1778.29,-20736.7,-24072.3
8.55546e+07,209.273,2,2.90038,-26955.8,356.339,5892.17
8.60748e+07,6.65407,2,2.88638,102.002,-1235.03,-28025.4
8.61787e+07,35.7818,1,2.51861,6961.35,1300.49,-26161.8
8.65736e+07,64.7505,1,2.99749,-9938.06,8055.73,-24031.7
8.66665e+07,67.0227,2,2.86987,-1370.61,-13889.7,-26281.2
8.701e+07,37.0593,1,2.85589,2191.41,-4658.75,-23019.9
8.70523e+07,30.7885,2,2.78654,-2142.06,-2057.98,-28972.2
8.7615e+07,22.945,0,2.70792,1945.72,-452.74,-24385.1
8.7795e+07,17.7087,0,3.03538,1056.58,1149.49,-25417.7
8.79258e+07,187.655,2,3.00956,22216.9,2776.56,-16997.3
8.80729e+07,16.6488,0,2.929,327.146,-3462.36,-29520.3
8.81694e+07,67.0852,0,2.38091,2206.98,-6922.61,-16611.6
8.81996e+07,68.4017,0,2.91144,-4691.59,-5717.11,-16528.5
8.83072e+07,72.0603,1,2.89581,-8117.96,12903,-29407.4
8.86275e+07,149.039,0,2.75469,15446.4,-1466.57,-1526.6
8.93286e+07,40.081,0,2.46007,4832.46,3707.12,-22852.5
8.95255e+07,168.583,0,2.74209,-17963.5,1958.47,-7910.34
8.95557e+07,161.89,0,2.45166,-25488.9,-9683.82,-8249.44
8.957e+07,16.6101,0,2.3857,2410.98,-2605.02,-29491.2
9.01707e+07,61.5978,2,2.88038,-5431.83,-10882.2,-24167.1
9.05211e+07,8.41863,0,2.76692,-1098.81,-1289.2,-28403.2
9.06361e+07,95.7221,0,2.5405,-4776.92,-12842.8,-13961.8
9.08135e+07,17.4394,1,2.95393,-1305.73,-1467.84,-25730.6
9.15172e+07,20.3692,1,2.47222,-3423.62,2769.23,-28824.2
9.1534e+07,29.4604,1,2.72601,-5151.59,-1442.28,-25585.6
9.17936e+07,89.2942,2,2.86857,10621.4,-3574.29,-13784.6
9.20269e+07,38.2617,1,2.87249,7247.22,3399.31,-29651.5
9.21062e+07,26.5997,1,2.75165,-4519.14,-3316.62,-28750.8
9.24654e+07,60.5309,2,2.86603,-9752.42,610.583,-20611
9.2548e+07,15.8936,0,2.53058,1530.52,739.258,-25879.5
9.25536e+07,3.22541,2,2.4887,-296.687,584.609,-28848.9
9.26828e+07,63.1204,2,2.52733,-6052.96,3748.25,-17557.1
9.29857e+07,212.615,2,2.73437,-9706.07,-2589.93,-26395.2
9.31298e+07,50.3656,0,2.48173,6313.12,4473.92,-21410.1
9.33449e+07,76.958,2,2.89328,-11057.1,-9407.33,-21564.7
9.3486e+07,77.2645,2,2.94788,-15559.3,-589.104,-24092.4
9.37047e+07,308.006,2,2.70574,4925.21,-15232.7,20851
9.37372e+07,106.705,2,2.84478,-17816.5,5202.31,-16190.8
9.37639e+07,71.5126,0,3.05278,-12179.2,-6278.68,-22946.1
9.40876e+07,97.6495,2,2.75259,-13410.3,-15206.9,-24970.8
9.43587e+07,33.0805,0,2.88708,6458.31,-2450.19,-27574.8
9.43873e+07,72.1045,2,2.86778,-5953.71,-11835.8,-21319.9
9.4405e+07,89.0431,2,3.01056,5506.58,-17034.6,-24298.9
9.46635e+07,136.46,2,2.71006,15327.4,21075.5,-16815.2
9.4696e+07,107.112,1,2.60855,16338.2,5864.42,-14412.4
9.50538e+07,18.6092,2,2.56053,-2789.3,-953.825,-26126.4
9.53408e+07,32.1337,1,2.68614,-4275.31,5344.31,-29717.7
9.53435e+07,127.465,2,2.65005,-23941.9,-10924.8,-23058.1
9.57711e+07,113.003,1,2.48082,-12584.6,-6691.79,-27040.3
9.58587e+07,139.896,1,2.99596,17975.9,-16659.9,-12806.9
9.59343e+07,83.9276,2,2.68453,2818.08,-15321.3,-20358.3
9.60963e+07,85.8751,0,2.3718,12469.9,9441.86,-19441.7
9.63568e+07,67.253,1,2.58155,-8360.7,-2324.57,-17583.2
9.68689e+07,46.5413,2,2.41975,-7191.99,-3190.6,-22837.5
9.72678e+07,11.4914,2,2.69723,-977.036,-1996.36,-27650.5
9.75707e+07,53.5256,0,2.81381,6247.16,-7000.07,-22652.1
9.80815e+07,51.3408,0,2.66944,1403.34,9966.29,-24807.5
9.81041e+07,6.26786,2,2.67256,802.71,-947.778,-28271.6
9.82574e+07,145.474,2,2.65394,-14610.5,19815.6,-10569.4
9.84236e+07,72.1284,0,2.97697,-5295.92,3186.89,-15033.4
9.85008e+07,95.7117,2,2.80979,10055.5,7747.39,-13239.9
9.85642e+07,5.44992,2,2.67869,-988.029,16.5536,-28151.4
9.87512e+07,60.9013,2,2.97071,-2025.13,-4555.22,-17049.5
9.90908e+07,29.0558,1,2.92902,-2175.49,4910,-25755
0,29.1072,1,2.99787,0,0,0
9.95419e+07,36.3606,1,2.70897,-7603.36,1353.9,-28185.3
9.95911e+07,22.3693,0,2.88794,4767.56,639.675,-29043.6
9.96407e+07,92.4541,1,2.93783,8600.31,-15002.7,-20187.6
9.99242e+07,13.9627,2,2.80989,1746.58,-1463.35,-26976.8
1.0001e+08,57.8383,1,2.56653,-2873.3,11753.9,-26582.3
1.00371e+08,29.4676,0,2.88092,-2995.29,1818.57,-23758.7
1.00691e+08,132.93,0,2.93976,-5917.3,-24259.5,-20472.8
1.00725e+08,8.02571,1,2.96028,-904.574,-489.693,-27490.9
1.01008e+08,118.469,2,2.62598,6893.79,-22834.9,-21111.1
1.01528e+08,35.3114,1,2.79283,-863.32,7293.2,-27234.4
1.01862e+08,34.9633,0,2.51322,4778.32,4809.14,-25705.5
1.02074e+08,242.559,2,2.56824,-28561.7,28011.6,3159.28
1.02104e+08,117.631,0,2.49722,-21684.7,11540.2,-25400.5
1.02139e+08,73.3388,1,2.59306,11193.7,10723,-27962.2
1.0215e+08,117.292,2,3.02108,7863.25,20320.8,-17596.1
1.02685e+08,57.2006,1,2.80166,8869.6,7344.19,-25250.4
1.02776e+08,48.6742,1,2.49279,2301.32,6691.96,-21289.3
1.02911e+08,90.7374,2,2.53698,-12116.1,-14998.7,-29593.7
1.03074e+08,72.5199,1,2.48324,-12020.1,6222.01,-21467.6
1.03289e+08,99.3168,2,2.78059,-11392.4,729.415,-11279.2
1.0359e+08,67.7532,2,2.42728,11138.1,-8718.13,-26302.2
1.03933e+08,132.186,2,2.69086,-8582.28,-13938.8,-9070.18
1.04143e+08,125.727,2,2.73904,13325.2,17511.6,-14181.8
1.04216e+08,93.8502,2,2.36895,2087.95,-19099.7,-23529.6
1.04505e+08,3.36875,0,2.589,826.993,4.35046,-28883.6
1.04668e+08,7.31883,2,2.98317,1447.66,-531.808,-28592.4
1.04737e+08,28.9858,0,2.40323,3372.3,2178.03,-24119
1.05024e+08,42.2683,0,2.82123,5119.87,-901.044,-21565.6
1.05059e+08,125.159,2,2.66905,-9924.81,16660.5,-10968.3
1.05182e+08,69.998,0,2.62918,14503.6,847.806,-25624.8
1.05272e+08,7.65787,2,3.05605,-518.703,1141.32,-27871.9
0,7.49312,2,2.6532,0,0,0
1.05416e+08,120.485,2,2.54491,-11042.4,745.118,-5888.45
1.05462e+08,14.7511,1,2.78312,1080.19,1947.46,-26601.4
1.05624e+08,20.2771,0,3.01112,-799.074,-572.143,-28557.7
1.05767e+08,104.606,0,2.53581,5583.65,-6159.42,-8333.82
1.05795e+08,7.47112,0,3.03617,-109.755,-1329.27,-27996.7
1.06011e+08,40.9666,0,2.73548,4425.1,4171.1,-22619.5
1.06195e+08,112.546,2,2.54774,6524.9,-7623.35,-7234.94
1.06578e+08,20.2297,2,2.77541,1957.73,-2623.46,-26026.5
1.07268e+08,49.3252,0,2.73462,7765.68,3395.49,-22673.8
1.07528e+08,53.1584,2,2.39082,-10441.1,-20.0538,-24493.8
1.07666e+08,75.8411,0,2.85379,-190.524,-7467.39,-14728.3
1.0873e+08,131.726,1,2.97966,-27240.3,3269.33,-26081.7
1.08837e+08,95.1429,2,3.04293,18695.7,-5427.65,-24514.5
1.09252e+08,21.81,2,2.41893,-1119.42,-3883.06,-26445.6
1.09291e+08,77.0466,0,2.5455,5914.58,-2168.94,-13786.2
1.09803e+08,1.72939,0,2.95015,229.849,266.28,-28587.8
0,1.74278,0,2.80643,0,0,0
0,1.71154,0,2.66065,0,0,0
0,1.71476,0,2.91634,0,0,0
1.09841e+08,2.98214,0,2.74835,-157.092,350.674,-28359.2
1.09841e+08,29.8471,1,3.01944,-3961.63,2039.47,-24348.2
1.09892e+08,217.416,2,2.45171,-20686.1,20718.3,-19347.4
1.1004e+08,8.62371,0,2.74586,117.361,823.669,-27199.5
1.10096e+08,60.7421,2,2.98632,-263.03,12564.7,-27053.2
1.10209e+08,34.6885,2,2.78033,1227.77,4964.53,-23675.3
1.10243e+08,10.2056,0,2.4238,-1063.45,-1849.56,-28777.4
1.10584e+08,5.83462,1,2.94513,607.224,100.576,-27770.7
1.10671e+08,48.0076,0,2.95298,-8910.7,789.451,-24290.7
1.1074e+08,102.073,1,2.94665,-7261.05,19323.1,-22755.4
1.11192e+08,8.87186,0,2.49057,-810.322,229.807,-27171.7
1.11404e+08,103.138,0,2.40883,11747,-2886.53,-10623.9
1.12018e+08,33.9988,2,2.52993,-2004.16,3298.75,-22773.8
1.12303e+08,75.5668,1,2.76001,9995.79,11318.9,-23727.2
1.12337e+08,35.8885,2,2.91548,-443.216,-7636.98,-28900.4
1.1249e+08,178.938,1,2.56583,28517.2,23841.1,-21734.2
1.12529e+08,29.8332,2,2.50151,-307.726,-4958.47,-24824.7
1.12667e+08,26.2746,1,2.51734,-5500.71,16.6798,-27621.8
1.13006e+08,18.1353,2,2.62849,3408.15,1193.48,-27737.6
1.13239e+08,121.668,1,2.87772,-19772.9,12753.4,-18634.9
1.13419e+08,68.7664,1,2.53621,9995.77,-6833.09,-25045.9
1.13497e+08,78.9209,2,2.99394,10914.8,-8407.09,-19639.4
1.13726e+08,125.077,0,2.51715,17783.8,7208.92,-10537
1.13749e+08,18.0185,2,2.52924,-2652.01,2698.62,-28514.6
1.13995e+08,12.9942,2,2.39992,899.283,-1885.41,-26953.3
1.14087e+08,6.84434,2,2.50791,-1176.82,524.348,-29559.1
1.14171e+08,140.15,1,2.68324,-11657.7,19257.7,-9620.14
1.14178e+08,24.3913,2,2.66381,-3916.75,-605.912,-25477.9
1.14251e+08,157.145,0,2.95036,17702.8,-5580.66,-8383.84
1.14723e+08,135.302,1,2.81256,9765.79,22074.2,-17631.7
1.14834e+08,12.1585,0,2.91869,1457.57,1957.3,-27913.8
1.14886e+08,124.425,2,2.52221,-11077.4,-17745.9,-12786
1.14966e+08,97.3628,1,2.49998,-18066.7,10087.9,-28868.9
1.15027e+08,9.55517,0,2.84143,-468.69,-1959.01,-29023
1.15567e+08,35.8065,2,2.63143,-816.914,-3861.77,-22326.7
1.15588e+08,51.3273,1,2.51705,-9889.24,3837.62,-26196.7
1.15667e+08,22.02,1,2.79438,-3583.44,211.66,-25824.8
1.15922e+08,124.667,0,3.05838,10741.7,-7608.24,-6240.06
1.15931e+08,191.363,2,2.50978,441.35,-18520,7156.53
1.15942e+08,105.314,2,2.77966,-20703.7,-6309.11,-23651.5
1.16066e+08,57.1533,2,2.92187,-7370.18,3714.37,-23958.8
1.1621e+08,59.4826,0,2.38389,3451.14,9701.8,-21519.6
1.16309e+08,3.46002,0,3.01994,805.259,-233.1,-28898.2
0,3.4742,0,2.45395,0,0,0
1.16333e+08,82.4258,1,2.97532,-6358.3,9643.13,-15895.2
1.16667e+08,198.309,0,2.74827,-5420.81,-18380.3,-4932.29
1.1677e+08,4.9068,2,2.98022,-914.796,441.857,-28644.6
1.16896e+08,19.2295,2,2.89769,3561.95,364.803,-26986.4
1.17002e+08,50.2662,2,2.50138,4619.45,-8034.74,-23549.3
1.1711e+08,24.6096,2,2.51358,-3642.34,-3569.45,-27360.9
1.17413e+08,24.916,1,2.90487,-46.2769,5036.13,-27087.2
1.17689e+08,186.089,1,2.95929,-15516.9,-11654.2,5035.35
1.17746e+08,1.7593,0,2.85915,167.307,-361.495,-28731
0,1.70862,0,2.50908,0,0,0
0,1.66265,0,2.83738,0,0,0
1.17767e+08,22.0326,1,2.67474,-4310.92,-492.633,-27026.3
1.17836e+08,108.584,2,3.024,-6671.36,-8186.84,-8629.12
1.17985e+08,90.2252,0,2.73073,8604.26,-1647.34,-11919.1
1.18011e+08,78.1788,0,2.55658,14226.6,468.493,-20288.2
1.18226e+08,152.661,2,2.87411,-14166.5,-14444.9,-3883.32
1.18346e+08,90.7548,2,2.66385,-18005.2,-6278.28,-26359.5
1.18371e+08,40.46,2,2.87108,-6167.54,-5650.96,-26862.3
1.18687e+08,163.262,1,3.01796,-19375.8,-11342.3,-3016.41
1.18689e+08,137.833,0,2.58529,23241.7,2991.06,-11421.4
1.19047e+08,17.4633,1,2.55233,-1808.95,-1068.25,-25828.3
1.19088e+08,49.7143,0,2.52521,10338.2,-672.918,-26502.9
1.19201e+08,123.664,2,2.94558,-12642.5,1893.41,-6220.16
1.19849e+08,112.966,1,2.80483,16476.2,6906.41,-13169.6
1.20196e+08,15.6514,2,2.79934,-2878.72,64.3148,-27188
1.2036e+08,202.243,2,2.86954,4345.29,10342.2,7766.2
1.2037e+08,133.612,0,2.84136,-7316.76,12162.8,-4618.24
1.20404e+08,42.5996,2,2.63234,-6559.59,-1153.13,-22730.8
1.20604e+08,34.4158,2,3.0528,3212.88,-6270.4,-27047.2
1.20604e+08,157.005,1,2.74826,238.172,-43.0095,-28025.6
1.20789e+08,206.642,0,2.37075,-16860.7,2994.05,1634.72
1.20804e+08,52.1452,1,2.69002,-9551.87,-5484.03,-28221.9
1.20987e+08,62.759,2,2.758,825.74,-12847.3,-25493.5
1.21044e+08,78.1703,2,2.90773,13351.1,-7480.28,-22894.7
1.213e+08,138.761,2,2.41303,-2928.18,-16463.2,-4644.73
1.21335e+08,9.07508,1,2.79271,967.645,-591.085,-27319.2
1.2143e+08,91.6985,2,2.79739,-8473.48,-15605.4,-21100.1
1.22006e+08,6.84654,1,2.45619,1204.78,-418.358,-28230.7
1.22097e+08,99.4529,0,2.57118,17381.3,-3680.49,-17472.9
1.22427e+08,30.4426,1,2.44207,-2095.11,6200.77,-29048.9
1.2265e+08,105.988,2,2.57653,-2437.08,-15715.3,-12966.5
1.22811e+08,173.868,2,2.70697,-10856.4,-21802.4,-1384.08
1.2284e+08,106.377,2,2.59405,1365.78,15272.6,-12444.1
1.23051e+08,187.684,1,3.01224,-2737.06,-20807.3,4381.72
1.23092e+08,27.6813,0,2.48962,3309.48,4761.68,-27761.9
1.23189e+08,156.777,1,2.53287,1974.57,-9598.12,-7505.93
1.23761e+08,106.119,0,2.95853,3593.99,-21299.6,-23301.4
1.23769e+08,30.4475,0,2.40504,1195.71,-2566.58,-23003.2
1.2407e+08,59.2917,0,2.38164,410.478,-10469.4,-21898.3
1.24171e+08,75.4139,1,2.8294,-9332.57,4962.44,-16939.8
1.24437e+08,130.567,2,2.63462,17344.9,-4010.79,-7799.67
1.24586e+08,46.0739,1,2.84908,-944.197,9425.83,-26413.2
1.24778e+08,30.9592,0,2.52243,3487.88,-1458.66,-23412.4
1.25401e+08,150.712,0,2.64708,26269.4,-4378.53,-11333.9
1.2605e+08,10.2395,1,2.45101,1602.69,1467.32,-28448.4
1.26231e+08,23.5921,0,2.62894,4940.59,-1232.49,-28828.1
1.26693e+08,31.6564,0,2.67897,6748.16,-257.941,-28116.2
1.26711e+08,99.2557,0,2.57276,1429.26,16744.1,-16242.4
1.27522e+08,51.5671,2,2.38637,-5701.11,-9336.09,-27498.6
1.27839e+08,70.6911,2,3.02604,-13762.1,641.756,-26577.5
1.28052e+08,179.81,1,2.9926,14792.1,1836.86,-28081.7
1.28408e+08,12.8626,1,2.48011,-1603.39,1206.44,-26882.2
1.28418e+08,7.85074,1,2.96238,-1220.88,1010.23,-28160.4
1.28644e+08,3.53897,0,2.8116,24.8863,364.432,-28152.6
1.28709e+08,96.5451,1,2.65732,-17391.5,-4098.72,-18984.6
1.28745e+08,59.1403,2,2.83397,-10420.8,-1496.64,-22082.7
1.28753e+08,106.825,2,2.61116,-22583.3,-273.503,-27937
1.288e+08,5.6297,1,2.86806,-439.599,1178.08,-28600.4
1.29066e+08,117.264,0,2.91395,-5000.18,18358.1,-13285.5
1.29491e+08,64.8103,2,2.83796,-13601.8,1288.43,-29851.2
1.29679e+08,324.162,2,2.98602,-29686.1,28105.7,25433.2
1.30092e+08,39.7686,0,2.8603,2818.52,6215.07,-23910.6
1.30118e+08,89.6643,0,2.69928,-7617.59,-13564.2,-18144.9
1.30274e+08,5.5683,1,2.50124,-514.013,1109.09,-28425.9
1.30856e+08,225.69,0,3.04755,7750.41,-2329.67,-7730.59
1.31296e+08,70.2609,0,2.74952,-3296.75,14327.2,-27118.6
1.31314e+08,72.7777,2,2.69472,-14116.1,4857.84,-25105.1
1.32049e+08,20.8978,0,2.87819,2515.58,2849.65,-26486.3
1.32231e+08,7.36547,1,2.52643,1108.04,923.364,-29542
1.3231e+08,4.5189,2,2.7546,380.264,-218.404,-27964.8
1.32565e+08,107.283,2,2.71834,2288.61,-13839.1,-21364.8
1.32586e+08,131.6,1,2.78128,-8851.77,5230.26,-3088.4
1.33127e+08,244.561,2,2.74479,19571.2,-24052,12310.8
1.33332e+08,27.702,1,2.5731,-3228.65,3061.84,-24936.7
1.3387e+08,200.728,1,2.40445,27549.1,-6137.87,2840.74
1.34131e+08,137.103,1,2.88164,-11536.5,12493.9,-5517.78
1.34256e+08,27.6136,2,2.95807,-5116.43,725.274,-26142.6
1.3431e+08,15.9014,0,2.57145,96.4361,-2195.65,-26275.8
1.34407e+08,177.616,2,2.8706,20156.1,9847.89,961.25
1.34423e+08,93.9898,1,2.87035,-13065.5,-12907.7,-21569.4
1.34717e+08,14.2123,2,2.80962,788.238,-2929.71,-29351.6
1.35207e+08,21.3286,0,2.64542,3004.22,1866.52,-25939.2
1.35257e+08,94.3783,2,3.05137,-2930.25,-9811.38,-16055.2
1.35389e+08,6.87141,2,2.56518,-233.488,-573.814,-27461.2
1.35571e+08,19.8831,2,2.72494,-4040.37,448.944,-27706.8
1.35822e+08,32.2287,2,2.62982,4100.92,188.27,-23413.7
1.36033e+08,115.529,2,2.95207,-21939.5,9209.22,-24092.1
1.36179e+08,14.9492,0,2.92695,-1103.27,1566.87,-26368.3
1.36392e+08,112.258,0,2.43756,-799.629,-18799.3,-14372.4
1.37089e+08,44.1407,1,2.38991,-5490.88,3029.9,-21833.1
1.37286e+08,252.196,0,2.59804,-3906.7,-4235.94,-25268.5
1.38412e+08,175.948,0,2.82618,27713.1,20649.4,-15423.4
1.38693e+08,51.3757,0,2.65346,10348.6,-1353.26,-25525.5
1.38801e+08,396.084,2,2.83669,-5562.18,4152.5,-23280.8
1.3881e+08,70.4489,0,2.95305,7828.85,2245.81,-27120.9
1.38972e+08,50.2893,1,2.44433,-7636.39,7481.05,-27667.8
1.39035e+08,131.809,2,2.60867,-14676.8,23620.8,-28599.3
1.39684e+08,22.6737,0,2.59053,3256.93,-2348.27,-26071.9
1.39789e+08,48.9077,2,3.04654,-7618.51,-5691.39,-24824.2
1.3981e+08,119.811,1,2.60598,6812.37,21168.8,-16622.4
1.3995e+08,22.0996,1,2.4814,500.788,2380.12,-24778.7
1.40067e+08,68.9374,0,2.58919,9124.81,-2222.38,-17618.6
1.40302e+08,1.93619,0,2.71697,0.0446238,-172.696,-28451.8
1.40449e+08,85.3741,2,2.72406,10044.8,13243.8,-22165.2
1.40532e+08,124.655,0,3.01596,3354.85,21168.7,-13845
1.40565e+08,53.3562,2,2.90187,8433.93,-196.825,-21496.1
1.41052e+08,31.2739,2,2.73888,3274.64,-2275.82,-23602.2
1.41069e+08,20.9548,1,2.58194,3015.39,951.455,-25722.5
1.41126e+08,7.20632,1,2.67867,-1025.05,1100.4,-28254.8
1.41271e+08,74.5703,0,2.45226,-747.381,15318.9,-25032.3
1.41854e+08,121.823,0,2.69816,-13819.6,-20140.9,-21054.3
1.42078e+08,19.5323,2,2.71291,3288.35,-2469.87,-29503.3
1.4211e+08,89.647,1,2.71804,-5097.25,14706.2,-18021.7
1.42261e+08,188.386,0,2.4738,23291.2,-29365.7,-15164.3
1.42277e+08,83.896,2,2.44231,-12339.4,4321.67,-16820.1
1.42308e+08,40.1349,1,2.43147,-4736.28,3095.26,-22423.2
1.43394e+08,37.7328,2,2.96084,-7967.22,-517.541,-28540.5
1.43532e+08,70.9705,0,2.7723,1981.04,-13545.4,-22758.8
1.43542e+08,0.836558,0,2.95748,264.397,89.6966,-28898.6
0,0.783116,0,2.38106,0,0,0
0,0.932756,0,2.49495,0,0,0
0,0.779755,0,3.05906,0,0,0
0,0.834195,0,2.39064,0,0,0
0,0.931348,0,2.54643,0,0,0
1.43571e+08,9.43701,2,2.98699,-1309.5,652.987,-27470.7
1.44057e+08,15.3312,2,2.8863,-2719.43,154.642,-27003.8
1.44123e+08,79.7996,1,2.4667,14046.1,9044.78,-26254.6
1.44239e+08,58.6001,2,2.42205,-7763.97,-4742.24,-20301.1
1.44891e+08,189.233,0,2.90834,-6779.05,25186.8,1099.72
1.44932e+08,12.631,2,2.45015,-2683.55,-324.376,-28443.1
0,12.6451,1,2.36398,0,0,0
1.44951e+08,37.435,1,2.48376,-5086.72,-2180.18,-23146.1
1.45054e+08,2.912,0,2.7467,-229.625,329.618,-28418.4
1.45088e+08,35.5474,0,2.93759,-1476.03,-4930.66,-23423.5
1.45566e+08,72.5663,1,2.52696,-2920.72,13210.9,-21424.7
1.45796e+08,46.0622,0,2.61027,5264.64,7421.15,-25256
1.45929e+08,81.4181,1,2.56607,5367.41,13109,-18997.3
1.4598e+08,9.57957,1,2.65668,1063.3,1805.89,-28855.7
1.45983e+08,165.541,1,2.86307,-2584.29,7516.22,-19187.9
1.46329e+08,108.949,0,2.97022,-9682.94,5095.83,-17996.9
1.46439e+08,65.6946,0,2.82286,4801.71,12400.1,-24861.2
1.46444e+08,47.1893,0,2.77527,1973.09,-6015.48,-21135.7
1.46691e+08,71.0372,1,3.03804,13758.2,-5511.65,-28275
1.46717e+08,97.0375,2,2.93421,-7616.97,17415.8,-21568.7
1.46819e+08,7.02113,1,2.98667,-434.976,-727.231,-27631.2
1.46869e+08,73.4204,0,2.87574,7475.34,-13509.2,-27828.8
1.47409e+08,82.5066,1,2.82441,6380.96,6049.32,-13887
1.4774e+08,35.2201,2,2.55311,2472.61,-6872,-26990.8
1.47821e+08,11.9441,1,2.96498,1807.45,1529.36,-27899.1
1.48007e+08,79.5044,2,2.6513,6190.31,-14498.2,-22902.9
1.48259e+08,23.0681,2,2.90493,-2606.72,-276.833,-24741.6
1.48269e+08,32.1603,1,2.74745,1820.91,3560.19,-23307.2
1.48401e+08,50.13,0,2.62583,2330.25,-5987,-20373.4
1.48657e+08,135.898,1,2.86963,-13036.3,22936.3,-17716.4
1.48672e+08,273.569,2,3.00944,9498.36,24827.7,-27517.9
1.48717e+08,28.7973,1,2.82918,519.52,4570.95,-24785.1
1.48742e+08,48.106,1,2.39298,-4671.77,4575.86,-20963.2
1.49133e+08,4.01783,1,2.7247,68.963,240.479,-27985
1.49965e+08,44.5174,2,2.67418,1880.75,-6127.79,-21904.4
1.50203e+08,79.8457,0,2.92942,-11786.9,-3902.36,-17635.6
1.50716e+08,151.535,1,2.78659,-25630.9,-5703.84,-10682.8
1.51542e+08,49.8451,0,2.61601,9876.85,3124.52,-26544.4
1.51604e+08,165.356,1,2.42385,27416,8665.73,-8935.8
1.52057e+08,5.95815,1,3.03127,-452.727,-23.0446,-27656.2
1.52457e+08,87.8187,0,2.50315,-5850.54,-10547.5,-14748.1
1.52573e+08,10.46,0,2.80614,1573.96,1016.18,-27570.1
1.52742e+08,64.2682,0,2.71184,4590.55,-8256.72,-19064.1
1.52775e+08,198.33,1,2.60809,-16829,15620.2,6245.39
1.5299e+08,144.533,0,2.85897,5379.55,20513.8,-7074.94
1.53048e+08,170.757,2,2.61956,-13053.6,-5905.75,-4742.56
1.53575e+08,23.5761,2,2.3757,-4290.61,-1530.13,-26588.2
1.5381e+08,86.1269,0,3.03261,4839.88,11451.2,-28672.8
1.5392e+08,115.651,2,2.41319,8509.28,-9074.4,-7729.34
1.54305e+08,19.8251,1,2.99779,-2311.07,3582.16,-28477.5
1.54368e+08,45.4274,2,2.37632,-6764.05,-2215.44,-22270
1.54387e+08,5.64978,2,2.96834,-1243.07,-48.9131,-29002.9
1.54455e+08,54.1012,1,2.6888,-6180.99,9607.64,-27360.1
1.54602e+08,44.2978,0,2.74136,4246.66,-7354.22,-24825.3
1.54648e+08,96.3229,0,2.79128,20114.3,-3275.62,-28425.6
1.54657e+08,121.628,0,2.90898,12953.3,13027.1,-11018
1.55414e+08,11.5344,0,3.0111,-1094.67,1840.18,-27726.8
1.55441e+08,27.8573,1,2.5944,-1928.65,1526.05,-23443.2
1.55456e+08,50.4683,1,2.92077,-1161.83,-5412.57,-19804.5
1.55618e+08,29.7326,1,2.66062,-2232.33,4404.13,-24830.9
1.55733e+08,19.3278,1,2.71177,-3734.22,1165.96,-27472.7
1.56059e+08,49.2404,1,2.87614,-7511.9,2483.45,-22070.2
1.56777e+08,26.7748,1,3.01361,-2599.76,-2044.4,-24304
1.56791e+08,6.90997,2,2.52802,-600.084,-245.189,-27476.9
1.56856e+08,170.14,0,2.63357,25299.8,-23008,-17640
1.57041e+08,38.3234,2,2.99534,3978.91,-5712.76,-24707.3
1.57104e+08,88.3472,1,2.53012,-8647.54,15183.2,-21958.9
1.57239e+08,35.4723,0,2.99348,3025.54,-2838.88,-22628.7
1.57576e+08,36.9663,2,2.56405,-1920.4,-7373.79,-26830.3
1.57927e+08,75.7892,0,3.04167,8303.43,-7641.02,-17578.3
1.57993e+08,12.0573,1,2.60899,1161.84,1698.88,-27236.8
1.58275e+08,21.4709,0,2.44662,-3512.05,1892.15,-26758.3
1.58775e+08,54.9177,0,2.85534,1891.61,9175.27,-22067.6
1.59047e+08,82.3695,1,3.03263,-674.036,-7171.11,-13158.5
1.59178e+08,287.815,0,2.67906,11143.3,16910.6,-6616.63
1.59404e+08,2.91168,0,2.64047,375.408,444.947,-28522
1.59469e+08,135.567,2,2.92557,-11104.7,13522.6,-17672.8
1.59476e+08,42.7111,1,2.48077,-8078.57,2533.38,-25470.7
1.59827e+08,167.353,2,2.76913,-21334.2,-22982.9,-23263.2
1.5996e+08,108.412,2,2.73916,2220.21,-19876,-17691.7
1.60199e+08,4.53599,1,2.52107,618.602,693.639,-28449.3
1.60261e+08,63.6402,0,2.86934,5447.64,-7428.2,-19077.5
1.60763e+08,72.1818,0,2.78968,3167.14,9504.68,-17379.1
1.60903e+08,25.8246,2,2.8108,-5229.7,-1376.38,-27754.3
1.61494e+08,127.557,0,2.90854,-5351.24,-12761.4,-5905.58
1.61504e+08,64.6789,0,2.90415,-695.535,-5985.38,-16670
1.62205e+08,30.1755,2,2.7971,1041.32,-2313.18,-23020.4
1.62308e+08,120.408,2,2.94138,-6664.41,-2762.73,-27103.7
1.62325e+08,134.477,1,2.78249,-23087.9,5153.37,-13239.7
1.62363e+08,70.9887,0,3.02253,4581.63,11870.9,-26434.1
1.62629e+08,5.45482,0,2.6315,713.956,255.465,-27883.1
1.62719e+08,14.5866,1,2.57985,-2602.46,-1540.65,-28139.1
1.62958e+08,3.23553,0,2.50438,492.357,565.324,-29014.7
1.62996e+08,1.80061,0,2.80733,228.557,-345.342,-28696.5
0,1.81457,0,3.00383,0,0,0
0,1.82811,0,3.03835,0,0,0
1.63082e+08,243.528,1,2.988,-6901.87,14776.1,-15674.8
1.63225e+08,71.5633,1,2.66223,-10564,10945.1,-28993.2
1.63699e+08,2.60616,1,3.05515,-506.509,-30.8738,-28540.1
0,2.56435,1,2.41794,0,0,0
1.63785e+08,9.52286,0,2.6101,1771.72,-811.088,-28068.2
1.63857e+08,57.2193,1,2.87826,11518.4,3485.08,-28894.9
1.64329e+08,3.77431,2,2.88257,-323.88,-688.23,-28371.4
1.64765e+08,1.40413,1,2.71104,170.14,289.462,-28716.8
1.65139e+08,104.343,0,2.43397,15980.5,11552.4,-20374.7
1.65618e+08,83.6484,0,2.8791,11837.4,-1760.54,-15887.9
1.65626e+08,12.8877,2,2.94664,-2425.46,-445.692,-27553.6
1.65837e+08,50.2091,0,2.64878,6653.12,-2309.87,-20849.6
1.65861e+08,16.4514,0,2.80818,1542.42,650.294,-25755.5
1.65919e+08,56.363,1,3.02949,-9272.35,-6843.98,-26259.5
1.66485e+08,62.1239,2,2.90013,-859.676,-8076.75,-18565.8
1.66496e+08,135.899,0,2.83136,-7197.16,11481.2,-3682.62
1.66558e+08,26.4913,2,2.51095,3327.4,4378.86,-28122.3
1.66788e+08,54.9799,0,3.00591,-2004.28,4199.31,-29138.8
1.67064e+08,55.2941,1,2.57263,-10241.5,2537.77,-23694.8
1.67118e+08,36.7464,2,2.53802,-4149.11,-5550.55,-25111.5
1.67196e+08,99.7179,0,2.7353,-20156.3,2108.15,-23601.9
1.67693e+08,8.75541,0,2.61279,1117.29,532.491,-27379.8
1.67699e+08,143.005,2,2.71756,-7984.8,-13114.5,-2846.24
1.67712e+08,154.46,1,2.98993,-26629.6,-15571.7,-18945.2
1.67723e+08,67.0151,2,3.02358,9504.49,-8061.45,-22350.3
1.68041e+08,187.764,2,2.97893,-18089.5,-20446.8,-389.985
1.6805e+08,119.679,0,2.89792,-15779.1,15457.3,-16926.9
1.68208e+08,143.314,0,2.82197,551.674,3636.23,-29840.5
1.68258e+08,8.41958,2,2.4613,512.032,-1757.15,-28457.3
1.6834e+08,155.94,2,2.75562,18206,-7600.91,-2576.03
1.6853e+08,21.365,0,2.41815,-8.9346,-4071.59,-26869.7
0,21.3738,0,2.92031,0,0,0
1.68919e+08,9.2244,1,2.45635,-1690.62,994.636,-28229.6
1.69185e+08,12.9354,0,2.65353,1758.67,-34.5168,-26653.8
1.69222e+08,235.973,1,2.9018,23805.5,-14681.5,12026.3
1.69519e+08,94.0314,0,2.74688,-12350.1,-15417.8,-27911.7
1.69729e+08,67.1585,1,2.77137,9563.24,5718.79,-20093.4
1.69731e+08,123.562,2,2.68747,-24891.7,-3487.5,-21696.6
1.69846e+08,94.0358,0,2.9282,954.777,-18116,-20969.5
1.69956e+08,167.91,1,2.42879,-8494.74,23246.5,-3267.24
1.70054e+08,22.8556,1,2.4381,-1065.66,1949.32,-24484.8
1.70228e+08,54.3798,1,2.57534,182.088,11114.9,-25606.6
0,54.3444,1,2.49226,0,0,0
1.70446e+08,87.404,2,2.37439,-8255.06,-7650.37,-14072.8
1.7085e+08,31.778,0,2.49667,-3721.01,3209.09,-24276.5
1.71064e+08,51.5061,0,2.91731,6974.62,-8311.35,-27834.6
1.71102e+08,6.63147,1,2.59342,-1083.27,271.522,-29810.4
1.71203e+08,15.1499,0,2.57865,562.915,2972.36,-27661.1
1.71416e+08,13.6482,1,3.02203,-2788.82,952.044,-28696.7
1.71598e+08,166.362,2,2.51758,-7781.25,19720.9,-29554.5
1.71665e+08,112.269,1,2.50789,-3077.91,-16084.2,-11674.6
1.71933e+08,53.4076,0,2.77811,1548.87,-6439.06,-19764.9
1.72e+08,83.8581,0,2.91765,16387.2,-6659.18,-28794.4
1.72234e+08,81.0161,2,2.59121,7565.99,-11751.2,-18878
1.72504e+08,28.4686,0,2.79413,5701.47,2060.34,-28309.3
1.72581e+08,62.6698,1,2.44685,1161.49,5189.93,-16660
1.72672e+08,248.235,0,2.66335,-14233.4,18794.5,17898.3
1.7273e+08,44.8516,0,2.6481,2328.22,-6437.17,-24812.5
1.72805e+08,61.7663,0,2.73152,-4194.89,7255.6,-18910.9
1.72889e+08,88.6293,1,2.95465,-1877.18,16307.9,-19928.5
1.73084e+08,69.6986,0,2.55734,-3327.32,-7766.5,-16765.2
1.73185e+08,35.3952,1,2.78758,-2785.28,-6026.07,-25859.2
1.7324e+08,190.866,2,2.56444,-13676.6,-25690.2,-829.185
1.73455e+08,59.098,0,2.46353,-2082.17,7620.47,-19183.5
1.73695e+08,14.9604,1,2.56703,2753.45,1538.37,-29244.8
1.73744e+08,102.602,0,2.41955,13272.7,-2281.94,-11735
1.74032e+08,33.1084,0,2.5282,3328.48,-5819.97,-26585.2
1.74095e+08,12.9233,1,2.92545,-121.711,1837.07,-26764.8
1.74206e+08,10.7597,2,2.92695,-1360.94,-1100.51,-27275.7
1.74677e+08,48.47,1,2.80726,-1862.38,9191.7,-24594.9
1.74816e+08,99.5969,0,2.63183,-3621.14,9778.02,-10584.2
1.74845e+08,12.4747,1,2.67739,-1829.63,-1361.75,-27495.8
1.74865e+08,65.5205,1,2.36547,-4855.58,9507.69,-19869.5
1.7502e+08,59.1312,0,2.86754,8827.77,8861.68,-29334.8
1.75138e+08,35.9904,0,2.72085,3759.58,3600.34,-23247.1
1.75346e+08,111.112,0,2.38821,12496.6,14803.2,-15460.5
1.75395e+08,18.4631,2,2.57306,-120.34,-3942.14,-28133.6
1.75492e+08,101.693,2,2.70799,-19177.1,76.6324,-19137.7
1.75647e+08,39.0422,0,2.54764,142.48,-4162.95,-21709.1
1.76116e+08,15.9487,1,2.9717,2958.34,-253.59,-27346.7
1.76716e+08,0.598033,1,2.69127,-77.3331,148.559,-28709.9
0,0.594361,1,2.40782,0,0,0
0,0.616117,1,2.80807,0,0,0
1.76743e+08,43.124,0,2.52412,8352.58,-3757.22,-27786.1
1.76891e+08,84.4317,1,3.0305,-5389.48,-10477,-15709.2
1.76956e+08,9.6773,1,3.04634,-543.929,2011.78,-29147.8
1.77008e+08,0.161299,1,2.30325,7.11384,34.7129,-28798.6
0,0.172312,1,2.53481,0,0,0
0,0.201838,1,3.86517,0,0,0
0,0.217008,1,2.71213,0,0,0
0,0.188899,1,2.34792,0,0,0
1.7706e+08,7.0254,1,2.82096,341.282,1515.18,-28665.4
1.77958e+08,10.6306,2,2.96817,893.13,-2028.35,-29533.5
1.78059e+08,190.842,1,2.49837,16457.4,12178.6,5924.12
1.78267e+08,121.713,1,2.41742,-14984.4,21070.9,-28570.9
1.78489e+08,83.5881,0,2.64393,789.135,-16644.9,-22993.1
1.78686e+08,13.1622,1,2.56104,-1813.66,2215.89,-28391.2
1.78751e+08,159.413,1,2.91456,12743.6,26520.6,-12844.4
1.78823e+08,3.5042,1,2.73308,-751.464,319.19,-28637.9
1.78826e+08,14.0934,0,2.44503,154.301,2908.38,-28204.2
1.79248e+08,40.9976,2,2.39373,-802.59,-470.772,-28516.3
1.79276e+08,229.559,2,2.71096,1240.7,-4591.71,-27283.5
1.79444e+08,4.3166,0,2.42874,797.883,-447.117,-28413.8
1.79736e+08,12.5807,2,2.50872,2273.13,-1383.33,-28480.6
1.79938e+08,82.5485,1,2.44678,5893.45,9872.62,-15630.6
1.80129e+08,16.9577,0,2.37294,1696.8,-154.496,-25609.2
1.80141e+08,32.4764,2,2.80929,6750.16,136.088,-27822.5
1.80276e+08,234.672,1,2.7615,3526.56,26910.2,12476
1.80639e+08,68.48,1,2.62015,-11081.6,9421.43,-29592.2
1.80668e+08,106.624,0,3.02449,11412,10683.6,-12819.1
1.80694e+08,25.9423,1,2.58252,77.852,2386.6,-23855
1.80724e+08,97.4793,2,2.59894,-50.0863,-16162.6,-15960.7
1.80874e+08,146.938,1,2.6341,-25796.8,-2741.35,-11796.4
1.81513e+08,209.531,1,2.46536,14405.2,24251.6,5328.47
1.81817e+08,158.146,2,2.47071,1538.71,-25272.9,-6929.52
1.82123e+08,169.578,1,2.89023,9071.81,-23459.7,-3685.64
1.82514e+08,83.6351,2,2.59946,-4695.17,8939.7,-14805.2
1.82616e+08,56.6431,1,2.60709,7458.29,9402.58,-28713.3
1.82641e+08,27.9087,0,2.41292,2803.66,-2056.77,-23988.9
1.83439e+08,115.082,0,2.47554,6604.04,14908.3,-10717.4
1.83517e+08,16.3446,0,2.79565,3376.97,717.546,-28058
1.83524e+08,51.7618,1,2.84311,-8099.06,-661.899,-21534.4
1.83527e+08,170.693,2,2.47629,-26513.2,-9045.47,-5984.86
1.83912e+08,21.151,2,2.44272,-343.829,-3128.45,-25556.8
1.84235e+08,97.4898,2,2.54803,-16734.2,-8559.09,-20180.8
1.85404e+08,8.58919,2,2.58367,-114.963,-841.294,-27189
1.85435e+08,36.8888,0,2.4287,5784.07,5279.03,-27850
1.85456e+08,112.87,2,2.3896,-14075.6,-6687.49,-10675.6
1.86542e+08,109.811,1,2.5247,11253.1,20377.4,-29104.4
1.86685e+08,3.1553,0,2.98227,513.989,-365.597,-28432.1
1.86689e+08,9.80389,2,2.61994,472.589,-1282.21,-27228
1.8672e+08,16.0785,2,2.9172,590.985,-2902.68,-27107.4
1.87784e+08,121.31,2,2.85793,-24384.3,-5202.01,-23277.2
1.88023e+08,193.017,2,2.81659,13029.9,22393.4,2335.95
1.88311e+08,83.7493,1,2.99354,-5892.1,4100.28,-12765.4
1.88597e+08,63.0096,2,2.85847,-12564.4,2521.77,-25283.3
1.88623e+08,150.014,0,2.6148,19224.2,18486,-11644.6
1.88848e+08,88.9076,2,2.41072,-10196.2,4887.65,-13799.8
1.8904e+08,78.697,1,2.61885,12805.3,4291.64,-19169.5
1.89265e+08,126.464,0,2.59258,23499.1,12708.6,-26668.8
1.89521e+08,90.6157,1,2.70363,-10032.9,10037.5,-15972.7
1.89852e+08,41.6427,0,2.66604,-2299.96,5846.28,-22694
1.89996e+08,15.1517,2,2.9754,2534.51,-1959.88,-29012
1.90008e+08,119.446,0,2.7997,-19391.3,-15914.8,-28325.6
1.90017e+08,10.5069,1,3.05771,989.157,-264.816,-26933.6
1.90249e+08,34.1802,0,2.71911,-2764.9,-2768.37,-22788.3
1.90675e+08,102.984,0,2.95905,1589.84,-18311.9,-17563.3
1.90676e+08,109.244,2,2.84264,-7896.06,-10217.1,-23033.4
1.90893e+08,29.677,0,2.40196,4379.38,1466.03,-24469.2
1.90896e+08,37.0009,2,2.43239,1140.35,6422.36,-24590.4
1.9092e+08,38.7729,1,2.89311,5146.02,1982.26,-22852.2
1.91208e+08,57.5817,1,3.02951,6404.12,9543.84,-24976
1.91528e+08,3.26281,1,2.99274,-28.7303,636.997,-28424
1.91858e+08,139.558,1,3.01507,-27984.3,6421.27,-22946.6
1.91914e+08,11.4446,2,2.83612,595.337,-1699.48,-27163.4
1.92049e+08,25.0126,2,2.6421,-4268.76,328.928,-25695.8
1.92395e+08,4.37436,0,2.60893,-9.24621,-943.878,-28999.5
1.92569e+08,162.079,2,2.57582,-25842.6,5471.93,-6990.1
1.92762e+08,10.8655,2,2.88336,1416.2,-1349.07,-27603.5
1.92852e+08,143.124,1,2.57944,-5526.91,29838,-28991.8
1.92957e+08,27.7588,2,2.48325,2623.37,-2375.62,-24123.4
1.93176e+08,31.7648,2,2.41244,-3219.23,759.101,-22987.3
1.93396e+08,4.70471,1,2.37761,-148.243,925.874,-28305.3
1.94002e+08,60.7801,1,2.86335,-3873.51,5007.82,-17695.8
1.94317e+08,33.3317,2,2.79812,-3076.52,1217.75,-22626.9
1.94507e+08,78.2988,1,3.03897,-8529.49,-11957.8,-21579.4
1.94624e+08,194.179,1,3.00754,26131.6,28249.9,-15524.9
1.94893e+08,14.2283,2,2.78686,-806.212,-2819.47,-27934.1
1.95054e+08,48.6657,1,2.43548,-5800.47,7399.03,-24480.7
1.95478e+08,14.5126,1,2.91875,-2355.69,2031.43,-29368
1.95787e+08,53.3917,2,2.6563,-7147.77,500.96,-20095.3
1.95859e+08,34.8218,2,2.38294,-7005.09,-1737.21,-26963.1
0,34.9315,2,2.56726,0,0,0
1.95891e+08,402.869,0,2.80334,846.858,-8202.14,-21454.6
1.96148e+08,121.357,0,2.36329,16665.1,4948.77,-9844.05
1.96307e+08,43.2152,2,2.68392,-4304.85,-2062.07,-21008.2
1.96837e+08,105.815,2,2.74863,13587.3,-17706.4,-27679.4
1.96877e+08,53.3103,0,2.93374,-4914.84,1505.64,-18951
1.97036e+08,48.1758,2,2.52599,6257.84,-5864.27,-23297.8
1.97057e+08,64.9044,0,2.48451,-2830.01,-13307.9,-26936.6
1.97304e+08,15.3729,1,2.68475,-2554.99,2158.27,-28514.7
1.97396e+08,40.9949,1,2.41393,-4454.22,7572.38,-28722.1
1.97648e+08,16.9705,2,2.65654,-2050.84,-1899.35,-26462.1
1.98051e+08,112.825,2,2.65547,-15821.5,7821.95,-12822.6
1.98427e+08,85.0351,2,3.05843,10957.3,7546.53,-18299.8
1.98616e+08,49.0915,2,2.71415,9274.97,-4577.19,-29466.4
1.98733e+08,32.2589,2,2.76063,-593.416,-6652.04,-27155.5
1.98869e+08,120.429,1,2.85884,8572.41,-19716.8,-15922.8
1.99079e+08,57.1668,2,2.66711,-793.066,9492.19,-21487.6
1.9926e+08,61.883,1,2.92569,-12482.3,-1449.7,-25361.3
1.99296e+08,60.0058,1,2.89717,1298.68,10753.9,-22261.7
1.99312e+08,53.7794,0,2.42959,8615.63,211.128,-21307.9
1.99429e+08,155.53,0,2.44273,18260,-27447.2,-28378.6
1.99538e+08,53.9575,0,2.51249,-7383.6,7718.27,-24915
1.99877e+08,105.323,1,2.76217,868.501,-9855.38,-8999.12
1.99936e+08,171.856,0,2.40083,16364.8,17725.3,-1560.67
2.00186e+08,43.1735,1,2.67116,2367.12,7171.93,-23643.1
2.0024e+08,77.7764,2,2.96799,5053.27,-10861.7,-17678.2
2.00397e+08,41.9694,0,2.98524,3721.7,-5864.95,-23355.9
2.00429e+08,9.04708,2,2.9552,-543.435,135.26,-27000.6
0,8.95742,1,2.95015,0,0,0
2.0048e+08,132.63,0,2.66042,8925.58,11082.5,-4718.84
2.00643e+08,36.7174,0,2.56931,7665.71,-125.979,-27135.6
2.00664e+08,45.1606,1,2.88038,-6293.2,-6885.22,-27175.9
2.00744e+08,119.439,2,2.38805,13074.7,-4788.2,-7750.76
2.01388e+08,2.30159,1,2.76182,-238.224,488.199,-28633.7
2.01478e+08,42.7109,2,2.73594,1133.15,4425.18,-21122.2
2.01522e+08,42.7898,2,2.61675,4989.07,2043.77,-21605.2
2.02044e+08,83.6843,0,2.76471,-3457.39,-11414.6,-15859.6
2.02079e+08,83.2396,1,2.52515,-13728.4,10817.5,-26259
2.02148e+08,60.3231,1,2.45631,-1321.75,-9203.67,-20142
2.0242e+08,20.6483,0,2.68172,-2527.1,-800.828,-25417.5
2.02465e+08,164.679,0,2.51219,24591.7,-3046.78,-4283.99
2.0278e+08,25.5642,0,2.97792,2023.94,5001.63,-28277.2
2.02857e+08,16.8955,2,2.76328,-2482.02,1336.75,-26615.7
2.03047e+08,14.342,2,3.04803,191.306,-1474.15,-26162.3
2.03291e+08,138.622,1,3.01751,8814.28,10857.9,-4694.88
2.03505e+08,69.2239,1,2.82536,5197.11,-3477.47,-15733.8
2.03631e+08,78.452,2,2.44068,10475.4,338.039,-15995
2.03912e+08,77.2393,2,2.95618,13048.8,2279.77,-19581.7
2.03915e+08,39.3053,1,2.81633,-2696.34,1620.74,-21141.7
2.03971e+08,33.3406,0,2.64998,4285.64,-4254.06,-25600.3
2.0404e+08,112.879,0,2.79566,-2434.52,-7258.3,-19458.9
2.04348e+08,183.503,0,2.79851,-28869,23993.2,-19987.5
2.0458e+08,168.269,0,3.00293,17496.4,17530.4,-3684.15
2.04679e+08,48.5451,0,2.61162,-1807.87,6457.14,-21114.3
2.04932e+08,138.922,1,2.72083,-12703.3,21698.6,-13677.9
2.05218e+08,284.219,0,2.37386,28696.6,-9359.79,23218.7
2.05387e+08,65.0781,0,2.65548,-9820.52,-8577.87,-24642.5
2.05698e+08,342.422,1,2.75101,-22496.8,20690.1,3207.43
2.05731e+08,71.0927,2,2.4975,10467.3,7140.13,-20820.2
2.05946e+08,90.6902,0,2.83816,-16755.5,-3442.57,-20507.3
2.06026e+08,11.3468,0,2.85829,2178.9,-771.843,-27942.9
0,11.3225,0,2.68572,0,0,0
2.06076e+08,87.4358,1,2.98001,186.105,-11852.4,-14896.4
2.06138e+08,97.9938,2,3.04256,-6603.86,-14525.8,-15827.1
2.06618e+08,1.301,2,2.43376,182.987,-29.3246,-28649.1
2.06927e+08,25.119,2,2.55469,-4533.8,-2766,-27801.1
2.06936e+08,37.2096,0,2.67607,4267.63,-6621.72,-28135.4
2.07071e+08,33.2374,2,2.76021,-5362.51,452.752,-24343.2
2.07193e+08,139.181,1,3.02139,10844.1,-17850.2,-8574.08
2.07675e+08,11.9398,0,2.44855,458.21,2273.48,-29908.3
2.07753e+08,4.10709,2,2.79122,-672.965,-266.05,-28237.3
2.07875e+08,35.3316,2,2.74476,646.874,-4364.12,-22781.1
2.07897e+08,42.3004,1,2.85943,2101.81,8684.92,-27900.7
2.08211e+08,69.2459,0,2.98451,14631.4,166.599,-28889
2.08614e+08,157.976,1,2.46452,-24887.7,22249,-26303.7
2.09277e+08,13.1151,0,2.81072,1338.02,1520.4,-26861.4
2.09339e+08,15.0499,2,2.65123,1185.18,-2537.12,-27211.2
2.09888e+08,167.839,2,3.01142,-16232.6,-17493.5,-2922.65
2.09901e+08,66.1747,2,2.72094,1317.88,8207.93,-17685.3
2.09929e+08,61.2508,1,2.65027,-1432.71,-6359.81,-17690.7
2.10069e+08,4.0743,0,2.61706,72.1764,302.164,-28002
0,4.11547,0,2.99698,0,0,0
2.10224e+08,116.91,0,2.61098,-627.98,-17883.6,-11835.7
2.10908e+08,79.3005,0,2.82339,2557.36,6225.45,-28615.7
2.11009e+08,20.9718,0,2.42336,2387.16,2067.66,-25652.8
2.11015e+08,90.3945,1,2.79773,-7602.42,-6030.29,-12492.7
2.11243e+08,25.1473,0,2.44245,4362.18,7.04555,-25644.6
2.11257e+08,128.588,0,3.02054,-6505.42,19542.2,-11462.2
2.12062e+08,14.7613,0,3.04701,-447.568,2092.95,-26591.9
2.121e+08,160.829,2,2.45433,-15003.9,-11613.4,-543.319
2.12187e+08,12.0416,1,2.81021,79.7567,1199.23,-26541.4
2.12586e+08,79.6334,2,2.64998,-407.685,-16664.3,-26149.7
2.12602e+08,137.18,0,2.47417,20312.8,-20816.7,-28150.8
2.1275e+08,17.3,1,2.95299,2900.45,489.494,-26761
2.13194e+08,82.6893,2,2.51021,-6876.13,2502.46,-12964.9
2.13483e+08,50.3132,2,2.75236,3088.53,-5421.57,-20211.1
2.13755e+08,52.0282,0,2.77556,10451,724.132,-25429.1
2.13847e+08,23.3008,2,2.80867,3516.31,-1816.3,-25894.2
2.14296e+08,102.372,2,2.84642,-11122.5,10912.6,-13985.2
2.14496e+08,77.3477,1,2.77945,-2507.94,12911.8,-19111.7
2.14511e+08,43.403,1,2.58754,6352.6,6537.42,-27439.3
2.14628e+08,186.599,1,2.89224,6024.14,27038.5,-9968.39
2.14703e+08,78.1007,2,2.92622,-2210.27,-1944.88,-27592.4
2.14748e+08,105.13,2,2.96887,4000.73,15594.8,-13830.4
2.15214e+08,55.7285,2,2.84912,-8761.24,1133.1,-21124.3
2.15393e+08,9.43623,1,2.85238,-197.508,2084.33,-28674.6
2.15704e+08,127.325,2,2.53465,-9354.4,23443.9,-19570.6
2.1574e+08,14.6174,2,2.96599,-306.465,-2387.07,-26822
2.15843e+08,59.0486,1,2.4868,-5324.61,-8356.28,-27561.9
2.16013e+08,60.786,0,2.61509,6584.35,4484.75,-18721.2
2.1633e+08,8.52101,0,3.00559,-373.287,-1747.42,-28705.6
2.16526e+08,18.1678,0,2.45271,3229.49,2123.75,-28064.8
2.16572e+08,202.01,0,2.48539,29317.4,-16922.9,-2683.18
2.16693e+08,4.10169,2,2.97479,-29.7096,-550.346,-28107.7
0,4.06732,2,2.44217,0,0,0
2.17329e+08,25.2859,2,2.51206,784.35,-4241.86,-25555.9
2.17361e+08,133.864,2,2.6477,18144,16649.5,-23095.1
2.17709e+08,46.763,2,2.76231,-6799.71,-1359.42,-21792.3
2.17799e+08,76.3241,1,2.83825,5354.74,9868.52,-17298.9
2.18209e+08,17.611,1,2.73528,-3433.22,1444.65,-28052.3
2.18375e+08,16.0483,0,2.68752,3334.71,1067.48,-29002
2.18614e+08,109.4,1,2.78489,-473.962,457.288,-29040.3
2.18648e+08,73.1608,1,2.75326,4138.43,13706.2,-23032.9
2.187e+08,206.545,0,2.44559,25412.6,20407.1,318.028
2.18754e+08,10.3247,0,2.39951,1764.51,925.458,-27760.2
2.18876e+08,130.724,2,2.7754,-9765.17,22120.5,-15775.5
2.19274e+08,79.9692,1,3.05887,-1774.38,7274.13,-27980.8
2.19375e+08,89.4265,1,2.52651,4291.27,14401.4,-17251.9
2.1955e+08,36.5908,1,2.67757,-3024.74,-4347.27,-23222.8
2.19557e+08,19.1543,1,2.46665,961.218,-2537.51,-25859.8
2.19608e+08,65.1515,0,2.89008,6662.41,-5888.79,-18378.9
2.19717e+08,95.7757,1,2.72911,1189.96,18769.3,-21759.2
2.19882e+08,16.2296,1,2.37046,-1645.51,-1245.35,-26089
2.19967e+08,8.95507,0,2.91347,427.645,-1289.72,-27486.8
2.19994e+08,150.216,2,2.76557,-24484.7,3442.72,-9054.47
2.20124e+08,24.933,2,2.7932,-39.3036,-2155.63,-24025.5
2.20277e+08,95.7626,0,2.64386,11869.2,1254.32,-12452.2
2.20304e+08,55.9871,2,2.76793,-6304.36,-6798.33,-21418.7
2.20355e+08,7.51134,2,2.66334,-432.698,-13.6368,-27283.6
2.20456e+08,58.1406,0,2.37655,3980.95,-11687.9,-28680.9
2.20583e+08,10.6408,2,2.43734,1156.94,-1097.39,-27185.7
2.20837e+08,4.52714,0,2.89672,395.085,53.6186,-27945.7
0,4.45091,0,2.96368,0,0,0
2.21611e+08,1.43416,1,2.76947,33.6667,232.183,-28586.5
0,1.38615,1,2.84355,0,0,0
0,1.36488,1,2.89608,0,0,0
2.21824e+08,29.1803,1,2.42404,1473.28,5210.01,-25777.7
2.22194e+08,122.587,1,2.68661,-3598.38,18685.5,-11238.3
2.22449e+08,154.474,1,2.5069,16254.4,-3540.34,-766.999
2.22856e+08,14.0715,0,2.63967,2275.91,-1761.16,-29932.2
2.2287e+08,25.3596,0,2.43349,-1199.21,5182.74,-29603.5
2.22904e+08,48.7936,1,2.82692,-3946.62,8790.41,-26798.3
2.23138e+08,57.3174,0,2.58936,6743.91,-9968.27,-26955.1
2.23245e+08,42.2506,1,2.46437,-6137.78,5081.48,-24596.9
2.23477e+08,101.44,0,2.64246,969.701,16479.7,-15178.9
2.24409e+08,23.6324,2,2.77281,2667.33,-2081.52,-25140.1
2.24571e+08,51.6456,1,2.89153,5607.77,7664.83,-23479.7
2.24637e+08,15.4164,0,2.62828,2672.3,-1777.88,-29828.9
2.24648e+08,76.9075,1,2.67253,-10607,-11994,-26368
2.25116e+08,10.0013,2,3.05616,-460.199,1768.38,-27876.2
2.25327e+08,75.4796,1,2.66002,-5998.54,-5126.7,-15016.8
2.25704e+08,71.2452,0,2.43599,2279.8,-8149.61,-16365.4
2.2587e+08,2.84192,1,2.55558,237.863,649.541,-28802.1
2.26033e+08,9.12888,1,2.62212,-159.381,1609.32,-27646.2
2.26526e+08,6.18924,1,2.52178,-348.476,411.276,-27583.9
2.26753e+08,83.367,1,2.4572,2758.67,13965.6,-18366.6
2.26824e+08,93.1478,1,2.80824,-9849.59,4323.55,-26271.2
2.27178e+08,192.846,2,2.78151,4889.84,-2276.73,-24580.3
2.2723e+08,2.00653,1,2.74224,-416.439,69.9007,-29111.1
2.27722e+08,21.5463,1,2.46453,-3528.95,-985.145,-26063.8
2.27779e+08,24.735,2,2.67119,-3002.9,-2397.31,-25188.4
2.27786e+08,104.998,1,2.76367,-7145.1,-5671.67,-29430.6
2.27986e+08,13.4363,0,2.42292,-1679.61,-264.685,-26589.7
2.28019e+08,36.1068,0,2.39679,-2236.28,6569.51,-29370.5
2.28042e+08,22.8844,2,3.04765,3099.73,3040.97,-26930
2.28284e+08,11.7173,2,2.6092,-1141.7,-2326.76,-28742.1
0,11.8094,2,2.91682,0,0,0
2.28304e+08,21.4127,2,2.40628,-2563.72,862.978,-25174.8
2.2861e+08,82.5404,0,2.43006,12314.2,-3779.99,-16936.7
2.28623e+08,46.1062,0,2.65014,-5825.83,-5134.16,-23035.9
2.28744e+08,123.74,2,2.52352,2712.09,-22707.3,-15975.6
2.28824e+08,73.6428,0,2.87952,2470.22,6915.78,-15209.6
2.2906e+08,37.0498,2,2.55928,-335.707,6521.05,-24566.6
2.29337e+08,16.8629,0,2.50699,-61.7012,3294.49,-27406
2.297e+08,260.953,2,2.63424,-24043.7,-9754.72,19729.7
2.29756e+08,15.7971,1,2.87004,2877.35,-388.489,-27247.2
2.30586e+08,72.9746,1,2.76128,10243,9954.53,-23052.2
2.30954e+08,57.0597,1,2.36913,-1361.85,-7352.66,-19378.7
2.31167e+08,46.7305,1,2.44768,7905.18,-1965.77,-23303
2.31587e+08,112.889,2,2.73253,-14114.1,-19238.1,-29886.6
2.3172e+08,100.326,1,2.60805,-11115.9,14478.5,-17983.8
2.31792e+08,53.4163,2,3.0576,3455.77,-6832.6,-20613
2.31828e+08,50.7141,2,2.9235,1729.65,-9928.73,-25192.6
2.31922e+08,20.1717,1,2.51307,782.194,3797.67,-26859.8
2.31929e+08,149.195,2,2.9577,20420.5,4625.32,-8289.86
2.32106e+08,163.639,0,2.39047,5056.35,-22285.9,-4621.84
2.32169e+08,141.271,0,2.80716,17763.6,21007.9,-17413.9
2.32284e+08,128.812,0,2.83492,9685.76,-16783.8,-16512
2.32695e+08,6.90979,1,2.77297,-81.0476,1279.04,-27975.5
2.32883e+08,9.43714,0,2.53577,1836.32,122.876,-27833.1
2.32965e+08,12.6276,0,2.40252,1405.94,2336.1,-28431.3
2.32994e+08,63.8878,1,2.61314,-9143.09,599.641,-18862.3
2.33131e+08,99.437,1,2.76648,-8977.62,-5362.27,-10714.6
2.33166e+08,34.6247,0,2.96059,2206.68,-1636.43,-28228.2
2.33486e+08,11.4923,0,2.62483,-338.299,2378.16,-29206.4
2.33666e+08,64.7911,2,2.46059,-11510.6,5635,-23881.1
2.34105e+08,139.578,2,2.93073,-19281.6,-9117.02,-8704.91
2.34317e+08,95.3645,0,2.42601,11703.1,3238.22,-12661
2.34349e+08,92.4046,2,2.98224,-15989,-4269.19,-18685
2.3452e+08,44.7549,2,2.38012,5336.13,-7784.63,-27412.4
2.3501e+08,101.614,1,2.75616,16343.1,13386.6,-25411.6
2.35244e+08,25.9565,1,2.86094,3691.81,2071.27,-25378.5
2.35302e+08,82.1299,1,3.05702,-1735.82,-5790.48,-15428.3
2.35713e+08,25.7779,0,2.4876,-2471.27,-4011.72,-26130.8
2.35781e+08,34.0335,1,2.67767,-3350.77,6183.13,-26951.8
2.36401e+08,63.8242,2,2.40801,13081.7,-3104.89,-27680.7
2.36537e+08,8.23753,2,2.90304,-325.907,988.257,-27493.1
2.36542e+08,63.6292,0,2.6772,3438.29,-10482.3,-21162.1
2.36593e+08,10.6876,2,2.99032,-278.196,-2296.38,-29060
0,10.5179,2,2.9065,0,0,0
0,10.58,2,2.603,0,0,0
2.36603e+08,155.358,2,2.55401,136.66,-24797.9,-7232.93
2.36677e+08,178.117,2,2.58101,-11446.5,-15886,3358.45
2.36739e+08,87.309,2,2.70693,4619.17,-9348.27,-13636.9
2.36813e+08,36.5807,1,2.37184,3736.55,-5779.94,-25516.7
2.36816e+08,113.784,2,2.41783,-22239.6,272.016,-19464.7
2.37335e+08,263.095,0,2.76047,595.307,29985.6,-8345.04
2.37507e+08,98.9615,1,2.53038,8529.44,-7022.67,-11095.7
2.37563e+08,143.93,2,2.91682,17919.4,-4474.6,-4959.97
2.37922e+08,120.888,1,2.98722,-2043.48,22839.2,-17827.9
2.38069e+08,6.28928,0,2.73978,-596.088,260.362,-27690.1
2.38485e+08,49.1908,2,2.85861,-4174.99,1341.71,-19446.5
2.38805e+08,131.596,2,2.97039,-14772.4,-19149.8,-15412.5
2.39065e+08,66.2004,2,2.98866,-1460.27,7354.37,-17191.9
2.39169e+08,107.237,1,2.64108,17754.4,-8444.7,-17691
2.39343e+08,3.16885,0,2.68623,274.45,210.157,-28212.6
2.39566e+08,31.7227,1,2.97297,-2119.55,6324.65,-29899.4
2.402e+08,167.712,1,2.41498,25421.7,13303.7,-7945.58
2.40211e+08,5.10538,2,2.60127,604.334,790.248,-28612.5
2.4109e+08,9.91742,2,2.79048,1563.19,-101.066,-27466.8
2.414e+08,11.681,1,2.59726,280.016,2177.39,-27599.1
2.41597e+08,152.023,2,2.58451,8833.56,23701.7,-9169.43
2.41689e+08,80.8627,0,2.64027,9466.02,-3884.67,-15100
2.41831e+08,271.556,2,2.40155,-25813.3,-27047.6,14838.7
2.42441e+08,110.454,2,2.60746,8972.25,-7991.24,-8829.08
2.42528e+08,7.90866,0,2.79833,-230.193,1654.13,-28802.7
2.42604e+08,102.821,2,2.82865,10243.8,8957.02,-22823.8
2.43281e+08,110.2,0,2.40482,11507.3,-7561.9,-9950.57
2.43745e+08,140.76,0,2.52802,2435.74,-25844.7,-14296.1
2.43857e+08,79.9858,1,3.02705,6260.05,5273.4,-14187.8
2.44138e+08,89.6353,0,2.48358,11225.7,-4719.92,-24587.4
2.44621e+08,56.3918,1,2.3773,-10842.4,1846.83,-24027.6
2.44767e+08,59.1376,0,2.74914,7331.11,10175.8,-28666.3
2.4504e+08,22.6556,2,3.02365,-248.115,-2947.12,-25065.3
2.45297e+08,133.615,0,2.86481,-7067.98,14963.5,-7559.43
2.45754e+08,71.3274,2,2.78582,-11169.5,-2055.54,-18935.1
2.45974e+08,101.263,2,2.62126,-14153.7,-9477.65,-15797
2.46202e+08,9.0447,0,2.7579,-1026.83,45.2572,-27244.5
0,8.7126,1,2.40897,0,0,0
2.46348e+08,31.5947,0,2.7959,-466.898,-4602.1,-24030.1
2.46591e+08,11.491,2,2.66112,1127.58,-995.56,-26923.6
2.4707e+08,32.7795,1,2.5361,-3471.11,-2912.11,-23608.3
2.47725e+08,55.9013,2,2.60818,-87.5476,-8153.93,-20250.9
2.47911e+08,15.669,0,2.43656,1899.92,1302.16,-26353
2.48187e+08,12.1242,2,2.41737,1210.32,-2169.13,-27978.2
2.48541e+08,122.077,0,2.8191,12355.9,18959.6,-16587
2.48602e+08,164.773,2,2.61454,-9422.57,-16926.6,128.612
2.48943e+08,230.546,2,2.49104,25381.8,-9183.89,11742.7
2.49331e+08,87.4407,1,2.59163,-1532.33,11693.1,-14541.9
2.49538e+08,173.317,1,2.59752,-12491.1,12731.9,3176.73
2.49641e+08,19.9987,1,3.06077,-768.538,4186.54,-29369.2
2.49862e+08,18.8826,1,2.84566,-2964.23,-2087.65,-27238.2
