#class tools::wcsv::ntuple
#title time
#separator 44
#vector_separator 59
#column double eventID
#column double t(ns)
#column double copynumber
#column double energy(eV)
#column double x(mm)
#column double y(mm)
#column double z(mm)
94745,106.748,0,2.82808,-18326.4,10262.7,-21039.6
156226,55.541,0,2.66136,-7867.88,-961.149,-23318.5
450782,258.101,2,2.73989,-22119.5,-2794.48,-4275.64
588863,45.0568,1,2.57664,-9580.12,-239.972,-28640.8
663530,1.42616,2,2.7081,-48.3593,21.3941,-28556.1
811942,40.0747,2,2.54863,2501.24,2864.13,-21302.4
0,40.0338,2,2.5988,0,0,0
1.10131e+06,62.5538,2,2.57435,7738.49,-10668.2,-27368.7
1.19118e+06,96.8134,0,2.95475,13049.3,9662.2,-16555.5
1.35303e+06,108.31,2,2.99517,-12388.9,-15433.8,-18295.6
1.50179e+06,77.9728,2,2.82115,-3309.11,-11147.5,-17181
1.51208e+06,41.5179,1,2.95767,5828.76,-5794.48,-26144.3
1.53637e+06,166.83,0,2.65806,-9188.08,27922.8,-9500.95
1.59701e+06,30.7455,1,3.0154,4866.83,4215.54,-28036
2.21642e+06,117.476,0,2.60493,10911.1,12704.8,-10461.6
2.40546e+06,160.428,1,2.76971,-4959.06,18298.9,-4605.79
2.76769e+06,4.30293,1,2.72631,-312.302,-828.485,-28841.4
0,3.70153,2,2.7057,0,0,0
2.78877e+06,128.153,2,2.55322,-10482.9,-6127.56,-6584.1
2.89305e+06,68.3586,2,3.0304,-7266.68,-86.9847,-16471
3.12185e+06,98.4429,0,3.04588,19721.7,5679.55,-26079.7
3.32864e+06,147.476,2,2.58157,7836.69,-19468.5,-5757.44
3.51352e+06,136.86,1,2.46598,-23541.5,14311.9,-19723
3.5416e+06,49.5565,0,2.4512,10496.4,-876.714,-27651.5
3.66646e+06,14.7014,1,2.55018,-3130.1,-49.4343,-28337.6
3.68189e+06,80.1634,1,2.41615,-13039.1,3514.35,-18461.6
3.96082e+06,79.7179,2,2.61449,747.178,-15160.3,-21389.4
4.05674e+06,90.4507,0,2.83651,4831.73,7097.82,-11831.7
4.17413e+06,0.320242,0,2.07402,146.389,-69.8538,-28854.6
0,0.279405,0,2.21554,0,0,0
0,0.249494,0,2.5725,0,0,0
0,0.252637,0,2.44446,0,0,0
0,0.248766,0,2.12324,0,0,0
0,0.230122,0,3.0829,0,0,0
4.32006e+06,39.0596,0,2.51632,-3346.6,7459.52,-27771.5
4.61682e+06,8.04347,2,2.92466,-946.314,-1512.46,-29055
4.87665e+06,136.676,0,2.66808,19781.5,-3525.11,-8084.01
5.21502e+06,45.2086,1,2.54399,-2456.94,9282.33,-27897.9
5.54003e+06,30.8428,1,2.39413,3082.33,4493.27,-25189.6
5.7393e+06,74.108,2,3.03501,856.995,-11785.3,-18659
5.85029e+06,74.8257,0,2.36811,15518.3,-3455.4,-27739.9
5.90109e+06,11.6293,0,2.71087,1469.49,2035.47,-28871.7
5.98426e+06,17.4837,2,2.70511,2129.95,-56.0347,-25830
6.04556e+06,140.838,0,2.77198,-9673.01,25331.7,-23636.5
6.22271e+06,118.051,1,2.51838,905.075,19770.2,-13544.2
6.2247e+06,77.9384,0,2.95209,-10247.2,-1836.66,-16488.6
6.26812e+06,16.8439,2,2.95623,-675.663,-3555.32,-28435.7
0,16.7798,2,2.89438,0,0,0
6.49857e+06,55.7227,1,2.78497,-5263.3,348.084,-18317.6
6.61292e+06,103.025,2,2.89555,-12936.8,255.266,-15244.5
6.83035e+06,170.768,2,2.45876,-15208.9,-23419.2,-5834.27
7.15008e+06,182.397,0,2.50931,-16218.8,-19030.8,501.059
7.42326e+06,31.6226,0,2.54137,1260.54,-589.795,-22288.4
7.5212e+06,11.1425,0,2.70785,1084.04,2039.82,-28138.5
0,11.1541,0,2.63841,0,0,0
7.58045e+06,36.643,0,2.55212,1853.32,-233.567,-21291.9
7.84278e+06,109.776,2,2.47208,-8246.65,-7929.72,-8578.57
8.00675e+06,165.017,0,3.02822,-18201.5,15145.9,-19559.1
8.27928e+06,51.1042,2,2.67499,-4702.68,-1782.28,-19268.7
8.49661e+06,6.52389,2,2.51496,865.054,-286.796,-27778.2
8.6298e+06,46.7948,0,2.62895,6201.49,-2393.67,-21437.5
8.6787e+06,60.7905,0,2.75888,8735.54,-8747.45,-25190.8
8.73649e+06,33.3498,1,2.98496,476.555,4094.2,-28392.4
9.10398e+06,98.6207,2,2.41824,7886.91,-10356.6,-12491
9.21131e+06,19.6013,2,2.80809,-2547.97,4.35214,-25532.6
9.35471e+06,28.9519,1,2.77213,-5473.79,2693.63,-29921.1
9.50822e+06,33.3259,2,2.48302,-5340.03,3229.31,-25505.6
9.71661e+06,34.098,2,2.40439,921.604,-1535.24,-21855.6
9.88203e+06,172.129,1,3.01431,12015.7,-12721.6,2661.71
9.91847e+06,98.2803,1,2.96632,-6165.32,-1377.81,-12219.3
1.00384e+07,94.0552,1,2.69609,8480.7,15973.9,-20597.6
1.0367e+07,20.1888,1,2.83576,-1935.89,3910.33,-29086.1
1.14685e+07,17.2095,2,2.83276,-3072.03,-1215.35,-27163.4
1.14889e+07,35.4299,0,2.38064,-4382.44,5929.32,-27563.5
1.16082e+07,108.223,0,2.70935,9368.45,-400.086,-8015.35
1.19038e+07,44.3574,1,2.59554,3166.3,2091.61,-20245
1.1938e+07,23.8541,2,2.78739,-3153.89,-4021.61,-29202.6
1.20868e+07,116.677,2,2.51711,-22270.9,4950.33,-19331.8
1.22063e+07,166.492,1,2.95901,2104.86,15619.3,-1626.36
1.23532e+07,35.5227,1,2.82432,6307.65,-1314.58,-25114.6
1.3031e+07,307.119,1,2.83757,-14142.1,2996.98,3892.35
1.30889e+07,92.8493,2,2.63675,4347.64,-13438.6,-15170
1.34395e+07,21.5351,2,2.97822,1643.72,-1183.81,-24778.8
1.34775e+07,47.0647,2,3.00965,-4632.98,-7981.83,-25117.3
1.35011e+07,134.282,1,2.37373,-9775.19,22590.7,-14742.9
1.35106e+07,166.7,0,2.89246,16029.2,6781.72,1596.37
1.3776e+07,3.99896,2,2.7041,-443.169,338.985,-28190.3
1.3784e+07,181.511,1,2.74279,25401.9,18329.3,-6894.25
1.39889e+07,15.8489,0,2.82148,1613.62,680.915,-25960.3
1.42253e+07,88.4868,0,3.02031,9911.73,-15114.4,-24544.1
1.42352e+07,17.6484,1,2.80108,-820.556,-1375.32,-25474.5
1.42646e+07,86.042,0,3.03375,2589.03,17299.9,-24388.1
1.44497e+07,95.4823,2,2.70337,-1045.22,-9901.72,-11294.5
1.47671e+07,84.9203,1,2.74979,-9702.73,13670.3,-22347.5
1.48089e+07,124.077,0,3.06168,4178.8,-12979.3,-6728.35
1.51327e+07,154.978,2,2.4232,-7464.58,-27455.5,-26887.3
1.51627e+07,93.32,1,2.41829,6517.72,-8025.24,-12040.8
1.51689e+07,86.1943,2,2.45083,9306.92,-2187.94,-13304.9
1.51997e+07,36.5572,1,2.65528,1295.9,3890.45,-22270.4
1.55152e+07,31.5967,1,3.03244,2535.51,2593.25,-23258.6
1.55261e+07,37.2986,2,2.61801,7846.03,-124.228,-28951.1
1.56014e+07,1.87293,0,2.77316,0.794748,-372.572,-28628.1
1.5623e+07,46.7014,2,2.68991,-1447.92,-6462.03,-21445.9
1.56727e+07,156.836,0,3.03078,-7719.29,11395.2,-17650.7
1.56769e+07,45.2528,0,2.58841,4832.86,-8303.58,-29494.4
1.58384e+07,79.9911,2,2.97437,9833.14,10444.5,-26934.2
1.61256e+07,144.589,1,2.61024,-7493.9,4245.92,478.215
1.64822e+07,96.307,0,2.58804,17414.6,10660.8,-27797.2
1.66253e+07,188.706,2,2.92582,-28319.7,-217.214,-1116.04
1.67586e+07,53.5346,1,2.9339,-9543.18,-2101.56,-23209.8
1.69481e+07,51.281,2,2.57885,5133.97,4451.83,-20440.9
1.71921e+07,42.6892,1,2.47072,-2119.22,-3503.71,-20790.3
1.74666e+07,85.8793,1,2.51363,-3089.71,15884.8,-20451.9
1.7531e+07,31.4115,1,2.9802,3603.68,3259.74,-24410.5
1.78927e+07,115.707,2,2.44747,-24259.7,-3596.71,-27707.6
1.79196e+07,15.0383,0,2.58436,3023.7,-4.46126,-27571.8
1.80164e+07,172.865,2,2.81389,-10444.9,-2160.81,5925.22
1.8021e+07,20.9633,2,2.42867,832.962,-4450.09,-29187.8
1.80493e+07,18.8936,1,2.72621,2776.58,-240.907,-25998.3
1.8131e+07,28.3282,2,2.40238,1570.74,-888.282,-23093.4
1.85746e+07,305.348,2,3.02792,-2131.83,5472.63,-27747.2
1.86109e+07,31.4802,2,3.02566,3147.37,-5879.41,-28698.7
1.9267e+07,62.1162,0,2.66682,7238.41,-6225.25,-19787.4
1.94037e+07,76.4156,1,2.50573,-8178.74,-13598.4,-25917.2
1.94582e+07,99.0366,2,2.36894,-14911.5,-14593.6,-26106
1.95523e+07,188.999,0,2.86892,300.106,12674.4,8776.94
1.95688e+07,21.1095,2,2.49513,-770.387,-4425.39,-27985.5
1.96069e+07,17.3262,0,2.88193,-1760.98,-2762.17,-27273.3
2.00767e+07,108.353,1,2.87602,3143.84,14658,-11650.4
2.0461e+07,183.722,2,2.74037,-25544.4,2601.91,-28978.1
2.04764e+07,105.988,1,2.51946,-15980.7,13144.7,-20047.6
2.0626e+07,56.9243,1,2.93999,8933.13,5022.42,-22682.6
2.06632e+07,168.637,1,2.73389,-6059.79,-19787.3,17.4703
2.09147e+07,136.371,2,2.83163,12768.6,-5446.26,-3744.48
2.11518e+07,94.777,0,2.69938,6937.35,13855.1,-16142.7
2.14966e+07,259.029,1,2.95966,-13783.9,26587.5,2134.57
2.16227e+07,7.72007,2,2.98022,-414.26,-154.008,-27276
2.16691e+07,111.353,2,3.04313,22521.3,-1489.92,-23100.8
2.17438e+07,22.6557,0,2.8713,4224.98,2378.25,-29357.2
2.17507e+07,8.25571,0,2.56775,-1046.92,-540.189,-27627.2
2.21984e+07,79.7298,0,2.61235,6795.69,14704.8,-24030.3
2.2311e+07,45.9124,0,2.37477,8120.23,3651.98,-24740.4
2.23715e+07,2.91995,2,2.36293,184.348,-623.331,-29121.1
0,2.93012,2,2.46951,0,0,0
2.29689e+07,126.951,0,2.75659,19980.1,4988.51,-11684.1
2.3278e+07,27.5255,1,3.02824,-5830.24,-122.599,-28908.3
2.39329e+07,205.781,0,2.43337,8813.76,15409.8,10924.6
2.4136e+07,6.55275,0,2.45895,804.496,1139.28,-29253.8
2.42135e+07,37.41,1,2.96434,-2110.35,2829.73,-21762.2
2.42294e+07,45.4364,2,2.93768,5421.39,-6016.62,-23714.3
2.44398e+07,34.4333,0,2.36598,5363.7,-4158.52,-25994.4
2.45198e+07,23.2147,2,2.3687,-2417.73,4256.14,-29017.1
2.46479e+07,27.4383,0,2.60556,4686.26,-2498.15,-26316.3
2.467e+07,42.4645,2,2.43694,-2001.58,-1023.4,-20105.7
2.53753e+07,95.5995,2,2.66869,13291,2481.65,-13900.6
2.54014e+07,10.9797,0,2.56837,-1379.75,-1069.33,-27333.7
2.54535e+07,165.07,2,3.00379,-11956.8,-29632.5,-15349.9
2.60995e+07,7.83997,0,2.41457,531.215,-1490.7,-28197.8
2.62513e+07,32.4579,2,2.55595,4037.36,-5569,-29585.7
2.6454e+07,12.4672,2,2.44391,1368.17,539.764,-26652.8
2.67996e+07,4.52423,0,3.03536,-421.585,842.239,-28872.8
2.74479e+07,121.357,0,2.83539,4354.65,23392.8,-19519.8
2.77814e+07,224.306,1,2.75383,4608.35,-28947.2,6089.5
2.793e+07,135.887,1,2.51824,14310.9,-20635.4,-14988.2
2.80803e+07,65.4956,2,2.50889,-1149.22,-3835.12,-15533.6
2.8103e+07,91.4378,0,2.61572,19241.9,2360.59,-29047.2
2.81133e+07,0.059692,1,3.39755,-73.1594,61.1886,-28813.3
0,0.0342303,1,3.79343,0,0,0
0,0.0336134,1,2.72477,0,0,0
0,0.0416764,1,3.88872,0,0,0
0,0.0429326,1,3.11251,0,0,0
0,0.0288726,1,3.67248,0,0,0
0,0.0306555,1,3.57757,0,0,0
0,0.051843,1,2.89769,0,0,0
0,0.0348343,1,3.76114,0,0,0
0,0.0337203,1,3.05224,0,0,0
0,0.0341361,1,3.25943,0,0,0
0,0.064972,1,2.89615,0,0,0
0,0.0296353,1,2.54417,0,0,0
0,0.0319479,1,2.22068,0,0,0
0,0.0422969,1,3.61494,0,0,0
0,0.0389881,1,3.00013,0,0,0
0,0.0488752,1,2.26391,0,0,0
0,0.0618616,1,2.21743,0,0,0
0,0.0276371,1,2.24257,0,0,0
2.82053e+07,123.885,1,2.72467,-4971.13,1223.33,-3236.78
2.83146e+07,6.12705,2,2.38047,-785.31,-459.899,-29878.3
2.83331e+07,142.734,0,2.65556,13773.7,-24702.4,-18465.8
2.83622e+07,0.331013,1,4.01875,16.9127,131.915,-28800.5
0,0.322647,1,2.20456,0,0,0
0,0.27605,1,3.8435,0,0,0
0,0.304268,1,2.80168,0,0,0
0,0.264383,1,3.24859,0,0,0
0,0.261765,1,2.65969,0,0,0
2.85556e+07,202.722,0,2.66219,-20753.6,-11169.1,6795.61
2.85952e+07,65.8432,2,3.02154,-10706.4,-3134.85,-20592.8
2.87256e+07,33.2307,1,2.92238,-693.711,-3185.63,-22666.3
2.91462e+07,0.321471,0,2.64278,142.919,-40.8885,-28799.2
2.97468e+07,20.3434,1,2.8875,2372.17,2710.25,-26450.7
2.98838e+07,51.5673,0,2.48593,-3258.37,9527.57,-24650.8
3.00114e+07,37.9034,2,2.37402,-1051.4,-3081.47,-21470.4
3.00584e+07,24.3386,0,2.36377,4996.85,-1589.48,-28485.1
3.02501e+07,3.38599,0,2.60001,-9.7135,-304.5,-28197.4
3.09304e+07,65.7292,1,2.70204,5368.11,12190.2,-25120.7
3.10686e+07,64.7488,2,2.61046,-9801.44,6969.4,-22293.8
3.13051e+07,49.9191,0,2.82136,8341.96,2454.61,-22812.4
3.13924e+07,135.782,0,2.723,18678.2,-15144.8,-13226.2
3.19638e+07,1.14295,0,2.81858,239.936,17.7772,-28626.9
3.28776e+07,118.286,0,2.44996,24458.1,1998.45,-23578.8
3.33498e+07,3.46227,0,3.00177,504.047,-423.093,-29297.8
3.33507e+07,8.85049,1,2.64429,1290.6,-91.1474,-27521.7
3.36651e+07,74.6937,0,2.46728,-13611.8,-4975.39,-22677.3
3.38832e+07,101.452,1,2.4274,-13600.8,-385.892,-12191.4
3.39719e+07,61.6942,2,2.55677,341.721,-12842,-26102.8
3.42439e+07,20.4087,1,2.74511,-1083.21,3450.25,-26346.7
3.44078e+07,7.55293,2,2.68202,-49.8804,-1668.86,-29016.6
3.45522e+07,12.4981,1,2.66389,801.601,-2008.3,-27408.9
0,12.534,1,2.82427,0,0,0
3.46241e+07,145.051,0,2.92764,23671.3,19209.4,-29983.4
3.47423e+07,5.67947,1,3.00015,108.019,529.136,-27719.9
3.47877e+07,155.95,2,2.42116,3290.13,-13399,1148.29
3.48308e+07,95.5051,2,3.03791,-4438.92,1961.71,-24658.9
3.486e+07,11.3012,0,2.67987,2048.37,-1407.93,-28713.4
3.53801e+07,50.2325,1,2.6365,-10093.3,3348.96,-28556.6
3.57424e+07,158.9,0,3.02864,10270.1,-2766.25,2734.55
3.57741e+07,205.508,2,2.52884,7580.03,-12122.6,12192.4
3.60068e+07,13.3427,2,2.57829,-497.412,-2037.19,-26841.2
3.60726e+07,101.702,0,2.73865,-18992.2,9513.65,-26583.8
3.72116e+07,127.967,0,2.77728,-10332.7,-19835.8,-13856
3.73909e+07,34.5992,1,2.79704,-5277.23,2525.46,-24368.6
3.75763e+07,108.478,0,2.47765,-2295.67,-4887.17,-26938.4
3.80985e+07,25.9331,1,2.63002,230.091,2605.88,-23974.2
3.82781e+07,62.1006,0,2.82995,-221.519,-8781.27,-19195.1
3.83498e+07,12.0467,1,3.00005,510.138,2286.49,-27769.9
3.8988e+07,1.07115,1,2.98461,-152.899,183.481,-28651
0,1.06975,1,2.97601,0,0,0
3.90256e+07,25.9082,0,2.68745,4267.64,1648.08,-25692.4
3.93222e+07,109.233,0,2.67072,-758.277,20418.3,-18134.5
3.94898e+07,10.3799,2,2.94976,-381.61,-2244.62,-29069.9
3.95508e+07,25.2832,1,2.93143,-2657.46,2578.25,-24926.2
3.98179e+07,90.4172,2,2.94162,8036.78,9974.8,-14873.4
3.98575e+07,117.44,1,2.61155,17689.7,14199.5,-20777.2
3.99366e+07,80.7451,2,2.93336,16872,917.066,-28249.2
3.99589e+07,25.8041,0,2.76419,-1098.69,5326.6,-28641
4.01495e+07,78.9574,1,2.58028,1474.59,7974.11,-14217.4
4.08985e+07,93.5311,1,2.84542,-2838.72,14272,-15514.4
4.09318e+07,65.4386,0,2.67445,4115.2,-12356,-24150
4.09545e+07,42.9004,1,3.04668,1031.51,-3230.19,-20755.1
4.11368e+07,73.3712,0,2.59546,3502.89,7232.88,-15574.5
4.13516e+07,23.3847,1,2.60874,-291.43,1782.92,-24188.9
4.14887e+07,155.715,1,3.05232,11018.9,-17115.5,-18507.8
4.15902e+07,11.6209,2,2.95189,-667.495,-1575.86,-27000
4.18048e+07,30.6667,2,2.884,-1270.46,-4612.22,-24415.9
4.19604e+07,188.019,0,2.81658,370.731,-14297.9,-24243.8
4.19973e+07,54.808,0,2.75491,10301.5,1077.8,-23563.2
4.20359e+07,180.626,0,2.75499,16710.8,-27140.2,-8034.32
4.20791e+07,91.029,0,2.45359,7297.75,14212.9,-18004.5
4.21382e+07,55.2643,2,2.70082,-3391.84,9418.27,-22912.3
4.21825e+07,78.0782,2,2.71729,2913.38,-12692.6,-18699.3
4.24519e+07,57.4857,2,3.0081,-10723.6,3222.4,-24306
4.24542e+07,18.216,2,2.38665,2502.9,578.744,-25974.9
4.35747e+07,26.39,2,3.00988,-5534.05,94.5839,-29645.1
4.3684e+07,2.39051,1,2.38747,406.204,125.482,-28613.4
4.39024e+07,19.5409,1,3.0533,3880.41,-651.861,-27840.5
4.41541e+07,5.52367,1,2.64267,22.2543,1035.17,-28156.6
4.41925e+07,2.7064,1,2.52549,344.801,161.967,-28377.3
4.45622e+07,13.6586,0,2.9411,2199.54,1407.73,-27499.3
4.45804e+07,52.3006,0,2.4339,4040.3,-866.246,-18537.6
4.46019e+07,186.265,2,3.01645,-28529.7,6930.13,-3105.43
4.46701e+07,15.5376,1,2.74759,1089.38,1546.79,-26118.3
4.47917e+07,7.80056,1,2.91605,13.2251,799.027,-27580.8
4.52694e+07,107.556,1,2.54242,-5642.79,-16676.1,-14519.3
4.54094e+07,146.514,0,2.74465,2291.68,7709.31,-22147.7
4.54514e+07,8.19429,1,2.86018,730.127,863.383,-27498.8
4.55867e+07,75.7582,0,2.37963,-3057.68,-15055,-24261.7
4.57225e+07,17.6822,1,2.83581,-741.248,-2183.57,-25916.1
4.59879e+07,54.0383,0,3.05841,4714.51,-8507.28,-22927.9
4.6182e+07,32.3443,0,2.94085,5033.8,412.292,-24187.8
4.6225e+07,116.655,2,2.67442,-131.969,-2188.21,-5243.48
4.63225e+07,57.0549,1,2.56103,-5698.09,3013.25,-18600.1
4.64711e+07,78.9005,2,2.38147,16242,3370.45,-27176.2
4.67693e+07,1.39409,1,2.57994,50.1621,392.989,-28787.3
4.68566e+07,20.7375,0,2.41622,-2488.92,3506.21,-28058.8
4.7584e+07,20.8526,2,2.92759,1569.31,-1368.94,-24953.9
4.76703e+07,21.2485,2,2.57219,305.457,-1526,-24576.5
4.78613e+07,7.02351,0,2.48419,649.429,1113.49,-27978.1
4.79068e+07,39.2577,2,2.55919,-3364.86,1272.36,-21324
4.79636e+07,89.5685,1,2.8435,11110.5,-15064.8,-27537.4
4.80994e+07,89.4372,1,2.87933,-11572.7,-6405.47,-15451.3
4.81041e+07,143.661,2,3.04794,-3542.3,13890,-2459.32
4.82426e+07,64.7364,1,2.68268,-2523.38,-5635.63,-16658.9
4.83497e+07,69.6843,0,2.66935,7604.98,2133.75,-16381.4
4.85266e+07,10.2558,1,3.00203,-1329.28,1540.88,-27883.3
0,10.1678,1,2.55195,0,0,0
4.86561e+07,125.139,1,2.52136,-1691.46,-14360.5,-6739.41
4.89027e+07,2.6722,2,2.69289,489.607,127.073,-28637
4.91234e+07,52.0462,0,2.993,5047.4,-2563.55,-25111
4.93295e+07,78.4316,1,2.49849,12480.5,7506.7,-20855.6
4.9389e+07,54.1305,2,2.68481,1386.17,-8242.95,-25013.5
4.94285e+07,147.405,0,2.5946,1442.45,23074.5,-7957.42
4.94481e+07,27.976,1,2.94247,-5867.25,-106.463,-28058.7
4.97992e+07,47.0997,2,2.89676,-7724.94,3993.84,-24050.3
5.02564e+07,102.968,0,2.8151,18743,-5536.24,-19296
5.03308e+07,88.0052,0,2.84773,10634.6,8024.2,-16269.6
5.08703e+07,14.7573,1,3.04097,-1634.14,-251.471,-26173.4
5.09269e+07,244.319,1,2.4089,-17633.7,-11371.5,18396.1
5.13272e+07,92.4787,0,2.56618,4056.45,-17786.5,-21762.4
5.16155e+07,209.887,2,2.46243,-5327.92,-6426.27,14766.6
5.16921e+07,7.878,1,3.06041,839.04,150.534,-27465.8
5.18113e+07,113.278,1,2.97721,10531.7,6436.51,-8562.81
5.19029e+07,69.3489,1,2.52793,-12019.1,-2083.7,-21058.9
5.23596e+07,69.359,2,2.8109,3637.86,-13457.3,-24290.6
5.2433e+07,20.5595,0,2.56709,4029.61,1152.39,-27345.2
5.25578e+07,225.234,2,2.87847,19987.7,9949.01,-10342.1
5.33436e+07,90.5354,2,2.37029,-13732.3,-13305.7,-26427.7
5.34472e+07,19.3198,1,2.72049,-3342.98,2149.66,-27684.3
5.35196e+07,149.168,2,2.82986,20532.8,-19590,-15379.3
5.37488e+07,100.346,2,2.77386,-13245.9,1099.46,-12380.3
5.39039e+07,73.6445,2,2.38543,13102.1,-6120.04,-22981.4
5.40103e+07,47.0904,2,2.59775,7739.34,-6178,-27548.6
5.40519e+07,3.96617,0,2.65068,-447.61,-334.674,-28281.8
5.42093e+07,15.6611,1,2.96404,-3042.55,153.515,-27465.8
0,15.4532,1,2.47952,0,0,0
5.43549e+07,162.814,1,2.58369,-23726.3,11149.4,-6470.36
5.44313e+07,101.283,1,2.91587,-8018.19,1410.77,-9181.95
5.50351e+07,118.138,0,2.88548,-10271.6,6238.85,-7163.59
5.52111e+07,40.5395,0,3.03655,6103.15,3439.83,-23940.9
5.54687e+07,60.1498,0,2.5189,12763.8,1029.09,-27964.8
5.5485e+07,105.677,1,2.55373,3842.23,10141.4,-9265.31
5.55349e+07,134.653,0,2.52121,19001.4,-20758.9,-24176.8
5.56268e+07,5.04192,2,3.01937,1040.5,30.8132,-28752.5
5.59084e+07,88.1342,1,3.04631,-336.692,16305.2,-27099.4
5.6123e+07,264.127,0,2.9844,7798.11,-19873,-5961.94
5.63105e+07,44.0918,0,2.7434,-2773.37,-2575.13,-20366.3
5.64222e+07,150.493,1,2.70691,1455.36,-21546.2,-5650.92
5.68735e+07,41.7048,0,2.84223,7022.83,1785.66,-23751.7
5.70475e+07,143.791,2,2.84285,-25327.2,-5553.09,-13177
5.70813e+07,25.9698,0,2.95044,4867.53,-1920.87,-26974.3
5.78665e+07,116.52,2,2.60446,-17774.5,-7724.01,-13574.4
5.78757e+07,198.317,0,2.66173,-23350.2,25254.7,-5123.25
5.79279e+07,95.3436,2,2.46296,16879.7,6776.36,-20230.2
5.7988e+07,0.929744,2,2.67478,-7.18672,4.32227,-28627
5.81098e+07,6.24223,1,2.93674,-65.7372,596.579,-27617.8
5.86082e+07,47.8921,0,2.39263,3735.57,921.528,-29812.7
5.86194e+07,53.2348,0,3.0272,-8715.15,-6347.61,-26135.3
5.86263e+07,16.0228,1,2.65647,2701.14,608.485,-26919.8
5.87459e+07,28.0327,0,2.76005,4661.52,-3749.41,-29271.1
5.88347e+07,31.9397,2,2.72181,1721.57,-2118.62,-22667.5
5.88768e+07,101,1,2.59689,-18627.1,10487.5,-28123.4
5.90202e+07,30.8633,1,2.58123,3305.52,-4814.29,-26039
5.95605e+07,43.2137,2,2.53755,-5019.74,1932.16,-21411.7
5.97561e+07,143.941,2,2.86233,12106.6,-11041.1,-3422.23
5.98108e+07,28.9792,2,2.56595,4951.74,1955.5,-25885.8
5.99043e+07,59.6864,0,2.75803,-799.366,-10249.5,-21564.5
5.99587e+07,116.264,1,2.96155,8673.92,22338.3,-23943.2
6.01821e+07,140.969,2,2.37159,-27679.7,-7137.54,-20035
6.02871e+07,66.8187,1,2.78412,-9336.64,-3764.68,-20159.8
6.02873e+07,159.932,2,2.80659,2730.54,-22771.8,-4138.69
6.04106e+07,12.2775,2,2.95834,-1382.1,-2079.95,-27854.9
6.07496e+07,16.3274,2,2.86537,-1314.79,-433.807,-25648.5
6.11239e+07,110.708,0,2.64286,18344.6,-2780.01,-14547.6
6.13041e+07,110.4,0,2.42811,22934.8,-92.7725,-23897.7
6.17925e+07,31.4088,0,2.50237,4784.9,1566.53,-24398.6
6.21839e+07,53.992,0,2.6913,5257.42,9421.57,-24988.1
6.23045e+07,36.5149,1,2.63924,4854.86,-1753.98,-23143.4
6.27085e+07,58.5921,1,2.99814,9292.73,-3122.44,-21480.4
6.27654e+07,221.161,2,2.91845,-7788.35,-11156.8,15546.8
6.27688e+07,199.507,1,2.75336,-18548.9,23640,602.622
6.28537e+07,6.76361,1,2.64057,-448.386,1208.29,-29660.1
6.28769e+07,144.181,1,2.84688,24931.4,-1559.37,-11734.4
6.28982e+07,65.0225,1,2.4062,-9300.46,4892.95,-19842.6
6.36903e+07,166.146,1,2.48893,-11098.3,25094.8,-6826.92
6.38661e+07,32.6314,1,2.85466,-1922.69,-4942.77,-28562.7
6.3947e+07,132.715,1,2.84324,16684.4,19599.3,-17938.7
6.40079e+07,30.1007,0,2.57941,5660.48,-1160.41,-25949.4
6.44107e+07,75.6393,1,2.62811,11038.4,11230.8,-25956.1
6.45054e+07,3.74282,2,2.80781,-243.529,-240.888,-28098.5
6.4554e+07,66.5916,1,2.55724,-716.216,10432.6,-19363.4
6.47114e+07,102.013,2,2.51052,6290.55,-12468.8,-12339.5
6.47149e+07,89.5862,0,2.9457,8116.45,-7064.84,-17638
6.48449e+07,77.8028,1,2.99741,3870.29,9241.79,-15900.1
6.53442e+07,148.798,0,2.89323,9939.01,22775.9,-9845.2
6.54159e+07,15.706,1,2.49465,-1799.41,-946.622,-26202.2
6.54497e+07,43.4132,0,2.48767,-6851.07,-1702.56,-23041.6
6.54591e+07,22.429,1,2.42303,-2030.3,-2480.7,-25317.9
6.54644e+07,92.5707,2,3.02446,10135,3622.69,-12713.4
6.55582e+07,145.322,2,2.39593,-23878.8,-13664,-14912.8
6.578e+07,80.6697,1,2.74521,-1827.65,14262.8,-19687.6
6.58194e+07,126.006,2,2.38399,-13991.2,-2634.8,-6259
6.61184e+07,13.811,2,2.75839,1187.15,-416.42,-26189.2
6.66746e+07,19.7668,0,2.84479,564.776,2002.3,-25192.6
6.6731e+07,95.3024,2,2.71532,-12404.3,-13470.5,-20401.3
6.71365e+07,9.66342,2,2.3815,308.014,-2027.3,-28278.5
6.71756e+07,42.2804,0,2.56616,-8048.99,2661.66,-26164
6.75024e+07,78.1752,1,2.93616,-5293.76,1766.68,-13366
6.84311e+07,210.952,2,2.37474,-27569.7,23065.7,-2533.68
6.85852e+07,92.3789,0,2.70919,-5475.33,-4429.44,-13325.5
6.88947e+07,143.461,2,2.57317,784.227,23998.8,-17146.1
6.89806e+07,81.243,1,2.79129,10337,5026.95,-16168.1
6.92174e+07,63.5807,2,2.80447,7835.07,4551.16,-19023.7
6.95767e+07,95.6238,2,2.43545,-12610.6,4424.88,-13654.4
6.96123e+07,67.719,2,2.38912,-8607.66,-651.062,-17350.2
6.97963e+07,31.9999,2,2.73094,2563.16,-2142.77,-22940.8
6.99895e+07,98.6339,2,2.99663,2394.47,-20045.3,-24053.4
7.02905e+07,35.5495,0,2.69725,7550.55,-797.838,-28501.6
7.05171e+07,115.436,1,2.87498,-22293.3,8221.64,-23711.6
7.06868e+07,78.6144,0,2.53911,8982.74,10780,-19804.1
7.07056e+07,25.2821,2,2.79705,-317.05,-5253.26,-27574
7.07557e+07,4.59319,1,2.7089,-108.656,813.783,-28172
7.09e+07,65.9965,2,2.66049,-12099.4,-6251.56,-25542.8
7.10604e+07,9.40155,0,2.5559,1680.33,-117.392,-28290.8
7.11527e+07,23.8091,2,2.50647,2736.17,-1522.69,-24907.5
7.12619e+07,105.164,0,2.80834,12040.9,-16374.8,-20035.3
7.14796e+07,72.7515,2,2.40695,-4005.37,-2825.65,-14213.5
7.1542e+07,149.848,2,2.84931,-2452.72,-25108,-9925.14
7.19634e+07,77.4107,0,2.71905,-2851.65,-11490.5,-17629.8
7.20109e+07,48.2054,0,2.7345,8956.54,-1528.57,-24096
7.22592e+07,27.4844,1,2.88242,-2992.82,326.568,-23850.7
7.23478e+07,110.813,0,2.66402,17128.6,15604.4,-25151.6
7.24597e+07,60.4814,0,2.78615,6715.47,5915.49,-19689.9
7.28168e+07,114.052,2,2.45555,14308.9,-18646.8,-23174
7.33978e+07,141.876,1,2.47233,-16361.4,-14256.9,-8162.97
7.34084e+07,24.7362,0,2.58946,3345.1,-2024.31,-25250.7
7.37062e+07,16.9546,0,2.50443,1574.25,3165.91,-27904.6
7.37092e+07,101.313,0,2.43889,21045.9,-1433.96,-24656.7
7.37982e+07,36.3558,1,2.63509,-2615.48,5189.94,-23705.4
7.39087e+07,2.20471,2,2.82454,28.0521,-303.126,-28421.5
7.39092e+07,50.5761,0,2.54439,7452.25,-6033.52,-23928.2
7.41036e+07,198.85,0,2.7686,3479.5,-14203.6,10376.4
7.42554e+07,11.4135,0,3.05481,1938.68,-1316.58,-29647.2
7.43389e+07,257.113,0,2.45443,23034.4,-27209.2,12251.3
7.43559e+07,74.0367,0,2.41154,14027.3,6075.12,-25024.8
7.44081e+07,111.957,1,2.93322,14536.7,16764.1,-20980
7.46527e+07,41.5548,2,2.62347,-3840.7,-5415.54,-22969.3
7.4837e+07,10.4339,2,2.79556,1310.06,-509.225,-27128.9
7.49551e+07,99.7373,0,3.00558,14119.8,5509.28,-14343.6
7.51002e+07,123.485,1,2.60459,-12824.5,22802.2,-27650.8
7.51268e+07,55.1851,0,2.5982,5357.95,-4402.79,-19422.6
7.54526e+07,30.2511,0,2.55306,5094.83,2770.43,-25929.4
7.57694e+07,100.412,2,2.87088,-20086.1,-3173.41,-22937.4
7.6135e+07,133.825,2,2.94984,2767.19,-22305.3,-11914.5
7.63098e+07,10.7889,1,2.42229,461.245,2322.61,-28616.3
7.6374e+07,26.3734,0,2.51868,5254.21,1912.09,-27948.9
7.66745e+07,77.4632,2,2.76276,-14208.4,6494.97,-24168.4
7.7012e+07,208.037,1,2.59087,18726.4,12794.1,5643.89
7.70303e+07,17.2012,2,2.98766,1407.46,-3143.71,-27566.9
7.71322e+07,88.4491,1,2.92345,-7940.5,16493.5,-25290.3
7.72601e+07,121.172,0,2.42764,5095.55,2897.58,-3857
7.73518e+07,43.4962,2,2.5999,-7478.16,-4796.98,-26173.1
7.75577e+07,55.4944,0,2.52363,5320.28,10400.2,-27188.6
7.76175e+07,66.5684,0,2.39172,-11109.2,-1427.42,-20365.3
7.77329e+07,113.252,1,2.96832,23083,5339.08,-27194.2
7.78051e+07,190.049,0,2.39709,949.622,-16426.9,-1210.36
7.8166e+07,66.3893,0,2.481,-5052.82,9262.65,-19633.3
7.8183e+07,105.951,1,2.84828,-14298.2,2682.5,-11909.2
7.85202e+07,50.2586,2,2.55636,-9503.18,-3867.41,-25779.2
7.85688e+07,12.1894,0,2.40709,-816.359,580.508,-26484.5
7.86e+07,54.1301,2,2.7068,-7447.86,-2016.92,-20349.9
7.87439e+07,6.83732,2,2.66048,769.891,-1127.84,-28203.9
7.87623e+07,60.7562,1,2.54434,8973.88,4282.94,-20688.4
7.92349e+07,205.985,0,2.74593,26841.4,-28392.5,-9831.6
7.92462e+07,62.5517,0,2.64249,2722.1,-12924.1,-29851.8
7.95611e+07,11.4771,2,2.52946,-2319.73,639.04,-29474.4
7.96575e+07,209.955,0,2.61609,-14567.8,20792.5,6449.72
7.97913e+07,8.74165,1,3.00731,-1052.41,249.553,-27303.3
7.98596e+07,48.1478,2,2.97798,-3912.64,-9249.94,-27037.5
8.03122e+07,15.9416,1,2.72231,1523.3,-1954.72,-26650
8.03663e+07,113.018,0,2.36294,2748.51,-22786.1,-22100
8.03745e+07,12.074,2,2.42256,1248.37,-2249.7,-28355.8
8.07722e+07,49.3113,1,2.49207,-3617.36,481.552,-29982.1
8.09071e+07,61.3116,0,2.52121,8993.69,-4833.46,-20736.3
8.17095e+07,49.0781,2,2.42568,-6123.2,-6715.47,-23649.7
8.17996e+07,30.1495,0,2.65849,3154.49,-2354.98,-23770.5
8.19749e+07,135.406,0,2.52972,23851.2,-13192.8,-19812.3
8.19776e+07,17.7037,1,2.98424,-2203.54,3032.3,-28101.7
8.24281e+07,152.342,2,2.85976,-14146.8,-11782.9,-13761.1
8.25199e+07,311.216,1,2.59082,29385.3,2901.99,29850
8.25221e+07,37.8261,0,2.38208,-2438.35,6660.29,-25120.6
8.26121e+07,50.061,0,2.40636,5693.82,-8935.57,-27677.7
8.27268e+07,35.6477,2,2.43119,-6882.27,77.8365,-25581.8
8.27971e+07,25.4646,2,2.41625,-4369.58,2225.3,-26541.4
8.28296e+07,77.1707,0,3.03557,9859.58,-4663.4,-16822
8.2861e+07,48.9305,2,2.76119,-5060.61,-6122.27,-22178.6
8.28612e+07,15.4387,2,2.82524,1951.82,-2515.27,-27955.8
8.29287e+07,14.6261,2,2.53384,1332.91,-2125.78,-26947.9
8.29319e+07,43.2781,1,2.8158,-4692.39,-7190.57,-25865.4
8.2982e+07,28.1958,1,2.36312,1305.64,5909.56,-28646.9
8.32297e+07,49.84,2,2.43942,6134.11,-7998.49,-25611.1
8.32743e+07,26.8749,2,2.7267,518.491,3294.41,-24308.2
8.38992e+07,70.8273,1,2.63314,-6054.37,8499.36,-18039
8.42345e+07,83.8422,2,2.41561,6595.64,-9531.44,-15349.3
8.42976e+07,16.0168,0,2.57739,1848.44,-565.431,-26006.5
8.46582e+07,58.4842,2,2.78047,-11354.6,2314.67,-24522.4
8.47113e+07,117.262,1,2.93524,-6859.82,15336.1,-10770.9
8.47256e+07,121.266,2,2.43079,21011.9,-14287.3,-25122.8
8.47839e+07,160.021,2,2.73771,-1258.54,-17031.8,266.525
8.4835e+07,125.232,1,2.57891,8625.11,18714.3,-12195.8
8.48739e+07,194.772,1,2.88051,-16118.9,24285.9,-32.3723
8.49143e+07,97.6581,2,2.47889,-10664.6,-5797.69,-12069.1
8.5024e+07,15.0802,2,2.83738,-2828.91,-1125.33,-29921.9
0,14.9623,2,2.73417,0,0,0
8.5038e+07,66.4411,2,2.71284,5951.89,3730.26,-16755.7
8.52519e+07,49.6572,2,2.91314,-2536.18,-7038.47,-21478.5
8.5472e+07,20.2916,0,2.62156,3020.97,-2799.45,-27447.5
8.55533e+07,3.89636,0,2.78713,431.113,-557.652,-28305.7
8.59198e+07,33.2117,1,2.91392,2605.16,-4636.51,-24377.4
8.5959e+07,120.361,2,2.9691,-22131.2,-12129.9,-26786.3
8.60879e+07,91.0279,0,2.82401,3264.66,4853.04,-10607.1
8.62181e+07,4.83476,0,2.76586,305.656,348.46,-27910.2
8.65639e+07,117.578,0,3.02285,15282.8,-1045.42,-9462.15
8.68386e+07,5.6456,0,2.72177,-135.797,-404.954,-27708.3
0,5.58954,2,2.99527,0,0,0
8.70961e+07,41.6163,1,2.79069,-1144.71,7583.15,-24495.8
8.73021e+07,158.597,0,2.71297,7008,5061.5,-24010.4
8.75014e+07,126.844,2,2.60491,-1108.04,-17535.7,-8537.89
8.76072e+07,3.21188,1,2.36841,-516.76,531.137,-28634.5
0,3.27478,1,2.78525,0,0,0
0,3.14443,1,2.91851,0,0,0
8.82054e+07,42.3164,0,2.71883,2508.67,-103.572,-20241.9
8.85496e+07,23.0148,2,2.69975,1552.81,3576.41,-26019.8
8.88731e+07,14.7271,0,3.01998,-1591.16,397.548,-26255.2
8.90198e+07,22.0034,0,2.96914,4207.19,-1664.25,-27540.4
8.97967e+07,34.9117,0,2.88578,-4325.04,-4805.77,-25411.9
9.06417e+07,184.578,2,2.44168,-10666.6,-21384.5,1247.44
9.07994e+07,86.4967,0,2.52304,-16218.7,-3589.23,-21347.4
9.10194e+07,46.8567,0,2.73978,8206.1,-4077.3,-24915.7
9.14604e+07,19.2372,1,2.75754,-2142.45,3347.15,-27605.1
9.2133e+07,68.1527,2,2.92205,-8133.56,5012.13,-18159.9
9.23549e+07,75.4354,2,2.71361,-742.131,-5225.23,-17445.3
9.28105e+07,16.4033,2,2.4474,-187.738,-3075.2,-27042.6
9.29955e+07,49.8991,2,3.06171,1733.61,6673.58,-27851.1
9.30752e+07,25.3312,1,2.96458,3564.33,-3154.58,-26615.6
9.31333e+07,104.758,1,2.76507,-7720.68,19010.3,-20519.4
9.31814e+07,8.00885,0,2.88524,223.562,1650.49,-29241.9
9.3263e+07,217.631,2,2.524,14196.4,14081.7,12554
9.3407e+07,25.4996,1,2.86814,-309.757,4627.17,-25988.2
9.37055e+07,62.9292,1,2.64933,-7314.62,-10211.4,-24620.2
9.37255e+07,29.1012,2,2.63761,5188.18,-2823.77,-27058.9
9.40875e+07,33.0785,0,2.55041,-1099.29,-6483.23,-26448.5
9.4112e+07,23.0309,1,2.53808,-4773.95,-299.488,-27617.8
9.42146e+07,22.2274,2,2.82407,1858.34,-314.322,-24570.1
9.45076e+07,74.8134,0,2.78091,6556.57,-12073.4,-21029.2
9.4646e+07,1.62312,0,2.74778,237.545,76.9299,-28532
9.47484e+07,1.24437,0,2.95305,222.864,74.0396,-28621.2
9.49099e+07,82.2716,0,2.83762,17088,-3105.05,-27673.1
9.49467e+07,22.305,0,2.51413,3376.04,-290.322,-25448.1
9.50134e+07,27.8437,2,2.67288,4859.26,1028.97,-25807.2
9.52156e+07,62.1229,2,2.49117,-9680.66,-1973.55,-20087.4
9.53149e+07,65.7168,0,2.92499,9778.02,-8134.86,-23278.1
9.55647e+07,184.213,1,2.72677,-11139.2,21224.8,1765.48
9.56163e+07,181.367,1,2.64575,22206.1,-3482.65,-515.852
9.56596e+07,24.2136,1,2.71836,3512.58,-1311.32,-25458.7
9.60804e+07,30.0075,1,2.70527,5737.75,-245.734,-26264.3
0,29.9342,1,2.7969,0,0,0
9.61217e+07,19.551,1,2.94746,-2218.54,-2089.59,-26058.1
9.6279e+07,142.349,0,2.62667,-12788.7,17590.2,-8133.52
9.63679e+07,69.9317,2,2.44789,-1074.96,-9569.08,-17523.1
9.64043e+07,23.4377,1,2.86392,1743.3,2736.35,-25062.8
9.65033e+07,30.7873,2,2.5158,1830,2226.3,-23032.2
9.67989e+07,153.899,2,2.95091,14354.3,28058.5,-22211.7
9.69329e+07,106.687,0,2.45951,-10737.9,18252.7,-21115.4
9.6954e+07,24.249,0,2.4002,3967.16,2258.74,-26300.8
9.70539e+07,23.0936,2,2.74549,147.156,-4914.17,-29445.9
9.70599e+07,47.8318,0,2.85096,7593.63,4084.32,-23514.6
9.7265e+07,72.6761,1,2.61546,7810.33,-3393.79,-16085.8
9.73644e+07,92.6395,0,3.01281,14600.2,7595.11,-18443.6
9.77779e+07,15.5973,2,2.63498,-1888.96,1672.58,-26711.1
9.88384e+07,60.0968,1,2.68098,-11533.8,-3764.8,-25026
9.90494e+07,19.3565,0,2.68049,-190.931,-1774.89,-25166.4
9.92552e+07,86.8139,2,2.95909,10392.7,-13427.3,-22165.1
9.93167e+07,111.054,0,2.56456,11028,-972.688,-8088.38
9.93611e+07,207.213,2,2.40533,-7380.71,-9881.57,13236.3
9.94558e+07,46.4362,2,2.51076,-243.453,-9814.99,-27472.6
9.95018e+07,260.862,0,3.04754,-2816.93,82.9319,-20832.4
9.96954e+07,94.2957,2,2.82238,12625.8,-4556.75,-14253.4
1.0023e+08,52.1136,1,2.87362,-2197.19,-4845.16,-19287
1.00283e+08,35.9505,2,2.96743,5664.84,-2967.43,-24808.3
1.00424e+08,28.2794,2,2.37049,-2814.43,-1621.31,-23736.1
1.00634e+08,65.2836,1,2.38024,2857.11,10879.5,-20713
1.0091e+08,67.5023,1,2.97633,8486.46,3623.97,-18072
1.0093e+08,20.5699,0,2.59415,-2832.51,2361.32,-26646.6
1.00979e+08,113.553,0,3.03903,-10188.1,-16378.9,-14935.4
1.01291e+08,60.3423,0,2.99252,5604.42,-3087.29,-17889
1.01424e+08,65.7899,2,2.77553,-1187.38,9581.04,-18949.9
1.01883e+08,104.977,2,2.73876,-11654.4,-12088,-14331.7
1.02256e+08,74.5785,2,2.82302,4629.25,12002.6,-19955.7
1.02502e+08,186.048,1,2.91453,18690.8,3863.53,5182.07
1.02541e+08,46.7704,0,2.66304,4740.28,-7038.15,-23681.1
1.02936e+08,22.9696,0,2.88265,2107.59,-4397.5,-29281
1.03099e+08,71.9074,2,2.70683,-483.299,-13062.4,-21024
1.03185e+08,69.6691,0,2.75661,3.17786,-14670.7,-28180.2
1.03331e+08,41.8145,2,2.36742,132.322,-8200.04,-25277.8
1.03541e+08,16.9223,1,2.61142,1467.56,3042.11,-27464.8
1.03578e+08,51.1057,1,2.5693,-4035.2,2119.74,-18993.2
1.03812e+08,42.5988,2,2.62483,-2214.94,-5751.87,-22200.7
1.04162e+08,34.783,1,2.51104,-7131.86,1825.32,-27737.2
1.04503e+08,38.0057,2,2.37241,5750.26,-3570.4,-24465.7
1.0481e+08,79.9868,1,2.86054,-8790.38,14200.5,-26246
1.04823e+08,37.9228,2,2.92694,3120.15,5191.82,-23753.6
1.04889e+08,130.089,1,2.57754,-7600.39,26463.6,-27779.8
1.05272e+08,13.1942,0,2.97861,1160.52,-1709.23,-26949.3
1.05326e+08,70.4027,0,2.68484,-1978.34,-27.5599,-29877.7
1.05407e+08,11.4301,1,2.62735,-1220.1,1108.64,-26984.3
1.05957e+08,195.613,0,2.87023,6666.87,-9790.65,9521.46
1.06144e+08,79.7781,1,3.01721,-10456.4,7427.45,-17993.9
1.06162e+08,75.6925,1,2.78661,2286.2,-14660.4,-23197.9
1.06453e+08,74.5099,2,2.52197,-4194.14,-14695.7,-24723.6
1.06758e+08,45.7833,2,2.80902,-607.977,-7319.2,-22479.1
1.06911e+08,14.9128,2,2.40536,999.553,-2794.23,-27639
1.06958e+08,135.556,1,2.56546,-18191,2145.71,-6791.39
1.07211e+08,7.16996,2,2.95597,984.409,-1138.58,-29238.4
1.07383e+08,15.8919,2,2.54534,936.093,-2869.84,-27189.8
1.0751e+08,7.53788,1,2.97522,-64.0211,1678.55,-28867
1.07712e+08,2.09388,1,2.65654,50.7897,-113.995,-28411
0,2.13077,1,2.99358,0,0,0
1.07868e+08,91.1838,1,2.54137,-13125.9,-1241.88,-26592.8
1.07916e+08,8.82018,2,2.70742,-1612.7,950.507,-28963
1.08229e+08,41.3815,0,2.99499,1067.32,-4430.75,-21420.6
1.0848e+08,113.142,0,2.81906,20553.6,9189.69,-20890.4
1.08543e+08,63.5253,1,2.71712,-6444.74,9016.58,-21171
1.08838e+08,77.3999,2,2.83651,-13144.1,7213.46,-22488.9
1.08903e+08,28.3943,0,2.77432,2186.87,-5632.09,-29112.7
1.08904e+08,123.688,2,2.57568,9945.66,-10087.4,-14148.5
1.09295e+08,74.9432,0,2.72398,12213.1,3921.87,-19485.2
1.09343e+08,143.206,2,2.36205,-26690.2,-8562.75,-17205.3
1.09553e+08,211.386,0,2.50679,10892.8,1355.12,14509
1.09615e+08,5.6587,1,2.78484,-827.611,721.308,-28165.7
1.09981e+08,97.4017,1,2.99629,11082.3,17217.9,-29579
1.102e+08,58.6694,1,2.93392,-707.715,-10361.7,-22305.1
1.10231e+08,114.38,1,2.93061,1009.95,19716.9,-15046.6
1.10627e+08,76.4893,1,2.74069,14278.8,1403.87,-21554.7
1.10703e+08,131.111,0,2.99,13119.8,3707.52,-24183.5
1.10769e+08,64.5906,0,3.06034,2747.78,10878.3,-21204.7
1.10923e+08,120.485,0,2.77343,20287.3,-11973.8,-19232.4
1.11115e+08,156.095,0,2.78497,22473.3,-1099.5,-4821.22
1.11144e+08,14.8754,1,2.87073,-2234.5,602.752,-26674.8
1.11261e+08,65.307,1,2.85132,-2342.69,13585.6,-28169.8
1.11747e+08,68.2601,1,2.52557,-2453.53,3943.28,-15134.7
1.11814e+08,55.0245,2,2.77373,-5473.45,-9009.13,-23833.5
1.12387e+08,40.011,1,2.62234,-5322.31,-5066.74,-24705.7
1.12718e+08,48.5337,0,2.39754,-301.04,8757.25,-23430
1.13021e+08,86.827,0,2.80764,-9137.36,-15092.8,-24200.7
1.13065e+08,7.29678,0,2.95917,1347.02,43.5457,-27957.7
0,7.20775,0,2.9214,0,0,0
1.13216e+08,22.4178,0,2.89471,4810.87,-423.48,-28991.9
1.13298e+08,161.042,1,2.74092,28845.5,-9571.13,-13841
1.13306e+08,66.7113,0,2.38047,1587.33,-13833.9,-26287.7
1.14714e+08,281.465,0,2.77134,17.2902,10170.1,9918.76
1.14787e+08,36.6889,1,2.39895,-4121.14,3719.08,-23320.6
1.14869e+08,134.162,0,2.79756,23926.6,6019.16,-19032.1
1.14932e+08,70.4004,0,3.04348,4615.12,-12758.6,-22965.5
1.14934e+08,33.6943,0,2.47432,3827.15,-5962.23,-27564.6
1.14954e+08,124.378,1,2.81125,-22317.6,-2853.19,-15380.9
1.15715e+08,136.458,0,2.70494,-8985.86,-11960.1,-4306.01
1.16072e+08,34.9185,0,2.73361,5088.39,-5401.36,-28471.6
1.16325e+08,30.6953,2,2.86591,223.388,-2635.88,-27780.5
1.16329e+08,41.4887,2,2.60168,-3882.11,-265.371,-20947.5
1.16457e+08,21.228,1,2.70103,-4119.22,-1532.97,-29879.9
1.16563e+08,65.3023,0,2.5582,-2288.62,6248.99,-20071
1.1676e+08,82.066,1,2.54769,7092.66,-12706.2,-19484.4
1.16985e+08,34.9079,2,2.62142,571.314,-5199.65,-23556.5
1.17105e+08,6.67157,1,2.99849,-716.581,-32.7654,-27584.7
0,6.66432,1,2.88564,0,0,0
1.17391e+08,11.6721,2,2.97135,-1446.44,-785.105,-26928.1
1.17421e+08,42.9659,2,2.53271,-1936.98,-8193.55,-25172.8
1.17643e+08,82.448,2,2.61094,14285.7,4349.61,-19937.7
1.17813e+08,127.829,2,2.65045,-20480.1,7334.63,-12960.6
1.17825e+08,34.1934,2,2.67064,-4228.23,4451.61,-25062
1.17897e+08,146.356,2,2.59496,-8650.4,-19288.3,-6189.69
1.17979e+08,54.6571,2,2.36942,-4443.56,-2397.09,-18382.2
1.17996e+08,1.97054,2,2.51139,-448.761,-126.345,-28732
1.18102e+08,130.358,2,2.85047,6708.86,-24539.2,-18444.2
1.1828e+08,122.528,2,2.68606,-21358.1,-7160.04,-16033.3
1.18328e+08,101.757,2,2.94248,9381.9,10220.1,-12649
1.18579e+08,49.699,2,2.40137,-9879.68,-3591.26,-27540.9
1.18675e+08,5.66533,0,3.02034,730.65,935.167,-28385.1
1.18889e+08,2.53792,1,2.40347,31.5947,154.378,-28287
0,2.57118,1,2.98772,0,0,0
0,2.52153,1,2.68232,0,0,0
1.19083e+08,60.1749,2,3.02881,4116.18,-2093.19,-17083.6
1.19237e+08,121.476,1,2.67818,-18932.7,-16833.4,-25036.7
1.19375e+08,63.0052,2,2.53002,-3647.45,-6469.22,-17709.8
1.19466e+08,120.78,2,2.70361,20321.1,13436.5,-21706.5
1.19648e+08,122.373,0,2.78644,16535.8,-16258.3,-17459.2
1.19739e+08,11.3609,2,2.50438,-769.801,-577.473,-28480.8
1.19807e+08,68.7446,0,2.43148,3509.16,-1657.88,-14800.2
1.20249e+08,57.5544,0,2.82285,8666.38,1301.02,-20392.1
1.2037e+08,106.217,1,2.82896,-11288.3,19000.1,-25057.8
1.20465e+08,89.4695,2,2.48987,-18324.3,-4044.8,-26005.6
1.2078e+08,133.824,0,2.83311,-6079.18,10271.3,-3353.96
1.20871e+08,25.0527,2,3.00873,-2361.88,-4772.51,-28133
1.21041e+08,73.1069,0,2.97929,7982.12,2135.21,-15867.7
1.21405e+08,89.6585,2,2.89629,-15835.2,-10013.7,-26169.6
1.21428e+08,60.9925,0,2.76037,8376.94,8759.44,-24341
1.21591e+08,21.6664,0,2.78327,-2310.73,1850.14,-28678
1.21736e+08,41.2442,2,2.99767,3153.5,-8136.5,-28923.5
1.2176e+08,69.3079,1,2.9023,-7098.1,-2371.94,-16320.3
1.2186e+08,148.188,2,2.66344,-16173.1,-25432,-20238.4
1.22307e+08,137.656,1,2.99319,25200.1,7750.51,-17118.4
1.22461e+08,63.6964,2,2.6465,7412.43,-7494.04,-20438.2
1.2258e+08,5.29548,2,2.47171,-800.597,-295.956,-28001
0,5.37173,2,2.52898,0,0,0
1.22792e+08,31.9553,2,2.42327,-1966.28,-5378.23,-25073.8
1.23111e+08,38.823,0,2.79681,4878.78,5726.8,-25490.3
1.23201e+08,15.3087,2,2.84306,-2328.22,478.613,-26631.5
1.23304e+08,38.7523,0,2.84886,6957.97,-3977.27,-27036.3
1.23308e+08,11.3634,0,2.77104,402.537,277.065,-26486.8
1.23366e+08,59.6699,1,2.40683,-1200.51,5131.15,-17312.5
1.23877e+08,42.1821,1,2.95,-298.808,-4977.88,-21555.4
1.2411e+08,96.5138,0,2.91065,19761.4,1138.2,-24052.5
1.2412e+08,1.04746,0,2.75983,313.739,-25.3201,-28754.2
1.24178e+08,34.7266,1,2.46584,5225.42,-4747.92,-27025.5
1.24213e+08,43.8473,1,2.98694,-1030.68,7973.33,-24552.2
1.24231e+08,94.7702,1,2.62237,-4022.7,4385.78,-9748.07
1.24454e+08,88.5073,0,2.5058,723.527,-14321.1,-16772.5
1.24672e+08,0.763826,2,2.9512,-94.9938,-217.766,-28966.2
1.2505e+08,83.1924,0,2.6986,949.425,9431.06,-14048
1.25465e+08,171.609,0,2.4766,17943.5,12160.7,311.036
1.25986e+08,195.794,1,2.40876,-1658.47,-4398.75,-27227.2
1.26315e+08,61.3685,2,2.72606,-9075.85,-1300.18,-19640.5
1.26412e+08,31.822,2,2.41344,-704.025,-4797.17,-24049.6
1.2658e+08,360.772,2,2.43675,3911.17,2271.05,-27148.1
1.27064e+08,8.36129,0,2.6249,1540.28,608.962,-28012.3
1.2713e+08,151.341,1,3.05523,-162.915,-12962.8,-15641
1.2722e+08,79.6526,2,2.54088,10479.3,-10706.9,-21126.5
1.2772e+08,93.7542,2,2.84141,-8235.71,-5410.55,-27812.5
1.27999e+08,81.4003,1,3.00534,-3272.1,-7694.06,-14009.4
1.28017e+08,219.779,1,2.80298,-740.294,13388.9,15261.4
1.28131e+08,42.7073,2,2.71172,-3722.95,-7833.29,-26084.6
1.28471e+08,59.6298,2,2.64162,2987.37,-11912.7,-25734.2
1.28787e+08,130.563,2,2.449,-4719.86,-24623.6,-17048.4
1.29112e+08,3.25678,1,2.63824,-32.4702,328.057,-28168.4
1.29518e+08,44.3486,0,3.00442,1129.54,2954.13,-22270.9
1.29703e+08,102.797,1,2.40278,15570.9,14858,-25466.4
1.29921e+08,86.3299,0,3.05829,16300.8,-3881.18,-21812.9
1.30253e+08,155.563,2,2.70231,-16020.7,20981.2,-9614.05
1.30802e+08,5.98514,1,2.66838,1155.73,-63.6937,-28365.2
1.3095e+08,44.1824,1,2.91621,7860.24,4660.5,-27162.3
1.30956e+08,90.2451,2,3.03785,-3413.49,-10945.7,-13723.5
1.31103e+08,6.03154,2,2.38277,-692.299,-161.78,-27750.1
1.31113e+08,29.8592,1,2.41628,1966.2,5115.6,-25567.5
1.31169e+08,112.581,2,2.96925,5345.88,-18664.3,-15280.1
1.3122e+08,84.117,0,2.86138,-6046.56,-5727.21,-13260.8
1.31663e+08,9.33421,2,2.42241,-814.211,-1471.82,-27634.4
1.31672e+08,41.5421,2,2.8984,-4190.6,-719.716,-21184.6
1.31718e+08,13.0444,1,2.55861,921.31,1039.31,-26409
1.31824e+08,67.4425,0,2.47902,-1654.71,-12619.8,-22350.3
1.31834e+08,122.536,0,2.54969,12451.6,18073.4,-15016.5
1.32033e+08,26.5225,1,2.73929,-4430.55,3376.26,-27723
1.32411e+08,73.8693,1,2.60674,-11289.5,-7343.04,-20944.6
1.32421e+08,125.494,0,2.59205,23384.9,6218.1,-17854.1
1.32445e+08,68.7335,0,2.76138,5860.83,12469.5,-24208.9
1.32603e+08,29.4679,1,2.98458,3323.33,-2366.57,-24224.8
1.32731e+08,70.8282,0,2.5952,13570.4,2955.95,-23006.6
1.32763e+08,21.6373,0,2.43207,-1830.54,2052.71,-25207.6
1.33104e+08,16.1801,2,2.80952,-2429.2,-1412.11,-26826
1.33323e+08,172.798,2,2.58596,-24461.9,-15086.2,-6218.13
1.33352e+08,29.4322,1,2.50478,5833.62,2159.06,-29224.1
1.33367e+08,141.838,1,2.39521,-24803.7,-6598.69,-13255.2
1.33395e+08,151.576,0,2.8634,17532.4,-15093.7,-6908.98
1.33498e+08,108.09,0,2.94097,4849.06,-5389.49,-7312.13
1.33515e+08,141.139,0,2.56097,16720.9,-20829.1,-15507.6
1.33745e+08,39.7281,0,2.36906,3013.27,-7880.49,-29502.8
1.34008e+08,45.5172,0,2.5324,4247.33,8686.85,-28134
1.34167e+08,73.9908,0,2.79636,13594.8,-4820.65,-22741.3
1.34276e+08,24.2444,1,3.04309,-998.373,-1807.78,-24217.1
1.34292e+08,204.176,1,2.60118,-1434.3,23969.2,7023.61
1.34766e+08,8.79893,1,2.93035,1744.69,557.913,-28551.5
1.35037e+08,4.06592,0,2.38516,663.84,25.0327,-29501.2
1.35064e+08,107.489,1,2.45821,-9652.66,18284.7,-19148.8
1.36019e+08,199.675,0,2.76715,14428.8,2846.6,10564.1
1.3605e+08,148.284,1,2.7084,-9666.61,23976.8,-11151.8
1.36146e+08,11.37,0,3.02547,822.085,-2164.95,-28089.7
1.36176e+08,54.4555,2,2.83247,-4025.7,-8639.11,-22342.4
1.36212e+08,54.2303,0,2.65042,7206.34,1798.71,-20049.9
1.36304e+08,109.753,0,2.42953,13835.2,-5551.92,-10981.4
1.36316e+08,47.6832,2,2.53821,5557.9,-4393.92,-21613.4
1.3634e+08,36.4598,0,2.66024,5228.21,5654.26,-28106
1.36631e+08,208.018,0,2.80252,-8460.24,23167.6,-24645.2
1.36648e+08,59.7453,1,2.8421,-5525.3,-298.157,-17534.7
1.36718e+08,7.74683,0,2.8199,333.691,-690.584,-27348.8
1.36835e+08,12.7551,1,3.0191,467.455,-1856.65,-27033.4
1.37003e+08,54.0485,1,2.78024,7284.11,7042.48,-23582.9
1.37114e+08,9.49341,0,2.60248,931.748,319.591,-27611.9
1.37445e+08,28.7398,0,2.96998,5481.98,2721.84,-29138
1.37599e+08,138.486,0,2.87563,24141.3,-5358.33,-13346.7
1.37661e+08,27.9321,1,2.88986,1543.56,-4336.5,-25264.2
1.37675e+08,77.2183,1,2.91356,7559.76,-8276.47,-17174.9
1.37852e+08,5.71687,0,2.97485,-135.623,921.042,-28048.6
1.38086e+08,92.7221,1,2.44029,-10404.1,-12589.6,-18001.8
1.38115e+08,100.86,2,2.90443,8047.9,1171.74,-10057.7
1.38568e+08,29.4351,0,2.8084,474.695,2615.87,-23225.1
1.38612e+08,19.3669,0,2.70303,-1386.53,2786.89,-26189.9
1.38628e+08,123.723,2,2.76689,1877.43,14362.4,-7233.3
1.38816e+08,59.2084,2,2.69364,3219.42,-12124.9,-29236.8
1.38889e+08,22.5225,1,2.53989,-2578.94,791.282,-24880.7
1.38941e+08,148.996,2,2.98811,-27834,4974.58,-15506.6
1.39101e+08,106.965,0,2.75342,-2909.87,-11237,-9518.7
1.39231e+08,273.66,2,2.74907,-8554.24,20833.1,-25682.9
1.39997e+08,84.4889,1,2.68676,-9797.49,1260.43,-13987.4
1.40226e+08,25.9452,0,2.63655,1399.23,-2713.1,-24243.7
1.40401e+08,124.687,1,2.86727,-9603.07,22420.2,-19057.8
1.40419e+08,130.024,0,2.45721,12648.7,-17162.9,-11391.6
1.40572e+08,105.011,2,2.45354,-6660.89,20568.6,-23916.5
1.40915e+08,166.946,0,2.70657,-9208.95,1053.44,-22916.4
1.40963e+08,28.173,0,2.84535,5056.74,-2456.84,-26694.8
1.41238e+08,41.997,1,2.94885,5237.71,3831.38,-22886.7
1.41704e+08,13.8956,2,2.62805,1736.38,-2181.07,-27727.2
1.41896e+08,49.5773,2,2.43813,4503.9,-8551.07,-24636.5
1.42294e+08,171.692,2,2.37272,1372.91,22444.7,-339.037
1.4254e+08,14.0348,0,2.4915,73.2702,-2689.34,-27495.3
1.42552e+08,119.119,1,2.60994,-553.23,24546.9,-23063.4
1.42967e+08,74.7322,2,2.98871,-10748.3,-3169.35,-17810.4
1.43641e+08,68.6601,0,2.97367,5459.33,-3851.21,-16029.7
1.44039e+08,21.764,0,2.56846,1241.04,1111.81,-24512.1
0,21.7461,0,2.46448,0,0,0
1.44064e+08,75.0014,0,2.66481,6847.32,1702.53,-28966.8
1.44367e+08,71.1119,0,2.37679,-7585.49,357.192,-15863.6
1.4438e+08,84.0101,1,2.96292,-5208.93,9595.09,-14937.3
1.44411e+08,47.7688,0,2.4817,7400.87,-5511.2,-24507.4
1.44736e+08,24.6723,1,3.01205,-4787.26,1943.87,-27836.1
1.44839e+08,203.786,0,2.63676,-22675.9,13324.9,5150.86
1.45285e+08,26.3846,0,2.821,1330.73,-2480.3,-24068.8
1.45451e+08,11.6443,1,2.38788,-1514.58,-739.209,-27033.1
1.45472e+08,50.7289,1,2.83375,-5997.45,-1127.23,-20041
1.45583e+08,19.6206,0,2.7654,3015.92,-1721.85,-26470.8
1.45609e+08,196.619,1,2.45365,1928,-25655.6,3788.97
1.46256e+08,5.36724,1,2.40879,931.288,56.786,-28201.9
1.46543e+08,53.185,0,2.59612,4447.98,8906,-23509.8
1.4672e+08,99.0746,1,2.45192,-13196.1,609.058,-12512.1
1.46739e+08,33.2547,2,2.95705,-1749.95,-14.451,-22062.6
1.46888e+08,90.7348,1,2.58385,-8649.41,-16116.5,-23268
1.46909e+08,110.304,1,2.58789,-180.767,-4768.78,-26637
1.47034e+08,247.53,1,2.74127,-28019.4,-2242.04,10187.9
1.47136e+08,229.2,2,3.04998,-5531.8,-9078.72,-29017.3
1.47142e+08,8.21387,1,2.88275,-964.598,560.962,-27447.5
1.47233e+08,52.135,2,2.99885,5788.64,-2703.06,-19938.5
1.47314e+08,17.7274,0,2.48308,1669.04,-3372.01,-28259.1
1.47569e+08,111.984,2,2.37065,-2159.64,-3845.39,-5545.05
1.47608e+08,4.28593,2,3.0505,13.5133,-888.682,-28395.4
1.47733e+08,47.8659,1,2.66391,3553.79,-5118.26,-20916.2
1.47851e+08,146.115,2,2.67051,-7491.04,-20764,-7231.18
1.48219e+08,36.7093,2,2.5375,-1349.77,-3021.74,-21775.4
1.48271e+08,210.712,1,2.66929,6051.9,-29342,3918.27
1.4829e+08,3.01187,2,2.65363,-79.8066,-245.259,-28205.9
1.4859e+08,25.5226,2,2.6933,2935.66,361.642,-24386.9
1.48729e+08,65.5449,2,2.62094,-3510.64,-10537.8,-20460.9
1.49301e+08,31.5699,0,2.87542,-5127.24,-2433.1,-25507.7
1.49366e+08,9.02342,0,2.94936,1228.86,1284.96,-27991.8
0,8.94022,0,2.77806,0,0,0
0,8.9729,0,2.93396,0,0,0
1.49764e+08,129.219,1,2.62871,-11251.5,18733.2,-12379.2
1.4983e+08,81.9954,0,2.93869,-6073.12,13144.6,-29607
1.504e+08,93.4925,2,2.74303,12532.9,5400.78,-14737.2
1.50412e+08,54.9356,1,2.43148,613.595,-10191.4,-23350.7
1.50482e+08,70.3654,0,2.86769,-9438.67,3149.97,-17945.1
1.50774e+08,0.612559,1,2.4565,2.16212,237.492,-28831.5
0,0.621535,1,2.76803,0,0,0
1.50907e+08,63.1789,2,2.52609,9327.42,-6546.87,-21812.7
1.51167e+08,109.75,2,2.8879,-1681.42,-14650.4,-11041
1.5123e+08,43.6446,0,2.79632,3629.82,-8219.01,-26699.3
1.51407e+08,53.5004,1,2.8655,-6091.43,4644.81,-21761.1
1.5162e+08,167.311,1,2.70108,-9910.74,2703.27,4923.28
1.51634e+08,13.3445,1,2.93048,-1525.61,1981.29,-27429.7
1.51701e+08,139.495,2,2.45466,10539.6,-21315.8,-11298.6
1.51759e+08,34.7266,0,2.96193,2895,3858.4,-23316.6
1.51808e+08,119.754,0,2.69641,-3505.23,16453.7,-10005.9
1.51875e+08,161.047,0,2.87825,-6906.16,21755,-3868.12
1.52078e+08,47.0053,1,2.4504,-2589.44,-6697,-21967.6
1.52146e+08,75.3292,1,2.58239,-5483.77,13358.5,-22054.3
1.52208e+08,113.344,2,2.83206,-23046.6,-2002.07,-22818.7
1.524e+08,211.635,1,2.79666,-4246.46,22754.4,-14990.4
1.5242e+08,14.3845,0,2.45342,1454.55,2513.77,-27706.9
1.5281e+08,100.303,0,2.71888,5041.76,-11963.7,-12120.7
1.52891e+08,39.0517,0,2.91873,-3692.21,3339.87,-22332.2
1.53482e+08,181.521,2,2.89657,-5126.69,12521.8,6800.08
1.5359e+08,91.8186,2,2.99545,16455,-4918,-20113.9
1.53618e+08,5.88318,1,3.03779,24.1938,1309.58,-28755.9
0,5.82484,1,2.97455,0,0,0
1.53691e+08,87.6213,0,2.85174,4720.57,-1286.52,-11041
1.54143e+08,103.253,1,2.53695,16241.8,14050,-24699.3
1.54175e+08,40.2653,0,2.41377,2277.77,818.277,-20623.2
1.54198e+08,57.2519,2,2.70599,-5690.65,-10232.2,-25510.8
1.5421e+08,100.387,0,3.01471,3935.02,-6889.07,-9327.77
1.54938e+08,67.3871,1,2.69383,-11685.9,-2739.1,-21222.3
1.54958e+08,1.02714,2,2.60982,-160.702,91.8455,-28685.8
0,1.0411,2,2.96211,0,0,0
0,1.08261,2,3.04303,0,0,0
1.5505e+08,6.84228,1,2.83814,-435.101,46.8642,-27436.9
1.55711e+08,11.1886,1,2.69231,1061.17,1461.77,-28904.6
1.55744e+08,5.59239,0,2.48502,830.283,-134.164,-27900.4
1.55938e+08,18.1636,1,2.55931,-2002.5,3025.62,-27349.6
1.56012e+08,6.601,2,2.78029,1129.29,-883.306,-28836.7
1.56381e+08,105.159,0,2.67453,16329.7,3242.43,-14101.1
1.56419e+08,1.44764,2,2.48115,-60.6235,-365.238,-28684.5
1.56683e+08,8.99858,2,2.53407,-754.181,-1843.88,-28634.9
1.56688e+08,383.901,0,2.95578,-16240.5,-13605.1,-3643.79
1.5684e+08,68.5018,1,2.5885,-2269.27,-11015.3,-19790.5
1.56883e+08,125.541,0,2.89753,15041.2,-11337.2,-10309
1.56921e+08,1.7157,1,2.76871,246.488,-15.2517,-28609.4
1.57191e+08,177.842,2,2.63419,16583.4,-13548.5,2004.43
1.57216e+08,5.68583,0,2.83274,523.572,-503.429,-27821.8
1.57317e+08,63.1648,1,2.86271,-5544.49,12174.3,-29176.9
1.57541e+08,173.667,1,2.89541,-22274,-26222.8,-16772.6
1.57558e+08,120.222,0,2.98724,-3746.38,-8306.89,-5332.84
1.57876e+08,137.535,1,2.80497,-4639.38,25268.2,-15484.3
1.57943e+08,185.528,0,2.58615,-24017.9,28951.2,-18020.7
1.57996e+08,55.3654,1,2.86232,-4221.85,9377.62,-28533.9
1.58094e+08,102.266,1,2.55018,-7166.22,3732.47,-8746.8
1.58317e+08,39.1986,2,2.91964,-4803.43,-4554.66,-26030.9
1.58575e+08,8.15024,1,2.75117,-894.752,-1464.46,-28802
1.5899e+08,68.8217,1,2.63466,-4376.54,-5494.27,-27857.2
1.59377e+08,90.1182,0,2.61306,5595.63,14350.8,-17621.1
1.5956e+08,12.8674,0,2.87379,1317.31,-751.155,-26547.3
1.59587e+08,215.007,0,2.87611,20385.4,29168,-964.413
1.59649e+08,94.2786,2,2.55916,-4796.3,-2162.88,-9606.97
1.59672e+08,220.706,0,2.58477,21906.2,22112,-15661.8
1.59768e+08,320.233,1,2.72732,311.271,-129.512,-26870.4
1.59774e+08,87.0195,2,3.04967,-12299.9,-8007.12,-17931.9
1.59857e+08,131.975,2,2.88982,16201.8,15197.6,-12347.7
1.59915e+08,87.057,1,2.74509,229.134,13848.4,-16746.4
1.6005e+08,12.3944,0,2.60722,-1161.34,1980.22,-27633.9
1.60063e+08,310.998,2,2.6699,29113.1,2303.42,29863.5
1.60431e+08,189.909,2,2.72482,-15192.5,14197.5,5353.93
1.60484e+08,11.1805,2,3.04749,2273.24,-104.091,-28283.9
1.60738e+08,37.1991,2,2.6701,-3492.97,-3499.54,-22672.5
1.60902e+08,76.8016,1,3.01734,5802.34,5539.59,-15988.5
1.61341e+08,2.44555,2,2.7444,32.8441,-368.712,-28386.7
1.61482e+08,22.391,2,3.05147,-2278.44,-2694.75,-28849.7
1.61938e+08,133.128,1,2.57484,9230.82,8879.27,-3764.81
1.62331e+08,8.29022,2,3.03012,1160.47,-1099.01,-28113.8
1.62689e+08,115.84,0,2.97288,17912.8,-2603.82,-12521.4
1.63056e+08,66.9772,2,2.38352,-1168.54,-7699.85,-16923.2
1.63257e+08,184.14,0,2.79128,13109,-7548.44,6857
1.63357e+08,28.2774,0,2.61989,3850.55,-1693.64,-24495.3
1.63425e+08,146.51,1,2.5639,-7818.32,-7133.11,-22702.3
1.63591e+08,3.78721,1,2.70445,560.561,-369.851,-28476.5
1.63652e+08,283.795,1,2.61971,15761.7,17466.7,26271.5
1.63718e+08,148.241,2,2.39312,-28285.9,4205.43,-15826.3
1.63877e+08,43.1938,0,2.85989,-1115.38,-3911.9,-20726.9
1.64289e+08,57.6221,0,3.00192,3952.15,6838.67,-19638.9
1.64445e+08,21.9786,2,2.56703,-3629.44,510.173,-25891.4
1.64608e+08,130.961,0,2.73702,-17482.7,-18343.5,-19317.5
1.6461e+08,24.2782,0,2.4218,-3169.56,486.362,-24854.6
1.64873e+08,72.7573,1,2.66783,-467.513,11776.3,-18897.5
1.64915e+08,60.1706,2,2.38305,4258.19,-10200.5,-22385.8
1.65122e+08,15.6728,1,3.05608,-3001.42,-173.157,-27391.4
1.65468e+08,21.6117,2,2.78475,542.338,-4068.25,-26726.4
1.65501e+08,73.0521,0,2.46648,10690.9,3231.17,-18054.5
1.65573e+08,116.299,1,2.36991,-7762.23,3150.73,-5662.97
1.6589e+08,56.5025,1,2.5262,-11393,2308.85,-25823.5
1.66021e+08,24.4766,2,2.7896,-3530.44,-2498.99,-25882.2
1.66067e+08,107.129,2,2.68699,12599.9,3983.28,-10538.4
1.66169e+08,1.09419,0,2.94406,90.6986,213.566,-28718.1
1.66377e+08,185.307,2,2.42642,-6690.04,29631,-4113.08
1.66627e+08,63.2032,1,2.92085,1974.99,7028.15,-17701.6
1.67186e+08,113.318,0,2.96881,13746.7,-5451.98,-10164.9
1.67231e+08,14.8844,1,2.82975,1132.17,1102.48,-26115.9
1.67259e+08,54.055,1,3.04538,-7754.26,2515.34,-20910.9
1.67274e+08,129.009,1,2.65996,17004.8,-2797.33,-10932.4
1.67374e+08,81.2224,0,2.50384,-9639.65,6107.25,-16030.5
1.67503e+08,123.17,1,2.64315,15876.6,20339.8,-25333.6
1.67569e+08,40.7992,0,2.9038,5310.02,3515.5,-22993.8
1.67714e+08,278.319,0,2.78633,-29826.1,-9883.83,20544.5
1.67858e+08,141.356,1,2.70732,24056.6,9792.16,-14247.7
1.67977e+08,47.4997,1,2.97778,-5061.13,8700.31,-29349
1.68047e+08,123.906,1,2.67022,-2946.69,-13497.5,-6665.86
1.68174e+08,27.7345,0,2.92831,3002.32,4934.74,-27696.2
1.68306e+08,203.616,1,2.63039,-29856.4,-9209.31,702.891
1.68695e+08,91.8441,0,3.05692,-6116.47,-13966.4,-17123.7
1.68879e+08,110.166,2,3.03589,-5095.19,-3819.03,-6628.94
1.69154e+08,5.43609,0,2.96382,575.274,331.779,-27843.8
1.6931e+08,46.3542,1,2.92289,6055.26,-3387.51,-22102.1
1.69676e+08,149.464,1,2.92221,-24174.4,-14896.6,-15500
1.69755e+08,2.07686,0,2.98781,457.519,64.7253,-28606.6
0,1.97668,0,2.53484,0,0,0
1.69827e+08,74.3975,2,2.71495,-6420.23,-14141.5,-26053
1.69969e+08,43.8215,2,2.62646,-341.977,-5706.13,-21487.4
1.69974e+08,117.846,1,2.78936,-13121.3,7997.39,-16685.4
1.70042e+08,93.8186,0,2.5814,7124.72,-16699.6,-20742.6
1.70167e+08,25.5648,2,3.00502,5004.34,-1847.08,-28176.5
1.70535e+08,81.1603,0,2.95556,877.251,10734.4,-15623.9
1.70592e+08,275.844,1,2.58147,-28008.3,22194.1,17233.6
1.70974e+08,100.043,1,2.63048,-15326.3,-10125.7,-18376.6
1.71129e+08,61.7789,0,2.53327,13023.5,-194.594,-26930.5
1.71135e+08,63.2663,0,3.03009,775.453,9831.53,-19944.1
1.7199e+08,30.6057,2,2.82972,-4030.85,-3557.16,-25156.7
1.7199e+08,154.504,1,2.92371,-26049.1,-7271.73,-10895.1
1.72088e+08,76.9771,0,2.86845,-6234.96,-12287.2,-20374
1.72106e+08,51.2656,1,2.69176,-10707,-1072.05,-27220.9
1.72111e+08,73.8345,0,2.89753,5911.73,12793.4,-22276.2
1.72151e+08,8.45797,1,2.85069,-15.3954,1255.84,-27520.7
1.72309e+08,26.9847,1,2.42078,-5026.63,2136.97,-26904.1
1.72331e+08,104.777,1,2.83333,-18814.2,9308.81,-21913.9
1.7243e+08,76.4857,1,2.96584,-39.9562,7953.41,-21334.2
1.72615e+08,124.196,1,2.87846,-21711.4,14357.2,-26090.9
1.72706e+08,40.2593,0,3.00297,6354.94,5688.38,-29309.7
1.72737e+08,15.8818,1,2.50324,1872.91,272.239,-26067.9
1.72831e+08,39.2838,0,2.53166,-931.861,-7874.21,-26372.5
1.73089e+08,150.036,2,2.72427,4705.85,-29915,-19553.7
1.73669e+08,190.771,0,2.65412,11976.2,5908.33,-16624.3
1.73879e+08,189.248,1,3.03493,11928,-21708.8,2059.05
1.74186e+08,199.361,2,2.91088,-6386.24,-14341.5,-17980.8
1.74274e+08,48.016,1,2.90143,4722.47,7093.61,-23331.6
1.74282e+08,0.611645,1,2.65017,-191.234,71.3114,-28778.8
0,0.583612,1,2.60951,0,0,0
0,0.577891,1,2.39219,0,0,0
0,0.590312,1,2.73036,0,0,0
1.74287e+08,10.1764,1,2.53848,682.503,675.324,-26870.3
1.74509e+08,122.486,0,3.00427,-5051.65,23680.7,-20394.6
1.74569e+08,49.0721,1,2.51204,5969.46,5192.36,-22075.1
1.74674e+08,91.6931,1,2.63979,-7133.5,17662.3,-24956.4
1.7533e+08,47.6558,2,2.82239,3599.14,-7136.63,-22693.2
1.75442e+08,44.4173,1,2.83084,-1990.23,1078.52,-19743.8
1.75766e+08,228.217,0,2.52743,27342.2,-29038.1,-1593.56
1.7583e+08,79.3026,2,2.66491,-5892.67,2267.49,-13333.4
1.76055e+08,22.3915,1,2.44972,-2573.22,4071.84,-29153
1.76088e+08,63.5547,2,2.74345,1234.01,-5596.66,-16690.7
1.76409e+08,134.662,2,2.44887,-9844.04,-6074.74,-2794.19
1.76844e+08,195.345,2,2.98186,23020.3,-11059.2,3167.88
1.77108e+08,12.4934,0,3.0248,-1258.33,-709.653,-26701.6
1.77246e+08,13.248,0,2.6935,-1671.7,-1989.09,-27948.1
1.77639e+08,2.44219,0,2.92843,282.828,-381.245,-28536.5
1.77844e+08,27.65,0,2.71919,-3612.09,-671.202,-24353.6
1.77854e+08,66.9382,0,3.00969,7988.93,-5741.59,-18737.4
1.77889e+08,153.019,0,2.77225,19078,25645.1,-24330.5
1.77939e+08,30.1654,2,2.5093,2544.25,720.871,-23047.4
1.78084e+08,81.4003,1,2.73478,-3187.1,-14505.1,-20333.4
1.78253e+08,152.055,0,3.03836,4394.56,-992.069,2678.4
1.78421e+08,166.054,1,2.45272,-16892.3,4531.06,1620.57
1.78906e+08,138.08,2,3.05903,1430.21,-13124.3,-3080.5
1.78976e+08,188.995,0,2.83472,-4363.82,-11268.1,-27344.9
1.79142e+08,86.0999,1,2.75341,-9402.45,15111,-24936.1
1.79515e+08,47.5068,2,2.97169,-8938.57,1747.8,-24690.4
1.80521e+08,14.5573,1,2.56263,-3072.1,543.412,-29051.9
1.81557e+08,47.0763,2,2.79457,-5707.79,2745.47,-21187.1
1.81809e+08,0.216114,0,3.13043,89.7383,-9.72538,-28775.4
1.81842e+08,48.6185,0,2.6389,-888.528,4662.11,-19743.1
1.81973e+08,132.876,0,2.91267,15864.2,22900.8,-29714.1
1.82207e+08,6.87685,0,2.5645,-479.925,-141.335,-27466.5
1.82219e+08,116.541,1,2.54273,15806.7,8853.87,-12144.3
1.82648e+08,56.4121,0,2.55506,8116.06,5869.24,-22260
1.82687e+08,193.897,1,2.82884,-17394.5,-27811.2,-4637.14
1.82732e+08,16.6581,0,2.8512,1735.01,2480.7,-26950.3
1.83192e+08,120.549,1,2.43165,11089.6,3565.37,-6146.42
1.83671e+08,28.7667,0,2.71278,4544.6,-2109.08,-25269.4
1.8374e+08,0.731685,0,2.82817,26.9546,-56.9022,-28666.8
0,0.935669,1,2.79653,0,0,0
1.83874e+08,161.368,0,2.76615,9922.85,25919.3,-9182.51
1.8407e+08,99.4298,1,2.97526,2396.17,-16987.3,-17081.5
1.84224e+08,1.95062,0,2.62104,146.583,238.855,-28477
1.84455e+08,127.829,1,2.82044,-16522,-2030.81,-7682.18
1.8446e+08,140.592,1,2.54821,-15067,21374.4,-14539.5
1.84479e+08,90.4302,1,3.05291,11699,6720.61,-15882.3
1.84587e+08,292.484,0,2.40331,29397.2,8021.87,25058.1
1.84831e+08,114.803,2,2.56151,-2858.44,15800.4,-10674
1.84995e+08,44.1422,2,2.6443,1143.96,9141.28,-27982.2
1.8544e+08,67.883,0,2.77989,5061.54,5133.4,-16448.8
1.85985e+08,105.549,2,2.90504,560.434,-6096.81,-7497.6
1.86191e+08,27.6546,1,2.36864,-4603.6,-2477.65,-26168
1.8644e+08,302.67,0,2.90475,27106.1,1759.6,1920.13
1.86605e+08,9.68812,0,2.74316,-726.126,-1416.1,-27546.7
1.86637e+08,104.522,1,2.77675,-8755.48,19593.6,-24267.6
1.86877e+08,159.023,1,2.47997,20544.7,-7182.29,-3253.22
1.86895e+08,99.1837,2,2.9724,-1412.22,11936.1,-13704.6
1.86978e+08,50.4349,1,2.78426,6749.51,7690.34,-25863.6
1.87004e+08,190.087,1,2.91457,-22472.9,6922.69,3434.43
1.87183e+08,55.9595,2,2.49926,-8805.36,7888.93,-28522.9
1.87781e+08,80.8176,2,2.36517,5755.66,-99.4883,-12743.4
1.88059e+08,29.1144,1,2.49603,2987.77,491.917,-23490.2
1.88122e+08,52.6466,0,2.96749,2274.59,-2783.96,-18367.2
1.885e+08,125.993,2,2.86481,-20778.4,-776.733,-12385.9
1.88647e+08,4.35967,0,2.8226,-360.861,-312.315,-28077.1
1.88653e+08,5.51163,2,2.68708,233.008,-1195.96,-28764.2
1.88693e+08,33.3333,1,2.70874,-6044.15,3482.74,-27364.8
1.8874e+08,34.7119,2,2.65782,-719.372,-1463.62,-28997.1
1.88843e+08,87.2413,2,2.92109,-3330.01,13288.5,-16748.8
1.89306e+08,95.2888,2,2.82522,-7684.66,-445.339,-11398.7
1.89345e+08,7.21397,2,2.45768,96.6508,-1073.74,-27662.7
1.89477e+08,22.2604,0,2.38641,1768.9,-4385.42,-28231.5
1.89806e+08,45.572,1,2.92818,4297.81,-1065.16,-21110.5
1.90047e+08,23.0419,1,2.56179,-3527.56,1468.83,-25702.3
1.90195e+08,150.277,1,2.63014,-13704.2,-8958.29,-1688.14
1.90524e+08,137.318,1,2.74571,21864.4,14649.9,-16839.6
1.90584e+08,27.8836,2,2.53393,-1228.09,-4833.52,-25537.9
1.90674e+08,6.21194,2,2.86741,-75.4735,-1379.35,-28632.2
1.90734e+08,5.34848,2,3.00805,90.1662,-1001.25,-28219.6
1.91042e+08,12.9641,0,3.00923,-1760.15,11.9313,-26813.1
1.91653e+08,76.4254,0,2.59833,4912.15,-9163.76,-17671.8
1.91753e+08,9.17436,1,2.99223,-35.9154,1036.17,-27154.4
1.91967e+08,57.4914,0,2.69533,8977.75,8154.29,-27485.2
1.92253e+08,45.3946,2,2.68904,-2482.63,8471.95,-25277
1.92272e+08,100.613,0,2.6014,15616.2,-8651,-17163.2
1.92569e+08,105.439,1,2.71555,-17727.4,-2174.7,-15534.9
1.92848e+08,3.26053,0,3.04372,-396.042,-253.155,-28356.7
1.9339e+08,36.7409,0,2.50566,2006.51,3005.79,-21919.5
1.9346e+08,1.8767,0,2.66414,240.118,57.6359,-28465.9
1.93591e+08,33.118,0,2.891,3970.68,-4311.35,-25013.5
1.94076e+08,99.224,2,3.02114,-3270.52,-13694.1,-16883
1.94083e+08,115.299,2,2.37169,-469.027,-5000.08,-4944.76
1.94201e+08,10.8868,1,3.0053,1181.34,687.406,-26975.7
1.94299e+08,89.7482,2,2.66967,8031.57,-14502.2,-19674.1
1.944e+08,167.785,0,2.63886,28880,1658.54,-8653.61
1.94508e+08,25.7991,2,2.79107,-1000.96,-4144.7,-25345.9
1.94561e+08,152.489,2,2.60844,-7502.17,-28887.7,-16521.8
1.95067e+08,104.712,1,2.80599,-11397.8,17219.9,-20880
1.95315e+08,38.6117,2,2.61324,7504.56,-306.406,-25663.8
1.95372e+08,39.3671,2,2.47067,3031.31,3008.2,-21747.9
1.95711e+08,4.77332,2,3.04975,-265.791,-153.073,-27845.3
0,4.77436,2,2.94396,0,0,0
1.95771e+08,157.825,0,2.99426,8456.68,-28616,-14498.3
1.95914e+08,47.657,0,2.89487,1485.35,-9912.78,-28182.3
1.95973e+08,34.9316,1,2.44054,403.431,7395.99,-27809.5
1.96214e+08,158.219,1,2.62606,15585.9,29293.1,-24470
1.96983e+08,146.527,2,2.5276,-21488.9,-15231.4,-12405.2
1.97238e+08,55.522,1,2.39236,10529.9,1031.61,-23752
1.97251e+08,134.48,2,3.03358,12762.4,-12993.9,-7334.42
1.97439e+08,22.0534,2,2.44479,-3193.76,793.698,-25467.7
1.97507e+08,238.801,1,2.80892,-21642.7,14521.2,-26374.4
1.97599e+08,5.90083,2,2.62463,-670.203,-519.115,-27840.1
1.978e+08,7.96366,1,3.02833,1278.46,651.457,-27980
1.97908e+08,96.6804,2,2.66311,-5415.48,3069.27,-9442.41
1.98077e+08,27.1714,1,2.4977,2128.95,3854.05,-25058.6
1.98112e+08,137.681,2,2.73697,-23864.5,1109.65,-12358.6
1.98316e+08,34.4776,1,2.99171,-4186.06,5803.01,-27260.3
1.9864e+08,52.2676,1,2.70841,-9182.07,-977.101,-22781.8
1.99034e+08,77.935,1,2.66514,15367.2,-1932.03,-23373.9
1.99651e+08,5.57026,2,2.95705,-527.397,-1034.54,-28329.3
1.99992e+08,93.1721,0,2.37429,10640.7,13109.5,-18548.7
2.00048e+08,34.912,0,2.92496,1117.12,2364.59,-21960
2.00353e+08,96.2293,0,2.87029,12375,5727.9,-13830.6
2.00731e+08,28.8196,1,2.99355,2910.91,2222.95,-23986.8
2.00749e+08,162.82,2,2.76733,23451.3,-5303.21,-4404.11
2.00801e+08,83.1951,1,2.62728,-3582.76,-7910.68,-13577.1
2.00857e+08,147.404,0,2.8259,23281.6,-18645.6,-20133.9
2.01104e+08,95.9033,2,2.76367,-15196.9,4999.27,-16507.8
2.01199e+08,24.9176,1,2.69606,779.729,4753.23,-26563.2
2.01222e+08,9.63604,1,2.75362,-146.074,614.192,-26858.4
2.01954e+08,19.1772,0,2.68048,3338.71,2445.42,-28675.7
2.02254e+08,32.7271,2,2.51225,1342.92,-4844.21,-23980.9
2.02416e+08,32.6592,1,2.74268,-2879.51,6362.63,-28371.6
2.02655e+08,95.1031,1,2.41376,-18152.9,6444.69,-22725.6
2.02714e+08,33.3188,2,2.69083,3114.38,-2451.28,-23045.5
2.03152e+08,19.1392,0,2.67839,367.873,1828.41,-25226.7
0,19.1379,0,2.57398,0,0,0
2.03172e+08,145.27,2,2.65686,-7553,-25723.2,-13919.5
2.03212e+08,126.607,1,2.44446,-20328.8,7372.7,-12924.7
2.03324e+08,132.681,2,2.64001,-4939.48,-11442,-3710.42
2.03624e+08,41.6465,2,2.52677,2708.46,6089.53,-23168.1
2.03791e+08,33.4044,1,2.81803,-2514.65,3577.05,-23259.7
2.04243e+08,12.882,2,2.77959,-1608.93,-1599.96,-27198.2
2.04942e+08,101.893,0,2.9151,4369.75,-20613.3,-25085.6
2.05067e+08,193.162,0,2.94665,288.667,8564.72,9161.31
2.05122e+08,16.2247,1,2.7208,-2306.18,2616.79,-28334.8
2.0526e+08,45.4306,1,2.49689,-7643.97,-3484.05,-24105.3
2.05343e+08,75.4544,1,2.76654,4921.14,-8457.95,-16395.5
2.0539e+08,19.1624,2,3.00637,3694.27,-341.505,-27338.6
2.05404e+08,181.103,0,2.84316,-13200.1,-11367.5,-3168.69
2.0574e+08,194.863,1,2.61288,-23937.8,-16.2492,4437.99
2.05954e+08,35.7873,1,2.97594,-6211.06,4114.71,-27419.5
2.06041e+08,12.0782,2,2.99487,-886.102,1918.84,-27457.7
2.06163e+08,22.5852,2,2.66372,-410.724,3694.79,-26465.5
2.06255e+08,166.976,1,2.46919,6609.61,-751.969,-10590.9
2.06661e+08,243.485,0,2.81129,-29322.6,-18365.5,7694.22
2.06801e+08,187.404,1,2.66222,-11308.5,22745.6,-1713.47
2.0698e+08,23.7997,2,2.49839,3279.19,-3132.82,-26537.2
2.07025e+08,131.308,0,2.50409,-18255,14131.1,-13468
2.07584e+08,30.5668,1,2.37393,-391.753,2829.45,-24092.9
2.07661e+08,110.813,1,2.57007,-9481.75,3359.96,-10123.6
2.07688e+08,141.234,2,3.01351,10823.5,-20319.5,-10206
2.0774e+08,17.8684,2,2.50732,-2894.87,1924.46,-27304.1
2.07906e+08,11.0831,0,2.89983,-535.676,1213.79,-26952.7
2.0799e+08,43.388,1,2.50134,-1580.28,-7466.92,-23780.5
2.08108e+08,39.5709,2,2.48907,-1705.74,2962.16,-21198.3
2.08619e+08,186.606,1,2.65583,-8636.49,23378.6,1001.43
2.08808e+08,49.9982,0,2.81888,-1378.15,-6543.15,-20713.4
2.08828e+08,141.898,1,2.85808,-26183.8,14437.2,-28451.7
2.08942e+08,16.9288,0,2.45842,804.917,8.22581,-25302.7
2.08956e+08,66.3162,0,2.39153,11858.8,7092.88,-25968.8
2.09315e+08,140.339,0,2.53557,-977.079,19301.7,-6491.92
2.09507e+08,40.4508,2,2.67765,625.466,-2208.61,-20602.2
2.09672e+08,41.0077,0,2.81411,-443.003,2862.45,-20695.8
2.09754e+08,26.1193,0,3.01687,127.945,-4430.24,-25561.2
2.09904e+08,30.4086,2,2.79039,-5451.7,-1805.96,-25845.4
2.09905e+08,2.38281,2,2.57602,-93.0854,416.918,-28602.5
2.09939e+08,19.9556,0,2.90275,2576,-1128.83,-25641.9
2.10366e+08,58.733,0,2.75338,2893.93,-10976.5,-23790.3
2.10698e+08,66.7684,1,2.56574,-7245.61,-1521.84,-16795.9
2.10809e+08,8.62105,2,2.38654,-916.694,-1556.34,-28175
0,8.78605,2,2.80552,0,0,0
2.11105e+08,174.144,2,2.99364,-4047.45,-18121.4,-2758.03
2.1112e+08,78.4969,0,2.62321,4148.08,14607.3,-22153.1
2.11936e+08,116.764,1,2.93998,-15752.6,17507.7,-21732
2.1197e+08,202.015,1,2.72427,125.654,14085,11333.7
2.12073e+08,79.2071,0,2.60871,15534.1,1861.3,-22642.6
2.12234e+08,43.7235,1,2.79061,438.556,7629.49,-23567.6
2.1258e+08,148.453,2,2.54971,16016,-22477.4,-13851.4
2.13048e+08,50.5108,1,2.78451,-2022.14,2822.53,-18747.8
2.13224e+08,257.771,2,2.47013,-10655.4,-25344.3,18261.7
2.13458e+08,1.59793,0,2.36302,36.883,216.134,-28539.8
0,1.6596,0,2.43155,0,0,0
2.13763e+08,83.3172,0,2.69016,12643.6,11142.7,-23710.6
2.13806e+08,97.3613,0,2.39099,3469.48,-4439.68,-8985.12
2.13948e+08,74.7872,1,2.833,-8324.95,12487.5,-23907.2
2.13984e+08,131.719,1,2.8681,-10339.3,25773.6,-28226.1
2.1409e+08,15.3955,2,2.43247,-1117.04,-3137.42,-29118.2
2.14229e+08,4.81279,2,2.7195,-366.67,-820.036,-28235.1
2.14501e+08,113.247,2,2.61719,-20410.5,-10217.2,-21433.5
2.14838e+08,157.64,1,2.54676,4957.38,19982.2,-2592.9
2.14893e+08,1.5365,0,2.81331,319.092,-233.561,-28695.4
0,1.88824,2,3.01397,0,0,0
2.14967e+08,33.2209,1,2.56597,1220.75,6156.66,-25543.2
2.15092e+08,133.403,2,2.44883,-14664.3,12904.1,-8468.73
2.15628e+08,96.5121,1,2.70746,-10097,-6123.62,-12268.5
2.15698e+08,2.78724,0,2.88543,-159.673,-52.8311,-28301.2
2.16186e+08,28.7466,2,2.62932,1064.84,-3587.82,-23984.8
2.16597e+08,37.1848,2,2.57154,-4711.14,-3611.7,-23571
2.16687e+08,50.7214,0,2.38113,-1003.69,4917.81,-19327.1
2.16974e+08,94.9822,2,2.70675,3316.97,-7841.07,-10679.4
2.17002e+08,219.673,0,2.5101,21179.5,17021.9,8883.01
2.17095e+08,249.331,2,2.51399,24458.1,-13751.2,15798.4
2.17486e+08,20.6644,2,2.40173,4313.15,351.784,-28393
2.17512e+08,225.597,2,2.64955,-28594.1,-4217.78,8999.11
2.17796e+08,107.755,2,2.5088,17735.2,-13427.8,-23806.3
2.18004e+08,3.96981,2,2.69166,-390.903,-637.069,-28284.6
0,3.95076,2,2.4003,0,0,0
0,3.96683,2,2.3966,0,0,0
0,4.43176,0,2.85473,0,0,0
2.18086e+08,122.118,2,2.48101,-20536.6,14182,-22126.7
2.18366e+08,76.4628,1,2.63567,1131.4,10189.3,-24675.4
2.18524e+08,85.4351,2,2.72996,-14288.3,-4671.1,-18814.6
2.1864e+08,89.3449,1,2.58796,4868.04,4342.69,-11126.1
2.18757e+08,221.642,0,2.57099,11374,17886.9,12720.2
2.18837e+08,18.5852,0,2.95587,-2250.16,3129.84,-28483.1
2.18943e+08,103.997,1,2.71668,-2776.08,6624.88,-8098.95
2.19204e+08,8.27375,0,2.93813,736.913,1567.88,-28344.8
2.19311e+08,109.65,1,2.39937,-13244.4,717.287,-9782.43
2.19339e+08,39.9273,0,2.56228,7539.51,1154.36,-25036.8
2.19441e+08,31.7998,1,2.96814,1739.55,5783.44,-25824.5
2.19751e+08,26.6977,1,2.92349,1938.23,5350.77,-28577
2.19822e+08,152.945,0,2.88401,16296.3,-13893,-4898.4
2.19837e+08,21.2126,1,2.75212,541.394,2480.24,-25095.3
2.19888e+08,18.5324,2,2.47392,-181.652,-2139.04,-25486.4
2.19907e+08,29.621,1,2.95185,5094.96,1777.22,-25778.5
2.19954e+08,63.6745,2,2.53142,-12459.3,2963.45,-24512.1
2.20025e+08,92.4504,2,2.60078,9399.44,-17146.1,-28154.6
2.20032e+08,0.677001,1,2.65506,-53.8116,164.323,-28707.5
2.20424e+08,55.6677,1,2.96295,-6727.8,8661.53,-24545.7
2.20546e+08,110.765,1,2.9209,22702,-2551.48,-24708.3
2.20701e+08,63.1045,2,2.76383,-2932.26,2688.81,-16167.2
2.20852e+08,30.8017,0,2.73612,4303.28,-580.315,-25539.2
2.20915e+08,81.0853,1,2.53816,-11046.9,12394.8,-24228
2.21052e+08,160.865,2,2.53297,-27483.5,-5128.55,-9389.56
2.21195e+08,24.4744,2,2.55253,-4672.34,1039.34,-26789
2.21314e+08,150.37,2,2.51416,20885.8,-22082.7,-19405.1
2.21653e+08,7.72735,1,2.53257,-601.487,1098.39,-27669.9
2.21752e+08,94.5171,1,2.58894,6451.58,6784.18,-11202
2.22553e+08,125.069,0,2.57749,-10959.8,-2305.99,-13560.2
2.23096e+08,15.4743,1,2.45091,-2643.92,-1742.61,-27980.5
2.23109e+08,44.3289,2,2.79525,1917.95,6709.79,-22848.6
2.23297e+08,42.17,0,2.80752,4116.37,4796.83,-22523
2.2342e+08,17.1913,1,3.00042,945.256,-1506.95,-25753.4
2.23741e+08,83.6006,2,2.72053,-834.381,-13215.5,-17138.7
2.24107e+08,25.5936,2,2.99742,-3792.91,-3488.99,-27057.3
2.24181e+08,130.012,2,3.02509,23433.8,-13304.2,-24844.3
2.24707e+08,162.06,1,2.38751,11397.8,8548.73,2356.3
2.24961e+08,64.5084,0,3.00095,1026.63,4030.93,-20537.4
2.25043e+08,37.7797,0,2.6539,4624.78,3510.08,-23271.8
2.25468e+08,40.8921,1,2.53968,-5988.31,6311.91,-29602.3
2.25656e+08,130.519,0,2.52691,956.306,7441.46,-2277.46
2.25869e+08,128.771,0,2.78902,22796.7,-14784.8,-29277.1
2.25906e+08,54.4778,1,2.91384,-5002.15,4973.38,-19763.1
0,54.476,2,2.65977,0,0,0
2.26367e+08,27.4783,2,2.77832,239.84,-5884.21,-28899.1
2.26401e+08,18.3956,0,2.77053,1260.29,1154.05,-25337.7
2.26465e+08,174.773,2,2.55126,-9543.39,-25535.9,-3809.23
2.26499e+08,228.418,1,2.9077,27234.4,-26446.4,332.583
2.26552e+08,140.676,1,2.38439,14241.2,-12600.5,-5975.04
2.26595e+08,82.5355,1,2.43779,-11634.4,5323.65,-16896.9
2.26624e+08,24.8665,2,2.49634,1026.42,2717.8,-24481
2.2724e+08,159.311,0,2.43505,17681.2,20995.1,-9177.56
2.27348e+08,36.7023,1,2.44524,-4176.65,6326.99,-26708.1
2.2739e+08,31.488,2,2.72658,437.217,-6713.44,-28391.9
2.28083e+08,65.597,1,2.68013,-5023.75,8334.9,-18907.5
2.28144e+08,16.0427,0,2.95606,2869.92,1662.87,-29795.3
2.28304e+08,48.9159,0,3.05926,-43.1675,-4986,-19905.4
2.28316e+08,26.0071,1,2.44818,622.798,5556,-29102
2.28534e+08,172.636,2,2.42799,-2459.31,25326.5,-2711.89
2.28601e+08,70.8635,0,2.95542,-5556.77,8801.49,-18241.1
2.28733e+08,52.3158,1,2.39425,-8047.15,-4042.56,-22385.5
2.28734e+08,64.13,0,2.42151,-5484.47,7354.45,-18858
2.28855e+08,67.5081,2,2.81962,3774.92,-6735.57,-16872.1
2.28911e+08,105.359,1,2.88866,-11287.2,-10788,-13140.3
2.29124e+08,5.03017,0,2.45854,1151.14,-175.096,-29060.5
2.29293e+08,62.5643,1,2.69667,-11888.8,5393.02,-26403.4
2.29536e+08,123.291,0,2.92484,17399,-19223.8,-29309.2
2.29658e+08,210.025,1,2.51513,-26418,-10565.5,5213.47
2.29677e+08,17.1214,0,2.77976,-274.802,-3346.09,-27445.5
2.29692e+08,16.2639,1,3.00356,3158.06,1323.84,-28940.5
2.29755e+08,68.9158,1,2.80637,1192.81,9759.29,-18096.5
2.30146e+08,114.37,0,2.82456,17487.5,-16468.7,-26565.2
2.3021e+08,23.1815,1,2.66846,-1228.53,-616.388,-24113.7
2.30388e+08,38.8846,1,2.78128,-7513.4,2945.14,-27003.5
2.30712e+08,122.815,1,2.75478,-3351.72,25520,-25439.6
2.31096e+08,88.8293,1,2.61106,4059.38,15660.1,-19265.3
2.31425e+08,124.087,0,2.85049,105.55,3206.2,-28040.2
2.31482e+08,24.7092,2,2.90859,-973.677,-2924.65,-24582.7
2.31535e+08,81.693,0,2.77066,8926.41,-2007.42,-17350.6
2.31718e+08,31.3226,2,2.468,-4291.71,-3258.45,-24878.5
2.3179e+08,31.9933,0,2.60226,-190.887,5760.08,-25316.3
2.31853e+08,17.9692,2,2.67326,1109.13,-1655.12,-25584.5
2.31868e+08,16.3404,2,2.72847,-376.885,1981.18,-26052.5
2.31879e+08,19.6156,1,2.50326,-4061.31,-762.868,-29564
2.32115e+08,74.411,0,3.05614,13195.7,5380.67,-22305
2.32149e+08,17.0238,0,2.49428,-3254.11,-512.274,-27525.1
2.32376e+08,49.4307,2,2.81345,-9095.54,-1320.73,-23832.9
2.32413e+08,148.243,1,2.89914,-14632,-6531.55,-28356.5
2.32419e+08,73.7397,0,3.03512,-690.676,4114.98,-23533.7
2.32428e+08,109.917,2,2.88973,-18545.3,-12136.4,-22130.3
2.3246e+08,106.411,2,2.77851,18377,10220.4,-21296.3
2.32823e+08,14.9123,0,3.02787,1324.21,-1176.23,-26201.9
2.33098e+08,0.914131,1,2.83485,-172.991,200.14,-28721.1
2.33123e+08,9.36016,2,2.83637,-673.992,1488.92,-27743.9
0,9.37917,2,2.5816,0,0,0
2.33201e+08,87.4821,0,2.89672,-6624.03,-11267.9,-15937.6
2.33256e+08,135.397,1,2.41991,-5345.96,28235,-28767.6
2.33374e+08,24.0081,1,2.54248,2205.55,-472.526,-24299.4
2.3338e+08,87.7235,0,2.37164,14105.7,11569.6,-25098.6
2.33416e+08,61.9383,2,2.36605,10016.5,-7509.26,-24829.4
2.33465e+08,41.2474,0,2.77459,-6154.21,4099.34,-24360.7
2.33468e+08,30.0243,1,2.66016,4226.25,1592.36,-24393.8
2.33511e+08,5.28875,2,2.59609,-944.903,-723.618,-28545.7
2.3402e+08,49.1098,1,2.76782,4929.97,-1864.07,-19954.4
2.34171e+08,38.3191,0,2.95003,3470.91,-7123.19,-27145
2.34211e+08,73.7829,2,2.80961,-3698.35,-13776,-22480.9
2.34277e+08,149.997,1,3.00939,-653.153,12347.1,93.4055
2.34331e+08,140.361,2,2.82626,-21043.2,20671.9,-29387.7
2.34489e+08,92.7475,0,2.77255,-2070.8,18385,-22533.7
2.35053e+08,98.6851,0,2.66299,-5188.69,-20160.8,-28501.1
2.35188e+08,177.871,2,2.43027,-20708.9,-427.073,2607.45
2.35197e+08,123.365,1,2.48942,-18605,11807.2,-14724.5
2.35622e+08,59.6595,1,2.4495,-5940.49,5386.36,-18998.6
2.35974e+08,82.8348,2,2.54123,-15114.9,-7756.33,-24243.2
2.36183e+08,121.175,0,2.77012,19901.8,-15201.2,-23574.8
2.36199e+08,237.149,0,2.82078,23870.9,10063.2,13832.5
2.36438e+08,70.3284,2,2.74116,-2767.06,5606.49,-15411.2
2.36443e+08,66.7008,0,2.89708,10853.8,-9008.95,-29152.7
2.36563e+08,3.58156,1,2.97385,-338.645,-241.224,-28198.9
2.36688e+08,180.886,0,2.38365,-24372.1,-10638.5,-1386.97
2.3669e+08,160.198,0,2.4037,20066.1,8257.84,-2723.17
2.36733e+08,22.1572,2,2.88108,-1083.54,1234.57,-24469
2.37254e+08,101.542,1,2.84279,-16543.4,8478.21,-18172.6
2.37427e+08,3.40033,2,2.44789,-512.222,-656.649,-28980.5
2.37645e+08,79.4252,0,2.77432,157.178,6728.83,-13516.9
2.37876e+08,174.558,1,2.53545,23889.1,7791.81,-1817.06
2.3791e+08,124.894,0,2.76945,10627.7,-21264.6,-17512.2
2.3814e+08,144.03,0,3.0149,4291.05,25746.7,-13623.4
2.38182e+08,195.999,1,2.54145,-12690.1,10391.9,9244.84
2.38208e+08,18.9092,0,2.80706,3057.96,-1980.36,-27034.4
2.38376e+08,71.0776,2,2.48246,5458.36,-7618.65,-17048.7
2.38429e+08,214.646,1,2.96821,-4065.86,-3884.82,-21036
2.38541e+08,18.1047,2,2.84141,-1312.05,-1598.47,-25566.5
2.3901e+08,3.13151,2,2.83347,216.287,-640.249,-28589.6
2.39305e+08,33.6821,0,2.94711,2402.11,-6682.39,-29495.2
2.3979e+08,27.0191,2,2.73532,-674.39,3176.98,-24188.1
2.39985e+08,347.512,0,2.5346,9941.84,354.206,-4848.13
2.40265e+08,25.3608,2,2.87741,-4940.12,1906.17,-28163.2
2.40579e+08,217.739,2,2.74473,16832.1,-19292.3,9229.72
2.40645e+08,36.7335,0,3.01287,-3508.13,-3133.07,-22790.6
2.40662e+08,71.4524,1,2.9827,-75.3317,6432.81,-15250.6
2.40958e+08,17.3194,1,2.5178,946.357,-2467.62,-26333.3
2.41038e+08,96.0731,1,2.50578,-4092.38,6222.94,-9893.75
2.41041e+08,3.55569,1,2.50476,-413.653,412.374,-29444.9
2.41288e+08,91.3156,1,2.96646,-14037.8,1568.69,-15829.1
2.4141e+08,19.916,0,2.57961,-1971.08,-3193.98,-26938.5
2.41551e+08,130.003,0,2.96113,8615.51,-19662.3,-11976.3
2.41766e+08,128.836,1,2.57251,-16927.9,21418.2,-29983.5
2.41784e+08,15.6547,1,2.76355,1386.98,-2450.54,-27209.9
2.41844e+08,70.9368,0,2.95304,-10486.6,8191.98,-22871.4
2.42057e+08,72.4681,0,2.64145,8154.4,5002,-17530.6
2.42147e+08,70.4887,2,2.4813,-2698.36,11483.9,-19799.9
2.42242e+08,146.793,1,2.48017,29972.1,7742.72,-26768.6
2.42345e+08,5.08604,1,2.76866,-68.8137,695.142,-27938.2
2.42607e+08,26.3174,1,2.83374,-845.596,1600.13,-23582.8
2.43123e+08,252.683,1,2.65962,-11155.8,-4610.67,10286.9
2.43394e+08,60.7666,0,2.41318,-5459.5,-8602,-20999
2.43579e+08,82.2736,0,2.94705,12624,9213.57,-21314.3
2.43683e+08,47.8101,0,3.05489,-4111.63,-6704.49,-22686.4
2.44062e+08,162.556,0,2.8574,-23873.4,-18737.3,-13241.1
2.44074e+08,196.233,1,2.99381,-12391.8,27641.8,-903.823
2.44077e+08,57.4994,1,2.77152,7720.47,6069.07,-21701.9
2.4415e+08,96.0504,1,2.62271,5432.85,-10504.6,-12405.4
2.44223e+08,149.993,2,2.99082,17555.8,-21479.6,-13929.5
2.44472e+08,34.0394,0,2.59415,2529.8,-6641.22,-27586.5
0,33.7698,2,2.46128,0,0,0
2.44603e+08,71.599,1,2.95665,10536.7,9259.88,-23427.1
2.44704e+08,37.874,1,2.48,-2312.25,4040.98,-22232.3
2.45269e+08,0.339911,0,2.48391,37.2186,19.3132,-28743.4
0,0.346635,0,3.03067,0,0,0
2.45688e+08,253.648,1,2.62749,-8335.62,4236.23,-11643.1
2.45742e+08,71.578,0,2.95731,987.702,5512.65,-14904.3
2.45762e+08,40.0206,1,2.40195,-3097.47,8.43304,-20920.4
2.45822e+08,18.14,1,2.69366,2105.22,-677.034,-25717
2.45904e+08,7.24622,1,2.38175,695.171,1440.36,-28708.2
2.46488e+08,149.884,0,2.51208,21760.9,15675.2,-11840.9
2.46844e+08,120.175,2,2.70207,-1665.22,-15900,-9124.85
2.46925e+08,141.176,1,2.53128,-12970.7,24339,-17183.8
2.47179e+08,168.795,2,2.50327,7714.46,2597.64,-4038.5
2.47289e+08,5.01355,2,2.60485,-66.1823,-979.566,-28259.2
2.47329e+08,12.8106,1,2.75929,-2623.97,-433.92,-29554.1
2.47536e+08,134.878,2,2.98489,-14628.1,903.308,-4615.65
2.47559e+08,2.40059,0,2.55297,462.026,304.014,-29059
2.48025e+08,2.73985,2,2.37257,-635.017,-146.484,-28997.4
2.48059e+08,33.078,1,2.59432,2503.82,4977.3,-24514.5
2.48149e+08,161.924,0,2.72409,16656.8,-12771.5,-1872.75
2.4821e+08,11.1972,1,2.79963,553.837,2069.08,-27674.9
2.48266e+08,140.502,2,2.81427,-8420.11,-17097.1,-6186.56
2.48856e+08,43.8503,1,2.49889,-7493.8,-4314.04,-25427.5
2.48898e+08,26.0375,1,2.53629,3778.62,3378.25,-26836.1
2.48935e+08,75.2128,1,2.39256,13205.3,2314.79,-20302.8
2.49337e+08,35.21,0,2.91668,-5022.06,4650.08,-26110.8
2.4966e+08,109.652,2,2.92487,20525.5,-8927.62,-23410.5
2.49782e+08,251.632,1,2.77834,-5958.28,20305.8,19743.4
2.49883e+08,95.2941,1,2.87435,4989.41,18973.8,-24531.1
2.49972e+08,75.3962,2,2.57844,-14149.1,-3170.05,-22101.6
