#class tools::wcsv::ntuple
#title time
#separator 44
#vector_separator 59
#column double eventID
#column double t(ns)
#column double copynumber
#column double energy(eV)
#column double x(mm)
#column double y(mm)
#column double z(mm)
54676,28.0317,1,2.77296,5158.41,2919.9,-28443
182451,21.9331,2,3.03482,349.929,137.882,-28553.1
229222,163.076,1,2.49812,6466.97,16681.8,-16736.8
383897,91.997,0,2.5593,-6406.79,10725.1,-13975.9
813913,46.1986,2,2.7927,995.822,8872.87,-25136.9
1.10121e+06,17.306,1,2.87218,2579.31,2643.13,-29025.3
1.16081e+06,60.4135,2,2.66341,4089.07,-5638.65,-18130.7
1.27994e+06,11.2339,0,2.74598,1319.92,1802.9,-27861
1.31402e+06,103.791,0,2.64024,8767.93,-4649.66,-9264.34
1.32498e+06,114.286,2,2.50506,2157.32,-20321.8,-15852.9
1.47328e+06,77.5395,1,2.58316,-7469.1,-7880.82,-16587.2
1.62104e+06,271.736,0,2.65063,3361.12,-805.155,-26676.7
1.74602e+06,77.2943,2,2.60389,5341.17,-13500.1,-21231.1
1.94722e+06,88.5073,1,2.75669,5011.6,9312.51,-13461
2.24625e+06,100.724,2,2.5588,-5885.87,-19017.5,-21129.5
2.55954e+06,64.5484,0,3.03445,-6668.76,-10457.4,-23468.2
2.61431e+06,269.179,1,2.92673,21955.2,-17236.5,5645.48
2.71305e+06,40.5186,1,2.94248,-2047.65,-5044.91,-22337.3
3.15558e+06,80.9144,0,2.87882,3884.17,-7789.15,-22056.1
3.26964e+06,59.0701,1,2.41143,-7355.89,-2495.99,-19002.9
3.29749e+06,102.084,2,2.59461,-19873.5,-706.278,-20427.1
3.48911e+06,65.629,1,2.3903,-6583.93,4334.36,-17358
3.51531e+06,46.0607,1,2.78361,-2691.28,-8788.48,-25812.1
3.66429e+06,34.5098,1,3.03619,-1055.34,4434.8,-23151
3.75305e+06,9.27435,2,2.63186,1256.47,506.585,-27463.6
3.87382e+06,42.6685,1,2.94732,-375.17,7864.52,-24423.3
3.94292e+06,6.48351,1,2.87724,101.902,1065.04,-27885.6
4.08138e+06,22.283,1,2.62784,-3613.97,3105.83,-29404.9
4.38596e+06,79.3028,2,3.0324,-4300.21,-6874.53,-14269.8
4.54569e+06,178.295,1,2.73835,-15318.8,22929.9,-3244.25
4.5574e+06,147.462,2,2.69075,-15820.4,11311,-4589.23
4.72128e+06,81.4691,2,2.69485,-10358.8,4342.53,-15800.1
4.76837e+06,33.9023,0,2.96535,5390.46,3451.95,-25538.9
4.83591e+06,54.5504,0,2.50333,6817.12,9288.6,-27398.8
5.26842e+06,12.1077,1,2.53841,480.767,2540.01,-29391.8
5.31608e+06,46.8722,1,2.51737,-3247.5,7612.87,-23216.9
5.3352e+06,184.816,0,2.41178,-28524.5,3051.56,-2702.76
5.44156e+06,34.2978,0,2.38448,-4361.47,-3415.07,-24174.2
5.57906e+06,66.3732,1,2.93161,-4916.83,13130.1,-28068.2
5.63638e+06,164.962,0,2.75679,26990.2,6946.08,-7980.16
5.78534e+06,132.787,1,2.47595,-8038,13726.7,-5646.21
5.959e+06,43.7411,1,3.00572,-1920.12,8937.59,-27262.8
6.2725e+06,112.025,0,2.92344,9583.25,10515.9,-10109.1
6.31235e+06,44.9389,2,2.84582,-5846.37,5839.64,-24256.5
6.42258e+06,78.9066,1,2.5425,9271.48,2597.72,-15198.9
6.4932e+06,0.804935,2,2.81361,-70.6451,-96.0861,-28642.9
0,0.808867,2,2.81783,0,0,0
6.49932e+06,81.2234,1,2.38519,-6191.61,7752.45,-14743.6
6.57877e+06,167.853,2,2.79214,-15448.1,-7506.48,2073.98
6.70318e+06,54.7498,2,2.8878,3747.66,7817.6,-21353.3
6.77834e+06,165.468,1,2.87571,-3437.69,5399.06,-15405
7.04984e+06,57.9986,2,2.65483,5675.8,-9041.3,-22779.5
7.09892e+06,46.8343,2,2.82688,-3800.35,7803.68,-24579.8
7.35507e+06,128.575,2,2.45591,16462.6,-21663.1,-27233
7.56105e+06,113.796,2,2.50276,-21806.4,10128.7,-27869
7.74265e+06,32.5215,1,2.78997,294.777,5023.6,-24099.6
7.98467e+06,30.8329,1,2.60254,5245.7,-1672.46,-25423.6
8.13154e+06,85.3805,2,2.56612,10767.1,1679.06,-24412.2
8.16705e+06,118.599,1,2.65538,-12111.6,-3567.41,-7221.35
8.2928e+06,22.888,1,2.56373,486.98,4748.78,-27591
8.38476e+06,38.5937,0,2.80413,-5526.61,1544.22,-23130.1
8.50933e+06,119.368,0,2.79443,87.167,-10291.9,-5909.31
8.57787e+06,7.95019,0,2.53521,-65.3433,-1651.34,-28959.8
8.6186e+06,53.6642,0,2.42049,4652.78,-7651.2,-21771.7
8.76029e+06,36.7353,0,2.59771,3655.78,6700.79,-27261.2
9.06504e+06,101.745,0,2.87599,626.327,-14941.8,-13565.3
9.30705e+06,62.6251,1,2.73709,-4446.08,-3211.68,-16853.1
9.36317e+06,70.635,0,2.562,-3026.93,-14181.9,-25327.8
9.51978e+06,145.688,2,2.89701,2785.46,13892.8,-1734.25
9.64459e+06,165.455,0,2.48334,-22248,13456,-5505.5
9.69009e+06,14.5166,2,2.86053,2696.37,-1120.56,-27938.4
9.70595e+06,41.1815,0,2.4485,6156.4,-3473.55,-23614.8
9.86844e+06,24.2217,2,2.83879,-111.827,-4359.42,-26064.4
9.93154e+06,209.482,1,2.96958,-29880.4,21495,-4729.19
9.98105e+06,49.523,1,2.67648,-3198.3,3856.37,-19627.7
1.01529e+07,59.0499,2,2.61831,-10866.5,2396.18,-28939.4
1.02863e+07,161.278,2,2.38343,-29942.9,-16168.6,-25645.1
1.03122e+07,86.0945,1,2.90736,-10401.3,12699.7,-21808.2
1.04333e+07,31.2892,2,2.53024,-2845.91,-5880.37,-27291
1.04503e+07,140.674,0,2.75479,-15286.6,8299.25,-4883.9
1.05363e+07,48.4116,0,2.56081,1485.62,834.53,-25199.4
1.08115e+07,76.3679,2,2.93502,-5422.65,-12985.6,-20976.8
1.08141e+07,3.72096,1,2.73034,-650.092,601.252,-28972
1.09841e+07,3.07959,0,2.74924,518.262,333.73,-28439.1
0,3.08501,0,2.97413,0,0,0
1.10229e+07,138.82,1,2.68887,-2084.24,12789.2,-2556.45
1.13739e+07,99.5708,2,3.03805,11233.8,-15594.3,-20628.4
1.17302e+07,39.01,0,2.80703,6077.75,-2949.61,-24040.7
1.2019e+07,116.353,2,3.00439,-3254.79,-23476.2,-22785.8
1.22413e+07,36.5209,0,2.57717,6912.01,457.107,-25295.5
1.24641e+07,70.0811,0,2.63865,11670,-9133.1,-27371.4
1.2491e+07,155.258,2,2.68592,-1078.86,-23650.8,-6137.9
1.25579e+07,35.9511,2,2.65276,-2385.56,-6583.45,-25658.6
1.25747e+07,75.0051,0,2.39307,8274.29,-4356.45,-15942.1
1.2696e+07,75.1522,2,2.71763,8781.49,-4634.57,-16484
1.27917e+07,226.859,1,2.78203,13184.9,13242.4,-3177.33
1.29915e+07,2.12314,0,2.5519,313.668,-241.559,-28501
1.31205e+07,44.4024,1,2.73491,-2590.75,8831.15,-26680.9
1.34404e+07,94.8747,2,2.58559,-17624.8,1714.87,-19435.9
1.34786e+07,47.7423,2,2.5804,385.433,-9512.75,-25269.6
1.38177e+07,26.0547,2,2.9174,1239.88,4244.29,-25710.5
1.40501e+07,126.924,0,2.61491,-21226,3735.56,-14343.5
1.41504e+07,21.8648,2,3.01116,-3890.98,-2542.56,-29440.2
1.4205e+07,56.637,2,2.55642,-457.63,6346.21,-18738.8
1.4361e+07,10.6495,1,2.49416,-576.643,2083.73,-27901.2
1.43921e+07,112.774,1,2.67974,5087.38,10917.7,-17469.5
1.47325e+07,137.053,0,3.02468,21047.7,-19647,-28414.6
1.4858e+07,5.73271,2,2.59808,-1017.87,-573.601,-29446.2
1.53254e+07,2.11804,1,2.84784,15.4403,537.733,-28799.8
0,2.05085,1,2.65996,0,0,0
1.53977e+07,137.525,2,2.87672,-24545,-15419.2,-29191
1.61024e+07,165.311,2,2.3769,-27718.6,3970.24,-7790.93
1.62245e+07,79.7661,1,2.74564,-2628.7,16419.3,-25859.9
1.68185e+07,47.3614,0,2.6813,5588.56,4061.67,-21525.9
1.68201e+07,22.3387,2,2.78238,4334.95,1643.82,-29215.6
1.73378e+07,152.762,2,2.61122,-23900.7,13715.4,-12056.5
1.74862e+07,63.3699,1,2.94706,-6126.47,10441.4,-23114.3
1.75154e+07,52.9625,2,2.61351,8958.23,4153.41,-23644.7
1.75313e+07,203.909,2,2.46458,-14139,-18938.2,3027.57
1.75644e+07,18.9977,1,2.94676,726.46,3939.77,-29442
1.75677e+07,75.3923,0,2.7076,8078.66,13691.9,-27426.3
1.76714e+07,7.47664,1,2.77735,380.465,1577.26,-29115
1.7783e+07,24.8941,2,2.78696,1582.49,-4986.65,-27839.5
1.78221e+07,14.8593,0,2.55169,2897.67,1420.18,-29282.2
1.79968e+07,39.9062,0,2.83895,6014.31,1419.77,-23066.6
1.80765e+07,56.8511,2,2.76706,697.877,-3643.8,-26975.6
1.96297e+07,68.1156,0,2.53724,11662.8,4409.01,-21460
1.97059e+07,14.0979,0,2.8368,2678.34,1461.36,-28926.6
1.97835e+07,10.9294,1,2.50828,-91.2273,1223.88,-26819.8
1.97892e+07,9.85947,1,2.55802,-36.4534,668.613,-26820.6
2.01473e+07,56.5307,1,2.81473,-10843.9,156.885,-23805.9
2.02482e+07,11.8383,1,2.81472,124.17,2544.83,-29348.7
2.06523e+07,28.2616,2,2.87927,-2300.21,1593.51,-23572
2.08801e+07,49.4036,0,2.78814,2540.25,-5001.67,-20032.3
2.10667e+07,56.1549,2,2.391,10054.1,-4472.58,-24318.4
2.10768e+07,5.65387,0,2.75361,-404.925,773.452,-28023.4
2.10796e+07,25.6928,0,2.52828,1567.77,5232.23,-29348.4
2.11329e+07,92.1264,2,2.93214,3944.09,-18874.8,-26552.2
2.12545e+07,79.5248,1,2.38048,-8789.69,-1372.16,-14516.7
2.16026e+07,66.4288,0,2.75138,957.768,-13406.1,-24943.7
2.18847e+07,142.889,0,2.665,-5675.17,21623.4,-8653.31
2.20706e+07,76.7734,0,2.87288,-348.611,16060.8,-27207.1
2.21278e+07,174.814,2,2.3689,-7215.14,17445.9,2954.31
2.22581e+07,105.786,0,2.93298,-8692.25,11578.5,-12133.1
2.26198e+07,84.9581,2,2.61314,2041.45,-9838.64,-13921.8
2.28778e+07,142.558,1,2.63883,13985.1,10515.4,-4335.15
2.37519e+07,18.1879,0,2.95937,-446.026,3800.07,-28626.8
2.37622e+07,44.0553,2,2.48286,-7419.5,-4137.49,-24818.4
2.39503e+07,143.057,1,2.613,-20273.6,810.878,-6410.85
2.40466e+07,112.145,1,2.47146,-18284.5,7684.19,-15724.6
2.44305e+07,99.888,2,2.66079,5810.7,-15333.5,-15528.1
2.45457e+07,111.812,0,2.76463,-6580.06,-14256.9,-11321.6
2.46739e+07,54.7211,2,2.77611,1792.05,-11010,-25605.2
2.49363e+07,178.68,0,2.78428,29291.4,-1814.79,-5254.08
2.49546e+07,182.816,1,2.95106,-20680.3,28889.3,-14214.7
2.52005e+07,75.2289,2,2.44673,3902.61,-10220.3,-17198.9
2.52662e+07,25.4074,1,2.4037,-1618.27,4712.3,-26591.3
2.55512e+07,5.61691,1,2.41946,926.718,657.147,-28370.4
2.59918e+07,59.8672,2,2.58099,-12555.2,1885.27,-29319.1
2.68903e+07,45.0581,0,2.95872,6769.01,749.289,-22176.1
2.69e+07,33.544,2,2.61164,1045.39,3908.2,-23057.5
2.73854e+07,38.8931,0,2.54702,-4263.87,-3681.25,-22906
2.76056e+07,75.8025,1,2.47181,-7223.74,2260.71,-16743
2.77332e+07,79.0202,2,2.67027,-4789.99,5176.58,-16627.5
2.77476e+07,55.8684,2,2.7368,-6059.77,5862,-26045.7
2.78515e+07,92.6709,2,2.39098,-4476.2,-5754.54,-10601.3
2.79678e+07,61.926,2,2.82042,8886.75,9153.92,-26476.1
2.79835e+07,57.5338,0,2.7743,10040.3,-965.019,-22001.1
2.8183e+07,72.9374,1,2.52868,-272.938,8813.89,-16134.5
2.85673e+07,86.7355,2,2.86979,-12849.3,-6612.11,-17613.2
2.86323e+07,67.4723,0,2.76055,1449.47,-12378.6,-21985.2
2.89898e+07,178.727,1,2.80821,16557.8,5403.69,4483.31
2.91166e+07,87.8918,1,2.96119,-11835.9,2536.63,-14858.1
2.95272e+07,4.44508,1,2.68195,-618.976,222.413,-28081
2.99848e+07,76.5783,2,3.05242,-10540.2,-329.93,-16689.9
3.0948e+07,145.339,0,2.71792,-2321.84,-21221.9,-6868.45
3.11683e+07,44.4436,2,2.76019,6304.62,2599.84,-22477.6
3.12359e+07,60.4148,0,2.88569,-12065.5,48.9978,-25100.7
3.18451e+07,173.665,2,3.02198,8034.24,-23582.9,-2248.5
3.19484e+07,31.4143,2,3.03105,-5611.8,-1020.78,-25399.5
3.23505e+07,62.2803,2,3.00773,-11046.2,-5783.42,-24678.7
3.29567e+07,100.235,2,2.38167,-17003.9,-7926.61,-18782.6
3.30877e+07,141.678,2,2.49336,9507.91,9657.93,-2182.05
3.32529e+07,73.6866,0,2.41744,-9514.86,-8154.57,-19605
3.32679e+07,163.478,2,2.5205,14871.7,24283.3,-9392.39
3.33102e+07,2.56225,2,2.76595,-474.728,-291.743,-28558.9
3.37238e+07,97.2033,0,2.39138,-2350.73,-10083.6,-11054.5
3.38975e+07,17.7838,0,2.87019,2778.04,-2574.38,-28369.4
3.39058e+07,155.623,2,3.00749,-23334.9,-989.464,-6030.41
3.40049e+07,47.0509,0,2.83928,7637.99,2110.45,-22782.4
3.44413e+07,52.9057,0,3.014,-6563.21,-2174.66,-20212.2
3.46305e+07,27.2497,0,2.54551,4975.74,-2183.83,-26735.5
3.50696e+07,40.5133,0,2.40211,1064,-8286.32,-26791.1
3.52073e+07,42.7788,2,2.84675,-8096.45,-4100.89,-29037
3.53687e+07,9.0235,2,2.84518,-1182.78,-1626.32,-28947.3
3.55115e+07,38.8839,1,2.74722,5740.89,5860.42,-29537.7
3.55347e+07,108.612,2,2.95397,-11327.7,-18633.5,-21910.3
3.55629e+07,44.7536,1,2.41882,-8010.72,-850.074,-23793.7
3.57445e+07,51.7793,1,2.99995,-8178.62,3238.21,-22358.9
3.57925e+07,72.8789,1,2.66716,12020.2,-3244.47,-23723
3.59598e+07,238.767,1,2.55513,3577.68,18896.6,15374.5
3.61686e+07,169.491,0,2.37675,1671.46,15813.1,-9065.24
3.65473e+07,29.7422,2,2.5802,-3870.28,3283.24,-25094
3.67582e+07,87.7385,1,2.43241,13397.7,7812.2,-18602.7
3.70211e+07,107.708,2,2.4499,1996.88,11520.9,-9344.51
3.70641e+07,123.807,2,2.49087,3181.75,-26022.6,-27661.4
3.70648e+07,89.3162,1,2.72173,10844.1,1305.35,-13510.6
3.71321e+07,69.2728,0,2.862,6790.39,-11220.9,-24691.2
3.74639e+07,73.6675,2,2.48671,-15640.9,-729.119,-29042.9
3.76016e+07,29.4738,1,2.70096,2514.22,5725.23,-29509.6
3.76944e+07,108.21,1,2.79622,-13125.9,-2494.54,-10369.5
3.80981e+07,0.113688,2,3.84377,-15.8623,-135.536,-28848.7
0,0.165219,2,2.98131,0,0,0
0,0.120056,2,3.38056,0,0,0
0,0.120671,2,3.71158,0,0,0
0,0.137033,2,2.46961,0,0,0
0,0.113496,2,2.70003,0,0,0
0,0.181662,2,3.71046,0,0,0
0,0.140727,2,4.02175,0,0,0
0,0.117034,2,2.43793,0,0,0
0,0.115232,2,3.26874,0,0,0
0,0.112507,2,3.0965,0,0,0
0,0.122794,2,3.79204,0,0,0
0,0.112694,2,3.08744,0,0,0
0,0.117074,2,2.84918,0,0,0
0,0.175921,2,3.46973,0,0,0
0,0.114959,2,2.56511,0,0,0
0,0.171282,2,2.49376,0,0,0
0,0.155092,2,3.58485,0,0,0
0,0.136719,2,2.61143,0,0,0
0,0.119694,2,3.2269,0,0,0
0,0.112444,2,2.93437,0,0,0
0,0.115277,2,2.71348,0,0,0
0,0.103436,2,4.03065,0,0,0
0,0.105123,2,3.66038,0,0,0
0,0.181553,2,3.5119,0,0,0
3.85101e+07,126.607,2,2.66295,-10078.3,11290.5,-21804.5
3.86718e+07,40.1597,2,2.49675,-6307.98,590.043,-23108.1
3.86907e+07,545.056,2,2.68604,-13577,-5393.68,-27816.8
3.87673e+07,6.03508,1,2.95547,436.689,589.077,-27787.2
3.88631e+07,142.05,2,2.67209,-24422.8,5332.63,-12336.2
3.8912e+07,121.554,0,2.9667,1172.74,20696.3,-24463.8
3.89414e+07,64.6651,2,2.37775,-4911.68,-10999,-22151.3
3.90504e+07,86.7807,0,2.6891,2260.47,-11905.8,-15121.5
3.9122e+07,3.18552,0,2.57156,680.791,158.66,-28534.3
0,3.70789,2,2.89715,0,0,0
3.95894e+07,165.633,2,3.00513,26657.6,17032.5,-14904.3
3.97226e+07,36.0776,1,2.96247,4663.84,4442.03,-24770.3
4.0496e+07,71.6457,0,2.89465,5628.98,6347.55,-16381.9
4.07989e+07,290.541,2,2.89498,21981.1,-23437.7,23015.8
4.0875e+07,10.6242,1,2.46445,-303.598,2285.83,-29365.3
4.13474e+07,112.841,0,2.55128,19882.6,812.309,-15583.9
4.16274e+07,98.6143,1,3.05163,-5155.17,-3025.29,-18622.8
4.17433e+07,14.2122,1,2.89224,1393.4,-742.733,-26308.6
4.1854e+07,144.763,0,2.74421,-17358.3,-23398.4,-19995.3
4.18866e+07,0.461014,0,2.91949,205.581,-19.8569,-28800.2
0,0.474395,0,2.66481,0,0,0
4.19076e+07,50.2002,1,2.5832,-4932.6,-7708.05,-23542.6
4.21258e+07,33.5717,1,2.6824,1582.97,6269.64,-25748.5
4.22955e+07,30.6467,2,2.42555,-3737.8,-2003.35,-23875.8
4.24511e+07,19.4908,0,2.97053,1492.77,-565.875,-25026.2
4.24735e+07,42.1854,2,3.02052,-6750.22,-1170.87,-23171.5
4.25625e+07,62.9801,0,3.02119,2157.64,-12497.8,-25048.6
4.26376e+07,16.7115,0,2.48004,3397.93,-1302.18,-28582.1
4.26544e+07,160.744,1,2.61142,20434.8,-13837.8,-5629.45
4.26744e+07,46.1705,0,2.80737,-6023.04,6275.18,-24571.1
4.28089e+07,6.14287,1,2.88442,-450.784,519.944,-27672
4.31109e+07,110.156,2,2.8277,16977.1,-8698.61,-15674.2
4.3371e+07,36.7853,2,2.87657,-4831.07,-5384.96,-25851.4
4.34555e+07,60.0115,0,2.77874,11078,5055.28,-25120.2
4.36424e+07,31.987,2,2.76049,-1568.34,-3683.51,-23358
4.37073e+07,26.6041,2,2.69267,3436.95,742.822,-24491
4.37528e+07,23.1822,0,2.46964,1548.17,-4463.43,-27342.9
4.3786e+07,147.926,0,2.75567,22158.1,16676.5,-14506.6
4.41188e+07,41.8923,1,2.51496,-6136.77,-6024.06,-26693.7
4.4425e+07,21.3073,2,2.91972,-4296.35,-1003.53,-27740.8
4.46413e+07,12.9155,2,2.84602,-256.344,-2646.31,-27907.5
4.46717e+07,151.43,1,2.92375,18580.9,25295.5,-23431.1
4.48664e+07,89.6411,1,2.73393,-9776.47,16173.2,-26993
4.5545e+07,77.1525,1,2.78076,-1479.79,-8494.98,-15119.6
4.5719e+07,15.7761,2,2.85017,3200.27,96.3683,-28020.7
4.57528e+07,6.13553,2,2.38452,952.994,-658.676,-29505
4.57554e+07,0.475568,0,3.0197,94.342,-50.1414,-28736.9
0,0.446184,0,2.52553,0,0,0
4.57745e+07,62.4085,2,2.82313,-7910.3,-7903.49,-21811.8
4.57777e+07,34.0733,2,2.9263,-6048.63,-1761.44,-25337.6
4.60663e+07,58.1925,1,2.96536,-2016.82,7414.89,-19266.9
4.60918e+07,15.4551,2,2.88974,1749.13,2254.65,-27362
0,14.8781,1,2.3833,0,0,0
4.61716e+07,81.426,2,2.70404,-16217.5,3244.72,-24033.6
4.63961e+07,55.3345,0,2.93886,5997.99,-6432.57,-24406.6
4.67185e+07,53.7097,0,2.40412,-6085.11,9491.2,-27563.8
4.67504e+07,5.7916,0,2.36384,449.223,96.7818,-27658.2
4.70401e+07,5.69751,2,2.36713,-918.009,-289.213,-28000.3
4.70772e+07,39.1711,0,2.99534,-3366.17,2728.24,-21884.4
4.72471e+07,62.0445,1,2.48929,12021,4056.42,-25487.4
4.72668e+07,108.89,1,2.74949,5834.32,21037.6,-23624.2
4.75126e+07,165.864,1,2.68359,-28932.7,18324.5,-21289.3
4.75943e+07,113.769,2,2.74446,-12861,-9282.33,-10790.3
4.7613e+07,60.831,2,2.86823,-5514.53,4225,-18089.1
4.76273e+07,12.8051,2,2.92322,-908.705,-2139.57,-27371.3
4.76757e+07,58.2603,2,2.97744,-6198.16,-4943.74,-19471.3
4.77425e+07,133.066,0,2.99892,12146.9,20148.7,-13778.6
4.77503e+07,172.746,0,2.60791,-20154.1,917.635,1510.32
4.80589e+07,48.3382,0,2.8453,7086.22,-1988.53,-21730.8
4.80983e+07,14.7569,2,2.49087,-2813.58,-444.276,-27396
4.81574e+07,8.08305,1,2.64088,-786.218,772.953,-27440.5
4.8403e+07,72.7525,2,2.82249,-12224.2,-3844.71,-20337.5
4.84375e+07,77.0623,2,2.50212,-12794,-9585.23,-25400.4
4.85274e+07,77.7708,1,2.48856,-5419.52,5207.18,-14151.3
4.87904e+07,13.36,1,2.44531,-2307.1,1512.48,-29834.9
4.90029e+07,24.9427,2,3.04837,-2731.11,4389.02,-28299.2
4.90766e+07,36.8581,1,2.59339,-6121.3,-4657.57,-27541.1
4.90797e+07,61.6079,2,2.76377,4722.52,-10118.2,-22164.9
4.96431e+07,15.3583,0,2.46514,3156.35,-1040.11,-28574.4
5.00362e+07,19.1756,2,2.7546,-1173.29,-2801.34,-26057.8
5.02386e+07,67.9721,2,2.63499,392.692,5018.21,-24825.9
5.04004e+07,94.9974,2,2.84282,-8218.27,-12902.9,-25976.7
5.05167e+07,40.3051,0,2.53068,7725.11,-3247.82,-26781.9
5.05512e+07,6.19226,1,3.00403,-41.3853,-435.092,-27609.8
5.07216e+07,38.2004,0,2.53748,-6334.69,3125.79,-25054.8
5.09151e+07,56.2688,1,2.89641,4536.95,2675.7,-18255.6
5.09475e+07,18.5584,2,2.8266,-3604.2,-1449.01,-29800.8
5.11918e+07,2.30403,1,2.39037,291.146,306.947,-28526.4
5.13148e+07,61.3075,1,2.54881,6652.93,1306.44,-17793.6
5.1426e+07,74.3273,0,2.49078,560.049,-14190.3,-22040.7
5.15847e+07,8.14985,0,2.90356,1286.32,1244.8,-28902.2
5.1681e+07,121.276,0,2.77902,-1746.42,-22842.9,-17534.2
5.2134e+07,20.8475,2,2.5232,-1776.1,-3696.62,-26985.1
5.21424e+07,151.395,1,3.05056,21017.8,14617.5,-10111.9
5.22303e+07,189.693,1,2.7089,1383.8,4345.19,-22703.4
5.22687e+07,57.6871,0,2.48711,-4225.33,10506.7,-24316.5
5.25574e+07,65.3365,0,2.54698,10096.7,3851.18,-20122.1
5.29776e+07,32.501,0,2.67646,5185.9,1869.16,-24632.1
5.31018e+07,131.035,1,2.94772,5687.4,-17021.8,-8266.21
5.32279e+07,36.8942,0,2.76811,5797.59,-4874.2,-26815.9
5.33642e+07,28.0989,2,2.82393,3799.77,3487.18,-26049.9
5.40851e+07,7.6597,1,2.45246,-1643.87,-324.397,-28761.9
5.42794e+07,170.611,1,2.68983,9185.55,19723.7,-138.747
5.43339e+07,106.652,0,2.95767,15073.3,16302.2,-25507.5
5.43435e+07,164.045,0,3.00844,24440.7,14375.6,-9392.77
5.43479e+07,48.1896,1,2.75015,-5133.81,5911.72,-22266.1
5.44011e+07,119.495,0,2.67464,9162.62,7498.87,-6544.24
5.44481e+07,65.1852,1,2.99656,1481.47,-12721.7,-24206.1
5.46561e+07,54.9508,0,2.85086,8726.57,7698.94,-28524
5.49948e+07,178.222,2,2.60814,18009.3,-8305.73,3110
5.5401e+07,146.389,0,2.74465,19868.2,-7755.36,-6491.7
5.54856e+07,77.3178,1,2.95026,2031.09,11502.9,-17504
5.59526e+07,2.19681,1,2.99874,-263.906,-67.2286,-28428.5
5.67089e+07,124.283,1,2.5966,19141.5,925.465,-10909
5.7273e+07,138.777,0,3.03402,19542.5,-5570.45,-7968.91
5.75883e+07,95.1094,2,2.73441,-6318.98,-19045.6,-27098
5.82352e+07,84.2123,0,2.80138,-13414.9,10481.2,-24041.7
5.8651e+07,3.68298,1,2.85292,-685.406,107.844,-28371.6
5.86582e+07,34.8803,1,2.50305,-1753.47,7207.48,-29796.8
5.86959e+07,147.497,2,2.79373,20413.3,-20716.1,-17894
5.95156e+07,75.5662,0,2.8769,14724.6,-2181.05,-23043.7
5.97168e+07,88.5276,1,2.84466,-9833.46,15656.5,-25923
5.99919e+07,4.54806,0,2.6073,1032.92,244.054,-28767.3
0,4.58745,0,2.8275,0,0,0
0,4.60399,0,3.02597,0,0,0
6.00158e+07,91.1871,2,2.66374,3947.47,-7380.28,-11488.9
6.03966e+07,75.2225,1,2.36795,-5492.52,13155.9,-21572.6
6.05157e+07,13.6934,0,2.74354,-1671.64,894.961,-26686.4
6.05195e+07,127.583,2,2.6477,11915.1,14250.5,-9435.44
6.07099e+07,114.231,2,2.45609,1140.68,10663.2,-7202.95
6.08484e+07,39.0058,2,3.00605,4563.36,-5974.6,-25500.5
6.09189e+07,9.21611,0,2.41371,-972.3,1510.76,-28147.4
6.11544e+07,80.781,1,2.63353,-6878.93,5545.7,-14193.9
6.12212e+07,64.0302,0,2.54366,5769.47,516.361,-16546.1
6.12785e+07,194.248,0,2.61286,1351.63,-27212.6,-2010.88
6.14487e+07,78.6316,0,3.01563,8074.26,-11625.8,-20333.9
6.1557e+07,112.946,2,2.72312,-8507,-2992.3,-7814.65
6.20766e+07,36.2901,1,2.83408,2036.19,3772.76,-22468
0,36.252,1,2.77636,0,0,0
6.2282e+07,3.39557,2,2.63574,-203.033,578.242,-28486.2
6.30419e+07,79.0247,2,2.92037,-10627.5,-6021.34,-17526.8
6.31464e+07,99.3118,2,2.92108,16086.7,-8242.42,-18448.4
6.31492e+07,41.8905,0,2.43689,2884.52,-5429.85,-22384.4
6.31565e+07,182.394,0,2.45553,256.099,-23956.2,1413.36
6.33447e+07,175.399,2,2.38789,-19989.9,-13271.9,-439.04
6.3379e+07,66.7301,1,2.84674,6618.67,-2872.52,-16815.5
6.33797e+07,124.24,0,2.64048,-14792,19883.8,-24548.5
6.38078e+07,16.7966,0,2.51733,-2058.45,-2774.69,-28068.2
0,16.8059,0,2.58023,0,0,0
6.3851e+07,2.70144,0,2.69515,109.381,-212.484,-28282.1
0,2.80926,0,2.88557,0,0,0
0,2.68886,0,2.92876,0,0,0
6.3887e+07,51.878,0,2.67896,4637.2,-8619.58,-23801.2
6.38878e+07,19.5122,0,2.82009,1635.54,-2282.01,-25764.1
6.40754e+07,258.609,2,2.43477,23145.2,21076.6,15979.8
6.40891e+07,40.362,0,3.03614,-1000.71,-6214.9,-23156.7
6.4175e+07,10.8938,1,2.46929,-1527.65,1872.93,-28764.6
6.43312e+07,24.3509,1,2.63822,4174.7,-913.966,-26022.1
6.47644e+07,48.9173,2,2.53332,1309.73,8283.58,-22838.1
6.54101e+07,9.9125,2,2.44496,-1116.24,119.895,-27015.5
6.56101e+07,7.75685,2,2.36569,51.0021,-1325.31,-29959.1
6.56156e+07,29.2946,2,3.0452,-2774.68,-5586,-28375.5
6.57724e+07,22.1753,0,2.76421,1988.31,2226.52,-25175.7
6.57842e+07,18.3119,1,3.0407,1842.41,2254.97,-26269.2
6.58345e+07,45.8182,2,2.55897,-6676.2,-528.3,-21769.8
6.60916e+07,9.77759,0,2.66575,1158.9,614.982,-27188.6
6.64359e+07,20.8333,1,2.57546,2211.96,3858.7,-29272.6
6.64512e+07,111.898,2,2.78405,-11413.1,-3286.27,-8453.95
6.64888e+07,74.6485,2,2.66731,679.726,-15495.8,-25595.3
6.65214e+07,47.6703,2,2.43721,2462.79,-9278.08,-25468.4
6.65642e+07,103.864,2,2.94981,13965.8,3704.09,-12583.5
6.66001e+07,164.665,0,3.00481,26060.4,-12168.3,-9618.63
6.66803e+07,44.5103,2,2.92397,6862.74,-6397.95,-29163.7
6.68778e+07,173.174,1,2.73207,-28708.8,-20620.7,-19806.1
6.69163e+07,141.336,2,2.70689,14584.5,-24297,-19451.5
6.69694e+07,162.385,1,2.51993,-13563,6435.85,2071.5
6.71708e+07,43.5247,1,2.74718,3219.45,7772.51,-25024.7
0,43.478,0,2.45873,0,0,0
6.72107e+07,175.004,0,2.70193,20233.9,-10876.4,87.5302
6.72865e+07,4.796,2,2.9357,-679.79,-161.952,-28030.9
6.72867e+07,48.7712,0,2.87226,-5560.95,-3334.55,-21428.3
6.75675e+07,9.06062,2,2.9561,-129.36,-1375.27,-27446.1
6.76475e+07,142.445,2,2.90068,15552.8,-23897.8,-19637.3
6.7688e+07,106.89,2,2.77108,-11624.1,1557,-9591.73
6.78647e+07,29.7229,2,3.0012,-1474.98,-4544.65,-24713.6
6.809e+07,7.12094,1,2.45285,345.165,381.54,-27395.6
6.82506e+07,46.3144,1,2.76277,9354.68,2555.27,-29805
6.82985e+07,54.5022,1,2.9153,4353.96,7342.37,-21148.2
6.86214e+07,82.6301,0,2.8122,-3935.83,16608.6,-25552.5
6.86571e+07,152.484,2,2.57301,-29066,6964.34,-16805.5
6.89482e+07,108.694,0,2.8887,-15187,3781.85,-12257.8
6.90233e+07,256.623,2,2.86554,-14921.7,18849.9,2130.75
6.93754e+07,11.5562,1,2.95735,-2353.07,232.072,-29654.3
6.9688e+07,45.1615,0,2.60806,-3896.48,-4672.72,-21517.2
7.0022e+07,27.6384,2,3.0141,-3162.07,-1701.68,-24218.3
7.02945e+07,234.987,0,2.93539,17504.9,18505.9,-18110.9
7.0311e+07,125.58,0,2.93182,22557.5,-10312.8,-19661.9
7.04201e+07,79.907,1,2.6605,3612.94,10744.2,-16281.7
7.07475e+07,101.268,1,2.76129,-20182.3,4552.09,-23475.2
7.10217e+07,46.4498,0,2.81999,-9161.97,-98.3866,-25574.7
7.11731e+07,125.61,2,2.70554,-20796.1,2253.26,-12533.6
7.12208e+07,14.2345,0,2.63859,-225.678,-1738.41,-26367.3
7.12823e+07,15.1666,0,2.50656,-1162.25,-2901.72,-28195.1
7.17537e+07,46.1819,0,2.71161,7160.77,-6664.08,-29656.2
7.33634e+07,126.339,2,2.8067,8657.69,-20360.1,-13993.7
7.33712e+07,120.238,2,2.41796,-3966.17,-17372.2,-25599.2
7.34853e+07,44.6488,0,2.94448,4448.02,-6845.78,-24148.3
7.375e+07,75.7338,0,2.44968,9750.82,-316.041,-16052.5
7.39961e+07,12.5154,1,2.87937,1489.97,1849.65,-27664.8
7.41322e+07,19.718,1,2.65119,826.732,1960.27,-25215
7.4156e+07,13.8252,1,2.53356,-2944.46,-188.075,-28540.7
7.42145e+07,58.7392,2,2.93986,-3232.4,-7387.88,-19425.6
7.42289e+07,30.7461,2,2.75358,-6106.28,-1358.7,-26874.1
7.45011e+07,72.0612,0,2.98857,13920,2611.53,-23312.4
7.47405e+07,42.5129,1,2.76284,4326.24,5532.22,-27582.1
7.49515e+07,57.9025,0,2.53792,180.163,5407.54,-17827.8
7.51036e+07,26.7681,2,2.51678,-2109.29,3583.49,-25026.9
7.53121e+07,55.3865,1,2.98432,-7765.36,7414.18,-24162.1
7.53441e+07,109.067,1,2.68729,5720.1,8936.34,-8424.3
7.56652e+07,117.989,0,2.79591,14101.8,-5006.34,-8949.75
7.56775e+07,89.7436,1,2.7673,8092.32,7271.39,-13350.4
7.57031e+07,41.4683,1,2.36284,-4903.2,5183.17,-23577.7
7.58424e+07,25.3792,0,2.40736,668.807,4536.49,-26018.6
7.62014e+07,77.3818,2,2.88773,-14679.3,-890.68,-21770.3
7.62207e+07,36.3351,2,2.59441,-5072.65,-5777.16,-27621.6
7.63099e+07,95.5141,1,2.81834,-8064.84,-5587.65,-11316.8
7.65939e+07,7.86995,1,2.43867,-1069.91,930.525,-29864.7
7.68396e+07,35.8572,2,2.46978,-5021.69,-1928.79,-23398.1
7.6877e+07,4.54924,0,3.03823,-283.145,-666.508,-28220.2
7.70012e+07,28.2603,1,3.02437,-4601.86,3870.04,-29291
7.77749e+07,93.2741,2,2.40286,11037.4,-6287.79,-25185.3
7.78052e+07,109.482,1,2.76637,5428.14,21726.2,-23022.3
7.81692e+07,59.8027,1,2.36502,-6407.33,-275.038,-17875.6
7.84208e+07,12.3735,2,2.65271,-2559.78,-816.907,-28553.9
7.85655e+07,55.0403,1,2.74395,4157.74,10152.3,-24852.3
7.86187e+07,37.0434,2,2.65221,-661.579,-2873.63,-21542.7
7.8646e+07,16.0666,0,2.79316,2615.71,-2200.27,-28330.1
7.87329e+07,165.944,2,3.03096,-2099.26,-20360.8,-696.135
7.91793e+07,41.6812,2,2.93252,7393.12,-4710.58,-29153.8
7.93196e+07,167.685,2,2.832,2422.9,-14446.8,3278.06
7.94318e+07,149.75,0,2.67507,24954.5,8960.22,-11565.3
7.94398e+07,100.821,1,2.58795,7527.51,7900.64,-10536.2
7.99067e+07,134.344,1,2.92241,7210.25,26941.2,-24609.9
7.99863e+07,36.3205,1,2.87864,-6937.31,-3277.7,-28898.5
8.00494e+07,4.00089,1,3.01225,-685.769,178.315,-28296.3
8.02676e+07,47.9446,2,2.65305,4769.51,787.711,-19948.2
0,47.7386,0,2.68663,0,0,0
8.04059e+07,18.5767,1,2.8665,-447.491,2210.33,-25576.2
8.04157e+07,21.5095,2,2.40198,1867.9,1685.86,-25102.1
8.05294e+07,55.5222,2,2.434,-4906.58,-9702.5,-24215.6
8.05398e+07,50.8558,1,2.78276,-7111.82,7509.5,-25791.2
8.1061e+07,151.946,2,2.68663,-9377.92,29494.6,-20667.7
8.10665e+07,67.6875,1,2.95926,-13364.4,4095.32,-25882.2
8.11554e+07,117.004,2,2.63786,-5958.41,-22539.3,-20524.4
8.11844e+07,143.75,0,2.56198,14040.9,-3719.41,-2109.57
8.1371e+07,224.147,1,2.97086,-16911.4,8886.64,14139.4
8.14896e+07,19.7696,1,2.92386,-816.158,4171.64,-28537.9
8.15224e+07,96.4579,2,2.95525,13162.4,-9696.77,-16894.7
8.20258e+07,83.1094,0,2.4817,-7414.33,11156.2,-17489.2
8.20306e+07,61.7093,1,2.84146,-9568.7,-1501.99,-20170.1
8.21735e+07,105.491,1,2.60607,-7767.25,5806.89,-8752.08
8.2416e+07,33.9648,2,2.87442,4535.21,-3161.94,-24312.1
8.30238e+07,29.341,2,2.95467,1561.73,3111.77,-23794.6
8.33577e+07,11.9695,1,2.94965,594.549,1789.36,-27105
8.33627e+07,19.2228,0,2.69806,2826.59,-1026.97,-26021.5
8.36288e+07,58.55,0,2.55276,10951.2,-5594.56,-26832
8.40588e+07,50.1792,1,2.53886,-4498.09,9391.73,-26354.9
8.46372e+07,155.691,0,2.88628,-2069.01,-14069.2,-756.474
8.48326e+07,8.15884,2,2.93831,591.416,1426.43,-28252.7
8.48651e+07,102.939,0,2.45518,16536.3,-13200.4,-23345.5
8.52859e+07,52.6073,1,2.44267,3562.94,7876.02,-21726.9
8.53601e+07,132.328,0,2.67547,21692.2,15613.3,-20531.9
8.54727e+07,14.0927,1,2.49846,-1033.61,2517.76,-27427
8.57238e+07,13.4483,0,2.86707,2714.6,-346.675,-27831.9
8.62132e+07,18.5795,0,2.96099,-1750.79,2503.2,-26421.4
8.6254e+07,98.5094,0,2.76117,9874.75,-10932,-14200.8
8.68117e+07,141.28,0,2.97249,23378.5,-7225.23,-25280.7
8.68522e+07,50.1226,1,2.82381,7385.92,641.355,-21376.3
8.69413e+07,92.6614,2,2.82501,-16677.9,8978.59,-24186.8
8.69669e+07,99.0656,1,2.77348,-17306.6,3824.68,-17732.7
8.71286e+07,79.1486,0,2.91439,-1880.66,16108.3,-26610.3
8.75098e+07,92.8364,1,2.65402,7037.75,5989.75,-26838.4
8.78446e+07,7.299,1,2.75432,-991.185,860.016,-27911.5
8.81735e+07,52.0578,0,2.6989,4694.92,9053.98,-24649.4
8.85393e+07,134.631,1,2.45317,-15277.4,-18092.7,-13062.8
8.91926e+07,275.554,2,2.51663,-17184.3,10286.1,-4844.67
8.94172e+07,108.595,1,2.37902,-5996.96,-20055.8,-19438.6
8.97531e+07,24.6317,2,2.7166,-4362.34,-1266.11,-26210.1
8.98935e+07,64.8035,2,2.76143,-1574.36,-7263.42,-17319.2
9.00968e+07,63.9228,0,2.9532,3497.96,-9472.36,-19971.9
9.0148e+07,126.441,0,2.70112,21382.3,2256.79,-12971.7
9.02962e+07,45.0383,0,2.97466,9354.68,-1115.45,-27223.1
9.12073e+07,174.875,1,2.8413,-18691.9,10836.2,958.278
9.13215e+07,17.4317,1,2.64981,1218.81,1848.44,-25847.2
9.17245e+07,108.927,0,2.77311,-5195.97,-10150.8,-8941.3
0,108.111,2,2.37264,0,0,0
9.17835e+07,31.4759,1,2.9756,-6049.65,2396.52,-27401.4
9.19745e+07,130.491,1,2.70278,-967.059,-14265.1,-5369.89
9.22441e+07,95.1022,1,2.80303,14141.2,3103.38,-15050.8
9.27417e+07,104.412,2,2.42627,-21856.1,-2039.84,-26029.4
9.27584e+07,55.9846,0,2.51928,11105.5,4274.83,-29721.1
9.28698e+07,68.2824,0,2.94872,5570.44,12746.5,-25242.1
9.31114e+07,169.137,1,2.39043,23952.1,13543.5,-5939.3
9.31269e+07,122.139,0,2.66786,-8108.29,-23719.3,-22940.4
9.42018e+07,134.531,2,2.68431,-11409.5,17355.5,-9564.8
9.43795e+07,32.7731,2,2.86392,-4772.65,-138.929,-23819.5
9.44402e+07,12.5448,0,2.47206,575.441,1070.53,-26431.3
9.4499e+07,14.8071,0,2.82381,1778.58,1999.2,-27111.1
9.45401e+07,153.971,0,2.81822,23884.2,-19470.9,-18750.3
9.47745e+07,107.25,2,2.40391,-13702.8,-621.191,-10704.4
9.51463e+07,63.2807,2,2.6957,-5891.89,6016.4,-18482.9
9.52525e+07,58.096,2,2.98552,656.757,-11994.8,-26368.3
9.52531e+07,38.9773,2,2.86247,6724.63,-3582.51,-25745.1
9.53997e+07,158.558,0,2.94524,1213.21,-22591.5,-4429.73
9.57754e+07,120.814,1,2.81105,5198.33,11981.6,-7015.04
9.58276e+07,20.8131,1,2.57088,-4341.21,876.231,-28282.1
9.63343e+07,3.56072,0,2.50403,-560.82,-151.95,-28476.6
0,3.48454,0,2.53708,0,0,0
9.63556e+07,17.5867,0,2.82622,803.366,-3663.01,-28893
9.64726e+07,59.7512,1,2.77727,12376.4,-1752.42,-27706.2
9.67375e+07,23.2235,2,2.44964,3492.62,836.714,-25544.1
9.7194e+07,67.8131,0,2.92109,-3366.4,-11830.6,-21674.3
9.72248e+07,40.1091,1,2.36414,-1125.14,-6020.49,-22985.6
9.72926e+07,20.3087,2,2.69335,-620.508,-3277.22,-26035.1
9.74067e+07,129.179,1,2.72283,18683.8,-11666.5,-12955.1
9.75179e+07,5.37755,2,2.53136,-183.551,-553.623,-27799.3
9.753e+07,77.9389,0,2.93413,13932.5,2917.07,-20589.5
9.79214e+07,50.8004,1,2.75563,-6634.27,-8276.95,-27400.9
9.80395e+07,28.815,2,2.89049,-5665.59,-2217.89,-28127.1
9.81354e+07,14.9552,1,2.94476,-1003.19,2244.05,-26767.3
9.81869e+07,3.92233,2,2.95452,-166.237,-703.465,-28289.7
0,3.95088,2,2.36752,0,0,0
9.82229e+07,224.095,0,2.69133,-13621.6,14562.4,13978.5
9.82989e+07,129.813,2,2.45921,9626.77,-24762.6,-21627.2
9.84853e+07,122.094,0,2.89795,20311.6,8816.45,-15745
9.85562e+07,71.5562,2,2.63781,-10519.2,1173.67,-26531.9
9.86259e+07,67.0333,2,2.87184,-8930.28,6770.87,-20301.4
9.86768e+07,195.263,2,2.38278,-21179.4,25317.3,-4017.66
9.90067e+07,156.845,1,2.93361,-2403.79,18902.5,-1941.27
9.9218e+07,134.136,0,2.91401,22023.1,-17631,-29449.5
9.94531e+07,58.4638,2,2.74109,9360.01,-4330.15,-22065.3
9.97313e+07,2.40522,2,2.53045,-256.119,-539.154,-28663.7
0,2.99529,1,2.62765,0,0,0
0,2.40139,2,2.59411,0,0,0
9.97594e+07,42.5711,1,2.99521,4263.69,-1576.77,-21164.9
9.9847e+07,82.3213,0,2.84287,4910.28,10851.3,-16233.3
1.00009e+08,31.261,1,2.95852,-151.751,-6019.24,-26318.5
1.003e+08,22.7195,2,2.59924,-4590.6,-134.85,-27226.5
1.00493e+08,54.1866,2,2.70582,1532.13,-6188.33,-19318.5
1.0091e+08,79.9468,1,2.6674,-10328.1,13411.1,-27768.5
1.00922e+08,35.292,2,2.99435,-6791.52,-1836.62,-26339
1.01019e+08,106.998,2,2.55887,-9010.77,-16713.6,-16401.8
1.01317e+08,17.3817,2,2.63036,-731.437,-2277.21,-25956.8
1.01373e+08,49.7696,2,2.75154,2599.56,4106.2,-19590.5
1.01659e+08,83.2778,0,2.61679,-10918.2,13665,-27294.5
1.02072e+08,147.009,0,2.85892,19945.5,-3768.29,-11096.7
1.02281e+08,17.8063,0,3.06132,1264.52,3539.21,-28430.9
1.02424e+08,97.5902,0,2.61173,-4758.56,-19119.8,-22779.5
1.02523e+08,30.3895,2,2.38297,-1807.77,-5969.41,-26905
1.02721e+08,55.8721,1,2.68371,2320.55,11619.1,-27986.3
1.03134e+08,9.45954,2,2.95776,-1242.42,1211.6,-27912.7
1.03591e+08,19.6879,0,2.48156,1234.62,4010.72,-29193.6
1.03669e+08,71.7937,0,2.40066,5187.64,-12200.3,-21330.4
1.03841e+08,0.358335,2,2.10212,-155.726,-99.0801,-28857.9
0,0.513632,2,3.85546,0,0,0
1.03904e+08,15.5076,2,3.04112,-2565.08,-2131.05,-29009.2
1.04385e+08,36.6553,1,2.45241,-672.5,5428.38,-23232.1
1.04933e+08,8.8429,0,2.50258,1944.02,66.1972,-29003.3
1.05078e+08,81.0656,1,2.92332,7576.26,14245.2,-23303.7
1.05086e+08,183.118,1,2.62012,-1052.41,25288.9,444.095
1.05094e+08,41.3516,2,2.61766,-5928.09,3685.45,-23565.4
1.05162e+08,75.689,0,2.86485,-3594.74,-13828,-21855.6
1.05178e+08,95.3579,2,2.8561,-1986.51,-19742.3,-25512.1
1.05605e+08,45.6567,1,2.74852,4665.02,6441.36,-23333.2
1.05963e+08,142.02,1,2.98564,-16171.2,2568.18,-3963.66
1.06365e+08,55.575,2,2.37277,2854.68,-10795.2,-24943.6
1.06846e+08,160.46,1,2.77861,-13709.7,-6086.23,1437.67
1.07031e+08,43.0122,2,2.96531,-6711.34,6052.8,-29118.5
1.07385e+08,3.37591,1,3.00808,-585.495,-154.195,-28424.7
0,3.33882,1,2.55282,0,0,0
1.07449e+08,154.573,1,2.76866,3840.45,-8471.43,-22206.4
1.07535e+08,27.7237,2,2.66377,-4335.06,-3246.4,-26378.2
1.07573e+08,25.8042,0,2.4489,-246.958,-2213.22,-23829.3
1.07645e+08,29.5789,1,2.99532,1481.76,3970.56,-24224.6
1.08452e+08,34.6527,2,2.47899,-3861.78,-2068.06,-22909.9
1.09073e+08,163.62,1,2.95204,5541.25,13356.1,-18018.6
1.09219e+08,26.7086,1,2.73434,177.8,4005.99,-26989.3
1.09311e+08,47.8014,0,2.59823,5276,4491.61,-21430.2
1.09553e+08,33.9071,0,2.8661,4132.55,-4375.12,-24884.6
1.09593e+08,1.16926,1,2.36737,-82.6446,352.695,-28805.3
0,1.18469,1,3.0476,0,0,0
1.09694e+08,144.869,2,2.8966,-8142.41,27746.6,-19557.9
1.09834e+08,138.457,1,2.74752,-2228.78,15255.1,-4034.24
1.09873e+08,45.9782,1,2.39381,2717.49,4699.51,-20710.2
1.09881e+08,7.01292,1,2.89775,-441.042,-275.725,-27481.9
1.10294e+08,9.10137,1,3.01002,-1977.06,61.7093,-28861
1.10338e+08,129.209,2,2.80477,15456,-20228.6,-19246.7
1.10459e+08,79.4561,0,2.91562,-11849.5,-3546.03,-17704.8
1.10471e+08,80.9159,0,2.86728,5445.64,3261.89,-24013.4
1.10572e+08,96.4776,0,2.6138,20099.7,3391.44,-26933
1.11165e+08,39.1151,2,3.04112,-5844.98,-3579.84,-24207.6
1.11824e+08,46.4291,0,2.94138,5685.58,7804.26,-27017.8
1.11981e+08,23.0444,2,2.47664,1260.5,-4675.49,-27863.8
1.12003e+08,16.0822,2,2.65047,-1854.12,-1017.4,-26101.8
1.12206e+08,89.1566,2,2.86537,-18385.9,-1462.83,-25188.7
1.12255e+08,101.366,2,3.05621,1274.75,16350.6,-15443.4
1.12542e+08,6.35366,2,2.90066,-11.3083,22.3785,-28747.9
1.12874e+08,152.764,1,2.93332,-4552.14,-16255.5,-1617.28
1.12881e+08,94.0281,1,2.77463,6018.33,7112.32,-11335.7
1.12913e+08,144.596,1,3.05696,-20997.6,18993.2,-17923.8
1.12973e+08,64.2249,0,2.55943,-2816.13,-11937.6,-23015.8
1.13427e+08,43.1588,0,2.76712,1876.33,7583.63,-24102.9
1.13497e+08,44.1539,1,2.52058,-944.231,9237.13,-27184.3
1.13738e+08,52.317,2,2.76401,-2257.18,-5668.24,-19601.8
1.13804e+08,6.65906,1,2.79016,-1323.55,450.288,-29327.8
1.13831e+08,167.601,1,2.83792,-22919.3,6237.27,-3014.36
1.13925e+08,87.4934,2,2.81193,-11456.7,-2795.34,-16503.1
1.15124e+08,79.8695,0,2.94593,9930.9,-9399.36,-19039.9
1.15221e+08,33.1876,1,2.95158,-2686.12,431.51,-22411.5
1.15315e+08,33.0012,1,2.76492,-263.622,6214.41,-25589.7
1.1542e+08,15.9913,2,3.01495,-2553.36,625.93,-26708.5
1.15554e+08,208.983,1,2.79116,-18119.2,27522.8,-20967.8
1.15714e+08,95.9335,2,2.41704,-20139.4,-535.063,-25849.7
1.1583e+08,86.6725,0,2.66619,12966.5,6388.53,-17768.6
1.16159e+08,98.0545,1,2.82852,-20618.2,-1686.13,-28765.1
1.16194e+08,209.908,0,2.47231,17610.4,-6647.49,11350.9
1.16264e+08,6.65772,0,2.61877,1310.93,-381.578,-28206.8
1.16266e+08,0.402876,1,3.13729,4.90336,-14.0789,-28759.1
0,0.405868,1,3.39331,0,0,0
0,0.345308,0,3.23217,0,0,0
0,0.522337,1,3.80755,0,0,0
0,0.406759,1,2.83668,0,0,0
0,0.348251,0,2.68734,0,0,0
0,0.353289,0,3.87962,0,0,0
0,0.402763,1,3.1776,0,0,0
0,0.376401,0,2.81387,0,0,0
0,0.410662,1,2.55045,0,0,0
0,0.36101,0,2.15961,0,0,0
0,0.47678,0,2.0796,0,0,0
0,0.359672,0,2.07046,0,0,0
1.16356e+08,80.4755,2,3.0477,-7135.68,-14930,-28910.8
1.16482e+08,149.835,0,2.61657,10973.2,-29399.5,-24407.7
1.16503e+08,8.01503,2,2.97029,-1406.54,-393.813,-27866.7
1.16802e+08,74.3331,1,2.58885,-8909.38,6540.57,-17593.3
1.16911e+08,62.4731,2,2.78736,-6608.18,-1437.65,-17503
1.17054e+08,28.3625,0,2.72072,3699.67,1117.66,-24192.6
1.17505e+08,59.9196,2,2.75698,10655.9,-6716.83,-27897.3
1.17771e+08,33.7662,1,2.38836,-3025.96,3101.54,-23080.8
1.17932e+08,17.3867,2,2.55818,2245.56,950.055,-26098.7
1.18165e+08,62.2427,1,2.57053,12271.1,4682.2,-29682.3
1.1846e+08,48.0929,0,2.76672,-4394.76,4033.91,-20660.8
1.18497e+08,14.1742,0,2.83536,2795.4,-1331.95,-28922.8
1.18947e+08,16.6376,0,2.71001,3157.91,945.299,-27361.1
1.18978e+08,47.0252,2,2.66568,-8755.14,3724.79,-25893.3
1.19126e+08,152.442,2,2.67331,-1676.93,-23164.1,-6515.83
1.19159e+08,67.1519,1,2.84149,-8580.33,7402.44,-20271.7
1.19472e+08,100.548,0,2.71756,14970.6,-15084.3,-28339.8
1.19626e+08,100.868,2,2.82784,-7890.68,-2617.37,-9292.45
1.19633e+08,35.8866,2,2.75705,-4872.33,3882.07,-24534.1
1.20101e+08,28.4496,0,2.51803,-2068.95,4160.1,-25019.6
1.20292e+08,112.018,1,2.38638,17739.8,15440.8,-25725.5
1.20368e+08,90.2612,0,2.90747,16946,-8693.61,-28240.4
1.20678e+08,73.8543,2,2.45297,3873.53,8749.23,-16561.4
1.2093e+08,23.645,1,2.48954,1951.27,-3691.9,-26148.6
1.21084e+08,228.479,0,2.68438,-18335.9,-28387.3,-4183.24
1.21603e+08,23.3673,0,2.64079,3025.82,-3888.23,-27936.1
1.21873e+08,139.469,0,2.88777,-12683.3,8950.51,-4009.68
1.21925e+08,20.7895,1,2.88166,-2478.69,1616.4,-25522.4
1.22089e+08,21.8731,1,2.87819,-3812.56,2681.38,-28267.5
1.22311e+08,68.9357,2,2.87027,14071.8,1405.39,-25827.4
1.22521e+08,192.471,0,2.58053,28263.1,25258.8,-13910.6
1.23073e+08,163.533,2,2.51633,-460.056,-8265.9,-16317.6
1.2317e+08,236.699,2,2.67364,-27102.4,25299.7,4579.93
1.23233e+08,113.906,0,2.92104,-7619.32,-19693.3,-17651.6
1.2331e+08,178.605,0,2.71112,23136.6,25274,-13145.4
1.23508e+08,79.5837,2,2.63759,-10591.2,-10565.6,-21064.8
1.23625e+08,172.957,0,2.8466,27124.3,-22101.3,-18653.5
1.2388e+08,57.7792,2,2.41859,2102.98,-6984.02,-18980
1.23923e+08,89.1137,0,2.46729,3525.44,-17031.3,-21497.9
1.24179e+08,61.2804,2,2.4439,-3220.21,-12279.2,-25714.9
1.24317e+08,196.896,2,2.63699,5765.27,26391.9,2681.4
1.24473e+08,58.9619,0,2.86103,-3197.83,-8406.93,-20313
1.24502e+08,26.3028,1,2.6051,342.814,3025.7,-24138.9
1.2452e+08,88.9331,0,2.45218,13453.2,-6281.49,-17167.6
1.24706e+08,24.0513,2,2.85703,2012.52,-4681.06,-29195.5
1.24706e+08,88.9266,2,2.58795,-3386.06,-8001.63,-12127.5
1.25148e+08,8.91373,2,2.94581,-1338.51,-1051.43,-29816.3
1.25307e+08,119.033,1,2.83837,1632.03,14980.7,-8798.58
1.25403e+08,37.2949,2,2.57147,6741.03,50.1135,-24803.5
1.25529e+08,8.09125,1,3.02212,-236.037,1734.62,-28455.7
1.25858e+08,148.092,0,2.54158,22669.5,15248.6,-18582.7
1.26117e+08,35.1524,1,2.6969,-4684.69,-1680.09,-23307.3
1.26259e+08,42.513,0,2.88864,1327.58,-4648,-21284.3
1.26414e+08,134.285,0,2.45556,25243.5,-9484.59,-19618.6
1.26671e+08,32.8132,0,2.95816,2745.49,-77.8124,-22491.4
1.26987e+08,185.563,1,2.5856,8680.74,20063.5,3743.84
1.27027e+08,53.22,2,2.67735,8143.66,6550.73,-24866.5
1.27142e+08,80.4429,1,2.56526,-12720.5,-9251.98,-22339.2
1.2745e+08,122.536,2,2.70811,7922.65,-8591.38,-5817.56
1.2764e+08,140.282,2,2.89249,4603.89,-26167.6,-15985.7
1.2775e+08,73.0894,1,2.49043,-1021.88,8344.92,-15826.5
1.27965e+08,27.0749,1,2.55822,-3154.59,3020.11,-25014.8
1.28125e+08,33.6727,1,2.89428,-730.996,5779.46,-24688.8
1.28229e+08,28.5352,2,2.39492,481.911,-4932.27,-25263
1.28426e+08,0.0769927,2,2.6202,-33.0282,-68.7003,-28812.1
0,0.024262,2,3.75054,0,0,0
0,0.0462857,2,2.60879,0,0,0
0,0.0747845,2,3.80855,0,0,0
0,0.0931661,2,3.37379,0,0,0
0,0.11036,2,2.2478,0,0,0
0,0.0383092,2,3.03583,0,0,0
0,0.0286712,2,3.96576,0,0,0
0,0.0659218,2,2.40564,0,0,0
0,0.0237699,2,3.18859,0,0,0
0,0.0998553,2,3.57039,0,0,0
0,0.0223064,2,3.1659,0,0,0
0,0.0784639,2,3.98145,0,0,0
0,0.0324661,2,3.23818,0,0,0
0,0.11733,2,3.20149,0,0,0
0,0.103548,2,3.55261,0,0,0
0,0.0281841,2,2.22216,0,0,0
0,0.0778452,2,2.8545,0,0,0
0,0.0421706,2,4.10634,0,0,0
0,0.0261059,2,3.2663,0,0,0
0,0.0247589,2,2.5762,0,0,0
0,0.0200934,2,2.36185,0,0,0
0,0.0545456,2,2.6281,0,0,0
0,0.0245903,2,2.2913,0,0,0
0,0.0210734,2,2.87215,0,0,0
0,0.0228625,2,2.11627,0,0,0
0,0.0215497,2,3.23814,0,0,0
0,0.0677841,2,2.58698,0,0,0
0,0.0268438,2,2.64382,0,0,0
0,0.0207569,2,3.83561,0,0,0
0,0.104124,2,2.30513,0,0,0
0,0.0612679,2,3.34836,0,0,0
0,0.0213092,2,4.05685,0,0,0
0,0.111112,2,3.97166,0,0,0
0,0.0198589,2,2.85475,0,0,0
0,0.0222959,2,3.25244,0,0,0
0,0.0909524,2,3.58188,0,0,0
0,0.0239509,2,2.98254,0,0,0
0,0.0602641,2,2.68367,0,0,0
0,0.0345453,2,2.33881,0,0,0
0,0.032806,2,3.21589,0,0,0
0,0.122161,2,3.78191,0,0,0
0,0.0648596,2,3.28601,0,0,0
0,0.0419808,2,3.93568,0,0,0
1.28432e+08,171.152,1,3.02711,-14827.1,-4762.7,-29771
1.28581e+08,74.4749,1,2.68,6327.29,10975.1,-19477
1.28615e+08,25.3178,2,2.75943,-2681.67,2654.97,-25060.5
1.29259e+08,53.1935,0,2.39145,10574.5,3989.98,-27904.2
1.29677e+08,137.626,2,2.60587,-6499.95,21490.1,-20857.9
1.29713e+08,69.5519,1,3.04338,-4811.87,-9778.96,-19225.1
1.30326e+08,152.638,2,2.70222,12797.7,4858.64,247.177
1.30457e+08,44.327,0,2.72297,939.514,3163.41,-20334.4
1.30724e+08,29.8315,1,2.95801,-2850.27,5250.98,-26652.4
1.3083e+08,11.1218,2,2.92901,2057.69,-621.462,-27892.1
1.3093e+08,134.356,2,2.91595,-20760.9,-8090.39,-11449.2
1.30956e+08,177.117,2,3.0594,17268.9,7686.39,3016.31
1.31003e+08,30.4159,0,2.49432,3431.53,-5475.84,-28090.4
1.31055e+08,45.0214,2,3.03987,-3461.8,-7539.44,-24189.3
1.3175e+08,71.2197,0,2.93834,5251.46,2210.86,-14986
1.31901e+08,83.5731,1,2.77503,-9046.35,-15063.1,-28922
1.31911e+08,104.883,1,2.74333,-2309.06,14442.7,-12218.4
1.32024e+08,15.8721,1,2.43356,-1538.56,3059.62,-29432.1
1.32143e+08,121.893,0,2.63372,23319.8,-1162.93,-17827
1.32437e+08,88.1692,0,2.94063,5839.39,683.562,-20524.7
1.32454e+08,105.001,0,2.84093,4777.05,-9172.13,-9295.64
1.32533e+08,81.4392,1,2.7419,687.583,-8329.02,-13877.8
1.32541e+08,74.3544,1,2.94076,170.461,15614.8,-27440.8
1.32673e+08,166.026,0,2.74577,-5019.02,-14847.9,2427.23
1.32729e+08,128.328,0,2.75001,20998.2,-12731.9,-17384.4
1.3281e+08,15.0402,0,2.71222,108.925,-2687.01,-27113.1
1.32817e+08,14.097,1,2.51513,-1388.32,2360.28,-27481.2
1.33159e+08,51.8091,0,2.7402,4326.25,6454.28,-21088.9
1.33772e+08,118.275,2,2.93046,-14715.9,4476.44,-10805.9
1.33937e+08,174.733,1,2.66151,11256.7,22038.7,-1463.39
1.33945e+08,124.251,1,2.78531,10276.8,13874,-9143.41
1.34305e+08,131.071,0,2.94504,8194.64,17166.8,-8950.91
1.34315e+08,125.043,0,2.99572,-1192.38,-20155.1,-12101.8
1.34344e+08,167.316,0,2.44705,-20722.5,28640.7,-29319.5
1.34819e+08,28.9548,2,2.92878,-3949.95,-4747.36,-28451.7
1.35e+08,213.862,2,2.80302,5310.02,-20886.4,10558.6
1.36188e+08,73.449,0,2.7244,15573,-35.4344,-29353.3
1.36244e+08,4.77023,1,2.91855,269.596,-864.514,-28570.9
1.36364e+08,97.2349,0,2.41408,13104,7085.79,-14543.8
1.36528e+08,69.5831,2,2.67432,-7802.29,7481.78,-18915.6
1.37386e+08,46.6732,0,2.62978,1335.89,5392.26,-20679.6
1.37626e+08,91.6296,0,3.03566,15454.4,-1553.92,-17478.3
1.37655e+08,89.7151,2,2.65833,-16783.2,-8757.3,-27094.6
1.37886e+08,3.23736,2,2.49073,-389.249,-295.074,-28259.9
0,3.39014,2,2.90666,0,0,0
1.38214e+08,107.386,1,2.96867,-10758.1,-17253.8,-19162.4
1.38369e+08,13.9899,2,2.53241,2781.21,-584.614,-27988.1
1.38438e+08,263.511,2,2.58998,5279.27,-4568.61,-16940.9
1.3847e+08,35.3563,0,2.59886,5151.14,5426.05,-27951.9
1.38588e+08,45.721,2,2.49701,7225.73,3522.81,-23533.6
1.38671e+08,23.2949,2,2.80158,1484.83,-3179.75,-27913.9
1.38999e+08,121.458,1,2.85507,10521.3,1532.07,-5638.14
1.39289e+08,54.4135,2,2.92251,10898.4,-1986.49,-26079.7
1.39497e+08,9.04704,0,2.94382,1592.77,614.916,-27884.2
1.39754e+08,71.5408,1,2.62305,692.483,9028.59,-16676.8
1.4027e+08,8.45415,0,2.90425,949.804,874.638,-27534.5
1.40367e+08,57.2165,1,3.01363,10647,-1065.82,-23476.8
1.40575e+08,95.2231,2,2.76935,-12942.6,-8204.64,-15813.4
1.40602e+08,117.244,1,2.52017,18989.4,-6107.43,-14179.3
1.40607e+08,3.9854,1,2.98815,-412.68,559.881,-28252.1
1.40642e+08,219.726,2,2.75437,3430.07,9348.44,-27589.5
1.40895e+08,116.621,0,2.54807,19376.7,-6457.99,-14893
1.40925e+08,16.2804,0,2.51284,-962.958,-2918.37,-27262.9
1.41021e+08,41.7381,0,3.03199,5275.57,-1717.65,-21999.5
1.41056e+08,67.2583,2,2.40633,11323.9,540.509,-20277.9
1.41688e+08,87.4796,0,2.6077,1991.08,6184.89,-14956.2
1.41927e+08,1.45738,2,2.7729,-242.666,69.4701,-28628.8
0,1.26228,1,2.73594,0,0,0
1.42228e+08,79.4378,1,2.55882,6469.92,7708.48,-15373.5
1.42703e+08,19.1339,1,2.78065,2806.26,2160.9,-26819.3
1.42909e+08,120.475,1,2.8723,-7647.56,16112.8,-12636.8
1.42999e+08,75.7498,1,2.62788,-8520.43,4955.79,-16163.9
1.43006e+08,157.611,0,2.96419,19887.7,12059,-5747.88
1.43017e+08,38.6722,2,2.45582,-5365.52,5424.24,-25867.1
1.4323e+08,25.8068,2,2.43832,-5040.67,1563.83,-27361.8
1.43416e+08,15.5464,0,2.91746,2982.33,1215.3,-29744.6
1.43733e+08,45.7736,2,3.02903,5113.93,-7127.96,-24883.5
1.43949e+08,73.7512,0,2.81668,9227.58,3033.81,-16654.1
1.44226e+08,30.8132,0,2.63887,-184.262,5621.61,-26400.8
1.44308e+08,92.1761,0,2.46925,-16424.9,4620.7,-19520.4
1.44461e+08,14.3757,0,2.60041,1137.79,-2117.21,-26885.6
1.4482e+08,19.4184,1,2.47387,183.122,-3309.22,-26503.6
1.44827e+08,178.886,0,2.81456,19546.9,-29832.9,-16720.5
1.44873e+08,58.087,0,2.93286,4615.47,1660.05,-19480.5
1.44976e+08,26.1193,0,2.72667,-2630.19,511.663,-24041.6
1.45151e+08,95.3366,1,2.8681,-19534.5,4236,-26710.9
1.45714e+08,92.5686,2,2.80165,6318.22,-17443.8,-22736
1.45719e+08,38.3587,0,2.77666,2550.72,2249.37,-21473.7
1.45829e+08,178.455,2,2.69903,6792.31,-18396.7,3308.44
1.45985e+08,19.8629,1,2.76319,-3696.07,424.755,-26778
1.46136e+08,204.04,2,2.40844,-4057.53,-21418.2,8464.94
1.46398e+08,88.5574,2,2.76256,-15754.5,-4977.1,-20044.7
1.46973e+08,47.0723,2,2.82524,-2299.01,-7609.01,-22786.5
1.46991e+08,4.28731,0,2.71262,-84.6826,-321.931,-27996.4
1.47177e+08,24.4949,2,3.00037,-2977.51,-4230.83,-27925.3
1.47271e+08,41.8886,1,2.40854,1625.52,-4909.25,-21700.1
1.47327e+08,99.7534,2,2.89307,-13536,-10767.8,-23612.5
1.47622e+08,49.8861,0,2.47401,3152.02,5479.81,-20335.7
1.47739e+08,27.9168,0,2.97957,-4946.79,877.737,-25930.4
1.48591e+08,85.7091,1,2.46169,-11313.1,3015.45,-14924.6
1.48665e+08,46.8633,2,2.56845,2278.19,-7403.5,-22555.6
1.49071e+08,82.0328,1,2.90178,897.93,11359.4,-15851.5
1.49753e+08,19.6998,1,2.66359,399.261,1774.7,-25711.7
1.49918e+08,33.9609,2,2.5027,-4082.42,-5506.73,-26390.2
1.50298e+08,23.359,2,2.82298,-1141.65,4273.81,-26806.8
1.50359e+08,9.79321,0,2.56478,1149.05,1788.27,-28663.5
1.51077e+08,38.0326,1,2.42006,1720.76,6933.65,-24966.4
1.51097e+08,1.20509,1,2.78491,-168.199,-95.5179,-28653.2
1.51125e+08,133.004,1,2.3704,19250.7,-4588.63,-8839.93
1.51644e+08,10.8658,2,2.87989,1047.88,1842.52,-28113.4
1.51653e+08,17.1306,1,2.86102,-972.836,1102.83,-25500
1.5202e+08,16.8406,2,2.43695,2969.97,1185.47,-27313.2
1.52164e+08,127.438,2,2.70199,-19181.5,-18672.6,-25759.6
1.52193e+08,17.4416,0,2.60221,2545.33,1419.59,-27118
1.52337e+08,3.73799,0,2.92509,-69.1202,-314.562,-28117.4
1.52498e+08,11.1412,0,3.05814,1349.73,100.023,-26849.3
1.52557e+08,136.491,0,2.61884,11701.6,22430.7,-15003.8
1.52664e+08,53.5881,0,2.43544,6300.47,-3731.57,-20098.6
1.52666e+08,182.339,0,2.54715,29591.6,-22467,-18317.6
1.52882e+08,105.159,1,2.47951,-14170.3,1842.3,-19183.8
1.53117e+08,48.7438,0,2.85835,8639.22,5670.32,-29335.1
1.53132e+08,0.481838,0,2.53659,194.164,-62.2154,-28816.6
0,0.467545,0,2.7038,0,0,0
0,0.479381,0,3.01791,0,0,0
0,0.442303,0,3.02144,0,0,0
0,0.434361,0,2.82574,0,0,0
0,0.622971,0,2.49574,0,0,0
0,0.424202,0,3.01069,0,0,0
1.53379e+08,144.812,1,2.461,-26101.5,14796.2,-22403.6
1.53478e+08,25.3169,1,2.64228,-1779.66,-1174.34,-23917.4
1.53546e+08,56.46,1,2.49651,-10007.2,-5791.49,-25765
1.5378e+08,71.8418,2,2.57201,-12904,1400.94,-20872.7
1.54136e+08,54.9528,1,2.72831,6876.86,1505.97,-19653.6
1.54464e+08,137.369,1,2.60763,5624.87,23579,-28808.6
1.54756e+08,25.2238,0,2.72004,1238.17,-2950.37,-24549.2
1.54984e+08,23.1936,1,2.80104,-4090.02,-1228.02,-26376.5
1.55176e+08,68.1175,0,2.63944,-1441.93,12455.1,-21759.5
1.55507e+08,6.96033,0,2.46891,-30.3508,-1256.75,-28085.3
1.55641e+08,35.0182,1,2.43282,6495.82,-1840.8,-25891.9
1.55956e+08,133.185,0,2.71492,-17151.2,-3055.57,-6893.13
1.55966e+08,31.6978,0,2.61987,-2020.94,3986.62,-23882.8
1.56049e+08,113.76,0,2.97249,-18691.3,1154.6,-29664.9
1.56193e+08,52.4128,2,2.49879,4324.5,-1569.94,-18770.6
1.56195e+08,64.4615,0,2.87096,12262.7,-5311.76,-26079.4
1.56355e+08,119.454,2,2.75623,-22065,-4701.22,-17552.4
1.56591e+08,148.82,2,2.8768,9259.14,-14586.3,-2732.74
1.57227e+08,21.9604,2,2.97838,-3281.61,-3018.69,-27348.8
1.57424e+08,23.5403,0,2.48151,-1325.49,3623.59,-25692.1
1.58126e+08,148.612,1,2.75423,-806.57,26124.4,-11504.4
1.58147e+08,151.263,1,2.93628,-8155.97,15382.9,-2254.45
1.58235e+08,76.1642,0,2.76708,6251.79,-14167.9,-24460.5
1.5849e+08,144.265,2,2.57013,-8241.26,-18414.8,-5905.08
1.58598e+08,45.3875,2,2.86485,206.013,-7063.92,-22328.6
1.59063e+08,58.37,0,2.52832,12066.9,2294.9,-26955.5
1.59094e+08,6.20231,2,2.64866,-330.67,-1344.4,-28511
1.5912e+08,179.016,1,2.42049,4667.53,18546.6,3899.19
1.59196e+08,15.2246,2,2.66003,-2524.09,-88.7871,-26755
1.59287e+08,92.4049,2,2.38706,10046.2,-13824.3,-19219.9
1.59558e+08,16.3244,1,2.53319,2214.57,2329.92,-28419.2
1.59646e+08,57.3498,2,2.5234,-6732.06,10068.5,-28955
1.59979e+08,138.875,2,3.0431,-27073.4,-7612.44,-21287.9
1.60669e+08,14.4796,0,2.43154,195.904,2982.72,-28080.3
1.60892e+08,100.424,2,2.91123,-21090.1,122.295,-27556.9
1.60923e+08,58.6484,1,2.55931,10487.5,3109.09,-23046.4
1.60993e+08,7.33479,1,2.54682,457.926,1211.06,-27871.6
1.61074e+08,102.634,2,2.62998,1305.67,13394.8,-11898.5
1.61247e+08,32.3649,2,2.72711,-5596.35,-284.186,-24833.2
1.61285e+08,38.473,0,2.3681,4299.78,-552.132,-21877.9
0,38.4972,0,2.54064,0,0,0
1.61382e+08,25.1014,1,2.8059,-5089.33,1693.08,-28897.4
1.62118e+08,20.9162,0,2.51628,3904.55,1784.25,-27411.2
1.62346e+08,28.893,2,2.62203,2668.39,-5104.39,-26687.8
1.6256e+08,145.675,2,2.86777,-11326.4,25032.3,-15546.5
1.62608e+08,32.6613,2,2.49278,2560.49,-2753.35,-23041
1.62636e+08,36.677,0,2.57093,7202.16,-2714.63,-27366.5
1.6273e+08,107.861,2,2.83363,-20311.8,9821.1,-26309.9
1.62814e+08,83.5328,0,3.05587,11875.5,4746.95,-16823.9
1.63298e+08,128.746,0,2.84231,9412.75,-23250.9,-18528
1.63372e+08,88.2331,2,2.75476,3228.25,11686.4,-14818.3
1.63443e+08,6.68655,2,2.48412,-259.607,-1476.97,-28540.5
1.63622e+08,41.1304,1,2.73004,-7828.03,-3744.98,-28567.4
1.63665e+08,18.6398,1,2.79315,2501.43,-2090.77,-26741.6
1.63853e+08,6.23504,0,2.73129,1195.89,624.56,-29176.9
1.64585e+08,25.2696,0,2.61134,4298.15,-3315.84,-28834.4
1.65184e+08,95.8517,2,2.9227,18092.7,8656.99,-29380
1.65379e+08,16.1988,1,2.73735,-103.909,-3113.74,-27524.6
1.65561e+08,42.0619,2,2.48514,-152.833,-8682.56,-26491.1
1.65571e+08,9.02583,0,2.74524,-1785.73,-359.036,-28542.8
1.6563e+08,160.303,1,2.46248,26832,13553.9,-13119.7
1.66081e+08,107.132,1,2.78462,-9140.53,12753.1,-12561.5
1.6616e+08,11.378,1,2.77507,1867.14,-341.534,-27384.9
1.66168e+08,5.49688,2,2.70435,179.275,-1204.99,-28541.6
1.66393e+08,9.03227,0,2.67296,-1686.83,305.298,-28121.2
1.66409e+08,76.602,0,2.75015,-187.978,8583.87,-15165
1.66467e+08,16.2101,0,2.57067,1874.97,2920.31,-29307.2
1.66755e+08,92.6292,2,2.9697,-11136.2,-1131.18,-12919.1
1.67116e+08,84.6663,2,2.73338,1371.65,-13353.7,-17011.1
1.67391e+08,108.987,2,2.37378,-8825.1,-8079.69,-9058.35
1.67428e+08,88.2389,2,2.76401,-8547.86,-15637.3,-23239.2
1.67522e+08,20.6351,1,2.71356,-556.843,2974.3,-25611.3
1.67871e+08,11.1979,0,2.67266,1003.49,-1355.62,-27092.9
1.67885e+08,25.1127,2,2.59755,1933.5,-4786.9,-27294.5
1.67911e+08,47.9349,0,2.93189,-3319.48,-2734.56,-19752.5
1.68479e+08,10.4835,2,2.72064,1684.79,618.712,-27597.2
1.69119e+08,51.085,1,2.74448,4037.08,-2650.46,-19241.2
1.69136e+08,32.6988,0,2.69073,5702.49,3314.5,-26511
1.69202e+08,137.414,2,2.62445,9625.13,8768.32,-2958.87
1.69426e+08,10.0302,1,2.69738,-2112.33,265.447,-28315.4
1.69457e+08,23.1036,2,2.36618,-3615,-3334.36,-28080.3
1.69537e+08,55.3542,1,2.55891,-4905.35,6288.55,-20177.6
1.70022e+08,45.3739,0,2.7114,3601.37,-3673.58,-20721.3
1.70326e+08,134.928,2,2.68979,-15127.9,-22556.7,-20074.3
1.7079e+08,40.0416,0,2.92203,2025.07,8180.2,-28026.9
1.71161e+08,155.089,0,2.91806,2012.39,15916.3,-486.422
1.71257e+08,29.7246,2,2.43736,-2575.1,-5090.84,-26016.3
1.71903e+08,47.7566,1,2.52687,7569.71,438.825,-22184.9
1.72037e+08,7.7609,0,2.40718,1540,-747.35,-28498.3
1.72327e+08,29.8722,1,2.43304,2021.38,5600.56,-27906.3
1.72805e+08,124.467,1,3.03138,-17555.4,-17755.6,-21415
1.72812e+08,15.6286,2,2.46134,2022.19,1084.88,-26481.4
1.72912e+08,138.757,1,2.62226,3976.93,-14036.4,-3507.2
1.73034e+08,34.7811,0,2.55741,-4249.09,-5509.37,-26504.5
1.73321e+08,120.711,2,2.38447,-10859.1,-5837.38,-6420.54
1.73669e+08,118.829,0,3.04609,13394.7,-8652.75,-9678.27
1.73924e+08,29.955,1,2.98139,4392.02,4524.7,-28437.7
1.74044e+08,115.521,2,2.69335,16575.3,-16714.4,-22480.8
1.74155e+08,83.103,0,2.50356,5594.92,-10896.2,-16183.2
1.74203e+08,23.882,0,2.92829,-2417.7,474.35,-24510.4
1.74279e+08,25.7773,2,3.05463,623.337,-1099.19,-27636.2
1.74486e+08,63.2241,1,2.81421,-207.176,7087.17,-17518.5
1.74608e+08,26.5386,0,2.70701,5650.13,-573.283,-29136.5
1.7463e+08,3.27726,2,2.4799,582.294,119.325,-28541.7
1.74644e+08,138.467,1,3.00625,-7653.29,-23270.8,-13936.7
1.74694e+08,24.6654,0,2.58659,734.818,-5174.75,-28403.1
1.74806e+08,42.2113,0,2.77375,-4210.77,4648.06,-22575
1.74839e+08,27.66,2,2.60109,3280.86,-4700.32,-27430.8
1.74874e+08,6.73021,1,2.80009,194.682,628.72,-27534.2
1.7503e+08,239.423,0,2.51664,18865.9,16213.8,14760
1.75194e+08,92.5059,0,2.81467,-1175.67,17401.6,-20188.8
1.75352e+08,7.56762,1,2.37519,332.411,522.515,-27318.9
1.75421e+08,72.5121,2,2.51697,3888.94,11921.8,-20099.5
1.75568e+08,77.6192,1,2.56257,-14128.3,8221.1,-26721.4
1.75935e+08,170.378,2,2.73834,-976.645,-22502.7,-18710.1
1.76046e+08,74.7625,2,2.73199,8812.22,136.973,-17061.2
1.76066e+08,153.13,2,2.52045,-1810.19,22021.5,-5230.18
1.76123e+08,136.828,1,2.75359,-3996.74,9317.28,-2301.68
1.76146e+08,7.16118,1,2.76711,1149.65,148.707,-27892.3
1.76154e+08,170.8,1,2.81187,-14427.5,12416.8,1670.75
1.76291e+08,117.067,0,2.69654,-15573,-19092.9,-28429.1
1.765e+08,104.597,1,2.50294,-21716.3,-4175.75,-27400.8
1.76654e+08,21.5653,2,2.82351,-4273.62,864.309,-27413.5
1.76723e+08,71.1604,2,2.68202,-6688.11,-10732.8,-20600.5
1.76903e+08,20.2618,0,2.64598,-3870.33,67.4138,-27112.7
1.77047e+08,90.8888,1,2.98935,12964.3,-2647.85,-15166
1.7715e+08,98.5506,0,2.48262,3953.99,15975.6,-16004.6
1.77987e+08,67.8182,0,2.73734,557.066,-8838.6,-17596.8
1.78343e+08,5.85177,1,2.64207,712.945,98.2157,-27822.5
1.78524e+08,43.2666,0,2.67251,3268.69,6186.11,-22909.3
1.78806e+08,1.08905,2,2.6575,-20.119,-229.913,-28639.3
1.78883e+08,113.671,2,2.99983,11810.2,-15041.1,-20278.1
1.78911e+08,140.062,2,2.98052,22065.4,6146.72,-10538.5
1.78916e+08,29.4769,2,2.86328,502.362,3663.93,-23891.1
1.79026e+08,171.264,2,2.46863,5691.43,15455.9,3386.11
1.79086e+08,14.1462,2,2.92659,-442.199,-2747.42,-27550.6
1.79118e+08,304.061,0,2.80155,22582.4,-29799.5,23090.2
1.79136e+08,8.03317,1,2.59423,1392.25,-342.494,-27951.7
1.79168e+08,31.8582,0,2.59884,2415.56,3266.17,-23411.1
1.79414e+08,58.9064,1,2.59346,-2280.3,12091.4,-26400.3
1.79471e+08,21.2897,2,2.78831,-701.479,-3214.84,-25675
1.79521e+08,12.8438,0,2.67722,-1026.46,-1869.42,-27173.6
1.79542e+08,62.5285,0,2.96347,-551.795,8428.7,-18797.7
1.79629e+08,79.9476,1,2.94321,-616.113,11638.1,-16668.5
1.79664e+08,0.515032,1,2.77536,-175.131,64.5819,-28775.2
0,0.550243,1,3.04169,0,0,0
0,0.603587,1,2.4621,0,0,0
0,0.594208,1,2.41916,0,0,0
0,0.515612,1,2.54659,0,0,0
1.79783e+08,108.439,1,2.67721,-3756.54,-20299.2,-19082.1
1.8005e+08,13.1773,0,2.80849,2457.81,1349.8,-28221.2
1.80053e+08,18.092,2,2.93823,1277.19,1908.83,-25842
1.80192e+08,5.82442,0,3.05674,78.4589,-911.985,-27997.7
1.80214e+08,64.6297,2,2.95764,2698.26,-7718.64,-17959.3
1.80314e+08,139.841,0,2.63446,8527.49,-18679.1,-7586.42
1.80458e+08,109.974,1,2.96394,7108.4,21375.5,-23550.7
1.80804e+08,7.57768,2,2.99747,-62.9864,855.028,-27502.7
1.81021e+08,114.926,2,3.02572,-5760.76,3540.6,-11434.9
1.81213e+08,97.2901,1,2.73966,-12994.3,4432.18,-13547.4
1.81238e+08,56.0214,1,2.38918,-887.715,11731.4,-26741.2
1.81264e+08,147.029,1,2.5259,15963.6,-1109.92,-2216.56
1.81427e+08,89.7033,1,3.01703,-10843.5,15459.3,-28937.7
1.81894e+08,116.384,0,3.05678,-212.913,-1626.85,-27968.5
1.8237e+08,9.00924,2,2.83812,-1385.95,81.2039,-27471.4
1.8251e+08,36.0036,2,2.53131,2398.49,-5168.9,-23712.1
1.82688e+08,61.2891,0,2.56753,10939.8,2407.53,-22159.5
1.83057e+08,82.5183,2,2.7326,-12893.5,-2508.34,-17399.1
1.83064e+08,57.5075,1,2.81658,-7137.2,4513.39,-20082.3
1.83104e+08,48.065,1,2.9382,8750.31,-3453.75,-25343.3
1.83184e+08,40.8941,1,2.64264,-4818.07,-5604.87,-24415.8
1.83617e+08,64.2019,1,2.97622,-3702.65,11629.7,-22943.3
1.83693e+08,21.8249,2,3.01293,1509.19,-2813.12,-25478.5
1.83739e+08,130.763,1,2.79206,-17125,3317.53,-7495.98
1.83842e+08,56.0036,0,2.63661,7464.57,-6539.55,-22290.8
1.83926e+08,93.8956,0,2.67197,13307.5,5486.7,-15138.1
1.83983e+08,53.9967,0,2.73233,-5079.12,-3150.59,-19208.8
1.84124e+08,4.43549,2,2.50371,542.02,512.853,-28372.1
0,3.82579,0,2.71374,0,0,0
0,4.0526,1,2.56324,0,0,0
1.8421e+08,133.18,1,2.38132,13405.7,24246.3,-23602.4
1.84352e+08,80.5867,1,2.84038,-13846,3555.62,-19610
1.84388e+08,108.171,2,3.00942,-17642.8,761.069,-16616.6
1.84477e+08,2.93614,0,2.84126,-249.184,-392.127,-28435.2
1.84509e+08,97.2943,0,2.95659,-332.632,2372.98,-27716.7
1.84673e+08,53.4432,0,2.76685,10123.3,-5157.8,-28642.8
1.84798e+08,19.6726,0,3.0559,-2429.04,251.866,-25554.3
1.85318e+08,33.9127,1,2.6235,-940.859,5492.87,-24238.9
1.85625e+08,1.04391,0,2.93044,258.961,-90.3017,-28759.5
0,1.50373,1,2.93044,0,0,0
1.85679e+08,33.347,1,2.73099,-1526.77,5468.07,-24575.2
1.8585e+08,184.861,2,2.81575,-9932.19,10337.8,-26198.7
1.86291e+08,100.779,0,2.77677,4879,-18605.1,-19783.3
1.8647e+08,39.7784,0,2.98657,6825.48,3361.78,-25207.1
1.86538e+08,7.11921,1,2.9661,-512.863,-1324.84,-28455.4
1.86771e+08,19.2885,0,2.9356,1873.21,2018.39,-25802.3
1.86843e+08,13.5006,1,2.37603,-194.501,2281.43,-27024.4
1.87307e+08,176.55,1,2.67153,-21714.7,11993.9,-1007.28
1.87976e+08,113.76,2,2.88136,5695.19,-8221.08,-9795.83
1.88333e+08,66.2946,0,2.74971,1062.99,-1253.97,-27840.4
1.88516e+08,73.1491,2,2.48822,-8393.14,6967.31,-17867.4
1.88688e+08,83.879,0,2.66609,-4779.3,12599,-17376.9
1.88978e+08,114.166,1,2.45545,-18101.4,13454.9,-23544
1.89005e+08,12.6534,1,2.51457,-1192.88,848.531,-26535.6
1.89443e+08,105.612,2,2.43531,11112.6,-18477,-22886.4
1.89485e+08,39.1624,0,2.59024,4557.28,-4926.14,-23896.7
1.89493e+08,64.4852,2,2.70863,-11203.1,-1550.74,-21195.8
1.89505e+08,97.5545,2,2.63683,-9683.12,-8595.64,-12766.3
1.89961e+08,126.597,0,2.65769,-16135.2,-2519.52,-7793.52
1.90144e+08,38.1681,1,3.05533,-2538.67,-4872.85,-23070.8
1.90212e+08,99.8932,2,2.99483,8410.66,-134.782,-24616
1.90361e+08,229.827,0,2.54565,-19791.2,6511.84,15006.7
1.90361e+08,29.6213,1,2.49499,-746.456,5203,-25278.6
1.90401e+08,214.98,2,2.74679,-13716.9,17268.9,-25151
1.90401e+08,86.3447,0,2.87217,7865.76,2287.7,-12594.8
1.90648e+08,13.0394,2,2.59781,176.701,1478.8,-26582.4
1.90755e+08,80.8195,0,2.84393,12994.7,193.594,-17780
1.90759e+08,35.2336,2,2.76543,3413.31,-3963.93,-23509.6
1.90879e+08,18.3062,1,2.68141,1088.74,-3018.28,-26797.2
1.90923e+08,13.3259,2,2.43712,-342.186,-1661.42,-26499.3
1.90971e+08,295.246,1,2.89203,-3272.72,23306.5,28347.5
1.91007e+08,2.67172,1,3.0038,401.411,452.254,-28700.6
1.91072e+08,118.191,2,2.86721,-3687.02,-21136.5,-16161.2
1.9125e+08,103.145,1,2.93697,-19567.3,8806.26,-25468.7
1.91727e+08,26.5016,0,2.7021,-2955.92,1619.89,-24425.6
1.91776e+08,161.214,1,2.601,-21037.4,20874.8,-11931.5
1.91862e+08,138.379,2,2.66737,16544,-5244.87,-5373
1.92118e+08,6.61493,1,2.72683,1313.74,281.791,-28499.2
1.92139e+08,173.619,0,2.44469,29534.5,-7386.19,-8185.42
1.92427e+08,34.049,0,2.42966,-3841.42,-223.487,-22768.4
1.92594e+08,74.5176,0,2.55518,14697.1,-5801.5,-27996
1.92882e+08,80.7118,0,2.89953,12190.2,-5121.28,-18102.7
1.9289e+08,104.878,1,2.72342,-8712.63,5241.69,-9169.95
1.92917e+08,65.5685,0,2.89591,11457.5,-7093.34,-25562.2
1.92931e+08,91.864,1,2.56386,-3685.73,12140.7,-14076.5
1.92939e+08,267.547,2,2.93748,-5985.51,21584.9,-17451.3
1.93125e+08,21.301,1,2.69509,-3567.75,-2765.59,-29038
1.93485e+08,106.383,0,2.75457,21037.7,4693.93,-22539.1
1.93616e+08,31.9166,2,2.91298,-3323.05,5129.64,-26128.9
1.93717e+08,94.4995,1,2.70969,2308.63,-9044.14,-11262
1.94021e+08,83.8937,2,2.41653,-5487.01,-4672.39,-12585
1.94664e+08,10.4978,2,2.80333,-505.523,-2241.55,-28580.4
1.94779e+08,1.73849,0,2.94894,179.437,-352.689,-28668
1.94875e+08,161.538,2,2.55317,17067.5,-18667.7,-5872.34
1.95024e+08,246.81,2,2.83373,10051.2,8058.27,-26551.2
1.95078e+08,12.4937,1,2.3741,-625.638,-1126.16,-26568.3
1.95146e+08,51.1393,0,2.63892,8178.42,5818.23,-24694
1.9545e+08,12.8324,0,3.01152,-1695.53,-938.921,-27051.4
1.95764e+08,256.06,0,2.83906,27948.3,-1635.24,17100.5
1.96056e+08,102.423,2,2.7754,-4234.26,-8087.7,-9265.87
1.96097e+08,104.178,1,2.82684,1754.89,21903.4,-29033.3
1.96177e+08,95.1068,2,2.7236,4888.04,18017.2,-21717.4
1.96327e+08,7.92389,1,2.93831,-1415.84,-156.339,-27875.6
1.96493e+08,79.7553,2,2.67116,4099.34,-11708.2,-17392.3
1.96659e+08,17.9049,0,2.54204,3387.69,1460.95,-27652.4
1.97124e+08,94.0416,1,2.63219,16274,1791.41,-17638.3
1.97286e+08,21.1189,1,2.83785,2719.75,3508.72,-29665.6
1.97331e+08,368.016,1,2.93309,15619.6,17098.6,-5455.35
1.97556e+08,12.5379,1,2.41393,1379.54,1888.07,-27475.9
1.97692e+08,47.7896,1,2.71897,8627.3,5195.77,-29642.9
1.9778e+08,18.7389,0,2.7053,3824.61,1318.85,-29058.2
0,18.7436,0,2.68705,0,0,0
1.98052e+08,21.3821,0,2.49242,1447.49,-4328.94,-28599
1.98226e+08,93.058,2,2.52321,2813.73,-16367.8,-18148.6
1.98263e+08,31.6398,0,2.38896,325.585,3138.92,-22910.3
1.98271e+08,131.285,0,2.66857,26866.9,2699.51,-22266.8
1.98327e+08,29.6557,1,2.57287,3932.61,3635.38,-25487.6
1.98441e+08,54.065,0,2.38366,3640.39,4925.6,-19112.3
1.98696e+08,87.4537,1,2.65313,-1758.74,9800.44,-13231.5
1.99623e+08,41.769,1,2.82009,2354.69,6338.52,-23136.4
2.00063e+08,112.709,2,3.05498,-10132.9,15710.1,-14594
2.00076e+08,156.516,0,2.76182,28378,-15885.7,-23277.9
2.00343e+08,1.9505,2,3.00036,60.6019,-434.033,-28607.5
0,1.92835,2,2.45823,0,0,0
2.00344e+08,15.986,2,2.69603,-187.164,-1375.42,-25720.7
2.00641e+08,100.611,2,2.7625,-11208.4,673.491,-12396.9
2.00756e+08,2.9705,2,3.03369,-501.944,-476.743,-28619.1
2.00802e+08,22.2134,0,2.37361,3159.46,528.583,-25288.9
2.01298e+08,35.9924,1,2.42588,5099.27,3078.81,-24075
2.01398e+08,104.33,1,2.65699,-8323.06,-8622.69,-10402.9
2.01937e+08,23.2154,1,2.56388,-2412.53,2229.23,-25091.5
2.02172e+08,70.3031,0,2.4321,12794.4,-2960.88,-21651.3
2.02319e+08,12.6864,1,2.82298,-2457.54,-1095.33,-28531.5
2.02359e+08,73.4427,2,2.46756,-13163.4,488.15,-20531.4
2.03137e+08,184.829,2,2.77064,270.47,-22032.3,3261.1
2.0352e+08,87.3751,1,2.72807,2686.23,13219.3,-28551.1
2.04139e+08,54.9877,0,2.67135,9780.07,-6358.75,-29430.3
2.04238e+08,77.7781,2,2.57478,-3579.51,-5217.32,-14089.8
2.04398e+08,63.6519,1,2.92146,12668.2,3591.71,-26480.7
2.04521e+08,124.581,1,2.67668,-9814.22,-11554,-7399.89
2.04586e+08,21.1765,0,2.72952,1939.09,809.522,-24868.7
2.04903e+08,201.717,0,2.85138,21982.7,9185.38,-4992.79
2.05014e+08,11.3741,2,2.58192,-957.365,-2333.34,-28761.6
2.05463e+08,31.4388,0,3.01593,-3427.22,1525.41,-23454.6
2.05756e+08,8.11893,0,2.48596,1715.4,476.319,-28408.9
2.05864e+08,11.3473,1,3.0068,-479.052,-1582.01,-27138
2.06058e+08,5.03902,0,2.89693,986.826,-619.661,-28854.5
2.06314e+08,51.5147,2,2.62811,-444.935,-10704.6,-26530.5
2.06385e+08,66.0729,2,3.00288,-5083.06,-10554.3,-21308
2.07108e+08,53.5325,2,2.61684,-9702.91,-5973.72,-28181.5
2.07126e+08,99.6477,0,2.81556,1305.84,-18881.7,-19769.4
2.07176e+08,129.131,2,2.68391,-23605.7,-10662.9,-20220.9
2.07183e+08,43.7062,1,3.05211,2892.7,8640.35,-27283.2
2.07399e+08,186.799,2,2.72484,24705.9,13633.9,-1459.05
2.07468e+08,14.8036,2,2.48642,-2174.96,-2205.05,-27875.1
2.07539e+08,182.31,0,2.65073,1257.07,13550.6,-12604.4
2.07544e+08,44.7365,2,2.86397,-9405.57,747.576,-28089
2.07707e+08,141.506,1,2.81259,-2832.49,25705.6,-13927.5
2.07756e+08,114.616,1,2.7467,16829.9,-16339.4,-28847.9
2.07882e+08,63.5536,2,2.83336,-6252.52,10678.4,-23805.4
2.08115e+08,38.344,1,2.56982,4264.88,-2931.27,-22637.1
2.08149e+08,76.9851,0,2.38664,-12651.3,8096.4,-22656.5
2.08238e+08,29.2907,2,2.83812,-5243.92,2522.82,-29601.1
2.08591e+08,171.052,1,2.78327,19155.9,26523.5,-13688.2
2.08632e+08,54.1023,1,2.40286,-8361.19,-2907.12,-21511.1
2.08767e+08,89.2019,0,2.55223,15924.2,-10076.2,-26908.8
2.09349e+08,111.428,2,2.50379,-3413.93,-12732.5,-9247.02
2.09363e+08,31.7434,2,3.02868,-4729.34,2449.89,-24837
2.09385e+08,4.93712,2,2.4329,387.766,458.893,-28031.7
2.0966e+08,177.283,0,2.53719,17897.7,23897.4,-15968.2
2.0971e+08,56.7469,2,2.58335,-4432.38,3365.14,-18207.1
2.09772e+08,4.78457,0,2.44913,516.237,-876.847,-28474
2.10283e+08,10.1714,1,2.9252,1476.73,-1322.91,-28243.6
2.10541e+08,14.573,0,2.70756,-429.118,1271.24,-26091.3
2.10807e+08,13.5483,2,2.64041,2036.55,708.375,-26986.5
2.10915e+08,217.906,1,2.66758,-19176.8,17416.9,2561.26
2.10975e+08,43.9054,2,2.9513,-6256.4,-5701.91,-24956.3
2.11055e+08,45.0878,2,3.00197,4223.72,3919.28,-21371.5
2.11244e+08,145.555,1,2.75127,-8552.63,-16264,-4321.68
2.11358e+08,89.1942,0,2.54836,-13325.8,-3897.19,-16152.5
2.11414e+08,13.6726,0,2.67228,2436.03,-542.87,-27250
2.11432e+08,11.9214,1,2.59358,-1807.65,1375.29,-27579.4
2.11729e+08,6.96462,0,2.44256,705.113,-1274.38,-28358.1
2.11747e+08,55.7081,1,2.79533,479.134,166.476,-29009.4
2.12124e+08,107.352,1,2.50274,12658.8,-10062.8,-22606.7
2.12218e+08,50.2049,1,2.36525,-90.8117,10661.8,-27612.9
2.12587e+08,23.5593,0,3.03835,4598.35,1947.18,-28460.4
2.12934e+08,191.546,2,2.7526,-26889.2,-3814.72,1045.11
2.13129e+08,60.2517,0,2.79951,-3226.73,-7859.64,-19439.7
2.1313e+08,50.1654,2,3.01623,-1701.87,-10457.9,-29502.1
2.13248e+08,92.8147,0,2.67344,16622.7,-8761.97,-23103.3
2.13367e+08,0.343101,0,3.3127,79.5127,-109.491,-28823.6
0,0.477688,2,3.47975,0,0,0
0,0.381313,0,3.22057,0,0,0
0,0.395869,0,2.71495,0,0,0
2.13582e+08,106.212,2,2.60589,-7277.87,17602,-17066.4
2.13707e+08,198.516,2,2.62021,10954.5,-28926.7,-487.278
2.14281e+08,33.896,2,2.561,475.719,-6980.71,-26879.2
2.14333e+08,0.356329,1,2.37479,-76.0109,174.628,-28822.6
0,0.347922,1,2.84658,0,0,0
0,0.344287,1,2.74137,0,0,0
0,0.352865,1,2.81231,0,0,0
0,0.349012,1,2.48759,0,0,0
0,0.345202,1,2.81077,0,0,0
0,0.344626,1,2.5348,0,0,0
2.14412e+08,14.6421,1,2.80484,-2923.47,-200.249,-29932.7
2.14552e+08,48.6761,0,2.53366,5187.89,8029.2,-24911.8
2.14596e+08,58.9999,1,3.03418,-8674.7,-794.982,-20044.6
2.14599e+08,100.169,1,3.00707,2450.39,-11182.9,-11260.6
2.14935e+08,94.4899,2,2.56416,-10550.7,-14575.1,-19961.2
2.15491e+08,3.53639,0,2.61719,228.538,-276.884,-28134.3
0,3.56778,2,2.72386,0,0,0
0,3.53815,0,2.8691,0,0,0
2.15615e+08,75.4019,0,2.64111,128.149,-8458.43,-15359.5
2.15837e+08,83.4279,1,2.73297,-6900.25,2685.86,-12846
2.15936e+08,184.322,2,2.55938,21466.9,-1483.99,3624.1
2.15943e+08,153.368,1,2.58763,-7707.62,-7682.68,-144.535
2.16038e+08,12.9085,0,2.86864,1379.88,-1515.19,-26969.8
2.16162e+08,146.858,0,2.84097,23261.3,-20378.8,-27792.4
2.16171e+08,7.92588,0,2.98671,920.626,30.0544,-27370.3
2.16574e+08,28.4963,1,2.76324,-3217.4,506.674,-23748.7
2.16965e+08,89.5874,0,3.02015,8388.62,993.618,-14986.8
2.17091e+08,12.5352,2,2.79769,-2460.34,-487.002,-27788
2.17353e+08,111.7,0,2.67695,21540.2,-2778.53,-19487.4
2.17957e+08,82.8359,0,2.87926,10936.6,2809.42,-15512.4
2.18124e+08,24.4174,1,2.38721,-2589.86,1882.29,-24713.9
2.18136e+08,14.0711,2,2.62298,-2025.35,242.093,-26642
2.18386e+08,17.0905,0,2.62763,-1469.38,-2293.57,-26466.2
2.184e+08,151.521,2,2.9058,14195.4,-21360.2,-9926.27
2.18419e+08,124.466,1,2.78177,-3171.56,-15231,-7779.94
2.1855e+08,124.394,1,2.57125,-1922.52,22407.9,-15112.7
2.1871e+08,82.6795,2,2.65298,640.763,-16992.9,-24573.9
2.18845e+08,12.7088,2,2.58127,-2444.95,-1119.71,-29517.9
2.19172e+08,63.8691,0,2.80191,10527.3,-7927.81,-25822
2.19192e+08,84.8559,0,2.76028,10702.3,-2612.11,-14689.5
2.19368e+08,49.8583,0,2.90651,5084.12,9172.15,-29720.1
2.19546e+08,113.499,2,2.80191,7513.81,7725.88,-7584.81
2.19729e+08,9.59792,2,2.80106,-427.386,947.176,-27115.7
2.19795e+08,26.3202,2,2.87381,-3012.63,-4751.07,-28688.1
2.19898e+08,89.8571,1,2.58783,9076.25,6554.96,-13551.9
2.19898e+08,17.7222,0,2.59819,-1294.4,1531.2,-25672.3
2.20049e+08,110.782,1,2.64747,-11387,11280.8,-11744.7
2.20198e+08,175.011,1,2.73484,-9939.53,28482,-7547.33
2.2021e+08,41.2363,0,2.66965,4994.81,-5881.9,-24699.7
2.20543e+08,47.0495,2,3.04087,1752.2,9603.73,-28134.3
2.20551e+08,179.074,2,3.01232,27946.7,-12391.7,-7086.63
2.2057e+08,42.8607,0,2.56393,5290,7030.11,-26399
2.21093e+08,9.43744,2,2.89448,1109.64,-25.5379,-27183.8
0,9.40406,2,2.72617,0,0,0
2.21145e+08,3.6066,1,2.42999,666.201,-245.159,-28778
2.21152e+08,128.056,1,2.71229,5271.59,10063.3,-4319.51
2.21254e+08,52.9509,0,2.59311,-2231.74,3503.41,-29321.2
2.21428e+08,31.7792,0,3.0364,3817.38,-479.266,-23324.5
2.2147e+08,0.593749,1,2.88195,-63.5998,27.9006,-28699.7
0,0.549233,1,2.58163,0,0,0
2.2162e+08,15.3649,0,2.76378,2292.17,-2245.4,-29721.1
2.21673e+08,114.822,0,2.7943,-5732.38,-22117.2,-21045.4
2.22118e+08,34.241,1,2.99497,2578.75,3447.09,-24709.3
2.22802e+08,163.62,2,2.72637,-21619.6,-16717.9,-7734.27
2.23005e+08,132.253,1,2.89272,-8438.12,-9784.83,-29440.2
2.23006e+08,136.588,2,2.42637,-11169.2,4515.56,-2568.66
2.23499e+08,64.2284,2,2.58271,-10471.2,-7636.95,-24514.1
2.236e+08,218.105,1,2.60893,-20055.4,16310.3,-17333.5
2.23803e+08,11.2565,2,2.93809,-1586.09,-1246.26,-27459.6
2.23986e+08,99.6169,1,2.82502,-19759.2,6626.91,-26178.1
2.24166e+08,120.584,1,2.93094,-3508.95,24283.5,-24224.6
2.24398e+08,35.29,0,2.9992,4770.77,2296.42,-23569.3
2.24401e+08,10.5726,0,2.73636,2043.35,-1047.79,-28851.2
2.24504e+08,59.9907,1,2.90195,-6995.05,9703.99,-24613.8
2.24625e+08,153.359,0,2.40143,-6656.04,-13828,-278.09
2.24932e+08,79.1486,1,2.82146,-9378.82,13587.6,-26050.9
2.25004e+08,1.45666,1,2.65992,-200.963,124.446,-28555.8
0,1.46085,1,2.53768,0,0,0
0,1.45535,1,2.9538,0,0,0
2.25277e+08,40.0491,0,2.729,5781.96,3403.5,-23587.5
2.25403e+08,25.7004,1,2.98521,-2939.23,-2893.83,-25339.7
2.25636e+08,38.3323,0,2.57801,-6947.71,-371.794,-24771.4
2.2572e+08,85.5912,2,2.81009,-10550.3,-2915.85,-14504.2
0,85.1757,2,2.60538,0,0,0
2.26057e+08,91.9951,2,2.71288,12595.7,12582,-21291.6
2.26444e+08,23.1514,2,2.77622,-2155.71,-1327.21,-24607
2.26735e+08,8.74193,0,2.69879,-1068.97,-444.63,-27437.4
2.26888e+08,66.6651,1,2.43455,-6890.93,8664.88,-19964.9
2.26893e+08,43.3676,2,2.4515,7740.21,251.627,-23955.3
2.26958e+08,59.6257,2,2.67676,-7680.45,-7905.36,-22655
2.2697e+08,48.7515,2,2.7793,-4916.79,-8491.18,-25482.2
2.27082e+08,15.339,0,2.46331,-2223.49,-1340.49,-26959.9
2.27183e+08,13.6169,2,2.51081,-359.345,-2969.24,-28721.9
2.27401e+08,50.8098,0,3.00612,2948.63,9669.37,-25315
2.27701e+08,228.77,2,3.00962,-21489.5,9024.13,-9850.23
2.28105e+08,6.72847,0,2.91238,303.779,321.32,-27453.7
2.28367e+08,12.9942,2,2.76597,-1422.25,-2326.4,-28102.6
2.28368e+08,63.6322,2,2.36391,5129.46,-4925.21,-17414.8
2.28395e+08,44.7063,0,3.04743,1847.63,8420.46,-25085.6
2.2856e+08,41.0122,1,2.52929,-7187.4,-4839.99,-28639.9
2.28577e+08,115.74,0,2.93761,12070.9,-15614.5,-15689.6
2.28652e+08,114.143,0,3.01569,19063.3,-10356.7,-18559.8
2.2878e+08,134.845,0,2.49455,-21798,-18098.7,-26109.8
2.2898e+08,63.4659,1,2.46483,-4574.86,11082.8,-22636.6
2.29147e+08,97.2205,1,3.02792,-16873.7,10724.4,-24530.4
2.29304e+08,17.5665,1,2.93202,1182.2,3579.87,-28893.2
2.29889e+08,180.193,0,2.64414,7626.35,20773.8,2113
2.29931e+08,19.9651,0,2.54415,3106.83,-2081.73,-26696.7
2.30363e+08,125.595,2,2.54625,-9317.79,10106.7,-6115.5
2.30581e+08,23.4635,1,2.65383,-4744.7,-1492.94,-28332
2.30911e+08,115.34,2,2.85525,-10136.7,-4100.46,-28991.2
2.3094e+08,4.25769,0,2.3914,-305.923,736.045,-28478.2
2.30989e+08,116.283,2,2.4522,11310,3501.55,-7301.89
2.31046e+08,112.84,1,2.67491,18918.4,9217.48,-17690.4
2.3112e+08,5.60006,2,2.40703,-132.759,-1294.02,-28901.7
2.31527e+08,9.49317,0,3.0333,954.14,1681.43,-28120.5
2.31708e+08,63.7229,2,3.02729,6254.63,4010.87,-17773.8
2.3249e+08,48.802,2,2.57012,5197.13,-8945.53,-29704.8
2.32495e+08,52.1588,1,2.94738,6374.45,-630.349,-20007.7
2.32686e+08,78.9038,2,2.75737,-15242,-5420.99,-24675.7
2.32755e+08,77.1859,2,2.79038,-7011.32,-10120.5,-18121.2
2.33219e+08,155.306,0,2.65392,-8167.14,23035.8,-7067.19
2.3366e+08,54.4425,2,2.61973,-5211.91,-10303,-27881.9
2.33869e+08,16.8557,0,2.89513,1611.41,-2437.04,-26752.7
2.34455e+08,146.228,0,2.81249,-14141.5,27274.6,-28004.8
2.34768e+08,154.952,1,2.99736,-581.799,-12150.9,-28149.9
2.34884e+08,26.3461,1,2.68308,-4273.59,-760.037,-25297.3
2.35124e+08,45.6526,2,2.61858,-3759.17,-7749.48,-24303.1
2.35146e+08,18.4025,2,2.85084,2247.8,-1598.58,-26069.3
2.35236e+08,283.835,0,2.79364,-26068.3,18769.2,-9590.3
2.3543e+08,30.4594,0,2.84719,4267.74,-1066.95,-24106.2
2.35606e+08,54.4161,2,2.66228,-7681.8,1349.49,-20363.9
2.36357e+08,17.1322,0,2.51627,2222.48,2707.95,-27635.2
2.36764e+08,59.9365,1,2.66561,6640.25,8497.38,-22130
2.37582e+08,60.7646,2,2.74032,5489.22,-4054.36,-18017.4
2.37939e+08,154.209,1,2.78997,-12841.2,10081.8,-749.507
2.37949e+08,82.1265,1,2.83872,-4109.83,16494.7,-25236
2.38058e+08,16.3556,2,2.9203,545.673,1554.64,-25832.6
2.38152e+08,35.7359,0,2.77488,4592.97,-1490.88,-22973
2.38177e+08,19.4839,2,2.57123,2432.91,2449.8,-26669.7
2.38691e+08,17.958,1,3.0376,-907.938,2093.71,-25772.2
2.38802e+08,1.45748,2,2.57068,-356.801,49.2541,-28880.7
2.38881e+08,5.8844,0,2.67334,1141.82,719.996,-28742.7
2.39559e+08,119.558,0,2.44346,825.788,20954.1,-14655
2.40303e+08,40.1351,0,3.04382,8463.8,503.155,-28094.9
2.40461e+08,6.01439,1,2.40642,-1298.43,-170.016,-29089.5
0,6.14537,1,2.98104,0,0,0
2.40679e+08,35.8269,0,2.57427,-3980.01,3649.39,-23588.7
2.40691e+08,136.777,2,2.67873,2236.26,23961.7,-13019.9
2.40812e+08,80.205,1,2.67499,-2898.99,-14524.7,-20772.9
2.42183e+08,12.2141,0,2.65795,2394.93,-950.219,-28075.6
2.42404e+08,87.4215,2,2.87478,11635.5,-14290.2,-28824.5
2.42871e+08,111.926,0,2.86841,9336.01,13625.1,-14356.6
2.43357e+08,10.4124,2,2.68939,474.821,-2227.98,-28557.2
0,10.4989,2,3.03109,0,0,0
2.435e+08,96.2891,0,2.7552,1578.23,190.89,-28685.4
2.43751e+08,17.422,2,2.6145,-2603.05,-2708.12,-29384.7
2.43912e+08,8.82911,0,2.7031,1675.73,635.206,-28103.7
0,9.26774,2,2.41499,0,0,0
2.43952e+08,7.06149,0,2.89884,552.82,1195.18,-28027.1
2.4409e+08,141.728,0,2.66424,15258.4,-16419.3,-8980.7
2.44205e+08,68.7912,2,2.58066,3999.27,-13800.2,-26308.5
2.44514e+08,48.822,2,2.46196,-2833.14,-6678.71,-21388.6
2.44598e+08,65.3357,0,3.00849,-1544.36,4764.18,-27577.8
2.44955e+08,4.76143,1,2.95989,-749.93,427.307,-28198.5
0,4.73042,1,2.7094,0,0,0
2.4507e+08,29.921,1,2.78153,-3862.47,3276.71,-24990.7
2.45272e+08,55.5607,1,2.55447,4862.3,-7618.22,-21394.5
2.45534e+08,32.893,0,2.56794,-3157.62,4780.16,-24932.9
2.4583e+08,105.872,2,2.67558,-17653.2,11604.5,-21545.4
2.45994e+08,76.2277,1,2.86952,10256.7,-5335.01,-17832
2.46023e+08,37.2884,0,2.60776,2415.39,3468.5,-22162.5
2.46072e+08,57.0396,1,2.94572,-4308.68,9846.27,-23395.9
2.46223e+08,15.1972,0,2.47485,1268.28,2575.89,-27296.7
2.46333e+08,60.2201,0,2.86692,-5708.11,-10418.8,-24525
2.47089e+08,123.079,2,3.02501,-24413.5,3660.76,-21196.2
2.47434e+08,74.4225,2,2.39493,5265.42,-8399.62,-16571.9
2.47439e+08,71.7005,1,2.92181,-11009.9,5285.49,-19918.9
2.47586e+08,19.7486,2,2.57281,-4083.28,-826.896,-28045.5
2.47828e+08,42.5514,1,2.39717,7594.54,4789.08,-29755.9
2.48047e+08,27.6255,0,2.6149,4207.26,-224.471,-24710.2
2.48122e+08,168.893,0,2.69218,5984.81,11108.9,4070.97
2.48175e+08,155.948,0,2.72848,7871.21,-13189,234.608
2.48323e+08,39.5699,1,2.83258,-4939.28,-6681.02,-29055
2.48494e+08,13.7707,1,2.36318,398.143,-2830.24,-28665.1
2.48536e+08,148.359,0,2.78478,12068.9,2396.4,-94.7521
2.48636e+08,0.838236,2,2.60311,77.0815,-182.492,-28734.1
2.49257e+08,15.3989,2,3.03448,1640.2,-2092.44,-26960
2.49281e+08,233.141,1,2.58493,-8938.44,-28702.2,10126.4
2.49665e+08,33.3071,0,2.76949,953.15,-6928.04,-28136.2
