#class tools::wcsv::ntuple
#title time
#separator 44
#vector_separator 59
#column double eventID
#column double t(ns)
#column double copynumber
#column double energy(eV)
#column double x(mm)
#column double y(mm)
#column double z(mm)
2496,69.1888,2,2.60359,10171.1,-6843.11,-20881.4
210627,60.166,2,3.02974,-3342.65,-9790.15,-21504.3
227869,41.798,1,2.42577,-1998,-1899.19,-20443.5
270265,74.4238,2,2.79952,-2073.25,-11029.9,-17947.8
314048,41.669,0,2.6626,6482.35,-1620.5,-23251
332580,10.0023,0,2.43046,2049.45,-787.389,-29189.7
511525,164.743,0,2.67563,11067.5,21714.8,-3953.7
661999,146.005,0,2.67305,19696.8,-19500.3,-15375.6
699312,44.446,1,2.44922,121.337,5397.72,-21093.2
728627,23.9598,2,2.42021,-771.729,-3401.76,-25093.3
829448,65.7166,0,2.55995,12980.7,-4178.71,-27389.2
892263,11.5981,1,2.45132,1258.74,1912.43,-27807.5
988939,230.782,1,2.5781,-23957,-10527.7,12285.4
1.04792e+06,29.3789,0,2.42216,-1607,-5802.3,-27366.3
1.16933e+06,149.564,2,3.02289,-9207.16,9256.53,-7007.35
1.20206e+06,226.415,2,2.99644,-15856.3,918.769,15890
1.37699e+06,9.46614,0,2.95184,1538.72,-1201.8,-29576.6
1.43944e+06,125.758,1,2.82672,-25349,7709.61,-27649.2
1.44566e+06,21.9301,2,3.008,-616.214,-3104.99,-25405.1
1.60142e+06,27.797,1,2.9362,4111.71,-5.68949,-24659.3
1.62292e+06,203.215,1,2.45537,11183.1,-9603.12,8622.92
1.66946e+06,54.7786,2,2.36403,-8439.84,-304.442,-20835.1
1.83253e+06,35.2433,1,2.98079,661.448,-6294.17,-25155.2
1.98923e+06,10.4361,1,2.37175,1154.15,1657.54,-27996.3
2.03351e+06,110.193,2,2.89789,-7872.33,-10137.2,-9487.67
2.0382e+06,35.3955,2,2.80082,-2534.16,-2663.62,-22297.7
2.05025e+06,2.74475,1,2.88883,-93.1307,594.013,-28463.9
2.12374e+06,21.4896,0,2.41484,3351.42,-712.544,-25707.1
2.20959e+06,4.27779,2,2.91982,279.439,82.1215,-28039.8
2.3478e+06,5.62829,2,2.4261,-1260.43,284.23,-28783
2.3768e+06,84.9013,1,2.7952,-2628.41,-17087.9,-25084.5
2.39425e+06,87.3232,2,2.84737,-12752.7,-8426.84,-18666.6
2.47932e+06,68.2289,0,2.44319,11898.9,7404.54,-25012
2.50605e+06,87.3181,0,2.69698,3140.52,-5658.48,-11624.8
2.61623e+06,27.2104,2,2.4557,-1812.83,-5625.42,-27537.1
0,27.3168,2,2.69706,0,0,0
2.76044e+06,53.6335,1,2.78772,5307.8,9842.15,-26628.4
2.78784e+06,15.555,0,2.58443,164.467,-3288.19,-28405.9
2.85366e+06,52.8789,1,2.89883,6219.03,4566.96,-29448.2
2.90938e+06,121.389,1,2.60111,-3942.68,-7451.08,-14457.3
3.04154e+06,17.5151,0,2.56954,3234.51,-420.821,-28403.8
3.10075e+06,146.543,1,2.5932,-23004.6,15369.3,-14751.7
3.2736e+06,7.19477,1,2.6562,-311.543,1583.98,-29034.1
3.57392e+06,119.307,1,3.0582,11560.8,-21807.9,-25538.6
3.87085e+06,30.2118,1,2.67159,265.256,3152.82,-23278.1
3.89841e+06,162.506,0,2.73572,17949.9,-17737.6,-5646.77
4.09697e+06,143.202,0,2.66362,10896.4,-12299.6,-15092.5
4.09823e+06,93.0883,2,2.96895,5186.51,-9442.25,-12567.1
4.11377e+06,170.028,0,2.95519,10179.8,-5066.82,-18187.9
4.15753e+06,120.712,1,2.69556,9016.67,14512.8,-9925.33
4.18938e+06,30.4147,1,2.59828,-3648.53,4308.45,-25499.9
4.23659e+06,117.429,1,2.52637,-8447.42,21871.5,-20293.1
4.24578e+06,4.41587,0,2.60327,836.916,512.659,-29507.2
4.29195e+06,30.0758,1,2.70316,-36.2684,2580.15,-22973.4
4.34594e+06,26.6894,1,2.97542,1615.44,5317.66,-27451.6
4.36609e+06,94.3702,2,2.45584,-9375.54,15894.3,-21359.5
4.40877e+06,45.7078,2,2.95828,9005.64,2417.02,-26984.4
4.47693e+06,226.054,2,2.55764,-18417.8,-8107.58,-1223.8
4.48233e+06,0.885646,2,2.48933,-241.109,-11.5224,-28788.8
0,0.891156,2,2.45705,0,0,0
4.66191e+06,65.1178,2,2.8366,-2724.44,-8076.66,-18086
4.67531e+06,160.765,0,2.78674,-24727.2,-14529.3,-16825
5.0289e+06,89.7706,2,2.88623,-18541.6,1837.86,-26188
5.15368e+06,95.8622,1,2.79113,15541.9,1924.37,-16180.3
5.16376e+06,33.007,0,2.65674,-3016.67,3868.49,-24043.2
5.81083e+06,46.8799,1,2.41595,-4248.26,-1776.46,-20059.1
5.9881e+06,242.8,2,2.81629,26968.2,25338,-4450.84
6.14233e+06,59.0558,0,2.53468,895.902,10780.2,-24274.2
6.16193e+06,7.86974,0,2.74815,1240.69,-83.7921,-27699
6.24443e+06,36.0856,0,2.99425,-2297.55,-4621.46,-23371.3
6.30816e+06,182.013,2,2.72316,3102.87,-23085,1680.28
6.36513e+06,14.7597,2,2.73547,-1400.03,-582.25,-26062.3
6.36594e+06,94.6532,0,3.00758,-18502.8,875.259,-25898.8
6.55776e+06,133.077,0,2.78476,25815.9,1925.27,-17971.1
6.79139e+06,97.5788,0,2.55496,-19237.3,3574.26,-22630.6
6.87591e+06,27.6176,0,2.48831,4543.84,3741.01,-28486.6
7.05209e+06,12.6172,0,2.49089,-394.672,930.648,-26415
7.05240e+06,76.5999,1,2.48901,-8649.54,-3986.1,-15784.8
7.12003e+06,60.9169,2,2.65558,-9709.11,-3983.4,-21305
7.33301e+06,210.125,1,2.42785,8066,21876.6,9013.26
7.42082e+06,133.06,2,2.7425,-20041.4,-17805.6,-20312.6
7.4406e+06,97.2365,1,2.58833,4754.2,-8058.37,-17849.8
7.46474e+06,12.9467,1,2.40923,-2715.24,579.643,-28291.7
7.67813e+06,46.6592,1,3.02089,428.753,6111.13,-21171.3
7.80624e+06,99.1716,2,2.59646,-20474.6,-4542.31,-28473.2
7.83018e+06,10.9756,2,2.83093,537.431,-2215.79,-28263.6
7.92322e+06,69.1366,1,2.93151,-6518.86,1446.1,-15895
7.94943e+06,81.0692,0,2.36435,13539,10213.7,-25588
7.98174e+06,78.4393,1,2.99014,1820.04,9818.02,-18527.9
8.0384e+06,28.4438,0,3.00075,5086.08,-3374.19,-28880.1
8.06481e+06,66.0937,1,2.65758,-13017.9,4797.99,-27418
8.11069e+06,6.68519,2,2.8322,-75.5496,-1416.74,-29395
8.11869e+06,21.6049,1,2.61506,-1293.23,4394.32,-27887.4
8.24872e+06,99.4265,2,2.43285,9008.93,-5069.03,-10587.8
8.45291e+06,33.6514,2,2.4727,-4518.3,-3590.71,-24663.2
8.46175e+06,157.648,0,2.71391,-10156.4,14899.4,-1050.04
8.51538e+06,35.7135,1,2.50221,-1997.68,-3237.77,-22794.5
8.54424e+06,123.387,1,2.48022,7742.8,25027.5,-28782.3
8.5535e+06,12.8236,2,2.93449,-2743.85,207.624,-28784.5
8.66069e+06,85.2414,2,2.67789,12611.1,11169.2,-22820.5
8.74064e+06,92.6385,2,2.77889,-5282.27,7973.07,-11869.9
8.77609e+06,143.134,1,2.56345,16940.7,23984.3,-21835.4
8.80042e+06,15.4042,2,2.99983,-748.685,-309.654,-25710.5
8.86178e+06,133.757,0,2.44783,527.249,-8621.59,-1854.84
9.0011e+06,17.7077,1,2.85073,-945.303,-551.942,-25575.5
9.19306e+06,51.0858,0,2.6625,10657.5,-862.986,-26693.5
9.19396e+06,40.7155,1,2.94203,7506.22,3610.91,-26952.2
9.48485e+06,17.0585,1,2.74841,-1770.39,1577.16,-26184.2
9.49972e+06,34.24,0,2.80187,1155.32,2023.45,-22040.6
9.60108e+06,23.7448,2,2.75977,-579.168,-4946.26,-29859.2
9.61377e+06,14.1355,1,2.85342,-2550.38,1303.27,-27906.9
9.63459e+06,9.70618,2,2.51939,-861.171,-1855.55,-28128.1
9.9556e+06,73.2005,0,2.87576,14136.8,2102.23,-22938.6
1.00871e+07,64.543,0,2.92939,13394.3,2558.19,-28790.4
1.01097e+07,189.601,0,2.90845,13536.5,-5735.39,7962.6
1.01742e+07,70.2496,0,2.75637,4214.08,5950.59,-15962.9
1.01922e+07,6.31281,1,2.43338,999.51,-303.758,-27898.4
0,6.01167,0,2.40854,0,0,0
1.03028e+07,88.8054,1,2.95982,-4214.78,-17950.6,-26235.7
1.0335e+07,47.1385,2,2.43358,-7783.25,-6005.52,-28125.1
1.03467e+07,169.342,0,2.458,13122.8,3322.13,-16229.4
1.04042e+07,193.603,0,2.8625,12342.8,5249.97,9544.52
1.06567e+07,57.1167,2,2.82445,-5125.66,-6842.39,-20327.1
1.06647e+07,18.1952,0,2.85349,479.027,3397.44,-27701.9
1.0724e+07,242.692,2,2.54044,18550.6,26889.1,-22181.3
1.0809e+07,4.68312,1,2.89721,-645.877,543.547,-29508.8
1.08094e+07,140.91,1,2.9639,-8624.6,-19656.2,-29836.8
1.08141e+07,133.209,0,2.47857,21748.2,17346.6,-23983.1
1.1014e+07,21.22,2,2.42988,-556.988,-1696.69,-24703.7
1.12951e+07,77.4997,1,2.47396,-10029.4,-10204.7,-21048.6
1.13539e+07,30.3121,1,3.01452,1637.47,3620.55,-23849.7
1.13687e+07,57.7028,2,2.84539,-2776.53,-5614.98,-18438.4
1.14203e+07,74.3094,1,2.5949,62.4833,-7396.35,-15048.4
1.14443e+07,96.7754,1,2.5597,-2847.06,20048.7,-25540.7
1.15306e+07,16.5392,2,2.47923,-2379.02,-21.8242,-26135.3
1.16386e+07,151.551,1,2.74468,-23191.6,2137.78,-7012.14
1.18389e+07,128.212,0,2.68556,23885.6,-5465.18,-17421.4
1.22943e+07,58.6593,2,2.49052,-1466.96,-7165.43,-18798.7
1.2314e+07,33.8279,1,2.85847,1348.98,-5040.17,-24085.1
1.24284e+07,213.862,2,2.51439,4500.57,-3572.27,-24867.7
1.25607e+07,115.938,0,2.65749,-6879.32,-11685.5,-8540.28
1.26442e+07,29.6217,1,2.7308,-1728.68,2361.84,-23361.5
1.28523e+07,111.83,0,2.45981,17877,5687.37,-14478.2
1.28756e+07,119.954,0,2.60866,18664,11690.2,-15968.7
1.29748e+07,15.3905,0,2.39248,2768.26,-1549.67,-29850.5
1.30026e+07,86.9706,1,2.70807,-3205.91,12950.1,-16205.9
1.31282e+07,124.259,2,2.38733,-5581.7,-14822.5,-7934.33
1.32872e+07,23.5346,2,2.82957,-1073.89,1954.63,-24403.4
1.36805e+07,24.2416,0,2.68829,3135.25,3679.17,-27047.4
1.39714e+07,147.947,2,2.76336,-19483.7,3760.96,-9018.97
1.40829e+07,15.9986,1,2.81159,1684.6,2897.17,-28577.8
1.41196e+07,5.65836,0,2.91997,379.622,-1140.28,-28603.9
1.41431e+07,69.1641,0,2.54936,10594.8,-10174.2,-28139.9
1.42424e+07,32.4141,1,2.44589,-1156.81,5785.82,-25220.3
1.43485e+07,34.5081,2,2.73152,6555.13,1106.67,-26079.1
1.4364e+07,60.0907,1,2.57542,-1075.2,6749.27,-18280.7
1.439e+07,20.1519,0,2.83864,2873.82,2949.06,-28048.3
1.45037e+07,115.412,2,2.58164,-5866.12,11778.7,-8275.05
1.46095e+07,100.399,1,2.51344,16433.9,3658.62,-15982.3
1.46562e+07,20.4936,1,2.65933,2052.44,2679.47,-26122.7
0,20.4624,1,2.47169,0,0,0
1.47342e+07,56.3333,0,2.61549,-9086.66,449.725,-21248.4
1.47775e+07,136.953,1,3.05057,11057.7,-4254.7,-2766.94
1.48168e+07,66.1623,2,2.64655,-4769.29,-5434.75,-16952.5
1.48384e+07,73.4721,1,2.90146,-720.279,3679.07,-14535.6
1.48743e+07,83.2802,2,2.87999,-7253.94,-14618.3,-22618.1
1.49827e+07,93.7167,1,2.61469,15401.2,9830.34,-21241.5
1.49975e+07,76.121,2,2.93304,-753.514,-13638.2,-20410.6
1.50892e+07,40.6516,2,2.46408,3437.3,-1850.38,-21187.2
1.51123e+07,145.935,2,2.58669,-18314.3,-24924.1,-28846.7
1.52152e+07,19.791,1,2.84622,-1832.08,364.457,-25067.9
1.52356e+07,24.5062,1,2.68485,3359.56,-3133.45,-26621.3
1.53294e+07,95.3113,2,2.81069,4998.32,-12861.4,-14240.3
1.53632e+07,9.56747,0,2.84675,-115.723,1029.59,-27068.9
1.54373e+07,75.7292,2,3.05524,3969.68,-15436.6,-28309.3
1.54391e+07,39.8086,2,2.67313,-2241.66,-6046.35,-23239.2
1.55009e+07,6.70143,2,2.71431,-1261.01,-273.414,-28149.1
1.56555e+07,74.989,0,3.01313,2148.22,-10638.1,-17607.4
1.56964e+07,32.4146,1,3.0225,-4539.44,-4800.53,-27306.7
1.58068e+07,9.0364,2,2.41195,-1550.99,-750.178,-27709.5
1.5905e+07,69.9515,1,3.00065,3189.33,11306.7,-19930.6
1.59324e+07,200.047,2,3.00812,16487.3,14629.5,5364.26
1.61551e+07,8.34096,0,2.6198,1652.52,220.45,-28217
1.63425e+07,71.088,1,2.53873,-13445.7,4645.22,-23582.2
1.65108e+07,93.3939,0,2.56079,-6079.07,6419.11,-11211.7
1.65742e+07,55.4814,0,3.05584,8933.57,-5710.39,-24751.8
1.66042e+07,50.1954,1,2.81462,-8480.66,2879.24,-23327.3
1.66322e+07,10.2925,1,2.63015,1081.65,1249.41,-27397.8
0,10.4881,1,2.9135,0,0,0
1.67483e+07,61.0015,1,2.65612,-11281.4,3406.97,-23440.5
1.67606e+07,43.1948,0,2.83582,-470.774,-6309.04,-22266.2
1.68601e+07,160.458,1,2.96875,16665.6,28934.4,-25099.9
1.69192e+07,51.8298,2,2.97453,683.99,-4516.88,-18966.9
1.71392e+07,90.6402,2,2.43802,6495.77,-18017.6,-27681.8
1.72642e+07,9.22773,2,2.63215,951.303,-1715.87,-28036.9
1.73991e+07,6.28419,2,2.71428,-349.853,196.549,-27497.8
1.74039e+07,144.53,1,2.51461,4581.48,-10380.4,-16287.9
1.75766e+07,128.501,1,2.77825,-14095.3,3718.32,-6004.01
1.76133e+07,86.9913,2,2.63804,15178.6,-8793.58,-23457
1.76438e+07,108.589,2,2.96389,-14117.6,-13696.5,-17140.1
1.78331e+07,30.327,0,3.00957,3782.44,-4303.04,-28214.3
1.80038e+07,22.6034,0,2.45835,-2192.2,-414.107,-24643.8
1.80594e+07,187.252,2,2.9277,-24793.8,-27710.3,-15986.1
1.80683e+07,14.2112,0,2.96994,-1757.08,1270.98,-26860.5
1.80936e+07,16.3336,2,2.66045,355.481,-1654.81,-25743.7
1.81174e+07,8.77692,1,2.56189,-1800.07,-437.226,-28222.8
1.81701e+07,66.8209,1,2.52868,733.422,11154.7,-20246.1
1.81906e+07,46.5049,1,2.80811,564.012,6539.54,-21638.7
1.82727e+07,60.6376,1,2.4517,761.841,12034.2,-26702.1
1.82772e+07,161.568,0,2.77269,22715.8,-17347.2,-10398.5
1.8512e+07,57.4863,2,2.50481,-4940.58,-8115.08,-21289.6
1.86773e+07,34.9203,0,3.02372,6366.74,537.526,-24977.8
1.86791e+07,139.887,0,2.92698,-5538,-15850.4,-4755.41
1.88549e+07,25.5553,1,2.64162,4523.11,2898.05,-28339.3
1.89186e+07,255.776,2,2.9424,8340.68,-2680.79,-16723.3
1.90333e+07,195.986,2,2.63341,13805.9,-19100.5,2989.34
1.9222e+07,74.4237,1,2.96925,-5848.45,8465.85,-17029.3
1.93586e+07,89.2106,0,2.92886,18386.3,3982.36,-28900.7
1.93653e+07,74.2216,1,2.51791,-4867.5,9765.98,-17697.8
1.9371e+07,2.91245,1,2.47546,-167.183,61.5447,-28298.2
0,2.93825,1,2.49182,0,0,0
1.94093e+07,148.739,2,3.01895,-17832.8,-24662.7,-21656
1.95491e+07,41.2385,2,2.40447,-8606.21,-1636.04,-28920.1
2.00132e+07,44.958,2,2.73403,-2913.5,3134.94,-20383.9
2.00174e+07,31.9431,2,2.65454,1503.49,-5632.57,-25356.6
2.0023e+07,115.176,2,2.86616,3692.19,14510.3,-9888.93
2.01223e+07,1.7705,2,3.0018,171.008,-285.493,-28975.6
2.03784e+07,21.1871,1,2.78874,-1141.44,2606.77,-25356.3
2.04184e+07,25.6373,1,2.60325,-3733.66,-3770.12,-27837.8
2.04516e+07,19.5541,0,2.51319,1476.53,-2057.83,-25420.3
2.04552e+07,16.3876,2,2.99036,396.408,1482.27,-25807.4
0,16.3369,2,2.51807,0,0,0
2.06431e+07,26.3465,0,2.74236,4374.05,1189.57,-25490.3
0,26.6601,1,2.53492,0,0,0
2.06602e+07,19.595,1,3.02599,-863.491,1985.82,-25288.1
2.07005e+07,60.1481,0,2.73962,3693.3,1542.45,-16856.6
2.08594e+07,56.9425,0,2.79281,-2078.92,9955.23,-22509.1
2.08769e+07,11.2979,0,2.97649,-259.876,1594.43,-27270.6
2.10678e+07,23.3982,0,3.02929,4632.31,-573.003,-27260
2.12175e+07,86.6613,0,2.45402,-2400.77,-16940.2,-22283.9
2.13098e+07,86.1356,1,2.72618,9544.37,8636.18,-16043.1
2.14378e+07,31.6395,0,2.61524,834.471,6627.32,-28833.6
2.14938e+07,41.4244,1,2.80526,-1352.11,2663.91,-20732.7
2.1564e+07,73.2617,1,2.45477,6464.15,9280.88,-18228.9
2.16515e+07,41.5726,2,2.79357,2975.76,-6856.24,-24475.3
2.19502e+07,56.8767,0,2.36728,-6489.18,-3057.9,-19238.3
2.19565e+07,11.2971,2,2.45223,1630.03,-1816.26,-28603.7
2.20519e+07,40.6892,0,2.95534,6382.92,676.843,-23100.7
2.20818e+07,72.2336,2,2.66829,-601.426,-11406.2,-18732.9
2.21769e+07,199.398,0,2.50528,7589.61,-19889.4,7484.31
2.23975e+07,138.275,1,2.41889,-19735.5,-5460.36,-7979.53
2.24535e+07,62.0451,2,2.5901,-543.516,-6662.47,-19471.4
2.25171e+07,193.657,0,2.68484,9311.83,22772.4,3694.28
2.27643e+07,80.6549,1,2.73688,-2491.69,8494.82,-14273.5
2.31797e+07,119.109,0,2.90492,-6149.08,11255.6,-7594.78
2.31812e+07,32.1959,0,2.45498,5969.75,881.601,-25573.1
2.32718e+07,74.1183,1,2.80759,345.649,-15180.3,-25506.7
2.3351e+07,161.144,1,2.82554,17273.6,18891.4,-10454
2.33811e+07,147.075,0,2.80018,-15596.9,-12335.7,-5220.49
2.3409e+07,82.9821,0,2.88096,-13396,-9292.11,-22820.7
2.35007e+07,169.305,2,2.41532,-5621.01,16679.5,2251.73
2.35308e+07,98.7518,0,2.97786,15001,-2005.17,-14935.2
2.36236e+07,18.1422,2,2.92776,-3343.65,1287.29,-27444.2
2.36814e+07,12.0182,0,3.03522,1319.12,1942.86,-27870.1
2.38621e+07,17.4138,1,2.36406,493.474,3164.39,-27013.9
2.38897e+07,156.463,2,2.39118,14498.6,-27695.6,-17811.9
2.39628e+07,27.8414,1,2.4396,-5732.37,-370.798,-27186.3
2.40662e+07,24.0611,1,2.63018,-48.81,4011.55,-25584
2.41851e+07,6.57964,2,2.74255,78.1225,-731.202,-27661.5
2.42469e+07,50.2153,2,2.40942,3622.19,-10102.3,-29610.7
2.43536e+07,31.8269,0,2.78582,1798.88,-364.801,-22359.2
2.46493e+07,30.4599,0,2.58426,1677.49,-3706.3,-23799.6
2.48090e+07,106.726,0,2.67459,-4514.77,12588.8,-10778.2
2.49215e+07,66.2963,1,2.92313,-8912.07,-2006.27,-18236
2.49336e+07,22.8265,0,2.45299,2107.06,4096.66,-27205.7
2.50193e+07,185.751,2,2.96156,-9604.67,15980.4,5167.61
2.5049e+07,47.0498,0,2.78265,2489.91,-6806.38,-22063.4
2.51156e+07,9.43506,2,2.67245,-791.235,-1649.42,-27851.8
2.51855e+07,271.696,1,2.76127,22451.8,-4212.29,23611.8
2.52106e+07,49.0344,0,2.56703,3612.38,8511.78,-25326
2.52173e+07,5.9395,2,2.46501,-201.352,-502.548,-27665.9
2.54441e+07,5.7971,0,2.74652,1068.28,-87.1585,-28153.5
2.54466e+07,3.2026,0,2.7204,304.211,-563.634,-28627
2.55467e+07,10.5675,1,2.97491,-815.438,-2071.42,-29048.6
2.59126e+07,33.502,0,2.97704,5856.07,-2911.72,-26015.9
2.59912e+07,32.2645,1,2.69864,3177.48,-1753.49,-23345.4
2.60658e+07,129.912,2,2.68991,-14745.1,22473.8,-24064.1
2.60866e+07,24.8895,2,2.83481,-1341.46,-3671.85,-25392.4
0,24.9191,2,2.83384,0,0,0
2.62272e+07,257.488,2,2.72326,26251.5,17901.5,14940.3
2.62735e+07,161.251,2,2.39696,-25594.9,-19510.2,-16994.7
2.63417e+07,49.3774,2,2.48774,-4971.1,-8269.44,-24694.6
2.64072e+07,201.324,1,2.70745,8371.46,-16018.6,9539.76
2.64191e+07,41.693,0,2.58981,-2181.97,7607.37,-25131.4
2.65104e+07,52.9742,0,2.46494,-5923.59,-8197.19,-24085.5
2.65657e+07,169.595,1,2.55065,9660.62,19930.7,-18974.4
2.67153e+07,46.7871,0,2.66095,-5743.82,-27.6697,-20911.9
2.69049e+07,22.2321,2,2.42009,2309.71,-4180.79,-27842.8
2.71994e+07,86.7379,0,2.97273,13900.4,197.138,-17045.2
2.72991e+07,17.9574,0,2.36231,3267.13,1904.73,-28034.1
2.73065e+07,115.751,0,2.91863,14188.2,-10459.3,-12100.7
2.73686e+07,67.7323,1,2.7433,10051.5,4448.17,-19748.9
2.75646e+07,130.1,1,2.56152,-27418.6,1001.51,-28518.9
2.75755e+07,141.047,2,2.53802,-8821.83,-28171.2,-25136.5
2.7677e+07,70.4158,0,2.55726,-4596.32,4314.71,-15441.1
2.76879e+07,2.93534,0,2.65134,-188.842,570.012,-28715.9
2.77951e+07,1.85438,2,2.85473,-433.234,-52.8313,-28989.8
0,1.84717,2,2.82397,0,0,0
2.7972e+07,357.406,0,2.76053,-10033.4,10024.7,-10699.9
2.79851e+07,119.745,1,2.84591,-2137.69,-12769.1,-11214.7
2.81373e+07,110.614,0,2.77992,3757.29,-5665.71,-12516
2.82751e+07,28.6472,0,2.4211,1363.3,-5882.28,-28644.2
2.828e+07,29.8793,1,2.7361,561.978,-31.2801,-28190.8
2.82824e+07,58.1712,0,2.4283,4317.46,-2682.43,-17573.3
2.83405e+07,54.5735,1,2.84963,-2450.21,11224.5,-27559.1
2.84005e+07,148.227,0,2.71055,10101,-18437.9,-5738.73
2.84032e+07,134.527,2,2.85616,2309.05,21.2047,-29274.1
2.84369e+07,75.9382,0,2.90465,8515.34,7300.11,-17474.7
2.8446e+07,61.0072,0,2.76108,11067.3,-3505.07,-23533.3
2.84668e+07,16.5254,1,2.77699,-1873.69,-2564.44,-27400.5
2.87859e+07,115.612,1,3.03709,-4829.92,3637.76,-5350.25
2.88394e+07,12.8774,1,2.99454,542.253,1605.82,-26651.7
2.88702e+07,250.548,0,2.74083,13289.5,-3512.98,18980
2.90937e+07,86.8012,0,2.6496,16269.4,-5438.71,-22194.3
2.92742e+07,113.326,1,2.95103,8112.82,22284.7,-26250
2.93541e+07,48.6707,2,2.69398,4243.12,-9089.81,-26459.5
2.93655e+07,82.064,0,2.39056,11558.1,-6111.34,-17461.8
2.93672e+07,1.54168,0,3.7345,-271.331,149.413,-28660.7
0,1.54322,0,3.89304,0,0,0
0,1.53273,0,3.76671,0,0,0
0,1.63657,0,3.17051,0,0,0
0,1.53646,0,2.22925,0,0,0
0,1.5422,0,4.0627,0,0,0
0,1.57506,0,3.03091,0,0,0
2.93873e+07,181.219,1,2.81099,-5844.47,3353.19,8654.25
2.93874e+07,59.4876,2,2.72895,2983.71,8044.27,-19846
2.9413e+07,34.9446,0,2.99586,4088.91,-3952.83,-24293.9
2.94742e+07,30.0494,1,2.76455,-2604.86,3125.97,-23973.2
2.95385e+07,116.533,2,2.79546,20727.8,12326.5,-24872.5
2.95977e+07,31.1489,1,2.54963,6317.18,-609.747,-27330.3
2.96033e+07,163.979,2,2.51595,16329.3,-3471.76,1465.35
2.96307e+07,31.2915,2,2.54192,4919.18,-3849.18,-26608.7
2.96799e+07,104.524,1,3.05943,-14699.8,-1864.63,-12863.9
2.97158e+07,208.286,1,2.88832,-9594.9,-18261.5,9697.47
2.97181e+07,47.4883,0,2.62238,3701.45,-8139.49,-24092.7
2.9769e+07,81.312,1,2.73581,-9260.32,12741.1,-21948.5
