#class tools::wcsv::ntuple
#title time
#separator 44
#vector_separator 59
#column double eventID
#column double t(ns)
#column double copynumber
#column double energy(eV)
#column double x(mm)
#column double y(mm)
#column double z(mm)
23080,23.5021,1,2.548,1641.9,-1313.96,-24375.5
405852,63.8482,1,2.57259,-7109.09,10745.3,-27147.4
415350,90.4723,2,3.05663,-3334.62,-1351.31,-23810.7
528929,37.8578,1,2.97606,2109.42,2776.27,-21712.8
553750,109.076,2,2.69456,18714.6,11082.9,-21512.1
554930,46.5692,0,2.38964,3708.04,-2917.52,-21091
992269,18.1062,0,2.53121,719.377,-3623.96,-29791.5
1.03445e+06,40.758,2,2.68419,-5606.97,6182.19,-26708.3
1.05034e+06,6.07375,1,2.96467,-838.607,-506.303,-28020
1.54081e+06,115.363,0,2.83482,-6987.25,-11890.6,-8777.57
1.75143e+06,59.797,1,2.47533,-11336.6,4426.8,-25387.6
1.75854e+06,47.5358,1,2.50705,647.867,6481.85,-21065
1.82266e+06,11.0168,0,2.51463,-653.072,1477.13,-27129.7
1.828e+06,106.977,1,2.83801,19074.6,-1721.29,-23021.4
2.25596e+06,69.3593,2,2.82006,-5409.15,-13118,-25024.6
2.40848e+06,1.83519,0,2.60843,64.5863,410.777,-28836.1
2.44485e+06,23.8217,2,2.44786,-1184.75,1982.48,-24314.7
2.46315e+06,46.7506,2,3.05758,-8619.07,2260.82,-24589.3
2.49401e+06,148.659,0,2.57113,28035.7,13953.2,-25284.3
2.50549e+06,41.5627,2,2.43117,6927.86,-4214.45,-25361.7
2.98058e+06,20.3607,1,3.05524,-2677.48,-621.922,-25694.8
3.10094e+06,90.3657,2,3.00327,17052,6799.95,-24374.6
3.4571e+06,123.235,0,2.82932,17521.8,5659.41,-10535.7
3.58055e+06,34.9091,0,2.76205,-1200.25,-7035.96,-27565
3.58908e+06,66.8612,1,2.44745,-8165.19,11506.1,-26773.5
3.63108e+06,144.035,1,2.46047,-20100.1,8613.3,-8158.23
3.71508e+06,16.7995,0,2.50387,431.139,-2560.58,-26570.8
0,16.4985,2,2.41701,0,0,0
3.87228e+06,30.5716,2,2.93395,-5028.15,-2884.16,-25900.7
3.87907e+06,198.104,0,2.63733,-27639,-7029.97,-15501.1
3.97223e+06,84.4195,2,2.41476,-17370.4,59.6063,-24446.1
4.06425e+06,41.2186,0,2.4115,1192.15,-8655.56,-28403.3
4.06427e+06,88.1118,0,2.75708,6184.2,14917.4,-25278.3
4.15899e+06,147.654,2,2.94833,-16760.9,-26207.3,-28571.3
4.17589e+06,12.1464,2,2.48482,-620.624,1433.54,-26795.7
4.24003e+06,200.962,1,2.68214,-7191.41,28449.5,1888.97
4.31592e+06,20.7973,2,2.71158,-2137.44,2330.99,-25772.2
4.41656e+06,18.5912,2,2.63646,-552.474,-3832.3,-29854.9
4.48206e+06,188.243,2,2.79326,2699.99,-18006.8,6247.35
4.54703e+06,50.4412,0,2.64699,-192.622,-6807.19,-20657.8
4.6785e+06,16.682,2,2.64301,-1687.63,-2974.52,-27837
4.70709e+06,85.7203,0,2.5677,-9025.31,-10217.7,-17079.6
4.80918e+06,18.6711,2,2.70454,-3484.63,-1980,-29221.8
4.84289e+06,19.452,0,2.42697,-2408.88,-1316.32,-25804
4.9653e+06,47.8985,2,2.79184,-5219.22,5458.4,-22123.7
5.02093e+06,17.3642,2,2.83751,999.645,-1082.55,-25467
5.15385e+06,44.6865,0,2.66909,2215.17,9150.78,-29740.7
5.27025e+06,109.476,0,2.67352,5535.38,1350.79,-23044.3
5.49866e+06,20.2096,2,2.45856,-50.5883,2490.08,-25284.3
5.54483e+06,4.30004,1,2.63399,-226.206,272.849,-27931.4
5.70545e+06,12.5558,1,2.75732,-2450.87,290.681,-27770.9
5.76128e+06,19.4872,0,2.43481,214.699,-3919.79,-27478
5.8139e+06,196.882,1,2.37124,24897.1,-19134.9,-1515.94
5.9049e+06,5.48376,2,2.4048,28.1239,-1049.93,-29565.5
6.04949e+06,66.8894,2,2.9297,10346.2,-5198.3,-20833.6
6.05817e+06,101.477,2,2.59344,6252.31,-13560.2,-13372.8
6.10241e+06,6.01823,1,2.80808,-417.118,950.131,-27979
6.16237e+06,44.096,1,2.52875,-304.313,8757.03,-25612.6
6.71346e+06,7.93188,0,2.48091,1775.06,405.119,-28751.1
0,8.02158,0,2.43307,0,0,0
6.78395e+06,158.372,0,2.88363,17964.4,16978.6,-6509.73
6.9547e+06,62.0481,0,2.71476,3549.88,-12598.7,-28677.4
6.96144e+06,11.0554,1,2.48189,411.54,-1330,-26931.3
7.04835e+06,160.661,1,2.77066,10038.5,19690.3,-3301.75
7.04997e+06,55.8861,0,2.4871,3718.37,-6670.88,-19943.6
7.08561e+06,87.4437,2,2.97586,-6199.74,-3423.01,-27585.9
7.12095e+06,32.2237,2,3.03103,-875.26,-4354.16,-23587.9
7.16129e+06,65.5218,2,2.45905,-13236.3,-4277.05,-29367.2
7.18567e+06,106.639,0,2.5505,10210.2,11681.4,-16769
7.20036e+06,48.1412,2,2.49875,-8004.93,-4256.12,-24050.4
7.25301e+06,126.934,2,3.04127,-21468.8,275.85,-13128.3
7.51877e+06,18.6391,1,2.51285,-1639.9,-3466.46,-28212
7.53643e+06,52.1616,1,2.55049,-4476.74,10193.6,-27829
7.60523e+06,93.1498,2,2.76616,-11061.3,-9918.24,-16145.6
7.69614e+06,3.22976,0,2.76376,274.038,602.478,-28502.7
7.80355e+06,43.5004,0,3.06039,6419.37,-3114.86,-27758.6
8.06765e+06,59.9636,1,2.94928,-6674.21,10802.5,-29777.5
8.18994e+06,125.287,1,2.74624,-25321.9,-6427.69,-24752.1
8.39509e+06,102.88,0,2.53214,-2026.84,-8640.88,-24619.9
8.6599e+06,69.1934,0,2.63165,-4929.07,-9777.69,-19147.6
8.83058e+06,29.0074,2,2.78576,-6158.58,-73.1179,-28140.1
8.8817e+06,41.5562,1,2.9677,-3571.88,-214.252,-20862.4
8.88448e+06,28.5055,2,2.95079,-1675.26,-783.184,-27782.8
8.9704e+06,111.72,0,2.52741,18399.2,-14105.2,-23974.4
9.18348e+06,14.5891,2,2.75268,-1808.16,-2617.21,-29157.4
9.20999e+06,35.7599,0,2.53404,6472.39,461.76,-24781.7
9.3013e+06,37.9727,0,2.40712,-3909.23,2631.22,-22366
9.31396e+06,7.17955,0,2.83844,325.855,970.688,-27618.6
9.41932e+06,86.3466,0,2.90943,13509,-1790.08,-17329
9.4983e+06,33.0809,2,2.81129,-4672.3,194.883,-23598.4
9.66765e+06,182.056,2,2.70992,-24364.5,2063.14,876.152
9.71377e+06,188.345,1,2.75161,14657.4,-10898.5,-15609.3
9.85706e+06,44.3626,2,2.58258,-1935.26,-8139.1,-24781.8
9.95375e+06,79.9636,2,2.5474,4535.33,-13771.3,-20012.8
9.97887e+06,142.428,1,2.50238,12750.6,25618.3,-19325.1
1.01396e+07,90.44,0,2.56655,9530.61,3208.02,-12557
1.02041e+07,27.3531,2,2.52668,3371.87,-2554.53,-24886.7
1.02928e+07,61.0554,0,2.90504,2758.72,-8092.46,-19192.3
1.05025e+07,41.7716,2,2.72596,-3746.92,-7615.01,-29771.3
1.05896e+07,147.676,2,2.42496,-9712.76,26187.7,-15081
1.07344e+07,29.3354,2,2.94983,5034.09,-2438.76,-29389.1
1.08818e+07,35.3369,1,2.68541,5940.93,-1117.94,-24521.7
1.08953e+07,44.0298,1,2.57066,-5221.05,560.871,-21100.1
1.09378e+07,140.037,1,2.80835,12030.7,9537.47,-3748.38
1.10424e+07,39.8243,0,2.55714,5154.57,-542.319,-22132.6
1.10929e+07,21.8571,1,2.39537,250.543,4640.92,-27941
1.10975e+07,5.63391,2,2.46277,-796.746,-255.248,-27894.4
1.11198e+07,22.2693,0,2.50779,4772.28,-291.001,-28545.2
1.11413e+07,146.426,1,2.81667,-14148.8,-16988.1,-7482.12
1.14221e+07,166.866,1,2.74934,14813.7,24752.5,-10482
1.14805e+07,125.184,0,2.59573,18627.3,18903.8,-29721.5
1.16004e+07,3.93581,0,2.59479,519.102,798.192,-28806.3
1.16295e+07,144.71,0,2.80079,-23235.9,441.43,-9223.25
1.18739e+07,14.8557,2,2.39056,-2817.52,628.71,-27484.2
1.18836e+07,164.674,0,2.96567,4017.88,21625.6,-2219.17
1.19055e+07,31.8271,2,2.72643,5427.38,218.022,-24829
1.19426e+07,71.0077,1,2.74795,-9595.65,6046.45,-18860.8
1.2219e+07,5.77152,0,2.60906,817.254,247.45,-27883.4
0,5.78441,0,2.84661,0,0,0
0,5.81192,0,2.6801,0,0,0
1.23744e+07,141.243,1,2.65606,-10851.7,21231.8,-10856
1.23779e+07,103.837,1,2.60537,16242.7,12780.4,-21358.7
1.24206e+07,9.7332,2,2.45227,-643.124,439.425,-26952.3
1.2433e+07,12.8254,1,2.97038,-559.187,1162.68,-26382.2
1.2525e+07,45.9498,0,2.49122,-5879.45,1156.81,-21222.2
1.25703e+07,76.3461,0,2.81241,14652.7,-2025.6,-24607.4
1.26351e+07,292.073,0,2.58274,-19337.9,-26999.8,-1016.66
1.28179e+07,3.28346,0,2.7326,143.52,293.056,-28186.1
1.28224e+07,122.695,0,2.79117,-4823.51,-366.015,-27034.9
1.30427e+07,14.8226,1,2.81058,-1543.71,-1813.56,-26837.8
1.31625e+07,75.9817,1,2.54391,-13231.8,1979.04,-19850.5
1.31695e+07,83.2232,0,2.56833,-6536.3,5446.22,-13552.8
1.3438e+07,136.621,2,2.64308,-3853.22,-27864.7,-22140.7
1.3535e+07,43.9476,2,3.0056,4728.82,-7665.19,-27192.2
1.3609e+07,124.553,0,3.0134,21928.6,13999.1,-25426.3
1.36367e+07,48.0921,0,2.51654,-5708.34,1389.82,-20463.5
1.3681e+07,19.6103,1,2.40477,3432.07,2213.32,-28124.3
1.37238e+07,126.694,1,2.48714,-14883.2,13822.3,-11125.6
1.3927e+07,51.6685,0,2.77851,6344.46,8038,-25098.7
1.42324e+07,65.2491,0,2.67048,8122.31,-6916.16,-20173.2
1.43107e+07,15.7144,0,2.77929,1376.99,-1177.06,-26007.5
1.43238e+07,18.4966,0,2.68865,-1221.87,-1696.92,-25639.1
1.43485e+07,10.5989,1,3.05595,-608.71,-1072.87,-26993.3
1.43522e+07,82.7954,2,2.96285,5293.05,12702,-19568.6
1.44953e+07,27.1138,0,2.62131,-3956.28,3534.39,-27304.6
1.45004e+07,69.1968,2,2.41631,215.083,-14701.7,-28502
1.46641e+07,120.687,2,2.37589,-10201.3,-2633.64,-5482.74
1.47464e+07,24.4491,0,2.50958,1540.31,-5002.6,-27628.6
1.48028e+07,138.864,0,2.75908,18856.1,12809.6,-16851.4
1.48416e+07,138.477,1,2.75643,-1708.95,21913.3,-28924.7
1.49058e+07,144.135,0,2.693,26367.1,-13000.4,-20870.9
1.49411e+07,30.6547,2,2.39989,-3018.1,-704.838,-23161.9
1.50305e+07,123.714,0,2.56398,24406.7,8805.31,-25124.8
1.50676e+07,101.816,0,2.99352,15107.4,14872,-25460.6
1.51309e+07,104.588,1,3.04008,-20501.6,-7684.59,-27540.8
1.51333e+07,61.8401,0,2.59712,-4558.03,-11150,-23987.3
1.52351e+07,83.657,2,2.67145,-7481.54,-8836.34,-15409.2
1.53176e+07,28.5542,0,2.83928,2702.1,3273.68,-24512.6
1.53643e+07,84.7027,1,2.38075,-3650.37,17544.8,-27071.6
1.56551e+07,11.3656,2,3.0585,-572.552,2292.96,-28329.9
1.56745e+07,120.019,0,2.95116,22749.7,1003.56,-17602.9
1.56814e+07,117.548,1,2.44547,-23162.6,-2472.92,-19962.9
1.61047e+07,78.9513,1,2.86543,-13185.2,-6520.02,-21114.5
1.6217e+07,134.787,0,2.62288,24716.8,4804.53,-15428.8
1.64328e+07,77.0271,2,2.75875,7514.28,-9484.28,-18017.2
1.64663e+07,54.4122,1,2.74527,5566.34,9512.42,-25244.6
1.65501e+07,30.212,1,2.59529,-5955.21,-316.104,-26411.5
1.66289e+07,87.9058,0,2.61961,6770.61,8166.08,-13520.6
1.67158e+07,145.939,2,2.38394,-20173.8,-23161.8,-24851.5
1.68166e+07,102.653,1,2.37735,12068.2,13798.8,-17218
1.68565e+07,23.3309,1,2.99906,4309.05,2138.56,-27714.5
1.70269e+07,132.798,1,2.54027,-15978.5,14337,-10695.3
1.7135e+07,27.2213,2,2.90166,1361.01,-3066.92,-24231.9
1.73717e+07,23.178,2,2.61891,734.677,3992.22,-25983.7
1.73971e+07,75.9029,1,3.03274,11131.9,11049.9,-25962.8
1.75686e+07,54.7989,2,2.57876,-2290.5,6281.08,-19375.9
1.7664e+07,109.916,2,2.75796,4373.75,14248.7,-11196.8
1.77403e+07,76.7071,0,2.46553,5044.02,-4456.56,-14091.6
1.77816e+07,48.2124,1,2.90019,-5816.98,-3961.24,-23050.9
1.78746e+07,128.581,1,2.84152,-13731,22347.6,-21966.7
1.79968e+07,16.7649,1,3.027,-2071.23,-2753.88,-28515.7
1.81004e+07,24.9047,0,2.6858,4460.47,2735.42,-29196.9
1.8122e+07,119.877,0,2.54965,-12421.5,21964.3,-28759.6
1.81839e+07,162.945,0,2.54284,4149.21,-21212.5,-2005.52
1.81876e+07,166.257,0,2.9108,14354.6,23635.3,-7655.4
1.823e+07,74.7202,1,2.77588,-6350.84,13856.9,-24697.9
1.8254e+07,110.985,0,2.87849,17006.1,9493.17,-16081.2
1.82741e+07,31.4196,0,2.58655,6044.81,1818.23,-26484.3
1.83142e+07,13.0529,1,2.61218,2638.12,868.617,-28387.3
0,12.9031,1,2.41351,0,0,0
1.84032e+07,113.662,1,2.67721,-10909.1,-10666.2,-10412.6
1.87091e+07,17.1671,2,2.60769,3175.23,-1610.03,-28614.4
1.87498e+07,134.581,1,2.69192,-14088,-17681.3,-16607.4
1.87585e+07,107.692,1,2.94796,743.825,-2891.86,-13277
1.88221e+07,218.215,2,2.8379,3580.27,16056.4,-27508
1.89689e+07,95.5963,2,2.72289,-17950,-8627.31,-26103.9
1.89824e+07,192.587,0,2.38402,-21283.1,-17602.2,330.833
1.89939e+07,112.362,0,2.37931,8895.72,-3744.16,-7076.65
1.89979e+07,92.0601,1,2.4423,5140.5,18616,-25255.5
1.91437e+07,45.4647,2,2.89202,533.424,-458.583,-23793.5
1.91442e+07,4.04594,1,2.70188,-822.461,32.0417,-28507.6
1.92899e+07,139.37,1,2.54866,-5215.63,-6220,-7553.98
1.94052e+07,45.0228,0,2.7035,6239.55,-1264.01,-21699.2
1.94066e+07,13.3074,1,2.8611,-1470.28,284.813,-26490
1.95233e+07,15.2963,0,2.66213,-393.647,-2872.16,-28638.8
1.95555e+07,40.4174,0,2.81031,5105.11,-4866.27,-23813.6
1.95559e+07,71.3104,1,2.50599,-14587.1,2632.44,-26250.8
1.9557e+07,135.342,2,2.54312,5399.84,-27977.2,-25548.5
1.95693e+07,2.14201,1,2.95411,230.666,129.485,-28481.4
0,2.10122,1,2.76812,0,0,0
1.96336e+07,50.9538,0,2.804,-1957.15,-6687.73,-20683.6
1.99565e+07,5.20531,2,2.45713,-900.623,-676.325,-29075.8
2.00015e+07,56.8971,0,2.58518,-4882.42,3221.67,-18349.1
2.00089e+07,17.7299,1,2.93598,1474.78,2539.57,-26627.4
2.00881e+07,30.874,2,2.57284,4731.32,-2438.45,-24954
2.01455e+07,7.07138,2,3.01846,-305.708,-1154.23,-27840.8
2.018e+07,189.894,0,3.00094,28162.7,21069.2,-10029.4
2.02206e+07,39.615,2,2.74696,-3018.13,-1196.56,-21210.3
2.02368e+07,165.573,0,2.65807,-7005.68,-21653,-2267.39
2.03958e+07,34.6412,0,3.00143,-4248.47,-1362.44,-23294.6
2.04526e+07,52.8861,2,2.61078,-6356.28,3518.46,-20305.6
2.06613e+07,18.5066,2,2.88419,-2007.46,241.916,-25510.8
2.07208e+07,3.81533,1,2.78451,-605.488,-132.241,-28572.8
0,3.89952,1,2.87425,0,0,0
2.07965e+07,130.397,1,2.37417,-22630.5,15786,-26181.3
2.08368e+07,18.4161,2,2.36423,-3334.16,-1288.41,-27488.2
2.09508e+07,126.705,2,3.04981,-8743.74,-1842.28,-25781
2.09826e+07,9.37203,2,2.39357,-1648.98,333,-27724.5
2.10698e+07,26.4829,0,2.82537,-1599.36,3271.03,-24649.8
2.12096e+07,90.6058,1,2.53186,-4302.81,17372.3,-22381.6
2.13949e+07,74.6731,2,2.92724,-5101.25,-9157.09,-17140.1
2.15036e+07,9.94736,1,2.93899,1252.02,1733.55,-28967.9
2.17355e+07,129.516,1,2.62563,5949.6,17251.4,-8430.71
2.18331e+07,192.586,1,2.83294,21654,-3101.87,2042.07
2.19958e+07,21.8255,0,2.83317,1934.65,-4084.85,-27771.2
2.20312e+07,47.8516,2,2.69225,-4711.19,-8551.48,-26217.4
2.2033e+07,12.1263,0,2.97708,1663.59,2009.76,-29348.4
2.20586e+07,161.839,2,2.47792,-18046.4,-26424.1,-16191.2
2.21229e+07,115.879,0,2.63864,6592.63,-8159.24,-6728.83
2.21349e+07,38.9976,2,2.43494,2896.16,4773.2,-22895.9
2.23352e+07,30.0707,1,2.42735,5587.57,2558.07,-27176.5
2.2483e+07,52.352,0,2.82131,2693.48,3187.73,-18650.2
2.26167e+07,160.58,0,2.75238,14709.9,-26243.6,-13329
2.26526e+07,94.6337,0,2.37629,1090.58,15989.5,-16692.8
2.28414e+07,31.1488,1,2.38449,-1597.89,-2567.26,-22989.7
2.28483e+07,2.21467,1,2.39946,190.958,-317.354,-28581.3
2.31502e+07,187.971,1,2.50388,297.45,-20408.3,5199.63
2.3212e+07,79.1919,1,2.73234,2269.16,879.737,-28398.2
2.33722e+07,43.5815,0,2.51545,-5813.67,-1071.67,-21745.8
2.34092e+07,127.317,2,2.59097,-23692.9,-9623.08,-20335.5
2.3512e+07,180.881,1,2.78114,-16889.3,20228.3,-13468.6
2.36782e+07,29.6647,2,2.86547,-479.335,-6250.56,-28894.9
2.37975e+07,21.6753,0,2.73905,-3352.56,-2001.05,-26822.6
2.38012e+07,59.3123,2,3.05319,317.63,-12434.4,-27719.5
2.38357e+07,75.2192,2,2.97649,741.141,8619.01,-15704.9
2.39116e+07,213.672,2,2.85996,-24520.8,1337.2,8760.49
2.40914e+07,75.9302,1,2.54507,3908.1,-12821.9,-20200.3
2.44366e+07,30.0542,0,2.47365,1708.13,-5491.75,-26755.6
2.4443e+07,45.3943,0,2.41581,1889.1,-4798.91,-20595.9
2.48796e+07,195.612,1,2.99191,-23583.5,-8148.99,-20863.6
2.49105e+07,23.2937,0,2.74887,14.5678,-2969.74,-25014.2
2.51727e+07,202.485,0,2.68522,20774.4,-24045.1,-410.178
2.53186e+07,222.285,2,2.72819,-21984,-4103.93,12090.4
2.53439e+07,24.3925,0,2.73189,2253.51,4305.7,-26974.2
2.5382e+07,38.3771,2,2.841,6180.88,-5213.45,-28385.3
2.5415e+07,60.6481,2,2.6894,-7718.1,788.537,-18662
2.5496e+07,68.6961,0,2.82657,6623.46,-8902.75,-19637.7
2.55941e+07,128.841,0,2.72889,5543.86,24037.3,-17439
2.57505e+07,105.117,1,2.60796,-49.4293,12202.6,-10245.2
2.58331e+07,438.754,0,2.82441,6880.3,-17178.8,-19728
2.58506e+07,33.4685,2,3.05579,777.684,-4329.01,-23630.5
2.61529e+07,103.409,2,2.61551,-16328.6,-12266.8,-20858.2
2.6197e+07,94.8092,1,2.77706,2293.65,19903,-28758.7
2.63121e+07,60.1111,0,3.02628,8457.73,7285.86,-22758.2
2.63873e+07,46.9798,1,3.05488,-7593.53,3182.79,-23392.8
2.63969e+07,53.4243,0,2.92883,-325.691,5196.69,-18923.6
2.64108e+07,103.66,1,3.05511,-4011.6,10173.9,-10034.1
2.64183e+07,15.7919,0,2.64832,2465.85,1197.92,-26793.2
0,15.8517,0,2.82058,0,0,0
2.6423e+07,41.886,1,2.39477,3445.75,2773.51,-21160.8
2.64315e+07,152.961,0,2.55661,10244.6,-27647.9,-15284.1
2.65883e+07,3.98333,2,2.42329,514.443,382.045,-28367.8
2.688e+07,84.0492,2,2.72226,-1613.46,-17015.4,-23989.3
2.69772e+07,48.8574,0,2.65539,6342.07,8177.97,-28417.4
2.699e+07,97.9144,0,2.84784,-18410.1,5326.28,-22803.6
2.71613e+07,51.9821,2,2.81494,3683.04,-3671.15,-19173.1
2.74456e+07,9.35145,2,2.68722,600.967,903.18,-27154.7
2.7677e+07,19.0497,1,2.74963,1515.8,506.38,-25147.4
2.78117e+07,49.8653,0,2.37093,6421.71,-5408.36,-22294.2
2.78178e+07,217.853,2,2.6325,-24901.9,20793,-7238.65
2.81495e+07,2.18958,1,2.89139,436.769,77.031,-28993.1
2.81607e+07,77.3402,2,2.73675,7231,-11583.8,-19899
2.82598e+07,26.0508,2,2.92992,-2750.7,-4524.27,-27013.9
2.83744e+07,28.4732,1,2.59673,5499.66,1984.56,-27323.4
2.84332e+07,89.1878,1,2.69082,-17384.9,-6801.21,-28004.2
2.85461e+07,54.7377,0,2.78318,97.6214,-1392.68,-28666.2
2.85655e+07,135.945,1,2.73285,-23153.8,-1858.27,-14823
2.86141e+07,78.0957,0,2.48499,-2303.21,-7551.5,-14401.5
2.86953e+07,10.8053,1,2.85267,-455.002,2108.68,-27827
2.87435e+07,28.2814,2,2.71728,-2398.46,-5104.57,-26507.7
2.88124e+07,35.9869,1,2.61934,-3375.83,2391.21,-22356.6
2.91082e+07,63.5341,2,2.91918,3225.92,-12868.8,-28914.5
2.91785e+07,9.91239,1,2.99577,-1499.95,-1454.31,-29171.6
2.93123e+07,21.3409,0,2.49961,2786.5,-3649.51,-28611.5
2.9522e+07,81.9288,0,2.90183,-10017.9,3737.28,-17509.5
2.96145e+07,19.1433,2,2.80066,-2615.67,-2725.7,-27163.6
2.9631e+07,50.1712,2,2.95426,-7123.4,-7298.8,-26106.8
2.96804e+07,229.408,0,2.81236,19702.5,-3032.63,15104.7
2.98493e+07,27.9004,1,3.03022,2676.82,5104.44,-28680
2.98831e+07,144.736,2,2.89027,4609,-22609.1,-9572.33
