#class tools::wcsv::ntuple
#title time
#separator 44
#vector_separator 59
#column double eventID
#column double t(ns)
#column double copynumber
#column double energy(eV)
#column double x(mm)
#column double y(mm)
#column double z(mm)
75941,22.4294,1,2.4359,-2378.79,3372.68,-26315.7
227312,97.4911,0,2.37522,13700.4,-5407.84,-14282.4
476146,45.0241,0,2.57392,-4515.82,-4571.38,-21879.3
560105,57.7444,0,2.92827,4567.75,-2475.25,-18159.8
1.34843e+06,171.688,2,2.36553,27454.5,21570.3,-19086.6
1.3499e+06,18.1543,1,2.47228,-3894.49,122.731,-29319.1
1.79385e+06,28.6532,2,2.80483,-4583.5,2542.19,-25794.6
2.21876e+06,97.2358,1,2.67305,1232.75,20509.1,-27255.1
2.52224e+06,10.4039,1,2.7541,-221.674,596.922,-28388.7
2.81814e+06,85.2488,1,2.41566,3798.43,12940.8,-16768
3.22541e+06,48.2637,0,2.84524,-2871.47,6963.73,-22058.2
3.59254e+06,142.727,1,2.93041,27886.3,4417.54,-18826.5
3.95545e+06,77.2942,2,2.73246,-12812.7,1065.2,-18770.1
4.00983e+06,37.7591,2,2.66185,5485.08,-3200.72,-23995.5
4.01131e+06,29.8445,0,2.39205,4568.14,2051.69,-24865.5
4.23954e+06,87.0276,1,2.94406,-12985.3,-3823.35,-16541.8
4.34111e+06,47.6958,0,2.55847,-6397.5,1594.78,-21256.4
4.62117e+06,79.8186,0,2.84864,2491.66,-10548.6,-15980.6
4.65087e+06,30.4401,0,2.42793,1032.12,6355.82,-28168.1
4.89671e+06,6.77715,1,2.87252,-1101.68,727.907,-28096.2
5.01126e+06,33.4984,2,3.0428,-5615.15,-4331.4,-28408.8
5.02601e+06,17.8827,1,3.03728,-1128.62,-2008.92,-25905.7
5.11298e+06,145.714,0,2.74228,19150.6,11013.3,-7480.13
5.28312e+06,70.5464,0,2.77531,10361.9,-8577.66,-22366
5.45642e+06,6.3944,2,2.51087,-691.19,765.697,-27959.4
5.51574e+06,26.4081,2,2.65065,-2822.5,-1929.91,-24348.3
5.55924e+06,107.797,2,2.67423,12118.7,-16111.5,-18232.6
5.58565e+06,38.0813,1,2.60779,4567.76,-576.88,-22254.6
5.59911e+06,147.549,1,2.89333,5394.44,11434,-4157.77
5.65757e+06,65.6684,0,2.64512,10796.3,-1099.06,-20136.6
5.67456e+06,90.5935,0,2.69659,12616,12424,-21517.9
5.7017e+06,31.9761,2,2.9783,-1718.44,-2773.54,-22912.8
5.73758e+06,94.8225,0,2.42512,10999.6,14960.3,-21106
5.93703e+06,111.797,2,2.50767,4529.25,-17374.4,-13386.9
6.35544e+06,20.5632,2,2.40411,-1142.38,-3508.95,-26420.6
6.47228e+06,10.8026,0,2.887,-2067.13,118.33,-28099.9
6.64406e+06,30.8851,2,2.41338,-3153.85,458.187,-23084.9
7.20499e+06,103.302,1,2.58817,-1994.97,6240.11,-13255.9
7.49532e+06,10.9153,1,2.39184,-954.31,1990.17,-29817.8
7.50176e+06,73.7161,0,2.45934,-367.91,-15556.6,-29775.5
7.68809e+06,203.555,0,2.85288,27217,28018.6,-11425.1
7.72748e+06,120.035,1,2.40247,-7524.46,23739,-23446.9
7.883e+06,5.08925,0,2.45869,-667.556,-663.518,-28374
0,5.09898,0,2.76376,0,0,0
8.36909e+06,100.202,1,2.57789,-5630.96,13722.8,-13648.7
8.99085e+06,42.1195,0,2.46912,973.569,-5132.64,-21585.1
9.01866e+06,83.7722,2,2.70099,-3780.04,-15733.1,-21522.9
9.85274e+06,134.457,0,2.57887,6813.51,27388.7,-25313.9
1.01798e+07,2.67451,0,2.9916,593.574,-130.967,-28603.8
1.02067e+07,168.894,1,2.72283,-21396.1,18032,-6728.7
1.02332e+07,45.8295,0,2.82097,-492.716,4797.16,-23912.6
1.03536e+07,220.127,1,2.97384,5913.77,-23173.6,10611.3
1.03647e+07,2.52328,1,2.69979,-558.215,-62.9036,-28648.5
1.05949e+07,129.174,1,2.44786,-3391.76,23263.8,-14948.4
1.07591e+07,2.31526,1,3.02129,-299.789,75.5986,-28397.6
1.10622e+07,38.2225,0,2.83019,2543.91,-7239.34,-26253.7
1.11898e+07,262.863,1,2.45824,-29108.2,766.108,18482.3
1.11998e+07,51.3826,0,2.36872,5304.62,-1959.99,-19475.9
1.15695e+07,23.8552,0,2.47669,2018.95,2468.43,-24854.3
1.17959e+07,27.0914,0,2.69567,-2430.55,-970.284,-23800.3
1.18212e+07,117.883,0,3.00553,18951.5,-8567.22,-15347.2
1.1825e+07,78.4782,0,3.0608,-905.488,-3539.18,-21785.2
1.20574e+07,175.22,0,2.84547,-9454.08,-5075.17,-13128.9
1.21027e+07,76.8402,1,2.85223,-6589.47,1866.93,-14161.8
1.21346e+07,16.0939,2,2.92711,707.718,-3350.92,-28329.4
0,15.9281,2,2.51783,0,0,0
1.2188e+07,136.941,1,2.58814,-8793.41,11033,-3525.23
1.2368e+07,62.4207,0,2.49553,3082.55,-12506.8,-25714.8
1.24535e+07,3.37655,1,2.84362,242.213,594.396,-28390.9
1.24626e+07,65.1158,1,3.05483,6648.43,9224.17,-21208.3
1.27051e+07,32.2574,1,2.81041,3809.95,-1146.97,-23369.7
1.29299e+07,46.8308,2,2.38616,-4830.17,-8443.37,-26470.7
1.29432e+07,64.8309,1,2.93422,5757.6,-5508.65,-17845.4
1.32802e+07,16.0133,1,2.64492,-1471.96,1352.57,-26026.9
1.35458e+07,88.4497,0,2.6291,10979.9,-11190.9,-18568.3
1.35619e+07,83.1327,1,2.68875,12199.5,2986.94,-16614.2
1.3822e+07,90.7542,2,2.98615,-13363.7,-8835.13,-18424.4
1.43964e+07,4.97539,0,3.04468,802.683,768.025,-28767.5
1.44884e+07,92.763,1,2.48358,-6962.71,14822.5,-17942
1.45993e+07,79.3638,1,2.619,16216.3,-3928.86,-27716.1
1.47627e+07,81.4662,1,2.76419,-8990.14,7978.9,-16500.8
1.48657e+07,30.7389,2,2.87675,5275.23,-893.052,-25707.6
1.52133e+07,131.993,2,2.94126,16307.9,12614.1,-10404.4
1.52905e+07,115.655,2,3.0359,14328.2,-18227.3,-21664.2
1.56545e+07,7.40516,1,2.96893,-1273.96,60.7832,-27839.7
1.60269e+07,58.0029,0,2.38443,7896.07,4924.25,-20720
1.60292e+07,64.678,1,2.98331,11574.2,4878.8,-23767.5
1.61451e+07,138.427,1,2.748,26232.8,-1992.53,-16320.1
1.64389e+07,11.3528,1,2.41897,-2450.33,406.669,-28958.7
1.66844e+07,34.5354,2,2.52528,-4128.9,-456.594,-22781.2
1.70134e+07,128.362,1,2.46629,-7449.98,17879.4,-9735.98
1.70294e+07,36.3283,2,2.67235,-1769.15,-7573.64,-28989.4
1.76978e+07,28.1181,0,2.36483,4438.72,1817.93,-25183.5
1.77485e+07,179.484,0,2.50658,24427.7,28856.2,-24850
1.77576e+07,242.545,1,2.45213,-27233.7,9875.56,13524.1
1.78431e+07,70.0917,0,2.53432,4454.7,10394.4,-19184.4
1.79959e+07,37.2375,0,2.38371,1530.63,4583.5,-22589.2
1.81659e+07,11.1951,0,2.53462,2302.56,-579.192,-28157.8
0,11.8497,1,2.78805,0,0,0
0,11.2219,0,2.81384,0,0,0
1.83984e+07,13.6117,0,2.88155,1679,-618.25,-26523.3
1.89432e+07,39.1367,1,2.78317,775.478,8288.43,-28669.9
1.89618e+07,27.6036,0,2.93558,5550.76,-1640.23,-28869.8
1.89852e+07,139.11,1,2.61276,-22946.1,994.845,-10460.2
1.90627e+07,125.564,1,2.62119,-12625.5,23384.9,-27656
2.05554e+07,104.985,1,2.83102,-8064.11,-8351.41,-10053.2
2.07109e+07,16.6461,2,2.48552,2561.72,940.285,-26659
0,16.668,2,2.47352,0,0,0
2.10596e+07,31.1325,0,2.7404,1431.06,6413.72,-28310.8
2.12048e+07,156.703,0,2.56958,19717.7,14151.6,-8677.45
2.15547e+07,115.38,2,2.48209,10206.9,-5988.92,-7490.76
2.19301e+07,91.2654,0,2.81094,-2480.42,-18541.3,-24467
2.21124e+07,56.2871,2,2.75847,3778.69,-10653,-25024
2.23726e+07,142.625,0,2.80868,-3411.96,27046.1,-16336
2.24094e+07,48.5166,0,2.85729,9683.23,865.105,-25458.8
2.26211e+07,55.1542,0,2.99882,2649.38,-5116.98,-21678
2.2864e+07,79.0825,0,2.38932,-2266.86,-12429,-17843.6
2.31427e+07,9.64407,1,2.91195,-875.578,7.91789,-26979.3
2.32223e+07,14.8185,2,2.37389,-1693.3,-1331.92,-26467.1
2.33433e+07,42.2,2,2.58854,-8948.23,831.503,-29089.9
2.35005e+07,6.94624,1,2.50355,-86.0211,1534.98,-29193.7
2.45633e+07,4.20163,0,2.47817,218.419,-880.468,-28652.7
2.47139e+07,34.8436,0,2.69861,-4656.92,-3141.63,-24182.6
2.482e+07,5.66683,0,2.49338,-716.491,886.339,-28607.6
2.48999e+07,148.183,2,2.69938,-5294.68,-29701.6,-20498.3
2.56291e+07,168.247,1,2.4562,-10065,27906.6,-9052.47
2.56902e+07,3.01951,1,3.02785,-104.652,222.9,-28197.3
0,3.00899,1,2.74511,0,0,0
2.57511e+07,12.6628,1,2.87935,1630.57,-1249.74,-27207.5
0,12.2779,2,2.79749,0,0,0
2.60956e+07,7.48031,1,2.84608,838.346,131.841,-27491.4
2.62533e+07,41.0551,0,3.03974,-1901.28,8109.2,-26678.7
2.64603e+07,137.844,0,2.5535,14807.4,-13149.3,-7428.38
2.66378e+07,192.798,1,2.71568,-27493,-29394.4,-23497.8
2.66682e+07,24.8012,1,2.85395,3511.3,2669.3,-26000.7
2.67297e+07,33.0232,1,3.00163,-76.9662,3534.85,-22815.6
2.68586e+07,102.497,1,2.99856,-7759.8,14976.1,-19238.9
2.70464e+07,64.1853,2,2.37762,-11021.8,-5578.6,-22986
2.73245e+07,9.59079,0,2.79633,1934.44,697.484,-28289.1
2.74472e+07,69.7396,0,2.61633,13608.1,243.865,-22962.3
2.74631e+07,31.9227,2,2.614,-2278.27,-6405.5,-28247.3
2.76296e+07,47.3454,2,2.66502,-7136.6,-4834.64,-23660.8
2.77709e+07,93.9773,0,2.81761,10256.1,-15849.8,-22837.8
2.79057e+07,199.597,2,2.36578,8973.33,-26683.2,2675.64
2.79075e+07,7.75543,2,2.88728,-891.721,72.882,-27417.8
2.79128e+07,40.5626,1,2.39278,-5558.48,3225.59,-23091.8
2.80799e+07,24.4583,2,2.94797,-3821.81,-990.627,-25447.6
2.80931e+07,36.8715,1,2.38959,-6672.73,4125.28,-29888.6
2.82563e+07,186.017,0,2.73012,18867.2,-5064.3,-579.555
2.83627e+07,10.7098,2,2.58086,-2296.46,-260.564,-28608.4
2.87733e+07,45.3667,0,2.74033,7377.24,2629.78,-23241.8
2.90585e+07,15.3142,1,2.73523,-2451.89,-1833.4,-27800.1
2.90851e+07,85.1875,0,2.96901,-5709.25,14112.3,-19497.8
2.92879e+07,67.186,1,2.98825,-7328.31,-4229.85,-25351.1
2.97604e+07,74.2196,2,2.99941,-14110.8,-5941.58,-25610.6
2.99963e+07,136.331,2,2.86664,2495.75,2808.45,-23410.4
3.00561e+07,33.0002,2,3.02776,-6253.08,2282.52,-26946.7
3.01009e+07,85.089,2,2.72709,10200.6,-14783.9,-28687.4
3.01522e+07,2.31844,0,2.96092,350.228,-196.326,-28451.5
3.01666e+07,62.7393,0,2.85969,-2511.08,-7334.94,-18216.9
3.02478e+07,4.51732,1,2.99729,221.354,960.573,-28515.2
3.0888e+07,71.057,0,2.49977,-7567.7,1273.93,-15941.2
3.09708e+07,70.8577,1,2.46185,-7566.77,10175.1,-20678.3
3.13326e+07,124.593,1,2.60494,3017.76,14180.7,-6834.84
3.13744e+07,126.5,2,2.4128,-4600.37,-23271.8,-16273.3
3.14289e+07,117.677,2,2.90166,14277,-19620.6,-27722.6
3.14556e+07,4.33543,1,2.87147,-208.699,995.001,-28821.4
3.16181e+07,86.1745,1,2.80006,1706.55,15019.6,-18728.2
3.18091e+07,9.59402,2,2.40827,-321.72,717.534,-26974.8
3.19428e+07,10.4518,2,2.42918,-407.105,-2248.18,-29145
3.19713e+07,52.7238,0,2.97549,6393.93,1826.36,-19941.5
3.20437e+07,44.2489,2,2.89722,-5162.04,3537.23,-21954
3.22002e+07,59.1939,0,2.73423,10891.1,2411.22,-23044.9
3.22937e+07,11.3238,1,2.95562,1751.72,-945.904,-27599
3.24703e+07,41.3053,0,2.37139,8813.5,403.328,-28470.9
3.2581e+07,58.2577,2,2.8439,-2121.74,-5628.04,-18102.4
3.26346e+07,1.4443,0,2.91788,173.437,-136.626,-28551.6
3.2903e+07,25.5613,2,2.45673,-4715.64,-2311.11,-27214.1
3.32205e+07,118.477,1,3.0189,-24464.5,3851.68,-26285.3
3.33875e+07,147.459,0,2.78204,25664.6,8803.49,-13594.6
3.35307e+07,81.4604,2,2.87557,4428.66,-13918.5,-19793.6
3.35806e+07,14.6259,2,2.59117,-161.142,-3008.53,-27784.7
0,15.3522,1,2.81453,0,0,0
0,14.6299,2,2.58265,0,0,0
3.39505e+07,150.074,2,2.78913,8296.79,17607.5,-4016.42
3.42201e+07,67.7327,0,2.53697,4981.73,4841.41,-16261.4
3.44695e+07,53.9939,0,2.5977,2804.96,10208.1,-24493.9
3.46407e+07,107.162,2,2.88162,-2946.64,-12083.4,-10005.4
3.46411e+07,52.5405,1,2.86648,-322.118,6246.86,-19691.4
3.49099e+07,22.9552,2,2.36522,-4734.92,1014.29,-29494.5
3.50186e+07,106.652,2,3.02747,-17977.2,-9729.88,-19615.5
3.50239e+07,109.688,0,2.76209,395.499,-8705.04,-14098.5
3.51386e+07,24.0456,1,2.75333,-3463.93,2855.88,-26322.9
3.53748e+07,33.475,0,2.71397,2189.16,5958.21,-25657.6
3.58378e+07,160.589,1,2.46034,-5812.34,27395.5,-9509.22
3.59227e+07,112.121,0,2.67881,-3669.04,-9631.45,-27271.3
3.64311e+07,105.095,1,2.64999,-14488.2,-9979.37,-15341.6
3.64697e+07,92.2314,2,3.02564,-4102.08,-17403.9,-21262.1
3.67583e+07,65.6341,0,2.57686,-2190.45,12354.3,-22903.5
3.70301e+07,116.738,1,2.98926,-18118.1,-12232.6,-17780.5
3.71801e+07,81.3836,0,2.61351,4976.06,6738.04,-13782.8
3.7423e+07,6.88496,2,2.48617,-725.834,254.025,-27592.6
3.74265e+07,3.32651,1,3.03148,-375.097,-317.63,-28355.3
3.7724e+07,122.153,1,2.44215,-24861,7203.67,-29718.1
3.7743e+07,101.888,2,2.60749,-477.516,12807.4,-11592.1
3.79116e+07,11.0908,1,2.6905,-2190.02,1080.95,-28919
3.83112e+07,86.2573,0,2.82002,7283.05,14118.6,-19957.1
3.84176e+07,269.329,2,2.56355,7526.94,-2718.72,-9143.96
3.85781e+07,20.5596,1,2.98508,-4224.61,-770.085,-28014.6
3.86948e+07,42.7631,1,2.47503,3287.47,-2396.31,-20788.7
3.87304e+07,153.422,2,2.76379,-20124.3,-24644.3,-25740.8
3.88501e+07,26.6847,2,2.84548,-251.624,-3888,-24705.4
3.93637e+07,30.3722,0,2.97517,2196.17,1336.8,-22956.6
3.94511e+07,315.497,2,2.50877,-24305.1,-29833.2,21295.9
3.95074e+07,68.7974,1,2.98634,-8890.39,11495.1,-29181.5
3.95669e+07,48.0916,2,2.96067,2055.96,-6639.14,-27546.6
3.97698e+07,16.159,1,2.92391,-1981.71,2821.45,-28214.7
3.991e+07,88.0482,2,2.8325,6039.16,-16405.1,-22575
4.00623e+07,111.99,1,2.41098,14179.5,11614.5,-13788
4.04331e+07,120.188,0,2.59069,12033.7,14406.4,-11699.9
4.04503e+07,19.0564,0,3.02864,1756.43,837.265,-25295.6
4.06085e+07,105.001,0,2.72336,9248.37,-3828.07,-9073.24
4.09634e+07,165.473,1,2.37275,-11226.5,17072.2,-325.589
4.16111e+07,121.995,2,3.04344,-9813.84,-23226.3,-24082.6
4.17367e+07,14.6335,1,2.3947,2160.1,-2118.59,-28603
4.17394e+07,57.1973,2,2.71903,-8231.17,4782.6,-22905.4
4.18408e+07,14.1555,1,2.50724,-1637.01,2370.89,-27705.4
4.22405e+07,156.353,2,2.77937,-19004.2,24361.1,-17526.1
4.22542e+07,107.141,2,2.65185,10075.1,11348.5,-12157.5
4.22964e+07,19.0218,0,2.99379,3681.46,-1778.75,-28631.4
4.23712e+07,47.5518,1,2.54546,8782.95,2785.03,-24843
4.23847e+07,152.614,0,2.55844,29796.9,1307.05,-16382.6
4.24168e+07,16.3767,2,3.04534,3166.58,-1098.41,-28111.8
4.27915e+07,99.8389,1,2.65909,-9095.14,1378.26,-9873.01
4.28159e+07,44.6332,0,2.8106,7029.69,-186.089,-22510
4.31465e+07,40.0719,0,2.74509,8510.6,888.738,-28871.1
4.31619e+07,90.3967,0,2.85404,7806.27,16708.8,-24069.9
4.34441e+07,25.7977,0,2.52158,2917.43,772.77,-24233.5
4.36045e+07,94.6666,2,2.47296,-14682.7,-13668.5,-27170.8
4.37515e+07,81.8828,0,2.99397,6114.07,-15213.7,-23588
4.41531e+07,113.479,2,2.83514,10353.4,-17064.1,-15673.4
4.4312e+07,355.76,1,2.69019,14732.3,27255.5,25300.9
4.43487e+07,55.9789,1,2.46584,9565.81,-3780.1,-23075.9
4.44828e+07,176.441,2,2.7542,15184.2,6075.37,4495.55
4.467e+07,48.3762,0,2.78484,8935.87,-3389.38,-25043.7
4.46722e+07,273.941,0,2.38416,9441.11,-23099.3,23503.1
4.47918e+07,106.706,0,2.9971,-3402.48,5565.54,-7942.27
4.4846e+07,71.3673,2,2.97015,7713.26,886.454,-16035.3
4.48642e+07,96.4147,2,2.4448,17363.3,-10424.2,-26271.5
4.5127e+07,58.1294,2,2.45588,5293.46,-10469.2,-25189.7
4.52921e+07,56.3534,0,2.77114,-1333.65,9965.25,-22558.9
4.57776e+07,31.1811,2,2.55255,2774.02,-6039.24,-28308.8
4.62559e+07,4.42993,2,2.51155,-449.345,-386.656,-28036.1
4.68091e+07,27.6484,2,2.58953,-2611.47,-5233.82,-29991.7
4.70489e+07,60.465,2,2.81478,-11998,-4445.2,-28212.4
4.7226e+07,21.6442,0,2.91389,-3356.98,1586.98,-26264.5
4.74505e+07,8.36437,0,2.68516,-960.421,-492.857,-27491.6
4.75696e+07,138.399,2,2.87917,-4457.53,-16436.9,-5216.78
4.80923e+07,285.704,0,2.47767,-25440.1,15757,23608.1
4.83161e+07,6.04383,2,2.37653,200.475,-1342.59,-28934.1
4.83201e+07,101.176,1,2.93516,15247,-3082.57,-14412.6
4.89034e+07,121.296,1,3.03303,2708.9,24146.3,-21171.6
4.89177e+07,10.2512,2,2.65339,-823.768,1291.37,-27328.6
4.92353e+07,24.8784,2,2.92833,-1455.39,-3111.97,-24813
4.9311e+07,82.4911,2,2.70192,-12732.8,-3034.02,-22577.3
4.96956e+07,63.5324,2,2.8666,2954.14,4845.89,-18367.5
4.96958e+07,20.5595,0,2.69031,-1512.79,-3150.49,-26262.6
4.97412e+07,174.784,2,2.9524,-27399.4,-14772.7,-9670.17
4.98004e+07,15.4632,1,2.63176,-1021.29,3106.22,-29700.9
5.01591e+07,49.9982,0,2.69864,-6766.75,-261.64,-20800.3
5.04277e+07,26.8729,2,2.62349,4264.32,-368.446,-25135.6
5.0488e+07,9.07799,2,3.02807,28.9259,-1294.3,-27346.4
5.05659e+07,95.4934,1,2.69908,5726.5,18846.3,-28460.9
5.06487e+07,193.202,1,2.98825,29592.6,3387.2,-1438.33
5.06978e+07,25.9078,2,2.47052,1497.9,-2977.78,-24425.9
5.08406e+07,158.301,1,2.72429,10557.9,-15911,-1544.58
5.11989e+07,11.2057,1,2.37854,-143.764,2309.46,-29736.7
5.12144e+07,139.443,2,2.74475,-21064.4,-20588.2,-29510.1
5.12509e+07,62.4635,1,2.64091,2146.92,13030.3,-29878.3
5.13089e+07,103.88,1,2.55635,-15793.5,-4701.04,-14266.6
5.13423e+07,168.466,0,2.9086,25701,-13710.6,-8671.47
5.17194e+07,92.9264,0,2.93676,-2348.02,-18537.3,-23205.2
5.25527e+07,8.20978,0,2.96377,1702.89,-643.489,-29070.5
5.29357e+07,14.9538,0,2.95161,-2408.51,1274.69,-27344.4
5.30227e+07,1.05769,0,3.00791,327.167,8.4802,-28924.5
5.34694e+07,170.286,0,2.40294,28563,3267.06,-7000.93
5.37658e+07,15.2633,1,2.79429,-778.247,-2836.31,-27668.6
5.41691e+07,16.325,1,2.70163,-995.979,3144.11,-27545.2
5.45884e+07,0.183985,0,3.37419,119.486,-58.6488,-28805.1
0,0.184093,0,2.76448,0,0,0
0,0.242099,0,3.26283,0,0,0
0,0.218916,0,2.09621,0,0,0
0,0.217455,0,3.91723,0,0,0
0,0.215428,0,2.43993,0,0,0
0,0.185479,0,2.47168,0,0,0
0,0.286501,0,2.82395,0,0,0
0,0.242495,0,2.16113,0,0,0
0,0.185454,0,4.06104,0,0,0
0,0.245521,0,2.77237,0,0,0
0,0.20662,0,3.78907,0,0,0
0,0.207272,0,2.67851,0,0,0
0,0.183931,0,3.30929,0,0,0
0,0.184478,0,2.37125,0,0,0
0,0.184929,0,3.79824,0,0,0
0,0.225964,0,2.50538,0,0,0
0,0.187264,0,3.28291,0,0,0
0,0.183765,0,2.46583,0,0,0
0,0.184358,0,2.7148,0,0,0
0,0.189558,0,2.5679,0,0,0
0,0.187856,0,3.90123,0,0,0
0,0.18497,0,2.58655,0,0,0
0,0.219427,0,3.77346,0,0,0
0,0.270579,0,2.63362,0,0,0
0,0.198022,0,2.69028,0,0,0
0,0.258519,0,2.50178,0,0,0
0,0.229064,0,2.90611,0,0,0
5.4635e+07,17.3833,2,2.5643,1469.15,-3418.48,-28329.4
5.5562e+07,16.6095,0,2.97971,1944.23,238.194,-25893
5.55896e+07,3.96487,2,3.03777,-402.377,-543.412,-28240.2
5.57932e+07,67.3575,1,2.67117,4096.18,10303,-19849.2
5.59792e+07,31.9205,1,2.9375,-4380.12,5101.84,-27721.6
5.62305e+07,71.6491,0,2.59652,-12901,-7322.35,-26061
5.633e+07,0.287172,1,3.20478,48.5634,117.26,-28807
0,0.351263,1,3.37547,0,0,0
0,0.288545,1,4.08388,0,0,0
0,0.2887,1,2.5521,0,0,0
0,0.293014,1,2.87325,0,0,0
0,0.37198,1,2.9349,0,0,0
0,0.288479,1,2.07087,0,0,0
0,0.337053,1,2.25513,0,0,0
0,0.325811,1,2.67099,0,0,0
0,0.289576,1,2.96009,0,0,0
0,0.326393,1,3.1238,0,0,0
0,0.290471,1,2.59328,0,0,0
0,0.292764,1,2.4988,0,0,0
5.6538e+07,25.8174,1,2.59736,-4059.22,1437.3,-25413.1
5.68463e+07,17.7142,1,2.96244,-1983.21,-412.015,-29255.1
5.69426e+07,33.7944,1,2.58191,-3802.39,-5302.75,-25925.1
5.69943e+07,95.5674,1,2.65876,-14668.6,-4566.42,-16731.2
5.71123e+07,140.128,1,2.78995,19209.5,17422.7,-14759.5
5.71206e+07,101.529,0,2.67468,-11260.3,11236,-14584.8
5.74035e+07,4.61314,1,2.78179,-607.519,340.633,-28060.9
5.75122e+07,19.8984,0,2.64549,175.897,3368.46,-26327.1
5.75511e+07,61.8014,1,2.80568,-11135.9,-4291.66,-23628.1
5.79955e+07,18.2286,2,2.44589,-2709.61,-2311.49,-27114.5
5.86656e+07,34.9347,0,2.40618,4780.08,-615.095,-23146.8
5.87299e+07,62.1217,0,2.594,-2806.52,-767.226,-23654.7
5.90598e+07,19.8077,1,2.72467,-4109.17,850.74,-28082
5.91405e+07,64.1229,1,2.89766,-10481.3,3853.53,-21200
5.95462e+07,26.9247,0,2.68388,1952.63,-5346.63,-29487.4
6.00426e+07,19.6446,0,2.81251,1942.47,-3402.49,-27300.7
6.02727e+07,8.96363,0,2.80604,437.022,-1227.97,-27407.2
6.03349e+07,301.853,0,2.89001,-28383,-24752.5,22112.5
6.03476e+07,98.7365,2,2.61061,-11925.6,6562.65,-13018.4
6.09414e+07,114.845,0,2.90141,-4270.97,19025.4,-21169.5
6.10886e+07,21.7039,2,3.01753,-989.996,-3352.22,-25830.6
6.12794e+07,106.205,1,2.47238,-19505.7,-130.217,-17644.1
6.14082e+07,184.814,0,2.7738,1376.8,-17732.5,-21554.1
6.25017e+07,102.165,1,2.49746,-16299.8,2084.52,-14727.6
6.33083e+07,8.60316,2,2.45479,-542.519,-995.23,-27320.7
6.39019e+07,86.7532,2,2.61412,-9121.58,-2182.9,-13053.2
6.42448e+07,110.453,0,2.39013,14092.7,11260.2,-13882.7
6.43438e+07,7.13633,0,2.9175,251.643,-561.83,-27427
6.45158e+07,96.1796,0,2.66367,-7335.39,-10487.8,-26210.9
6.46293e+07,13.6659,2,2.53917,-2147.92,1719.43,-27989.7
6.48666e+07,14.6141,2,2.93409,-1789.11,2466.91,-28622.7
6.512e+07,4.00762,0,2.63469,354.355,-668.456,-28349.3
6.5306e+07,27.3652,2,2.79215,-2202.18,4398.83,-25872.9
6.53219e+07,22.1163,1,2.42694,2614.78,1908.27,-25437.7
6.538e+07,155.146,0,2.52169,1053.81,-25693.3,-8447.8
6.55305e+07,33.3789,1,2.71575,1520,-3157.67,-22745.6
6.56337e+07,171.756,0,2.75384,1803,-19056.3,-16452.7
6.63248e+07,120.702,2,3.0451,-6674.01,-20577.3,-15601.1
6.64408e+07,4.11832,1,2.63033,2.83666,-529.674,-28173.2
6.65831e+07,8.4496,0,2.87666,849.443,-1229.97,-27762
6.67408e+07,9.7442,0,2.6425,-295.158,-756.191,-26926.3
6.68541e+07,8.30644,2,2.4556,-1642.11,-810.072,-28701.6
6.69484e+07,18.0541,1,2.94269,1430.73,-730.19,-25408.5
6.73545e+07,10.6315,1,2.43966,-554.689,2250.03,-29203.1
6.74396e+07,170.322,0,2.81083,-4865.51,15455.6,-27691.3
6.74473e+07,1.21217,2,2.57126,-134.257,-329.552,-28924.7
6.75633e+07,111.168,0,2.5146,9010.24,4483.57,-13967.9
6.77217e+07,221.108,2,2.95926,-24719.8,-15894.1,7096.93
6.79698e+07,83.7903,2,2.7472,7872.18,-4157.38,-13612.5
6.80089e+07,184.29,1,2.81553,13955.2,18240,2394.95
6.80312e+07,85.1132,1,2.77609,7262.77,2485.18,-12651.6
6.86601e+07,6.99945,0,2.9617,752.902,1138.41,-29510.6
6.86721e+07,172.962,2,2.53466,-22491.8,10826.6,-2103.21
6.87118e+07,10.3987,2,2.80523,858.993,-1519.26,-27420.3
6.90891e+07,18.4169,1,2.95991,-1934.35,889.93,-25554.5
6.93392e+07,81.4335,1,2.51741,3174.6,12523.4,-17358.9
6.95556e+07,16.336,0,2.64845,2974.91,-158.858,-26956.1
6.97679e+07,128.49,2,2.55278,10758.9,-24956.5,-27115.5
6.98218e+07,54.8934,0,2.78651,-6797.4,7730.2,-23682.3
6.98695e+07,38.2027,1,2.52234,-4519.61,-4429.85,-23790.4
7.00291e+07,26.7995,1,3.0112,846.942,2277.25,-23766.1
7.01349e+07,56.4276,1,2.57705,5316.55,10605.2,-27085.6
7.0179e+07,150.557,0,2.73215,24825.5,12915.8,-13751.4
7.03507e+07,10.9372,1,2.85799,-898.317,-329.954,-26718.1
7.04417e+07,43.5959,0,2.71246,7327.18,-1844.86,-23482.3
7.04766e+07,99.962,2,3.01154,13945.4,-10031.1,-16838.6
7.05487e+07,103.419,1,3.02567,16943,11529.9,-21709.1
7.05775e+07,96.4881,1,2.87096,-7244.22,19051.3,-29068
7.06781e+07,50.6488,2,2.85841,-7318.91,-7857.14,-29081.1
7.10142e+07,37.0589,0,2.55445,2587.18,4087.73,-22612.8
7.15311e+07,7.14609,0,2.95795,1551.53,-202.495,-28452.5
7.16627e+07,130.119,0,2.93328,20343.1,-13341.6,-16317.1
7.20367e+07,91.1215,1,2.78397,4085.39,16603.4,-20057.4
7.22651e+07,50.9041,2,2.8089,-3315.45,5265.11,-20126.4
7.23218e+07,81.9993,0,3.03778,11845.2,-6525.12,-20212
7.23925e+07,100.017,1,3.00245,-534.263,3387.74,-25918.9
7.24653e+07,0.308834,2,2.24789,-100.057,-1.28676,-28791.8
0,0.307789,2,3.61489,0,0,0
7.26112e+07,93.6569,0,2.57948,7346.68,-10866.8,-13953.4
7.34001e+07,51.971,1,3.01874,326.655,9044.3,-22641.7
7.34967e+07,115.468,1,2.82402,-10603.6,13911.5,-12012.2
7.35601e+07,74.9195,1,2.5585,10711.8,10272.2,-23231.5
7.37523e+07,161.325,0,2.36872,22083.9,-22836.8,-16131.5
7.37524e+07,86.2274,2,2.62944,-10120.2,11066,-18522.7
7.38257e+07,15.8898,1,2.92431,-597.396,3294.36,-28012.5
7.42007e+07,111.386,1,2.81201,-18521.7,10353.7,-18695.1
7.45804e+07,18.883,1,3.05536,-3272.77,2167.19,-27825.7
7.4709e+07,38.3447,0,2.40508,5549.69,-3862.28,-24251
7.47129e+07,184.438,1,2.80531,5924.41,-18049,4947.01
7.51537e+07,58.8664,2,2.74904,3335.95,-10733.7,-23440.3
7.52902e+07,32.3473,1,2.58682,-5883.82,2796.09,-26563.6
7.55709e+07,107.891,1,2.77387,-1665.03,-16431.8,-13289.9
7.57589e+07,60.3382,1,2.79929,7092.56,890.615,-18333.8
7.60662e+07,1.61066,0,2.78765,-36.3956,-184.97,-28571.6
0,1.54186,0,2.64396,0,0,0
7.61867e+07,4.75552,2,3.0079,-578.599,603.119,-28291.2
7.62734e+07,18.8323,0,2.67047,2577.9,3019.69,-28008
7.62967e+07,1.3409,2,2.56948,68.0922,-298.167,-29005.9
7.64008e+07,38.127,1,2.81731,1308.16,-7310.93,-25943.3
7.65506e+07,155.535,1,2.74429,-6620.89,13330.1,-25418
7.66001e+07,66.1407,0,3.05469,9896.87,9818.35,-28402.4
7.66221e+07,34.3607,1,2.63463,-294.343,6597.17,-25673.3
7.67196e+07,4.64238,2,2.459,-777.741,-688.251,-28589.1
7.70353e+07,133.73,2,2.51505,-748.79,-27200.7,-20843.2
7.70644e+07,185.795,1,2.93419,26898.3,-20422.5,-9476.18
7.74211e+07,152.639,0,2.89965,9098.11,28972.3,-18442.9
7.75051e+07,78.867,2,2.69911,-8385.78,-929.282,-14465.6
7.75904e+07,15.5974,1,2.74905,-1685.27,389.95,-25992.2
7.75955e+07,17.7278,1,2.37925,5.89156,3680.37,-29988.9
7.76438e+07,14.3446,1,2.6221,-2174.46,1225.01,-26986.5
7.76619e+07,49.274,0,2.41165,3381.76,8314.33,-23430.2
7.76832e+07,60.4067,0,2.85429,-230.508,-12715.4,-28994.3
7.80547e+07,123.433,1,2.59438,13549.8,18972.8,-17083.4
7.85246e+07,85.5988,1,2.46668,16107.9,-3293.98,-21367.7
7.85361e+07,250.622,0,2.44922,23362.7,17328.1,15528.1
7.85793e+07,115.218,1,2.50704,-23165.5,3605.18,-21999.1
7.89033e+07,182.396,0,2.75005,26342.7,-26107.3,-18642.6
7.9005e+07,126.515,0,2.76287,24090,-5863.49,-18881.2
7.91656e+07,24.5402,2,2.74609,4439.53,148.77,-26203.8
7.92159e+07,57.2981,2,2.88493,-6661.11,159.061,-18775.5
7.93393e+07,12.9125,1,2.92297,1265.18,1666.05,-27084.6
7.94931e+07,88.4955,0,2.38779,11049,6891.7,-15330.1
7.95979e+07,8.83235,1,2.46704,-346.107,917.18,-27177.6
7.97033e+07,66.1581,1,2.70956,-10160,-8221.31,-23922
8.00722e+07,169.479,0,3.04702,28339.6,13408.5,-12040
8.04499e+07,42.2929,2,2.38135,-5942.6,3617.79,-23183.2
8.04951e+07,67.1373,2,2.53824,7649.11,9977.46,-22356.4
8.05457e+07,89.8961,1,2.52129,2486.71,-11845.5,-14214.2
8.11147e+07,14.5295,1,2.61077,902.466,2940.49,-28155
8.11384e+07,0.783842,0,2.94672,261.949,-69.9103,-28862.9
8.14135e+07,73.3375,1,2.5673,-5746.3,2943.31,-14699.3
8.1582e+07,110.009,0,2.71839,18169.4,-14214,-25882.9
8.16469e+07,94.6591,0,2.6112,15979.1,469.164,-16755.8
8.16872e+07,99.3159,2,2.5677,-18464.7,8726.04,-23966.7
8.19529e+07,247.536,2,2.71628,23772.6,4090.15,-27042
8.20061e+07,187.26,2,2.95672,5128.3,-17411.5,6022.64
8.22284e+07,33.4136,1,2.46098,-6533.18,-2603.13,-27805.7
8.244e+07,70.0929,2,2.95146,3954.08,-13627,-24779.3
8.2498e+07,24.8205,2,2.82623,3133.85,-2703.85,-28821.9
8.26232e+07,40.7578,1,2.93608,-1655.41,7952.66,-25843
8.29862e+07,153.891,1,2.95001,-13474.6,17185.7,-24831.1
8.32089e+07,64.9217,1,2.95572,-8639.95,7719.91,-21573
8.32435e+07,130.023,2,2.58145,-11059.5,-13910.3,-7813.54
8.33148e+07,165.536,2,2.65181,-24554.8,-7245.03,-5001.66
8.34955e+07,196.483,2,3.03079,25281,-28628.5,-13434.3
8.37596e+07,12.6566,1,2.63321,-452.364,2413.86,-27552.6
8.38216e+07,31.164,0,2.64698,-162.769,-6241.16,-26738.1
8.42364e+07,64.5673,1,2.73632,9876.4,-798.83,-19528.9
8.42738e+07,84.3921,0,2.53525,15395.8,-8702.75,-25978.4
8.43044e+07,185.915,2,3.01176,27300.9,5881.88,-1709.49
8.44702e+07,147.39,0,2.54491,18657.3,-5872.69,-4509.43
8.47609e+07,32.1158,0,2.52953,4551.81,-5105.3,-29364.5
8.49933e+07,33.2574,2,3.04866,4855.88,1575.65,-24135.1
8.50092e+07,66.7341,0,2.95271,5585.55,3357.24,-16422.4
8.52743e+07,143.016,2,2.82191,-9298.98,-25786.5,-16266.6
8.5383e+07,87.1537,1,2.9978,5586.73,14432.2,-19032.2
8.56026e+07,7.8025,0,2.99956,709.569,-1105.66,-27777.3
8.56946e+07,136.438,2,2.51544,-24934,-1638.08,-14383.5
8.58801e+07,59.1477,0,3.04034,9086.88,4257.07,-21434.8
8.60176e+07,113.316,2,2.78403,-13364.6,13022.4,-13992.5
8.6059e+07,106.263,1,2.83615,-14336.5,11756.2,-16229.5
8.64862e+07,10.9756,2,2.62702,-1588.59,-1458.18,-29937.4
8.67022e+07,149.88,1,2.38523,-27376.6,13742.8,-20330.3
8.67277e+07,71.5941,0,2.74075,104.094,11690.3,-19271.9
8.67366e+07,33.8755,1,2.84586,3622.07,4317.12,-24461.2
8.69545e+07,58.9045,2,2.50412,-11595,-4517.18,-27352
8.78901e+07,126.151,2,3.02579,-8687.11,-24957.6,-26688.1
8.81435e+07,98.3083,2,2.53654,968.706,-11061.1,-11207.5
8.82312e+07,85.7751,1,2.75023,-6321.77,9535.16,-14844.3
8.82606e+07,29.3146,2,2.42641,3615.08,-3485.04,-25120.2
8.85878e+07,165.787,0,2.93058,11142.7,-3248.43,1264.04
8.86634e+07,235.55,2,2.95987,6412.16,24375.9,13617.3
8.88578e+07,21.9026,0,2.47639,-572.925,537.073,-28632.5
8.88981e+07,304.969,2,2.97808,-17262.9,26983.1,31.4414
8.89008e+07,110.509,0,2.6428,16630.8,12316.8,-17957.3
8.89293e+07,233.393,1,2.82365,7396.97,20670.5,15038.7
8.95145e+07,61.1498,1,2.70472,-11213.3,-1114.2,-22487.3
8.97215e+07,74.6065,0,2.85707,5396.74,13172.5,-24926.6
8.97456e+07,4.08229,0,2.58427,373.524,-646.392,-28328.7
9.01472e+07,71.0451,2,2.6994,-5214.72,-14045.5,-27081.1
9.01664e+07,63.2152,0,2.64146,-3645.64,7929.01,-18736.9
9.02377e+07,23.1288,0,2.74679,1480.39,-2535.54,-24898.9
9.0323e+07,88.9429,1,2.71122,-8333.74,16176.1,-24010.4
9.11847e+07,118.965,1,2.46975,-2095.06,16169.9,-9609.15
9.17113e+07,51.2066,2,2.55097,-8394.1,-4627.33,-23704.8
9.18828e+07,167.093,1,2.91406,-13846.3,16983.3,-1386.82
9.19591e+07,6.79576,0,2.72969,1539.55,23.6334,-28797.1
9.20501e+07,160.152,0,2.55096,14267.1,-12980.9,-964.67
9.22068e+07,23.3466,0,2.8386,-920.611,4064.24,-26302.3
9.23198e+07,79.2332,0,3.01588,2856.53,8721.13,-14963.3
9.25717e+07,199.741,2,2.67092,28190.2,19044.8,-4123.97
9.25962e+07,59.2244,1,2.73375,879.893,11959.3,-25077.7
9.27243e+07,6.7916,1,2.96861,-646.748,90.2008,-27522.8
9.28354e+07,72.8402,2,2.49646,-4483.76,6888.34,-15837.4
9.30619e+07,163.802,0,2.49942,-17015.9,-22125.1,-8377.43
9.3281e+07,43.514,2,2.3804,-8299.44,1423.34,-24965.7
9.33063e+07,9.27073,2,2.64175,-1210.95,65.9598,-27239.6
9.33883e+07,76.089,1,2.86666,-11542.9,2344.47,-17972.6
9.35021e+07,51.6496,1,2.81741,2140.46,10197.6,-27451.4
9.35779e+07,67.3952,2,2.7542,-260.099,-12028.1,-21158.8
9.37367e+07,255.683,0,2.90431,-23349.8,-2757.51,19402
9.38043e+07,119.899,2,2.69267,-19385.1,-14650.6,-21533
9.38409e+07,105.044,2,2.87783,6832.12,3114.13,-9882.72
9.39358e+07,1.22484,0,2.63859,95.0188,-115.874,-28579.9
9.39584e+07,33.8795,1,2.46565,-3078.34,2817.1,-22962
9.41969e+07,107.504,1,2.79617,-8175.13,-11602.8,-11233.1
9.4586e+07,20.3781,1,2.44387,-1372.93,2046.16,-25220.5
9.46422e+07,4.12021,1,2.85476,-905.716,152.473,-28686.3
9.47328e+07,12.464,1,2.72543,1504.38,1952.32,-27816.5
9.47699e+07,107.437,0,2.63445,-18678.1,-1299.38,-22014.7
9.4889e+07,93.2832,1,2.94011,-17433,8957.45,-27262.7
9.48993e+07,148.457,2,2.72873,-7074.89,-19398.6,-29973.4
9.50856e+07,102.869,2,2.70902,-21260.7,-3726.99,-26113.2
9.52205e+07,93.9545,1,2.53795,7610.53,9525.13,-13113.1
9.53686e+07,183.842,0,2.82137,25758,-25857,-15938.6
9.55142e+07,23.9464,2,2.63662,-4909.48,-1564.6,-28609.7
9.56705e+07,170.491,1,2.67966,18461.5,-6635.5,-20023.1
9.5953e+07,31.0439,0,2.59897,-2189.08,5421.16,-26000.9
9.62815e+07,85.1733,0,2.52639,-3884.1,16385.4,-22427.7
9.63429e+07,79.7802,1,2.51417,-4285.1,16403.9,-29527.2
9.6409e+07,37.1756,2,2.67649,-3444.94,-1036.04,-21815.7
9.64656e+07,21.4732,1,2.99406,-1446.5,2894.37,-25604.9
9.66381e+07,44.4879,0,2.68579,5153.66,-7140.67,-25445.1
9.67501e+07,4.24543,0,2.80198,497.622,324.028,-28093
0,4.19881,0,2.36376,0,0,0
9.6857e+07,22.8794,2,2.8786,-4088.99,-959.094,-26382
9.70147e+07,179.018,0,2.92881,-9657.96,-15107.1,-18145
9.715e+07,22.7922,2,3.03728,-4642.81,656.182,-27719.4
9.7367e+07,25.5141,2,2.76407,-5313.76,981.884,-28816.8
9.76537e+07,6.08664,0,2.49359,791.865,-1097.14,-29058.9
9.76723e+07,7.81965,1,2.56989,-485.009,1491.63,-28055
9.85101e+07,116.506,1,2.46711,16423.4,11100.4,-14171.7
9.86668e+07,126.424,0,2.51016,20587.3,-17135.1,-28645.2
9.88832e+07,34.8961,0,2.92964,-7067.25,-1190.54,-27588.5
9.96218e+07,210.999,1,2.69433,-29998.3,9198.34,2716.5
9.96324e+07,129.318,1,2.95408,6674.86,26033.8,-24649
9.99827e+07,93.1533,1,3.04795,-16360.4,-3456.05,-18739.5
1.00076e+08,8.56286,2,2.6268,-1593.2,334.387,-27931.1
1.00163e+08,225.38,1,2.89678,-22503.8,-11546.9,11180.9
1.00754e+08,3.05269,1,2.67842,123.395,-451.91,-28434.2
1.01189e+08,62.7796,1,2.71636,-8507.01,2725.54,-19012.6
1.01404e+08,6.86836,2,2.62962,-1140.37,901.367,-28747.1
1.01622e+08,17.3609,1,2.61451,61.7594,1940.68,-25662.5
1.01685e+08,151.578,0,2.67571,7913.42,-21736.8,-6740
1.01831e+08,121.547,0,2.38273,17776,15460.6,-24680.6
1.02379e+08,28.9334,0,2.52264,4413.14,191.964,-24482.8
1.02557e+08,26.39,2,2.7907,2713.95,1149.36,-24141
1.02652e+08,36.6738,0,2.59136,5045.21,-2179.04,-23605.2
1.02883e+08,46.0093,1,3.0561,-3738.93,-7261.01,-28790.3
1.02933e+08,39.8096,0,2.79037,-1149.24,-959.403,-28333.2
1.03186e+08,123.103,0,2.65581,23334.6,-5844.52,-18797.9
1.03848e+08,4.5297,1,2.55445,-675.752,154.722,-29590.1
1.04361e+08,4.12724,0,3.03443,526.844,755.188,-28934.5
1.04976e+08,10.1525,1,3.01929,-1242.89,1767.89,-29326.1
1.05274e+08,4.13175,0,2.72036,888.489,-99.1225,-28470.8
0,4.23663,0,2.77347,0,0,0
1.05367e+08,41.4096,0,2.56373,-1358.09,5376.01,-22040.9
1.0583e+08,54.6407,0,2.5592,-8823.89,6915.56,-26334.6
1.05945e+08,7.52144,2,3.0235,-572.21,-539.311,-27419.6
1.05975e+08,13.9318,0,2.59718,1116.35,1019.22,-26247.7
1.06554e+08,46.77,2,2.83519,4759.98,-6301.61,-22902.6
1.0657e+08,35.6794,1,2.46592,-3556,387.578,-22163.7
1.06675e+08,160.087,2,2.72158,-23023.3,13123.6,-7977.55
1.06765e+08,44.0545,1,2.58281,5291.54,6388.56,-24560.9
1.06803e+08,83.7099,1,2.74273,5524.51,5609.81,-13043.5
1.07095e+08,151.339,0,2.60668,27659.8,-4824.1,-15697.7
1.07253e+08,45.8664,1,2.91333,7005.21,5134.5,-24574.2
1.07553e+08,15.9386,1,2.4458,-1777.92,184.915,-25919
1.07629e+08,52.356,1,2.99856,-7715.07,5907.13,-23567.4
1.08105e+08,17.4495,0,2.67867,951.532,3591.6,-28435.4
1.0826e+08,71.3305,0,2.88739,12614.4,5689.48,-22848.7
1.0843e+08,88.9592,0,2.73129,11174.3,3964.42,-14254.4
1.08471e+08,61.2121,0,2.71559,-10212.4,4189.17,-22240.6
1.08648e+08,162.06,1,2.53567,-24925.1,-4379.15,-5688.17
1.09106e+08,46.806,1,3.03053,-7304.82,6183.91,-26247.5
1.09426e+08,20.9523,0,2.44373,-1270.71,1808.17,-25022.5
1.10109e+08,175.406,0,2.84409,-27514.8,10282.9,-6663.98
1.10502e+08,194.833,1,3.0367,-27177.6,-6877.39,828.542
1.10561e+08,96.5267,2,2.76526,-4481.55,12504,-13484.2
1.1096e+08,145.265,2,2.60143,6042.28,-16385.1,-3584.95
1.11337e+08,36.2634,0,2.60979,6020.78,-661.095,-28830.6
1.11943e+08,77.1083,1,3.00543,-9550.73,12581.9,-24980.2
1.12024e+08,210.447,0,2.69663,-24556.5,1592.04,8005.92
1.12123e+08,30.6337,0,2.54953,4963.88,4310.88,-28618.1
1.12135e+08,40.1913,0,2.55765,-3551.65,-1630.42,-21299.8
1.12207e+08,75.6417,0,2.85761,9381.12,11672.4,-23262.6
1.12503e+08,27.9222,2,2.64114,2316.55,-3332.58,-24537.7
1.12548e+08,13.7232,0,3.03905,1303.3,-2485.61,-29636.9
1.12629e+08,89.5085,1,2.49492,15978.7,10154.7,-27826.7
1.13014e+08,17.8087,0,2.79689,1027.97,3658.87,-28734.3
1.13118e+08,32.2489,2,2.42021,-3811.86,-1703.14,-23380.1
1.13144e+08,46.7616,1,2.42454,8390.08,616.105,-23651.4
1.13316e+08,15.6976,1,2.36237,-1752.52,-2373.2,-27299
1.13452e+08,64.7554,0,2.7789,2355.08,-10356.8,-20250.1
1.13482e+08,215.24,2,2.77132,-29703.1,17305.3,702.617
1.13698e+08,65.6574,2,2.77327,11753.6,5725.38,-24511.5
1.1401e+08,183.19,2,2.58916,9587.04,-25169.8,-7321.28
1.14415e+08,135.074,1,2.41692,14841,11930.9,-7522
1.14721e+08,140.008,1,2.78578,-8889.57,16984.1,-6382.4
1.14818e+08,17.244,2,2.84943,-3453.54,-1366.38,-28705.2
1.14911e+08,9.58525,1,2.43445,-1489.56,-920.642,-29909.4
1.15064e+08,95.4713,0,2.97993,9755.27,10924.9,-15136.7
1.15341e+08,58.2695,1,2.86479,-2121.25,-3671.34,-26084.3
1.15391e+08,7.31817,1,2.36679,-181.147,1565.06,-29308
1.15584e+08,6.13971,2,2.58638,-449.443,-460.91,-27647.1
1.15616e+08,28.4621,1,2.90605,-4692.35,-3608.72,-29815.2
1.16071e+08,27.592,1,2.95175,2780.16,2335.92,-24285.4
1.16373e+08,99.1783,2,2.98865,19238,2508.86,-21406.5
1.16628e+08,8.31752,0,2.66345,1655.46,-502.188,-28147.3
1.16729e+08,18.5846,0,2.63531,357.59,-2128.87,-25532.5
1.16753e+08,64.2413,0,2.80454,3950.65,-12826.7,-26894.5
1.16775e+08,7.3374,2,2.64203,-551.193,-961.226,-27652.3
1.16918e+08,5.27599,0,2.75041,444.664,-1026.44,-28488.9
0,5.73239,1,2.42716,0,0,0
1.17223e+08,96.0966,2,2.64609,-19322.3,-3899.2,-23863.6
1.17613e+08,119.745,0,2.7134,-2053.3,24933.1,-25496.2
1.17878e+08,37.5388,0,2.89391,1057.81,-7814.01,-27983
1.18265e+08,175.303,1,2.58817,26824.3,-13864,-11837.6
1.18379e+08,8.79552,0,2.82299,1209.28,1005.5,-27718.4
1.18387e+08,132.273,2,2.46606,18576.1,-8364.18,-9644.8
1.19167e+08,31.5638,0,3.03533,2090.93,-3632.35,-23652.7
1.19302e+08,42.9726,2,2.41118,-5048.5,7416.12,-27389.4
1.19309e+08,16.6428,0,2.61113,2459.18,-2538.05,-28229.8
1.19331e+08,267.034,2,2.59758,-22941.5,29257.4,13550.6
1.1938e+08,94.0162,1,2.74469,7757.65,10873.6,-14188.1
1.19466e+08,47.9582,0,2.88172,8424.99,-5129.52,-26409.6
1.19776e+08,56.7817,2,2.90333,-2860.25,9906.32,-22998.3
1.19944e+08,45.704,0,2.69394,5920.42,-3414.23,-21950.9
1.19964e+08,46.5404,0,2.42804,6521.11,7460.1,-29224.2
1.20531e+08,81.3144,1,2.54499,-3337.45,16606.8,-25532.2
1.20594e+08,94.1759,2,2.73044,-15089.4,-11273.4,-22397.4
1.20651e+08,4.12105,1,2.95262,-635.023,364.987,-29444.7
1.20726e+08,98.5773,2,2.72376,13650.4,9813.62,-16715.4
1.20804e+08,144.92,2,2.81173,-11374,26676.9,-19585.2
1.21015e+08,308.456,0,2.98495,14708.2,29373.8,26811.7
1.2136e+08,100.239,1,2.50667,12826.7,12667.2,-17677.3
1.21542e+08,122.547,2,2.99815,-19577.5,-1260.28,-15269.5
1.21634e+08,2.5466,0,2.85489,244.243,553.713,-28853.3
1.21799e+08,212.724,2,2.90232,-18809.8,8605.42,10756.3
1.21879e+08,40.7048,0,2.84974,3407.5,-7878.07,-28385
1.22076e+08,177.516,0,2.81826,23800.7,28861.8,-28896.5
1.22982e+08,26.786,1,3.04029,1882.06,4321.08,-25699.8
1.2308e+08,42.8594,1,2.88973,-6189.56,-2255.11,-22648.3
1.23322e+08,106.823,2,2.40432,-19331.6,-3734.73,-17606.5
1.23775e+08,67.9473,0,2.64487,10867.1,6496.12,-21971.7
1.23959e+08,28.3178,2,2.91247,-5872.21,-168.482,-27537.1
1.24208e+08,433.807,1,2.47632,-4008.53,12671.8,1811.33
1.24213e+08,61.0612,1,2.85109,-11873.6,4039.17,-25744.2
1.24412e+08,49.9796,0,2.95466,9716.31,-3515.42,-26614
1.24481e+08,76.8763,1,2.50836,-14416.8,540.646,-21262.1
1.24656e+08,45.4516,0,2.79674,-6960.1,5927.3,-26123.6
1.25423e+08,59.9492,2,2.71453,-7271.31,-9479.2,-24419.6
1.25922e+08,82.1121,1,2.93379,6149.26,4062.7,-13233.7
1.26074e+08,53.9971,1,2.68623,10439.1,4574.82,-29158.7
1.26091e+08,69.5245,2,2.60044,9464.11,8022.28,-21044.2
1.26113e+08,20.8414,1,2.57978,-2668.21,3430.33,-27788.8
1.26406e+08,13.1312,2,2.55097,1004.84,-2076.59,-27226.7
1.26479e+08,51.669,2,2.95356,-4931.96,-4525.6,-20252.3
1.26516e+08,14.5028,1,2.84353,2284.01,763.457,-26994.2
1.26536e+08,52.3215,0,2.74192,9553.39,-2223.74,-23625.5
1.26582e+08,78.4873,1,2.81484,-3143.45,8379.24,-14915.1
1.26831e+08,4.66371,1,2.96945,-604.225,366.38,-28056.3
1.28116e+08,145.113,0,2.74586,11161.2,25343,-15776.6
1.28516e+08,46.3669,1,2.93864,-9034.02,3325.51,-26913.6
1.28552e+08,35.5968,0,2.52997,5443.41,-2160.37,-23997.9
1.28613e+08,221.102,1,2.93266,20729.2,-13399.1,-6973.63
1.28787e+08,157.583,2,2.78127,21586.9,-18117.1,-24717.9
1.29008e+08,113.821,2,2.85878,13543.1,4923.8,-9809.15
1.29445e+08,1.62701,0,2.44183,131.487,-265.752,-28593.5
0,1.6214,0,2.84188,0,0,0
0,1.60265,0,2.68716,0,0,0
0,1.61538,0,2.68869,0,0,0
1.29453e+08,8.63707,0,2.59504,1713.32,812.376,-29241.1
0,8.61692,0,2.64521,0,0,0
1.29522e+08,16.4735,2,2.61578,2479.02,-680.513,-26466.5
1.29937e+08,33.6347,1,2.99074,1150.02,3688.63,-22882.5
1.30026e+08,1.66032,2,2.64323,-379.978,-17.6752,-28654.7
0,1.70118,2,2.45687,0,0,0
0,1.6765,2,2.93051,0,0,0
0,1.6794,2,2.47058,0,0,0
1.30047e+08,70.1485,1,2.81078,1169.96,12750.2,-21341.9
1.30953e+08,128.276,1,2.47307,-10730.2,23175.5,-19441.8
1.31405e+08,61.0305,1,2.64287,7734.97,2170.23,-18810.3
1.31541e+08,5.23452,2,3.0084,-881.74,-665.412,-28369.5
1.3155e+08,137.336,2,2.98752,-13839.7,-7668.98,-4726.76
1.31669e+08,26.4739,2,2.98448,1220.13,-5158.33,-26942.5
1.31697e+08,112.575,0,2.39407,14579.3,6973.94,-11293.5
1.31906e+08,51.658,2,2.51773,-396.28,-169.329,-29709.6
1.32033e+08,32.0377,0,2.54167,4698.47,727.431,-23919.4
1.32121e+08,10.1071,2,2.70047,1150.02,1176.49,-27548.2
1.32241e+08,87.3174,0,2.76421,-12013.1,-5144.43,-15970.7
1.32251e+08,165.845,2,2.65597,11806.5,-26135.5,-12915.3
1.32269e+08,191.167,2,2.80216,15630.3,-19464.3,-24459.7
1.32289e+08,116.203,0,2.77283,13087.2,9516.3,-10459.4
1.32344e+08,3.37886,2,2.60326,-393.292,-372.249,-28257.7
1.32427e+08,67.7144,2,2.83196,10765.1,7709.38,-23838.4
1.33235e+08,36.6813,1,2.86688,-3497.61,4253.75,-23335
1.33362e+08,141.847,1,2.46499,14480,-22560.8,-15549.8
1.33468e+08,23.0828,0,2.57127,2129.6,-3251.39,-25785.2
1.33945e+08,65.9614,2,2.61097,-3872.06,-12847.7,-24732.8
1.3396e+08,107.168,2,2.97528,-11652.7,-5596.7,-12034.5
1.33989e+08,4.91609,1,2.55264,1029.79,50.2799,-28731
1.34045e+08,26.5402,2,3.04665,-3095.49,-4080.28,-26439.3
1.34108e+08,7.56553,0,3.04223,1487.67,-536.765,-28246.8
1.34405e+08,24.2485,0,2.54704,2625.58,-3451.74,-26019.5
1.34435e+08,8.53424,0,2.4222,779.328,-1177.8,-27622.9
1.34468e+08,51.9687,2,2.89411,5393.48,4027.59,-20295.3
1.34647e+08,46.5968,2,2.38112,-6409.59,-7594.36,-29011.9
1.34684e+08,92.8018,2,2.43006,-11531.5,2184.73,-13054.4
1.34908e+08,197.024,0,2.95709,17166.3,-18936.8,3693.37
1.35089e+08,26.0127,1,2.62102,3821.54,2879.05,-26070.7
1.35287e+08,26.6522,1,2.75955,3628.81,3881.89,-26915.1
1.35623e+08,88.3797,1,2.93881,-14723.3,-8478.65,-21424.4
1.36166e+08,48.2549,1,3.02688,-7026.09,1597.69,-21656.6
1.36213e+08,69.2815,2,2.70552,-13680.6,-4796.8,-26518.8
1.36309e+08,108.398,0,2.87945,10773.1,-3429.13,-25682.2
1.36606e+08,169.439,2,2.53336,-18656.2,-212.087,1779.36
1.37563e+08,115.173,0,2.72059,14300.7,13361.7,-14376.2
1.37904e+08,31.7028,0,2.57816,-1870.9,-4477.26,-24258.5
1.37939e+08,219.677,1,3.0104,19884,-1880.86,-26049.4
1.38771e+08,13.4839,1,2.75312,1633.04,2113.35,-27706.9
1.38871e+08,133.557,1,2.79325,-22438.1,14768.8,-20429.5
1.3924e+08,195.679,2,3.02375,-20716,-29421.2,-9045.77
1.39359e+08,142.742,0,2.90163,21685.8,-15323.8,-27699.4
1.3941e+08,21.635,1,2.70963,-2826.78,3677.01,-29489.7
1.39432e+08,91.0711,2,2.51043,11545.6,7661.82,-15507.2
1.39625e+08,6.54272,2,2.38664,1143.53,-806.194,-28601.7
1.39693e+08,54.8794,1,2.75129,3293.22,-4586.28,-18789.3
1.39881e+08,56.585,1,2.41038,6360.75,7071.7,-25748.5
1.40006e+08,12.593,2,2.50407,-2349.24,740.281,-27695.9
0,12.7033,2,2.45201,0,0,0
1.40323e+08,107.332,2,2.79188,-4533.11,9529.03,-8913.31
1.40327e+08,39.7199,0,2.85203,-6744.51,4775.71,-27940
1.40394e+08,126.621,2,2.98799,-24819,2360.98,-19620.5
1.40512e+08,102.325,1,3.01653,-9855.47,5018.53,-21977.8
1.41094e+08,163.992,0,2.58831,14061.1,21548,-5569.21
1.41173e+08,64.7654,0,2.55598,1763.41,1291.47,-26730.3
1.41539e+08,19.0559,2,3.014,3300.88,-1055.09,-26858.9
1.41579e+08,11.2421,2,2.93872,-2157.76,-809.796,-28029.3
1.41594e+08,68.6707,2,2.83331,5278.35,11037.3,-29601.4
1.4166e+08,26.2009,1,2.81452,-2486.42,4125.07,-25971.4
1.41825e+08,161.892,2,2.66135,7191.85,-27014.5,-9108.49
1.41927e+08,68.1085,1,2.95433,3202.73,13696,-25853.2
0,68.574,2,2.74354,0,0,0
1.41928e+08,6.20883,1,2.47925,-1300.67,541.522,-29016.4
1.42163e+08,131.884,2,2.52366,-17053.3,2382.09,-6862.18
1.42199e+08,153.537,1,3.05272,-8168.41,22893.9,-7725.9
1.42275e+08,10.8213,1,2.36984,-67.9248,-1030.92,-26814.1
1.4247e+08,8.78765,0,2.77828,1146.28,1268.53,-27947.1
1.4267e+08,96.6236,1,2.68112,-13933.9,-14831.5,-28102.3
1.42811e+08,98.1432,1,2.37166,-521.504,10570.4,-11051.1
1.43598e+08,17.456,2,2.68735,-3666.91,-891.904,-28682
1.43698e+08,37.0596,1,2.42585,-5268.8,4941.23,-25551.8
1.44155e+08,11.5936,1,2.45604,623.323,1595.4,-26995.8
1.44478e+08,21.9326,1,2.50247,1142.49,4276.84,-27199.5
1.44584e+08,107.49,1,2.60719,9762.75,18906.7,-20746.5
1.44733e+08,74.0597,1,2.85387,15196.8,-608.529,-25603.1
1.4478e+08,6.7583,1,2.91774,-1442.8,391.37,-28874.3
1.44901e+08,84.724,0,2.46371,9308.98,-720.078,-13495.7
1.44941e+08,31.3936,2,2.407,-4184.91,5060.74,-27975
1.44947e+08,6.56024,1,2.58855,-1322,410.388,-28371.2
1.45193e+08,1.59741,2,2.62374,2.77643,-23.5736,-28496.4
0,1.52944,2,2.94683,0,0,0
0,1.52275,2,2.42802,0,0,0
1.45639e+08,1.03242,0,2.98616,119.109,-237.904,-28751.8
1.45719e+08,141.36,2,2.65398,-3729.12,14616.5,-5823.68
1.45828e+08,80.6654,2,2.7519,3839.17,-8901.08,-21019.6
1.45834e+08,64.8223,1,3.03239,12866.9,-2120.17,-25112.3
1.45958e+08,199.836,1,3.04611,-29865.7,27870.1,-19314.5
1.45995e+08,20.2456,2,2.90463,382.321,-3012.44,-29838.1
1.46177e+08,132.415,2,3.01486,-22113.4,10904.3,-16075.6
1.46677e+08,68.2729,2,2.47853,-6101.79,-10695.1,-21168.4
1.46956e+08,26.3655,0,2.72699,2301.25,2643.71,-24467
1.46977e+08,45.6859,2,2.65754,2558.98,-9334.87,-28010.9
1.47071e+08,142.03,0,2.70352,19546.4,-710.596,-6107.37
1.47454e+08,112.683,1,2.85875,-16099.4,4575.95,-12012.7
1.47735e+08,26.2931,0,2.70144,2331.17,-1848.92,-24098.1
1.47919e+08,5.35571,1,2.57101,-464.973,1165.84,-28884.2
1.48259e+08,8.12715,1,2.53484,-968.528,-1414.63,-28791.9
1.48297e+08,79.1896,2,2.68878,-8413.09,-7756.78,-16598.2
1.4844e+08,1.58163,2,2.44782,110.185,-366.125,-28713
1.48703e+08,64.2179,2,2.54805,-3648.43,-12081.4,-23646.8
1.48784e+08,148.202,0,3.04551,24094.9,-11606.8,-12925.7
1.4889e+08,41.9364,0,2.71923,-153.671,5376.52,-21818.7
1.49069e+08,3.56293,0,2.38021,503.05,-665.935,-28904.7
1.49101e+08,16.356,0,2.50367,1505.69,3102.55,-28092.5
1.49228e+08,54.8667,0,2.90576,-3084.27,-9953.06,-23909.3
1.49436e+08,48.0119,0,2.81534,-5899.19,457.047,-20719.5
1.49728e+08,15.4692,2,2.68988,-3219.59,-601.125,-28148
1.49738e+08,66.4717,0,2.48436,12878.1,3680.86,-24309.3
1.50093e+08,1.63591,2,2.8378,-155.451,-290.825,-28580.9
0,1.64317,2,2.8545,0,0,0
1.50361e+08,196.788,1,2.44772,-12271.8,24354.3,-12811
1.50467e+08,24.0808,0,2.55923,-3165.44,1204.98,-25112.7
1.50637e+08,42.1155,0,2.72335,5419.13,3829.93,-22860.5
1.50715e+08,241.218,1,2.54421,-13929.8,-9604.66,-7540.76
1.51029e+08,54.5201,1,3.04029,-5044.87,2842.77,-18944.9
1.51051e+08,53.5421,2,2.73787,-5019.77,-6981.62,-21410.4
1.51103e+08,28.7496,0,3.01578,3236.87,450.479,-23716.1
1.51298e+08,39.82,0,2.52357,1617.46,-7230.12,-24754.2
1.51591e+08,85.878,2,3.01228,-17007.4,-4869.66,-25253.4
1.51751e+08,112.564,0,2.7039,12751,16459.6,-17320.7
1.51877e+08,19.5978,0,2.61791,-318.982,4052.97,-27982.7
1.5212e+08,42.2283,2,2.92762,5505.92,-4208.82,-23261.2
1.52287e+08,46.8377,1,2.85157,-6040.28,5410.59,-23111.3
1.52434e+08,49.2947,1,2.39331,2313.24,7976.52,-22476.9
1.52737e+08,148.834,0,2.91273,-2513.23,-28891.5,-17272.5
1.52741e+08,115.058,1,2.43514,-14110.5,7856.27,-10654.6
1.53501e+08,58.5742,2,2.92823,7967.27,-3236.61,-20031.6
1.53541e+08,138.835,1,2.58908,16425.8,21969.7,-18310.7
1.53613e+08,25.8882,1,2.94588,1963.55,-1550.58,-24033.3
1.53696e+08,130.098,0,2.49513,18532.4,-3920.2,-8807.88
1.53699e+08,119.304,2,2.65347,13921.7,-19442.6,-20856.9
1.53763e+08,89.0406,2,2.89817,-11180.8,-12008,-19690.2
1.53885e+08,14.3273,0,2.6713,2653.3,88.7501,-27236.8
1.53954e+08,23.3939,2,2.69361,60.5718,-3537.61,-25293.8
1.54362e+08,144.084,1,2.63465,-3454.72,28654.1,-18988.2
1.54828e+08,75.0037,2,2.38476,-4093.29,5485.28,-16497.9
1.54952e+08,246.659,2,2.93619,-19944.3,5319.29,4587.73
1.55126e+08,22.001,2,2.90766,-2406.57,3588.68,-27199.9
1.55193e+08,130.959,2,3.03394,-2792.51,11534.6,-4111.9
1.5525e+08,123.855,0,2.41924,6270.08,15114.8,-8339.07
1.55332e+08,137.832,2,2.74638,21560.3,-8986.31,-11633.4
1.55446e+08,105.306,1,2.86202,10478.8,17917,-22131.9
1.55471e+08,56.5483,2,2.6654,418.629,6777.36,-19071.7
1.55539e+08,11.0397,0,2.74055,-99.6261,-1187.46,-26810.6
1.55717e+08,66.9234,2,2.51241,-9163.74,-353.702,-18015
1.55955e+08,146.944,2,2.47789,16243,-25961.6,-23273.4
1.56131e+08,151.44,0,2.47515,-17846.3,-17161.6,-8568.13
1.56152e+08,31.1034,2,2.84378,-3855.08,-4434.22,-25767.2
1.56176e+08,2.96189,1,2.61376,-52.8186,-242.868,-28258.6
1.56371e+08,68.4775,0,2.85197,14317.5,-400.411,-26809.3
1.56955e+08,94.3187,1,2.48708,5723.9,-10359.2,-12829.1
1.56972e+08,65.9462,1,2.48129,-11253.4,8326.37,-29969.4
1.56979e+08,80.5877,1,3.05284,-4565.92,15895,-24969.8
1.57709e+08,182.357,0,2.41704,15934.9,28445.1,-8123.03
1.58139e+08,22.5132,0,2.71959,4547.44,1195.31,-29989.8
0,22.3036,0,2.39474,0,0,0
1.58208e+08,99.7845,1,2.599,-19692.8,7744.62,-28638.9
1.58317e+08,195.879,2,2.68514,13976.2,-25690.2,371.086
1.58389e+08,14.8443,0,2.99931,2857.62,-428.505,-27431.5
1.58539e+08,58.1207,1,2.67057,-10692.9,2946.72,-23456.9
1.58592e+08,77.1818,1,2.96988,-4608.56,15610.3,-28842.4
1.58603e+08,127.745,1,2.3846,-23980.7,5438.66,-17431.9
1.58854e+08,22.7968,0,2.9874,3453.14,-1747.76,-25883.5
1.58879e+08,115.743,1,2.96501,-19617.4,13711.2,-24276.8
1.59129e+08,4.46389,1,2.80187,-101.42,1024.06,-28740.1
0,4.39068,1,2.55289,0,0,0
0,4.37258,1,2.36524,0,0,0
1.59165e+08,160.74,1,2.4352,-7742.48,29896.2,-14431.7
1.59265e+08,34.7385,1,2.60682,-6331.65,626.017,-25068.1
1.595e+08,108.044,1,2.8975,-16190.6,7069.53,-14494
1.59553e+08,138.254,0,2.69032,4393.19,20923.5,-9017.6
1.59723e+08,131.761,0,2.45192,-16532.3,11603.3,-17463.1
1.59848e+08,96.8975,2,2.75131,-11381.8,16466.7,-24939.5
1.60055e+08,201.188,2,2.75698,-13600.3,-12419.8,9344.07
1.60149e+08,5.2788,1,2.78702,-1141.05,381.31,-28829.4
1.60554e+08,30.575,2,2.67858,-3817.19,-3773.96,-25123.2
1.60836e+08,175.971,1,2.60938,-15372.3,1744.51,-25159.8
1.61136e+08,51.38,1,2.94374,-8857.05,-5771.41,-26701.8
1.61194e+08,26.9667,0,2.72602,2532.66,1870.62,-24046.7
1.61306e+08,164.962,1,2.71431,-7626.36,158.408,-14892.7
1.61477e+08,110.186,0,2.90572,-6214.98,11188.9,-13348.8
1.61538e+08,177.063,2,2.94615,-8028.19,-7917.25,4041.55
1.6174e+08,29.5367,1,2.60419,1908.88,-5175.83,-26055.4
1.61855e+08,102.965,1,2.6649,-9113.9,12514.1,-13504.3
1.62332e+08,87.8379,0,2.60451,10370.6,3989.98,-13916.1
1.62359e+08,61.6492,2,2.68666,-8510.47,3880.51,-19764.9
1.6237e+08,195.644,0,2.80102,4087.05,272.905,-26743.6
1.62374e+08,85.4063,2,2.5674,-6479.76,-13260.8,-18314.6
1.62475e+08,25.3393,1,2.7375,-1041.45,4036.37,-25386.4
1.62527e+08,84.7181,0,2.68214,-4491.11,-14975.7,-20244.6
1.62783e+08,103.866,2,2.38911,3349.65,16209.9,-14452.3
1.62818e+08,33.2608,2,2.92137,-1589.65,-6392.26,-26261
1.63523e+08,48.5713,1,3.01556,-2938.79,3324.91,-19614.2
1.63852e+08,77.2351,2,2.78001,-6802.39,-13501.6,-22623.2
1.64924e+08,17.4584,2,2.82468,-1321.61,-3183.84,-27391.1
1.65063e+08,111.408,0,2.75402,-3939.45,-10873.5,-8434.89
1.65108e+08,28.5546,1,3.04959,5136.19,2336.86,-26824
1.65208e+08,74.8256,2,2.75608,-14685.1,1475.59,-23153.1
1.65255e+08,54.3805,0,2.71895,11435.6,-1186.47,-27541.6
1.65268e+08,66.0312,2,2.70686,-12381.6,-5596.37,-25468.5
1.65307e+08,16.3372,2,2.93897,-232.551,-349.449,-28237.7
1.65309e+08,69.7176,0,2.73832,5174.35,-4843.5,-15926.1
1.65948e+08,67.252,0,2.73355,11866.8,1637.72,-21097.7
1.65985e+08,75.6411,2,2.66388,8867.64,-11254.8,-24572.9
1.66264e+08,64.3894,2,2.77769,6442.03,7835.8,-19951.4
1.66613e+08,80.4147,2,2.64575,-4436.75,16181.9,-26529.9
1.66817e+08,24.3262,1,2.56034,-1562.76,-2989.2,-24981.4
1.66876e+08,14.3263,0,2.78125,403.699,-1964.96,-26559.3
1.67106e+08,29.0673,1,2.81732,-5469.31,2906.72,-29234.3
1.67283e+08,55.1193,1,2.83682,1640.39,4380.67,-18190.5
1.67886e+08,59.6342,0,2.54322,106.212,-1203.08,-28940.9
1.67942e+08,66.4602,1,2.98833,-9173.34,-10065.3,-25863.8
1.68059e+08,45.5837,1,2.91288,-1453.42,4779.4,-20601.8
1.6808e+08,47.5845,2,2.68462,3417.05,-7688.11,-23247.2
1.68662e+08,51.8229,2,2.60616,-10348.2,-2349.1,-25835.6
1.68769e+08,49.8999,2,2.43927,10000.6,-2759.1,-26831.9
1.68831e+08,3.44391,1,3.00726,-667.882,463.158,-28677.8
1.69324e+08,87.7385,2,2.64208,-14523.2,-7570.89,-20070
1.69469e+08,9.60416,2,2.40171,-742.884,-1897.32,-28312.5
1.69658e+08,2.07726,2,2.67528,-152.947,-277.59,-28439
0,2.53471,1,2.48474,0,0,0
0,2.44883,1,2.79775,0,0,0
1.69904e+08,11.5012,1,2.78401,-1611.65,-1808.19,-28986.6
1.70006e+08,87.1964,2,2.58839,-4239.89,-7699.28,-12590.2
1.70136e+08,15.4636,2,2.7892,1233.21,-471.457,-25836.4
1.70366e+08,12.393,1,2.91696,-2353.13,1308.15,-28576.2
1.70422e+08,81.8577,2,2.93516,-7886.19,-14125.2,-23048.5
1.71215e+08,45.0862,2,2.36938,577.813,-8943.86,-25307.5
1.71462e+08,58.1442,0,2.9796,1594.36,-7944.42,-19707.3
1.71555e+08,77.524,1,2.98278,14307.2,-1992.68,-21469.1
1.71646e+08,137.482,0,2.46088,21226.7,16803.8,-18027.6
1.71664e+08,48.0404,2,2.78038,4632.64,5752.36,-22030.7
1.71732e+08,62.139,2,2.9936,-6750.53,2659.09,-17985.7
1.71957e+08,62.0399,0,2.39923,-1342.89,12374.4,-24588.9
1.71973e+08,218.405,0,2.60343,18435.6,27059,3706.29
1.72203e+08,59.9026,2,2.55258,3394.11,-3955.91,-17262.1
1.72316e+08,49.4394,0,2.90665,6803.36,-2661.38,-21366.9
1.72472e+08,184.011,0,2.93271,-10585.9,26800.8,-3134.04
1.7254e+08,133.602,1,2.49463,-14714.6,-9721.47,-6760.15
1.74207e+08,28.6814,1,2.77319,-1234.36,5456.04,-26311.1
1.74385e+08,22.3927,1,3.01973,-4307.46,-1398.34,-27489.5
1.74707e+08,25.3898,2,2.6626,3980.84,-1803.82,-27654.8
1.74738e+08,43.9091,1,3.01508,4793.15,6097.23,-23790.3
1.74809e+08,260.47,0,2.64878,-29080.7,24284.1,-16844.8
1.74967e+08,25.8007,2,3.04581,-4190.27,-2010.4,-25965.1
1.74999e+08,43.3129,1,2.98011,-2417.96,-8675.15,-28389.4
1.75012e+08,113.61,1,2.77354,-5747.74,-17326.7,-13417.8
1.75448e+08,163.359,0,2.87391,23557.8,25069.9,-28390.5
1.75505e+08,37.7995,2,2.78228,4183.2,-6658.89,-27262.4
1.75623e+08,43.5048,2,2.42238,-8191.75,1379.93,-24822.5
1.75642e+08,9.34283,2,2.92224,-1348.59,-1506.17,-29311.8
1.76507e+08,145.543,0,3.05436,18024.8,-7787.16,-5479.09
1.76544e+08,183.251,0,2.93122,13576.5,-10091.9,5730
1.76568e+08,101.484,1,2.75445,-1235.78,17280.4,-16197
1.76848e+08,152.597,0,2.8697,2378.57,5173.24,-21010.8
1.7714e+08,71.8703,0,2.36814,-1457.3,7821.59,-15865.5
1.7717e+08,5.6569,0,2.67532,-215.986,-532.925,-27781
1.77192e+08,16.7183,1,2.84485,-2581.55,1913,-27183
1.77286e+08,163.004,2,2.7063,8868.88,-27733.4,-10502.8
1.77326e+08,82.4581,2,2.57579,-2798.28,14796.8,-20162.2
1.77602e+08,1.90226,1,2.97005,-369.141,52.725,-28566.5
0,1.89604,1,2.63598,0,0,0
1.77807e+08,2.68122,0,2.46888,228.106,298.263,-28340.7
1.78041e+08,26.004,1,2.41581,2687.67,4893.74,-28789.1
1.78119e+08,6.13037,2,2.46821,-585.092,-558.033,-27756.3
1.78506e+08,10.3094,1,2.65264,-1823.83,915.635,-29786.5
1.78631e+08,128.933,0,2.79356,-5031.1,22563.7,-14610.6
1.79789e+08,13.6281,0,2.80525,1667.07,1482.16,-26931.2
1.79839e+08,40.3269,0,2.54486,4659.01,-3536.87,-22564.4
1.79946e+08,28.968,1,2.47478,4701.46,1976.07,-25406.6
1.81087e+08,7.18716,1,2.56507,-1087.63,1222.83,-28955.9
1.81584e+08,2.57196,2,2.93295,-314.293,-265.794,-28382.1
1.81776e+08,67.963,0,2.80084,1735.57,377.942,-16727.4
1.81924e+08,111.003,2,2.79304,-15347.4,15162.6,-19889.8
1.81996e+08,42.8223,0,2.77521,-1375.46,8732.05,-27020
1.82317e+08,33.5465,2,2.67579,5192.71,-1730.9,-24374.3
1.82375e+08,29.6316,1,2.95098,497.842,3767.83,-23853.3
1.82424e+08,58.2432,1,2.52244,-1321.49,-5863.24,-18100.4
1.82812e+08,25.586,1,2.77937,4747.86,-430.449,-26349.3
1.82833e+08,72.5333,1,2.93938,9936.18,11611,-29192.7
1.83093e+08,9.54701,2,2.82878,1928.78,-423.602,-28474.5
0,9.09492,0,2.93951,0,0,0
0,9.03257,0,2.73197,0,0,0
1.83229e+08,144.679,1,2.36646,12849,7675.89,-2109.39
1.84298e+08,87.9574,1,2.68337,-5247.15,6549.11,-12998.6
1.84421e+08,89.7721,2,2.60244,583.492,11462.9,-13767.6
1.84495e+08,53.7397,2,2.56387,-4794.08,1456.78,-18620.8
1.84545e+08,93.1865,1,2.61703,-12444.6,-1083.43,-13611.5
1.84875e+08,1.246,1,2.75944,-209.713,141.191,-28630.8
1.85011e+08,189.68,1,2.99168,8357.84,26363.5,-235.933
1.85168e+08,14.8112,1,2.65051,-1855.96,2543.06,-29608.2
1.85233e+08,24.3089,0,3.04089,3522.89,-3066.09,-26652.8
1.8531e+08,39.8186,1,2.86161,3433.23,-7045.76,-26047.2
1.85424e+08,25.9586,0,2.7471,-514.017,3155.36,-24378.2
1.85539e+08,116.077,0,2.69685,-1351.93,-13654.6,-8587.49
1.85724e+08,148.341,1,2.77633,-13712.8,22219.2,-11570.3
1.85733e+08,118.406,0,2.73608,9405.78,18320.5,-14721.5
1.85986e+08,249.041,2,2.82615,4354.88,-26638.7,16076.8
1.86047e+08,3.36963,2,2.5935,-51.0375,-697.323,-28525.1
1.86152e+08,38.907,2,2.83394,-610.07,-6524.85,-23803.5
1.8619e+08,36.9484,2,2.92073,-4716.89,5008.98,-25307.4
1.86505e+08,38.1485,2,2.49698,-1833.7,-6200.64,-23909
1.87091e+08,56.304,1,2.38321,-10814.3,4668.67,-26501.3
1.87096e+08,116.243,1,3.0232,-14075.1,-690.018,-11375.8
1.87146e+08,95.5603,2,2.47502,-828.558,-16674.9,-17313.3
1.87549e+08,49.1893,1,2.39544,-4064.17,6372.46,-21570
1.87581e+08,55.7724,1,2.39174,-10025.4,3296.75,-23384.7
1.87847e+08,116.037,0,2.65882,14402.2,-19231.3,-24014.7
1.87914e+08,130.715,0,2.75679,2210.92,-14351,-5423.39
1.87919e+08,67.3114,0,3.03623,-1092.83,6420.83,-16326.3
1.88134e+08,1.80262,2,2.3843,-269.146,-415.253,-28909.7
1.88305e+08,78.741,1,2.88531,-14301.5,7840.44,-26114.4
1.88317e+08,6.02695,0,2.4748,1332.26,-138.232,-28616
0,6.4817,2,2.92259,0,0,0
1.88781e+08,31.619,2,2.83456,-2663.44,-4629.38,-24767.1
1.89211e+08,41.4402,2,2.65807,2420.27,-8427.05,-28012.4
1.89455e+08,111.305,0,2.72715,21052.3,7606.02,-21570.5
1.89537e+08,217.763,1,2.81748,23659,-8237.73,9454.02
1.89651e+08,152.553,0,2.74885,-13046.3,-29293,-27078
1.89682e+08,89.0885,1,2.37032,-15490.9,-4536.41,-19051.2
1.89923e+08,15.8663,1,2.58681,-1719.12,417.459,-25939.7
1.90112e+08,47.284,0,3.00113,-3106.41,2712.7,-19818.9
1.90188e+08,3.48578,0,2.42429,221.645,80.4856,-28092.4
1.90211e+08,32.6323,1,2.56772,3020.71,5578.48,-25970.3
1.90582e+08,18.7881,2,2.86356,783.705,-2040.59,-25481.6
1.90919e+08,89.8861,2,2.91835,-15339.2,5071.17,-19025.3
1.90939e+08,54.5558,2,2.70298,-3279.19,-8507.05,-21702.4
1.91063e+08,2.87236,2,2.50907,463.509,-480.201,-28847.5
1.91365e+08,102.261,2,2.95405,-13053.1,16854.3,-26771.6
1.91488e+08,3.2545,2,3.02203,-79.9955,298.529,-28237.1
1.91862e+08,51.1445,1,2.96829,-930.509,6423.18,-20228.9
1.91936e+08,16.0549,0,2.50528,2453.52,-2352.31,-28082.1
1.92038e+08,17.5283,2,2.41957,-268.114,-3810.74,-28820
1.92064e+08,78.4974,2,2.58315,9918.4,-9021.52,-19015.9
1.92156e+08,22.6793,1,3.0097,-2583.61,3630.57,-27430.1
1.92238e+08,25.5215,0,3.01561,-2532.27,-92.5426,-24159.9
1.92388e+08,72.4138,0,2.46761,-1305.12,13982,-22700.8
1.92573e+08,19.214,2,2.3677,-2652.73,-2875.9,-27400.3
1.93766e+08,43.019,2,2.6838,-3267.95,-8348.78,-28950.7
1.93883e+08,17.1632,2,2.48542,-1857.71,25.6608,-25663.4
1.93918e+08,9.35745,2,2.54897,-939.368,-1162.01,-27431.1
1.93998e+08,88.3922,0,3.05123,17603.3,-1109.05,-22889.5
1.94018e+08,90.6254,0,2.86321,-6074.27,-17116,-25528.6
1.94385e+08,134.336,0,2.97715,10910.7,-15017.7,-7674.78
1.94692e+08,47.697,1,2.65504,-5131.34,5323.18,-21898.2
1.94953e+08,33.6032,1,3.05947,-5410.51,-1097.48,-24431.2
1.95327e+08,10.3145,0,2.93664,1757.99,-934.485,-27762.9
1.95607e+08,7.64842,1,2.86823,498.311,193.288,-27299.1
1.95615e+08,159.521,0,2.95476,11238.4,8706.59,1499.63
1.95624e+08,35.575,1,2.97637,4050.69,6144.02,-27292.5
1.95648e+08,5.54289,0,2.85701,467.696,924.575,-28194.6
1.96084e+08,45.3631,2,3.02558,-5685.47,-392.274,-21214.1
1.96465e+08,19.0079,1,2.85463,-4016.65,-477.352,-29061.2
1.96633e+08,42.2698,2,2.46819,1963.01,-7842.98,-24881.4
1.9683e+08,27.3004,1,2.50673,3383.03,4679.23,-27964.1
1.97256e+08,15.7814,2,2.80831,-1334.52,1119.21,-26029.9
1.97262e+08,26.2736,2,2.68609,-2126.3,-4334.3,-26475.5
1.97419e+08,41.6759,0,2.78092,-5596.82,-384.471,-22206.9
1.97738e+08,26.4391,1,2.41374,104.465,3981.81,-24806.9
1.97763e+08,57.4583,2,2.52808,11035.3,-3212.69,-24860.5
1.9785e+08,37.6441,0,2.57068,442.271,-7089.96,-25199
1.97909e+08,98.7467,1,2.783,-11723.7,15493.3,-21190.7
1.98032e+08,74.3353,0,2.89268,-5583.86,-10413.9,-18661.7
1.9978e+08,23.7449,0,2.53893,-894.048,2566.41,-24598.2
2.00455e+08,84.822,2,2.8421,-1364.9,-7930.52,-12869.5
2.00533e+08,3.82826,0,2.55175,678.051,6.70894,-29444.4
2.00595e+08,75.6204,2,3.0461,12124.9,6631.57,-21237.4
2.00737e+08,77.2279,2,3.01302,6551.19,-11843.3,-27996
2.0102e+08,12.1834,2,2.78912,-1788.29,-1379.03,-28332.4
2.01028e+08,147.184,2,2.87477,-20113.7,19232.3,-15352.8
2.01327e+08,40.3191,2,2.78624,7876.88,2829.93,-27716.6
2.01387e+08,5.06779,2,2.78826,-1101.15,-353.172,-28811.9
2.01421e+08,36.1227,0,2.93811,7362.19,-2145.29,-28786.2
2.01646e+08,168.394,1,2.94035,5670.34,26675.4,-6292.78
2.01974e+08,89.3149,0,2.60816,13826,11436,-22804.2
2.02147e+08,49.9446,2,2.46714,-5732.32,-463.085,-19936.2
2.02215e+08,18.7612,2,2.75955,-2170.92,-2389.73,-26435
2.02413e+08,83.8619,1,2.98929,-2245.98,9208.22,-27216.3
2.02466e+08,11.5508,0,2.94497,1632.85,-1089.06,-27305.3
2.02668e+08,153.541,0,2.37669,21261.4,5473.93,-4803.51
2.02909e+08,38.8888,2,2.61943,816.319,5250.96,-22627.2
2.03494e+08,52.6896,1,2.85697,-2789.5,8639.89,-22401.8
2.03879e+08,21.8852,2,2.83213,-4326.22,1348.52,-27851.5
2.03993e+08,43.9456,1,2.99596,-8162.08,-4322.67,-28577.9
2.04028e+08,24.7549,1,3.01597,-4962.17,1566.22,-28069.1
2.04129e+08,5.37802,1,2.9734,225.931,823.579,-28035.2
2.04196e+08,23.7361,1,2.76382,-2476.88,4479.17,-28896.7
2.04558e+08,256.002,0,2.41161,-10744.3,18467.7,-6943.15
2.04737e+08,300.073,1,2.96649,71.6501,-1743.77,-1968.34
2.0484e+08,45.6788,1,2.50994,7031.97,-4354.74,-23962.3
2.05032e+08,148.889,2,2.9355,7105.19,-23214.2,-9071.52
2.05205e+08,64.3469,2,2.49267,-1455.74,8916.87,-18735.2
2.05251e+08,89.232,0,2.88639,13519.5,-8982.37,-19297.2
2.05354e+08,31.1528,1,2.96606,1654.11,-3547.38,-24628.9
2.05516e+08,25.3724,0,2.39473,5225.39,1657.68,-29059
2.05608e+08,131.381,1,2.47116,-22328.2,-5013.2,-13013.1
2.05672e+08,55.6756,0,2.6433,-4014.45,3072.36,-27024.7
2.05698e+08,77.0084,2,3.05446,-5570.41,3358.51,-29522.1
0,170.31,2,2.64075,0,0,0
2.05804e+08,152,2,2.64992,2110.83,-23712.5,-7252.82
2.05991e+08,70.0657,0,2.77196,-1909.62,-9634.78,-20629.3
2.06526e+08,54.9967,2,2.74301,64.6002,-9431.82,-21966.9
2.06829e+08,128.884,1,2.5724,-14970.5,-9663.46,-8223.46
2.06902e+08,78.26,2,2.75346,-5028.86,-10378.3,-16953.1
2.06975e+08,16.3569,2,2.82445,10.1539,-3433.43,-28049.8
2.07071e+08,101.373,0,2.83841,-7042.88,-13262.4,-19275.2
2.07087e+08,190.85,2,2.46237,27596.3,-28528.3,-21279.5
2.07146e+08,130.07,1,2.53032,-6000.01,26847.1,-26858
2.07215e+08,83.8369,0,2.88226,7618.72,-1637.51,-12995.8
2.07305e+08,218.269,2,3.04018,25472,-25625.6,-810.404
2.07472e+08,38.4966,1,2.57259,-4725.6,6748.67,-28948.1
2.07552e+08,18.1882,2,3.02119,-2500.98,2486.35,-27438.2
2.07795e+08,129.876,1,2.38655,16510.6,21275.1,-23065.1
2.07848e+08,24.7307,0,2.42143,4016.73,-1626.1,-25750.2
2.08002e+08,24.8177,2,2.41373,-4122.67,2328.1,-26476.2
2.08243e+08,267.482,0,2.76575,25915.8,-8719.33,20421.6
2.08321e+08,160.418,1,2.67633,-29860.4,13091.4,-19522.6
2.08768e+08,142.538,0,2.69273,22894.2,-6220.32,-10290.4
2.09015e+08,82.8573,2,2.98399,14789.4,-7138.84,-24314.1
2.0904e+08,170.469,2,2.80641,-24492.7,1597.91,-2651.88
2.09472e+08,5.90003,1,2.37722,-726.426,-61.1469,-27782.6
2.09881e+08,77.2624,1,2.36273,175.443,-424.881,-29206.5
2.09889e+08,54.0258,1,2.62088,-10060.4,-5287.97,-27595.2
2.0997e+08,167.483,0,2.85623,23549.2,3223.38,-6032.2
2.10098e+08,82.7619,0,2.84403,12638.7,-5482.53,-18082.8
2.10232e+08,2.68009,0,2.58736,643.425,157.137,-28680.6
2.10432e+08,4.99152,2,2.84586,371.931,-897.991,-28281.7
0,5.02403,0,2.63598,0,0,0
2.10478e+08,8.32782,0,2.37613,345.693,430.064,-27142.6
2.10882e+08,46.3219,0,2.40856,3027.33,-7857.84,-23707.7
2.11005e+08,5.42472,2,2.98745,-76.1279,-508.146,-27762.7
2.11185e+08,127.771,2,2.72838,-11202.9,-17980.1,-13796.6
2.11538e+08,155.793,0,2.72361,11504.5,-21423.2,-6726.2
2.11575e+08,113.814,0,2.578,-2209.54,-12612.9,-8477.75
2.11575e+08,46.8756,1,2.52354,-9834.88,1563.75,-27996.4
2.11975e+08,117.197,2,2.90657,-3196.4,-8500.72,-5958.3
2.12161e+08,40.1827,0,2.78425,-5417.03,4908.2,-24614.2
2.12348e+08,17.0505,2,2.94663,-3616.71,-397.935,-29334.2
2.13184e+08,86.803,0,2.48785,2970.6,11109,-14497.5
2.13545e+08,19.8619,1,2.52806,1106.45,4150.3,-28948.1
2.13666e+08,194.367,1,2.52294,-29639.3,12924.2,-3406.06
2.13787e+08,163.975,2,2.84073,18113.3,-16532.5,-4586.13
2.14022e+08,59.1963,1,2.48987,-7697.99,9982.47,-29263.7
2.1411e+08,53.7781,1,3.00703,-3178.87,9528.3,-28583.2
2.14209e+08,30.5453,2,2.3932,-3945.17,-5141.45,-27696.7
2.14252e+08,32.1133,0,2.61772,192.609,3458.24,-22972.2
2.14585e+08,87.2732,0,2.41684,16855.7,-5368.08,-23199.9
2.14944e+08,93.5511,1,2.42951,-46.7263,11899.1,-12976.8
2.14952e+08,91.9243,2,2.59312,-5059.47,-18377.9,-24665.2
2.15199e+08,13.3938,0,3.02838,2181.25,-1851.63,-29047
2.15385e+08,53.9811,2,2.84346,6168.02,-6160.96,-21515.4
2.15699e+08,30.7353,0,2.82611,785.373,5794.28,-25988.4
2.15802e+08,115.379,1,2.76272,-248.347,9834.58,-23198.7
2.15939e+08,147.923,2,2.95204,-21031,11357.8,-9030.4
2.16022e+08,42.1459,0,2.43974,-7703.47,-2139.11,-24995.8
2.16156e+08,60.5706,0,2.7552,-2550.75,-12197.1,-26122
2.16301e+08,80.3242,2,2.95738,10909.4,9441.05,-20231.9
2.16456e+08,49.458,2,2.63507,-5901.91,-8731.96,-29470.9
2.17055e+08,15.891,2,2.73774,-16.8259,-2077.92,-26132.8
2.17093e+08,37.1226,2,2.39952,-7751.82,-95.0101,-27205.9
2.1721e+08,32.315,1,2.41017,5968.88,1977.86,-26155.9
2.17266e+08,15.7239,1,2.74691,1398.49,212.267,-25845.3
2.17385e+08,231.58,0,2.61359,17164.2,-143.143,-3581.1
2.1743e+08,10.9738,2,2.95216,-457.173,282.366,-29726.2
2.18027e+08,61.8456,1,2.53236,6664.57,4904.29,-18674.2
2.18174e+08,84.3149,1,2.48653,-3861.62,-9887.02,-14539.3
2.18546e+08,31.6481,1,2.66488,2968.73,1343.1,-23000.2
2.18681e+08,14.2423,0,2.50226,2134.78,1077.29,-26894.3
2.19227e+08,55.0311,1,2.6903,-2160.9,-7167.29,-20042.6
2.19227e+08,42.2387,0,2.55112,-1801.11,-8441.49,-26480.9
2.19375e+08,144.705,0,2.85218,-11431.8,-14567.2,-18714.2
2.19628e+08,81.2666,1,3.00978,-7696.24,14574.3,-24155
2.19899e+08,72.8372,2,2.99143,6760.39,-9153.7,-18593.9
2.20131e+08,21.2841,2,2.8722,2720.96,-3232.99,-27211.5
2.2019e+08,43.6328,2,2.48425,-6625.22,-3027.68,-23043.8
2.20331e+08,44.8968,2,2.78646,-2882.13,6991.85,-23202.3
2.20379e+08,41.7416,1,2.55179,-4533.15,-3088.5,-21894.8
2.2063e+08,187.187,2,2.55528,-5239.35,-19601.8,5176.2
2.2068e+08,34.7541,0,2.75567,2398.59,1949.49,-22190.4
0,34.69,0,2.84673,0,0,0
2.20681e+08,80.1473,0,2.59074,-15073.7,-5972.97,-24121.3
2.20975e+08,27.5281,2,2.96304,-1885.81,-1711.02,-23596.6
2.2104e+08,20.9543,1,2.37784,3841.84,1221.39,-27010.8
2.21136e+08,88.8073,0,2.86825,14397.5,-1851.92,-16979.7
2.21349e+08,62.7438,0,2.79772,8141.06,-10111.1,-26028.7
2.21566e+08,16.0502,0,2.58332,2214.72,-2681.3,-28998.2
2.21583e+08,0.487079,0,3.52777,162.115,81.4226,-28870.1
0,0.365372,0,2.93229,0,0,0
0,0.399992,0,2.17863,0,0,0
2.21814e+08,15.9498,0,2.97776,-1685.83,-954.088,-26128.2
2.22218e+08,45.1838,0,2.87387,8622.98,3613.52,-26743.2
2.22242e+08,96.438,1,2.69732,-13214.9,15525.7,-28938.5
2.22462e+08,37.676,0,2.77266,7796.02,-1681.55,-29727.9
2.22682e+08,295.314,1,2.66847,-27298.8,15636.1,24940.2
2.22813e+08,113.6,1,2.87148,-10286.5,-9888.44,-29409.9
2.22833e+08,26.7398,2,2.9104,-3703.67,-3340.48,-26057.6
2.23087e+08,96.5834,1,2.76169,-70.9351,17911.6,-19067.2
2.23306e+08,7.84447,2,2.72614,1110.98,-885.399,-27904
2.23683e+08,19.2211,0,2.85779,3108.92,1605.9,-26678.5
2.23815e+08,237.051,1,2.6073,10910.4,8957.2,-25980.7
2.23912e+08,117.004,0,2.65526,12407.3,14625.4,-13216.3
2.23916e+08,9.26931,0,2.94963,938.331,-1787.29,-28716.9
2.23979e+08,121.019,0,2.52705,16979.9,-18813.9,-24916.6
2.24039e+08,5.93376,2,2.52816,-335.461,-1274.55,-29102.7
2.24051e+08,111.411,0,2.58529,11751.1,-3359.19,-11744.7
2.24216e+08,145.515,2,2.4039,-15003.2,-21001.1,-11889.7
2.24384e+08,35.3576,1,2.41446,-1674.38,7242.02,-27346.6
2.24665e+08,35.4283,1,2.8175,-5325.44,-3389.87,-24849.1
2.25041e+08,11.673,0,2.91677,2232.69,842.139,-29748.2
2.25147e+08,29.7434,2,2.60824,-813.027,-6305.83,-28320.9
2.25602e+08,2.16859,0,2.44851,474.286,118.149,-28578.5
0,2.14713,0,2.93989,0,0,0
0,2.16687,0,2.48933,0,0,0
2.25733e+08,8.37396,2,3.05086,-286.702,-575.305,-27182.2
2.25955e+08,37.7043,1,2.65736,-1928.27,-7181.98,-26081.8
2.26132e+08,134.298,0,2.67463,14907.6,-19489.3,-14598.5
2.26155e+08,53.1821,1,2.87491,-9300.76,6325.33,-29616.7
2.26264e+08,62.6308,0,2.68502,-189.999,-11850.4,-23034.8
2.26306e+08,92.4418,0,2.55907,12716.1,-5651.68,-15503
2.26419e+08,73.7564,1,2.43353,14764.5,4631.48,-26767.3
2.27016e+08,35.826,2,2.36264,-2051.41,-5306.11,-23697
2.27552e+08,9.58506,1,2.79549,531.271,1467.73,-27482.2
2.28138e+08,40.8925,0,2.74455,317.119,-7761.4,-25026.3
2.28239e+08,98.3438,1,2.67955,15696,6138.56,-16823.6
2.28294e+08,62.5915,2,2.47406,-3134.53,-5870.28,-17322.4
2.28299e+08,21.3955,2,3.03724,-2301.26,-3880.42,-28115.9
2.28309e+08,78.0301,1,2.84959,1652.2,6325.89,-13758
2.28461e+08,103.61,2,2.50669,-2451.94,-4408.16,-10618.5
2.28469e+08,61.1245,0,2.67797,3820.62,10771.7,-22766.7
2.29027e+08,41.8997,2,2.96381,-5615.15,5087.74,-24404.2
2.29425e+08,23.6469,0,2.37712,4173.57,2010.61,-26707.5
2.29541e+08,74.0922,2,2.65652,1222.66,-6086.8,-14448.6
2.30313e+08,22.0796,0,2.87867,1748.53,-2193.1,-25079.7
0,22.0869,0,2.98609,0,0,0
2.306e+08,63.0271,0,2.64936,3250.59,-5320.61,-17045.5
2.30671e+08,24.5257,1,2.53189,-2231.23,1632.26,-24375.3
2.30795e+08,16.5903,0,2.82153,2389.08,2190.16,-27432.1
2.30856e+08,112.533,1,2.81603,-23672.7,-1450.31,-28321.1
2.30864e+08,33.502,2,2.8516,-1393.51,-6886.75,-27525.1
2.31372e+08,142.176,2,3.01001,-16847.3,-24673.6,-29914.6
2.31775e+08,93.4298,0,2.49235,19252,-973.076,-24128.6
2.32051e+08,5.58242,1,2.64124,-503.163,1192.86,-28893.4
2.32324e+08,8.94054,0,2.86228,1808.86,-219.421,-28084.2
2.3234e+08,185.906,0,2.60465,-27394.7,-24824.1,-15805
2.32356e+08,121.022,1,2.73564,6645.56,18268.6,-12289.1
2.32562e+08,26.7058,2,2.83385,5170.19,-784.669,-26776.5
2.32634e+08,82.3682,2,2.82016,-4605.43,-16624.6,-26338.4
2.328e+08,43.7599,2,2.83488,-7545.82,-4658.62,-26042.6
2.32958e+08,44.0173,1,2.71922,6127.8,-4482.68,-23613.9
2.33649e+08,32.647,2,2.407,-369.721,-5496.7,-24549.8
2.33842e+08,88.9939,0,2.64153,15789.6,-8210.55,-22563.1
2.34199e+08,43.3061,1,2.77011,-733.278,7990.3,-24311.1
2.34441e+08,53.8196,2,2.79165,4850.9,-4996.17,-19853.1
2.34558e+08,30.039,0,2.90488,-3520.93,4077.33,-25590.6
2.34946e+08,32.0125,1,2.36262,-1912.87,-6175.43,-26878.3
2.3503e+08,1.35798,1,3.01616,50.042,196.264,-28583.7
0,1.36737,1,2.84274,0,0,0
2.35129e+08,46.1505,1,2.50112,4125.09,-3208.27,-20650.5
2.35244e+08,2.12997,0,3.05764,-11.5198,463.168,-28821.7
2.35391e+08,14.5015,2,2.87146,891.984,-2907.76,-28083.7
2.35733e+08,61.9547,1,2.90119,-2470.99,12031.2,-24260.4
2.3575e+08,84.9463,2,2.8807,-14063.5,1538.65,-17916.2
2.35944e+08,53.7879,1,2.37831,1394.45,-9533.28,-22875
2.36015e+08,95.9637,1,2.6326,-18529.9,6302.71,-23410
2.36054e+08,36.2106,1,2.4031,-984.634,4247.28,-22453.2
2.36135e+08,106.331,1,2.98954,-20169.1,231.797,-19243.7
2.36424e+08,66.5783,2,2.97993,5360.07,-6275.46,-17526.3
2.36535e+08,222.479,2,2.90257,-14969.2,21406.1,9888.81
2.36929e+08,18.7456,1,2.86428,-3397.19,2081.21,-29531.8
2.37426e+08,13.4013,2,2.54979,-1533.54,1591.62,-27098
2.37446e+08,118.518,0,2.54003,5142.74,17752.4,-11866.7
2.37484e+08,129.763,1,3.02946,-18417.1,16290.2,-17044.8
2.3821e+08,13.4558,0,2.49887,1249.47,-2400.09,-27799.3
2.38713e+08,85.8133,1,2.48416,-15732.6,-8331.03,-25184.3
2.38965e+08,15.0006,0,2.45287,1895.71,429.111,-26235.2
2.39404e+08,38.7095,2,2.76803,3201.71,5431.02,-23748.2
2.39512e+08,10.0482,1,2.59247,-1502.19,-268.689,-27293.6
2.39766e+08,99.7605,1,2.43715,-5423.83,15856.1,-15872.8
2.40009e+08,83.1657,0,2.7275,-12882.9,-200.101,-17022.4
2.40058e+08,114.92,0,2.5566,7167.7,-17169.4,-13161.1
2.40746e+08,64.7685,0,2.6159,8392.14,-7096.46,-20582.3
2.41093e+08,56.4344,1,2.80725,-9146,-47.8356,-21247.6
2.41155e+08,59.976,0,2.61135,10037.5,-7827.06,-28919.6
2.41219e+08,3.09243,2,2.77353,-277.895,-705.742,-28907.6
2.41263e+08,82.2662,0,2.69296,-8783.54,-6232.73,-15273.9
2.41649e+08,72.8691,2,2.3794,-11452.8,9321.43,-24321.2
2.41772e+08,98.4449,2,2.81936,-15474.5,-8819.11,-18124.8
2.41875e+08,172.057,2,2.85447,-8361.56,13553.4,-486.234
2.42118e+08,34.4379,0,2.96147,6981.32,46.0893,-26612.1
2.42217e+08,128.1,2,2.95339,17511.8,-16661.9,-17018.5
2.42432e+08,81.2351,2,2.47297,-7054.1,-7554.13,-15031.9
2.42608e+08,1.90842,0,2.83057,387.59,-162.245,-28577.3
2.42689e+08,12.828,0,3.69822,110.575,97.1926,-28825.9
2.43115e+08,160.938,0,3.0303,21746.4,-6664.93,-3883.2
2.43259e+08,27.3834,2,2.48896,-1878.44,3853.55,-24966.3
2.43259e+08,117.406,0,2.72026,-11540.8,4888.27,-7550.04
2.43395e+08,87.0767,1,2.62736,-18084.8,321.42,-25210.6
2.43839e+08,31.4232,2,2.70462,-2436.59,-2493.65,-23141.3
2.43975e+08,61.8996,0,2.61787,35.1186,909.677,-21636
2.43994e+08,167.603,2,2.49889,-28115.9,-5196.11,-7811.28
2.44226e+08,36.3628,1,2.8318,-5975.36,3147.66,-25060.2
2.44561e+08,69.8249,0,2.56801,14344.7,2198.31,-25738.4
2.44579e+08,70.7466,1,2.44433,-13316.6,7005.66,-28615
2.44796e+08,35.7025,1,2.75661,-3159.76,-3024.48,-22698
2.44988e+08,106.911,0,2.86394,9365.13,14577.4,-16635.8
2.4507e+08,85.3423,0,2.61045,16097.7,-5602.29,-22741.1
2.4509e+08,28.5401,2,2.86582,3116.63,-4580.34,-26451.1
2.45224e+08,153.337,1,2.82653,-28618.6,-9975.93,-17720.4
2.45339e+08,121.938,0,2.81402,15603,9892.4,-10969.7
2.45471e+08,20.3322,1,2.57527,-2160.84,3821.47,-29339.1
2.45485e+08,76.5594,1,2.56575,-10759.1,-10094.2,-22196.5
2.45817e+08,61.0135,2,2.42977,-7863.3,9163.31,-24263.7
2.46764e+08,132.659,2,2.93847,-15157.7,717.079,-28440.5
2.46804e+08,49.1369,0,3.01532,-1885.26,9137.12,-24449.5
2.46819e+08,180.277,0,3.03055,29162.9,1306.94,-4854.3
2.47077e+08,30.1845,2,2.88787,-3595.21,-5098.73,-27298.1
2.47426e+08,18.5787,2,2.95407,-3946.38,235.911,-28719.7
2.47823e+08,8.91666,1,2.63793,-1946.01,-143.737,-28804.5
2.47829e+08,39.6829,1,2.95304,5421.25,4782.04,-24634.3
2.48041e+08,184.854,1,2.8293,-13984.9,19587,1739.03
2.48192e+08,43.2597,2,2.78216,1483.17,-7755.97,-24140.9
2.48245e+08,15.3124,1,2.94369,3125.45,570.872,-28514.8
2.48265e+08,2.08644,1,2.80695,92.6441,368.409,-29170
2.4832e+08,154.812,0,2.75567,21592,24182.2,-24861.5
2.48944e+08,21.583,2,2.73737,-180.558,4335.51,-27597.5
2.4898e+08,223.446,0,2.7773,13061.8,20368.9,11517.9
2.491e+08,0.796217,1,2.58698,54.005,240.416,-28809.3
2.49171e+08,238.412,0,2.86242,21849.5,-20771.2,11215.2
2.49192e+08,122.832,1,2.78012,-5168.23,15962.1,-9082.25
2.49382e+08,88.3608,0,2.48911,-12375.9,-9827.89,-18949.6
2.49473e+08,80.9243,1,2.7098,-40.6935,15856.6,-22342.5
2.49564e+08,25.0054,1,2.61288,-3641.72,335.965,-24946.3
2.49774e+08,5.03674,2,3.01919,419.521,-549.646,-27975.6
