#class tools::wcsv::ntuple
#title time
#separator 44
#vector_separator 59
#column double eventID
#column double t(ns)
#column double copynumber
#column double energy(eV)
#column double x(mm)
#column double y(mm)
#column double z(mm)
157311,165.592,1,2.94256,-12760,12188.9,1130.16
447971,83.9372,1,2.70548,-2530.04,10475.7,-14750.9
461233,0.755913,1,3.01848,-2.53756,231.705,-28957.6
1.14318e+06,7.10074,1,2.62932,1226.8,773.414,-29343.7
1.18461e+06,15.981,2,2.52627,-3038.37,1096.19,-27802
1.18915e+06,167.291,1,2.91226,-25170.8,24580.1,-27623.7
1.27743e+06,53.5763,0,2.97628,4537.93,-5969.17,-20408.9
1.6215e+06,109.006,1,2.48642,4856.14,-19923.6,-18428.2
1.67628e+06,10.824,2,2.58743,-1682.72,5.88578,-27202.5
1.9264e+06,114.493,2,2.70261,12360,1722.15,-8200.31
1.93146e+06,5.36202,1,2.70104,825.89,828.406,-28881.9
0,5.22487,0,2.65055,0,0,0
2.36791e+06,47.3331,2,2.83224,-6113.11,-7027.64,-25046.6
2.60142e+06,53.7626,1,2.62553,-4370.11,-10441,-28718.9
3.08922e+06,24.7323,1,2.53497,2011.04,3616.55,-25554.9
3.28645e+06,42.0248,2,2.45701,-3353.44,-7917.76,-26322.7
3.30447e+06,11.1885,1,2.89482,-545.974,1275.94,-29295.4
3.31544e+06,31.044,1,2.70047,-3294.06,4346.81,-25059.7
3.5533e+06,26.3276,0,3.05434,-531.746,-4439.15,-25586.9
3.84158e+06,96.0817,2,2.45251,-15612.3,6073.37,-17304.7
4.45034e+06,107.113,2,2.48912,-4304.69,-22337.4,-28779.6
4.77474e+06,63.7675,1,2.54695,-3946.47,-4612.15,-16812.5
4.96559e+06,104.293,0,2.78779,7978.9,-8427.83,-10151.2
5.01073e+06,48.6188,0,2.44872,2636.68,-3358,-19444.7
5.23223e+06,46.1123,0,2.59138,9830.35,171.673,-29027.8
5.56934e+06,2.92942,0,3.01563,-528.061,-41.3534,-28631
6.05739e+06,90.9788,2,2.57517,9432.83,-10693.1,-15887
7.13422e+06,165.026,0,2.85382,-16891.6,19505.5,-5689.39
7.59066e+06,48.6751,1,2.94101,10173.8,32.7684,-29542.4
7.65458e+06,101.558,0,2.38326,4871.05,14119.7,-13325.9
7.9426e+06,42.0819,2,2.7519,4248.53,3927.62,-22147.7
8.05395e+06,58.0985,0,3.0039,7517.92,-3710.58,-20111.8
8.3138e+06,26.3782,1,2.59082,-2939.5,1188.1,-24364.8
8.35277e+06,17.7177,0,2.61467,319.931,2387.22,-25925.9
8.4728e+06,27.7434,1,2.95897,-4330.36,-159.622,-24867.1
8.79287e+06,109.736,2,2.60233,10637.5,-12241.8,-23761.4
9.13846e+06,69.4794,2,2.47436,-2738.32,14144,-26117.7
9.25641e+06,215.514,0,2.98677,16415.7,17383.9,9190.65
9.47992e+06,25.122,0,2.74824,3492.11,-2758.56,-25849.3
9.49177e+06,51.8932,1,2.36201,5420.63,3622.58,-19958.1
9.75252e+06,57.3402,1,2.88788,-8033.03,9069.51,-27772.4
1.0191e+07,10.4677,2,2.6315,-739.021,779.273,-26916.4
1.05633e+07,50.908,0,2.85909,1533.64,-9566.37,-24228.8
1.09761e+07,17.2635,2,2.38635,-1897.57,-2239.24,-26549.2
1.1143e+07,36.7094,1,2.71264,-7281.05,2647.42,-29830.4
1.16368e+07,48.8378,1,3.03405,9068.33,849.428,-24241.6
1.19722e+07,46.0337,1,2.55494,-5312.79,-7781.21,-26692
1.29428e+07,16.5872,2,2.90992,-1830.94,-1771.34,-26383.2
1.29431e+07,30.2371,2,2.54796,1557.64,-5713.7,-26243.2
1.29873e+07,23.2723,1,2.77253,-2467.53,4305.74,-29632.1
1.35635e+07,109.119,0,2.70305,-11154.3,18458,-20937.5
1.37354e+07,22.1766,0,2.58139,1773.64,3459.13,-26133.4
1.39482e+07,123.94,1,2.56016,-6667.78,11294.8,-6111.63
1.4003e+07,112.086,0,2.47424,21158.7,-8979.09,-22669.4
1.42641e+07,16.3331,2,2.57674,2306.32,101.831,-26281.3
1.45537e+07,78.3636,2,3.00603,12391.5,-8994.22,-22842.6
1.46499e+07,137.927,1,2.64652,-26369.9,-3419.66,-16895.3
1.48916e+07,187.192,0,2.87582,9308.79,1125.1,-22530.1
1.50336e+07,23.5128,0,2.36213,2702.95,-2464.02,-25370.8
1.50556e+07,8.36353,1,2.9498,-1415.26,673.375,-27900.6
1.50651e+07,12.7839,0,2.50789,1148.18,-2497.81,-28674.9
1.52478e+07,36.058,1,2.97204,-5419.08,5437.87,-28723.3
1.56602e+07,26.3705,1,2.80536,-1023.56,5526.24,-28725.4
1.63628e+07,0.687452,2,3.49834,103.459,7.69842,-28796.5
1.66978e+07,9.25482,1,3.02841,-615.335,-1499.68,-27792.3
1.70204e+07,112.992,2,2.49528,-19173.2,-3485.47,-14898.6
1.71601e+07,57.0539,1,2.49902,11010.4,2450.59,-24543.9
1.73825e+07,21.8906,0,2.83452,2527.68,-599.619,-24968.4
1.76943e+07,15.8372,0,2.68225,1434.02,-2486.05,-27022.1
0,15.8568,0,2.42442,0,0,0
1.77034e+07,18.9269,0,2.69527,1587.88,-2404.19,-26006.9
1.80491e+07,22.1687,1,2.48218,1180.49,3656.87,-26021.2
1.81012e+07,136.165,0,2.88969,14171.2,3338.79,-10769.7
1.84139e+07,3.26048,1,3.05617,150.818,-269.167,-28265.9
1.89032e+07,35.7034,0,2.46998,3691.75,1834.36,-22451.4
1.90026e+07,73.2062,1,2.9067,-14593,3846.64,-25583.7
1.90243e+07,81.8393,0,2.82324,1318.02,-17169.1,-28403.8
1.96443e+07,23.6122,0,2.49436,4574.2,2207.33,-28299.5
2.02998e+07,26.1181,1,2.93189,3236.83,3175.06,-25690.9
2.05593e+07,123.511,1,2.42783,13661.1,20821.3,-20718.6
2.11358e+07,22.9776,1,2.7152,2741.91,-2353.72,-25683.8
2.13243e+07,37.8748,2,2.97893,7889.78,715.06,-28598.9
2.14249e+07,25.5231,2,2.57804,2410.74,3654.43,-25757.1
0,25.5063,2,2.38333,0,0,0
2.15888e+07,27.0173,0,2.52894,825.234,-5419.41,-27120.9
2.16272e+07,94.761,0,2.70487,-8948.42,16043.3,-21051.5
2.16333e+07,98.1927,0,2.4219,-14396.8,4940.66,-14740.7
2.16426e+07,209.111,1,2.60588,-18152.3,3332.39,11304.1
2.17283e+07,7.20384,2,2.71661,947.423,-1255.4,-29007.8
2.17713e+07,16.2045,0,3.01898,1004.4,-3169.6,-27945.1
2.18808e+07,127.351,2,3.03708,14739.6,20961.5,-21653
2.20799e+07,14.7839,1,2.89358,-2352.35,-1139.49,-27091.6
2.22799e+07,161.297,2,3.02724,-16176.1,-3089.58,684.116
2.24812e+07,102.717,0,2.40432,12665.8,2072.12,-11220.1
2.26318e+07,34.2549,2,3.0463,4224.83,-3856.84,-24452.7
2.28411e+07,168.868,0,2.92715,-11937.8,-5003.55,3054.61
2.30309e+07,86.1733,1,3.03338,-4576.61,-6348.52,-12591.2
2.31e+07,118.189,2,2.75072,-10669.5,-19178.1,-16965.7
2.31195e+07,193.226,1,2.46832,-20976.3,-19848.2,42.3627
2.33859e+07,100.835,0,2.62178,5265.8,-9832.44,-25930
2.34493e+07,8.13254,1,2.96133,192.74,1461.39,-29843.1
2.35166e+07,38.9705,2,2.8188,-5646.86,-63.5565,-22837.9
2.35858e+07,52.6622,2,2.50428,-1053.62,-4332.44,-18589.9
2.38375e+07,120.88,0,2.79853,23882.1,3149.15,-20475.2
2.38643e+07,40.623,0,2.87751,2053.21,-6343.29,-23442
2.39519e+07,74.3174,0,2.6743,10875.5,-7243.14,-20099.5
2.40737e+07,85.9124,1,2.66058,-8152.43,-2651.77,-12856.5
2.41489e+07,48.4138,1,2.94081,6881.48,-2981.86,-22047.6
2.4297e+07,40.9624,0,2.54008,1725.03,-4954.72,-21914.9
2.5011e+07,71.0574,1,2.82639,-7850.52,-5812.31,-17503.4
2.50267e+07,109.253,1,2.86335,-16179.5,-14700.7,-21859.4
2.59299e+07,49.3249,0,2.57856,10427,-1436.5,-28935.5
2.59492e+07,187.206,1,2.54223,3933.33,1109.82,-27319.8
2.59924e+07,196.26,2,2.42651,-27407.7,13290,-606.552
2.62405e+07,154.254,1,2.39133,22651.6,-13220.6,-9481.95
2.65145e+07,36.1417,2,2.79854,4602.59,-2501.87,-23305.5
2.65974e+07,6.81486,2,3.06145,435.604,-1205.32,-29600.3
2.66598e+07,18.3437,2,2.78797,2342.47,-3075.39,-28302.6
2.67024e+07,58.1649,0,2.9955,11815.1,-1131.15,-25675.7
0,57.9227,0,2.80533,0,0,0
2.67968e+07,88.1234,1,2.43296,6135.28,17691.2,-28263.1
2.71802e+07,128.479,2,2.86636,-726.876,-23845.7,-16022.8
2.71944e+07,140.48,0,3.04811,-9292.64,-15028.1,-5335.16
2.76319e+07,68.3136,0,2.43161,8815.05,485.688,-17317.4
2.79311e+07,155.814,0,2.66532,12656.3,15011,-2443.13
2.79463e+07,56.376,0,2.93037,8961.42,5985.87,-23741.7
2.82933e+07,6.70351,2,2.54118,-135.059,951.1,-27834.1
2.85225e+07,155.729,2,2.87378,-29159.2,10093.3,-17858
2.86993e+07,16.9626,1,2.82128,-438.079,-1711.71,-25732
2.90067e+07,204.225,0,2.69764,9397.76,-22013.1,6961.06
2.90288e+07,72.7553,2,2.58004,10299.8,7587.11,-20425.3
2.90797e+07,249.884,2,3.01665,-786.084,-4214.72,-14835.4
2.9164e+07,62.4859,1,2.86116,-573.027,6615.82,-17440.1
2.949e+07,40.1998,1,2.77607,1845.95,5070.13,-22251.3
2.9591e+07,112.198,2,2.81757,21358.9,-357.474,-18864.7
2.96391e+07,165.052,2,2.59369,-29140.2,-19094.9,-26186.4
2.99778e+07,126.888,0,2.47789,-15055.9,-7037.42,-7797.9
3.0493e+07,47.6827,2,2.89574,-2670.07,-1523.97,-19818.8
3.06546e+07,2.15908,2,2.43213,345.151,-174.25,-28566.1
0,2.20928,2,2.41941,0,0,0
3.13006e+07,30.3222,0,2.89789,5496.06,1327.46,-25707.3
3.14695e+07,47.9019,0,2.66109,-7436.79,-2846.83,-22724.2
3.1773e+07,117.913,0,2.93626,17255.2,10956.5,-14783.8
3.22314e+07,102.354,0,2.57951,2728.79,21218.1,-25396.4
3.29425e+07,90.7227,0,3.01094,-1062.6,-7562.37,-11427.2
3.33143e+07,164.384,2,2.67601,11855.3,25124.3,-8173.82
3.35383e+07,77.8369,2,2.65968,10365.9,-4417.05,-16887
3.37871e+07,14.101,1,2.92447,-1178.39,2621.28,-29940.9
3.41257e+07,104.161,2,2.83687,-16919.4,-2966.05,-15163.5
3.44033e+07,27.8965,1,2.68499,-5447.45,1402.37,-26844.8
3.46799e+07,286.359,0,2.8756,-28621.6,5335.09,23777.7
3.48773e+07,141.034,2,2.4499,-19953.5,10601.3,-9329.57
3.51295e+07,154.583,2,2.83991,-29025.1,-12135.4,-20393.3
3.53635e+07,13.9895,2,2.59007,-2838.57,893.377,-28596.8
3.55199e+07,93.5823,2,2.54537,3294.86,-17652,-20389.5
3.60055e+07,204.718,0,2.62605,-17209,-15792.9,7495.84
3.61057e+07,127.219,1,2.58465,-10426.4,-15255.8,-9337.73
3.6127e+07,13.7746,2,2.48082,1913.05,-1197.97,-26998.7
3.64498e+07,169.357,2,2.76071,20104.2,-26870.7,-18222.4
3.6537e+07,93.6591,2,2.58998,16935,1758.37,-18843.8
3.67055e+07,20.8691,2,2.59342,-2098.44,-782.959,-24998.9
3.77806e+07,50.0481,0,2.3756,9983.93,-2349.65,-25792.8
3.7818e+07,91.0582,2,2.73746,-13081.7,-13869.4,-25956.6
3.78591e+07,7.07486,2,2.38452,-427.821,702.151,-27575.7
3.79126e+07,21.0314,2,2.97394,1527.02,-3916.47,-27259.1
3.81124e+07,19.4738,0,2.98338,1711.27,3149.86,-26752
3.81223e+07,103.335,2,2.53299,3134.17,20911.8,-23592.9
3.83471e+07,12.2313,0,2.70717,170.022,-1026.27,-26466.5
0,12.0958,0,2.55262,0,0,0
3.84662e+07,23.2646,2,2.97938,-1841.54,-4587.6,-29367.7
3.8511e+07,33.7345,2,2.82502,-5962.95,3680.98,-27735.2
3.88353e+07,17.8403,0,2.42349,3246.43,1911.16,-29748.9
3.88959e+07,12.257,0,2.78083,-134.196,-1715.3,-26874.6
3.90383e+07,98.2664,2,2.94558,13161.1,1245.21,-13024.9
3.92524e+07,177.268,0,2.70267,28753.2,-8676.86,-6483.28
3.97869e+07,17.784,2,2.54478,-1455.73,2003.84,-26017.2
3.98432e+07,143.477,0,2.8454,15658.3,9682.05,-4881.2
4.01439e+07,4.40199,2,2.77087,-272.171,13.3599,-27915.8
4.02769e+07,215.963,1,2.76567,-589.569,5961.97,-23906
4.0541e+07,32.2369,0,2.49064,4465,157.137,-23591.1
4.06007e+07,51.3099,2,2.57196,1395,-10807.7,-29712.7
4.06403e+07,50.4934,1,2.955,6469.96,-306.969,-20448.6
4.07904e+07,16.9652,0,2.8181,-2451.07,1987.84,-27251.4
4.0942e+07,20.4039,0,2.99573,-3930.21,-438.385,-27366.4
4.12811e+07,111.83,1,2.56833,1715.32,18390,-14250.3
4.14126e+07,93.5264,0,2.54726,-19395.8,-1116.36,-25492.7
4.14373e+07,83.057,2,3.04151,1335.43,9828.08,-17872.7
4.15704e+07,63.151,2,2.96695,4567.83,3128.53,-16821.2
4.15986e+07,43.9004,0,2.86803,4107.65,-2091.28,-20800.8
4.1888e+07,20.835,1,2.76664,859.563,4374.65,-28997.6
4.18893e+07,28.1385,2,2.69644,161.439,-5269.75,-25927.7
4.24991e+07,25.9224,0,2.6009,3601.64,3427.53,-26351.3
4.27106e+07,80.3228,1,2.63692,-8263.29,14887,-27676.7
4.27451e+07,127.924,1,2.77753,-20518.2,-17448.9,-28691.1
4.2928e+07,42.5588,0,2.63257,9067.48,573.254,-28426.3
4.30351e+07,23.9774,0,2.62067,-3610.81,3352.97,-27853
4.33691e+07,94.3366,2,2.75885,-18360.7,3637.53,-22101.8
4.3402e+07,48.5532,1,2.47356,-7303.04,4633.36,-23172.1
4.36417e+07,27.5196,2,3.04791,-944.178,-4668.14,-25468
4.40141e+07,48.7712,2,2.92488,-7692.5,3932.87,-23434.7
4.41786e+07,63.0519,1,3.04159,-6837.4,-8068.13,-20926.2
4.41955e+07,20.0006,1,2.8993,3853.34,752.192,-27370.8
4.42452e+07,74.1692,1,3.01551,5671.53,11961.1,-20577.4
4.42631e+07,92.5362,0,2.6172,13367.1,-14310.3,-27586.2
4.43025e+07,177.864,1,2.49459,9925.38,26712.5,-4218.36
4.4334e+07,64.0795,1,2.9008,6202.08,988.539,-16928.9
4.45036e+07,29.2057,2,2.62776,-1831.97,5631.7,-27203.7
4.45775e+07,242.955,1,2.64803,20429.1,21325.9,13080
4.5006e+07,25.3088,0,2.80853,-1225.95,4102.59,-25677
4.51942e+07,168.695,1,2.71217,18856,3763.49,1060.54
4.53696e+07,97.6094,1,2.76592,-10338.4,-3787.38,-11452.7
4.54933e+07,119.991,2,2.59013,16447.3,-16188.2,-18245.2
4.55064e+07,172.984,2,2.37686,-17138.5,3055.51,-1683.79
4.55361e+07,170.281,1,2.75301,19277.1,26907.8,-23192.9
4.56306e+07,205.075,0,2.61495,26254.1,-24324.1,-17246
4.56597e+07,54.4301,2,3.01676,-9111.04,-5080.48,-24078.9
4.57918e+07,156.993,0,2.69672,-24735.6,-15152.9,-15268.6
4.59509e+07,133.223,0,2.78809,-9837.95,8645.11,-8936.13
4.61719e+07,177.332,2,2.64257,9162.94,-18041.8,2680.07
4.66351e+07,55.2863,1,2.80626,-10415.1,-3302.28,-24751.7
4.66654e+07,75.2464,0,2.73617,-6462.61,11780.1,-20463.3
4.67243e+07,83.6532,2,2.84466,-12525.5,-2260.96,-16632.1
4.67816e+07,24.2638,1,2.6065,-1592.66,3580.69,-25421.6
4.73772e+07,225.307,0,2.92987,-17849.5,6110.37,7457.88
4.75433e+07,84.6011,0,2.62009,12309,-1704.48,-15921.1
4.7716e+07,20.6867,0,2.57155,2247.87,-3543.68,-27417.5
4.78808e+07,16.4612,0,3.05767,489.684,2835.44,-26854.9
4.79616e+07,39.8539,0,2.61892,3354.79,7731.58,-27896.9
4.82886e+07,72.2536,2,2.72728,-4428.59,-13286.7,-22626.7
4.8375e+07,29.0737,2,2.3662,-633.796,-5584.72,-26105.8
4.84785e+07,46.2303,2,2.68293,-3155.18,3741.27,-20433.5
4.8639e+07,119.221,0,2.6301,10434.3,-17051,-13461.4
4.86449e+07,5.49154,2,2.58538,619.195,-1023.22,-28745.1
4.89613e+07,30.0891,2,2.45281,-5932.38,-2549.67,-28465
4.91053e+07,106.849,1,2.97472,15278.5,-14496.3,-21383.6
4.93241e+07,106.933,1,2.62143,19731.7,5761.59,-19511.8
4.96215e+07,4.16556,2,2.37187,235.541,203.923,-28033.5
4.97154e+07,127.943,0,3.04291,3195.57,1526.91,-29895
4.99093e+07,20.7681,2,2.8961,-4225.75,-1396.41,-29128.3
5.01488e+07,16.3663,2,2.44303,-2620.93,-2001.74,-27540.4
5.01706e+07,32.9209,2,3.05947,3494.5,-4951.04,-25418.6
5.03067e+07,58.3242,1,2.94518,-6900.35,10203.9,-29855.6
5.03624e+07,24.5326,2,2.50974,3765.74,-3016.94,-26803.5
5.07012e+07,54.5,0,2.52607,1413.52,-7548.99,-20242.2
5.07174e+07,36.7419,0,2.95759,-614.31,4197.88,-22372.9
5.10134e+07,118.858,2,3.028,-15531.1,-19595.2,-28862.7
5.10753e+07,0.292073,1,2.98374,-36.2272,93.4407,-28753.6
0,0.285755,1,2.9581,0,0,0
5.1252e+07,120.788,1,2.40652,534.557,-19356.3,-12215.1
5.146e+07,20.8764,1,2.69964,2366.04,3761.25,-29033.6
5.1977e+07,95.4889,0,2.76838,8513.7,15650.8,-19394.1
5.24577e+07,102.892,0,3.01707,16073.5,1186.26,-14409.1
5.2509e+07,58.5557,2,2.63055,1874.63,-11005.9,-23407.3
5.28282e+07,3.92487,2,3.03058,-747.458,364.892,-28938
5.28319e+07,1.10183,0,2.96833,336.703,42.0193,-28855.9
0,1.02908,0,2.84304,0,0,0
0,1.03604,0,2.71431,0,0,0
5.30023e+07,50.537,2,2.80287,3109.9,-7592,-21987.3
5.32509e+07,45.6398,1,3.01119,4261.14,4279.96,-25925.9
5.3665e+07,69.0626,1,2.84693,9606.52,10727.4,-26681.3
5.42282e+07,59.8426,1,2.6241,-11475.5,-3036.93,-24368.9
5.48606e+07,19.0347,1,2.58201,226.678,-2349.74,-25618.3
5.57288e+07,140.259,1,2.37047,-20184.8,-4060.86,-7409.59
5.58445e+07,0.589963,0,2.68885,-33.5054,50.5916,-28775.5
5.6131e+07,86.7425,1,2.67775,-13760.5,11803,-25960.4
5.63729e+07,23.9934,1,2.67201,376.003,-2472.28,-24467.2
5.6498e+07,64.6703,1,2.9601,6711.49,8452.96,-20539.2
5.67652e+07,7.45181,2,2.72553,-1574.48,-325.238,-28522.7
5.70799e+07,233.864,1,2.61404,-10468.2,-27739.9,10598.2
5.70889e+07,30.2888,0,2.47512,3774.05,4241.4,-28303
5.76444e+07,39.323,0,2.59943,8313.93,-1200.47,-28927.6
5.78371e+07,30.5898,2,2.48208,-1314.5,-3897.59,-23779.4
5.79061e+07,32.0528,0,2.48008,-2715.24,-5429.44,-25856.1
5.80683e+07,128.454,2,2.37656,-14552.8,-4238.12,-6215.93
5.83424e+07,12.8417,2,2.90715,-1420.47,-188.44,-26545.5
5.84361e+07,185.658,2,2.7719,20793.5,-29884.8,-14510.7
5.92251e+07,232.73,2,2.43468,22677.8,-23936.3,7475.34
5.9972e+07,126.326,2,2.73926,-8551.75,-24023.9,-20937.5
6.03483e+07,101.593,1,2.75992,14543.7,9042.76,-15996.5
6.0355e+07,9.21587,0,2.91037,-682.546,-521.734,-27225.4
6.04259e+07,8.45611,2,2.81494,1257.59,-257.753,-27607.7
6.04977e+07,185.099,1,2.59134,16312.6,-6096.02,313.528
6.06693e+07,60.5263,0,2.655,12329.1,-3119.9,-26801.5
6.08345e+07,42.1627,1,2.70348,-4407.61,7609.12,-26925.3
6.10024e+07,40.4802,2,2.4055,-1552.65,-834.185,-24373.5
6.10536e+07,69.0051,0,2.36233,9325.48,6194.11,-19343.2
6.12467e+07,6.69561,1,2.79613,-465.715,428.417,-27528.3
6.22024e+07,47.9916,1,2.70708,-5724.7,4812.21,-21942.5
6.23033e+07,11.686,2,2.92598,-1655.02,-1638.95,-29922.2
6.23072e+07,28.5183,2,2.85555,-552.344,4875.43,-25431
6.24313e+07,100.316,0,3.01219,-2495.23,3944.77,-26365.6
6.26697e+07,69.6062,0,2.43033,-4393.66,9799.41,-18759.8
6.30102e+07,166.362,2,2.85278,-10807,-9766.7,2977.48
6.31436e+07,32.2615,2,2.86269,3223.63,122.464,-22869.9
6.32502e+07,83.5161,0,2.52649,14511.7,3328.11,-19208.6
6.37545e+07,132.596,1,2.72689,8019.35,25317.1,-26146.2
6.38093e+07,49.3568,2,2.76388,5323.06,-3812.49,-20741.3
6.38211e+07,8.87716,2,2.82878,422.632,-1773.96,-29565.8
0,8.85399,2,2.48105,0,0,0
6.38753e+07,46.0523,0,3.02033,5802.27,1842.24,-21286.2
6.43681e+07,184.694,0,2.83619,-28333.6,-25303.2,-21060.4
6.52145e+07,39.1596,2,2.82589,-4563.39,-5828.29,-29633.9
6.56226e+07,5.14049,1,2.51792,-379.625,1007.56,-28336.4
0,5.26339,1,3.02027,0,0,0
6.58288e+07,98.6343,1,2.38989,-7251.9,19346.2,-25330.6
6.58871e+07,12.5983,0,2.79608,475.27,1726.69,-26823.4
6.61998e+07,126.289,1,2.81696,-12531.6,-2509.9,-5538.6
6.62448e+07,212.108,1,2.85184,19218.3,-19793.9,-10147.5
6.62601e+07,2.61895,2,2.721,41.1227,-607.446,-28631.2
0,2.88144,0,2.72469,0,0,0
0,2.83749,0,2.50753,0,0,0
6.6302e+07,22.7681,0,2.88349,180.032,-4791.94,-28369
6.64794e+07,181.136,1,2.77808,5254.12,-16912.5,-3435.69
6.6754e+07,112.387,0,2.5484,-5677.5,11772.8,-21055.8
6.68172e+07,3.55698,2,2.71451,-122.867,-562.651,-28255.8
0,3.52206,2,2.3778,0,0,0
6.68211e+07,44.4187,1,2.99576,2653.46,7480.09,-23833.8
6.68394e+07,84.2252,1,2.40632,-14528.3,10485.5,-28726.6
6.70119e+07,128.197,2,2.58225,-26344.7,-17.2973,-22290.8
6.70503e+07,36.2061,1,3.03734,946.142,-3598.98,-22281.7
6.72204e+07,30.1566,1,2.62197,322.273,-4995.15,-24996.4
6.80915e+07,50.4359,0,2.43848,1338.59,-7270.73,-21120.2
6.81146e+07,100.493,1,2.49786,7172.54,-8551.43,-10781.8
6.83233e+07,45.4006,0,2.80369,5189.3,-7602.19,-26151.3
6.88929e+07,56.9841,1,2.68232,-7265.08,7036.93,-22183.1
6.90277e+07,104.667,2,2.528,-8468.61,6718.67,-9528.53
6.90394e+07,140.373,2,2.43434,7657.36,16206.7,-5233.15
6.91702e+07,7.42589,1,3.05848,1261.94,627.315,-28142.5
6.94634e+07,20.9749,1,2.59318,-2771.62,1983.63,-25875.3
6.98117e+07,1.86615,0,2.80968,457.295,-204.995,-28802.1
6.9826e+07,22.7832,0,2.50112,-1509.61,4199.15,-27014.9
6.99001e+07,9.23373,2,2.9854,-1727.06,883.753,-28469.8
7.00891e+07,163.236,2,2.54572,-28080.8,-19412.3,-23375.4
7.0311e+07,45.3652,1,2.64641,-351.491,-8623.22,-24832.5
7.04039e+07,118.241,1,3.01139,-16546.9,7971.77,-12126.6
7.07272e+07,155.03,0,2.8999,7196.48,10409.7,-11824.3
7.08474e+07,42.7265,1,2.51731,-5404.06,-7108.26,-27675.4
7.0856e+07,55.263,0,2.98009,-3378.5,4360.6,-18687.2
7.19279e+07,0.209079,2,2.78988,-74.5239,-65.5111,-28793.6
0,0.198807,2,3.70544,0,0,0
7.24365e+07,147.431,1,2.59597,-20308.3,-12033.6,-8508.64
7.24731e+07,48.1844,0,2.52716,6355.63,7998.07,-27902.3
7.27678e+07,51.5581,2,2.5784,-7752.06,-3843.71,-22091.4
7.29594e+07,186.336,1,2.44252,-27731.5,6564.78,-1542.88
7.30259e+07,198.869,1,2.73569,-19357.3,14972.3,5152.3
7.3058e+07,125.873,2,2.98194,10109.6,8694.17,-11589.1
7.32241e+07,45.9553,0,2.72368,4098.34,-4838.98,-28007.5
7.39208e+07,83.6938,2,2.8381,-9402.82,-1947.13,-14186.9
7.40007e+07,222.925,2,2.75649,-25283.8,-4732.99,10469.8
7.43448e+07,4.17614,2,2.49553,455.437,639.208,-28570.8
7.43678e+07,16.2258,2,2.7858,-2863.6,584.488,-27032.8
7.44692e+07,53.8744,1,2.76224,-10877.1,2318.69,-26219.6
7.47877e+07,19.7685,2,2.80332,-2652.7,-3163.38,-29915.5
7.51346e+07,41.1717,1,2.48758,-2573.62,4742.34,-21925.5
7.53211e+07,83.5903,0,2.59098,10715.5,-13003.8,-23327.9
7.53573e+07,159.84,1,2.96301,-1542.95,20845.5,-2558.2
7.54832e+07,114.017,1,2.93579,18869.5,14479.3,-28160.7
7.63556e+07,127.608,2,2.69521,-16186.6,-6987.03,-8463.23
7.66599e+07,61.485,0,2.71245,-8165.89,1212,-18881.7
7.69684e+07,46.6198,2,2.66759,-886.388,-8545.86,-23870.9
7.69689e+07,42.189,1,2.94776,2592.26,8373,-27133.7
7.70751e+07,27.1397,0,3.05328,1213.76,-5598.67,-28797
7.71988e+07,56.4153,0,2.5456,11630.9,-2374.71,-26838.6
7.72988e+07,4.90608,1,3.04634,-851.367,-601.184,-28733.8
0,4.48836,2,3.03913,0,0,0
7.7521e+07,51.197,1,2.78763,-5299.39,6382.11,-21842.8
7.78378e+07,58.5721,2,2.68633,3546.6,6918.23,-19272.6
7.81858e+07,80.3387,2,2.52129,-2453.65,4815.17,-13735.9
7.85683e+07,12.6788,0,2.82832,134.421,-2595.03,-28077.4
7.88234e+07,14.0885,2,2.59535,1972.31,-797.747,-26730.5
7.90053e+07,28.597,2,2.41695,5018.61,-2925.23,-27095.2
7.91857e+07,38.6453,1,2.91728,-3868.65,-7044.02,-29887.7
7.93892e+07,31.6181,2,2.67621,-2297.42,-5251.97,-25242
7.98595e+07,69.8136,2,2.87006,-9515.38,-10597.7,-25203.5
7.98834e+07,127.172,2,2.49136,15272.4,-21027.5,-21776
7.99495e+07,38.0077,0,2.94937,7894.6,-883.179,-27451.1
8.00677e+07,10.0326,0,2.82122,1325.73,1155.52,-27563
8.05644e+07,61.0143,0,2.85833,-7098.99,-422.361,-18192.8
8.06291e+07,33.6867,2,2.46061,-818.61,-5107.17,-23831.8
8.11481e+07,22.1691,0,2.71754,2306.64,-1417.23,-24963.7
0,22.1477,0,2.73461,0,0,0
8.14763e+07,1.25538,1,2.91586,-116.472,161.264,-28585
0,1.27126,1,2.6413,0,0,0
8.1935e+07,111.565,0,2.804,19778.9,-769.675,-16062.1
8.22361e+07,164.225,1,2.48507,-27117.6,17628.5,-15971.3
8.2399e+07,46.402,2,2.45926,2108.85,-9682.87,-29045.1
8.25246e+07,61.0689,1,2.91898,-7325.18,4351.98,-19161.6
8.2687e+07,227.191,1,2.83486,9803.19,23225.7,8837.97
8.27604e+07,114.097,0,2.4094,20879.5,-1635.21,-16665
8.28491e+07,133.794,1,3.01585,-19952.5,6333.85,-10090.8
8.29689e+07,52.386,0,2.94946,8509.73,-6020.91,-25170.6
8.34425e+07,218.189,1,2.71081,27162.7,11899.9,-15609.9
8.35132e+07,61.7924,2,2.41432,11802.1,-3281.65,-24254.3
8.36441e+07,49.5201,2,2.43609,5987.7,5228.95,-22077.2
8.40261e+07,48.1128,1,2.61388,-4112.06,6264.74,-21864.9
8.41131e+07,85.0714,2,2.49503,-7642.21,-8311.38,-14747.8
8.41361e+07,5.34549,1,2.60459,-879.864,-711.916,-28786
8.42086e+07,9.85556,2,2.94648,1487.49,-1471.81,-28565.1
8.42102e+07,86.1416,2,2.54055,-7913.34,-10998.3,-16670.9
8.43115e+07,31.0063,2,2.68637,-4375.68,-4021.93,-25913.9
0,31.149,2,2.71314,0,0,0
8.44062e+07,43.8028,2,2.95482,-8944.45,-2419.43,-29507.7
8.46402e+07,63.5363,1,2.61208,-1328.07,6191.7,-16948.5
8.48997e+07,35.9427,0,2.81595,-3309.85,-5646.39,-25103.6
8.51352e+07,18.6786,1,2.67074,984.436,3813.4,-27990.2
8.52533e+07,162.915,0,2.91808,21939.9,22621.8,-15409.3
8.55809e+07,93.4607,1,2.71915,-16802.6,-7813.82,-22151.5
8.57372e+07,99.7085,2,2.57682,2822.61,693.986,-20911.3
8.59419e+07,69.085,2,2.84249,-6648.94,1685.63,-16002.1
8.64044e+07,51.0062,2,3.04982,5729.3,-5153.21,-21416.7
8.65025e+07,80.625,2,2.60341,512.277,8166.39,-14622.2
8.65378e+07,66.7456,1,2.99219,-3958.92,12152.4,-22903
8.66135e+07,181.96,0,3.01592,28998.9,-19873.6,-13900.1
8.68383e+07,150.773,2,2.47761,-353.1,-544.77,-28724.7
8.70209e+07,91.9307,2,2.66178,-4204.96,-19030.5,-28295.1
8.72344e+07,35.7246,0,2.71325,6273.33,-581.177,-24593.3
8.81303e+07,72.6512,1,2.37114,11300.9,-7277.28,-21447.8
8.85112e+07,179.723,0,2.66377,-19072.2,15730.5,-158.336
8.97818e+07,40.0272,1,2.97681,2898.45,-4458.2,-22378.1
8.99832e+07,96.7974,1,2.65023,-20220.6,1603.27,-26034.7
9.06763e+07,43.7843,1,2.85767,1371.52,-5930.27,-22005.8
9.08662e+07,63.5645,0,3.06023,9295.69,5935.92,-21261.7
9.1066e+07,128.524,0,2.88041,188.615,20686.1,-11515.3
9.12208e+07,40.4243,0,2.47309,7023.23,5034.34,-28491.6
9.19305e+07,47.5759,2,2.94959,-3226.17,-9315.91,-26681
9.20331e+07,29.691,0,2.72767,537.287,-4303.84,-24328
9.22179e+07,194.916,2,2.98579,-10539.6,-24460.4,2232
9.23924e+07,150.192,0,2.8515,10324.5,-7520.84,54.6718
9.25043e+07,113.983,0,2.56403,1673.69,-9644.38,-27571.2
9.27747e+07,3.75321,0,2.85516,-59.3713,-791.593,-28706.6
9.28337e+07,94.8115,2,2.73678,13072.8,-4144.07,-14374.5
9.32309e+07,8.58126,1,2.83761,-1006.55,851.865,-27492
9.33846e+07,110.672,0,2.88529,-5830.78,21596,-22488.3
9.35764e+07,3.16612,1,3.03709,-706.922,124.89,-28649.5
0,3.12603,1,2.47676,0,0,0
9.35841e+07,62.9738,0,2.48151,-683.995,8277.17,-18398.5
9.36808e+07,24.0823,1,2.89825,3559.2,3654.84,-29314.3
9.39711e+07,49.7493,2,2.9616,-4810.22,6122.23,-21909.4
9.40745e+07,166.309,0,2.94582,9705.35,20841.1,-2588
9.44691e+07,7.23367,2,2.48503,-382.387,-1089.93,-29971.2
9.45309e+07,88.7665,1,2.46999,7619.34,11384.7,-15927.3
9.47037e+07,72.7009,2,3.04507,-9600.63,-6966.07,-19189.7
9.48265e+07,35.5156,2,2.60948,-7019.3,-2682.63,-29789.6
9.50462e+07,48.9031,0,2.48086,1297.74,7179.17,-21463.2
9.53007e+07,41.6282,0,2.57889,-2362.48,8464.59,-28192.4
9.54743e+07,7.04747,2,2.38638,306.288,-1230.21,-27924.4
9.59102e+07,82.1419,0,2.43604,-3002.95,17090,-27573.2
9.59549e+07,70.7961,0,2.6031,444.176,-6569.34,-15424.5
0,70.8744,0,2.71583,0,0,0
9.60139e+07,7.31127,2,2.37568,-696.816,-973.847,-27752.3
9.63054e+07,109.977,2,2.57665,6490.18,-11317.3,-9623.5
9.65897e+07,87.3065,1,2.42434,-9609.2,9370.31,-16032.7
9.66346e+07,271.691,0,2.68011,3476.2,26623.3,21773.7
9.69925e+07,44.9206,0,2.56681,1167.41,7719.27,-23365.6
9.71359e+07,3.50338,0,3.02512,836.433,31.0238,-28854.9
9.73454e+07,21.5163,2,2.8618,541.739,-3230.43,-25620.7
9.77928e+07,50.6423,1,2.67062,312.919,10464.6,-26249.5
9.80455e+07,222.819,0,2.65241,-7718.89,-24585.6,10472.1
9.81152e+07,15.8786,2,2.45574,1671.91,-2872.6,-27959.4
9.82126e+07,9.71437,0,2.84803,650.118,725.783,-27020.9
9.87773e+07,86.3977,0,2.38956,-7293.38,-6411.33,-17031
9.92321e+07,10.1805,2,2.86129,-1309.08,1082.15,-27504.1
9.94961e+07,31.6022,2,2.7586,1099.96,3218.34,-23153.4
9.96295e+07,55.284,2,2.39932,-8163.73,-5059.66,-22010.6
9.98578e+07,13.9092,0,2.79833,2145.15,999.875,-26989.6
1.00335e+08,31.234,2,2.71857,-1553.86,-6441.22,-29611.3
1.00456e+08,166.531,0,2.63362,27953.7,-3560.96,-7704.63
1.00592e+08,197.49,2,2.78479,-26183.5,7879.06,2466.97
1.00692e+08,71.2941,1,2.64216,13558.2,2429.64,-22797.5
1.00784e+08,8.54215,0,2.41765,1805.76,111.01,-29514.6
1.00822e+08,116.382,2,2.51009,11123.4,-20078.4,-19840
1.01153e+08,49.8215,2,2.53654,595.175,-8062.53,-21970.2
1.01168e+08,28.0196,1,2.6938,-2848.6,5287.96,-29291.1
1.01817e+08,17.3228,1,2.7698,3391.63,-1200.08,-28551.1
1.01879e+08,25.3781,2,2.96609,-582.776,-2677.02,-24205.5
1.02204e+08,27.5051,2,2.7983,-1674.72,-3121.87,-24167.2
1.02328e+08,8.01417,1,2.60607,563.561,1357.42,-27863
1.02473e+08,100.496,2,2.97567,14200.1,2160.52,-13439.4
1.02488e+08,34.283,1,2.79729,4413.71,3934.05,-24633
1.02743e+08,95.0746,1,2.84023,-3717.01,-6408.46,-29585.5
1.03478e+08,114.886,0,2.5671,22104,-10226.5,-28286.4
1.04082e+08,89.32,2,2.52375,-15510.5,10239.6,-25375.5
1.04167e+08,106.978,1,2.56821,18043.1,9371.78,-18954.4
1.04193e+08,15.9312,0,2.54893,969.73,-2080.91,-26313.6
0,15.9565,0,2.48614,0,0,0
1.04382e+08,8.84101,2,2.92964,-7.21883,-1386.04,-28682.5
1.04463e+08,46.3854,0,2.96973,850.513,-9669.46,-27992.4
1.04845e+08,35.3277,1,3.0099,9.20993,-7316.36,-28140.3
1.04888e+08,72.094,0,3.05594,12325.5,-8882.02,-29173.1
1.05024e+08,159.769,1,2.72607,-1680.9,24800.8,-6038.31
1.05499e+08,28.1227,0,2.96309,522.252,5892.34,-29142.5
1.05635e+08,31.2489,2,2.4684,-89.242,-6215.66,-26315.5
1.05644e+08,116.479,2,2.44652,-20242.9,-8985.88,-17860.7
1.05673e+08,31.2881,2,2.40982,-2346.86,6135.35,-28323.5
1.05814e+08,36.3458,0,2.80581,932.367,-5428.98,-23488.3
1.06016e+08,80.2951,0,2.7743,10457.9,107.237,-15879.1
1.06317e+08,62.619,2,2.68179,3172.23,-8715.77,-19350.4
1.06704e+08,16.4939,1,2.53918,-2416.54,385.179,-26280.4
1.0674e+08,30.2917,0,2.39833,6226.93,1773.66,-28042.2
1.06869e+08,11.917,0,2.75121,2410.31,-543.078,-27974.1
1.06878e+08,7.32339,0,3.01766,1625,-106.966,-29076.8
0,7.41191,0,3.01597,0,0,0
1.07149e+08,166.374,0,2.57975,18196.4,23858.6,-10451.2
1.07193e+08,132.871,1,2.53047,-21905.9,-17243.3,-25346
1.07294e+08,95.8246,1,2.59985,-9694.11,-11502.5,-15293.1
1.08067e+08,37.9481,1,2.9974,1317.91,7947.71,-28877.1
1.08699e+08,21.3658,1,2.93816,1090.02,2644.69,-25330.9
1.091e+08,122.621,1,2.65629,-16640.6,15899.3,-16865.3
1.10004e+08,128.229,0,2.72899,13435,-21361.5,-19128
1.1018e+08,75.912,1,2.75002,-2142.25,-13843.1,-21200
1.10469e+08,127.103,1,2.63688,11624.6,9939.1,-6764.77
1.10709e+08,48.0443,2,2.79154,1536.51,-5976.33,-20754.7
1.10818e+08,8.01675,0,2.69535,804.671,-1307,-27976.3
1.1155e+08,44.1215,2,2.68711,-4723.17,-8149.77,-28632
1.11617e+08,148.469,2,2.554,-26933.2,-9339.69,-15626.2
1.11817e+08,24.6816,0,3.01311,3492.47,3911.7,-28711.8
1.1188e+08,2.56031,2,2.92876,-91.6172,-527.01,-28530.2
1.12155e+08,67.8537,2,2.72458,-6149.13,-5412.86,-17052.9
0,68.6071,1,3.04665,0,0,0
1.12278e+08,32.6414,2,2.87052,-379.583,5470.26,-24757.3
1.12338e+08,102.049,0,2.90697,2013.01,11953.2,-11155.8
1.12622e+08,83.8048,1,2.55226,-16318,-568.06,-21896.3
1.13179e+08,79.2987,1,2.79066,-9501.44,-4673.45,-15903.2
1.1322e+08,26.8516,0,2.97364,5079.67,-2612.51,-28333.9
1.13224e+08,24.7239,1,2.57206,1371.45,2562.08,-24434.2
1.13729e+08,125.178,2,2.87194,4371.92,11752.5,-15447.3
1.13803e+08,166.945,0,3.02308,27710.6,-4025.95,-7746.78
1.13832e+08,137.619,1,2.91031,-13053,21933.3,-15098.9
1.13882e+08,66.2699,2,2.97972,5239.48,-10619,-21438.1
1.14016e+08,20.1658,2,2.73942,108.046,-4340.06,-28767.5
1.14134e+08,155.633,1,2.85635,1378.6,-594.594,-29077.8
1.14187e+08,15.6245,1,2.89303,-861.684,3144.59,-29724.7
1.14388e+08,24.1673,1,2.70936,-1556.06,1233.69,-24091.4
1.14495e+08,34.4662,1,2.4349,-6887.9,-1472.05,-26822.1
1.14708e+08,0.686084,2,2.72391,-189.831,27.8879,-28853.9
1.15204e+08,2.74908,1,2.90327,393.621,-192.134,-28544.8
1.15412e+08,2.42602,1,2.85783,-528.207,157.227,-29075
1.15865e+08,129.169,2,2.94814,-9225.71,19712.8,-12739.3
1.16013e+08,8.63868,1,2.45984,-1654.35,-698.351,-28479
1.1609e+08,137.205,2,2.67244,7353.29,-18224.2,-7554.03
1.16194e+08,24.3253,2,2.64121,-2129.35,2806.07,-25084.8
1.16754e+08,33.5876,2,2.45174,-3638.65,-5227.07,-25491.5
1.1677e+08,11.9772,0,2.64736,1276.74,-1130.88,-26900.5
1.16827e+08,6.65822,2,3.02177,12.4002,-1465.42,-28584.2
1.16963e+08,18.833,0,2.52845,-389.802,-3926.41,-28339.5
0,18.817,0,2.67957,0,0,0
1.17354e+08,139.063,1,2.93859,-6700.21,13476.2,-3796.01
1.17692e+08,71.4404,0,2.9445,6205.32,7814.46,-17600.6
1.17726e+08,171.175,2,2.96101,8792.64,-21578.8,-1644.14
1.17802e+08,95.2951,0,3.04788,14510.2,1076.81,-15105.9
1.17819e+08,55.9696,0,2.56408,-2667.76,-863.04,-29917.4
1.17829e+08,33.7017,0,2.84222,7071.54,720.121,-27891.3
1.17919e+08,57.5215,2,2.3839,9224,4240.15,-22199.1
1.18065e+08,38.7132,1,2.78257,3.54873,7311.81,-25034.4
1.18077e+08,2.45611,0,2.95383,579.989,90.557,-28948.8
1.18376e+08,4.94539,1,2.67295,-470.412,-218.418,-28613.1
1.18487e+08,2.82158,2,2.53067,417.105,-416.647,-29108.9
1.18683e+08,26.404,2,2.93756,2754.17,-4177.15,-26376.5
1.18922e+08,38.6086,2,2.48144,1624.36,-7066.35,-24911.5
1.19009e+08,79.0962,0,2.48947,-676.792,-7666.63,-13998.7
1.19291e+08,45.534,0,2.83068,-3690.69,-5694.39,-22078.2
1.19838e+08,53.4395,1,2.5309,-5622.44,5739.14,-20779.9
1.20222e+08,30.5071,0,2.44096,4535.28,-1449.25,-24356
1.2028e+08,71.1219,1,2.91127,-6287.86,346.948,-18405.2
1.20294e+08,90.1922,0,2.69454,12420.7,-11090.3,-19526.8
1.20352e+08,37.0851,0,2.40709,7066.5,1016.79,-25346.2
1.20531e+08,89.7063,1,2.78954,8372.67,-8393.4,-14216.1
1.20842e+08,56.7526,2,2.46357,-9836.41,1808.54,-22113.6
1.21104e+08,54.0602,2,2.68069,1166.64,-6108.05,-19219.4
1.21411e+08,52.7228,1,2.79568,-9802.4,513.897,-23565.5
1.21813e+08,70.0261,2,2.54794,-12900.4,-3606.27,-22413.3
1.21973e+08,112.837,0,2.96407,19949.2,12457.7,-25494.9
1.22128e+08,41.3957,1,2.70558,2547.94,7769.22,-25625.3
1.22134e+08,103.742,1,2.53674,2994.04,14493.1,-12592.7
1.22861e+08,6.09898,0,2.61898,-284.357,-741.589,-27805
1.22974e+08,50.3954,1,2.94733,-2960.17,3233.69,-19160.2
0,50.4947,1,3.00436,0,0,0
1.23458e+08,108.023,2,2.53577,-3852.13,22401.3,-27268.6
1.24027e+08,8.07599,2,2.76043,-470.977,-1370.36,-27775.8
1.2471e+08,31.0937,1,2.93381,2532.22,5515,-26300.6
1.24775e+08,42.6492,1,2.65058,-4487.39,3630.05,-21838.1
1.2498e+08,64.3897,2,2.90727,-9227.95,3198.2,-19467.8
1.25035e+08,267.843,0,2.72032,19094.7,8170.74,-15586.8
1.25157e+08,76.1996,2,2.69812,-7622.86,-9555.61,-18301.3
1.25853e+08,124.405,2,2.59774,-17876.8,6152.91,-10559
1.26191e+08,19.3234,2,2.70448,-4021.64,-982.912,-29286
1.26508e+08,60.6164,1,2.77135,-2584.18,-5520.02,-17631.5
1.26723e+08,6.62925,2,2.50433,1252.69,-417.08,-28315.7
1.26892e+08,84.6816,1,2.90561,-3278.99,-11803.3,-15970.5
1.26934e+08,247.163,1,3.03899,-24106.1,25927.3,9008.09
1.27078e+08,142.291,0,2.98678,27454.7,-11109.9,-24481.8
1.27539e+08,136.086,1,2.99014,4136.48,23460.8,-13017
1.27578e+08,189.889,0,2.70623,13556.8,15481.9,5512.74
1.2767e+08,125.17,2,2.99896,-12923.5,-9319.28,-7918.41
1.27885e+08,171.579,0,2.94235,24351.2,-21327.3,-12956.8
1.2789e+08,33.3169,2,2.77658,-6370.63,292.589,-25790.6
1.28021e+08,72.8945,0,2.95939,14870.3,3995.15,-28339.3
1.28379e+08,186.197,2,2.72145,-8125.86,-21866.7,2773.35
1.28743e+08,83.1938,0,2.71069,4584.76,-449.451,-24860.9
1.29087e+08,303.854,1,2.73278,21136,14747,29735
1.29369e+08,38.6847,0,2.92955,3431.46,2576.69,-21899.5
1.29423e+08,103.266,1,2.99933,8702.84,19699.1,-26108.5
1.29762e+08,141.49,1,2.92238,-26026.5,7500.68,-16513.2
1.29951e+08,25.0107,2,2.90487,-592.304,-2237.02,-24076.9
1.29993e+08,182.72,0,2.90002,-16967.9,-27192,-7839.86
1.30309e+08,47.5115,2,2.79294,8824.88,-4641.35,-29775.3
1.30352e+08,275.919,2,2.6777,27684.8,-4925.73,22086.6
1.30977e+08,0.186581,0,2.64572,44.1651,40.2765,-28780.8
1.31657e+08,12.4143,0,2.80632,1395.9,-2215.64,-29468.5
1.31971e+08,20.153,1,2.38874,-2183.35,2814.26,-26327.3
1.32011e+08,322.232,1,2.75536,-2850.16,7333.78,15416.1
1.32128e+08,116.378,1,2.93671,-10474.1,8959.46,-8609.67
1.32199e+08,53.3294,2,3.05928,-6975.55,-7983,-25011.8
1.32466e+08,87.3023,1,2.84693,-11823,-1473.17,-14835.2
1.32665e+08,82.6036,1,2.63665,12746.3,5581.26,-20235.6
1.32872e+08,8.49482,0,2.79122,1184.68,951.849,-27812.7
1.33498e+08,186.431,2,3.01139,-24640.8,-6260.35,-9903.18
1.33673e+08,13.481,0,2.83414,1975.27,-94.1965,-26715.2
1.33933e+08,282.594,0,2.96254,11824.5,-500.843,-20516.4
1.33952e+08,3.50544,0,3.0387,-67.9709,688.727,-28569.1
1.34109e+08,69.5652,0,2.74527,11890.4,3811.11,-23370
1.34199e+08,85.0855,1,2.55852,10855.8,14026.8,-25556
1.34764e+08,5.95716,0,2.52685,892.543,-990.694,-28623.6
1.35581e+08,229.024,1,3.05202,-16614.7,8190.83,11782
1.35658e+08,106.579,1,2.95368,-5276.01,20876.4,-22440.1
1.35831e+08,26.0208,2,2.78907,-420.293,-2073.48,-23739.2
1.35905e+08,4.16954,1,2.78902,-360.811,-282.572,-28248.5
1.36192e+08,26.6796,0,2.4802,1711.55,-3176.32,-24463.9
1.36286e+08,8.89609,1,2.45719,-1158.29,939.058,-27558.8
1.36289e+08,60.2685,0,2.9082,-519.508,1075.77,-29323.6
1.36341e+08,9.31187,0,3.04193,1700.97,116.8,-27704.5
1.36376e+08,107.552,0,2.38543,12189.6,4258.04,-10027.9
1.36419e+08,12.9131,1,2.73265,1983.03,1320.68,-27509.7
1.36557e+08,34.3086,0,3.00129,6523.26,-2315.48,-26524.7
1.36629e+08,91.8206,1,2.38375,15054.1,-5830.87,-18084.2
1.36735e+08,15.2815,1,2.54963,2789.7,800.643,-27433.4
1.36995e+08,51.4983,2,2.78423,-3483.27,2533.93,-18874.5
1.37045e+08,39.2362,1,2.7003,4800.74,5101.3,-24348.3
1.37186e+08,41.8973,1,2.99406,6506.33,5146.17,-25859.9
1.37303e+08,55.6738,2,2.97815,-6847.06,-8597.63,-24617.2
1.37537e+08,57.4199,0,2.94071,-11643,2278.09,-27088.7
1.37705e+08,39.2458,1,2.92844,-705.965,7253.58,-24838.8
1.38182e+08,77.6048,2,2.74678,6267.03,-14915.1,-26064.6
1.38703e+08,53.1439,2,2.47743,-3812.35,3079.44,-18711.8
1.39193e+08,58.493,2,2.72234,1176.97,4999.87,-17637.4
1.39337e+08,10.0037,0,2.57621,960.597,1708.98,-29817
1.39349e+08,88.9576,1,2.57134,-18734.8,1697.49,-27825.4
1.39582e+08,134.998,0,2.5755,5732.52,-27755.7,-25410.5
1.39855e+08,101.367,0,2.48899,17089.7,-13099.1,-28498.7
1.39971e+08,37.0837,0,2.8839,2217.31,5863.07,-24177.2
1.40009e+08,149.586,2,2.42245,15623.7,-19942.2,-9808.34
1.40293e+08,41.3614,0,2.86401,-7893.01,144.086,-25320.1
1.40585e+08,204.907,1,2.81911,15769.9,22361.2,4482.58
1.40744e+08,158.635,1,2.75113,3333.77,-16439,8.38934
1.40858e+08,254.817,2,2.69788,-20653.9,-17535.8,17585.8
1.41005e+08,98.2788,1,2.76608,-18302.5,5254.65,-20567.3
1.41108e+08,277.803,0,2.9704,11575.5,-5784.28,12439.2
1.41732e+08,85.8863,1,2.73122,-11824.1,5120.98,-16075.8
1.42418e+08,41.4421,1,2.91943,-3528.59,-3611.49,-21765.4
1.42628e+08,23.0836,0,3.05229,2686.09,-1161.33,-24906
1.42654e+08,155.415,0,2.78341,15607.3,-23924.5,-16230.6
1.42755e+08,11.8615,2,2.6859,-1893.23,-813.574,-27309.8
1.42866e+08,56.8482,2,2.80956,-4028.27,3413.01,-18085.7
1.42916e+08,6.59471,0,2.7658,1168.53,-424.526,-28031.5
1.42918e+08,185.784,1,2.54948,-29556.1,-24156.1,-19615.4
1.43019e+08,25.2141,2,2.98354,3527.74,2572.61,-25960.1
1.43043e+08,109.747,0,3.03332,-7111.92,21836.4,-29725.7
1.43159e+08,11.4049,2,2.46542,1839.47,1417.53,-28443.4
1.43227e+08,31.8097,2,2.91558,-5562.61,-3839.44,-29506.4
1.43298e+08,174.638,1,2.55429,-21719.4,-4331.76,713.932
1.4349e+08,168.155,1,2.61131,15837,-4749.71,2526.04
1.43832e+08,89.7064,2,2.82636,-9856.31,-2801.69,-12941.2
1.43911e+08,5.20837,1,2.39653,-750.236,708.719,-28228.4
1.44026e+08,141.018,0,2.68038,12036.4,22242.6,-13099.3
1.44406e+08,76.5861,1,2.66401,297.382,-8294.42,-15034
1.44569e+08,19.2746,1,2.89201,-3682.38,570.276,-27068.4
1.4484e+08,13.8004,2,2.53678,-2780.43,250.856,-27827.8
1.44966e+08,188.165,2,2.60227,-15668.2,-6058.38,7211.25
1.45193e+08,117.421,0,2.63122,16118.9,11803,-14090.7
1.45376e+08,28.674,2,2.55415,-1387.21,-3144.2,-23782.8
1.45389e+08,0.521637,0,2.97182,168.063,74.3231,-28907.4
1.45558e+08,82.6295,0,2.59456,9324.28,-13768.1,-23384.3
1.45779e+08,141.688,2,2.65642,11181.1,-24704.7,-16199.9
1.45808e+08,68.2286,1,2.38455,-13713.1,-2145.4,-24694.4
1.46203e+08,61.1244,1,2.70669,895.928,11443.4,-22822.2
1.46556e+08,107.124,2,2.59663,-5869.9,19096.4,-18277.4
1.46622e+08,36.9909,1,2.49632,7413.58,1649.51,-26915.5
1.46856e+08,137.638,2,2.76927,-15380.2,-15123.4,-9415.95
1.46893e+08,71.2567,2,2.82057,12090.1,-6325.38,-22638.3
1.46968e+08,59.0203,2,2.46863,-7365.7,-9271.49,-24561.4
1.47089e+08,23.1927,1,2.45409,1098.74,-2002.87,-24506.6
1.47227e+08,140.599,0,2.86055,1661.15,21643.1,-8762.22
1.47593e+08,19.4302,1,2.70166,4047.23,62.7589,-28436.6
1.47615e+08,12.5374,0,2.7904,1792.91,149.271,-26826.9
1.4794e+08,38.118,0,2.66282,108.32,-5115.18,-22622.8
1.48094e+08,40.7772,2,2.8934,-1547.46,-7390.19,-24633.6
1.48169e+08,73.4349,2,3.01193,-10491.2,-6359.89,-19420.8
1.48215e+08,45.1775,2,2.90506,-2255.91,-8079.36,-24250.2
1.48284e+08,110.89,0,2.71305,9977.39,17699.8,-17616.3
1.48502e+08,148.42,1,2.83715,-19000.8,21150,-15761.7
1.48544e+08,66.7812,0,2.40511,5833.74,12562.6,-25707.5
1.4868e+08,165.243,0,2.83098,11259.3,-749.856,-12581.4
1.48712e+08,7.82946,2,2.40535,-554.834,566.041,-27362.2
1.48781e+08,46.4565,2,2.70281,-9764.49,-462.218,-27613
1.49104e+08,73.2443,2,2.74567,-14323.8,1362.01,-24403.2
1.49168e+08,22.8345,1,2.58981,-1956.34,-1674.17,-24737.2
1.49692e+08,39.0534,0,2.6762,5345.94,-4963.83,-24865
1.49943e+08,3.35668,0,2.76598,-293.731,620.92,-28837.8
1.50126e+08,12.7021,2,2.68738,1378.59,112.188,-26570.9
1.50643e+08,78.0716,1,2.84843,2028.4,9803.82,-26753.1
1.50662e+08,46.5269,1,2.58742,8679.35,4611.84,-29597.1
1.50769e+08,89.4514,1,2.59625,11392.6,-5376.86,-14793.9
1.51282e+08,145.152,2,2.66794,-10113.1,25259.2,-14854.6
1.51318e+08,115.464,0,2.44512,23222.6,-1854.04,-21185.3
1.51436e+08,12.9704,1,2.81612,-230.402,2018.21,-26900.8
1.5147e+08,46.8211,2,2.75826,-8508.21,-5007.26,-29967.9
1.5173e+08,167.577,1,2.9256,-4763.05,-6402.17,-22687.6
1.51737e+08,65.2602,0,2.86706,-9800.25,-2833.13,-19718.5
1.52092e+08,22.3767,0,2.85065,920.263,-3788.16,-26132.7
1.52187e+08,59.2539,1,2.64657,-5842.03,8099.22,-21169.9
1.52461e+08,77.9381,2,2.85538,-8127.58,-10434.4,-19079.1
1.52711e+08,163.879,1,2.69372,-23906.6,-5950.8,-4596.84
1.52863e+08,160.911,0,2.42947,-5566.71,6136.93,314.991
1.52917e+08,209.407,1,2.65765,21714.9,-19208.9,4432.47
1.53175e+08,151.672,2,2.9041,24809.3,-3433.46,-9205.04
1.53308e+08,71.8938,2,2.84868,-1069.39,-11407.7,-18868.2
1.53559e+08,51.0991,2,2.81744,-104.503,-8826.31,-22571.2
1.53592e+08,38.7849,1,2.47006,-5567.84,6151.8,-29517.6
1.53668e+08,2.751,0,2.6695,656.617,118.629,-28933.8
0,2.60938,0,2.83518,0,0,0
1.53743e+08,113.838,1,2.76988,-12230.8,14630.5,-14192.2
1.5383e+08,11.5665,1,2.82158,1733,1539.65,-29668.5
1.53846e+08,20.3503,0,2.67902,2560.32,2882.48,-26771
1.53946e+08,196.51,1,2.55799,11525.6,25740.5,1684.56
1.54358e+08,101.668,0,2.61363,15226.3,-13069.8,-21163.1
1.54568e+08,26.5054,2,3.05348,-4505.54,2259.99,-26442.7
1.54967e+08,78.8713,1,2.70192,1859.23,876.388,-26918
1.55035e+08,14.1333,2,2.6834,586.567,1197.85,-26471.6
1.55203e+08,5.77003,0,2.94353,1034.01,766.567,-28642.4
1.55614e+08,8.62197,1,2.78448,-1160.21,1545.86,-28921.6
1.55651e+08,62.6534,0,2.68476,-118.188,13135.4,-27163.4
1.56024e+08,112.884,1,2.56305,-2238.68,10366.7,-7444.31
1.56034e+08,5.31982,2,2.9182,-571.429,-273.676,-27883.2
1.56105e+08,23.5773,2,2.59294,800.584,-4993.14,-28359.8
1.57169e+08,33.8137,1,2.78283,2617.28,4390.29,-23837.3
1.57823e+08,76.0183,0,2.4871,968.979,-13179.5,-19644
1.57851e+08,24.7334,1,2.528,3843.6,3197.46,-27195.4
1.57971e+08,96.0165,1,2.70093,-1378,17175,-18079.5
1.5802e+08,107.997,1,2.37791,4165.7,22560.4,-28635.4
1.5809e+08,28.073,1,2.68286,-4101.61,3284.66,-25923.8
1.58655e+08,15.9943,0,3.04686,3418.77,549.448,-28812.4
1.58839e+08,24.2327,2,2.6535,1651.34,-3802.34,-25740.8
1.59001e+08,66.2875,0,2.43629,10531.1,-9371.43,-29176.8
1.59327e+08,109.75,0,2.70277,11114,-19232.3,-22172.4
1.59386e+08,17.8953,1,3.02568,-863.969,3083.38,-26705.5
1.59427e+08,61.6166,0,2.97257,-8272.39,-2274.55,-19217.6
1.59432e+08,48.7421,0,2.48849,955.074,4531.82,-19608.7
1.59573e+08,139.08,2,3.05716,8691.21,11162.1,-18098.6
1.6e+08,11.0496,1,2.95919,-528.515,1699.66,-27224.3
1.60052e+08,193.286,0,2.61024,-19869,-4060.2,6536.37
1.60201e+08,4.14977,0,2.4899,-561.938,228.929,-28228.3
1.60344e+08,161.616,0,2.63725,-23528.8,-19464.7,-13794.1
1.60352e+08,121.459,2,2.87684,-4902,21505.6,-16098.1
1.60879e+08,112.73,0,2.81629,-226.38,-23734,-29514.7
1.62526e+08,6.52603,1,2.93098,-915.742,661.858,-29754.6
1.62829e+08,31.2327,0,3.01468,-841.347,-2952.48,-23049.3
1.62949e+08,71.9798,1,2.59005,-14322.4,-4285.02,-25836.3
1.63264e+08,4.20341,1,2.77896,38.3756,960.322,-28626.7
0,4.22951,1,2.71494,0,0,0
0,4.21428,1,2.86793,0,0,0
1.63315e+08,134.308,2,2.58292,-19219.8,-17225.2,-16841.3
1.63501e+08,69.088,1,2.67025,-11126.8,1646.19,-19471
1.63561e+08,47.8559,0,2.632,-7176.63,-6077.13,-25264.3
1.63747e+08,15.4178,2,2.87129,-150.781,-2702.12,-26924.2
1.63917e+08,54.7527,1,2.98573,-4386.08,-5682.19,-19864.5
1.63923e+08,7.86501,1,3.03142,-1352.11,111.722,-27800
1.64223e+08,148.635,1,2.90904,-20740.2,-13410.4,-9777.69
1.64253e+08,56.3726,2,2.45186,-5062.81,1139.71,-18076
1.64534e+08,4.00158,1,2.96471,-695.241,458.251,-28410.2
1.64821e+08,17.4858,1,2.97102,-3236.49,1920.19,-28853.5
1.64975e+08,89.269,0,2.57048,15824.5,-4126,-19286.9
1.65347e+08,69.7298,2,2.68518,1258.5,-6380.06,-15628.1
1.65767e+08,18.8701,0,3.04918,1588.39,-3381.52,-27424
1.65792e+08,116.11,0,3.04039,4829.91,-13504.2,-9176.49
1.6625e+08,54.5052,1,2.50311,7441.3,6979.56,-23375.9
1.66296e+08,45.5548,1,2.99055,-8950.21,3252.57,-27459
1.66664e+08,2.9847,2,2.85084,466.053,-142.533,-28411.1
1.66963e+08,76.3889,0,2.99334,-2969.01,-11383,-17997.6
1.66968e+08,9.10913,0,2.37214,256.275,983.202,-27163.1
1.67229e+08,142.407,2,2.49864,21336.2,8165.13,-9279.63
1.68015e+08,8.97853,0,2.60571,-268.601,-1523.47,-27754.7
1.68024e+08,46.3394,1,2.80677,7860.93,1243.2,-23192.1
1.6819e+08,192.205,2,2.44845,-19131.3,-20130.6,921.064
1.68543e+08,23.6261,2,2.78744,2088.55,-4133.03,-26868.9
1.68958e+08,59.9528,1,2.48261,-7482.39,3832.54,-19253.6
1.68968e+08,37.235,2,2.4104,-2737.28,-5807.78,-24127.3
1.69003e+08,50.1519,0,2.57488,7249.44,-5113.91,-22915.9
1.69178e+08,49.2614,2,2.73108,1089.97,-5512.05,-23320.8
1.69502e+08,4.07404,0,2.54875,838.959,384.911,-28631.8
1.69883e+08,11.3955,1,2.50596,-1331.24,-178.356,-26784.1
1.70036e+08,30.5694,2,2.42586,-3658.46,3204.78,-24549.4
1.70125e+08,1.07041,2,2.43197,145.462,-29.8205,-28699
1.70173e+08,5.58262,0,2.41785,457.598,1079.13,-28541.7
0,5.49053,0,2.844,0,0,0
0,5.47272,0,2.51355,0,0,0
0,5.49189,0,2.85934,0,0,0
1.70179e+08,147.996,1,2.6864,4788.66,12160.5,-7872.97
1.70189e+08,44.7818,1,2.87809,-4514.89,8054.28,-26613.7
1.70326e+08,133.198,1,2.95504,19153.8,14816.1,-15351.1
1.7052e+08,36.3695,0,2.9472,-1626.09,6252.26,-24822.4
1.70594e+08,72.6631,1,2.81993,9930.22,913.106,-17282.4
1.70732e+08,138.49,2,2.51154,-23245.1,17164.5,-24026.8
1.7077e+08,134.009,2,2.76556,27275.6,-6561.59,-25949.9
1.71101e+08,157.829,2,2.47154,-15369.3,17522.6,-5104.76
1.71202e+08,8.94229,1,2.60501,693.238,1787.79,-28419.9
1.71283e+08,41.9144,0,2.78441,-290.555,6265.58,-22646.6
1.71498e+08,91.5352,2,2.49973,-7067.96,-13510.6,-16799.2
1.71852e+08,86.8155,2,2.70434,-5019.12,5084.39,-11981.3
1.71989e+08,14.2894,0,2.73607,2682.81,-1542.88,-28968.6
1.72177e+08,22.684,1,2.89405,-3040.24,3686.1,-27917.6
0,22.6902,1,2.99628,0,0,0
1.72211e+08,88.0968,2,2.61546,-14472,406.304,-17080.6
1.72314e+08,27.2578,2,2.83577,2603.37,-741.643,-23765.2
1.72865e+08,61.5656,1,2.38041,-10190.9,5957.14,-23159.1
1.73148e+08,95.116,0,2.80404,-3849.37,-13697,-14749.7
1.73796e+08,80.533,0,2.74628,-6590.8,11855.6,-18739.3
1.73955e+08,66.0945,1,2.55985,9432.94,9937.16,-25881.8
1.73986e+08,155.743,2,3.02129,6898.51,-25115.3,-9080.27
1.74268e+08,81.2002,1,2.58285,-13896.7,9935.36,-27141.1
1.74349e+08,59.6904,2,2.52576,-10574.6,5788.44,-25001.2
1.74403e+08,24.1702,1,2.46586,-4301.78,-117.548,-26037.6
1.7461e+08,32.1805,0,2.60989,5026.86,1471.32,-24372.2
1.75114e+08,183.088,1,2.89329,2487.73,22579.7,2216.49
1.75185e+08,23.1459,0,2.80096,563.978,-2155.21,-24508.3
1.75336e+08,126.621,2,2.88164,-19183,17511.4,-23058.4
1.7535e+08,66.1883,1,2.94821,-10038.9,8067.89,-23465.8
1.75369e+08,69.362,2,2.64586,-14005,1504.46,-24635.3
1.75663e+08,67.0742,1,2.42553,-10133.9,8957.04,-24257.2
1.75664e+08,26.3481,1,2.72478,-5419.83,1031.95,-27647.5
1.75786e+08,220.746,2,2.45857,29724.9,-2587.48,7047.33
1.75819e+08,44.5566,0,2.64692,4912.37,-6192.76,-23614.5
1.75915e+08,57.3369,0,2.96739,-9511.52,41.4981,-21575.8
1.7608e+08,30.9832,0,2.8956,5511.15,-2537.57,-26222.8
1.76459e+08,25.6625,1,2.8457,-356.156,2631.33,-24101.5
1.76596e+08,19.6873,0,2.36311,-553.243,-3236.1,-26237.6
1.76758e+08,158.386,0,2.8088,23622.5,-17584.5,-15382.4
1.76816e+08,28.7128,1,3.02018,1494.62,5857.09,-29559.3
1.76916e+08,167.041,0,2.37534,11973.4,-21340.6,-3263.08
1.76968e+08,109.9,0,3.01421,5869.75,-10720,-9290.37
1.77101e+08,86.0552,1,2.86944,-3718.74,12949.2,-16671.7
1.7723e+08,72.5494,0,2.55265,-3789.34,5588.6,-25697.1
1.77271e+08,167.793,1,2.88076,2896.13,16801.9,2033.07
1.77657e+08,76.7239,0,2.71407,-2009.14,-7807.38,-14837.4
1.78047e+08,129.798,2,2.89617,8594.47,-7972.31,-4203.24
1.78113e+08,22.2139,0,2.71729,1649.55,1308.07,-24600.5
1.78455e+08,31.5962,2,2.96489,-106.382,-5517.27,-25018.9
1.78499e+08,25.2959,0,2.69293,2481.77,-4778.27,-28323.2
1.78666e+08,145.089,0,2.89624,-24661.2,-8834.92,-13379.8
1.79184e+08,132.875,2,2.81457,16507.1,2304.96,-6412.04
1.79275e+08,73.4833,1,2.4799,9883.29,8956.8,-20783.3
1.79697e+08,5.48946,2,2.76488,-473.208,-769.37,-29679.8
1.79801e+08,58.1816,2,2.42455,-7731.42,-2343.34,-27968.1
1.80006e+08,144.965,0,2.37749,20027.5,23300.1,-29659.4
1.80016e+08,109.217,0,3.05928,-17577.3,-13651.1,-23735.5
1.80116e+08,103.489,2,2.78208,-20914.8,6178.42,-29515.8
1.80899e+08,73.6138,0,2.8901,4101.53,-11244.3,-18988.3
1.80997e+08,129.994,1,2.6072,20168.1,-17797.4,-23682.2
1.81032e+08,19.7987,0,2.73622,-3022.26,1910.37,-26739.7
1.81116e+08,103.775,0,2.48601,19497,4609.85,-19672.8
1.81757e+08,7.15094,1,2.70922,654.833,1446.13,-28938.5
1.81827e+08,167.15,2,2.86501,-21271.4,10738.6,-3020.11
1.81881e+08,97.7233,2,2.63481,-17405.7,11011.2,-27605.9
1.81898e+08,134.434,2,3.04826,4256.87,-18664,-11374.4
1.81918e+08,246.693,0,2.89207,-7438.89,-10324.1,-16687.3
1.81924e+08,269.82,0,2.53483,25072.4,-7064.6,21942.3
1.82042e+08,25.7865,2,2.47174,-47.8783,3200.72,-24441.1
1.82131e+08,97.8813,1,2.73049,-17720.5,5174.36,-25492.7
1.82262e+08,27.5683,0,2.81429,306.911,-3152.19,-23951.1
1.82745e+08,40.202,0,2.90044,6817.31,3473.82,-25120.4
1.82841e+08,37.7712,1,2.84211,-6815.37,2344.05,-25310.1
1.82881e+08,200.792,1,2.4802,-19704.3,-19342,1750.43
1.83164e+08,48.9297,2,2.85737,-5525.99,-935.611,-20150.6
1.84073e+08,108.33,1,2.60542,-6083.39,20644.1,-20900.5
1.84147e+08,44.1285,2,2.73147,6417.09,-1371.24,-22255
1.84378e+08,150.222,0,2.62478,24991.2,-15026.9,-16231.2
1.84497e+08,45.07,1,2.75716,5207.25,3264.98,-21619
1.84531e+08,37.2553,0,3.06163,-1779.54,-7284.7,-26694.4
1.84936e+08,17.3144,2,2.42738,1637.9,-2730.32,-26936.3
1.85322e+08,100.211,1,2.44069,8657.57,7584.72,-11053
1.85661e+08,85.787,2,2.79145,-3449.13,-8714.35,-15676
1.86451e+08,17.1958,2,2.63504,-551.462,-1844.15,-25713.6
1.86525e+08,69.7935,2,3.01625,-5686.92,-10942.6,-20808.4
1.86831e+08,3.7274,1,2.69719,-143.801,304.821,-28074.9
0,3.74112,1,2.61293,0,0,0
1.87044e+08,145.09,1,2.75923,-9305.37,14682,-3639.69
1.87159e+08,84.305,1,2.56844,-8187.48,-14971.1,-23812.9
1.87183e+08,63.5297,0,2.78259,9158.97,1466.48,-19135.8
1.87685e+08,16.8677,2,2.56364,-855.95,-1744.64,-25766.6
1.87734e+08,146.082,2,2.71786,-21260.8,-15109.3,-12409
1.87909e+08,106.147,1,2.55983,-5649.66,-17400.2,-15927.1
1.88322e+08,61.0142,0,2.91961,567.386,-10869.5,-22059.8
1.8835e+08,113.497,0,2.39756,9810,341.095,-6865.89
1.88591e+08,42.4719,0,2.86596,2122.09,-8635.32,-27678.8
1.88712e+08,2.1457,2,2.8594,-449.59,104.986,-28749.6
0,2.46866,0,2.66091,0,0,0
0,2.00955,2,2.68823,0,0,0
0,1.99705,2,3.0202,0,0,0
1.88774e+08,131.187,2,2.7023,-11073.5,-20577.7,-13913.6
1.88864e+08,9.84178,2,3.03064,842.383,-1119.4,-27253.6
1.88885e+08,117.834,1,2.78843,-2533.21,-18754.8,-12964.3
1.89083e+08,161.86,2,2.36812,-28575.4,-2658.28,-10059.3
1.89172e+08,17.912,1,2.47743,-3852.09,-134.162,-28842.6
1.89413e+08,36.8204,2,2.91541,-7298.21,-1146.09,-26364.6
1.89896e+08,29.0463,0,2.40347,2810.95,-1117.66,-23437.3
1.90029e+08,4.4152,2,2.51482,920.912,-0.915439,-28724.8
1.90383e+08,2.72321,1,2.46083,322.825,545.533,-28988.9
1.90472e+08,4.32494,2,3.04669,-198.646,-978.684,-29080.9
1.90722e+08,17.9546,1,2.6552,2234.84,1359.16,-26078.3
0,18.1035,2,2.61292,0,0,0
1.91128e+08,123.334,1,2.74571,13639.3,-3404.18,-7036.63
1.91244e+08,27.4428,0,2.7552,4782.19,3413.51,-28565.9
1.91256e+08,158.336,2,2.63458,2699.56,-22706.9,-4408.32
1.91391e+08,16.7416,1,2.46849,-1326.07,829.711,-25608.5
1.91562e+08,50.7715,2,2.73837,-7852.94,2768.35,-22055.4
1.91613e+08,58.1244,0,3.01034,-8858.31,2473,-20900.1
1.92057e+08,59.7691,1,2.6083,3928.8,12071.3,-28576.8
1.92101e+08,28.2359,0,2.81364,498.26,-5594.74,-26878.1
1.92275e+08,3.95151,2,2.51434,461.12,-629.633,-28467.7
1.9241e+08,195.302,0,2.59005,-13414.9,-16793.1,6356.26
1.92547e+08,179.901,2,2.82777,-1549.46,-17050.4,4880.31
1.92909e+08,200.224,1,2.48351,-5592.08,23467,6019.62
1.92986e+08,146.661,2,2.59522,22016,-4396.27,-7516.16
1.93287e+08,168.114,2,2.91294,13738.4,9547.71,2198.17
1.93653e+08,62.6653,1,2.89667,-9894.07,-4353.23,-21320.5
1.93704e+08,49.1123,2,2.9678,10217.2,1145.92,-28930.7
1.93784e+08,4.67241,2,2.49437,30.7799,-629.961,-27995.5
1.93927e+08,31.2818,0,2.57431,-1548.64,3936.04,-23769.9
1.93951e+08,109.485,0,2.91271,6859.51,-12932.5,-11087.2
1.94074e+08,158.567,2,2.82047,-16455.2,2642.01,-24069
1.94106e+08,51.2916,0,2.87887,-718.573,-10737.7,-27921.1
1.94256e+08,52.2126,0,2.7792,824.402,603.414,-28967.2
1.94477e+08,86.9836,2,2.38514,-15077.3,8665.91,-22758.5
1.94664e+08,190.21,0,2.84528,-5795.15,-8515.92,-24373.9
1.94875e+08,173.246,0,2.43912,1024.68,56.8662,-27621.1
1.94882e+08,7.86171,2,2.43234,-973.911,-1409.84,-29289.1
1.94916e+08,87.7148,2,2.45674,-14215.7,-37.8889,-16882
1.95149e+08,125.121,2,2.54128,22237.6,-12377.6,-21543.6
1.9554e+08,56.2756,1,2.43915,-5246.16,3202.63,-18575.5
1.95576e+08,124.685,2,2.67744,-8899.53,-24368.8,-24057
1.95749e+08,65.6917,2,2.70699,2389.03,-6237.61,-16685.2
1.95841e+08,9.82373,2,3.03868,1019.89,-1881.72,-28979.9
1.95843e+08,88.5332,0,2.74849,6475.6,-7800.8,-13163.4
1.9623e+08,3.24475,1,2.38969,-489.709,-228.872,-28384
1.97156e+08,218.211,2,2.80313,-1332.29,-25558.7,-14653.9
1.97438e+08,53.2075,0,2.64982,-2485.42,-10506.1,-25689.1
1.97534e+08,74.2225,0,3.02109,3400.19,-7616.05,-20915.1
1.97596e+08,123.638,2,2.95615,2267.27,-12529.8,-19948.5
1.98358e+08,25.4985,0,2.60659,3259.23,-1082.55,-24597.1
1.98444e+08,51.8568,1,2.70899,-5220.64,-7193.65,-22519.5
1.98682e+08,40.5599,0,2.49592,8157.02,2919.91,-28208.9
1.98955e+08,130.571,2,2.66596,4781.79,-19325.4,-9722.93
1.99081e+08,8.60317,0,2.96927,207.419,1615.57,-28024.4
1.99182e+08,4.32844,2,2.7452,-483.32,-676.003,-29409.2
1.99401e+08,204.016,1,2.74984,-12204,10985.4,-25607.4
1.99681e+08,139.747,1,2.40318,-1897.8,-4541.82,-23658.5
1.99889e+08,10.4602,1,2.98746,-1122.81,-1834.97,-29121.3
1.9998e+08,55.7449,0,2.89613,834.581,6953.62,-19800
2.00137e+08,65.6881,2,2.77889,4822.66,3152.27,-16286.3
2.00215e+08,162.38,2,2.9956,-22307.2,17279.9,-9794.66
2.00432e+08,26.8466,1,2.50502,655.854,3602.7,-24415.3
2.00534e+08,14.6181,0,2.57109,-51.4435,-2391.94,-26852
2.0057e+08,223.375,0,2.58554,24273.7,7670.51,10929
2.00677e+08,260.141,0,2.75842,20807.6,23985.8,10084.1
2.00895e+08,98.8643,2,2.49462,-11318,-4913.58,-11898
2.01063e+08,109.227,1,2.39651,8402.39,12281.1,-11123.7
2.0111e+08,52.6909,1,2.75784,-3806.87,10512.7,-28524.9
2.01267e+08,108.839,2,2.70408,2704.81,-22863.2,-28553.6
2.01292e+08,127.301,1,2.68169,-11568.4,-22582.7,-20179.6
2.01467e+08,503.193,0,2.81612,-15988.3,4071.65,-10707.1
2.01635e+08,67.2103,0,2.79493,5062.19,-4654.82,-16440.7
2.0175e+08,20.5395,1,2.54896,3837.9,2048.04,-28428.2
2.01917e+08,12.0769,0,2.3801,-951.41,1244.2,-26820.7
2.02219e+08,43.2671,1,2.49254,-1345.06,-8986.07,-28446.9
2.02323e+08,2.86598,2,2.42767,-191.913,-695.737,-28814.1
2.02369e+08,33.0242,2,2.58354,-2061.6,-6452.84,-26774.1
2.02832e+08,105.425,1,2.82595,7890.18,15305.4,-14783.4
2.03004e+08,41.8829,2,2.58758,2682.03,-6109.64,-22927.3
2.03017e+08,9.52584,1,2.98884,250.123,1951.66,-29548.3
2.03066e+08,172.445,2,2.52881,-28263.6,1085.61,-5811.08
2.0307e+08,109.958,2,2.95924,-18851.6,-5688.4,-16806.1
2.03201e+08,55.5048,2,3.02839,-561.755,-7916.86,-20241.3
2.03346e+08,46.4419,1,2.65924,4183.06,-4580.76,-21319.8
2.03439e+08,30.0564,1,2.44475,3631.54,153.695,-23639.4
2.03884e+08,23.1169,2,2.42906,-1776.33,4479.42,-28165.9
2.03983e+08,41.896,0,2.96547,1267.62,7756.63,-24815.4
2.04559e+08,184.815,2,3.04167,-16678.4,8005.74,-23191.1
2.0459e+08,98.4918,0,2.66693,9673.4,-15521.8,-18932.7
2.04629e+08,24.92,2,2.41654,-3104.23,-3608.24,-26343.3
2.04778e+08,18.0812,2,2.90853,2980.95,-2413.98,-28878.2
2.05124e+08,3.27039,1,2.9386,-290.762,-272.908,-28258.3
2.05405e+08,99.5046,0,3.06011,-6713.75,8348.87,-11588.5
2.05406e+08,108.207,1,2.47322,6252.49,-16837.7,-14742
2.05533e+08,1.08795,1,2.49309,6.74531,318.323,-28886.8
0,1.07505,1,2.87077,0,0,0
2.05658e+08,40.7237,1,2.53162,-745.847,-5061.99,-21982.3
2.05777e+08,156.696,2,2.55544,-3046.06,-24240.9,-6389.61
2.05826e+08,105.458,2,2.46449,-1810.62,-15930.6,-13255.3
2.05889e+08,197.354,2,3.05796,-23652.7,-2541.46,676
2.05955e+08,83.5077,1,2.72712,-3289.57,-11469.9,-17351.1
2.06018e+08,79.8504,1,2.74605,5330.96,13222.8,-19837.6
2.0618e+08,42.7893,2,2.736,2747.45,-6872.46,-23931
2.06562e+08,63.3875,0,2.38462,9879.6,-7324.96,-23335.7
2.07399e+08,22.0853,2,2.53847,1714.65,-4269.85,-29920.8
2.0742e+08,65.0868,2,2.40611,-200.354,-9153.52,-18457.1
2.07488e+08,106.999,2,2.89063,-12652.7,16149.1,-19700.3
2.07616e+08,236.056,0,3.03653,27847.9,1668.82,12026.8
2.07706e+08,23.301,2,2.75114,123.541,2977.06,-24962.2
2.07742e+08,58.3256,0,2.84909,5863.4,-8462.17,-22052.2
2.07777e+08,86.51,0,2.74719,7438.18,-993.933,-12185.3
2.0781e+08,242.485,1,2.59353,11538.6,29171.4,-21265.3
2.07992e+08,29.2327,1,2.52853,2638.15,3485.13,-24395.9
0,29.2089,0,2.44635,0,0,0
2.08072e+08,1.54787,0,2.54388,316.992,266.475,-28750.6
2.08166e+08,54.8404,1,2.88739,-7529.47,7084.1,-23577.7
2.08278e+08,99.1696,2,2.52366,16177.7,-10129.4,-20086.1
2.08656e+08,35.9975,2,3.05948,-4368.93,-1121.67,-22732.4
2.09048e+08,111.96,1,2.67015,-2290.48,-18507,-14406
2.0929e+08,100.39,1,2.86769,-16095.2,5929.77,-16439.1
2.09479e+08,8.58161,2,2.93221,-1629.38,-926.732,-28951.1
2.09498e+08,161.41,2,2.9676,-23401.3,-1476.38,-27660.2
2.09646e+08,74.4195,2,2.83934,-8950.86,-12397.3,-25161
2.10011e+08,8.43056,2,2.77017,676.819,-912.412,-27425.4
2.1003e+08,57.5834,1,2.71118,-10338,-733.912,-22404.8
2.10234e+08,162.198,0,3.02612,5969.73,-15665.6,505.395
2.11153e+08,171.209,2,2.36828,-28552.5,-22300.5,-26461.9
2.11235e+08,160.195,0,2.51453,-14298.5,-28236.7,-16815.4
2.11652e+08,15.3373,2,2.5404,-1718.9,-2776.8,-29644.4
2.11701e+08,86.4982,0,2.85007,7922.28,8824.77,-14982.7
2.12492e+08,50.8683,1,2.53997,-5076.2,-7250.56,-22762.2
2.12749e+08,78.2722,2,2.60608,1684.73,7214.71,-14092.2
2.13099e+08,41.6694,2,2.70825,-8762.24,480.18,-29900.4
2.13192e+08,1.20385,2,2.88905,-301.62,-174.578,-28864.9
0,1.23706,2,2.63519,0,0,0
2.13202e+08,93.5115,2,2.7595,-13313.2,7302.6,-16357.1
2.13265e+08,170.303,2,2.65068,26666.2,-17365,-12105.3
2.13298e+08,141.817,0,2.97462,2840.05,21541.8,-8539.59
2.13439e+08,114.534,1,2.80038,22757.4,1713.68,-21168.6
2.13505e+08,8.00576,1,2.67338,-539.753,720.705,-27351.6
0,7.98648,1,2.51119,0,0,0
2.1354e+08,133.401,1,2.62757,9836.25,-24059.4,-18170.1
2.13565e+08,293.382,2,2.83229,-6078.03,-8439.1,14128
2.13769e+08,75.4504,2,3.06098,3133.32,8095.01,-15667.6
2.14108e+08,100.468,1,2.86019,-7067.13,14862.8,-15479.7
2.14246e+08,58.7814,1,2.88693,-9015.09,3953.69,-21272.7
2.14276e+08,143.241,0,2.45788,-27017.7,-7509.24,-28568.5
2.14608e+08,36.1599,2,2.55797,3916.01,-5689.6,-25453.6
2.14719e+08,151.506,2,2.52745,-10972.7,20031.7,-6413.94
2.14828e+08,105.852,2,2.41276,2638.34,-19988.9,-18909.4
2.14923e+08,6.40133,0,2.64626,926.622,897.874,-28202.8
2.15114e+08,30.4453,1,2.96319,-665.457,6007.72,-26603.4
2.15219e+08,71.0394,2,2.8074,-857.304,4872.32,-25228.5
2.15309e+08,162.493,1,2.80869,-18908.8,-20700.1,-14724.3
2.15327e+08,95.6619,0,2.71293,9794.85,-15267.2,-19913.1
2.15668e+08,91.2686,2,2.40574,14606,-4129.28,-16910.4
2.15769e+08,42.0239,1,2.73348,8255.08,2902.02,-27568.4
2.15819e+08,71.3784,1,2.87059,11955.3,-2251.65,-20090.1
2.1586e+08,105.114,0,2.98355,8835.73,-8870.97,-10664.8
2.15969e+08,52.7732,0,2.80467,5840.29,6858.39,-22229.5
2.15979e+08,74.3348,1,2.75597,-6377.11,-745.008,-14521.6
2.1647e+08,16.7257,0,2.73466,3471.75,899.324,-28603.3
0,17.2367,2,2.73466,0,0,0
2.16508e+08,47.3024,0,2.61101,-3054.31,-2812.58,-19760.6
2.16627e+08,0.948767,1,2.36696,-267.607,70.7757,-28878.2
2.16744e+08,138.793,0,2.74782,1807.11,-29190.3,-29909
2.1701e+08,23.0912,0,2.95597,4661.63,-705.974,-27320.4
2.1739e+08,91.5479,1,3.02468,17696.3,589.784,-21477.5
2.17647e+08,45.3536,1,2.75267,-7044.9,-6450.78,-29252.4
2.17683e+08,108.513,1,2.75932,14466,8787.44,-13473.8
2.17815e+08,57.7859,1,2.39142,1639.07,7805.31,-19487.2
2.1845e+08,35.7982,0,2.46386,2259.86,6986.94,-26844.2
2.18524e+08,39.2277,0,3.00878,6222.43,-3530.84,-24609.8
2.18566e+08,106.276,2,3.02683,707.069,-16236,-13529.8
2.18596e+08,106.101,0,2.54036,7777.32,-9743.48,-10139.8
2.18629e+08,100.835,2,2.71341,-10437.2,-12632.6,-15216.5
2.18948e+08,200.04,1,2.77615,9139.13,21347,6327.2
2.19071e+08,174.974,0,2.48756,18196,9239.66,-20204.2
2.19142e+08,42.2138,2,2.94591,-7351.4,-4582.05,-26550.1
2.19229e+08,105.872,2,2.80537,3810.98,9882.83,-9292.71
2.19254e+08,13.3435,1,2.5997,405.019,-1526.5,-26539.1
2.19606e+08,32.8472,1,2.7974,2850.91,4155,-24063.5
2.19611e+08,3.11645,0,2.62528,371.837,96.3532,-28238.3
0,3.08274,0,2.82774,0,0,0
2.19745e+08,170.485,2,2.98214,-23798,4405.55,-2529.3
2.20139e+08,63.3084,1,2.50345,-866.977,-12960.9,-25815.8
2.20216e+08,109.905,0,2.68512,-9507.59,-16385.9,-15529.3
2.20263e+08,105.696,0,2.54403,17827,-7915.6,-17807.5
2.20309e+08,29.6183,2,2.55806,-6046.27,-375.456,-26975.8
2.20312e+08,62.5671,2,2.50032,-9398.11,-1235.16,-19518.9
2.20733e+08,38.4521,2,2.8917,2882.46,-6606.66,-25054.5
2.20757e+08,83.9238,1,2.84003,6966.6,10741.5,-16620.7
2.20832e+08,34.1169,2,2.97379,775.947,-5838.22,-24669.2
2.21051e+08,41.7502,2,2.96754,3095.66,-4660.44,-22048.1
2.21181e+08,22.6424,0,2.97556,-2863.51,3533.28,-27523.1
2.21218e+08,61.0552,0,3.00213,10367.4,-7639.54,-28947.6
2.21542e+08,13.7579,2,3.02735,-2163.2,1906.72,-28758.2
2.21648e+08,7.82584,1,2.60925,823.281,683.478,-27565.7
0,7.58096,0,2.39558,0,0,0
2.21947e+08,123.268,2,2.55125,1016.56,-21683.5,-14294.9
2.22094e+08,122.036,0,2.69936,14044.7,19964.2,-20497.8
2.2236e+08,8.33703,1,2.54697,-1496.48,-970.66,-28949.5
0,8.36311,1,3.01662,0,0,0
2.22502e+08,37.2269,2,2.81733,-6908.24,-1502.72,-25303.5
2.22664e+08,48.7136,1,2.72457,-7934.68,4671.9,-24098.1
2.22798e+08,4.91012,1,3.02321,-907.267,-235.574,-28356.2
2.23013e+08,65.8076,0,2.91502,9549.23,-4345.09,-19725.7
2.23283e+08,113.368,2,2.65969,-5327.96,-650.852,-28423.4
2.23447e+08,33.308,2,2.78109,5753.41,-4013.9,-29213.4
2.23861e+08,78.7724,1,2.648,7683.41,12712.2,-21235.8
2.23907e+08,31.4616,1,2.81757,4514.44,-343.632,-24037.4
2.24119e+08,66.7664,0,2.77938,7472.79,137.378,-16860.4
2.2433e+08,18.4177,1,2.52907,-3754.23,-497.438,-27697
2.2449e+08,70.7798,0,2.94525,-11567.3,-909.347,-23879.6
2.24828e+08,203.536,0,2.78051,1966.85,-21415.8,-25962.3
2.24916e+08,131.125,1,2.92817,3484.08,26688.5,-22715.6
2.251e+08,35.4706,1,2.96482,-165.517,1021.16,-28380.9
2.25198e+08,17.2434,2,2.47674,-3350.68,586.264,-27374.2
2.25452e+08,22.1438,1,2.98246,-2208.72,2720.27,-25688.2
2.2547e+08,71.4482,0,2.5487,5132.18,-14242.5,-29326.7
2.25537e+08,100.672,2,2.70314,-14576,5085.1,-14233.6
2.26053e+08,20.3273,2,2.39087,2133.59,-1050.3,-25226.2
2.2619e+08,4.93486,1,2.94558,614.396,-161.758,-28071.8
2.26306e+08,73.8497,0,2.80264,7192.42,-4250.21,-15685
2.26818e+08,35.8828,0,2.77144,3462.29,-6576.24,-27251.2
2.2713e+08,69.4408,1,2.58539,-1169.7,14502.5,-26397.5
2.27188e+08,119.723,2,2.68602,18220.5,-17448.5,-27173.4
2.27654e+08,149.717,1,2.36467,-6499.37,18737.6,-4069.16
2.27658e+08,48.1644,1,2.82394,-3183.67,-6862.25,-22122.9
2.27759e+08,28.816,0,2.76104,3600.3,-4980.28,-28823.3
2.2803e+08,77.0179,0,2.43646,10517,10858,-22566.7
2.28141e+08,102.485,2,2.73471,-11439.7,-18424.6,-27996.3
2.28331e+08,156.824,2,2.85521,13480.3,6956.76,393.203
2.28338e+08,17.1268,2,2.9652,1706.03,429.665,-25747.5
2.28341e+08,25.3324,1,2.66269,-1250.18,-4535.54,-26400.7
2.28358e+08,86.4425,0,2.40601,15742.1,-763.343,-19412
2.28382e+08,125.504,1,2.97655,6594.8,9941.08,-25749.7
2.28595e+08,12.6814,0,3.05299,2261.69,726.11,-27492.1
2.29439e+08,94.9419,0,2.69001,-7821.59,-8811.41,-12692.8
2.29607e+08,69.6797,2,2.47097,-7253.9,10861.9,-22015.6
2.29812e+08,65.3918,1,2.84393,-10939.5,-2808.34,-20939.1
2.30146e+08,67.9969,0,3.0495,-5819.79,-11434.2,-22657.9
2.30533e+08,110.79,2,2.56047,-18414.9,3250.46,-22383.4
2.30876e+08,61.0757,1,3.0478,6450.13,-5159.84,-19096.9
2.30881e+08,82.1809,0,2.57246,-11937.2,3490.03,-16757.3
2.3114e+08,244.06,2,2.46307,22880.6,26415.7,9068.63
2.31547e+08,55.477,2,3.03479,746.873,-6107.82,-18925.3
2.31975e+08,137.191,0,2.4724,7251.39,28100.4,-29186.4
2.32233e+08,71.9309,1,2.76921,-14093.9,1017.07,-23226
2.3226e+08,21.0079,1,2.67677,-963.522,3742.63,-26483.8
2.32269e+08,8.34424,2,2.94329,-237.155,-1008.01,-27351.2
0,8.34137,2,2.57656,0,0,0
2.32466e+08,25.8742,0,2.44956,418.516,5498.96,-28628.4
2.3286e+08,66.7049,0,2.36688,13912.5,2759.63,-28256.4
2.33452e+08,135.52,1,2.39935,-12518.1,18654.9,-10898.7
2.34242e+08,176.946,0,2.88664,18954.7,-9149.92,-15363
2.35063e+08,88.4081,2,2.76381,-16144.6,1609.17,-19600.8
2.3528e+08,6.58466,2,2.70549,-259.396,-998.426,-27790.7
2.3558e+08,53.6086,1,2.39408,-1845.62,-6665.24,-19882.8
2.3595e+08,54.0201,1,2.88691,-7796.62,-5421.63,-22597
2.36149e+08,34.2628,2,2.71476,-4287.87,588.276,-23053
2.36175e+08,236.863,1,2.74628,16954.3,2945.45,857.48
2.36269e+08,13.3415,2,3.03289,279.72,-2845.05,-29349.4
2.36564e+08,35.3084,1,2.92434,6451.68,-1841.35,-25761.6
2.36671e+08,21.3447,0,2.92989,2687.51,156.417,-25175.9
2.36744e+08,57.8697,2,2.6132,-8864.58,-7406.24,-24589.7
2.36907e+08,4.38005,0,2.60659,578.095,-450.669,-28187.4
2.3696e+08,64.6795,2,2.55932,-5091.59,-9539.23,-20380.1
2.36962e+08,47.6002,0,2.78102,3552.62,-7950.06,-23774.1
2.36972e+08,94.9215,1,2.65965,13267.2,11395.1,-19050.6
2.37228e+08,89.3179,2,2.39818,-337.681,-18422.6,-24198.7
2.37459e+08,96.4425,2,2.38825,-3807.39,-18708.8,-21385.3
2.37499e+08,96.1504,1,2.44675,13524.5,-10335.6,-17810.3
2.37592e+08,142.913,2,3.04989,-4127.48,-11975.5,-1687.72
2.37628e+08,95.9323,2,2.5515,12445.3,6671.06,-14313.1
2.38029e+08,1.36403,0,2.56142,166.838,301.748,-28755.3
0,1.37603,0,2.88681,0,0,0
2.38072e+08,55.3062,0,2.95831,6442.26,2212.62,-19359.7
2.38184e+08,161.885,0,2.86281,18176.1,-24849.6,-14229.6
2.38194e+08,24.3637,0,2.87696,3903.05,3382.74,-28978.4
2.38427e+08,17.0588,2,2.74532,1326.13,-3342.06,-28195.9
2.38818e+08,113.867,2,2.43852,16022.2,-7259.02,-12365.2
2.39229e+08,58.3153,0,2.68305,6991.82,4780.77,-19835.6
2.39583e+08,272.622,1,2.98804,-21650,-12295.1,21402.3
2.39808e+08,19.5074,1,2.46571,-2234.16,3127.35,-27076
2.40004e+08,70.9608,1,2.75453,7462.99,6207.11,-17433.8
2.4064e+08,30.6552,1,2.99191,3578.39,5190.72,-28142.3
2.40709e+08,22.1622,1,2.84705,-2228.68,4081.69,-29834.2
2.41052e+08,32.7302,2,2.63762,2661.51,-4499.82,-24233.8
2.41481e+08,9.69932,2,2.64279,1197.66,-254.802,-27177.6
2.41535e+08,22.7902,1,2.7837,1056.83,4510.3,-27324.7
2.42213e+08,85.934,0,2.71718,10790.5,-10310.3,-18455.3
2.42704e+08,105.695,0,2.94197,-15453.1,10324.9,-16796.4
2.42748e+08,130.801,2,2.51432,25857.7,532.96,-22876
2.42749e+08,10.294,2,3.03389,-1217.8,-1250.08,-27452.2
0,10.2709,2,2.74378,0,0,0
2.42922e+08,269.793,0,2.57444,24643.4,-7424.42,22005.2
2.42928e+08,35.9768,1,2.65638,860.044,-3893.64,-22425
2.42944e+08,79.0791,0,2.50862,4960.11,11132.2,-18850.4
2.43037e+08,61.9507,0,2.70017,7373.82,-2271.57,-18234.5
2.4377e+08,70.4566,0,2.39216,5758.07,9337.51,-18667.1
2.43943e+08,176.522,1,2.83027,-26344.9,22131,-15569.5
2.44068e+08,47.3938,0,2.51603,7201.81,5901.46,-24947.7
2.44138e+08,65.3763,1,2.90777,-7513.9,-4314.02,-18167.4
2.44215e+08,98.2818,1,2.86241,18118.6,5559,-20600.3
2.44235e+08,106.441,0,2.69396,-1729.97,-21354.6,-22109.1
2.44272e+08,86.6269,1,2.4945,-7687.22,-14545.9,-20797.7
2.44323e+08,29.2846,2,2.4612,5810.29,-2106.71,-28406.9
2.44677e+08,227.806,2,2.63661,-9439.58,-23180.7,12235.9
2.44796e+08,9.95072,2,2.82215,579.808,848.211,-27049.3
0,9.99213,2,2.70462,0,0,0
2.44922e+08,110.215,2,2.7499,-17525.5,-13043.3,-20783
2.45561e+08,75.4992,0,2.38049,-11187,-1239.87,-17579.2
2.45913e+08,50.8142,2,3.03686,4883.4,-8728.25,-25008.2
2.46429e+08,32.4444,2,2.66728,-2317.66,1935.08,-22678.7
2.46469e+08,71.8971,1,2.97007,-324.904,-9906.55,-17548.1
2.46574e+08,36.8581,0,2.40118,5353.37,4672.27,-25502.6
2.46827e+08,74.5855,1,2.37836,5273.43,13399,-22205
2.469e+08,94.6896,0,2.95212,-6692.5,-16911.1,-20850
2.46956e+08,22.7201,1,2.94309,-3056.76,1151.15,-25271.1
2.46971e+08,62.7483,0,2.73891,7483.61,602.048,-17890.8
2.47262e+08,12.1123,1,2.55572,687.794,913.112,-26507.2
2.47333e+08,219.104,1,2.87051,4807.04,2647.4,-16520.4
2.47423e+08,27.6888,0,3.03777,5517.98,560.15,-26828.5
2.47573e+08,159.874,0,2.96508,-20161.7,24182.4,-17456
2.47801e+08,101.642,2,2.39057,14082.1,-2362.03,-12757.4
2.48019e+08,23.1449,1,2.45098,-3667.33,2618.66,-26708.9
2.48153e+08,184.872,1,2.62194,-26276.4,-10899,-2105.17
2.48294e+08,9.08972,2,2.98381,1068.22,-655.027,-27372.2
2.48331e+08,15.1462,0,3.04393,1481.71,537.669,-26044.8
2.48523e+08,39.2436,1,2.89707,2450.54,5384.33,-23047.1
2.48803e+08,60.912,2,2.71615,6546.03,758.919,-17820.2
2.48971e+08,137.549,0,3.02596,16141.7,-16769.8,-11826.7
2.49043e+08,16.831,0,2.49677,2758.26,-1370.35,-26894
2.4925e+08,115.679,0,2.6847,10210.3,9208.74,-8631.44
2.49266e+08,124.553,2,2.7868,-21687.2,-14869.8,-29177.5
2.49268e+08,414.458,2,2.4301,-12503,17718.8,9427.83
2.49309e+08,135.021,1,2.63404,-582.243,13899.3,-3919.18
2.49403e+08,57.5016,0,2.95186,-4424.98,8920.56,-22026.5
2.49421e+08,89.4961,2,2.58726,-7319.92,-5972.86,-12419
2.49754e+08,37.9021,1,2.83841,-3060.59,-4074.2,-22741.5
2.49854e+08,41.2206,1,2.56645,-3237.97,6595.57,-24037.2
2.49884e+08,98.0188,0,2.847,-12928.9,-5815.88,-13947.8
2.49896e+08,21.1827,1,2.76245,-1531.9,2548.67,-25406.2
2.49999e+08,104.444,0,2.67982,-3900.77,-9211.74,-9205.32
