#class tools::wcsv::ntuple
#title time
#separator 44
#vector_separator 59
#column double eventID
#column double t(ns)
#column double copynumber
#column double energy(eV)
#column double x(mm)
#column double y(mm)
#column double z(mm)
90247,51.257,2,2.64873,-3475.12,-5825.44,-21904.5
385358,112.04,2,2.91976,-8506.43,4491.01,-7360.18
402310,68.8678,0,2.9778,-8714.9,-9941.61,-23005.3
410804,206.35,1,2.94499,25745.6,-13864.9,3248.61
429350,84.9305,1,3.04317,-12209.1,-3500.86,-16378
487612,41.0134,1,2.39539,-1087.55,8833.68,-29224.6
500179,44.9013,0,2.42573,4268.05,-4324.1,-21495.6
549876,112.067,2,2.50773,-16997.9,9556.81,-15339.9
687786,133.41,2,2.6323,-9523.47,-12467.8,-5495.73
736682,178.907,0,2.77407,19736.4,3304.73,3128.45
741053,127.266,0,2.80605,14546.3,22556.4,-28856.8
814363,18.4609,1,2.86928,-777.44,3846.48,-28054.1
904147,136.295,2,2.43747,-16249.9,-6578.49,-6037.5
1.03321e+06,206.012,2,2.9485,-23243.9,26202.5,-3555.23
1.08597e+06,287.568,2,2.82369,27294.6,-26556.3,18082.5
1.10123e+06,295.264,0,3.06097,-23169.8,-2452.73,-29210.2
1.12323e+06,39.5692,1,2.47907,-3161.12,5880.51,-23789.4
1.16409e+06,53.5188,2,2.54606,-2944.18,-2334.39,-18159.2
1.26374e+06,19.7882,2,2.4098,2718.07,-320.648,-25649.3
1.3159e+06,30.6166,1,2.47254,-3842.88,5346.93,-29157.9
1.3424e+06,21.615,2,2.75709,-954.969,-3362.18,-25823.9
1.42588e+06,133.195,2,2.76796,-2525.07,25088,-17283.3
1.5493e+06,9.45385,2,2.97412,-1930.67,-194.098,-27988
1.55453e+06,68.4496,1,2.47695,7800.29,2775.93,-16962.5
1.56466e+06,148.553,0,2.5772,913.145,-13846,-10356.7
1.56498e+06,31.1913,1,2.86012,2792.85,2979.11,-23671.3
1.7598e+06,215.688,0,2.67585,3748.49,-21429.9,11007.4
1.85349e+06,89.0364,2,2.38424,-17547,7164.22,-28803.2
1.93724e+06,109.281,1,2.69681,9937.6,-20030.4,-23356.5
1.9628e+06,126.261,0,2.48955,9721.84,-10324.3,-6190.58
2.37392e+06,77.0329,1,2.74128,4538.27,15193.1,-27110.6
2.46767e+06,100.728,2,2.67136,20331.4,672.568,-22838.3
2.5615e+06,21.2405,2,2.41557,2081.15,-2649.98,-25871.4
2.71703e+06,29.7896,1,2.79286,-2364.72,3699.97,-24346.5
2.75363e+06,6.71802,1,2.81163,-1030.45,335.46,-29848.4
3.16063e+06,96.3662,2,2.98959,-8844.9,-12566,-27598.3
3.29402e+06,109.964,0,2.90028,3265.23,-4437.3,-6696.46
3.38429e+06,32.0514,1,2.57891,4909.57,4326.54,-26999.3
3.42472e+06,54.5909,2,2.67082,-11545.1,193.618,-28102.4
3.48973e+06,65.6078,2,2.89958,9360.66,6700.74,-21094.5
3.58308e+06,85.7222,2,2.89835,7713.68,16135.4,-26843.5
3.67208e+06,26.2629,1,2.48872,-415.294,-4483.01,-25603.2
3.68021e+06,6.1826,1,2.79104,-921.732,89.595,-29857.3
3.68289e+06,25.9544,1,2.49853,-4660.66,-742.499,-25949.4
3.78912e+06,75.58,0,2.63702,10340.6,1506.62,-16716.4
3.80437e+06,18.9536,2,2.48187,-3482.66,-2059.18,-27800.6
3.8051e+06,30.6595,1,2.71221,-5980.47,27.8324,-26190.5
3.83123e+06,55.5562,0,2.48897,-9974.59,3736.05,-25399.6
4.10922e+06,59.2251,1,2.91711,-8560.3,1738.13,-26323.4
4.11781e+06,152.423,0,2.78619,-22905.3,-10087,-8802.17
4.17795e+06,132.17,1,3.00812,-17662.5,3208,-7565.77
4.21122e+06,78.7389,0,2.84308,1034.16,8120.03,-14510.7
4.3054e+06,75.4827,0,2.56934,1312.58,-8566.95,-15429.8
4.66997e+06,58.4609,1,2.80611,-929.519,-249.68,-17655.7
4.85089e+06,62.8556,2,2.48761,-9287.11,-1295.43,-19555.7
5.01573e+06,23.6293,1,2.53529,1501.46,3107.04,-25132.5
5.11893e+06,22.2473,1,2.93486,-2184.23,4039.91,-27476.1
5.4063e+06,9.77339,1,2.8407,-789.827,733.056,-27025.8
5.41442e+06,172.858,1,2.49631,-8992.49,-13148.5,4085.43
5.5052e+06,81.1408,1,2.53559,7937.62,8857.5,-16453.9
5.55486e+06,120.206,2,2.64088,-7285.5,-17281.1,-11804.1
5.76993e+06,6.06311,0,2.57958,1404.63,-26.0154,-28652.4
5.94484e+06,32.4503,2,2.39435,-3694.53,-5911.76,-28804.4
6.1657e+06,32.1723,1,2.62239,366.515,3396.47,-24392.6
6.16884e+06,15.0985,1,2.36548,2614.97,-458.689,-27044.3
6.24634e+06,171.158,0,2.50829,-13250.9,-23660.5,-5320.26
6.43989e+06,165.06,0,2.68827,4669.34,942.124,-27789.1
6.459e+06,25.25,0,2.79595,4551.68,-1491.41,-26340.8
6.48585e+06,42.4112,0,2.53011,-2867.95,-1105.82,-20366.6
0,42.2934,0,2.39177,0,0,0
6.55848e+06,42.8442,2,2.51939,4702.87,-606.626,-20969.2
6.61737e+06,24.6322,0,2.5651,4194.73,1215.38,-25891
6.65949e+06,133.963,1,2.60843,26230.2,10582.2,-29820.1
6.70421e+06,32.0362,0,2.83085,6739.43,-1088.04,-27818.4
6.81113e+06,7.95489,2,2.55381,-530.9,898.852,-27666.7
6.91335e+06,150.39,2,2.70257,-8929.04,-28291.6,-17410
6.94894e+06,3.24042,1,2.65299,-156.505,323.695,-28269
7.10504e+06,11.584,0,2.99679,612.053,843.738,-26947.6
7.37251e+06,41.1311,1,2.63934,-4955.24,354.724,-21659.2
7.43941e+06,141.669,1,2.85354,1331.21,23778.9,-10775
7.50502e+06,9.12651,0,2.96037,-1269.29,424.591,-27515.4
7.50652e+06,101.68,2,2.40877,-19209.6,-9426.79,-27731.1
7.54148e+06,162.085,0,3.00689,-16071.2,-13842.3,-2472.45
7.5477e+06,10.333,2,2.98558,-1235.85,1529.29,-28379
7.64247e+06,15.0944,2,2.68402,-2149.17,1466.35,-27007.5
7.65795e+06,74.2953,0,2.95365,14933.1,3883.51,-26234
7.72888e+06,32.8953,2,2.77624,248.361,-4122.38,-23262.2
7.86152e+06,56.2807,1,2.9686,814.372,-8383.99,-20598.3
8.0043e+06,173.549,1,2.9587,-1720.92,24869.7,-2692.34
8.09155e+06,55.6668,1,2.42016,-6750.76,2301.42,-19903.8
8.17395e+06,33.1342,0,2.76961,2197.76,-4268.29,-23693.7
8.19469e+06,187.415,2,2.45402,-4434.34,-28463.3,-1666.55
8.31023e+06,42.1842,2,2.70992,-6639.89,-5285.94,-25804.1
8.41829e+06,117.592,1,2.3835,-21372.3,9842.86,-20480.3
8.48645e+06,40.3651,2,2.68477,6571.54,1334.35,-23643
8.60337e+06,8.49007,2,2.97657,-68.4718,-470.742,-26998.5
8.6357e+06,3.8861,0,2.95505,579.48,-244.28,-28174.6
0,4.32452,1,2.76184,0,0,0
8.72285e+06,69.2308,1,2.7098,-8899.65,6258.48,-19071.7
8.75805e+06,131.616,1,3.05608,-7975.15,-1857.87,-21960.9
8.78989e+06,72.8759,1,2.6692,2580.39,12838.7,-20572
8.97827e+06,12.5084,0,3.01895,942.804,1724.58,-27078.5
8.98993e+06,120.731,0,2.95276,-6867.09,-16515.3,-10926.1
8.99652e+06,124.218,0,2.78178,15714.1,15409.6,-14588.3
9.24186e+06,175.393,1,2.7893,-13775.1,-20238.8,-1346.21
9.29029e+06,272.262,0,2.85984,-6309.55,23492.1,22959.7
9.336e+06,20.0921,0,2.49816,1960.42,-84.6378,-24942.4
9.36363e+06,2.19095,2,2.47923,-243.078,97.2859,-28378.7
0,2.19618,2,2.91198,0,0,0
9.41064e+06,57.5445,0,2.70118,309.356,10315.3,-22358.8
9.4176e+06,37.4376,2,2.99967,5572.11,3666.13,-24801
9.47542e+06,18.0933,1,2.75363,1308.83,2552.51,-26828.9
9.47998e+06,97.6185,2,2.87183,-4686.35,-3248.15,-9106.48
9.57463e+06,28.9689,1,2.72578,-3985.16,-804.158,-24341.3
9.63003e+06,25.2644,2,2.39173,4858.71,1774.14,-27561.3
9.64961e+06,39.951,2,2.57053,3587.87,-1507.6,-21337.2
9.75085e+06,88,0,2.8508,181.399,-6935.4,-11682.9
9.77473e+06,87.9092,0,2.60897,15321,-8472.36,-22397
9.86267e+06,82.9662,1,3.00438,-6331.28,11546.4,-17324.8
9.94528e+06,12.8996,1,2.76259,-1984.4,-23.3987,-29273.3
1.00286e+07,94.6301,0,2.40281,1182.85,-15709.7,-16448.2
1.00547e+07,67.2283,2,2.67261,-2513.99,-12678.6,-22791.6
1.01299e+07,109.712,2,2.61388,22475.8,-1893.61,-24806.1
1.0162e+07,55.6523,1,2.87931,-2145.71,9599.3,-28604.9
1.03248e+07,25.1054,0,2.93093,-2996.44,4187.09,-29123.6
1.04122e+07,24.6475,0,2.56072,1470.35,572.277,-23901.9
1.04407e+07,2.04991,2,2.41016,-34.2418,-212.683,-28440.7
0,2.07877,2,2.86175,0,0,0
1.04727e+07,7.73068,2,2.61495,357.738,-802.287,-27219.5
1.06553e+07,9.04138,1,2.84684,-1838.95,165.512,-28610.1
0,8.73462,2,2.56859,0,0,0
1.06982e+07,3.74362,0,2.57582,557.675,-663.038,-28835.1
1.07323e+07,6.81605,1,2.92786,-115.097,654.279,-27512.8
1.0957e+07,7.62948,1,2.58315,-514.054,732.198,-27439.2
1.09645e+07,152.096,0,2.93306,5415.91,11128.2,-20.7973
1.09857e+07,8.48008,0,2.96778,814.289,-1017.25,-27503.4
1.11357e+07,31.6763,0,2.37805,1281.18,5284.62,-24754.9
1.12797e+07,108.052,2,2.95134,6756.16,13397,-11820.1
1.14262e+07,159.951,1,2.62008,-24037.4,11552.7,-8033.3
1.14615e+07,105.785,0,2.634,-8207.3,-8488.33,-10298.9
1.17093e+07,18.9464,0,2.74112,3565.64,1943.6,-29351
1.17468e+07,64.7565,2,2.63357,7117.94,7672.98,-19908.1
1.17527e+07,54.8024,1,2.71914,3032.95,6622.71,-19826.9
1.17534e+07,185.075,1,2.55141,-2124.48,17358.3,5921.32
1.20315e+07,38.0257,1,2.69865,-4842.69,-2453.02,-22816.2
1.20611e+07,1.68592,0,2.37201,103.615,222.288,-28530.5
0,2.10488,2,2.63458,0,0,0
0,1.69424,0,2.54642,0,0,0
1.21148e+07,159.172,2,2.68825,-11335.3,17448.5,-2548.33
1.21231e+07,152.623,2,2.99167,-11087.6,6962.77,364.29
1.22469e+07,30.9045,0,2.93608,2283.38,-5771.24,-26693.2
1.24665e+07,32.4491,1,2.97067,838.701,-6565.19,-27925.7
1.25133e+07,29.4213,2,2.42329,-2708.76,3915.91,-24981.1
1.25425e+07,11.1182,1,3.0525,-1246.51,1103.66,-27306.7
1.26013e+07,67.2906,0,2.44152,-5298.1,4732.59,-16532.5
1.26659e+07,26.3564,0,2.61344,-3339.74,-91.0118,-24489.4
1.26954e+07,55.6908,1,2.61091,-9475.66,-533.369,-21881.4
1.27425e+07,56.46,2,2.66062,-2716.9,-10838.5,-25125.8
1.27493e+07,21.8123,2,2.62038,-242.454,-1585.78,-24498.8
1.28419e+07,156.201,0,2.94023,11822.7,5503.58,1238.85
1.28729e+07,45.3987,0,2.66142,7958.82,-2574.6,-24168.8
1.28977e+07,40.2475,2,2.90388,7640.55,2611.7,-26878
1.29691e+07,180.879,0,2.8305,26580.1,-19688.6,-10074.1
1.29787e+07,129.272,0,2.38802,12546.5,-3716.19,-4846
1.3041e+07,129.937,0,2.38706,22036.5,4763.6,-13720.9
1.31119e+07,183.794,2,2.87595,10506.7,-17896.6,-26617.8
1.31128e+07,24.0717,0,2.81338,3093.87,-1094.66,-24918.7
0,24.003,0,2.90466,0,0,0
1.31132e+07,81.878,0,2.65398,11.7306,8816.71,-16483.4
1.31676e+07,59.0194,0,2.84899,-7836.22,-6427.08,-21839.4
1.36695e+07,27.3049,2,2.65583,-2398.84,-4841.56,-26788.8
1.37795e+07,55.8348,1,2.92505,-6627.17,8901.04,-24876.9
1.37984e+07,70.4605,2,2.81628,-13260.8,3893.16,-23503.3
1.38682e+07,59.5164,0,2.41739,6665.32,1726.61,-18166.4
1.38703e+07,45.1121,0,2.68352,6948.69,2247.53,-22628.4
1.39436e+07,96.3466,2,2.81926,18988.3,-3316.99,-22054.6
1.39765e+07,28.7548,1,2.38289,1072.88,-2386.17,-23341.4
1.4038e+07,48.4032,1,3.05271,-191.042,-7389.25,-22003.5
1.43333e+07,135.009,0,2.76035,-10788.4,-24597.6,-19801.5
1.4436e+07,100.662,1,2.60619,-2579.96,-10467.4,-10465.5
1.45428e+07,78.589,0,2.94666,11561.3,-7031.07,-19423.1
1.4548e+07,129.43,0,3.0476,-9785.81,8729.22,-12417
1.45714e+07,30.5388,1,2.55723,4216.91,-2632.17,-24739.5
1.50909e+07,11.4681,2,2.99071,1203.17,-1750.72,-27654
1.51024e+07,9.55083,0,2.51233,1589.54,918.149,-27840.8
1.53244e+07,33.092,0,2.84884,-2574.99,-5277.97,-25138.8
1.5325e+07,73.5372,2,2.89972,-14761.9,2743.63,-25064.4
1.53612e+07,101.622,1,2.7853,-18726.7,-1015.59,-19162
1.5422e+07,42.4061,1,2.79379,-7941.82,1809.99,-25222.5
1.545e+07,82.9044,0,2.88757,3375.86,-15743.6,-21836.1
1.56459e+07,76.7875,1,2.7918,-13188.4,-5129.42,-20964.2
1.56461e+07,29.0038,1,2.92768,3663.78,-1381.87,-24186.8
1.5754e+07,137.503,2,2.55527,-17022.7,-15621.8,-11068.1
1.57563e+07,109.513,1,2.74315,3003.37,-10489.6,-8536.01
1.58598e+07,52.7652,0,2.64043,1856.08,4750.97,-18951.8
1.59031e+07,146.028,1,2.56721,11034.1,-9254.94,-1646.33
1.59314e+07,77.0061,1,2.92645,-5368.42,792.034,-13595.2
1.59347e+07,4.34991,1,2.65039,99.4827,912.596,-29300.6
1.59721e+07,7.93618,0,2.41217,1232.63,-1020.58,-28159.2
1.60276e+07,199.845,1,2.86262,-1521.25,-1072.5,-27708.6
1.60724e+07,132.258,0,2.67608,-13753,-19620.2,-14651
1.6267e+07,36.4155,0,2.81995,-4699.36,-3573.32,-24003.8
0,36.5164,0,2.96469,0,0,0
1.63427e+07,18.0349,2,2.87928,-862.438,3408.15,-27521.7
1.64565e+07,118.829,2,2.76421,-11666.5,9336.48,-14254.7
1.68237e+07,88.0159,0,3.02643,-8032.21,-4820.05,-26180.9
1.69991e+07,48.6278,1,2.59365,9458.5,1837.6,-25297.7
1.70575e+07,52.5588,1,2.68922,5099.06,-5088.99,-20549.5
1.71032e+07,7.27291,1,2.73238,379.591,1456.15,-28349.8
1.71359e+07,46.8513,1,2.51212,-4169.67,8223.02,-24804.6
1.7145e+07,43.8837,1,2.81726,2576.78,-193.693,-25090.6
1.73135e+07,65.7957,0,2.70676,-7326.49,6706.6,-19329.5
1.73811e+07,6.0434,2,2.8551,-517.616,-679.598,-27803.5
1.75845e+07,38.2202,2,2.69092,-5422.17,-3217.66,-23785.1
1.78699e+07,50.7998,1,2.49103,-6168.39,7330.68,-23816.5
1.78885e+07,78.1807,2,2.88896,-353.454,82.4699,-29109.4
1.80182e+07,13.0195,2,2.40486,1200.27,-2292,-29926.3
1.80833e+07,34.4857,2,2.6505,395.285,-7328.7,-29526.2
1.82688e+07,93.4197,2,2.6269,6400.88,-17064.2,-21467
1.82881e+07,163.135,1,2.46859,-20539.5,20270.7,-9790.96
1.84903e+07,110.439,1,2.39211,-18559.4,9745.38,-19867.3
1.85294e+07,44.2888,2,2.867,-6379.52,3712.32,-23121
1.86746e+07,77.1904,2,2.8679,5899.36,-6547.36,-15175.8
1.87186e+07,113.496,1,2.57606,-965.591,20458.5,-16216.1
1.88168e+07,72.1831,1,2.64399,-12362.6,6342.19,-22598.9
1.89436e+07,14.1669,1,2.97074,895.555,2917.9,-28989.3
1.90212e+07,192.252,2,2.94621,-11374.7,6917.39,9226
1.93346e+07,5.83057,1,3.03405,470.201,1197.35,-29114.1
1.97342e+07,5.10463,2,2.95221,496.577,-1063.07,-28925.8
1.99701e+07,44.3086,1,2.94757,-3019.01,-2695.4,-20475.7
2.00566e+07,96.8633,1,2.36248,9205.71,-13250.3,-21603.8
2.0061e+07,30.1089,1,2.85964,4942.73,3970.9,-28698.3
2.00799e+07,159.593,1,2.68507,2513.78,22272.9,-10034.4
2.00955e+07,75.7871,2,2.9461,188.566,-13872.8,-21309.1
2.01605e+07,81.9653,2,2.36479,-3705.4,-12444,-17365.7
2.01976e+07,10.3561,1,2.95552,1079.55,-361.504,-27043.7
2.02138e+07,84.4131,0,2.85474,2631.87,-2657.58,-25368.3
2.04192e+07,102.326,2,2.69552,-9949.36,-6826.81,-10904
2.05532e+07,49.4053,2,2.78725,-4986.88,-6143.22,-22123.9
2.05706e+07,126.955,1,2.64326,-22999.8,13820.1,-27208.8
2.05937e+07,3.68279,2,2.70625,-525.491,-524.845,-28398.7
2.06781e+07,35.5614,1,2.66429,2055.35,7264.1,-29961.2
2.07318e+07,105.934,2,2.88679,4735.13,17330.6,-15765.3
2.07759e+07,282.909,1,2.84985,28667.9,-13488.1,21458.3
2.09093e+07,15.7302,2,2.48533,348.688,-2779.42,-26911.4
2.09164e+07,21.0605,2,2.77201,-4139.29,-1744.17,-28428.9
0,20.8711,2,2.6303,0,0,0
0,20.8367,2,2.3823,0,0,0
2.09245e+07,135.349,1,2.95831,-15860.4,12648.7,-9108.12
2.09429e+07,120.289,2,2.5845,17438.5,-17383.2,-22384
2.09932e+07,140.116,1,2.76762,-11086,27083.2,-25630.4
2.10216e+07,101.116,2,2.43187,-7545.25,-10868.5,-11882.1
2.10217e+07,71.7665,0,2.53642,-783.961,-9099.84,-16745.2
2.11312e+07,1.18694,2,2.36462,-197.958,-155.024,-28607.5
0,1.23223,2,2.47094,0,0,0
0,1.66223,1,2.9871,0,0,0
0,1.18965,2,2.92702,0,0,0
2.12607e+07,70.8377,0,2.83655,-5415.78,-8481.82,-17902.6
2.13263e+07,11.0644,1,2.55749,1755.73,1425.16,-29116.5
2.13582e+07,153.137,0,2.61255,-24251.1,6491.61,-8785.71
2.13976e+07,65.701,2,2.63369,-6454.38,-7762.53,-19207.7
2.14017e+07,42.2,0,2.76272,-3993.56,-7536.1,-27026.5
2.14656e+07,136.765,2,2.75528,-15069.1,-15553.3,-9821.3
2.14815e+07,171.664,2,2.73557,14444.2,29296.1,-13511.2
2.14978e+07,69.4149,2,2.54178,3442.37,-7752.32,-26507.3
2.163e+07,56.1411,1,2.75307,-1623.08,7476.2,-22546.4
2.18846e+07,67.2517,2,2.48108,2450.6,11541.2,-20953
2.19144e+07,67.2595,0,2.69169,-9715.28,3223.79,-19301
2.19388e+07,4.23749,1,2.86212,-909.944,562.32,-28677.7
0,4.22589,1,2.55887,0,0,0
2.20287e+07,213.602,1,2.70668,-11098.4,11813.9,-2109.63
2.20344e+07,164.731,1,2.54326,4265.77,13288.1,3065.51
2.20927e+07,207.038,1,2.476,-5688.69,14593.7,12048.5
2.21141e+07,118.014,2,2.59154,3064.17,-21511.9,-16624.5
2.21702e+07,147.866,1,2.56441,27972.2,-463.999,-14954.8
2.22156e+07,34.6244,2,2.86953,-5065.69,-996.258,-23686.9
2.22384e+07,15.7078,1,2.55256,-441.142,-2560.01,-26842.6
2.23665e+07,136.135,1,2.50823,25090,-10047.1,-18837.4
2.23904e+07,62.4835,1,2.72507,1131.48,9751.55,-20415.4
2.24895e+07,14.2606,0,2.54558,2078.1,-738.877,-26737.7
2.252e+07,68.0383,0,2.67873,740.414,6956.34,-16373.6
2.26728e+07,99.4213,0,2.93619,147.826,-18436.2,-19396.1
2.26967e+07,20.2425,0,2.90856,1381.99,3942.54,-29128.7
2.28342e+07,87.5685,1,2.49705,9764.48,13295.9,-20618.7
2.28485e+07,132.385,0,2.56116,10694.8,24403.8,-20143.4
2.29258e+07,53.3948,0,2.72881,3985.87,-10681.1,-28091
2.30145e+07,41.3568,1,2.48616,45.5769,8812.72,-27904
2.32091e+07,244.278,2,2.70983,-21745.6,6395.53,-19238.1
2.32647e+07,211.702,1,2.643,-1482.3,-25554.8,-3963.19
2.33501e+07,161.314,1,2.73527,16614.6,13140.2,-2235.69
2.35319e+07,22.0778,2,2.78531,-1142.44,2068.15,-24823.9
2.36077e+07,30.8132,0,2.49826,2421.06,4723.84,-24989.5
2.3765e+07,4.01323,0,2.92922,-426.276,-509.545,-28381.2
2.37851e+07,132.846,0,2.72427,15969.9,-12976,-10981.1
2.37887e+07,45.9814,0,2.77453,3132.07,4398.37,-20907.6
2.40869e+07,105.874,1,2.78589,-3190.78,11789.8,-12450.7
2.41058e+07,12.1012,1,2.39,2363.73,-445.856,-27771.6
2.44947e+07,66.7955,2,2.75006,-11152,6891.05,-23741.2
2.45867e+07,21.8786,1,3.02302,1222.05,3020.75,-25556.4
2.45942e+07,146.849,1,3.03054,8896.66,16022.8,-4112.51
2.46869e+07,171.033,0,2.56904,-58.0377,15279.9,3930.71
2.47321e+07,9.30233,1,2.99308,37.0656,-887.52,-27161.2
0,8.80095,2,2.89554,0,0,0
0,8.85249,2,2.9112,0,0,0
2.51623e+07,137.699,1,2.62303,-7503.53,-9783.22,-2525.8
2.51976e+07,20.907,2,2.83289,-4070.54,17.1673,-26980.3
2.52753e+07,76.9503,0,3.04166,4384.72,-3575.21,-16936
2.5334e+07,38.0234,2,2.7078,4757.02,-1730.02,-22584.2
2.5371e+07,21.4424,2,2.60934,-2875.48,618.937,-25183.3
2.55246e+07,126.718,2,2.78873,4143.1,14990.3,-7200.54
2.5901e+07,124.227,0,2.38048,7114.45,12106.4,-6902.75
2.5912e+07,92.9856,0,2.84327,19392.8,-3203.87,-29343.7
2.59834e+07,73.423,2,3.00352,-7249.43,-9812.4,-19366
2.61939e+07,78.409,0,2.54803,2488.34,-3082.64,-12780.3
2.63922e+07,11.0283,2,2.64405,-694.261,1838.7,-27603.5
2.64906e+07,42.0489,0,2.7687,857.909,2981.11,-20451.3
2.6566e+07,25.5413,1,3.01249,-5149.62,1598.96,-28990.1
2.66197e+07,13.8078,0,2.98848,878.75,-2613.73,-28960
2.67034e+07,101.536,0,2.65393,-11713.8,-6385.07,-12107.3
2.67075e+07,86.7678,1,2.7696,-844.604,7761.67,-12269.6
2.68558e+07,65.376,0,2.56041,11174.3,6909.48,-24216.8
2.6957e+07,2.59635,1,2.92196,158.809,-258.214,-28403.2
2.69585e+07,78.5691,1,2.54722,-15345.9,5258.23,-25007.7
2.69836e+07,5.16904,0,3.03999,793.127,481.834,-28119.2
2.70117e+07,110.311,0,2.64954,18732.2,-12820.5,-23380.4
2.70421e+07,29.9841,0,2.79767,5313.7,1086.84,-25392
2.71176e+07,4.97175,2,2.80218,-156.838,939.994,-28479.6
2.72349e+07,46.8694,0,2.57707,7187.52,-919.535,-21968.8
2.72434e+07,97.4746,0,2.53997,-8513.23,4516.97,-10680.2
2.73273e+07,80.2048,1,2.37463,1432.27,17014.3,-28540
2.73676e+07,44.1318,2,3.00626,-2678.43,-8927.88,-29466.7
2.74472e+07,122.91,2,2.80862,-8263.98,-64.305,-4736.47
2.74635e+07,15.0727,1,3.00892,800.042,-1756.67,-26355.4
2.74972e+07,82.4107,0,2.65529,-10817.2,2685.34,-15727.8
2.77593e+07,9.88567,2,3.03506,1740.05,-737.414,-28066.3
2.78476e+07,27.1261,1,2.71642,4286.73,434.238,-24976.2
2.7867e+07,116.969,0,2.51198,2645.83,18576.3,-15688.8
2.7921e+07,92.7946,1,2.72618,7918.12,14599.8,-20600
2.79527e+07,83.6619,0,2.91181,5072.71,195.356,-14782.2
2.79902e+07,47.7996,1,2.84949,664.932,500.797,-29599.4
2.79906e+07,176.617,0,2.89091,-4172.2,-17011.1,3597.05
2.80359e+07,146.587,0,2.43202,25154.4,-7911.11,-12386.2
2.82577e+07,7.3632,2,2.90898,-1164.24,-896.173,-28082.6
2.82625e+07,82.2768,2,2.53696,13056.3,7534.29,-20237.4
2.82662e+07,14.9304,1,2.72204,671.013,-1705.34,-26424.8
2.829e+07,9.92899,1,2.61494,1842.74,572.377,-27950.4
2.83058e+07,21.4165,1,2.43441,296.18,4545.03,-29578.7
2.85051e+07,11.9483,0,2.76587,1540.29,2180.34,-29080.4
2.85463e+07,144.457,1,2.85792,-22864.2,-9664.83,-15660.7
2.86438e+07,225.596,2,2.99771,-9036.14,-29106.3,7376.73
2.87347e+07,66.9914,1,2.88629,8561.59,4197.95,-18426.3
2.87531e+07,82.9002,0,2.5263,4079.95,5067.35,-12538.4
2.87905e+07,12.5033,0,3.03155,1214.04,1322.24,-26765.9
2.88401e+07,7.64343,0,2.96107,1523.96,657.098,-28357.4
2.88907e+07,205.68,2,2.95705,-10351,-15742.1,10004.7
2.90653e+07,38.047,1,2.8648,-4492.7,6762.39,-29247.9
2.91495e+07,69.7299,0,2.8176,8233.95,6956.14,-18815.2
2.92421e+07,74.0528,1,2.59895,-14941.2,4329.68,-26591.3
2.92672e+07,122.178,2,2.82992,3498.87,-10955,-5895.2
2.93295e+07,97.1441,1,2.72399,4985.39,19746.9,-26427.9
2.93937e+07,86.0651,0,2.83269,8369.55,4457.54,-24910.6
2.94513e+07,120.125,0,2.69248,-250.433,110.46,-28568.9
2.95173e+07,106.24,1,2.51112,15298.9,12339.3,-29965.4
2.95829e+07,15.6308,2,2.39393,2038.81,1.73196,-26318.2
2.96242e+07,19.0832,2,2.56343,-855.332,1527.55,-25402.5
2.96307e+07,46.1309,1,2.37484,7656.9,2982.72,-23572.3
2.96317e+07,17.7929,0,2.53126,3603.69,248.392,-27427.3
2.97003e+07,80.835,0,2.6115,305.777,-16206.1,-23457.3
2.97317e+07,14.7301,0,2.74548,-2087.77,1832.05,-27538.1
2.97403e+07,260.037,0,2.66449,-9903.32,-11415.2,-28295.9
2.97795e+07,123.392,0,2.72758,-20808.9,-3777.45,-13938.9
2.986e+07,56.8729,0,2.72023,-1689.44,6662.99,-19005
