#class tools::wcsv::ntuple
#title time
#separator 44
#vector_separator 59
#column double eventID
#column double t(ns)
#column double copynumber
#column double energy(eV)
#column double x(mm)
#column double y(mm)
#column double z(mm)
130672,49.8322,1,2.79851,-2026.13,7341.35,-21515.3
259819,6.70097,2,2.73587,-462.054,-448.187,-27538.7
346077,401.723,1,2.85107,6847.55,-2177.32,-10042.1
556370,65.9603,1,2.63204,9576.84,10155.6,-28188.6
614853,27.9012,0,2.69598,-595.778,5767.56,-29941.6
616628,135.426,2,2.95498,-21724.7,-18410.4,-27344.7
698513,36.5437,0,2.41496,-1316.04,-5504.18,-23552.8
784544,60.7226,1,2.80069,1713.68,11570.7,-23527
933436,31.3081,0,2.91504,-2000.27,1975.33,-22905.4
1.29107e+06,64.2926,2,2.42263,-9790.2,6655.37,-22091
1.40606e+06,98.3526,1,2.36833,-4741.42,10780,-11601.7
1.59276e+06,133.444,2,3.05866,6893.27,-5503.53,-9672.31
1.73333e+06,50.0193,1,3.05149,1908.08,4679.66,-19609.8
1.78511e+06,247.848,0,2.80961,8946.57,23504.7,16816
1.97208e+06,13.8497,0,2.88038,368.732,1489.13,-26369.2
2.04168e+06,9.83094,2,2.52759,2038.85,203.212,-29075.4
2.06274e+06,149.181,0,2.90859,20573.8,23494.2,-25550.3
2.38078e+06,25.947,2,2.81768,2554.11,1859.73,-24405.4
2.43117e+06,147.758,2,2.37777,3318.72,-17870.3,-3335.62
2.56189e+06,33.2528,0,2.78962,1908.4,-6500.74,-26907.7
2.64124e+06,114.735,0,2.78379,11664,16929.1,-16067.2
2.7963e+06,126.945,1,2.86137,-24918.9,-8319.6,-23922.6
3.13853e+06,80.727,2,2.47603,-16631.1,-4147.28,-28481.7
3.22462e+06,56.7962,2,2.47555,4875.51,-1914.28,-18023.1
3.32013e+06,66.2691,2,2.6441,-9225.93,5561.34,-19988.1
3.33476e+06,39.6257,0,2.39184,85.5765,4273.43,-21601.7
3.54262e+06,21.2797,0,2.94636,2722.04,370.981,-25225.5
3.93084e+06,18.7301,2,2.54188,1743.54,-182.316,-25282
0,18.6198,0,2.87977,0,0,0
4.56705e+06,98.6675,1,2.60628,14668.2,12871.9,-21426.2
4.70073e+06,47.1142,1,2.89896,-169.567,7913.01,-22817.1
5.55306e+06,75.6416,1,2.59162,-1926.33,-14398.7,-22277.3
5.73192e+06,28.2435,1,2.78914,3703.2,378.842,-24207.3
5.95629e+06,197.049,1,2.57007,-18201.8,8642.85,-15725.6
6.53007e+06,7.33154,0,2.89432,661.696,-405.877,-27463.8
6.60299e+06,153.841,1,2.74106,-6066.52,23916.1,-7726.2
6.65012e+06,3.43113,1,2.55215,431.728,324.535,-28295.3
6.71221e+06,28.4614,2,2.69731,1968.53,2762.69,-23904.7
6.81652e+06,35.6302,2,2.83502,-1220.23,6056.98,-25142.1
6.8988e+06,72.4757,0,3.04221,13125.6,1014.38,-21107.8
6.93626e+06,46.652,2,2.66311,-9793.16,-839.881,-29913.6
6.96578e+06,0.607192,1,2.92418,-162.199,28.9888,-28781.4
7.01848e+06,79.247,0,2.79022,-2767.05,12358.2,-17976.6
7.33098e+06,23.6,0,2.94417,4626.51,-1917.19,-28098.3
7.43956e+06,148.348,1,2.38458,-14824.4,-25936.4,-19290.8
7.44866e+06,46.2982,2,2.79811,7329.92,-5204.66,-24991.4
7.56813e+06,174.797,0,2.56238,29615.8,11518.5,-12820.3
7.75346e+06,43.925,0,2.38415,8631.02,-3489.71,-27653
7.75465e+06,57.8412,2,2.68854,-2141.62,5444.57,-18152.1
7.83889e+06,27.5756,2,2.70868,-4208.73,-4074.32,-27941.5
7.8509e+06,73.3768,1,2.85179,-8751.3,-5913.09,-28386.5
8.23253e+06,47.159,0,2.68561,7025.19,-7152.66,-29083.7
8.54004e+06,216.03,0,2.69761,27081.1,-25511.6,-2472.88
8.67881e+06,21.6462,1,2.93979,1519.76,3676.49,-26503.5
9.07783e+06,98.1075,0,2.4954,7856.15,-1436.64,-9660.36
9.21052e+06,91.4103,1,2.74251,30.5665,8660.84,-11617.2
9.36865e+06,173.581,0,2.55227,-27811.3,-22959,-22487.9
9.55954e+06,1.32706,0,2.75115,360.087,52.6845,-28981.4
9.90691e+06,97.8702,0,2.66799,-10595,-237.237,-11169.3
1.02975e+07,24.2108,0,2.88559,-1350.41,4855.06,-28047.4
1.03614e+07,11.5647,1,2.37075,440.006,1074.9,-26625.9
1.03985e+07,19.7716,1,3.00656,-1629.55,2673.51,-25996.5
1.08073e+07,132.64,0,2.92546,3449.5,23095,-13903.3
1.0946e+07,19.6107,2,2.64541,-238.478,1715.09,-25084.6
1.10303e+07,30.0656,2,2.88884,-3276.93,3512.41,-24707.5
1.11242e+07,101.284,2,2.94105,1118.07,-14655,-13428.6
1.19232e+07,44.2144,2,2.48269,5940.33,-3888.67,-22749.3
0,44.1631,2,2.39211,0,0,0
1.25222e+07,110.077,0,2.94817,-18793.3,-10822.9,-29930.1
1.25857e+07,21.2482,0,3.05007,-2402.15,-3357.16,-29268.7
1.26991e+07,103.476,1,2.55967,-1198.37,17343.6,-15439.6
1.28485e+07,98.1167,2,2.59071,19.3449,-19369.1,-21247.1
1.29099e+07,6.30005,2,2.92406,-719.975,184.046,-27706.1
1.30202e+07,43.5436,0,2.87724,-5227.77,4872.7,-23192.5
1.31012e+07,17.3547,1,2.94685,2473.75,2197.54,-27252.6
1.32069e+07,160.755,0,3.05115,-15760.1,24730.4,-14235.9
1.36372e+07,14.6162,2,2.92982,2914.98,286.894,-27997.9
1.37731e+07,47.7099,2,2.85088,4882.44,-8748.22,-28434.3
1.40362e+07,37.431,2,2.81454,-5007.03,3296.97,-23693.6
1.42563e+07,53.3708,2,2.92414,4677.5,-6959.41,-21324
1.43112e+07,13.3027,2,2.3642,1084.31,-949.325,-26407.5
1.43386e+07,215.984,0,3.036,-9988.82,-29678.2,-27226.8
1.46052e+07,42.9337,0,2.87918,1045.91,5014.78,-21375.2
1.46692e+07,5.08005,2,2.64999,585.076,-822.183,-28316.6
1.48238e+07,56.4621,2,2.95156,5402.55,-3485.9,-18890.4
1.48312e+07,49.5989,1,2.92094,-3340.68,9909.02,-29786
1.49126e+07,96.5797,2,2.9478,-1537.35,-10226.2,-27776.6
1.53532e+07,21.9085,0,2.94904,2624.77,-914.675,-25086.5
1.58216e+07,144.03,1,2.5334,-1979.38,-971.519,-29758.7
1.59324e+07,185.203,2,2.58345,8173.84,1216.88,-27665.1
1.59974e+07,264.569,2,2.93478,28308.7,-28716.9,6430.11
1.61872e+07,51.1929,1,2.46604,-387.389,7369.07,-20824
1.64352e+07,151.872,2,2.85388,-1514.48,19456.1,-3612.5
1.67708e+07,127.651,2,2.74543,-11008.9,-4010.08,-4612.82
1.71331e+07,131.394,0,2.74853,1266.77,12870.4,-27557.4
1.72817e+07,10.6984,1,2.56101,1628.84,704.972,-27400.2
1.73433e+07,102.786,0,2.93125,8431.78,-432.345,-8941.61
1.75052e+07,27.0567,1,2.87901,-5037.97,1534.16,-26471.5
0,26.9181,1,2.43379,0,0,0
1.76366e+07,67.8458,2,2.99657,-10485.5,6004.19,-21276.2
1.78634e+07,14.0641,2,2.56828,1250.23,-1193.52,-26383.4
1.79014e+07,79.975,1,2.85844,2365.45,6809.27,-13620.3
1.80173e+07,11.4349,2,2.56188,2372.69,-390.971,-28563.7
1.81925e+07,34.2175,1,2.55064,-223.01,-6922.72,-26937.4
1.85978e+07,108.218,2,2.97899,-16188.3,-9123.74,-15677.6
1.86038e+07,138.638,2,2.37988,6640.79,-21517.6,-9941.3
1.87255e+07,57.6229,2,2.66367,-10560.9,4638.67,-24865.3
1.89064e+07,27.4196,0,2.54724,-1040.02,-2592.95,-23773
1.89758e+07,17.2583,2,2.56339,-3111.34,-54.907,-26821.9
1.90632e+07,74.9109,2,2.60616,-2462.26,-6454.37,-14604
1.91086e+07,27.0786,2,2.79818,3117.36,-4535.88,-27160.5
1.92619e+07,83.7745,1,2.5412,-11947.2,-1334.58,-15815.4
1.95717e+07,85.5276,2,2.55342,-13982.9,-2827.92,-17633.3
1.99015e+07,3.8548,0,2.75994,348.741,-517.224,-28227.4
1.99976e+07,98.8113,1,2.69561,-12752.7,-11359,-16927.2
2.00642e+07,10.845,0,2.44613,133.935,-1836.29,-27444.6
0,10.6572,2,2.69302,0,0,0
2.00873e+07,35.4987,1,3.05721,6664.45,2492.58,-26631
2.01236e+07,85.3778,0,3.0563,11738.2,13505.3,-27341
2.01798e+07,94.8292,0,2.79827,14284.9,9996.45,-18978.7
2.03152e+07,56.8238,2,3.02712,4867.52,6236.23,-19981.3
2.06756e+07,29.7286,2,2.99909,-3526.61,-695.616,-23681.4
2.11163e+07,68.5265,2,2.74728,-13511.5,-5260.68,-28888
2.11165e+07,142.137,1,2.57066,-15583.4,12008.1,-6061.84
2.1302e+07,79.426,1,2.91034,-15422.6,6493.71,-27794.7
2.14876e+07,43.1798,2,2.9831,-1747.77,7899.6,-24868.7
2.15453e+07,29.3807,0,3.05876,1918.08,-5908.87,-28527.2
2.17473e+07,64.9747,1,2.498,-5843.78,5848.84,-17820.6
2.17928e+07,69.6662,1,2.58961,-4707.2,13852.1,-26587.8
2.20101e+07,41.035,0,2.44258,-3953.37,5021.44,-23049.1
2.22396e+07,9.8614,0,3.00836,564.544,-1375.06,-27373.7
2.25238e+07,15.5228,2,2.69758,-2493.34,1349.2,-27166.5
2.26826e+07,5.16963,1,2.39378,-212.872,-788.76,-28120.2
2.27718e+07,93.7921,2,2.90845,-12992,8569.51,-16730.3
2.30622e+07,196.082,0,2.9773,8467.44,21008,5503.82
2.30723e+07,24.6976,1,2.76668,-5025.73,1206,-27942.6
2.42073e+07,5.12803,2,2.76211,-216.03,252.099,-27804.6
2.46943e+07,79.4131,0,2.70663,-9211.33,7180.69,-16928.8
2.47737e+07,8.01002,0,2.81857,808.705,-1075.24,-27729.2
2.48406e+07,5.58917,0,2.89483,1177.88,-344.739,-29147.1
2.49855e+07,109.507,2,2.64454,-18630.9,3112.87,-15477.4
2.52497e+07,51.4276,2,2.76925,2703.55,-10309.6,-26633.4
2.5395e+07,15.2629,1,2.49032,563.836,3181.17,-28126
2.59418e+07,103.381,1,2.41317,-7353.54,12619.9,-12468.7
2.60213e+07,34.5064,0,2.56474,7363.77,-25.7826,-28133.9
2.60603e+07,73.6421,1,2.98639,4000.23,7427.03,-15868.7
2.62804e+07,123.018,1,2.63851,9992.16,12031,-8084.02
2.65669e+07,130.839,2,2.52127,2331.07,6949.05,-23505.3
2.68542e+07,140.66,0,2.70451,23959,-17598.2,-28585
2.69613e+07,54.4526,1,2.3762,-8899.64,-7308.16,-29697.3
2.72877e+07,24.2973,2,2.6462,-4462.94,-431.859,-26230.1
2.73442e+07,8.24233,0,3.00035,565.449,800.409,-27372.8
2.80051e+07,33.4695,0,3.01906,-6128.38,-1740.19,-26010.7
2.82881e+07,66.1913,1,2.99731,9548.57,7093.56,-21724.7
2.8471e+07,104.533,0,2.50231,12449.8,-4763.8,-11126.9
2.87954e+07,77.2113,2,2.80634,-6534.14,-8534.76,-16560.1
2.90517e+07,21.4549,0,2.76168,3769.78,1248.84,-26504.3
2.92214e+07,0.220077,1,3.45515,-5.5092,51.6234,-28766.6
0,0.216918,1,2.52965,0,0,0
0,0.213095,1,3.49622,0,0,0
0,0.232185,1,3.13131,0,0,0
0,0.282294,1,3.21176,0,0,0
0,0.218463,1,2.19275,0,0,0
0,0.258885,1,2.28049,0,0,0
0,0.214939,1,2.34566,0,0,0
0,0.292617,1,3.42153,0,0,0
0,0.239071,1,2.7101,0,0,0
0,0.214682,1,3.84014,0,0,0
0,0.218504,1,2.63908,0,0,0
0,0.272659,1,2.56463,0,0,0
0,0.21554,1,2.16372,0,0,0
0,0.264439,1,2.45873,0,0,0
0,0.214211,1,2.61767,0,0,0
0,0.255,1,2.23466,0,0,0
0,0.547975,2,2.52378,0,0,0
2.92513e+07,51.5095,1,2.80757,1452.81,10488.3,-26158.6
2.92917e+07,57.0031,0,2.36409,2931.64,11235.6,-25481.2
2.94308e+07,144.855,2,2.75459,-20143.6,22901.8,-28775.1
2.97486e+07,5.82762,2,2.97693,-400.261,-1268.13,-28853.7
2.97976e+07,14.2513,1,2.55194,-1739.21,-704.479,-26436.6
2.98821e+07,19.8541,0,2.86307,2882.2,1694.37,-26215
3.00977e+07,134.563,2,3.0214,-6169.41,-26461,-24326.3
3.01013e+07,43.6114,2,2.78593,2991.43,8278.45,-26426.8
3.0124e+07,69.6252,0,2.67803,3640.37,-7019.14,-16432.5
3.0532e+07,108.102,0,2.51278,-10519.6,-17277.6,-24065.9
3.0886e+07,172.572,2,3.05201,9939.94,6702.8,-23417.3
3.09562e+07,144.423,0,2.87538,28500.3,-4831.01,-20095.5
3.11075e+07,7.57048,0,2.94368,-1152.48,-988.73,-28525.2
3.112e+07,117.053,0,2.72901,-22722.7,-3921.23,-20319.2
3.11708e+07,91.0407,0,2.89105,-6410.89,-13697.1,-29184.8
3.12123e+07,77.1708,2,2.41796,-9342.41,8390.16,-18417.2
3.15571e+07,98.2471,0,2.91666,14136,-9554.54,-17138.6
3.15855e+07,19.0428,1,2.7713,-1815.57,-1249.95,-25518.5
3.16936e+07,59.5738,0,2.82788,6425.26,10808.1,-28559.1
3.18491e+07,141.715,1,2.6839,-6238.49,-21588.3,-9170.42
3.21049e+07,3.46569,0,2.61079,756.603,-169.244,-28537.3
3.21744e+07,38.3116,2,2.94226,-8025.49,-1028.46,-29395.9
3.24258e+07,37.0897,0,2.54352,1480,7011.28,-25564.2
3.24513e+07,111.455,1,2.69616,-4422.5,8479.77,-7327.74
3.24789e+07,172.235,1,2.52207,-25155.7,-24438.6,-19164.2
3.26065e+07,27.5056,1,2.49679,4530.45,-1777.3,-25742.3
3.27127e+07,40.9724,0,2.66378,3312.91,-2298.75,-21162
3.27551e+07,145.5,1,2.66019,-18270.2,-18433.4,-12514.4
3.30571e+07,143.667,1,2.41774,-18031.6,7168.64,-5379.1
3.31122e+07,319.807,0,2.81878,1856.39,-28229.7,15789.4
3.31535e+07,150.229,1,3.01399,6539.58,28471.2,-17028.6
3.32074e+07,2.75924,0,2.57749,434.348,-9.22375,-28351.4
0,2.81428,0,2.48044,0,0,0
3.33393e+07,18.2341,2,2.6897,-1434.6,-3495.94,-27761.3
3.34694e+07,168.722,0,2.79308,15916.7,-28433.8,-14673.5
3.35486e+07,28.6007,2,2.9083,-2354.71,-5397.16,-27187.8
3.39966e+07,49.7222,0,2.90148,5722.79,-4240.18,-21114
3.41193e+07,72.069,2,2.55693,-1793.71,-14209.1,-23421.6
3.42563e+07,101.64,1,2.40387,-20274.8,2012.4,-21753.5
3.43798e+07,184.227,2,2.44198,-12837.5,19961.3,2064.12
3.44385e+07,46.0671,1,2.69211,-9561.43,-1922.42,-29460.3
3.44585e+07,19.3518,1,2.81431,3421.34,228.823,-26638.5
3.45152e+07,105.573,1,2.95439,-10170.1,16417.8,-17828.7
3.50954e+07,78.898,1,2.42269,-2517.98,6925.46,-13812.2
3.55718e+07,4.78719,0,2.70649,361.093,966.491,-28578.2
3.63398e+07,95.7563,0,2.50595,7652.69,-13510.6,-15790.3
3.63948e+07,105.591,1,3.00734,-7336.36,15523.7,-14783.4
3.64661e+07,17.253,1,3.03307,-1468.91,2953.58,-27178.1
3.65404e+07,26.6512,2,2.8799,-3397.73,1334.12,-24538.5
3.66683e+07,136.607,2,2.47032,-2813.63,25680.4,-16032.7
3.68066e+07,40.139,0,2.40011,727.252,3452.87,-21105.6
3.7307e+07,18.0279,2,2.37021,-2399.45,-614.942,-25850.3
3.74348e+07,5.09454,0,2.86381,115.969,645.398,-27945.1
3.78245e+07,119.225,1,2.69017,-19183.5,-1787.39,-12631.4
3.80838e+07,132.636,0,2.7438,-15971.1,-3867.52,-6303.46
3.81664e+07,84.0558,1,2.4324,3112.45,16248.2,-22086.5
3.85085e+07,105.329,0,2.58752,755.471,-22251.5,-27870.8
3.85588e+07,141.474,2,2.73302,-2710.64,15375.2,-3493.64
3.85906e+07,99.5239,1,2.76527,8799.96,14711.1,-16685.1
3.88343e+07,11.6055,2,2.66559,-502.841,-1048.58,-26613
0,11.5819,2,2.50287,0,0,0
3.88717e+07,35.4465,2,2.9624,-2705.48,-3075.51,-22566.2
3.90683e+07,123.318,2,2.86544,-5617.18,-4590.52,-10905.4
3.93964e+07,39.1092,1,3.03408,-6056.85,1022.76,-23358.5
3.95413e+07,108.577,2,3.0456,-14460.5,-6808.48,-12568.8
3.95538e+07,255.981,0,2.6774,17936.6,-18051.4,-7233.05
3.95938e+07,19.4457,0,2.72197,1941.22,-3579.22,-28014.4
4.02281e+07,78.4641,0,2.58228,3029.89,-15534.3,-23812
4.02316e+07,108.638,2,2.38641,-13128,-9924.45,-12693
4.07115e+07,179.334,1,3.01064,13468,-10354.1,-4383.41
4.12216e+07,53.0177,2,2.47035,-6260.78,2567.4,-19857.3
4.13187e+07,50.4269,2,2.82219,-8244.5,6196.98,-26427.3
4.15053e+07,23.9023,2,2.80533,-4092.06,-3080.25,-29350
4.15989e+07,21.1001,0,2.43306,609.357,3261.01,-25792.9
4.16357e+07,66.28,1,2.7219,-7118.62,8899.34,-20620.4
4.16682e+07,47.5621,0,2.43551,2734.11,-4133.83,-20078.2
4.20354e+07,12.2492,2,2.62856,244.102,1841.47,-27070.2
4.20499e+07,114.745,2,2.88726,9681.31,7951.43,-8269.77
4.21496e+07,44.354,2,2.41549,-6021.72,-6717.79,-25894.7
4.22542e+07,52.6904,1,2.37031,-626.231,11038.7,-26769.2
4.22684e+07,140.368,1,2.82578,11022.6,13924.9,-5257.97
4.23373e+07,51.3822,0,2.54451,6791.53,1355.87,-20383.4
4.27211e+07,194.321,0,3.05756,16014.4,19229.5,3258.52
4.29916e+07,29.7519,0,2.54275,3298.63,3713.69,-24876.2
4.30464e+07,49.137,2,2.65797,4371.71,-9113.76,-26238.5
4.3182e+07,73.9679,2,2.36226,-1118.26,-11135.6,-17783.8
4.32376e+07,62.3378,2,2.51056,6048.81,9305.34,-21802.1
4.32553e+07,15.2121,2,2.49523,-2219.31,-907.426,-26591
4.3295e+07,116.4,2,2.61896,22275.9,-9650.86,-24948.7
4.33536e+07,61.5306,2,3.00127,536.041,-12046.4,-24091.7
4.3379e+07,60.3756,0,2.69127,7743.4,4606.41,-19761.1
4.33866e+07,144.185,2,2.71978,9973.52,8705.76,-1545.94
4.36917e+07,83.832,0,2.87213,17665.1,1123.03,-27810.5
4.40939e+07,115.558,1,2.72711,-5005.25,9843.73,-7099.3
4.41191e+07,34.3019,1,2.74915,4215.5,-4821.4,-25628.3
4.43333e+07,47.2423,1,2.84004,-7985.37,-1960.24,-23224.6
4.43813e+07,149.777,1,2.84517,2131.99,29419.3,-17596
4.46923e+07,88.1048,2,3.00801,3770.08,-12391.2,-15592.5
4.52349e+07,95.744,0,2.49249,12904.5,-10342.7,-17048.8
4.56374e+07,101.636,2,2.38654,8311.56,-16211,-17723.3
4.602e+07,40.2628,0,2.55602,6567.55,-2214.3,-23759.9
0,40.4407,0,2.85476,0,0,0
4.6033e+07,62.3779,0,2.58666,-9813.92,-3822.84,-20990
4.6226e+07,4.17468,0,2.36378,353.125,612.467,-28233.2
4.62938e+07,68.3767,0,2.40306,6169.27,-874.68,-15723.8
4.67609e+07,160.473,0,2.91464,-112.657,-175.793,-29749.6
4.70781e+07,71.9694,2,2.67041,-12044.3,-6771.78,-22332.7
4.77398e+07,58.3073,1,2.92136,-11392.4,4618.71,-29947
4.77872e+07,191.202,0,2.96307,1761.53,24895.1,2575.81
4.78524e+07,34.0054,0,3.01064,7226.15,6.05325,-29245.5
4.81126e+07,101.839,1,2.4565,-9198.13,-17517.8,-20380.9
4.84397e+07,84.8186,2,2.7462,15359.6,1347.31,-21364.8
4.86456e+07,72.1881,0,2.99019,4382.72,11670.3,-20196.8
4.86628e+07,21.0205,0,2.74395,-3991.77,-1576.5,-28048.4
4.88214e+07,129.964,0,2.51612,-11924.8,-5603.82,-18484.1
4.93712e+07,83.1631,2,2.8183,-9448.33,-4438.17,-14740.4
4.93852e+07,1.41727,0,2.71941,355.036,50.0022,-28681
0,1.35412,0,2.87235,0,0,0
4.95633e+07,16.7917,0,2.93523,2180.83,-958.597,-26150.7
4.98178e+07,143.686,2,2.79825,15435.8,-13701.7,-6712.77
4.99721e+07,38.1368,0,2.65898,7355.05,-3482.51,-29190.8
5.01346e+07,94.2283,0,3.05561,7093.34,5923.73,-11353.2
5.04381e+07,21.6258,0,2.39765,-2601.29,-964.211,-25229.3
5.07245e+07,4.14231,2,2.44108,-799.229,-41.7111,-28386.9
5.07515e+07,77.4687,1,2.92627,10415.1,-10278.7,-21866.5
5.07662e+07,5.45235,1,2.59857,-1078.06,547.008,-28509.6
5.09541e+07,70.6822,0,3.04418,4817.16,13449.8,-24732.8
5.10177e+07,17.8273,1,2.83745,94.2198,3797.82,-29404.4
5.11701e+07,37.8725,0,3.05327,7456.11,2795.32,-29765.2
5.14764e+07,70.0358,0,2.44222,-2141.12,13189.1,-22420.8
5.23621e+07,103.434,0,2.41663,17705.7,-10977.1,-21919.6
5.2827e+07,168.226,2,2.84468,-13132.6,6600.5,3345.07
5.28859e+07,44.0343,0,2.37477,6318.85,-2975.82,-22565
5.29227e+07,183.865,2,2.9443,-19464.4,11749.3,2350.41
5.33407e+07,70.878,0,2.87786,-4989.78,3511.92,-15271.7
5.34679e+07,12.4849,0,3.0148,-1567.44,-2059.49,-28599.2
5.34808e+07,0.692656,2,2.86626,70.8412,-169.804,-28780.9
0,0.56801,2,2.38498,0,0,0
5.37467e+07,57.2301,0,2.79249,7365.03,3513.77,-19898.7
5.37671e+07,31.5563,2,2.66618,4895.59,1508.34,-24606.4
5.43137e+07,171.459,2,3.0118,12388.9,-29886.8,-13068
5.46765e+07,109.327,2,2.49189,4535.35,-20156,-18294.3
5.48248e+07,139.707,2,3.00572,-11831.6,-6113.2,-2720.41
5.49183e+07,80.7238,2,2.8683,12397.7,2295.41,-17534.9
5.51783e+07,15.3402,1,2.51472,1608.35,805.53,-26102.9
5.53421e+07,3.06422,2,2.59752,-130.363,-735.644,-28803.5
5.53943e+07,31.3674,2,2.66479,-6224.98,2280.3,-28610.1
5.5441e+07,16.8344,2,2.72598,-1655.45,2211.49,-26643.4
5.54767e+07,176.475,1,2.75076,-28306.3,11229.2,-7413.86
5.54947e+07,16.4423,0,2.45003,1503.98,-3149.75,-29504.4
5.55837e+07,98.3429,2,2.64444,-1036.75,9509.78,-10470.4
5.57157e+07,25.4796,0,2.41754,-3479.56,-3626.18,-27712.6
5.60342e+07,75.8579,1,2.66177,13562.9,-2414.46,-20745.4
5.61381e+07,119.148,0,2.70358,15287.3,-11094.9,-13190.1
5.65887e+07,169.193,1,2.55261,26013.7,18107.5,-12399.5
5.72629e+07,17.1777,2,2.9252,-2414.67,-2777.8,-28437.8
5.76758e+07,145.26,2,2.64483,-28777.1,10652.6,-29356
5.81812e+07,74.9808,1,2.5268,2492.14,-13540.9,-21056.9
5.83822e+07,182.122,2,2.75436,12148.2,15459.2,4030.88
5.87011e+07,166.853,0,2.97738,-26477.8,-22458.1,-25011.2
5.88854e+07,26.9294,2,2.8338,3699.69,-444.969,-24596.3
5.90031e+07,93.8064,0,2.85702,-10704.4,11771.8,-17240.2
5.95443e+07,30.6061,2,3.02098,-3991.52,-2908.79,-24617.2
5.96121e+07,143.505,2,2.88246,21563.6,-8603.44,-9595.73
5.96195e+07,176.483,1,2.99231,-13600,6602.93,4956.95
5.97261e+07,46.3438,0,2.8165,-1125.83,-9318.55,-26162.2
6.03379e+07,89.6369,0,2.71013,7485.17,-15554.2,-21057.9
6.05549e+07,138.632,1,2.56596,12792.5,15836.9,-7737.4
6.07596e+07,129.523,0,2.8018,13696.1,-16845.3,-12292.9
6.09497e+07,62.8408,2,2.84554,-9877.99,-8830.93,-27983.8
6.09534e+07,117.75,2,2.60095,-10983.5,-20434.7,-19738.9
6.12457e+07,143.528,1,2.45602,-15055.1,26233.2,-25393.8
6.12726e+07,647.755,1,2.70016,-9006.6,-14238.8,-12085.2
6.13787e+07,56.4401,0,2.49385,-6480,2194.86,-19081.2
6.147e+07,94.7919,2,2.40898,5129.98,13978.8,-15452
6.15393e+07,123.178,0,3.00606,16671.6,2141.78,-9170.55
6.17972e+07,139.222,1,2.70083,-16785.9,18043.4,-26382.7
6.19299e+07,28.2663,0,2.41477,2442.7,5088.97,-26661.2
6.19325e+07,51.2971,2,2.38074,-9673.66,-4647.22,-26773.8
6.20797e+07,70.0123,0,2.78783,-13064.7,-2776.92,-25892.5
6.22199e+07,38.5428,2,2.53563,5767.81,1182.31,-23267.4
6.23875e+07,80.5171,2,2.37173,-13108.4,-6100.28,-19715.1
6.24125e+07,5.72563,1,3.02821,416.72,1068.45,-29431.6
6.24243e+07,101.7,1,2.83343,-10969.1,3973.49,-10864.9
6.2508e+07,56.5083,2,2.70359,-11419.5,3462.42,-29621
6.29293e+07,67.3532,0,3.03648,4892.45,5225.59,-16622.6
6.31532e+07,14.6166,0,2.78838,3173.79,-75.4251,-28451.9
6.36454e+07,34.959,0,2.80417,7312.85,1393.25,-29078.4
6.36947e+07,35.2595,1,2.5639,-1847.55,4862.78,-23401
6.37766e+07,183.465,2,2.74153,14231.4,-4607.6,-22235.9
6.40776e+07,18.721,2,2.38272,-3085.12,449.679,-26330.6
6.4124e+07,100.733,1,2.7228,7658.72,16139,-17362.6
6.4192e+07,290.757,1,2.59661,-20980.3,21533.7,24744.3
6.46366e+07,156.716,0,2.94946,23500.8,-22954.4,-26099.2
6.48584e+07,13.6936,1,2.55978,-919.53,2095.58,-26927
6.50546e+07,133.711,0,2.45611,8120.82,20431.3,-11014
6.54232e+07,79.4585,2,2.5422,-2447.5,-16710.9,-28129.8
6.54623e+07,251.493,0,2.67764,15144.2,-11221.5,-26088.1
6.55435e+07,28.8908,0,2.37222,3287.37,-4385.12,-25997.2
6.57176e+07,159.749,0,2.95217,28476.6,-15922.9,-20773.8
6.595e+07,43.0979,0,2.43223,-1414.13,-3920.12,-20709.5
6.60191e+07,22.148,1,2.87019,2496.82,-3132.09,-26534.9
6.66056e+07,23.8742,0,2.94826,-955.359,2156.04,-24399.2
6.68447e+07,8.21177,0,2.55926,-637.492,-961.827,-27552.5
6.6882e+07,235.782,1,2.91948,-13557.4,17641.5,-13617.9
6.7236e+07,138.761,2,2.50686,-20948.9,2318.24,-8364.84
6.73723e+07,188.901,1,2.96704,-12625.6,27883.9,-3592.45
6.78817e+07,67.5195,0,2.85586,-1402.81,11979.1,-21318
6.80697e+07,62.3028,1,2.65199,2802.46,7652.8,-18472
6.81211e+07,111.694,2,2.65874,-17888.7,-14666.4,-23859
6.8498e+07,61.0151,1,2.98674,-5861.43,-1313.82,-17518.7
6.86105e+07,33.0043,2,2.61433,6516.7,-1997.45,-27420.2
6.87409e+07,7.04508,2,2.51487,-990.152,987.262,-28278.3
6.93142e+07,70.2375,0,2.61858,7279.1,-5698.67,-17288.5
6.95296e+07,27.4924,2,2.42203,2052.68,-4110.75,-25183
6.97102e+07,47.0682,2,2.43148,-7895.07,-1645.14,-22893.9
6.97488e+07,19.659,1,2.98819,-1576.12,947.631,-25090.4
6.9799e+07,116.824,0,2.55607,14295.1,-10087.5,-11332.9
7.01966e+07,93.6414,1,2.69051,-1090.35,8355.31,-10934.1
7.08802e+07,161.685,2,2.80058,16809.4,5695.75,-2600.86
7.12255e+07,159.464,1,2.78412,-6145.1,20787.9,-20710.8
7.15741e+07,7.67573,1,3.03979,-1399.2,957.978,-28843
7.1582e+07,108.786,1,2.60536,686.186,11319.9,-8803.71
7.17628e+07,141.645,0,2.92044,238.46,-19990.1,-6845.47
7.17758e+07,56.2209,2,2.99866,-344.648,-11176.1,-24831.4
7.23485e+07,47.8538,2,3.03456,7501.83,2490.66,-22743.2
7.23595e+07,77.9113,0,3.01453,-12291.1,1524.84,-18282.2
7.23883e+07,134.448,0,2.49508,10977.6,877.955,-2597.64
7.26022e+07,31.2154,1,3.02082,-3473.34,-2563.71,-23899.7
7.26918e+07,79.2976,2,2.44264,-5813.45,-15607.2,-26053.7
7.27076e+07,29.1218,2,2.97524,-4476.29,-2193.92,-25233.1
7.30753e+07,54.7451,2,2.7097,-5197.1,6186.01,-20591.7
7.30765e+07,14.2948,0,2.54844,3054.29,-297.458,-28188.7
7.36675e+07,23.9418,1,2.54303,2620.28,3825.68,-26696.6
7.43275e+07,150.122,1,2.96452,-5801.82,20551.8,-7012.98
7.45826e+07,136.675,2,2.54078,7498.23,-26820.9,-20880.2
7.46507e+07,159.047,2,2.69104,-22293.3,-21806.3,-16310.8
7.48819e+07,199.702,2,2.73835,-24778.6,-1604.39,2481.64
7.48908e+07,17.5355,1,2.6838,-3516.71,1200.94,-28292.9
7.49803e+07,10.4008,1,3.05564,-854.142,1710.85,-27608.2
7.53311e+07,102.131,1,2.48717,11291.3,16474.3,-20568.7
7.55649e+07,33.5839,1,2.83703,-2737.44,-829.228,-22386.2
7.5582e+07,28.5202,2,2.58007,3111.57,-2562.99,-24345.8
7.55962e+07,51.8109,2,2.65789,-6385.24,-8942.83,-27689.3
7.56068e+07,58.7085,2,2.83278,6191.72,-9562.6,-23958.5
7.57415e+07,165.825,2,2.66176,24101.7,527.12,-3505.51
7.59063e+07,42.0637,1,2.8199,-3378.58,7870.6,-26281.6
7.59337e+07,140.076,0,2.44593,7932.2,8415.41,-1542.31
7.5951e+07,145.054,0,2.48348,3148.74,16646.9,-3259.79
7.60335e+07,67.414,0,2.69281,-3153.08,7357.24,-17084.1
7.63694e+07,89.7956,1,2.66329,-4957.33,12084.1,-15014.4
7.66763e+07,1.07756,0,2.8666,135.79,-172.565,-28649.9
0,1.07778,0,2.54895,0,0,0
7.67366e+07,175.312,1,2.89925,24221.1,8263.03,-2372.64
7.69297e+07,29.3959,2,2.87358,3670.89,4456.07,-26800.9
7.79706e+07,63.3165,2,2.65571,-8727.43,-1798.77,-18802.9
7.79761e+07,151.436,0,2.7951,-6297.84,-13451.3,-680.906
7.81483e+07,315.996,2,2.82997,2468.21,-24246.3,28795.3
7.81832e+07,18.7939,0,2.43649,712.619,3733.82,-27529.5
7.82043e+07,160.424,2,2.41413,-18622.2,-13776.8,-3963.66
7.85904e+07,6.89347,0,3.04109,-961.951,682.298,-28062.4
7.86769e+07,24.6588,0,2.88025,-1511.7,-4892.25,-29687
7.89457e+07,94.3901,2,2.43026,741.038,-16968.7,-18179.7
7.93274e+07,28.7796,1,2.94554,-1151.94,-5394.31,-26491.7
7.93977e+07,25.4748,0,2.65071,1540.53,3895.21,-25414.6
7.99206e+07,17.7696,2,2.72934,181.406,1690.58,-25545.8
8.02109e+07,23.6731,0,2.44044,-1545.8,1394.12,-24294.5
8.03802e+07,16.2596,0,3.04515,2084.38,-2709.86,-28174.6
8.07592e+07,55.1969,0,2.41334,6378.59,-437.633,-19009.3
8.0844e+07,160.545,1,2.90449,-19044.9,-477.374,-983.64
8.09546e+07,76.0704,2,2.86495,-1328.91,-15756.5,-25884
8.13313e+07,72.1386,0,2.42702,9926.56,-11705.5,-28952.9
8.151e+07,148.196,1,2.66049,-19628.5,3477.63,-5048.18
8.17928e+07,155.098,1,2.52432,18877.5,-7406.68,-3100.98
8.21123e+07,189.339,0,3.05247,-26108.7,20227.4,-7024.02
8.22046e+07,77.3644,2,2.92538,-7303.36,-11586.4,-19988.6
8.22161e+07,174.867,0,2.869,-3323.35,-13303.8,-21858
8.22464e+07,41.0715,1,2.57228,-6518.55,5783.08,-29812.7
8.25993e+07,37.4591,0,2.59618,-2828.63,2534.32,-21917.8
8.33975e+07,8.28014,1,3.04054,1498.83,826.544,-28546.2
8.34037e+07,65.3989,2,3.06075,5191.44,-12227.3,-25272.5
8.35242e+07,48.7987,2,3.04574,-9253.16,-3179.82,-25621.1
8.38886e+07,33.295,1,2.75169,6073.42,3267.56,-27480.9
8.38929e+07,71.8014,2,2.72892,-6708.69,-2846.25,-15559.2
8.40559e+07,14.9119,0,2.74937,1959.86,2496.49,-28344.6
8.4169e+07,132.527,1,3.0264,-22580.2,16295.4,-29984.6
8.42134e+07,171.093,0,2.39348,-28433.4,12530,-10374.2
8.42224e+07,57.7346,0,2.91826,1975.47,11570.1,-25660.3
8.51953e+07,62.7908,0,2.69074,-10635.3,-1864.77,-21235.6
8.52863e+07,93.2838,0,2.52596,-13408,14394,-28134.9
8.57921e+07,43.8306,1,2.65449,-977.874,8834.21,-25925.3
8.67807e+07,165.704,1,2.41634,11091.8,21150.2,-3138.33
8.69427e+07,10.8817,0,2.60166,873.382,715.206,-26793
8.70463e+07,92.9662,1,2.95116,-13340,5611.94,-15674.6
8.71248e+07,97.1095,2,3.02966,-4619.75,-4076.49,-20810.3
8.71574e+07,110.131,2,2.57661,12784.9,-19491.7,-29114.3
8.72328e+07,99.179,1,2.42174,-8645.85,12860.1,-14588.6
8.72365e+07,216.572,0,2.96904,16106.7,19321.3,9015.17
8.73804e+07,21.8296,2,2.99544,2334.81,-83.8863,-24914.8
8.7464e+07,15.0534,1,2.67374,176.873,-2559.47,-27029.1
8.75627e+07,198.014,0,3.01845,-13335.1,-18341.5,-22742.3
8.77307e+07,0.703741,2,3.04567,-11.8193,-107.083,-28673.1
0,0.700671,2,2.91844,0,0,0
0,0.702685,2,2.75019,0,0,0
0,0.706084,2,2.47765,0,0,0
0,0.731028,2,3.05757,0,0,0
8.8108e+07,40.1054,2,2.60684,-2703.49,-5028.08,-22500.6
8.8571e+07,37.3347,0,2.75067,2649.79,-1381.87,-21513.8
8.88837e+07,15.457,0,2.92832,2444.07,2022.7,-27787.4
8.88899e+07,2.74712,0,2.45797,397.11,167.88,-28358.9
8.9306e+07,116.566,1,2.51349,3758.43,18139,-12512.1
8.93349e+07,275.758,1,2.98158,-18216.9,-2352.93,-18047.6
8.93681e+07,127.882,1,2.96269,13411.5,15183.4,-11210.5
8.96644e+07,56.5884,2,2.88958,-9030.29,-6229.11,-24055.6
9.0239e+07,49.536,2,2.74578,-4576.5,-9482.62,-28981.3
9.02587e+07,17.1837,2,2.40639,-1596.15,-3041.27,-27379.4
9.03763e+07,138.424,2,2.71675,-26875.6,-5353.88,-22985.1
9.05268e+07,70.1429,1,2.87011,-13842.7,5269.9,-29555.6
9.05482e+07,66.1094,1,2.87324,-13419.7,722.321,-25050.8
9.06159e+07,48.5801,2,2.44786,-126.81,-8158.54,-22461.8
9.07028e+07,9.11324,0,2.65202,-1742.51,144.456,-28217.4
9.07806e+07,17.9317,1,2.63079,336.996,2747.38,-26152.4
9.10632e+07,162.629,2,2.89196,-18220.2,12038.6,-24851.1
9.12736e+07,59.4696,2,2.83967,10803,-3681.03,-23713.6
9.14903e+07,86.8664,1,2.88042,16152.9,-3363.04,-21165.9
9.16905e+07,71.8562,2,2.67988,-7388.5,8908.45,-19059.9
9.19627e+07,143.712,2,3.02056,-28612.6,9306.1,-27107.3
9.21698e+07,16.6881,2,2.7736,-608.161,-2809.54,-26681.7
9.21808e+07,123.319,0,2.60509,20110.4,5704.22,-13167.1
9.2704e+07,40.6486,1,2.75143,4941.94,5168.1,-24036
9.27415e+07,16.5613,0,2.99904,-228.082,-2645.92,-26583.4
9.30391e+07,61.4448,1,2.97935,-12503.6,-725.687,-25712.2
9.31389e+07,16.3543,2,2.75109,2390.71,-842.723,-26494
9.33364e+07,18.9032,2,2.68665,-3281.19,-2416.91,-28435.9
9.3446e+07,62.3538,0,2.70841,850.634,13108.8,-29692.4
9.36795e+07,152.493,0,2.60103,-27789.1,13435.1,-19856.9
9.38154e+07,218.946,0,2.45024,521.996,-17313.7,8690.58
9.38182e+07,5.76815,2,2.56708,-298.552,-828.593,-29816.2
9.39278e+07,64.4693,2,2.90236,412.814,-3066.71,-21797.1
9.43628e+07,26.707,1,2.74775,2621.29,342.944,-23863.5
9.47142e+07,177.71,2,2.64418,28346.4,3976.41,-4645.87
9.53817e+07,50.8681,2,2.72723,6766.48,5626.16,-22801.7
9.58455e+07,1.98099,2,2.55366,8.99462,-83.104,-28393.8
9.59305e+07,145.214,2,2.80624,1391.6,-25069.7,-11348.1
9.59739e+07,59.981,2,2.7574,-8745.85,-5394.35,-25651.5
9.59851e+07,70.5245,0,2.91698,8931.96,11863.5,-27912.4
9.69334e+07,180.597,1,2.95893,26128.1,-5098.48,-1955.85
9.69375e+07,228.661,2,2.51558,-27983.2,27932.1,-2349.56
9.69525e+07,9.3166,2,2.439,-252,986.345,-27144.9
9.76076e+07,24.7447,1,2.43843,-2808.92,4543.9,-28814.3
9.7755e+07,25.0386,0,2.96536,-722.014,-4239.79,-25775.6
9.78031e+07,62.8219,1,2.8827,-2919.66,8107.72,-18749.2
9.83912e+07,142.339,1,2.5428,-24369.2,-17640.8,-29286.2
9.86632e+07,31.5394,1,2.68987,-5102.47,746.904,-24536.3
9.86716e+07,18.6435,0,2.84136,1999.63,3299.32,-27800.6
9.8893e+07,33.5708,2,2.9851,5954.86,-1009.69,-25477.3
9.88994e+07,22.6887,0,2.77774,3882.76,-770.442,-26028.4
9.90406e+07,81.9101,2,2.67903,-8388.58,802.415,-13719.7
9.9184e+07,130.387,0,2.76768,19259.3,-15315.3,-16522.1
9.94868e+07,78.9148,1,2.49548,10944.3,-5250.7,-17450.9
9.94922e+07,49.5638,1,2.9916,-3899.89,-7996.12,-23491.4
9.95483e+07,25.0041,1,2.79098,-3330.83,-413.927,-24736
9.96411e+07,47.3518,2,2.81506,-5609.78,3822.1,-21532.6
9.96917e+07,55.4828,2,3.00564,5732.47,-7907.9,-22433.4
9.99342e+07,17.7799,1,2.65072,200.814,3647.78,-27610.3
1.00664e+08,217.787,1,2.78544,-24387.7,-17555.4,5771.19
1.00773e+08,10.4409,2,2.91323,1267.91,-1720.14,-28219.4
1.01651e+08,112.611,0,2.68162,16720.2,-11512.8,-16392.5
1.01931e+08,21.1199,1,2.55973,-2297.3,399.627,-24976.4
1.02029e+08,50.2984,0,2.49092,-9231.94,-2995.43,-24732.9
1.0284e+08,144.706,1,2.83154,-279.876,18803.9,-4875.15
1.03004e+08,45.4951,1,2.89857,8096.44,-366.491,-23795.8
1.03117e+08,22.0037,1,2.3925,-897.432,4651.1,-29096.1
1.03894e+08,45.834,1,3.0289,-2528.82,-7866.45,-23964.8
1.04146e+08,42.8747,2,2.52695,2736.82,-3611.22,-20940.8
1.04172e+08,37.0004,2,2.48124,4071.81,809.6,-22203.8
1.04393e+08,45.5704,1,2.82488,7836.48,1335.03,-23517
1.04905e+08,137.266,1,2.91739,-22968.9,63.4292,-23368.5
1.04969e+08,47.311,1,2.61473,-8571.36,3115.99,-24576.9
1.04981e+08,50.8639,2,2.59802,6948.98,-2157.96,-20922.4
1.0532e+08,38.719,1,2.55413,4016.16,-4925.34,-23752.6
1.05359e+08,31.7908,2,2.56576,952.429,-5256.83,-24673.7
1.05674e+08,166.548,1,2.56241,14623.8,14673.4,-346.131
1.05692e+08,157.31,2,2.77377,-21944.9,-18111.7,-11733.5
1.05843e+08,2.49606,1,2.80709,-243.109,569.325,-29027.2
1.05855e+08,41.8601,2,2.9812,6408.65,-5355.8,-26041.9
1.06027e+08,47.0882,1,2.86686,5307.69,3063.1,-21064
1.06077e+08,124.371,0,2.36669,15113.5,6692.81,-8297.32
1.06212e+08,75.3747,1,2.83397,2249.88,8638.93,-25846.4
1.06363e+08,168.792,1,2.45497,-28657.9,-16704.3,-15588.7
1.06446e+08,45.2195,2,2.98366,-8324.79,-670.259,-24447.1
1.06529e+08,43.5406,2,2.53571,6403.82,-5978.75,-25851.6
1.06673e+08,80.9293,1,2.85518,13926.7,9774.99,-28879.3
1.06685e+08,10.8894,2,2.52727,-614.158,-1031.17,-26799.1
1.07127e+08,84.6967,2,3.00328,11839.5,-306.619,-15655.5
1.07337e+08,3.28011,2,2.90301,-414.73,-212.7,-28268.8
1.07427e+08,95.7535,0,2.63914,15881.6,12508.9,-27035.8
1.07648e+08,49.0548,1,2.99844,2864.29,2833.11,-19350.8
1.07672e+08,167.791,0,2.38591,-7865.75,-26226.1,-6288.53
1.08174e+08,18.2876,2,2.61466,3114.63,-466.384,-26603.8
1.08527e+08,43.4239,2,2.5753,2472.79,7630.07,-26843.9
1.08787e+08,107.791,1,3.0333,-13616.9,17092.1,-22756.9
1.09248e+08,21.0026,0,2.63174,3791.77,-2355.43,-29689.1
1.09514e+08,75.324,1,2.9207,3805.29,14873.1,-24708.5
1.0952e+08,55.7825,1,2.84531,-4164.83,7028.08,-23749.5
1.09695e+08,62.2357,0,2.63428,10043.5,-5761.18,-22518.9
1.09721e+08,31.4334,1,2.93589,-2522.01,5634.59,-26254.8
1.09762e+08,151.695,0,2.93385,15191.8,28014.3,-28588.4
1.10276e+08,56.0393,0,2.45493,11429.2,-3367.47,-27939.1
1.10575e+08,28.9453,1,2.56975,1274.29,5785.23,-26987.2
1.10742e+08,109.215,2,3.04769,-8895.34,13801.1,-12938.3
1.10784e+08,97.7995,0,2.95385,389.746,-13792,-13635
1.11162e+08,12.7419,0,2.47704,1257.56,2353.08,-29458.7
1.11203e+08,60.2124,2,2.99204,10017.1,4565.63,-22732.6
1.11233e+08,120.507,1,3.03779,11008.2,7317.91,-7443.74
1.11608e+08,51.6534,1,2.53444,103.295,10572.3,-25732.5
1.1181e+08,141.643,0,2.66883,13879.5,4244.17,-2900.8
1.12054e+08,86.0752,0,2.64069,3135.2,17908.1,-29701.4
1.12136e+08,13.872,0,2.51804,2680.54,441.699,-27571.5
1.12513e+08,78.8915,0,2.55599,14732.3,-6359.3,-24067.6
1.12682e+08,45.5519,0,2.91892,-468.381,9400.78,-27007.4
1.12752e+08,17.6139,2,2.72317,-1060.91,1035.86,-25414.2
1.12808e+08,41.6486,1,3.01146,-6681.35,-5186.97,-26587
1.12948e+08,29.79,0,2.60809,4584.68,-2950.01,-25527.1
1.13053e+08,8.20675,1,2.78933,-568.911,-156.392,-27208.9
1.13437e+08,68.6595,2,2.79499,-13773.2,1390.16,-24550.6
1.13513e+08,98.5784,0,2.94614,7954.2,6326.27,-10767.8
1.13699e+08,76.4208,1,2.83,-158.984,8629.18,-15232.5
1.13941e+08,56.3956,0,2.96367,-7589.2,-6590.88,-22663.6
1.14037e+08,8.04848,2,2.57276,-1274.76,-967.862,-29657.2
1.1437e+08,78.6725,0,2.57094,312.339,16058.4,-24509.9
1.14562e+08,64.273,1,2.57734,3344.23,5319.27,-16763.6
1.14594e+08,12.0286,0,2.96528,426.659,-2532.26,-28698
1.1461e+08,38.0311,1,2.42392,-4555.67,4663.72,-24068.9
1.14728e+08,24.7946,0,2.60867,863.881,3704.37,-25201.1
0,24.8004,1,2.74922,0,0,0
1.149e+08,70.3919,0,2.52404,12497.4,7397.28,-25155.2
1.15419e+08,2.37791,2,2.62841,137.529,292.616,-28496.4
1.15597e+08,57.1406,0,2.9686,6288.16,9498.36,-24995.8
1.15725e+08,13.1969,1,2.89774,-2602.93,100.142,-27730.6
1.15773e+08,115.976,1,2.46807,-2500.8,-10487.4,-6843.5
1.15818e+08,49.4926,0,2.7372,2686.75,4734.76,-19907.8
1.15986e+08,84.325,1,2.66694,16397.2,4866.07,-23920.1
1.16206e+08,26.7113,1,2.65728,-4709.3,3238.55,-29263.6
1.16273e+08,56.4619,1,2.68173,7895.31,-4518.92,-21253.8
1.16587e+08,53.0203,2,2.52596,-6860.42,590.82,-19938.4
1.16841e+08,25.8046,2,2.43674,-3435.75,3770.68,-26873
1.16947e+08,6.08425,1,2.50027,-290.245,-745.96,-27833
1.17067e+08,147.956,1,2.96854,-9394.85,-16836.3,-4577.39
1.17073e+08,90.1655,0,2.41165,3804.07,-10040.2,-13021.9
1.17162e+08,103.141,1,2.53869,-3155.86,16659,-15030
1.17819e+08,146.957,1,3.00946,23646.4,1215.27,-9149.65
1.18702e+08,192.957,0,2.57057,16526.4,23171.6,-7957.64
1.19002e+08,79.6358,2,2.75313,-13694.8,6517.52,-21602.8
1.19249e+08,19.2975,0,2.44826,2778.41,1000.68,-25908.8
1.193e+08,95.4802,1,2.90876,-9863.13,16680.4,-23367.7
1.19323e+08,15.4412,0,2.93416,3209.84,595.06,-29564.9
1.1952e+08,29.5058,1,2.42093,-3382.78,4788.38,-26524.6
1.19766e+08,5.72826,1,2.43801,-410.479,792.962,-27924.9
1.20034e+08,66.6357,1,2.96069,-3172.65,13681.5,-27917.1
1.20631e+08,1.98745,2,2.78031,-399.459,-145.29,-28634.4
1.20957e+08,24.6528,2,2.76696,-668.583,-5232.66,-28270.6
1.2113e+08,17.0373,0,2.85364,3429.5,783.819,-29945.9
1.21315e+08,42.6086,2,2.69891,-74.9901,-9089.32,-28897.7
1.21578e+08,105.653,0,2.75034,5395.99,-13690.3,-12091.9
1.21675e+08,82.008,1,2.575,-12133.9,3889.81,-17001.5
1.22274e+08,17.1194,0,2.6881,1620.85,-273.313,-25557.2
1.22575e+08,87.0282,2,2.44021,9619,-7005.49,-14766.5
1.23133e+08,291.429,2,2.73738,10204.1,-27086.1,3953.81
1.23154e+08,116.721,1,2.55763,4083.23,-16037,-10619
1.23319e+08,91.8974,1,3.06045,-8528.5,5461.27,-12416.8
1.23413e+08,200.647,1,2.67855,-28906.9,27789.5,-15137.2
1.23539e+08,27.8188,2,2.82438,2974.19,-54.8369,-23786
1.23667e+08,153.365,2,2.86781,15684.5,191.225,-707.77
1.24435e+08,30.448,1,2.39363,-405.49,5527.94,-25408.4
1.24527e+08,186.791,1,2.73963,-10140.5,-6937.81,4007.89
1.24767e+08,99.2247,0,2.47472,5426.77,19943.4,-24931.7
1.24902e+08,88.7915,2,2.55247,-17136.5,-7472.53,-26430.9
1.24995e+08,55.1263,1,2.96916,-7070.86,6255.69,-22011.7
1.25242e+08,46.36,0,2.93139,7680.34,5227.95,-25636.9
1.25662e+08,61.8962,0,2.75371,2522.14,-5063.84,-17050.5
1.25725e+08,13.0099,1,2.89126,-1310.38,-96.9854,-26418.3
1.2621e+08,156.209,1,2.93057,542.636,4242.49,-27950
1.26216e+08,244.021,2,2.55947,-23985.3,-22774.7,10777.7
1.26218e+08,70.0873,1,2.42982,-8431.29,4727.39,-17518
1.26348e+08,35.7951,1,2.49255,7252.64,2166.02,-28332.5
1.26706e+08,65.6363,0,2.59395,4577.72,-11073.1,-21822.4
1.27098e+08,104.428,2,2.62421,5066.75,17857.2,-17077.5
1.27127e+08,88.8338,2,3.05314,-11628.4,1194.79,-14373.6
1.27533e+08,125.48,1,2.85722,-24330.5,4311.79,-19454.6
1.27544e+08,2.26928,1,2.37864,-135.962,103.145,-28340.5
1.27733e+08,115.127,1,2.66592,583.849,12514.1,-8000.83
1.28389e+08,12.7718,0,2.7559,-1249.39,-2095.29,-27703.5
1.28419e+08,64.4218,2,2.73386,2592.94,-11222.6,-22747.4
1.28452e+08,146.811,0,2.92207,-9169.4,12134.7,-4098.15
1.28554e+08,9.9549,0,2.92679,597.28,650.254,-26895.9
1.28663e+08,54.6628,1,2.51071,-9694.59,5436.28,-25321.2
1.28934e+08,2.58284,2,2.91279,-290.582,1.28506,-28326.5
0,2.60848,2,2.53096,0,0,0
1.28936e+08,0.608588,1,2.45016,52.1153,180.62,-28783.4
1.2902e+08,160.987,2,2.99189,16768.1,-29331.7,-28849.9
1.29242e+08,29.0146,1,2.78087,-3093.8,5230.28,-27621.1
1.29251e+08,179.304,2,2.36796,-27982.9,-14358.8,-7479.85
1.29272e+08,104.003,2,2.89098,6327.89,-8133.37,-9535.22
1.29485e+08,77.4338,1,2.78767,793.872,10680.2,-25182.6
1.2977e+08,136.034,0,2.87667,26528.2,8306.03,-21789.7
1.30279e+08,214.38,2,2.68595,-15392.1,21616.1,7744.34
1.30442e+08,148.36,1,2.97013,10542.5,13985.2,-3107.94
1.30876e+08,20.8411,2,2.91671,1342.96,2054.97,-25230.1
1.30939e+08,94.9514,1,2.59196,17532.8,-3584.71,-19843.2
1.31051e+08,253.383,1,2.97734,8671.66,-26874.6,16117.4
1.31223e+08,24.7075,0,3.05765,223.359,-62.5033,-29011
1.31244e+08,51.5543,2,2.56193,-59.0022,-10858.9,-27068.9
1.31736e+08,23.4624,2,2.4867,1505.46,-230.657,-28303.3
1.31874e+08,73.7228,1,2.92321,-14481.2,-5111.51,-26740.7
1.32231e+08,97.4546,1,2.64648,-13033.3,161.982,-12875.7
1.32371e+08,55.7651,2,2.65871,-10079.7,2004.07,-23069.1
1.32439e+08,11.239,2,2.77191,1070.67,686.885,-26872
1.32835e+08,56.0972,0,3.00019,-300.254,7747.55,-19960.3
1.32866e+08,44.9106,1,2.41654,1558.83,9404.85,-29708.8
1.33406e+08,70.4366,2,2.79963,6981.57,-10027.4,-20399.9
1.33567e+08,54.1426,1,2.50902,-867.296,-9825.84,-23095
1.34011e+08,64.7594,2,2.56252,-2757.36,-11774,-22273.7
1.34387e+08,6.05347,0,2.70111,-335.517,446.063,-27704.7
1.34586e+08,110.437,1,2.78737,-19783.6,6173.19,-18205.2
1.34627e+08,51.7272,1,2.76426,-8602.56,-629.243,-22101.7
1.34877e+08,84.4392,1,2.77074,-17022.9,-574.883,-23511.9
1.34897e+08,73.327,2,2.97506,7508.46,-11262.1,-21437
1.35872e+08,32.2878,1,2.44599,2579.95,6354.04,-28012.1
1.36375e+08,75.3075,1,2.87814,-6759.42,11348.2,-22418.5
1.36396e+08,25.9467,1,2.48259,-1567.07,5237.24,-27682.6
1.36576e+08,204.719,2,2.93706,-29312.9,-10760,588.392
1.36712e+08,21.8087,1,2.39022,-3178.94,851.648,-25519.3
1.3675e+08,10.8318,0,2.50644,-1162.18,122.004,-26896.4
0,10.9503,0,2.68273,0,0,0
1.37026e+08,61.7931,2,2.84171,-1927.5,-7616.1,-18418.9
1.37034e+08,21.5078,0,2.88366,-467.524,-4000.09,-27409
1.3763e+08,23.5214,1,2.51944,1866.53,4010.91,-26435.3
1.38119e+08,49.6258,1,2.88394,-6787.79,8017.27,-28047.4
1.38459e+08,130.896,1,2.90638,15204.8,-9067.26,-7880.7
1.38613e+08,142.672,2,2.84427,22193.3,1639.52,-8754.3
1.38781e+08,19.7292,2,2.39413,77.8334,-2642.65,-25515.8
1.38931e+08,81.8385,2,2.65907,7541.7,-15375.3,-26219.7
1.3904e+08,98.5485,2,2.43949,-391.82,-2967.04,-27896.2
1.39149e+08,104.158,0,2.66952,11179.5,-2587.07,-10046.9
1.39372e+08,117.143,1,2.44228,-12320.2,-6146.11,-8228.41
1.39854e+08,70.4548,1,2.62883,-1149.77,-1048.72,-28120.2
1.40013e+08,35.9039,2,2.88045,3253.61,-6795.1,-29842.4
1.40065e+08,118.566,0,2.40167,14548.1,18099.7,-19192.2
1.40369e+08,3.95014,0,2.81692,934.497,74.8344,-29005.8
1.40498e+08,236.409,1,2.72123,816.844,22493.1,-9994.19
1.40669e+08,172.313,0,3.02249,14127.4,24037.7,-5864.68
1.40685e+08,242.223,2,2.65231,29970.6,-2390.55,4812.61
1.40818e+08,93.448,2,2.81296,529.871,14234.4,-15329.4
1.40978e+08,11.8113,0,2.58656,2378.57,-751.742,-28081.8
1.41035e+08,92.1623,2,2.56692,-2093.52,-12650.9,-14103.2
1.41109e+08,44.5601,0,2.66108,-4934.17,-1964.45,-21121.3
1.41345e+08,14.4703,2,2.76849,785.05,-3007.69,-28389.6
1.41477e+08,9.57308,0,2.45095,1597.89,-1306.65,-28511
1.41563e+08,9.19909,2,2.49851,-1528.03,-161.212,-27562.9
1.41622e+08,18.4512,1,2.77401,639.532,3835.2,-29689.2
1.41818e+08,4.12529,1,2.58275,748.356,-359.678,-28764
1.41997e+08,124.843,0,2.48863,-22880.1,-4900.12,-16717.2
1.4215e+08,24.8437,0,2.54295,2421.65,2639.02,-24927.4
1.42172e+08,16.4535,0,2.51998,512.763,-2274.97,-26220.7
1.43069e+08,7.37236,0,3.01146,1345.59,253.014,-27941.1
1.43637e+08,25.038,0,3.05951,334.949,3984.29,-25427.3
1.44036e+08,153.123,1,2.93324,-15289.4,-22778.6,-12346.8
1.44356e+08,13.2642,2,2.58374,-2746.62,-78.3332,-28001.3
1.44549e+08,63.1514,0,2.71198,-9975.29,7235.66,-23927.3
1.44739e+08,26.0792,0,2.82376,-1682.3,-4571.56,-26335.2
1.4513e+08,199.014,1,2.43068,-2204.16,2170.1,-17803.6
1.45532e+08,3.42884,0,2.59751,-98.812,518.646,-28345.1
1.45777e+08,75.3166,0,3.01059,-4842.92,14522.9,-25061.9
1.46048e+08,123.192,1,2.73943,-7202.56,16143.4,-9743.94
1.46285e+08,41.5401,0,2.68867,6249.94,6000.93,-27079.1
1.46398e+08,63.0835,1,2.88466,3903.84,4175.64,-16849.2
1.46472e+08,28.627,2,2.70514,-4520.08,2361.48,-25555
1.46487e+08,51.8973,2,2.99202,-10086.9,-2546.88,-25434.5
1.46963e+08,23.7775,0,3.01331,-1733.07,2044.38,-24638.1
1.46981e+08,81.9931,0,2.93724,12474.5,-11911.1,-29862.3
1.47002e+08,202.861,2,3.02591,26075,-8579.39,3573.54
1.47226e+08,133.487,0,2.76697,6486.4,-2999.33,-29979.1
1.47554e+08,13.2713,0,2.83927,1763.8,204.977,-26591
1.47671e+08,109.74,0,2.70688,14930.6,-10403.7,-14453
1.47817e+08,61.1516,1,2.41633,7178.51,5963.92,-19819
1.48027e+08,67.9385,0,3.06157,3678.09,-8383.55,-17888.7
1.4814e+08,86.3146,0,2.92118,-3452.8,16635.8,-22557.7
1.48227e+08,51.275,0,2.49238,1668.95,7477.4,-21171
1.48292e+08,15.0665,0,2.36908,1548.31,-1745.3,-26596.8
1.48397e+08,192.69,2,2.58781,-12423.3,-10975,8379.56
1.48537e+08,71.5732,1,2.6807,-11312.6,7105.7,-21625.6
1.48726e+08,94.0242,0,2.87773,4880.87,9598.79,-12249.4
1.48798e+08,102.53,2,2.51833,-3084.38,-20211.4,-21340.3
1.48892e+08,97.32,0,2.66251,-7475.66,5084.67,-10412.3
1.49102e+08,27.6207,1,3.04066,-523.713,3924.33,-24525
1.49128e+08,46.2179,1,2.73644,-438.509,6354.98,-27578.4
1.49486e+08,9.97736,0,2.67481,2080.21,218.156,-28109.1
1.49506e+08,84.6708,1,2.57255,-10814.1,14109.1,-26156.6
1.49518e+08,4.70798,2,2.50829,79.7076,-339.758,-28447.6
1.49743e+08,140.641,1,2.79513,-26282,-9171.89,-18754.9
1.49767e+08,201.801,0,2.75576,-20067.9,-5055.1,8215.45
1.49953e+08,105.638,1,2.9907,-7656.41,5804.56,-8846.25
1.50101e+08,74.4944,0,2.58661,1078.43,-13258.3,-22520.9
1.5038e+08,3.3454,1,2.91252,-171.879,593.961,-29318.9
1.50498e+08,100.246,2,2.36514,-2544.46,-10682.4,-10618.7
1.50828e+08,130.634,2,2.71679,-13170,-21608.7,-17800.8
1.50866e+08,29.3385,2,3.00462,2835.06,-3581.26,-28977.4
1.51123e+08,18.4885,2,2.99384,-1562.89,-252.2,-25247
1.51478e+08,23.3742,2,2.92512,487.027,-4954.88,-28556.6
1.51597e+08,207.389,1,2.76751,-3358.66,-3532.39,-27513.5
1.51892e+08,14.5866,0,2.64089,2736.68,-1625.04,-28922.8
1.52317e+08,19.4917,2,2.98508,-1572.63,3382.64,-27197
1.5243e+08,57.2933,1,2.63545,-9662.85,3886.34,-22532.4
1.52509e+08,4.81737,0,2.40336,600.26,-569.909,-28127.4
1.5254e+08,100.68,2,3.04742,-18894.2,-2137.17,-19756.3
1.53657e+08,31.6883,0,2.39399,5968.87,2119.22,-26352.9
1.53699e+08,146.147,0,2.53556,-6452.8,16883.2,-3797.18
1.53777e+08,4.93564,2,2.70739,-727.562,-410.188,-28120
0,5.03383,1,2.4805,0,0,0
0,5.0853,1,2.88981,0,0,0
1.53792e+08,165.06,2,2.49733,5393.1,18411.1,256.495
1.54138e+08,106.69,0,2.94987,7751.62,-19877,-21935
1.54213e+08,2.55447,0,2.50929,-260.867,120.751,-28401.4
1.54252e+08,91.1724,0,3.01171,-1194.3,14783.7,-16822.2
1.54264e+08,113.322,1,2.77547,16812.6,13673.9,-18767.5
1.54296e+08,207.384,2,2.46657,-15125,13157.3,10171.6
1.54675e+08,47.5003,0,2.61356,9942.88,-972.127,-27068.8
1.54716e+08,139.387,2,2.70389,-10801.9,-16384.3,-6878.63
1.54754e+08,62.0906,0,2.4458,10377.7,1488.67,-20831
1.54785e+08,148.728,0,2.60316,17891.2,-13297.7,-6640.88
1.55751e+08,124.574,1,2.9558,-8416.95,5539.88,-4684.21
1.55955e+08,96.4355,2,3.05396,-15172.9,-12235,-23223.1
1.56067e+08,54.4666,1,2.46148,-11537.8,1048.93,-28348.7
1.56769e+08,3.10376,0,2.81148,-86.2493,521.169,-28448.7
1.56998e+08,94.0047,1,2.40066,7441.5,5100.34,-11101.5
1.57078e+08,8.11447,0,2.86081,1162.92,1362.66,-28970.5
1.57131e+08,123.174,1,2.70265,25584,4330.63,-29198.6
1.57196e+08,3.92058,1,2.94832,-715.807,148.567,-28347.5
1.57369e+08,142.74,2,2.73999,-6810.58,-25071.7,-13541.1
1.5747e+08,161.664,1,2.60385,2305.37,20393,-1500.26
1.58273e+08,98.4925,0,2.54032,10006.8,-10872.1,-14099.5
1.5837e+08,53.8477,1,3.01917,3485.83,10226.1,-29518.4
1.58402e+08,107.455,1,2.81142,8930.29,-11449.4,-11559.8
1.5847e+08,51.3283,2,2.59907,5146.62,-2913.71,-19744.9
1.58516e+08,81.6011,2,2.377,-16677.5,208.507,-24172.4
1.59e+08,73.9759,2,2.61771,803.452,15141.3,-25285.3
1.59182e+08,20.5487,2,3.00631,-3361.82,-2679.16,-29751.1
1.59238e+08,44.1665,2,2.69399,-5864.64,6735.91,-26237.3
1.59434e+08,70.6205,1,2.43327,6475.65,7469.97,-17609.4
1.59471e+08,105.172,1,2.77875,-19797.8,5966.32,-20732.9
1.59509e+08,111.473,1,2.68586,11609.5,12688.8,-12807.2
1.59619e+08,147.477,1,2.75911,-10669.2,-9193.45,-1155.48
1.59659e+08,247.362,1,2.71974,-22034,13998.9,16295.5
1.59676e+08,7.03573,2,2.4184,1461.52,-159.377,-28693.4
1.59829e+08,58.9443,1,2.74476,9097.79,-2869.34,-20923.9
1.60469e+08,169.088,1,2.62778,12081.9,14638.7,1398.69
1.60492e+08,149.025,0,2.60851,-5384.62,21250.5,-6307.75
1.6055e+08,43.6349,2,2.53228,-76.5247,4298.41,-20697.6
1.60902e+08,42.9604,2,2.39707,-3242.23,-8572.66,-28314.2
1.61025e+08,30.9476,1,2.48224,-3729.08,1749.82,-23663.8
1.61115e+08,68.2958,2,2.71349,12850.2,-1591.9,-22582
1.61367e+08,20.2601,1,2.67052,-2250.91,2649.21,-26220.4
1.61413e+08,185.999,1,2.60179,-25395.3,29869.6,-25181.4
1.61783e+08,128.133,0,2.82682,-18998.2,-3530.52,-10116.4
1.61824e+08,79.034,2,2.50007,3251.12,-14851.4,-21723
1.61998e+08,53.4364,1,2.93317,5872.35,6612.09,-21901.6
1.62494e+08,72.5822,2,2.78536,15166.2,1149.16,-27753.5
1.62806e+08,13.7029,0,2.56235,-1435.93,1897.11,-27258.6
1.62892e+08,25.8453,0,2.8444,4868.26,981.866,-26414.9
1.63079e+08,167.305,2,2.44444,-19537.9,-26946.7,-16568.9
1.63637e+08,62.3318,0,2.83491,6439.99,-1526.31,-18187.1
1.63661e+08,157.37,0,2.60943,7873.51,-735.196,-20030.9
1.63972e+08,31.8244,1,2.60197,-4381.48,-4863.07,-27275.6
1.64666e+08,15.7172,2,2.50318,2299.7,1175.7,-26842.3
1.64715e+08,92.4397,1,2.86597,-9582.86,3647.52,-16141.2
1.65021e+08,6.77041,2,2.54671,-728.724,-1102.82,-28111.5
1.65185e+08,92.6845,0,2.54325,-6881.23,-14516.5,-17678.7
1.65204e+08,63.7753,1,2.90359,5891.82,11390.8,-24775.1
1.65304e+08,49.3251,0,2.58885,10311.6,1120.43,-26999.7
1.65342e+08,62.477,2,2.61854,-9826.79,3184.55,-20569.9
1.65686e+08,52.4837,1,2.93115,7807.33,-656.28,-21123.5
1.65884e+08,30.5612,1,2.99125,4972.28,141.055,-24801.1
1.66067e+08,11.9865,0,2.36915,1648.62,132.547,-26817.7
1.66297e+08,144.935,2,2.6376,-6904.95,-22503.7,-9188.65
1.6637e+08,46.5681,1,2.92467,-5655.94,8092.38,-29474.8
1.66814e+08,63.0103,0,2.57023,5261.21,-7837.89,-19393.2
1.67399e+08,2.98761,2,2.67324,-500.052,-508.032,-28653.7
1.67509e+08,0.997843,1,3.00461,-204.492,170.55,-28690.3
0,1.00175,1,2.95368,0,0,0
1.67595e+08,154.274,0,2.64061,15732.9,10772.1,-11939.7
1.67697e+08,32.4137,2,2.79631,-4443.69,3859,-25345.9
1.67873e+08,228.88,0,2.95571,19081.3,-29327.3,-6923.93
1.67973e+08,64.8482,2,2.78869,-13432.7,-2801.96,-28325.6
1.68197e+08,80.6472,2,2.99517,-3019.61,-9703.76,-15246.6
1.68302e+08,12.6151,1,2.464,1549.16,2014.36,-27843
1.68387e+08,219.083,2,2.79774,-29994.2,-11932.7,4139.71
1.68737e+08,135.428,2,2.63211,3036.13,-22866.5,-11855.7
1.68898e+08,37.7479,0,2.81098,2677.53,7192.82,-26585.5
1.69078e+08,54.0138,2,2.99854,-91.5958,-10926.7,-25528.8
1.69716e+08,23.0764,0,3.06107,-1394.77,1434.76,-24468.3
1.69997e+08,8.50382,1,2.56836,290.262,1359.41,-27603.9
1.70004e+08,3.35866,2,2.69257,-297.077,-703.31,-29143.8
1.70177e+08,5.4754,2,2.79101,-592.702,448.339,-27945.2
1.70226e+08,115.017,0,2.87274,-9356.21,-20572.5,-21631.2
1.70591e+08,106.687,1,2.86313,-5669.34,12306.1,-10896.8
1.70762e+08,136.618,0,2.80516,3670.33,-13195.2,-3581.16
1.70843e+08,138.099,1,2.62847,-3862.72,17182.3,-5532.89
1.70848e+08,70.9142,2,2.78947,12720.4,-3073.61,-21659.3
1.7095e+08,324.604,1,2.83866,6564.84,-2665.86,-29898.8
1.7099e+08,116.366,0,2.98306,18835.6,2867.98,-13482.2
1.70997e+08,99.5834,2,2.51594,-2302.23,-15092.5,-14245.9
1.71203e+08,24.2905,2,2.65378,-166.919,-4627.22,-26467.4
1.71265e+08,73.9416,2,2.98755,1600.44,10075.2,-17230.5
1.71282e+08,45.4076,2,2.85271,-4344.57,-8341.05,-26731.1
1.71819e+08,90.8633,2,2.6539,-5837.39,-10019.4,-13486.7
1.72281e+08,20.0012,0,2.7138,1588.13,-3768.64,-27612.5
1.72314e+08,208.346,2,2.8549,-18339.2,9404.01,9812.2
1.72435e+08,23.37,2,2.65548,2664.45,-2765.82,-25694.8
1.72467e+08,3.18052,1,2.95482,-282.744,-12.9757,-28189.3
1.72635e+08,48.1904,0,2.7593,3712.63,4455.46,-20458
1.72769e+08,14.7024,1,2.83755,-1778.8,1942.68,-27050.4
1.72823e+08,91.0047,1,2.79695,-11930.2,6938.42,-15471.3
1.72918e+08,27.0177,0,2.60676,2061.52,-4071.57,-25330.1
1.7296e+08,104.373,2,2.70081,11968.5,5564.12,-11266.9
1.73023e+08,0.355816,2,2.74818,-39.071,-179.603,-28819.1
0,0.390578,2,2.90154,0,0,0
1.73125e+08,4.05612,2,2.43319,-436.488,522.535,-28314
0,4.1564,2,2.71464,0,0,0
1.73145e+08,19.3459,2,2.76928,2091.7,1036.6,-25510.8
1.73167e+08,36.4164,1,2.72367,-1275.57,-4622.09,-22868.1
1.73337e+08,88.8057,1,2.60871,-10238.9,420.068,-13080.7
1.73859e+08,63.0254,2,2.8471,-4402.33,-4984.13,-17324.8
1.73931e+08,80.8149,2,2.55667,-13724.8,7328.91,-21788.5
1.73941e+08,3.89869,0,2.73103,-256.661,-672.402,-28480.6
1.74133e+08,28.9941,2,2.76521,2648.05,-3638.74,-24670.1
1.74334e+08,5.24234,2,2.83397,306.283,-798.338,-28067.3
1.74651e+08,19.8004,1,2.71258,447.637,-3759.07,-27228.5
1.75008e+08,61.1781,0,2.75021,-5901.79,-3097.53,-17825.6
1.75104e+08,99.2506,1,2.9867,-2995.24,18245.3,-19143.2
1.75909e+08,98.2383,1,2.38943,8822.4,11252.5,-13728
1.76051e+08,40.6437,1,2.84781,-4045.91,7655.44,-29078.9
1.7641e+08,7.20315,0,2.36942,1174.78,603.817,-27920
0,7.77233,2,2.66195,0,0,0
1.76498e+08,144.816,1,2.60967,-20966.8,19127.6,-17212.1
1.76536e+08,5.87484,0,2.9521,-77.8603,485.804,-27682.7
1.76542e+08,132.519,0,2.42161,8691.06,23971.2,-17087.3
1.76712e+08,100.42,0,2.42185,5855.18,-14735.6,-14628.9
1.76909e+08,109.051,1,2.87308,-5015.29,-1860.11,-17370.7
1.77268e+08,91.6546,0,2.67463,3322.89,11160.1,-13377
1.7767e+08,130.117,1,2.85988,-3522.55,-18950.6,-9516.34
1.77754e+08,19.6727,1,2.45463,2291.06,2019.26,-25948.5
1.77773e+08,49.8597,0,2.77155,4306.91,5334.9,-20812.3
1.77978e+08,97.9201,1,2.78601,1492.61,19739.1,-22892.6
1.78424e+08,10.2978,2,2.93347,-1290.1,-1595.08,-29781.8
1.78879e+08,186.837,2,3.03934,-4569.01,-22513.4,-15617.8
1.78983e+08,76.019,2,2.58469,-7458.69,4856.43,-15442.7
1.79099e+08,113.941,1,2.94312,1118.63,-5120.85,-27080.6
1.79266e+08,164.963,2,2.6882,14941.9,-4238.28,2291.28
1.79418e+08,252.234,0,2.49921,18324.5,-24233.1,26.1359
1.79427e+08,77.715,1,2.65745,4269.33,9134.42,-15912.1
1.79484e+08,10.9924,0,2.54393,-304.043,-1162.55,-26845.2
1.79571e+08,62.2047,2,2.98051,3738.07,-6686.76,-18226.3
1.79717e+08,142.008,2,2.71389,-8526.56,25531.3,-20801.6
1.79826e+08,25.1801,1,2.53404,-1606.95,1257.01,-23896.2
1.79862e+08,93.8683,2,2.55436,295.094,-13794.4,-14499.4
1.79935e+08,18.5192,1,2.46443,-3209.47,-178.149,-26546
1.80433e+08,131.248,2,2.67216,11254.1,-7966.24,-4858.89
1.80958e+08,149.707,1,2.76993,13148.9,16852.1,-5648.38
1.8099e+08,183.308,1,2.65749,28985.6,24718.9,-22049.9
1.8113e+08,16.3477,1,2.45566,-1071.01,-3241.9,-29084.2
1.81167e+08,8.03125,2,2.4998,-641.487,1088.24,-27714
1.8118e+08,13.5375,1,3.03919,808.783,2798.25,-28510.9
1.81271e+08,48.561,2,2.95218,5091.36,-1836.24,-20229.1
1.81437e+08,43.9503,2,2.84663,-6105.45,1327.63,-21980.9
1.82258e+08,65.9508,1,2.85585,6891.16,9068.65,-20865.9
1.82502e+08,14.9057,0,3.03224,1558.06,1273.37,-26379.6
1.82627e+08,3.96204,2,3.0272,-579.584,-638.55,-28480.9
0,3.97993,2,2.63372,0,0,0
1.82639e+08,13.0835,0,2.45552,2586.99,-803.835,-27878.4
1.82818e+08,189.257,0,2.76488,5711.61,-21589.4,4178.7
1.8298e+08,231.903,2,2.47685,22175.3,-21440.6,4947.81
1.83221e+08,137.539,0,2.38598,5413.39,26928.9,-19148.4
1.83438e+08,3.60412,1,2.62377,676.64,375.023,-28710.7
1.83514e+08,18.1193,0,2.60639,1754.95,2407.48,-26389.8
1.83641e+08,48.3651,2,2.53521,-5437.95,5165.41,-21924.2
1.83991e+08,72.0001,0,2.63555,6600.43,-3642.8,-15585
1.84027e+08,53.1843,0,2.50434,3728.9,3775.94,-18880.9
1.84295e+08,41.909,2,2.53331,2593.13,-6902.14,-23837
1.84349e+08,111.621,1,2.89263,-12337.7,1873.97,-17532.2
1.84717e+08,54.9787,0,2.85679,-10495.1,-1742.79,-24524.5
1.8481e+08,8.14886,1,2.59341,-297.35,895.145,-27342.1
1.84871e+08,14.3054,0,2.99827,3029.64,673.775,-28898.9
1.84983e+08,24.1824,0,2.91388,1739.96,4632.79,-27461.8
1.85291e+08,16.7396,2,2.81297,-2004.25,-2356.05,-26998.2
1.85403e+08,66.7488,2,2.81698,8446.52,-5583.27,-19064.8
1.85539e+08,89.6327,1,2.85367,-2174.09,18503.8,-25466.5
1.8565e+08,44.492,2,2.76712,-8084.68,2488.12,-28497.4
1.85788e+08,105.875,2,2.80279,2197.18,-20730.8,-20802.8
1.85819e+08,115.582,2,2.41919,14719.7,-7819.2,-10951.7
1.85954e+08,287.528,2,2.85967,-5759.45,13571.6,-23270.1
1.86027e+08,40.1412,2,2.81162,2838.58,-3425.72,-21626.6
1.86176e+08,162.837,0,2.53913,1704.6,-5132.91,-12618.3
1.86341e+08,111.106,1,2.44232,-23389.8,587.761,-26161.6
1.86447e+08,29.9106,2,2.83751,3581.92,2711.21,-24515
1.8657e+08,68.0144,0,2.51914,6136.83,513.564,-15782.5
1.86721e+08,41.1068,0,2.36899,-3973.23,1651.04,-21301.9
1.86994e+08,31.6156,2,2.9747,342.019,-5176.84,-24607.8
1.87311e+08,72.9704,2,2.62369,2084.02,7643.14,-15641.4
1.87477e+08,37.2904,0,2.5884,5073.72,2374.48,-23199.6
1.88043e+08,77.3587,2,2.62406,-1033.31,-14368.6,-20997.3
1.88058e+08,16.4031,2,2.88429,1120.39,-3013.11,-27385.7
1.88289e+08,5.33935,0,3.01119,147.039,-785.7,-28053.8
0,5.18514,0,2.57123,0,0,0
1.88457e+08,134.719,0,2.87116,10305.7,6661.94,-3307.37
1.88494e+08,24.373,2,2.50522,1856.61,-4455.66,-26812.9
1.88629e+08,10.1672,2,3.0098,143.502,-1966.84,-27808.3
1.88911e+08,5.85384,2,2.89909,638.851,-1077.96,-28522.3
1.89459e+08,7.01576,1,2.6665,732.917,745.785,-27765.4
0,7.00795,1,2.9803,0,0,0
1.89508e+08,88.1263,1,2.72397,5350.42,-15037.3,-19448.4
1.89706e+08,127.553,2,2.96235,-13084.9,17854.1,-13820
1.89779e+08,63.9669,0,2.5488,7211.36,-11486.1,-28044.1
1.90474e+08,21.7606,2,3.00869,1932.25,-2159.17,-25256.5
1.90531e+08,111.313,2,2.90142,-11414.2,-7706.96,-9887.52
1.90614e+08,11.5432,1,2.95118,1449.31,983.221,-27138.9
1.90702e+08,129.118,0,2.57713,19586.8,-18045.8,-22664.9
1.90714e+08,34.5706,0,2.48642,5490.64,-2097.23,-24345.9
1.91167e+08,72.3578,1,2.83179,-1727.76,-10570.4,-18532.7
1.91275e+08,17.4361,2,3.0303,-2341.66,-2787.06,-29788.4
1.91626e+08,70.6554,2,2.59829,-5243.31,-2496.36,-15070.5
1.91851e+08,129.539,2,2.59249,27210.8,2087.7,-27272.3
1.91952e+08,14.8626,0,2.69201,1078.44,2576.74,-27305.1
1.92116e+08,56.6707,2,2.98821,-4310.84,-10890.9,-26334.4
1.92837e+08,3.70263,0,3.05133,-428.687,-601.476,-28722.8
0,3.00205,2,2.78152,0,0,0
1.9294e+08,149.663,0,2.78368,12169.6,4741.77,-142.673
1.93095e+08,17.9605,1,2.86295,-3724.68,-869.436,-29108.4
1.93191e+08,150.067,0,2.59646,16013.1,20055.6,-14103.8
1.93193e+08,38.1715,1,3.03989,2724.7,-6136.56,-24562.3
1.93817e+08,45.4291,1,2.66567,3202.5,3609.92,-20536.2
1.94184e+08,167.885,1,2.51787,19906.5,20584.1,-7799.48
1.9441e+08,15.5184,0,2.74268,-15.2804,-1288.81,-25842.4
1.945e+08,20.3873,2,2.94695,-1567.22,-3393.61,-26594.8
1.94888e+08,37.157,0,2.37983,6710.16,2357.85,-25262.6
1.94941e+08,145.058,0,2.90434,26929.2,5690.54,-15600.7
1.95408e+08,107.49,2,3.06078,-20783.2,2224.84,-20339.5
1.95929e+08,38.7402,2,2.89193,3779.9,1127.64,-21743.8
1.95988e+08,29.8596,1,2.43597,688.453,-3207.17,-23457.1
1.96153e+08,95.8803,2,2.45868,-18564.2,4949.63,-22219.3
1.96212e+08,62.9615,1,2.43641,9827.9,8275.21,-25142.6
1.96451e+08,98.9404,1,2.5734,19591.2,5774.5,-24374.7
1.96524e+08,140.484,1,2.6997,13528.9,24208.8,-18298.7
1.96886e+08,25.6722,1,2.4606,1534.57,4258.49,-25702.9
1.9697e+08,233.094,0,3.04497,-22647.8,-2957.09,14240.1
1.97731e+08,19.7759,2,2.8211,-3303.47,-2109.1,-27165.1
1.98833e+08,2.03074,0,2.52767,426.247,-6.836,-28550.2
0,2.0133,0,2.84728,0,0,0
0,1.99235,0,2.62733,0,0,0
1.98915e+08,122.834,2,2.90273,-25219.6,5556.13,-28265.1
1.99094e+08,16.7798,0,2.468,2422.09,-1675.11,-26705.5
1.9921e+08,77.2602,1,2.94926,-7127.02,11261.2,-19460.9
1.99371e+08,83.4783,2,2.97492,-11500.3,5620.99,-16853.7
1.99388e+08,134.001,1,2.65689,-12187,9500.63,-5146.41
1.99438e+08,3.4812,0,2.73041,-366.73,606.075,-28737
1.99634e+08,43.816,1,2.37782,5555.7,-2496.56,-21867
1.99737e+08,12.7118,0,2.39254,-845.72,-1804.45,-27017.4
1.99812e+08,49.5123,0,2.47027,2587.16,-7544.74,-21983.9
2.00097e+08,173.934,1,2.55204,12030.1,-22686.2,-2597.89
2.00877e+08,54.519,0,2.37743,7923.96,-7784.48,-25424.3
2.0088e+08,98.1702,2,2.41117,-3951.91,-8219.2,-10134.8
2.009e+08,73.8399,1,2.99412,-13539.1,6355.55,-24504.9
2.01054e+08,33.5795,0,2.8069,6843.76,-1808,-29834.2
2.0106e+08,84.8725,2,2.65459,12057,-5737.55,-16886.9
2.01314e+08,59.104,0,2.86046,-3639.42,-8677.3,-20756.9
2.01473e+08,73.9391,0,2.89914,14000.9,1466.04,-22063.6
2.01574e+08,319.01,1,2.96744,-13856.9,-18475.2,-18075.9
2.01637e+08,102.094,2,2.61475,11504.4,-7468.15,-12193.6
2.01775e+08,144.582,2,2.81241,-18016.7,-24583.3,-27372.6
2.02173e+08,136.452,0,2.42665,2204.57,2617.58,-25792.2
2.02205e+08,66.6138,1,2.80502,-23.6216,9397.19,-18346.7
2.02285e+08,48.5641,0,2.60491,4845.69,356.966,-19754.2
2.02715e+08,88.7893,1,2.46744,-15635.8,-5701.53,-20096.2
2.02765e+08,192.11,1,2.91048,2864.8,-11645.5,-9252.54
2.03143e+08,20.1188,1,2.68754,-1619.69,3973.91,-29614.7
2.03295e+08,260.361,1,2.67371,-14363.2,17597.7,21187.7
2.03377e+08,22.7853,1,2.63507,-1901.83,-4070,-27165.6
2.03509e+08,26.1877,2,2.75897,-2085.83,3367.19,-25002.5
2.03668e+08,24.7466,1,2.59722,-5016.03,1486.92,-29711.5
2.03668e+08,31.508,1,2.77569,-4148.82,-983.941,-23701.6
2.04123e+08,103.487,0,2.42284,-9499.8,-4517.5,-9684.32
2.04156e+08,9.70855,1,2.84322,141.583,1018.12,-27013.9
2.04584e+08,114.586,0,2.85538,-10084.7,8965.66,-10784.7
2.04616e+08,48.8342,0,2.86902,-6149.4,996.307,-20738.6
2.04706e+08,8.20942,1,2.72698,-1425.89,1032.19,-28328.3
2.05283e+08,53.042,2,2.99958,2526.28,-10606.5,-26307.1
2.05302e+08,4.61741,1,2.82289,449.852,895.238,-28702
2.05615e+08,48.1234,0,2.92976,-6971.6,7083.64,-27225.7
2.05771e+08,38.9009,0,2.99165,6097.99,3479.1,-24520.6
2.06146e+08,37.279,1,2.89745,4708.91,6240.24,-29991.7
2.06219e+08,122.912,0,2.66598,15200,-2476.52,-7915.41
2.0655e+08,101.219,1,2.60609,-11939.3,-8609.1,-13315.3
2.06762e+08,144.147,1,2.82048,28228,11058.8,-27832.2
2.07198e+08,97.5813,0,2.68841,-13559.7,-10649.6,-20503.3
2.07294e+08,73.3351,2,2.83649,-13591.6,2522.43,-21905.8
2.07607e+08,149.014,2,2.84452,-22609.4,-16439.1,-14507.2
2.07635e+08,1.81887,1,2.97652,-239.86,-64.386,-28550.8
2.07653e+08,208.35,0,2.8356,18753,-10158.3,9463.65
2.07815e+08,66.5582,0,2.66871,-6070.15,11889.8,-24533.6
2.07836e+08,293.101,1,2.44532,1200.8,4059.82,-25342.2
2.07888e+08,121.769,0,2.65139,20842,10437.6,-17875.6
2.07919e+08,21.212,2,2.63215,3047.63,-2601.21,-26757.7
2.07994e+08,16.598,2,2.76837,1521.02,-3137.76,-28161
2.08e+08,110.752,2,2.65565,-12219.9,-16245.8,-17148.4
2.08324e+08,52.3232,0,3.0183,-239.959,9869.88,-24064.6
2.08345e+08,93.6513,1,2.93693,-6263.71,5326.85,-10932
2.08515e+08,97.3707,1,2.71659,-14467.5,-1017.26,-14303.4
2.08746e+08,46.7541,2,2.72157,891.797,-9563.73,-26235.7
2.08983e+08,17.47,0,2.47711,1620.44,-1368.09,-25737.2
2.09066e+08,60.136,0,3.02349,1736.63,5236.21,-17474.5
2.09288e+08,68.1227,0,3.00366,98.5453,12680.8,-22210.5
2.09578e+08,33.2041,1,2.97923,-3582.43,-623.335,-22873.6
2.09679e+08,5.06684,2,2.95665,622.429,90.9874,-27979.1
0,5.07764,2,2.52062,0,0,0
2.0989e+08,55.0787,2,2.89778,-1191.22,-8933.73,-21485
2.10224e+08,4.48055,1,2.9535,94.7899,987.018,-28588.9
2.11474e+08,51.1935,0,2.78443,3705.27,5955.93,-20611.8
2.11739e+08,36.0139,1,2.45467,-1619.47,7534.85,-29141.5
2.11881e+08,49.101,0,2.9618,6912.44,4260.26,-22395.5
2.11993e+08,99.0628,1,2.6223,-201.028,-21.9889,-28986.3
2.12156e+08,7.26724,2,3.03283,-756.921,-706.929,-27620.1
0,7.2412,2,2.57873,0,0,0
2.12223e+08,5.04288,2,2.38714,-891.426,-778.338,-28836.7
2.12234e+08,6.35732,0,2.55428,385.655,1335.23,-28986.5
2.12359e+08,114.553,2,2.73619,-1598.01,21774.6,-18681.1
2.12364e+08,15.7649,2,2.44341,-1633.8,-335.511,-25913
2.12537e+08,41.405,1,2.62892,4720.89,7305.88,-27556.1
2.12919e+08,300.115,0,2.71033,-27658,-11352.2,22266.2
2.13095e+08,24.0328,1,2.56307,412.408,-4873.86,-27700.3
0,23.5946,0,2.69696,0,0,0
2.14074e+08,70.3959,0,2.43553,-5634.52,-2455.28,-21863.2
2.14339e+08,120.118,2,2.94432,-14923.1,5705.14,-9362.39
2.14364e+08,28.3607,0,2.86104,-1553.81,-4686.42,-25491.1
2.14479e+08,12.994,0,2.56044,822.252,1856.83,-26940.7
2.14662e+08,125.789,2,2.56234,-980.386,-3590.95,-24782.6
2.15536e+08,47.8882,2,3.00517,7904.59,-3776.69,-23930.2
2.15776e+08,150.323,0,2.70623,8477.5,21486.4,-7134.14
2.15824e+08,12.1017,2,2.77613,962.882,-1980.49,-27444.2
2.1603e+08,168.324,1,2.42895,25413.6,-20462.8,-14741
2.16202e+08,2.46428,1,2.84775,-494.377,309.069,-28694.1
2.16509e+08,309.338,2,2.82066,-25739.8,-29288.3,23274.1
2.16551e+08,37.7793,2,2.6754,-3164.95,-1402.1,-21606
2.16843e+08,93.9514,0,2.42992,19150.6,3558.33,-24382.6
2.16928e+08,80.6016,0,3.04911,-8865.69,5909.39,-15763.1
2.16988e+08,73.4415,1,2.73052,-6735.68,8510.41,-17727.5
2.16992e+08,22.6107,0,2.58562,-3397.62,2221.67,-26416.2
2.1721e+08,35.4958,0,2.48138,915.489,-4689.58,-23015.3
2.17469e+08,133.022,2,2.48647,-27702.5,-4048.14,-25495.2
2.17582e+08,19.9766,2,3.03443,-2787.04,2411.34,-26887.8
2.17675e+08,144.868,1,3.03752,24322.5,11258.6,-14596.9
2.18112e+08,198.302,0,3.00075,18144.8,13626.7,6006.19
2.18533e+08,4.15107,1,2.9618,-633.686,-533.576,-28495
0,4.20901,1,2.40157,0,0,0
2.18668e+08,180.306,0,2.8711,20956.8,-16030.3,-1593.82
2.18684e+08,179.634,1,2.7533,29427.4,17016.7,-12192.2
2.18793e+08,59.1515,0,2.83512,9826.79,-6273.79,-24283.1
2.18848e+08,39.8818,0,2.78658,7078.02,-3885.81,-26255.6
2.18859e+08,23.6697,2,2.96075,3270.71,-3749.64,-28216.6
2.19196e+08,67.3667,0,2.97107,9029.72,-6552.75,-20072.8
2.19198e+08,227.139,0,2.57232,6869.38,2078.71,-26327.6
2.19465e+08,228.7,0,2.75142,3490.57,-20429.5,-3151.91
2.19815e+08,31.6953,1,2.40498,-4732.56,-4223.17,-26589.1
2.20275e+08,65.9731,0,2.59777,-2210.1,-3889.52,-28264
2.20544e+08,122.052,2,2.87591,1784.5,-22543,-16636.5
2.20719e+08,23,1,2.56112,-1961.67,3123.21,-25563.2
2.20762e+08,95.7553,2,2.50963,7547.37,16439.8,-19871.4
2.21124e+08,14.971,0,2.6955,2931.63,1082.87,-29766.4
2.21307e+08,109.399,1,2.51329,-15834.7,-4769.46,-12662
2.21588e+08,129.781,1,2.97327,5999.42,-13122.4,-5798.74
2.21613e+08,21.5491,1,2.79509,-469.024,-1577.42,-27327.1
2.21768e+08,77.563,1,3.05498,-14397.6,6827.86,-25264
2.21867e+08,23.5906,2,2.55664,4525.51,811.571,-26948.6
2.22177e+08,54.6968,2,2.82715,455.84,-4970.65,-18452.6
2.22243e+08,109.815,2,2.44737,-2374.54,-22022.3,-21542.8
2.22465e+08,48.2123,0,2.98573,9292.85,4193.89,-28657.9
2.22483e+08,57.4662,2,2.39671,-2727.98,3562.95,-26106.8
2.22581e+08,137.596,1,2.86013,18674.3,12863.7,-10873.8
2.22714e+08,137.495,0,2.92269,-1949.33,-12777.9,-3045.35
2.2274e+08,79.7433,0,2.72788,8394.84,-2275.36,-14390.9
2.23124e+08,82.5011,1,2.65454,12997.5,8126.71,-20540.2
2.24092e+08,7.53204,2,2.90014,-1259.98,-1084.53,-28501
2.24357e+08,88.0245,0,2.63053,14488.7,3725.82,-17677.9
2.24563e+08,12.3015,1,3.0529,-1864.32,-1531.44,-27935.6
2.24866e+08,63.8672,2,2.4891,-13163.4,-2823.57,-26960.8
2.24887e+08,98.2297,0,2.5555,10583.2,15748.5,-20347.8
2.25356e+08,112.187,0,2.75105,4690.81,-16412.1,-12501.4
2.26293e+08,23.7905,1,2.42956,-2208.05,-59.8474,-24318.4
2.26377e+08,38.1746,2,2.91146,77.7281,-5962.32,-24680
2.26452e+08,14.6097,2,2.77312,1508.18,-406.775,-26176.7
2.27316e+08,1.11737,0,2.91646,130.77,-82.979,-28601.9
0,1.10154,0,2.82942,0,0,0
0,1.11819,0,2.81533,0,0,0
2.274e+08,47.5822,0,2.64453,8653.87,5118.12,-29894.8
2.27725e+08,79.2689,2,2.48061,-5014.52,-9474.76,-15873.4
2.27805e+08,39.5205,2,2.40907,-3319.02,-6312.83,-24333.3
2.2797e+08,94.6823,2,2.909,-9847.9,-3807.01,-11929
2.28067e+08,93.5662,2,2.74381,-5318.92,-17729.7,-21816.8
2.281e+08,7.61285,2,2.85794,-1557.38,195.448,-28352
2.28321e+08,6.17539,2,2.74021,-1287.04,-7.8732,-29320.6
2.28624e+08,104.649,1,2.91672,6351.95,-16995.6,-16541.6
2.28629e+08,113.448,1,2.46956,20107.7,12930.9,-26457.6
2.29116e+08,77.836,0,2.8517,14817.5,1428.09,-21845.4
2.29393e+08,83.1839,2,2.77898,-800.564,-15792.9,-21147.1
2.29918e+08,88.3335,0,2.80683,14681,-6468.35,-19318.9
2.29937e+08,83.4506,2,2.82875,1143.99,-12790,-16770
2.30144e+08,164.265,0,2.42526,22954.4,11869.5,-5511.7
2.30475e+08,42.3228,2,2.47327,4117.27,-4359.43,-22171.6
2.30846e+08,60.6513,1,2.96113,-4842.49,10451.4,-23205.6
2.30858e+08,55.2636,0,2.96932,8517.54,5830.72,-23433.1
2.30927e+08,27.54,0,2.52986,4117.86,-2053.89,-25134.1
2.31048e+08,100.237,2,2.7969,-12321.5,-8050.32,-13676.2
2.31473e+08,119.557,1,2.90878,14359.3,-5125.63,-8926.71
2.31766e+08,99.8042,1,2.63349,-14084.2,-14812.6,-23845
2.31963e+08,3.57588,1,2.49074,-303.695,464.824,-29473.3
2.32116e+08,2.68092,1,2.99466,-579.734,315.32,-28815.5
2.32372e+08,264.063,2,2.77513,28489.3,-24306.1,12232.9
2.32379e+08,80.4809,1,2.54569,-12237.5,11815,-26928.2
2.3249e+08,22.7005,2,2.73068,2987.88,-2354.47,-25915.7
2.32643e+08,16.4398,0,2.73478,3475.66,-530.852,-28225
0,17.1447,1,2.85554,0,0,0
2.32746e+08,8.218,2,2.70239,-54.6117,-1357.53,-27651.9
2.33035e+08,32.934,0,2.42972,3651.11,6017.29,-29022.5
2.33252e+08,4.17996,2,3.05082,470.115,-731.243,-28468
2.33399e+08,29.3185,2,2.6567,814.453,3946.62,-24190.1
2.33615e+08,135.743,1,2.97344,16397.2,-8344.76,-7185.36
2.34179e+08,13.2645,1,2.8406,-865.986,835.253,-26264.6
0,13.5305,0,2.63796,0,0,0
2.35265e+08,48.5173,2,2.94493,-6119.22,891.945,-20698.4
2.35681e+08,30.9069,2,2.87608,2950.35,-4301.63,-24890.4
2.3616e+08,201.916,2,2.7705,17502.7,433.758,-2722.34
2.36549e+08,26.8802,1,2.39086,4107.79,450.592,-24946.8
2.36661e+08,145.766,2,2.45647,-19028.2,-24211.6,-26214.2
2.3678e+08,78.9276,2,2.37953,-1556.55,-7620.29,-27201
2.36934e+08,25.9507,2,2.71025,177.903,-4494.83,-25577.5
2.37032e+08,98.8434,0,2.59234,-17128.9,11808.7,-27841.4
2.37115e+08,146.676,1,2.97807,-26769.7,8586.54,-16168.1
2.37173e+08,150.459,1,2.43005,-24011.2,20228.7,-23045.2
2.37451e+08,115.428,2,2.73254,-10363.7,-4746.6,-20658
2.3765e+08,117.225,0,2.81366,-16829.3,-15400.1,-19615.3
2.37724e+08,28.7773,2,2.91231,3871.15,-4448.54,-27367
2.37786e+08,4.15344,2,2.98689,5.61177,464.178,-28123.4
0,4.07492,2,2.72462,0,0,0
2.37963e+08,10.9401,0,2.44938,-1551.95,-156.99,-27152.6
2.38015e+08,2.48086,1,2.78941,-377.258,5.23369,-28402.4
0,2.49046,1,2.82207,0,0,0
2.38109e+08,6.844,1,2.60617,-575.181,1268.65,-29519.6
2.3812e+08,51.775,0,2.8028,-8012.37,5611.27,-24126.3
2.38198e+08,83.912,1,2.62333,3701.46,10122.2,-25885.7
2.38664e+08,86.2926,0,2.64114,18287,953.317,-28442.3
2.38872e+08,28.5085,1,2.58217,-1693.38,4105.62,-24647.4
2.39403e+08,24.4117,0,2.70487,4701.78,2327.33,-28464.1
2.39817e+08,2.89665,0,2.92157,71.452,611.499,-28989.8
2.39937e+08,49.1851,2,2.76315,-2274.52,-7245.75,-21685.4
2.40247e+08,85.6998,2,2.54249,-15457.5,-5566.73,-21031.4
2.40359e+08,62.2497,1,2.40983,-6188.23,-3879.08,-17849.1
2.41113e+08,23.6667,2,2.52679,-5033.72,-658.6,-28880.9
2.41379e+08,59.1912,0,3.04384,9983.06,-2474.7,-21755.4
2.41475e+08,14.6768,2,2.44707,-2873.82,1227.35,-28570.2
2.41944e+08,9.57818,1,2.43157,-1625.72,-369.472,-27628.2
2.42082e+08,108.824,2,2.47643,-8899.95,-8113.76,-9184.18
2.43133e+08,100.07,0,2.66781,16170.5,11088.7,-20820.3
2.43516e+08,81.5151,2,2.93206,13525.6,308.036,-18401.2
2.43559e+08,17.3707,1,2.52735,1094.42,3415.33,-27742.3
2.43578e+08,25.9046,2,3.00387,-3632.12,-2021.9,-25220.5
2.43876e+08,140.362,2,2.52724,7859.62,-19997.8,-8303.35
2.43926e+08,8.45494,1,2.87072,361.982,1835.62,-29005
2.44025e+08,65.1473,1,2.89469,-9600.44,8002.53,-23063.6
2.44342e+08,129.804,0,2.59313,11682.5,1146.9,-9262
2.44744e+08,221.844,0,3.02129,-5965.83,-299.598,-25394.6
2.44849e+08,72.0413,2,2.83012,-8717.72,-147.727,-16429.6
2.44885e+08,28.4464,1,2.57141,1245.02,5864.84,-27718.1
2.45155e+08,53.5858,1,2.5391,9016.29,1717.18,-22200.7
2.45198e+08,303.006,1,2.55731,7601.73,25448.6,8630.67
2.45315e+08,91.6655,1,2.66294,-2264.55,15237.9,-18902.6
2.45447e+08,66.827,0,2.53802,3318.43,-11569.2,-21369.5
2.4556e+08,96.145,0,2.5664,9332.71,17966.9,-26678.9
2.45564e+08,24.3656,1,2.38743,1083.12,4762.79,-26970.7
2.45671e+08,14.7451,1,3.03671,-2898.17,-14.7393,-27606.1
2.45696e+08,123.939,2,2.41334,-13944.6,9551.57,-8778.55
2.4599e+08,46.6631,1,2.70917,5585.05,7807.93,-26443.4
2.46009e+08,199.737,2,2.51443,26509.1,-18848.7,-1876.35
2.46013e+08,152.644,1,2.78293,19202.2,-23041.8,-17609.1
2.46063e+08,5.3922,2,2.827,-421.513,828.495,-28204.2
0,4.95799,1,2.76974,0,0,0
2.46281e+08,37.6148,1,2.40302,1281.83,6470.23,-24302.6
2.46511e+08,85.3656,0,3.04465,-8841.71,-10457.4,-17414.8
2.46799e+08,135.036,0,2.87869,542.9,-4423.95,-29506.2
2.47127e+08,159.795,1,2.798,-1972.46,-21750.9,-3327.36
2.47511e+08,134.5,1,2.95179,-23221.6,1222.54,-12799.5
2.47845e+08,33.4731,2,2.97353,468.097,-5565.22,-24474.8
2.48073e+08,4.5374,0,3.03432,1062.68,91.2504,-28719.4
2.4809e+08,5.84708,2,3.04913,-495.031,875.054,-28162.4
2.48107e+08,99.8369,0,2.95769,-6214.92,-18004.8,-20131.4
2.48298e+08,68.4828,1,2.81997,12223,-6354.07,-24750.4
2.48376e+08,139.185,1,2.85468,-15924.4,17001.1,-11043.5
2.4852e+08,82.3675,0,2.64062,-8531.57,8491.43,-16315.8
2.48808e+08,58.6732,1,2.58644,11758.3,221.056,-25001.5
2.492e+08,20.3041,1,2.94258,2144.5,3771.18,-28843.5
2.49284e+08,77.2276,0,3.03699,8904.03,-12904.2,-24552.9
2.49699e+08,27.6731,1,3.01928,4812.44,3312.92,-28673.1
