#class tools::wcsv::ntuple
#title time
#separator 44
#vector_separator 59
#column double eventID
#column double t(ns)
#column double copynumber
#column double energy(eV)
#column double x(mm)
#column double y(mm)
#column double z(mm)
157677,35.3051,1,2.91888,-6987.09,1827.51,-26813.8
582701,19.1667,2,2.84653,549.812,3090.81,-26355.4
893150,41.8534,0,2.62148,-4923.96,-2294.09,-21932.4
1.27566e+06,79.1238,0,2.66174,1878.27,10558.6,-16004.1
1.32982e+06,86.7667,2,2.46554,4282.51,-8832.67,-13299.8
1.40229e+06,87.5272,0,2.43387,5227.4,8700.97,-13303.2
1.44711e+06,10.7311,1,2.78027,-1953.69,234.505,-27614
1.60915e+06,62.8126,2,2.88433,11495,6170.91,-27208.1
1.69517e+06,143.886,1,3.01445,-22970.6,19141.3,-24281.1
2.11743e+06,82.3233,0,2.65794,-8215.98,542.489,-13594.9
2.18338e+06,56.8264,0,2.67391,8163.81,-5361.65,-21777.1
2.23474e+06,118.615,2,2.68848,-4273.18,10553.6,-6590.47
2.41771e+06,205.46,2,2.77649,-7244.44,-26372.8,4726.46
2.62042e+06,23.7833,0,2.95903,1736.19,-1620.41,-24409.2
2.88911e+06,90.6958,1,3.00782,6486.74,17110.7,-23609.6
3.02503e+06,8.37123,1,3.02886,-1610.37,-76.4423,-28016.4
3.12919e+06,53.5813,2,2.46537,-7009.87,-4552.9,-21079.5
3.3773e+06,51.3692,0,2.4521,8646.05,-6186.93,-26167
3.62602e+06,116.05,0,2.44524,19352.6,-9043.67,-16645.8
4.05581e+06,164.111,0,2.52669,-16591.3,16691.2,-3404.36
4.25598e+06,18.4694,0,2.60972,3076,-1001.08,-26500.8
4.47698e+06,121.703,2,2.87369,-14719.4,-3510.06,-8177.85
4.60272e+06,43.1459,2,2.82011,6469.39,-6386.34,-29612.9
4.65513e+06,85.9675,1,2.98977,-17102.2,-5752.94,-29749.9
4.87985e+06,26.4641,2,2.71172,-3712.57,-3043.38,-25839.2
5.12113e+06,73.2813,1,2.62081,-5959.78,8425.61,-17211.8
5.16605e+06,77.3101,0,2.81278,1214.62,-11505.5,-17413.1
5.3896e+06,7.04751,2,2.40894,-351.74,-1168.97,-27846.6
5.39637e+06,137.393,1,2.47322,-12957.7,-3702.33,-3064.49
5.55169e+06,79.4536,2,2.83285,-7633.98,8397.46,-16579.1
5.72247e+06,63.2678,0,2.45543,13398.2,1282.92,-27924.9
5.88505e+06,147.274,1,2.9189,-16471.2,26275.8,-29582.7
6.51052e+06,71.2665,2,2.91593,-11162.3,659.886,-18836.9
6.58439e+06,22.2947,0,2.68021,4706.81,-904.467,-28785.5
6.63107e+06,130.298,0,2.55485,-15487.5,-18132.9,-15105.7
6.84862e+06,29.744,0,2.99881,5255.42,-2822.42,-26739
6.95173e+06,116.331,1,2.71334,651.697,15924.7,-10151.8
6.95688e+06,14.0678,0,2.68873,2197.75,-2025.15,-29455.8
7.15215e+06,21.2583,2,2.49135,1701.88,-3643.45,-26712.4
7.17044e+06,39.1331,0,2.84032,5503.7,-5381.12,-25717.4
7.84146e+06,123.011,2,2.78744,-11464.3,-16856.9,-12749.8
7.98054e+06,133.537,2,2.43457,-25399.8,6210,-18121.2
8.10447e+06,13.8096,2,2.62159,-367.812,2368.64,-27213.9
8.37915e+06,80.1052,0,2.36685,-8235.24,-1689.78,-14128.6
8.80218e+06,73.0961,2,2.41334,-7958.51,-2171.47,-15694.7
8.80824e+06,28.6664,0,2.87319,-2678.51,5280.93,-27758.5
8.84445e+06,120.986,2,2.48137,-19259.2,-7702.19,-13806.5
8.85011e+06,149.416,2,3.04444,-23175.2,-5864.7,-8575.45
8.8803e+06,122.142,1,3.01127,-8581.18,3721.13,-16111.6
9.27821e+06,8.98608,0,2.86666,1485.19,1282.46,-28557.9
9.32407e+06,0.104491,2,3.53831,-6.10247,-111.634,-28821.9
0,0.166094,2,3.29528,0,0,0
0,0.116011,2,3.0268,0,0,0
0,0.127223,2,3.57475,0,0,0
0,0.102428,2,2.73868,0,0,0
0,0.103317,2,2.73628,0,0,0
0,0.104449,2,2.20493,0,0,0
0,0.103412,2,4.01597,0,0,0
0,0.10299,2,2.74236,0,0,0
0,0.0995357,2,3.70141,0,0,0
9.32873e+06,145.412,1,2.88704,2935.59,-16459.1,-3343.98
9.36015e+06,19.7036,2,2.47528,1636.09,1118.62,-25216.7
9.70851e+06,75.9762,0,2.46422,5167.97,3753.64,-14080.7
9.73893e+06,37.167,1,2.99206,7043.55,3233.28,-27926.8
9.91921e+06,107.49,0,2.52007,-7897.9,-5501.33,-8273.79
1.00169e+07,72.963,2,2.74939,-6833.07,-13224.4,-24646.6
1.0152e+07,39.3422,1,2.90696,-1077.3,-3860.85,-26832.7
1.03399e+07,102.451,2,2.99236,-14203.4,-12558.6,-18556.8
1.10464e+07,88.306,2,2.81352,-16217,4075.53,-20643.5
1.17021e+07,73.8848,2,2.87146,-7662.89,13344.8,-26854.7
1.18049e+07,107.55,2,2.65394,6681.09,-15952.4,-14420.6
1.20051e+07,53.7005,0,2.49999,-5361.73,8807.41,-24125.6
1.23445e+07,91.1327,0,2.62543,-3237.88,17965.4,-26206
1.24568e+07,115.687,0,2.81559,10887.3,-7474,-8349.35
1.24627e+07,135.346,2,2.61045,-1067.62,-25287.6,-15391.2
1.26959e+07,27.2022,0,2.39281,2428.46,5260.63,-28358.7
1.30906e+07,19.7462,2,3.03938,-2452.51,-2487.79,-26464.5
1.35762e+07,14.8108,1,2.94738,1387.8,504.009,-26108
1.3632e+07,9.01404,0,2.89662,182.9,-1624.93,-27799.1
0,8.96392,0,2.58358,0,0,0
1.39054e+07,121.329,1,2.79371,-18957,16115.6,-22857.2
1.41311e+07,5.86797,0,2.64484,428.381,-1220.61,-28834.4
1.44022e+07,9.22757,2,2.4477,-1656.86,-726.595,-29791.9
1.46524e+07,17.8382,0,2.80715,-2688.34,1944.1,-27197.5
1.47439e+07,169.461,1,2.9847,-22738.4,14114.6,-5381.35
1.50433e+07,81.1639,1,2.62673,-6070.69,10770.4,-16879.1
1.50455e+07,22.8872,2,2.44872,2646.17,552.134,-24845
1.51244e+07,143.96,2,2.47634,25869,-2192.76,-12946.9
1.54525e+07,112.424,1,2.95432,3810.15,6763.23,-16147.8
1.55247e+07,101.665,2,2.75025,-11996.3,-2242.2,-11193.6
1.60806e+07,136.113,1,2.54141,22392.6,-5936.46,-13226.7
1.61258e+07,157.645,0,2.69635,-19088.4,13707.3,-5420.21
1.63873e+07,95.8248,1,2.86491,-3657.01,18906.9,-22657.8
1.64086e+07,39.1243,0,2.45302,3838.52,-5814.51,-24271.9
1.6478e+07,140.924,1,2.82332,14212.2,3796.29,-14461.3
1.64893e+07,26.8483,2,2.39949,-2257.81,-2248.44,-24072.2
1.65291e+07,75.5939,2,2.98451,-2904.18,-9857.47,-17696
1.65898e+07,69.2871,0,2.60854,11534.3,-8614.5,-25777
1.67402e+07,143.444,1,2.99611,-2613.37,17903,-6463.69
1.69017e+07,100.171,0,2.40583,732.703,-13285.2,-12313.2
1.69228e+07,124.692,2,2.46436,-19078.6,982.317,-10634.9
1.73748e+07,85.5541,1,2.48907,-16881.2,-3157.8,-22982.7
1.74625e+07,54.8476,2,2.70215,7782.46,-3582.55,-21066.2
1.74847e+07,56.4954,1,2.91976,2561.47,6898.17,-19462.6
1.74872e+07,56.8965,2,2.82408,-3120.32,-3077.69,-17658.3
1.74929e+07,47.8489,2,2.69068,-9855.94,362.708,-26396.7
1.74952e+07,18.6297,2,2.89252,-2725.51,-1972.3,-26689.1
1.75353e+07,156.12,2,2.95991,-26894.5,-12012,-14353.6
1.75413e+07,24.1825,2,2.77794,-1747.21,-4855.42,-28124.3
1.77323e+07,19.5481,2,3.01562,122.214,-2393.76,-25436
1.77669e+07,7.51115,0,2.96103,-607.106,-1445.49,-28857.8
1.78879e+07,82.6078,0,2.51601,11929.6,-7056.05,-18085
1.79845e+07,132.15,1,2.46804,21903.3,10723.1,-15210.9
1.82633e+07,31.8978,1,2.58145,-5507.72,4044.48,-28879.6
1.82859e+07,88.081,1,2.6507,6656.78,15929.9,-21784.2
1.84541e+07,1.35017,0,2.89303,-23.0407,-171.335,-28600.6
1.86385e+07,182.795,2,2.80176,-2639.2,-2858.53,-25869.1
1.87674e+07,173.303,2,2.60849,27748.6,-23691,-25538.5
1.88372e+07,9.77218,0,2.61879,1536.43,1022.34,-29953.2
1.88481e+07,43.483,1,2.80839,5781.72,6333.01,-25532.1
1.89649e+07,11.48,1,2.67343,-305.507,2332.83,-27927.3
1.90948e+07,99.1971,1,2.47644,2715.5,1352.85,-25142.7
1.91214e+07,64.6188,2,2.46404,313.678,-13146.5,-24809.8
1.92563e+07,58.3963,2,2.62402,-5943.91,-9040.91,-22731.2
1.93513e+07,33.6411,1,2.40188,1827.23,6216.55,-25691.3
1.95916e+07,8.00896,1,2.79348,469.23,1500.47,-28072.6
1.9658e+07,182.44,2,2.81644,-7180.13,18372.2,4051.41
1.96952e+07,39.7485,0,2.82716,3272.02,2249.49,-21417.2
1.99037e+07,10.3758,2,3.04215,-2079.55,88.0057,-27990.3
2.04371e+07,7.68376,0,3.00215,829.391,1313.31,-28250.3
2.04735e+07,24.4684,2,2.82091,-2959.47,-4287.61,-29593
2.04762e+07,31.0052,1,2.58464,-2217.88,2966.15,-23370.3
2.07991e+07,73.9559,1,2.96145,3792.89,9183.57,-16863.7
2.08178e+07,30.9974,1,2.48121,-3833.31,5441.32,-29166.1
2.1238e+07,92.0891,2,2.84573,8261.98,4186.32,-11871.6
2.15338e+07,59.6384,0,2.43695,2784.75,-9978.29,-21574
2.18971e+07,42.8553,2,2.68639,-2144.98,-7015.21,-23446.5
2.20882e+07,116.428,1,2.62308,16553.6,3061.03,-10957.7
2.2236e+07,15.6414,0,2.66277,2940.73,-1605.13,-29232.8
2.24282e+07,2.99015,1,2.44188,269.766,231.898,-28275.6
2.28402e+07,54.8775,1,2.53292,1273.67,11589.9,-28353.8
2.39917e+07,28.3106,1,2.76592,3174.26,-875.493,-23908
2.40428e+07,126.061,1,2.69206,1834.74,8439.38,-24685.4
2.43555e+07,124.775,2,2.74555,-7246.29,-18185.3,-11196.5
2.49059e+07,208.072,0,2.60998,-23532.1,-23442.6,-161.504
2.52075e+07,61.0935,2,2.91803,-9022.25,6875.63,-22854.4
2.54578e+07,110.72,0,2.65611,14328.7,9816.89,-13120.6
2.55139e+07,65.6095,0,2.9176,-4600.77,-12352.2,-24837.4
2.561e+07,100.561,2,2.50282,-19693.4,-2651.29,-21061.7
2.56375e+07,49.8697,0,2.39514,-3695.11,3472.66,-19616
2.57576e+07,52.7461,0,2.73994,21.0524,-10748.9,-25903.5
2.58959e+07,57.8155,2,2.96307,1609.39,-7667.42,-19540.5
2.60035e+07,154.606,0,2.96782,29922,971.561,-16158.8
2.6014e+07,151.947,2,2.42367,8941.36,-26332.2,-12578.1
2.61575e+07,13.3181,1,2.77315,-1151.49,1609.82,-26746.9
2.61627e+07,134.587,1,2.74564,8415.67,26611.9,-24127
2.64523e+07,188.424,1,2.94122,9685,17926.9,5062.71
2.6551e+07,13.7601,0,2.6233,1794.58,-1301.66,-26851.6
2.68532e+07,48.6452,1,2.60826,707.434,4970.63,-26694.1
2.68849e+07,44.0422,0,2.96362,2072.36,-7398.59,-23641.7
2.71802e+07,152.708,1,2.61678,-17850.1,25425.7,-19881.9
2.72518e+07,9.72105,0,2.46542,360.503,-1449.69,-27367.5
2.74875e+07,61.7854,2,3.02328,240.421,8332.27,-20472.7
2.7572e+07,146.326,2,2.80493,19552.6,8637.17,-6901.42
2.75745e+07,61.1197,0,2.82491,-5046.35,-5815.6,-18581.5
2.81432e+07,36.6756,2,2.67484,7288.26,1775.42,-27052.6
2.82345e+07,99.0062,1,2.44215,13428.5,15657.9,-24953.5
2.84749e+07,13.0185,2,2.43718,-23.8965,-2109.21,-26971.4
2.85413e+07,182.108,2,2.52375,-3805.48,-25217.4,51.6989
2.86131e+07,149.039,0,2.98655,21195.6,-11286.6,-8737.76
2.88858e+07,39.4581,2,2.78184,-2450.9,-7911.48,-27336.3
2.8953e+07,162.716,2,2.63696,-29524.9,7808.04,-13057.8
2.91213e+07,98.9405,2,2.58794,-16256.1,2097.14,-15811
2.92426e+07,3.78485,1,2.92621,-32.7222,874.762,-28833
2.93588e+07,28.2948,2,2.96059,-207.122,-6021.79,-28445.6
2.93687e+07,80.7769,1,2.74324,-2893.76,13369,-18832.1
2.9507e+07,31.861,0,2.57548,-1981.73,6356.84,-27927.1
2.97589e+07,16.4171,2,2.42653,-3392.38,-1109.33,-28983.7
2.98625e+07,54.6715,0,2.8225,6440.51,-2483.02,-19572
2.995e+07,25.9634,2,2.60949,-991.167,-3415.9,-24567.5
3.00488e+07,73.4863,1,2.96735,-10678.2,-10168,-24320.2
3.01842e+07,53.8972,2,2.37405,-7167.77,-2670.21,-20291.3
3.03653e+07,4.33536,1,2.75432,37.9198,838.629,-29387
3.04586e+07,8.3623,2,2.9938,939.732,-1466.32,-28373.1
3.05549e+07,173.884,2,2.7257,7544.02,-19314.4,-12110
3.09123e+07,56.342,1,2.7214,-5881.19,9120.55,-23818.1
3.12889e+07,71.1774,1,2.76832,3864.34,6617.7,-15928.6
3.17338e+07,172.208,0,2.55578,25973,16204.1,-9023.17
3.21786e+07,47.8235,2,2.56856,-5573.69,126.257,-20356.2
3.27403e+07,26.674,1,2.84172,1887.18,1531.86,-23758.3
3.30046e+07,90.1804,1,2.42536,-6446.7,-5007.03,-11585.7
3.33349e+07,29.3893,2,3.05298,3.31161,6033.61,-27874.3
3.33848e+07,61.888,2,2.63964,8419.14,-4833.46,-20099.3
3.35265e+07,148.506,2,2.45863,17320.7,-17503.2,-9293.23
3.37896e+07,102.911,1,2.99225,-18258.1,8399.18,-20781.6
3.38012e+07,11.9546,2,2.92243,625.653,1339.35,-26868.1
3.42547e+07,64.6347,2,3.01418,-9147.12,-4106.84,-19656.4
3.48528e+07,13.6113,1,2.92988,272.751,-2026.19,-26903.8
3.49171e+07,64.0704,1,2.65847,-417.333,12886.6,-24483.5
3.49879e+07,4.88426,0,2.8783,725.814,628.868,-28315.4
3.51244e+07,68.6224,1,3.02063,4970.46,4858.06,-16220.8
3.51542e+07,120.186,0,2.67229,-15400.1,-13073.2,-13602.1
3.522e+07,254.148,0,2.6367,-5528.11,-28188.3,13948.1
3.53109e+07,125.004,0,2.43161,21228.5,-15903.1,-27898.9
3.54269e+07,103.9,0,2.41779,19299.7,-9823.24,-24647.3
3.55879e+07,40.5716,1,2.77405,3366.05,-7704.78,-27680.5
3.60415e+07,68.0404,1,2.83732,2212.46,13269.8,-23711.9
3.62437e+07,124.007,2,2.67489,97.9523,-18538.2,-10310.3
3.65153e+07,118.71,0,2.84859,-12201.6,-1550.76,-7161.58
3.67562e+07,33.3965,1,2.83609,-4017.87,797.934,-23075.6
3.732e+07,27.1467,0,2.79213,-2198.48,-3918.05,-25349.3
3.74585e+07,5.65197,0,2.98022,828.942,573.943,-28070.6
3.76135e+07,146.561,2,2.92089,-19144.7,-1986.23,-4801.71
3.77725e+07,63.5578,0,3.05299,6726.07,11173.2,-25893.6
3.78324e+07,154.227,2,2.89768,-17851.4,-23134.8,-25315.8
3.78489e+07,11.5289,0,2.53208,-1208.05,111.279,-26774.3
3.79617e+07,97.9062,0,2.68784,-12256.3,-8333.32,-14509.3
3.79763e+07,58.3625,1,2.56774,-9097.63,-1004.95,-20509.8
3.82504e+07,107.684,0,2.85574,17106,-14365.4,-28178.9
3.82684e+07,87.9713,0,2.48562,7258,1301.01,-11702.4
3.84154e+07,78.9446,1,2.51768,-6029.67,15679.8,-28499.3
3.84403e+07,86.1707,1,2.86144,-12078.2,13586.7,-29881.2
3.85205e+07,83.3248,2,2.86624,4431.49,-14331,-19692
3.85498e+07,1.35513,0,2.4825,300.433,103.336,-28664.8
3.90148e+07,153.604,0,2.39401,-6693.63,20975.6,-4929.54
3.90242e+07,9.65029,1,2.71538,85.8789,-1123.2,-27180.9
3.91325e+07,0.955333,1,2.49295,-213.174,215.318,-28887.7
3.93014e+07,126.403,0,2.68417,19624.4,495.839,-10728.2
3.95625e+07,97.5063,2,2.66789,-20464.1,-1628.26,-27034.5
3.95782e+07,62.6997,0,2.50076,-4472.77,-4979.11,-17409.9
3.9837e+07,4.28891,1,2.86804,-892.567,69.0657,-28475
4.03504e+07,193.145,2,2.90308,-21451.6,22546.9,-3048.61
4.0389e+07,108.195,2,2.7925,-8465.48,-6121.96,-8553.1
4.0719e+07,9.45091,1,2.79149,1516.59,1347.97,-28929.6
4.08559e+07,61.3028,1,2.45353,-3693.53,-770.331,-22563.9
4.17143e+07,46.5456,2,2.7497,614.296,-5157.61,-20464.3
4.17606e+07,17.7538,2,2.80901,704.582,-3177.66,-26883.7
4.18356e+07,40.3115,2,2.39172,-0.28621,-5251.26,-22042.6
4.20735e+07,51.2223,0,2.51918,675.831,-10821.4,-28110.4
4.25089e+07,156.987,2,2.56858,3884.65,-17582.3,-931.51
4.29422e+07,199.444,1,2.55391,-16513.9,22895.4,2549.57
4.31786e+07,109.756,0,2.77264,9747.54,-21019.3,-29169.7
4.3738e+07,33.2167,0,2.57206,1655.52,194.888,-28786.2
4.39749e+07,128.016,2,2.83563,18350.5,3931.63,-14640.9
4.4043e+07,167.272,0,2.60263,-21451.7,13954.5,-26890
4.42481e+07,29.6398,1,2.78349,-3565.14,-772.675,-23737.7
4.44297e+07,42.8027,1,2.4702,1677,6607.82,-22798.9
4.48269e+07,54.6196,2,2.64732,1818.3,-9378.41,-23440.1
4.49473e+07,160.102,1,2.57456,-22199.6,6660.16,-4130.43
4.49742e+07,40.2802,1,2.9136,-2868.16,3767.1,-21746.4
4.54512e+07,77.7798,1,2.87826,-3556.66,-9645.95,-16139.3
4.59874e+07,77.6012,0,2.62952,-7619.08,-6451.03,-15864.9
4.62383e+07,2.5542,2,2.61254,246.521,-396.908,-28469.6
4.65241e+07,3.76635,2,2.74125,336.137,423.392,-28301.9
0,3.80618,2,2.39468,0,0,0
4.65926e+07,9.62925,1,2.72245,-1480.71,531.46,-27487.1
4.66067e+07,230.756,2,2.91392,11735.1,-3022.05,-8670.54
4.6726e+07,149.34,2,2.37155,11057.5,28192.7,-20017.4
4.67432e+07,149.49,2,2.88958,-19120.9,11458.5,-6705.7
4.69343e+07,53.9836,0,2.59021,9108.82,-6996.13,-28964.7
4.69924e+07,43.3365,1,2.65084,-8230.89,3258.36,-26313.6
4.71926e+07,29.964,1,2.67813,1325.5,6015.44,-27126.2
4.73235e+07,21.7559,0,2.68062,4240.74,-1932.46,-29094.8
4.73527e+07,49.754,1,2.5195,-6398.25,-4221.86,-21621.7
4.78976e+07,169.872,2,2.98884,-551.53,4621.97,-24264.5
4.80509e+07,60.5956,2,2.55572,-1190.18,5905.54,-17553.4
4.81791e+07,106.201,2,2.71712,10206.6,-19961.1,-28323
4.81908e+07,122.006,0,2.67643,25549.5,-328.47,-27595.4
4.87405e+07,9.59755,2,2.55342,-1888.87,-964.02,-28717.2
5.03081e+07,32.431,0,2.49548,1476.78,-3194.02,-22912.5
5.03484e+07,0.252668,1,2.52529,41.1526,95.4847,-28827.3
0,0.326854,1,2.08524,0,0,0
0,0.472934,1,2.17893,0,0,0
0,0.254904,1,2.46178,0,0,0
0,0.274749,1,3.91195,0,0,0
0,0.240275,1,3.84004,0,0,0
0,0.263958,1,3.45694,0,0,0
0,0.314231,1,3.46356,0,0,0
0,0.308154,1,2.83097,0,0,0
0,0.28411,1,3.91754,0,0,0
5.06372e+07,102.99,0,2.87347,-14415.2,13795.2,-20531.4
5.09853e+07,15.4709,0,2.51826,-682.766,2302.14,-26621.9
5.13215e+07,45.1915,0,2.73298,8199.05,-4927.9,-27752.9
5.16781e+07,45.4077,2,2.36436,-4642.13,1305.06,-20494
5.17473e+07,59.4771,2,2.53542,-6926.05,-7271.81,-21174.5
5.21245e+07,213.413,1,2.72477,11236.9,-28951.4,3593.63
5.24991e+07,3.37628,1,2.60067,118.253,771.481,-28714.3
5.25312e+07,98.0406,2,2.83324,-16994.4,-11750,-27567.3
5.26717e+07,171.877,2,2.78594,-5881.84,-8409.87,-29534.8
5.31014e+07,205.615,0,2.62576,29521.8,17633.7,-2276.86
5.32323e+07,148.139,1,2.59585,8997.91,-15061.1,-6996.43
5.34099e+07,40.1511,1,2.47055,-5746.7,3010.74,-23305.6
5.4555e+07,144.413,0,2.66361,7213.11,27912.1,-18959.9
5.48325e+07,14.6043,0,2.42427,1823.34,-2223.57,-27547.5
5.48809e+07,23.5437,0,2.81582,2214.79,-1486.95,-24601.5
5.49483e+07,76.9321,2,2.87585,-1348.04,-10596.4,-16620.9
5.50934e+07,54.5053,2,2.7061,-10679.2,-4083.83,-26985
5.50939e+07,72.4215,2,2.63358,-14347.1,5073.7,-27077.4
5.51483e+07,10.6123,2,2.53281,-1003.53,-485.015,-26820.8
5.53211e+07,120.706,0,2.4422,3673.14,-12226.1,-6689.93
5.58325e+07,17.0743,1,2.80032,-483.601,3648.46,-28414.8
0,17.1724,1,2.97025,0,0,0
5.60161e+07,67.5738,2,2.67101,8576.72,3436.14,-17997.7
5.6053e+07,36.2748,0,2.86239,374.765,-1801.34,-27083.3
5.62134e+07,105.899,0,2.77761,10193.7,-7336.65,-10355.6
5.6223e+07,37.3305,1,2.93411,-5441.74,3767.9,-24525.6
0,37.3313,1,2.99684,0,0,0
5.6482e+07,51.9739,0,3.03817,3361.53,-6867.68,-21037.5
5.66356e+07,109.211,1,2.76596,-8644.88,11881.9,-17999.2
5.70858e+07,1.97593,1,2.61593,-148.073,503.013,-28739.3
5.7218e+07,31.7476,0,2.51842,2873.85,5078.99,-25450.3
5.7223e+07,17.8132,1,2.73095,-2430.99,248.784,-25914.9
5.79467e+07,128.175,0,3.00532,5861.86,18881.1,-10606.6
5.79599e+07,35.1527,2,3.01516,-6342.9,1132.38,-25171.6
5.80896e+07,5.52332,0,2.57759,822.093,203.122,-27941.6
5.82656e+07,215.948,1,2.615,7328.88,-27071.5,7035.08
5.8394e+07,19.6661,2,2.67762,-2772.3,-3232.18,-28748.9
5.84195e+07,174.098,0,2.6027,10121.2,-23581.7,-2456.13
5.86125e+07,10.0575,0,2.509,-315.805,-2110.98,-28868.9
5.86412e+07,290.408,0,2.93287,-19447.7,26709.4,22346.9
5.88313e+07,11.7626,2,2.43287,-69.344,-2538.53,-29268.9
5.89142e+07,16.5766,2,2.8022,955.215,-2968.37,-27116.1
5.89439e+07,89.1277,1,2.43199,8590.4,-14308.8,-20159.3
5.92096e+07,79.7183,2,2.88855,-13620.4,-5037.09,-20359
5.92809e+07,26.1555,1,2.82342,-3386.88,4009.71,-26857
5.96113e+07,68.126,2,2.37385,12031.2,-3584.11,-21809.7
6.02349e+07,16.6608,2,3.00771,1354.57,1484.62,-26038
6.03995e+07,150.287,1,2.5411,-20675.4,-14347.9,-9439.14
6.04015e+07,97.0886,1,2.52472,-978.535,17138,-17439.4
6.10865e+07,60.9016,2,2.77188,10508.7,-2081.06,-21821.9
6.12117e+07,36.5702,0,2.45325,-602.802,-7113.22,-25813.5
6.129e+07,73.8888,0,2.43455,-3837.83,11880.5,-19448.6
6.15833e+07,56.8353,1,2.56162,-4528.02,5690.41,-19186.7
6.16385e+07,100.333,1,2.68385,-9949.88,2307.16,-10287.2
6.16417e+07,44.399,2,2.44026,-8821.24,2321.58,-26452
6.21045e+07,152.147,1,2.5151,-9677.98,28142.7,-16451.8
6.21132e+07,73.9876,1,2.53287,-3085.62,-14291.2,-25550.8
6.2226e+07,2.43705,0,2.47597,452.442,-262.303,-28556.3
6.22769e+07,81.2173,1,3.05881,14287.6,9220.03,-28297.6
6.25733e+07,162.815,1,2.5481,11284.4,29939.7,-16034.4
6.27649e+07,11.0666,2,2.87973,946.788,-2028.11,-28086.7
0,10.8144,2,2.72189,0,0,0
6.29596e+07,52.7057,2,3.04348,-10912.9,-621.113,-26885.3
6.30558e+07,93.4929,0,2.88627,7822.75,18033.3,-27953.8
6.31843e+07,29.3841,2,2.64771,-5685.66,-2116.94,-27153.5
6.35414e+07,20.8018,2,2.67975,-30.0733,-4480.26,-28673.6
6.36268e+07,112.133,1,2.7336,11259.6,15162.6,-14574.3
6.36639e+07,113.632,1,2.66829,23014.7,6729.87,-28672.5
6.37113e+07,20.3304,0,2.52056,3692.04,564.047,-26533.3
6.43434e+07,167.588,1,2.61192,-27083.3,-2027.61,-6102.04
6.49904e+07,88.1285,2,2.87312,-259.614,8965.62,-12645.4
6.51546e+07,48.0871,2,2.55469,-7860.14,-6364.88,-27053.4
6.52017e+07,150.871,1,2.93691,10646,19459.7,-6215.34
6.54851e+07,120.457,0,2.96298,16755.5,-7079.62,-11238.7
6.58113e+07,36.4686,2,2.79988,3654.79,2879.15,-22771.8
6.64124e+07,3.20954,1,2.37279,382.5,324.338,-28367.4
6.64387e+07,34.4491,1,2.54657,-4084.99,-4330.59,-24634.8
6.66444e+07,63.1505,2,2.77771,-5429.54,-11104.4,-23675.8
6.67557e+07,12.4524,1,2.96996,2516.32,194.202,-28262.9
6.69442e+07,151.583,2,2.48471,-26097.2,-15572.5,-18363.9
6.70583e+07,108.321,0,2.86259,20145.3,827.856,-18150.5
6.72097e+07,56.2953,0,2.88562,-321.928,-10587.4,-23511.8
6.74839e+07,138.31,2,2.8614,13072.1,12861.6,-6320.93
6.75038e+07,116.058,2,2.51831,23295.4,-2914.17,-21765.5
6.75513e+07,85.6169,1,2.46614,612.588,17077.5,-22572.1
6.75967e+07,123.837,0,2.6759,4920.18,-5347.01,-19943.4
6.78519e+07,29.0976,1,2.94293,3889.02,3883.4,-26079.5
6.79398e+07,89.9619,1,2.808,-17301.5,-2803.25,-21587.7
6.81848e+07,158.371,0,2.8269,11857.9,14142.5,-1347.45
6.82031e+07,24.3616,2,2.80404,4915.23,267.647,-27474
6.83876e+07,44.3303,0,2.84589,-1448.34,-6470.85,-22261.8
6.84428e+07,11.6611,1,2.6973,-476.595,-1962.2,-27469.4
6.85466e+07,13.059,2,2.42719,-2838.13,92.6363,-28989.7
6.86014e+07,27.1364,1,2.91,-2518.51,4244.61,-25804.5
6.86882e+07,112.794,0,2.92289,17847.6,-4768.53,-13923
6.90354e+07,174.909,0,2.712,19325.6,-26401.4,-11766.9
6.92548e+07,89.7591,2,2.91986,-6656.46,-17644.5,-28514.9
6.97354e+07,107.035,0,2.42879,17910.4,9946.62,-18989.1
6.97841e+07,32.7583,1,2.65056,4802.43,-1048.21,-24006.3
7.03382e+07,110.361,1,2.86884,-18092,14071.7,-24782.4
7.03588e+07,35.5629,2,2.9721,-6218.34,2239.14,-25368.5
7.04346e+07,8.72012,2,2.43693,-1724.42,-633.633,-28339.6
7.05579e+07,31.2135,2,2.83303,-4479.62,4290.76,-26643.1
7.06735e+07,13.6577,0,2.53408,1228.24,626.2,-26234.5
7.07427e+07,60.991,1,2.79882,-7857.69,-4325.04,-19620.4
7.08407e+07,4.58064,0,3.0208,148.245,-908.695,-28438.9
7.11621e+07,28.3727,0,2.4983,-88.2122,2612.53,-23424.9
7.15009e+07,38.9727,1,2.84867,-2641.55,1526.04,-21185.6
7.16668e+07,61.5399,0,2.67053,-4767.33,-10503.3,-22886.8
7.18758e+07,103.433,2,2.8151,-9325.02,-15925,-17149.2
7.27213e+07,12.3012,1,2.44285,-113.255,2549.87,-29724.3
7.28403e+07,113.223,1,2.56195,-1749.03,-13106.4,-8908.16
7.31523e+07,30.1593,2,2.79868,783.644,-6324.58,-27863.2
7.34038e+07,65.3711,1,2.63372,-12184.9,6107.46,-26131.3
7.34297e+07,53.8553,0,2.67212,1814.46,-9512.16,-22826.8
7.42399e+07,77.7744,2,2.77227,-849.673,-15690.7,-23904
7.45238e+07,22.4987,2,2.56739,-4503.85,-805.194,-27292.2
7.49689e+07,25.3726,0,2.84355,1115.86,-4094.91,-25526.1
7.52945e+07,12.1324,0,2.80384,2002.54,246.325,-27145.7
7.56198e+07,14.6678,1,2.7613,2880.66,98.0595,-27726.2
7.58636e+07,8.09261,0,2.46292,766.824,998.139,-27583.3
7.60282e+07,124.915,2,2.64871,16668.9,19141.3,-21958.4
7.60535e+07,13.5871,2,2.58143,-1248.35,-2247.46,-27370.3
7.61472e+07,199.436,0,3.00428,15287.6,-3981.46,6383.17
7.63638e+07,68.2571,0,2.58876,6571.28,5196.5,-17044.3
7.63911e+07,11.8928,2,2.38668,-259.71,-1325.44,-27580.8
7.6504e+07,119.245,1,2.39498,-12346.3,-12447.7,-10706
7.66859e+07,329.731,1,3.03555,10586.3,-21562.8,-13049.7
7.68539e+07,78.4594,2,2.53164,-15357.2,4168.57,-24005
7.73359e+07,144.974,2,2.73226,-18977.8,-20561.2,-16376.2
7.8069e+07,17.9157,0,2.58923,219.44,2602.2,-26077.7
7.81156e+07,6.71974,2,2.51012,-174.225,-1160.83,-27944.8
7.87799e+07,17.9811,1,2.39764,-2761.63,1007.4,-26300.3
7.87819e+07,11.0408,0,2.38123,2304.2,-361.22,-28170.5
7.88251e+07,195.116,0,2.58092,29735.9,14618.1,-4224.04
7.88624e+07,13.6039,0,2.43585,-1502.83,1121.48,-26711.9
7.97319e+07,13.1859,1,2.97686,-1361.96,-1713.52,-27149.2
7.97456e+07,134.782,2,2.72304,14724.2,-10925.4,-7131.23
7.99808e+07,103.304,1,2.84334,-19684.5,9232.09,-27694.6
8.0259e+07,2.74384,2,2.77584,-354.8,-367.369,-28432.9
8.04211e+07,91.1576,0,2.84921,14333.5,-6319.39,-17826.9
8.04296e+07,90.9604,2,2.46832,-6909.34,10639.5,-14420.3
8.06211e+07,39.1303,1,2.93607,-1457.66,-7912.2,-27426
8.06413e+07,91.6545,0,2.99281,17705.9,-21.7486,-21151.7
8.06526e+07,203.971,0,2.64956,25687.7,-29003.4,-10026.3
8.10498e+07,7.75315,0,2.73996,937.712,-1206.54,-28137.9
8.11648e+07,10.0922,2,2.45142,1531.39,-1542.54,-29128.6
8.13724e+07,110.513,0,2.98279,-15632.3,-15760.4,-22346.5
8.15088e+07,113.64,2,2.60358,-18905.6,-10253.4,-18065.8
8.17456e+07,78.0869,0,3.04811,4986.72,11530.1,-18303
8.18333e+07,16.6149,2,3.00954,3018.22,381.599,-27181.4
8.19454e+07,3.86493,0,2.97435,570.319,279.166,-28246.6
8.21156e+07,40.0175,0,2.96973,6842.35,3311.51,-25054.1
8.21216e+07,200.134,1,2.89501,25679.2,-20162.3,-2438.77
8.23184e+07,154.895,2,2.38879,13354.2,15276.4,-3152.9
8.24378e+07,44.7899,0,2.74759,7509.27,1602.08,-28015.7
8.261e+07,58.711,2,2.38456,-10849.6,4871.97,-25137
8.26229e+07,144.122,2,2.71126,21335.3,7712.69,-8706.31
8.3005e+07,0.621471,1,3.01038,-145.5,146.45,-28751.6
0,0.705366,1,2.87062,0,0,0
8.30168e+07,90.4398,0,2.68951,13845.7,11829.5,-22932.7
8.31772e+07,31.9835,0,2.77422,5185.12,4291.73,-27730.3
8.41041e+07,73.6138,0,2.60781,-4089,-6610.36,-15370.8
8.46904e+07,76.0262,1,2.98368,1672.85,1805.58,-27888.3
8.47529e+07,43.0072,0,2.58808,-1284.91,8882.7,-27375.2
8.49813e+07,68.5044,1,2.48272,12911.6,6575.62,-28479.1
8.49912e+07,44.3245,0,2.85302,7965.28,-24.7055,-23875.8
8.50967e+07,124.06,0,3.02213,-19968.6,-6228.89,-13530.7
8.51407e+07,12.8113,1,2.83655,51.1971,-2325.41,-27554.2
8.51735e+07,85.3283,1,2.50273,4925.07,8478.75,-13646
8.54678e+07,13.7677,0,2.78361,-1557.92,2173.24,-27753.4
8.57225e+07,18.798,0,2.66458,3661.01,-1651.85,-28437.6
8.58116e+07,39.9369,1,2.42792,-7985.94,-1184.42,-26174.6
8.59452e+07,88.7809,1,3.05157,-5737.98,-11212.5,-15198.2
8.60035e+07,47.1949,1,2.3846,-9008.79,-4336,-28943.9
8.63698e+07,33.5719,2,2.59674,2074.52,3636.09,-23144.1
8.64918e+07,130.648,1,2.80003,18302.2,-13122,-13152.3
8.65172e+07,24.0711,2,3.04699,-4852.69,1528.51,-28840.5
8.70027e+07,206.187,1,2.50439,-24428.2,-28104,-6231.34
8.70144e+07,142.785,1,2.64058,7469.18,29229.7,-27213.5
8.70736e+07,24.1784,1,2.82813,2272.3,4481.63,-27631.3
8.71616e+07,37.9327,2,2.44184,-4970.71,-5687.1,-25871.7
8.71807e+07,19.3119,2,2.45661,-3182.76,1561.97,-26773.1
8.72537e+07,18.4221,1,3.01692,1068,-2564.97,-26210.2
8.73654e+07,62.3007,2,2.91606,-2449.65,-6405.68,-17650.2
8.75567e+07,96.8154,2,2.39088,-12688.3,8888.39,-15408.5
8.82329e+07,39.0516,0,2.63072,6024.95,5637.34,-29781.3
8.83401e+07,188.42,1,2.67327,-17481.2,-15021.8,3520.84
8.87116e+07,148.111,2,2.79702,3927.85,-29674.7,-19883.1
8.88017e+07,22.8461,0,2.86366,1895.86,-2852.07,-25393.8
8.88426e+07,22.6201,1,2.69127,-2955.56,3748.51,-27887.5
8.90197e+07,145.175,0,2.79134,-20345.6,15869.7,-12538.1
8.92483e+07,82.4799,0,2.92965,-12789.3,-7922.6,-20368.3
8.92776e+07,70.0976,0,2.39669,-3760.07,-7268.92,-16457.4
8.9433e+07,19.3683,1,2.58645,-1899.49,-1658.7,-25587.9
8.97715e+07,120.645,1,2.38103,-7688.9,23789,-23181.3
8.9773e+07,179.627,0,2.61342,12849.9,8629.33,5802.88
8.98815e+07,53.7982,2,2.79419,4911.05,-7663.16,-22083.6
9.02192e+07,28.1162,1,2.59128,3259.64,3641.7,-25406.8
9.02268e+07,95.6721,0,2.61208,19329.3,2428.56,-23123.4
9.06933e+07,101.393,2,2.58773,-17939.5,9946.64,-22641.5
9.07029e+07,137.902,2,2.88017,6108.45,-20924.8,-9709.57
9.13693e+07,33.6832,2,2.6688,-3711.44,-3691.5,-23929
9.17491e+07,75.18,2,2.78435,-10941.3,2548.71,-17632.7
9.1994e+07,31.182,2,2.68423,-2161.2,-3324.84,-23520.6
9.20655e+07,21.2889,1,2.96583,3324.09,-631.114,-25975.1
9.21018e+07,89.4596,1,3.0421,9428.02,-3648.78,-26999.1
9.22513e+07,89.9182,2,2.71216,-12970.7,7312.17,-17102.6
9.22794e+07,142.637,2,2.65168,7421.89,-28181.2,-21050.9
9.26147e+07,146.714,0,2.66807,-4748.9,-27698.4,-15890.7
9.26999e+07,76.1748,2,2.88354,-13901.1,2378.59,-21177.2
9.28025e+07,32.4294,0,2.81607,2600.69,-755.859,-22522.1
9.29496e+07,56.2299,1,2.48278,-6621.72,7937.31,-22789.1
9.30132e+07,232.293,0,2.71154,18069.3,-18896,-4065.48
9.31355e+07,53.987,0,2.58819,4927.41,-666.081,-18515.9
9.32437e+07,8.51592,0,2.79468,-524.808,-1451.02,-28255.5
9.32844e+07,10.7766,2,2.66699,45.4172,-1169.87,-26821
9.34298e+07,46.1367,1,2.37509,-2098.8,-6256.07,-21691.4
9.3707e+07,24.108,2,2.94573,-1767.19,-733.966,-24115.9
9.37149e+07,30.1795,0,2.98379,648.611,-4308.91,-24213.4
9.37364e+07,5.25011,1,2.48646,728.188,120.047,-28001.6
9.42094e+07,16.6646,2,2.57783,2716.1,31.9219,-26637.2
9.47474e+07,181.331,1,2.54636,-28506.3,25593.3,-25987.4
9.48053e+07,91.7502,2,2.37592,18620.3,-5342.04,-29846.7
9.48769e+07,7.78075,0,2.36901,-242.876,-1333.48,-27879.2
9.53128e+07,67.0015,2,2.93485,-11523.5,-8197.32,-28515.2
9.53523e+07,22.5662,2,2.88875,-1671.44,3728.86,-26486.5
9.5404e+07,30.9069,2,2.74559,-2990.43,-4505.59,-25069.5
9.54777e+07,193.769,0,2.75784,5666.11,-28880.3,-5604.12
9.57207e+07,71.817,0,2.45866,-3386.09,-8615.4,-16825.3
9.59617e+07,33.6282,1,2.39235,-1765.55,7011.01,-28868.1
9.65657e+07,5.69982,0,2.89652,802.174,-289.512,-27911.7
9.76208e+07,80.3462,0,2.59493,12173.4,2499.27,-17171.9
9.76912e+07,14.2038,2,2.51966,-297.536,-2104.87,-26618.6
9.77419e+07,158.417,0,3.01604,19969.3,-24608.9,-18770.6
9.78413e+07,0.301405,0,2.96219,130.641,65.8343,-28839.7
9.8001e+07,105.405,0,2.9881,10239.6,-9634.55,-11715.4
9.82552e+07,145.534,0,2.79953,-3073.18,-23569.5,-9506.69
9.83617e+07,56.3021,2,2.60884,-810.143,-8627.1,-20606.3
9.84991e+07,49.6889,0,2.63677,5252.34,7101.13,-23061.6
9.85907e+07,4.0334,2,2.90781,-425.26,660.718,-28518
9.85945e+07,80.1912,1,3.02032,16038.5,3541.65,-25290.3
9.86763e+07,88.693,1,2.59332,17516.1,2435.26,-22653.6
9.86898e+07,60.0446,1,2.9883,-11345.2,4822.42,-25836.6
9.8862e+07,14.5805,2,2.70695,-836.957,-1910.24,-26469.6
9.88709e+07,67.9323,2,2.54058,2509.52,11612.2,-20847.7
9.90589e+07,148.248,2,2.5374,-21014.4,-7920.4,-6899.55
9.93873e+07,155.25,0,2.83602,17110.5,-9455.11,-6189.68
9.93891e+07,118.678,2,2.76731,4377.66,11614.9,-7381.45
9.95676e+07,162.842,2,2.96298,-11996.9,13939.4,-71.2507
1.00142e+08,4.62694,0,2.58738,139.55,898.947,-28398.1
1.00253e+08,111.159,0,2.37576,18818.4,4035.55,-15165
1.00418e+08,24.0987,0,2.56969,2998.94,3476.71,-26490.2
1.00898e+08,164.533,2,2.86166,-27009.8,-14679.2,-12889.1
1.01243e+08,15.3448,1,2.49794,-580.462,2005.35,-26265.7
1.01261e+08,10.5159,0,2.37856,2039.19,-1126.48,-28696
1.01301e+08,62.8401,1,2.61201,-8595.76,5290.96,-20157.4
1.01726e+08,188.569,0,2.77165,6597.84,3540.72,-17162.1
1.0179e+08,91.4559,2,3.0334,-16817.5,-9197.55,-27165.9
1.0186e+08,90.4578,1,2.70186,-15809.7,-10552.5,-27062.5
1.02167e+08,73.9907,2,2.63493,1668.88,11176.4,-18137.7
1.0245e+08,136.088,2,2.93115,8745.73,-20162.1,-10542.2
1.02709e+08,84.3985,1,2.77045,10827.7,2789.4,-15027.9
1.02718e+08,23.3305,0,2.81019,4676.51,-1158.64,-27443.1
1.02853e+08,93.4508,1,2.58919,-18085.3,-7774.26,-27073
1.03084e+08,90.6111,2,2.60739,-13535.3,-11118.1,-20923.8
1.03223e+08,50.4326,2,2.50373,8916.49,396.742,-23052.7
1.03295e+08,50.3159,0,2.74021,6564.09,-7702.55,-25539.8
1.03864e+08,117.084,1,2.43113,19515.1,15267.3,-28423.3
1.03924e+08,1.6507,1,2.72485,-146.383,41.217,-28483.4
1.04087e+08,49.5896,1,2.97945,-6565.83,2586.4,-24060.1
1.0469e+08,37.3766,2,3.05943,1733.06,-3760.83,-22166
1.04864e+08,115.319,0,2.50719,21689.1,-1377.6,-17652
1.04951e+08,104.07,2,2.71025,-13297.9,17351.2,-27101
1.05031e+08,2.21928,1,2.80581,-294.51,238.354,-28443.4
1.05618e+08,144.592,2,2.47772,-3574.01,22357,-8342.45
1.05926e+08,101.562,0,2.37375,-6726.93,-18756.7,-20804.3
1.06229e+08,46.7973,1,2.76847,8568.78,1772.33,-24306.7
1.06236e+08,71.7864,1,2.96537,-14676.7,-3199.11,-27103.5
1.06755e+08,137.452,0,2.36962,-5799.06,-27752.9,-22362.7
1.07086e+08,24.3122,2,2.55143,-3833.94,311.241,-25351.2
1.07276e+08,58.948,1,2.56306,11225.2,340.039,-23460.4
1.07369e+08,109.122,2,2.76733,2043.6,-9490.54,-7973.87
1.07587e+08,11.9111,2,2.98811,-2547.06,159.208,-28619.4
1.07616e+08,140.2,1,2.48742,-26318.4,5648.62,-17954.3
1.07804e+08,176.884,0,2.45657,-29546.2,2516.37,-6645.45
1.07993e+08,95.4759,1,3.05064,15707.4,12268.4,-27144.6
1.08218e+08,62.8757,1,2.7423,6634.97,4535.16,-18330.3
1.08911e+08,13.0553,2,2.96382,458.444,-2166.16,-27127.1
1.09125e+08,130.023,0,2.74358,23821.1,10401.9,-19918.5
1.0973e+08,6.62354,2,2.52689,-346.795,-634.871,-27583.2
0,6.67055,2,2.91187,0,0,0
1.09767e+08,66.2959,0,2.82337,5765.24,-12418.9,-25955.4
1.10088e+08,74.3542,1,3.00582,6854.09,3280.54,-23826
1.10088e+08,175.973,2,2.65387,14292.1,-8269.97,4408.41
1.10459e+08,12.6956,1,2.91125,1286.94,-1297.2,-26954.7
1.10667e+08,82.3689,2,2.90082,-3560.25,-16703.7,-25507.1
1.108e+08,114.749,2,2.66813,-5070.46,23596.1,-27864.2
1.11e+08,11.5224,1,2.58085,-2270.08,-553.351,-28043.3
1.1123e+08,99.5221,0,2.66992,10267.2,-16065.2,-19893.3
1.11499e+08,39.6675,2,2.8944,6607.71,-4191.97,-25893.3
1.11511e+08,131.574,1,3.02272,25237.7,-6620.59,-29874.6
1.11524e+08,51.2053,0,2.48264,-3876.29,9419.51,-25265.4
1.12095e+08,165.639,1,2.85792,-6389.63,18452.3,-14423.6
1.1214e+08,107.837,1,2.80489,-17986.3,9197.36,-18340.2
1.1224e+08,84.6751,0,2.67476,-4296.67,13988.1,-18597
1.12303e+08,17.7908,2,2.95832,-3688.83,-90.2178,-27934.3
1.12621e+08,15.5233,2,2.68846,1530.43,-2520.33,-27282.4
1.12633e+08,189.424,2,2.71343,-10751.6,-5300.21,-14303.1
1.12707e+08,54.2809,0,2.85522,-5439.44,2783.82,-24826
1.12794e+08,30.9799,1,2.53582,-3243.04,2019.83,-23445.8
1.1293e+08,27.3032,1,2.97061,-1551.79,2334.57,-27737
1.13615e+08,80.6552,1,2.85928,-7443.54,-953.91,-24915.2
1.1458e+08,3.86443,1,2.49192,-162.867,305.319,-28042.2
1.14632e+08,29.7591,0,2.81452,3051.39,-4221.67,-25252.1
1.14743e+08,89.5249,1,2.85563,-8057.08,5097.19,-12559.8
1.14831e+08,11.8522,0,2.68714,-727.931,1989.17,-27557.8
1.15143e+08,12.679,2,2.56795,798.301,-1308.51,-26615.8
1.15173e+08,48.0881,0,2.62832,5026.08,-8647.73,-26707.1
1.15216e+08,0.0231652,2,2.20879,-27.8485,-78.8785,-28806
0,0.0229593,2,3.4159,0,0,0
0,0.0147777,2,4.09689,0,0,0
0,0.0233526,2,3.56825,0,0,0
0,0.0222184,2,2.25588,0,0,0
0,0.0167973,2,2.9217,0,0,0
0,0.0150334,2,2.0843,0,0,0
0,0.0200765,2,2.46547,0,0,0
0,0.0146227,2,3.62296,0,0,0
0,0.0153689,2,3.04028,0,0,0
0,0.0237003,2,3.37826,0,0,0
0,0.0160066,2,3.48084,0,0,0
0,0.0147071,2,3.8026,0,0,0
0,0.0198862,2,2.7636,0,0,0
0,0.0225262,2,2.35332,0,0,0
0,0.015806,2,2.58653,0,0,0
0,0.0156011,2,3.53561,0,0,0
0,0.0187266,2,3.72053,0,0,0
0,0.0179262,2,3.4133,0,0,0
1.15456e+08,50.371,2,2.42805,-5797.77,-8281.34,-25195.8
1.15668e+08,13.7005,2,2.87001,-2048.11,953.593,-26994.4
1.15949e+08,241.943,0,3.01274,4260.84,-27257.1,13687.2
1.16165e+08,23.2843,0,2.90913,3279.38,-3732.73,-29129.5
1.16237e+08,39.147,0,2.39698,-4557.33,5524.7,-24761.4
1.16371e+08,18.9491,2,2.81343,-1140.7,3543.46,-27505.6
1.16383e+08,23.5312,1,2.40092,-3306.86,-1474.67,-25422.3
1.16559e+08,45.1517,2,2.71453,3775.34,-7757.48,-24648
1.16749e+08,66.2019,2,2.65505,10045.8,2741.1,-19552.8
1.17136e+08,59.4245,1,2.82467,6729.34,7504.9,-21365.8
1.17186e+08,95.3251,1,2.88343,-1599.47,-1736.14,-29628.9
1.17313e+08,17.7018,1,2.99905,-1391.49,-567.268,-25407.7
1.17353e+08,33.524,1,2.59326,427.796,6831.72,-26685.7
1.18689e+08,108.571,1,2.43474,-172.434,-12508.9,-9629.32
1.18696e+08,67.8728,1,2.66324,-11844.8,8028.82,-27010.8
1.18908e+08,97.0748,2,2.58675,-6752.06,5742.81,-10327.6
1.19309e+08,75.313,1,2.77829,32.0179,10793.7,-17146.9
1.19325e+08,132.463,2,2.61854,-13108.6,6066.96,-4863.87
1.19898e+08,156.507,2,2.48596,-14610.9,-24862.1,-12452.8
1.20015e+08,57.846,1,2.95081,1934.05,-9706.98,-21867.6
1.20015e+08,117.132,1,2.39957,-23400.2,4180.41,-21588.7
1.20072e+08,74.1246,0,2.93685,-11399.8,9858.67,-25223.2
1.20121e+08,82.9717,0,2.94861,11495.7,10574.3,-20977.2
1.20224e+08,70.3581,0,2.6511,3222.47,-12159.8,-20881.7
1.20393e+08,14.4927,0,2.39666,-817.816,1500.5,-26326.7
1.2048e+08,155.28,0,2.63857,-18527.4,12773.8,-5089.22
1.20571e+08,2.80632,1,2.82524,37.9997,677.668,-28773.7
1.21088e+08,0.725006,2,2.64636,106.447,-63.4602,-28719.5
0,0.735677,2,2.61994,0,0,0
0,0.795217,2,2.40593,0,0,0
0,0.708643,2,2.38336,0,0,0
1.21232e+08,62.2771,1,2.38236,3720.08,12676.8,-27598.6
1.21255e+08,77.1651,0,3.04399,8072.24,-4868.04,-22160.1
1.21277e+08,5.85685,1,2.85476,-944.292,-240.269,-28041.9
0,5.77489,1,2.40104,0,0,0
1.213e+08,13.367,0,2.64276,2115.46,1043.32,-27131.6
1.21538e+08,2.74359,0,2.82055,56.9696,-596.228,-28901.4
1.21617e+08,30.3565,0,2.78817,3590.34,-2488.92,-24075.1
1.22057e+08,42.4017,2,2.93616,-6886.16,5656.4,-28873.7
1.22316e+08,39.8881,2,2.56023,-4889.04,-3931.4,-23105.2
1.22536e+08,216.68,0,2.56825,3406.4,19113.7,12643.9
1.22556e+08,54.0968,0,2.37985,2060.16,-6879.82,-19867.3
1.22571e+08,16.4046,2,2.45145,-2709.47,-2024.22,-27774.9
1.2291e+08,3.40429,0,2.78832,247.09,683.185,-29058
1.23001e+08,43.1965,1,2.53465,6454.39,-2579.78,-22987
1.23315e+08,34.5085,1,2.70498,-5126.3,-5164.9,-29201.8
1.23368e+08,112.882,2,2.57023,16277.6,1699.55,-11507
1.23413e+08,66.6717,0,2.98493,7960.89,7937.28,-20429.7
1.23626e+08,131.324,1,2.69313,7254,8559.54,-3501.29
1.2382e+08,13.2818,0,2.99164,-156.733,-2062.19,-26929.9
1.24001e+08,83.8707,1,2.75574,-6427.92,13136.1,-27127.6
1.24218e+08,25.4004,0,2.68981,-2023.68,-1277.43,-24050.7
1.24292e+08,28.683,1,2.73677,2379.82,-3420.72,-24540.8
1.24424e+08,39.4925,1,2.98515,-4389.53,3010.55,-22406
1.24956e+08,106.983,2,3.03148,-3957.73,-19176.9,-17823.3
1.25597e+08,32.2147,0,2.82185,2768.82,3718.44,-23814.1
1.25783e+08,147.856,1,2.44959,-17908.1,22026.8,-15503.3
1.26129e+08,52.3654,0,2.44345,6200.41,-5816.91,-21627.6
1.26403e+08,21.7955,1,2.63677,2942.94,2954.43,-26876.7
1.2642e+08,18.6144,0,2.6424,3894.02,92.5428,-27766.8
1.27076e+08,13.347,0,2.98949,2561.36,-422.113,-27540
1.27114e+08,206.2,0,2.43116,-6642.23,19381,9675.15
1.27843e+08,171.624,2,3.05663,17183.1,-29662,-24990.4
1.28262e+08,56.2406,1,2.61831,-10999.5,-1868.3,-24685
1.28551e+08,2.31887,2,2.79245,197.028,-436.136,-28547.9
0,2.31718,2,2.86315,0,0,0
1.28695e+08,23.3767,2,2.58278,-980.352,2202.44,-24538.2
1.28794e+08,8.75601,2,2.97291,1548.07,620.176,-28207.8
1.29017e+08,6.42997,1,3.05038,-714.062,592.812,-27779.5
1.29047e+08,54.6808,2,2.79772,9552.54,2851.49,-23207.7
1.29073e+08,241.236,2,2.38317,-25754.6,19877.6,10462.4
1.29237e+08,5.13194,1,2.63955,-667.686,250.638,-27964.8
1.29244e+08,25.013,1,2.83239,-785.738,-4236.57,-25857.8
1.29255e+08,56.5189,1,2.85141,-4938.32,10720.3,-26702.5
1.29259e+08,21.1245,0,2.79397,594.661,-4440.74,-28697
1.29346e+08,14.7562,1,2.4234,2049.2,-115.84,-26522.6
1.29753e+08,92.3673,0,2.50758,4552.79,-6431.13,-10929.6
1.29768e+08,79.3977,1,2.87149,9818.21,3138.13,-15739.3
1.29844e+08,108.793,1,2.90257,4906.52,-10126.9,-8981.56
1.30526e+08,62.4763,0,2.56487,10879.4,2170.4,-21519.9
1.30602e+08,18.6902,2,2.96961,1141.18,-2888.67,-26343.8
1.30614e+08,170.372,2,3.00987,4258.55,-13194.3,4097.22
1.30705e+08,3.97614,0,2.75145,60.5728,579.067,-28193.6
0,3.96288,1,2.75988,0,0,0
1.31114e+08,69.9165,1,2.91097,-14720,-870.525,-28301.2
1.31198e+08,9.97771,0,2.47461,-710.187,658.462,-26986.1
1.31476e+08,166.743,2,3.05838,19208.2,20502,-8219.36
1.31684e+08,114.215,0,3.0443,12295.3,5587.51,-9053.29
1.32146e+08,27.3796,1,2.46943,-3121.48,2758.74,-24735.5
1.32236e+08,2.33572,0,2.92095,143.305,92.7368,-28329.7
1.32501e+08,71.1175,0,2.41752,4655.88,-7178,-16411
1.32587e+08,71.2962,0,2.71908,14268.6,4942.78,-29058.3
1.32601e+08,137.024,2,2.37881,-11858.1,-17434.1,-22309.8
1.32812e+08,23.049,1,2.63363,-3353.97,-1139.6,-25464.4
1.33156e+08,137.572,2,2.45108,9787.92,13581.3,-5072.1
1.33519e+08,142.987,2,2.62621,3422.82,-6677.65,-20715.9
1.33783e+08,59.7397,1,2.51643,-8889.64,4132.88,-20769.1
1.34168e+08,4.65973,0,2.53362,515.665,-850.105,-29159
1.34186e+08,148.246,1,3.00593,-10237.3,28440.6,-29501.4
1.34259e+08,98.8695,2,2.54556,-598,-20719.9,-25638.9
1.34736e+08,60.8109,1,3.01683,327.514,12522.2,-25990.4
1.34794e+08,46.6607,0,2.67949,3740.35,-3793.51,-20501.5
1.35006e+08,42.8119,2,2.38272,-3305.03,-3144.22,-20962.2
1.35266e+08,85.8913,2,2.4169,-15421.8,-3500.33,-19741
1.35502e+08,8.14645,0,2.94818,1456.59,-26.3533,-27821.2
1.3552e+08,128.951,2,2.50832,2224.95,-12097.4,-4478.21
1.35552e+08,62.242,1,2.81273,-4326.04,11974.5,-25373.1
1.35563e+08,53.7582,1,2.57641,-6554.44,4360.51,-20567.8
1.35579e+08,211.183,1,2.90354,-22186.1,15226.9,-1873.24
1.35623e+08,84.2114,2,2.80809,15256.2,-4063.75,-20838.8
1.35963e+08,149.302,0,3.03682,14175.3,17835.9,-7342.59
1.36018e+08,87.1752,1,2.61105,3774.69,16217.6,-20801.5
1.36342e+08,81.9603,0,2.54724,11891.3,-5014.63,-17227.3
1.36362e+08,49.1836,0,2.99668,5235.59,8279.34,-25436.7
1.36911e+08,74.5051,1,2.3642,10488.7,7326.66,-19557.2
1.3695e+08,53.8949,1,2.93393,-10810.1,3208.82,-27338.1
1.36957e+08,18.6711,1,2.76106,3386.17,1963.58,-28199.6
1.37172e+08,72.9959,2,2.77648,-12099.1,5142.71,-20820.1
1.3744e+08,6.93667,2,2.54274,35.4822,498.794,-27450.9
1.37757e+08,5.87301,1,2.39114,1016.42,787.705,-28999.4
1.37867e+08,13.6228,0,2.97943,2406.75,-1708.67,-28568.6
0,13.4989,0,2.43529,0,0,0
0,13.5076,0,2.56095,0,0,0
1.38044e+08,13.5609,2,2.64656,2232.41,-1879.8,-28906.8
1.38208e+08,32.7212,2,2.94117,-5875.01,-3574.11,-27669.6
1.38506e+08,56.6487,2,2.73306,-7304.98,-9326.48,-26757.9
1.38541e+08,93.5056,2,2.83606,-7254.8,-6668.28,-11757
1.3856e+08,101.779,1,3.04259,-5962.56,11729.5,-12689
1.38726e+08,112.448,1,2.76536,13540.7,-13013.3,-14490.5
1.38914e+08,16.9908,2,2.9425,252.892,-3102.45,-26938.1
1.39042e+08,54.372,2,2.70668,5180.21,4997.84,-19985.9
1.39051e+08,47.1575,1,2.59652,-2999.1,5317.41,-20895.6
1.3913e+08,22.3655,0,2.58615,1423.49,-3672.68,-26175.8
1.39282e+08,234.154,1,2.53849,-28653.3,-5605,-18375.9
1.39724e+08,62.2231,1,2.82897,-11849.6,5050.48,-26176.4
1.39864e+08,1.63364,1,2.4291,-70.2727,-34.8265,-28492.4
0,1.68111,1,2.45938,0,0,0
1.40212e+08,27.5403,2,2.8646,2524.19,-3822.83,-26586
1.40476e+08,53.7897,0,3.01754,9635.76,-3570.85,-23983.5
1.40667e+08,432.72,1,2.96178,-23617.3,-4166.35,-4409.74
1.41044e+08,78.0844,2,2.88185,-9963.87,3003.39,-16121.5
1.41077e+08,144.165,2,2.7444,1644.82,-22655.2,-8591.92
1.41608e+08,73.4647,2,2.40558,-6663.86,8545.94,-17726.6
1.41631e+08,137.241,2,2.93579,-13698.9,-18358.4,-11241.9
1.41722e+08,3.60229,0,3.00234,815.825,61.8869,-29142.3
1.41884e+08,47.0211,2,2.39921,-2675.5,-382.755,-23583.8
1.42024e+08,56.3102,0,2.84751,10475.3,5295.53,-26761.3
1.42154e+08,15.0559,2,3.05765,375.433,-3188.33,-28683.6
1.42252e+08,15.3546,1,2.60168,-544.314,3245.38,-29443.1
0,15.3885,1,2.87132,0,0,0
1.42417e+08,6.47665,2,2.95529,115.705,794.752,-27758.8
1.42735e+08,58.7245,0,2.47641,12252.5,1168.97,-26473.2
1.42799e+08,170.023,1,2.92315,24562.2,25902.5,-28730.3
1.43041e+08,41.2596,1,2.5297,7946.34,2161.19,-25948
1.43284e+08,10.4707,0,3.01707,1732.73,-1291.86,-28069.7
1.43431e+08,12.8242,2,2.48833,-2670.17,-577.607,-28221.2
0,12.9056,2,2.97982,0,0,0
1.43446e+08,61.9835,1,2.53434,-9954.08,3621.8,-21066.5
1.4366e+08,23.0355,1,2.40578,-4122.11,461.159,-26141.9
1.43883e+08,59.47,1,2.67156,-11524.6,2959.59,-24678.1
1.43897e+08,20.3244,2,3.01097,-309.843,-1952.09,-25014
1.44018e+08,37.559,1,2.72239,-7642.82,2047.45,-27710.1
1.44032e+08,196.551,1,2.46838,23544.2,-7718.59,4486.17
1.44119e+08,55.1443,1,2.86695,-576.782,6229.25,-19011.7
1.44231e+08,11.0091,2,2.52513,1172.99,-63.0128,-26832.3
1.44573e+08,51.2544,1,2.8119,-10794.8,445.405,-29983.7
1.44705e+08,11.2324,2,3.04314,-1145.65,-789.678,-26856.7
1.44789e+08,197.934,2,2.76764,-9140.88,-26537,1899.41
1.44884e+08,43.3498,2,3.0258,630.027,-8043.54,-24499.6
1.45041e+08,1.8716,1,2.39278,-166.503,98.5646,-28433.2
1.45124e+08,113.425,0,2.73842,-13478.8,-19674.6,-28088.8
1.45423e+08,16.3702,2,2.53656,-2080.08,-2483.58,-27411.8
1.45436e+08,165.662,1,2.66504,-27827,-21105.1,-27738.4
1.45484e+08,8.58727,2,2.59883,-628.209,828.456,-27357.8
1.45865e+08,93.9671,0,2.80771,5131.82,-1598.13,-16801.5
1.46148e+08,79.685,1,2.87089,-9184.55,-4893.59,-15727
1.46206e+08,83.948,1,2.92648,13698.4,-5044.77,-19060
1.46263e+08,49.7589,2,2.36724,3669.11,-5581.76,-20641.2
1.46294e+08,3.20821,0,2.43653,719.286,-21.8515,-28571.8
1.46439e+08,1.04692,1,2.37077,-241.947,5.05994,-28708.8
1.46446e+08,85.6612,0,3.02902,11624.4,-2517.55,-25411.2
1.46717e+08,17.0871,0,2.89877,1873.84,710.71,-25795.5
0,16.9648,0,2.71784,0,0,0
1.46755e+08,118.185,1,2.97981,10027.1,22678.7,-27582
1.46817e+08,45.7376,0,2.61553,-735.559,9630.52,-29394.4
1.46934e+08,74.267,1,3.04476,14690.6,2043.38,-24193.1
1.46939e+08,7.57416,0,2.65416,460.833,-298.185,-27284.5
1.47233e+08,16.6295,0,2.52201,103.074,2635.64,-26486.4
1.47637e+08,117.817,1,2.89743,-20353.5,-14068.4,-29486.1
1.48208e+08,6.01227,1,2.99786,-1000.63,604.75,-28158.8
1.48295e+08,103.482,0,2.97094,-13447.4,-4933.49,-12596.3
1.48506e+08,29.0153,1,2.46807,1815.21,3709.28,-24237.9
1.48668e+08,12.2763,0,2.73139,1561.4,-101.875,-26712.5
1.48678e+08,90.6551,1,2.72009,9284.13,13113.7,-18401.1
1.48689e+08,15.4966,1,2.73161,-2949.18,1547.99,-28375.8
1.48731e+08,177.782,2,2.58955,-20052.7,27322.3,-12696.2
1.48733e+08,15.3249,2,2.80218,-3124.29,694.533,-29490.6
1.48755e+08,66.7729,2,2.38292,-3487.28,-5066.45,-18526.4
1.48948e+08,30.3012,1,2.68325,-5329.44,1888.92,-25732.5
1.4923e+08,68.4805,1,2.44564,-2135.68,7714.02,-16688.4
1.49678e+08,47.7532,0,2.57288,3929.02,-9332.99,-28483.5
1.49864e+08,37.0188,1,2.46353,-2561.84,-2678.38,-21942.6
1.49924e+08,146.602,0,2.92168,1010.23,-26385.3,-13036
1.50051e+08,48.6041,0,2.87655,9371.94,-2685.63,-25458.8
1.5035e+08,16.972,1,2.78388,-2446.87,1113.96,-26383.7
1.50366e+08,7.59028,0,2.9721,1690.08,-79.8479,-28925.9
1.50521e+08,71.919,0,2.99582,4709.61,-14377.1,-29451.9
1.50569e+08,43.5876,1,2.9966,-4364.42,5470.51,-22839.6
1.50667e+08,95.8302,1,2.72392,9961.57,2254.14,-11590.8
1.50831e+08,70.9811,2,2.90442,449.753,-12495.9,-20600.5
1.51476e+08,120.827,1,3.01845,24361.1,-5687.62,-25218.9
1.51566e+08,15.2483,2,3.04002,-2954.72,1198.99,-28240.7
1.51595e+08,22.4158,1,2.36433,818.72,1815.83,-24494.2
1.51684e+08,55.7165,0,2.87891,2174.06,-6975.98,-19637.6
1.51775e+08,142.691,2,2.50424,28370.2,4080.89,-19609.5
1.52011e+08,25.2766,0,2.37334,-3400.37,489.236,-24794.9
1.52073e+08,69.4934,1,2.96199,6255.72,9349.53,-19491.4
1.52329e+08,5.25683,2,2.64604,526.225,652.067,-28155.8
1.52545e+08,74.7277,2,2.75968,14240.1,-2269.24,-22528.5
1.52692e+08,125.76,1,2.50317,-19300.1,16992.4,-21732.1
1.52716e+08,70.0326,0,2.93853,14610.5,2399.22,-29362.8
1.52796e+08,45.4316,0,2.66673,-9204.83,-1909.57,-27299.7
1.52979e+08,146.886,0,2.85003,20721.9,-2163.93,-6081.94
1.53002e+08,73.816,1,3.03302,-7193.67,519.96,-15117.3
1.53051e+08,232.719,0,2.89397,10902.9,-28004.7,9725.39
1.53111e+08,36.993,0,2.75252,7344.34,-1088.59,-26166.9
1.53148e+08,77.0015,0,2.3769,-12462.8,-5503.35,-19981.7
1.53477e+08,190.725,1,2.74759,7932.06,-7644.21,-20979.5
1.53653e+08,117.73,0,2.69495,-21892.6,7885.85,-20395.2
1.53675e+08,107.627,0,2.80724,3561.37,14342,-11651.4
1.54081e+08,14.6493,1,2.522,-1211.55,2779.4,-27814.2
1.54158e+08,12.1785,0,2.55665,2500.95,-830.237,-29312.4
1.54573e+08,73.2766,1,2.46645,14653.5,5006.32,-27873
1.54787e+08,82.0484,2,2.65169,3221.61,-8490.04,-14049.6
1.55043e+08,52.702,2,2.85848,-10328.7,47.2072,-24677.6
1.55309e+08,20.1267,1,2.80903,2108.59,3370.86,-27191.8
1.55659e+08,74.0043,0,2.59136,9624.43,-923.948,-16470.7
1.55802e+08,40.9992,0,2.8378,7483.64,646.059,-24432.3
1.55843e+08,72.4802,2,2.92713,339.526,-13809.4,-22295.4
1.56227e+08,62.4927,0,2.39847,4296.94,-11291.2,-23388.1
1.56232e+08,82.4947,1,2.96882,-11598.4,12985.6,-29370
1.56322e+08,237.957,0,2.42429,-23238.3,-12945.8,13815.5
1.56767e+08,62.347,2,2.39357,9040.86,8644.09,-26186.4
1.56877e+08,82.2315,1,2.84112,-5187.27,-16418.8,-28018.9
1.56888e+08,21.5344,0,2.91375,591.112,-1949.72,-24761.8
1.56925e+08,27.3154,1,2.3956,931.297,-4115.54,-24961.4
1.56945e+08,82.9231,1,2.7936,-1658.7,7665.92,-13197.7
1.56976e+08,53.6171,0,2.77512,-953.879,-10334.7,-24398.9
1.56986e+08,19.9751,1,2.39519,529.839,-1959.79,-25149.7
1.57063e+08,21.8177,2,2.86334,1474.88,-2592.19,-25295.2
1.57426e+08,58.1605,2,2.70768,9134.5,-699.713,-20717
1.57536e+08,87.6811,0,2.38776,-11477.4,-2513.26,-14519.9
1.57586e+08,170.685,2,2.88971,22869.3,-18291.8,-8105.48
1.57593e+08,5.88632,1,2.58372,510.568,178.362,-27695.7
1.57603e+08,39.9789,1,2.71456,4021.92,3549.82,-22294.5
1.57658e+08,170,1,2.58367,12131.9,20434.2,-1882.1
1.57898e+08,66.9556,0,2.85488,11334.7,5248.53,-22245.8
1.57974e+08,85.7547,1,2.7606,9699.22,5650.98,-14685
1.58297e+08,15.8141,1,2.68478,-3213.01,682.885,-29804.5
1.5831e+08,259.603,2,2.882,-29350.9,11546.4,13218.3
1.58465e+08,94.3038,1,2.55302,12791.3,-6806.06,-27299.1
1.58493e+08,162.646,0,2.3988,17627.1,-27916.9,-18918.1
1.58626e+08,6.13111,1,2.41365,363.111,-496.664,-27721.2
1.58732e+08,89.4688,0,2.97659,14617.4,-4046.09,-18247.7
1.58823e+08,45.2016,2,2.90379,-7460.95,2681.18,-23560.4
1.58946e+08,13.4114,2,2.82387,436.508,-8.67046,-29590.7
1.59124e+08,221.15,0,2.7368,24265.6,25813.6,1476.06
1.5927e+08,71.2686,2,2.97207,8455.08,9858,-21544.4
1.59926e+08,78.1915,0,2.91699,-1055.5,6921.73,-13991
1.60062e+08,123.233,0,2.85056,6078.17,-16063,-9393.02
1.60322e+08,13.1444,2,2.72016,-2649.6,768.96,-29447.2
1.60358e+08,53.3174,1,2.6426,-857.091,-11162.3,-28648.5
1.60432e+08,99.0801,0,2.81739,-766.034,-20613.1,-25828.9
1.60811e+08,50.8363,1,3.04395,6317.71,8627.64,-29154.3
1.60834e+08,90.1727,0,2.88049,3872.44,-15116.8,-18043
1.60943e+08,131.506,1,2.61737,-14899.2,22280.5,-21297.7
1.61014e+08,86.8198,1,2.96251,-4390.47,14833.3,-22785.5
1.61169e+08,42.2037,2,2.87159,8099.6,-1061.16,-25384.9
1.61196e+08,114.609,1,2.62995,-16139.7,12737.6,-15991.1
1.61208e+08,105.896,1,2.72866,-18894.5,-1046.15,-21110.3
1.61257e+08,21.3922,0,2.37607,1737.33,-3635.6,-26658.3
1.61619e+08,76.2997,2,2.73172,-9304.44,-12913.8,-26115
1.61651e+08,5.45572,1,2.69004,386.013,909.956,-28149.5
1.61795e+08,227.496,1,2.94941,2351.09,25189.8,11672.7
1.61923e+08,117.377,0,2.53125,19616.3,-13947.4,-22433.6
1.61942e+08,7.24878,0,2.92077,-363.792,-1430.45,-28404.7
1.62511e+08,100.556,1,2.70936,-9158.33,11340.4,-13375.3
1.62774e+08,73.5333,0,2.62428,1574.12,-10056.6,-17114.3
1.62868e+08,99.1229,2,2.85251,-12331.2,10734.8,-15903.8
1.63163e+08,193.627,1,2.51165,-14460.8,21000.4,3198.55
1.63553e+08,43.775,0,2.71752,102.353,4205.41,-20598.6
1.63651e+08,110.663,2,2.81999,1636.17,-14474.5,-10625.2
1.63762e+08,54.6,1,2.39466,-5338.76,1608.75,-18668.4
1.63839e+08,93.7599,2,2.60054,-12238.3,-10961.2,-17648.2
1.6417e+08,304.299,2,2.58516,-6765.55,-5000.47,-29090.1
1.64234e+08,95.466,0,2.91007,7289.85,-2439.81,-26385.3
1.651e+08,9.2987,0,2.7826,753.333,1820.87,-28483
1.65187e+08,5.4,1,2.7164,306.555,389.653,-27774.3
1.65262e+08,82.5172,0,2.60485,498.663,-10384.2,-29901.5
1.65377e+08,5.0332,1,2.72814,-16.455,401.299,-27805.2
1.65556e+08,8.2617,0,2.51672,1147.08,407.549,-27511.6
1.65582e+08,25.7016,2,2.52747,3179.85,-3197.72,-25712.3
1.6574e+08,78.6344,0,2.36582,-1173.04,-6820.98,-13703.6
1.66114e+08,76.8546,1,2.68266,4932.99,3957.73,-27471.1
1.6617e+08,39.674,0,2.63828,-4021.71,1140.22,-21617
1.66837e+08,24.2444,2,2.68433,3812.77,55.7999,-25469
1.67044e+08,27.2448,1,2.84303,-3754.27,4142,-27207.8
1.67536e+08,86.7466,1,2.73306,-9497.53,3092.86,-13471.6
1.67589e+08,49.228,2,2.50746,-6168.94,-1050.64,-20470.6
1.67707e+08,27.3561,0,2.57071,5271.82,-1518.23,-26714.9
1.67943e+08,68.9329,1,2.84264,-6822.74,12902.8,-29177.5
1.68298e+08,7.12572,2,2.44907,604.775,534.289,-27578.6
1.68326e+08,36.7265,2,2.92967,-2127.38,-7346.77,-27200.4
1.6841e+08,135.102,0,2.92583,24622.8,-14252.5,-28364.4
1.68681e+08,6.40228,2,2.98324,-1111.06,-6.90741,-27984.5
1.68769e+08,35.5284,0,3.06089,4054.44,-4174.71,-24100.1
1.68769e+08,8.2478,1,2.93499,1246.45,908.653,-28025.7
1.68892e+08,6.40942,2,2.39641,-897.491,-870.117,-28115
1.69327e+08,61.4203,2,3.00273,9950.34,-364.295,-20729.7
1.69356e+08,7.21864,1,2.74189,-1318.3,774.739,-28322.5
1.69625e+08,227.888,0,2.69164,-20770.9,-22401.5,8201.37
1.69707e+08,68.8659,0,2.80517,1897.78,-14411.6,-28707
1.69871e+08,111.031,0,2.42393,11545.1,-20527.9,-28490.7
1.70275e+08,25.9145,1,2.55256,2030.44,4738.03,-26753.8
1.70657e+08,51.9562,0,3.0578,9821.71,-1263.25,-24111.1
1.70916e+08,11.1882,0,2.90757,375.154,-1061.99,-26746.8
1.70931e+08,24.7804,0,2.99304,3283.08,835.407,-24797.7
1.71197e+08,15.047,0,2.93074,2937.05,-1378.79,-28691.3
1.71441e+08,105.629,1,2.55147,2116.26,-10229.6,-9129.79
1.71521e+08,39.0754,0,2.44251,2650.08,5176.74,-22923.6
1.71836e+08,110.76,0,2.77603,-2095.27,21079.5,-19069.6
1.72625e+08,89.9336,0,2.38299,17730,3547.06,-22608.5
1.73396e+08,39.1275,2,2.56924,-8035.17,-2144.87,-28150.6
1.73564e+08,117.597,0,2.69776,-7996.5,11788.2,-8570.23
1.73698e+08,193.885,2,2.73226,-15451.8,14782.9,5922.34
1.73848e+08,103.956,2,2.62358,18515.9,-1818.4,-18964.1
1.73904e+08,83.932,2,2.91441,-16843.9,-5306.32,-29789
1.74512e+08,52.0127,1,2.52442,-3815.49,9575.02,-24775.6
1.74574e+08,52.3751,1,2.75679,10271.4,-2306.34,-25643.7
1.74746e+08,131.986,1,2.93902,-7851.51,-18364,-9680.33
1.74875e+08,3.57759,1,2.84616,-265.707,33.1953,-28095.2
1.75338e+08,104.975,2,2.60181,-13325.8,2800.05,-11913.2
1.75383e+08,58.8444,2,2.85075,5060.35,-8073.59,-20875.4
1.75514e+08,71.0327,2,2.88398,-2795.52,-11934,-20176.6
1.76414e+08,154.832,2,2.67238,16022.9,-13071.7,-3531.39
1.76439e+08,62.1235,1,2.52901,-12102.9,-1695.7,-23913.2
1.76493e+08,26.6157,2,2.75924,-5621.07,389.962,-29448
1.76533e+08,120.652,1,2.6193,-20977.4,2261.26,-14480.4
1.76539e+08,180.393,1,2.44669,-14262.5,25942.9,-4649.86
1.76689e+08,109.226,1,2.8857,-14760.2,17384.7,-25602.6
1.76782e+08,211.566,1,2.4261,28407.7,-24885.4,-4919.77
1.76955e+08,15.5681,1,2.90524,-2115.47,-339.649,-26335.2
1.77096e+08,38.2145,0,2.68998,2469.44,-6012.93,-23995.4
1.77568e+08,101.504,2,2.6551,-1388.53,-15325.2,-13873.3
1.77652e+08,107.4,1,2.76086,4167.51,17943.5,-15656.3
1.77737e+08,113.482,0,2.54666,22124.3,-7557.56,-23119.4
1.77871e+08,77.4437,2,2.67183,-9477.23,-8887.88,-18818.2
1.78021e+08,66.2786,2,3.05955,12471.7,5613.05,-26737.4
1.78183e+08,8.05662,1,2.87923,808.286,760.247,-27554.4
1.78186e+08,63.4143,1,2.64514,5613.01,8183.04,-19780.7
1.78351e+08,87.908,1,2.8317,17169,-6628.06,-27602.2
1.78476e+08,38.8916,2,2.68708,-3514.68,1451.06,-21539.5
1.7861e+08,60.2648,1,2.8326,11123.4,-2070.36,-23245.4
1.78839e+08,48.3037,1,2.90434,2535.2,4903.19,-20305.9
1.78931e+08,80.9208,0,2.87062,-13556.5,-8578.64,-23346.3
1.79036e+08,60.5194,2,2.61864,-4684.43,4835.23,-17960.3
1.79078e+08,260.173,1,2.77284,-10866.1,19375,-10361.3
1.79692e+08,44.5916,1,2.46006,8972.5,2937.95,-28625.6
1.79901e+08,14.2652,1,2.47997,560.132,2848.84,-29952.3
1.79933e+08,297.322,0,2.73123,14969.7,29717.6,24204.5
1.80058e+08,60.6821,2,2.90114,-6846.32,-681.916,-18061.9
1.80728e+08,40.3718,2,2.40254,1316.09,-8530.23,-28714.9
1.80874e+08,128.623,2,2.59968,-23203.7,-8648.85,-17516.9
1.80928e+08,2.6165,1,2.85639,453.044,-47.9757,-28590.8
1.81529e+08,4.68387,2,2.50508,950.965,-286.563,-28913.7
1.81637e+08,203.435,2,2.63642,-28259.8,-1684.29,3482.81
1.81672e+08,26.0729,0,2.4734,4519.9,840.395,-27662.4
1.81681e+08,117.633,2,2.84382,-14061,6203.61,-9450.93
1.82152e+08,47.8013,2,2.75408,-6601.32,-5993.81,-24020
1.82629e+08,183.494,0,2.6102,26720.5,8128.93,-1891.66
1.82738e+08,44.3382,2,2.64776,4439.67,5125.03,-22488.2
1.82764e+08,107.746,0,2.78937,-15230.6,-12677,-17871.6
1.83423e+08,108.239,0,2.98126,22452.9,-3900.49,-28689
1.83512e+08,75.8557,2,2.85305,-7480.14,-4991.85,-24530
1.83917e+08,22.5561,2,2.45469,-4556.15,1388.21,-28396.5
1.84169e+08,39.6414,1,2.76605,2200.23,6761.37,-24332.7
1.8423e+08,16.9217,0,3.04431,1087.18,1620.72,-25824.2
1.84291e+08,148.712,1,2.73966,-11013.2,26597.9,-16271.9
1.84611e+08,11.0722,0,2.4505,797.648,1455.92,-27116.9
1.84673e+08,1.72215,0,2.52903,432.318,86.4216,-28751
0,1.7534,0,2.82037,0,0,0
1.84733e+08,104.367,0,2.53786,15087.6,-14800.8,-22284.1
1.84992e+08,47.6999,2,2.63924,-6005.82,8064.44,-29084.8
1.85223e+08,68.1144,0,2.52572,1394.04,-9453,-18053.3
1.85237e+08,108.282,1,2.67567,295.69,8784.72,-7723.76
1.85395e+08,148.78,1,2.48061,-14614.7,-21046.4,-10618.9
1.85456e+08,17.3172,1,2.80624,1162.53,3532.21,-29065.5
1.86163e+08,51.0955,2,2.73669,-7731.03,-6144.29,-24341.8
1.8652e+08,70.0219,0,2.62282,1036.77,-14738,-27709.5
1.87125e+08,10.9376,1,2.56526,-1832.35,-1116.32,-27892.2
1.87272e+08,79.0694,1,2.46217,-640.853,15640.9,-22735.8
1.8737e+08,116.725,1,2.78253,7629.32,16797.7,-12529.5
1.87467e+08,24.8335,2,2.4938,-535.473,586.517,-29780.6
1.87478e+08,105.876,0,2.52813,290.61,21749.7,-23501
1.87604e+08,38.5733,1,2.4423,5808.99,5069.94,-26054.7
1.87711e+08,97.7692,2,2.9422,1921.64,12349,-12608.1
1.87738e+08,131.104,2,2.97522,-14953.2,-6006.16,-8734.5
1.87805e+08,22.2499,0,2.60236,1358.66,4053.28,-26756.7
1.88054e+08,38.033,0,2.80879,-1596.41,-6220.61,-24039.1
1.88362e+08,9.69301,1,2.43251,-853.092,-103.04,-26950.1
1.88607e+08,59.8102,2,2.5379,-3121.17,9771.92,-21489.8
1.88652e+08,29.8484,2,2.94605,2287.41,-4960.4,-25649.8
1.8913e+08,65.5069,2,2.3955,-6739.6,6781.31,-18840.6
1.89195e+08,28.3497,0,2.54838,4482.62,-3370.77,-26483.8
1.89273e+08,132.004,0,2.91002,2412.73,7215.69,-28980.5
1.89343e+08,101.005,0,2.91472,-647.36,-13085.5,-12161.9
1.89492e+08,13.9613,2,2.40041,1668.97,1995.34,-27516.6
1.89738e+08,2.97429,1,3.03031,-595.185,-53.1101,-29158.7
1.89748e+08,31.0139,1,2.51672,496.661,5895.85,-25890.8
1.90027e+08,150.573,2,2.46378,17391.3,-14373.5,-6369.89
1.90069e+08,131.132,1,2.85473,-11138.5,20572.8,-14102.8
1.91378e+08,1.8904,0,2.77864,483.977,108.195,-28765.2
1.91737e+08,39.4629,0,2.71207,-483.793,-3914.61,-21500.5
1.93425e+08,110.422,2,2.50926,-4698.76,-11724.3,-9155.45
1.93445e+08,5.51115,2,3.04968,-278.991,-1173.8,-29147.9
1.9384e+08,70.0982,0,2.38551,7745,11262.7,-22898.2
1.94218e+08,34.6815,2,3.0202,2659.88,-6133.01,-26603.5
1.94293e+08,32.1612,0,2.94388,6841.8,-58.2552,-28259.5
1.94481e+08,7.08772,1,2.68576,-1310.69,-317.768,-28132.2
1.94606e+08,157.563,1,2.69373,-28799.5,3582.52,-12579.2
1.95538e+08,63.1207,0,2.46522,4387.41,7863.84,-18914.3
1.95658e+08,63.7116,0,2.75504,8707.99,2623.84,-18889.4
1.96008e+08,9.98422,2,2.92975,622.583,1581.47,-27683.5
1.96148e+08,140.259,1,2.8917,-16028.1,24766,-26959.8
1.96553e+08,50.0832,0,2.79173,6391.7,-2516.17,-22199.7
1.97126e+08,8.19303,0,2.78332,1512.69,-926.924,-29210.7
1.97169e+08,91.5605,2,2.55629,10738,-11867.4,-17876.6
1.98406e+08,8.05586,2,2.71234,-474.04,-530.127,-27233.3
1.98538e+08,136.009,1,2.78171,15011,-8109.46,-6840.36
1.98691e+08,27.573,2,2.92479,-5040.78,-2972.18,-28320.7
1.98819e+08,125.296,2,2.80887,-4435.75,11754.3,-5711.66
1.99115e+08,2.23741,2,2.6991,-135.274,-56.5126,-28352.4
1.99131e+08,140.63,0,2.42572,15666.1,-4065.65,-3815.31
1.99482e+08,3.73204,2,2.88801,501.046,-248.543,-28264.8
1.99538e+08,59.9176,1,2.60112,8113.22,-5316.77,-20806.6
1.99653e+08,22.6037,0,2.89139,-86.5072,-4206.03,-26610.9
2.00712e+08,11.3152,2,2.62602,659.172,-1263.52,-26863.7
2.00806e+08,9.92313,0,2.74896,-1570.2,-1309.09,-28627.1
2.01096e+08,76.4611,2,2.78487,2923.65,-5027.58,-23015
2.01164e+08,129.048,0,2.74025,22440.9,2917.15,-13634.3
2.01397e+08,150.436,1,2.50054,-11972.3,11330.2,-1587.07
2.0147e+08,49.5898,1,2.57019,-8423.64,-1097.94,-22614.5
2.01506e+08,1.9789,1,2.98271,-0.489443,-352.008,-28748.2
2.01867e+08,85.3835,2,2.75078,3608.17,-17214,-24704.9
2.01971e+08,0.762523,2,2.56765,-1.25108,41.1057,-28707.8
2.02137e+08,13.5416,1,2.43967,-2384.55,-220.945,-27175.7
2.02201e+08,37.1287,0,2.796,214.996,7800.22,-29695.5
2.02223e+08,178.747,1,2.54017,-14078.1,-28361.9,-15895.7
2.02424e+08,77.4896,2,2.81688,-12524.4,-10560.9,-29280.1
2.02535e+08,114.324,2,2.64493,3031.5,-5667.64,-27369.5
2.02837e+08,98.8022,1,2.3658,-6679.48,19526.2,-24944.4
2.02853e+08,155.935,1,2.94325,14321.6,25917,-14774.2
2.03264e+08,27.7332,1,2.68614,3446.6,-2939.6,-25198.3
2.03292e+08,61.2026,0,2.90617,2581.33,10598.5,-21971
2.0347e+08,8.69088,2,2.79248,1458.8,662.873,-28097
2.03608e+08,121.962,2,2.36271,-2731.89,-20064.4,-12702.2
2.03881e+08,9.93551,1,2.69677,-739.78,1258.65,-27237.3
2.0395e+08,14.8628,1,2.62588,1422,491.407,-26056.1
2.04189e+08,33.0628,1,2.80135,4089.97,-5399.17,-27558
2.04403e+08,13.5244,2,2.4326,2277.44,-1516.98,-27878.4
2.04912e+08,12.906,1,2.70533,-582.211,2563.68,-27792.7
2.05159e+08,28.3957,2,2.55643,-5997.86,298.796,-28017.8
2.05348e+08,47.0857,1,2.51957,7347.59,5761.34,-25263.5
2.05368e+08,74.6803,0,3.03481,5973.11,-5598.88,-15446.5
2.05725e+08,19.5968,2,2.59957,-2161.81,631.026,-25361.5
2.062e+08,71.2451,2,2.56313,-339.481,8669.82,-16567.9
2.06302e+08,18.2957,2,2.94552,-2949.33,-1226.08,-26575.3
2.06346e+08,23.2563,2,2.49311,-4205.5,-2070.76,-27054.1
2.06365e+08,75.0897,1,2.81839,-1789.67,-8923.7,-15949.7
2.07063e+08,44.1239,1,2.4632,1201.65,4528.9,-20713
2.07107e+08,82.0686,2,2.8982,16530.5,-3444.52,-25454.6
2.07542e+08,3.90588,2,3.00446,789.033,-257.12,-28727.2
2.07548e+08,163.857,1,2.74735,22795.8,2960.81,-3110.14
2.07606e+08,9.97334,2,2.61835,1489.13,-1085.78,-27787.3
2.07861e+08,9.92638,1,2.61787,460.339,2105.18,-28475.7
2.08125e+08,80.9615,1,2.8453,1618.48,11441.8,-16519.1
2.08171e+08,6.86897,1,2.76176,-380.962,1466.52,-29065.9
2.08665e+08,139.171,0,2.40375,19160.4,-5398.79,-7266.74
2.08733e+08,62.8468,2,2.86302,6241.78,-2753.24,-17520.7
2.08933e+08,32.2931,0,2.679,2445.35,6307.43,-27611.2
2.09059e+08,16.9728,2,2.8989,2928.32,-1670.95,-27611.1
2.09203e+08,45.5677,1,2.65315,-88.8526,5381.65,-26892.5
2.09611e+08,66.6114,2,2.52726,-11870.6,-7712.58,-28269.2
2.0974e+08,9.88582,2,2.45468,406.01,-1895.6,-29850
2.09745e+08,25.6787,1,2.76509,4173.4,2124.57,-26106.8
2.09962e+08,57.6338,2,2.44338,11778.1,2701.5,-27426.7
2.09997e+08,3.19909,1,2.41923,-72.0521,762.088,-28944.4
2.10135e+08,30.7339,0,2.91416,1256.19,5638.96,-25872
2.1033e+08,53.3517,0,2.9173,4522.27,-2784.4,-18933.3
2.10338e+08,43.4533,0,2.82747,6053.49,4183.33,-23292.8
2.10461e+08,169.406,2,2.95609,-20177.9,10584.7,-3962.33
2.10467e+08,47.4178,0,2.99088,3960.6,6880.4,-22789.8
2.10898e+08,124.765,2,3.05641,-21034.7,-11467.6,-18225.3
2.11076e+08,48.4824,0,2.70728,-9876.93,-455.498,-26515.8
2.11168e+08,139.136,2,3.04073,3894.86,-23167.1,-11482.8
2.11429e+08,145.907,1,2.647,15118.1,15539.9,-7456.32
2.11506e+08,37.6436,2,2.88869,3980.1,-864.555,-22124.1
2.11849e+08,195.39,0,2.82885,17704.5,-6748.32,-10695.3
2.12078e+08,89.5941,1,2.61259,-8041,-5449.63,-12584.3
2.12396e+08,173.729,0,3.05018,3552.29,-3316.89,-25806.9
2.12468e+08,32.0122,0,2.67172,3247.58,-5976.46,-28660
2.12695e+08,111.369,1,2.51872,-6987.6,-22435.8,-29655.2
2.13117e+08,49.877,1,2.53123,-4995.17,4852.45,-20826.1
2.13263e+08,153.609,2,2.66908,-10689.4,-17328.8,-3560.46
2.13509e+08,42.4073,1,2.63498,-6708.68,1829.2,-23114.1
2.13887e+08,0.943779,0,2.50475,223.98,-161.225,-28770.3
0,0.918499,0,2.53877,0,0,0
2.13976e+08,81.2725,2,3.03105,7306.92,14135.1,-22970.6
2.14019e+08,109.159,1,2.898,-7981.46,2237.83,-7488.1
2.14492e+08,99.5532,0,2.55236,8330.82,6343.67,-10553.2
2.14559e+08,8.25441,1,2.4406,171.754,638.639,-27178.8
2.14949e+08,77.9475,2,2.75156,-3840.25,-13213.3,-19751.6
2.15074e+08,171.553,2,2.55298,-13174.7,-28190.2,-10088.9
2.15357e+08,66.226,2,2.48684,4308.65,-6479.37,-17141.7
2.15786e+08,88.9969,1,2.80474,-384.432,11821.9,-14286.4
2.16109e+08,143.426,0,2.4796,13315.2,-17436.7,-7858.2
2.16273e+08,15.6102,1,2.49309,-2657.54,-1535.63,-27555.3
2.16352e+08,24.6178,0,2.83371,464.131,3004.06,-24605.7
2.16497e+08,77.2285,2,2.40266,15907.6,-3398.06,-27367.9
2.16561e+08,46.6705,1,2.83455,6624.79,3044.44,-22263.6
2.16642e+08,98.4167,2,2.9195,-18785.5,-8793.37,-29530.9
2.1665e+08,61.1478,0,2.70054,1989.63,-5472.74,-17305
2.16675e+08,26.0187,2,2.50774,-951.676,-2007.58,-23755.1
2.16766e+08,34.3864,1,2.47516,1604.81,6512.4,-25816.8
2.16819e+08,282.147,1,2.84632,27011.5,-11808.5,22591.8
2.17132e+08,12.8457,2,2.62764,291.299,-1205.5,-26372.9
2.17446e+08,58.4591,2,3.03561,-5386.35,1182.84,-17886.2
2.17614e+08,27.8056,2,2.70366,276.949,-2326.37,-23418.9
2.17731e+08,149.462,2,2.44548,800.069,19494.9,-4023.47
2.17772e+08,87.8715,2,2.70226,-12666.5,-4723.45,-17681.5
2.18272e+08,51.1506,1,2.75329,4327.36,-9643.36,-27076.5
2.18929e+08,123.033,2,2.93327,-15767.6,-395.652,-8348.31
2.18967e+08,7.92342,1,2.51511,301.507,-634.501,-27353.4
2.19409e+08,24.1372,1,2.54717,2076.1,-1215.51,-24369.7
2.19612e+08,56.2476,2,2.61255,-2746.8,-8779.64,-21209.9
2.19662e+08,104.685,0,2.81097,1519.93,-20098.7,-19969
2.2038e+08,50.8459,1,3.04871,5808.76,-4067.02,-20944.8
2.20601e+08,51.3993,2,3.04781,-8433.88,-4068.92,-23351.3
2.20623e+08,17.5788,0,2.8563,2341.17,1212.58,-26146.9
2.20663e+08,42.251,2,2.67219,-3229.7,-8410.67,-28839.1
2.21037e+08,15.5066,0,2.66323,-1582.72,-1994.43,-26787
2.2105e+08,20.0779,2,2.61282,3013.38,71.0489,-25880.7
2.21063e+08,39.5745,2,2.82781,-4736.81,4288.26,-23482
2.21261e+08,98.2958,2,2.92249,7438.94,-16842.9,-19441.4
2.21445e+08,66.013,1,2.89837,-6183.41,2594.86,-16650.3
2.21548e+08,2.02118,2,2.63447,-75.6421,93.5175,-28435.8
2.21809e+08,73.4851,1,2.59785,-7117.54,13283.5,-24718.3
2.22095e+08,75.4603,0,2.91059,11208.1,8116.89,-20965.9
2.22558e+08,20.2291,1,2.57071,-1779.53,-3595.03,-27405.8
2.22567e+08,226.338,1,2.51123,26851,29096.3,-1935.61
2.22586e+08,265.645,2,2.81315,-27332.2,9681.97,18931.4
2.22746e+08,368.801,2,2.63416,-12764.2,21993.1,4792.34
2.22932e+08,82.4756,1,2.84943,6221.29,4904.2,-13384.2
2.23065e+08,15.6874,1,2.71997,2591.53,1159.44,-27162.8
2.23259e+08,43.0194,0,2.5132,-3775.83,7672.26,-25749.2
2.23727e+08,48.1655,2,2.40853,-3682.13,-7883.52,-23371.2
2.23812e+08,151.594,0,2.38942,22759.5,9900.63,-8403.35
2.2387e+08,81.4228,0,2.5774,6087.26,15897.8,-26060
2.23873e+08,155.566,0,2.81586,21647.2,1563.33,-4297.31
2.23983e+08,52.4613,1,2.90433,-1270.67,7559.63,-20821.1
2.24171e+08,99.8621,0,2.73048,3279.98,12347,-12086.4
2.24627e+08,215.423,0,2.83599,-1259.87,21073.7,11220.7
2.24823e+08,127.638,0,2.53646,-139.85,-12988.6,-5187.11
2.25154e+08,63.9407,1,2.81263,-12057.5,-2066.53,-23134.6
2.25503e+08,46.4729,2,2.98787,1435.31,-5266.5,-20716.8
2.25543e+08,46.75,2,2.52244,-302.803,-3667.62,-20817.4
2.26236e+08,78.7708,1,2.80431,15877.7,-4030.2,-26626.2
2.26242e+08,209.09,1,2.68707,-13530.6,24279.8,5423.02
2.26277e+08,144.559,1,2.84814,-22507.2,-5084.94,-11017.8
2.26569e+08,52.7693,2,2.8874,-8710.7,-4769.12,-23732.2
2.27277e+08,77.6305,2,2.45032,4676.54,9730.53,-16530.5
2.2755e+08,37.6378,0,2.69895,-2530.5,-3961.08,-22442.5
2.27605e+08,118.287,2,2.87487,-19708.6,-4023.44,-14140.5
2.28294e+08,66.3698,2,2.7988,3928.49,10240.6,-20264.3
2.28761e+08,134.211,0,2.66517,22119.7,11978.4,-15741.5
2.28889e+08,64.0852,0,2.36999,13367.9,-1709.43,-26674.2
2.28896e+08,42.5883,0,2.40071,1386.74,8907.36,-28243.7
2.29491e+08,259.562,1,2.8609,16658.5,-5578.7,-17960
2.29657e+08,20.2985,2,2.51529,3804.89,-293.444,-26921.6
2.29662e+08,69.3792,0,2.709,-1501.92,10104.3,-18386.9
2.29764e+08,180.99,0,2.48803,14903.4,17433.8,1845.3
2.29794e+08,137.909,1,2.67183,26767.4,9736.69,-22880.3
2.2982e+08,8.96464,0,3.0175,1140.02,-903.926,-27548.4
2.30316e+08,140.943,0,2.87984,15649.4,23965.2,-21121.4
2.30465e+08,102.759,2,2.83397,16578.6,-3374.16,-15395.8
2.30831e+08,16.0559,0,2.69507,-475.657,-2141.5,-26272
2.3101e+08,72.2838,1,2.75757,1377.33,-11198,-18659.3
2.31062e+08,4.6774,1,2.95748,697.308,-124.148,-28174.4
0,4.69306,1,2.76199,0,0,0
2.31164e+08,202.594,0,3.03668,-9931.59,14610.8,-28000.7
2.31747e+08,63.1874,2,2.7475,-179.249,12329.9,-23943.6
2.31813e+08,100.325,2,3.03181,-19821.5,-2295.43,-22100.9
2.32508e+08,167.519,0,3.05329,26083.4,-7284.15,-6452.56
2.32692e+08,49.5392,1,2.6675,-9023.37,-3872.92,-25186.7
2.3297e+08,27.1236,2,2.65421,-3673.37,3699.88,-26445.1
2.33095e+08,27.1817,2,2.9962,1134.33,-5676.12,-28458.3
2.33136e+08,111.996,0,2.71635,22462.8,3646.81,-22284
2.33313e+08,126.671,2,2.56824,-23284.6,12530.1,-24487.8
2.33454e+08,26.0966,0,2.39649,5472.15,879.143,-27918.2
2.33552e+08,6.46083,1,3.03557,-1031.29,139.659,-27922
2.33723e+08,27.267,1,2.50133,588.625,5802.13,-28328.5
2.34265e+08,17.4962,1,2.99715,-3632.14,703.806,-28178.1
2.34341e+08,129.66,0,2.61483,18058.2,8961.96,-10261.2
2.34408e+08,48.9282,1,2.5914,6975.92,7269.8,-26398
2.34478e+08,92.2467,2,2.96839,-10197.1,-11287.7,-16767
2.34949e+08,48.0086,2,2.99243,-9793.11,-1251.34,-26536.2
2.35056e+08,65.228,2,2.44415,6430.7,-2437.28,-16865.5
2.35133e+08,7.22558,0,2.60621,1506.29,658.877,-28886.6
2.35164e+08,95.48,2,2.53438,-13714.1,787.498,-13992.2
2.35761e+08,11.4413,2,2.46069,-2112.88,-1302.84,-28450.7
2.35966e+08,35.2105,2,3.0404,-2768.16,-6273.57,-25849.8
2.36143e+08,92.9769,2,2.44507,5726.58,-9197.98,-12381.8
2.3646e+08,37.0842,0,2.41343,7472.56,-2694.22,-29146.2
2.36877e+08,84.3271,2,2.44036,2226.49,-10615.1,-14610.2
2.37194e+08,92.6693,0,2.78141,7703.06,6733.99,-12185.1
2.37894e+08,168.057,0,2.6959,13297.5,-27249.5,-10422.5
2.38061e+08,46.6021,2,2.78614,5554.61,-6939.65,-24562.7
2.38184e+08,5.16948,1,2.65151,-609.38,621.271,-28072
2.38289e+08,155.164,2,2.52004,19018.2,17231.7,-8467.49
2.39087e+08,134.067,1,3.04712,119.019,17225.6,-6596.63
2.39122e+08,78.0054,0,2.91905,-15701,-150.352,-24405.6
2.39663e+08,8.31126,1,2.94349,-1534.65,750.387,-28221.3
2.3969e+08,184.317,1,2.99214,-21205.4,10055.2,-6676.45
2.39879e+08,86.5393,0,2.58265,-8360.32,-5274.54,-13479
2.4004e+08,73.6247,2,2.40337,7951.3,-13298.5,-26801.6
2.4008e+08,16.4969,1,3.01779,-3314.92,-421.133,-27767.1
2.40126e+08,50.9856,0,2.48921,9907.17,-1935.39,-24777.8
2.40157e+08,44.7289,1,2.82489,-5374.56,7734.45,-29942.2
2.40323e+08,61.2013,1,2.51783,10633.9,7344.88,-27817.9
2.40598e+08,43.1911,0,2.69166,2518.36,3936.92,-20983.4
2.4066e+08,19.3053,0,2.96299,2175.36,-125.789,-25956.7
2.40715e+08,35.4277,0,2.71229,6400.08,1697.89,-25191.6
2.40801e+08,7.48764,0,2.65296,964.59,1189.68,-29478.2
2.40958e+08,58.8482,1,2.36212,2068.44,8482.7,-19868.6
2.41279e+08,32.4198,2,3.04597,-5225.86,-2629.73,-25249.6
2.4168e+08,192.355,1,2.49914,28971.2,-23310.5,-12494.4
2.41801e+08,140.974,1,2.88507,-8006.87,28449.1,-25812.7
2.41886e+08,31.2798,1,2.52239,-3121.23,-5753.42,-29608.3
2.42977e+08,141.914,0,2.41592,8491.66,-25846.5,-16065.1
2.43034e+08,276.892,2,2.91075,-22733.5,-23810.1,-26266.8
2.43036e+08,1.58657,2,2.63113,-377.489,-135.642,-28688.9
2.43099e+08,73.8678,1,3.0261,7853.44,12873.4,-25113.9
2.43257e+08,49.1344,0,2.66177,2449.62,9597.36,-25596.5
2.43554e+08,228.153,2,2.50282,29302.2,-13622.3,-4737.32
2.43612e+08,14.1248,0,2.48428,1057.31,640.745,-26090.7
2.43769e+08,39.4822,0,2.85069,4351.1,6558.38,-26040.6
2.43891e+08,176.488,2,2.98301,13754.3,-23218.1,-3450.51
2.4408e+08,92.9304,0,2.81686,-17046.6,5041.13,-20876
2.44199e+08,48.7119,2,2.86442,-4322.86,2187.45,-19808.7
2.44309e+08,142.678,0,2.89343,9863.75,5962.86,-1131.72
2.44471e+08,96.1184,0,2.58163,15453.1,-7959.68,-18228.1
2.4458e+08,8.37377,0,2.49251,-120.59,-574.132,-27166.2
2.45012e+08,105.104,2,2.76175,-21317.4,-6073.37,-27425.6
2.45041e+08,3.13866,1,2.90436,-374.22,207.843,-28254.5
2.45303e+08,36.1612,1,2.44343,-6527.3,-1868.38,-25259.2
2.45404e+08,6.23042,1,2.76798,-26.0938,714.677,-27661.1
2.45688e+08,45.4324,1,2.51791,-455.865,4109.89,-20110.8
2.45842e+08,137.395,1,2.92915,-4086.09,-3466.51,-29282.1
2.45842e+08,16.3208,1,2.93309,-2769.69,83.494,-26721.6
2.45872e+08,13.109,1,2.83875,-1996.38,-1674.05,-27860.6
2.45929e+08,75.6924,0,2.41967,15413.2,-4518.35,-28120.8
2.46194e+08,168.358,0,2.90209,14752.7,26223.7,-11831.6
2.46404e+08,202.594,0,2.6363,-13786.2,-28637.6,-257.627
2.46513e+08,43.4944,2,2.65124,-1204.83,-7123.81,-23046.3
2.46646e+08,145.116,2,2.74911,7833.13,-24871.6,-12831.7
2.46766e+08,92.0617,2,2.64233,-8353.79,-11394.8,-15400.4
2.47012e+08,31.998,1,2.42638,4880.11,3953.69,-26178.7
2.4715e+08,32.3769,0,2.98751,6232.49,-2953.32,-28535.1
2.47428e+08,279.058,2,2.62861,-1826.83,-396.203,-24703.6
2.47495e+08,134.232,1,2.95968,-15643.4,1354.26,-5440.79
2.47605e+08,107.67,1,2.64657,13067.6,10236.2,-13322.3
2.47667e+08,55.5112,2,3.04147,-8827.8,-6045.25,-24151.4
0,55.9706,0,3.04147,0,0,0
2.47975e+08,45.6325,0,3.02032,4959.17,-873.374,-20653.8
2.47976e+08,5.87585,1,2.87475,-492.41,-1009.61,-28345.9
2.48206e+08,51.0345,2,2.47769,-4854.86,-9711.35,-29943.8
2.48222e+08,35.2758,2,2.9605,-4893.1,-3407.56,-24327.7
2.48888e+08,136.508,0,2.93264,-23030,7605.31,-13695.3
2.489e+08,47.1739,1,2.68341,7793.96,5857.02,-26646.9
2.49008e+08,19.0142,1,2.57582,-173.494,-3442.72,-26825.6
2.49044e+08,74.7287,2,2.64371,-10557.6,-6640.04,-19071.1
2.49406e+08,78.2,2,2.70364,-5250.79,10969.1,-17737.2
2.49521e+08,94.711,0,2.67605,15040.4,3102.64,-15949.1
2.49782e+08,37.6605,1,2.86082,5664.09,5555.18,-28471.5
