#class tools::wcsv::ntuple
#title time
#separator 44
#vector_separator 59
#column double eventID
#column double t(ns)
#column double copynumber
#column double energy(eV)
#column double x(mm)
#column double y(mm)
#column double z(mm)
277435,75.9333,0,2.60544,11206.5,7820.3,-20380.3
411241,36.0565,1,2.93112,-1871.36,-1212.75,-29249.5
544837,126.665,0,2.43464,15314.3,-7584.38,-8185.87
571241,62.053,0,2.57375,3063.4,1410.57,-28566.8
608867,67.7841,2,2.68024,-679.398,-11038.4,-19721.7
627342,50.715,0,2.64057,4805.35,-9713.85,-28498.8
826066,36.7718,1,2.72398,1047.52,-6546.12,-24914.4
910239,30.4261,1,2.77055,6188.45,1488.9,-28095.9
918297,271.228,1,2.58452,29013.1,-26198.8,13011.2
957896,46.4865,2,2.52295,-4025.42,7055.57,-26775.3
1.03299e+06,68.5706,2,2.93005,6106.45,-10736.9,-21368.9
1.05601e+06,182.762,0,2.54063,21702.3,4214.8,-23100
1.09589e+06,66.1127,2,2.88167,-5512.29,1461.06,-18341
1.10061e+06,72.2039,0,2.60041,-3300.85,6710.11,-15509.7
1.2898e+06,15.1058,1,3.00157,1206.77,1142.22,-26128
1.40422e+06,106.766,0,2.54781,15173.4,14625.1,-20567.8
1.43315e+06,20.4499,2,2.80785,3056.47,-2717.24,-27405.2
1.55112e+06,100.361,1,2.68072,-14433.1,8570,-15815.2
1.96055e+06,167.307,2,2.84121,-23102.2,26565.8,-28388.2
2.00268e+06,164.557,2,3.04581,-22602.5,-1354.56,-10044.8
2.1141e+06,50.7162,1,2.74635,1565.87,-7413.03,-21372.5
2.1982e+06,25.2875,1,2.64356,-1097.17,5348.14,-28641.5
2.27811e+06,23.3907,0,2.96629,2045.82,-2052.6,-24853.8
2.37853e+06,31.6387,2,2.48359,-4272.7,123.681,-23733.5
2.46392e+06,62.2248,2,2.93875,-760.466,-5092.22,-16921.3
2.62072e+06,196.547,0,2.85475,3496.26,-25760.3,2962.33
2.81496e+06,67.0456,0,2.95584,-7701.4,10979.7,-24597.8
2.88754e+06,70.5174,1,2.57216,7946.26,-522.643,-16251.7
2.9235e+06,141.706,1,3.01328,-8720.96,3991.93,-773.578
2.96357e+06,203.828,0,3.03472,20658.2,23559.5,218.364
3.05748e+06,45.4075,1,2.68319,-4670.62,7679.85,-27876.5
3.18391e+06,1.83854,2,2.92953,-333.601,-182.461,-28577.7
3.22809e+06,147.181,1,2.49518,20592.1,670.857,-5565.48
3.337e+06,40.1546,2,2.94648,-5435.48,880.558,-22488.3
3.34859e+06,122.132,1,2.86209,12195.1,19249.4,-17073.3
3.38168e+06,162.78,0,2.91399,-516.487,27076.2,-7977.79
3.5036e+06,23.1727,0,2.70874,2944.15,2504.05,-25720.1
3.53445e+06,55.4029,0,2.77723,-7554.27,-3707.11,-20803.2
3.54465e+06,129.905,0,2.47615,-3515.88,3129.27,-28138.1
3.6234e+06,8.4032,2,2.70545,-1270.89,756.372,-27758.3
3.76021e+06,86.0068,1,2.69706,14434.2,-3604.9,-18732.3
3.76321e+06,11.5955,0,2.57832,1250.95,970.062,-26912.6
4.03799e+06,117.025,1,2.80261,-9466.66,15745,-12254.1
4.25898e+06,148.858,2,2.89622,1819.8,-8746.53,-18903.7
4.33791e+06,61.1364,2,2.884,-7427.65,3022.04,-18756.2
4.39634e+06,45.303,0,2.46705,-5134.47,-6729.05,-24375.7
4.53093e+06,167.673,1,2.74258,15307.2,-12021.6,274.006
4.90123e+06,78.0689,1,2.36584,-14840.8,3888.72,-22495.4
4.93855e+06,55.0849,2,2.8693,-4611.77,-10881.6,-28611.2
4.95539e+06,52.2687,0,2.75594,9372.93,-3456.82,-24015.6
5.00866e+06,321.704,2,2.46575,-9288.43,-755.955,-14855.3
5.02229e+06,49.8492,2,2.72661,-465.84,-10564.8,-29493.1
5.05893e+06,133.985,0,2.81887,-1646.19,-1398.66,-25942
5.12832e+06,137.902,2,2.54465,759.817,26351.8,-16543.3
5.19799e+06,25.8474,2,2.99748,-3317.29,-1407.38,-24979.5
5.33799e+06,163.03,2,2.8175,-115.832,16879.8,961.117
5.3447e+06,41.9999,2,2.96835,6706.01,-5804.22,-28159
5.37113e+06,108.315,1,2.63079,11119.1,5506.88,-9634.25
5.62305e+06,58.307,1,2.6328,8136.09,1138.02,-19790.4
5.66158e+06,114.424,1,2.61968,-16092.8,1627.11,-10890.7
5.70357e+06,97.4771,0,2.89145,-12865.5,-6468.56,-15919.4
5.74235e+06,75.93,0,2.68469,-12970,1556.79,-19663.6
5.74643e+06,81.8834,2,2.88961,-191.416,-4142.37,-12175.8
5.8109e+06,8.63431,2,2.67925,-493.978,-1373.3,-27907.6
5.84187e+06,34.7679,0,2.38851,6791.29,-2233.82,-26726.8
5.8792e+06,111.552,0,3.04135,-3989.86,-22251.1,-22964.3
5.96712e+06,126.574,2,2.8339,-18540.1,-5953.72,-10572
5.97333e+06,59.0095,2,2.39584,-9413,-428.808,-20534.7
6.14226e+06,10.2733,0,2.5853,593.64,-1240.73,-27101.8
6.14403e+06,61.6784,1,2.99449,-2875.3,11932.9,-24208.5
6.55109e+06,138.772,2,2.53135,-28760,2023.3,-23288.6
6.60605e+06,3.72355,0,2.8836,907.077,233.861,-28526.6
0,3.59853,0,2.96297,0,0,0
6.78594e+06,9.22111,0,2.82644,1873.71,-756.601,-28671.9
6.81516e+06,40.3989,2,2.44967,-4862.85,2682.25,-22344.9
6.83115e+06,48.67,1,2.45894,-3576.54,5952.92,-21180.5
7.04422e+06,42.5223,0,3.04521,2337.05,-7951.78,-25365.7
7.08271e+06,17.4907,0,2.36669,3270.8,-1717.23,-28179.9
0,17.9413,2,2.45716,0,0,0
7.11136e+06,12.9697,2,2.68645,-768.566,-1303.95,-26458
0,12.8609,2,2.58906,0,0,0
7.12978e+06,71.2614,0,2.89665,5472.68,13074.2,-23921.8
7.23744e+06,92.467,0,3.01128,-5217.73,-17072.5,-21329.8
7.3132e+06,10.2034,1,2.53425,1271.64,967.168,-27555.1
7.35073e+06,65.2444,2,2.44244,503.009,-3139.49,-15556.3
7.40702e+06,7.83489,0,2.93157,1727.8,236.356,-29119.8
7.41566e+06,17.893,1,2.36557,-2122.71,2227.85,-26759.8
7.61423e+06,39.1666,2,2.99321,-6508.64,-4895.33,-27707.7
7.71015e+06,55.9888,2,2.88062,1763.61,-4302.99,-18250.1
7.87372e+06,27.5065,1,2.49427,-2894.04,-4883.44,-27570.1
8.13741e+06,67.4531,2,2.84398,-13379,-2238.01,-24405.2
8.22942e+06,43.182,1,2.61037,4669.65,3014.95,-21533.2
8.43336e+06,12.4491,0,2.36879,2766.4,66.8129,-28884.9
8.46161e+06,1.57792,2,3.02876,-50.3338,-310.76,-28631
0,1.58139,2,2.83109,0,0,0
8.68471e+06,23.254,1,2.76625,-1493.82,-1413.3,-24399.1
8.79143e+06,25.4923,2,3.05779,5114.38,-1427.65,-28339.4
8.88176e+06,55.8695,0,2.69187,5247.84,7606.81,-21468.2
8.90428e+06,173.304,0,2.66759,1370.32,17135,3445.02
9.24831e+06,74.7549,0,2.76767,10551.9,-1948.64,-17216
9.27106e+06,32.1913,0,2.42044,-1577.5,-3277.26,-23118.5
9.34244e+06,42.9386,2,2.60093,1433.2,-7731.29,-24156.9
9.4699e+06,139.375,2,2.84978,10096.8,-21035.5,-10829.8
9.66443e+06,26.5014,2,2.5275,-3176.74,3567.99,-25932
9.66656e+06,64.8122,0,2.52373,5220.61,-12718.3,-29748.1
9.66988e+06,30.7673,0,2.98177,4467.29,3753.39,-25813.1
9.69935e+06,21.4591,2,2.42592,-2267.54,-1332.49,-25093.1
9.71566e+06,82.2252,2,2.98247,16603.3,-24.8225,-24258.2
9.87116e+06,140.119,2,2.96292,-15515.5,-10178.1,-6045.91
9.87317e+06,69.0937,0,2.96498,5476.56,10466.9,-20381.4
9.91833e+06,60.8614,1,2.50809,-4119.42,10490.4,-22819.6
1.01251e+07,141.035,0,2.69868,27423.6,-1794.05,-17297.1
1.03415e+07,106.828,2,2.48926,11002.5,-14326.2,-15119.3
1.03653e+07,76.0558,1,2.89946,-6789.5,-1151.51,-14390.9
1.04288e+07,32.2461,2,2.55768,-2888.73,3818.24,-23997
1.05788e+07,34.4289,2,2.78195,-5586.91,-399.979,-24134.2
1.06001e+07,102.198,2,2.92175,-1577.85,-21472.6,-29718
1.06473e+07,8.69391,2,2.67806,1877.99,96.3579,-28912.7
1.09485e+07,158.507,1,2.71928,-23566.1,-8745.53,-7856.6
1.11189e+07,96.0261,2,2.61474,-15558.1,-3123.16,-16122.2
1.12422e+07,13.1253,2,2.9129,-697.553,-1645.71,-26679.2
1.13554e+07,94.6784,0,2.73032,-2707.74,-16906.7,-18473.3
1.13633e+07,40.3251,2,2.45289,5458.65,-4378.64,-24047.2
1.15459e+07,157.576,0,2.92348,-12903.7,-29189.9,-20296.4
1.15515e+07,148.142,1,2.38795,3314.09,586.594,-28576.8
1.16817e+07,120.492,2,2.52566,-8314.54,14984.5,-10094.6
1.17596e+07,62.4329,2,2.92851,-7131.42,-10549.5,-25332.2
1.18149e+07,23.6959,0,2.96641,-263.979,2586.03,-24811
1.19478e+07,94.8978,1,2.55568,-3446.85,6010.9,-25017.7
1.19732e+07,50.3545,0,2.52386,-7634.12,-7192.1,-27220
1.19757e+07,218.032,1,2.53286,24255.6,218.253,10307.4
1.217e+07,133.916,0,2.94384,16030.5,22781,-27861.4
1.24131e+07,158.989,2,2.56311,28414.8,-13909.1,-17570.4
1.26309e+07,120.455,1,2.95077,8443.77,2590.72,-18068.4
1.27462e+07,136.34,0,2.78373,-8856.32,-12841.2,-4503.78
1.27618e+07,32.6743,0,2.65654,-2043.17,-1864.61,-22630.2
1.27704e+07,22.9874,1,2.87217,-2831.38,-3857.04,-28589.8
1.29095e+07,85.0536,2,2.98657,-2259.92,17318.1,-25522.9
1.29605e+07,179.095,0,2.80184,-430.328,-22452.5,1412.03
1.34904e+07,175.528,1,2.55445,4529.24,28486.7,-5381.44
1.35237e+07,230.617,0,3.02047,14379,-13802.4,15227.2
1.35393e+07,1.85249,0,2.3921,182.597,207.657,-28675.5
1.36006e+07,13.8061,0,2.81149,1224.87,-2005.97,-27069.5
1.37164e+07,42.8097,2,2.47644,-6102.35,1352.33,-22515
1.3943e+07,16.7808,0,2.5702,2741.02,2019.11,-27869.1
1.40059e+07,20.5885,2,2.87551,4103.06,-899.903,-27911.4
1.40211e+07,31.442,1,2.62587,-4554.85,3625.05,-25494.5
1.40431e+07,15.7991,2,2.6157,-297.377,2597.25,-27024.5
1.41311e+07,78.5296,1,2.76318,-1862.45,-13699.7,-19679.3
1.4322e+07,102.904,2,3.01709,6094.5,-8926.84,-10209.3
1.43608e+07,11.1274,0,2.91936,-211.334,-2279.71,-28025
1.43984e+07,118.828,1,3.03294,10890.5,1661.4,-6539.39
1.44478e+07,3.61476,1,2.8692,300.066,-509.373,-28742.6
1.45628e+07,23.3026,2,2.6973,-1757.31,-4283.44,-26922.1
1.46231e+07,4.01262,0,2.67352,989.074,-8.86783,-28656.5
1.46554e+07,64.3736,0,2.80957,10113.9,-2981.95,-20180.2
1.47559e+07,7.15047,2,2.4381,-453.059,-1281.51,-28100.1
1.47894e+07,282.757,2,2.74659,-2555.09,3905.32,-25378
1.48875e+07,66.2643,0,2.71704,4397.18,3998.57,-16238.1
1.49947e+07,222.944,2,2.6222,11725.2,-7350.06,9064.11
1.5065e+07,32.2472,1,2.46808,-2139.26,3302.59,-23208.6
1.50764e+07,34.6606,2,2.65365,-6190,-17.0957,-24846.8
1.52147e+07,0.950661,1,3.17084,113.674,185.373,-28670.8
0,0.924994,1,3.89391,0,0,0
0,0.951444,1,2.08688,0,0,0
0,0.821141,1,2.87295,0,0,0
0,0.827088,1,3.12979,0,0,0
0,0.847953,1,3.025,0,0,0
1.52486e+07,132.31,2,2.81257,27663.5,2900.67,-29068.6
1.52879e+07,75.7673,0,2.51125,14730.2,6570.7,-28736.5
1.53746e+07,27.843,1,2.6394,750.349,3949.37,-24466.9
1.55599e+07,24.2886,1,2.43268,1779.32,-1737.15,-24372.1
1.55667e+07,119.133,2,2.64966,-7340.8,-537.83,-26951.3
1.58756e+07,44.5543,0,2.93707,-8595.08,2813.55,-27007.1
1.60544e+07,68.2692,1,3.00358,3486.43,9536.21,-18686.4
1.61029e+07,31.2143,0,2.43398,6359.71,-1277.96,-27072.3
1.6211e+07,43.4283,1,2.83547,3957.29,6280.88,-23456.6
1.6281e+07,17.2571,2,2.48688,-1069.27,-3557.48,-28412.3
1.62815e+07,162.973,2,2.64844,-1888.98,-28115.6,-8984.27
1.6567e+07,435.172,0,2.39173,3934.11,2667.74,-23664.9
1.66279e+07,125.217,1,2.94838,-16714.5,-6216.26,-9568.53
1.66327e+07,9.61813,0,2.71422,1654.56,1216,-29381.7
1.67044e+07,151.757,1,2.76364,-11326.4,2366.08,903.28
1.67065e+07,4.72909,1,2.79089,123.806,947.429,-28227.8
1.6731e+07,61.1284,2,2.86055,-9687.36,-5323.76,-22076.8
1.68027e+07,5.12427,1,2.73537,506.837,793.165,-28250.7
1.68507e+07,155.136,0,2.41635,18796,4373.72,-3459.89
1.71033e+07,19.3417,2,2.42687,-41.1659,3639.27,-27021.3
1.72806e+07,29.5061,0,2.65191,-4261.43,4270.07,-27383.3
1.73518e+07,100.97,1,2.83539,-1223.28,13594.3,-12521.3
1.76524e+07,143.102,0,2.64457,21671.1,5140.38,-8443.15
1.76892e+07,66.2445,1,2.6053,-2986.63,11350.5,-21110.4
1.79141e+07,59.6518,2,2.36904,-4121.88,-10906.7,-23860.9
1.80381e+07,96.1865,0,2.56412,3170.84,4868.21,-9350.83
1.82532e+07,198.765,2,2.78245,-22173.4,-24466.7,-3395.69
1.82885e+07,6.6636,2,2.79435,-959.011,-135.199,-27757.5
1.82962e+07,127.22,1,2.74334,11930.3,5787.21,-5546.13
1.85744e+07,139.643,0,3.01403,-13913.1,19887.2,-24836.7
1.86248e+07,83.3936,1,2.78372,9086.95,-5037.43,-14782.1
1.86255e+07,11.7376,1,2.61437,-1216.98,364.37,-26674.8
1.86988e+07,109.691,2,2.51116,-18827.7,-769.678,-15229
1.87003e+07,113.45,2,2.42423,-8879.05,6715.22,-7584.49
1.8751e+07,35.8307,0,2.70381,2991.46,2196.4,-22228.2
1.87616e+07,226.411,2,2.60499,18152,13671.5,13006.3
1.87967e+07,34.6679,0,2.45285,-3126.49,2730.79,-22794.6
1.8863e+07,149.696,2,2.87287,17110,11620.7,-20239.6
1.89586e+07,84.1789,0,2.77858,17282.9,-1918.85,-24989
1.90216e+07,246.955,2,3.05082,-19350.3,5562.51,-21307.2
1.91186e+07,89.1307,1,2.661,-7195.38,264.916,-12347.1
1.91249e+07,137.669,0,3.01081,-734.841,3603.13,-29349.6
1.91889e+07,72.6135,1,2.58478,-7315.55,10968.3,-20839.7
1.92296e+07,136.716,2,2.73714,-16886.9,-23424.8,-28535.4
1.92945e+07,60.5496,1,2.94495,6541.79,-1777.73,-19416.6
1.94029e+07,105.566,0,2.81916,8026.01,-8689.69,-10065.6
1.94453e+07,25.5613,2,2.49855,-201.599,-3753.47,-25184
1.94853e+07,210.247,2,2.97042,25689.5,28632.1,-17453.9
1.97593e+07,131.697,1,2.87223,2395.81,-6729.66,-17343.2
1.98209e+07,17.6815,1,2.51154,-478.385,-3227.06,-27021.8
2.0333e+07,125.128,0,2.72942,24695.6,-9736.75,-28079.7
2.03412e+07,16.0059,2,2.50661,-1329.7,592.354,-25779.7
2.03741e+07,56.2303,0,2.48168,7975.33,6911.08,-23380.2
2.04496e+07,14.9365,1,3.00363,2087.43,2364.06,-29270.1
2.06146e+07,3.73657,1,2.72725,-447.952,705.248,-28568
2.06297e+07,14.4472,1,3.04783,1290.79,-1229.34,-26528.3
0,14.0359,2,2.56419,0,0,0
2.08188e+07,123.018,1,2.72737,-8369.43,6118.97,-4879.29
2.08205e+07,98.3444,0,2.9872,16657.2,-907.053,-16547.7
2.08872e+07,5.53994,1,2.41384,638.47,132.279,-27730
0,5.43792,1,2.75976,0,0,0
2.08977e+07,21.1881,2,2.96541,1505.64,-2830.51,-25861.6
2.10147e+07,20.4617,2,2.94704,-1933.42,-3883.22,-27670.9
2.10418e+07,72.6385,1,2.96032,-12860.9,-2967.91,-21124.8
2.10802e+07,130.252,2,2.41613,-23004.6,-11201.9,-18329.8
2.11092e+07,27.7119,0,2.78787,2907.94,-803.327,-23766.4
2.11566e+07,78.3074,0,2.50594,995.193,12054.6,-17542.8
2.1292e+07,45.1157,2,2.65937,-8017.52,103.58,-23323.5
2.13268e+07,3.33576,0,2.59053,856.909,-330.915,-28861.3
0,3.38284,0,2.64102,0,0,0
0,3.36937,0,2.52467,0,0,0
2.1404e+07,28.6181,0,2.82624,1431.38,5897.6,-29015.5
2.15923e+07,28.9888,1,2.42529,-3472.96,2209.47,-24172.1
2.16313e+07,22.5544,0,2.67329,4655.87,-735.491,-29860.1
2.17851e+07,71.5103,1,2.95382,1902.05,1382.27,-27322.6
2.17974e+07,51.4562,2,2.42935,-6104.77,2254.37,-20077.9
2.18291e+07,41.8134,2,2.6956,-5051.94,947.017,-21569.5
2.18854e+07,200.43,0,2.50936,-25410.2,-22344.7,-3351.26
2.2051e+07,168.887,1,2.96521,2983.81,-13008.8,-29421.5
2.23673e+07,161.013,2,2.68101,-21735.8,8719.33,-4198.09
2.25086e+07,2.17661,0,2.4862,527.501,-160.353,-28880.8
0,2.13684,0,3.04801,0,0,0
2.25985e+07,39.1271,1,3.03504,-2106.48,421.631,-29093.3
2.27608e+07,161.835,2,2.77795,-28474.8,1651.76,-10188.5
2.28738e+07,179.037,2,2.76791,989.903,290.016,-26310
2.29874e+07,125.844,0,2.38772,21912.2,15307,-29588.5
2.30842e+07,169.577,0,3.00655,27868.2,3771.43,-14243.8
2.35087e+07,14.1767,0,2.65868,1868.57,2012.83,-27463.7
2.36027e+07,102.346,2,2.72383,7036.42,10848.5,-24649.4
2.36418e+07,69.1172,2,2.98983,-8211.49,-9898.3,-22017.9
2.38044e+07,34.3168,0,2.90986,-5195.04,1282.89,-24066.8
2.38079e+07,105.08,2,2.94435,7202.56,10184.2,-10689.1
2.38539e+07,55.052,2,2.43548,4890.1,-924.903,-18144.5
2.40178e+07,2.61825,2,3.06059,-545.248,-54.4714,-29258.4
2.4049e+07,103.828,0,2.47793,17258.9,5794.89,-16409.7
2.40848e+07,38.5397,0,3.00066,4601.2,6422.93,-26883.7
2.42086e+07,25.3144,0,2.92859,-4094,3214.02,-27909.5
2.43087e+07,107.174,1,2.85133,-4319.92,21261.3,-22368.3
2.4449e+07,0.979501,2,2.87523,-173.956,20.9915,-28679.5
0,0.987941,2,2.69683,0,0,0
2.4576e+07,153.843,0,2.83069,27107,9600.89,-14021.7
2.5035e+07,65.914,1,3.05504,6387.41,1199.84,-16965.2
2.50791e+07,79.743,1,2.95261,9405.58,-2486.83,-15239.6
2.52525e+07,16.8716,2,2.8464,-2794.58,197.142,-26477.1
2.53165e+07,28.6235,0,2.83798,3512.15,4989.06,-28882.4
2.54618e+07,95.8914,2,2.76769,12469.1,4066.58,-13541.6
2.5472e+07,224.688,0,2.72067,-17329.2,-23040,8606.78
2.5478e+07,63.3341,1,2.73266,2930.99,8757.41,-19143.4
2.55684e+07,7.92183,1,2.44625,1379.9,-374.383,-28122.6
2.56528e+07,75.1469,0,2.4668,11694.8,-6366.03,-20208.7
2.57246e+07,15.4495,2,2.75626,-1038.46,-664.007,-25791.5
2.57946e+07,85.1621,0,2.97093,2656.61,-3446.6,-25108.9
2.60073e+07,142.301,1,2.67234,25070.8,10887.2,-16511.9
2.60724e+07,98.53,0,2.94077,-1764.13,3337.28,-29352.6
2.61826e+07,254.767,1,2.97687,-1962.75,9342.04,-1610.53
2.61992e+07,32.5006,2,2.57411,-2972.77,-5419.27,-25616.5
2.62894e+07,92.9795,0,2.9045,10067.7,11108.4,-16240.5
2.638e+07,51.3801,0,2.36777,-5836.04,-1270.53,-19904.6
2.63853e+07,70.1248,0,2.75477,-3377.12,-4604.26,-15283
2.6431e+07,30.1071,2,2.98928,3004.04,-1525.16,-23554.4
2.64982e+07,167.312,2,2.75264,-19142.5,16170.4,-3999.29
2.65923e+07,45.1455,2,2.6117,-3314.12,-2160.47,-20145.6
2.66482e+07,148.499,0,2.96897,-5169.28,11254.2,-323.289
2.66531e+07,92.4234,0,2.65954,6018.77,-14697.1,-17812.7
2.66563e+07,8.49743,2,2.60411,-1716.58,-565.093,-29445.9
2.66709e+07,27.3871,0,2.86393,-481.732,-1773.88,-23361.2
2.6693e+07,13.1872,1,2.77275,-2328.87,82.9487,-27134
2.67037e+07,88.3011,1,2.82757,-18182.4,-3815,-28682.3
2.67172e+07,71.2824,0,3.01377,2010.97,2534.53,-15007.1
2.6769e+07,33.1114,2,2.46608,4329.14,-2404.39,-23835.7
2.69545e+07,13.5085,2,2.55182,-1496.95,367.025,-26388.3
2.72763e+07,33.2163,2,2.64625,-5015.99,3157.78,-24972.1
2.73002e+07,38.9732,2,2.87228,443.076,-2441.22,-20971.8
2.73084e+07,138.716,0,2.55547,7867.95,10519.5,-2719.43
2.77035e+07,80.9035,0,3.01283,17032.4,478.014,-28940.2
2.7852e+07,80.632,0,2.81583,16254.4,-5031.31,-29542.7
2.79707e+07,67.5886,2,2.40643,-3324.14,-13529.6,-25225.6
2.79762e+07,140.464,1,2.75043,-2027.3,14903.4,-3356.75
2.8134e+07,45.5284,0,2.98533,7201.04,-6400.52,-28918.5
2.81713e+07,68.4165,1,2.59191,-5068.89,12421.7,-23072.5
2.83116e+07,38.4576,0,2.78366,-3205.05,2900.72,-21991.6
2.8366e+07,21.6417,0,2.8912,3912.1,651.523,-26517.8
2.8417e+07,8.51559,0,2.8199,1095.5,490.165,-27340.6
2.84221e+07,166.906,1,3.05623,-2297.8,-11475.9,-20140.9
2.85545e+07,51.7088,1,2.36961,-7465.44,7239.28,-25286.7
2.86358e+07,79.7994,0,2.89186,12510.2,-10975.6,-26251.5
2.87266e+07,5.80031,2,2.8405,-36.0905,-1295.79,-28628.1
2.89373e+07,19.1173,0,2.40271,2766.51,1672.88,-26337.6
2.89457e+07,35.9579,1,2.5756,2111.69,6788.38,-26026.3
2.91079e+07,27.7918,0,2.55136,-1591.28,-2183.92,-23613.7
2.97006e+07,53.8786,1,2.81501,9308.32,-5947.13,-29893.7
2.97227e+07,108.921,1,2.71714,15122.2,9465.9,-14534.1
2.97717e+07,23.2614,2,3.0302,1586.39,-1967.71,-24613.4
2.98533e+07,36.2101,1,2.45097,6892.32,-1446.56,-25897.1
