#class tools::wcsv::ntuple
#title time
#separator 44
#vector_separator 59
#column double eventID
#column double t(ns)
#column double copynumber
#column double energy(eV)
#column double x(mm)
#column double y(mm)
#column double z(mm)
156662,2.06098,0,2.38836,309.971,-334.217,-28602.5
198103,35.7533,1,2.54691,-5975.65,4731.01,-28017.5
284051,23.2477,0,2.87054,1398.38,2010.27,-24565.7
645403,113.965,0,2.43367,-11563.9,2494.42,-7857.7
698824,303.542,2,2.8447,-7105.45,9536.03,25884.8
779792,173.857,1,2.94548,-4917.79,-44.9222,-25080
780017,50.6496,1,2.73964,-7084.45,-3830.17,-21823.9
808630,6.32023,0,2.91356,1000.48,-334.193,-27907.8
876334,85.1578,1,2.94399,1078.33,16901.6,-22913
929023,8.00276,2,2.46499,1150.2,-443.434,-27643
1.06711e+06,23.1489,0,2.82398,4166.37,1284.65,-26488.9
1.6485e+06,29.9614,1,2.83248,-209.625,-4001.59,-24036.7
2.97864e+06,57.0458,1,2.74431,9570.64,-6424.13,-25651.9
3.15358e+06,20.6997,1,2.54578,1198.48,-2755.54,-25690.5
3.28765e+06,116.581,2,2.6548,2809.01,-18940.9,-24109.1
3.3583e+06,89.8532,1,2.56956,7623.38,7775.11,-13257.5
3.50653e+06,8.68491,0,2.8541,1133.95,-1097.42,-27782.5
3.83702e+06,32.3239,2,2.52872,1601.66,6502.5,-27756.6
3.85648e+06,41.172,0,2.64214,-6878.51,750.725,-23638.4
4.00183e+06,21.8519,1,2.88591,-3872.69,1236.1,-26572.3
4.06952e+06,86.6352,2,2.37525,-11183.2,-9405.34,-17634.8
4.13899e+06,10.5739,0,2.44623,912.169,-695.513,-26882.3
4.7405e+06,70.0479,0,3.02776,10531.1,-10108,-26731.9
5.21311e+06,24.8014,1,2.58886,3381.95,572.786,-24898
5.48172e+06,103.503,1,2.51339,314.205,-3860.24,-11495.4
5.76609e+06,20.123,0,3.02903,175.239,3075.45,-25921.5
5.97877e+06,204.459,1,2.98944,-7589.84,-13263.3,-19875
6.38697e+06,6.26556,1,3.01614,-568.955,838.499,-27877.8
6.58648e+06,68.0974,1,2.69257,-12994.1,5233.1,-25310.1
6.67297e+06,147.996,0,2.51025,24546,15559.3,-17085.6
6.69344e+06,177.872,0,2.68574,18261.8,-26296,-9236.34
6.89416e+06,94.9104,0,2.64829,-15068.9,-5668.89,-17037.7
7.17317e+06,67.8807,2,3.02821,2200.49,10847.3,-23528.9
7.26213e+06,134.945,1,2.54945,93.5756,17785,-6470.81
7.41278e+06,176.228,1,2.74271,13427,24133.5,-4021.17
7.54678e+06,77.2022,2,2.77788,-14751.5,-6967.25,-29171.8
7.56688e+06,45.3183,2,2.78958,-7811.24,-3472.77,-24462.9
7.68931e+06,15.4248,1,2.64963,156.857,3323.91,-29309.2
8.11e+06,40.4341,0,2.88954,1457.93,8080.25,-26492.1
8.32948e+06,55.6525,1,2.89646,-5846.08,1901.88,-18840.4
8.56706e+06,259.356,1,2.66016,-23898.5,7990.55,-18372.9
9.0468e+06,155.769,2,2.6318,-16314.3,3890.52,-590.549
9.1571e+06,155.038,2,2.56096,-4042.32,-28007.2,-12155
9.36245e+06,108.836,2,2.37325,-6149.5,-12371.1,-10329.3
9.52065e+06,12.0386,0,3.0221,2550.8,-188.721,-28239.6
9.52086e+06,10.3168,2,2.93027,1125.78,-560.618,-27046.6
9.67763e+06,26.7771,1,2.53093,5107.8,1673.7,-27023
1.01347e+07,15.0701,0,2.90395,-1427.68,-2135.02,-27014.2
1.07876e+07,126.755,2,2.68577,22134.7,1210.56,-13952.3
1.12373e+07,187.806,0,2.53261,14525.8,-23728,-6922.87
1.14043e+07,8.15473,1,2.82566,-1137.38,923.025,-27795.5
1.17586e+07,3.96447,2,2.90095,-272.235,-223.811,-28053.3
1.18502e+07,14.3744,0,2.50211,1930.93,994.11,-26602.1
1.18782e+07,24.0861,0,3.034,1299.83,-2750.93,-24786.9
1.19095e+07,21.0647,0,2.56657,4495.59,-504.066,-28273.6
1.19097e+07,42.6367,2,3.04209,-3772.89,-1115.97,-20788.4
1.22113e+07,54.1812,2,2.40356,-8143.84,2958.72,-21267.2
1.22722e+07,18.526,2,2.64538,-2344.53,1925.75,-26384.8
1.25842e+07,25.989,1,2.77551,-2779.27,2315.02,-24630.6
1.27172e+07,93.1336,2,2.38866,183.73,-13426,-14326.3
1.27984e+07,5.88666,0,2.7121,1131.15,-650.087,-29010.1
1.32051e+07,141.975,2,2.8637,-5542.98,-16254.6,-4761.35
1.32695e+07,1.5127,0,2.44264,306.151,152.082,-28626.9
0,2.10232,2,2.48715,0,0,0
0,2.00997,2,2.4081,0,0,0
1.36174e+07,4.40106,1,2.55954,-565.9,317.545,-28088.1
1.36214e+07,78.628,0,2.698,6700.87,-11871.6,-19304.9
1.37966e+07,56.3352,0,2.72153,9044.23,-7650.4,-27425.1
1.39223e+07,164.12,1,2.65254,12865.1,-13062.3,513.185
1.402e+07,133.249,2,2.57646,-22524.6,-17038.6,-29070.3
1.42156e+07,117.084,0,2.5477,7953.37,23460,-29692.4
1.43075e+07,7.56104,2,2.96014,-1187.41,621.039,-27944
0,7.22873,1,2.60474,0,0,0
1.4412e+07,39.1785,0,2.63093,6524.39,3461.23,-25021.4
1.44744e+07,80.3411,0,2.84463,12348.6,4636.78,-18195.2
1.4537e+07,182.157,0,2.94277,6400.37,-27565.4,-3518.07
1.50364e+07,48.071,2,2.70037,-8289.16,-5989.77,-29271.9
1.50799e+07,80.9464,0,2.83823,9111.5,-237.891,-14397.8
1.53491e+07,8.99695,2,2.39317,262.599,1779.63,-28366.9
1.53839e+07,30.5641,2,2.79191,-295.04,-5038.74,-24722.5
1.55788e+07,41.0025,1,2.67797,-8225.34,2927.16,-29340
1.57831e+07,38.7529,1,2.8787,1437.83,7723.72,-26531.4
1.59612e+07,9.45711,0,2.92918,1180.38,-1572.92,-29424.2
1.61471e+07,33.8566,1,2.4669,-4279.52,-306.202,-23085.3
1.61859e+07,151.974,1,2.4392,25045.6,-19440.6,-23951.2
1.64222e+07,122.966,0,2.67086,22842.2,12423.4,-28136.7
1.67194e+07,40.6563,2,2.59825,-4855.21,3683.79,-22761.4
1.70051e+07,74.2499,0,2.5454,10984.4,11294.7,-28722.3
1.75837e+07,93.0538,0,2.37033,-13757.1,-6087.44,-16187.4
1.76553e+07,1.57394,2,2.9906,-6.51419,-125.631,-28483.6
0,1.62221,2,2.77425,0,0,0
0,1.70233,2,2.86914,0,0,0
1.78099e+07,33.9459,2,2.67352,-674.084,-7230.2,-28613.5
1.84645e+07,148.147,1,2.76475,-102.362,19564.8,-4514.25
1.857e+07,4.55037,2,2.6354,130.856,-1046.83,-28995
1.87259e+07,213.874,1,2.79555,3594.76,20398.8,-13713.8
1.88197e+07,39.0242,1,2.82685,-5475.38,-2175.06,-23087.6
1.93897e+07,53.9183,2,2.92138,9518.13,1698.1,-23037.4
1.98696e+07,55.8793,1,2.94164,-2123.95,9197.66,-21777.2
1.98886e+07,0.287122,0,2.74448,181.478,22.9382,-28842.8
2.03295e+07,20.103,1,2.93284,1526.06,4015.18,-28861.5
2.06706e+07,105.915,1,2.77457,15268.6,-14159.2,-21016.5
2.1211e+07,104.307,1,2.59484,2352.35,18585.9,-17107.4
2.13428e+07,7.8612,2,2.48291,399.346,-1269.56,-27722.4
2.18207e+07,47.1786,1,2.4708,-9935.27,-805.539,-27693.8
2.18355e+07,123.704,0,2.49968,-15598.3,6938.48,-9064.56
2.21456e+07,50.3327,0,2.48171,-3611.13,-8428.5,-23442.5
2.23259e+07,5.54935,0,3.0133,989.077,753.948,-29104.7
2.23649e+07,165.827,2,2.90151,-17249.6,-20527.8,-18112.3
2.23727e+07,53.6631,1,2.55849,5989.69,7230.86,-28084.7
2.24019e+07,132.039,0,2.38434,21907.3,11885,-16047.2
2.26756e+07,88.8317,0,2.73718,5634.46,11253.6,-14956.3
2.26809e+07,48.3162,2,2.69292,-6067.03,-6791.45,-24078.8
2.29177e+07,115.209,1,2.88294,-14970.8,2479.92,-9939.26
2.36192e+07,165.887,0,2.49838,-12861.7,18516.3,-2001.93
2.37152e+07,44.7909,0,2.59506,6157.76,-622.84,-21588.1
2.38582e+07,126.023,0,2.93679,15589,-21459.8,-28669.1
2.42145e+07,179.856,1,2.97903,28711,-12798.2,-8081.2
2.43789e+07,107.056,2,2.76473,-1485.64,14257.6,-11465.3
2.44397e+07,25.2006,0,2.80179,-2188.05,4118.9,-26345
2.44885e+07,165.77,1,2.66012,24823.6,23213.1,-20439.2
2.5148e+07,15.3725,1,2.55342,1447.48,1031.08,-26111.2
2.53368e+07,105.365,2,2.85821,6355.05,-15845.1,-14645.3
2.53729e+07,34.2819,1,2.95758,-6044.58,-1339.09,-25094.1
2.54151e+07,100.475,0,2.9141,7289.57,15374.4,-16281.6
2.56874e+07,103.827,2,2.48334,-13467,5302.44,-12283.5
2.58629e+07,101.703,2,2.95348,-17461.9,11481.6,-24479.9
2.6685e+07,32.2532,0,2.39837,-316.413,-4014.74,-23327.6
2.67142e+07,16.0624,0,2.76118,1283.3,-2776.24,-27257.9
2.69324e+07,81.7107,1,2.57071,-11016.1,1180.58,-15561
2.70099e+07,30.2424,1,2.77767,2899.39,3560.55,-24393.2
2.72953e+07,65.6997,2,2.58714,3291.51,-10007.9,-19737.6
2.73439e+07,20.5605,1,3.00639,1614.49,2304.5,-25547.4
2.74725e+07,63.554,0,2.59371,12592,1680.36,-24208.1
2.75997e+07,25.5476,1,2.81204,-3713.94,-2346.06,-25736.6
2.77741e+07,38.981,1,2.92426,-7394.89,3531,-29781.6
2.79276e+07,38.8136,2,2.7051,-4126.36,5451.11,-24330.4
2.80119e+07,71.5823,1,2.63116,-5108.54,-8943,-17812.4
2.8187e+07,65.2781,0,2.74074,-12993.6,3087.04,-25797.5
2.81896e+07,11.2687,0,2.72239,2204.3,-1051.71,-29195.1
2.82507e+07,119.002,2,2.59601,9008.74,-5120.58,-23844.4
2.8556e+07,124.189,2,2.64501,-15765.5,-12603,-12008.4
2.85633e+07,76.9556,1,2.79067,8435.61,4550.52,-15756
2.88998e+07,54.6918,1,2.71274,5608.89,6780.6,-21314.3
2.90619e+07,42.7138,1,2.78187,6563.9,4097.95,-24227.6
2.90838e+07,65.9026,1,2.50328,10208.2,1606.24,-19510.6
2.9439e+07,90.3049,0,2.91639,5810.62,-5238.46,-11527.5
2.94593e+07,54.892,2,2.58938,-4118.69,-10709.2,-26675
2.98601e+07,103.611,0,2.67398,8441.07,-1500.99,-8690.13
2.99905e+07,215.593,2,2.97418,-13729.5,-29407.3,2724.24
3.0141e+07,177.299,0,2.60127,-21223.9,2358.88,1874.59
3.04844e+07,78.0672,2,2.69893,-6964.52,-1834.09,-13995.3
3.07601e+07,29.2195,1,3.00174,-535.627,4010.13,-24137.7
3.0772e+07,57.3793,2,2.56819,-7198.67,-9804.6,-27443.9
3.12638e+07,114.302,2,2.6897,-23452.5,5668.69,-29150.8
3.1394e+07,62.2766,1,3.05787,-3622.62,-4204.32,-17031
3.14658e+07,141.852,2,2.52251,-23290.4,-10100.9,-12747.1
3.17127e+07,79.5038,1,2.41816,-5079.98,16048.1,-27050.4
3.18518e+07,121.46,2,2.44249,11393.8,-7886.28,-7182.49
3.20987e+07,5.80377,1,2.67737,228.962,-825.17,-28027.3
3.22237e+07,42.0354,1,2.91187,-6204.88,-2764.79,-23147.8
3.27121e+07,96.7119,1,2.80687,-8960.09,18365.1,-28892.7
3.27362e+07,303.223,1,2.9747,-26383.5,14882.9,27084.6
3.29948e+07,20.8497,0,2.9497,2049.25,453.136,-24934
3.30905e+07,35.8326,0,2.76314,1264.12,-6927.43,-26047.8
3.33323e+07,71.291,1,2.92205,-12811.8,7459.8,-26402.6
3.3362e+07,79.4609,1,2.42089,15579,4308.04,-24230.8
3.33759e+07,143.099,0,2.74438,28226.7,114.4,-18247.4
3.35451e+07,20.982,2,2.51643,263.89,-4259.42,-27340.5
3.35501e+07,46.3078,1,2.96013,-5836.47,7871.79,-29161.3
3.3778e+07,28.4937,1,2.63977,-3374.31,948.91,-23891.3
3.37953e+07,51.1011,2,2.70329,-3246.43,-1153.2,-27429.1
3.39954e+07,161.657,2,2.8761,11686.7,-28074.3,-13619.7
3.4602e+07,88.143,2,2.49728,-12574.8,6109.16,-16461.9
3.47476e+07,50.6684,2,2.70881,-7993.09,7036.67,-29474.9
3.47934e+07,108.195,2,2.56888,-8455.7,-12371.9,-11479.8
3.50646e+07,37.4436,1,2.75367,-5946.25,612.618,-23600.6
3.50958e+07,156.756,2,2.52918,-9976.88,20303.4,-4646.35
3.51803e+07,34.8154,1,2.73833,3240.95,-5827.1,-25880.9
3.5478e+07,27.9185,0,2.42295,4020.39,-4342.46,-29809.7
3.56782e+07,59.4512,0,2.90212,2506.24,-7372.59,-19081.4
3.57148e+07,45.3426,1,2.99656,-3527.32,8652.5,-26575
3.6044e+07,224.279,2,2.76806,19878.9,-1193.82,13957.7
3.6852e+07,5.09189,1,2.97793,-1002.63,540.308,-28653.3
3.71046e+07,40.868,0,3.003,6985.31,4825.68,-27176.3
3.72453e+07,7.72557,0,2.8592,1139.15,1257.35,-28752.1
3.72673e+07,70.3252,2,2.71212,-1633.37,-7705.98,-16214.4
3.7419e+07,123.379,1,2.76037,21233.8,12155.9,-20222.9
3.74722e+07,15.583,0,3.00753,1729.62,2660.73,-27811
3.76737e+07,10.6802,2,2.82306,1959.59,390.965,-27863
3.78474e+07,10.5138,2,2.39973,-298.167,-1857.15,-27509.9
3.81356e+07,98.8997,1,2.94509,-6189.52,12062.1,-13052.3
3.8736e+07,172.296,1,2.55207,-876.454,22518.2,-176.819
3.88207e+07,37.1064,2,2.60941,-6836.92,3895.79,-28808.3
3.88532e+07,52.5229,2,2.53281,9966.66,-4965.87,-28924
3.94759e+07,25.8172,0,2.91584,2474.38,-4359.05,-26609.8
3.97111e+07,19.5758,2,2.82604,-932.465,-364.052,-28630.9
3.99189e+07,79.8074,2,2.91969,11251.4,-6854.62,-18606.2
4.02011e+07,72.9728,1,2.39342,-10521.9,2362.78,-17704.2
4.04067e+07,5.53622,2,3.01268,-462.856,140.144,-27746.2
4.06416e+07,35.6503,0,2.93256,229.788,-2998.13,-21962.2
4.0703e+07,26.6472,1,2.59257,1723.41,-2107.16,-23922.2
4.13797e+07,117.305,1,2.88464,-17637,9125.7,-14162.3
4.14466e+07,35.1501,2,2.61371,-3728.12,323.047,-22386
0,35.1559,2,2.60063,0,0,0
4.15927e+07,185.062,0,2.41066,-5973.23,29719.7,-4093.25
4.23257e+07,149.875,2,2.62454,14851.9,-7072.05,-1794.18
4.23559e+07,89.9795,0,2.61397,-1857.1,-15644.1,-18230.5
4.23929e+07,82.3485,1,2.92722,10253.7,-162.958,-14934.1
4.24604e+07,21.7279,2,2.81113,172.617,-4056.52,-26546.6
4.25482e+07,234.363,1,2.89345,-24857.4,13239.7,9481.14
4.25984e+07,60.8012,1,2.82579,5506.87,-3428.47,-18899.6
4.28851e+07,41.1286,2,2.61959,-8109.41,-3370.74,-28853.9
4.30386e+07,66.3204,2,2.5339,12554.3,-6010.94,-27131.9
4.32179e+07,156.149,2,2.62629,-19674.3,11567,-5041.88
4.38996e+07,121.753,2,2.44877,-299.018,-22154.2,-15565.9
4.44161e+07,17.0008,0,2.79406,3127.31,-1596.29,-27792
4.46938e+07,97.3852,2,3.04033,-14315.8,-9887.28,-18028.6
4.5623e+07,29.7052,2,2.74287,-3350.15,-2242.06,-23960.4
4.57598e+07,60.4152,2,2.56249,1293.81,-10954,-22258.3
4.59036e+07,57.3005,0,2.84173,10461.3,-2719.4,-23302.4
4.59426e+07,35.3906,2,2.84533,2083.44,-3350.52,-22485.4
4.60083e+07,177.3,0,2.9856,24400.1,-4726.13,-7042.81
4.61757e+07,49.3278,1,3.04873,-4421.77,-3939.32,-20360.5
4.61994e+07,16.5676,1,2.74929,1097.91,-2191.15,-26387.9
4.62195e+07,88.3846,1,2.65954,1540.75,12689.2,-15206.1
4.63836e+07,70.5817,0,2.52502,11813.5,-8371.52,-24891.1
4.66823e+07,125.46,0,2.81556,21477.2,-13186.2,-20721.6
4.72192e+07,22.9073,2,2.37261,3089.46,-3127.29,-26741
4.72993e+07,35.3,0,2.85584,582.25,7070.55,-26542.6
4.75224e+07,132.547,2,2.93312,-21721.5,-13015.1,-17113.3
4.75791e+07,44.2466,1,2.94217,3741.74,-3747.61,-21261.4
4.78547e+07,0.679426,1,2.40352,-102.773,212.849,-28779.9
0,0.664174,1,2.81579,0,0,0
0,0.668911,1,2.99891,0,0,0
0,0.712989,1,2.45221,0,0,0
0,0.661245,1,2.56794,0,0,0
4.79402e+07,7.8316,0,2.7467,177.942,-1602.02,-28301.9
4.82441e+07,3.78766,0,2.84122,253.514,721.34,-28500
4.84899e+07,79.2698,0,2.72529,16219.2,-576.278,-24515.9
4.89149e+07,22.1095,1,2.87841,-1561.09,-1806.95,-24848
0,21.9088,1,2.38148,0,0,0
4.90351e+07,2.06177,2,2.92565,-465.227,120.237,-28950.4
4.91658e+07,7.23275,1,2.88448,-430.936,1332.03,-28030.8
4.92029e+07,52.9316,2,2.48553,-10529.5,-2210.55,-25450.1
4.93653e+07,11.7862,0,2.47219,-2.73593,-2047.8,-27371.6
4.96407e+07,27.5822,1,2.99047,-4129.23,3968.34,-27477.9
4.97508e+07,107.821,1,2.45516,-4574.23,18446.2,-16122.4
5.00961e+07,9.5427,1,2.84054,1007.65,-471.608,-27200.9
5.01376e+07,138.781,2,2.83973,-16993.5,7790.53,-6467.97
5.0216e+07,30.9007,2,2.93078,-3000.91,4012.38,-24738.3
5.0608e+07,13.2475,2,2.83074,-1011.3,-497.353,-26242.5
5.07837e+07,3.77173,2,2.55007,-69.6175,-399.165,-28094.5
0,3.80818,2,2.46203,0,0,0
5.13065e+07,155.377,1,2.69641,15652.9,-4293.81,-473.071
5.18247e+07,21.619,0,3.00406,3426.76,-88.905,-25770
5.22944e+07,15.9199,2,2.60206,189.738,-3106.38,-27329.7
5.26865e+07,103.028,1,2.37984,15735.9,13980.4,-23098.7
5.27732e+07,6.59171,0,2.82063,876.581,19.1036,-27684.6
5.39611e+07,12.7177,2,2.78211,-2599.87,-616.598,-28136.7
5.41892e+07,56.5835,1,2.775,-5519.96,-3266.91,-18771.7
5.46133e+07,6.12901,0,3.06137,385.573,-504.127,-27666.3
5.54463e+07,66.1432,0,2.43772,-10134.7,9137.81,-25980.2
5.56168e+07,32.0756,2,2.88925,3356.77,3272.68,-24029.4
5.59558e+07,68.3366,0,2.67505,13782.8,4326.05,-27330.6
5.60488e+07,185.629,2,2.5108,-10143.3,-27067.5,-2248.87
5.62435e+07,151.918,1,2.83383,-15699.2,4227.68,-1297.51
5.64026e+07,173.584,0,2.47016,-9918.86,28131.4,-7442.33
5.69171e+07,95.6138,2,2.71734,-3198.8,-19799.5,-26081.6
5.74934e+07,5.35545,0,2.69063,877.698,-747.276,-28472.3
5.78466e+07,243.618,0,2.89873,-12965.4,-21552.4,1552.51
5.78959e+07,121.121,0,2.86701,-18951,11400.9,-16357.4
5.79495e+07,168.914,0,3.00992,12295.6,25354.2,-24643.4
5.80269e+07,69.0757,1,2.37271,1159.57,8485.52,-16942.4
5.80427e+07,33.5919,2,2.59926,-3512.89,-3040.17,-23391.8
5.86791e+07,110.332,2,2.60576,-3594.24,-14429.8,-10831.5
5.87324e+07,33.8014,0,2.77886,-3906.39,-101.584,-22946.5
5.88729e+07,76.6639,0,2.55084,-2192.26,16060.1,-28044.5
5.92598e+07,3.9066,1,2.69423,696.849,58.3721,-28431.1
0,5.24634,0,2.61188,0,0,0
5.96635e+07,106.468,2,2.45106,-9666.47,16086.4,-16397.9
5.97763e+07,3.67641,1,2.8867,-208.767,688.257,-28348.5
0,3.69378,1,2.99798,0,0,0
5.99056e+07,32.4026,2,2.75343,-6029.9,2201.53,-26390.2
5.99065e+07,45.8619,0,2.36286,-1220.66,-5001.08,-20627.1
5.99379e+07,32.4155,0,2.53954,2678.78,-1526.86,-22681.2
6.00825e+07,37.3342,0,2.7583,5802.31,4061.68,-25275.7
6.0149e+07,95.5642,0,2.81683,-4784.16,13369.1,-14603.1
6.05982e+07,10.8032,0,2.77046,645.228,1485.32,-27172.8
6.0599e+07,37.3355,0,2.62079,6790.22,3781.7,-27004.4
6.06635e+07,90.0304,2,2.68073,-11562.8,-14458.2,-24209.6
6.07875e+07,71.0951,2,2.7752,-2255.88,-14857.4,-28152.5
6.08979e+07,82.0169,1,2.92189,6384.69,11050,-17204.2
6.12353e+07,26.0339,0,2.48563,5105.25,-1601.84,-27151
6.14959e+07,98.687,2,2.99829,14881.8,-14294.6,-26907.3
6.15198e+07,78.6173,1,3.00106,-15352.4,5942.72,-27255.3
6.1704e+07,74.2835,2,2.58674,-1378.15,-10965,-17597.5
6.17295e+07,49.7924,2,2.85571,-3215.55,-9419.34,-25297
6.18862e+07,9.70898,1,2.83467,-640.471,-1470.88,-27583
6.20712e+07,130.16,2,2.85145,-3580.98,-19998.8,-10416.6
6.22066e+07,10.1001,0,2.46266,-1546.07,-105.198,-27453
0,9.72579,1,2.91203,0,0,0
6.22485e+07,53.0617,2,2.51247,-5733.66,-9246.62,-25704.1
6.22514e+07,29.8218,0,2.6159,3153.06,2996.75,-24226.8
6.24827e+07,75.9124,1,2.67363,-6633.75,-13823.7,-24283.8
6.24994e+07,146.66,1,2.88838,-8134.39,-16925,-7015.03
6.25574e+07,42.9857,1,2.88724,-2655.44,-6167.2,-22812.4
6.31347e+07,113.717,2,2.721,-4531.75,-23423,-26071.9
6.31805e+07,45.845,0,2.74408,-7490.72,3063.82,-23652.9
6.38953e+07,95.1167,1,2.44203,5327.97,17043.3,-19440.4
6.4058e+07,34.1938,1,2.75401,6707.17,-788.466,-26443.5
6.43322e+07,47.5681,2,2.6871,4777.26,-6645.72,-22981
6.44817e+07,66.5043,1,2.41679,8383.8,6297.47,-19399.4
6.48872e+07,27.5707,1,2.65687,-2945.68,-1762.39,-24108.4
6.48982e+07,227.781,2,3.0292,14488.1,3603.26,-11615.9
6.52521e+07,43.3201,1,2.4708,-757.196,8303.07,-24805.2
6.5371e+07,200.226,2,2.75463,15990,-1734.43,-17237.9
6.56982e+07,34.7658,0,2.85981,2560.61,-3949.63,-23223.5
6.62554e+07,7.21513,2,2.9644,-252.283,-1106.87,-27716.7
6.63138e+07,36.9738,2,2.97427,-5161.6,-3392.35,-24037.5
6.63873e+07,58.113,0,2.97211,3115.48,11822.1,-28821.4
6.65205e+07,48.0525,2,2.96767,-1433.95,4765.83,-23896.4
6.67571e+07,142.02,0,2.47947,-6633.67,-20851.9,-8278.59
6.68375e+07,47.1366,1,2.92048,-8957.76,4382.93,-28108.7
6.69119e+07,111.336,2,2.88285,1883.66,-11023.1,-8246.61
6.72138e+07,90.1047,1,2.53143,-11474.1,11595.2,-18826
6.74057e+07,1.43891,0,2.89016,73.2044,-54.8398,-28515.1
6.74249e+07,138.376,1,2.69916,7504.94,25397.6,-16538.1
6.80335e+07,9.57057,1,2.80647,-236.977,738.014,-26923.4
6.81833e+07,7.18186,0,2.88446,678.509,-1409.83,-28661.1
0,7.13312,0,2.87684,0,0,0
6.83219e+07,71.1982,1,2.64399,-12487.3,3661.58,-21709
6.83553e+07,3.50376,2,2.7494,-159.447,-398.744,-28159.9
6.83626e+07,4.72775,2,2.7714,422.209,516.185,-28168.1
6.84191e+07,16.8229,2,2.6824,-1299.26,3047.7,-27587.9
6.84676e+07,161.128,0,2.67849,6511.51,9045.2,-18396
6.86602e+07,109.838,2,2.63399,-2197.99,-9793.14,-7897.25
6.86964e+07,72.0167,1,2.61994,12332,1011.59,-20053.9
6.89723e+07,30.853,2,2.8289,2635.13,-2743.51,-23534.1
6.91433e+07,301.111,0,2.69534,12865.4,-5624.78,-12378.6
6.96224e+07,109.491,2,2.44639,6697.63,-18416.7,-16383.8
6.98045e+07,2.56524,0,2.66926,301.395,-273.684,-28386.2
6.987e+07,78.6026,1,2.61107,-158.526,15618.1,-23004.6
7.00567e+07,31.2164,0,2.82429,3300.14,-4697.49,-25548.4
7.00893e+07,58.8779,2,2.93322,-1.92493,-1348.48,-27188
7.02353e+07,104.529,0,2.67499,2604.37,20868.2,-22125.7
7.02861e+07,19.3876,1,2.9038,-1006.36,-1471.07,-25170.4
7.07412e+07,196.914,1,2.79364,-21162.9,25990.6,-9120.92
7.08333e+07,49.0722,2,2.6506,-3438.13,2671.91,-19462.5
7.14378e+07,147.226,1,2.46771,-24329.3,1884.01,-9437.46
7.15922e+07,25.9175,0,2.81052,3004.5,-493.179,-24230.7
7.16662e+07,29.1358,0,2.80187,3015.45,-3004.79,-24332.7
7.16803e+07,118.361,2,2.84635,-736.299,11850.1,-6987.85
7.21401e+07,73.9422,0,2.55303,10407,3782.57,-17747
7.2341e+07,53.7125,1,2.85243,-5869.48,8576.35,-24195.7
7.23866e+07,57.0021,0,2.75919,4485.97,5041.56,-18850
7.25045e+07,72.8688,2,2.64455,-8173.03,-13007.4,-26829.1
7.27952e+07,66.5878,2,2.76711,-5345.9,4832.39,-16817.4
7.28426e+07,10.5726,2,2.50069,806.145,-1748.23,-27586.2
7.30497e+07,9.44,1,2.83476,-1619.74,-1123.36,-29125.8
7.31511e+07,30.7167,1,2.87792,5597.12,1053.85,-25834.4
7.33575e+07,198.072,0,2.61174,19092.3,29939.4,-6695.31
7.38322e+07,177.326,0,2.65751,18825.9,-22684.8,-5719.08
7.40075e+07,73.0673,1,2.93549,-11739.5,9954.78,-27670.7
7.4052e+07,184.485,2,2.63018,-12619.8,-21048.7,1457.61
7.41257e+07,4.10079,1,2.95683,-222.29,880.613,-29201.8
7.44325e+07,137.998,0,2.88631,19697.9,7660.41,-8906.38
7.46382e+07,50.187,1,2.72442,-8014.43,6123.64,-25358.8
7.4739e+07,13.3664,0,2.40167,-1923.17,1640.77,-27699.5
0,13.1421,2,3.00821,0,0,0
7.49163e+07,125.964,1,2.70155,-10412.9,23689.3,-22559.2
7.49247e+07,42.4574,1,2.69158,5306.68,-3882.23,-22794.1
7.49293e+07,21.6357,1,2.71458,-4339.05,566.681,-27359
7.4974e+07,171.876,1,2.94951,-26366.3,23698.6,-21741.6
7.59368e+07,2.64857,1,2.65576,-269.353,95.5551,-28319.1
0,2.66553,1,2.61355,0,0,0
7.65119e+07,6.06878,1,2.94127,-101.834,841.879,-29881.1
7.65951e+07,24.4434,0,3.03482,-677.939,-4986.04,-29915.3
7.6907e+07,69.1108,0,2.76116,-1107.92,5770.76,-15508.3
7.70452e+07,105.351,2,2.67767,14018.1,-10898.8,-15423.9
7.71217e+07,98.8835,2,2.90619,9704.32,-603.573,-10492.5
7.71455e+07,107.963,0,2.43003,-40.6669,14244.9,-10953.7
7.7225e+07,7.72225,0,2.76949,1739.94,165.982,-28814.5
7.72433e+07,181.901,1,2.63729,-17199,19806.2,-717.727
7.83475e+07,180.646,2,3.00371,9575.9,21968.4,406.864
7.84735e+07,122.39,2,2.8773,-18144.8,-3879.79,-10965.1
7.87835e+07,94.1475,0,2.55001,6188.13,-16441,-19370.8
7.89836e+07,37.6007,2,2.90991,-4775.49,-415.043,-22503.4
7.90261e+07,32.6105,1,2.49259,-4823.73,4996.51,-29847.1
7.92371e+07,47.8507,2,3.03458,4508.25,772.968,-19930.5
7.92666e+07,100.971,1,2.49467,17359.8,-8361.26,-19731.5
7.93428e+07,99.7106,2,3.0213,1399.45,-20922.1,-29160.3
7.9508e+07,70.6284,0,2.61438,-7787.7,8793.18,-19767.9
7.97272e+07,142.152,2,2.99727,2275.44,-13617.5,-2394.31
7.99213e+07,123.759,1,2.40413,-9996.05,22692.6,-20168
8.00215e+07,71.3725,2,2.74267,1033.28,-8088.9,-16144.5
8.00524e+07,97.2179,0,2.64207,5769.61,4142.78,-9574.4
8.01101e+07,2.33103,1,2.82741,-142.226,427.128,-28484.9
0,2.28037,1,2.80538,0,0,0
8.05672e+07,29.1101,1,2.71318,-3945.67,4017.87,-26182.6
8.06704e+07,211.331,0,2.77541,-18900.3,-11482.9,9689.52
8.12372e+07,74.6708,1,2.70243,878.13,-8184.21,-15459.7
8.14153e+07,114.215,2,2.91777,-15864,-8832.42,-13075.8
8.17468e+07,26.6327,2,3.06049,-171.904,-5474.77,-27376.7
8.2202e+07,116.69,2,2.4631,-5977.06,-22760.1,-21071.5
8.22169e+07,51.205,2,2.43428,1469.31,8624.53,-22500.6
8.25132e+07,40.1979,1,2.45029,-7588.88,680.081,-24961.8
8.27183e+07,96.4964,0,2.46542,10085.8,5970.93,-12072.4
8.34007e+07,45.2602,2,2.51896,8068.3,-4579.56,-26372.3
8.37657e+07,117.61,1,2.98381,13557,10105.2,-12176.4
8.39186e+07,155.388,2,2.68403,-23180.6,-15050,-11136.8
8.40384e+07,110.924,2,2.96985,-3924.02,-17131.1,-13475.4
8.43511e+07,87.6835,1,2.52258,-12396,2817.61,-15271.7
8.5194e+07,57.8408,1,2.70734,10042,973.096,-22004.4
8.52425e+07,38.1246,1,2.77633,-6353.36,5068.06,-29316.7
8.55149e+07,101.671,1,2.57532,-2079.82,10106.7,-9960.77
8.60727e+07,31.6904,1,2.73273,-4008.48,-4916.27,-26768.3
8.62404e+07,83.3293,1,2.45282,-10163.5,10132.3,-18531.2
8.68138e+07,187.623,0,2.73883,-23807.5,-27154.4,-12957.2
8.68685e+07,118.976,1,3.02179,-24022.6,1196.87,-22095.7
8.69958e+07,57.3007,1,2.88646,-5949.51,1169.34,-18394.4
8.70862e+07,86.3318,2,2.70209,-12438.8,5735.29,-20152.9
8.76883e+07,138.068,1,2.61343,-15591.6,-22688.7,-19269.4
8.7736e+07,218.725,2,2.82392,-22198.6,4666.84,5587.09
8.83817e+07,132.493,1,2.87117,-27332.9,-3655.83,-24665.3
8.8666e+07,72.1051,1,2.48337,4373.72,11737.3,-20040.1
8.86839e+07,85.5973,1,2.54976,-15934.5,6051.23,-22592.7
8.88445e+07,191.865,0,2.70116,-6513.1,-18935,-19713.9
8.93831e+07,42.4571,1,2.44805,-4083.06,7117.27,-25019.8
8.94637e+07,49.1406,0,2.53598,6510.21,6447.83,-23805.9
8.948e+07,158.186,0,2.89201,11166.3,21414.8,-6187.49
8.96761e+07,43.1624,1,3.06009,-6077.05,1793.3,-22304.6
8.97617e+07,10.8989,1,2.91216,-1631.46,580.71,-27234.6
9.00734e+07,34.1275,2,2.89868,4979.4,419.668,-23710.5
9.01846e+07,71.3851,2,2.39746,12491.6,2186.07,-20677.1
9.02029e+07,34.739,1,2.84605,-6856.24,2640.01,-29502.2
9.03841e+07,76.1343,2,2.97664,-12187.8,-2318.87,-18728.6
9.04001e+07,85.2201,1,2.83454,-14203.6,8895.27,-23516.8
9.04477e+07,45.5674,1,2.81095,5950.94,2914.38,-21893.2
9.05427e+07,16.7069,0,2.54826,2037.35,-1246.16,-26168.7
9.10719e+07,25.6557,0,2.67244,-906.314,5151.71,-27437.8
9.14061e+07,82.9414,1,2.93542,-13468.7,11094.8,-29901.5
9.15669e+07,34.0141,0,2.80783,-789.685,5005.8,-23804.2
9.16142e+07,110.586,2,2.88172,-20481.5,-7304.94,-20705.5
9.16764e+07,73.3666,2,2.5031,-9634.42,-5379.02,-17839.6
9.1916e+07,110.854,0,2.78935,-3587.3,8970.53,-7597.15
9.23609e+07,156.73,0,2.91063,6617.19,-28305.4,-13330.2
9.24279e+07,177.817,0,2.62797,-28041.7,-9185.92,-5727.38
9.24591e+07,76.7243,1,2.56366,5224.36,9913.64,-17048.9
9.27522e+07,49.0715,0,2.99718,9921.4,518.158,-25772.6
9.29603e+07,26.6841,2,2.50616,252.171,2417.08,-23781.4
9.32652e+07,6.32438,2,2.43684,1030.16,-716.188,-28284.6
9.35595e+07,49.5889,0,2.81449,8514.17,-1208.62,-22796
9.35709e+07,123.9,1,2.91347,13361.4,-21898.3,-24916.6
9.44908e+07,13.5092,2,2.81697,2189.74,459.792,-27110
9.45009e+07,3.69118,2,2.45254,-749.9,177.05,-29160.3
9.45981e+07,55.8149,2,2.64994,10032.1,6015.47,-28053.1
9.46221e+07,265.642,1,2.8939,-12343.1,23516.8,14221
9.46576e+07,93.1775,2,2.71394,4652.87,-18448.1,-23906.7
9.50709e+07,87.3647,2,2.5705,6034,-16270.5,-22402.7
9.56526e+07,35.5886,0,2.73376,872.43,-5681.25,-23969.5
9.5739e+07,155.592,1,2.47809,-27608,-6715.66,-12155.8
9.5851e+07,109.213,0,2.84664,-1928.71,11362.7,-8994.75
9.6124e+07,65.7413,0,2.85724,6506.02,5396.44,-17856.4
9.63181e+07,172.782,2,3.0252,23661,-2179.04,-1868.49
9.67945e+07,43.0624,2,2.44574,-6497.54,-4814.07,-24495.5
9.68258e+07,32.2512,0,2.75627,5010.88,-3329.38,-25504.2
9.68642e+07,139.752,1,2.78578,-26680.8,4931.61,-17339.4
9.70976e+07,202.019,1,2.46019,-12042.4,-29579.1,-17904
9.74969e+07,34.1908,0,2.63012,4141.3,3228.67,-23780.5
9.78021e+07,277.815,2,3.0608,6427.04,3918.58,-16825.8
9.80669e+07,34.8422,2,2.71919,-815.059,-7216.59,-27231.5
9.84928e+07,64.3678,2,2.64329,10486.5,-4218.42,-21326
9.89271e+07,13.6593,0,2.52075,-1671.47,-1691.56,-27231
9.91157e+07,16.5995,0,2.38867,1864.77,-3024.65,-28321.3
9.91352e+07,10.3984,1,2.48511,-1556.87,1549.26,-28213
9.91414e+07,1.49567,1,2.72567,-123.153,226.063,-28549.4
9.9434e+07,30.3836,1,2.45814,2802.67,3304.15,-24028.6
9.96228e+07,142.888,0,2.91916,-23934.7,-7492.62,-29862.8
9.97132e+07,163.767,2,2.91614,-29276.3,-13006.3,-16173.9
9.97338e+07,103.244,0,2.84842,-4644.53,-11875.2,-11268.6
1.00079e+08,53.5614,0,2.555,-5949.46,-7174.19,-22437.3
1.00311e+08,24.844,2,2.75987,-2605.95,-4580.51,-27989.5
1.00451e+08,6.46336,0,2.81059,-106.236,1346.57,-28698.5
1.00806e+08,152.663,2,3.03705,4239.29,-21513.8,-5485.37
1.0118e+08,8.75944,2,2.5645,-324.06,1016.77,-27338.3
1.01475e+08,106.657,0,2.61279,19780.1,-5273.18,-19274.3
1.0154e+08,47.9884,2,2.85907,-5622.3,-2862.34,-20893.7
1.01698e+08,27.7561,2,2.52139,1847.88,-5615.06,-28112.6
1.01891e+08,148.051,0,2.709,13508.2,15097.2,-5043.18
1.02033e+08,41.0796,1,2.46942,-250.283,7679.36,-24589.4
1.02089e+08,16.1858,0,2.47021,1019.91,2138.96,-26292.9
1.02168e+08,74.5287,1,2.94852,-10020.2,7591.74,-19394.3
1.02542e+08,28.2459,1,2.59907,-2624.01,3287.99,-24512
1.02581e+08,28.5331,2,2.9304,-3923.09,-4541.01,-29941.9
1.0281e+08,94.9115,0,2.86656,18618.3,6915.01,-26212.9
1.03073e+08,9.25052,0,2.71777,1435.89,-1239.2,-28088.5
1.03119e+08,19.6383,1,2.43656,2181.6,-941.218,-25437.2
1.03259e+08,147.093,2,3.02927,-25671.5,3603.07,-17344.4
1.03675e+08,237.083,2,2.59719,-14983.3,-11701.3,17514.7
1.0379e+08,279.001,1,3.0385,-22077.9,5699.85,24947.4
1.04126e+08,105.898,0,2.92628,-4384.73,10708.5,-12786.5
1.0421e+08,91.7761,1,3.03902,12641.6,8367.62,-16989.2
1.04448e+08,36.6942,2,2.67338,-6080.45,3041.61,-25890.2
1.0455e+08,67.8865,2,2.93721,3556.49,-11189.6,-20661.6
1.04652e+08,98.8691,0,2.79172,7192.79,19504,-27268.6
1.04877e+08,8.51706,2,2.76937,-735.809,-683.661,-27269.5
1.04999e+08,0.304329,2,3.12614,44.5078,-109.905,-28800
0,0.292101,2,3.32662,0,0,0
1.05066e+08,244.864,0,2.74497,2231.84,5875.41,-19088.4
1.05129e+08,32.9017,0,2.6915,4448.79,-5395.65,-29344.8
1.05167e+08,80.521,2,2.44033,-16141.4,-5664.87,-29536.8
1.05379e+08,84.1092,1,2.45222,8063.94,2671.09,-13192.4
1.05523e+08,104.723,2,2.59138,-12494.8,17889.2,-25314
1.05546e+08,185.043,0,2.64996,9796.74,-13126.7,6624.25
1.0562e+08,34.5129,0,2.57895,837.324,-3132.47,-22264.8
1.05953e+08,26.1991,0,2.69481,1929.92,-1624.2,-23866
1.05998e+08,111.93,2,2.63904,17086.4,-12813.5,-18710.8
1.06096e+08,20.5504,2,2.63593,-2395.97,-3596.91,-27971
1.06331e+08,35.7513,1,2.70193,-786.267,7593.07,-28542.6
1.06343e+08,12.0596,0,3.05694,332.102,-2532.18,-28585.2
1.06386e+08,16.2189,0,2.83299,2445.18,1593.14,-26911.7
1.066e+08,125.449,1,2.8837,-23102,8117.22,-19502.8
1.0666e+08,217.89,1,2.93456,21470.7,11134.5,8780.02
1.06789e+08,14.9292,0,2.60252,1285.56,-371.62,-25929.6
1.06846e+08,260.152,2,2.60612,1458.27,-10570.8,-23362.4
1.07082e+08,5.19172,2,2.6272,-114.047,-1068.56,-28346.1
1.07521e+08,181.126,0,2.5718,17226.7,8025.15,4437.32
1.07587e+08,14.4708,1,2.5273,-2338.58,-1148.57,-27182
1.0771e+08,59.7834,2,2.64518,-2113.61,-12012,-25228.3
1.07991e+08,28.2258,1,2.5193,-4712.15,-2006.23,-25734.1
1.08509e+08,84.7948,2,2.5705,-14142.5,9922.37,-24042.8
1.0878e+08,32.5256,0,2.82035,4451.6,5298.65,-28418.6
1.08989e+08,130.515,2,2.8863,-4593.79,16447.3,-7412.77
1.09016e+08,10.702,2,2.6007,-1104.45,-876.315,-26984
1.09243e+08,34.9547,1,2.66646,4598.52,-914.027,-23192.2
1.0962e+08,8.96662,0,2.58674,172.556,1590.73,-27754.3
1.09695e+08,57.0452,0,2.97671,5909.6,74.8756,-28208.1
1.09966e+08,7.85381,1,2.90293,-1696.25,-123.88,-28738
1.10023e+08,111.512,2,2.40239,-11428.1,19245.6,-21420.3
1.10067e+08,94.7958,1,3.0095,-3550.57,16544.1,-18294.4
1.10093e+08,138.726,1,2.70979,-27758.9,1175.47,-25905.2
1.10361e+08,55.1745,1,2.4345,-4881.05,4310.06,-19070.6
1.10524e+08,6.11649,0,2.77438,-1097.47,109.989,-28264.2
1.10574e+08,37.7547,0,2.63406,-2052.1,7662.02,-27932.2
1.11092e+08,115.266,0,2.75673,-4168.55,-17381.4,-12413.5
1.11378e+08,54.2315,1,2.42385,-4264.41,8967.42,-22918.6
1.11633e+08,23.8211,1,2.80543,-4792.74,670.225,-27243
1.11641e+08,184.314,1,2.99266,2963.62,18300.9,-1352.41
1.11834e+08,48.0784,2,2.79553,-3502.53,-9552.12,-29725.2
1.11881e+08,28.7486,0,2.7591,2961.74,-381.688,-23501.3
1.11974e+08,1.87819,0,2.98859,70.2026,-422.072,-28739.6
1.12244e+08,141.848,1,2.93975,-5722.25,29126.2,-25823.9
1.12297e+08,11.6844,2,2.73415,-2316.01,-468.262,-29748.1
1.1232e+08,19.3383,2,2.95597,1730.3,-193.188,-25158.5
1.12504e+08,68.0026,1,2.82056,-7418.61,-8917.17,-20525.8
1.12649e+08,33.1095,2,2.4237,3794.3,-5628.32,-26847.6
1.12663e+08,12.2403,2,2.9029,495.788,-2525.16,-29571.6
1.13355e+08,117.901,1,2.72786,-8856.5,-16933.2,-13011.3
1.13393e+08,193.376,2,2.90297,-14380.8,28095.5,-3352.43
1.13529e+08,12.2419,1,2.82108,566.626,1451.86,-26739.7
1.13867e+08,105.357,0,2.42189,13474.2,17736,-26751.1
1.13973e+08,19.7694,0,2.56676,2068.09,2451.89,-26070.7
1.14106e+08,15.0405,2,2.73923,-1820.75,-2685.42,-29188.9
1.14196e+08,87.1207,0,2.94862,-14926.9,-1567.92,-18515.5
1.14269e+08,11.6141,0,2.81038,1474.59,-1708.06,-27766.1
1.1448e+08,53.8144,0,2.7363,9861.03,3761.67,-24477.2
1.14747e+08,102.822,0,2.91675,4991.37,8943.76,-9811.92
1.14926e+08,149.8,1,2.70511,-20059.3,19893.4,-14544.5
1.1525e+08,91.3523,2,2.60967,-4538.66,-17854.5,-22852.7
1.15545e+08,40.2615,0,2.70227,-2851.54,2859.65,-21370.2
1.15602e+08,163.132,2,2.73906,-3745.12,21552.9,-2417.72
1.15814e+08,100.627,0,2.44023,1017.67,20591.6,-23441.9
1.15864e+08,82.3528,2,2.73777,-14679.4,8797.53,-25842.3
1.16651e+08,37.3647,2,2.75163,-2878.56,5008.51,-23534.7
1.17312e+08,159.356,2,2.98117,-19772.2,-24009.4,-17094.3
1.17393e+08,116.771,1,2.43061,953.981,-15733.5,-9846.17
1.174e+08,119.929,0,2.94926,23286.6,2062.86,-19284.5
1.18495e+08,86.0243,1,2.83894,6664.22,-4756.32,-12728.5
1.18521e+08,10.7827,2,2.44524,136.492,-2373.03,-28625.6
1.18523e+08,60.9083,1,2.65734,-460.79,9449.45,-20045.2
1.18627e+08,12.9527,1,2.41542,-2194.42,726.73,-27259.5
1.18694e+08,47.6602,1,2.76915,-1925.99,6997.96,-21800.4
1.18758e+08,36.8967,1,2.57558,3029.41,7058.8,-27068.3
1.19002e+08,19.9213,2,2.98376,2778.56,-1322.94,-25994.2
1.19062e+08,87.6232,2,2.81299,-1002.7,10183.3,-13529.9
1.19255e+08,139.429,2,2.68728,-21864.5,5014.43,-9806.07
1.1927e+08,34.3872,1,2.64133,-1482.55,5008,-23681.8
1.19543e+08,149.163,1,3.0374,19212.8,20394.8,-14926.9
1.19879e+08,91.1987,1,2.58063,721.035,19331,-28775.7
1.19937e+08,27.805,2,2.87761,1761.37,-5315.76,-26891.2
1.19949e+08,1.67451,0,2.78331,225.905,-287.51,-28622.8
1.20172e+08,183.065,1,2.41182,-17883.7,-6163.57,4944.99
1.20231e+08,111.125,0,2.75586,22713.4,4166.15,-25866.2
1.20373e+08,54.7717,1,2.67482,10110,3471.36,-24429.5
1.20476e+08,65.0742,1,2.43156,-2645.05,7416.11,-17463.2
1.20618e+08,49.2936,0,2.8568,3591.25,-2176.68,-26168.9
1.20749e+08,230.462,1,2.75996,-15704.2,-21747,11417.5
1.20797e+08,44.6338,1,2.38489,-5719.53,3206.61,-21943.9
0,44.8678,1,2.71661,0,0,0
0,44.6512,1,2.45153,0,0,0
1.20887e+08,74.47,2,2.54154,-5733.04,-2851.8,-14415.5
1.20919e+08,8.41946,0,2.64177,1810.65,503.307,-28721.5
1.21021e+08,14.1949,1,2.48424,-1892.78,2169.34,-27710.2
1.21092e+08,34.4428,1,2.73551,6081.77,1245.7,-25060.8
1.21346e+08,199.794,0,2.58157,-25519,-19322.9,-1399.79
1.21351e+08,14.3596,2,2.63947,261.004,-2724.62,-27374.9
1.21696e+08,12.7016,2,3.04391,1677.94,-672.158,-26846.6
1.21723e+08,156.266,1,2.63942,16699.9,-24316.1,-14340.8
1.21798e+08,59.0256,0,2.96559,-4744.07,-11043.9,-25906.5
1.21875e+08,129.651,2,2.59709,-3052.83,21747.3,-12585
1.22015e+08,119.766,1,2.84416,-13843,7872.45,-9268.48
1.22554e+08,228.885,2,2.55885,-13898.4,-27871.9,8237.82
1.22601e+08,19.9793,0,2.39202,-711.883,3581.69,-26739.8
1.2265e+08,49.6134,1,2.79736,-1030.51,1168.32,-25066.1
1.22802e+08,72.5808,1,2.6398,12737,-1283.22,-20457.6
1.23091e+08,15.8014,2,2.52906,-979.116,-3320.39,-28955
1.23183e+08,186.237,1,2.73766,-20496.3,25418.5,-6955.11
1.23363e+08,30.0601,0,2.42785,3702.11,4192.32,-25691.5
1.23545e+08,35.8299,1,2.74219,6161.18,4202.2,-27484.2
1.23607e+08,18.3555,1,2.38869,-1425.88,3082.84,-26775.7
1.23616e+08,46.9138,1,2.90433,6786.12,6407.88,-25564.6
1.23693e+08,262.457,1,2.49657,27067.1,26946.4,11454.9
1.23808e+08,43.3905,1,2.7038,2073.87,7497.94,-23882.3
1.24622e+08,56.9531,0,2.71119,8850.81,2361.84,-20971.4
1.248e+08,47.225,1,2.60077,3260.91,-2723.79,-19820
1.24821e+08,55.7739,0,2.43039,9057.48,7124.58,-25901.3
1.25107e+08,81.1838,1,2.77325,-3125.92,14429.2,-27228.5
1.25456e+08,128.734,0,2.40257,18980.9,7819.89,-10846.8
1.25622e+08,14.5257,2,3.00697,-637.428,-2925.68,-27876
1.25684e+08,23.0768,0,2.96278,2482.19,-4079.25,-27698.1
1.2572e+08,91.5509,1,2.48442,-13501.5,8296.52,-17578.8
1.25815e+08,55.2259,1,2.97782,9.44311,7063.12,-19581.2
1.25839e+08,2.84762,2,2.7188,-662.11,-71.7753,-28778.3
1.2594e+08,78.7828,0,2.68402,-4196.89,-12770.7,-19078.2
1.26079e+08,36.6701,0,2.55906,-592.978,-6502.62,-24655.5
1.26144e+08,32.1409,0,2.58355,4855.82,-4609.34,-27258.5
1.26211e+08,153.222,1,2.6198,17769.6,-10388,-3959.67
1.26528e+08,27.5879,0,2.57272,-5135.72,1119.02,-26476.5
1.26722e+08,13.882,0,2.74354,1391.71,2157.69,-27318.7
1.2728e+08,68.0257,2,2.98193,6506.18,-10094,-21061
1.27392e+08,66.429,1,2.53672,11660.5,2457.08,-21420.2
1.27547e+08,160.164,2,3.0261,4883.14,-22346.5,-4210.54
1.28632e+08,52.7923,2,3.02321,-260.937,-7085.51,-29710.9
1.28755e+08,162.288,2,3.03587,20749.3,8621.44,-28460.2
1.28847e+08,7.597,2,2.96681,-589.678,1460.29,-28820.1
1.28847e+08,66.6331,0,2.66836,8352.89,-11165.8,-26616.2
1.28853e+08,78.3582,2,2.80256,13424.7,-305.655,-19315.1
1.28966e+08,156.709,0,2.95856,-6325.08,29257,-15306.1
1.29032e+08,67.6015,2,2.59337,-8755.42,-11071.4,-26098.7
1.29128e+08,71.2677,2,2.70628,-8897.4,-3032.39,-27874.7
1.3002e+08,70.8283,1,2.56612,9532.63,-437.911,-17309.3
1.30381e+08,4.52824,2,2.72103,426.875,-362.274,-28020.5
0,4.65611,2,2.63169,0,0,0
1.31043e+08,44.03,0,2.77987,2503.77,-6372.14,-22512.5
1.31102e+08,129.665,2,2.40277,12549.4,19583,-16869.6
1.31474e+08,43.2045,2,2.99075,-4761.54,-4266.81,-22319.2
1.31687e+08,19.6362,2,2.91443,447.677,-4185.9,-29134.6
1.31718e+08,7.89498,1,2.57978,-142.738,-1294.6,-27831.7
1.31948e+08,45.2322,1,2.83307,623.702,8944.02,-25484.5
1.32014e+08,59.9058,1,2.44692,11581.9,-2472.24,-24407.8
1.32188e+08,15.5663,1,2.41613,-919.018,-2975.93,-27867.5
1.32194e+08,11.8242,0,2.50969,1953.97,-747.578,-27309.6
1.32228e+08,20.0073,2,2.71519,-2432.7,-3593.81,-28849
1.32268e+08,12.9515,2,2.63374,-2316.91,-1575.95,-29196.3
1.32335e+08,121.849,1,2.37669,-10347,-21228.4,-18557.3
1.32341e+08,15.2082,0,2.8676,763.753,2264.07,-26654.8
1.32505e+08,107.135,1,2.4179,-12138.8,2047.85,-9775.36
1.32757e+08,32.9877,2,2.37464,-5006.81,-3926.7,-25728.5
1.33149e+08,71.9738,2,2.79318,-12139.5,-9202.62,-29429.3
1.3347e+08,29.7841,0,2.56161,-5072.07,-203.589,-25171.3
1.33571e+08,72.4827,2,2.90526,5414.45,-13649.2,-24534.6
1.33649e+08,5.76572,2,2.84783,289.215,-1183.23,-29225.2
1.3376e+08,88.4241,2,2.6463,8611.79,8603.04,-14736.1
1.34177e+08,3.47728,1,2.81639,-668.291,-74.8619,-28501.4
1.3433e+08,94.8156,0,2.54632,-3436.52,9579.32,-12290.9
1.34877e+08,36.1553,2,2.79007,1633.49,-614.737,-29459.4
1.34974e+08,18.1302,1,2.70614,-2044.4,-3010.43,-27681.8
1.35719e+08,210.822,2,2.89793,-11584.6,21483.5,-11001.4
1.35892e+08,98.0379,0,2.65342,10701.7,17681.3,-26877.1
1.35988e+08,95.1692,1,2.38941,-9850.83,13143.7,-17035.7
1.35992e+08,46.8569,0,2.53656,2608.13,9538.4,-27585.5
1.36115e+08,171.716,2,2.59178,-15153.3,-21632.7,-23799.3
1.36127e+08,70.0168,2,2.79049,7890.33,-8116.96,-19350.2
1.36311e+08,146.044,0,2.76311,-14016.9,18657.4,-28021.4
1.36313e+08,106.604,1,2.95769,-6915.41,-10198.6,-10182.8
1.36746e+08,22.145,0,2.78232,136.452,2635.4,-24954.4
0,22.3433,0,3.02876,0,0,0
1.3676e+08,13.7445,2,2.90052,-2268.38,133.501,-26980.2
1.36788e+08,2.11449,0,2.82473,-195.793,69.7569,-28472.3
1.37155e+08,29.7631,0,2.81923,4945.48,3002.49,-26229.6
1.37179e+08,81.7558,1,2.66326,14355,57.6915,-19317
1.37393e+08,113.933,0,3.05308,2697.16,23121.7,-23644.6
1.37977e+08,109.957,1,2.729,-12892,-9510.53,-12102.6
1.3804e+08,9.11947,0,2.86661,478.111,5.00378,-28269.2
1.3805e+08,4.06889,0,2.92855,70.4373,-862.326,-28698.1
1.38113e+08,3.70997,2,2.97837,-94.0164,-881.811,-28943.3
0,3.83449,2,2.94926,0,0,0
1.38621e+08,28.293,2,2.53561,1714.66,-4236.89,-24896.9
1.39274e+08,70.2469,0,2.93011,14746.2,1562.67,-28310
1.39929e+08,131.782,0,2.81757,3590.25,23493.1,-14520.9
1.3993e+08,70.99,2,2.66399,4397.61,-6153.64,-15885.8
1.40403e+08,93.2258,1,2.71698,-14656.4,7457.85,-17958.6
1.40502e+08,114.71,2,2.83186,-12098.4,-3952.68,-8303.02
1.40743e+08,78.4991,1,3.03579,-3456.43,12672.2,-18857.4
1.41005e+08,4.50256,1,2.86678,-462.266,-184.635,-28032.9
1.41597e+08,61.4264,0,2.49661,5237.07,6599.76,-18886.6
1.41845e+08,207.988,1,2.48908,-8538.09,12113.7,12251.1
1.42382e+08,26.8116,2,2.56264,-258.503,-4657.25,-25472.8
1.42421e+08,72.3015,2,2.9147,10607,-10245.3,-25082.7
1.42516e+08,50.9139,1,2.78109,3597.92,4878.51,-19954.6
1.42906e+08,149.574,2,2.64637,-19010.5,-22145.5,-16579.6
1.43261e+08,43.2121,2,2.59996,-2093.55,6114,-22411.7
1.43967e+08,44.7785,2,2.88334,-5044.91,762.479,-21121.8
1.44107e+08,22.4421,2,2.48882,-2587.71,3580.86,-27151.2
0,21.9203,1,2.7015,0,0,0
1.44179e+08,46.9008,2,2.42524,-4537.5,-8689.64,-26743.7
1.44186e+08,12.9412,2,2.77405,-1529.8,2209.94,-28440.3
0,62.0109,2,2.6344,0,0,0
1.44924e+08,43.6374,2,2.7113,3386.26,-7810.85,-29177.8
1.45081e+08,212.234,0,2.65608,-15745.6,18884.7,8485.7
1.45323e+08,43.843,2,2.76014,7615.88,-5283.31,-28515.1
1.45631e+08,60.4585,1,2.3988,-3538.64,10759.9,-22715
1.45712e+08,22.402,1,2.64053,1937.68,2880.44,-25579.6
1.45943e+08,148.15,1,2.92145,-7243.41,148.437,-11232.1
1.46829e+08,135.392,0,2.37157,28429,870.539,-24805.8
1.46962e+08,98.3296,1,2.7342,14400.9,-9409.37,-17413.9
1.4706e+08,222.24,2,3.0072,-12888.4,27864.4,6148.58
1.47209e+08,46.4242,2,2.76425,8100.25,-968.141,-23470.6
1.47237e+08,133.77,2,2.7731,15639.5,-22897.5,-23940.6
1.47316e+08,16.0605,1,2.36824,-1785.91,2688.52,-27507.2
1.47375e+08,187.442,2,2.97103,-10530,-20727.5,2501.35
1.47634e+08,133.478,2,2.66486,-4162.23,-24748.8,-17355.9
1.4792e+08,84.977,2,2.42267,-6516.2,-3843.98,-16998.3
1.47985e+08,0.401139,0,2.47014,205.812,12.0046,-28847
0,0.399864,0,2.77405,0,0,0
1.48186e+08,103.696,2,2.98328,13090.5,16691.6,-24315.6
1.48314e+08,7.37117,1,2.69524,-609.792,1157.58,-27842.8
1.48442e+08,2.47508,2,2.98567,145.497,-246.88,-28372.8
1.48833e+08,53.362,1,3.02397,-9721.26,-5470.21,-29892.6
1.48959e+08,38.7692,2,2.53138,-2086.47,-8002.66,-28023.7
1.49241e+08,127.931,1,2.7843,1356.36,26704.4,-25119.5
1.49511e+08,19.9452,2,2.70909,-3146.13,-965.267,-26116.4
1.49861e+08,64.1101,2,2.87447,-7600.88,5567.47,-19197.6
1.49942e+08,152.064,1,2.73619,-1876.7,24716.2,-8436.03
1.50252e+08,32.5487,0,2.88252,-5683.45,2133.84,-25771.7
1.50665e+08,219.504,1,2.74337,-20605.4,-15178.1,9667
1.51167e+08,148.136,2,2.81812,-11812.1,-25287,-14812.6
1.51334e+08,40.8782,1,2.97819,-3262.47,-3339.65,-21626.7
1.51797e+08,189.258,0,2.6704,5403.13,23596.6,2923.39
1.51938e+08,19.4108,0,2.46207,3921.23,1235.61,-29735.5
1.52069e+08,55.3784,1,2.77736,-2009.72,4808.19,-18355.5
1.52232e+08,81.148,0,3.00194,-5303.45,-15747.3,-25547.5
1.52676e+08,53.4978,0,3.05961,7209.9,3.15898,-20177.5
1.52801e+08,43.97,2,2.48663,6086.66,3210.54,-22618.8
1.52812e+08,75.6068,0,2.82381,391.929,-134.727,-28402.5
1.53015e+08,101.367,1,2.86769,6454.56,20160.7,-25978.2
1.53202e+08,198.9,2,2.44231,-25198.4,-14874.5,1421.76
1.53359e+08,232.516,2,2.72718,-20197.2,22364.6,9748.5
1.53396e+08,73.6517,1,2.56947,6225.08,11392.9,-20150.5
1.53418e+08,40.202,0,2.47926,-3999.93,-7457.87,-28329.5
1.53735e+08,67.4669,2,2.77107,-10105.1,3057.6,-19330.1
1.5386e+08,110.276,2,2.79662,-9197.63,-2139.26,-20394.7
1.5387e+08,141.365,1,2.95202,10831.4,26975.1,-22639.8
1.53933e+08,93.887,0,2.66129,-18583.1,-2401.29,-22665.2
1.53997e+08,22.8834,2,3.0396,-387.881,-4045.75,-26157.4
1.5429e+08,77.5037,1,2.59573,1911.3,9217.72,-15408.5
1.54506e+08,17.3676,1,2.46961,-3580.84,-773.446,-28154.8
1.54557e+08,115.029,1,2.57977,-19783.7,-13182.2,-23738.4
1.55167e+08,60.9567,0,2.68792,4947.35,-5224.1,-18141.1
1.55177e+08,57.415,1,2.95591,-1996.94,6394.95,-18750.4
1.55623e+08,34.4702,0,2.88945,-3055.42,718.929,-22315.1
1.55649e+08,88.6643,2,2.96072,5558.68,-5750.46,-12014
1.55663e+08,17.1813,1,2.7713,-1816.41,2761.41,-27129
1.56272e+08,70.0806,1,2.44557,4275.91,14280.1,-28713.8
1.56569e+08,153.388,2,2.56586,-17478,-12470.5,-4468.76
1.56629e+08,8.54517,2,3.03772,892.131,-1220.05,-27804.2
1.56683e+08,9.25266,2,2.56635,-52.9596,-1932.06,-28220.2
1.57256e+08,51.9373,0,2.59037,4338.22,-1747.79,-18862
1.57331e+08,75.6255,0,2.78239,15299.1,100.738,-24193.1
1.57473e+08,89.4929,2,2.86625,8359.42,-16352.1,-24572
1.57514e+08,75.0659,0,2.43021,11094.4,4139.92,-18163.6
1.57558e+08,15.5576,2,2.98776,-1318.37,-1833.88,-26373.5
1.57934e+08,6.78395,0,2.69054,-180.381,-1442.23,-28763.3
1.57944e+08,15.3238,2,2.41429,2629.27,-1668.19,-27915.4
1.58026e+08,26.1665,2,2.972,-4036.06,-1935.02,-25554.5
1.58071e+08,20.9167,1,2.92347,3343.32,1439.88,-26357.6
1.58338e+08,181.165,1,2.58702,15509.9,8385.86,5138.52
1.58433e+08,40.042,0,2.44615,5216.61,-2200.55,-22455.3
1.5849e+08,16.3214,2,2.72587,-20.9754,-3277.1,-27498.1
1.58789e+08,66.6958,0,2.41547,3986.52,9629.73,-19262.1
1.58855e+08,19.0799,1,2.41848,-3392.02,193.779,-26555.7
1.58993e+08,51.8285,1,2.58666,-1702.91,-4917.8,-19217.7
1.59029e+08,14.3334,2,2.4979,987.295,-836.498,-26060.9
1.5911e+08,13.4267,1,2.78784,-1604.06,2348.54,-28086.9
1.59135e+08,102.089,2,2.72472,-16243.2,14073.1,-29310.4
1.59256e+08,86.9728,2,2.855,-9694.62,-2705.05,-13520.5
1.59375e+08,67.7271,1,2.36916,9699.15,10632.5,-28856.9
1.59437e+08,25.7684,2,3.05793,-296.371,-4281.61,-25475.3
1.59558e+08,101.97,0,2.90331,15644.1,-10258.3,-24001.5
1.59827e+08,39.0639,0,2.82986,4070.14,-5314.02,-23998.3
1.5994e+08,44.3014,1,2.38759,6726.98,-6286.01,-27382.8
1.60049e+08,208.095,2,2.93191,-29904.8,4820.66,2665.38
1.6026e+08,37.0875,1,2.73277,1797.2,3509.48,-22044.4
1.60293e+08,36.8032,0,2.64101,3447.61,6947.29,-29913.9
1.60314e+08,24.7638,0,2.51777,4024.63,3287.85,-27726
1.60315e+08,24.526,0,2.88569,3566.83,3787.06,-29230.9
1.60593e+08,50.629,2,2.83183,-5512.38,2534.08,-20063.2
1.61346e+08,82.4813,0,2.89196,-5687.91,-3028.83,-14685.6
1.61377e+08,106.075,1,2.67317,-17813.5,-6732.81,-17029.2
1.61818e+08,93.9046,1,2.83044,-10782.4,16650.1,-28576
1.61878e+08,76.2397,2,2.9203,-9330.14,12994,-28700.7
1.61953e+08,126.2,2,2.64866,7172.99,-12776.6,-6553.04
1.62037e+08,210.124,2,2.5347,-17655.9,-21252.7,5991.6
1.62826e+08,95.2092,1,2.85508,-16862,10526.7,-25945.6
1.63113e+08,307.108,1,2.9443,-28797.8,-23818.1,23632
1.63176e+08,19.7654,2,2.46591,2972.93,-1227.52,-26183.1
1.63475e+08,51.6559,1,2.65151,-9309.52,-1834.85,-23368
1.63567e+08,21.7184,2,2.89647,-4521.36,-119.167,-27843.9
1.63631e+08,44.5795,2,2.842,-3789.93,-6599.26,-23256.8
1.63713e+08,186.323,1,2.46752,27690.2,-2156.15,-903.301
1.63806e+08,154.016,0,2.48763,-873.611,24671.8,-7569.82
1.6481e+08,8.1147,0,2.71835,-1235.97,-1075.58,-28447.2
1.65329e+08,28.3808,0,2.90081,4821.21,1585.69,-25539.4
1.65331e+08,3.3499,2,2.96975,-300.157,219.115,-28261.7
0,13.5525,1,3.03236,0,0,0
1.65656e+08,66.5495,2,3.03194,1094.63,-7341.58,-16981.2
1.65791e+08,83.5021,0,2.9235,5225.34,-13666.2,-19122.6
1.66198e+08,53.6473,1,2.90381,-84.8558,-2279.46,-26369.9
1.6631e+08,114.717,2,2.40606,-11015,-4573.06,-7651.23
1.66406e+08,101.13,2,2.83055,17858.5,8770.68,-21464.2
1.66562e+08,71.4187,1,2.4198,-1879.9,12605.2,-29191.1
1.66835e+08,0.695172,2,4.11049,-40.5926,-205.507,-28943.4
0,0.612534,2,2.78724,0,0,0
1.66967e+08,246.862,0,2.69861,-18942,17125,16458.2
1.67227e+08,147.727,1,2.59996,6187.89,-23000.9,-11510.9
1.6727e+08,30.4537,1,2.67869,3768.1,1049.65,-23719
1.67584e+08,34.0457,0,2.79316,2429.58,6759.83,-29597.8
1.67731e+08,8.64875,0,2.51867,1122.62,-1510.98,-28656
1.68034e+08,117.977,1,2.59964,9666.57,-7894.55,-7328.69
1.68099e+08,52.7057,2,2.75768,6704.98,-8804.52,-27339.5
1.68446e+08,155.787,1,2.50945,-13024.2,-27576.8,-16462.2
1.68535e+08,132.601,2,3.03327,10727.4,-24114.8,-20795
1.6867e+08,37.6031,2,2.58124,4250.23,-3894.75,-23306.7
1.68925e+08,173.653,0,2.38071,18168.1,-18097.7,-2476.67
1.69122e+08,193.043,2,2.79924,1495.42,-19746.8,6655.86
1.69483e+08,119.243,2,2.88925,-21438.4,-7883.06,-18462
1.69704e+08,114.248,2,2.84066,-6315.26,7957.54,-29393.4
1.69883e+08,3.14102,1,2.84754,-700.191,218.716,-28659.9
1.7028e+08,28.3376,2,2.90934,366.402,-6001.25,-28219.6
1.7043e+08,124.661,1,3.02337,21120,10161.2,-17260.6
1.70572e+08,47.7752,0,2.94564,3437.8,5225.94,-20947.1
1.70633e+08,17.0488,1,2.82171,-2714.49,2255.07,-29956
0,17.4099,2,2.4161,0,0,0
1.70785e+08,78.6421,0,2.81818,6601.4,-11398.5,-18733.4
1.70903e+08,28.9991,0,2.79712,-5321.11,1663.59,-26462.1
1.71253e+08,37.4481,0,2.94595,5977.74,-2299.02,-24172.4
1.7139e+08,93.4685,0,3.0334,16206.5,2825.12,-29147.4
1.71411e+08,43.8711,0,2.38287,3761.32,1256.23,-20393.9
1.7144e+08,95.0762,1,2.58642,10417,1095.38,-11710.7
1.71531e+08,9.16124,1,2.37739,-964.816,1554.05,-29740.5
1.71591e+08,33.0711,1,2.36643,-3183.5,5515.78,-25746.5
1.71808e+08,9.57538,0,2.68611,-1190.7,-1583.93,-28596.3
1.72018e+08,60.215,2,2.83057,6486.34,440.306,-17985.1
1.72162e+08,25.7595,0,2.69281,3600.25,-1017.65,-24826.6
1.72567e+08,133.214,2,2.63479,-4764.33,-16782.4,-6735.95
1.72732e+08,167.198,0,2.52927,18115.2,-12022.8,-940.437
1.72831e+08,34.1683,0,2.84178,4893.46,-5130.12,-27279.8
1.73412e+08,60.6802,2,2.59639,-4939.34,6863.12,-19218
1.73472e+08,15.172,2,2.97048,2679.65,-1678.21,-28277.9
1.73804e+08,331.011,1,2.55788,27006.5,20017.1,28265.5
1.7388e+08,5.94656,0,2.80632,-411.593,1086.99,-28351.7
1.74069e+08,90.735,0,3.05769,9732.7,-13365.1,-19374
1.74746e+08,90.1922,0,2.43152,-2882.63,7796.84,-11728.2
1.75121e+08,76.3763,1,2.97451,-10215.1,6167.56,-18047
1.75278e+08,107.976,0,2.41517,-18152.7,3052.99,-15405.3
1.75407e+08,185.77,2,2.8272,-20909,-1471,-21895.9
1.75466e+08,96.3531,0,2.63653,9473.61,-15891.4,-20318.7
1.75805e+08,87.1845,0,2.87682,-1172.5,-18191.8,-26924.3
1.75967e+08,17.5233,0,2.83482,3148.53,536.31,-26818.7
1.76105e+08,215.409,2,2.64539,-1234.22,-23805.9,9896.09
1.7627e+08,79.5099,1,2.37704,10212.4,10244.5,-20167.5
1.76394e+08,3.81578,2,2.68074,555.892,-401.656,-28408.6
0,3.85481,2,3.04747,0,0,0
1.76674e+08,33.07,0,2.85208,-4448.59,-4149.07,-25565.6
1.76751e+08,39.4967,2,2.47079,5791.25,-4568.08,-24844.7
1.76968e+08,57.8462,2,2.45789,-3169.19,-9794.6,-22057.1
1.77319e+08,0.771014,1,2.95587,99.4141,154.094,-28774.5
1.77614e+08,179.02,0,2.6247,-12709.2,-12195.6,-23699.4
1.78142e+08,72.479,2,2.90576,-8922.74,-9476.02,-20797
1.78181e+08,35.7817,2,2.72139,5662.8,193.244,-23901.9
1.78292e+08,179.867,1,2.77207,25623.9,-27608.3,-25916.2
1.78355e+08,280.873,0,2.53231,-3573.32,-11025.2,-27315.8
1.78642e+08,82.5739,2,2.90832,13060.6,-4154.32,-18241.8
1.78922e+08,62.7048,0,3.05317,7856.94,-10444.1,-26961.6
1.79194e+08,228.328,2,2.56162,-12373,-17794.6,-10577
1.79393e+08,90.3099,1,2.72742,1934.29,-15608.8,-18220.2
1.79932e+08,132.883,2,2.58527,9836.73,11925.9,-5447.75
1.80605e+08,177.227,0,2.89508,-12513.1,-27245.6,-23525.3
1.80657e+08,72.6858,0,2.72439,11113.3,821.217,-18220
1.80843e+08,81.789,2,2.93202,14010.2,-5206.98,-20385
1.80979e+08,82.6518,2,2.80325,10071.5,-1246.58,-14712.7
1.81227e+08,103.6,1,2.48564,15000.6,3927.41,-13386.8
1.81434e+08,88.7098,2,2.77335,16058.9,-7243.47,-22613.3
1.81454e+08,35.1424,1,2.83619,571.01,7331.28,-27434.6
1.8177e+08,173.71,2,3.05219,-14443.8,-14479.2,1299.11
1.82112e+08,8.80923,2,2.41167,451.949,-1603.7,-27869.3
1.82204e+08,87.8715,2,3.02482,-798.396,-549.69,-28662.5
1.82332e+08,55.5913,0,2.71504,10192.2,-596.174,-22901.5
1.82397e+08,28.9946,2,2.96133,-2538.86,-5427.49,-27299.3
1.82906e+08,24.8175,1,2.78587,-4296.47,-1149.82,-26061.9
1.83053e+08,86.527,1,2.69962,-9380.01,9834.55,-16588.7
1.83225e+08,8.85995,2,2.57489,-1269.27,-1482.42,-29215.8
1.83641e+08,125.851,2,2.72221,26148.9,2937.62,-25820.1
1.83768e+08,11.1697,2,2.70885,-136.405,-1207.54,-26752.2
1.83856e+08,205.353,2,2.73107,-26072.5,-14647.7,-496.14
1.84096e+08,36.5843,1,2.92566,-1305.15,4425.81,-22642.1
1.84206e+08,24.9437,1,3.00589,-4827.73,2090.07,-29658.8
1.84227e+08,70.5946,1,2.95501,10622,7342.49,-21520.9
1.85281e+08,25.517,2,2.64371,-4489.46,-2779.83,-27409.4
1.85445e+08,68.6781,2,2.66232,-5051.32,7227.86,-17362.7
1.85453e+08,10.9055,1,2.57828,-2136.05,-554.477,-28022.2
1.85556e+08,47.1282,2,2.68144,4438.39,7871.74,-24822.4
1.85721e+08,83.3819,0,2.78861,8061.65,14218.7,-22311.2
1.86399e+08,93.7887,2,2.95571,5111.37,1397.67,-17954.6
1.8665e+08,35.5343,2,2.53489,-1119.48,-3007.25,-21985.7
1.869e+08,36.7125,2,2.49108,7421.79,-1447.75,-27127.5
1.87321e+08,23.2411,0,2.60023,507.963,-2847.73,-24826.2
1.87348e+08,3.91721,1,3.00737,410.086,709.304,-29210.7
1.87491e+08,101.001,1,2.86555,-11716.8,11934.9,-15636.5
1.87554e+08,169.702,1,2.86219,23847.8,26540.9,-27457
1.87564e+08,16.6624,2,2.71222,-1580.09,-833.248,-25759.3
1.87749e+08,16.618,0,2.50104,787.318,-3448.49,-29365.1
1.87812e+08,11.0764,2,2.51472,-1924.46,-1286.82,-28053.3
1.88173e+08,14.9427,0,2.53348,12.324,2833.37,-27375.1
1.88436e+08,158.991,1,2.69553,-16626.1,-2986.15,-19072.5
1.88452e+08,55.7702,0,2.72489,-961.268,10372.7,-23336
1.88683e+08,24.0358,0,2.67969,265.444,-3699.32,-27811.4
1.89095e+08,38.4079,1,2.74834,-2829.54,5919.1,-29981.5
1.89113e+08,121.534,0,2.93295,-1711.3,-15751.5,-8842.84
1.89134e+08,16.4663,0,2.52168,2715.48,2303.94,-29054.5
1.89151e+08,20.6072,0,2.86267,1.34186,3803.59,-26739.8
1.89427e+08,85.6376,1,2.94354,-1760.32,-11793.5,-15419.2
1.89467e+08,128.231,2,2.78869,16378.8,-20619.8,-22688.1
1.89634e+08,213.901,2,2.71463,-28910.3,27213.4,-7586.56
1.9019e+08,92.7452,1,2.70691,14130.1,13345.5,-26487.5
1.90657e+08,18.6873,1,2.69817,893.364,3541.95,-27163.4
1.90842e+08,98.2681,2,2.58803,-5691.74,-18737.5,-21701.4
1.90985e+08,28.3548,1,2.71543,-4141.8,-3627.68,-26495.4
1.91402e+08,14.8476,1,2.86224,-2486.61,1953.87,-29499
1.91417e+08,27.837,1,2.51478,-3074,-929.351,-23883.6
1.91518e+08,4.26552,2,2.51718,-887.203,-275.137,-28492
1.9169e+08,231.967,1,2.66485,15693.4,26633.9,9125.35
1.9183e+08,23.7409,1,2.3972,1172.17,4942.61,-29272.7
1.91867e+08,60.3711,1,2.39856,-3656.54,5013.62,-17603.4
1.92012e+08,16.1775,1,2.84306,-2089.28,2795.07,-29252.7
1.92264e+08,100.571,1,2.79714,11442.6,11465.1,-15287.6
1.92752e+08,111.832,0,2.66048,-17945.5,-8858.84,-16435.1
1.93136e+08,47.1193,1,2.89553,-1039.21,8541.77,-23789
1.93377e+08,14.4874,2,3.04679,-1453.15,-2769.5,-28730.2
1.9356e+08,31.7166,2,2.64185,5356.61,-4088.24,-28819.5
1.93583e+08,80.6496,0,3.00971,8846.35,2101.96,-14547
1.93712e+08,81.616,1,2.67701,14513.8,-7337.13,-23343
1.93992e+08,156.128,0,2.87538,-21398.7,9978.56,-6154.82
1.94097e+08,7.36805,0,2.89498,389.58,1023.42,-27734.2
1.94212e+08,4.11463,0,2.50873,611.553,-642.945,-29169.2
1.94471e+08,16.2117,0,2.77413,1652.63,-2892.73,-27838.5
1.94611e+08,101.291,0,2.88074,6641.02,5137.34,-23689.7
1.9466e+08,35.8258,2,2.38688,-6191.68,-3788.04,-26332.7
1.94667e+08,118.093,1,2.61833,-14760.6,2668.81,-8861.76
1.94776e+08,100.265,1,2.5801,-2676.06,-10401.9,-10610.8
1.94824e+08,29.0992,1,2.39326,-5268.62,2048.48,-26286.1
1.95249e+08,19.3616,2,2.53845,-1095.82,-3683.26,-27156.1
1.95282e+08,150.134,1,2.65235,-12215.7,24732.8,-13142.7
1.95358e+08,52.0247,2,2.59322,7903.97,-4270.3,-28257.7
1.95572e+08,75.0289,0,2.63396,15244.2,439.299,-24332.1
1.95759e+08,46.1039,0,2.67691,2939.59,-8387.28,-24814.1
1.95761e+08,58.3815,2,2.56826,5306.41,-5802.57,-19278.1
1.95794e+08,15.0277,1,2.44468,702.721,2463.46,-26838.8
1.96411e+08,159.549,2,2.52841,-22020.2,-15605.8,-8489.17
1.96435e+08,40.2183,2,2.87449,5204.18,-5484.35,-24958.8
1.96729e+08,77.8769,1,2.37815,12249.8,-1429.01,-17954.7
1.96839e+08,157.778,0,3.04106,19851,-20343.3,-23014.9
1.96868e+08,41.3938,0,2.9171,8763.22,158.53,-28830.8
1.96952e+08,62.5057,2,2.73697,-7345.88,5305.94,-19259.5
1.96983e+08,24.227,2,2.58438,1901.99,4270.97,-26898.1
1.97128e+08,27.3049,2,2.3989,3561.38,-4580.04,-28484.3
1.97872e+08,7.28706,1,2.91694,-1573.88,-228.185,-28708.2
1.97936e+08,126.33,2,3.05812,-5572.34,25792.3,-28166.9
1.9847e+08,150.215,1,2.594,-5033.01,13050.5,-344.266
1.98495e+08,44.9328,0,2.92467,-4353.6,-8064.15,-26754
1.9924e+08,6.90552,1,2.41252,-1073.05,1120.46,-28554.8
1.9942e+08,15.8803,2,2.79598,-78.6966,1881.06,-26092.3
1.99532e+08,134.472,2,2.70671,-6740.18,-12099,-4051.48
1.99569e+08,15.7858,0,2.98403,-2575.84,114.007,-26847.3
2.00212e+08,98.323,0,2.40307,20406.7,2906.61,-25517.4
2.00833e+08,117.026,1,2.71369,-12246.6,-2139.12,-7505.27
2.01e+08,135.918,0,2.42876,-5492.4,22713.2,-12069.9
2.01021e+08,29.8134,2,2.42027,-3554.02,-1598.55,-23812.5
2.01044e+08,44.1115,1,2.71205,3992.94,2253.34,-20717.7
2.0169e+08,152.524,1,2.96514,-5432.76,-21203.9,-23423.1
2.01829e+08,0.283099,1,2.47995,-16.3432,127.391,-28793.5
0,0.251229,1,2.49272,0,0,0
0,0.278366,1,2.63719,0,0,0
0,0.24291,1,2.41362,0,0,0
0,0.193964,1,2.93019,0,0,0
0,0.194476,1,2.45691,0,0,0
0,0.195509,1,2.68733,0,0,0
0,0.219926,1,2.79877,0,0,0
0,0.218445,1,2.72527,0,0,0
0,0.229255,1,2.364,0,0,0
2.02309e+08,16.4869,2,2.80122,-1679.83,995.761,-25934.6
2.02791e+08,54.8351,0,2.48867,8463.78,7895.37,-27331.2
2.03087e+08,14.4124,1,2.89799,-2666.67,-1237.13,-28018.3
2.03182e+08,104.284,1,2.75384,-12024.2,5441.92,-19221.5
2.03518e+08,147.16,2,3.04781,8594.47,-15685.1,-3697.84
2.03624e+08,120.051,1,2.81739,17749.6,-415.37,-10887.1
2.04058e+08,59.5997,2,2.93252,-7002.41,7081.42,-21279.4
2.04245e+08,12.3374,1,2.99723,307.799,-1188.59,-26576.8
2.04634e+08,8.72456,0,2.92013,1439.65,-836.075,-29794.9
2.04885e+08,27.5793,2,2.61081,-4692.14,2262.54,-26140.7
2.05056e+08,14.1275,0,3.05794,-1703.96,-2055.02,-27615.6
2.05161e+08,87.6798,1,2.6664,3390.69,18106,-26384.2
2.05464e+08,40.2301,1,2.76689,-2716.36,5720.81,-23122
2.05549e+08,13.1273,0,3.0563,1647.15,-1613.51,-27198.4
2.0567e+08,21.1557,2,2.40143,4377.16,-685.764,-28180.4
2.05719e+08,4.43663,0,2.4132,308.235,-324.397,-27960.6
2.05722e+08,66.4878,2,2.97489,-2838.14,-7702.97,-17506.3
2.05749e+08,76.1293,1,2.96275,-10017.2,-9893.35,-21344.9
2.05799e+08,26.5543,2,2.94025,1228.3,-5531.02,-28623.3
2.05977e+08,79.8927,2,2.9086,-11234.4,-2158.14,-16487.7
2.06027e+08,97.4024,1,2.71569,-4714.7,-10446.2,-11833.3
2.06097e+08,82.1644,0,2.50276,11250.9,6553.59,-17222.8
2.06158e+08,18.1976,2,2.67496,2442.25,-2926.2,-29656.6
2.06463e+08,6.80653,1,2.794,-2.30759,653.325,-27503.2
0,7.01914,0,2.74556,0,0,0
2.06714e+08,89.6185,1,2.94936,-11599.7,-1170.59,-14041.6
2.06888e+08,127.714,0,2.73577,7964.03,-2707.72,-21353.1
2.0693e+08,67.3153,0,2.42345,5800.02,10489.9,-21034.5
2.06934e+08,97.416,1,2.78505,1651.7,-14298.4,-14278.4
2.07417e+08,147.861,0,2.79136,20739.1,-21397.8,-19608.3
2.07473e+08,51.054,0,2.74851,4177.05,-4478.87,-19935.2
2.0814e+08,222.904,2,2.65623,-11628.3,18206.2,12918.3
2.08372e+08,58.137,1,3.03186,5414.7,-6191.79,-19926.6
2.08383e+08,18.8956,2,2.82882,2949.73,1745.08,-28098.9
2.08513e+08,132.103,2,2.80392,-16136.1,-21616.3,-21840.5
2.08586e+08,86.9988,0,2.60966,7793.81,-10155.7,-15610.3
2.08712e+08,3.97351,2,2.4381,-18.664,-947.158,-28880.7
2.08745e+08,36.6848,2,3.0569,1294.05,6140.47,-24483.5
2.08858e+08,11.4519,2,2.90984,-1910.42,-1307.25,-27962.4
2.0896e+08,14.8005,1,3.00274,-2386.38,-932.121,-27016.4
2.08968e+08,89.8431,2,2.58478,4139.9,-10063.5,-13250.4
2.09471e+08,28.4985,0,2.55206,4913.91,-1271.52,-25450.3
2.09568e+08,9.36662,2,2.61598,-1659.33,-442.228,-27735.9
2.10083e+08,191.129,0,2.93048,13629,1494.55,8859.56
2.10114e+08,156.618,1,2.69956,-2294.57,-18123,-1362.22
2.10157e+08,175.849,2,2.9946,-18069.3,-1720.75,3250.68
2.1083e+08,27.4852,1,2.40913,4094.33,4195.27,-29182.6
2.10865e+08,15.0226,2,2.61078,2282.42,-1965.61,-27772.2
2.11077e+08,17.805,2,2.40762,1836.66,1422.41,-25937.1
2.11124e+08,10.6567,2,2.57589,712.122,-1249.36,-27050.5
2.11164e+08,41.6608,0,2.78337,-7135.81,-1929.4,-24231.2
2.11438e+08,83.3821,2,2.70693,1133.04,11816.4,-15909
2.11563e+08,196.587,2,2.76304,-17449.5,26670.7,-2451.41
2.11938e+08,129.62,0,2.86203,5345.08,-25698.1,-21406
2.12146e+08,13.6946,1,2.67687,1758.19,1750.89,-27287.9
2.12293e+08,45.9074,1,2.64909,4458.47,8651.36,-29429
2.12462e+08,137.784,2,2.46356,-6315.68,13749.9,-3950.52
2.12911e+08,17.6079,1,3.0026,-2723.51,563.594,-26314.1
2.13008e+08,80.411,1,2.60077,887.652,-13207.7,-18269.9
2.13601e+08,18.9642,2,2.55182,-3169.49,-399.596,-26321.3
2.14887e+08,18.0339,0,2.50791,-2376.18,948.325,-26043.9
0,17.9824,0,2.51694,0,0,0
2.14934e+08,73.2775,1,2.88603,-2680.57,-8093.12,-19159.2
2.1558e+08,13.9615,1,2.73997,2515.4,1581.3,-28653.9
2.1568e+08,50.0585,2,2.40224,-3446.37,-6295.64,-20968.7
2.15984e+08,73.8359,0,2.46287,-144.178,-9251.87,-16229.5
2.16131e+08,142.177,1,2.55692,-4026.86,-19953.5,-6790.82
2.16133e+08,190.111,1,2.76826,-3806.4,-25228.8,1939
2.16135e+08,20.4867,2,2.98306,1789.96,-2756.45,-25996.7
2.16187e+08,62.1794,2,2.89792,5928.22,-4823.61,-18208.9
2.16599e+08,40.7978,2,2.52356,4821.36,-4904.02,-23559.9
2.16863e+08,60.8703,0,2.96606,-12034.4,-3867.43,-27549.7
2.16927e+08,71.3473,0,2.94152,6912.17,4321.64,-16246.7
2.17843e+08,76.5862,1,2.70782,7129.29,4887.37,-16896.7
2.17962e+08,48.5495,1,2.73001,-3367.74,7615.1,-22754.7
2.18026e+08,23.752,0,2.93086,4540.44,-759.938,-26668
2.18105e+08,55.4192,1,2.89744,3140.29,8258.89,-21185.2
2.18251e+08,68.5225,0,2.45565,2618.42,14164.4,-26857.1
2.18476e+08,44.8777,0,2.83626,8257.63,4619.67,-27578.6
2.18764e+08,94.2062,0,2.7583,3534.8,8017.62,-11032.2
2.18947e+08,41.5653,0,2.81808,1702.26,7180.89,-24070.7
2.20504e+08,1.10894,0,2.62693,121.424,242.604,-28886.1
2.20699e+08,40.9982,0,3.05382,8063.56,3229.8,-28834.3
2.20916e+08,31.9846,2,2.39921,-3886.29,-1893.43,-23552.4
2.21096e+08,66.9476,2,2.60589,8875.61,-7307.63,-20570.6
2.21304e+08,127.663,1,2.49419,-14591.1,22795.7,-27838.2
2.2143e+08,115.428,2,2.62843,15739.4,-17337.9,-21919.6
2.21523e+08,13.1645,2,3.04901,-817.997,-2671.58,-28278.5
2.21592e+08,119.768,0,3.04736,9654.87,-23139.4,-27187.6
2.21904e+08,130.006,1,2.41042,8041.78,25999.4,-24448.2
2.21926e+08,51.8684,1,2.6217,9596.79,5221.85,-27811.1
2.22029e+08,23.2985,0,2.3665,4252.62,2521.48,-29814.7
2.22197e+08,74.8652,0,2.9487,7781.16,-8638.58,-18184.4
2.22642e+08,25.2542,0,2.82262,2442.12,-3215.2,-25301.7
2.22662e+08,162.391,2,2.87323,19319.1,-20048.1,-9066.29
2.22963e+08,33.8832,0,2.56816,5302.69,3506.17,-25361
2.23223e+08,59.9657,0,2.87227,-388.479,5661.76,-17585.3
2.23303e+08,85.8873,0,2.9707,-6067.31,8488.89,-14207.1
2.23828e+08,43.1739,2,2.45974,-7931.93,-3154.35,-25377.9
2.23956e+08,87.7635,1,2.55862,7619.55,10631.7,-15617
2.23961e+08,131.016,1,2.89383,-5343.71,-7656.9,-19866.1
2.2439e+08,92.2037,2,2.75998,17466.2,-705.438,-20403.6
2.2454e+08,95.4628,1,2.7274,12446.8,11758.3,-18211
2.24663e+08,82.7852,0,2.71882,-6256.28,-9067.07,-15320.1
2.24854e+08,7.00905,2,2.9626,-1479.15,213.679,-29101
2.25457e+08,75.5821,0,2.66994,4139.58,-5135.73,-14303.6
2.25476e+08,3.79036,1,2.6063,-237.713,473.511,-28158.4
2.25722e+08,32.5797,1,2.94808,-3804.84,-1920.65,-23459.5
2.25807e+08,13.937,1,3.05561,-2919.51,586.177,-29055.2
2.25981e+08,135.74,0,2.96854,2194.11,-7032.03,-26146.6
2.26474e+08,20.0774,1,2.64028,107.775,3532.37,-26359.8
2.26558e+08,49.4638,1,2.58805,-8383.58,6068.34,-26752.6
2.26705e+08,65.2099,0,2.49099,12081.6,-5013.23,-24227.2
2.26798e+08,219.271,1,2.83929,27242.7,16288.1,4604.03
2.26834e+08,14.9956,1,2.45441,1097.99,2677.8,-27354.2
2.27087e+08,46.1113,1,2.45494,8564.87,-2217.87,-24825.6
2.28073e+08,90.3955,0,2.99966,-5069.88,11135.8,-14369.5
2.28279e+08,263.636,1,2.65446,18979.9,5752.04,-5200.84
2.28283e+08,13.4369,2,2.99925,2261.07,407.364,-27221.2
2.28291e+08,32.6306,1,2.46928,-4437.68,3875.25,-25079.1
2.28373e+08,146.239,2,2.53982,13708.9,10296.6,-3171.23
2.28424e+08,22.0724,1,3.05939,290.86,4624.78,-27910.2
2.28838e+08,196.645,1,2.43145,22878.1,-10761.5,-4717.09
2.29804e+08,20.1326,0,2.74478,4059.85,1545.69,-28698.9
2.30408e+08,76.1721,1,2.59189,3167.15,15831.7,-28637.6
2.30759e+08,73.316,2,3.02099,10216.6,11245.6,-26990.1
2.31078e+08,97.2053,2,2.75219,-8841.11,-17745.4,-23385
2.31176e+08,25.2699,2,3.00165,769.902,-5324.92,-28471.8
2.31273e+08,33.8235,2,2.9845,2237.17,-3687.89,-23144.4
2.3141e+08,65.8688,1,2.56266,7031.69,10804.1,-23426.2
2.31609e+08,7.51789,2,2.8156,-1011.72,-719.981,-27733.5
2.31633e+08,31.4748,0,2.89947,1714.97,5567.38,-25610.7
2.31661e+08,131.077,0,2.75084,16043.2,1371.16,-6358.09
2.31866e+08,199.84,0,2.84346,11178.1,21057,-8014.44
2.32093e+08,36.1145,1,2.95211,-4548.61,5372.02,-25773.7
2.32354e+08,70.2237,2,2.54452,-4591.8,-10863.5,-19720.9
2.32602e+08,2.70522,2,2.3667,-211.72,248.694,-28383.3
2.32667e+08,124.137,2,2.52806,-24338.4,-9709.18,-26282.6
2.32747e+08,37.5654,1,2.36709,-4621.89,1098.14,-22407.9
2.32933e+08,3.08096,1,2.99001,-488.467,-290.064,-28474.3
0,3.13621,1,3.04594,0,0,0
2.33172e+08,18.9998,1,2.68172,-2176.59,77.0085,-25457
2.3323e+08,11.5008,0,2.54162,2240.27,-351.215,-27713.4
2.33432e+08,23.5283,1,3.02454,4609.48,-964.32,-27487.6
2.33452e+08,51.9723,0,2.44687,-7409.48,-1959.25,-21005.2
2.33769e+08,151.238,1,2.53606,7612.22,23611.4,-8582.77
2.33973e+08,60.337,1,2.55566,-3374.59,-7711.8,-19295.3
2.34135e+08,74.4558,2,2.79293,5713.67,-6942.75,-16172.2
2.34135e+08,85.4367,2,2.96882,7116.42,-9681.09,-15493.5
2.34432e+08,72.1606,0,2.77817,8395.47,-5700.88,-17452.7
2.34742e+08,112.398,2,2.76622,16749.1,8662.78,-14623.3
2.34874e+08,59.7771,2,2.64547,11121.4,3204.75,-23891.5
2.35253e+08,67.3554,0,3.03027,-10879.6,-7061.65,-23383.3
2.35279e+08,30.0069,0,2.62472,3278.77,-2448.45,-23927.6
2.35407e+08,54.36,1,2.5779,267.308,9099.12,-21744
2.35483e+08,164.918,1,2.88928,-14193.3,18320,-3020.89
2.35506e+08,153.414,0,3.02802,2754.09,-1075.42,-23915.1
2.35616e+08,77.3778,2,2.64054,5100.2,6586.82,-14861.6
2.35778e+08,18.8984,2,2.37152,2094.76,-2745.48,-26744.7
2.35849e+08,18.7152,0,2.71536,3581.68,-1654.19,-28053.9
2.3585e+08,90.6484,0,2.82605,13190.4,5738.87,-16242.9
2.35871e+08,69.0094,2,2.82671,2606.71,-14155.1,-26442
2.35997e+08,40.9079,0,2.65088,-761.71,-7360.82,-24365.1
2.36035e+08,173.944,2,2.88566,-29579.6,15166.4,-13606.3
2.36091e+08,65.692,1,2.5561,-10385,-7150.25,-23008.5
2.36178e+08,158.276,1,2.90023,-24707.4,-5.63724,-6538.75
2.36264e+08,38.7736,2,2.64095,6989.68,-3853.77,-26866.5
2.36467e+08,12.1222,1,2.77143,2012.58,1635.47,-28804.9
2.36768e+08,46.8318,2,2.62506,-5817.04,-5679.68,-23060.4
2.36797e+08,13.8821,1,2.37201,2243.28,-834.597,-27203
2.37161e+08,192.732,0,2.67323,-8775.7,21220.4,4692.66
2.37249e+08,79.589,2,2.55284,9356.61,-6302.72,-16346.1
2.37362e+08,107.778,1,2.59604,-21560.8,-786.203,-21385.4
2.37394e+08,5.57623,0,2.47612,596.021,1078.35,-28842.3
2.37499e+08,38.7195,0,2.65478,7195.66,-3937.27,-28052
2.37527e+08,23.9867,2,2.97836,1992,3728.68,-26205
0,23.5534,1,2.92995,0,0,0
2.37639e+08,225.983,1,2.41249,-20681.3,7935.31,13570.5
2.37756e+08,2.40612,1,2.92028,-482.754,380.276,-28788.3
2.3801e+08,109.768,2,2.97388,-2831.93,829.28,-26602.9
2.38359e+08,8.34423,0,2.40348,-356.393,1173.1,-27579.6
2.38524e+08,45.1872,2,2.8297,1427.25,-8311.4,-24310
2.38618e+08,49.6085,2,2.51111,-1572.42,-9939.6,-25538.9
2.3936e+08,32.4354,0,2.99371,1783.7,3676.62,-23348.7
2.39531e+08,68.3195,0,2.89159,13549.2,5029,-29394.5
2.39561e+08,68.0631,1,2.87419,11438.4,-4343.8,-21526.2
2.3958e+08,78.1544,0,2.41524,14155.9,4048.03,-21112
2.39667e+08,20.2643,0,2.42133,-3364.6,-2294.31,-27656.5
2.40276e+08,35.901,2,2.67457,-2317.45,-3330.2,-22386.4
2.40312e+08,102.221,1,2.82244,7385.47,18983.5,-21718.9
2.40542e+08,188.888,0,3.02266,4758.34,15156.9,-15536.7
2.40555e+08,136.816,0,2.86299,-15730.4,-10496.8,-7217.71
2.40613e+08,84.5564,1,2.93685,-8856.75,15485.2,-27937.8
2.4087e+08,36.7175,0,2.90092,6811.9,3526.69,-27361.8
2.41016e+08,63.3473,0,2.72065,-4138.65,7390.34,-18526.2
2.41282e+08,20.918,2,2.88824,-2907.8,-3420.24,-28388.1
2.41564e+08,163.862,1,3.02166,3513.32,-28751.4,-18791
2.41717e+08,85.8286,0,3.0196,1877.16,-10169.4,-14461
2.41818e+08,46.6947,2,2.97411,1461.01,-6775.38,-21825.6
2.42116e+08,5.43335,1,2.68805,1031.53,26.2083,-28376.3
2.42117e+08,167.341,1,2.94142,-11785.9,27001.6,-9718.27
2.42222e+08,29.0806,0,2.59384,1590.82,457.72,-23392.8
2.42228e+08,150.364,1,2.99341,-11950.2,-27529.2,-19505.1
2.42302e+08,90.9455,0,2.37518,3046.88,18956.5,-27133.4
2.43193e+08,132.788,2,2.53097,-20134.3,-19701.8,-29532.2
2.43524e+08,107.396,1,2.69788,-6385.58,-15944.4,-14116.7
2.43765e+08,136.32,1,2.73611,-14549.4,6454.64,-4921.64
2.44015e+08,119.853,1,2.49855,653.524,-14148.4,-7852.51
2.44297e+08,54.6863,2,2.90468,-7954,-8035.19,-26398.8
2.44656e+08,22.1654,2,2.65214,-1558.38,-4128.43,-27007.1
2.44701e+08,102.73,1,2.78872,-20787.4,-5932.64,-27709.6
2.45019e+08,48.3208,0,2.6993,-108.919,-10158.8,-28052.2
2.45068e+08,74.3069,2,2.80445,-4971.86,5578.78,-15112.6
2.45415e+08,27.6037,1,2.78678,2534.15,3158.71,-24636.9
2.45716e+08,68.1672,1,2.57027,-3428.55,13510.9,-24846.8
2.45735e+08,62.5978,1,2.39161,-6975.9,57.0085,-17532.6
2.46431e+08,142.258,1,2.71701,-11369.9,22047.6,-11900.7
2.46657e+08,83.0236,1,2.83898,-168.109,17561.4,-28862.3
2.471e+08,61.0309,0,2.38223,-6224.59,9196.22,-22289.6
2.47151e+08,54.9119,2,3.04363,-4851.81,3545.12,-22862.8
2.47547e+08,9.26178,2,2.77418,740.649,-1867.13,-28914.3
2.47592e+08,209.47,0,2.88704,-602.127,-5982.25,-21566.1
2.47693e+08,141.981,0,2.9733,24813.4,1799.17,-12363
2.48011e+08,68.4777,1,2.61189,-6534.48,2547.22,-16142.7
2.48193e+08,18.0934,1,2.87719,-1608.85,-2693.46,-26743.1
0,17.9305,0,2.5125,0,0,0
2.48364e+08,43.2834,2,2.71452,-9079.07,456.467,-27583.2
2.4856e+08,56.8225,1,2.76928,7960.31,-1638.6,-20090.6
2.486e+08,142.678,0,2.95283,4099.47,15228.7,-3368.09
2.48649e+08,186.649,0,2.75637,-18623.8,11123.5,3870.44
2.49078e+08,43.9902,1,2.63856,-4328.58,-4660.69,-22063.6
2.49113e+08,113.858,1,2.80187,508.305,18127.8,-13104.7
2.49254e+08,9.63585,0,2.94069,-56.2775,-2029.09,-28818.2
2.49904e+08,22.0163,2,2.89717,-3327.91,-1572.71,-25923.4
