#class tools::wcsv::ntuple
#title time
#separator 44
#vector_separator 59
#column double eventID
#column double t(ns)
#column double copynumber
#column double energy(eV)
#column double x(mm)
#column double y(mm)
#column double z(mm)
159569,153.548,1,2.38237,21388.9,22702.4,-19650
276126,48.5693,0,2.60116,5726.3,-8161.93,-26164.7
390258,42.055,2,2.52116,-6795.2,-5661.72,-27265.3
503881,195.666,2,2.95747,3498,-16964.1,4325.02
672638,15.6291,2,2.66487,-3052.93,-1327.63,-28414.6
778949,28.8094,0,2.62372,3581.85,-3741.71,-25500.3
842388,6.50132,2,2.84433,388.211,-1026.96,-27907.8
1.13698e+06,212.105,2,2.45855,-11537.8,-18585.8,10307.6
1.2417e+06,30.5943,0,2.5182,-5085.68,-2499.55,-25854.4
1.26425e+06,137.608,0,2.39461,19173.9,21971.8,-27608.2
1.33302e+06,76.5322,0,2.36314,2587.44,-12275.9,-18524.1
1.63254e+06,120.93,0,2.90233,1942.96,-20595.7,-14110.5
1.98066e+06,21.1401,1,2.60913,-377.242,4420.3,-27832.2
2.09351e+06,48.5128,0,2.74406,3694.03,-5158.81,-20758.2
2.21471e+06,106.294,0,2.73575,-16113.4,5950.78,-14558.3
2.66632e+06,56.5586,0,2.97757,9881.25,-6470.81,-27582.3
3.08982e+06,115.529,2,2.63287,-16979.5,-3254.74,-11589
3.41978e+06,14.7724,0,2.88769,248.046,-2653.54,-27191.5
3.47711e+06,33.3329,0,2.3691,5223.37,1851.87,-24332.5
3.48994e+06,51.2699,2,2.77951,-8719.69,3385.21,-23399.4
3.7512e+06,254.954,1,2.80113,-21159.9,3332.88,20334.4
3.89668e+06,125.209,2,2.99284,-25354.4,-6716.52,-26592.9
4.05524e+06,4.71348,1,2.80145,718.61,-440.824,-28393.2
0,4.14975,0,2.70039,0,0,0
4.16824e+06,4.64166,2,2.98101,-323.624,858.011,-28628.5
4.19094e+06,134.343,2,2.70052,6353.78,-25343.2,-17740.4
4.64084e+06,43.8268,1,2.78293,-8380.78,741.76,-24883.7
4.66462e+06,112.498,0,3.03858,-4739.25,-12276.4,-13111.2
5.40803e+06,4.12755,0,2.45901,526.002,-644.933,-28380.9
0,4.1442,0,2.8994,0,0,0
5.55244e+06,23.4164,2,2.52098,2711.58,-4108.4,-27848.1
6.78073e+06,65.6651,2,2.59306,5792.04,-12356.5,-25987.3
6.87997e+06,16.3872,0,2.40178,3084.3,1771.88,-29267.4
0,17.0119,1,3.04704,0,0,0
6.93034e+06,121.256,1,2.95923,-8459.63,22736.7,-20909.2
7.4252e+06,17.2987,0,2.69726,2966.9,-1910.63,-27635.7
7.55549e+06,23.3726,2,2.79929,-3852.77,960.604,-25851.7
7.7742e+06,81.0175,2,2.98243,-1151.94,-6463.22,-13152.1
7.95571e+06,99.6631,2,2.48474,468.151,15783.8,-14961.6
8.01574e+06,27.5729,2,2.52308,1741.48,-3372.88,-24343.4
8.23889e+06,86.2826,0,2.88208,13857,9711.73,-22104
8.49545e+06,115.393,1,2.46351,-8958.29,12110.5,-9554.6
8.68143e+06,65.2085,2,2.68066,-12672.1,-5461.62,-29745.5
9.31716e+06,32.4496,1,2.50408,-6401.77,2082.34,-27162.5
9.60628e+06,99.89,2,2.94691,-5279.03,-17706.5,-18765.6
9.79447e+06,3.60847,2,2.56207,-93.4144,-855.895,-28839.5
9.95917e+06,13.1615,2,2.59949,-1200.58,-36.3165,-26290.1
1.01292e+07,69.4565,1,3.00781,10731.9,593.916,-19014
1.02697e+07,3.5849,1,2.9029,-367.662,707.662,-29114.5
1.03196e+07,33.7033,1,2.89074,-3567.88,-5923.66,-27396.7
1.03382e+07,41.1122,1,3.05397,6734.5,-4878.48,-26779
1.05999e+07,47.4638,2,2.38807,-6977.89,-3996.14,-22690.5
1.09101e+07,197.612,1,2.37681,-24410.4,11948.1,2974.25
1.11371e+07,35.821,0,2.67025,-3923.41,-2613.77,-22962.9
1.13396e+07,89.6484,0,2.5327,14268.6,827.079,-16282.8
1.19596e+07,76.206,2,2.69205,-6974.4,-6853.3,-16013.6
1.19929e+07,30.3974,1,2.5215,-2258.94,-4871.36,-25335.8
1.22313e+07,15.5029,0,2.94041,1997.83,1594.87,-26703.5
1.22721e+07,20.6263,2,2.60609,1738.51,-3867.02,-27534.5
1.2504e+07,46.4302,0,2.82314,1931.71,5316.21,-20854.1
1.26785e+07,5.63802,0,2.49608,802.423,-387.578,-27946.2
1.30487e+07,15.6256,1,2.99005,973.738,-1481.13,-26103.2
1.34839e+07,111.666,0,2.69478,8698.64,-3772.91,-7248.48
1.38623e+07,23.8308,0,2.72147,2005.29,-3408.52,-25639.2
1.38825e+07,93.1917,1,2.8774,-6886.24,2371.77,-10635.4
1.42254e+07,111.136,1,2.73985,5514.84,22618.1,-25717.7
1.49278e+07,175.074,0,2.42223,6906.52,18250.8,2664.63
1.57603e+07,54.5756,2,2.86848,-4035.7,-10392.3,-25750.6
1.58289e+07,105.81,2,2.62963,7973.6,-17803.6,-17890.8
1.62207e+07,91.8724,0,2.72647,6212.13,-17748.3,-26716.2
1.62221e+07,20.0937,1,2.52928,-1654.08,2695.45,-25886.5
1.68076e+07,168.876,1,2.53663,-15966.8,-2990.87,-27101.6
1.71176e+07,4.69535,0,2.79962,916.942,487.19,-29153.5
1.76902e+07,28.3832,2,2.76969,-4919.9,2781.99,-26821.3
1.78346e+07,3.09219,0,2.89135,368.61,211.655,-28264.6
1.8222e+07,2.78679,0,3.01776,412.491,-347.879,-28451.1
0,2.76115,0,2.49589,0,0,0
1.82313e+07,33.828,1,2.7807,-1522.06,6312.24,-25681.5
1.82856e+07,96.0965,2,2.69686,-4186.83,-16502.6,-17694.8
1.85298e+07,47.9983,1,2.60791,-9444.86,3551.88,-27220
1.86339e+07,57.6551,2,2.69991,-10814.2,-3678.47,-24491.1
1.88288e+07,75.7281,2,2.70727,-9792.69,6600.95,-18074.4
1.92091e+07,35.2541,0,2.97921,7426.17,-610.678,-27976.3
1.92924e+07,24.117,0,2.61667,-3242.87,3835.89,-28138.1
1.9364e+07,29.4098,2,3.04669,-4900.18,-3018.58,-26379.3
1.94475e+07,36.4991,0,2.73703,1049.63,4547.3,-22676.5
1.94785e+07,78.6053,2,2.73137,-14775.5,5555.42,-23713.9
1.95131e+07,95.3013,0,2.38246,5568.51,18572.7,-23155.8
1.97156e+07,107.603,2,2.85776,8974.21,-8374.76,-9841.03
1.97222e+07,45.7965,0,2.55776,2544.52,-6096.34,-21696.5
1.99223e+07,48.5789,0,2.93594,-8201,-847.448,-22919.8
2.00003e+07,111.018,0,2.94812,8625.28,-12533.3,-11138
2.01792e+07,39.0383,0,2.46462,1491.95,7756.98,-26384
2.05365e+07,1.62989,1,2.80259,-360.151,79.5607,-28641.7
2.07424e+07,17.0556,1,2.40178,1743.65,2666.06,-27020
0,17.0559,1,2.40178,0,0,0
2.14202e+07,144.938,1,2.63187,-12756.6,4708.56,-1409.91
2.14489e+07,7.91207,1,2.58438,-826.339,-691.459,-27588.4
2.15204e+07,67.7682,0,3.02461,5301.78,9832.36,-20006.1
2.19226e+07,150.919,1,2.74207,-19765.7,-4252.74,-4274.73
2.22981e+07,8.5284,0,2.84845,1220.37,-1301.15,-28290.5
2.28708e+07,78.0851,2,3.03959,409.021,-16122.5,-25577.4
2.28793e+07,106.976,0,2.88199,22258.3,3484.2,-27409.6
2.28986e+07,38.649,1,2.58069,1480.9,7676.86,-26245.7
2.29124e+07,25.6482,2,2.7235,531.395,-3378.86,-24598
2.31318e+07,4.41732,0,2.41732,-11.6381,891.432,-28567.7
2.32313e+07,150.246,1,2.94256,4491.26,23344.9,-8207.53
2.36002e+07,204.559,1,2.6568,-13059.5,-16499.8,8834.85
2.37839e+07,0.982837,1,2.79993,-195.931,261.062,-28820.9
2.41455e+07,73.4443,2,2.3832,-362.617,-12828.1,-19923.8
2.41596e+07,60.6503,0,2.60637,8327.73,6770.71,-21731
2.41636e+07,43.295,1,2.80096,345.696,8518.56,-25392.6
2.41962e+07,1.71033,2,2.66048,-27.2938,-449.564,-28724.9
2.42114e+07,160.913,0,2.42064,15413.2,-23197.4,-9171.34
2.45282e+07,1.90349,2,2.7444,-361.025,-349.75,-28900.7
2.46332e+07,95.1586,0,2.9812,17888,1818.51,-20007.4
2.49257e+07,205.226,2,2.95737,-29292.6,-26925.4,-12185.4
2.50427e+07,34.4119,2,2.65099,-3506.3,-6215.8,-26994.2
2.50798e+07,34.7208,1,2.94368,-2736.02,414.839,-22067.8
2.51224e+07,5.26981,0,2.72499,781.012,777.633,-28428
0,5.19606,0,3.0237,0,0,0
2.51808e+07,25.8436,2,2.75787,-3328.87,-2714.04,-25355.8
2.55913e+07,164.539,0,2.72063,-21789.1,-2863.47,-3540.03
2.58581e+07,68.9138,2,2.68381,-11173.4,-1994.93,-19681.6
2.60758e+07,97.9011,0,2.47216,-14709.2,-9147.62,-17801.7
2.6224e+07,24.6288,2,2.60927,-1580.86,-1487.7,-24055.8
2.63974e+07,138.285,0,2.95475,-6478.97,20858.6,-9771.5
2.6648e+07,217.016,1,2.98316,-28932.2,29099.5,-8988.65
2.66615e+07,7.88122,1,2.96917,-1100.26,1289.6,-29310.4
2.67029e+07,11.2592,1,2.36874,75.1086,1462.56,-26870.4
0,11.3526,1,2.71875,0,0,0
2.69374e+07,21.4481,1,2.60348,1877.39,-3743.99,-27282.1
2.70152e+07,76.5135,0,2.96119,-6840.12,-14394.9,-27163.3
2.7261e+07,74.0588,0,2.95515,1871.85,-10521,-21097.5
2.73083e+07,2.52703,1,2.80483,-318.095,546.288,-28696.2
2.76935e+07,155.849,2,2.52005,24802.5,-975.219,-7202.25
2.81553e+07,165.135,0,2.80037,-27446.9,19727.9,-21021.2
2.82922e+07,7.19256,1,2.93362,-681.877,1388.24,-29280.5
2.88522e+07,7.91104,1,2.93851,-769.149,1575.67,-29177.2
2.96348e+07,79.0427,0,2.79246,4299.22,6213.55,-14012.6
2.98727e+07,38.0205,1,2.92537,-2114.54,6062.79,-23947.3
3.01138e+07,429.794,2,2.82786,-7238.02,26732.2,1708.02
3.01797e+07,53.1271,1,2.72926,-10335.8,4538.86,-28549.5
3.02089e+07,33.702,1,2.524,-1120.22,2915.27,-22393.1
3.04655e+07,104.268,2,3.01043,241.109,-12677,-10980.3
3.04756e+07,25.5461,2,2.70576,4724.95,1584.39,-26886.1
3.07535e+07,31.7979,0,2.53473,5566.07,-3611.54,-27245.9
3.09941e+07,3.46901,0,3.04143,-172.474,685.2,-28628.4
0,2.96386,1,2.73602,0,0,0
3.11661e+07,109.668,2,2.37232,17569.6,-2317.38,-13843.8
3.13613e+07,98.8154,1,2.94199,-3354.7,14635.8,-14446.5
3.15234e+07,16.7644,0,2.53927,-2154.22,1435.2,-26480.4
3.17713e+07,162.448,1,2.69835,12975.3,-23680.9,-7862.19
3.19875e+07,74.771,1,2.70179,10672.6,-4121.43,-18152.3
3.22596e+07,49.3055,0,3.05386,-3799.37,9256.16,-26299
3.22622e+07,10.5939,1,3.01389,1815.81,-901.273,-28058.3
3.22749e+07,83.2837,0,2.9913,5917.53,-13717.7,-19705.3
3.23529e+07,129.494,0,2.46357,8364.37,16425.9,-8524.7
3.27053e+07,165.827,0,2.57748,26784.8,15462.3,-12255
3.28346e+07,21.1379,1,2.74665,-2563.68,2535.96,-26072.3
3.29242e+07,21.8982,1,2.81396,4487.9,1020.09,-29209.5
3.32789e+07,115.875,2,2.68522,-177.36,16367.4,-10873.6
3.35439e+07,155.739,2,2.83823,25766.6,6843.9,-9891.43
3.36858e+07,95.5223,1,2.86121,-19258,5337.74,-26122.2
3.37574e+07,73.9162,1,2.94065,5153.57,14603.9,-27274.8
3.38094e+07,89.9086,0,2.41037,-1974.87,10889.8,-13355.1
3.38138e+07,39.9292,0,2.83018,8421.53,-1170.8,-29051.9
3.454e+07,194.453,0,2.4376,28585.2,6046.95,207.666
3.46747e+07,66.3251,0,2.65616,4030.29,-1301.33,-28463.6
3.47464e+07,145.199,0,2.90167,-15370.1,-8682.39,-4034.88
3.50304e+07,9.89626,1,2.87173,692.469,1395.21,-27384
3.5295e+07,62.8194,1,2.38105,-8269.28,486.979,-25631.3
3.53948e+07,1.89949,2,2.86164,-20.9681,244.514,-28535.6
3.5398e+07,52.2634,2,2.70999,-2856.54,6202.38,-20201.4
3.54669e+07,199.281,2,2.74494,31.5692,-4738.13,3554.16
3.55422e+07,122.209,0,2.85929,-9160.99,14807.9,-9965.36
3.5676e+07,10.5767,0,2.3703,1784.15,-1118.41,-29819.7
3.60486e+07,77.1063,1,2.44509,2047.47,14193.6,-20894.8
3.63421e+07,144.145,2,2.73821,-11158.8,-15052.8,-10589.8
3.65783e+07,143.515,0,3.02355,-1431.45,17482.7,-4407.33
3.70096e+07,12.6901,0,2.51819,773.382,-2434.3,-27937.9
3.71607e+07,2.55853,2,2.45021,323.972,-13.119,-28434
3.724e+07,38.222,1,2.91444,-5666.7,5284.64,-26386.7
3.7413e+07,93.9889,0,2.48753,9123.12,2334.87,-11287.2
3.7581e+07,37.7058,1,3.00704,-3583.55,4185.93,-23077.6
3.80762e+07,3.58453,0,2.99335,-366.087,564.868,-28577.1
3.83411e+07,124.969,2,2.4984,7458.02,6491.34,-4361.48
3.8702e+07,49.3104,0,2.85368,1246.25,-6429.73,-20781.2
3.8794e+07,11.4366,1,2.83703,-1281.35,2166.26,-28759.3
3.88713e+07,162.11,2,2.7617,14453.7,12573.1,-632.746
3.90159e+07,34.3555,0,2.62394,-1777.65,-6043.25,-25217.8
3.94173e+07,51.3802,1,2.67808,-9511.29,-3828.71,-25307.4
3.94269e+07,81.3167,1,2.72142,-9591.18,5323.7,-15595
3.94592e+07,241.228,0,2.94231,14433.6,14809.3,17348
3.97626e+07,49.7899,0,2.5903,6470.43,-3002.45,-26980
3.97655e+07,42.14,0,2.55748,3468.83,-7907.79,-26430.9
3.98989e+07,122.953,1,2.83485,6834.39,17014.6,-20148.2
4.00093e+07,113.193,1,2.48601,-15223.8,13975.4,-16586.2
4.00492e+07,45.5004,0,2.68908,7459.13,4344.22,-24438.4
4.01913e+07,101.714,2,2.54698,-3801.14,-14567.8,-13406.9
4.053e+07,133.695,1,2.40833,-13087.6,15293.3,-8856.96
4.0732e+07,166.425,0,3.01311,15483.1,-8419.02,-21284.8
4.08178e+07,98.9802,2,2.64242,-15020.5,7657.43,-16462.3
4.11926e+07,117.134,1,2.69571,5036.47,16362.7,-10975.7
4.12743e+07,25.1427,2,2.46449,-3555.86,3929.31,-28695.4
4.17442e+07,162.273,1,2.77479,-17452.3,20556.4,-7806.65
4.23598e+07,75.9004,1,2.4201,-9120.68,9698.63,-19717
4.2467e+07,92.5755,2,2.95875,12153.1,9435.94,-17050.9
4.2918e+07,103.165,0,2.6556,10941.8,-18007.3,-23150
4.31972e+07,81.0773,1,2.94583,11543.4,12256.7,-26058.1
4.33404e+07,33.4405,1,2.6353,1650.95,2794.18,-22553.5
4.33487e+07,27.5176,0,2.45107,-4001.9,2908.81,-25843.3
0,27.0453,1,2.79778,0,0,0
4.36595e+07,207.432,0,2.48106,8871.21,3860.49,-27730.6
4.36712e+07,1.45451,0,3.01472,401.615,81.2995,-28775.3
4.36816e+07,135.673,1,2.8202,-5113.33,-17113,-6627.18
4.3756e+07,27.5952,2,2.75843,4039.19,2013.1,-25206.9
4.43159e+07,2.73151,1,2.91377,338.05,-252.623,-28512.4
4.43189e+07,78.8305,1,2.42005,-3230.03,7577.56,-14269.4
4.451e+07,14.206,1,2.7539,354.791,-1506.37,-26285
0,14.1595,1,2.48449,0,0,0
4.47002e+07,35.0051,2,3.03535,-4572.69,3719.73,-24453.5
4.47429e+07,28.9986,1,3.03023,-1761.88,-5009.78,-25915
4.51279e+07,33.0694,1,2.84635,-1749.31,3314.41,-22900.5
4.5416e+07,8.13042,0,2.77168,353.491,-682.34,-27287
4.58386e+07,25.1253,2,2.71391,1768.52,-5061.1,-28620.5
4.59538e+07,31.2501,0,2.63336,3394.34,-4079.45,-24815.6
4.61099e+07,159.833,1,2.61132,10738,23863.1,-10203.8
4.61581e+07,58.6575,2,2.72687,4283.85,-7493.81,-19917.6
4.62808e+07,28.6965,2,2.73146,4528.15,-766.535,-24888.6
4.64624e+07,197.359,1,2.81362,-26344.1,-23022.5,-6513.66
4.65263e+07,70.0278,2,2.45159,-13542.7,-6225.37,-29130.3
4.68909e+07,15.6808,0,2.37141,-1424.96,1944.65,-26592.1
4.71609e+07,84.388,1,2.64279,-8358.5,-11288.8,-17910.2
4.7699e+07,97.3214,0,2.85365,12100.2,7436.27,-14074.5
4.78162e+07,107.787,0,2.81037,11345.9,19480.4,-25805.3
4.86242e+07,85.4981,1,2.80701,-7545.41,-950.143,-12506.5
4.86408e+07,16.4039,1,3.01448,-3028.54,1801.68,-28420.7
4.86442e+07,94.5662,2,2.97416,-6869.99,-10164.1,-18229.7
4.87431e+07,28.1106,1,3.01604,1228.28,5173.13,-29511.8
4.95423e+07,171.735,0,2.65964,5706.15,-27191.3,-5590.87
4.97698e+07,160.806,1,2.66975,-7664.23,14833.8,-16917.7
4.99044e+07,23.1274,2,2.52601,-2635.22,-3538.05,-26511.5
4.99775e+07,32.3997,1,2.73539,-1150.12,6475.24,-26651.1
5.02092e+07,228.019,1,3.05609,17699.3,25942,7168.48
5.03527e+07,79.7645,2,2.565,-3542.43,-11282.8,-18825.2
5.05506e+07,82.1282,2,2.81556,-13062.5,7695.07,-20518
5.06632e+07,125.407,1,2.53108,16483.2,227.611,-8084.32
5.14289e+07,18.6596,1,2.43085,-1543.12,-1563.02,-25555
5.17273e+07,96.1533,0,2.47173,-16308.3,8748.8,-20567.4
5.19926e+07,29.3752,2,2.69282,-47.0164,-2844.65,-23273.4
5.19928e+07,8.48827,2,2.69149,-1693.21,656.498,-28543
5.23583e+07,96.2515,2,2.44717,-9923.7,6290.29,-12208.7
5.27638e+07,102.944,1,2.55874,174.718,19975,-20065
5.29022e+07,25.9967,1,2.85977,-1257.25,5393.51,-29122.6
5.35289e+07,100.388,0,2.73817,8038.32,-8752.92,-11315.6
5.3839e+07,59.642,1,2.65877,-4646.97,-8822.15,-21220
5.40306e+07,95.4769,0,2.4174,8148.47,-5037.93,-11010.5
5.4035e+07,62.3779,0,2.65158,7106.41,11126.5,-28276.5
5.443e+07,77.8835,2,2.57973,-14161.8,-685.12,-20394.5
5.4491e+07,35.8621,0,2.58233,-4166.89,-363.855,-22555.3
5.52817e+07,13.8085,1,2.8348,-846.528,2867.38,-28474.3
5.52834e+07,27.2423,1,2.85166,-2466.05,1819.35,-23945.2
5.54408e+07,70.8789,0,2.7968,5570.06,7188.24,-16961.4
5.54827e+07,55.3785,1,3.04589,-9474.12,5131.59,-24307.2
5.56547e+07,155.373,0,2.7099,7867.13,21789.7,-26446.4
5.5834e+07,99.4236,2,2.4763,-2390.37,-12468.3,-12002.8
5.59295e+07,37.5967,2,2.65826,-1412.64,-6555.98,-24426.9
5.63589e+07,57.2743,0,2.58129,8165.31,8998.09,-29621
5.63705e+07,53.4494,2,2.764,10613.7,1484.01,-25494.6
5.65619e+07,20.453,0,2.9717,1836.48,-866.505,-24989.5
5.66504e+07,72.3898,0,2.43271,12664.8,-3377.78,-20769.1
5.70199e+07,111.023,0,2.96417,21879,5493.24,-22653.6
5.72561e+07,100.216,1,2.43884,13860.8,-4516.08,-13511.2
5.74048e+07,154.351,2,2.67869,21692.5,8592.46,-6429.7
5.78167e+07,38.2181,0,2.84326,3159.44,-5672,-24002.6
5.78802e+07,58.7627,2,2.70099,-11483.6,-2918.99,-24969.3
5.82045e+07,64.783,0,2.68754,13713.2,110.675,-27585
5.821e+07,51.5258,0,2.92338,2307.22,-8586.11,-22594.1
5.82768e+07,40.983,0,2.72165,5206.53,6973.68,-28983.8
5.82776e+07,78.8942,2,2.60966,15456.7,1064.81,-22781.7
5.83781e+07,137.734,1,2.48285,-24999.8,2385.91,-13995
5.86591e+07,166.222,0,2.66925,18420.5,21261.7,-7883.07
5.87695e+07,78.5155,1,2.90223,8559.26,-2943.89,-25901.4
5.96059e+07,21.0601,0,2.5156,3631.21,2622.98,-29492
5.96366e+07,110.76,2,2.9654,-1005.1,-13336,-9775.08
6.0182e+07,21.5543,0,3.03972,2255.18,-884.856,-24963.5
6.0896e+07,37.2596,1,2.73711,-4017.18,-2693.23,-22632.7
6.10557e+07,99.0515,1,2.84124,-20495.9,-1107.43,-25190.1
6.13627e+07,58.5608,0,2.82218,6077.57,10774.2,-29153.9
6.15835e+07,36.2984,0,2.71887,6114.58,-916.836,-24182
6.17688e+07,63.3247,1,2.45443,2107.75,12830,-25326.8
6.24855e+07,263.23,0,2.52047,-5701.12,-5224.29,7030.76
6.25755e+07,152.538,2,2.93835,-24140.6,14927.6,-14016.4
6.26459e+07,177.162,2,2.88977,15490.3,27111.5,-8683.41
6.29949e+07,59.5752,2,3.00924,12407.3,915.479,-29509.6
6.31108e+07,10.4675,0,3.01543,1901.46,-618.355,-29955.9
6.35669e+07,31.5481,2,2.73109,-1770.2,4290.34,-24091.1
6.40766e+07,116.808,0,2.77515,12784.4,-18282.8,-21060.1
6.4336e+07,46.4228,0,2.68214,9490.9,1558.61,-26523.2
6.47769e+07,46.7433,0,2.43812,-7146.64,4037.08,-23389.8
6.49811e+07,70.5698,0,2.65657,9150.04,-1764.76,-17155.5
6.51815e+07,64.1965,2,2.73659,-1453.49,-8452.36,-18302.7
6.53885e+07,151.718,0,2.39477,4223.08,6457.01,-26271
6.54077e+07,33.7076,2,2.49239,-6820.27,1803.62,-27478.8
6.55274e+07,129.197,2,2.50291,16252.2,17008.1,-15103.5
6.55639e+07,18.192,2,2.60231,-3128.37,-2399.62,-28535.8
6.56888e+07,149.21,2,2.76988,4267.76,-18551.6,-3796.74
6.62343e+07,63.7122,1,2.66917,-10820.2,7197.32,-25108
6.62444e+07,0.169713,1,2.63046,-63.8153,92.9651,-28830.6
0,0.213018,1,3.76609,0,0,0
0,0.213527,1,2.51608,0,0,0
0,0.0415788,1,3.48696,0,0,0
0,0.244092,1,3.02768,0,0,0
0,0.0177725,1,2.21071,0,0,0
0,0.0193659,1,2.92765,0,0,0
0,0.0700515,1,3.42628,0,0,0
0,0.171333,1,3.99634,0,0,0
0,0.168392,1,3.86736,0,0,0
0,0.0162711,1,3.41188,0,0,0
0,0.0206297,1,2.09051,0,0,0
0,0.236792,1,3.52649,0,0,0
0,0.0308113,1,3.66494,0,0,0
0,0.0173938,1,2.21877,0,0,0
0,0.0971172,1,2.08673,0,0,0
0,0.215138,1,2.59908,0,0,0
0,0.0357655,1,3.94951,0,0,0
0,0.0213418,1,3.14748,0,0,0
0,0.229979,1,2.7033,0,0,0
0,0.2426,1,2.16711,0,0,0
0,0.0164628,1,2.24207,0,0,0
0,0.207186,1,3.36564,0,0,0
0,0.0241737,1,2.97636,0,0,0
0,0.0304668,1,3.14303,0,0,0
0,0.0393778,1,3.10884,0,0,0
0,0.0198123,1,2.92539,0,0,0
0,0.0195879,1,2.96991,0,0,0
0,0.0172842,1,3.93252,0,0,0
0,0.249923,1,3.89143,0,0,0
0,0.217012,1,3.95799,0,0,0
0,0.037025,1,2.56007,0,0,0
0,0.0171627,1,3.53569,0,0,0
0,0.216889,1,3.85739,0,0,0
0,0.01578,1,2.28966,0,0,0
0,0.0224592,1,3.3198,0,0,0
0,0.0181924,1,3.08452,0,0,0
0,0.12066,1,2.57259,0,0,0
0,0.0189123,1,2.6679,0,0,0
0,0.0188552,1,3.58631,0,0,0
0,0.0155778,1,3.47738,0,0,0
0,0.198311,1,3.71787,0,0,0
0,0.0743568,1,4.04529,0,0,0
0,0.0157364,1,3.24501,0,0,0
0,0.0395015,1,3.23905,0,0,0
0,0.0206445,1,3.98882,0,0,0
0,0.154494,1,2.31317,0,0,0
0,0.185772,1,2.95415,0,0,0
0,0.0209091,1,4.06535,0,0,0
0,0.0898446,1,2.51072,0,0,0
0,0.191258,1,3.77831,0,0,0
0,0.0189172,1,3.36052,0,0,0
0,0.180114,1,3.66475,0,0,0
0,0.022306,1,2.74819,0,0,0
0,0.220303,1,3.41773,0,0,0
0,0.245453,1,3.84224,0,0,0
0,0.0168883,1,2.71106,0,0,0
0,0.247416,1,2.22778,0,0,0
0,0.0194227,1,2.90275,0,0,0
0,0.0198699,1,2.89362,0,0,0
0,0.0152765,1,2.35692,0,0,0
0,0.243861,1,3.54088,0,0,0
0,0.131383,1,3.68332,0,0,0
0,0.229239,1,2.982,0,0,0
0,0.0162962,1,2.48818,0,0,0
0,0.0631943,1,2.45387,0,0,0
0,0.0629195,1,3.92849,0,0,0
0,0.253268,1,4.12471,0,0,0
0,0.0194904,1,3.83125,0,0,0
0,0.226901,1,2.34762,0,0,0
0,0.0707005,1,3.38145,0,0,0
0,0.0691248,1,3.21108,0,0,0
0,0.0181851,1,3.40987,0,0,0
0,0.0732104,1,2.62729,0,0,0
0,0.0761722,1,3.70348,0,0,0
0,0.0223911,1,2.35099,0,0,0
0,0.0214384,1,2.33491,0,0,0
0,0.0193054,1,3.77977,0,0,0
0,0.023039,1,3.01045,0,0,0
0,0.0692437,1,3.0786,0,0,0
0,0.0672951,1,3.18785,0,0,0
0,0.0477417,1,3.0371,0,0,0
0,0.0190932,1,2.32316,0,0,0
6.63942e+07,90.8536,2,2.55956,-12460.2,-6076.26,-15459
6.64523e+07,181.144,2,3.01199,8169.3,-29829.6,-6722.3
6.66007e+07,199.354,1,2.68859,26826.8,14505.4,75.0663
6.71016e+07,95.5943,0,2.54292,7917.94,-17818.6,-23294.8
6.73136e+07,84.1094,0,2.87851,10535,-11017.7,-21489.8
6.73459e+07,10.7824,2,2.60923,1868.54,1114.27,-28324.2
6.74457e+07,125.55,1,2.67115,-26124.1,-4504.94,-29893.8
6.74928e+07,248.703,2,2.57095,11270,-25290.6,15863.4
6.76007e+07,75.4476,1,2.42661,13939.1,-6805.43,-25230
6.79727e+07,44.7349,2,2.44857,-7125.26,-5911.4,-26421.3
6.83421e+07,87.9167,2,2.97126,-14386.6,-9824.02,-22523.6
6.83558e+07,29.2116,0,2.49048,4179.92,4617.13,-28668.8
6.84682e+07,60.6739,1,2.54279,8224.67,5567.58,-20706.5
6.87826e+07,121.874,0,2.98318,1065.87,-8597.29,-26401.8
6.88803e+07,10.3986,1,2.78504,-1473.62,1740.22,-28987.1
0,10.2408,1,2.6045,0,0,0
6.92035e+07,143.121,1,2.71205,-19341.6,8492.28,-7262.58
6.92132e+07,8.85201,0,2.5228,1636.45,160.401,-27755.8
6.949e+07,133.701,1,2.45125,-8673.9,8642.88,-3309.11
7.02637e+07,55.0539,1,2.42989,-5106.66,6802.75,-20776.4
7.03166e+07,4.87839,1,2.41366,-235.941,-528.916,-27995.1
0,4.91769,1,3.01367,0,0,0
7.12647e+07,126.278,1,2.39429,2084.74,11910.2,-4966.69
7.15937e+07,16.7114,2,3.04148,1279.21,-2439.51,-26628.4
7.17582e+07,140.595,1,3.02991,-24959.4,8129.22,-15330.8
7.178e+07,151.665,1,2.87817,-29953.3,3862.42,-19053.6
7.21115e+07,81.8187,2,2.4933,7473.6,-13907,-21610
7.29379e+07,89.4445,0,2.76908,13063,12939.1,-24426.7
7.35867e+07,51.0859,0,2.78075,6043.24,-420.893,-19872.9
7.36959e+07,128.2,0,2.85133,3148.09,5076.64,-15904.7
7.36992e+07,63.2319,1,2.79982,8374.87,10006.5,-26073.7
7.40342e+07,179.113,2,2.85187,16496.7,5632.95,4519.14
7.41117e+07,191.643,0,2.67831,-19323.5,-17271.7,2102.04
7.4289e+07,7.00722,0,2.77223,-476.562,1101.98,-28029.1
7.43452e+07,6.33945,1,2.7547,-1274.5,-6.20612,-28250.5
0,6.31448,1,2.59177,0,0,0
7.4357e+07,93.8379,0,2.91912,-5537.29,18143.7,-23545.6
7.45728e+07,83.2208,2,2.75683,-8198.99,2098.14,-13481.5
7.46649e+07,16.4155,2,2.71068,2663.02,-1247,-26966.3
7.50085e+07,17.9226,1,2.92753,1939.91,3294.73,-29226.8
0,17.917,1,2.59046,0,0,0
7.51103e+07,103.091,0,3.01567,3621.13,14888.6,-13571.6
7.51866e+07,58.5018,1,2.78692,-8919.11,2723.79,-20714.4
7.52145e+07,9.00803,0,2.67649,1081.16,846.237,-27420
7.53939e+07,120.305,2,2.9154,12827.9,-21553.3,-25483.7
7.57178e+07,25.9023,0,2.77293,1479.6,-5013.51,-27211.2
7.58444e+07,91.0213,0,2.8519,12045.7,11587.8,-19395
7.58681e+07,74.4322,2,2.95664,-7403.46,-13688.4,-26741.6
7.58687e+07,88.4981,0,2.66565,12669.7,6850.61,-16858.4
7.64551e+07,37.392,2,2.8388,521.124,5240.67,-23051.9
7.65274e+07,102.289,2,2.57951,-9581.81,876.616,-25807.9
7.66514e+07,18.9626,2,2.49812,-1496.31,-3564.74,-27431.5
7.71178e+07,31.1997,1,2.83741,-4054.27,3740.47,-25153.6
7.71826e+07,20.8356,2,2.55686,3017.84,-641.384,-25699.2
7.72348e+07,128.544,0,2.80331,-11926,7199.88,-5714.64
7.72802e+07,15.8753,0,2.84276,3385.08,-73.585,-28242.6
7.72857e+07,210.049,1,2.77674,-14008.3,15522.8,10146.6
7.74561e+07,42.849,2,2.77362,-5404,-3763.14,-22561.7
7.78095e+07,62.4045,2,2.58223,-10076.9,-7154.09,-24050.5
7.85004e+07,51.514,1,2.84598,6104.63,3079.3,-20452
7.87139e+07,156.914,2,2.87777,-5736.34,-19857.6,-3108.82
7.90442e+07,37.6049,2,2.7286,-5113.75,5049.67,-25466
7.91227e+07,17.6231,1,2.96894,-362.016,-1616.75,-25567.2
0,17.2113,2,2.80097,0,0,0
7.91905e+07,65.2623,1,2.63108,-5056.78,11550.3,-23057.1
7.95206e+07,45.6243,1,2.54145,9138.69,3093.24,-28550.6
7.97871e+07,49.7785,1,2.5088,8078.4,1777.47,-22380.2
8.0482e+07,89.6303,2,2.89982,-12480.7,-9606.51,-18414.6
8.08332e+07,25.4552,2,2.92691,142.663,-3246.01,-24519.3
8.13361e+07,148.361,0,2.99147,23201.6,12443.3,-12155
8.16326e+07,59.8371,0,2.47904,4370.93,8200.52,-23409.1
8.24376e+07,114.099,0,2.52882,-3336.8,19562.7,-15106.8
8.25314e+07,35.7514,2,2.76136,2864.07,-6988.5,-28805.7
8.25836e+07,12.0081,2,2.58956,-865.861,1000.14,-26654
8.2722e+07,22.6154,0,2.85385,3329.84,2950.05,-26928.2
8.28274e+07,144.056,0,2.89683,12677.3,-22367.1,-12795.2
8.2841e+07,56.8038,2,2.82066,6754.26,-8729.61,-24131.4
8.29958e+07,102.317,2,2.95973,-6493.27,12772.4,-26756
8.32513e+07,226.067,2,2.71446,15633.5,23596,9413.11
8.32724e+07,50.7471,1,2.3694,-8110.34,-7003.38,-28159.9
8.32735e+07,101.023,2,2.48682,-20537.6,-890.424,-22829.4
8.33804e+07,119.143,1,2.62275,4506.08,24817,-28738.9
8.34902e+07,118.349,2,2.38084,-16435,2753.08,-10100.3
8.35283e+07,161.243,0,2.40929,18421.5,-6126.23,-737.571
8.35342e+07,12.427,1,2.39284,-1550.75,273.664,-26662.3
8.35653e+07,21.9069,1,2.53595,-1304.11,-3027.57,-25605.9
8.3809e+07,36.5862,1,2.78998,-5882.49,5073.91,-28028.2
8.42123e+07,41.3185,2,2.92952,-3904.81,621.466,-21109.6
8.42457e+07,9.25066,1,3.03084,-172.563,1334.83,-27343.7
8.45357e+07,24.2807,1,2.37455,-4239.24,-1891.63,-26557
8.49025e+07,66.8306,2,2.42127,-7933.89,-9563.17,-21925.5
8.49244e+07,226.875,2,2.88245,-25626.5,4377.51,11102.3
8.49649e+07,8.24093,2,2.64908,-1800.75,64.852,-29068.9
8.52193e+07,14.7227,0,2.36528,880.667,904.807,-25946.2
8.55898e+07,40.5262,2,2.95073,-1491.97,-6985.03,-24064.2
8.56134e+07,27.1155,0,2.46616,-3948.81,-2141.61,-25307
8.60942e+07,8.08433,0,2.79724,1152.5,204.539,-27507.2
8.64445e+07,42.1739,2,2.53997,-8701.84,-2280.95,-29064.1
8.66441e+07,30.9758,0,2.85328,4031.22,538.093,-23657.5
8.66939e+07,2.86511,0,2.81744,253.083,349.953,-28353.8
8.682e+07,96.6485,1,2.71208,-3930.1,-13450.9,-14097.2
8.72006e+07,126.907,0,2.37312,17996.2,-4794.49,-9399.42
8.73576e+07,11.2697,1,2.6065,-271.103,1031.94,-28014.1
8.83617e+07,60.1642,1,2.42704,3217.2,-5698.03,-17942.1
8.86755e+07,17.6062,1,3.01396,-2357.17,1384.51,-26267.5
8.90012e+07,60.4823,0,2.78152,-3835.99,-6922.41,-18870.8
8.92011e+07,83.9646,2,2.95751,-5891.92,-11454.6,-29414.7
8.9958e+07,56.7126,2,2.50181,5576.22,-9654.85,-24229.8
9.02589e+07,32.3764,0,2.81624,-733.742,-1772.38,-27846.5
9.09302e+07,57.1489,0,2.9174,1609.3,-10494.9,-23208.8
9.10966e+07,71.7877,1,2.95288,15006.3,-666.22,-29216.3
9.11079e+07,165.639,1,2.48632,-27730.2,-4046.92,-7809.8
9.13338e+07,13.0557,2,2.45007,1797.37,-2099.8,-28258.3
9.1358e+07,74.6886,0,3.04028,4813.85,-12684.4,-20955.3
9.15619e+07,5.93886,2,2.97125,1143.8,268.945,-28502.7
0,5.30753,0,2.93413,0,0,0
0,5.26504,0,2.64805,0,0,0
9.15976e+07,56.7156,0,2.80281,-2083.31,10098.6,-22858.7
9.17695e+07,125.637,0,2.55556,529.401,-18864.3,-10140.3
9.17805e+07,147.118,2,2.76459,4926.43,17009.7,-5703.97
9.24002e+07,23.4853,0,2.9563,493.686,-2824.41,-24814.2
9.25864e+07,97.7648,0,2.69238,12930.4,-2144.05,-13231.1
9.28895e+07,130.358,0,2.593,5255.82,-10040.9,-3712.12
9.32812e+07,6.06975,2,2.74724,776.168,827.783,-28349.7
9.36484e+07,132.22,1,3.02558,23914.8,11243.8,-20574.3
9.37786e+07,255.64,1,2.50578,26092.1,-1024.7,18461.8
9.42529e+07,57.087,0,2.85643,6040.85,6021.87,-20316.9
9.44148e+07,158.976,2,2.43048,-13810.7,25165.6,-11390.9
9.44166e+07,4.75419,0,2.96407,866.897,-305.568,-29427.9
9.45641e+07,18.6273,0,2.90705,-978.191,3423.35,-27208.6
9.46122e+07,174.505,1,2.82853,-29410.2,-10165.5,-9337.56
9.47868e+07,48.0676,2,3.00564,-6328.66,423.72,-20956.7
9.54926e+07,166.148,2,2.77609,-12311.1,-27351.7,-14534.3
9.63106e+07,28.8173,2,2.68063,1686.4,-5871.96,-28214.8
9.63151e+07,48.6505,1,2.54106,-5186.01,-2513.71,-20281.5
9.63864e+07,249.015,2,2.72455,7476.56,-15103,-19578.1
9.63992e+07,107.783,0,2.54066,9726.76,-2122.63,-8289.8
9.65016e+07,144.416,2,2.85895,-24836.3,6882.62,-12731.3
9.65571e+07,32.1252,1,2.85154,295.647,2696.29,-22599.7
9.6691e+07,169.912,0,2.65885,23256.1,19772.8,-12227.2
9.68657e+07,42.9783,1,3.05871,-7508.38,3492.71,-25139.7
9.70107e+07,72.3144,2,2.9606,-2869.8,-7625.41,-15982.3
9.70866e+07,63.8416,2,2.80634,8521.12,6483.12,-20820.1
9.76049e+07,93.9202,2,2.90007,2119.37,-14735.1,-15969.6
9.76109e+07,0.573625,0,2.36552,53.3247,100.312,-28719.9
0,0.601579,1,2.50758,0,0,0
0,0.597436,1,2.37766,0,0,0
0,0.653947,0,2.71952,0,0,0
9.82017e+07,134.233,0,2.77648,26674.2,-5628.79,-21033.4
9.8405e+07,0.752591,0,2.60517,54.5718,-93.0896,-28681.7
0,0.714866,0,2.58582,0,0,0
9.8408e+07,51.6498,2,2.77838,-6214.36,-3809.74,-20677.9
9.84919e+07,169.606,0,2.71515,-10931.9,-12859,-10602.5
9.85075e+07,11.1484,1,3.04997,1545.21,1820.89,-28829.5
9.86592e+07,69.0244,0,2.69779,6525.3,-8253.83,-18718
9.90591e+07,8.53908,1,2.4979,-1141.38,1441.51,-29421.8
9.90639e+07,57.7068,0,2.7078,6503.49,-1343.74,-18592.9
9.91823e+07,107.807,2,2.62853,-3111.24,-10211.9,-8690.96
9.94285e+07,60.062,1,2.58538,-1601.19,-5803.57,-17668.7
9.95144e+07,155.785,2,3.0433,549.08,-12793.8,1214.41
9.96351e+07,7.72258,1,2.54907,1500.11,-149.851,-28258.5
9.97279e+07,12.7967,0,2.47741,572.606,2114.54,-27226.6
1.00034e+08,44.5169,2,2.41597,3666.49,-7624.9,-24553.3
1.00066e+08,26.3438,1,2.7647,-160.32,3476.93,-24427.2
1.00271e+08,169.372,1,2.83034,13148.2,-19510.2,-2194.16
1.00274e+08,18.482,2,2.57536,298.89,1893.62,-25473.9
1.00313e+08,161.776,1,2.83885,-23760.6,24449.6,-29131.9
1.00568e+08,18.5373,1,2.38549,776.853,2731.83,-26075.1
1.00698e+08,79.8126,0,2.49804,11768.8,7066.44,-18884
1.00845e+08,8.7097,0,2.89465,475.911,1690.64,-29512.8
1.01026e+08,61.1859,2,2.44356,-1875.85,-12869.1,-27806.2
1.01342e+08,81.9699,2,3.03686,-5185.95,-16223.7,-26058.6
1.01457e+08,46.43,2,2.69129,4448.11,5261.02,-21939.5
1.01542e+08,141.206,2,3.00842,12991.7,-19497.8,-10683.8
1.01549e+08,27.9092,2,2.88979,-309.451,2484.4,-23583
1.01583e+08,61.7585,2,2.56773,4735.93,-1878.06,-16804.3
1.01732e+08,8.59743,2,2.88622,756.617,-1555.8,-29565.3
1.0217e+08,159.178,1,2.65174,-24973.6,-953.708,-6361.9
1.02356e+08,27.7344,1,2.41819,-5686.34,1751.28,-29217.8
1.0246e+08,39.6958,0,2.38369,-6031.53,3364.69,-24129.8
1.02472e+08,28.7441,1,2.58463,-4145.1,4444.49,-29974.9
1.02647e+08,116.452,0,2.80096,-5753.18,14515.9,-9959.28
1.02688e+08,113.737,1,2.7384,-18608,15068.4,-26439.6
1.02843e+08,138.934,0,3.01596,-17118.8,-3815.77,-5662.09
1.02944e+08,18.6529,2,2.57374,841.811,-3856.52,-27993.6
1.03039e+08,66.0266,1,2.72485,-237.895,14004.8,-28569.7
1.03539e+08,111.679,2,2.95604,-10489.2,-3780.08,-8185.38
1.03804e+08,7.14198,2,2.78391,-558.456,-39.97,-27398.5
1.03872e+08,70.5623,1,2.76055,8020.08,3594.19,-16838.7
1.04148e+08,143.125,0,2.60026,24920.8,4429.68,-12162.2
1.04291e+08,112.566,1,2.75813,470.495,-21333.4,-20530.5
1.04482e+08,16.0413,0,2.51218,2691.6,-900.633,-26822.5
1.04821e+08,6.41804,2,3.01008,452.918,-246.782,-27583.6
1.04973e+08,136.264,1,2.90541,16668.7,19160.4,-15572
1.05484e+08,57.1499,1,2.56042,-11734.1,-1797.11,-26395.5
1.05612e+08,43.1064,1,2.90918,-8576.02,-851.224,-25905.7
1.05824e+08,79.5993,1,2.71091,-2417.77,-11609.7,-17032.3
1.05932e+08,36.2685,2,2.62725,1693.81,-4305.6,-22685.8
1.06294e+08,26.0073,0,2.61068,3704.53,-3122.02,-26139.6
1.06322e+08,96.2981,1,3.0086,14740.2,11934.9,-21880.6
1.07118e+08,97.5596,2,2.51355,2624.22,17174.8,-17822.7
1.07185e+08,110.994,1,2.40114,13570.6,-13708.2,-18647.9
1.07283e+08,62.6056,1,2.9822,-6107.96,11526.5,-26607.5
1.0733e+08,105.481,0,3.06033,-3131.56,-20025.7,-20068
1.08043e+08,76.3383,2,2.55041,-13019.9,-8681.45,-24504.2
1.08423e+08,89.3962,0,2.74824,11243.9,15062.5,-26849.8
1.08467e+08,156.547,2,2.54661,-15733.9,-10422.4,-1593.27
1.085e+08,157.715,1,2.80736,-25382.5,8150.72,-8975.32
1.08843e+08,50.895,1,2.39595,-6116.41,-6151.63,-22440.9
1.08906e+08,24.6172,1,2.98081,2942.03,4066.99,-27433.6
1.09029e+08,114.653,0,2.63511,21950.4,4350.21,-19431.3
1.09271e+08,111.812,0,3.00315,-19442,8837.35,-19296.1
1.09447e+08,32.0806,2,2.4388,-4982.6,-4636.04,-27791.1
1.09696e+08,11.7397,2,2.56047,-724.491,1684.68,-27201.4
1.09938e+08,108.932,2,2.80549,2967.33,-21801.5,-22119.1
1.10223e+08,100.47,2,2.40705,-14189.9,-8780.11,-15560.7
1.10315e+08,97.059,0,2.62547,-16054.7,-11516.7,-23574.7
1.10623e+08,115.195,2,2.95376,8106.84,-22696.4,-26164
1.10703e+08,29.7601,1,2.90544,-3902.52,3980.36,-25836.9
1.11176e+08,38.8867,2,2.77453,443.327,-6586.89,-23881.4
1.11489e+08,0.503435,1,2.78109,-20.1251,190.326,-28885.8
1.11493e+08,93.8802,1,2.73366,8839.68,5194.68,-11904.1
1.11635e+08,40.9362,0,2.88163,3873.26,4945.13,-22912
1.11716e+08,33.9317,0,2.94458,-5739.21,2046.91,-25253.6
1.12118e+08,95.2264,2,2.57711,-3539,-7777.41,-10577.5
1.12135e+08,5.40913,2,2.72946,-275.235,782.782,-28094.5
1.12389e+08,145.429,0,3.00483,24734.6,-717.511,-10935.1
1.12505e+08,156.063,2,2.37617,10505.3,-12529.6,-262.985
1.12521e+08,2.69094,0,2.95377,-27.4868,-551.694,-28621.8
1.12691e+08,201.938,2,2.87365,22257.1,-13350.1,4720.5
1.12778e+08,34.883,1,2.75493,3056.63,-1866.26,-22474
0,34.6356,2,2.49661,0,0,0
1.13095e+08,62.0373,1,2.64387,-4260.5,-3874.83,-17062
1.13179e+08,43.4627,0,2.41646,-4012.14,-5775.85,-22966.8
1.13485e+08,5.44094,1,2.52685,-548.82,811.357,-29625.9
1.13684e+08,4.82573,2,2.99549,551.378,-692.653,-28286.4
1.13837e+08,6.66483,1,2.72996,-1198.97,-553.688,-28316.9
1.13845e+08,51.0305,0,2.4998,-1783.17,9789.7,-24683.1
1.13917e+08,12.2514,2,2.58296,-2342.85,243.931,-27613
1.1397e+08,156.365,2,2.74737,-14217.8,27764.5,-18428.1
1.13977e+08,66.7042,0,2.53614,1797.2,-11701.5,-21130.4
1.14113e+08,18.2468,2,2.60352,-3563.5,-1410.46,-28044.4
1.14171e+08,137.439,2,2.74179,-13582.1,-19655.3,-19130.7
1.14345e+08,105.348,2,2.61294,-21658.1,3048.24,-24540.3
1.14816e+08,5.0117,2,2.49635,990.376,86.8435,-28532.1
1.14828e+08,132.032,0,2.80756,15514.3,-2366.38,-5857.81
1.14923e+08,10.3037,1,2.78149,1383.47,1714.13,-28640.1
1.15095e+08,116.149,0,2.57136,15472.8,11051,-13231.5
1.15866e+08,70.3159,0,2.76156,-8907.41,-10192.1,-22909.3
1.16225e+08,17.3577,1,2.53148,1601.97,2444.94,-26534.6
1.1642e+08,45.88,2,2.53433,-4199.22,-7463.3,-24118.7
1.16426e+08,2.28081,0,2.90069,-216.733,-257.98,-28500.5
0,2.29247,0,2.44546,0,0,0
1.16634e+08,6.10334,2,2.56538,-536.853,-423.271,-27700.2
1.16794e+08,6.77362,1,2.93009,-774.681,1305.74,-28572
1.16845e+08,104.871,2,2.93369,19596.9,-2829.67,-19245.1
1.1699e+08,42.7108,1,2.53553,7570.98,4913.81,-29712.9
1.17023e+08,23.5486,2,2.78334,-5007.72,-134.21,-29214.7
1.1725e+08,31.4304,2,2.56792,-5913.4,-3219.86,-28524.4
1.17293e+08,33.8943,1,2.61457,-6582.73,2643.65,-27318.4
1.17484e+08,114.377,1,2.87515,19339.4,8869.7,-17624.2
1.17534e+08,45.5212,2,2.78624,-8848.28,2660.72,-26096.6
1.18119e+08,8.98917,1,2.68329,838.897,1646.08,-28193.9
1.18434e+08,70.0362,2,2.38165,-6801.16,879.168,-15668.8
1.18544e+08,162.736,0,2.38101,19540.5,-20649.2,-9330.28
1.18558e+08,7.87207,2,2.70534,261.246,1233.23,-27825.3
1.18657e+08,68.8527,0,2.6977,-9287.98,-5445.31,-19156.1
1.18834e+08,54.985,1,2.85496,-10830,3040.15,-25905.8
1.19091e+08,25.6139,1,2.74568,4243.72,-2179.16,-26415.8
1.19334e+08,2.64251,2,2.37487,522.379,-212.384,-28708.6
1.19601e+08,8.6262,1,2.69814,236.213,663.596,-27121.9
1.19697e+08,32.9065,1,2.46884,3558.01,-1471.92,-23082.3
1.20438e+08,6.69419,0,2.75036,1060.43,-994.059,-28613.2
1.2051e+08,80.6386,0,2.83189,10811.7,-7810.68,-18243.3
1.20717e+08,161.252,1,2.82659,-5539.25,23677.1,-5126.28
1.20803e+08,37.6801,0,2.79092,2651.9,-4965.63,-23175.4
1.20837e+08,25.9419,0,2.679,2862.73,2981.81,-25145.8
1.20863e+08,12.9889,2,2.59875,1677.67,-46.2102,-26687.3
1.2087e+08,18.6716,1,2.96758,2225.72,2710.71,-26988
1.20957e+08,33.0598,2,2.90691,-2726.28,-2249.9,-22800.3
1.21082e+08,15.1271,0,3.05084,-977.606,-2979.12,-29243.9
1.21438e+08,41.4478,1,2.76497,3284.11,4160.02,-21848.9
1.21732e+08,73.2419,1,2.82651,-12098.6,9214.15,-25814.3
1.21788e+08,38.3056,2,2.98043,262.424,-3608.44,-21618.2
1.2193e+08,16.6926,2,2.50158,1685.44,-1737.33,-26218.1
1.22938e+08,145.57,0,2.94944,-19468.6,-20697.3,-17941.7
1.23025e+08,118.328,0,2.4584,21053.2,-13537,-26749.5
1.23149e+08,88.2101,1,2.71151,-7595.49,6905.46,-13294.5
1.23204e+08,135.204,0,3.04791,1174.9,26034.2,-18129.1
1.23219e+08,43.5391,2,2.6859,-5717.11,-6619.15,-25736.7
1.2353e+08,64.8112,0,2.5085,13494.3,2641.57,-27517
1.23571e+08,144.456,0,2.94986,23531.9,16564.9,-19119.7
1.23778e+08,176.844,1,2.65039,-20622.1,3389.7,2107.95
1.23958e+08,9.32539,0,2.93249,1650.43,1100.95,-28447.2
1.24059e+08,143.549,0,2.45796,14022.1,845.242,-1869.43
1.24096e+08,88.2213,0,2.76367,17445.8,-4843.56,-24411.9
1.24278e+08,103.495,2,2.42578,-15498.8,-10296.3,-17161.3
1.24368e+08,164.597,2,3.02181,-11746,15919.6,-591.446
1.24504e+08,15.8813,1,2.37799,-1708.37,1564.14,-26312.7
1.2454e+08,23.8611,2,2.43945,578.273,4068.39,-25966.1
1.24706e+08,10.4083,1,2.47395,-157.436,1617.89,-27261.4
1.24728e+08,5.77068,0,2.3864,813.312,-1006.89,-28848.2
1.24768e+08,48.0726,0,2.73543,-5043.82,-8656.57,-27422.8
1.24773e+08,209.227,1,2.96431,-8196.34,20489.5,-9702.94
1.24863e+08,61.5535,1,2.82859,-542.134,13003,-28318.4
1.24887e+08,0.843119,1,2.85727,-122.82,263.63,-28892.6
1.25472e+08,106.059,1,3.03308,-17217.4,-7489.2,-16898.4
1.25549e+08,48.6938,1,2.71647,-7841.8,4512.65,-23813.8
1.25576e+08,53.4971,2,2.48054,-4223.98,-10545,-27584.7
1.25604e+08,2.84343,0,2.59783,257.69,289.272,-28321.8
1.25713e+08,24.004,2,2.3666,-1102.93,2845.91,-24832.3
1.25801e+08,119.598,1,2.42227,-16821.2,18915.3,-26609.6
1.25884e+08,22.8871,1,2.73576,-3424.31,-287.773,-25384.5
1.25932e+08,104.998,0,2.44595,19727.6,2309.82,-18708.5
1.26032e+08,164.298,0,2.52803,12027.7,25750.5,-8804.42
1.26113e+08,36.1952,2,2.96148,-798.623,-5826.87,-23955.5
1.2617e+08,126.301,1,2.95608,-14718.7,-20061.7,-19823.9
1.26171e+08,39.06,0,2.93839,-5210.47,-4568.65,-24504.6
1.2631e+08,85.0447,2,2.51202,1324.68,-14297.2,-17907.1
1.2634e+08,20.0173,1,2.54748,-58.4467,4177.29,-29857.2
1.26461e+08,227.811,2,2.88746,-1916.65,-11979.4,-8989.56
1.26576e+08,20.2301,1,2.98734,-2661.75,1355.59,-25746.1
1.26826e+08,14.7008,0,2.42668,2732.04,1077.51,-27532.3
0,14.7829,0,2.51378,0,0,0
1.27223e+08,33.8066,0,2.70044,-3307.02,-5570.93,-25905.6
1.27353e+08,34.8998,1,2.82416,5248.58,5164.26,-29042.4
1.2745e+08,108.471,2,2.98609,-15497.6,8216.96,-14316.9
1.27761e+08,63.9145,2,2.36967,-13583.5,-552.557,-29232.1
1.27865e+08,68.3085,0,2.50123,13331.3,2742.89,-23784.6
1.28329e+08,131.155,2,2.55465,8209.92,-20150.3,-11610.8
1.28346e+08,125.391,2,2.69043,13828.6,11677.2,-9631.66
1.28352e+08,3.31417,2,2.54252,185.661,-707.437,-28559.4
1.28499e+08,15.6407,1,2.54205,1650.37,-628.832,-26083.2
1.2858e+08,73.6022,0,2.42449,7734.74,-11875.4,-22215.3
1.28585e+08,69.9086,1,2.66749,11402,8967.74,-25979.9
1.28834e+08,6.22698,0,2.62529,46.3197,1211.63,-28241
1.29098e+08,51.1599,1,2.56193,-3366.46,8767.44,-23287.8
1.29272e+08,161.226,0,2.69253,-22612.9,14461.4,-8070.92
1.29733e+08,8.94756,2,2.85762,-950.432,-1676.35,-28318.1
1.30373e+08,66.4653,1,2.61421,-7469.72,-2910.21,-17277.8
1.3083e+08,7.28792,0,2.3956,1401.7,-97.9912,-28011.3
1.30977e+08,145.044,2,2.37963,-1460.22,-23153.3,-8642.15
1.31289e+08,13.7403,1,3.01527,-1762.7,784.446,-26608.2
1.31714e+08,6.03497,1,2.53789,-230.292,1200.02,-28244.9
1.31801e+08,121.087,0,3.04058,-5220.78,23294.8,-20299.4
1.31906e+08,52.9079,2,2.40218,-5218.1,-3230.18,-19414.6
1.32107e+08,6.47626,2,2.68791,-421.12,446.319,-27632.9
1.32113e+08,173.971,2,2.60867,-13562,-25002,-5485.11
1.32124e+08,12.4569,1,2.79705,-2684.89,-2.85468,-28594.3
1.32143e+08,169.944,2,3.04059,15212.4,21589.1,-5112.69
1.32647e+08,129.916,2,2.76434,13847.9,-7699.72,-6548.88
1.32817e+08,42.8029,1,2.38552,7524.81,5108.4,-29082.8
1.32911e+08,31.0451,2,2.971,-987.644,-4670.89,-24297.4
1.33211e+08,4.49706,0,2.40338,-528.302,-762.999,-28739.3
1.33695e+08,32.1377,2,2.72046,1.0668,-4168.51,-23417.6
1.33719e+08,14.6312,2,2.77775,-1178.34,-2932.29,-28515.5
1.33993e+08,380.607,2,2.65029,-26424.4,-24478.2,96.1833
1.34124e+08,41.7435,2,2.84241,-8688.05,-1499.82,-29472.1
1.34271e+08,45.6487,1,2.54822,-5446.26,5741,-23163.2
1.35248e+08,70.43,2,2.63645,4244.82,7696.59,-16887.6
1.35411e+08,143.672,1,2.94235,-11255.8,3306.61,-1049.66
1.35754e+08,56.4949,0,3.04871,7532.76,-1132.45,-19690.4
1.35758e+08,22.6316,2,2.81188,332.518,-4680.88,-27559.2
1.35926e+08,6.33837,0,2.69081,1072.9,-919.511,-29130.9
1.35932e+08,63.4824,0,2.54636,4786.73,-459.935,-23531.9
1.36177e+08,149.384,2,2.86087,21696,-15497.8,-12215.8
1.36983e+08,97.2533,1,2.42111,9415.6,-12129.4,-15235.5
1.37088e+08,118.149,2,2.9742,17858.1,-7219.01,-13225.8
1.37157e+08,78.5423,2,2.7388,1720.07,10356.9,-16094
1.37205e+08,2.78333,0,2.40328,294.893,561.532,-28653.1
1.37331e+08,86.1748,0,2.87029,2822.57,10813.9,-14577.1
1.37377e+08,77.9724,0,2.36802,-8770.66,-11166.7,-20533.1
1.37617e+08,84.7198,1,2.74905,-12877.6,9699.28,-20978.4
1.37813e+08,90.66,1,2.73443,-12550.6,2381.79,-14566.6
1.38005e+08,39.3054,2,2.49027,-2678.64,-1761.67,-21113.8
1.38255e+08,114.071,2,2.59236,-9589.31,-4373.95,-7124.7
1.38295e+08,12.6994,2,2.87564,1451.8,584.405,-26709.9
1.38334e+08,54.9885,1,2.69225,5211.21,9688.2,-24992.8
1.38401e+08,11.4532,0,2.90053,1039.86,-1018.26,-26858
1.38542e+08,38.442,2,2.7725,-6138.42,-4905.36,-26530.8
1.3872e+08,16.5142,0,2.49033,1799.43,-1463.32,-26148.7
0,16.4917,0,2.5301,0,0,0
1.38762e+08,70.099,2,2.53319,-13274.1,-3849.9,-23322.5
1.38882e+08,14.1339,2,2.97363,-2476.25,-1614.99,-28011.8
1.39199e+08,31.5605,2,2.44777,4235.01,1915.35,-24081.8
1.39301e+08,13.3606,0,2.99888,974.394,-1889.23,-29433.5
1.39797e+08,7.01038,0,2.91893,1090.36,211.697,-27772.5
1.39926e+08,27.4081,0,2.98442,3700.33,871.563,-24425.4
1.40118e+08,17.1789,0,2.91072,2822.4,-598.923,-26533.7
1.40382e+08,77.001,0,2.94326,13466.8,4807.57,-21123.5
1.4049e+08,66.2072,1,2.43884,6592.19,-7397.19,-23648.5
1.40507e+08,17.3285,1,2.70174,-205.263,-1528.67,-25534.9
1.40507e+08,57.3146,0,2.52102,-4224.81,6237.41,-19343.9
1.40938e+08,6.61989,2,2.96198,391.001,-1297.4,-29376.4
1.41027e+08,15.924,1,2.88564,-913.058,2239.05,-26409.8
1.41664e+08,173.544,2,2.5235,9944.22,-29859.2,-9857.54
1.41809e+08,12.7423,1,2.79832,-2599.26,919.054,-28807.2
1.42086e+08,65.3063,1,2.73865,-8707.27,-1360.47,-18226.6
1.42127e+08,58.8471,2,2.90035,8154.93,-8600.65,-25199.6
1.42196e+08,26.6001,0,2.97468,3836.65,-810.983,-24782.9
1.42877e+08,5.43405,2,2.5072,-579.587,20.0145,-27792.6
0,5.72809,0,2.85535,0,0,0
1.42907e+08,44.3172,2,2.95758,-5575.19,-6654.83,-25421.1
1.43234e+08,54.3636,2,2.70851,3336.82,-11044,-28793.9
1.43384e+08,11.0377,2,2.68512,1657.71,449.128,-27320.3
1.43627e+08,43.1145,1,2.63942,1448.83,5979.83,-22050.2
1.43762e+08,13.3127,1,2.94815,2037.93,1954.73,-28672.6
1.44138e+08,118.888,1,3.03027,-5653.15,-15056.4,-9864.82
1.44412e+08,14.0603,2,2.96402,-2066.36,-2264.05,-29062.7
1.4444e+08,54.9698,0,2.41874,8220.72,7868.94,-26079.7
1.44644e+08,48.3033,2,2.83575,5387.77,-7169.36,-23989.8
1.4486e+08,88.7833,2,2.88647,-16795.7,1766.28,-25397.2
1.44868e+08,95.0675,2,2.60631,9160.06,-14206.3,-17951.5
1.44893e+08,175.347,2,2.59518,-539.776,-13185.7,-25122
1.44976e+08,38.1015,0,2.39191,7187.1,3721.19,-27761.9
1.45206e+08,29.4982,2,2.99316,704.095,-4554.12,-24605.5
1.45449e+08,12.8485,0,2.97787,-1.92118,-2669.14,-29396.8
1.46312e+08,125.497,1,2.40528,-20872.7,15771.5,-23857.9
1.46609e+08,55.7561,2,2.5587,-2461.77,-9687.2,-22462.1
1.46707e+08,24.9094,2,2.76356,-3413.14,3940.53,-28165.1
1.46771e+08,30.7686,2,2.62741,-2420.72,-4817.01,-25072.5
1.4718e+08,31.4346,0,2.95426,840.881,2575.68,-22808.3
1.47305e+08,192.669,2,2.76672,-15012.6,-940.996,-6605.67
1.47388e+08,30.9005,0,2.7107,4920.98,2875.5,-25572
1.47394e+08,24.2899,1,2.80077,-1798.88,4271.83,-26452.7
1.47421e+08,81.0677,2,2.38551,2185.9,-7869.64,-13714
1.47424e+08,42.0944,1,2.43943,-3574.55,8275.62,-28975.1
1.47814e+08,23.4964,1,2.7866,-3282.64,329.985,-25089.6
1.47898e+08,95.5976,1,2.67207,13308,14336.9,-23816.9
1.47994e+08,42.5562,1,2.57598,3550.02,8327.05,-29128.2
1.48138e+08,48.3498,0,2.36428,4290.79,5171.75,-21076.7
1.4824e+08,185.444,2,2.69902,9442.97,-29615.4,-5049.17
1.48384e+08,131.65,2,2.68923,-1576.91,-25817,-18534.1
1.48448e+08,35.4676,1,2.89004,-2541.48,6130.69,-25247.3
1.48511e+08,90.0349,2,3.0095,2706.86,-10219.1,-13156
1.48777e+08,14.6545,2,2.46274,1474.46,-2778.35,-28374.9
1.49004e+08,85.8845,1,2.98652,-8920.12,1248.06,-13195.5
1.49306e+08,59.4891,1,2.89921,-5454.26,-7678.02,-20848.8
1.49459e+08,120.153,1,2.46868,-4812.27,-23044.9,-19421.8
1.49491e+08,55.4813,2,2.37556,743.575,8331.07,-20631.8
1.49788e+08,156.697,1,2.99771,11335,-24694.8,-11035.8
1.4984e+08,84.0798,0,2.43684,-1241.07,-17136.3,-24171.4
1.50202e+08,166.951,0,2.87775,-24328.8,-3886.49,-5106.22
1.50632e+08,7.99044,2,2.98369,-656.222,-1463.98,-28069.8
0,7.92846,2,2.52029,0,0,0
1.51305e+08,87.3499,0,2.79127,15156.5,9884.03,-25103.7
1.51507e+08,77.4953,2,2.51392,-12661,-9706.95,-24729.9
1.51516e+08,167.571,0,2.79122,28443.1,-8570.43,-9686.49
1.51596e+08,37.8696,2,2.99877,2061.1,-3232.51,-21863
1.51764e+08,23.4451,2,2.56417,-4482.57,-2101.89,-27937.7
1.5189e+08,126.079,2,2.92145,-8957.28,-14519,-8521.81
1.51921e+08,10.7602,1,2.78615,-1612.56,1254.15,-27667.6
1.51993e+08,78.7461,0,2.80549,3071.54,6990.02,-14113.6
1.52152e+08,48.2533,2,2.40686,4044.63,-2809.63,-19870.2
1.52241e+08,96.4761,0,2.67477,18137.5,-4588.24,-20591.9
1.52439e+08,40.1087,2,2.40144,-1722.33,-7241.8,-24570.7
1.52589e+08,9.87785,2,2.49529,-777.606,-1219.44,-27217.7
1.52601e+08,33.9573,2,2.89894,-2882.1,-5268.78,-24814.9
1.52625e+08,4.98894,1,2.89309,380.911,-338.334,-27977.1
1.53024e+08,27.0399,2,2.88601,-3489.79,3698.18,-26335.8
1.53197e+08,86.3256,2,2.71974,9930.74,-14686.8,-24517.8
1.5361e+08,15.2496,2,2.74176,2577.8,-1985.27,-28976.5
1.53849e+08,125.994,2,2.54115,6898.37,-15131,-7975.97
1.53928e+08,38.856,1,2.63408,-7121.67,2326.73,-25290
1.5406e+08,41.391,0,2.76954,-971.826,8253.88,-26239.1
1.54572e+08,74.5587,0,2.42778,12646,-3943.3,-20113.4
1.54795e+08,107.192,0,2.81721,-8875.36,-2926.89,-8327.03
1.5488e+08,6.22456,0,3.03529,-394.304,-1211.3,-28492.8
1.5514e+08,57.4684,0,2.62252,10493.7,588.178,-22584.9
1.55393e+08,24.7651,2,2.83985,3975.12,-1746.03,-25935.1
1.55593e+08,54.2995,0,2.84702,7683.04,-8471.2,-29875.5
1.55898e+08,14.3368,1,2.59827,570.902,-2854.46,-28250.4
1.56659e+08,181.553,0,2.89822,14739.8,-3230.99,-16988.4
1.56728e+08,30.3706,1,2.54232,-538.982,-6060.53,-26903.8
1.56733e+08,196.385,2,2.77799,-23361,-10778.4,3507.95
1.56864e+08,57.7383,2,2.49751,9372.47,-6387.4,-24294.6
1.5769e+08,68.119,2,3.03761,-5223.81,2079.99,-20067.2
1.57731e+08,87.6741,2,2.52579,1455.38,-5194.95,-11124.6
1.57873e+08,17.3185,0,2.49374,2384.74,2849.9,-28406.9
1.58076e+08,12.545,0,2.51136,-2061.08,1604.69,-28864.7
1.58078e+08,149.599,1,2.85023,-14.1708,16855.1,-2229.86
1.58387e+08,84.7353,2,2.49847,283.104,-10316.9,-14118.2
1.58592e+08,22.6983,1,2.56121,-2569.18,4175.86,-29009
1.58701e+08,24.1577,1,2.64238,-4604.86,2045.53,-27655.8
1.59059e+08,54.6962,0,2.70257,5330.13,9544.13,-24958.9
1.59416e+08,26.1237,0,2.82065,3773.12,626.53,-24794.6
1.59566e+08,152.797,0,2.84432,3024.48,-24191.4,-18529.1
1.5957e+08,5.32637,2,2.85377,-486.791,176.223,-27811.2
1.59752e+08,78.0379,2,2.57214,2820.32,10530.6,-16520.1
1.59824e+08,170.976,0,2.38183,4304.68,-14217.5,4148.35
1.60162e+08,14.6637,1,2.99961,-2792.34,-1367.02,-28844.4
0,14.6541,1,2.91755,0,0,0
1.60244e+08,83.0881,0,2.43918,-8402.41,-6277.93,-16651.2
1.60326e+08,131.24,1,2.76842,12793.9,14099.1,-8874.06
1.60779e+08,97.4788,2,2.70382,-5925.32,-11387.2,-12705.7
1.60987e+08,1.76958,1,2.72855,-344.216,-88.271,-28628.9
1.61501e+08,163.826,1,2.77675,12114.3,9003.87,2164.19
1.61788e+08,51.137,1,2.49485,-8598.66,1666.14,-22428.6
1.62442e+08,50.4481,0,2.93807,4238.28,-5229.31,-20617.9
1.62486e+08,5.68401,1,2.50164,-565.023,-478.865,-27874.9
1.6254e+08,43.2266,1,2.80873,-2384.98,4841.44,-21437.1
1.62543e+08,134.017,0,2.97487,-6441.21,26443.8,-21795.1
1.62625e+08,173.947,2,2.49442,-387.145,17447.1,3497.5
1.63276e+08,1.55495,0,2.54529,152.99,-98.7578,-28511.1
1.64144e+08,61.1325,2,2.93115,-11460.7,189.049,-22940.6
1.6421e+08,201.704,0,3.02749,-16412.9,6366.61,-20400.2
1.64534e+08,19.2677,2,2.98826,-711.104,-2076.33,-25376.9
1.65161e+08,14.112,2,2.69731,-2291.25,-1947.1,-28266.1
1.65571e+08,167.173,1,2.60535,22768.8,13385.4,-5430.96
1.65636e+08,94.3055,2,2.81584,-19749.7,-2401.06,-28887.7
1.66058e+08,161.284,2,2.64316,-16337,-74.982,-7653.09
1.6649e+08,56.1387,2,2.94595,-5588.66,-10105.4,-25999
1.67205e+08,104.997,2,2.4834,-12569.4,-4199.63,-10958.9
1.67617e+08,21.6494,0,3.02091,9.28749,-2633.83,-25107.8
1.68176e+08,6.63027,1,2.73957,-1291.97,332.213,-28225.7
0,6.62025,1,2.8136,0,0,0
1.68462e+08,22.4747,0,2.99509,1443.51,1962.68,-25018.2
1.68509e+08,82.0086,0,2.93198,-998.106,16194.3,-23046.3
1.68742e+08,72.8186,0,2.88202,9361.84,12185.1,-29651.7
1.68865e+08,24.9729,1,2.75621,2197.95,3557.6,-25603.1
1.69077e+08,161.996,2,2.95164,1232.21,-27549.9,-12138.2
1.69124e+08,23.5794,2,2.94671,3791.17,-1609.08,-26052.5
1.69455e+08,168.708,1,2.67862,-14834.3,7373.45,2638.98
1.6966e+08,218.066,2,2.74528,-261.909,20170.3,11895.8
1.69709e+08,149.609,0,2.54352,-4341,1341.94,-26695.7
1.69882e+08,27.2312,1,2.4205,2209.58,1707.95,-23758.9
1.69893e+08,153.313,1,2.53683,11797.4,11820.2,-1039.58
1.7002e+08,67.133,1,2.63814,5388.67,12972,-26587.8
1.70117e+08,5.31142,1,2.51534,-390.106,110.915,-27756.3
1.70297e+08,15.8294,1,2.7469,-2132.04,2487.75,-29918.1
1.70496e+08,91.7655,1,2.8943,-17189.6,8722.58,-26903.9
1.70683e+08,88.5372,1,2.7022,17109.7,4625.94,-23333.9
1.70952e+08,3.33599,2,2.9683,682.548,-84.1782,-28862.3
1.70955e+08,15.3469,0,2.53774,-1087.83,1038.36,-25958.2
1.70999e+08,154.369,2,2.83159,-18583.7,8189.83,-3505.95
1.71056e+08,68.0913,2,2.9935,5489.71,-3210.42,-21524.3
1.71144e+08,13.6733,0,2.93154,1721.6,-856.012,-26609.6
1.71292e+08,126.088,2,2.6525,-5178.18,-8579.07,-11494.5
1.71599e+08,138.449,2,2.72487,15045.2,-23294,-19586.7
1.71973e+08,68.1335,0,2.71693,-11460,-2574,-20705.8
1.72194e+08,94.621,2,2.81928,11603.1,4866.17,-13474.3
1.72248e+08,38.6248,0,2.69331,-1687.56,-7728.69,-26871.8
1.72273e+08,116.415,2,3.04091,19145.2,-14839.2,-25750.5
1.72277e+08,63.0709,0,2.52121,8907.8,-9768.35,-26699.4
1.72678e+08,81.1413,0,2.66924,-4458.36,9775.81,-15540.2
0,81.2798,1,3.01809,0,0,0
1.72988e+08,69.0305,0,2.54419,-7481.77,-6475.27,-18141.1
1.73308e+08,122.001,2,2.40893,-8509.48,-3834.71,-28799.1
1.73613e+08,92.1148,1,2.94804,10020.9,15871.5,-24424
1.73628e+08,126.032,0,2.97955,-10199.6,18271.5,-12770.4
1.73937e+08,360.584,0,2.65861,2577.47,2457.06,-758.323
1.74092e+08,79.2216,2,2.77634,2643.54,8740.26,-14947.2
1.74647e+08,113.864,0,2.92057,17333.6,-16546.3,-29703.5
1.74894e+08,9.69572,2,2.67694,1751.61,944.438,-28552.3
1.75072e+08,123.073,1,2.72861,22492.7,3975.15,-16623.4
1.75106e+08,36.3012,2,2.47334,-7467.14,-2068.76,-28415.3
1.76009e+08,225.555,1,2.76932,23920,29304.3,-77.2735
1.76216e+08,136.469,0,2.85193,21778.4,13742,-21534.5
1.76479e+08,164.635,1,2.89706,17767.8,-6717.15,3.8932
1.76507e+08,71.2607,1,2.84758,3334.87,10790.8,-23069
1.76516e+08,48.679,0,2.42493,1002.52,-9994.61,-26398.4
1.7703e+08,56.7715,0,3.007,-552.498,-7201.05,-19350.3
1.77261e+08,120.862,2,2.45589,4856.93,-18856.4,-25286.9
1.7731e+08,30.196,0,2.77954,514.403,2738.2,-23091.6
1.77598e+08,216.612,2,2.86697,27831.5,-28186.9,-6388.73
1.78259e+08,156.773,1,2.56344,-21680.3,-23984,-21624.8
1.78307e+08,5.48454,2,2.65032,-1172.14,-178.362,-28561.7
1.78362e+08,13.1151,2,2.6808,-226.067,-1865.86,-26721.5
1.78628e+08,65.7893,2,2.39277,758.108,-13794.7,-26439
1.78756e+08,97.6053,1,2.9727,12179.4,5743.6,-13396.7
1.78821e+08,79.2837,1,2.76615,-11468.8,12149.8,-27030.7
1.78859e+08,31.7676,2,2.72576,2055.66,-1940.79,-22773.8
1.78895e+08,53.7008,1,2.95139,1994.19,-5025.67,-19008.8
1.79035e+08,37.5102,0,2.59754,696.906,4941.34,-22640.8
1.79174e+08,31.7997,1,2.8366,-4031.77,5390.6,-28139.5
1.79245e+08,36.8639,0,2.95377,5240.87,3904.32,-24581
1.79332e+08,33.7463,0,2.376,4178.2,-2572.26,-23545.6
1.79698e+08,13.4302,1,2.54188,-1118.68,-1266.66,-26532.5
1.79825e+08,29.9992,2,2.9614,462.496,-1824.08,-24821.9
1.79848e+08,86.5755,0,2.68555,15584.6,5455.82,-20895.7
1.79867e+08,49.32,0,2.56556,9466.51,2487.22,-25073.3
1.79878e+08,3.99629,2,2.39394,-262.916,-288.716,-28021.2
1.80498e+08,32.8947,2,2.98253,-5837.92,-3697.5,-27754.1
1.80668e+08,92.2163,2,2.84601,-11566.4,2628.28,-13515.5
1.80859e+08,65.0213,0,2.43173,6458.15,9331.25,-20979.5
1.8122e+08,49.0733,1,2.8567,-1125.19,-3120.45,-27447.4
1.81327e+08,18.8882,2,2.8812,-655.985,3825.86,-28234.1
1.81454e+08,111.686,2,2.82064,-21364,2063.81,-19183.3
1.81572e+08,141.789,0,2.67674,-10590.9,27355.5,-23266.6
1.8162e+08,112.672,0,2.50571,17359,3008.97,-12693.4
1.81755e+08,126.371,1,2.72613,-21897.2,14373.8,-23530.2
1.81911e+08,128.013,1,2.70471,-8298.79,24782.6,-21765.8
1.82126e+08,33.8914,0,2.95635,2927.1,702.653,-22333.8
1.82289e+08,52.455,0,2.7774,2904.3,-9450.48,-23858
1.82514e+08,27.3323,2,2.66952,3352.07,-4727.58,-28179.3
1.82612e+08,53.87,0,2.61685,-8343.46,-4706.23,-22755.2
1.82691e+08,124.634,2,2.80289,-938.671,-21108.3,-13184.7
1.82796e+08,38.5216,0,2.54696,8033.8,1530.01,-27685.8
1.82876e+08,25.5152,0,2.57126,2974.29,4542.51,-28446.3
1.83057e+08,52.6854,0,3.01107,6166.83,8222.82,-24608.1
1.83363e+08,83.7725,2,2.88176,15182.9,-902.759,-28528.4
1.83533e+08,97.2552,1,2.68433,3774.85,-8237.86,-10467.4
1.84e+08,253.688,2,3.00198,13034.5,-5861.39,779.859
1.84069e+08,11.7914,0,3.05652,232.298,2409.39,-28262.3
1.84181e+08,32.8175,2,2.63804,6185.18,728.94,-25824.4
1.84219e+08,130.817,0,2.96932,21502.4,-1180.46,-11703.3
1.84652e+08,261.274,1,2.39768,5392.89,17787.4,-2827.56
1.8501e+08,70.8596,2,2.77823,-4513.25,141.493,-17359.8
1.85085e+08,120.321,1,3.02127,2176.86,22441.3,-17438
1.85143e+08,28.5357,2,2.62698,37.4395,-5174.66,-25609.5
1.85495e+08,1.396,2,2.67149,-41.7908,-141.448,-28535.2
0,1.37192,2,2.73902,0,0,0
1.85567e+08,152.514,1,2.42862,-21127,13317.2,-8294.11
1.85568e+08,6.30665,1,3.00102,-616.545,825.116,-27909.1
1.85778e+08,77.4558,2,2.8078,-4832.69,-7804.7,-15297.7
1.86032e+08,85.6481,1,2.84421,-1602.27,6320.24,-12025.1
1.86421e+08,189.056,1,2.83653,-16567.6,-13096.6,1440.97
1.86432e+08,56.0119,2,3.01911,-9723.33,1819.16,-22448.4
1.86571e+08,6.90529,0,2.99788,812.248,-1173.3,-28398.5
1.86878e+08,44.0997,2,2.65299,5287.14,2436.98,-21597.8
1.86921e+08,66.4064,2,2.76758,13742.7,-2051.77,-27475.7
1.87409e+08,14.7135,2,2.62633,352.597,-2828.49,-27411.4
1.87926e+08,86.5792,2,2.53283,8304.84,14569.3,-22046.2
1.87961e+08,114.243,0,2.89636,3101.19,-15471.3,-10754.8
1.88218e+08,59.4925,2,2.80538,-1034.1,-8569.21,-19689.4
1.88342e+08,53.9344,1,2.67799,-6288.88,-8983.39,-25829.1
1.88777e+08,43.4133,1,2.39243,-1331.9,6781.3,-22664.1
1.8883e+08,220.01,0,2.85655,29536,-16974.7,2520.62
1.88992e+08,251.4,2,2.64866,-22662.5,25983.6,11400.2
1.89058e+08,145.369,2,3.02189,-7535.48,18598,-5968.17
1.89111e+08,106.328,2,2.66682,-13298.7,-15980.3,-20164.3
1.89436e+08,240.995,1,2.5803,-23024,-14596.6,14155.4
1.8947e+08,20.7971,2,2.44558,1589.36,-4175.37,-28936.3
1.89801e+08,11.7672,0,2.75576,-14.4839,-2497.11,-29040.5
1.89816e+08,189.762,0,2.87553,23130.5,-8710.43,2509.45
1.90171e+08,31.4779,1,2.57459,4445.83,3189.79,-24988.3
1.90637e+08,8.29268,2,2.82132,201.608,-1434.65,-29975.7
1.9083e+08,32.8371,0,2.60498,3707.27,4718.69,-25245.5
0,32.7043,0,2.40298,0,0,0
1.90843e+08,65.529,2,2.77259,-12851.8,-3932.43,-25445.6
1.91142e+08,6.49011,0,2.77473,563.214,-1217.77,-29329.7
0,6.42202,0,2.49258,0,0,0
1.91389e+08,5.69006,1,2.74694,-651.941,351.78,-27812.5
1.91642e+08,8.24767,1,2.5388,1290.29,-287.971,-27743.6
1.91858e+08,24.6464,2,2.67066,-4900.67,-667.581,-26985.7
1.92296e+08,73.979,0,2.54139,14233.2,-5820.52,-25494.3
1.92424e+08,26.5016,2,2.99237,-3509.27,-4241.42,-27485.9
1.92588e+08,11.5761,0,2.81023,2406.82,552.814,-29371.8
1.92608e+08,39.2937,0,2.87565,4975.29,940.326,-22250.4
1.92718e+08,7.95022,1,2.46597,489.028,867.901,-27444.5
1.9276e+08,88.5955,2,2.87777,-8369.31,-12146,-17342.1
1.92803e+08,12.7122,1,3.06002,1586.55,2071.18,-28153.4
1.93202e+08,37.2153,1,2.76036,-1352.75,4302.77,-22369.5
1.93263e+08,160.164,2,2.48941,22319.7,-25374.5,-25949.4
1.93652e+08,48.0169,0,2.50482,2330.66,3843.54,-19717.3
1.94567e+08,39.9407,0,2.87476,3031.44,-7841.96,-28096.9
1.94751e+08,59.2455,2,2.38332,-10721.2,-4161.06,-23661.8
1.95139e+08,19.6978,2,2.52233,609.049,-3263.73,-28806.4
1.95505e+08,182.657,0,2.74936,10171.6,11573.6,6444.91
1.957e+08,113.221,2,2.66827,-12694.8,11104.7,-24230.6
1.95857e+08,96.8266,2,2.61284,-5161.63,-8147.42,-10760.3
1.96009e+08,2.29944,2,2.68567,-259.005,-55.993,-28376.4
1.96074e+08,180.165,2,2.83571,-12697.8,-28239.3,-13562.2
1.96094e+08,97.7507,2,2.97172,-17368.6,-10988.3,-27413.6
1.96259e+08,9.3488,0,2.69317,812.533,187.332,-27022.2
1.96519e+08,27.5611,2,2.3708,-2369.26,-1312.44,-23633.4
1.97241e+08,10.048,0,2.40334,1410.96,1661.84,-29118.9
1.97411e+08,16.7366,1,3.04624,-3554.07,-38.1396,-29129.9
1.97656e+08,147.199,2,3.02238,6301.59,1605.44,-26248.3
1.97757e+08,36.1595,0,2.49848,5851.71,-2737.45,-24589.9
1.98123e+08,14.3203,1,2.69667,-2966.86,326.895,-29655.9
1.98205e+08,62.2999,0,2.9606,5661.55,-131.686,-17005.5
1.9862e+08,163.625,2,2.78029,13285.8,-3799.89,-28836.5
1.98833e+08,101.369,0,2.49606,13334.5,-15032.8,-21164.8
1.99349e+08,61.8082,1,2.58055,10297.8,7690.76,-26365.5
1.99482e+08,5.90199,1,2.64357,-504.124,-968.771,-28258.3
1.99759e+08,16.0164,0,2.7547,2459.11,-1817.34,-27213.5
1.9998e+08,129.701,1,2.44275,15815.9,17846.3,-15257.2
2.00061e+08,36.1999,0,2.67933,-3166.25,-4988.72,-24033.7
2.00084e+08,29.8836,1,2.44109,-2453.23,2136.61,-23360.7
2.0016e+08,55.1081,1,2.72535,-4445.78,-8575.94,-22398.9
2.00417e+08,72.5078,0,2.39756,14482,-5097.33,-27082.5
2.00502e+08,72.2684,1,2.51549,-12137.8,8808.66,-25459.5
2.00627e+08,106.265,1,2.65394,-1756.14,19364.4,-17556.2
2.00775e+08,27.6892,1,2.59611,-3591.88,1079.81,-24302.7
2.00904e+08,30.1334,0,3.03898,-1052.68,2881.22,-23346.9
2.00982e+08,96.4928,1,3.04552,6111.98,-16005.3,-18213.7
2.0144e+08,147.897,2,2.59908,27499.6,-3341.64,-14418.9
2.01672e+08,45.6588,0,2.65396,-1811.34,6526.76,-22017.8
2.0174e+08,263.158,1,2.77243,4471.94,-22450.6,-18845.9
2.01787e+08,48.2567,0,2.76496,8323.19,-1134.65,-23017.7
2.02034e+08,240.125,0,2.48149,-27806.6,16159.2,10389.3
2.02083e+08,63.5659,1,2.60042,-4718.64,1371.02,-16306.4
2.02191e+08,4.18147,1,2.6509,4.81935,742.889,-28230.6
2.02273e+08,79.8475,1,2.73535,16580.7,2551.91,-29570.3
2.02275e+08,19.8832,2,2.5471,-2272.9,-337.08,-28030.5
2.02318e+08,139.667,1,2.67718,14917.4,9042.95,-5085.96
2.02775e+08,10.8943,1,2.37642,397.976,1095.96,-26793.3
2.02934e+08,79.5174,2,2.9511,-12705.8,-515.791,-18008.5
2.02953e+08,110.853,2,3.00801,8756.71,-17886.4,-16788.2
2.03168e+08,8.95618,0,2.60585,372.023,-1509.52,-27736.3
2.03384e+08,58.3029,2,2.44156,-11426.5,2622.99,-24953
2.0351e+08,211.986,1,2.91042,14026.6,29657.7,1101.56
2.03838e+08,151.708,1,2.93702,-28265.3,11736.9,-19832.4
2.0385e+08,23.6736,0,2.74499,4543.18,-2104.91,-28077.3
2.03997e+08,7.35372,1,2.77306,880.853,-484.82,-27690.7
2.04381e+08,119.792,0,2.40258,8145.79,-22094.5,-19316.2
2.04967e+08,25.4476,1,2.94857,-3.12337,2821.45,-24231.9
2.05071e+08,49.226,0,2.80182,10354.7,766.055,-27489.9
2.05172e+08,173.345,1,2.42186,16415.4,-17779.1,-1333.7
2.05174e+08,26.437,1,2.81947,-4680.27,1036.48,-25891.4
2.05201e+08,5.8077,0,2.42469,924.205,-892.172,-29138
2.05214e+08,196.057,0,2.61,-8340.08,-26826.2,1563.52
2.05297e+08,13.9181,0,2.83281,2876.13,-467.827,-28073.5
2.05703e+08,29.477,1,2.55376,-89.2407,3854.57,-23888.9
2.05963e+08,12.5542,2,2.76422,-2186.08,-1126.81,-27672.4
2.06481e+08,33.9707,1,2.37318,6241.73,3580.32,-29530.3
2.06494e+08,195.999,0,2.63437,16813,25537.5,-929.561
2.06804e+08,9.84155,1,2.83274,-814.818,1762.09,-27862.9
2.07187e+08,16.3698,0,2.68038,3481.24,-92.5085,-29593.3
2.07322e+08,8.42909,1,3.04875,-511.176,-273.289,-27183.1
0,8.2368,1,2.84404,0,0,0
2.07589e+08,20.29,0,2.67036,2137.86,1228.99,-25291.6
2.08039e+08,40.355,2,2.7712,-2313.22,4716.85,-22160.4
2.0804e+08,6.93423,0,2.53507,-642.193,1284.74,-29042.3
2.08148e+08,62.4943,1,2.98309,-11728.2,-1648.82,-23101.4
2.0818e+08,61.1622,1,2.36762,-9785.81,4774.08,-21682.6
2.082e+08,65.444,1,2.68029,-4938.6,6844.74,-17839.3
2.08289e+08,98.7376,2,2.50207,6866.78,273.303,-12408.9
2.08773e+08,114.481,1,2.88824,8425.18,8385.68,-7925.23
2.08983e+08,55.9643,0,2.92262,4391.11,1488.74,-17985.8
2.09069e+08,1.02362,1,2.97505,-119.078,36.4798,-28625.8
0,0.975426,1,2.981,0,0,0
0,0.950382,1,2.68593,0,0,0
0,0.956167,1,2.9686,0,0,0
0,1.03936,1,2.37111,0,0,0
2.09107e+08,46.2328,0,3.00239,7734.43,-5933.69,-29550.2
2.09173e+08,10.4626,2,2.39839,-2258.42,-380.611,-29061.4
2.0937e+08,114.07,0,2.45521,18721.3,-1878,-13620.3
2.09372e+08,203.442,2,2.93479,-16538.9,-20121.9,5052.47
2.09726e+08,193.071,0,2.73388,15551.3,-18305.9,4022.96
2.09947e+08,46.0333,2,2.75364,1927.4,-8951.77,-25493.7
2.10244e+08,38.263,2,2.64403,-4903.27,-1776.31,-22609.6
2.10375e+08,14.3165,1,2.84595,2203.72,1002.33,-27052.9
2.10722e+08,60.4852,2,2.53777,5965.51,-11347.9,-29784.7
2.1123e+08,132.127,0,2.49209,-17828.5,9140.38,-9430.75
2.11276e+08,7.14565,1,2.40946,561.834,1219.87,-28001.5
2.11439e+08,103.496,0,2.92867,9832.76,-11932.9,-13500.7
2.11559e+08,99.3766,1,2.40106,-13012.2,16584.9,-27394.8
2.11611e+08,0.933018,1,2.67175,88.3564,240.121,-28832.5
2.12138e+08,16.777,0,2.71405,574.506,2482.09,-26329.9
2.12578e+08,49.1336,2,2.521,5617.6,-1237.32,-20203
2.12614e+08,96.992,0,2.38388,5346.8,7379.6,-10426.3
2.12716e+08,77.5976,0,2.87708,-7467.03,14461.3,-28404.2
2.12841e+08,63.4735,2,2.37795,-5622.94,-217.516,-16619.4
2.12842e+08,41.9822,1,2.86499,8434.23,-1057.17,-26560.8
2.13388e+08,27.131,2,2.61667,3578.36,586.944,-24423.5
2.13479e+08,86.4228,0,2.80244,17124.1,5877.03,-26272.8
2.13607e+08,92.6806,0,2.92195,12530.7,-11783.5,-22443.4
2.13679e+08,14.1118,0,2.39441,-2056.47,-8.6587,-26710.6
2.13831e+08,97.8996,2,3.01984,-9444.6,-13790.3,-16810.5
2.14197e+08,147.677,0,3.05608,-1275.08,-1861.66,-22979.1
2.14303e+08,1.42116,0,3.03666,-75.4781,37.1374,-28566.5
2.14413e+08,254.569,0,2.90211,21566.1,19902.9,-14502.4
2.15188e+08,7.31059,1,2.97604,143.566,1414.38,-29622.8
2.15223e+08,200.027,1,2.62387,-19598.2,-11274.8,-27341.7
2.15296e+08,156.237,2,2.69114,-22851.4,20039.1,-17357.8
2.15614e+08,48.8181,1,2.5853,-9127.83,-4151.5,-26348.5
2.1571e+08,80.8991,1,2.97176,-14628.4,6679.94,-23210
2.1578e+08,24.4194,0,2.41682,-884.971,-4836.48,-27222.1
2.1587e+08,7.70214,0,2.99216,779.982,-77.874,-27367.7
2.16561e+08,67.6491,1,2.59161,112.61,9377.92,-17965.8
2.16741e+08,50.9753,1,2.75769,-5045.24,623.947,-19332.2
2.16961e+08,163.011,1,2.81011,-15016.9,-10908,5.88768
2.17554e+08,137.758,1,3.02451,-20061.6,8842.8,-9996.01
2.17949e+08,37.2761,2,2.84453,-6144.41,-4966.61,-28242.3
2.18058e+08,134.298,2,2.77641,-25188.9,-11941.6,-23614.2
2.1848e+08,51.8384,0,2.41524,-860.589,9429.29,-23258.9
2.18661e+08,60.522,2,2.49565,11050.7,3591.48,-23526.8
2.19411e+08,12.0004,0,3.01217,1332.65,1722.09,-27460.2
2.1959e+08,14.1748,2,2.60622,-2632.6,1494.81,-28758.9
2.19739e+08,8.35232,0,3.05601,-145.294,1000.17,-27384.3
2.19886e+08,20.6551,1,2.66271,-3784.16,-2195.16,-29218.2
2.20072e+08,60.4382,0,2.96657,3814.53,-8517.63,-20196.3
2.20143e+08,58.936,1,2.79783,8416.33,-7179.72,-23318.7
2.20345e+08,130.716,1,2.7388,-12005.4,2737.94,-4472.51
2.20423e+08,49.5295,2,2.65818,-8100.58,-4858.35,-24191.9
2.20788e+08,87.3546,0,3.00898,10191,14388,-26378.4
2.21356e+08,20.1275,2,2.83277,-2126.71,-1483.97,-25438.4
2.21483e+08,61.3202,1,2.39853,2453.78,12649.5,-26632.3
2.21557e+08,103.407,1,2.66594,7443.98,-14212.9,-14170.7
2.21684e+08,156.754,0,2.8798,-12524.8,21568.4,-7348.98
2.21791e+08,8.40406,2,2.8486,-1605.76,406.079,-28077.3
2.21919e+08,31.1335,1,2.77945,-4188.21,-4310.09,-26203.5
2.2203e+08,100.81,2,2.74162,11651.5,-8695.77,-13350.5
2.22264e+08,23.1603,2,2.80174,-2298.21,2434.07,-25289.4
2.22716e+08,92.2503,1,2.76074,2819.29,9157.32,-18905.5
2.22819e+08,32.1427,0,2.91718,3057.47,535.326,-22810.2
2.23379e+08,26.9389,1,2.8147,5063.04,1466.42,-26728.4
2.23495e+08,74.5066,1,2.99787,-5033.48,-13566.5,-23043.9
2.23637e+08,58.7106,2,2.60752,-6332.64,-4834.54,-19244.6
2.23782e+08,126.216,1,2.82659,16458.6,-12488.8,-12923
2.23804e+08,20.716,1,2.40882,-894.924,4318.28,-29610.3
2.23973e+08,24.3324,1,2.67493,-1302.61,-3176.26,-25071.3
2.24409e+08,101.329,1,2.37251,-446.94,-17574.1,-16651.4
2.24415e+08,128.139,0,2.37423,1378.15,25492.5,-19664.7
2.24538e+08,29.898,2,2.42432,5085.22,649.971,-25150.4
2.24659e+08,41.062,0,2.60723,8233.32,205.943,-25814.1
2.24902e+08,146.145,1,2.70254,-28793.7,5722.13,-19384.1
2.25357e+08,37.1126,2,2.72709,1531.7,-5289.49,-23229.4
2.25673e+08,115.62,1,2.56756,6072.36,10829.5,-29098.4
2.25678e+08,12.1901,2,2.55304,-2358.89,-728.118,-29866.9
2.25679e+08,27.0301,2,3.03469,-2161.26,-5316.32,-29473.4
2.26168e+08,269.921,1,2.64399,906.156,-19696.6,16155.9
2.26405e+08,104.341,2,2.68756,13135.4,3578.24,-11617.3
2.26489e+08,208.699,2,2.56144,24001.1,-22446.5,624.503
2.26602e+08,115.361,2,2.39655,-22004.2,4217.04,-19041.3
2.26673e+08,11.6123,1,2.78095,-759.846,1404.63,-26909.3
2.2674e+08,73.6171,2,3.02619,-9702.01,5221.09,-18021.1
2.26818e+08,86.3766,2,2.80856,-6492.18,9214.26,-14587.7
2.27125e+08,23.7829,0,2.52749,-3645.9,-131.854,-25436.6
2.27191e+08,15.8052,0,2.96935,-486.648,-2576.48,-26834.2
2.27815e+08,85.4358,1,2.65582,11225.6,10218,-19079.4
2.27971e+08,44.2697,1,2.83787,-5174.71,4266.66,-22268.4
2.28134e+08,15.4027,0,2.90882,2367.45,433.745,-26556.2
2.28249e+08,22.543,2,2.76426,-1505.76,-3587.98,-25966.1
2.28363e+08,31.6108,2,2.65835,6069.57,-158.517,-26135
2.28917e+08,16.1827,2,2.98709,-2517.99,-2379.38,-29448.9
2.293e+08,102.145,2,2.87441,20594.7,-5965.84,-28679.7
2.29315e+08,51.9087,0,2.97907,-9203.67,-486.25,-23160.2
2.29589e+08,89.0252,0,2.75634,-11980.1,-13172.9,-23037.1
2.29865e+08,159.493,2,2.50417,5628.76,9427.8,-29874.2
2.29867e+08,26.3522,0,2.53401,-4265.54,3031.71,-27021.8
2.30161e+08,50.4946,0,2.43338,9881.12,916.655,-24636.9
2.30278e+08,169.14,0,3.0281,7500.21,-13720.8,-4066.49
2.30477e+08,60.0147,0,3.04645,845.391,12265.2,-26136.9
2.30863e+08,13.624,2,2.70291,-1382.91,269.262,-26305.5
2.31134e+08,81.4333,1,2.82528,10606.6,7871.47,-17912.9
2.31181e+08,68.9479,2,2.38173,-9909.85,9091.8,-24768.2
2.31319e+08,6.94809,1,2.55596,136.718,1323.26,-28062.5
2.31719e+08,97.5193,0,2.66608,20491.9,-310.29,-26124.2
2.32023e+08,74.4589,0,2.79352,-9630.11,-1903.76,-16702.3
2.33035e+08,11.5383,2,2.4719,2236.48,-996.584,-29095.4
2.33496e+08,70.3841,0,3.02634,2129.13,3991.84,-16894.3
2.33769e+08,70.9396,1,2.87936,-2544.44,-10870,-19013.3
2.33881e+08,33.3788,1,2.79904,-46.5147,2930.43,-22407.5
2.34224e+08,157.198,2,2.78017,-9287.13,-25959.7,-10400.6
2.34457e+08,128.224,0,2.96382,5133.55,26164.3,-25001.7
2.34924e+08,53.5701,2,2.72393,3009.7,-10817.5,-27069
2.35211e+08,44.2739,2,2.90676,8616.21,-3520.79,-29271.9
2.35655e+08,10.1076,2,2.98617,-1598.08,192.07,-27387.3
2.35803e+08,20.4098,0,2.51024,4113.81,-1253.55,-29889.5
2.36029e+08,47.3843,1,2.557,1581.27,-4571.88,-20086.5
2.36123e+08,66.1095,1,2.65111,-13947.1,-1144.65,-28172.6
2.36453e+08,48.8213,1,2.48679,-3988.01,9258.48,-26194.8
2.36651e+08,111.974,0,3.0074,7869.01,-10394.3,-9267.21
2.36701e+08,2.25257,0,2.89175,346.297,-182.475,-28454.7
0,2.26865,0,2.95566,0,0,0
2.36973e+08,21.3468,0,2.90794,3609.67,2660.99,-27962.6
2.3732e+08,187.291,1,2.68942,-18384.8,-14769.5,2835.2
2.37414e+08,15.4498,1,2.63304,-190.027,3281.34,-28091.1
2.37456e+08,68.9458,0,2.4939,-5579.25,-7673.42,-17789.9
2.37516e+08,90.64,1,2.61416,18973,-2094.14,-27799.7
2.3778e+08,17.0397,0,2.50822,3508.72,-1120.97,-28569.8
2.37906e+08,168.696,1,2.49203,-18863,29643.2,-22121.4
2.38252e+08,14.5161,0,2.91206,1101.85,-1710.92,-26513.2
2.38489e+08,75.0212,1,2.58314,12948.6,7170.63,-23117
2.38929e+08,200.31,1,2.99367,8836.46,19138.9,7506.04
2.3896e+08,88.3575,0,2.37673,8660.73,7359.76,-13923.9
2.39014e+08,43.0255,1,2.43732,3942.68,7482.86,-25277.4
2.39069e+08,109.837,2,2.66522,-12899.5,-8603.62,-11579.8
2.39961e+08,7.41054,1,2.7843,886.851,-174.189,-27574.7
0,7.4854,1,2.86365,0,0,0
0,7.02076,0,2.36661,0,0,0
2.39962e+08,13.0857,2,2.4742,-474.84,-1824.46,-26719
2.40057e+08,63.8515,2,2.69653,-12213.1,-3704.46,-24368.1
2.40183e+08,23.479,0,2.90323,3709.88,-1553.18,-25847.5
2.4025e+08,9.96804,2,2.40158,-1036.33,-1769.47,-28015.4
2.40449e+08,51.2542,0,2.89091,-4816.98,6277.97,-21542.3
2.40522e+08,37.5021,1,2.78899,-2620.35,7517.02,-27997.8
2.40656e+08,60.34,0,2.71051,8879.24,1535.95,-19752.1
2.40701e+08,47.4849,0,2.60326,8541.06,642.396,-23460.4
2.40709e+08,103.916,0,3.01129,17294.4,-8650.42,-18639.6
2.41171e+08,102.711,1,2.75688,10221,19104.5,-27589.6
2.41407e+08,9.65441,0,2.3792,1734.25,635.179,-27768
2.4143e+08,60.0023,2,2.5682,-4368.99,-2864.75,-17236.6
2.4182e+08,154.936,1,2.51007,18888.8,5159.16,-2585.02
2.41899e+08,74.3044,2,2.75897,-14356.7,-4589.77,-24327.5
2.41906e+08,107.789,1,2.7807,-11665.4,-2590.75,-9514.4
2.42206e+08,18.7913,2,2.92608,-1450.65,714.059,-25215.9
2.42241e+08,82.6352,2,2.74022,8618.2,-15157.4,-28287.1
2.42536e+08,213.449,2,2.43707,-38.3356,-15567.6,-7027.43
2.4288e+08,177.934,0,2.5947,18981.9,8083.92,2620.19
2.42929e+08,55.01,1,2.83389,-3099.16,-7599.51,-20721.6
2.43016e+08,154.253,1,2.56939,12621.6,4505.69,874.478
2.43064e+08,41.5242,0,2.78696,4545.82,51.8039,-21313.5
2.43167e+08,33.6744,2,2.49676,6999.41,722.776,-27885
2.43509e+08,166.17,1,2.48462,-3592.91,28547,-8568.09
2.43744e+08,97.8701,2,2.62014,4770.84,-17284.4,-18424.5
2.43851e+08,20.1725,2,2.37297,-1423.95,-1515.72,-25056
2.44024e+08,32.5396,0,2.88318,-230.555,-5838.57,-26873.3
2.44208e+08,47.6638,0,2.40426,4310.3,8956.32,-26745.8
2.44425e+08,173.39,0,2.63667,-17491.6,-20420.5,-14165.6
2.44527e+08,144.749,2,2.90911,-863.379,-17010.5,-3599.79
2.44696e+08,59.4936,2,2.59719,1122.89,-4568.04,-17136.8
2.44727e+08,82.5813,2,2.74561,6214.48,12073,-18583.3
2.44855e+08,31.4736,0,2.77969,2205.17,-6280.38,-29265.5
2.44911e+08,105.233,2,2.41149,-12513.3,-18521.8,-29783.8
2.44967e+08,93.1463,2,2.54213,-6300.67,-18773.3,-28712.3
2.4527e+08,254.422,2,2.98843,-9030.85,26741.1,16382
2.45364e+08,63.328,0,2.75358,5405.78,7896.38,-19487.6
2.45473e+08,11.1978,0,2.48418,694.137,2032.31,-27708.7
2.45509e+08,18.3507,1,2.63737,255.324,3129.14,-26479.6
2.45534e+08,40.4318,0,2.71145,2165.83,7631.07,-25569.5
2.46075e+08,79.8792,0,2.89443,-10574.6,9622.14,-20123.4
2.46505e+08,25.8471,2,2.46815,5021.53,-2181.76,-28943.2
2.46957e+08,44.3279,2,2.67035,-4311.47,-8379.98,-29139.9
2.47473e+08,149.044,2,2.82369,-28988.5,-10545.6,-22825.8
2.47498e+08,14.7559,0,2.79062,-1564.16,1937.73,-27048.1
2.4762e+08,130.168,2,2.61293,-19454.8,17012.5,-19485.3
2.47844e+08,55.7961,0,2.52609,-5584.38,-8196.74,-22511.1
2.47902e+08,72.1657,1,2.85152,-12732.1,-8247.14,-28612.3
2.4824e+08,62.1335,0,2.57294,7404.1,8677.96,-22211.3
2.48797e+08,148.087,2,2.50878,15680.9,6109.38,-2454.07
2.49004e+08,45.3717,2,2.94238,3264.52,8213.57,-25444.6
2.49052e+08,63.0462,0,2.37684,-1970.5,-6032.25,-17088.2
2.491e+08,48.908,1,2.91932,6993.75,1627.37,-24263
2.49278e+08,143.72,0,2.98328,15947.5,-25050,-23361.6
2.493e+08,73.4959,0,2.8311,13326.6,-6039.58,-23621.4
2.49412e+08,120.724,0,2.953,7551.82,-14345.1,-9328.45
2.49437e+08,98.8927,1,2.57347,-13566.9,6068.44,-14055.6
2.49553e+08,16.0512,2,2.59273,976.16,-2319.19,-28724
2.4961e+08,40.3174,2,2.79519,2339.81,-6757.51,-24144.4
2.49709e+08,39.3607,1,2.50581,-2155.78,-5826.84,-23344.1
2.49714e+08,68.7829,0,2.87133,7969.03,-3731.27,-17311.5
2.49844e+08,16.7562,1,2.53932,-1412.68,2405.11,-26527.8
