#class tools::wcsv::ntuple
#title time
#separator 44
#vector_separator 59
#column double eventID
#column double t(ns)
#column double copynumber
#column double energy(eV)
#column double x(mm)
#column double y(mm)
#column double z(mm)
13922,109.606,1,2.91585,4677.04,-21595.9,-22718.8
94877,23.3261,2,2.85547,-4227.89,1297.55,-26674.9
369299,3.15706,2,2.4586,-509.473,-493.406,-29072.7
469244,186.397,0,2.8215,-16106.1,16341.8,2957.24
553358,198.837,1,2.53001,-27948.8,-24272.8,-8963.16
970123,127.643,2,2.49125,-26738,-4072.87,-27949.4
1.06012e+06,19.0962,0,2.87718,2148.53,-1232.13,-25740.2
1.06346e+06,104.216,0,2.96754,5187.91,16787.4,-15779.6
1.10944e+06,74.7095,2,2.82937,1828.31,-14761.2,-23545.9
1.17595e+06,141.712,1,2.5823,-24669.2,10.1652,-26268.7
1.27777e+06,40.0356,0,2.86461,6093.12,395.778,-22906.8
1.28683e+06,53.5684,2,2.96283,2937.69,10295.3,-26484
1.42861e+06,22.4543,0,2.85215,1635.86,-1600.57,-24662.7
1.59654e+06,18.2867,0,2.96794,-1659.14,2008.86,-25977.6
1.61186e+06,68.4127,2,2.74511,-11875.5,7691.72,-25954.1
1.80571e+06,65.4191,2,2.98367,8076.01,-10591.1,-25810
1.86828e+06,7.84841,1,2.93797,-1623.92,696.727,-29024.7
2.07072e+06,226.658,0,2.4365,291.487,21214.1,13792
2.08587e+06,223.486,2,2.64569,14130.6,17335.8,12584.5
2.29787e+06,127.4,1,2.84716,-4864.37,-21370.2,-13243
2.34725e+06,27.8499,0,2.55959,64.6756,-3195.9,-23900.7
2.37873e+06,1.48192,1,2.45717,110.635,5.21657,-28555.4
0,1.48688,1,2.5011,0,0,0
0,1.75588,2,2.60228,0,0,0
0,1.49432,1,2.50105,0,0,0
0,1.70349,2,2.62971,0,0,0
0,1.68953,2,2.38109,0,0,0
0,1.18317,0,2.58317,0,0,0
0,1.18822,0,2.82817,0,0,0
0,1.24323,0,2.9936,0,0,0
2.53304e+06,73.3685,1,2.42419,-9448.12,3688.91,-17026.8
2.76642e+06,66.1633,0,2.46525,12709.7,4621.29,-24922.4
2.81196e+06,25.7917,1,2.5776,2168.2,-1814.67,-24626.1
3.01882e+06,37.3822,1,2.90655,3262.58,1574.21,-21845.2
3.15173e+06,5.35142,1,2.36678,890.664,504.188,-28281
3.29281e+06,107.851,1,3.01286,-647.617,22658.5,-27929.1
3.31917e+06,48.5029,2,2.96487,-2400.52,7455.37,-22412.8
3.46429e+06,143.487,1,2.43885,11998.2,24670.4,-20016.7
3.55943e+06,29.892,1,2.50889,-4506.1,-4233.27,-27553
3.6682e+06,118.362,2,2.61363,-21247.1,-12373.9,-23810.5
3.68145e+06,157.598,1,2.83849,404.222,3832.5,-15029.8
4.10637e+06,6.08111,0,2.75501,329.579,1280.6,-28960.8
4.22907e+06,42.1538,1,2.89673,4068.43,-4649.01,-22541.1
4.41062e+06,27.5783,2,2.60188,-5475.52,-125.633,-28090.1
4.46425e+06,27.1689,2,2.37081,-2703.39,-4676.28,-26571.1
4.52587e+06,111.773,2,2.79955,-13840.3,-17554.3,-21360.7
4.58025e+06,12.1992,1,2.84157,198.455,1510.12,-26681.2
4.62733e+06,50.9847,0,2.81849,6775.11,-1030.9,-20515.8
4.62848e+06,43.6342,1,2.49149,-8513.07,-345.75,-25171.9
5.03813e+06,63.4373,1,2.98127,-7075.34,11300.5,-27390.1
5.04932e+06,38.0964,2,2.68788,4216.45,-2011.69,-22183.5
5.11164e+06,91.7827,0,2.72923,5435.09,5929.44,-11205.5
5.16046e+06,54.7166,0,2.56484,4445.64,-1735.02,-18713.3
5.16896e+06,81.1432,1,2.81608,8250.18,-2449.94,-14103.2
5.35236e+06,29.0645,0,3.03044,6161.92,-0.0161729,-28189.7
5.46066e+06,31.562,1,2.5243,-5139.01,1629.02,-24959
5.60862e+06,45.4471,1,2.75618,-2128.75,5017.33,-20888.3
5.64352e+06,32.0241,1,2.84816,-2811.04,6314.04,-29028.5
0,32.0718,1,2.92392,0,0,0
5.75235e+06,119.886,0,2.65447,15117.9,-19402.2,-22717.5
5.78312e+06,74.6118,1,2.85226,10490.6,11602.2,-27841.1
6.0729e+06,59.7552,1,2.60671,6500.3,6673.14,-20342.4
6.11248e+06,102.053,2,2.63328,-14242.2,-13340.1,-23577.7
6.12662e+06,30.3429,1,2.61667,-5353.83,3524.36,-28423.3
6.17445e+06,130.766,2,2.77033,-4585.67,-22758.9,-13771.5
6.19186e+06,154.063,1,3.02196,3050.22,25217.2,-8913.52
6.45268e+06,29.7431,0,2.45316,-682.37,-4757.29,-24724
6.52014e+06,1.45413,1,3.46357,-426.003,251.053,-28839.4
0,1.36485,1,2.47051,0,0,0
0,1.46884,1,3.39344,0,0,0
6.57288e+06,158.479,0,2.95246,-15381.5,-29253,-24474
6.62007e+06,62.8893,1,2.66365,-1124.23,7896.87,-18194.8
6.6281e+06,56.5746,1,2.99319,7032.52,9051.71,-25532.3
6.66042e+06,39.8551,1,2.49896,3164.01,2100.22,-21174.4
6.67666e+06,68.0422,1,2.49362,13076.8,2377.61,-23416.1
6.71111e+06,100.237,1,2.93621,-16692,5675.1,-17509
7.14151e+06,180.478,2,2.76161,-20131.9,-8536.81,2135.99
7.23069e+06,143.441,1,2.75747,11161.3,19679.6,-8814.42
7.4252e+06,57.8198,1,2.42124,-11330.1,-4927.88,-27137.2
7.42629e+06,6.15227,2,2.5608,-1014.15,-982.669,-28783.6
7.42668e+06,84.8878,0,2.73609,6510.42,-15460.8,-22506
7.48108e+06,8.67278,0,2.65206,-787.407,-1040.7,-27552.1
7.52096e+06,71.5796,0,2.85979,13333.4,7177.58,-28953.8
7.5277e+06,114.711,1,2.53375,11421.3,-11440.9,-10837.7
7.69931e+06,115.427,1,2.67483,-2462.65,-2543.34,-27430
7.81336e+06,67.4734,1,2.8098,8677.81,10149.6,-24436
7.99414e+06,23.8125,2,2.66693,2304.03,-4424.54,-28367.2
8.08106e+06,123.757,1,2.58209,-8804.82,-24174.8,-24582.1
8.37277e+06,39.9674,2,2.47477,-1235.68,8326.64,-29078.3
8.40467e+06,84.8352,0,3.00771,14552.4,-559.073,-18530
8.70254e+06,8.10423,2,2.82809,-676.225,-1694.53,-28531.8
8.80728e+06,7.93003,2,2.92142,-827.038,-963.083,-27760
8.82684e+06,149.868,1,2.87658,15.8144,5291.36,-28894.5
8.8999e+06,11.3521,0,2.43416,1513.59,1958.02,-28430
8.9466e+06,39.033,1,2.9376,-983.645,8212.53,-28296.7
9.09476e+06,166.251,0,2.4726,6728.33,804.723,-18811.9
9.10866e+06,202.359,2,2.41911,-26944.9,2695.69,4413.63
9.17416e+06,142.239,1,3.03471,28518.7,6198.81,-22941.2
9.36921e+06,46.0183,2,2.41396,-2731.37,-4928.09,-20831.3
9.40078e+06,155.428,1,2.78402,-24933.7,-10219.9,-10185.7
9.40717e+06,1.80745,1,2.61219,153.459,235.206,-29163.1
0,1.81113,1,2.85784,0,0,0
9.63839e+06,52.1302,2,2.71073,6805.65,-6048.24,-22641.3
9.74537e+06,228.826,2,2.37969,25626.4,16431.4,8949.91
9.77152e+06,36.1046,2,2.46078,-2714.03,-6920.36,-27460.2
9.82654e+06,11.0677,1,2.60204,-2073.96,-643.422,-27925.7
0,11.1519,1,2.96343,0,0,0
9.84836e+06,102.196,1,2.97417,-14763.4,15717.6,-29573.4
9.8493e+06,37.6226,2,3.02229,-7577.34,-2082.71,-27432.9
9.93698e+06,97.1057,0,2.45337,-8725.74,17359,-22583.9
1.00409e+07,53.6448,1,2.8869,-5466.24,6382.18,-21207.9
1.0059e+07,313.758,2,2.87704,1966.59,-4934.91,-25877.3
1.01514e+07,37.74,2,2.49689,2138.14,-5949.93,-23867.9
1.01985e+07,125.528,0,2.8378,23507.5,11461.4,-24589
1.02229e+07,54.2085,0,2.42501,8215.68,7514.39,-25609.7
1.03223e+07,14.5237,2,3.00672,-1105.9,-2828.58,-29570.3
1.04331e+07,167.427,0,2.40109,29746.2,15050.1,-16517.2
1.05497e+07,19.4185,1,2.50154,-1655.14,-2288.8,-25860.9
1.06089e+07,44.6253,0,2.8492,5031.79,-7991.61,-28259.3
1.06667e+07,118.646,1,2.8769,-572.762,15963.5,-9642.45
1.07351e+07,161.584,0,2.84911,-19425.8,13387,-4346.02
1.07401e+07,26.4074,1,2.38294,-5598.33,822.223,-28419.1
1.07538e+07,55.078,0,2.36913,-222.363,9477.76,-21982
1.08432e+07,59.3061,1,2.71422,-8801.89,-8321.13,-25343.7
1.08991e+07,191.532,1,2.45985,-9313.14,17903.5,6182.16
1.09671e+07,8.3357,0,2.61398,1307.28,-1318.1,-28759.1
1.11111e+07,71.8724,2,2.78115,-5508.07,-14188.1,-27636.5
1.133e+07,5.44309,1,2.84567,-929.269,651.609,-28388.3
0,5.51407,1,2.56314,0,0,0
1.13463e+07,125.197,1,2.76123,8700.67,8094.13,-5283.59
1.13599e+07,129.692,0,2.48393,5520.98,-6533.37,-11702.9
1.13906e+07,89.5288,0,2.91238,2626.7,10872.9,-13718.6
1.13979e+07,22.0125,1,2.57298,1106.69,4385.55,-27506.6
1.15391e+07,84.1925,0,2.67833,15999.8,6998.54,-25601.9
1.17931e+07,20.7617,1,2.65223,3236.19,3041.71,-29890.8
1.18637e+07,22.8192,0,2.86729,2884.43,-3656.02,-27266.6
1.20735e+07,9.27197,1,2.57746,883.313,1509.27,-29772
1.21574e+07,15.8737,1,2.6283,-3022.94,-1504.2,-29020.5
1.24592e+07,16.0073,0,3.00228,125.201,-1612.92,-25812.7
1.25551e+07,22.6713,0,2.37806,2795.19,-600.494,-24931.4
1.25565e+07,9.45977,1,3.05133,-796.164,1223.25,-27174.3
0,9.45632,1,2.73291,0,0,0
1.29156e+07,110.752,2,2.94058,5941.94,-15231.3,-12254.7
1.29424e+07,101.931,1,2.62317,14790.1,7418.97,-15044.1
1.29659e+07,37.9254,1,2.98977,-5888.2,3995.66,-24981.5
1.30986e+07,149.163,0,2.64914,28058.6,6961.97,-16378.8
1.31073e+07,67.8906,2,2.36493,10201.3,5349.85,-20284.8
1.32049e+07,119.296,1,2.78947,4437.22,18425.9,-12249
1.34248e+07,159.946,1,2.37553,-5747.24,-15332.4,858.942
1.3541e+07,9.4967,1,2.88537,-773.937,397.8,-26969
1.35546e+07,26.4838,1,2.68296,2073.44,5276.18,-28293.8
1.35585e+07,108.538,1,2.98817,19452.6,-9026.76,-21385.3
1.35943e+07,36.934,1,2.76879,-2747.34,5885.92,-24495.8
1.37798e+07,22.3196,1,2.76996,-3945.58,984.434,-26196.3
1.38436e+07,85.5726,2,3.0419,4838.97,6877.42,-13026.5
1.40362e+07,218.079,0,2.51752,20203.8,-19779.7,7758.04
1.40927e+07,40.6106,1,2.63439,-5151.18,4983.36,-23997.7
1.45697e+07,61.5757,0,2.38989,5641.23,9434.55,-21543.3
1.46032e+07,27.6671,1,2.925,5159.61,-1904.59,-27040
1.47532e+07,11.3928,1,2.66645,-1957.01,438.577,-27375.2
1.48454e+07,30.1486,2,2.6788,-3683.53,-2673.35,-24258.4
1.49809e+07,13.5641,2,2.46096,-2571.45,1431.83,-28855.1
1.50122e+07,105.739,0,2.9005,-18786,10455.6,-23675.6
1.50255e+07,7.46709,0,2.903,-120.654,-1173.38,-28081
1.52064e+07,83.1713,2,2.48339,8923.53,-596.407,-13682
1.52416e+07,93.9185,0,2.99615,10099.6,15077.3,-21033.7
1.53825e+07,94.2817,2,2.83137,17451.8,-5023.3,-20917.7
1.58565e+07,75.3765,0,2.60508,-11052,75.2559,-17400.4
1.58949e+07,189.389,1,2.83514,18783.1,17838.1,1351.09
1.61287e+07,41.198,2,2.90771,5796.27,-3989.37,-23990.2
1.63563e+07,178.961,1,2.98722,17816.9,5789.46,3595.17
1.64015e+07,146.519,1,2.88612,14792.1,-2724.21,-1929.77
1.64793e+07,78.604,0,2.5243,5987.46,2958.94,-13565.4
1.64813e+07,4.11666,1,2.89738,332.84,800.675,-28359.9
1.64838e+07,34.8407,2,2.89538,91.2637,-7389.07,-28304.7
1.6546e+07,57.7179,1,2.85756,5643.93,2788.39,-18529.6
1.66294e+07,227.353,0,3.01413,9574.07,-8238.98,-21557.3
1.66338e+07,3.88804,2,2.53713,771.012,-169.293,-28738.2
0,3.90896,2,2.46648,0,0,0
1.67097e+07,89.6774,2,2.67861,-567.216,1075.49,-28800.5
1.67416e+07,43.3081,0,2.77923,7149.9,-909.116,-23127.9
1.67769e+07,47.3823,1,2.41662,-1148.22,9456.9,-25492.9
1.69829e+07,125.804,2,2.67791,21094.5,-14704.3,-23975
1.70481e+07,24.7968,1,2.3762,-1328.33,-5061.61,-28511.4
1.70898e+07,15.3234,0,2.50111,1591.23,1799.16,-26593.4
1.7173e+07,75.71,0,2.94193,14215.7,7218.71,-27624.6
1.71866e+07,15.2518,2,2.75841,-982.337,-225.951,-27911
1.72321e+07,19.7723,2,3.03978,-2033.72,-3686.78,-28366.3
1.73718e+07,10.5283,1,2.36442,-1458.21,1888.66,-29132.9
1.74373e+07,126.775,2,2.84424,-23555.3,-7668.55,-18833.4
1.78094e+07,40.2326,1,2.86515,-3901.74,686.425,-21302.3
1.86966e+07,66.8973,0,2.41524,3477.78,-7697.58,-29138.7
1.88395e+07,3.89868,0,2.64803,767.508,240.546,-29439.4
1.8842e+07,10.1009,2,2.92166,-916.309,-542.115,-26934.4
1.88507e+07,43.0896,1,2.66188,3563.42,3339.62,-21179.4
1.88781e+07,89.0385,0,3.06046,6533.42,-7608.4,-13285.8
1.8949e+07,3.56686,0,2.4633,-17.915,682.531,-28400.6
1.8954e+07,17.6657,1,2.38472,-2193.35,3081.03,-28016.7
1.89926e+07,73.8296,2,2.64431,-10574.3,-6035.41,-19363.3
1.90001e+07,56.6068,1,3.01025,6281.48,7498.02,-22090.3
1.90172e+07,119.378,1,2.65407,-15156.3,-13961.2,-14485.8
1.91016e+07,18.2396,0,2.59679,-729.394,-3251.4,-26917.1
1.91138e+07,49.5115,1,2.99717,-1767.21,9339.69,-24420.1
1.91639e+07,6.23737,1,2.7832,-1015.46,-883.427,-28583.5
1.91839e+07,51.4208,0,3.06132,6542.5,8457.8,-26942.8
1.93336e+07,93.1832,2,2.59841,-5714.21,18354.3,-25415.6
1.93456e+07,153.224,1,2.82359,8639.69,-28649.3,-18679.7
1.94651e+07,64.6397,2,2.36537,9286.14,-6704.26,-21311
1.96092e+07,8.52604,1,2.64978,-1672.78,283.446,-29882.6
1.97107e+07,116.361,0,2.46514,15097.3,1403.41,-9289.05
1.97228e+07,42.1437,0,2.50564,6349.58,-1033.72,-22707.6
1.97697e+07,37.581,2,2.96822,-1665.23,-6213.97,-24022.9
1.98708e+07,23.8567,1,2.84287,4646.8,1982.17,-29634.4
1.9917e+07,133.612,0,2.8434,28151,-2268.9,-28612.7
1.99236e+07,12.9573,1,2.4493,-770.56,2434.65,-29954.5
2.01057e+07,29.4702,2,2.98563,3261.34,-1954.78,-23967.1
2.03205e+07,10.3227,2,2.88907,-1872.96,-1024.1,-27781
0,10.1573,2,2.49107,0,0,0
2.03343e+07,85.8489,2,2.96486,10784.8,1712.2,-14590.3
2.0413e+07,15.8563,1,2.81703,2586.66,2200.8,-28690.4
2.04688e+07,9.67371,1,2.99268,683.186,-1822.53,-28590.4
2.06175e+07,43.2897,1,2.49774,4664.74,6636.67,-24535.2
2.07039e+07,7.72801,1,3.02539,811.029,-25.4358,-27437.6
2.07532e+07,129.944,1,2.90233,1806.88,19918.7,-10214.7
2.07749e+07,165.512,1,2.87172,6676.87,29283.2,-11045
2.07897e+07,20.7466,2,2.48123,-1655.3,-4256.86,-29110.1
2.11547e+07,106.684,2,2.69626,-14985.8,6702.76,-13425.7
2.11768e+07,104.89,1,2.94401,-15103.6,14122.7,-21128.1
2.13779e+07,13.8927,2,2.41266,1847,408.302,-26586.5
2.16021e+07,180.572,2,2.91153,9485.34,-25575.2,-2473.96
2.16279e+07,25.6447,0,2.80191,3265.05,2436.91,-25276.3
2.1658e+07,10.4327,0,2.40475,989.357,191.51,-26959.8
2.1803e+07,145.862,1,2.59426,-3776.86,28691.6,-19405
2.18318e+07,100.378,0,2.63796,8687.53,5234.02,-10221.8
2.21431e+07,12.5725,1,2.39533,2006.5,1091.52,-28001.4
2.21895e+07,96.4222,0,2.63828,11818.2,16387.7,-26279.5
2.22939e+07,43.036,2,2.73315,-704.287,274.253,-24876.3
2.24131e+07,41.93,0,3.04197,2335.98,-7657.3,-25013.8
2.25807e+07,18.11,2,2.49747,-1462.13,2758.8,-26573
2.26289e+07,9.65667,1,2.51823,1907.34,-658.337,-28656.1
2.27443e+07,158.199,1,2.63218,21608.7,-2195.74,-3619.78
2.27959e+07,145.816,2,2.98625,-27927,-7761.35,-18915.6
2.2824e+07,8.33249,2,2.59559,-1251.04,-1122.76,-29609.2
0,8.22482,2,2.62278,0,0,0
2.28525e+07,3.52612,0,2.95898,691.207,107.652,-28413.6
2.29279e+07,15.6026,1,2.71383,2483.18,511.48,-27946.7
2.30625e+07,25.8507,0,2.6689,-3709.36,2631.75,-26045
2.31088e+07,74.333,1,2.96588,-10088.2,6691.38,-18803.4
2.31561e+07,9.02905,1,2.93781,-1725.32,242.892,-28765.3
2.32518e+07,123.692,0,2.98127,18129.6,-7005.91,-11557.3
2.34871e+07,15.3344,2,2.64297,-50.651,-2806.5,-27095
2.35205e+07,87.1607,2,2.77433,1585.8,-14924.2,-18251.5
2.35659e+07,187.546,0,2.62062,-20408.2,4787.99,4739.39
2.36425e+07,66.687,0,2.52149,219.504,-10241.4,-19143.1
2.36532e+07,151.616,1,2.37445,-1294.68,1104.97,-28606.2
2.39172e+07,77.3138,0,2.62412,-1861.44,-15244.9,-23597.5
2.39306e+07,41.4949,0,2.39417,3788.9,-7364.01,-25442.4
2.39391e+07,136.618,0,3.02335,116.064,-7655.38,-25130.8
2.39778e+07,115.312,1,2.45627,18211,-9029.9,-15404.7
2.41565e+07,65.5063,1,2.79526,-595,-10613.5,-20281.4
2.41784e+07,49.1086,0,2.74479,-734.776,-4497.07,-19541.4
2.4407e+07,22.1559,2,2.63031,-4097.99,-1225.02,-26845.3
2.4775e+07,79.0516,2,2.98208,10935.1,4139.87,-17162.9
2.48188e+07,43.7497,0,2.99733,-64.3358,5782.24,-21699.8
2.49052e+07,86.2646,2,3.04646,-10565,-2934.79,-22680.2
2.49819e+07,294.9,1,2.3828,-3603.16,-5775.03,-25483.8
2.50841e+07,18.7548,0,2.3821,-1811.06,-1961.36,-25812.3
2.50947e+07,32.9253,1,2.90037,-6343.52,727.929,-25980.3
2.51253e+07,39.0795,0,2.54313,4493.99,7031.85,-28174.7
2.51758e+07,16.0985,1,2.92499,841.596,1295.78,-25790.2
2.52623e+07,92.1878,0,2.81712,4957.02,-12140.5,-16370.9
2.53124e+07,11.0872,0,2.78085,75.0443,1004.19,-26588.6
2.53378e+07,6.53454,0,2.66944,1013.77,997.608,-28671.8
2.5374e+07,12.2641,0,2.6938,2340.77,1039.52,-28044.3
2.55068e+07,196.398,1,2.76768,-7049.23,25601.5,2936.77
2.57285e+07,89.8928,2,2.38288,-4988.82,16562.6,-21075.1
2.58537e+07,165.407,1,2.86836,-11187.2,28566.4,-12361.2
2.58613e+07,158.677,0,2.59712,-7536.78,16972.7,-761.427
2.59509e+07,21.8573,0,3.05238,1075.21,511.933,-28393.5
2.5963e+07,67.8212,1,2.48637,4784.78,12893.5,-25005.5
2.59789e+07,95.65,0,2.87523,166.308,46.3752,-29665.2
2.63858e+07,139.306,1,2.51639,-27791.2,-7105.57,-22622.5
2.66328e+07,27.4477,1,2.50576,1331.08,4624.41,-25515.4
2.66398e+07,4.43358,2,3.00073,-1026.15,-623.192,-28598.5
2.68294e+07,6.0733,2,2.98099,-170.01,-1315.09,-28431.1
2.68669e+07,14.0313,1,2.62266,309.1,1693.25,-26207.5
2.69897e+07,8.69635,2,3.02932,-546.147,-1307.69,-27619.5
2.70001e+07,21.0169,1,2.46663,2147.14,558.494,-24957.3
2.70816e+07,93.6914,0,2.96563,8382.15,-1048.63,-11271.5
2.7123e+07,75.7,1,2.70192,7928.26,13787.4,-28052.5
2.71496e+07,96.0555,1,2.70331,-9896.43,10222.2,-14325
2.7219e+07,53.5167,0,2.81121,10406.4,3693.81,-26135.7
2.72353e+07,5.02717,1,2.99022,-1131.32,-265.871,-28854.3
2.74143e+07,173.973,2,2.48755,-27783.1,-3293.42,-4852.16
2.74359e+07,14.6949,1,3.0055,2582.45,1469.55,-29897
2.76577e+07,152.172,1,2.97673,-24848.5,19340.1,-23178.4
2.7713e+07,60.9509,2,2.64628,-3973.61,-9729.32,-21246
2.77549e+07,155.446,0,3.05691,6513.85,-14769.8,-1015.49
2.77781e+07,118.605,0,2.46931,13739.4,21057.7,-29116.5
2.78036e+07,134.559,0,2.50835,22630.1,-1707.72,-22213.4
2.80203e+07,68.6363,2,2.5249,-5561.01,8989.13,-18910.9
2.80268e+07,10.068,2,2.76857,-1631.99,-103.758,-27286.6
2.81984e+07,47.8869,0,2.59595,-2017.05,7333.22,-22132.7
2.82232e+07,32.7768,2,2.67626,5785.23,1747.21,-25727.5
2.82922e+07,35.9472,2,2.62445,-2965.26,-4108.74,-23176.1
2.839e+07,100.673,2,2.6927,-7717.38,-8359.97,-10909.2
2.85878e+07,43.6306,0,2.87794,3458.96,-1568.44,-20448.3
2.87717e+07,11.2283,0,2.76474,159.595,1950.89,-27635.5
2.87802e+07,11.7384,2,3.01092,-335.394,2340.51,-28153.4
2.87945e+07,49.214,0,2.90349,3922.03,-5595.78,-21031.3
2.88567e+07,101.509,0,2.8086,-16806.6,-13070.6,-27983.8
2.88913e+07,5.47803,1,2.88762,216.106,-691.14,-27985.4
2.90751e+07,118.171,0,2.53588,-1201.06,1462.75,-11957.4
2.9233e+07,116.009,0,2.42735,21060.8,-6840.81,-18010.4
2.9535e+07,23.4899,2,2.79635,-4050.3,5.73993,-25843.3
2.96159e+07,11.1012,1,2.44985,1062.69,-41.0637,-26673.6
2.96182e+07,21.2916,1,2.85447,-3675.62,-1133.96,-26418.8
2.97489e+07,3.04771,2,2.95851,-497.022,41.5513,-28306.2
2.97532e+07,22.6545,1,2.73983,1947.17,1995,-25011.8
