#class tools::wcsv::ntuple
#title time
#separator 44
#vector_separator 59
#column double eventID
#column double t(ns)
#column double copynumber
#column double energy(eV)
#column double x(mm)
#column double y(mm)
#column double z(mm)
78190,164.222,1,2.94322,-28484.9,12269.7,-13663
135704,145.832,0,3.03978,27844.1,-7933.88,-18947.9
164599,278.358,0,2.58226,-940.615,29009.6,22390.2
167763,175.969,1,2.56129,12660.7,-19675,57.0929
256210,9.34502,2,2.52688,-1176.8,1119.13,-27695.4
285547,51.6431,2,2.51785,-183.529,-4752.59,-19244.7
345167,39.9934,1,2.88312,-5968.44,5824.48,-27665.8
570405,14.0677,2,2.62879,-2356.52,881.432,-27229.7
570800,18.8959,1,2.80079,-1129.86,3757.03,-27974.8
580405,90.1087,2,2.49679,-3582.43,11000,-13859.2
951852,31.7705,1,2.62748,-4627.34,4816.65,-29834.7
979793,17.3576,0,3.00559,1514.33,3075.71,-28126.2
1.05553e+06,111.365,1,2.77069,11211.4,11905.7,-11957.2
1.15099e+06,84.3512,2,2.92266,15516.2,-8508.26,-29879.6
1.42736e+06,114.747,2,2.68152,-20177.3,211.67,-15361.7
1.52084e+06,61.5706,0,2.69731,7035.68,1047.3,-17892
1.63797e+06,23.9591,0,2.36718,-831.081,2292.98,-24381.3
1.68413e+06,140.298,1,2.40564,-21925.9,-6478.53,-9933
1.77412e+06,105.153,1,2.37742,-13093.1,-8551.65,-13001
1.81092e+06,50.9133,1,2.44617,3593.82,-3149.35,-19335
1.81689e+06,164.966,2,2.98325,1948.27,-29094,-10016.4
1.94284e+06,33.6182,1,2.93729,4058.05,5229.85,-26279.3
2.03668e+06,157.778,1,2.41535,-28324,-6028.11,-12294.7
2.14513e+06,40.1204,2,3.05637,-3140.51,4202.12,-22287.6
2.24392e+06,34.0284,1,2.57824,-5020.9,3353.13,-24918.4
2.26621e+06,68.808,2,2.37824,-7478.52,306.6,-16325.8
2.30332e+06,22.3291,0,2.52363,4607.47,1547.55,-28378
2.63581e+06,119.199,2,2.64067,-13656.9,-12360.8,-11582.1
2.71374e+06,59.7984,0,3.03854,58.9512,-11671.8,-24395.5
2.73488e+06,33.016,0,2.76831,-2474.32,1601.07,-22787.7
2.83815e+06,15.335,1,3.0366,754.693,2425.03,-26766.3
2.87138e+06,12.1967,0,2.7566,1181.43,-1754.9,-27320.9
2.87318e+06,140.894,0,2.76614,15293.6,-25365.1,-26578.8
2.98946e+06,35.0474,1,2.60517,-1417.14,7131.38,-26821.6
3.00467e+06,7.18894,1,2.57832,-1203.64,-108.412,-27942
3.04555e+06,185.225,0,2.86036,4038.35,-6148.14,-28109.1
3.25451e+06,128.616,0,2.69873,1419.86,17948.3,-8536.95
3.36939e+06,49.6084,1,2.89768,-8800.96,-472.159,-23242.7
3.51568e+06,34.5706,2,2.93212,-5804.47,4080.81,-29387.1
3.54983e+06,53.4117,1,3.0608,-5246.6,9886.04,-27088.7
3.55804e+06,60.7914,2,2.80201,3694.01,-3833.08,-17158.5
3.63907e+06,17.2326,2,3.03932,-3275.24,-1650.29,-29378.6
3.6481e+06,42.0783,0,2.41954,1684.42,5004.76,-21704.1
3.80986e+06,13.9792,2,2.56273,491.982,-1752.93,-26417.4
3.81051e+06,1.6311,2,2.69324,-55.693,-99.1849,-28491.5
0,1.56727,2,2.56848,0,0,0
0,1.58892,2,2.98882,0,0,0
0,1.55331,2,2.65985,0,0,0
3.98667e+06,8.09561,0,2.83944,-198.06,926.591,-28051.9
4.23339e+06,28.2476,1,2.9792,-3790.68,-4386.6,-27550.6
4.23817e+06,53.603,2,2.76086,-6803.21,1639.74,-19858.5
4.3216e+06,6.40225,2,2.60334,-108.399,-753.95,-29973
4.48226e+06,58.8369,1,3.01292,-6550.23,2159.15,-18489.6
4.67174e+06,136.235,0,2.79387,-9053.88,-13703.6,-5407.36
4.7673e+06,32.5405,0,2.60781,144.01,-6803.49,-27688.5
5.1938e+06,102.56,1,2.93982,-6361.38,17624.6,-18988.1
5.33629e+06,81.7707,1,2.75984,-10123.6,6125.76,-16249.9
5.35734e+06,46.1452,2,3.02347,1672.01,1152.06,-26473.7
5.45338e+06,36.6387,2,2.62762,-7552.57,1901.89,-29507.2
5.60927e+06,2.161,1,2.70493,-129.651,248.582,-28363.8
5.73875e+06,60.4521,2,2.91465,5903.17,-9092.33,-22207.3
5.91275e+06,41.999,0,3.00811,7412.46,4814.85,-27557.1
5.95456e+06,8.53287,0,2.44717,1158.79,-575.373,-27512.9
0,8.70064,0,2.8257,0,0,0
5.95869e+06,125.479,1,2.43625,-18526.4,-14397.5,-16463.1
6.02028e+06,53.3736,1,2.78144,3805.64,2637.93,-18638.5
6.03589e+06,36.4331,0,2.68652,1577.61,5789.14,-24350.4
6.11846e+06,43.991,1,2.38304,-4147.02,4888,-21980
6.13566e+06,14.7495,0,2.47522,2831.48,346.154,-27361.3
6.24392e+06,158.303,2,2.69845,1266.04,23388.9,-4901.65
6.39321e+06,240.496,0,2.48177,-2192.46,-29423.9,12587.7
6.6078e+06,64.1871,0,2.70523,11583.5,-7249.5,-29634.9
6.63506e+06,32.1943,0,2.81666,18.7465,4075.25,-23403.7
6.65816e+06,175.662,1,2.99386,3588.47,-21802.1,-24258.6
6.80735e+06,132.381,0,2.79904,-9998.38,12329.4,-6278.35
6.86483e+06,12.2315,0,2.36606,1659.16,1153.38,-27021.2
6.88318e+06,106.185,2,2.90093,-1252.11,-3475.17,-25887.4
7.0489e+06,101.421,0,3.05352,-970.517,17255.4,-16456.9
7.38942e+06,125.94,2,2.39443,-6718.85,-22327.8,-15783.1
7.55804e+06,28.3961,1,2.88532,-680.185,3000.84,-23768.8
7.56769e+06,74.2804,1,2.42611,6467.67,-9370.82,-28920.6
7.6542e+06,42.3873,0,2.82082,986.118,3996.32,-20951.3
7.78093e+06,190.528,1,2.56457,-22822.3,25104.7,-7227.02
7.83082e+06,16.9161,2,2.62427,2838.5,20.3527,-26773.3
7.84422e+06,62.8195,2,2.81211,-10868.2,7203.72,-27046.9
8.09938e+06,22.1836,2,2.49562,2708.34,-3647.92,-29469.5
8.27529e+06,80.3071,0,2.57835,-2829.33,11073.3,-16306.5
8.29051e+06,32.9987,1,3.01923,-757.816,-4902.49,-24258.5
8.33609e+06,14.3849,0,2.86475,2907.87,759.518,-29741.9
8.40417e+06,69.5421,2,3.02711,-7494.26,-12193.5,-25443
8.44399e+06,3.73558,0,2.62081,807.933,126.652,-29246.1
8.47105e+06,113.616,0,2.61031,-11004,10629.4,-22369.6
8.47588e+06,177.843,1,2.45778,-8182.28,-17456.8,2594.75
8.53483e+06,108.32,1,2.64479,1151.94,21532.2,-21069.2
8.88011e+06,5.5697,2,2.3936,-850.325,-530.964,-29740
8.92648e+06,40.391,1,2.60947,5278.77,2248.91,-26603.9
8.98068e+06,54.4211,1,2.59013,-4288.55,9650.58,-24256.2
9.11634e+06,239.285,2,3.01734,-18606.4,-19990,13244.2
9.14966e+06,214.789,1,2.7093,-9460.53,25582,7393.83
9.2106e+06,131.641,2,2.61502,18567.3,-13718.9,-13349.5
9.26365e+06,93.5659,1,2.58091,2779.96,12745.9,-13940.5
9.27157e+06,44.1254,1,2.77519,-1995.84,5106.58,-21261.1
9.48657e+06,418.134,2,2.79646,5711.94,-24734.3,28888.6
9.69676e+06,87.5302,1,2.4957,-11177.3,5904.91,-15458.5
9.70557e+06,139.446,2,2.39648,-16413.1,13600.9,-9031.98
9.72296e+06,5.36422,1,2.41138,-706.178,1103.65,-28622.7
9.86112e+06,81.7543,2,2.74021,-3864.45,11058.5,-16204.2
9.92885e+06,29.6193,2,2.62268,4268.67,-4032.64,-26658
9.96296e+06,18.7021,1,2.40829,-3657.69,264.638,-27235.6
1.00015e+07,164.711,1,2.76554,-23781.4,-781.723,-3545.22
1.00133e+07,9.32106,2,2.80018,1162.17,-1116.54,-29978
1.01379e+07,101.392,2,2.3958,-18054.4,-3155.53,-17596.5
1.02293e+07,16.9728,1,2.45776,-2914.89,1544.41,-27577.3
1.0244e+07,74.3488,1,2.42529,-12642.2,-5235.5,-21084.2
1.03825e+07,84.5806,1,2.5683,10716.2,-3092.72,-15013.9
1.04634e+07,21.8013,0,2.76868,4494.21,1675.54,-29440.5
1.054e+07,5.9235,2,2.78039,122.822,-951.141,-28017
1.08479e+07,71.1809,1,2.45503,-11070.4,10039.5,-26512.2
1.08709e+07,141.986,1,2.73269,11939.8,-8753.88,-2952.93
1.08889e+07,43.875,1,2.40709,-4067.83,5946.26,-23477
1.09376e+07,107.597,2,2.78724,-15402.4,-14048,-19828
1.09394e+07,34.5095,0,3.03446,1460.07,-4720.79,-23552.4
1.09517e+07,17.1557,1,2.68273,-3462.75,62.599,-29310.5
1.09632e+07,128.054,2,2.4046,607.088,-16077.7,-6976.76
1.10898e+07,290.422,2,2.85496,-7950.85,9986.66,-1784.74
1.11178e+07,4.57106,0,2.64262,-633.59,-374.662,-28304.7
1.12092e+07,30.9899,0,2.60052,4131.98,4678.1,-26812.9
1.12921e+07,173.144,0,2.59625,10612.5,8113.29,-13942
1.15664e+07,74.7818,1,2.46484,9185.67,9103.23,-19899.9
1.15868e+07,108.435,1,2.98235,-18240.9,1185.57,-15432.3
1.16835e+07,19.0307,2,3.01164,-2038.84,85.699,-25374.7
1.17254e+07,96.9636,2,2.82993,-12009.1,13932.6,-20249.5
1.17329e+07,7.80841,0,2.84029,1494.36,-1015.38,-28107.2
1.21162e+07,82.5249,2,2.76637,-8984.73,9522.63,-17398.8
1.21339e+07,5.89024,2,2.49289,1039.08,-126.648,-27956.3
1.21652e+07,90.3861,2,2.69493,7797.82,-7689.28,-13191.8
1.23175e+07,13.1939,2,2.53278,-2711.41,-409.386,-29732.6
1.23242e+07,108.846,1,3.0051,-11485,18080.9,-20744.3
1.23615e+07,48.8141,0,2.79501,10227.3,-1484.45,-28840.8
1.24986e+07,35.2956,1,2.697,3334.42,-4344.93,-23758.8
1.2678e+07,23.0764,0,2.58482,-2886.28,624.028,-25067.2
1.26819e+07,78.7236,0,2.94573,11377.2,1932.58,-17046.1
1.28379e+07,34.2478,1,2.98632,2317.11,-4672.96,-24144.2
1.2941e+07,208.378,0,2.75309,-20386.4,7088.28,9262.81
1.31148e+07,27.2519,0,2.9008,2841.35,4270.56,-29853.3
1.31337e+07,194.564,1,2.50088,27406.4,20691.3,-6343.95
1.33611e+07,234.516,0,2.76467,-18130.5,-12901.7,15227.3
1.34226e+07,86.6267,2,2.73751,-8622.87,-5468.71,-13694.2
1.34571e+07,61.5693,2,2.4341,-1501.66,10870.3,-22135.3
1.34631e+07,61.1932,2,3.02387,11486.8,-5829.73,-28876.2
1.36792e+07,43.4306,0,2.41317,1679.47,7645.98,-23917.5
1.37287e+07,79.0205,2,2.40308,-8545.25,-663.992,-14844.6
1.39261e+07,66.5174,2,2.86313,13524.3,1008.22,-25616.1
1.40961e+07,12.8155,2,2.72192,1652.58,1468.22,-27263.7
1.41335e+07,10.2416,1,2.71014,1904.04,339.857,-28025.7
1.41765e+07,3.76904,1,2.43447,-702.332,250.89,-28527.5
1.42636e+07,49.5974,2,2.98539,-2612.99,859.928,-25761.9
1.43167e+07,281.389,0,2.54567,23143.3,-13230.5,24328.7
1.44872e+07,49.923,0,2.84039,-1622.56,10357.8,-28754
1.47086e+07,52.1753,1,2.40075,-10275,4207.44,-29700.5
1.47924e+07,74.6697,0,3.02856,-12365.5,-5758.68,-21240.4
1.47945e+07,86.4076,2,3.06023,14162.6,-4538.24,-18534.2
1.48829e+07,72.8643,2,2.6003,-12789.3,1103.54,-20179.8
1.5122e+07,45.6245,0,2.77812,294.791,-9266.79,-26136.7
1.53193e+07,18.1503,1,2.41376,2262.47,2017.1,-26411.2
1.54651e+07,46.9963,0,2.3649,-6537.78,698.512,-21393.6
1.5779e+07,239.071,1,2.76117,24624.2,19761.1,9796.25
1.58146e+07,150.44,1,2.41583,-3499.77,27553,-13176.3
1.58456e+07,42.4289,2,2.88472,-4176.55,2364.88,-21294.1
1.59066e+07,32.9628,2,2.72973,-4616.82,-5159.71,-27316.5
1.59132e+07,133.183,0,2.79767,12934.3,-9884.83,-6015.93
1.59547e+07,84.4126,2,2.63427,16464,5587.4,-26477.5
1.59789e+07,10.8512,2,2.77956,-765.834,1839.82,-27794.7
1.59853e+07,120.336,1,2.51564,-25128.6,4163.43,-28414.6
1.61548e+07,22.1349,2,2.89721,-4439.51,1395.4,-27522.5
1.61896e+07,86.2006,2,3.00358,4840.56,16146.9,-22192.5
1.61974e+07,5.88029,2,2.4796,-1236.46,358.813,-28927.7
1.62843e+07,9.39857,2,2.94715,340.233,-48.8839,-26944.9
1.70277e+07,10.9507,0,2.76393,986.128,1345.26,-27202.8
1.70935e+07,110.222,2,2.82444,14847.1,12639.2,-16443.9
1.71222e+07,12.6711,2,2.70716,-2300.6,-1083.28,-27427.3
1.71549e+07,46.7232,1,2.79206,-7263.52,-2545.81,-22665.1
1.71856e+07,14.5339,0,2.82755,-738.586,3008.79,-29116.3
1.7194e+07,70.1076,2,2.95508,-11794.3,-276.914,-19955.2
1.72397e+07,146.129,2,2.69632,-1586.5,-16501.2,-2836.69
1.72835e+07,121.205,1,2.81793,-23.1526,25514.8,-25897.6
1.7344e+07,172.461,0,2.49458,-13358.5,-29412.8,-11750.2
1.73664e+07,4.50129,2,2.94834,-287.802,-804.793,-28213.8
1.7375e+07,93.1647,1,2.84352,-7322.08,7251.46,-12127.5
1.73963e+07,195.062,1,2.86517,6737.87,-22599.8,4636.01
1.74548e+07,272.496,0,2.96907,-6799.33,-24590.6,22140.6
1.74598e+07,42.382,1,2.40864,7817.77,-2843.71,-25566.2
1.76502e+07,81.5989,0,2.59281,-14511.8,-8082.49,-25445.7
1.76549e+07,39.833,1,3.03325,6739.12,-3188.45,-25367.3
1.76553e+07,47.7993,1,2.42789,-8684.09,-2487.24,-24482.6
1.77738e+07,13.4945,1,2.52546,-1959.26,2061.01,-28053.1
1.78962e+07,37.2481,2,2.68436,-7247.52,-3056.82,-28510.6
1.84957e+07,79.3443,1,2.47385,7680.18,2234.99,-14165.6
1.85577e+07,82.2038,1,2.68343,-7977.2,9301.93,-16474.3
1.85961e+07,172.645,1,2.58638,10634.2,-4925.47,1192.97
1.86591e+07,131.682,0,2.85728,-22504.7,4659.01,-13505.6
1.86831e+07,1.4712,1,2.77648,7.2829,250.212,-28550.8
1.86868e+07,151.474,1,3.03963,-13616,22725,-11235.1
1.88642e+07,37.5683,0,2.36435,-71.2731,-7973.81,-28489.5
1.9018e+07,2.32426,1,2.50741,287.965,468.007,-28897.6
1.94299e+07,74.7903,1,2.80714,-165.428,14281.2,-22096.2
1.98023e+07,41.1909,1,2.65555,-7801.29,-3752.72,-27664.1
1.99697e+07,56.484,0,2.52142,-1379.99,11203.1,-28823.1
2.01536e+07,70.2179,2,2.8996,-1498.77,12552.6,-21771.9
2.02183e+07,123.84,2,2.60081,-12511.3,-11377.1,-8851.93
2.0341e+07,27.6475,2,2.57572,2090.47,-5616.52,-29182
2.03782e+07,16.5505,1,2.39107,-843.774,-3555.65,-28164
2.04437e+07,184.026,0,2.833,-21428,3002.28,2950.33
2.05135e+07,89.7458,0,2.50066,17398.1,-3192.93,-22519.3
2.07083e+07,13.6488,0,2.9785,-1961.6,-52.7154,-26927.5
2.07127e+07,131.452,2,2.58565,-15203.1,-871.455,-5721.01
2.08185e+07,142.38,2,2.58472,-18854,21051.7,-25407.7
2.09562e+07,61.5057,1,2.50674,-3359.81,6340.75,-18129
2.09964e+07,50.2538,1,3.04347,7764.31,-407.444,-21786.9
2.11358e+07,30.3676,2,2.64936,-4703.86,-4210.65,-27209.3
2.19395e+07,70.4483,0,2.88997,482.593,-14295.1,-26249.7
2.19582e+07,27.385,2,2.84474,814.72,4060,-24910.4
2.20713e+07,4.64534,0,2.52502,-19.595,-766.192,-28221.8
2.20855e+07,57.4343,1,2.48938,4003.42,-3190.45,-17958.5
2.21353e+07,7.34438,2,2.53841,-1457.43,67.1566,-29467.4
2.22175e+07,109.6,1,2.62165,4803.05,22707.7,-29661.7
2.22717e+07,69.7786,1,2.65105,-6954.34,-12800.5,-26601.1
2.24029e+07,8.0773,1,2.86078,-253.212,-1287.13,-27967.1
2.24205e+07,76.7094,1,2.82686,-7422.31,9035.5,-17626.1
2.24992e+07,79.6878,1,3.02192,-16235.5,4027.73,-27570.5
2.26003e+07,65.9067,2,2.60071,5894.02,-9260.7,-20202.3
2.26911e+07,64.7768,0,2.91109,-7124.47,7182.12,-19950.9
2.28501e+07,52.862,2,2.4879,4000.57,-6781.48,-20851.8
2.3033e+07,52.5769,1,2.61864,2166.86,8124.33,-21503.9
2.30468e+07,96.823,0,2.75041,-10818.4,1752.76,-11662.7
2.30677e+07,47.5249,2,2.43137,-5424.91,4090.43,-21328
2.31053e+07,37.457,0,2.48936,5453.52,-5823.77,-28237.9
2.32025e+07,44.6138,0,2.39466,6383.39,-4196.36,-23480
2.34988e+07,43.4564,0,2.80995,-2403.81,3309.69,-20701
2.38244e+07,187.678,1,3.01461,-26470.9,18983.7,-6634.62
2.38872e+07,94.8896,2,2.90822,4085.84,5311.14,-26998.4
2.3967e+07,89.9372,0,3.00784,-4148.26,342.398,-20057.4
2.4049e+07,34.2142,2,2.63979,-5463.74,4119.19,-26535.6
2.41783e+07,160.162,2,2.62946,-25006.6,-6563.6,-7647.12
2.42336e+07,126.913,2,2.40617,-23916.7,-5367.67,-17759.2
2.43061e+07,112.926,0,2.72694,10945.1,7308.52,-8979.03
2.431e+07,3.90077,2,2.69823,-167.359,-343.472,-28047.8
2.43168e+07,35.7122,2,3.02466,3340.2,-4327.43,-23688.7
2.43908e+07,35.6361,2,2.94209,-3520.46,-6503.89,-27308.6
2.43961e+07,53.6922,0,2.98658,9501.13,-1543.99,-22712.8
2.44345e+07,4.49734,1,2.68354,114.38,973.373,-28501.6
2.44562e+07,75.1523,2,2.81148,-2307.82,-13161.3,-20165.7
2.45395e+07,40.469,1,2.7067,4064.76,6737.82,-25478.3
2.48237e+07,97.3593,2,2.87067,5195.04,-15951.4,-17028.9
2.48356e+07,61.8062,1,2.987,-5555.66,2826.64,-17597.5
2.49189e+07,161.759,1,2.81398,-13181.4,16429.3,-2228.73
2.4949e+07,264.871,1,2.93774,28620.9,12548.7,17111.7
2.51949e+07,58.4425,1,2.97638,-6331.61,-1812.25,-18455.7
2.52274e+07,66.2847,2,2.42323,-8073.37,7225.61,-19984.8
2.52495e+07,85.1922,0,2.82833,4021.78,16950,-24983.1
2.52934e+07,98.8529,1,2.99305,20632,-1744.82,-28407.7
2.53777e+07,263.221,1,2.8154,2003.89,-10157.4,-25173.1
2.56092e+07,149.302,0,2.82013,3415.52,-23290.1,-8044.76
2.58469e+07,9.01787,0,2.58779,6.96073,-536.147,-26905.3
2.58525e+07,66.0308,1,2.4122,-11995.9,-4869.06,-23411
2.58703e+07,161.664,2,2.39658,-6272.01,23266.3,-4705.2
2.58725e+07,79.2413,1,2.67221,-7596.93,14767.2,-28888.9
2.61542e+07,38.3081,0,2.80605,5099.64,-6125.53,-27138.7
2.62285e+07,89.7106,0,2.90834,6544.06,12536.7,-16329.6
2.63829e+07,69.3858,1,2.40663,5792.04,-6259.3,-16986.7
2.64798e+07,54.1416,1,2.98515,1278.83,10008.4,-23311.6
2.65193e+07,2.39435,2,2.56702,-477.304,-310.568,-28664.9
2.68298e+07,61.0225,2,2.82175,-5004.01,-9012.68,-21200.8
2.69024e+07,103.706,1,2.60404,-11808,-11137.2,-14206.1
2.69311e+07,35.9137,0,2.72211,2866.9,6718.47,-26714.1
2.70513e+07,148.633,0,2.41982,23532.4,-8542.6,-9347.44
2.70574e+07,155.903,2,2.60811,2688.79,-27537.4,-10897.9
2.72822e+07,6.02793,1,3.03733,-850.417,871.632,-28235.8
2.74595e+07,150.454,2,2.71121,-23847.7,-7815.88,-9352.69
2.75954e+07,109.39,0,2.37385,21711.2,-7978.44,-28141.4
2.75993e+07,29.9027,2,2.40203,3339.35,1951.5,-28056.1
2.7668e+07,167.663,1,2.43804,14398,-9679.44,2072.37
2.77031e+07,19.9814,0,2.47198,1906.99,-3901.32,-29310.9
2.77201e+07,34.8372,2,2.45025,-2114.54,-4722.18,-23855.8
2.78445e+07,95.3766,2,2.50574,-6347.18,-15624.9,-19974.9
2.78939e+07,190.865,2,2.9917,3192.66,-28921.5,-1263.72
2.79121e+07,38.2624,0,2.45353,7137.72,3805.15,-28677.6
2.81184e+07,87.9098,1,2.60063,-7120.35,15193.8,-20815.3
2.82611e+07,47.3927,0,2.66959,3349.87,-8686.13,-25224.6
2.83189e+07,15.6128,2,2.61435,584.509,-3360.21,-29507.5
0,15.7026,2,2.73953,0,0,0
2.848e+07,154.998,2,2.63924,-29062,-10244.2,-17681.1
2.8569e+07,10.2311,2,3.02468,937.449,-19.4647,-26930.9
2.8837e+07,114.829,2,2.7705,-15953.3,-16139.9,-20234.1
2.92253e+07,7.32663,0,2.54477,-74.1147,-1556.5,-28992.6
2.94768e+07,87.422,0,2.84092,10669.8,-4575.06,-14482.7
2.95524e+07,8.40152,1,2.86294,994.742,1472.37,-28485.4
2.96834e+07,76.732,1,2.36583,-6967.64,-2788.76,-14425.4
2.97386e+07,156.582,1,2.45883,-19238.6,27027.3,-29845.3
2.97872e+07,93.2525,0,2.52489,-18812.3,5334.51,-26634.4
2.99426e+07,15.6884,2,2.60541,972.345,-2918.09,-27423.5
