#class tools::wcsv::ntuple
#title time
#separator 44
#vector_separator 59
#column double eventID
#column double t(ns)
#column double copynumber
#column double energy(eV)
53145,173.944,2,2.75473
194775,30.445,1,2.6006
213381,85.4611,2,2.49777
216273,141.389,0,2.89978
1.01362e+06,100.037,1,2.77066
1.77318e+06,31.3741,1,2.59355
1.79584e+06,19.25,2,2.43949
2.46427e+06,41.8952,2,3.03861
0,42.1719,2,3.03861
2.61774e+06,208.764,0,2.76103
3.66031e+06,90.6135,0,2.74922
3.73104e+06,265.014,1,2.58879
3.99788e+06,3.1664,2,2.63403
3.99966e+06,5.07107,1,2.7389
4.22985e+06,100.245,2,2.39223
0,100.414,2,2.39223
5.24641e+06,9.23966,1,2.48063
5.28847e+06,243.251,1,2.73823
5.87474e+06,41.7884,2,2.99581
6.48707e+06,170.555,0,2.7455
6.74376e+06,172.424,1,2.62091
6.82904e+06,57.8465,1,2.81066
7.12647e+06,106.335,0,3.03668
0,106.533,0,3.03668
7.22995e+06,78.3465,1,2.63946
0,78.6679,1,2.63946
7.32058e+06,57.8974,0,2.7143
0,58.2794,0,2.7143
7.92618e+06,16.0051,1,2.895
0,16.2203,1,2.895
8.11796e+06,46.2971,0,2.99389
8.22039e+06,8.50633,1,2.77508
9.29927e+06,130.022,0,2.43703
9.34035e+06,52.9493,0,2.7593
0,53.2695,0,2.7593
9.40794e+06,81.3885,0,2.47253
9.47662e+06,12.7811,1,2.73532
9.92644e+06,78.1549,1,2.42754
1.0059e+07,26.877,1,2.47728
1.01297e+07,16.0744,0,2.4542
1.02534e+07,20.9024,1,2.66191
0,21.1978,1,2.66191
1.03585e+07,9.12357,1,2.62892
0,9.14026,1,2.80777
1.03595e+07,186.717,0,2.57271
1.06552e+07,36.1841,1,2.87951
0,36.4216,1,2.87951
1.08765e+07,81.072,2,2.51932
1.10342e+07,144.632,2,2.67041
1.13939e+07,12.2475,0,2.59264
1.15564e+07,46.5291,0,2.84284
1.1747e+07,51.3496,1,2.90545
1.17792e+07,60.3285,1,2.67861
1.22569e+07,4.23544,1,2.92841
1.26278e+07,271.843,1,2.60511
1.28107e+07,23.6578,0,3.00138
1.28557e+07,73.1606,1,2.74374
1.29811e+07,10.4841,2,2.94265
1.32247e+07,33.7126,0,2.45718
0,33.7128,0,2.45718
0,34.0858,0,2.45718
1.34941e+07,98.6741,2,2.37394
1.37383e+07,25.2529,0,2.37946
1.37641e+07,86.5329,2,2.58115
1.40472e+07,60.3101,2,3.00199
1.41908e+07,202.823,1,2.47834
1.42235e+07,295.257,1,2.60844
1.44023e+07,114.889,2,2.79695
1.46005e+07,64.4612,1,2.69611
1.52584e+07,73.8531,0,2.94932
1.62118e+07,7.6396,1,2.53558
0,7.88407,1,2.53558
1.63805e+07,37.3681,1,2.82066
1.65204e+07,216.445,0,2.68213
1.6658e+07,107.213,0,2.7997
1.68559e+07,116.987,0,2.85667
0,117.359,0,2.85667
1.68763e+07,42.7209,2,2.98312
1.69815e+07,144.52,0,2.91757
0,144.72,0,2.91757
1.74742e+07,21.4828,0,2.94285
1.79673e+07,50.6578,1,2.83333
1.84301e+07,145.095,2,2.7418
1.85136e+07,64.2441,2,2.58651
0,64.5006,2,2.58651
1.86224e+07,157.715,1,2.83394
1.90691e+07,7.20365,0,2.66348
0,7.37645,0,2.66348
1.91574e+07,138.261,0,2.69771
1.91601e+07,3.88481,1,3.01122
0,4.1689,1,3.01122
1.95569e+07,50.8361,2,2.8461
1.97294e+07,109.583,1,2.53769
1.98578e+07,139.248,0,3.054
2.02319e+07,127.507,2,2.83625
2.02355e+07,22.7958,0,2.94568
2.0496e+07,219.248,2,2.86012
2.05585e+07,129.237,2,2.94423
2.13553e+07,74.6872,2,2.61637
2.16926e+07,61.7641,2,2.97245
2.26569e+07,110.064,2,2.91686
2.29473e+07,5.76577,2,2.6636
0,5.94796,2,2.6636
2.4457e+07,77.3123,2,2.88241
2.46221e+07,148.871,2,2.94065
0,149.036,2,2.94065
2.62378e+07,57.8189,0,2.87307
2.63123e+07,91.0866,0,2.63811
2.63875e+07,139.073,2,2.75945
0,139.262,2,2.75945
2.65968e+07,7.29877,1,2.63688
2.70236e+07,111.562,2,2.46804
0,111.884,2,2.46804
2.70368e+07,28.3973,1,2.72221
2.83777e+07,77.2943,0,2.38955
2.83905e+07,133.678,0,2.40166
2.85281e+07,109.001,0,2.58861
2.86257e+07,44.9713,0,2.43049
2.90257e+07,23.6956,0,2.48164
2.90572e+07,9.23736,2,3.04271
2.9272e+07,257.962,1,2.73295
2.92934e+07,6.5272,0,2.48253
2.94867e+07,276.796,2,2.61789
2.99373e+07,2.58681,2,2.87692
0,2.83064,2,2.87692
