#class tools::wcsv::ntuple
#title time
#separator 44
#vector_separator 59
#column double eventID
#column double t(ns)
#column double copynumber
#column double energy(eV)
#column double x(mm)
#column double y(mm)
#column double z(mm)
39484,5.2126,1,2.93176,-665.738,519.625,-28052.1
215428,58.1946,0,2.48953,-5119.18,-6734.15,-20121.3
218113,3.82985,0,2.86318,214.205,-790.844,-28966.8
223076,87.4229,2,3.03193,5842.28,-3538.06,-11847.2
246864,57.6243,2,2.50075,3635.05,-8770.02,-21145.2
250005,28.5899,1,2.42337,2755.29,3916.58,-25041.9
0,28.8348,1,2.80793,0,0,0
316919,173.098,1,2.76102,8222.43,8410.61,5747.39
355735,120.009,1,2.90678,252.387,8770.65,-5413.1
367082,78.8361,1,2.61779,-15131.5,3700.9,-22681.7
426588,3.84129,1,3.00245,-852.254,416.105,-28892.9
801758,33.1983,2,2.94864,-5089.45,-4921.61,-28950.5
810487,27.1746,0,2.99087,4330.75,-550.762,-25084.8
812283,24.4475,0,2.91955,-1511.96,-1122.21,-24146
1.30436e+06,11.1031,1,2.39535,1416.45,1467.74,-27794.4
1.33559e+06,79.7037,0,3.0244,-5407.67,12777,-19679.7
1.45378e+06,85.278,0,2.52158,16914.6,-239.318,-29735.5
1.89001e+06,133.04,1,2.50852,-10403.7,15218.8,-7471.6
2.70056e+06,45.6567,2,2.52388,5123.45,-15.1527,-20527
2.80872e+06,140.035,2,2.55568,-21607.5,18357,-19765.3
2.86527e+06,33.6446,1,2.75999,-6139.87,-2802.87,-26744.5
2.99154e+06,58.1124,2,2.75619,-301.347,-11491.4,-24398.2
3.3228e+06,67.4672,0,2.68144,-995.855,8775.69,-18134
3.33212e+06,34.2708,0,2.48717,7178.5,542.09,-27472.1
3.3606e+06,79.3168,1,2.73971,5082.42,13572.4,-20357.1
3.40232e+06,47.1495,0,2.65014,-5444.05,1368.33,-20592.2
3.84278e+06,46.8142,0,2.44747,-1467.22,3583.96,-19668
3.89609e+06,28.1175,1,3.02087,-4733.71,2499.13,-26228.3
4.01288e+06,66.7637,1,2.64325,-13778,1998.13,-25920.1
4.03662e+06,144.987,2,2.72755,-16078.6,12644.8,-6236.86
4.16881e+06,24.1139,1,2.44242,4843.52,503.44,-27151.1
4.17086e+06,19.0732,1,2.65096,-1923.85,3319.79,-27308.5
4.33401e+06,209.354,1,2.45373,-16250,15568,1847.28
4.54358e+06,13.2877,0,2.88367,1654.99,-197.695,-27329.2
4.54518e+06,136.307,0,2.39082,-88.0148,979.446,-26628.6
4.63885e+06,37.6948,0,2.8639,-5706.56,-1442.7,-23702.7
4.67636e+06,66.2688,0,2.73596,11403.5,5797.25,-23135.2
4.71279e+06,96.6275,2,2.62793,-10618.1,-8442.71,-22142.1
4.97157e+06,102.634,2,2.70111,-6742.62,12964.1,-12976.4
5.03002e+06,32.7692,1,2.75728,-3469.11,3655.91,-24071.8
5.03856e+06,6.79541,0,2.66625,347.106,-771.187,-27648.6
5.10825e+06,148.737,1,2.85422,-22715.4,-7010.19,-8588.8
5.13012e+06,73.1898,1,2.48544,759.24,-8785.95,-16141.2
5.23542e+06,21.3731,0,2.38982,-364.28,-2726.41,-25488.1
0,21.2102,2,2.66343,0,0,0
5.31698e+06,111.419,0,2.76286,8460.9,13652.4,-11672.4
5.4694e+06,3.21844,0,2.7208,797.072,347.199,-28858.1
5.53108e+06,112.265,1,2.69252,-9344.63,4613.39,-27256.5
5.58321e+06,91.8483,1,2.65133,11770.6,14343.8,-23395.2
5.67842e+06,36.9401,2,2.45958,-7341.68,1842.55,-26498.1
5.78727e+06,114.562,1,3.05146,-13438.5,19205.6,-23235.8
6.11648e+06,75.4018,0,2.77718,-4428.47,-6433.86,-15122.1
6.19007e+06,13.1563,2,2.50476,-876.778,1238.64,-26511.6
6.24821e+06,204.19,0,2.76076,-19030.2,19036.7,-17752.3
6.25899e+06,47.6946,2,2.40757,-4181.85,-4483.75,-20706.9
6.3678e+06,42.4053,1,2.74004,5435.57,-4200.69,-23182.1
6.37204e+06,111.657,2,3.02258,2067.58,-15828.6,-11574
6.3841e+06,80.9524,1,2.43739,-1994.72,185.986,-26374.8
6.3935e+06,12.0038,2,2.8014,1265.99,-2176.44,-28539.5
6.47749e+06,74.4186,2,2.44378,-2426.96,-15620.5,-28317.7
6.51754e+06,18.8814,0,2.73728,3601.29,1442.87,-27547.9
6.60798e+06,100.218,2,2.83224,-12007.4,6205.32,-28269.5
6.7762e+06,7.64715,1,2.58557,427.231,654.193,-27447.6
6.78283e+06,4.07406,2,2.75369,-365.89,-159.106,-28085.5
6.95206e+06,27.7602,1,2.55541,-568.675,5336.73,-26494.4
7.08717e+06,113.051,1,2.96885,3380.57,16417.3,-12180.4
7.35731e+06,117.768,1,2.43419,17930.1,16385.3,-22827.7
7.37052e+06,109.416,2,2.90026,-22599.2,-4412.99,-27803
7.70536e+06,150.221,2,2.8816,-24802.5,19204.7,-26232.7
7.70717e+06,134.646,2,2.74166,-15878.4,23063.9,-24533.5
7.7337e+06,36.327,2,2.99012,-5529.97,4615.98,-26571.8
7.73976e+06,127.596,0,2.8561,23297.7,-6237.4,-16711.8
7.83817e+06,145.371,1,2.4003,-17794.5,-6297.06,-4585.85
7.87386e+06,7.95596,0,2.70445,1751.82,-263.606,-28570.2
7.90249e+06,22.4715,2,2.37296,-733.442,-941.865,-24123.5
8.22919e+06,19.2575,0,2.56604,941.352,-3414.02,-26728.5
8.5865e+06,52.7634,0,2.88427,8256.32,7343.22,-27790.4
8.60159e+06,149.84,0,2.80754,6714.82,-4436.86,1673.22
8.75509e+06,146.654,0,2.81693,18298.4,2658.82,-4054.45
8.82641e+06,103.418,1,2.64745,-16683.7,-13615.5,-27159.2
8.9608e+06,105.306,1,2.81329,14540.3,157.873,-12313
9.21795e+06,17.9085,2,2.74812,-468.204,-3888.04,-28797.6
0,17.8991,2,2.81532,0,0,0
9.35395e+06,24.4522,1,2.46693,2746.58,2168.49,-24984
9.37757e+06,15.9409,0,2.64478,-1813.85,-1590.89,-26478.4
9.39879e+06,91.7361,1,2.96596,-9641.19,-16163.3,-27235.7
9.43015e+06,10.0044,1,2.41626,969.058,407.032,-26958.3
9.56377e+06,19.5057,1,2.46509,1013.95,-3618.94,-27270.1
0,19.8214,1,2.46509,0,0,0
9.84881e+06,54.2725,1,2.72183,8710.91,-114.101,-21729.7
9.88149e+06,148.664,2,2.76975,19036.2,-11653.2,-8791.91
9.95513e+06,99.1868,1,3.00303,-3468.08,-3198.84,-21453.5
1.0064e+07,106.714,1,2.87723,-13147.4,15072.2,-18494.3
1.01696e+07,150.731,1,2.76352,-6966.34,17644.7,-3397.85
1.02024e+07,35.1729,1,2.91006,5992.89,2248.24,-25157.7
1.02172e+07,29.5486,2,2.63022,-5779.77,-655.59,-26307.9
1.03347e+07,112.263,2,2.86486,5217.7,-7875.31,-25253.3
1.03387e+07,65.2923,1,3.04484,-7667.18,9397.18,-22271.4
1.03858e+07,77.7429,2,2.61161,-9737.34,-12830.9,-26566.2
1.05027e+07,59.3505,0,2.90626,-5706.16,-9132.89,-22836.6
1.0523e+07,52.0695,2,2.83087,-5038.88,-9698.75,-27228.4
1.06403e+07,5.85949,2,2.38835,-1103.03,-73.3615,-28696.6
1.06921e+07,124.51,1,2.9675,11748.7,-4748.65,-6031.47
1.07281e+07,106.378,0,2.38446,13246.4,-6990.35,-11981.9
1.07421e+07,4.5231,0,2.61524,548.151,671.082,-29005.5
1.09084e+07,50.9441,1,2.67173,-195.611,-6842.96,-20617.5
1.11505e+07,27.2652,0,2.93562,611.238,-5599.99,-27593.2
1.11872e+07,70.3231,2,2.94602,-9339.83,-6589.38,-19371.4
1.12458e+07,128.142,0,2.53626,3733.42,-7439.63,-3103.25
1.1246e+07,37.0806,2,2.69175,-6627.13,2158.28,-25328.7
1.13269e+07,81.4168,0,2.8698,-12730.8,4961.61,-18726.8
1.1353e+07,60.0533,0,2.46219,11734.3,-1103.52,-23862.1
1.13742e+07,30.9383,0,2.6128,-3995.72,-1379.55,-23894.4
1.14073e+07,57.4752,2,2.87381,4155.88,-10697.5,-26738.5
1.14792e+07,4.84185,2,2.51338,479.174,472.023,-28056.1
0,4.38434,0,2.63192,0,0,0
1.1501e+07,145.243,1,2.79854,-2752.23,29027,-20264.8
1.15962e+07,21.783,1,2.86997,-1517.32,4345.65,-29556.1
0,21.7012,1,2.71334,0,0,0
1.16041e+07,3.28887,0,2.96283,635.275,-260.13,-28971
1.17896e+07,19.3364,1,2.95791,-1086.25,1467.43,-25589.5
1.17963e+07,66.3822,0,2.86307,-11506.5,-7440.92,-26783.1
1.18052e+07,126.294,2,2.37472,7326.85,-5517.16,-4051.28
1.19162e+07,4.23498,2,2.39732,271.63,766.196,-28975.7
1.20413e+07,34.3673,2,2.55502,-5043.46,4855.38,-26938.6
1.21623e+07,1.12946,0,2.99052,-24.1731,125.943,-28616.2
0,1.13399,0,2.80553,0,0,0
0,1.12805,0,2.51479,0,0,0
0,1.13872,0,2.81619,0,0,0
1.21689e+07,3.06032,1,2.93025,-615.54,410.731,-29171.9
1.2284e+07,260.988,2,2.43971,-12310.2,-4300.05,6738.26
1.22974e+07,66.2073,2,2.50917,-1466.33,-7860.46,-17339.4
1.23285e+07,68.5818,1,2.49672,4696.65,8384.19,-17877.2
1.24705e+07,39.9784,2,2.65882,-7873.28,-1040.38,-26626.1
1.25575e+07,24.1505,2,2.97254,2967.54,-3008.25,-25999.8
1.25688e+07,84.7393,1,2.94708,-2899.66,699.193,-11312.5
1.26544e+07,78.0449,1,3.01771,-13590.7,-8060.76,-24368.2
1.26891e+07,44.0852,0,2.67132,6493.93,-5017.55,-24365.6
1.27079e+07,140.434,2,2.86848,-3968.95,-6587.13,-294.217
1.27806e+07,215.422,0,2.94621,4044.2,4529.12,-25913.4
1.27839e+07,25.7544,0,2.8239,-2840.74,3273.51,-25592.4
1.28195e+07,23.5173,2,2.50502,-1174.93,-2959.51,-24860
1.29774e+07,121.154,1,2.85106,3708.03,-23715.7,-22244.9
1.30113e+07,117.069,1,2.99466,-16547.5,10419.9,-13883.4
1.31733e+07,13.7788,2,2.39375,-787.44,-715.148,-26084.9
1.31811e+07,30.588,0,2.59514,217.078,-6492.66,-28769.7
1.3244e+07,13.1129,0,2.40769,-203.939,-1364.62,-26422.5
1.34923e+07,23.2819,1,2.9327,-179.662,1574.23,-24179.6
1.35029e+07,12.9571,2,2.75341,-1625.32,-306.145,-26583.9
1.36005e+07,27.7979,1,2.45112,-2512.14,4578.75,-26457.6
1.36496e+07,93.8111,0,2.53739,19500.2,4580.89,-28439.5
1.39443e+07,197.325,0,2.79053,-5864.01,-9990.58,6497.98
1.42123e+07,98.8365,2,2.45218,-3819.19,-19497.5,-22526.6
1.42805e+07,87.8718,1,2.87966,-15583.7,2204.49,-19113.1
1.43034e+07,20.6694,0,2.68438,3307.23,-1726.14,-26416.5
1.43108e+07,13.7008,2,2.71422,-2190.45,-2080.9,-28744.5
1.44054e+07,30.7518,1,2.5724,-5698.39,3106.72,-29016.2
1.4481e+07,34.1085,1,2.42806,225.557,1711.92,-21835.6
1.46257e+07,133.982,1,3.01602,24661.4,13462.3,-28067.7
1.4634e+07,52.7398,2,2.7596,10537.4,133.29,-27015.8
1.51323e+07,45.4696,0,2.8163,7269.26,-5683.35,-25959.4
1.52528e+07,20.1752,0,2.78104,4232.32,-646.152,-28608.6
0,20.1781,0,2.6905,0,0,0
1.53454e+07,33.0669,2,2.60935,794.975,-5590.61,-24607.5
1.5655e+07,97.877,1,2.71718,2789.21,3345.59,-8659.47
1.56985e+07,130.54,1,2.698,-24859.9,852.564,-18201
1.57084e+07,33.3034,0,2.53591,6863.76,-433.164,-26886.6
1.5935e+07,24.9104,0,2.62445,2579.07,-3051.41,-26807.1
1.6067e+07,39.6294,0,2.92857,848.557,-1796.93,-20785.3
1.61073e+07,113.171,1,2.9123,16201,14765.9,-19478.6
1.61483e+07,13.8937,0,2.53186,-121.584,2896.12,-29502.9
1.62804e+07,46.4388,0,2.6182,-2056.67,9594.69,-29365.9
1.63526e+07,63.8535,1,2.91142,-13204.8,-1538.31,-28493.2
1.65465e+07,267.867,1,2.78565,-29514.2,18586.3,15176.2
1.65511e+07,50.2867,1,2.9765,4282.46,1496.74,-19200.3
1.67134e+07,4.92723,0,2.90636,-741.926,-285.076,-28286.6
1.69316e+07,15.575,2,2.84694,-2555.45,1157.98,-27280.3
1.69935e+07,40.3922,0,2.55428,5238.45,6853.75,-29595.1
1.70685e+07,22.0537,2,2.7945,-1534.01,-2196.2,-24861.6
1.72793e+07,27.594,0,2.81856,3407.47,147.53,-24047.4
1.73823e+07,72.9774,2,2.64416,-10734.3,5390.49,-19186.3
1.75039e+07,98.6013,1,3.01441,2079.28,19307.8,-21508
1.76444e+07,177.485,0,2.59112,-2584.79,26030.1,-1999.72
1.7656e+07,17.3203,0,2.95567,1460.15,175.612,-25448.5
1.76637e+07,114.238,0,2.55737,17979.6,2254.33,-12895.8
1.76881e+07,37.3859,2,2.68202,-890.643,3142.72,-21670.6
1.79558e+07,10.1254,0,2.54379,270.793,880.958,-26878.2
1.79613e+07,62.8006,0,2.60341,7078.24,-11185.7,-27662
1.80919e+07,47.844,1,2.47441,-8130.51,5583.36,-27256.6
1.84282e+07,24.8621,0,2.92339,-154.382,-3032.43,-25050.9
1.84459e+07,135.841,1,2.74944,-3753.14,28042,-23841.8
1.8654e+07,136.441,0,2.55074,-12033.2,23838.3,-17996.6
1.87205e+07,40.9948,1,2.85529,1412.12,7382.15,-24478.7
1.8834e+07,61.9462,0,2.38929,11610.4,6280.51,-29150.3
1.9122e+07,16.6286,2,2.80215,1719.6,-3068.71,-28639.1
1.91275e+07,254.864,2,3.05315,-7914.64,-10151.7,14376.3
1.92229e+07,106.954,0,2.57978,8279.19,12285.6,-11904.1
1.9359e+07,102.061,2,2.84142,5349.96,-1920.43,-29823.2
1.95707e+07,120.571,0,2.40117,16486.8,-4770.53,-17414.7
1.96031e+07,31.5259,1,2.89586,1888.34,5336.6,-25341.1
1.97632e+07,139.029,0,2.36763,499.029,21859.5,-9110.12
1.97677e+07,38.5849,0,3.0137,525.919,4093.89,-22897.7
2.00314e+07,17.5584,0,2.43712,3733.99,-163.189,-28056.1
2.023e+07,67.1086,1,2.39191,11476.9,3275.84,-21149.3
2.03759e+07,13.223,1,2.63852,-2522.97,-690.35,-27793.5
2.05336e+07,257.43,0,3.005,15394.5,11109,21735.5
2.06377e+07,192.828,1,2.95626,23429.2,26421.1,-9182.42
2.06804e+07,8.44923,0,2.54927,183.481,-1701.31,-28496.9
2.07288e+07,117.373,0,2.841,19459.8,4211.94,-14319.1
2.0735e+07,98.8602,2,2.86582,11467.8,-16309.1,-22876.8
2.07768e+07,8.96897,2,2.45339,1071.65,-1043.56,-27629.2
2.08506e+07,114.525,2,2.93019,-15076,-6847.92,-11375.9
2.09384e+07,92.2134,0,2.71346,16589,-10302.8,-28470.8
2.09465e+07,95.4697,0,2.43719,8816.57,11742.6,-14905.1
2.10277e+07,16.9955,1,2.80246,-2694.19,-2159.69,-28624.2
2.10501e+07,49.8252,0,2.67622,10222.4,-1030.98,-26239
2.10591e+07,66.3633,1,2.52617,-5515.02,358.856,-15937.2
2.11004e+07,4.50982,2,2.73189,-42.8364,-980.442,-28603.9
0,5.03865,1,2.54807,0,0,0
0,4.51688,2,2.60951,0,0,0
2.12257e+07,135.064,1,2.9341,-18827.5,15385.7,-14151.8
2.13189e+07,36.767,2,2.90645,-3873.39,-6658.02,-27459.2
2.14259e+07,79.57,2,2.67218,1106.54,14603.5,-21176.4
2.1486e+07,4.01384,2,2.47447,-548.34,-703.369,-28710.9
2.15091e+07,65.4017,1,2.8592,-2056.51,-9061.97,-18716.3
2.15645e+07,136.111,2,2.42293,-14545,-4124.1,-4370.89
2.16068e+07,117.733,0,2.64252,11477.4,22062.2,-26023.4
2.17367e+07,24.2584,0,2.74162,4533.35,-1438.87,-26738.8
2.18698e+07,27.7661,1,2.53631,-489.888,5348.97,-26271.1
2.1898e+07,43.3626,1,2.60203,7699.53,1691.43,-24160
2.19616e+07,133.842,1,2.87264,-25489.2,3761.76,-17789.7
2.20641e+07,126.416,0,2.60813,16344.9,18315.6,-20588.7
2.22078e+07,33.881,2,2.81476,4243.96,3020.49,-28250.4
2.22328e+07,48.2916,1,3.04708,1479.06,4416.91,-19786.4
2.22412e+07,68.16,1,3.00363,10981.4,-4633.83,-21212.5
2.22447e+07,77.2494,2,2.81261,-11281.8,1582.07,-17332.7
2.22692e+07,58.5124,1,3.0412,-9738.69,333.629,-21256.7
2.23002e+07,120.13,0,2.96664,-954.019,13894.1,-16570
2.23629e+07,20.2846,0,2.55448,3929.96,-1981.16,-28414.8
2.23813e+07,92.6543,2,2.61371,-11711.4,-12254.4,-18853.9
2.24295e+07,63.3021,1,2.81986,12370,-463.963,-23962.3
2.27076e+07,26.1933,1,2.50303,-3328.34,1631.26,-24545.7
2.27208e+07,83.768,2,2.71403,-12990.2,-6879.91,-18981.4
2.27524e+07,9.1823,2,2.68165,1163.57,-1699.8,-28655.4
2.27989e+07,22.454,1,2.58498,1613.97,4511.37,-29428.7
2.30348e+07,4.35354,1,2.76327,677.354,561.147,-28670.1
2.31742e+07,8.61234,2,2.82751,492.947,1516.41,-28088.6
0,8.59668,2,2.66689,0,0,0
0,8.66074,2,2.39356,0,0,0
2.32469e+07,34.0954,1,2.87338,-4942.75,2410.1,-24179.8
2.32618e+07,49.1231,0,2.70031,-627.42,-215.621,-29079.6
2.32642e+07,281.072,0,3.03732,-555.743,12639.6,12344.1
2.33049e+07,148.237,0,2.48748,1006.17,22370.9,-6837.99
2.33447e+07,62.8183,0,2.4601,8404.87,-9013.44,-23646.5
2.34213e+07,7.50953,2,2.41207,-587.29,488.532,-27471.7
0,7.59364,2,2.7025,0,0,0
2.35975e+07,33.8945,2,2.67774,-3084.08,-6254.7,-27077
2.36749e+07,122.063,0,2.78269,16708.6,-1719.89,-9418.19
2.36775e+07,51.7271,1,2.66845,-6434.75,-6873.1,-23842.3
2.37884e+07,96.4645,0,2.96322,-5805.45,-6091.42,-10795.3
2.38186e+07,100.93,1,2.90008,3824.3,12635.1,-12031.5
2.38461e+07,74.88,0,2.5545,-7420.85,-2681.93,-15096
2.38875e+07,292.752,2,2.42299,-7361.13,-9438.94,-22551
2.38948e+07,34.6356,2,2.41812,-7228.44,87.2881,-28041.8
2.40743e+07,44.1035,2,2.69655,6456.85,5737.73,-25599.9
2.41225e+07,43.7975,1,2.696,1165.39,6649.28,-22529
2.41236e+07,19.9227,1,2.4111,-2257.15,-1751.41,-25826
2.43169e+07,41.2886,0,2.4173,3913.88,3483.23,-21842.1
2.43929e+07,170.108,0,3.04406,-20763.1,-7299.36,-838.283
2.44193e+07,40.1473,0,3.05835,8290.15,289.898,-27004.8
2.44366e+07,4.78872,1,2.39596,-502.699,-466.882,-28052.9
2.4575e+07,47.7222,1,3.01635,-3996.05,3558.56,-20290.9
2.46237e+07,65.9901,0,2.40429,-2316.35,-10487,-19884
2.46933e+07,17.4955,1,2.53437,-1951.17,2571,-26924.4
2.48943e+07,69.322,1,3.00347,-7524.71,-8652.08,-19952.3
2.49808e+07,20.591,0,2.69968,760.341,-2408.66,-25259.4
2.4998e+07,7.63124,0,3.04183,827.685,-898.8,-27743.4
2.50869e+07,99.7537,0,2.68232,16929.7,-9177.32,-20396.2
2.50879e+07,16.3317,1,2.61093,-1043.78,2078.71,-26210.4
2.51059e+07,11.2961,0,2.46693,-425.226,-1839.53,-27333.6
2.51795e+07,42.2615,0,2.71387,582.71,-3129.63,-20496.6
2.54271e+07,107.401,2,2.6867,-16252.9,-15843.6,-27863.7
2.54787e+07,5.45096,1,2.74243,-468.374,541.658,-27830.7
2.55623e+07,8.58253,2,2.45797,-1418.64,-564.472,-27746.7
2.56337e+07,10.5457,2,2.37036,-685.9,-2225.93,-28648.1
2.57071e+07,51.3882,2,2.637,7344.02,-2029.43,-21229.1
2.59917e+07,113.267,0,2.54861,15873.9,-2793.12,-10843.9
2.60933e+07,172.073,1,2.37389,-21137.1,-1992.79,793.38
2.61828e+07,56.9317,0,2.6102,9849.21,-3059.47,-22538.4
2.62089e+07,113.776,2,2.81062,4486.64,19328.6,-15472.5
2.62089e+07,55.879,0,2.45475,7699.09,6038.07,-22011.9
2.62547e+07,73.0506,0,2.37096,12487.2,-3484.62,-20175.9
2.6275e+07,35.9804,2,2.96459,7108.99,-219.021,-26667.5
2.6318e+07,55.8103,0,2.73319,10198.3,183.263,-22887.5
2.63742e+07,84.2296,1,2.62023,7932.53,-2882.72,-13212.4
2.65219e+07,88.5963,2,2.46305,-2530.08,-12564.9,-17034.9
2.65878e+07,171.947,1,3.03533,11191.8,7247.77,4623.23
2.6842e+07,24.8035,0,2.81627,5087.33,-1606.12,-28933.9
2.68943e+07,2.17962,1,2.45178,-480.153,292.367,-28764.1
2.69113e+07,39.9638,2,2.60667,-2592.57,-5481.51,-22903.1
2.70283e+07,12.1161,2,2.99483,1223.35,-1396.16,-27208.8
2.71105e+07,26.8278,0,2.4373,-4962.5,-1312.78,-26508.2
2.72271e+07,30.1981,2,2.8411,-654.923,-3853.35,-23686.1
2.73108e+07,17.1731,1,2.44463,-2763.23,546.12,-26497.2
2.73302e+07,101.414,0,2.48801,-1354.04,8000.9,-8944.78
2.73373e+07,42.7438,2,3.02427,-1757.37,-7293.54,-23744.7
2.75302e+07,55.0148,2,3.00813,-2121.05,1205.96,-19862.5
2.75626e+07,61.7401,2,2.82391,-9461.02,-6673.39,-22897.3
2.76273e+07,1.98842,2,2.89613,-220.714,-538.759,-28737.9
2.7919e+07,1.77112,1,2.67278,75.8599,-245.831,-28575.9
0,1.2245,0,3.05226,0,0,0
2.79637e+07,37.7315,1,2.50305,2847,2312.82,-21713.7
2.80175e+07,139.352,0,2.6504,10927.5,-17851.6,-17934.3
2.80592e+07,163.621,1,2.60082,-17375.5,-26598.4,-15321.5
2.80888e+07,103.338,0,2.52665,12323.7,17714.2,-24301.2
2.81261e+07,6.43782,0,2.96391,-1166.31,-110.598,-28256.3
2.81967e+07,7.72528,0,2.76586,1201.28,-233.881,-27687.1
2.85475e+07,39.434,0,2.75231,4134.83,494.663,-21488.2
2.86944e+07,129.253,0,2.57851,123.921,27152,-29611
2.87388e+07,22.8178,0,2.60825,2623.93,4137.4,-28231.6
2.90789e+07,1.80957,1,2.64725,-326.06,343.702,-28680.6
0,1.83881,1,2.92511,0,0,0
0,1.82045,1,2.68587,0,0,0
2.90976e+07,13.9635,1,2.78532,1443.23,1183.63,-26575.4
2.92233e+07,20.3346,0,3.01127,-683.398,2013.63,-25082.3
2.95295e+07,44.6641,2,2.93898,4803.2,-4681.36,-22183.2
2.95374e+07,111.415,1,2.65019,16176,17030.5,-27824.8
2.96576e+07,8.78358,2,2.73391,-1373.73,-1359.61,-28668.7
2.97109e+07,103.239,2,2.4154,12177.1,16626.9,-21780.2
2.97589e+07,129.417,0,3.0186,20828.4,5586.08,-14018.1
2.97778e+07,81.8061,0,2.36397,13429,7383.73,-20886.9
2.98056e+07,28.8116,1,3.01903,-2993.52,5352.78,-29214.8
2.98703e+07,44.283,2,2.84764,-8800.93,-1863.67,-26194
