#class tools::wcsv::ntuple
#title time
#separator 44
#vector_separator 59
#column double eventID
#column double t(ns)
#column double copynumber
#column double energy(eV)
#column double x(mm)
#column double y(mm)
#column double z(mm)
339504,212.919,2,2.96468,27631.9,-22957.8,-2346.76
641574,41.292,2,2.4357,-3534.55,7866.57,-27526.2
708267,89.9359,0,2.76537,3386.75,14305.5,-16868.5
728354,44.7934,1,3.02171,600.241,8062.91,-23903.3
952721,44.9219,1,2.43237,4565.51,1223.32,-20583.2
2.42385e+06,49.1058,0,2.41501,-1313.28,5097.04,-19875.4
2.4735e+06,186.559,0,2.94724,23617.9,-24867.5,-9842.73
2.64925e+06,17.5729,2,2.79681,198.626,-3258.26,-26940.8
0,18.1113,1,2.4383,0,0,0
2.70624e+06,65.9459,0,2.96715,8764.47,-4247.1,-18934.7
2.98957e+06,2.67586,1,2.7727,357.288,-8.49614,-28400
3.10779e+06,19.6487,0,2.40156,473.226,3425.89,-26499.8
3.21442e+06,237.038,2,2.79348,-22295.1,-3738.85,15616.6
3.23837e+06,22.1433,2,2.77328,255.655,-4724.54,-28964.4
0,22.0534,2,2.55201,0,0,0
3.37476e+06,1.18526,0,2.58417,-139.719,-51.2723,-28671.2
0,0.798913,2,2.96238,0,0,0
3.43817e+06,23.1127,2,2.79976,-3820.44,3017.46,-28415.3
3.64998e+06,7.87405,2,2.76507,-1242.03,-793.194,-27950
3.80643e+06,13.0445,2,2.95112,-398.973,2355.8,-27598.3
3.9789e+06,9.60665,0,2.91517,2036.09,-518.947,-28522.9
4.07133e+06,35.8441,0,2.4319,5352.3,-5379.65,-27750.3
4.43351e+06,90.9332,0,2.99229,-8662.41,-1848.82,-11983.3
4.64203e+06,75.2563,2,2.99475,4681.11,-9338.35,-16960.8
4.93247e+06,41.6041,0,2.89534,6145.93,-2290.88,-22983.9
5.1209e+06,58.6491,2,3.03163,-11359.3,4801.11,-29107.6
5.41016e+06,29.2143,0,2.6044,2600.2,-5235.45,-26711.5
5.50128e+06,72.109,2,2.5759,-8141.26,723.083,-15935.8
5.52634e+06,103.958,1,2.68256,-12918.5,17550.3,-25609.3
5.67318e+06,0.459372,0,2.69212,148.565,-60.6572,-28765.8
6.35918e+06,56.8018,1,2.50717,5296.96,5210.15,-19349.5
6.58095e+06,11.5993,2,2.94665,-1236.81,-1467.83,-27219.8
6.66476e+06,274.915,1,2.36722,11091.4,17366.8,-15632.7
6.8029e+06,226.055,2,2.64907,-11759,-23704,10888.4
7.27692e+06,27.8089,1,2.52175,-4975.29,2712.13,-26969.8
7.32749e+06,5.68162,0,2.46186,-772.525,-179.198,-27968
7.33812e+06,14.0891,0,2.74048,2315.7,-1049.18,-27139.3
7.41347e+06,30.7118,0,2.87496,4672.95,4476.63,-27987.2
7.41976e+06,29.1305,1,3.04488,-3479.65,4490.58,-26337.4
7.44138e+06,17.4682,0,2.54662,-2578.21,-199.531,-26241.9
7.44344e+06,112.373,0,2.89667,21704,6126.5,-21562.6
7.73159e+06,23.7534,0,2.9198,-4431.45,1919.08,-27754.9
8.15758e+06,171.593,0,2.71969,-25530.7,-25397.7,-26145.2
8.16419e+06,40.0995,2,2.61143,930.401,5003.22,-22088
8.24512e+06,7.36155,2,2.3971,73.68,-1600.29,-28571.5
8.62687e+06,16.6489,1,2.75538,2168.31,-1397.12,-26510.4
0,16.3839,2,2.93179,0,0,0
8.75307e+06,75.8446,2,2.85123,-3779.11,-15538.5,-27746.6
8.76669e+06,57.7219,2,2.81703,-4686.76,-2599.97,-17907.6
8.78271e+06,58.8663,2,2.77014,-5689.33,9627.2,-23504.2
9.37434e+06,64.6813,1,2.8916,9112.94,-5341.28,-20340.4
9.41629e+06,55.7592,1,2.7663,-7422.44,4396.97,-20810.9
9.85022e+06,34.0405,2,2.72981,-3618.38,-5906.4,-26649.5
1.06655e+07,42.6945,0,2.47451,7329.63,-5245.13,-27553.4
1.06782e+07,47.5592,2,2.724,-8879.77,4503.28,-27377.6
1.06942e+07,118.895,1,2.51095,-18804.1,13650.8,-19047.8
1.0793e+07,82.4348,1,2.98293,2310.13,17227,-28467.8
1.10146e+07,54.5561,2,2.49545,-5738.38,2776.93,-19199.4
1.1206e+07,114.493,1,2.87218,-8121.74,3170.24,-6395.11
1.13836e+07,45.5577,1,2.62714,-2066.73,7503.79,-23040.6
1.15767e+07,245.201,2,2.44761,23009,-25400.6,10096.5
1.17373e+07,15.0822,1,2.98485,2593.85,1591.79,-27895.5
0,15.0783,1,2.96007,0,0,0
1.17477e+07,64.8564,1,2.45429,10436.1,-5406.49,-21876
1.21557e+07,68.1314,0,2.98122,9397.1,-1383.38,-20105.8
1.2176e+07,56.8095,2,2.76899,10935.6,-2658.85,-24812.6
1.22219e+07,122.344,1,2.53101,-22995.6,-9585.54,-21885.1
1.22321e+07,123.705,0,2.99524,-85.016,-19112.9,-11280.6
1.24476e+07,0.81392,0,2.77584,195.191,-15.736,-28685.4
0,0.766319,0,2.51853,0,0,0
0,0.766423,0,2.78174,0,0,0
0,0.818907,0,2.56515,0,0,0
0,0.757961,0,2.60597,0,0,0
0,0.763013,0,2.62611,0,0,0
1.24598e+07,21.788,2,2.63583,-4471.98,-1281.95,-28175.6
1.26874e+07,105.271,1,2.70323,12018.5,-1120.76,-10236.4
1.32642e+07,76.5763,0,2.64077,11599,6203.24,-19316
1.33428e+07,150.693,2,2.81123,-18294.6,-20403.4,-12744.5
1.34741e+07,66.0847,2,2.58543,-6895.67,2323.95,-16901.4
1.36849e+07,85.7103,2,2.57708,-6628.87,-2715.67,-12180.9
1.3726e+07,4.33709,0,2.4019,39.3889,-866.776,-28467.8
1.37365e+07,162.732,1,2.82087,-2805.33,-28077.3,-9527.76
1.38918e+07,4.61763,0,2.48177,-684.973,210.783,-28228.6
1.4128e+07,10.2858,0,2.94513,1171.37,-219.967,-26958.1
1.42701e+07,102.885,2,2.39405,-3483.55,-15215,-13566.7
1.42743e+07,210.849,1,2.86243,18843.5,-11225.9,9568.61
1.43617e+07,18.9474,2,2.56855,-2274.24,437.877,-25549.1
1.45548e+07,179.104,0,2.75496,-25694.5,-7126.39,-2215.65
1.45774e+07,112.415,1,2.51654,10982.3,3792.59,-8104.11
1.47432e+07,10.94,1,2.69587,-1763.83,1373.56,-28014.6
1.49628e+07,16.2469,1,2.8949,-1139.91,802.963,-25661.8
1.5042e+07,17.6234,2,2.98441,1297.3,-668.638,-25418.4
1.50848e+07,216.145,2,2.54503,4222.3,-17291.2,12845.4
1.51408e+07,102.177,1,2.6966,-17418.8,-8117.04,-21513.6
1.51598e+07,75.4973,1,2.79552,-15805.9,2255.92,-29178.6
1.52507e+07,48.3807,0,2.79599,9539.55,2441.3,-25929.3
1.58733e+07,72.6172,0,2.73757,5774.6,-1818.65,-14761.2
1.58896e+07,99.3719,2,2.5059,-16536.7,10007,-20555.5
1.62901e+07,45.8346,1,3.01336,-5494.09,5440.32,-22989.7
1.62909e+07,63.3328,1,2.40693,1430.72,9048.87,-18968.6
1.66402e+07,42.1992,1,3.00243,-2201.79,-8491.2,-29566.2
1.68605e+07,133.394,0,2.7963,18297,996.467,-7485.75
1.69837e+07,22.2997,1,2.60991,3671.17,2990.42,-28411.3
1.70127e+07,4.18721,1,2.87666,329.04,192.642,-28025.6
1.70244e+07,39.2384,0,2.49391,4361.94,-3923.61,-22906.9
1.70986e+07,70.1253,2,2.68918,-4676.59,11538.1,-20892.9
1.73977e+07,50.1345,1,2.7317,2728.07,-7170.74,-22153.3
1.75265e+07,42.2983,1,2.38006,-7388.04,3851.99,-25314.4
1.76874e+07,14.2508,1,2.44216,871.017,2865.19,-28045.4
1.77652e+07,28.5479,0,2.73863,4018.59,-1471.66,-24550.2
1.82652e+07,13.4954,2,2.61166,757.666,-2674.86,-29814.9
1.83346e+07,229.089,1,2.63794,-27916.4,-13785.7,8162.15
1.84075e+07,17.2561,0,2.83143,1429.25,-1439.09,-25795.4
1.8432e+07,122.465,2,2.64546,1033.8,-23238.4,-17433.9
1.86726e+07,9.88543,2,2.73829,-1124.49,-967.046,-27272.2
1.92475e+07,313.313,1,2.81667,-4723.86,1811.43,-25634.8
1.96216e+07,60.5044,2,2.60987,-4252.75,3148.63,-17227
1.97536e+07,107.557,2,2.62398,315.86,-702.429,-27370
1.98892e+07,34.773,0,2.93851,5718.33,-1926.31,-24599.3
1.99735e+07,35.7971,2,3.0456,-6957.83,-2432.23,-27062.3
2.00498e+07,8.50942,1,2.86898,-945.078,11.5091,-27290.4
2.00636e+07,31.8096,0,2.72457,6234.56,2499.59,-27818.9
2.01008e+07,94.5596,0,2.63972,17846.4,-9065.86,-29502
2.07175e+07,33.847,2,2.77272,-6879.64,1900.78,-29556.2
2.11836e+07,120.245,1,2.83109,-21441.1,13560.5,-29759.7
2.13273e+07,35.76,1,2.59262,-6881.54,1639.73,-25972.3
2.1481e+07,33.5056,0,2.70539,2194.19,-6274.96,-26352
2.15624e+07,50.6821,1,2.88619,6788.47,6191.38,-23462.4
2.1648e+07,155.847,0,2.64328,18575.2,-19689.9,-10074.1
2.23209e+07,104.961,1,2.56229,-21450.6,-925.84,-23051.6
2.27899e+07,3.70382,0,2.61375,356.599,253.022,-28117
2.29018e+07,142.317,1,2.55943,-11765.7,21095.1,-10803.1
2.30457e+07,3.01559,1,2.82896,357.873,573.738,-28899.7
2.32298e+07,64.6538,1,2.53549,9345.69,-3350.15,-19492.2
2.32403e+07,50.4283,2,2.77802,3968,-9576.04,-26262
2.3392e+07,4.05321,2,2.66634,408.867,-487.352,-28215.5
2.36074e+07,76.3059,1,2.48156,-5400.03,-478.886,-19680.1
2.37352e+07,58.7005,2,2.51788,-593.823,7148.79,-18720.4
2.39681e+07,20.3552,2,2.72274,1474.61,-3026.34,-26071.5
2.41949e+07,17.135,2,2.4045,-1002.6,-1665.29,-25705.4
2.47522e+07,45.5743,0,2.55067,6159.68,-3342.58,-22126.8
2.49643e+07,152.889,2,2.47406,19922.4,-17444.9,-10271
2.54388e+07,37.5643,2,2.50905,5037.77,-3120.24,-23498.6
2.54976e+07,71.4909,0,2.94352,7800.82,6497.95,-22564.4
2.57746e+07,6.94321,1,2.59506,-1075.7,-228.535,-27821.7
2.57749e+07,125.243,0,2.3759,17280.3,18513.6,-20839.4
2.59119e+07,137.274,0,2.37111,12461.1,244.031,-27202.6
2.59918e+07,27.5191,0,3.05602,-364.75,-2720.06,-23783.8
2.61187e+07,8.43437,1,2.58285,-762.08,11.2326,-27198.4
0,8.43929,1,2.57314,0,0,0
2.62852e+07,61.584,0,2.82995,9135.43,-2260.14,-19823.2
2.66393e+07,269.552,1,2.81182,-1475.25,22293.9,23292
2.66966e+07,119.053,1,2.48727,-11532.3,3183.28,-6660.05
2.6795e+07,0.793062,1,2.55126,-102.158,229.876,-28790
2.70225e+07,92.6185,0,2.59323,-18482.9,-5980.44,-27297.4
2.70273e+07,166.613,0,2.71148,29389,-11863.6,-13536.4
2.713e+07,10.8094,2,2.91139,-233.51,-2067.83,-27712.7
2.71396e+07,3.76975,1,2.57586,-650.155,-194.55,-28338.3
2.71546e+07,252.302,0,2.78381,28977.9,24052.9,8648.94
2.75248e+07,89.7964,1,2.85898,1542.03,15084.9,-27443.8
2.76274e+07,8.75298,1,2.99445,1016.34,939.454,-27577.9
2.77263e+07,124.639,0,2.52658,17884,2577.92,-9562.11
2.77956e+07,106.059,2,2.89308,10776.7,-14215.6,-15435.9
2.89718e+07,35.7878,2,2.43151,-7095.18,-2717.63,-29776.9
2.93738e+07,4.07984,0,2.75424,414.947,-19.0726,-28036.1
2.95032e+07,49.2287,1,2.94583,7497.5,2286.97,-22114.6
2.96181e+07,0.628694,1,2.57787,79.8966,193.945,-28806.5
2.96968e+07,21.9683,2,2.95169,2373.39,1885.9,-25419.9
3.00853e+07,39.7972,0,2.75593,7048.1,-1313.36,-24354.6
3.01211e+07,130.703,1,2.80147,26462.5,5918.57,-24367.6
3.02048e+07,21.4005,0,2.98275,2571.48,1968.34,-25628.2
3.02139e+07,26.8301,2,2.36248,5605.86,-487.87,-28128.9
3.05039e+07,16.8563,2,2.45241,3340.34,358.477,-27745.6
3.09264e+07,40.2957,1,2.74543,2476.8,-6200.41,-23646.6
3.09992e+07,3.35683,1,2.56205,-65.609,566.86,-28316.9
3.12582e+07,39.1818,0,2.7857,-6632.77,-3773.57,-25854.1
3.13876e+07,50.1124,2,2.97251,-7157.22,-4942.37,-22781.7
3.16708e+07,18.0353,1,2.5393,-1226.17,-2967.84,-26800.3
3.1836e+07,8.191,2,2.77987,-506.563,745.279,-27358.8
0,8.27101,2,2.47618,0,0,0
3.1951e+07,63.1138,2,2.6028,-1971.67,-10634,-20897.9
3.20117e+07,7.5131,0,2.5748,-1065.29,-69.5509,-27688.3
0,7.64605,0,2.6843,0,0,0
3.20214e+07,35.7613,0,2.91534,3167.22,-5582.69,-24843.2
3.22449e+07,11.9009,2,3.05384,-2368.09,709.068,-28274.9
3.23407e+07,141.912,0,2.478,14793.6,7108.78,-3646.88
3.25632e+07,147.479,2,2.72449,-11867.7,-28585,-25139.8
3.28749e+07,54.1007,0,2.4876,1052.22,4480.71,-18330
3.32003e+07,128.014,0,2.92506,26519,4748.04,-28438.6
3.33028e+07,85.3416,1,2.59796,13061.2,12439.5,-28099.2
3.33546e+07,177.222,1,2.8194,-29996.5,-16775.1,-14362.4
3.35962e+07,8.38507,0,2.95519,137.758,574.994,-29098.3
3.37037e+07,138.607,2,2.87328,-22557.2,-15493.7,-19064.8
3.40282e+07,19.9736,1,2.80682,-1383.02,-1508.19,-25162.3
3.43603e+07,93.8311,0,2.88733,7177.92,-6126.73,-11476.5
3.43649e+07,18.9386,1,2.58845,-1247.21,1976.76,-25507.2
3.4402e+07,48.77,0,2.43543,-3931.43,4729.62,-27846.1
3.44191e+07,58.3964,2,2.39257,2679.87,6947.78,-19047.9
3.44239e+07,46.6865,0,2.59415,7391.24,6577.6,-28148.4
3.45447e+07,121.188,0,2.55164,20263.1,12819.5,-19615.7
3.51264e+07,16.8253,2,2.99826,-3577.63,19.9019,-28549
3.56069e+07,93.7498,0,2.84067,4162.8,8741.25,-11626.3
3.58433e+07,135.01,2,2.51598,-25220.2,6689.48,-17191.1
3.63384e+07,4.68387,2,2.5423,-566.267,789.441,-28636
3.63803e+07,17.8793,0,2.68751,3338.92,-1637.72,-29924.6
0,17.852,0,2.6193,0,0,0
3.65447e+07,8.76422,0,2.404,-194.998,1867.87,-28946.3
3.65806e+07,129.718,1,2.6698,14503.2,-19227,-25583.8
3.70428e+07,163.603,0,2.67073,19586.6,25941.8,-17090.9
3.76158e+07,12.6597,2,2.91966,-1872.74,-516.332,-28260.2
3.77961e+07,247.299,2,2.39339,-18103,15512.6,17748.3
3.78503e+07,106.333,1,2.60131,-22325.6,-1825.78,-26742.4
3.79122e+07,189.116,0,2.91665,-19773,-13117.3,2946.93
3.81103e+07,8.32463,1,3.0606,-1798.81,378.439,-28824.8
3.81311e+07,78.8468,2,2.88788,8800.18,-8116.72,-17343.8
3.84529e+07,117.723,0,2.6876,-15488.5,7109.42,-10828.3
3.87394e+07,55.2308,1,3.00269,-7843.56,274.453,-20250.1
3.89219e+07,15.6798,0,2.6208,2687.79,405.735,-26824.7
3.90914e+07,14.3237,0,2.65507,-241.824,1607.47,-26279.7
3.92129e+07,17.6524,0,3.03229,-929.27,-2869.09,-26720.8
3.94121e+07,83.105,2,2.52882,5807.55,-12550.8,-17916.4
3.98354e+07,1.29903,0,2.82542,186.718,95.0504,-28580
0,1.26713,0,2.60638,0,0,0
4.03299e+07,133.821,1,2.68919,6872.47,21188.8,-11426.9
4.03671e+07,61.3786,0,2.74277,11435.9,6226.97,-29472.8
4.09439e+07,34.393,1,2.57323,4820.88,-1341.81,-23585.7
4.0952e+07,141.759,1,2.79447,-14587.3,-4591.58,-3199.92
4.09685e+07,24.8361,1,2.87438,-4421.23,2374.62,-27133.4
4.10733e+07,55.2284,2,2.95716,8623.79,-7650.03,-27283
4.11218e+07,142.581,1,2.57311,-13859,-683.731,-2101.21
4.11967e+07,62.5892,1,2.94267,-1272.38,-12654.3,-25826.8
4.16227e+07,8.20633,1,2.43748,-1681.25,702.894,-28934.1
4.16489e+07,97.6554,0,2.81674,-9723.56,9275.06,-13324.5
4.18503e+07,112.126,1,2.46191,-18201.8,7005.34,-15215.8
4.21248e+07,114.583,2,2.40584,-7052.35,21209.2,-19519.9
4.27387e+07,93.7828,1,2.80644,11289.5,16022.6,-26156.1
4.28378e+07,68.8533,2,2.44322,1806.4,-14166.2,-25544.8
4.30223e+07,50.6743,1,2.80704,-9191.96,603.912,-23385.6
4.31232e+07,6.58131,1,2.92035,740.132,-674.329,-27948.5
0,6.18538,0,3.03532,0,0,0
4.31397e+07,90.0024,1,2.65372,3965.57,-10160.4,-13352.5
4.32042e+07,39.6176,2,2.68822,-877.218,-5457.6,-22485.6
4.33557e+07,29.1108,0,2.87557,5511.67,2626.36,-27757.8
4.33985e+07,162.128,1,2.75038,-1036.89,26301.6,-7098.06
4.35285e+07,26.3635,2,2.59661,-3038.09,-2084.1,-24579.9
4.35419e+07,51.0031,2,3.00436,-7698.07,2740.71,-21922.2
4.37607e+07,30.9423,2,2.36371,-3680.59,-2406.18,-23892.3
4.42862e+07,34.4487,0,2.42166,5806.69,-2727.65,-25194.2
4.49882e+07,0.586915,2,2.52817,-61.3098,-224.312,-28809.2
0,0.627592,2,2.57238,0,0,0
4.51867e+07,161.553,1,2.83766,-19711.2,19463.2,-9051.63
4.5312e+07,62.7076,1,2.46342,-10794.1,-2121.66,-21361.1
4.63687e+07,15.2201,0,2.74142,-61.9347,-3003.71,-27658.8
4.68049e+07,180.745,0,2.84023,7977.79,-17476.6,3939.05
4.70393e+07,76.0093,1,2.53715,5748.03,12558.2,-20517.3
4.72265e+07,166.886,0,2.74904,-12982.5,-18025.6,-1651.42
4.75818e+07,215.492,1,2.66767,-20668.9,-3585.78,11502.8
4.75853e+07,108.9,0,2.61152,-22387,-4788.4,-27606.4
4.78747e+07,9.35621,2,2.38884,1220.7,-1475.98,-29543.8
4.78876e+07,17.3759,0,2.44939,-1952.03,-2694.66,-28322.1
4.82966e+07,10.545,2,2.53131,-1964.97,-890.554,-28027.7
4.84325e+07,134.109,0,2.78096,16284.5,-15342.9,-11526.7
4.8576e+07,131.075,1,3.01536,-10482.5,24732.1,-22709.2
4.92549e+07,32.4127,0,2.53894,6688.71,-1819.25,-29568
4.95184e+07,52.6996,0,2.47992,3621.35,10575.5,-28930.2
4.96641e+07,49.3628,1,3.03969,-8570.95,3026.5,-24840.6
4.96798e+07,185.444,0,2.72773,-16642.1,14688.5,3139.92
4.97299e+07,179.468,0,2.91622,27925.9,7308.64,-4518.87
4.98003e+07,13.2712,2,2.54492,2040.54,-656.045,-27024.2
4.98418e+07,3.36864,0,2.50577,-213.878,432.211,-28345.7
4.99229e+07,97.1922,1,2.63064,15961.6,12510.5,-25494.4
4.99456e+07,9.12253,0,2.77479,2022.1,141.138,-29118.4
5.00542e+07,40.2708,0,2.83102,-4073.67,-5021.57,-23380.7
5.01057e+07,81.6811,0,2.71757,4513.88,-12544.6,-17879.2
5.01173e+07,6.53828,0,2.88886,974.358,-1070.57,-28902.2
5.02468e+07,77.0916,0,2.58449,12910.4,2980.51,-19245.2
5.04486e+07,110.938,1,2.52924,22411.8,5758.56,-27874.7
5.06018e+07,115.288,2,2.75298,-11684.4,-7469.22,-8854.12
5.06927e+07,65.745,1,2.61705,1783.07,13819.4,-27760.3
5.07366e+07,91.836,2,2.87311,17401.8,-4500.08,-22996.8
5.08268e+07,6.78192,1,2.49924,-883.227,-1085.03,-28630.6
5.09955e+07,136.267,2,2.78752,-8584.18,14426.1,-5599.48
5.15083e+07,56.4038,1,2.6732,2990.02,-5934.92,-19016.5
5.18961e+07,158.185,1,2.49538,-15111.5,5462.95,540.83
5.24192e+07,176.807,2,2.66014,-19035.6,-25353.7,-9055.43
5.28731e+07,66.7363,1,2.91745,9208.42,8838.52,-22983.2
5.29807e+07,83.8526,2,2.80057,-8800.39,-13871.5,-22125.3
5.31306e+07,119.424,0,2.60223,23664.9,-5247.47,-21518.7
5.32871e+07,3.25962,0,2.41177,662.987,-374.328,-28658.8
5.34931e+07,74.3788,0,2.67398,1980.07,8936.34,-16067.1
5.36488e+07,64.7784,1,3.05535,-8471.17,3151.29,-18646
5.40561e+07,96.59,2,2.78534,10069.8,-12873.9,-16715.5
5.41728e+07,220.427,0,2.83995,9464.58,3429.16,-22275.1
5.42034e+07,6.08458,2,2.58203,-13.3335,-915.824,-27840.7
5.43277e+07,155.13,2,2.56399,-19406.5,-2579.38,-2508.67
5.43615e+07,134.334,2,2.61727,22726.4,10582.3,-15661.9
5.46834e+07,11.4381,2,2.7724,-531.106,-2438.88,-28835.8
5.47301e+07,118.63,0,2.73594,4660.84,-24574.7,-28163.1
5.50484e+07,7.71757,0,2.90728,1079.73,1214.84,-28372.1
5.52144e+07,120.307,1,2.50698,-9047.21,-4358.16,-5450.68
5.60465e+07,121.081,0,2.52492,12072.2,-21174.7,-20802.7
5.64975e+07,65.0926,0,2.98381,9094.99,-4189.36,-19481.2
5.65687e+07,33.6655,2,2.98178,-5308.22,-1793.91,-25071.4
5.66333e+07,255.565,0,2.80171,1679.38,-29240.6,16254.3
5.66779e+07,80.1581,0,2.63615,11486.8,-1147.94,-16380.1
5.6885e+07,69.9578,1,2.75425,-1457.29,10704.1,-18722.5
5.69068e+07,219.708,2,2.64309,26519.5,145.7,9169.47
5.72548e+07,65.528,0,2.90735,7846.83,4037.15,-18968
5.73025e+07,54.5714,2,2.52254,-4315.69,5340.6,-19557.9
5.75201e+07,86.8504,2,2.6005,6629.44,-3302.54,-12039.5
5.76681e+07,76.8089,1,2.89413,-1002.31,12439.5,-28002.9
5.78285e+07,37.6731,1,2.79249,-2578.33,3134.2,-21950.4
0,37.7532,0,2.37778,0,0,0
5.78878e+07,6.19747,2,2.97807,-949.333,-315.968,-27908.3
5.80342e+07,43.6342,0,2.51517,4027.62,96.989,-20479.8
5.80711e+07,106.848,1,2.99281,-20143.5,-8340.96,-23595.4
5.81453e+07,65.3882,2,2.6216,2845.37,-6000.88,-16696.8
5.81799e+07,17.9473,2,2.76602,-1662.62,-2589.9,-26483.8
5.8536e+07,119.405,2,2.84927,11449.2,-17842.7,-16837.4
5.86082e+07,42.1585,1,2.42418,-7133.82,5207.05,-27029.9
5.89138e+07,88.013,1,2.70103,-8026.25,3184.53,-12371.2
5.89613e+07,168.558,1,2.70502,-16569.3,15957.2,-1698.49
5.92852e+07,159.082,0,2.45304,-7213.51,23457.6,-5840.82
5.95132e+07,181.495,0,2.47143,24159.8,3871.86,782.191
5.96819e+07,12.5179,0,2.44431,-971.704,-573.756,-26473.8
6.01342e+07,20.5392,0,2.66715,3900.42,2090.79,-28525.2
6.02104e+07,50.3763,2,2.68953,193.124,-10185.6,-25556.6
6.02231e+07,53.8066,1,2.47702,-2953.35,-1854.35,-23538.6
6.03034e+07,58.0876,1,2.90773,-8870.99,-8362.73,-28642.1
6.03455e+07,60.2266,1,2.85451,8006.03,3849.94,-19805.1
6.0985e+07,57.8089,1,3.00374,7136.83,-8859.22,-24811
6.13111e+07,132.227,0,2.64372,18281.1,-18679.8,-18930.9
6.13753e+07,93.3559,1,2.8729,-4322.29,11239.1,-13286.6
6.1414e+07,5.26914,0,2.64954,-507.416,-867.792,-28432.7
0,4.6943,2,2.92195,0,0,0
6.15056e+07,133.523,2,2.64216,-10583.2,-20957.8,-13107.5
6.16773e+07,2.20561,0,2.70772,-223.499,289.533,-28566.5
6.17809e+07,132.984,0,2.37611,-213.471,-17354.1,-6667.05
6.18711e+07,20.0991,0,2.44124,-1684.15,-3740.92,-27800.3
6.19256e+07,10.5834,0,2.89897,174.467,-1225.85,-26962.5
0,10.5209,0,2.7219,0,0,0
6.20168e+07,49.6444,1,2.99631,8302.28,-6086.75,-27671.8
6.20589e+07,10.8121,1,2.91129,1233.77,1869.8,-28205
6.21345e+07,13.2424,1,2.57894,-1691.32,1501.22,-27047.8
6.21676e+07,87.0726,0,2.44139,11470.8,-14342.1,-26953.2
6.25494e+07,30.743,2,2.72775,-6066.26,-277.369,-26370.3
6.26126e+07,39.514,2,2.92352,-8053.74,2020.86,-29344.7
6.31969e+07,188.699,2,2.37542,-15812.8,-16781.3,3835.27
6.32562e+07,33.591,1,2.75717,-5061.38,-2404.12,-24454.2
6.32907e+07,37.4511,0,2.65285,4769.16,-368.279,-22465.8
6.34573e+07,114.589,2,2.39004,-3433.92,19387.8,-14730.1
6.37959e+07,68.6956,0,2.69355,2288.4,-13602.1,-24277.5
6.39708e+07,34.0337,0,2.40115,5587.1,1441.23,-24376.7
6.42385e+07,40.4951,1,2.80189,2851.08,8064.43,-27931.8
6.44016e+07,12.058,2,2.90046,877.906,-437.791,-26513.7
6.46301e+07,33.687,1,2.86589,6575.66,2630.35,-29347.1
6.46451e+07,182.115,0,2.57281,-19555,14978.8,687.355
6.47385e+07,13.7265,1,2.41775,1691.76,2156.06,-29997.6
0,14.0588,1,2.41775,0,0,0
6.4781e+07,54.7629,1,2.73289,6373.12,8500.51,-24215.9
6.49746e+07,38.5179,1,2.84533,-5129.41,2750.43,-23103
6.50273e+07,20.5607,2,2.96469,1701.05,-2257.89,-25546.3
6.50769e+07,13.9267,1,2.85277,622.541,1488.71,-26339.1
6.51656e+07,58.2707,0,2.38485,12066.5,2461.74,-27196.7
6.54309e+07,152.579,0,2.47162,-563.307,20543.2,-27399
6.54669e+07,11.602,1,2.66952,-2135.53,-935.049,-27988.6
6.5522e+07,74.7384,1,2.37125,750.047,9115.79,-15868.2
6.55592e+07,73.2728,2,2.60965,-8836.51,-4681.09,-16963.4
6.61122e+07,20.6601,2,2.48164,-4304.64,633.12,-27961.9
6.6248e+07,126.19,1,2.68035,20.2697,-23283,-16083.5
6.63528e+07,2.58984,0,2.93284,357.849,275.492,-28413.5
6.65449e+07,85.0901,2,2.80708,11377.9,-1475.88,-15117
6.6713e+07,16.2436,2,2.82223,-1890.95,838.502,-26086.7
6.67355e+07,94.1291,2,2.78974,-13946,-12797.6,-22660.7
6.68099e+07,57.0943,0,2.36307,-4870.68,4840.81,-18919.6
6.71808e+07,19.1557,0,2.48657,372.33,-1583.81,-25122.2
6.7595e+07,24.4258,1,2.83468,-2787.48,3370.92,-25993.8
6.80465e+07,23.9035,1,3.00764,-4270.97,2787.85,-29368.2
6.82531e+07,69.8204,0,3.02487,10661.4,5678.04,-20437.1
6.87564e+07,175.151,1,2.91754,-9139.81,13122.6,-24623.5
6.89339e+07,136.399,0,2.64249,21929.5,18511.3,-25784.5
6.90248e+07,38.1701,1,2.65751,2413.87,6489.47,-24629.2
6.91498e+07,97.6322,2,2.47727,-1535.12,-15292.5,-14934.4
6.92789e+07,38.4925,2,2.69542,3454.15,-3256.96,-22230.4
6.94331e+07,167.094,2,2.98832,12211.3,-27028.2,-10081.9
7.01315e+07,249.835,0,2.52619,2325.14,27425.4,-17890.9
7.0252e+07,131.02,2,2.6592,-7290.25,-21249.6,-12605.9
7.05721e+07,136.983,0,2.73581,17670.2,14124.2,-10830.8
7.08259e+07,106.846,1,2.89486,2039.45,-3159.17,-24578.9
7.10608e+07,104.279,0,3.05477,-14697.3,1492.64,-12795.4
7.11648e+07,132.004,0,3.0093,-15273.1,3307.08,-6046.23
7.14251e+07,99.2055,1,2.51445,8184.62,19383.6,-28715.4
7.15954e+07,38.2274,2,2.8151,3068.25,-4927.91,-27353.2
7.1871e+07,24.5159,1,3.0105,-598.803,4877.69,-27869.6
7.2067e+07,22.2897,0,2.78618,3339.44,-642.649,-25493.2
7.22961e+07,141.153,2,2.73592,-9345.33,21081.5,-10114.7
7.23052e+07,29.8878,2,2.77056,-2048.68,-4075.44,-24409.2
7.23541e+07,74.9545,2,2.9006,-6623.02,12741.5,-22462.9
7.27768e+07,22.3714,0,2.7501,-2436.92,-1211.78,-25014.2
7.28195e+07,71.7894,0,2.86501,-10937.2,-7014.72,-21847.6
7.29218e+07,28.4424,1,2.46486,-3559.1,175.373,-23931.8
7.30142e+07,13.4876,2,2.70509,724.056,1242.23,-26395
7.31031e+07,12.2589,0,2.90692,442.909,-2254.05,-27563.8
7.37272e+07,69.1232,2,2.515,12638.9,-3558.36,-22492.8
7.37866e+07,78.447,2,2.60253,-9251.37,-5319.67,-16078.7
7.39283e+07,89.2386,1,3.05879,-11256.3,-6761.5,-17098
7.40845e+07,173.347,0,2.38381,-6823.54,-10379.7,-17188.6
7.47391e+07,53.7061,0,2.50259,4012.58,-7366.33,-21099.6
7.49916e+07,13.8016,2,2.39692,-522.184,-2947.23,-29390.5
7.51118e+07,20.315,1,2.36896,-3649.56,2363.87,-28196
7.51431e+07,21.2288,2,2.8195,-3816.83,-1791.91,-27112
7.51589e+07,44.8733,1,3.01189,2818.91,3026.78,-20350.3
7.52562e+07,95.7968,2,2.50784,-4453.61,18530,-22128.1
7.54582e+07,60.1295,0,2.60113,7235.32,-6427.23,-20513.1
7.55586e+07,60.5187,2,2.67466,-1049.98,-11086.4,-22412.7
7.61573e+07,70.5657,0,2.80837,14322,-1648.47,-24871.5
7.67474e+07,28.2913,0,2.61842,1647.61,1667.91,-23304.1
7.68072e+07,11.0019,0,2.4475,-1042.61,195.993,-26802.7
7.70592e+07,6.29778,2,3.00169,711.676,-1179.33,-28775.7
7.70968e+07,17.1561,1,2.77658,2303.16,-37.639,-26083.9
7.72892e+07,129.152,1,2.44229,-11588.6,-5183.71,-4639.42
7.73215e+07,71.1981,1,2.38948,12804.3,1682.8,-21101.2
7.76293e+07,102.922,2,2.45365,-8393.75,-19103.3,-22379
7.77451e+07,83.9852,0,2.80782,2308.79,4390.73,-25316.6
7.78202e+07,36.838,2,2.4235,-5338.41,4682.45,-25610.9
7.81989e+07,49.029,0,2.70129,6091.17,5789.54,-22692.1
7.83044e+07,83.934,2,2.50761,13796,-7111.66,-20187.1
7.83165e+07,69.5847,1,2.52911,3289.35,14272.5,-26885.5
7.84529e+07,135.762,2,2.74185,4675.58,-27207.2,-21049.9
7.85914e+07,44.1806,0,2.57963,8560.48,471.11,-24910.4
7.86539e+07,152.299,0,2.82188,11302.2,-4572.71,821.815
7.91774e+07,106.075,1,2.72459,7494.17,-19956,-26890
7.92882e+07,56.0908,2,2.4984,10072.6,-6203.62,-29918.8
7.98773e+07,0.786079,2,2.5313,81.8239,-205.551,-28781.9
8.02949e+07,65.3304,2,2.92678,-8329.96,3691.35,-18575.6
8.03379e+07,18.9784,1,2.51052,-2488.19,1148.1,-25812.6
8.04586e+07,58.8702,2,2.44617,-2961.07,-9303.19,-20965.7
8.05934e+07,89.0705,2,2.95568,-3051.15,9732.04,-13210.2
8.07459e+07,51.8576,0,3.01357,9025.37,5103.92,-25275.7
8.0899e+07,56.3789,2,2.84816,5916.19,-3240.87,-19073.9
8.09333e+07,91.1633,2,3.00554,1607.76,-2334.3,-29204.5
8.0944e+07,51.1955,2,2.53794,3235.57,-10371.1,-28271.1
8.1e+07,16.2317,0,2.99126,2709.51,1101.36,-26935.2
8.1016e+07,52.8447,1,2.57608,-6661.64,8230.56,-25064.2
8.11879e+07,195.272,1,2.98909,-17693.5,-10139.1,6668.33
8.11948e+07,60.1239,1,2.90551,-7234.42,-4569.06,-19576.2
8.12785e+07,160.619,2,2.50132,21226.7,20839.9,-12924.1
8.13151e+07,18.4392,2,2.74343,1155.58,-3769.36,-29387.4
8.14148e+07,68.0014,2,2.7512,-8304.03,72.0263,-17167.7
8.14839e+07,150.736,0,2.87453,27320.2,13006.7,-19185.8
8.17497e+07,57.2851,2,3.05304,3037.72,-8639.41,-20984.2
8.20673e+07,20.8537,2,3.02859,-500.737,-4406.26,-28331
8.26202e+07,81.4176,0,2.74255,5960.21,14310.7,-21409.4
8.27219e+07,74.1092,2,2.82379,1915.89,-6676.93,-14832.5
8.28169e+07,185.855,1,2.49033,28066.6,-2512.55,-1478.46
8.28783e+07,29.5951,1,2.64893,3950.42,-1504.18,-24292.9
8.29269e+07,38.3621,2,2.53822,-3819.06,-3116.38,-22307.5
8.36045e+07,31.1151,2,2.92264,-5463.5,1410.02,-25456.8
8.36166e+07,13.5826,2,2.83661,-297.167,-2469.23,-27260.3
8.36609e+07,135.83,0,2.94238,-3763.64,-17837.9,-6959.14
8.38883e+07,63.5634,0,2.53794,-5478.95,-5561.28,-17936
8.39516e+07,67.5445,0,2.5316,9501.03,1728.49,-18234.6
8.44686e+07,134.891,0,2.79928,-362.095,27841.5,-23278.3
8.50395e+07,8.14502,2,2.93197,1454.59,-49.4217,-27985
8.53192e+07,53.7902,0,2.93101,-1334.98,6699.94,-19833.7
8.53901e+07,214.301,2,2.95636,-8234.68,-12737.2,-13155.6
8.56225e+07,36.6537,0,2.62129,-4028.81,-53.5735,-22282.4
8.5801e+07,21.3254,0,3.05754,3628.9,1681.04,-26724
8.63509e+07,101.552,2,2.59035,-455.071,14262.1,-12881.2
8.64403e+07,10.9754,0,2.75963,-1393.91,1448.69,-27725.3
8.64872e+07,28.6861,0,2.98593,3320.45,-4158.94,-25915.2
8.69447e+07,5.59611,0,2.55987,1076.19,-324.123,-28218.9
8.73878e+07,75.5231,2,2.84855,-11880.5,-10579.1,-27286.6
8.75577e+07,42.3461,0,2.47431,2967.18,4922.14,-21910.9
8.76321e+07,278.191,2,3.03538,-14252.2,27596.4,20425.9
8.80349e+07,24.8003,1,2.51241,-3161.91,4298.64,-29243.9
8.81531e+07,8.12668,0,2.91436,1198.41,343.617,-27565.4
8.83681e+07,59.7209,1,2.84336,2029.82,12473.8,-29010.1
8.85798e+07,99.1705,1,2.42204,20669.2,1715.08,-25703.3
8.87694e+07,222.123,1,2.47117,-22122.7,14858.5,-455.812
8.88004e+07,26.2267,0,2.45276,2071.5,3919.89,-25443.8
8.90008e+07,184.742,1,2.74655,-29620.5,12038.5,-6588.09
8.90086e+07,84.6489,0,2.84738,8499.46,-14062.7,-21851.1
0,84.6891,1,2.50901,0,0,0
8.92884e+07,41.8351,1,2.90669,-1364.3,8726.02,-27865.2
8.9355e+07,21.9835,1,3.01814,-4437.5,1295.49,-29633.6
8.95288e+07,161.79,1,3.05786,-8091.78,-26410.7,-9285.22
8.98077e+07,64.07,0,2.43822,-6675,-5903.13,-18653.7
9.0785e+07,98.8015,1,2.67231,8915.45,16594.7,-19820.8
9.09124e+07,81.4562,1,2.69411,8653.34,-10297,-18230.9
9.1358e+07,127.801,0,2.74681,25860.2,-1245.79,-21119.1
9.14032e+07,16.0508,1,2.8426,-1175.83,1655.8,-26049
9.15339e+07,237.52,2,2.78025,-28421,-9254,11287.5
9.15631e+07,73.9892,2,2.84766,12980.6,-7894.51,-25375.5
9.16502e+07,76.2942,1,2.39224,6484.97,-5507.89,-15161.9
9.18975e+07,7.48565,2,2.90437,487.204,1195.9,-28029.6
9.21226e+07,43.0479,2,3.0287,-8828.63,-1126.97,-26944.2
9.22476e+07,63.9392,1,2.48137,3947.51,7068.06,-17950.9
9.24266e+07,19.8486,0,2.64322,-1273.87,3787.44,-27604.3
9.26332e+07,34.8423,2,2.79675,-7324.7,-262.564,-29956.2
9.28907e+07,42.7648,0,2.68746,3112.21,-1548.47,-20465.1
9.29556e+07,220.21,0,2.75001,26998.5,15347.6,5665.89
9.30574e+07,88.2932,0,2.94655,-8360.02,13973.3,-20035.7
9.35041e+07,141.185,0,2.68051,12214.1,-9913.96,-3515.37
9.352e+07,58.6822,1,2.85435,-4716.38,1792.61,-22785.6
9.37019e+07,10.8696,0,2.4441,-431.319,-2224.05,-28418.5
9.4255e+07,142.998,2,2.4109,-13545.2,25986.1,-21503.1
9.42831e+07,88.3212,0,2.82282,849.544,-15576.7,-18702.9
9.44533e+07,5.01826,2,2.88374,-656.168,126.337,-27962.8
9.4947e+07,41.3982,0,2.88533,3692.98,2551.6,-21326.1
9.50508e+07,199.657,2,2.8336,-19131.2,11298.6,6787.12
9.50739e+07,103.656,2,2.53804,4505.52,-10639.9,-10167.3
9.51267e+07,132.904,0,2.47319,7756.42,8059.9,-22591.7
9.53993e+07,96.4191,2,2.5394,-10565.6,219.361,-11370.9
9.5745e+07,28.3959,1,3.02249,-1863.8,4893.8,-25876.2
9.58141e+07,121.247,0,2.96595,14805.3,-6820.28,-9251.1
9.59205e+07,10.7041,1,2.40763,1127.57,1990.19,-28327.8
0,10.8794,0,2.84374,0,0,0
9.60539e+07,42.5529,2,2.76804,-3907.85,2324.29,-21089.6
9.6527e+07,18.7048,2,2.75811,1487.69,838.807,-25304.9
9.66204e+07,119.354,2,2.99255,-14389.9,-14184.4,-13936.4
9.67559e+07,71.345,2,2.45512,-8276.22,1450.97,-16268
9.69038e+07,139.613,1,2.79685,20208.6,-11461.7,-10939.2
9.72621e+07,47.805,2,2.49672,-1602.66,-9609.28,-25767.2
9.75593e+07,225.432,0,2.93852,29863.1,3777.67,7726.62
9.77925e+07,58.5223,2,2.62646,-9702.36,454.186,-21121.6
9.78549e+07,38.6918,2,2.61776,3821.09,1374.2,-21754.6
9.80155e+07,20.1134,2,2.4652,-1824.9,-3013.13,-26298.7
9.80883e+07,99.6731,2,3.02982,-10280.3,2501,-10825.5
9.81094e+07,90.3186,0,2.58568,16345.7,-7129.03,-21821.1
9.82159e+07,80.8174,1,2.59246,1669.55,-7027.03,-29224.8
9.82175e+07,65.8231,0,2.56808,9684.92,-4790.28,-19960.8
9.83167e+07,52.2425,1,2.57289,-10101,-4390.75,-29944.6
9.90037e+07,14.253,1,2.78879,2001.34,2227.26,-29441
9.92705e+07,0.688456,2,3.52878,-172.195,-102.959,-28957.1
0,0.676931,2,2.40653,0,0,0
9.9298e+07,28.9594,1,2.55802,-3322.34,-2208.06,-24173.6
9.9665e+07,21.6144,2,2.49089,-2114,-139.264,-24732.3
9.96748e+07,6.8482,2,2.45583,-451.199,-1481.33,-28596.5
9.97315e+07,133.505,2,2.79101,12962.9,-24300.1,-22959.6
1.00334e+08,5.17633,0,2.78073,55.4545,641.449,-28287.4
1.00699e+08,40.0128,1,2.4267,573.275,6309.55,-24037.1
1.00728e+08,161.914,0,2.41741,2837.48,-24427.3,-4954.08
1.01422e+08,4.99619,0,2.92258,1056.29,-343.754,-28517.7
0,4.97027,0,2.5872,0,0,0
0,4.99679,0,2.91193,0,0,0
1.01464e+08,61.0299,2,2.66208,-4737.1,-10141.2,-22291.7
1.02116e+08,30.7482,0,2.49463,-2333.07,-2497.95,-23311.9
1.02153e+08,213.908,2,3.04239,-12316.2,-28524.8,3518.85
1.02584e+08,1.05212,0,2.40492,106.22,-179.04,-28659.6
1.02618e+08,130.556,1,2.99858,-9259.76,17580.3,-24399.8
1.02655e+08,189.652,1,2.89992,20396.1,28413.3,-9731.6
1.02738e+08,10.9989,2,2.86259,804.341,526.733,-26755.2
1.0277e+08,29.906,1,2.99451,-4090.51,4421.59,-26753.6
1.03094e+08,38.9456,2,2.59311,-5153.14,4823.31,-24634.3
1.03479e+08,14.362,0,2.47745,-1345.21,-2172.96,-27201.5
1.03579e+08,97.9069,2,2.60705,-17639.1,7370.45,-20865.5
1.03734e+08,57.0504,1,2.37273,7113.27,6196.54,-21234
1.0375e+08,94.5922,0,2.44178,9068.9,11230.8,-14894.9
1.03795e+08,100.784,1,3.03619,11163.3,-3567.26,-11300.3
1.04279e+08,53.3728,2,2.78824,-3189.88,-4899.49,-19169.7
1.04314e+08,73.3778,2,2.54007,-2247.49,15023.8,-26027.8
1.04779e+08,24.2311,0,2.4142,4559.89,-2420.68,-28059.8
1.04935e+08,28.371,2,2.84462,-521.647,-5290.29,-25944.8
1.05128e+08,134.347,2,2.5615,15442,-6499.19,-5934.96
1.0558e+08,56.7388,2,2.42386,5297.36,-6527.37,-20210.6
1.06017e+08,59.3748,2,2.69689,-1921.59,-8528.32,-19786.1
1.06107e+08,93.0957,0,2.81629,5332.97,-16193.7,-19122.5
1.06495e+08,36.2755,1,2.84477,-5991.1,-4405.52,-27020.6
1.06923e+08,14.2201,0,2.64475,-1770.94,2247.64,-27987.7
1.07147e+08,109.997,1,2.87669,-5586.32,-11750.4,-9740.88
1.07364e+08,104.457,2,2.58542,13342.3,-10566.6,-14753.6
1.07365e+08,67.2954,1,2.68752,9200.24,-534.71,-18872.5
1.07444e+08,12.167,1,2.87705,-2609.3,-159.177,-29130.6
1.07584e+08,52.9372,0,2.97127,6568.27,-6968.87,-23082.8
1.07714e+08,148.592,1,2.51271,29568.3,205.932,-18290.8
1.07903e+08,79.9537,2,2.97032,-10228.6,13253.9,-28233.6
1.07989e+08,53.9388,2,2.96157,-591.577,-4422.96,-18393.4
1.08514e+08,69.2658,2,2.79622,4645.83,-12174.2,-22187.1
1.08727e+08,214.44,1,2.57396,-14588.9,-24592.3,-1824.75
1.0892e+08,35.7126,0,2.47771,4974.56,4349.09,-25043.2
1.08987e+08,83.559,0,2.93975,2706.66,-7075.7,-13004.6
1.09216e+08,127.095,1,2.41986,9521.32,-21054.1,-15209.7
1.09561e+08,31.8177,2,2.84611,-525.043,-6595.57,-28685.7
1.09773e+08,22.9768,2,2.38972,-4076.38,1777.13,-26793.1
1.09907e+08,129.111,2,2.62142,15840.9,-2584.86,-6843.42
1.09914e+08,50.4435,2,2.62918,-8112.55,-1450.87,-21997.8
1.09946e+08,109.488,0,2.66746,5974.39,17448.4,-14867
1.10142e+08,98.2263,1,2.44338,-10113.6,14752.7,-18111.2
1.10261e+08,24.4449,0,2.69768,-2251.23,4506.37,-29899.1
1.10451e+08,25.0204,1,2.9584,474.301,5319.91,-28471
1.10629e+08,13.0901,1,2.76784,318.742,2646.92,-27861.4
1.11011e+08,132.708,2,2.70093,-14382.5,22809.9,-21471.4
1.11065e+08,164.707,0,2.76837,6510.2,-25534.1,-6245.84
1.11309e+08,6.92238,0,2.9725,-648.189,997.776,-28015.4
1.11594e+08,9.02406,2,2.9578,-1780.07,781.796,-28863.8
0,9.07071,2,2.87661,0,0,0
1.11605e+08,72.5285,0,3.03435,13711.9,2217.25,-22519.5
1.1172e+08,4.30421,0,2.54782,346.342,856.629,-29108.4
0,4.36831,0,2.9405,0,0,0
1.11986e+08,57.3764,1,2.91875,-5185.89,-7562.14,-21047.2
1.13197e+08,132.271,2,2.42415,-15946.6,-22959.5,-26154.7
1.1332e+08,133.45,2,2.83772,-9190.86,9520.06,-4490.6
1.13468e+08,173.307,1,2.94894,25279.9,18040.4,-9868.16
1.13499e+08,48.0984,2,2.59063,-8774.57,-5179.11,-27638.6
1.13715e+08,30.2509,2,2.62499,-252.221,6181.27,-27393.3
1.13843e+08,176.443,0,2.75035,-1290.52,-2394.05,-5713.64
1.14001e+08,101.754,0,2.5699,16951.8,12018.4,-22975.7
1.14301e+08,127.849,0,2.51188,285.717,20562.9,-11282.5
1.1487e+08,68.3951,1,2.7302,-7482.17,12380.6,-27527.2
1.14969e+08,120.652,0,2.49245,12703.5,-6553.91,-12417.6
1.15181e+08,129.602,2,2.96528,-10076.5,-5237.72,-4109.18
1.15617e+08,6.06893,2,2.71543,390.319,-503.68,-27679.4
1.15729e+08,45.5798,1,2.55489,5493.9,7611.74,-28369.5
1.15764e+08,37.2529,0,2.42848,3260.12,-5265.07,-23861.1
1.15925e+08,66.0294,0,2.77369,-2704.42,12171.4,-22663.3
1.16245e+08,2.78554,2,2.73968,-508.069,-429.074,-28635.8
1.1625e+08,50.4751,1,2.6675,886.13,-9194.24,-23618.3
1.1628e+08,187.404,0,2.88606,-11868.5,-18232.6,3861.98
1.1628e+08,5.58363,2,2.77157,581.288,925.858,-28601.1
1.16743e+08,94.7084,1,2.89494,11991.2,-8030.82,-23007.7
1.16749e+08,105.057,0,2.74626,6130.6,10700.4,-10415.7
1.17063e+08,98.1061,1,2.80859,1644.13,18321.1,-19348.6
1.1721e+08,1.92797,0,2.42846,477.348,30.4923,-28749.1
1.17388e+08,36.4947,1,2.63507,3647.84,6847.44,-28168.1
1.18771e+08,51.8104,2,2.98119,-2521.77,-3706.3,-18881.4
1.18862e+08,95.3145,0,2.68458,8151.33,-14975.8,-18083.6
1.18996e+08,45.5067,1,2.4402,-6037.36,4670.33,-22865.1
1.19277e+08,49.0889,2,2.62912,54.9062,-10445,-28097.8
1.19279e+08,2.30979,1,3.05662,-47.3362,385.936,-28429.5
1.1978e+08,16.0043,2,2.68692,-2262.51,-2666.07,-28897.5
1.20071e+08,263.918,2,2.97568,-20048.2,14482.1,-29402.3
1.20137e+08,9.42536,2,2.7094,1740.78,-223.903,-27930.7
1.20164e+08,25.741,0,2.51501,-2513.63,2146.98,-24546.6
1.20306e+08,11.7912,1,2.70978,-875.743,820.964,-26599.8
1.20359e+08,93.4121,2,2.54376,-4273.34,14431.7,-18824
1.20394e+08,62.6265,0,2.73633,8284.56,-8965.44,-23621.5
1.20643e+08,144.837,0,2.58288,-3172.98,-29437.1,-21078.5
1.20689e+08,5.02057,0,2.51074,596.359,-330.803,-27937.4
0,5.08731,0,3.01119,0,0,0
1.20921e+08,55.8678,1,2.44776,9990.68,2109.15,-22933.7
1.2098e+08,52.5418,2,2.8432,-6875,-5835.89,-22347.3
1.21217e+08,29.0767,2,2.71897,-2512.66,-5580.04,-27687.2
1.21509e+08,60.9869,0,2.76599,6581.05,4419.02,-18696.1
1.21651e+08,60.3401,0,2.64792,-5751.41,681.637,-17506.6
1.21749e+08,27.1024,0,2.47352,5138.27,2687.7,-29559.9
1.21884e+08,23.9446,2,2.47724,-3382.36,-1629.96,-25324
1.22032e+08,76.2599,0,2.36565,4454.05,-7662.4,-15292.4
1.22094e+08,80.5961,2,2.74928,13375.1,10266.2,-27499.2
1.22181e+08,99.7795,1,2.51873,-11242.3,14524.5,-18285.5
1.22257e+08,95.4554,1,2.88676,-14235.1,1730.26,-14752.9
1.2233e+08,42.9083,1,2.71192,-3414.85,2794.42,-20880.1
1.22496e+08,161.515,0,2.91448,-29599.9,2845.25,-16038.5
1.22694e+08,20.1179,1,2.95697,-3526.09,2502.62,-29022.4
1.23105e+08,17.4128,0,2.46774,982.807,-1943.13,-25813.7
1.23116e+08,76.3229,1,3.00313,6037.27,9360.58,-17323.9
1.23313e+08,50.5301,0,3.0259,2593.67,7031.39,-21304.2
1.23318e+08,110.126,1,2.63976,-13032.2,10159.8,-12431.3
1.23429e+08,66.3887,0,2.73802,303.269,-11510.8,-20858.7
1.23504e+08,104.084,0,2.62928,8097.29,-18557.4,-20170.9
1.23666e+08,44.6188,2,2.46649,359.297,4441.48,-20544
1.2372e+08,106.516,1,2.91032,-8466.98,17414.1,-17496.5
1.23954e+08,49.1518,0,2.76715,-8011.77,6349.28,-27632.5
1.24588e+08,233.842,0,3.0326,28938.1,7157.5,-22470.9
1.24599e+08,30.042,2,2.79602,-2391.56,-5969.12,-28613.7
1.24834e+08,9.99911,0,2.57391,46.0165,1424.82,-27246.5
1.24848e+08,2.09538,1,2.40783,-291.415,151.665,-28476.3
1.24866e+08,56.7877,1,2.93343,2106.98,6096.52,-25075.8
1.25116e+08,70.7159,2,2.77844,-10447.2,917.616,-28581
1.25279e+08,139.006,1,3.04876,8951.54,-17528.5,-7459.33
1.25478e+08,124.54,1,2.67703,-21619,6123.14,-15153.6
1.25693e+08,187.974,0,2.49214,22803.7,637.64,-4000.49
1.2588e+08,82.4791,0,2.59292,14326.8,9779.83,-26594.9
1.26184e+08,81.0722,1,2.46149,2892.88,15626.8,-22487.2
1.26193e+08,71.8581,1,3.03414,-5102.15,-4418.46,-15401.3
1.26519e+08,1.27031,2,2.63498,-17.8505,-328.271,-28721.7
1.26695e+08,53.6862,0,2.85733,863.583,-7433.27,-20348
1.26839e+08,59.7327,2,2.81229,-3137.51,4554.64,-17549.8
1.27124e+08,13.335,1,2.56395,543.184,2242.49,-27095.6
1.27372e+08,7.04591,0,2.48142,-869.708,-559.589,-27783.7
1.27618e+08,149.135,2,2.95555,29537.9,8486.28,-23280.6
1.27637e+08,20.7591,2,2.6341,1684.89,1764.09,-25233.4
1.28057e+08,37.1742,0,2.59835,4939.29,-4199.95,-24285
1.28505e+08,16.5794,2,2.81677,1663.68,-3083.02,-28371
1.28519e+08,55.765,2,2.36513,-60.6519,-11846.2,-27599
1.28606e+08,83.0118,1,3.01863,3455.5,831.621,-29835.4
1.28672e+08,10.3066,0,2.74742,1366.35,315.784,-27113.3
0,10.256,0,2.57585,0,0,0
1.28926e+08,151.482,0,2.93617,6960.42,-3025.27,-20959.6
1.29055e+08,24.5185,1,2.97677,774.977,3436.18,-25010.6
1.29088e+08,24.6128,2,2.53068,492.493,-3908.17,-25358
1.29255e+08,214.88,1,2.4969,-26724.1,16962.3,3818.91
1.2962e+08,38.2041,1,2.59202,-311.588,7177.02,-24956.8
1.3003e+08,47.2349,0,2.60839,-9386.51,2655.14,-26989.3
1.30454e+08,184.12,0,2.83339,15882.4,6877.81,5816.9
1.30655e+08,88.1247,1,3.03955,1476.51,10259.7,-13513.1
1.30692e+08,48.2856,0,2.55089,7780.34,6708.16,-29680.2
1.3079e+08,99.9672,1,2.73381,-17697,-4540.57,-18337.9
1.30825e+08,51.2685,0,2.53981,-62.193,5907.43,-19743.3
1.31013e+08,8.08067,0,3.03158,1467.43,-309.351,-27860.3
0,8.50043,1,2.37026,0,0,0
0,8.12902,0,2.80045,0,0,0
1.31043e+08,18.5695,1,2.83624,-2112.39,2014.66,-26143.7
1.31353e+08,268.877,1,2.72784,-1216.07,-20422.9,17178.3
1.31446e+08,94.5908,1,2.38176,-13394.5,12847,-21085.2
1.31521e+08,30.0099,2,2.5574,1617.54,3060.12,-23539.9
1.31743e+08,27.6253,1,2.86561,-4490.36,-243.322,-25081.1
1.32077e+08,103.521,2,2.78897,1462.69,20009.6,-20478.8
1.32193e+08,70.1183,2,2.59731,-10294.1,-4850.51,-19283.5
1.32313e+08,113.898,2,2.52721,-12272,10879.5,-12127.4
1.32313e+08,132.719,0,2.51118,22222.2,-5473.3,-16103.1
1.3249e+08,21.9524,1,2.61974,2530.33,3198.54,-26512.2
1.32763e+08,170.109,1,2.81158,-19468.8,-19946,-6391.29
1.32772e+08,90.2802,1,2.90535,-11324.3,12766.6,-20396.3
1.32795e+08,71.3401,1,2.78312,5866.99,-3029.98,-15364.3
1.32852e+08,4.13811,0,2.73221,288.536,-66.597,-27974.1
0,4.11389,0,2.50057,0,0,0
1.33007e+08,82.2423,0,2.51777,3211.81,-14990,-20550.8
1.33342e+08,41.2555,2,2.9352,-3762.06,1607.21,-21172.2
1.33672e+08,173.056,2,2.81282,-25586,-19404.1,-11523.6
1.33766e+08,35.7229,1,2.61411,-5778.42,-3235.72,-25183.2
1.3418e+08,176.628,1,2.95373,-29883.8,-13101.5,-11231.9
1.34226e+08,37.714,1,3.03216,1261.8,6418.8,-24333.3
1.34248e+08,98.6643,2,2.48796,-7706.88,18579.2,-23368.4
1.34359e+08,10.3312,0,2.54521,2102.78,680.084,-28300.8
1.34391e+08,23.5225,1,2.62241,-2902.55,-2055.95,-25363.8
1.34551e+08,62.0331,1,2.67131,-9396.87,5446.18,-21416.5
1.34915e+08,190.955,1,2.59445,17891.1,-16501.8,3053.31
1.35164e+08,53.7852,2,2.99466,10335.2,2321.3,-25067.2
1.35329e+08,119.625,2,2.87126,-11075,3742.79,-6556.74
1.35379e+08,63.1366,1,2.93125,5370.94,4519.48,-17567.2
1.35471e+08,238.835,2,2.77525,-22733.5,-23668.2,9271.09
1.35499e+08,40.6007,1,2.54576,-3263.04,7592.59,-26252.6
1.35822e+08,41.5901,0,2.96111,1883.68,-7222.23,-24243.4
1.35964e+08,131.125,2,2.84262,-7871.77,25816.6,-23409.8
1.36235e+08,135.84,2,2.72859,-19222.7,-13646.2,-12482.6
1.36303e+08,213.21,0,2.81409,22636.3,-7105.52,9266.46
1.36363e+08,77.0377,2,2.92938,4165.19,-14148.8,-22052.6
1.37029e+08,110.429,1,3.03572,7208.32,-21103.5,-22893.1
1.37196e+08,158.92,0,2.46288,6393.25,-1938.68,-16590.7
1.3791e+08,4.67233,0,2.65493,672.528,-711.527,-29294.5
1.38057e+08,86.9066,0,2.89151,10704,9102.69,-17083.8
1.38069e+08,11.8985,1,2.60555,-526.394,-1727.85,-27141
1.38091e+08,123.25,1,2.46354,-10222.5,6530,-5722.05
1.38157e+08,256.902,0,2.63579,-29584.3,27839.7,7017.86
1.38527e+08,158.076,2,2.54107,8691.11,-24353.7,-7582.89
1.38851e+08,14.7157,1,2.72441,-2229.48,2309.79,-28817.1
1.38928e+08,59.7447,2,2.61293,3584.42,-11756.8,-25676
1.38996e+08,87.6902,1,2.9198,-13452.5,12651.9,-27580.3
1.39561e+08,88.9355,1,2.99652,-13534.7,12487.5,-25494.2
1.39892e+08,92.0797,1,2.82565,-9544.38,-9645.32,-15020.2
1.39979e+08,51.159,2,2.82071,-8467.82,-5420.86,-24837.9
1.40045e+08,158.933,2,2.82729,-717.14,-17779.3,-496.629
1.40062e+08,28.0908,2,2.99852,-3566.24,-1661.87,-24391.3
1.40069e+08,90.0375,1,2.55984,11666.1,14765.5,-25752.4
1.40391e+08,67.1475,2,3.0316,-1846.44,-11756.8,-21823.4
1.40738e+08,42.6149,2,3.03631,8887.6,-385.385,-28278.4
1.41023e+08,5.05385,1,2.80363,-185.852,1063.83,-29317.8
1.41222e+08,17.5266,1,2.83737,-1289.98,2890.6,-26794.7
0,17.5554,1,2.87554,0,0,0
1.41422e+08,186.025,0,2.49641,24390.4,20808.3,-9998.13
1.41668e+08,10.6467,0,2.51962,1524.72,-1772.15,-28654.7
1.41752e+08,25.9032,2,2.52631,-3278.17,-4400.68,-27786.9
1.41815e+08,23.2225,2,2.68988,2928.78,-3019.29,-26258.6
1.41845e+08,210.692,2,2.69855,18368.4,-16075.8,8288.49
1.42011e+08,42.4734,2,2.69974,3366.23,5982.36,-23143.5
1.42075e+08,20.3783,2,2.40876,2864.67,1219.87,-25912.5
1.42222e+08,79.2038,2,2.45203,-12892.9,-6337.88,-20087.7
1.42385e+08,47.5009,1,2.98115,1772.97,8200.27,-23334
1.42818e+08,55.1565,1,2.72681,-4721.14,7717.29,-21420.8
1.42847e+08,49.8913,0,2.71839,570.01,7301.98,-21260.3
1.42958e+08,85.3087,0,2.95985,13360.5,-4821.22,-17884.8
1.43333e+08,7.46799,1,2.8384,-1230.93,-881.633,-28353.1
1.4383e+08,14.994,0,2.90701,-1858.53,-1805.67,-27097.6
1.43942e+08,152.235,2,2.8653,-2824.59,-1805.57,-28051.6
1.44501e+08,15.2737,2,2.45615,1736.23,-211.524,-26116.3
1.44504e+08,19.3629,0,2.38725,3943.93,80.2049,-27373.2
1.44666e+08,129.823,0,2.97365,-16154.1,-16902.3,-15396.9
1.4509e+08,137.618,2,2.89017,-19567.2,-19884.5,-20901.7
1.45588e+08,90.0739,1,2.54262,-15666.1,-2973.73,-18354.6
1.45682e+08,92.537,0,3.01568,7974.87,8553.6,-13349.8
1.45796e+08,21.0937,2,2.47557,2437.2,-3796.02,-28351.3
1.45856e+08,13.5678,0,2.56087,184.485,-2885.65,-28960.9
1.45887e+08,207.639,1,2.92885,-20406.9,-9678.85,8453.06
1.45928e+08,92.5516,0,2.7797,5851.55,3797.37,-10617.1
1.46187e+08,183.24,1,2.56516,-14235.8,27249.1,-5172.74
1.46267e+08,103.352,0,2.71535,-17475.4,-12460.6,-25501.8
1.46597e+08,25.7355,2,2.99154,1387.81,-5262.83,-29404.5
1.46617e+08,2.80393,1,2.38795,97.0638,648.568,-29061.5
1.4664e+08,22.4001,0,2.3661,4283.76,2080.34,-28031.6
1.47143e+08,103.203,2,2.85637,-14381.6,-13501.6,-19590.4
1.47287e+08,3.26773,0,2.96694,737.835,-52.3719,-28557.9
1.47909e+08,50.1215,2,2.9387,-5419.94,-5374.82,-21506.7
1.47918e+08,130.443,1,2.45685,27185.7,4541.14,-27863
1.4795e+08,73.3467,0,2.50743,-5288.99,8615.91,-17129.9
1.48058e+08,80.3242,0,2.78818,10944.6,-12663.5,-26010.8
1.48085e+08,116.117,1,2.37983,7166.78,-12823.2,-13695
1.48356e+08,29.7405,2,2.54429,3452.58,-3707.37,-25093.2
1.48385e+08,134.741,0,2.39736,-15381.6,2664.65,-5039.38
1.48717e+08,267.744,2,2.66545,23919.4,10661.5,2957.24
1.48825e+08,22.6839,0,2.77172,4883.16,249.291,-29157
1.48947e+08,59.8078,0,2.99678,3372.2,-10985.6,-23727.9
1.48962e+08,23.4364,0,2.88581,-3104.56,-2230.95,-25777.2
1.4898e+08,70.6783,0,2.70028,-3992.69,-8287.48,-17118.4
1.49175e+08,85.5346,2,2.50313,5634.24,-11521.3,-23888.7
1.49318e+08,17.598,0,2.86482,-222.034,2480.01,-26083.8
1.49523e+08,45.3449,0,2.89789,9533.09,-59.1166,-27518.1
1.49585e+08,24.6632,0,2.97727,5092.64,-1332.11,-28776.7
1.49775e+08,163.416,2,2.87231,5990.74,-19342.9,-6214.13
1.50254e+08,24.7628,1,2.5376,-5132.1,-1232.77,-29050.8
1.50831e+08,13.9653,0,2.62671,784.517,1196.27,-26224.3
1.50843e+08,8.37262,1,2.65644,243.745,1648.96,-29641.8
1.5095e+08,4.13144,0,2.57136,990.309,74.5776,-28846.4
1.5102e+08,38.1145,1,2.7595,6662.52,-2275.81,-25293.5
1.51039e+08,11.607,1,2.45542,-97.1127,2461.69,-28217.9
1.51159e+08,62.3071,2,2.37017,-9081.28,-4143.21,-20119.4
1.51215e+08,151.124,0,2.37907,-8453.49,-4706.26,-6118.83
1.51535e+08,12.8826,2,2.90185,-1384.06,-1964.89,-27393.1
1.51536e+08,2.76801,1,2.5246,-216.473,581.82,-28560.4
1.51548e+08,75.4535,1,2.80911,5953.54,13495.6,-22964.1
1.52151e+08,9.2124,2,2.73338,-1641.04,204.848,-27740.2
1.52306e+08,127.032,1,2.93459,-11104.4,15469.2,-10075.5
1.52485e+08,141.449,2,2.49965,7208.77,-28767.5,-24430.6
1.52541e+08,50.6473,2,2.93559,9699.56,2557.95,-25450.4
1.5294e+08,117.853,0,2.53113,-4152.81,7890.99,-25812.9
1.52968e+08,13.5855,0,2.47444,1775.42,2278.1,-28176.3
1.5323e+08,7.76002,2,2.524,-551.126,-1612.97,-29184.7
1.5325e+08,142.586,2,2.64626,17350.1,-17023,-11043.8
1.53313e+08,116.054,2,2.76793,372.744,-193.432,-27872.7
1.5333e+08,49.1254,1,2.55689,6068.04,-222.004,-20411.3
1.5352e+08,99.7908,0,2.76134,20067.2,-6374.09,-27265
1.53756e+08,11.7778,2,2.67653,-712.73,-2469.08,-29157.6
1.54428e+08,15.0419,2,2.44682,-863.814,2140.44,-26686.6
1.54612e+08,38.1353,1,2.91856,3697.85,7105.23,-27996
1.54643e+08,74.4748,0,2.8484,-287.503,8805.62,-15887.9
1.54924e+08,106.673,0,2.81174,15865.8,9230.27,-15818.5
1.55054e+08,199.495,0,2.46465,18272,25834,-14213.5
1.55175e+08,23.2943,1,2.85488,-4508.58,-1680.05,-29834
1.55178e+08,145.711,2,2.91811,-23572.1,-2560.6,-9424.36
1.55353e+08,4.90158,0,3.0284,197.374,-768.285,-28112
1.55718e+08,24.2174,2,2.89471,-3645.1,398.39,-25297.5
1.55894e+08,91.5078,0,2.81554,10144.4,11748.2,-17373.9
1.55969e+08,29.7914,1,2.72538,-1029.85,-3977.51,-24158.1
1.5608e+08,70.4277,0,2.9263,-590.249,11233.8,-20109.2
1.56145e+08,96.1079,0,2.69103,12329.7,-9109.63,-15481.6
1.56478e+08,106.687,2,2.75175,-17489.5,-4905.63,-15507.5
1.56931e+08,5.93189,1,2.45238,-1248.25,269.291,-28510.6
1.57267e+08,28.1507,2,2.5135,-5939.2,506.93,-28291.8
1.57367e+08,16.1166,1,2.96783,-1991.54,2790.44,-28293.6
1.57756e+08,58.6358,1,2.53871,-11974,-3258.39,-29524.6
1.57929e+08,9.31727,2,2.98137,1335.27,-664.951,-27537
0,9.33158,2,2.64359,0,0,0
1.58395e+08,34.908,2,2.53574,1045.56,-6783.68,-25891.6
1.58424e+08,16.5533,2,2.39584,-3425.02,-1097.64,-28854.8
1.58467e+08,46.2826,0,2.97489,432.209,8309.21,-23802.8
1.58523e+08,171.585,2,2.46227,16045.4,17143.5,-1241.4
1.5874e+08,129.075,0,2.46001,-17232.8,13763,-12802.3
1.58977e+08,16.1579,2,2.79168,1268.77,-1399.32,-25969.1
1.59112e+08,122.148,2,2.74002,12697.8,-5463.15,-8455.41
1.59264e+08,108.934,2,2.42428,8797.76,-4302.79,-7967.56
1.5951e+08,234.117,0,2.6858,21549.4,-16495,12434
1.59736e+08,31.1637,2,3.0454,-4337.82,1675.39,-24199
1.60163e+08,58.8884,2,2.64214,-11833.8,-2189.71,-25430.4
1.60301e+08,76.7495,2,2.88962,10699.2,-12006.2,-27300.1
1.60351e+08,39.0144,1,2.7839,-7580.18,-3116.92,-27994.2
1.60431e+08,26.5278,1,2.75164,-4679.19,102.962,-25663.6
1.60736e+08,83.7351,0,2.67381,-11107.1,850.691,-15186.7
1.60812e+08,45.6299,2,2.56148,157.165,5008.14,-20638.2
1.60919e+08,21.1421,0,2.50621,-1815.34,-4074.88,-28745.2
1.61034e+08,7.55757,2,2.72892,-634.896,-578.36,-27440.5
1.61104e+08,42.0571,1,2.47637,-5186.87,3626.36,-22476.7
1.61315e+08,52.6448,0,2.431,2598.44,-4265.76,-18868.6
1.6134e+08,31.8083,0,2.5596,-199.471,5979.6,-25753.5
1.61364e+08,91.0139,1,2.37122,-10862.2,14134.1,-21276.5
1.61387e+08,39.7758,2,2.81376,-6936.41,-4277.61,-26633.7
1.61779e+08,19.7274,0,2.74213,3992.1,1449.5,-28503.4
1.62285e+08,74.9602,2,2.91052,10925.9,-2060.32,-17689.8
1.62333e+08,8.42737,2,2.60281,527.43,-519.361,-27197.4
1.62427e+08,150.781,1,2.62464,-4461.54,2112.52,-27308
1.62449e+08,71.9564,0,2.98838,-5381.41,5761.37,-16669.6
1.62691e+08,28.1907,1,2.84259,-2687.46,43.624,-23507.6
1.62964e+08,198.196,2,2.67269,-21055,27978,-6039.8
1.63078e+08,45.9163,2,2.50499,-5619.97,-5728.74,-23217.5
1.63212e+08,125.316,1,2.89083,-8958,20033.1,-14162
1.63238e+08,66.6838,0,2.61974,-5460.66,-12961.3,-29079
1.63811e+08,172.65,2,2.79582,15915,-13307.1,1012.64
1.64784e+08,13.4811,0,2.68072,1235.85,-1380.43,-26601
1.6495e+08,42.3778,0,2.78535,8730.72,1815.94,-27648.5
1.65226e+08,21.032,1,2.94273,-1800.66,4088.6,-28383.9
1.65361e+08,4.96063,2,2.65881,277.963,-217.111,-27836.3
1.65566e+08,80.5033,1,2.66964,-10145,9828.88,-19257
1.65977e+08,113.914,2,2.93148,-12294.8,-2909.53,-8514.09
1.66151e+08,220.083,0,2.40595,21531,16674.3,8990.6
1.66342e+08,27.5189,0,2.82228,3675.93,-205.314,-24288.8
1.66366e+08,54.3181,2,2.68517,-1169.38,10503.1,-24557.7
1.66424e+08,35.7338,2,2.96877,-3722.11,1472.92,-22459.4
1.66432e+08,72.0433,0,2.56086,-8767.23,-6188.76,-18082.4
1.67237e+08,134.295,0,2.45477,14751.8,2970.57,-4715.88
1.67241e+08,47.5187,2,2.47171,-120.582,-5769.32,-20536.5
1.67356e+08,36.2516,1,2.72449,-672.164,-5016.33,-23535.4
1.67487e+08,21.193,0,2.86533,-1866.48,3560.92,-26922.1
1.67823e+08,19.2154,1,2.51976,2520.72,-2253.17,-26643.3
1.68042e+08,127.46,2,2.94957,-19119.3,13815.1,-16231
1.68103e+08,76.4992,1,2.61211,-1291.45,9161.77,-15536.5
1.68343e+08,7.27742,1,2.7183,-1518.93,-181.536,-28350.4
1.68745e+08,68.4675,0,2.97475,1760.72,-3869.21,-24913.5
1.69157e+08,202.889,2,2.9822,-3158.88,7343.41,-21628.1
1.69216e+08,62.7477,1,2.66205,11220.9,109.645,-29298.6
1.69419e+08,107.961,0,2.73821,-14208,-9804.37,-14078.7
1.69447e+08,18.1103,1,2.83156,254.739,2902.18,-26278.8
1.70237e+08,227.164,0,2.855,3779.51,-7152.9,-26321.3
1.70312e+08,168.923,2,2.45344,5507.85,-20782.8,-14980.9
1.70771e+08,18.736,2,2.82913,2232.64,-3254.38,-29589.4
1.70927e+08,131.623,1,2.70233,17133.1,-13385.2,-11698.5
1.71359e+08,31.9561,0,2.76014,6500.78,-2056.06,-28241.2
1.71679e+08,10.043,0,2.40159,1395.72,-1245.85,-27680.7
1.72238e+08,64.2126,1,2.79637,9871.69,5041.33,-21070.8
1.7254e+08,105.819,1,2.39017,-14675.4,-10599.2,-16119.7
1.72834e+08,41.4488,2,2.45541,7754.08,3516.97,-26892
1.73151e+08,4.83775,1,2.94001,-860.63,730.947,-28980.3
1.73529e+08,103.226,2,2.79046,12108.4,-11557.2,-14987.7
1.73601e+08,45.1733,1,2.56789,2888.22,7763.2,-23952.8
1.73788e+08,10.177,1,2.99688,-1240.56,-1067.17,-27442.4
1.74091e+08,12.9204,1,2.86154,2315.07,1455.8,-28871.2
1.74258e+08,67.7602,0,2.83801,-12413.2,1692.26,-22154.5
1.74987e+08,86.6357,0,2.40346,682.009,-14928.9,-18185.6
1.75354e+08,187.225,1,2.53229,13610.2,-26725.6,-3104.33
1.7566e+08,26.6037,1,2.93186,3068.48,4541.29,-27498.1
1.75917e+08,165.637,1,2.78877,6058.23,-25015.4,-20422.9
1.76071e+08,131.927,2,2.47651,-26176.9,9503.6,-26531.3
1.76345e+08,142.165,2,2.76203,-24264.1,2200.56,-11396.4
1.76903e+08,173.388,2,3.03782,6976.83,28837.8,-8008.69
1.76998e+08,39.0436,1,2.89289,-1443.34,3832.62,-24615.7
1.7707e+08,128.201,0,2.77468,19016.9,-9717.43,-12213.9
1.7732e+08,36.7698,0,2.90078,3130.55,-4826.76,-23593.2
1.77335e+08,18.0698,2,2.51784,-224.943,-3834,-28002.7
1.77466e+08,27.7159,0,2.5759,-597.73,2474.54,-23547.9
1.77565e+08,88.4515,0,2.60837,-4646.83,-13209.3,-16481.4
1.78451e+08,109.171,1,2.47962,-8416.01,-21310.9,-26289
1.78456e+08,31.8266,2,3.0525,1795.24,3143,-23264.5
1.7863e+08,155.217,2,2.73267,24602.6,3284,-7614.88
1.78883e+08,4.92981,1,2.7345,-1090.17,159.899,-29055.5
1.79304e+08,98.3683,2,2.58372,3952.93,-13890.7,-13815.2
1.79369e+08,84.5538,0,2.87834,8720.66,15453.2,-27028.1
1.79424e+08,141.845,2,2.83975,-14423.2,-25301.5,-22030.2
1.80091e+08,111.907,1,2.75157,10697.9,5836.86,-8652.53
1.80165e+08,247.843,2,2.39274,-23603.6,26739.7,9506.95
1.80265e+08,137.504,2,2.49838,14252.8,-23823.5,-20001.5
1.80294e+08,27.7268,0,3.04404,2338.84,-138.277,-23463.7
1.80438e+08,140.407,0,2.88982,185.7,19223.6,-6466.19
1.80516e+08,58.2195,2,2.95178,-7599.35,698.565,-19287.6
1.80806e+08,13.5227,1,2.63541,-1702.34,-367.076,-26520
1.81522e+08,5.88638,0,2.61957,804.562,-878.125,-28290.3
0,5.86916,0,2.56875,0,0,0
1.82792e+08,22.7087,2,2.70942,1165.88,3350.18,-25664.5
1.83242e+08,132.159,0,2.85018,13824.8,-12617.7,-8240.35
1.83436e+08,50.7999,0,2.65868,9975.87,4206.81,-29078
1.83544e+08,52.3342,0,2.58733,10763.1,675.761,-25943.5
1.83563e+08,71.6876,1,2.82152,-7797.21,-4539.56,-16737.3
1.83572e+08,20.4372,0,2.81849,1245.78,3592.31,-26719.2
1.83575e+08,38.5149,0,2.89791,-6648.95,-136.397,-24305.8
1.83581e+08,124.833,0,2.67433,23197.6,5467.56,-17446.5
1.83681e+08,10.2079,2,2.663,878.214,-1180.11,-27197.9
1.8381e+08,137.186,1,2.56966,28454.6,5384.89,-28968.9
1.84267e+08,108.722,1,2.46507,6062.41,11247.4,-9672.07
1.84737e+08,23.3983,1,2.88345,2025.62,2647.1,-25168.7
1.85111e+08,157.229,2,2.55672,-14033.5,-16652.1,-3672.11
1.85218e+08,39.0578,2,2.49867,-4672.33,-6616.11,-26751.8
1.85861e+08,97.9299,1,2.85461,20458,-1496.72,-27647.2
1.86844e+08,69.6755,1,2.71716,-6916.81,-1958.05,-16009.3
1.86931e+08,11.4349,1,2.58468,-1074.71,869.537,-26781.9
1.87171e+08,2.86142,1,2.61143,-600.966,135.439,-28550.2
1.8719e+08,121.194,0,2.97247,1499.08,-25345.8,-29743.8
1.87276e+08,63.5263,1,2.48709,6328.61,11553.9,-25940.1
1.87818e+08,13.1758,0,2.99463,-2031.17,-503.148,-27085.7
1.8802e+08,107.396,1,2.90967,-12520.1,18775.2,-26865.9
1.88124e+08,111.372,0,3.05071,19170.5,-9661.29,-21404.6
1.88161e+08,5.029,1,3.04704,255.207,1108.35,-29004.2
1.88336e+08,46.891,0,2.92438,835.216,-7430.43,-22393
1.88382e+08,263.405,1,2.51079,1238.91,26300.2,19968.7
1.8848e+08,45.01,0,2.9581,7152.22,-5061.13,-25094.8
1.88996e+08,121.193,1,2.52266,4130.11,22595.8,-17317.5
1.8922e+08,27.9509,1,2.70693,-2117.44,4073.89,-25001.8
1.89291e+08,126.57,1,2.97652,1459,25068.5,-19968.1
1.89362e+08,47.2289,1,2.8177,-6457.2,3703.44,-22174.3
1.89407e+08,58.0097,2,2.90447,-8368.8,8850.12,-29009.8
1.89568e+08,13.4821,0,2.71359,817.145,-2746.23,-28364.6
1.89748e+08,118.105,0,2.86267,24395.4,-4545.87,-26437.7
1.89788e+08,35.8506,2,2.78286,-1608.77,5493.03,-23937.5
1.89936e+08,9.04689,0,2.86013,1136.16,1595.08,-29070.3
1.90122e+08,2.78825,2,2.79203,-587.642,-363.14,-28873.2
1.90259e+08,10.5644,0,2.91946,1848.64,-739.033,-27665.9
1.90262e+08,65.7485,1,2.51094,-9246.83,-9474.45,-24635.1
1.90793e+08,2.62833,0,2.66677,224.418,553.494,-28722.3
1.9106e+08,148.087,1,2.83792,-17820.7,-20544.7,-13690.9
1.9108e+08,16.4142,2,3.01326,1705.09,-2921.37,-29731
1.91314e+08,18.0425,1,2.74651,2599.88,1435.09,-26427.2
1.91499e+08,43.919,2,2.48263,-114.471,-6802.27,-22413.3
1.92274e+08,10.1627,2,3.02627,-779.3,-1939.8,-28080.8
1.92759e+08,85.3848,2,2.42194,-5976.87,3446.91,-15090.2
1.92802e+08,236.709,0,2.37752,20072.7,-9668.98,16039.3
1.92813e+08,1.28941,1,2.73542,-224.717,298.361,-28754.6
0,1.32913,1,3.02048,0,0,0
1.93332e+08,139.903,0,2.38455,7103.1,15867.6,-4843.61
1.9373e+08,52.6063,1,2.77231,-4297.19,-5334.92,-20126
1.93974e+08,206.86,1,2.93861,-15420.6,13411.8,9501.16
1.94024e+08,75.8379,2,2.42374,11690.1,3995.69,-18644.6
1.94113e+08,48.0217,0,2.62456,9350.37,2314.8,-25417.4
1.94241e+08,41.0914,0,2.45141,-5816.14,2422.39,-22899.9
1.9433e+08,32.8174,1,2.82497,-5736.9,3378.69,-26808.1
1.94771e+08,111.746,1,2.79263,3114.49,15484.8,-11350.6
1.95031e+08,33.7965,0,2.78114,969.79,-6368.67,-25737.4
1.95131e+08,172.111,2,2.64046,-21426.1,22767.8,-10423.8
1.95368e+08,67.1241,2,2.79758,-9301.29,-8295.97,-22039.1
1.9562e+08,47.4281,0,2.41128,4339.81,8575.27,-25736
1.96135e+08,13.3293,2,3.05952,2718.28,-608.157,-29035.6
1.96187e+08,40.6071,0,2.59008,-4922.25,-213.118,-21879.2
1.96359e+08,3.50282,2,2.72307,42.0165,-476.495,-28228.5
1.96509e+08,57.8632,1,2.38353,3573.41,-11017.4,-25064.7
1.96879e+08,66.6373,0,2.4587,8876.54,-559.058,-17821.3
1.97012e+08,9.59592,2,3.02703,-1863.03,-552.198,-29574.1
1.9718e+08,54.6929,1,2.75856,-8716.34,4261.94,-22477.4
1.97372e+08,111.198,0,2.84227,-16446.8,-8333.14,-14553.8
1.97559e+08,38.8513,0,2.99867,2199.74,-7329.12,-25989
1.97625e+08,26.6434,1,2.41917,-3995.96,-3894.37,-28104.9
1.97629e+08,73.5836,0,2.70479,15577.8,-116.248,-29894.7
1.97687e+08,67.9851,1,3.03803,2699.47,8101.45,-17411.1
1.97766e+08,87.9789,0,2.81138,-9697.76,14747,-25587.7
1.98561e+08,93.4957,0,2.94477,11235.5,2843.83,-12929.3
1.98587e+08,19.6939,0,2.84019,3756.56,-1653.45,-27750.5
1.98741e+08,39.8602,2,2.68363,-1923.45,-7535.4,-25398.9
1.99218e+08,31.7961,0,2.98381,4391.05,1195.93,-23866.4
1.99258e+08,96.3998,2,2.9126,-17296.6,-1607.75,-18332.6
1.99262e+08,32.0691,0,2.61018,4436.67,3820.61,-25288.8
1.99373e+08,154.381,0,2.60047,-19585.7,-2963.24,-16059.7
1.99433e+08,37.6893,2,2.58086,-2025.42,-7712.71,-27669.2
1.99517e+08,113.248,0,3.01422,-10835.8,-19691,-21271.5
1.99674e+08,2.7237,2,2.3826,369.652,-447.83,-28665
1.99789e+08,14.2461,1,3.00536,-2023.85,2284.62,-29282.3
1.99837e+08,22.4309,1,2.62289,-2953.05,1782.2,-27285
2.00276e+08,5.46562,0,2.65222,419.815,-785.575,-28074
2.00543e+08,2.04535,0,2.52091,-80.9727,-435.161,-28854.9
2.00862e+08,41.7415,0,2.62099,-3395.94,7008.27,-24714.5
2.00903e+08,111.985,0,2.68416,8848.46,-18811.2,-17587.3
2.01112e+08,60.6221,2,2.87381,-11476.3,-5580.9,-27511.1
2.01609e+08,142.797,2,2.61515,18043.1,-23493.3,-23041.8
2.01814e+08,0.452097,1,2.95904,56.5385,152.961,-28843.6
0,0.415246,1,3.57023,0,0,0
2.0193e+08,63.8087,0,2.88156,3237.27,8470.27,-18900.6
2.0213e+08,58.1925,2,2.71129,-6871.61,9856.06,-26541.4
2.02139e+08,144.032,2,2.52385,-26102.6,-1060.75,-19264.1
2.02268e+08,115.778,2,2.69317,10025.5,-20401,-19780
2.02572e+08,72.8533,2,2.53852,-13736.7,5058.08,-23906.6
2.028e+08,49.888,0,2.43773,984.684,10273.8,-26628.8
2.02811e+08,36.0584,1,2.82792,-3663.54,-1021.35,-22266
2.0282e+08,36.5969,0,2.96711,-3005.24,3052.77,-22524.5
2.02903e+08,115.429,2,2.47482,4402.7,11550.4,-7834.01
2.02976e+08,76.912,1,2.52641,-6624.4,12201.6,-20201.7
2.03085e+08,50.4036,1,2.68418,-7495.51,-1052.3,-22295.1
2.03318e+08,104.756,2,2.4389,-8356.39,17242.4,-26302.3
2.03381e+08,26.3323,1,2.67332,2081.87,4865.56,-26965.5
2.03455e+08,67.1811,0,2.38386,12743.4,-3537.79,-23409.7
2.03608e+08,172.836,2,2.54847,26876,-5635.79,-4750.95
2.03709e+08,144.1,2,2.42745,4519.33,-13442.3,-1821.15
2.03851e+08,122.344,1,2.83954,-9799.5,17345.1,-12558.9
2.04064e+08,70.5133,1,2.4051,67.0851,14340.2,-24419.8
2.04258e+08,202.732,2,2.50611,26578.7,-29226.4,-12117.5
2.04284e+08,78.5562,0,2.85532,12486.1,7399.06,-20804.8
2.04424e+08,11.1136,1,2.80471,-2002.21,-1056.21,-29565.8
2.04988e+08,26.1752,2,2.48411,-3496.75,3230.03,-25974.9
2.05315e+08,49.5064,2,2.72002,185.657,7185.72,-21324.2
2.05351e+08,259.76,0,2.77709,-25189.5,6429.22,19220.4
2.05397e+08,44.8392,2,2.66676,1999.45,8635.79,-25715
2.05428e+08,137.064,0,2.61115,16549.7,-16383.6,-11541.4
2.05672e+08,15.1234,1,2.88463,-3136.38,-747.643,-28595.8
2.0571e+08,142.615,2,2.81327,-2257.39,-15597.2,-3249
2.06115e+08,5.23896,2,2.92584,-549.787,-1035.07,-29195.5
2.0623e+08,38.9357,2,2.74858,6288.84,-5306.15,-29067
2.06269e+08,93.2556,1,2.91596,14478.6,1913.31,-15821.7
2.06811e+08,4.2196,1,2.99522,-762.562,-86.9157,-29376.2
2.06818e+08,97.3229,2,2.45913,1909.43,-17591.6,-18199.4
2.07023e+08,54.5976,1,2.90935,-8900.39,5950.64,-24469.1
2.07044e+08,49.5727,2,2.60767,5658.6,588.314,-20063.2
2.07641e+08,35.5626,2,2.73223,4437.15,-5051.61,-25429
2.07763e+08,4.1794,1,2.44312,523.934,22.7623,-28159.3
2.07783e+08,33.3661,0,2.79639,-506.984,6920.78,-29963.6
2.07936e+08,29.4182,0,2.37142,858.623,-6128.07,-27887.6
2.08158e+08,26.543,0,2.44361,-2772.87,1855.67,-24366.2
2.08165e+08,4.08806,2,2.39255,-415.522,-795.902,-29242.6
2.08252e+08,8.66728,1,2.63946,-1214.01,-510.634,-27550.6
2.08568e+08,98.6409,2,2.73085,-2682,-20664.7,-29786.1
2.08663e+08,84.2918,2,2.99564,17447.1,-378.718,-26206.2
2.08907e+08,30.3292,0,2.82894,-2321.41,-5383.81,-26373.4
2.09456e+08,82.006,1,2.53621,-16728.8,2877.88,-24993
2.0949e+08,20.4295,2,2.87081,-2299.96,-3737.71,-28614.4
2.09785e+08,23.7877,1,2.85668,-1487.92,4100.76,-26221.7
2.10026e+08,26.7981,1,2.4492,-4500.33,3567.03,-28291.3
2.10352e+08,178.883,1,2.52285,4388.72,739.494,-23255.7
2.10446e+08,56.6009,0,3.05187,2414.81,-9737.92,-22493
2.10458e+08,22.2115,1,2.77279,-3123.06,1909.44,-25806.8
2.10496e+08,181.148,0,2.43791,10633,-16558.9,4081.8
2.10561e+08,56.7202,1,2.82491,-7021.19,-9620.73,-28613.7
2.10594e+08,77.6355,0,2.91466,3536.09,-10535.4,-16853
2.10604e+08,7.60718,1,2.49259,-1388.13,700.24,-29488.9
2.10749e+08,37.3795,0,2.62392,3846.02,-1754.23,-22116.9
2.11036e+08,94.0741,1,2.56496,-13619.2,3840.71,-14833.3
2.11331e+08,43.2488,1,3.00298,-6217.89,6556.45,-27246
2.11543e+08,79.2576,1,2.79591,-1401.34,-15672,-23434.5
2.11834e+08,14.1308,1,2.88541,-1969.33,2089.29,-27734.2
2.11887e+08,196.36,0,2.88249,18422.8,27010.8,-3602.18
2.12131e+08,146.225,1,2.69913,25273.1,16287.3,-21995.6
2.13215e+08,101.777,1,2.9469,12324.5,7986.76,-13314.5
2.13226e+08,61.7332,0,2.73497,-8998.96,2156.26,-19736.8
2.13281e+08,100.693,1,3.03743,-18233.7,-10217,-25860.5
2.13491e+08,1.58382,1,2.51012,190.964,169.24,-28569.9
0,1.59125,1,2.79512,0,0,0
0,1.59737,1,3.00061,0,0,0
0,1.6662,1,2.57774,0,0,0
0,1.63102,1,2.98055,0,0,0
2.1364e+08,144.988,2,2.77197,-19723,-16227.2,-11998.1
2.13652e+08,54.4356,1,2.67393,-3998.45,10837.3,-27792.1
2.13678e+08,73.3747,1,2.64238,3464.26,14033.6,-23055.5
2.13839e+08,14.3782,2,2.45241,-1575.91,-2572.44,-29695
2.14029e+08,10.3211,0,2.42796,2150.14,-748.341,-28604.7
2.14061e+08,314.55,0,2.9636,27472.4,12559.3,29812
2.14373e+08,113.932,1,2.85547,-3912.78,-6925.52,-23873.4
2.14509e+08,32.2847,1,2.69828,-3464.8,4797.54,-28117.9
2.14716e+08,83.234,2,2.69222,-13590,11040,-27391.4
2.15172e+08,350.094,0,2.92759,-1201.81,-24633.9,-4228.54
2.15215e+08,6.46743,2,2.6936,-503.691,-639.102,-27666.8
2.1527e+08,64.9478,2,2.49466,1275.36,13408.7,-26413.1
2.15497e+08,137.47,2,2.93708,-24848.9,-14234.6,-25036.3
2.15811e+08,112.897,2,2.55452,-6511.76,17738.5,-14320
2.15838e+08,10.6154,2,2.50132,246.937,-1242.77,-26910.6
2.15951e+08,137.025,2,3.00579,11040,-23172.7,-15912.8
2.16113e+08,70.8408,0,2.77823,10572.1,-10308.3,-26225
2.16241e+08,66.8358,0,2.92689,6496.97,11994.8,-25302.5
2.16246e+08,5.90647,0,2.86097,888.108,560.48,-28049.4
2.16329e+08,284.369,0,2.76209,26534.6,990.414,24848.9
2.16411e+08,22.6624,2,2.69714,4030.6,289.799,-26343.2
2.16464e+08,77.8035,2,2.47916,-6704.62,-1906.03,-13891.1
2.16545e+08,100.971,1,2.50774,9115.95,16622.4,-18889.7
2.17345e+08,235.896,2,2.98448,15311.3,29491.4,7722.27
2.17415e+08,13.2559,0,2.49659,-1189.82,2257.73,-27695.5
0,13.2189,0,2.41409,0,0,0
2.17478e+08,11.5942,0,2.97827,-1661.19,863.071,-27363.7
2.17662e+08,140.872,2,2.91483,-13388,6174.74,-3197.24
2.18043e+08,70.2406,1,2.39384,-7030.4,13185.5,-29141.4
2.18086e+08,107.994,2,3.01921,-15649.9,-629.451,-14376
2.18135e+08,22.3106,0,2.51528,-2992.14,-1639.63,-25642.4
2.18279e+08,65.4236,1,2.9236,-8275.98,10597.1,-25549.9
2.18287e+08,170.836,0,2.79749,-7567.97,-29021.8,-9047.8
2.18387e+08,71.4421,0,2.93362,5089.84,-2688.18,-14966.8
2.18521e+08,30.5835,2,2.79587,-5378.47,2132.33,-25950.7
2.18658e+08,140.769,0,2.9265,20596.4,8500.13,-15075.1
2.18696e+08,300.814,2,2.7202,466.108,-178.513,-29526.5
2.18696e+08,68.5176,2,2.55732,13815.7,-3329.43,-26220.6
2.18835e+08,12.0836,0,2.71174,-274.756,-1745.06,-27010.5
2.19107e+08,16.9528,0,2.77501,-1357.28,-2631.39,-27086.6
2.1914e+08,101.481,0,2.56156,10882.8,7544.23,-27816.1
2.19345e+08,62.8154,0,2.76894,843.088,9213.59,-19384.4
2.19395e+08,28.7479,2,2.446,3500.36,-4926.25,-27747.8
2.19583e+08,89.4993,0,2.77902,14028.1,8646.94,-19870.3
2.19822e+08,134.099,2,2.75468,17024,-3028.22,-22116.1
2.20403e+08,20.1261,0,2.96571,-2014.65,-334.317,-25158.7
2.20917e+08,99.9205,2,2.48075,3204.22,-20404.5,-24097.7
2.2094e+08,28.7959,1,2.90076,-5553.83,2551.97,-28180.8
2.20996e+08,85.0859,0,2.57651,4555.05,-3981.1,-12017.5
2.21069e+08,97.9009,2,2.7377,-13607,-3344.67,-13667.2
2.21489e+08,89.0224,2,2.41857,-10878.2,181.139,-13411.9
2.21504e+08,15.3217,0,2.61465,636.032,2058.74,-26362.7
2.22025e+08,61.2313,1,2.72928,-9180.84,-8519.53,-25755.4
2.22331e+08,25.667,2,2.78551,-2240.82,-3507.91,-25253.1
2.22706e+08,35.0033,1,3.05495,6606.56,1921.43,-26273.4
2.2328e+08,5.93515,0,2.36394,788.727,982.785,-28379.9
2.23647e+08,166.081,0,2.52087,27733.4,-19248.8,-18941.3
2.24064e+08,167.207,2,2.62064,-23838.4,-23717.1,-17846.3
2.24378e+08,59.908,2,2.50754,-5453.31,11334.1,-27605.8
2.24756e+08,67.1052,0,3.0518,5386.41,11789.6,-23266.8
2.25224e+08,10.7555,1,2.7927,-205.939,1129.8,-26827.4
2.25291e+08,105.141,1,2.79707,-18438.9,-1572.24,-16625
2.25319e+08,68.1938,2,2.41729,-7593.57,515.225,-16537
2.26055e+08,4.96307,2,2.66821,-212.583,-1123.81,-28803.4
0,4.93258,2,2.5854,0,0,0
2.26071e+08,82.53,2,2.68315,11208.5,-11408.8,-21876.6
2.2608e+08,35.3327,0,3.04809,4849.61,-1695.64,-23419.2
2.26326e+08,25.0027,2,2.91161,-424.944,3498.93,-25009.9
2.26388e+08,15.8933,2,2.99084,-2321.58,-2251.45,-29956.4
2.26404e+08,88.3587,1,2.54603,9954.49,-720.813,-13055.1
2.2649e+08,78.9299,0,2.46366,13701.9,1278.53,-19232.7
2.27073e+08,58.9472,1,2.91587,-8120.87,379.209,-19438.2
2.27564e+08,31.6531,0,2.41509,-5976.22,-715.272,-26046.4
2.27699e+08,21.7513,1,2.79966,-1355.41,3503.31,-26061.2
2.27739e+08,25.9124,0,2.72169,4896.08,1394.18,-26633.1
2.27748e+08,12.6612,0,2.92257,2615.24,-830.707,-28975.3
2.28097e+08,3.77827,2,2.85345,-642.249,-647.541,-28855.7
2.28135e+08,49.5841,0,2.89025,7690.35,-2612.09,-22191
2.2814e+08,33.5189,0,3.00118,-1518.4,4317.35,-23507.3
2.28308e+08,55.5336,2,2.71443,2710.43,2226.98,-23451.9
2.28478e+08,16.9528,0,2.62498,1158.3,984.243,-25542.2
2.28567e+08,77.5224,2,2.73515,8463.89,-8394.91,-17614.4
2.28606e+08,61.3917,1,2.45002,-2582.11,-600.674,-16619.2
2.28746e+08,82.4051,0,2.68292,-1238.68,-9726.13,-14485.2
2.28783e+08,58.2763,2,2.78407,-6082.18,-4329.45,-19037.2
2.28797e+08,58.932,2,2.67571,568.218,-5727.88,-17763.4
2.28839e+08,6.4037,1,2.74303,1249.2,511.339,-28611
2.29024e+08,21.2719,2,2.40286,-4101.41,-1335.66,-27286.9
2.29085e+08,90.5291,2,2.72266,-2250.92,-18800.9,-25808.2
2.29359e+08,26.3004,0,2.51183,-2207.73,-4216.94,-25991.5
2.29552e+08,42.7712,0,2.48732,-704.391,8714.3,-26431.9
2.29612e+08,105.794,2,2.79108,-14462.9,-1131.55,-14323.6
2.29663e+08,69.8004,2,2.97426,251.821,-8605.56,-16928.5
2.30477e+08,13.0725,0,2.78337,-1166.41,-319.977,-26367.3
2.30557e+08,131.422,2,2.79707,5000.47,-18692.8,-10869.7
2.3072e+08,107.309,1,2.47185,15255.9,13951.6,-19434
2.30809e+08,169.428,0,2.5666,29535,-14166.3,-14183.3
2.3099e+08,56.6107,2,3.02691,-5989.38,1582.75,-18712.4
2.31148e+08,329.604,1,2.99763,24538.1,-2574.96,14797.6
2.31429e+08,124.314,0,2.38448,6363.93,-20654.7,-13783.6
2.31996e+08,14.6413,2,2.57891,2037.88,-2352.16,-29243
2.32006e+08,102.29,0,3.01542,10379.4,-13859.1,-17018.4
2.32194e+08,12.2818,2,2.36923,340.725,-2028.39,-27142.1
2.32241e+08,130.288,0,2.5514,15950.8,17006.1,-14057.3
2.3283e+08,110.733,0,2.46295,-14886.7,8018.31,-12698.9
2.32833e+08,134.519,2,3.05881,-2817.66,12592,-3833.67
2.32873e+08,12.6633,2,2.41862,-1025.26,-1388.33,-26707.3
2.32947e+08,96.3565,1,2.49168,-14795.5,-749.524,-14785.8
2.33219e+08,79.7398,1,2.89119,-2432.54,14069.2,-19926.8
2.33511e+08,173.798,2,2.77374,-21734.9,-7080.81,-222.317
2.33689e+08,145.182,2,2.88062,-27459.3,5526.57,-16639.5
2.33821e+08,42.8271,1,2.72809,7664.77,4734.82,-27901.1
2.34112e+08,135.78,2,2.95739,6483.5,-18061.9,-7764.37
2.34149e+08,98.9423,1,2.3901,-13616.1,-15719.1,-26419.7
2.34235e+08,140.951,0,3.04718,14633.3,-7284.57,-25636.5
2.35082e+08,1.0082,1,2.82947,-209.065,47.163,-28708.9
0,0.975045,1,2.6484,0,0,0
2.3514e+08,6.4606,1,2.39931,823.076,1122.2,-29155.8
0,6.46282,1,2.61322,0,0,0
2.3526e+08,83.4597,2,2.58328,11208.4,-13598.6,-27248.6
2.355e+08,7.37774,0,3.05974,692.041,20.4308,-27388.4
2.35637e+08,91.7462,2,2.72459,-3219.72,-1666.57,-25574.3
2.35893e+08,203.693,0,2.54123,-24440.8,13360.8,3927.26
2.35893e+08,47.7021,0,2.91292,741.615,-4825,-20093.7
2.36093e+08,361.1,0,2.78745,-13717.8,-5706.21,10002.5
2.36093e+08,228.775,0,2.70767,-24550.4,-5078.56,12312.1
2.36388e+08,32.6715,2,2.6747,-3897.74,2411.7,-23657
2.36523e+08,43.9695,2,2.74346,1821.81,-9116.43,-27739.8
2.36622e+08,60.1006,2,2.49687,1904.2,-10798.2,-22309.5
2.36653e+08,32.3148,2,2.66047,-5789.72,-3211.51,-26833.8
2.36795e+08,6.64778,2,2.52643,-639.355,-150.309,-27550.2
2.36961e+08,92.7699,0,2.66287,-11605.5,-6016.81,-14324.2
2.3699e+08,22.1205,2,2.7118,-1712.44,-4453.32,-29025.1
2.37012e+08,140.02,2,2.73098,-25217.5,-15477.1,-29583.5
2.37077e+08,52.2935,2,2.57623,-6030.98,4442.01,-20687.3
2.3723e+08,41.1034,0,3.036,-144.847,5631.59,-28961.8
2.37702e+08,215.401,1,2.69824,4460.92,13788.3,-19122.6
2.38322e+08,143.319,0,2.7497,2170.34,16917.4,-3922.77
2.38414e+08,11.4991,2,2.94996,1331.41,-2078.83,-28798.9
2.38708e+08,106.818,1,2.48836,-11563.9,18757.7,-23516.2
2.3899e+08,59.5589,2,2.83219,9876.43,6795.9,-25357.2
2.39282e+08,130.224,2,2.66823,-12514.7,-10403.1,-6661.24
2.39318e+08,76.1207,0,2.36211,14305.6,-3908.99,-22384.5
2.3943e+08,175.055,0,2.41393,24090.3,-9119.82,-2143.51
2.39487e+08,76.8752,2,2.77405,4600,-13944,-21862.6
2.3969e+08,20.3053,2,2.4876,-4282.84,42.9264,-29705.5
2.40214e+08,49.128,0,3.04898,4492.55,4021.63,-20538
2.40239e+08,21.922,1,3.04264,-2587.51,105.115,-25002.7
2.40535e+08,303.038,1,2.71385,-22447.4,-22049.4,26712.3
2.40567e+08,92.0212,1,2.89745,-12484.5,6001.33,-15265.9
2.40793e+08,114.264,1,2.57343,1554.05,16048.4,-10798.7
2.40912e+08,132.104,0,3.03821,22762.1,-15830.4,-27830.1
2.40945e+08,9.792,0,2.81273,2138.28,-269.061,-28589.8
2.41119e+08,19.8992,1,2.83911,-961.019,1749.43,-25108.4
2.41323e+08,100.313,0,3.05154,-5949.7,11281.9,-12159.2
2.41618e+08,115.42,0,2.73308,22372.8,2122.03,-19312
2.41713e+08,59.1492,2,2.40297,9787.67,2694.21,-21541.4
2.41773e+08,26.7482,1,2.37815,-1285.97,-4902.93,-26370.4
2.41773e+08,153.216,0,3.02638,27868.4,15954.5,-26694.3
2.42518e+08,135.465,0,2.83089,15669,-20716.2,-17035.3
2.42607e+08,78.4423,2,2.84373,4542.98,-13947.3,-21149.9
2.42626e+08,124.96,1,2.56772,-4834.36,-12271.6,-5971.82
2.42744e+08,37.5627,2,2.37446,-6087.11,-5217.05,-28995
2.42906e+08,3.59543,2,2.9055,-415.833,-586.445,-28394.7
2.42967e+08,149.611,2,2.72792,-23776.3,-20627.2,-25791.3
2.43197e+08,67.4999,1,2.6145,-13457.3,4807.79,-27547.6
2.43255e+08,86.2388,1,2.52834,9356.23,12500.1,-19355.6
2.43408e+08,94.6832,0,2.88672,15474,-4711.32,-17187.2
2.4344e+08,66.0851,1,2.61154,10333.1,-9123.71,-27132.6
2.43659e+08,49.5358,0,2.91438,9978.57,2560.56,-26775.2
2.43681e+08,13.1965,1,2.94725,-2195.01,-1645.6,-29386.4
2.43857e+08,20.1385,0,2.70946,3944,-1165.81,-28442
2.44266e+08,151.664,1,2.80789,-19172.8,16298.7,-9775.6
2.44779e+08,63.7799,2,2.62802,-9256.21,8758.5,-24496.4
2.44984e+08,17.1496,2,2.6356,-1935.22,-1112.55,-25899.2
2.45034e+08,141.671,1,2.69366,-17721.3,24056,-26656.3
2.45397e+08,122.327,2,3.0467,-25446.2,3428.2,-28496.9
2.4549e+08,65.765,1,2.75793,-8482.07,-9465.3,-23333
2.45851e+08,22.0912,1,2.55302,-1046.33,1797.11,-24598.8
2.45932e+08,31.9376,0,2.73117,3930.89,3619.86,-24632.4
2.46004e+08,114.981,2,2.87241,18364,-7375.09,-17178.3
2.46056e+08,11.0791,0,2.38967,-1741.61,-145.661,-27323.9
2.46147e+08,74.1153,1,2.73172,-6977.54,9611.28,-18622.4
2.463e+08,2.80078,2,2.97446,-430.011,-125.41,-28369.5
2.46453e+08,24.3523,0,2.69233,-203.661,-2939.72,-24599.2
2.46618e+08,128.253,0,2.71142,25226.6,-2073.39,-19145.6
2.4674e+08,80.4775,0,2.50432,4818.92,-12768.4,-18632.2
2.4687e+08,117.369,0,2.66612,16821.8,-3632.42,-10958.4
2.46886e+08,96.2671,0,2.73128,-268.692,-928.147,-24480.6
2.46986e+08,139.806,0,2.81173,3319.56,20406.2,-8786.28
2.46999e+08,195.661,1,2.5713,1890.83,-2455.26,-24700.2
2.47132e+08,13.9209,1,2.51393,1173.69,2595.71,-27860.2
2.47366e+08,45.2075,2,2.5684,4319.73,-5032.59,-21916.5
2.47373e+08,98.7763,0,2.42783,17797.5,-5278.81,-19058.9
2.4768e+08,9.62494,0,2.58033,954.158,-1875.29,-29014
2.47703e+08,3.79624,0,2.45411,-129.379,-625.488,-28349.4
2.47875e+08,43.8562,0,2.9723,-3745.41,-7616.62,-25347.5
2.47996e+08,59.4637,2,2.53518,5376.7,8575.74,-21452.3
2.4884e+08,34.5524,2,2.57206,-253.278,261.518,-28685.9
2.4898e+08,16.827,1,2.69111,1455.74,1081.61,-25786.5
2.49216e+08,74.5236,0,2.50855,11852.2,-10245.2,-26747.2
2.49539e+08,19.4003,1,2.56541,883.939,3997.82,-29725.7
2.4973e+08,165.577,0,2.78093,-19775.7,4350.96,-542.965
2.49938e+08,25.5181,0,2.54509,2417.32,4330.31,-26538.8
