#class tools::wcsv::ntuple
#title time
#separator 44
#vector_separator 59
#column double eventID
#column double t(ns)
#column double copynumber
#column double energy(eV)
450926,115.831,1,2.5036
664546,106.078,1,2.65974
0,106.287,1,2.65974
829914,47.1626,1,2.98865
1.88226e+06,223.834,0,2.62572
1.9979e+06,78.4862,0,2.53804
2.63439e+06,24.006,1,2.71231
0,23.9814,1,3.06141
2.87582e+06,12.0289,1,2.3986
0,12.2794,1,2.3986
3.35644e+06,8.58071,1,2.88433
0,8.27262,0,2.9809
3.66387e+06,9.30568,0,2.42223
3.79968e+06,38.584,1,2.97265
0,38.6217,1,2.97265
3.85143e+06,39.8595,1,2.85132
3.98582e+06,109.777,0,2.53653
4.06656e+06,46.3026,2,2.4335
4.20588e+06,48.8008,2,2.39322
4.3744e+06,43.1272,2,3.01792
4.6795e+06,60.8954,1,2.45515
4.96816e+06,55.1174,0,2.45928
5.75589e+06,85.0296,0,2.65237
6.00226e+06,62.6086,0,2.79305
6.59313e+06,211.778,0,2.51597
6.62518e+06,154.364,2,2.39368
7.02612e+06,104.427,0,2.94614
7.10091e+06,22.2819,0,2.40412
7.94791e+06,265.02,2,2.52918
8.04631e+06,136.194,0,2.54554
8.04808e+06,102.823,1,2.60388
8.17525e+06,166.986,1,2.8874
8.61724e+06,1.23245,1,2.70609
8.99857e+06,45.3224,0,2.74752
0,45.4588,0,2.74752
9.39254e+06,78.5007,0,2.71912
0,78.7962,0,2.71912
9.47859e+06,12.456,1,2.61776
9.66193e+06,37.3777,1,2.62251
9.66293e+06,242.039,0,2.79515
9.91366e+06,3.23446,0,2.86969
0,3.3555,0,2.70154
9.91463e+06,121.674,0,2.8211
0,121.904,0,2.8211
1.0011e+07,90.3097,0,2.88193
1.02736e+07,176.081,2,2.91276
1.0335e+07,50.1495,0,2.944
1.09646e+07,2.25209,2,2.55816
0,2.19574,2,2.47855
0,2.19302,2,2.91658
0,2.17237,2,2.36238
0,2.18839,2,2.66475
1.1882e+07,74.3015,1,2.56286
1.20032e+07,26.6081,1,2.50324
1.20362e+07,57.0812,2,2.60339
1.21243e+07,273.806,2,2.72093
1.21341e+07,71.2648,0,2.36298
1.23379e+07,53.6406,2,2.72878
0,53.9294,2,2.72878
1.25184e+07,89.7421,2,2.65582
0,89.967,2,2.65582
1.26e+07,163.704,2,2.44687
1.29927e+07,55.2292,1,2.42363
1.32412e+07,118.338,0,2.61953
1.32846e+07,125.18,0,2.70805
1.50223e+07,203.372,1,2.74823
1.50963e+07,80.358,1,3.00337
1.55837e+07,93.7807,1,2.98086
1.55912e+07,95.8144,1,2.51694
1.57193e+07,27.9667,1,2.73506
1.59495e+07,100.567,2,3.05655
0,100.831,2,3.05655
1.65431e+07,26.333,0,2.58464
1.65918e+07,31.2404,1,2.58093
0,31.5854,1,2.58093
1.68962e+07,6.93047,1,2.65528
0,7.28632,1,2.65528
1.71351e+07,94.6444,0,2.63354
1.72698e+07,76.1404,2,2.61687
1.73927e+07,3.37467,0,2.63543
0,3.64999,0,2.63543
0,3.46301,0,2.39019
0,3.39578,0,3.02634
0,3.6474,0,3.02634
1.75604e+07,118.341,2,2.65987
0,118.672,2,2.65987
1.78037e+07,1.95834,0,2.47021
0,2.01631,0,2.63473
0,2.0563,1,2.90718
1.78285e+07,13.0388,0,2.66866
1.78566e+07,29.7129,2,2.40915
1.80472e+07,19.4718,2,2.76516
1.82286e+07,137.665,2,2.46131
1.83483e+07,54.5496,1,2.71361
1.89124e+07,24.3178,2,3.03098
1.93378e+07,4.88033,0,2.54532
1.94668e+07,35.6713,1,2.81787
1.98135e+07,204.201,1,2.5773
1.99871e+07,1.63908,2,2.97477
0,1.63526,2,2.48537
2.0012e+07,218.29,1,2.60677
2.02477e+07,74.8199,2,2.63737
2.04265e+07,126.163,0,2.71198
2.08598e+07,219.699,0,2.62193
2.08783e+07,116.17,2,2.56571
2.13711e+07,52.3704,0,2.55948
0,52.5103,0,2.55948
2.15821e+07,167.567,1,3.0264
2.1884e+07,100.174,0,2.94704
0,100.356,0,2.94704
2.2095e+07,44.2063,0,2.38711
2.21503e+07,132.118,2,2.92648
2.23705e+07,4.92781,2,2.85411
0,5.1239,2,2.85411
0,4.21758,1,2.6449
2.25903e+07,218.601,0,2.61978
2.26489e+07,64.8596,2,2.72304
2.28702e+07,13.49,2,2.73257
2.31085e+07,91.0371,1,2.9539
2.32065e+07,84.7481,2,2.80284
2.38514e+07,192.982,2,2.6962
0,193.19,2,2.6962
2.38766e+07,158.027,0,2.77942
0,158.168,0,2.77942
2.51315e+07,7.32185,0,3.05209
2.51774e+07,117.37,1,3.05251
2.52625e+07,50.9937,0,2.58496
2.56678e+07,27.2469,2,2.40126
2.56859e+07,84.3014,2,2.73153
2.59481e+07,63.4244,2,2.49399
0,63.6015,2,2.49399
2.64008e+07,6.15975,1,2.59929
0,6.45519,2,3.0569
2.64762e+07,161.961,0,2.43362
2.6555e+07,31.78,2,2.77101
2.69415e+07,41.1159,0,2.36224
2.71573e+07,147.586,1,2.99173
0,147.782,1,2.99173
2.71947e+07,62.762,0,2.43442
2.72143e+07,394.085,2,2.81016
2.72898e+07,77.8785,0,3.04325
2.74092e+07,65.1064,1,2.88066
0,65.3064,1,2.88066
2.74244e+07,36.5064,2,2.62207
2.74542e+07,172.955,1,2.41106
2.7752e+07,214.842,0,2.45835
2.79211e+07,155.342,1,2.76916
2.82303e+07,156.426,0,2.64582
2.83658e+07,9.97749,1,2.66882
0,10.1851,1,2.94362
2.86075e+07,42.5205,0,2.90832
2.88721e+07,111.528,0,2.77523
0,111.619,0,2.82816
2.95088e+07,68.0298,1,2.61885
2.95244e+07,52.6952,0,2.6515
2.95481e+07,119.851,2,2.47947
0,120.178,2,2.47947
2.98075e+07,57.4478,1,2.60024
