#class tools::wcsv::ntuple
#title time
#separator 44
#vector_separator 59
#column double eventID
#column double t(ns)
#column double copynumber
#column double energy(eV)
#column double x(mm)
#column double y(mm)
#column double z(mm)
380689,23.1197,2,2.80817,-1157.75,4404.07,-28461.6
588343,96.9461,0,2.66208,5387.3,7466.79,-10550.9
1.12363e+06,118.137,0,2.82079,13614.2,-20786.3,-26943.9
1.28964e+06,67.015,1,2.98374,-1715.99,12525.3,-22555.9
1.49556e+06,44.4066,0,2.42966,878.615,8520.95,-24945
1.54536e+06,124.561,0,3.02598,3301.85,21791.7,-14847.2
1.60304e+06,44.2852,0,3.00806,5761.33,-4705.22,-23153.6
1.78124e+06,19.0007,1,2.51423,-3874.39,1156.79,-29623.9
1.81638e+06,68.6904,1,2.96082,-14137.2,-1099.91,-25945.1
2.23702e+06,150.391,0,2.71673,8595.56,26853.6,-14361.2
2.28107e+06,14.6978,2,2.52134,2562.08,-44.8925,-27133
2.41924e+06,43.3078,1,2.48326,2784.83,3894.86,-20994.3
2.86247e+06,21.3342,0,2.81671,3330.97,1128.07,-25956.4
3.03272e+06,7.98539,1,2.50932,-824.477,304.628,-27328.6
3.25732e+06,73.4426,0,3.01102,-1483.54,10237.3,-17462.4
3.50284e+06,33.644,1,2.39176,445.605,-6941.1,-27571.5
3.66565e+06,38.8414,2,2.99315,262.724,-3827.21,-21595.4
4.11065e+06,234.64,2,2.93659,3614.42,-22166.4,14957.3
4.11158e+06,86.5644,2,2.58283,7740.52,-13052.7,-22069.4
4.43141e+06,114.774,2,2.86842,-22708,-8352.17,-29741.5
4.72887e+06,18.2929,2,2.90345,-2782.47,1224.28,-26474.4
5.0231e+06,72.3666,0,2.56355,13337.4,-5256.36,-23227.5
5.15353e+06,10.463,2,2.86812,83.3439,-2195.42,-28252
5.21179e+06,144.4,0,2.78101,14930.2,8327.04,-3644.01
5.2795e+06,24.4278,0,2.89669,5015.13,660.001,-27570.8
5.36611e+06,32.2781,1,2.86507,342.43,6630.68,-27014
5.62675e+06,41.0081,0,2.74204,7694.69,343.793,-24741.9
5.98599e+06,69.3643,1,2.68881,-11329,4732.14,-20829.4
6.26955e+06,183.883,0,2.41095,22768.3,7356.57,1915.23
6.43786e+06,74.0795,2,2.90773,5273.81,-11062.4,-28460.1
6.69039e+06,261.998,2,2.52628,27880.2,-2609.2,-17627.2
6.7753e+06,9.64786,1,2.95823,-2102.9,-91.9303,-28858.4
6.88325e+06,19.5969,2,2.98114,-1121.18,-3214.62,-26392
7.06547e+06,228.805,1,3.00646,4266.17,-17020.7,-27640.6
7.10498e+06,44.311,0,2.65474,-634.005,5067.17,-20986.5
7.49246e+06,93.8317,2,2.99658,-15208.1,3840.5,-28404.4
7.77202e+06,105.924,0,2.79946,7707.5,17363.5,-17086.2
7.78923e+06,115.465,1,2.89337,-23830.1,3470.96,-27627.6
7.98677e+06,10.3837,1,2.4606,1675.32,-363.473,-27485.6
8.01249e+06,54.6225,2,2.9767,5246,-4803.74,-19846.1
8.3198e+06,0.304905,2,2.48538,12.2195,-147.339,-28801.7
0,0.287802,2,2.37629,0,0,0
0,0.31206,2,3.01061,0,0,0
0,0.286095,2,2.92484,0,0,0
0,0.291417,2,3.05952,0,0,0
8.37366e+06,119.832,1,2.76271,-18247,5337.46,-12173.7
8.67149e+06,5.16976,1,3.01304,362.753,717.951,-28059.2
8.7435e+06,38.869,1,2.85584,1890.81,6155.79,-23725.7
8.8808e+06,82.5819,1,2.53861,8748.69,10568.6,-17969.5
9.16802e+06,57.4059,0,3.06032,-2826.61,-8628.5,-20977.7
9.32336e+06,83.4265,1,2.56302,16880.8,-1606.25,-24126
9.54558e+06,29.2855,2,2.64847,-685.202,-5590.82,-26060.4
9.70246e+06,6.03133,1,2.6442,557.027,1144.51,-28501.2
9.96922e+06,189.599,2,3.05311,-428.016,-20716.5,-27255.6
1.01367e+07,22.0088,1,2.75701,1537.96,2110.1,-24954.4
1.03449e+07,49.3108,1,2.39514,-10040.8,-183.481,-25765.1
1.04178e+07,55.5553,1,2.65434,-3195.74,10609.5,-24755.8
1.07276e+07,89.8366,2,2.69777,-1985.32,-11718.2,-14041.1
1.07282e+07,22.5231,1,2.43637,2574.77,-3734.99,-27559.8
1.08058e+07,41.3062,1,2.90244,-6886.61,-939.082,-23562.5
1.08102e+07,51.252,2,2.3697,538.801,4915.03,-19235
1.13784e+07,56.4545,2,2.41411,-9177.83,-7657.05,-27341.6
1.14284e+07,40.8102,2,2.37883,-3651.05,4891.17,-22726.2
1.144e+07,11.6029,2,2.53424,2066.29,784.956,-27862.7
1.15212e+07,103.494,2,2.71643,9507.51,9044.28,-11517.7
1.1675e+07,110.254,2,2.77573,18883.8,-9657.29,-19400.4
1.17312e+07,18.4258,0,2.44706,3928.2,606.614,-28558
1.17531e+07,14.1571,1,2.71106,-298.203,1863.99,-26443.9
1.21007e+07,199.989,1,2.79953,-1283.17,-16354.7,9878.85
1.24852e+07,346.988,0,2.78743,24957.2,16652.4,28411.6
1.25688e+07,33.6215,0,2.39856,5824.09,-3092.2,-25972.8
1.26747e+07,102.704,0,2.36828,18719,4477.34,-18590.3
1.30752e+07,72.6752,1,2.78357,-8021.72,7705.62,-18263.8
0,72.2446,1,2.49893,0,0,0
1.30991e+07,73.0593,2,2.70915,-11432.3,-10011.7,-25771.4
1.31909e+07,133.302,2,2.74382,20652.8,-7487.74,-11352
1.34753e+07,47.9923,0,2.82969,9413.37,3658.71,-27417.8
1.34914e+07,157.828,0,2.94456,16298,4973.12,-21099.6
1.35448e+07,74.1878,1,2.85258,139.703,5970.41,-14391.3
1.37509e+07,106.188,0,2.92346,12239.6,3274.25,-10441.1
1.37802e+07,109.999,1,2.67935,1314.53,7973.42,-17731
1.38198e+07,2.19697,2,3.04952,-291.522,-2.4828,-28449.4
1.39079e+07,62.7745,2,2.37104,7002.35,-5398.91,-25211
1.41284e+07,176.652,2,2.91949,17105.3,3560.23,3818.92
1.42217e+07,77.7544,0,2.87158,6346.26,-4900.58,-22426
1.46812e+07,51.2695,0,2.48864,6894.54,-5706,-22610.4
1.52954e+07,24.2782,2,2.96422,-1041.82,2059.52,-24292.3
1.56184e+07,112.31,1,3.0186,12894.2,-6944.17,-10462.4
1.56753e+07,81.7605,2,2.47783,-7450.41,355.892,-22361.1
1.58053e+07,11.6961,2,2.57183,269.885,-2556.75,-28795.3
1.59814e+07,118.25,0,2.57668,14701.4,-12866.3,-13185.2
1.60921e+07,157.237,1,2.88356,-7480.71,-28491.5,-13965.5
1.61037e+07,126.527,2,2.71116,-25176.6,4693.12,-21210.8
1.64698e+07,78.8994,2,2.63158,12204.2,-7861.15,-20691.2
1.6514e+07,102.845,1,2.47836,-1623.13,18634.1,-17571.5
1.66575e+07,43.0653,0,2.9266,3607.7,-2289.23,-20825.7
1.69889e+07,225.516,1,2.81757,-26946.2,29193.4,-2806.49
1.70384e+07,100.492,1,2.45093,-7123.76,20120.1,-29453.3
1.71883e+07,32.5747,0,2.97814,6186.71,-3063.58,-28476.1
1.74271e+07,45.7422,1,2.67766,-6701.43,3685.26,-22834.8
1.74499e+07,11.9033,1,2.53343,-1661.58,834.846,-27054.3
0,11.8859,1,2.65338,0,0,0
1.74664e+07,74.579,2,2.65485,-2525.9,-9841.78,-16748.5
1.78177e+07,3.90706,1,2.51802,364.739,147.481,-28110.2
1.7832e+07,95.3839,2,2.88335,10858.4,-11715.5,-16665.2
1.9005e+07,38.4927,0,3.01435,5595.11,-2753.83,-23601.3
1.92289e+07,74.416,1,2.43245,-197.499,6304.42,-14370.1
1.93241e+07,270.532,2,2.82299,-25668.9,1627.32,21933.6
1.99214e+07,183.643,1,2.37326,-26455.1,24349.5,-13854.1
1.99431e+07,9.38014,2,2.43243,-1526.37,-932.885,-29886.9
2.00734e+07,39.8723,1,2.62334,7311.02,3836.6,-28167.1
2.01253e+07,89.6065,0,2.48698,13303.9,2405.7,-15454.5
2.02075e+07,51.8806,0,2.51923,-2841.43,-7372.19,-21232.5
2.03795e+07,133.676,1,2.66757,3113.37,20738.2,-9931.96
2.04529e+07,7.97,2,2.6284,-1091.63,341.982,-27554.8
0,7.98677,2,2.79321,0,0,0
2.07182e+07,31.6418,2,2.57184,-1697.7,-6123.89,-26451
2.08162e+07,157.838,1,2.42591,12531,5405.65,1634.27
2.08742e+07,10.9144,2,2.59342,-1642.7,-158.431,-27191.1
2.09298e+07,95.8086,0,3.05001,-1314.01,10074.7,-11530.1
2.11116e+07,22.8587,1,2.75414,-106.699,-2095.97,-24501.7
2.11906e+07,92.7238,0,2.44803,9322.61,-16859.7,-25020.5
2.1281e+07,15.4258,2,2.89177,-824.996,2745.27,-27356.1
2.17798e+07,32.375,2,2.4183,1631.12,-4323.42,-23703
2.18029e+07,8.77114,1,2.7645,-984.436,-1371.5,-28104.8
2.184e+07,134.89,2,2.96166,-10009.4,-25527,-21544.7
2.19882e+07,30.7262,1,2.46168,2266.4,-3586.72,-23942.5
2.20994e+07,18.1858,2,3.05607,-2334.95,-2415.58,-26903.5
2.22767e+07,146.022,0,2.90263,-26892.1,-4564.17,-18132.6
2.28131e+07,106.462,1,2.43705,-5659.52,15944.5,-16961.3
2.28472e+07,111.242,1,2.59405,-22274.6,-3607.12,-22179.5
2.29499e+07,53.8253,0,2.89405,4714.6,-5415.93,-20058.9
2.30408e+07,54.5051,1,3.05528,-10226.3,5262.66,-29250.2
2.31391e+07,12.573,2,2.96404,1342.91,-1642.09,-27191.2
2.36302e+07,13.9433,1,2.63062,685.649,1987.42,-26683.4
2.36915e+07,44.8943,0,2.63922,-7170,5232.47,-25627.8
2.37573e+07,85.1694,1,2.76073,11490.7,-12306.4,-22881.5
2.40057e+07,150.007,2,2.9064,7741.95,-27903.6,-16252.6
2.45151e+07,2.71752,2,3.05802,-112.171,-661.468,-28767.5
2.46786e+07,72.4499,0,2.58535,6862.87,-11880.6,-21956.5
2.47084e+07,70.1835,2,2.53665,-6488.07,-5977.71,-16838.2
2.48374e+07,11.5006,2,2.51854,-2504.7,40.0599,-28676.5
2.52268e+07,115.483,0,2.41351,-6571.15,21638.2,-19565.6
2.58867e+07,23.7144,1,2.41122,2088.34,350.014,-24268.1
2.60436e+07,26.3488,1,2.72223,-5484.1,1192.63,-28257
2.6106e+07,13.698,2,2.58609,2674.71,290.32,-27833.5
2.63356e+07,22.6966,1,2.7469,-2385.3,-3761.86,-27153.5
2.65098e+07,30.7316,1,2.89056,-3024.15,5837.77,-28945
2.67725e+07,152.32,0,2.85416,27780.9,12277.5,-18499.3
2.69475e+07,45.5539,0,2.47086,4008.89,-521.17,-20029.9
2.69633e+07,169.042,2,2.8619,24901.2,-22927.4,-17996.6
2.71693e+07,133.451,2,2.47021,1112.92,-22857.4,-12554.9
2.72878e+07,14.7625,1,2.60293,578.647,2651.12,-27201.8
2.73192e+07,42.2518,1,2.49182,2631.71,6780.31,-23530.7
2.73664e+07,63.9355,1,2.94031,1707.61,11823.2,-22608.1
2.76189e+07,11.0568,0,2.71758,1297.26,1611.08,-27619.3
2.7647e+07,206.348,0,2.87964,9430.7,28608.4,2364.67
2.76962e+07,93.8754,1,2.7057,1226.64,-10735,-12292.3
2.7706e+07,5.82302,2,2.84301,602.308,559.414,-28012.5
2.77633e+07,33.9189,0,2.83578,-45.3156,6868.58,-26854.3
2.81673e+07,83.8264,1,2.38034,12452.9,2959.32,-16564.4
2.84823e+07,98.3159,1,2.4898,16179.7,9384.1,-19702.4
2.84891e+07,32.8852,1,2.97355,-1669.07,5758.14,-25242.4
2.85733e+07,86.7065,2,2.39365,13158.8,-5160.63,-17109.2
2.88563e+07,22.1207,2,3.04384,-15.7455,-2609.72,-24946.6
2.92671e+07,59.7136,1,2.53917,-178.445,-7240.47,-18516
2.92736e+07,62.6016,0,2.42455,-6426.62,11551.2,-28505.9
2.97149e+07,128.033,1,2.55073,-23016.8,14412,-28685.2
2.997e+07,30.6363,0,2.7088,2058.35,5024.47,-25268.7
0,30.7356,0,2.80246,0,0,0
3.00983e+07,68.6058,2,2.8585,4417.54,-13571.6,-26284.2
3.04373e+07,82.8287,1,2.59896,4949.54,4800.68,-12737.9
3.06981e+07,72.4201,1,2.75248,-11539.8,9592.07,-25562.1
3.07287e+07,127.707,2,2.55929,-10477.6,-9745.84,-5920.27
3.07484e+07,53.0015,0,2.42242,-10920.3,1559.92,-27225.6
3.07656e+07,18.6429,2,2.50343,2335.6,2871.12,-27618.7
3.108e+07,19.1396,2,2.49328,-3226.8,1520.06,-26933.5
3.13778e+07,108.694,1,3.06024,5528.07,-19181,-18058.7
3.15266e+07,44.7865,0,2.67993,3842.11,-2236.5,-20444.6
3.18097e+07,45.2612,2,2.7117,-8064.01,-2458.86,-24203.7
3.18508e+07,22.8534,2,2.65951,4585.62,-1529.2,-28956.9
3.23515e+07,65.0657,0,2.38293,4490.5,-1904.74,-15959.6
3.23673e+07,121.256,0,2.80858,10235.5,339.073,-5432.34
3.24118e+07,109.118,0,2.45593,12670.9,-6104.75,-10474.6
3.24203e+07,7.86852,0,2.69797,1146.79,1293.95,-29003.7
3.24342e+07,71.3171,1,2.38843,-2621.55,8359.46,-16468.6
3.25083e+07,64.6004,0,2.42363,8147.29,-11058.6,-28753
3.25635e+07,30.711,0,2.8903,3052.45,4754.24,-25591.5
3.26915e+07,7.19492,0,2.44474,789.342,1290.27,-28319.9
3.29816e+07,123.328,2,2.7326,7622.49,-17829.1,-11483.8
3.31858e+07,119.886,1,2.81826,13934.4,7278.97,-9582.06
3.3353e+07,184.383,2,3.01798,19278.3,-29133.5,-12284.7
3.34937e+07,41.3874,2,2.85503,4481.71,848.149,-21464.8
3.38066e+07,113.033,2,2.43321,-11006.6,4494.96,-8070.34
3.38684e+07,48.4765,1,2.67006,-6055.23,-8150.27,-27805.1
3.45095e+07,217.258,0,2.40695,10057.7,26612,7266.92
3.45389e+07,43.83,2,3.04737,8636.53,-2184.3,-26587.7
3.45883e+07,193.489,2,2.7096,-29633.4,-7559.9,-2968.59
3.46117e+07,88.905,1,2.42538,-11021.8,-14479.4,-24126
3.46937e+07,49.9184,1,2.54137,10403.1,1001.53,-27590
3.48245e+07,18.6909,0,2.92675,2680.92,2836.45,-27888.6
3.49761e+07,64.4238,2,2.88464,770.222,-11303.4,-21302
3.50084e+07,109.579,0,2.7257,8337.37,18661.3,-18051.1
3.50263e+07,17.4579,1,2.80863,-2177.67,3076.19,-28659.5
3.54903e+07,206.468,2,2.62248,6923.37,15054.5,3768.4
3.55065e+07,47.4761,1,2.43653,-6142.42,2277.71,-21151.4
3.55125e+07,21.289,2,2.92963,-3898.73,-704.944,-26604
3.56007e+07,103.905,0,2.89398,19328.2,-4407.85,-19507.5
3.56354e+07,189.744,2,2.81053,-5340.71,-29374.8,-2264.1
3.58806e+07,110.476,1,2.74247,-89.2529,439.266,-29381.8
3.59637e+07,135.218,0,2.41521,-2276.57,-24653.1,-14468.1
3.59857e+07,95.1053,0,2.73215,-3348.26,14055.6,-17718.9
3.61111e+07,136.111,2,2.60814,-23986.5,-5640.13,-13948.8
3.6774e+07,28.6421,1,2.72132,-1108.05,5821.85,-27365.2
3.68254e+07,42.0249,0,2.86107,4859.12,6790.31,-25765.5
3.7074e+07,149.865,0,2.76518,18771.2,-3030.08,-7551.54
3.77752e+07,7.73935,2,2.70723,-1605.36,222.395,-29223.3
3.80377e+07,8.9625,2,2.60178,1493.77,-1189.04,-28890.8
3.80801e+07,83.681,1,2.55677,13906.1,8923.32,-22517.2
3.82128e+07,53.3711,0,2.40571,2861.67,7811.52,-21161.2
3.83901e+07,39.2117,2,2.78428,2673.7,-6504.93,-24378.8
3.84264e+07,73.4025,2,2.80627,-2610.51,14420.5,-24168.2
3.86709e+07,43.9422,2,2.41538,1686.35,8867.8,-26832.5
3.87297e+07,7.41781,0,2.6002,459.35,-1545.87,-28590
3.92573e+07,15.3756,0,2.5478,258.892,3213.68,-29415
3.96312e+07,12.903,0,2.39307,684.172,2384.66,-27582.9
3.9861e+07,137.098,2,2.51061,12421.7,5028,-3175.17
3.98982e+07,14.2612,1,2.43695,-1958.19,-426.224,-26555.5
4.01456e+07,122.468,0,2.45094,11417.6,-2138.22,-5636.61
4.02879e+07,116.598,1,2.4626,-9316.52,14601,-11205
4.06587e+07,3.9763,0,2.7828,464.314,103.848,-28092.9
0,3.87583,0,2.62349,0,0,0
4.08167e+07,7.84874,0,2.99159,673.771,-874.852,-27548.2
4.08303e+07,43.381,1,2.37864,-2951.83,6874.33,-23413.3
4.08641e+07,17.5998,2,3.00633,-3540.59,-672.22,-29946.4
4.0879e+07,100.152,0,2.46435,955.271,4706.7,-21389.3
4.08852e+07,148.204,0,2.44089,13227.2,-18609.7,-7287.04
4.09273e+07,112.521,2,2.8988,-5229.24,-11868.6,-9054.73
4.09713e+07,57.5144,1,2.43978,4181.43,-9953.24,-23324.1
4.13925e+07,141.935,1,2.62286,-29181.1,6536.28,-26376
4.14573e+07,10.9608,1,2.84501,1172.11,1274.18,-27254
4.15472e+07,161.525,2,2.76006,-17512.1,-11303.7,-1891.2
4.15926e+07,24.5387,1,2.76577,3846.08,-1566.42,-25823.7
4.17721e+07,154.642,0,2.94839,-7290.69,18112.4,-2936.61
4.21842e+07,67.7641,2,2.69678,3243.37,-13288.9,-24513
4.25382e+07,44.349,1,2.68763,7023.9,1636.1,-26782.3
4.27703e+07,117.097,1,2.956,-2344.57,8628.01,-5914.21
4.29825e+07,11.2115,1,2.6682,-2013.27,1365.85,-29301.2
0,11.325,1,2.93888,0,0,0
4.32211e+07,37.1055,1,2.80617,-243.711,6376.8,-24196.9
4.33017e+07,85.6113,2,2.60566,-7250.37,16499.3,-29549.1
4.34308e+07,55.8319,2,2.40687,947.714,-7779.54,-19913.6
4.39369e+07,147.449,2,2.76818,15595.8,-26832.7,-27183.8
4.40876e+07,122.085,1,2.87814,-24024.8,8415.35,-25142.5
4.46958e+07,41.2024,1,2.90177,2034.86,3581.4,-21191.1
4.47553e+07,45.0481,2,2.88775,-5123.91,-5802.75,-23237.2
4.48629e+07,45.4859,1,2.40494,4672.79,7754.16,-25366.1
4.50624e+07,60.2348,1,2.4097,11996.9,-3984.32,-27495.7
4.5094e+07,213.911,2,2.81832,-14686.7,-28049.1,-8420.18
4.5132e+07,195.539,0,3.02764,-6461.34,-13536.5,-28517.2
4.51912e+07,39.3769,0,2.38019,-41.0078,-4427,-21770.3
4.52001e+07,151.252,0,2.441,13922.5,-25581.3,-15531
4.53379e+07,82.8066,1,2.52652,-2997.06,16968.8,-25315.3
4.54869e+07,9.04328,1,2.83544,306.36,1758.84,-27957.1
0,9.21111,0,2.68366,0,0,0
4.55607e+07,146.812,0,2.85544,22399.5,-11832.9,-11102.8
4.57735e+07,23.4452,0,2.46995,4037.35,-1627.09,-26289.7
4.59363e+07,100.09,0,2.70383,14042.4,15849.6,-28366.4
4.61057e+07,8.72839,1,2.58961,173.437,-983.87,-27302.1
4.61871e+07,209.092,1,2.54202,-22000.1,6650.46,-18570.8
4.64396e+07,41.0031,2,2.56402,-6764.85,3784.77,-24955.8
4.64866e+07,62.3655,0,2.84373,1869.02,5240.05,-16925.4
4.67415e+07,50.1676,0,2.93275,-8418.36,-1385.41,-22732.2
4.69642e+07,133.668,1,2.76916,27334.9,2613.21,-22737.7
4.72689e+07,41.2888,1,2.7176,-7210.56,-4139.47,-26264.7
4.79327e+07,4.29758,2,2.92784,-837.358,-219.733,-28391.3
4.79977e+07,22.2627,0,2.56206,2496.05,864.283,-24860.6
4.80427e+07,103.285,2,2.54652,-13835.6,2290.22,-12061.1
4.83262e+07,127.895,0,2.88867,-10538,-12856.1,-9201.5
4.84802e+07,38.5939,2,2.9534,-2073.55,-7117.42,-25363.1
4.8556e+07,112.165,0,3.00273,18650.9,7089.94,-16241.6
4.89437e+07,110.628,2,2.66215,-6708.18,-15658.7,-12800.6
4.91161e+07,71.5796,1,2.48791,2676.88,3890.16,-22060
4.91362e+07,18.2675,0,2.52082,-1168.15,3587.75,-28028.8
4.9311e+07,170.958,0,2.60889,14589.5,20543.6,-2923.04
4.96913e+07,165.021,0,2.66009,25906.7,-1022.16,-18339.9
5.01562e+07,69.7087,0,2.90313,7496.76,11089.6,-22771.1
5.01563e+07,137.84,2,2.99766,-4829.06,-25790.1,-16554.3
5.04096e+07,32.7193,1,2.68555,-4758.12,19.4753,-23776.2
5.04696e+07,17.3802,0,2.75219,3779.42,33.1495,-28978.4
5.05817e+07,56.2191,0,2.82427,11748.1,-592.327,-26797.1
5.07707e+07,127.916,2,2.56857,20252.7,-4888.87,-11663.5
5.07905e+07,140.864,2,2.43124,7805.26,18599.1,-6955.19
5.13751e+07,1.85283,2,2.68743,-59.403,-312.018,-28494.6
0,1.87483,2,2.98454,0,0,0
5.13989e+07,9.09719,2,2.88919,-821.881,462.708,-27163.3
5.16022e+07,105.857,2,2.84762,2823.82,-12508.6,-10598.8
5.16914e+07,0.694485,1,2.58297,53.175,43.9083,-28699.7
5.17277e+07,106.66,0,2.3808,-12328,4185.18,-10455
5.29143e+07,83.4515,0,2.77792,14830.6,-9566.09,-28149.6
5.29421e+07,112.54,2,2.61115,-162.981,-20054.7,-15979.9
5.29972e+07,115.904,0,2.37713,-21382,-1068.11,-16984.7
5.36389e+07,11.0115,2,2.70197,-1085.23,1622.99,-27580.7
5.37791e+07,157.667,2,2.69096,18166.3,42.9744,-1058.91
5.42506e+07,15.2708,0,2.98195,-122.218,-3021.08,-27812.5
5.43545e+07,106.8,1,3.02029,1667.57,-1550.78,-28345.3
5.43704e+07,115.253,1,2.91797,-19917.2,10693.5,-19963
5.44277e+07,58.7396,2,2.80899,-152.787,11764.2,-25237.6
5.45459e+07,7.95465,0,2.85138,1765.34,-216.939,-28880.9
5.46689e+07,8.87221,0,2.76714,1803.07,-712.095,-29011
5.47557e+07,119.482,0,2.63092,6526.06,-11680.2,-7422.1
5.48582e+07,129.354,0,2.6817,-5003.14,-19210.5,-16676.3
5.48598e+07,8.85803,0,2.46006,1618.74,-770.404,-28068.9
5.49106e+07,32.5732,1,2.90574,-167.176,6542.76,-26534.2
5.4991e+07,38.6098,0,2.73207,-322.466,-8041.9,-27576
5.51245e+07,50.7694,2,2.69365,6418.31,7816.74,-25514.1
5.51959e+07,114.238,2,2.79598,-454.674,-9408.13,-6697.54
5.57098e+07,4.88103,2,2.78122,-940.599,-531.529,-28553.2
0,4.87534,2,3.05538,0,0,0
5.5754e+07,11.711,0,2.9177,1666.34,716.071,-27079.9
5.57601e+07,93.1955,1,2.53412,-11148,-12151.7,-18092.2
5.57814e+07,141.846,2,2.83919,21376.4,12561.6,-22922.3
5.58642e+07,115.294,1,2.4806,-9274.89,3105.77,-6498.02
5.66017e+07,11.196,1,2.8446,133.469,1208.54,-26772.3
5.68669e+07,20.362,0,2.55689,2082.94,1501.81,-25329
5.72957e+07,38.2362,1,2.40716,921.428,-7427.24,-25879.6
5.73213e+07,2.81873,0,2.6268,76.2804,-239.037,-28263
5.75099e+07,2.84649,2,2.55924,444.11,-476.677,-28750
0,2.85442,2,2.6457,0,0,0
5.76685e+07,78.6544,0,3.02438,-469.476,-8118.74,-14486.1
5.77623e+07,210.807,1,2.71927,14995.1,26949.6,3171.89
5.79799e+07,140.06,0,2.69106,-1763.53,-16096.3,-4166.14
5.81958e+07,101.529,1,2.55139,-15079.6,-8035.34,-15809
5.84808e+07,224.639,0,2.77247,20827.8,19971.5,8672.77
5.86517e+07,15.3388,0,2.81908,2804.68,1557.59,-27943
5.909e+07,116.78,1,2.71925,10832.4,-8333.15,-8429.69
5.91196e+07,98.3112,0,2.70222,17583.1,-7302.16,-20442.3
6.0267e+07,92.8521,0,2.66607,-6051.72,12773.3,-15306.1
6.04711e+07,26.7102,0,2.40522,388.281,-5672.74,-28878.7
6.05428e+07,113.014,1,2.86462,-6216.22,8064.2,-7337.49
6.06188e+07,122.408,2,2.97482,-5203.37,-11788.4,-6595.5
6.13861e+07,27.922,2,2.63838,-4218.71,-10.0548,-24638.8
6.15838e+07,1.94515,0,2.93344,466.277,85.9967,-29040.9
6.20246e+07,72.7431,1,2.61478,-12318.6,3924.26,-20402.1
6.2117e+07,79.2776,0,2.67773,16179.4,343.32,-24224.5
6.21772e+07,105.029,1,3.03555,17932.7,12429,-25880.6
6.22397e+07,50.4515,1,2.84608,-10340.6,1260.95,-26449.3
6.23597e+07,66.3248,2,2.97702,-11184,-5876.96,-22891.5
6.24647e+07,40.4561,1,2.89639,-8260.99,-1383.83,-27182
6.25621e+07,99.7371,1,2.48517,9420.5,4466.08,-10494.6
6.25813e+07,14.6977,0,2.99814,1537.64,2663.35,-29477.3
6.27273e+07,64.7904,1,2.7204,-13666.5,-619.141,-29939.7
6.27699e+07,126.404,2,2.57056,-22922.6,-12425.5,-22932.3
6.29647e+07,6.96382,2,2.68988,-48.7097,-500.57,-27432.2
6.30802e+07,79.8888,0,2.83056,14461.4,-1868.03,-20323.4
6.31789e+07,111.85,0,2.65887,6747.31,15412.4,-12248.3
6.31808e+07,47.8635,2,3.05611,-1719.41,-4273.06,-19872.1
6.32262e+07,99.9587,1,2.84308,-8807.8,6762.71,-10950.8
6.34929e+07,72.8432,1,2.53839,1539.13,15221.7,-26584.6
6.35899e+07,34.4716,2,2.49104,-2115.67,-2504.13,-22259.9
6.38324e+07,42.0361,2,2.98465,-5613.18,-4377.75,-23509.7
6.47864e+07,18.9623,0,2.94479,-1327.34,-3753.56,-29113.8
6.49549e+07,43.3579,1,2.96737,-4361.72,4992.09,-22505.6
6.49849e+07,14.1413,0,2.99167,2083.9,680.907,-26721.9
6.53166e+07,196.451,0,2.6894,25858.6,19097.2,-2667.91
6.57433e+07,55.091,2,2.43671,-11628.1,1331.41,-29068.4
6.58794e+07,131.189,1,2.36219,-21922.7,14770.9,-20045
6.65059e+07,159.212,2,2.94297,-11551.1,10820.7,-22650
6.68777e+07,112.401,1,2.37742,-15515.3,13860.3,-17194.9
6.72377e+07,118.903,0,2.89115,19242,10886.7,-17043.2
6.74106e+07,80.3579,2,3.04654,-11535.7,9790.34,-21467.5
6.79925e+07,11.6088,2,2.7985,-1119.32,2133.26,-28486
6.80858e+07,29.0901,2,2.89801,4768.12,-3835.74,-28713.2
6.80886e+07,38.7337,0,2.37641,-6819.79,-4330.12,-27722.2
6.81423e+07,154.044,1,2.99394,21238.7,-8634.58,-6161.56
6.81987e+07,43.927,0,2.45912,7910.42,4215.39,-26049.9
0,44.0737,0,2.66968,0,0,0
6.83738e+07,12.0044,2,3.01257,887.179,-1757.36,-27168
6.85078e+07,72.3643,0,2.96723,-4506.39,9647.23,-18054.3
6.87708e+07,42.6793,1,2.83422,388.726,-7738.41,-24401.2
6.87908e+07,89.3162,1,2.38279,-10870.5,14336.9,-22804
6.8862e+07,90.0904,1,2.50796,-13739,-302.912,-15594
6.89514e+07,14.1761,2,2.51599,-991.595,-2915.04,-28685.6
6.9055e+07,79.9304,2,2.81801,-9893.25,-8031.39,-17801.6
6.91582e+07,66.4166,2,3.00798,-10914.1,-4668.17,-21460.9
6.94555e+07,148.874,1,2.96175,-1194.56,27183.2,-13414.6
6.95607e+07,22.574,2,2.40163,3055.81,3556.15,-28290.4
6.97403e+07,141.14,0,2.81411,13521.5,20296.6,-11859.7
6.98525e+07,22.5599,0,2.64768,4130.47,1602.57,-26839.5
7.0065e+07,94.4918,0,2.86994,17266.7,9267.15,-25206.1
7.01068e+07,62.6144,2,2.61296,-924.614,-5800.4,-16946.2
7.02066e+07,19.8636,0,2.7846,3776.76,-1539.53,-27548.5
7.02208e+07,20.9055,1,2.38472,2524.44,1892.81,-25726.4
7.02332e+07,75.697,1,2.44004,5914.35,14399.3,-24916.5
7.02656e+07,40.3161,2,2.52445,2272.12,-7527.13,-25330.3
7.04579e+07,58.6435,0,2.41087,9046.59,6112.61,-22759.4
7.04991e+07,168.499,2,2.81155,-25712.4,24169.3,-25653.8
7.06413e+07,194.105,1,2.97792,-2444.54,-1757.16,-26772.8
7.08745e+07,120.933,0,2.81362,16924.4,6425.92,-10870.9
7.14753e+07,255.449,2,2.36764,17337.1,7340.56,20267.2
7.16973e+07,57.3235,2,2.51917,-2276.51,-9164.38,-21163
7.18517e+07,42.4354,1,3.02539,-7184.3,399.845,-23500.3
7.20113e+07,101.476,2,2.7796,-9930.42,-7961.64,-11620
7.20695e+07,108.834,2,2.71299,14665,-17035.7,-24015.5
7.25847e+07,81.4952,2,2.3897,4893.02,-16287.5,-25624.3
7.32728e+07,28.7256,2,2.8027,4456.97,-1011.85,-24856.4
7.33095e+07,15.7857,2,2.86623,816.869,2477.64,-26853.1
7.34721e+07,210.877,2,2.88564,-10025.9,-18167.9,8430.38
7.35129e+07,48.087,2,2.7109,416.448,9896.98,-27007.6
7.36295e+07,334.986,0,2.6035,18210.3,-4388.62,2379.81
7.3655e+07,146.056,0,2.79911,9563.7,28962.5,-24764.2
7.38616e+07,128.386,2,2.51163,-2914.49,20624.8,-11511.5
7.40216e+07,81.5177,2,2.40007,1238.21,-16196.7,-22813.5
7.43549e+07,64.7794,2,2.64556,12030.8,-4724.58,-28938.1
7.45585e+07,210.762,1,2.81282,-23383,1244.17,8815.94
7.46307e+07,69.6096,0,2.43151,13407.3,2395.79,-23002.7
7.46952e+07,87.2577,0,2.72845,-791.469,11217.1,-14281.8
7.48989e+07,137.465,0,2.71241,24619.5,-14622.2,-23857.4
7.49062e+07,145.533,1,3.0281,18026.6,-18603,-15653.7
7.51185e+07,109.244,1,2.58392,5587.89,-22016.8,-25140.9
7.56288e+07,128.673,2,2.79619,17597.4,-11485.7,-11741.5
7.59545e+07,55.0301,2,2.36993,-8183.71,-4942.08,-22048.5
7.61794e+07,30.834,1,2.49465,-2959.57,-1703.24,-23282.5
7.64397e+07,82.6779,2,2.61537,-5138.56,6203.51,-13338.1
7.64608e+07,188.218,2,2.42151,22301.3,-28337.6,-11831.1
7.65729e+07,24.3588,2,2.64149,-4187.09,-2903.18,-27648.7
7.70341e+07,28.4915,2,2.43462,5241.33,-1727.63,-26369.9
7.70987e+07,86.971,2,3.05598,17981.6,-2209.73,-27085.8
7.71601e+07,14.5429,0,2.56032,2408.4,871.262,-27040.4
7.71827e+07,101.448,0,2.692,20220.4,3581.74,-22496.5
7.75113e+07,47.1392,2,2.77024,3897.87,-7546.99,-23644.5
7.75996e+07,43.8993,2,3.01511,4880.39,-7640.8,-26989.2
7.7822e+07,205.005,1,2.55975,-18374.7,13757.9,7948.39
7.79659e+07,24.0177,2,2.85639,-3208.27,-3991.33,-29134.3
7.83098e+07,21.4637,2,2.53065,-478.435,-4542.51,-28023
7.8339e+07,24.9938,2,2.72776,-1413.91,2385.99,-24371.2
7.84866e+07,16.077,2,3.05622,1514.62,-1958.36,-26506.8
7.88135e+07,35.6802,2,2.80916,438.164,6987.86,-26295.1
7.89578e+07,180.284,0,2.40727,-24814.8,25443.1,-15136.2
7.89895e+07,322.69,0,2.50704,7456.16,6124.28,6871.88
7.96083e+07,20.866,1,2.7513,-3117.33,1696.58,-26152.2
8.02085e+07,70.2882,0,3.00214,-7580.91,12258.7,-25997.7
8.0274e+07,9.57744,1,2.78366,-1474.69,54.5071,-27396.6
8.06513e+07,132.704,1,2.80446,9081.09,5122.84,-12239.9
8.09212e+07,54.5965,2,2.67343,-7294.01,1221.92,-19958.9
8.09543e+07,13.8727,1,3.04815,-2416.46,1300.03,-27615.1
8.10378e+07,143.884,1,2.8356,22133.8,11499.8,-11687.7
8.10819e+07,223.351,1,2.69768,-23121.4,-5727.91,11798.7
8.12064e+07,46.2234,0,2.57437,4018.16,7891.05,-24602.7
8.12176e+07,24.7388,2,2.84646,-1515.71,4892.84,-28243.8
8.1689e+07,66.8622,2,2.88938,3871.88,9562.55,-19354.5
8.17269e+07,203.769,0,3.04727,23546.9,-22766.3,-1424.27
8.18793e+07,82.1586,0,2.55334,-898,12198.5,-16489.1
8.21477e+07,6.46925,2,2.90724,305.246,-1039.43,-27946.3
8.23902e+07,80.1616,2,2.57452,-4089.13,7296.31,-14103.4
8.24824e+07,73.1968,1,2.57612,5295.66,14536.4,-27688.8
8.25221e+07,21.4943,0,2.87624,3228.95,3271.32,-28520.2
8.25385e+07,33.8311,2,2.86251,-6587.76,-1666.03,-26471.7
8.25704e+07,16.4591,0,3.02902,2753.57,-947.643,-26819.9
8.27258e+07,58.3392,0,2.75693,7795.78,8638.17,-24652.5
8.27431e+07,25.8513,1,2.77591,-3013.77,3503.02,-25834.1
8.29109e+07,70.0129,2,2.889,-8659.78,-11716.2,-26170.5
8.31003e+07,10.7479,1,2.46621,-1578.19,1302.19,-27654.2
8.3259e+07,112.531,1,2.72289,5171.14,22904.3,-25079.3
8.34751e+07,25.7631,1,2.37399,-173.614,3115.14,-24298.6
8.39703e+07,164.954,1,2.8373,-11559.3,23169.5,-5650.66
8.4484e+07,189.335,2,2.72591,-4422.01,1572.35,-24403.2
8.45307e+07,37.6115,0,2.74424,772.687,-7350.96,-25909.3
8.45329e+07,15.3174,1,2.59603,-2647.48,-1346.48,-27462.4
8.45665e+07,49.23,1,2.9861,4083.7,1095.12,-19423.4
8.49363e+07,31.4558,2,2.43559,-3120.72,-5868,-27638.9
8.53411e+07,201.694,0,2.69499,-15888.5,11443.8,4858.69
8.60011e+07,2.46308,0,2.64674,290.723,-463.97,-28731.8
8.60017e+07,150.775,0,2.72008,15582.6,-27750.3,-28082.1
8.62382e+07,94.0836,0,2.70984,13417.9,2693.68,-25035.7
8.64874e+07,209.046,2,2.94662,2763.69,-21261.8,9467.4
8.67827e+07,46.3503,1,2.87346,-6930.68,-4660.97,-23773.4
8.68811e+07,36.454,2,2.72898,6879.74,-3145.18,-27511
8.71242e+07,106.185,1,2.81999,-9217.17,-10453.6,-11432.1
8.7175e+07,148.34,0,2.70563,22155,7294.38,-7906.76
8.74026e+07,1.78048,2,2.88103,133.81,-442.65,-28931.6
8.75837e+07,148.15,0,2.43476,8553.75,-23847.2,-10324.5
8.7668e+07,62.2422,2,3.01894,5132.08,-3432.66,-17322.4
8.78876e+07,49.7587,0,2.43689,-4885.12,4307.68,-20613.8
8.8008e+07,134.683,1,2.6378,18245.6,-13492.6,-11795.9
8.81419e+07,50.2039,2,2.73864,-8883.3,2119.34,-23399.9
8.82442e+07,43.7723,0,2.86723,6279.93,5187.26,-24405.5
8.83457e+07,72.8117,1,2.38488,9316.97,12318,-29874.4
8.83612e+07,82.7861,2,2.75158,-3398.94,8756.38,-14169.6
8.84087e+07,101.066,1,2.61765,-7777.3,-4162.28,-9385.35
8.85052e+07,214.805,0,2.74215,-7558.8,17818.8,11830.2
8.85787e+07,61.8278,2,2.91175,9193.45,-8197.56,-24684.7
8.86026e+07,59.2584,0,2.52738,6165.91,10271.3,-24970
8.89259e+07,40.2046,0,2.7746,3554.87,2489.47,-21529.5
8.95678e+07,85.4157,1,2.70352,-1486.33,17880.9,-26546.8
8.9682e+07,40.4624,0,2.7709,4921.3,-3505.32,-22747.9
8.98835e+07,32.6942,0,3.03917,2447.94,1927,-22677.6
8.98966e+07,55.6917,0,3.0384,10212.5,-3366.84,-24112.7
9.01467e+07,36.747,2,2.58346,-44.5283,-7560.47,-26725.9
9.01622e+07,7.60553,0,2.84764,592.216,-519.519,-27383.2
9.05054e+07,119.263,1,2.84282,17664.4,17835.3,-29437.3
9.06525e+07,4.53282,1,2.92355,646.831,504.501,-28292.6
9.08144e+07,64.5215,1,2.8152,10310.8,-529.457,-20040.1
9.13441e+07,48.4911,1,2.6441,-3032,8407.89,-24552.8
9.18156e+07,273.833,0,2.72158,7840.14,-1354.12,3666.66
9.18756e+07,51.8721,0,2.47261,3949.05,6483.5,-20851.7
9.19138e+07,182.429,1,2.70306,-22357.8,6807.96,1743.45
9.2086e+07,22.1429,1,2.94459,2185.23,3247.86,-26240.6
9.24008e+07,115.889,1,2.92619,23455.5,-5934.33,-26751.1
9.27974e+07,54.6773,0,2.47159,-9673.16,-2199.73,-22963.9
9.29786e+07,3.0023,1,2.42833,-118.294,285.901,-28217.6
9.30012e+07,131.415,2,3.05866,-919.601,10144.6,-6143.25
9.31981e+07,50.166,1,2.70804,-4458.69,9610.01,-27445.2
9.35053e+07,10.1614,2,2.7861,986.409,337.498,-26973.7
0,10.1574,2,2.39162,0,0,0
9.36171e+07,25.8452,1,2.79453,787.279,3362.6,-24591
9.3697e+07,17.061,2,2.44508,1958.87,1411.22,-26181.1
9.3728e+07,110.044,0,2.60497,16489.4,13735.7,-19804.8
9.46263e+07,182.533,2,2.66325,17808.2,-26773.5,-7596.08
9.50962e+07,129.139,2,2.58623,105.021,-27344.5,-29905.4
9.54882e+07,9.46597,0,2.40961,1060.25,-1756.67,-28519.5
9.56025e+07,3.76281,0,2.80816,215.967,-705.091,-28427.1
9.56457e+07,16.4077,0,2.93309,2583.45,69.2739,-26475.6
9.6467e+07,285.542,2,2.43308,27316.6,-28212.7,17063.1
9.67494e+07,64.5352,0,2.39937,6787.45,10485.3,-23210.5
9.73862e+07,46.6442,1,2.95076,-166.787,9389.58,-25763
9.76863e+07,16.647,1,2.69,-1103.61,3218.44,-27601.2
9.78455e+07,117.792,0,2.73341,2638.25,-19417.8,-13577
9.79172e+07,59.1083,1,3.06005,6354.96,5885.61,-19965.5
9.8068e+07,151.183,0,2.38094,-15508.2,23688.2,-14024
9.82633e+07,68.3358,0,2.74645,-7171.1,-8945.52,-20199.3
9.85635e+07,142.033,2,2.68534,-16519.1,24206,-22823.3
9.87088e+07,132.352,1,3.04768,10593.5,5095.01,-23251.8
9.8841e+07,60.2593,0,2.45774,2220.93,-9705.58,-20926.1
9.91844e+07,16.2124,2,2.94058,-1076.75,-2259.07,-26415.2
9.95507e+07,108.622,1,2.56033,-3405.58,10822.1,-8818.77
1.00756e+08,67.1903,2,2.58136,-8753.45,7888.12,-20920.6
1.00779e+08,24.0173,2,2.98932,4186.72,-2875.83,-28858.6
1.00848e+08,108.151,2,2.55019,-8843.41,10615.4,-10615.1
1.0106e+08,1.89236,1,3.00195,-98.9106,353.744,-28554.4
1.01236e+08,31.1911,0,2.40065,5989.3,2319.12,-26960.4
1.01393e+08,1.19844,0,2.73427,241.465,182.423,-28679.9
1.01565e+08,27.3036,0,2.4861,-5439.01,51.5585,-27091.2
1.01671e+08,94.0359,0,2.91947,17727.5,-8855.07,-28125
1.0174e+08,165.395,0,2.70735,21388.5,-17785,-7740.54
1.01915e+08,25.435,2,2.74055,3927.55,-418.824,-25243.9
1.01918e+08,112.115,0,2.81559,19787.6,-8792.59,-19320.1
1.02212e+08,247.127,1,2.67569,-27503.5,26148.6,6953.82
1.02582e+08,25.3732,1,2.45189,-2374.97,4845.86,-27853.5
1.0284e+08,27.9318,1,2.79253,1600.45,-4748.84,-25891.1
1.02955e+08,33.9988,2,2.96635,2839.66,-5361.87,-24964.8
1.03123e+08,17.5598,1,2.59837,602.458,-2167.66,-25916
1.03141e+08,21.7089,2,2.44342,1079.92,-4382.05,-27638.8
1.03189e+08,17.6781,2,2.79403,279.15,-3779.65,-28350.7
1.03299e+08,47.0487,0,2.67888,-1739.13,9261.33,-25669.5
1.03487e+08,9.90813,1,2.45949,1918.69,-729.646,-28607.9
1.03616e+08,74.1319,0,2.60341,-6947.31,-6492.04,-16466.7
1.03655e+08,102.153,0,2.39652,5303.42,20962.8,-27813.2
1.0406e+08,11.9586,1,2.75608,677.743,-1679.08,-27177.2
1.04419e+08,153.791,1,2.80588,-6952.1,23867.6,-8041.54
1.04744e+08,173.821,0,2.68846,27955.6,22049,-19903.4
1.04786e+08,39.21,2,2.5346,-2921.49,-3718.13,-21946.6
1.04957e+08,16.5374,0,2.50815,-376.178,-2759.65,-26724
1.05621e+08,68.0668,0,2.9857,4235.7,12240.4,-22738.1
1.05705e+08,45.9025,1,3.0154,-2382.49,3294.09,-20055.6
1.06504e+08,8.37614,1,2.9525,962.914,916.887,-27637.7
1.06701e+08,227.527,0,2.71212,-22828.1,6553.73,12755.9
1.06701e+08,5.68858,0,2.42059,1220.79,-314.1,-28482.5
1.0687e+08,35.3641,1,2.60856,3222.47,6752.51,-27842
1.0703e+08,7.9882,2,2.97579,1278.68,-631.049,-27960.3
1.07287e+08,32.9352,0,2.80603,6816.12,1564.1,-28127.2
1.07493e+08,47.1823,1,2.64703,-2438.76,8000.59,-23269.1
1.07596e+08,6.89605,0,2.93626,-1306.35,246.404,-28387.2
1.07622e+08,44.439,2,2.90347,3305.8,-6764.58,-23272.4
1.07751e+08,79.2596,0,2.9976,15383.5,-493.604,-22321.2
1.07765e+08,86.4792,0,2.91644,-2408.41,-17018.8,-22940.2
1.07795e+08,294.122,0,2.42354,19848.8,-28615.3,22693.2
1.07997e+08,12.8663,1,2.50015,-1417.7,-417.99,-26510.7
1.08014e+08,47.5701,1,2.71469,-9239.32,-1508.05,-25115.1
1.08058e+08,6.20396,0,2.67996,-284.469,-840.186,-27885.7
1.08208e+08,29.9532,2,2.57526,-3270.72,237.865,-23369.8
1.08214e+08,23.4781,0,2.80795,249.612,-2511.04,-24562.2
1.08299e+08,93.1068,1,2.43373,-17286.1,-822.028,-19349.9
1.08318e+08,4.44705,1,2.64661,792.738,192.024,-28419.1
1.08435e+08,129.331,1,2.58959,14670.9,21353.2,-20102.1
1.0844e+08,13.5611,2,2.97851,-1214.46,1610.07,-26815.9
1.08777e+08,16.9172,1,2.65423,9.12164,-3080.37,-27110.2
1.08779e+08,137.904,0,2.61665,-4974.98,49.3145,-20573.4
1.08876e+08,82.8659,2,2.48468,-3740.44,-6449.16,-14947.8
1.08879e+08,18.1001,1,2.71948,-3169.76,-2042.79,-28192.8
1.09096e+08,31.9357,1,2.80965,-6801.19,138.907,-28961.8
1.09133e+08,79.4411,2,2.50149,-15336.4,-7065.05,-28841.4
1.09439e+08,16.8687,2,2.92148,-1445.68,-2705.79,-26876.5
1.09547e+08,103.047,0,2.68776,9244.01,-15823.2,-17093.5
1.09656e+08,182.723,2,2.67723,-7536.71,-18199.5,4332.99
1.10859e+08,72.4733,2,3.05801,3224.06,-12140.6,-20203.2
1.10921e+08,114.604,0,2.68786,4454.86,-23531.3,-25401.5
1.10985e+08,162.428,1,3.00833,14338.6,-13868.9,-1303.24
1.114e+08,167.663,1,2.64896,-21582.9,15970.4,-5718.15
1.11984e+08,23.1632,0,2.64929,4412.91,-2322.79,-28697.7
1.12354e+08,55.8721,2,2.5329,2631.01,-8373.04,-20856.7
1.12378e+08,167.785,1,2.86236,-22063.9,-1038.87,-1302.31
1.1294e+08,29.123,0,2.7469,3270.65,1216.43,-23723.2
1.13445e+08,95.8278,2,3.04972,-19114.3,6020.99,-27324
1.13621e+08,23.54,0,2.9553,2412.88,-330.19,-24487.5
1.14164e+08,173.804,2,2.6077,-3442.49,-5970.32,-1330.05
1.1482e+08,29.478,2,2.63429,-550.732,-3527.87,-23665
1.15233e+08,73.9279,1,2.68293,-6367,-10596.7,-19407.5
1.15347e+08,7.32997,1,2.73471,-405.991,372.106,-27346.4
0,7.34207,1,2.96299,0,0,0
1.15443e+08,75.2447,2,2.39435,-11501.4,-5642.19,-19253.1
1.15579e+08,52.9505,2,2.6959,9611.09,5052.95,-26453.2
1.15725e+08,51.0337,2,2.9515,-4334.31,-7561.2,-22474
1.16436e+08,110.62,0,2.86986,-4018.1,-17709.3,-14349.2
1.16592e+08,228.181,2,2.80941,10038.2,-29267,-22332.8
1.16616e+08,57.2683,0,3.05596,7769.58,6874.35,-29803.8
1.16743e+08,161.86,0,2.64947,4444.26,18824.6,-9752.39
1.17042e+08,192.738,1,2.42057,7596.47,27950.6,-66.8901
1.17602e+08,11.2796,1,2.62571,-1633.43,1781,-28219.4
1.17705e+08,40.6624,2,2.98954,-2631.45,-2119.08,-20951.6
1.17815e+08,60.3334,0,2.73076,11975.5,-3448.94,-25831.3
1.17961e+08,71.6842,2,2.91099,-14992.2,-1986.85,-29440.3
1.18086e+08,75.1242,2,2.80724,12005.9,5496.96,-20258.2
1.18235e+08,100.289,1,2.89295,10792.1,4858.79,-11388.1
1.18567e+08,25.7049,2,3.0558,-4266.06,1580.5,-25921
1.18661e+08,59.6121,2,2.95213,10669.9,4152.42,-23874.7
1.18866e+08,112.816,2,2.67369,-11551.1,-2673.88,-8200.59
1.18894e+08,35.3383,1,2.79126,3113.95,2482.55,-22544.7
1.18928e+08,116.658,2,2.96867,337,13245.2,-8291.54
1.18939e+08,24.6461,1,2.80754,4878.95,-1603.98,-28388
1.19439e+08,59.1314,2,3.0381,-9980.59,-3870.42,-22468.9
1.19717e+08,90.2782,2,2.65208,16881.9,2112.08,-20311
1.19742e+08,46.0702,2,2.69481,-607.342,-6268.56,-21366.1
1.20144e+08,82.4248,1,2.81555,-4970.05,319.944,-27721.3
1.20409e+08,157.626,0,2.47751,633.49,27272.8,-9680.3
1.2048e+08,77.5526,2,2.91288,-7656.35,-5624.94,-15547.7
1.20511e+08,17.8968,0,3.01867,2598.35,-1239.73,-26313.3
0,17.7622,0,2.45018,0,0,0
1.20542e+08,10.9269,0,2.86967,2190.18,12.4123,-27864.2
1.2062e+08,48.1634,2,3.00237,-9186.36,4271.29,-28673.2
1.20991e+08,60.4593,0,2.42338,10488.3,-7443.22,-28395.8
1.21083e+08,90.8263,2,2.89483,-15123.5,-10932,-24428.9
1.21177e+08,80.6952,0,2.3932,-2432.75,8717.42,-14393.1
1.21191e+08,147.958,1,2.66966,-19646.5,14518.1,-13308
1.21253e+08,129.696,0,2.56545,24819.9,11815.3,-29282.7
1.21316e+08,107.78,1,3.00043,-22160.5,1274.69,-24292.2
1.21513e+08,90.2261,1,2.56493,919.585,18722.9,-26452.1
1.21726e+08,2.56927,2,2.90939,161.82,-574.354,-28667.9
0,2.55795,2,2.53174,0,0,0
1.22186e+08,30.4539,1,2.43485,-3598.81,4155.75,-25304
1.22322e+08,23.566,0,2.53024,-1653.3,-1427.53,-24359.3
1.22542e+08,30.9878,0,2.61964,4203.63,3327.67,-25905.3
1.22996e+08,13.4193,0,2.72153,2687.21,934.094,-29587.5
1.23639e+08,157.118,1,2.79179,5832.62,1133.43,-28202.9
1.23826e+08,74.1328,2,2.38484,-4600.23,7769.48,-16017.2
1.2459e+08,42.4769,2,2.80325,-8940.48,-393.752,-27814.6
1.24615e+08,39.7185,2,2.74271,-8434.66,32.0856,-28420
1.24693e+08,113.577,2,2.62451,2388.15,-13881.4,-9375.41
1.24767e+08,262.712,2,2.80515,-6896.5,-12558.4,-6272.33
1.24773e+08,123.228,1,2.56595,18046.8,-3267.7,-10385.2
1.24818e+08,75.4296,0,2.69525,6350.42,14134.4,-25035.2
1.24924e+08,12.703,0,2.77484,-1139.92,-1500.4,-26986
1.2502e+08,16.6829,0,2.95396,3400.02,-708.586,-29820.9
1.25215e+08,10.3624,1,2.91192,334.035,997.386,-26871.4
1.25456e+08,81.5308,2,2.67992,-11436.3,-11942.1,-23811.1
1.26038e+08,17.2437,0,2.87753,1023.1,1377.25,-25614.6
1.26054e+08,8.596,0,3.03024,-1162.31,-281.28,-27560.3
1.26083e+08,52.9709,1,2.51781,-5792.9,8914.19,-25002.4
1.26421e+08,93.3846,1,2.73805,-10896.3,-15031.5,-22463
1.26569e+08,13.9471,1,2.49015,-2800.32,-795.533,-28249.6
1.26651e+08,22.8271,1,2.62254,-388.606,3690.89,-25642.9
1.26778e+08,11.6692,0,3.04539,408.207,2075.55,-27525.1
1.27818e+08,129.283,1,3.00927,-15276.7,13518.9,-10902.2
1.27865e+08,115.852,1,2.88927,15900.9,17621.8,-23446.5
1.27932e+08,44.0443,2,2.76072,-4718.06,2549.43,-21260.1
1.28145e+08,28.9405,1,2.51399,1103.68,2515.14,-23316.8
1.28403e+08,27.2534,2,2.61096,2200.74,888.232,-23600.1
1.28846e+08,52.821,2,2.78578,-479.05,4665.8,-18786.7
1.28861e+08,22.8127,1,2.80241,-4296.34,2297.12,-29422
1.28976e+08,16.8095,0,2.93651,3150.57,-216.26,-27050.5
1.29057e+08,43.0419,1,2.72712,1699.98,5086.02,-21479.2
1.29224e+08,243.616,2,2.51982,26789.3,-6808.81,14598.8
1.29992e+08,110.283,2,2.91523,13645.7,12868,-15347.2
1.30106e+08,92.8284,2,2.65709,-5525.7,-18858.8,-29299
1.30159e+08,33.0768,0,2.53779,3062.6,-6293.46,-29829.6
1.30226e+08,8.88749,0,2.44169,1961.13,-0.725561,-28575.7
1.30235e+08,44.019,1,2.64392,-9300.74,758.487,-29779.6
1.30897e+08,4.58192,1,2.74081,-477.617,673.133,-28202.8
1.31081e+08,161.916,2,3.02107,-16960.7,-8791.06,-779.397
1.31133e+08,158.045,0,2.61749,16706,-14156.6,-3616.11
1.31352e+08,35.0456,0,2.73603,5904.19,-59.3023,-24292.7
1.31769e+08,182.202,0,2.73361,8880.66,23459.8,243.02
1.31929e+08,93.86,1,2.44445,-17714.2,-7709.31,-24150.1
1.32193e+08,67.3606,0,2.41658,-9444.89,10633.4,-28466.7
1.32976e+08,66.4919,2,2.43697,-9610.5,372.21,-18518.4
1.33018e+08,128.169,1,2.92066,-3526.62,-21257.2,-12768.6
1.33105e+08,71.8325,1,2.56118,11200.4,-6695.09,-21159.6
1.33168e+08,201.538,0,2.77596,-9833.63,-27190,-18817.5
1.33292e+08,29.3003,0,2.60039,5893.93,1550.66,-27375.9
1.33645e+08,282.985,1,2.40999,1915.73,-27238.9,24381.4
1.33793e+08,2.82713,0,2.57427,144.794,-450.804,-28405.9
1.33999e+08,45.9621,0,2.74054,1463.25,276.464,-25789
1.34465e+08,73.4971,0,2.78578,-1.48225,2031.07,-29245.7
1.34622e+08,63.5632,1,2.64255,133.193,-12813.4,-24998.4
1.34757e+08,203.032,0,2.84186,1379.8,27089.1,4133.68
1.35014e+08,61.4154,0,2.51206,12732.7,2201.73,-26793.8
1.35016e+08,56.3496,0,2.39727,3009.77,10457.7,-23859.3
1.35149e+08,8.3572,0,2.80985,-676.976,-1459.31,-28170.8
1.35154e+08,52.3294,1,2.52347,3384.46,-4207.9,-19257.7
1.35227e+08,155.854,1,2.36391,22149.9,-6847.25,-5469.29
1.35229e+08,32.1567,0,2.68674,-4357.01,-2258.46,-24196.4
1.35585e+08,14.644,2,2.6937,-1519.83,1121.51,-26360.3
1.36652e+08,81.7569,1,3.00591,13744.2,-2839.72,-19028.3
1.37004e+08,24.1016,0,2.3897,3842.98,-2863.72,-26869
0,24.1941,0,2.85418,0,0,0
1.37148e+08,104.59,2,2.58862,8376.21,-16667.7,-16953
1.37222e+08,65.096,0,2.79401,-2078.54,-13498.6,-29908.4
1.37668e+08,52.3371,0,2.56009,5731.11,9359.34,-26996
1.37704e+08,233.34,0,3.01214,16108.7,-5356.24,17014.8
1.38386e+08,193.762,0,2.65169,-2424.53,-19898.7,-9298.18
1.38643e+08,65.7574,1,2.73187,-4021.29,-5980.17,-17008.5
1.39096e+08,242.383,2,3.02143,-28346.8,-12349.3,11472.3
1.39105e+08,40.0402,1,2.5833,3488.74,4544.93,-22559.1
1.39393e+08,54.7283,1,2.57068,6254.97,-1644.88,-19252.8
1.39462e+08,53.9632,0,2.66499,-2506.58,5726.73,-19364.5
1.39652e+08,14.7868,1,2.71919,1254.7,-631.537,-26071.2
1.40178e+08,10.4206,0,2.41164,1880.71,1314.34,-28923
1.40321e+08,66.818,1,2.80391,-13916.8,402.736,-26448.3
1.40354e+08,25.2693,2,2.6981,-37.0973,-2081.11,-23883
1.40459e+08,14.8346,0,2.78141,-3008.34,90.6085,-28227.4
1.40884e+08,78.4397,0,2.50832,15221,1337.62,-22144.1
1.4103e+08,103.747,1,2.5697,-6989.67,6335.45,-8998.21
1.41128e+08,66.0146,1,2.50704,-10581.7,232.061,-19651.6
0,66.0396,1,2.55208,0,0,0
1.41565e+08,243.271,1,2.77637,-832.541,925.382,-27631.5
1.41708e+08,113.431,2,2.5477,14738.4,14496.6,-16804
1.41767e+08,52.6584,2,2.47072,1042.13,-9436.6,-22855.2
1.41946e+08,13.3369,0,3.02895,2474.43,1166.02,-27990.5
1.42051e+08,84.7178,2,2.56726,-5520.82,-10203.9,-15109.4
1.42383e+08,1.22804,1,3.00005,-191.021,90.9635,-28626.8
1.42492e+08,85.6297,2,2.94026,11068,-3250.86,-17879.2
1.42499e+08,283.904,0,2.96244,15732,19451,1351.28
1.42966e+08,26.9652,2,2.7351,-3384.61,-843.876,-24301.1
1.43046e+08,131.533,0,2.7805,6187.28,17790.1,-8541.84
1.4351e+08,138.411,2,2.44542,2134.04,58.5194,-28970.5
1.4351e+08,179.602,0,2.92543,-22413.5,-25468.9,-16991.7
1.4361e+08,2.79259,2,2.38517,-493.595,353.053,-28835.3
1.43778e+08,68.7638,1,2.74689,11779.7,1976.33,-20694.2
1.43831e+08,54.0032,2,2.6752,-6753.59,9097.25,-29891.7
1.44425e+08,88.214,0,2.68866,2513.02,-13150.5,-15878.4
1.44868e+08,35.5607,1,2.42876,-6158.31,4476.55,-29411.5
1.4535e+08,140.544,1,2.59011,-10992.1,2461.06,-1333.52
1.45391e+08,12.9554,2,2.68929,1183.37,-150.85,-26721.2
1.45403e+08,25.6649,0,2.60669,-1458.65,2098.69,-24057.5
1.45696e+08,26.9436,0,2.39625,-4604.15,-560.988,-25603.2
1.45827e+08,79.0499,0,2.58698,-9186.87,653.235,-14932.6
1.45916e+08,89.7516,0,2.51682,16216.8,-8132.78,-22975.9
1.46088e+08,126.797,1,3.02339,-2959.43,-15004.4,-7154.48
1.46265e+08,60.3343,0,2.79902,326.988,-5168.48,-17218.6
1.46965e+08,38.9417,2,2.70676,-7161.56,-3288.71,-26234.9
1.47132e+08,77.5569,1,2.39585,9203.6,13576.3,-27434.8
1.47185e+08,99.1816,1,2.98208,-13987,1689.52,-13495.1
1.47364e+08,86.1942,1,2.82861,-1479.49,14116.3,-17466.4
1.47481e+08,7.43052,0,2.54821,-275.765,1447.49,-29426.3
0,7.4293,0,2.44273,0,0,0
1.47924e+08,29.6744,1,2.96345,-3382.08,3296.52,-24710.6
1.48307e+08,28.7943,2,2.83461,-845.835,3088.88,-23726.3
1.48391e+08,167.9,1,2.50259,5442.62,-25307.6,-4615.74
1.48455e+08,19.6039,1,2.77409,-2878.11,-2424.79,-27123.3
1.4855e+08,78.9189,2,2.53047,-1635.77,-12264,-17543.4
1.48614e+08,8.65881,2,2.94355,669.49,-1603.05,-28123.5
1.48826e+08,65.9553,0,2.61502,-4540.4,12397.2,-24442.5
1.49422e+08,27.2455,2,2.43419,-2154.81,4775.22,-26452.4
1.50019e+08,30.8007,1,2.95276,3340.81,-2165.28,-23779.7
1.50304e+08,132.314,1,2.90336,-8299.66,-19861.6,-11356
1.50456e+08,1.5285,0,2.78025,267.995,-110.667,-28564.8
0,1.53442,0,2.97658,0,0,0
0,1.53038,0,2.92873,0,0,0
1.50473e+08,102.631,1,2.63736,-1591.88,19491,-19334.2
1.50567e+08,35.2978,0,2.56957,-2024.99,4947.48,-23633.6
1.50947e+08,17.4207,0,2.4571,2418.66,512.277,-26683.9
1.50958e+08,47.3326,0,2.97355,7258.2,5551.51,-24763.4
1.5101e+08,61.575,2,2.55156,-3808.45,-11067.4,-22995.4
1.51244e+08,31.956,0,2.8551,1298.6,-749.05,-26180.5
1.51499e+08,74.4691,1,2.46951,298.417,-7980.36,-15278.4
1.51623e+08,88.1036,0,2.77503,4048.77,17165.7,-23049.9
1.51666e+08,145.454,1,2.4252,-19118.2,6907.46,-5663.14
1.51734e+08,16.3405,0,2.8453,-480.427,3016.15,-27264.9
1.51977e+08,61.9957,1,2.60777,10253.3,6290.89,-23593.7
1.5204e+08,167.929,1,2.78072,-6493.8,26469.3,-6241.91
1.52549e+08,88.4171,1,2.97281,-9776.96,6040.7,-14291.7
1.52573e+08,71.2057,0,2.62771,6914.94,-13031.8,-25706.3
1.52603e+08,4.03924,1,3.03579,-594.877,748.377,-28763.1
1.53097e+08,69.566,2,2.63749,68.221,-6822.98,-15779.9
1.53378e+08,105.442,2,2.5834,12657.3,-10368.9,-13692.7
1.5347e+08,162.751,2,2.99469,14534.9,10385.4,-13531.6
1.53609e+08,55.9929,0,2.47758,3277.97,6618.95,-19518.6
1.53714e+08,39.2156,2,2.71066,-470.892,7722.07,-26093.2
1.53938e+08,115.728,2,2.71404,10992.7,-16788.7,-14904.4
1.54055e+08,144.886,0,2.93526,28408,-10125.8,-24254.1
1.54538e+08,146.177,1,2.76157,20354.2,22317.5,-22693.5
1.54986e+08,64.6581,2,2.37358,-8392.35,-5106.08,-19215.2
1.55192e+08,86.964,2,2.41849,-8598.34,4635.53,-13230.3
1.55344e+08,198.322,1,2.63968,-29822.6,15031.7,-3520.39
1.55353e+08,59.864,1,2.51048,-9822.85,1254.54,-20864.4
1.55614e+08,6.71267,2,2.78207,-874.575,128.055,-27704.7
1.55655e+08,92.5024,1,2.53494,9853.95,4526.24,-12568
1.55935e+08,44.1058,2,2.65273,-8235.26,-3418.73,-25869.7
1.56044e+08,73.8634,1,2.43626,9196.07,35.9289,-16221.2
1.56346e+08,78.0166,0,2.78282,2069.52,12470.3,-22789.4
1.5639e+08,85.1402,0,2.60547,11388.5,2947.23,-15150.4
1.56412e+08,49.3613,2,2.40324,-10290.5,-2172.93,-28468.3
1.56454e+08,72.8432,0,2.98526,11679.6,-6252.75,-21065.2
1.56474e+08,49.2055,0,3.05329,8396.92,309.541,-22722.9
1.56505e+08,43.0356,0,2.59826,-5259.54,4284.31,-22823.7
1.56554e+08,21.2525,1,2.83151,-2334.32,-3679.88,-29768.5
1.56614e+08,13.3054,2,2.74378,654.686,-1110.26,-26297.4
1.56805e+08,4.82425,0,2.57122,-426.964,-187.089,-27963.9
1.56891e+08,26.4256,0,2.38463,2228.51,-233.857,-23653.8
1.57138e+08,41.7173,1,2.90544,4626.88,-5254.27,-23652
1.57241e+08,116.832,0,2.83223,14012.1,13013.4,-15338.4
1.57432e+08,36.4513,1,2.78538,-3551.41,6651.79,-26897.3
1.57743e+08,145.512,2,2.53513,8294.52,-27753.2,-18362
1.57765e+08,6.42639,2,2.44234,-569.321,-693.483,-27718.4
1.57821e+08,21.1737,0,2.66893,1439.85,-4251.32,-29294.3
1.57918e+08,4.18293,0,2.80302,803.6,345.025,-29265.9
1.58259e+08,13.7949,1,2.59014,-2655.93,-38.6945,-27529.8
1.58674e+08,96.3676,2,2.86798,-8644.85,-12811.7,-15647.2
1.58684e+08,6.51739,1,2.97619,-1353.61,510.786,-28705.5
1.58976e+08,84.7331,0,2.68161,15668.3,-1139.21,-20131.7
1.59366e+08,3.22318,2,3.0599,-221.223,502.197,-28493.5
1.5969e+08,3.5942,1,2.41305,219.555,717.255,-29186
1.59746e+08,5.54703,1,3.01539,-31.351,1223.86,-29083.9
1.60266e+08,2.45367,2,2.51548,-16.7558,-487.52,-29219.8
1.60368e+08,5.06788,0,2.52681,-705.909,-233.679,-28106.3
1.60436e+08,32.6263,1,2.52731,2609.24,5284.82,-25167.5
1.60519e+08,93.123,0,2.53509,6112.42,-3999.98,-29363.6
1.60657e+08,14.5798,0,2.87985,823.475,2421.44,-27068.5
1.60804e+08,38.5258,0,2.49935,5089.95,-2105.31,-22731.5
1.61679e+08,24.0816,0,2.70507,2410.6,-136.922,-24312.4
1.61951e+08,6.4732,0,2.53991,442.707,479.009,-27592.3
0,6.54292,0,2.98641,0,0,0
1.62105e+08,83.025,2,3.00081,6138.07,-9348.61,-15491.3
1.62294e+08,53.3031,1,2.85401,-5476.06,5223.36,-20491.1
1.62511e+08,241.717,1,2.58988,6072.6,-399.351,-26804.9
1.62531e+08,118.497,1,2.94397,-6570.24,14140.2,-28944.2
1.62544e+08,194.905,1,2.95052,-18857.1,3290.01,7333.08
1.63851e+08,84.1113,2,3.01725,-4641.26,-14279,-19449.5
1.63868e+08,66.28,0,2.94892,-8910.58,-6879.37,-21920.2
1.64014e+08,141.058,0,2.61032,-11222.3,-3687.13,-25610.5
1.64359e+08,87.2801,0,2.57072,9123.17,-12600.9,-18849.4
1.64695e+08,22.7267,0,2.93592,-651.116,2772.65,-25040.4
1.65066e+08,193.669,2,2.83682,1858.2,-5818.57,-22437.3
1.65114e+08,5.55698,2,2.62355,-844.181,532.884,-28232.6
1.65506e+08,26.1978,1,2.84355,4206.93,-2625.86,-26504.7
1.65603e+08,141.85,0,2.66669,-17654.9,-21425.6,-17788.1
1.65651e+08,49.4988,0,2.68406,3709.15,-9800.73,-28335.1
1.65729e+08,119.933,2,2.85472,-15983.1,-4692.11,-9840.46
1.65906e+08,86.6859,2,2.72406,-13238.2,-12736.3,-28353.9
1.66361e+08,123.795,1,2.97124,-15461.6,3079.39,-8169.35
1.66599e+08,22.0886,1,2.76017,-3399.59,2168.56,-26391.6
1.67186e+08,92.5151,1,2.81713,-4321.91,19065,-28167.4
1.6732e+08,112.612,0,2.61205,12372.8,11131.7,-11797.4
1.67609e+08,48.6021,1,2.91712,-6585.58,7551.35,-26711
1.67654e+08,109.835,0,2.87209,13.2494,23068.8,-29948.8
1.67752e+08,131.214,0,2.4805,12078.1,-21833.7,-16568
1.67968e+08,199.397,1,2.5036,-3321.97,20186.8,8076.64
1.68377e+08,31.5721,2,2.71428,580.974,-6655.47,-29733.1
1.6949e+08,8.91891,0,2.59261,264.277,-837.797,-27126.4
1.69563e+08,20.8309,1,2.96373,2466.65,1945.33,-25787.2
1.69695e+08,19.9545,1,2.56643,-3383.88,726.416,-26320.1
1.69824e+08,99.9705,1,2.74478,5827.82,18452.1,-20341.2
1.70139e+08,97.3414,1,3.04383,12195.8,4233,-13160.4
1.7052e+08,37.0436,0,2.86914,6369.55,3158.59,-25465.6
1.70571e+08,141.767,1,2.4902,-20694.9,3346.99,-7376.71
1.70686e+08,48.6085,1,2.57164,-0.148132,9570.83,-24891.2
1.70779e+08,0.900055,2,2.67277,-82.5108,-111.148,-28642
0,0.866639,2,2.60013,0,0,0
0,0.928568,2,3.05454,0,0,0
0,0.875932,2,2.54693,0,0,0
1.70839e+08,9.24835,0,2.7661,-1209.92,996.099,-27715.1
1.70987e+08,134.338,2,2.95261,3438.54,-12589.5,-3808.78
1.70997e+08,60.8498,1,2.67563,1652.08,-5365.73,-17330.8
1.71235e+08,101.479,1,2.5551,16729.8,-10408.8,-20498.3
1.71317e+08,109.748,1,2.79543,9012.61,1185.54,-7617.71
1.71343e+08,58.6332,0,3.0444,4636.6,-11417.7,-28046.5
1.7158e+08,8.72936,0,2.79849,1889,18.6485,-28353.1
1.717e+08,144.198,2,2.77709,15031.4,20146.5,-12153
1.72264e+08,30.5573,1,2.41923,-4318.37,-4712.34,-27900.5
1.72635e+08,22.7745,0,2.38075,1777.59,-2838.25,-25294.2
1.73292e+08,115.781,1,2.95585,632.556,-22048.7,-18789.2
1.73475e+08,90.6415,0,2.58513,2666.37,9551.33,-12449.1
1.73807e+08,10.5182,0,2.51089,1258.02,449.269,-26972
0,10.6454,0,2.98783,0,0,0
1.73954e+08,6.38618,2,3.0368,126.446,-376.132,-29325.5
1.73962e+08,12.8588,1,2.94869,-1499.46,662.045,-26628
1.74038e+08,154.136,2,2.76282,-28140.3,-16267.7,-29696.4
1.74918e+08,19.5352,2,2.82456,3826.29,-1482.01,-29155.2
1.7496e+08,61.1546,0,2.77201,-8360.66,-9193.21,-25633.3
1.75023e+08,81.1323,2,2.5078,-9404.58,-7982.86,-16844.1
1.75439e+08,51.4303,0,2.62234,833.813,7447.82,-20954
1.75487e+08,34.3599,0,2.8459,2313.55,-5077.53,-24179.4
0,34.2195,0,2.65357,0,0,0
1.75727e+08,59.8674,2,2.88526,-12298.9,1136.47,-26123.6
1.76018e+08,68.6045,0,2.89531,11359.6,3566.57,-20571.1
1.76031e+08,54.7683,0,2.46758,-2807.41,-10746.1,-25575.4
1.76101e+08,79.9244,0,2.92489,-4660.13,5378.9,-13639.8
1.76111e+08,106.018,1,2.69079,1794.54,21635.3,-23394.2
1.76378e+08,103.354,1,2.71797,-14268,-14217.9,-20573.4
1.76663e+08,71.772,1,2.44655,-7499.45,-868.782,-15680.4
1.76835e+08,19.5638,1,2.36634,601.716,3162.3,-26113.8
1.77049e+08,43.6179,1,2.6509,-4317.84,-7102.13,-24904.8
1.77508e+08,14.0272,0,2.52448,213.13,-1497.19,-26245.8
1.776e+08,106.728,1,2.50483,-15537,12919.4,-18594.6
1.77785e+08,2.22127,1,2.61995,89.2059,390.531,-29196.3
0,2.15848,1,2.56669,0,0,0
1.77867e+08,72.4823,2,2.83398,-8319.01,-2024.66,-16198.2
1.78427e+08,2.30002,1,2.78692,-138.481,588.393,-28823.1
1.78602e+08,12.0605,0,2.45608,480.321,1812.56,-27056.9
1.79194e+08,150.685,0,2.62941,27465,-2418.5,-12807.1
1.79228e+08,83.0844,0,2.83276,-11912.1,-10582.8,-21741.9
1.7955e+08,85.4312,0,2.92807,-14904.8,127.938,-18978.6
1.79794e+08,221.904,0,2.37653,10595.1,-629.865,-29014.5
1.79963e+08,29.5272,2,2.7017,-5311.39,-401.671,-25485
1.79978e+08,12.1099,0,2.73365,680.637,-961.617,-26550.2
1.80161e+08,16.7431,1,2.38071,2324.67,2513.6,-27791.4
1.80708e+08,95.1141,0,2.5385,11975.3,7937.29,-14691.4
1.81062e+08,194.708,0,2.77315,21509,-5067.24,5734.16
1.8126e+08,44.7725,2,2.75848,-8512.14,-3757.69,-26857.6
1.8136e+08,52.6546,0,2.44686,-4544.88,4325.3,-19639.6
1.81412e+08,45.945,1,2.57807,-5341.23,7902.78,-26603
1.8143e+08,47.5465,0,2.79874,5908.21,2220.41,-21000.1
1.817e+08,195.162,2,2.5967,6036.96,25187.3,3151.73
1.81778e+08,104.285,0,2.67594,17637.4,11163.4,-21637.1
1.82083e+08,17.7275,1,2.48721,3353.87,857.2,-27369.4
0,17.8343,1,2.80753,0,0,0
1.82435e+08,140.018,1,2.53045,-27466.5,10173.6,-24104.4
1.82557e+08,59.7452,0,2.8849,-5112.06,11421.6,-28094.2
1.82576e+08,28.108,0,2.36451,-581.266,-4098.66,-24538.2
1.82612e+08,35.1032,0,2.62295,3344.58,6623.13,-29596.3
1.82873e+08,74.5506,2,2.93481,-8569.7,-9852.92,-20087.5
1.83379e+08,117.773,1,2.73939,-3029.83,4628.65,-22766
1.83381e+08,25.1973,1,3.04765,3329.39,1983.64,-25215.1
1.83394e+08,145.466,0,2.56004,21612.9,13318.4,-11429.1
1.83516e+08,35.8782,2,2.73034,-7477.22,-605.618,-27459
1.83675e+08,18.0461,2,3.0304,63.1809,3453,-27375.5
1.83782e+08,22.6578,0,2.85531,-2408.98,-2353.41,-25484.3
1.84224e+08,13.9267,1,2.5099,-390.96,-1784.81,-26563.5
1.8436e+08,128.741,1,2.87072,-3981.01,11919.2,-4825.96
1.84421e+08,105.898,1,2.85001,-6905.5,9013.71,-24603.4
1.84451e+08,56.61,1,2.96311,11074,204.038,-24652.2
1.84817e+08,79.4989,2,2.7024,-12699.4,4672.36,-18882.8
1.85107e+08,71.3392,2,3.01198,1871.79,-12648.8,-25126.9
1.85201e+08,19.7247,1,2.76611,-3044.9,-2806.33,-29125.7
1.85478e+08,92.224,0,2.67677,-10504.6,-2636.67,-12806.1
1.8564e+08,70.7261,1,2.53944,-10585.6,4495.25,-19175.1
1.8591e+08,115.493,1,2.45204,-22742.7,-167.749,-19741.9
1.86099e+08,11.8138,2,2.60059,201.572,-2478.63,-28155.9
1.86139e+08,54.9492,0,2.6266,6195.2,-8710.62,-24142.4
1.86159e+08,63.4653,1,2.37297,9031.3,3584.6,-19536.8
1.86168e+08,125.399,0,2.60051,3444.61,26282.8,-28506.2
1.86965e+08,301.084,2,2.55044,7704.96,-13943.1,21415.5
1.872e+08,36.4252,0,2.66624,7284.58,-1730.77,-26677.3
1.87407e+08,45.702,2,2.88667,-3158.57,585.05,-29962
1.87536e+08,119.376,1,2.4837,-17268.3,549.586,-10398.3
1.87816e+08,118.903,1,2.51204,-10591.8,-21609.3,-21644.5
1.87896e+08,206.257,1,2.68617,18071.5,21227.8,4555.71
1.87919e+08,26.0312,1,2.71434,-1887.52,5175.46,-29725
1.88167e+08,162.309,1,2.70009,16618.4,13050.9,-1915.64
1.88454e+08,43.1883,2,2.84456,8012.39,3221.31,-26220.4
1.89036e+08,111.324,1,2.6489,-12242.9,-18998.5,-22518.9
1.8905e+08,231.525,2,2.63428,-29288.2,-26582.7,-23.4673
1.89168e+08,28.3786,1,2.38633,-1221.27,5981.48,-29285
1.89186e+08,83.8266,2,2.6208,2907.15,-6576.51,-12630.5
1.89275e+08,102.858,0,2.59019,-8937.51,-19785.6,-28720.1
1.89593e+08,89.7782,0,3.04357,4082.77,-14124.1,-17049.6
1.89674e+08,45.1421,0,2.77057,-4046.48,-8407.64,-27053.6
1.89782e+08,122.643,2,2.6405,14054.4,-17218.8,-15518
1.90227e+08,18.4311,2,2.44648,-2586.57,-1922.36,-26523
1.90259e+08,13.6668,0,2.79721,271.698,-2798.02,-28061.8
1.9034e+08,51.1931,1,2.48969,-4578.23,9132.52,-24968.6
1.90531e+08,129.395,1,2.62686,13315.6,-20003.7,-16012.1
1.90534e+08,62.244,0,2.54917,6144.88,-9610.14,-22216.7
1.90563e+08,96.5671,2,2.78385,-11039.3,-4673.52,-12381.7
1.90604e+08,33.3833,1,2.40576,3738.8,5715.87,-26779
1.91652e+08,28.1479,0,2.51955,1210.13,2308.55,-23456.5
1.91754e+08,77.8393,2,2.65873,-4245.86,-6701.51,-14412.5
1.91758e+08,245.999,0,2.60939,-8880.43,22237.9,17221.2
1.91776e+08,20.593,1,2.49525,297.738,3178.81,-25822
1.92018e+08,80.9646,2,2.43357,7548.15,6375.16,-14882.6
1.92052e+08,44.2872,2,2.50342,44.7645,-6263.22,-21787.6
0,44.839,0,2.94781,0,0,0
1.92453e+08,41.426,1,2.72948,-355.474,-8663.76,-29034.9
1.92799e+08,4.73914,0,2.79606,584.221,-377.761,-28040.9
1.93125e+08,51.4518,1,2.55419,-8657.56,-1085.7,-22274.2
1.93239e+08,51.9393,0,2.53042,5460.03,8860.39,-25165.8
1.93547e+08,24.5624,2,2.84206,-4424.65,1881.86,-26917.9
1.93892e+08,57.4884,0,2.43119,-6004.84,9525.16,-24300.3
1.93945e+08,1.42214,0,2.49024,97.3242,280.558,-28654.7
0,1.37911,1,2.43009,0,0,0
0,1.4418,0,2.94267,0,0,0
1.93972e+08,65.7141,1,2.48808,-3541.22,10362.5,-20164.5
1.94133e+08,115.634,1,2.43957,-3282.53,16438.2,-10941.1
1.94172e+08,99.0994,0,2.42816,-3118.2,-13887.8,-13446.5
1.94427e+08,20.7598,1,2.5637,3703.06,926.868,-26697
1.94894e+08,97.3798,1,3.00992,8736.54,-22.9689,-12234
1.9501e+08,159.501,1,3.05934,-26515.5,17840.7,-19127.2
1.95087e+08,84.7316,2,2.66183,-692.701,-12596.1,-16071.6
1.95158e+08,255.103,0,3.00027,-21338.5,-24578.8,13470.1
1.95261e+08,74.6109,2,2.82548,-1401.46,-7907.09,-15303.8
1.95299e+08,52.9064,2,2.83249,-8269.56,7187.89,-26791.2
1.9549e+08,114.066,1,2.59443,8127.91,7158.82,-8450.55
1.95553e+08,21.3552,1,2.55935,-3403.05,2912.32,-27723.6
1.95829e+08,181.768,1,2.71226,17266.4,12802.4,2830.37
1.95978e+08,84.3182,1,2.64902,-8740.54,-5799.02,-14468.1
1.95996e+08,105.442,2,2.59382,6598.27,7461.42,-8952.57
1.96303e+08,14.1356,2,2.69195,1122.99,1011.92,-26275.3
1.97541e+08,29.8317,1,2.64798,-1418.45,6029.87,-27259.9
1.98046e+08,15.394,0,2.46566,213.206,-1434.87,-25889.5
1.98186e+08,37.2187,1,2.80092,-3563.26,6688.62,-26466.3
1.98238e+08,144.065,2,2.38436,25803.4,-4660.41,-13354.9
1.98582e+08,153.464,2,2.64924,-27648.3,7258.87,-13543.4
1.98635e+08,3.00701,2,2.5547,-26.9445,-219.515,-28211.2
0,2.92839,2,2.80687,0,0,0
1.98639e+08,69.4893,2,2.57206,11016.6,-9113.57,-25318.8
1.98784e+08,7.87083,2,2.88601,448.982,-753.32,-27386.3
1.98811e+08,21.096,1,2.55175,1657.45,2020.61,-25189.5
1.98918e+08,39.3005,2,2.81218,6192.75,5184.41,-27309
1.99471e+08,53.0704,2,3.01053,580.172,-4780.52,-18761.8
1.99723e+08,3.68035,1,2.41712,-95.2592,844.869,-29064.1
2.00039e+08,179.39,0,2.57809,26489.4,-23477.6,-15073
2.00084e+08,25.4334,0,2.76332,-1143.83,-2127.94,-24051
2.00181e+08,3.34901,1,2.42448,-476.39,178.683,-28258.1
0,3.36568,1,3.03762,0,0,0
2.00189e+08,41.8428,0,2.67646,-629.72,-6942.27,-23381.4
2.00305e+08,128.242,2,2.6441,-17810.7,17857.4,-19100.4
2.00503e+08,38.7839,1,2.48871,5041.86,1243.66,-22525.6
2.00627e+08,260.362,2,2.87507,6208.18,-21375.9,21036.6
2.00931e+08,160.322,0,2.6063,-26763,8622.71,-10093.5
2.02391e+08,53.5188,1,2.57335,-10538.3,2044.4,-25035.1
2.02553e+08,94.7403,1,2.98589,1647.27,10519.6,-12009.3
2.0256e+08,103.513,0,2.48977,15026.3,13235.3,-19894.3
2.02747e+08,39.3032,2,2.58299,287.082,-8255.58,-27329.2
2.02896e+08,197.467,0,2.81257,-6923.3,-22202.2,5577.38
2.03234e+08,81.7323,2,2.70823,-5223.09,-16459,-27382.6
2.033e+08,128.021,1,2.5665,2938.3,21015.5,-11992.4
2.04002e+08,19.3066,0,2.80234,2015.93,-3043.53,-26984.2
2.04074e+08,87.1975,1,2.69186,-11545.3,5440.07,-15541.4
2.04161e+08,5.67933,2,2.84191,548.669,-561.203,-27895.4
0,5.5488,0,2.42933,0,0,0
2.0427e+08,21.3064,0,2.50369,3753.07,-340.375,-26198.1
2.04314e+08,36.4206,1,2.96752,4987.23,5752.77,-27683.2
2.04352e+08,120.576,2,2.98727,3165.52,-16168.6,-9610.67
2.04502e+08,58.9876,1,2.81066,5455.38,5591.71,-19169.9
2.04548e+08,8.09145,2,2.5993,-1304.31,-488.585,-29973.2
2.04951e+08,232.078,1,2.3816,-20959.4,19487.9,11116
2.05045e+08,89.34,2,2.62536,-5306.11,10722.3,-14299.9
2.05173e+08,143.176,0,2.79727,24820.2,4121.99,-12153.7
2.05282e+08,21.7919,0,2.45085,-974.494,3432.71,-25887
2.05438e+08,37.6557,0,2.67144,7844.3,273.933,-27162.3
2.05566e+08,46.7273,2,3.01629,-6758.81,2157.47,-22083
2.0563e+08,25.8706,1,2.72878,-1755.42,5250.68,-28299.3
2.05691e+08,3.58107,1,2.97131,-108.393,429.879,-28149
2.05729e+08,71.1853,1,2.42737,9169.47,11715.8,-26201.6
2.05739e+08,85.8122,1,2.36717,-1325.1,17689.1,-27386.3
2.05776e+08,132.286,0,2.60658,20031.8,3623.66,-9941.89
2.05951e+08,33.372,1,2.55269,-4195.99,5791.38,-29126.4
2.0599e+08,52.5944,2,2.62552,-5027.83,-7927.03,-22751.4
2.05993e+08,125.776,1,2.59258,-8190.37,13352,-7315.82
2.06029e+08,238.695,2,2.48856,18249.8,19732,9355.54
2.06035e+08,26.4609,2,2.68727,-2008.39,-4197.32,-25619.5
2.06216e+08,161.677,0,3.02961,15370.1,-6129.21,745.962
2.06407e+08,62.6437,0,2.72114,9146.21,-9289.62,-26395.7
2.06525e+08,5.40552,1,2.39607,-306.464,-451.559,-27819.8
2.07024e+08,60.8656,2,2.6939,-11720.7,-3915.06,-25131.1
2.07043e+08,5.33814,0,2.94382,924.572,-773.017,-28640.1
2.07595e+08,82.8498,1,2.37385,-7011.87,-3470.3,-13415.3
2.07661e+08,44.1198,0,2.7997,6062.25,2478.67,-22162.9
2.0801e+08,113.881,0,2.43413,13429.5,16673.6,-17693.6
2.08018e+08,134.773,1,2.66264,-11619.2,20614.8,-12932.6
2.08044e+08,5.17507,1,2.46038,-890.609,471.907,-28229.1
2.08598e+08,89.701,0,2.6515,-3918.72,-11063.9,-13991.6
2.0866e+08,55.7245,2,2.81494,-9235.1,-7351.18,-29565.9
2.08748e+08,107.425,2,2.72284,19371.5,3418.79,-17686.6
2.0889e+08,20.4544,0,2.72048,1251.46,3512.47,-26560.4
2.0891e+08,40.4623,2,2.45766,-6285.34,5826.98,-29034
2.09338e+08,23.3834,1,2.6814,3160.17,1918.42,-25539.7
2.09739e+08,38.6679,0,2.81646,5210.3,-4554.76,-24456.5
2.10278e+08,33.6143,1,2.44774,-6657.25,-275.165,-26244.8
2.10345e+08,150.675,2,2.58718,-17207.5,-21480,-12691.1
2.10625e+08,8.43865,1,3.04497,-1109.5,918.24,-27698.5
2.10714e+08,21.5019,0,2.61702,3276.69,-2099.45,-26338.8
0,22.2542,1,2.88619,0,0,0
2.10902e+08,35.7546,1,2.60643,-4146.51,4791.67,-24584.8
2.11081e+08,34.5841,1,2.46174,1349.9,6741.07,-26086.5
2.1146e+08,129.601,1,2.92089,-10237,8653.18,-22648.8
2.11911e+08,22.27,2,2.7806,-2319.69,2990.45,-26101
2.12318e+08,199.663,2,2.5255,-23599,18500.1,847.344
2.12451e+08,17.6362,0,3.03226,2413.03,-1452.58,-26324.7
2.12565e+08,9.16221,0,3.03264,-1274.04,656.829,-27616.6
2.12608e+08,23.2946,0,2.82105,3839.14,-1554.14,-26054.6
2.12833e+08,129.507,1,2.82378,-1189.06,-18402.5,-28125.5
2.12847e+08,3.73144,2,2.50133,-490.238,-758.478,-28910.6
2.13271e+08,77.5975,0,2.89231,14907.9,16.0647,-22027.9
2.14132e+08,162.367,0,2.95763,19769.4,-6240.92,-17489.9
2.14215e+08,11.135,1,2.89054,-867.499,-1290.38,-27102.9
2.14453e+08,112.069,1,2.93002,15922.4,-2425.5,-11738.4
2.14484e+08,114.289,2,2.59657,-4012.98,22425.6,-20974.6
2.14496e+08,139.309,1,2.6497,24723.5,-4682.64,-13689.3
2.14501e+08,19.574,0,2.61157,-1161.43,3835.76,-27781.1
2.14814e+08,38.1675,2,3.00379,7641.29,1219.96,-26976.9
2.14934e+08,14.717,1,2.84755,1865.02,-612.915,-26447.6
2.15905e+08,103.779,1,2.96869,-15250.4,15641.8,-28240.8
2.16378e+08,23.7053,1,2.6926,1365.45,-3973.56,-26217.4
2.16389e+08,92.0774,1,2.81403,-9266.49,-6389.25,-13062.4
2.16634e+08,32.3932,0,2.53013,909.049,-4816.4,-24018.1
2.16843e+08,62.3118,2,2.52425,-7286.39,8776.47,-22228
2.17368e+08,48.0312,2,2.9448,2396.16,-7598.24,-22555.2
2.17591e+08,102.279,0,2.98215,16458.6,-10455.3,-19700.4
2.17922e+08,15.8421,2,2.44705,-432.875,-3002.89,-27245.6
2.18067e+08,14.6193,1,2.56918,-195.942,-2010.59,-26531.4
2.18594e+08,200.376,2,2.93747,-11569.8,26452.4,1655.68
2.18649e+08,45.6887,1,3.06082,-3893.59,6856.51,-23280.8
2.1865e+08,85.1197,0,2.64875,3972.75,-15095,-19938.5
2.18925e+08,141.835,1,2.89044,-19505.8,-22463.7,-27245.6
2.18977e+08,63.79,2,2.84873,-9712.04,-329.798,-19532.5
2.18987e+08,51.156,2,2.75843,-3712.05,-7593.3,-22033.2
2.19019e+08,109.893,0,2.84567,11373.9,-20100.7,-27065.7
2.19117e+08,224.535,2,2.96793,-9674.72,-27525.4,2722.46
2.19226e+08,2.30125,2,2.47158,-210.035,-184.961,-28366.9
0,2.309,2,2.74965,0,0,0
2.1925e+08,108.856,1,2.71705,-19917.2,11497.9,-28493.8
2.19274e+08,10.5386,1,3.03758,955.726,680.438,-26928
2.19298e+08,153.368,0,2.46705,17118,-24510.1,-16149.8
2.19306e+08,116.465,0,2.47305,-15940.2,-3334.25,-10412
2.19338e+08,14.1262,1,2.85408,-1500.25,2467.89,-29928.2
2.19406e+08,31.599,1,2.42331,1989.17,3369.39,-29436.5
2.19438e+08,176.551,0,2.61541,6855.55,-24302.3,-1438.18
2.2036e+08,92.6853,1,2.61649,12694,14844.9,-27003
2.20465e+08,51.6878,2,3.01352,-7413.59,-5075.94,-22657.4
2.20706e+08,11.5747,1,2.36497,-1227.28,324.299,-26712.8
2.20823e+08,77.0286,2,2.98925,-2415.75,-12719.3,-19047.5
2.21096e+08,15.3369,0,3.05824,3243.99,272.879,-28365.2
2.21173e+08,113.916,2,2.65296,-23722.7,-4130.24,-27800.3
2.21604e+08,27.0009,1,2.51554,-5012.42,-2741.3,-28245.1
2.2237e+08,1.47365,1,2.72292,-296.54,141.414,-28619.4
2.23063e+08,6.67315,2,2.8742,527.045,-1001.62,-27916.9
2.23387e+08,56.3107,2,2.96512,-398.189,-4455.56,-17862.7
2.23536e+08,203.269,0,2.77342,26918,-25217.9,-7021.87
2.23599e+08,72.6522,2,2.7506,-10329.7,5249.54,-18799.5
2.23622e+08,19.3724,0,2.99888,2874.05,2249.29,-26866.7
2.23763e+08,40.1726,2,2.92153,-5492.29,2333.76,-22848.3
2.24178e+08,47.602,2,2.50349,-8014.75,-6275.71,-28953.2
2.2433e+08,42.0019,1,3.05044,7206.41,1269.56,-23966.8
2.24465e+08,17.0126,0,2.64162,7.93934,2921.43,-26752.3
2.24973e+08,30.5263,2,2.83768,-5993.79,-2569.29,-28790.9
2.25072e+08,40.8615,0,2.92768,-381.781,8025.21,-25904.5
2.25173e+08,130.875,1,2.65219,-22938.7,-14765.7,-24460.5
2.25334e+08,54.2186,2,2.77429,7416.44,4369.84,-21387
2.25705e+08,65.8747,0,2.5539,2288.08,-7555.9,-17347.4
2.26143e+08,162.805,1,2.83918,17445.2,7661.88,-2844.47
2.2646e+08,22.1585,2,2.51321,-830.969,-4624.09,-27869.2
2.26463e+08,87.229,0,2.81147,-10326.9,-12912,-20931
2.26612e+08,73.2879,2,2.67476,-4057.6,13022.9,-21635.1
2.27354e+08,57.1602,2,2.74806,3974.41,2767.55,-17825.9
2.27714e+08,177.188,1,3.04856,-13333.8,-7752.19,4882.37
2.27959e+08,129.402,2,2.57746,-15171,-18601.5,-15592.8
2.28072e+08,82.4165,1,2.93574,-12083.4,3472.12,-16875
2.28427e+08,56.6847,2,2.42243,-10995.8,-2016.45,-24287.4
2.29088e+08,132.419,1,2.4936,-8821.66,-12991.2,-5687.33
2.29244e+08,100.242,0,2.37093,-13997.1,12727.7,-19318.3
2.29295e+08,42.6662,2,2.43017,-7244.41,1578.84,-23631.5
2.29361e+08,73.8301,2,2.79009,-7193.85,2769,-15312.8
2.29533e+08,105.969,2,2.62181,5042.65,-16753.4,-14806.4
2.29622e+08,20.966,1,2.75805,351.072,-3560.52,-26306.5
2.29972e+08,118.035,2,2.96394,-23761.3,-3324.7,-22448
2.29985e+08,18.62,1,2.42464,2131.68,-1577.62,-25961.1
2.3013e+08,45.9861,1,2.65832,-6439.32,1007.39,-21570
2.30149e+08,184.792,1,2.37253,23385.5,7307.73,1644.71
2.30159e+08,7.46576,1,2.51943,-1410.97,746.265,-29353.8
2.30237e+08,63.5741,1,2.96699,-4840.7,-4083.05,-17090.9
2.30562e+08,18.9393,2,2.79679,-2259.86,-1423.92,-25781.7
2.30668e+08,207.983,2,2.48706,-20139.2,14848.6,7313.37
2.3071e+08,51.3765,1,2.93115,647.467,10311.9,-25546.7
2.31012e+08,127.61,0,2.4279,14263.7,12560,-21288.7
2.31172e+08,89.2656,1,2.50105,-18465,2616.61,-25550.7
2.31299e+08,151.038,2,3.00816,5248.17,-6708.88,-13343.8
2.31715e+08,16.0021,1,2.37472,2904.12,1766.91,-29194.6
2.3217e+08,95.7848,1,2.91186,13681,13371.6,-22530.4
2.32296e+08,4.81819,2,2.60552,-1038.53,198.176,-29056.4
2.32299e+08,7.69683,0,2.61056,1072.25,-1331.1,-28665.9
2.32636e+08,180.954,0,2.73178,-22969.1,-21374,-7749.68
2.33298e+08,35.2696,2,2.64673,1222.43,-3585.67,-22402
2.33586e+08,51.4947,2,2.79627,1003.95,8936.59,-24913
2.33724e+08,61.4438,0,2.37074,6938.46,-5867.3,-19455.1
2.33737e+08,15.4215,0,2.71057,-850.622,2651.21,-27149
2.34025e+08,312.35,0,2.68239,-28035.8,-17008.1,28152.2
2.34184e+08,29.8573,2,2.92723,-1879.35,-5653.25,-26659.9
2.343e+08,108.237,1,2.48145,12763.7,-12068.7,-14238.6
2.344e+08,99.2051,1,2.45962,-9502.32,9520.33,-12656.4
2.34467e+08,69.1081,1,2.69427,8781.55,4147.23,-17995.5
2.34521e+08,70.2785,0,2.74523,8329.87,8834.45,-20289.4
2.34895e+08,46.0416,0,2.4826,6917.95,6960.68,-28336.3
2.35062e+08,68.6808,1,3.04793,-14086.6,276.208,-25586.2
2.35111e+08,7.25184,0,2.99224,-294.074,554.435,-27450
2.35208e+08,91.2112,0,3.0318,16908.7,-4857.36,-21189.3
2.35225e+08,11.6044,2,2.91985,1436.05,-2017.19,-28967.9
2.35228e+08,126.459,0,2.57891,723.152,-24247.8,-17608.9
2.3545e+08,27.0015,1,2.64179,-1222.79,4781.36,-25812.2
2.35557e+08,125.429,0,2.39638,13467.2,21052.3,-19713.9
2.36385e+08,27.7,0,2.43197,2141.61,2845.55,-24136.5
2.36489e+08,110.03,2,3.00035,12627.1,-17558.8,-20658.4
2.36596e+08,79.8665,0,2.79752,-6671.72,-14884.2,-24852.6
2.37306e+08,146.816,1,2.8288,15165.6,24964.1,-18825.6
2.37638e+08,60.7878,2,3.02204,-9673.19,-1197.41,-20573.5
2.37821e+08,34.6791,0,2.83437,3077.69,3302,-23036.4
2.37948e+08,200.303,0,2.53139,19605.4,10522.9,6997.28
2.38033e+08,104.928,1,2.48732,7845.74,-12647.5,-12440.4
2.38049e+08,97.4049,1,2.81347,-15038,-2308.26,-15138.5
2.38307e+08,41.5637,0,2.82166,15.1908,5332.57,-21908.7
2.38902e+08,110.117,1,2.74138,15617,-7145.4,-13314.1
2.39253e+08,2.79709,2,2.74784,285.786,-584.924,-28748.8
2.39277e+08,118.164,2,2.38418,-7610.9,-5340.36,-5590.49
2.39319e+08,11.9121,1,2.7747,1433.94,-1000.49,-27105.4
0,11.5411,2,2.61855,0,0,0
2.39684e+08,8.92248,0,2.71041,-123.94,1288.02,-27469.7
2.39691e+08,113.063,2,2.70162,-14807.6,-13025.6,-15315.9
2.39772e+08,65.7547,2,2.56082,-3925.92,-13435.2,-28749.4
2.40127e+08,143.343,1,2.99559,23955.1,8482.31,-12822.6
2.40779e+08,21.8772,2,2.43437,-4569.16,767.456,-28136.7
2.40861e+08,115.061,0,2.82447,-2716.94,-18285.2,-13205.3
2.40874e+08,7.33424,1,2.50828,767.342,-631.935,-27686.1
2.40883e+08,75.4745,2,2.96601,-24.8132,-15065.8,-23685.2
2.40993e+08,14.9757,1,2.79295,-2754.7,1262.87,-27710.4
2.41324e+08,95.2388,0,2.81174,7967.84,9812.55,-19801
2.41445e+08,141.046,0,2.79714,-26096.6,-643.79,-14883.5
2.41473e+08,61.495,0,2.45908,-2089.3,11116.8,-22400.7
2.41844e+08,9.08713,1,2.59853,555.924,1602.17,-27877.9
2.41878e+08,144.273,0,2.48505,-11470.5,-7889.95,-1716.64
2.42362e+08,5.84933,0,2.77781,-519.861,815.782,-28099.8
2.42698e+08,256.776,2,2.61005,-23540.7,6826.11,19505.4
2.42934e+08,84.4051,0,3.05999,3734.83,-10969.5,-15437.3
2.43362e+08,84.4998,1,2.56282,-4199.32,17071,-25253.1
2.43413e+08,55.6075,0,2.91301,5004.72,8351.83,-22285.7
2.43965e+08,225.473,1,2.82575,-19525.3,-14925.9,11694.5
2.44107e+08,18.5778,0,2.76693,2518.3,2885.36,-27782.9
2.44154e+08,55.2609,0,3.00162,-5857.41,-9946.36,-29467.5
2.44279e+08,115.877,0,2.80694,11301.7,-15306.2,-13537.5
2.4438e+08,9.42471,0,2.87498,1934.76,457.112,-28185.8
2.4438e+08,33.6934,1,2.49635,-6640.83,476.439,-26187
2.44655e+08,121.187,0,2.8017,-14737,-8352.93,-9850
2.44689e+08,28.2155,0,2.72009,-387.64,-2468.94,-23451.1
2.44846e+08,0.175834,0,3.13629,129.887,-11.3428,-28799.8
0,0.190442,0,3.53212,0,0,0
0,0.199462,0,2.41323,0,0,0
0,0.147122,0,2.51182,0,0,0
0,0.153528,0,3.82715,0,0,0
0,0.188324,0,3.16237,0,0,0
0,0.152013,0,2.18852,0,0,0
0,0.170504,0,2.51763,0,0,0
0,0.167849,0,3.65276,0,0,0
0,0.176908,0,2.11288,0,0,0
0,0.197585,0,3.70302,0,0,0
0,0.191267,0,3.21201,0,0,0
0,0.197479,0,2.30051,0,0,0
0,0.187037,0,3.58565,0,0,0
0,0.737956,1,3.31904,0,0,0
0,0.148731,0,3.28805,0,0,0
0,0.170296,0,2.70205,0,0,0
0,0.149298,0,3.80616,0,0,0
2.44964e+08,192.355,0,2.61391,29650.8,20593.8,-10066.4
2.45492e+08,33.1181,1,2.71664,-4039.98,3694.47,-24368
2.45707e+08,249.56,0,2.4195,493.053,27134.9,16431.1
2.45833e+08,85.4138,2,2.4469,8012.03,-7375.88,-14375.8
2.46376e+08,26.331,0,2.39601,1964.18,-1879.67,-23922.8
2.46468e+08,49.407,2,2.39706,-6214.52,4912.63,-21977.8
2.46486e+08,72.8767,0,2.55821,-10517.4,-3014.79,-18083.2
2.46671e+08,44.6155,2,2.71712,6843.81,-6526.48,-28541.1
2.46879e+08,124.915,1,2.52978,-24583.9,6130.1,-21144.5
2.47084e+08,27.7562,0,3.05704,3504.14,-2910.64,-25131.4
2.47124e+08,28.4473,1,2.4736,-4834.36,-3494.15,-28040.6
2.47176e+08,80.6894,1,2.58333,478.439,10712.3,-15512.6
2.473e+08,147.476,1,2.60341,-10429.7,23519.7,-11179.3
2.47371e+08,4.94319,0,2.99021,-112.005,446.445,-27892.7
2.4738e+08,17.4617,1,2.49412,2632.71,1742.17,-26886.6
2.47709e+08,9.1601,2,2.93531,-738.91,1737.06,-28880.9
2.47882e+08,15.2484,2,2.62173,1796.43,-1979,-26966.2
2.47901e+08,23.5137,0,2.71115,3751.99,1946.98,-26109.1
2.47928e+08,11.6153,0,2.95192,1692.16,904.169,-27215.2
2.48177e+08,26.081,1,2.5089,3916.5,-1924,-25512.5
2.48892e+08,55.6549,2,2.98337,10055.9,5623.54,-27403.9
2.49322e+08,68.3196,0,2.82731,9018.93,-2073.64,-17793.2
2.4956e+08,123.171,2,2.52896,-21969.4,13137.8,-23925.3
2.49813e+08,84.4461,0,2.89823,4622.14,12723.3,-17348.1
2.4997e+08,32.9859,0,2.42686,-1827.89,5180.56,-24540.4
2.49994e+08,205.371,1,2.87954,21659.6,25203,-1322.8
