#class tools::wcsv::ntuple
#title time
#separator 44
#vector_separator 59
#column double eventID
#column double t(ns)
#column double copynumber
#column double energy(eV)
#column double x(mm)
#column double y(mm)
#column double z(mm)
5845,23.3235,2,2.89297,983.176,-4479.75,-26987.4
60729,43.4578,2,2.59286,-7715.11,4924.36,-29684
77179,266.711,2,2.64337,-7404.51,-19401.7,-2530.26
80725,85.537,0,2.4759,12779.6,-1959.48,-16072.8
558622,14.6609,2,2.48064,2753.98,-1462.56,-28848.2
596867,107.055,0,2.39393,21300.7,-7907.91,-29341.6
695972,48.5094,2,2.70667,1501.91,-8301.97,-22955.7
703248,92.7608,0,2.3731,-968.971,-19424.5,-26042.6
780937,50.9698,0,2.68347,10393.7,-3116.15,-28794.4
918807,113.603,2,2.4933,18879.8,-7452.32,-16029.2
959339,41.8841,1,2.82286,-6467.53,4075.41,-24306.9
972096,177.939,0,2.58965,-19390.8,-3605.21,3277.66
1.46631e+06,12.1937,1,2.85834,89.6182,1811.09,-27160.6
1.47022e+06,7.0571,1,2.89332,-1098.89,981.078,-28272.6
1.49698e+06,40.7013,0,2.59051,-1343.67,-8199.53,-26785.1
1.51e+06,125.545,1,2.73047,-249.99,6946.24,-26648.1
1.55605e+06,97.1774,0,2.43916,-16594.5,5345.68,-18018.8
1.57425e+06,155.493,1,2.76107,12960.4,23091.2,-11223.2
1.75633e+06,15.1398,0,2.74857,-1447.59,-2794.66,-29040.9
1.80735e+06,41.32,2,2.72301,-6548.53,-292.305,-23403.6
1.81673e+06,99.6931,2,2.77201,-1637.36,-2458.59,-29020.3
1.83401e+06,81.3144,0,2.60697,8542.4,-3902.85,-14399.8
2.07364e+06,108.741,2,2.78966,5029.95,18477.2,-17867.3
2.10573e+06,25.9681,2,2.56592,-3642.59,-3908.59,-27288.5
2.17563e+06,63.0559,2,2.56301,11118.6,-6448.41,-25390.4
2.97968e+06,79.758,1,2.92457,-14362.2,-5826.67,-22471.9
3.04258e+06,165.982,2,2.98963,27134.7,-3251.43,-7238.11
3.17214e+06,21.5273,0,2.80517,-742.296,2753.17,-25446
3.20694e+06,126.963,2,2.43141,-6459.06,2107.29,-16367.5
3.33008e+06,29.9459,0,2.84677,4946.51,-2890.08,-25833.7
3.6691e+06,35.798,0,2.39458,6213.06,-4450.12,-28834.7
3.76843e+06,33.194,0,2.46622,6443.18,-1559.14,-26093.4
3.82213e+06,16.5894,1,2.42088,-3120.54,1231.41,-27561.3
3.85006e+06,63.2341,1,2.81068,-10742.4,-1841.73,-21107.9
3.9481e+06,64.6287,1,3.00253,3980.89,6593,-17654.1
3.97092e+06,5.31871,0,2.47393,1195.59,73.8166,-28545.8
3.98064e+06,18.263,2,2.59684,-922.467,2127.38,-28917.2
4.09031e+06,131.942,1,2.59057,-11837.5,4819.31,-4025.55
4.11833e+06,18.4897,2,2.99512,242.4,-3575.83,-27261.3
4.24301e+06,33.6957,2,2.58411,-705.034,-7180.69,-28637.1
4.35331e+06,72.5285,0,2.85791,-7170.75,-90.5935,-20048.5
4.37618e+06,177.049,0,2.43906,10383,24472,-2342.52
4.3805e+06,70.8125,2,2.39808,-7297.89,5705.82,-17092.9
4.39305e+06,64.3217,0,2.70179,-8591.9,-8865.7,-24235.7
4.49186e+06,9.64672,1,2.56119,-800.459,-1101.05,-27308.3
4.50008e+06,50.1548,2,2.607,9045.85,-5557.27,-29476.7
4.72366e+06,68.3226,1,2.90852,-3358.04,-9794.84,-19162.1
4.76325e+06,120.737,2,2.40763,-7645.96,-24386.9,-27390.5
4.81716e+06,103.669,1,2.63422,10666.4,12836,-14728.3
4.83115e+06,380.06,0,2.66013,-25386.6,-16769.3,4890.94
4.88901e+06,184.966,2,3.05583,14073.1,-19474.7,1550.97
4.89295e+06,174.664,0,2.52204,13834,22643,-3119.85
4.935e+06,43.0759,1,2.37545,-2608.87,7333.53,-23868.9
5.01916e+06,60.1362,0,2.98734,12180.7,3102.78,-28618.8
5.09542e+06,57.5139,1,2.52386,-6964.1,1020.31,-18627.5
5.1747e+06,52.1708,2,2.52995,-9903.46,-1944.45,-24306.6
5.23372e+06,69.4476,0,3.02065,11105.8,8628.52,-25088.1
5.29655e+06,46.5712,0,2.39335,-5561.17,7944.83,-28948.8
5.33544e+06,54.2517,0,2.97386,6671,-6954.07,-22375
5.35027e+06,5.31587,0,2.52216,-880.351,231.64,-28277
5.37786e+06,8.51844,1,2.84593,-538.102,-1350.34,-27825.8
5.43783e+06,97.3808,0,2.87937,-1419.29,-18451.1,-20248.8
5.54661e+06,21.0494,1,2.44167,-3930.82,2000.98,-27757
5.60635e+06,37.8031,2,2.73936,-3608.82,511.237,-21705.1
5.69374e+06,33.5803,0,2.43199,-5274.76,3384.49,-25638.6
5.71512e+06,233.834,1,3.033,-21756.4,12757.8,11187.2
5.797e+06,46.859,0,2.83124,6077.78,6822.59,-25594.5
5.98501e+06,164.348,0,3.04151,23939.4,14765.6,-8689.59
6.0028e+06,125.953,1,2.6844,-21136.5,15374.2,-23723.7
6.31654e+06,21.8783,0,2.44162,2647.38,-3600.77,-27368.2
0,21.9756,0,2.63897,0,0,0
6.43115e+06,354.266,0,2.85343,20147.5,-14183.5,-5846.16
6.4747e+06,82.6379,1,3.04406,-4625.24,8797.18,-15422.1
6.62123e+06,64.1687,2,2.48784,-861.318,-7829.5,-17733.8
6.76616e+06,15.4274,1,2.95572,-2061.32,132.065,-26208.6
6.82181e+06,118.528,0,2.44024,12997.6,-21510.2,-27999.5
6.92921e+06,71.9626,1,2.85733,-2256.33,7930.42,-16138.8
7.05106e+06,85.1009,2,2.74536,16435.7,-2534.66,-22133.2
7.12796e+06,9.75643,2,2.99232,935.003,-1462.47,-27532.7
7.1947e+06,75.8466,1,2.38911,-7234.1,-5479.27,-25592.2
7.23295e+06,57.686,1,2.88547,9892.31,3508.09,-23003.6
7.6472e+06,17.0366,0,2.9264,44.6216,1738.52,-25710.8
7.8839e+06,62.2121,1,2.67247,10693.7,-5080.68,-23309.4
7.9211e+06,175.979,2,2.61344,-18523.8,-10818.1,1570.55
7.97863e+06,30.9159,2,3.03596,1263.02,-6393.36,-28259.1
8.00395e+06,93.5342,0,2.89714,7232.62,16592.4,-21160.7
8.00776e+06,73.1368,1,2.75229,-1714.89,10855.8,-17953.5
8.1304e+06,6.99336,1,2.49709,-924.318,-1142.57,-28665
8.3441e+06,28.8387,2,2.87574,-171.235,5894.25,-27240.1
8.48212e+06,78.3739,2,2.87799,2527.88,-16150.5,-26908.7
8.54994e+06,93.7763,2,2.51788,-1073.2,-8655.06,-10983.5
8.6136e+06,175.438,1,2.98282,-15082.4,17652.4,-414.727
8.61904e+06,21.8948,1,2.6272,3329.92,3158.04,-28182.5
8.86715e+06,0.988116,2,2.81064,-171.785,-251.7,-28846.1
0,1.01216,2,3.04415,0,0,0
0,0.989346,2,3.01985,0,0,0
0,0.987094,2,2.91938,0,0,0
0,1.0584,2,2.58604,0,0,0
0,1.1014,2,2.46419,0,0,0
0,0.997401,2,2.87954,0,0,0
0,1.05421,2,2.37558,0,0,0
8.88639e+06,176.793,0,2.83113,-13460,14788.5,-1988.25
9.07618e+06,21.8963,1,2.99645,-4273.31,-66.4768,-27040.7
9.13971e+06,24.0244,1,2.78528,-4216.81,1737.61,-26508.7
9.17415e+06,62.2039,1,2.54469,-4335.18,12502.7,-28445.7
9.30946e+06,20.8416,2,2.9841,-2593.14,-2897.9,-26947.1
9.32749e+06,113.562,0,2.40173,-11555.1,-2750.4,-7815.36
9.41062e+06,136.842,2,2.53552,-10166.8,24046.7,-16462.6
9.55945e+06,63.9156,0,2.46497,-9787.57,-9212.63,-28712.6
9.74855e+06,43.8633,0,2.67125,-367.615,9079.35,-25980.3
9.93863e+06,128.173,2,2.64031,-16878.4,-2645.94,-7809.78
9.99044e+06,51.1264,1,3.03937,-9197.47,-1989.46,-24402
1.01202e+07,62.244,2,2.57153,6091.7,-9764.17,-22338.3
1.07887e+07,30.1667,2,2.61014,5639.36,-2712.73,-27636.3
1.08638e+07,81.871,0,2.95512,16578.2,-3053.4,-24642.9
1.10304e+07,174.781,2,2.87915,-26323.8,-1037.95,-3185.13
1.10536e+07,37.2961,0,2.53128,7717.26,1996.45,-29705.7
1.11014e+07,81.6319,2,2.90344,-4909.88,-9646.79,-15438.3
1.12105e+07,100.699,1,2.6443,-4712.88,11960.8,-11846
1.13332e+07,118.476,2,2.58611,11823.2,3623.27,-7095.05
1.21488e+07,54.5902,2,2.50352,-9292.77,3976.76,-23164.6
1.22977e+07,33.3528,0,2.6556,-4919.4,-1925.82,-24227.2
1.23401e+07,36.3898,0,2.61714,-1642.56,-3550.63,-22317.7
1.2403e+07,139.269,2,2.6841,17185.7,19751.4,-15710.2
1.25088e+07,15.9901,1,2.67064,-2744.27,1726.13,-27616.7
1.2564e+07,5.99749,0,2.77036,1284.04,231.423,-29308.8
1.26044e+07,43.1136,0,3.05074,4816.33,4387.3,-22401.8
1.27364e+07,15.934,2,2.76038,-1831.74,-1607.51,-26505.1
1.27372e+07,78.6466,2,2.57531,-2012.53,-8190.53,-14479.2
1.2939e+07,0.892836,0,2.36609,204.501,143.275,-28761.4
1.32019e+07,186.964,0,2.99387,-27059.3,19739.4,-8659.73
1.32097e+07,58.7441,1,2.44899,-10803.4,5170.38,-27149.5
1.32622e+07,110.564,0,2.76477,9413.23,9706.23,-9885.17
1.33007e+07,88.9828,2,2.73924,-2031.77,-6904.94,-11479.1
1.33946e+07,114.609,1,2.71559,-23993.7,2717.1,-27363.7
1.36922e+07,266.107,0,2.66413,19963.8,9771.13,22722.7
1.37078e+07,71.4867,0,2.43732,-6526.36,-13410.5,-29012.1
1.39553e+07,189.186,0,2.7898,-17549.6,-29501.4,-8722.39
1.39618e+07,19.0844,0,2.58009,-912.868,3801.12,-27844.2
1.41177e+07,27.1874,2,2.8411,-1752.37,-4229.61,-25304.9
1.41218e+07,146.846,2,2.99817,-21622.6,-11191.9,-9845.9
1.4128e+07,15.0388,2,3.023,1553.7,1325.65,-26473.8
1.42533e+07,166.73,2,2.86306,-655.453,24182.8,-6905.88
1.44286e+07,105.492,2,2.60847,676.516,-10601.9,-9217.28
1.44734e+07,115.901,2,2.40334,-18781,-6450.71,-14386.2
1.45613e+07,50.9713,0,3.02583,3241.23,4338.72,-19518
1.45838e+07,111.605,1,3.03523,7764.43,12889.7,-10881.2
1.46077e+07,229.167,2,2.47967,21944.3,25140.2,6231.15
1.46511e+07,22.6727,0,3.00494,1050.32,2504.01,-25085.8
1.47899e+07,111.844,0,2.59426,15004.1,17739.6,-24671.5
1.48382e+07,127.732,2,2.60881,-23130.1,-13970.4,-26969.2
1.49322e+07,50.1958,2,2.71983,-1618.19,-9742.4,-24542.2
1.49775e+07,46.8756,0,2.93833,9531.72,-1303.69,-26235.5
1.50756e+07,106.312,1,2.72755,11344,9152.33,-11968
1.51618e+07,88.778,0,3.02844,9153.18,-1558.09,-22785
1.51905e+07,31.1905,2,2.94058,250.552,6297.07,-27183.7
1.53864e+07,8.34407,2,2.8929,-1479.43,-1059.72,-29086
1.54136e+07,136.493,0,2.79424,1223.18,25014.7,-14780.2
1.5564e+07,45.1756,0,2.75235,7949.95,5297.44,-28931.2
1.60164e+07,50.2494,1,2.36983,-7627.27,-244.743,-21731.2
1.61932e+07,1.64055,2,2.60411,-398.816,-158.742,-28788.5
1.63522e+07,54.9092,1,2.67465,-4274.23,3368.22,-18630.8
1.64953e+07,27.5798,2,2.46453,-1903.54,5444.65,-29170.9
1.66673e+07,17.7954,1,2.48292,3670.5,746.243,-28159.6
1.67203e+07,72.0003,0,2.96087,7317.72,1238.06,-15619.4
1.6904e+07,11.6024,1,2.63953,2028.99,1013.58,-27888.2
1.69291e+07,67.9203,1,3.01744,-11783.1,-7727.25,-26913.1
1.69708e+07,58.0532,1,2.83251,-7101.53,5986.62,-20821.9
1.70492e+07,55.5313,2,2.64606,-4621.67,5310.93,-19494.2
1.70929e+07,61.4277,0,2.53885,7443.31,-9702.66,-24282.6
1.72613e+07,20.1435,2,2.78321,88.5151,-3279.34,-26463
1.73025e+07,3.10799,0,2.88876,-188.177,602.385,-28806.7
1.74558e+07,64.0825,0,2.98646,7165.18,457.354,-17452.8
1.75218e+07,35.4703,0,2.67948,2076.42,1776.51,-28020.4
1.75257e+07,51.6576,2,2.73855,5571.34,-8399.09,-24504
1.76206e+07,76.8378,2,2.93021,298.46,6802.93,-14225.4
1.77074e+07,40.1554,1,2.91852,8239.77,-1561.34,-28772.2
1.78154e+07,3.30235,1,3.0273,-85.1349,649.981,-28427.8
1.787e+07,56.4889,1,2.84755,-6447.2,-832.162,-18855.7
1.81002e+07,4.3229,1,2.70928,-272.518,632.598,-28160.5
1.81656e+07,33.092,1,2.57208,3201.19,3220.57,-23623.9
1.82114e+07,30.52,2,2.77871,-2902.72,3668.44,-24370.4
1.83114e+07,210.353,1,2.67421,-25348.3,8886.15,-7290.65
1.83129e+07,15.5363,1,2.90466,-1353.21,1422.09,-26126.2
1.83652e+07,141.051,1,2.78528,-14436,186.504,-17659.3
1.848e+07,117.063,2,2.52984,-19153.2,-10316.1,-16920.9
1.85978e+07,139.407,0,2.91108,17131.2,13959.2,-9542.28
1.86698e+07,77.9566,2,2.84882,-11709,3885.42,-17998
1.9039e+07,96.6677,2,2.95663,6894.43,-16851,-19770.3
1.91506e+07,13.2621,2,2.93294,584.333,2393.85,-27721.4
0,12.7986,0,2.77718,0,0,0
1.919e+07,124.237,1,2.37041,-5794.53,-12947,-14815.8
1.9248e+07,57.495,0,2.68006,10775.9,-1406.92,-23600.4
1.92626e+07,34.1228,1,2.943,-3403.81,2467.64,-24062
1.92709e+07,17.0504,1,2.90273,-911.427,1641.48,-25681.5
1.97179e+07,94.5335,2,2.38407,-10928.7,-3471.23,-13032.3
1.97397e+07,125.337,1,3.04365,-9808.58,-14795.5,-9583.66
1.97759e+07,118.724,2,2.43222,-7583.6,-18795.4,-14071.7
1.98755e+07,177.868,2,2.40083,14125.1,13255.4,3373.68
1.99094e+07,75.044,1,3.01583,-13896.8,-5567.72,-23893.2
1.99663e+07,100.712,1,2.54236,1773.19,19341,-20582
1.99685e+07,4.9467,1,2.58139,-520.076,1005.1,-29152.7
1.99987e+07,132.034,1,2.4016,-8904.13,11376.4,-4867.51
2.00535e+07,7.00898,1,2.48839,903.52,-611.308,-27889.1
2.0113e+07,110.049,2,2.62138,-2539.42,12089.3,-9193.04
2.02087e+07,41.5027,0,2.93364,-7701.32,-2423.14,-25713.3
2.03428e+07,94.9183,0,2.95329,6626.94,18717.8,-26715.7
2.05915e+07,243.605,1,2.97775,-17660,23759.5,12877.2
2.05991e+07,46.9196,1,2.56856,1786.73,9313.98,-25657.2
2.07044e+07,132.451,1,3.05182,-2709.9,-5875.12,-27286.5
2.07776e+07,243.113,2,2.99276,23804.3,-28684.2,5936.1
2.07819e+07,8.06785,1,2.72324,-751.692,1723.56,-28612.3
2.0806e+07,45.444,2,2.58592,-7513.25,-4709.85,-24928.3
2.08543e+07,43.7847,1,2.94148,-862.717,8184.8,-24962.2
2.10781e+07,32.4797,1,2.86782,-3354.55,1667.12,-23052.3
2.1155e+07,8.6043,0,3.054,964.618,-193.085,-27201.4
2.12146e+07,16.3636,2,3.03885,3239.61,902.271,-28364.1
2.12476e+07,94.3505,1,2.42958,18113.3,-7874.77,-27847.1
2.12525e+07,68.0134,2,2.77253,10594.5,-9266.71,-25899.4
2.13066e+07,9.53524,1,3.00092,-843.402,-438.319,-27085.9
2.14617e+07,109.701,2,2.69273,16435.7,-15795.8,-24608.3
2.14679e+07,141.689,2,2.68331,-26385.2,6519.61,-17054.9
2.1472e+07,114.466,2,2.67939,14644.4,-5755.05,-10568.3
2.15658e+07,55.5133,2,2.82074,5448.97,-8736.12,-23205.9
2.18056e+07,109.132,0,2.96794,21240.2,-2723,-24209.9
2.18894e+07,16.589,1,2.47929,2857.65,1964.75,-29169.3
2.19164e+07,11.1006,0,2.61079,1928.06,-1519.35,-28616.9
2.19704e+07,232.184,0,2.56288,11218.2,16656.2,-25768.9
2.20609e+07,78.5548,1,2.4975,-9826.97,9680.09,-19417.9
2.2075e+07,8.00158,0,2.60539,1485.91,-933.382,-28951.1
2.20877e+07,25.8354,0,3.00434,-3669.16,-2151.04,-25474.9
2.21203e+07,64.3567,2,2.60971,6131.25,-1739.89,-16968.6
2.21288e+07,133,2,2.99955,-14709.6,2954.87,-25935.4
2.21938e+07,205.528,0,2.66517,28091,21104.2,-8317.18
2.22241e+07,7.41333,1,2.37032,-58.116,1339.67,-28141.6
2.24182e+07,148.923,0,2.63426,-319.988,19936.8,-4790.81
2.26656e+07,168.352,0,2.47047,29119,2411.03,-8277.65
2.27452e+07,20.0125,1,2.43008,-2233.17,2128.06,-25951
2.29353e+07,143.616,2,2.9549,-13374.9,-17372.6,-8352.24
2.30922e+07,1.32712,0,3.29639,488.115,147.212,-28821.6
0,1.35023,0,2.345,0,0,0
2.31495e+07,13.7911,2,2.74379,-2444.4,1990.7,-28493.2
2.31639e+07,101.589,1,2.6045,-13507.8,9283.7,-14894.9
2.32514e+07,5.13481,0,2.72765,672.775,846.779,-28411
2.32955e+07,81.3408,1,2.55764,-2921.84,15996.5,-23162.7
2.33327e+07,39.0736,1,2.62156,412.4,6405.14,-23392.9
2.34368e+07,143.813,1,2.84502,-15673.2,12750.2,-6327.64
2.3437e+07,18.4863,2,2.84102,1438.34,-1202.45,-25355.9
2.34528e+07,214.08,1,2.84657,-29263.3,24174.2,-4541.34
2.36656e+07,74.4277,1,2.71872,-8123.9,-8800.4,-18707.8
2.3666e+07,77.7536,0,2.74071,6865.57,-6134.47,-15237.9
2.38941e+07,18.8902,1,3.02645,-1747.3,3600.97,-28083.8
2.3902e+07,142.041,0,2.52926,15525.5,23763,-19376.6
2.39155e+07,17.5061,2,2.52904,1607.78,1379.82,-25842
2.39255e+07,1.94993,2,2.97736,2.1263,-553.965,-28814.6
2.40085e+07,20.0177,1,2.5972,-2120.79,-3326.74,-27372.4
2.42143e+07,24.6205,2,2.56839,-2909.76,-3997.53,-26923.9
2.42802e+07,58.8097,2,2.44818,-9959.66,-7320.16,-29761
2.43337e+07,5.15797,2,3.02551,521.67,-318.011,-28156.3
2.43607e+07,82.2576,0,2.86323,6309.82,-8043.91,-14916
2.43691e+07,30.4846,2,2.64572,4210.49,-4856.17,-28026.6
2.46376e+07,217.906,2,2.93782,-27838.3,-24086.5,-1563.73
2.4647e+07,5.28022,2,2.84789,405.952,-255.014,-27765.9
2.48115e+07,146.492,2,2.50975,-23990.4,-1104.47,-9247.57
2.48746e+07,2.22619,0,2.4127,-144.466,-457.146,-28952.6
2.49447e+07,52.1478,1,2.89585,-6271.09,-5148.46,-21587.7
2.49707e+07,26.7994,0,2.94035,-3462.47,858.771,-24534.6
2.50881e+07,34.0392,2,2.58354,4038.21,-5741.65,-27094.5
2.5103e+07,154.959,2,2.88931,-20340.8,-2256.13,-3462.61
2.51165e+07,53.3703,2,2.44946,-4760.23,9212.83,-25266.9
2.52707e+07,31.6118,2,2.70924,4122.71,-5259.21,-28114
2.55302e+07,440.892,1,2.62921,5720.89,9083.09,-829.083
2.55636e+07,212.258,1,2.99591,-17367.7,5869.59,11705.9
2.5619e+07,13.6392,1,2.49641,1580.62,2463.98,-28377.9
2.56317e+07,187.533,1,2.72938,-14604.7,27292,-4240.67
2.56589e+07,2.45804,2,3.98611,-220.71,-584.254,-29214.2
2.58994e+07,8.00907,0,2.80171,997.11,1500.33,-28875.5
2.5949e+07,54.5162,0,3.03915,9459.67,-1520.26,-22268
2.60248e+07,83.1586,2,2.53747,-7056.51,-1285.7,-13684.2
2.60751e+07,48.8849,0,3.05386,-4514.04,-3175.55,-20301.6
2.61059e+07,28.8303,2,2.46175,-5689.41,1907.34,-28416.3
2.62561e+07,221.867,1,2.4752,-24389.5,-24466.7,2821.14
2.66739e+07,74.91,2,2.66837,-8260.36,11332.7,-21507.1
2.6702e+07,57.3622,1,2.72561,2344.14,12147.5,-28289.1
2.68577e+07,23.5496,2,3.05919,-4301.66,121.985,-26282.6
2.69352e+07,70.0041,0,2.62117,855.679,8341.65,-16660.1
2.69726e+07,172.918,2,2.70715,24341.5,373.795,-1765.27
2.70938e+07,160.988,0,2.39159,10135.8,-22295.1,-13284.3
2.72233e+07,11.4304,2,2.54879,486.317,1965.51,-27576
2.72363e+07,18.3468,1,2.67053,-3185.9,-1040.52,-26832.7
2.73115e+07,75.4195,0,2.39391,7450.47,11153.8,-20055.6
2.73275e+07,54.6753,1,2.8397,7015.38,7731.54,-23917
2.74946e+07,6.14831,1,2.9333,-867.11,-913.705,-28441.4
2.76692e+07,33.3193,1,2.59108,3186.46,3514.01,-23583.8
2.76877e+07,63.3323,0,2.6024,12816.7,4033.03,-29713.4
2.77916e+07,105.653,0,2.78577,17134.8,-14331.8,-29833.7
2.78224e+07,144.498,2,2.86231,1687.34,19666.5,-5793.01
2.78931e+07,55.2692,1,3.00309,-8580.41,1892.8,-21178.3
2.79751e+07,96.2584,0,2.48675,8886.32,-15234.2,-18597.3
2.79772e+07,40.2413,0,2.99421,340.556,-5010.76,-22057.5
2.80297e+07,11.2311,2,2.68005,1975.16,-1488.35,-29171.4
2.81817e+07,30.5085,0,2.45797,-5591.83,2268.31,-26790.4
2.82509e+07,10.081,0,2.90747,-1038.34,767.408,-27226.5
2.82683e+07,8.92942,1,2.43136,-1543.36,-166.386,-28579.2
2.83282e+07,147.4,1,2.71092,1370.11,-19971.9,-11826.3
2.83747e+07,3.49224,1,2.43311,24.8874,-371.025,-28225.7
2.84481e+07,45.7314,0,2.61707,-2822.75,4961.65,-21042.1
2.84518e+07,29.526,1,3.03909,-2468.68,3443.53,-24201.6
0,29.7467,2,2.94498,0,0,0
2.85839e+07,51.7078,1,2.50688,-4026.53,7647.12,-28581.7
2.87395e+07,121.567,1,2.45041,-19600.5,11440.6,-16424.6
2.87471e+07,66.4177,1,3.04532,-4857.72,10279.1,-20758.9
2.90809e+07,102.898,2,2.94314,-15593.5,-994.669,-13911.7
2.91918e+07,114.701,1,2.91072,23429,-2095.51,-23068
2.92061e+07,12.3201,0,2.81597,992.226,-958.567,-26604.2
2.92906e+07,4.27438,2,2.46823,-609.287,-387.614,-28181.5
2.93271e+07,70.6229,2,2.44647,8734.35,-2474.61,-19089.7
2.93409e+07,99.1042,1,2.92457,-11104.6,9239.75,-13762
2.93424e+07,29.9765,1,2.60532,-3660.23,4386.44,-25901.3
2.93684e+07,85.6567,2,2.91854,-6718.82,15298.3,-22295.2
2.93902e+07,166.406,2,3.05208,4196.85,12367.6,-19522.9
2.94103e+07,90.7586,1,2.50801,-1981.58,-7398.91,-22515
2.95578e+07,61.416,0,2.63841,10647.4,7527.12,-27792.3
2.96717e+07,67.5399,0,2.90574,13033.5,-1976.5,-22927.1
2.96757e+07,89.6338,0,2.64257,-10665.3,-9184.41,-16532.4
