#class tools::wcsv::ntuple
#title time
#separator 44
#vector_separator 59
#column double eventID
#column double t(ns)
#column double copynumber
#column double energy(eV)
#column double x(mm)
#column double y(mm)
#column double z(mm)
305997,25.9164,2,2.48421,-616.642,-5020.22,-26490.8
1.1018e+06,68.3655,1,2.7768,-4507.04,12042.2,-22165.6
1.22206e+06,42.0408,0,2.52311,7094.28,-1206.89,-23498.2
1.49346e+06,11.0291,0,2.3778,2421.66,-155.347,-28665.7
1.7083e+06,24.7773,0,2.42219,1417.86,-2139.56,-24221.4
1.82615e+06,62.7762,2,2.60814,5168.57,-11302,-24039.8
2.43027e+06,198.164,0,2.91284,10767.9,12489.9,9377.23
2.47618e+06,34.5677,1,2.97596,-912.332,-3196.29,-22424.2
2.49539e+06,47.2853,2,2.72357,-6522.21,7335.04,-27130.6
2.52006e+06,57.1833,2,3.04252,3431.76,-11557.5,-28530.9
3.83547e+06,160.486,2,2.90968,-26733.2,-16435.4,-16379.5
3.89776e+06,2.18121,2,2.42824,37.3051,-551.68,-28789.3
3.99933e+06,7.95809,2,2.73782,-388.605,-610.012,-27276
4.14698e+06,201.088,2,2.94154,-26482.9,-26190.9,-8831.6
4.52474e+06,48.3935,0,2.96326,-267.597,-10156.7,-28206.6
4.74043e+06,199.543,0,2.36762,16365.5,7230.5,8907.37
5.49303e+06,64.6618,1,3.0488,-289.915,-7287.3,-17468.7
6.03633e+06,48.7228,2,2.9916,4575.12,550.052,-19730.9
6.0364e+06,10.1726,0,2.80163,1228.62,-508.186,-27083.4
0,10.1975,0,2.80549,0,0,0
6.50928e+06,21.3381,0,2.88523,2470.03,-394.043,-25061
6.88643e+06,97.4376,0,2.597,6563.59,14312.7,-15510.1
7.08038e+06,53.9757,2,3.03137,-5518.66,-1461.18,-19049.1
7.15457e+06,21.3575,0,2.53037,2388.04,1811.24,-25367.6
7.20687e+06,68.0614,1,2.90487,806.044,-11469.9,-20426
7.28457e+06,90.9365,1,2.67723,-4945.01,8769.48,-12446.6
7.41039e+06,0.588665,2,2.42554,79.8354,-51.0563,-28764.2
7.93084e+06,42.1253,2,3.05941,-984.046,-6079.9,-22412.8
8.24538e+06,50.5178,0,2.47733,10427.4,-2659.43,-29792.6
8.35324e+06,36.95,1,2.64343,-6645.34,-1304.72,-24885.4
8.4816e+06,3.9814,2,3.05192,-680.762,389.157,-28514.5
8.78752e+06,2.91628,1,2.38337,-656.988,-38.378,-28643.6
8.82762e+06,81.2679,0,2.95214,1343.36,17013.3,-29213.3
8.94949e+06,99.4575,2,2.90368,19662.7,-6954.82,-28719.6
9.03077e+06,84.4889,2,2.65103,16914.8,-4219.22,-25083.1
9.44666e+06,130.766,0,2.97889,-20549.4,-8925.27,-17391.2
9.48851e+06,17.9729,1,2.57368,-1127.52,-1364.32,-25457.9
9.77457e+06,81.8818,0,2.70817,4599.89,-16251,-25079
9.81983e+06,85.0916,2,2.88967,-2579.52,13413.1,-28174.6
1.00942e+07,9.39287,2,2.63187,89.3395,932.082,-27112.2
1.04887e+07,65.5149,1,2.45523,6178.91,11194,-23353.7
1.06958e+07,95.4945,1,2.6976,-19746,-2788.57,-25849.1
1.0893e+07,29.9197,0,2.60726,-1972.47,3836.93,-24252.8
1.10792e+07,214.596,1,2.70348,22951.5,-19971.1,-27358.8
1.11045e+07,223.997,2,2.48524,26826.9,7293.42,9490.87
1.127e+07,54.7121,0,2.71806,7044.26,-9168.01,-29403.7
1.13535e+07,113.769,2,2.95155,-7478.6,-8935.89,-7989.45
1.14837e+07,3.60351,2,2.72264,-774.918,-76.1799,-28568.1
1.16514e+07,49.3544,1,2.7003,-8188.98,1855.36,-22573.4
1.24537e+07,8.58736,0,2.46776,670.875,-1723.31,-29043.4
1.24644e+07,97.7168,0,2.92621,15684.6,13157.9,-26621.6
1.24974e+07,35.6083,2,2.77008,-4739.15,1338.4,-23142.3
1.27131e+07,137.842,2,2.81389,9103.9,16893.4,-7175.55
1.27802e+07,100.239,1,2.91077,2815.7,18863.6,-20287
1.29929e+07,88.6396,2,3.0091,-4690.34,13640.4,-17162.3
1.30214e+07,40.2829,0,2.41673,5330.24,2663.24,-22663.5
1.31836e+07,72.899,0,2.61095,11864.8,3175.77,-19432.6
1.36173e+07,101.633,0,3.02578,8045.39,-9180.35,-22914.4
1.38654e+07,122.027,1,2.73204,-19033.5,-15992.4,-22282.6
1.39779e+07,63.8456,1,3.02621,-7863.67,10323.3,-25172.3
1.4172e+07,82.0506,1,2.77884,-12022.6,6209.95,-18011.6
1.4209e+07,141.696,2,2.51296,13419,-12548.6,-5164.8
1.42244e+07,2.54739,0,2.51721,565.088,0.160573,-28591.4
1.45034e+07,16.272,1,2.65412,-2066.03,2868.79,-29177.3
1.46756e+07,103.126,0,2.77501,-8375.65,-10450.4,-11774.3
1.47963e+07,242.042,1,2.88778,-17910.7,23832.4,12407.8
1.50877e+07,43.5866,0,2.63135,4308.05,-3532.78,-21437.9
1.52375e+07,115.15,2,3.00758,-22643.9,3170.32,-21389.1
1.54574e+07,209.211,2,2.55678,4151.6,-17800.8,11453
1.57664e+07,45.0413,0,2.81026,5681.76,-1792.36,-21389.2
1.57809e+07,39.6424,1,2.95872,-6458.66,-5235.07,-28730.2
1.58285e+07,131.148,1,2.48668,13777,22089.5,-19862
1.58745e+07,15.1919,2,2.6555,1007.7,2353.99,-26971.8
1.63706e+07,4.54881,0,2.75345,75.5132,356.937,-27914.4
0,4.48377,1,2.74192,0,0,0
1.63843e+07,145.418,1,2.47149,-26281.5,-2074.45,-12948.9
1.72511e+07,84.0538,2,2.73144,-11071.3,-5552.65,-26536
1.7271e+07,76.3422,2,2.49964,-9620.08,1822.21,-28950.1
1.74355e+07,106.058,0,2.86059,20010.7,-9422.59,-25400.9
1.7481e+07,25.2403,1,2.36875,-4934.13,1959.38,-29991.6
1.75013e+07,100.824,2,3.04315,-14363.1,-8092.61,-15534.3
1.75947e+07,27.7088,1,2.37965,385.476,-3028.66,-23835.7
1.78229e+07,108.546,1,2.44605,7188,16268.8,-14220.6
1.79016e+07,138.936,1,2.95191,-9296.06,15045.1,-5620.73
1.83586e+07,65.191,0,2.68416,3735.53,9190.5,-19283
1.84279e+07,144.523,2,2.73568,-9075.09,-12548.7,-2571.01
1.84389e+07,129.354,0,2.68142,834.666,-15053.1,-20942.7
1.87185e+07,3.45166,0,2.36318,370.54,633.454,-28529.2
1.87963e+07,167.906,2,2.63601,-12564.3,-5723.73,3547.87
1.90312e+07,47.9504,1,2.81684,-7246.13,5830.49,-24711
1.93911e+07,24.6196,1,2.58551,-2715.01,3939.41,-26553.2
2.04043e+07,137.033,0,2.90773,-22421.8,7138.58,-12404.5
2.04344e+07,7.80992,0,3.00993,1397.63,740.269,-28131
2.04396e+07,86.3022,0,2.74495,9048.14,9596.14,-16254.6
2.10149e+07,136.752,2,2.89355,-19394.4,-18165.4,-17718.7
2.10305e+07,33.9223,2,2.63151,-5357.29,-4904.96,-28789.4
2.12084e+07,22.9541,1,2.91463,-647.141,3397.52,-25388.6
2.13554e+07,76.4779,0,2.61319,-6016.36,8302.14,-16375.3
2.15159e+07,102.194,1,2.98153,11101.3,746.123,-10531.8
2.1738e+07,38.55,0,2.90149,5733.27,-1988.33,-23358.4
2.17462e+07,1.32658,0,3.02886,126.997,77.5305,-28545
0,1.57772,2,2.38495,0,0,0
2.181e+07,23.8163,0,2.76293,2028.33,-2240.83,-24788.1
2.18398e+07,36.7304,1,2.48486,-3589.43,6764.26,-27025.1
2.1885e+07,79.518,2,2.74064,10812.6,-11324.3,-22765.8
2.20906e+07,10.2191,1,2.5532,-466.603,1920.22,-27762.5
2.23028e+07,53.2883,2,2.48018,8393.69,-944.481,-24290.7
2.34008e+07,82.1724,0,2.45844,-9302.38,5065.68,-15088.4
2.34796e+07,70.531,1,2.84199,398.341,14684.5,-26229
2.35587e+07,171.055,2,2.55574,-4166.98,-28932.8,-7563.89
2.3713e+07,159.424,2,2.98993,-17932.9,-18842.6,-7735.98
2.38911e+07,8.14994,2,2.73128,-1410.95,-1082,-29249.5
2.39959e+07,15.3071,2,2.84087,-2167.74,-2512.88,-29254.4
2.40309e+07,62.4488,0,2.59003,-3453.48,4981.39,-17115.5
2.40611e+07,17.7762,1,2.63794,-655.829,-3326.4,-27302.1
2.40901e+07,41.2552,2,2.36305,5754.81,0.244141,-22321.1
2.45334e+07,126.484,1,2.65059,-26451.5,689.881,-24933.1
2.47759e+07,41.9124,0,2.55117,4810.25,-3626.26,-22258.7
2.47972e+07,40.2699,2,2.95546,-8438.17,1149.87,-29013
2.48881e+07,10.6057,2,2.61455,-553.386,-1037.19,-26874.4
2.49989e+07,44.8237,1,2.40459,-1680.24,9407.72,-29614.3
2.50068e+07,1.9932,1,2.45191,-298.029,438.776,-28972
0,1.99448,1,2.78605,0,0,0
2.50216e+07,71.3746,0,3.02014,7663.17,1745.42,-27447.6
2.50619e+07,2.83771,1,2.70902,-70.4388,-367.402,-28419.6
2.5239e+07,20.6056,0,3.03238,3856.85,-1656.06,-27444.5
2.58066e+07,244.917,2,2.436,-12675.6,-19579.8,17440.4
2.61022e+07,8.69629,1,2.69895,-1324.92,503.829,-27567.1
2.61022e+07,44.9382,1,2.47249,-9507.68,826.399,-27905.2
2.65304e+07,93.0444,1,2.51673,18670.6,-1457.47,-22902
2.65362e+07,127.178,0,2.98544,7314.99,-25562.6,-26510.1
2.6559e+07,73.3021,1,2.81793,-934.298,8662.06,-16054.4
2.67425e+07,31.9261,2,3.02482,4188.92,-1205.05,-23785.9
2.69716e+07,66.6588,2,2.43255,5883.46,-12699.3,-26586
2.70013e+07,152.442,2,2.63314,-7866.62,23413.7,-8253.85
2.70075e+07,14.5796,0,2.65365,1199.62,-2213.7,-27018.9
2.71335e+07,46.5083,1,2.4737,-9376.86,-1347.82,-26062
2.7287e+07,64.7868,1,2.79208,1443.36,12202.9,-22748.5
2.74112e+07,45.7989,2,2.49295,-1027.51,-9693.43,-27883.7
2.74801e+07,42.6044,1,2.65619,6747.21,-466.73,-22927.2
2.75524e+07,28.1015,0,2.82424,988.674,-5866.4,-29071.4
2.77193e+07,32.6097,1,2.62548,-3266.05,-1971.76,-23083.7
2.77939e+07,215.398,1,2.47204,-24456.6,-14476.4,6771.84
2.87464e+07,43.0823,2,2.83825,-8721.32,-2686.21,-28092.5
2.88728e+07,39.1872,2,2.67428,-5081.13,-2627.53,-22780.1
2.92111e+07,37.0464,0,2.46264,1593.55,-4597.85,-22649.6
2.93438e+07,106.201,0,2.4928,21859,-2604.55,-23930.1
2.98338e+07,44.7877,1,2.87258,-2188.86,-5259.27,-21354.4
0,44.7839,1,2.78575,0,0,0
2.9886e+07,241.188,2,2.92334,-12004.8,23640.1,14229.5
2.99325e+07,79.6634,0,2.9797,4292.83,-11806.6,-17776.8
3.04066e+07,89.4136,0,2.96265,-14266.5,-4197.91,-17461.5
3.04066e+07,28.2871,0,2.59251,369.325,5438.77,-26356.6
3.05028e+07,298.26,1,2.61462,29138.4,21221.6,22792.8
3.0684e+07,166.816,0,2.67135,-23386.4,-15037.6,-7350.78
3.08208e+07,36.4393,2,2.40517,2325.94,-7184.43,-26900.3
3.13723e+07,13.8886,0,2.88428,1506.41,-2544.37,-28900.6
3.15252e+07,68.777,2,2.57888,1523.82,-13659.1,-23876.3
3.18716e+07,59.8548,2,2.94848,-8127.59,-7880.66,-23194
3.24316e+07,143.926,2,2.62857,9323.22,-16892.1,-5331.16
3.24539e+07,223.257,1,2.42611,5442.99,24528.2,11156
3.25885e+07,60.0205,0,2.94035,6819.35,3505.92,-18780.2
3.294e+07,188.348,1,2.55135,-6324.88,-17347.9,-6433.81
3.29807e+07,115.538,0,2.85597,17041.4,-7633.75,-13199
3.31736e+07,130.256,0,2.74744,-3104.82,978.15,-29514.4
3.31913e+07,6.44493,2,2.59292,-1121.66,-918.884,-29082.7
3.3273e+07,97.6925,0,2.90316,19951.7,-5180.14,-28543.1
3.33579e+07,47.721,0,2.44234,5635.08,3003.8,-20939.8
3.33953e+07,12.2637,0,2.72568,535.422,2281.36,-27656.9
3.36782e+07,36.6106,0,2.59508,6550.04,-1908.7,-24993.9
3.38706e+07,80.3051,2,2.5738,-12923.7,-4751.93,-18791.4
3.39288e+07,130.515,0,2.82965,23374.7,13185.3,-22712
3.40179e+07,27.7476,0,2.52681,4033.51,1783.1,-24845.9
3.413e+07,9.85049,0,2.92721,950.91,-1585.26,-29911
3.41964e+07,50.1322,2,2.88895,-2349.11,-10295,-27649.1
3.42226e+07,78.291,2,2.62013,-6237.77,5904.83,-14743.6
3.42483e+07,190.237,0,3.0379,-4768.18,22861.6,-15038.1
3.44624e+07,87.3076,0,2.56518,12772,-11689.7,-22239.5
3.50775e+07,198.219,1,2.39458,-22313.6,8492.62,5674.02
3.53087e+07,1.46179,0,2.60711,49.8975,-60.4052,-28518.9
0,1.52923,0,3.00389,0,0,0
3.54339e+07,47.9506,2,2.69602,-4199.68,7241.61,-23201.7
3.569e+07,77.6306,0,2.49433,-14671.5,147.368,-21608
3.59774e+07,112.2,0,2.66295,4738.94,-16507.8,-12557.2
3.61753e+07,102.19,0,3.03867,5421.9,16877.4,-16776.6
3.63185e+07,147.489,1,2.80192,19368.9,21956.2,-18496.6
3.66802e+07,108.756,1,2.50707,8543.26,4036.13,-7883
3.6819e+07,20.2655,2,2.74613,1580.16,-1891.24,-25305.2
3.72088e+07,42.2126,1,2.56578,-1241.52,8614.66,-26448.3
3.72733e+07,4.24061,1,2.78348,-32.6034,561.596,-28061.4
3.73403e+07,39.2046,0,2.90174,5699.26,-4601.93,-24926.5
3.74385e+07,157.626,0,2.79368,11525.3,-7564.08,-496.351
3.75315e+07,8.49526,0,2.69487,1808.99,-201.375,-28311.3
3.78732e+07,201.192,1,2.81077,-18818.7,6041.96,545.352
3.79173e+07,170.066,0,2.60897,13423.4,-15523,671.743
3.82953e+07,28.6829,0,2.68361,-4332.88,-3942.26,-27530.9
3.87023e+07,86.8175,0,2.53304,12275.2,10289.8,-19766.7
3.92894e+07,37.303,1,2.36432,-6081.31,2294.84,-24219.8
3.93426e+07,39.7477,0,2.58862,7159.4,2198.06,-24851.8
3.96807e+07,132.596,0,2.42373,12332.8,-5998.43,-4330.23
3.98148e+07,117.702,1,3.032,13201.4,-11298.9,-12436.1
4.00481e+07,65.9071,1,2.4013,-13188.5,4548.73,-27226.3
4.01178e+07,35.562,2,2.56671,1272.31,-2902.44,-21973.7
4.01825e+07,146.226,2,2.52176,-6924.96,-27020.3,-15761.3
4.04682e+07,90.3534,0,2.77038,-5413.71,-7634.23,-12290.7
4.05883e+07,5.58496,2,3.05888,762.638,-974.964,-28889.5
4.06554e+07,7.55524,1,2.38638,-502.025,1627.17,-28621.5
4.07957e+07,130.524,1,2.52002,-7502.63,22351.8,-14350.5
4.09167e+07,21.5487,0,2.46528,221.823,-3053.21,-25442.9
4.10487e+07,35.7512,2,2.49607,-3491.76,-3444.86,-23006.6
4.13158e+07,149.33,2,2.7931,16983,-2452.71,-2561.11
4.14144e+07,70.5413,2,2.69143,-708.596,-14767.3,-26500.7
4.17318e+07,213.849,1,2.79279,2809.79,-508.773,-25652.7
4.20131e+07,68.3902,1,2.37723,3589.34,-9422.99,-18496.3
4.24655e+07,24.4605,1,2.40985,757.452,-2190.46,-24235.4
4.28076e+07,23.4023,1,2.37248,51.6489,5056.23,-29008.9
4.28731e+07,74.7091,1,2.57325,12711.2,2910.17,-19976
4.34393e+07,89.1065,2,2.55639,8964.74,-4379.26,-12855
4.36047e+07,19.2416,1,2.6318,2131.25,3509.16,-29073.7
4.37468e+07,81.9839,0,2.57711,-5359.52,-16386,-27066.8
4.38589e+07,121.912,2,2.54697,17872.4,-11097.2,-13964.4
4.4024e+07,76.6536,1,3.02155,-3071.59,8035.85,-15485.2
4.44179e+07,22.1067,0,2.45892,-1183.33,-3968.98,-26651.4
4.44227e+07,97.6086,0,2.71945,12268.9,12065.1,-17453.4
4.44365e+07,90.0741,2,2.44024,-3307.88,9975.65,-13008.4
4.46746e+07,110.726,0,2.88663,22040.2,7722.65,-28314.1
4.48637e+07,17.0432,0,2.76305,1547.54,2027.03,-26257.7
4.50114e+07,82.5971,0,2.86696,-2488.7,88.46,-27086.3
4.52157e+07,26.5808,2,2.67385,-2913.96,-3858.17,-25818.3
4.52857e+07,81.9724,2,2.69486,-5329.49,-6389.02,-13626.9
4.54835e+07,154.994,2,3.02321,-24240.9,-7606.26,-8509.32
4.56039e+07,12.874,0,2.94218,683.353,-1251.97,-26488.7
4.58891e+07,63.042,2,2.40932,-6095.4,3820.24,-17599.3
4.59305e+07,109.43,2,2.70737,-7286.41,-16453.2,-14277.1
4.60295e+07,16.9894,1,3.02219,1655.65,-1100.96,-25920
4.67668e+07,65.2704,1,2.93354,-9845.71,9601.03,-27609.5
4.68501e+07,73.9528,2,3.00623,-7809.58,8477.72,-18496.9
4.69395e+07,39.885,1,3.0463,-8038.31,-2025.71,-27568.2
4.73104e+07,5.21969,2,2.80538,-775.413,-623.808,-28198.9
4.73281e+07,196.025,2,2.77253,-21896.8,9774,4750.34
4.74333e+07,17.1632,2,2.71099,-2245.93,-332.501,-25943.4
4.76047e+07,40.6509,2,2.72142,-2047.51,-8430.44,-28532.9
4.8219e+07,136.75,0,2.72621,3646.69,-27649.8,-21463
4.83146e+07,106.634,1,2.86374,-14145.9,16452.6,-22838.3
4.83218e+07,23.6685,0,2.74594,376.465,-3897.32,-29785.6
4.85708e+07,139.17,2,2.44718,-3878.57,-25675.6,-14812.8
4.87151e+07,92.0547,1,2.59055,-9308.36,3944.5,-12170.7
4.89584e+07,18.4662,0,2.96501,200.392,2323.4,-25703.7
4.89998e+07,12.0782,0,2.77327,2103.93,-270.663,-27267.6
4.92892e+07,233.842,1,3.03812,-16791.4,10469.5,-15693.9
5.01939e+07,18.9067,1,2.52076,2362.64,3288.92,-28942.7
5.02135e+07,97.8783,2,2.85285,-7943.64,-8460.96,-11783.7
5.08433e+07,43.4593,1,3.03475,4384.38,502.734,-20880
5.09158e+07,80.3724,2,2.40465,1273.44,-11025.1,-15907.7
5.09693e+07,73.7192,1,2.39912,-2486.43,14592,-23608.6
5.16019e+07,53.9426,1,2.786,5754.26,6802.94,-21758.7
5.16078e+07,60.2045,2,2.47651,-1420.73,9383.63,-20399
5.1727e+07,35.7545,0,2.82332,5337.69,-4096,-25286.8
5.17876e+07,72.8099,1,2.73939,-9427.26,10475.2,-22550.8
5.20759e+07,27.1243,2,2.66299,4675.76,-2665.58,-26849.1
5.20767e+07,49.4538,2,2.64218,-7129.91,-18.6529,-21142.2
5.23245e+07,3.40984,2,2.73532,-190.812,-473.431,-29452
5.23813e+07,100.328,2,2.91942,849.272,1351.36,-25433.3
5.24068e+07,185.686,0,2.81773,13547.4,-6021.44,7314.34
5.24721e+07,50.6731,0,2.71343,-6834.82,2875.86,-21193.4
5.25352e+07,33.336,0,2.44499,6168.29,1955.9,-25792.6
5.2606e+07,23.4364,2,3.04842,-4778.71,-1305.99,-28127.8
5.26355e+07,142.605,1,2.75813,-9773.67,7101.11,-22685
5.26823e+07,42.055,2,2.62162,-2757.6,-6427.62,-23276
5.28547e+07,32.9895,2,2.7418,-5004.56,4276.77,-26642.4
5.28575e+07,144.871,1,2.55799,-16816.1,10185.2,-5303.66
5.29471e+07,75.0449,2,2.82971,-7616.16,9045.99,-18383.5
5.2974e+07,160.978,2,2.42929,21510.6,-26357.3,-26958.4
5.34027e+07,21.9492,0,2.87644,2406.26,-1744.52,-25259.6
5.34068e+07,17.1153,1,2.88799,-1803.84,-3041.77,-29381.4
5.36532e+07,108.425,2,2.44689,-13384.7,-15977.2,-19039.9
5.3786e+07,102.047,0,2.83102,15482,-10736.6,-18419.1
5.38751e+07,91.5525,2,2.70282,16079.5,6807.71,-20728.6
5.40514e+07,125.233,0,2.4193,1177.62,22527.9,-15121.9
5.41725e+07,215.287,0,3.05042,9797.48,27490.3,5462.43
5.42106e+07,1.80959,2,2.70177,-390.948,51.7389,-28646.4
5.42371e+07,19.0641,2,2.7452,-1941.09,-938.419,-25383.3
5.42788e+07,70.0314,2,2.43103,2396.54,-6600.32,-15737.8
5.43826e+07,185.949,1,3.05398,-15468.4,12111.6,4384.64
5.44636e+07,6.07077,1,2.92945,651.37,-113.586,-27754.6
5.45089e+07,39.7928,2,2.75525,952.015,-7012.73,-24200.4
5.45714e+07,161.654,0,2.91125,15744.4,-27566.1,-16690.3
5.46884e+07,142.899,1,2.43742,21620.5,-14081.5,-17806.3
5.48223e+07,20.251,1,3.04732,-4155.88,-266.72,-27744.4
5.51516e+07,85.4169,2,2.4921,-7812.9,6742.93,-14006.4
5.51981e+07,110.836,2,3.02348,5692.54,-22542.5,-27199.1
5.54674e+07,64.5291,0,2.41252,11926.3,-6822.56,-28119.3
5.5793e+07,89.4938,1,2.36567,16595.9,5807.36,-21843.9
5.58853e+07,72.2674,2,2.36482,-4520.21,-7236.7,-26965.4
5.60631e+07,80.7779,0,2.6065,11838,10417.8,-22142.8
5.63417e+07,59.7316,1,2.9552,-10193.1,2680.39,-21973.1
5.70616e+07,210.294,0,2.79678,-7289.73,26374.9,5906.9
5.71596e+07,200.077,2,2.70461,-24907.9,-11572.8,3209.58
5.73044e+07,11.7617,2,2.65309,-1107.22,368.175,-26612.3
5.73305e+07,40.7696,1,2.56448,-6743.67,-3766.46,-24973.5
5.73585e+07,72.9834,0,2.36844,10131,-10973.9,-24639.1
5.74975e+07,129.256,0,2.88427,10465.7,13416,-7618.23
5.77568e+07,27.5102,0,2.56169,3711.78,-2830.47,-25243.9
5.77673e+07,16.2373,0,3.01738,2791,-2077.22,-28418.7
5.827e+07,218.744,2,2.62418,26101.2,-17561.6,4984.45
5.83511e+07,5.89845,1,3.03338,-1047.45,398.225,-28169.1
0,6.41614,0,2.72928,0,0,0
5.83673e+07,44.1832,2,2.76608,-5628.07,-6890.89,-25789.5
5.83795e+07,108.132,0,2.63237,6420.02,-13483.2,-11551.9
5.84913e+07,15.4551,2,2.80292,1293.04,1412.14,-26242.8
5.87292e+07,22.2734,0,2.96333,-3100.48,-2422.35,-26390.6
5.89868e+07,48.9648,0,2.57834,8752.39,-3119.04,-24133.5
5.90082e+07,55.568,1,2.45549,11513.3,1936.57,-27412.2
5.91767e+07,60.3949,2,2.43323,-10863.3,6250.46,-26161.8
5.92355e+07,46.1152,2,2.82865,4952.7,4266.8,-21711.3
5.93253e+07,27.5853,2,2.77604,-3599.68,4181.98,-27016.2
5.96791e+07,12.5471,0,2.98353,1310.65,-2213.66,-28067.4
5.98451e+07,23.8795,2,2.89266,-2467.73,-1522.23,-24690
5.99293e+07,109.342,0,3.0579,13415.9,11999.3,-14609.9
5.99468e+07,129.216,2,2.54964,-24417.6,-9260.91,-20624.9
6.01723e+07,9.83193,0,2.4995,-1399.07,-1238.97,-27999.1
6.04496e+07,68.3268,0,2.65914,5583.33,-3927.51,-16098.6
6.0839e+07,22.6997,0,2.81193,-668.022,-4172.69,-26573.1
0,22.3315,2,2.69344,0,0,0
6.08393e+07,45.4386,1,2.69024,-8886.51,-3671.7,-29356.1
6.09251e+07,55.2609,2,2.46558,-834.538,-11367.6,-25941.9
6.11682e+07,18.0456,2,2.36821,-1591.23,-742.152,-25412.9
0,18.0619,1,2.50779,0,0,0
6.13262e+07,257.487,1,2.62501,29622.3,15103.8,14136.5
6.22029e+07,9.26842,0,2.44084,372.869,1804.54,-28044.6
6.22669e+07,229.928,2,2.70828,-4213.19,-22308.3,14002.1
6.2393e+07,9.10052,2,2.70293,1076.1,-987.958,-27534.1
6.24906e+07,87.1037,1,2.87486,5515.88,11333.2,-15515.5
6.26104e+07,138.014,1,2.8807,-12738.6,4536.74,-3179.6
6.26682e+07,92.5554,2,2.49185,1387.67,-597.69,-28047.1
6.2953e+07,59.3737,2,2.86735,-5921.19,676.459,-17852.8
6.32031e+07,7.61468,0,3.03916,74.0251,-1288.21,-27846.2
6.33933e+07,113.157,1,2.87769,1687.95,8472.16,-6652.08
6.35559e+07,80.4039,0,2.63767,7130.77,-3573.02,-13800.1
6.36794e+07,6.89627,0,2.97621,773.74,533.887,-27661.3
6.36886e+07,15.6667,2,2.90942,1042.57,-2973.97,-27733.6
6.41779e+07,53.3069,0,2.50929,9780.8,-2523.11,-23650.2
6.42167e+07,52.1887,1,2.50555,5696.03,-2662.57,-19810.2
6.42792e+07,34.3187,2,2.75542,-5969.21,-729.732,-24760.9
6.43726e+07,36.2881,2,2.50244,-4803.82,-1817.78,-23068.4
6.44107e+07,130.494,0,2.79374,15331.3,9663.29,-8123.81
6.4433e+07,32.4201,2,2.94382,-6378.9,-2637.12,-28736.8
6.44558e+07,2.44353,2,2.51913,-529.161,-240.038,-28668.9
6.49174e+07,200.761,2,2.60738,-14300.2,11623.7,9331.86
6.50751e+07,4.75858,0,2.64043,854.493,-378.796,-28296.3
6.51441e+07,71.0594,1,2.40595,3409.59,13650.7,-23366.7
6.5362e+07,108.77,0,2.61834,8424.62,-12714,-11621.2
6.59281e+07,17.2226,0,2.56819,3054.43,-1851.47,-27725.4
6.60383e+07,153.59,1,2.57252,9137.67,15871.4,-2004.65
6.60452e+07,69.6649,0,2.47796,5822.38,-9016.98,-18682.7
6.61913e+07,68.0352,2,2.52248,-6016.11,9689.78,-20078.8
6.6581e+07,14.1132,0,2.49357,-998.823,2128.48,-27012.7
6.66126e+07,163.62,1,2.52016,-8831.87,-10320.8,2972.22
6.67681e+07,32.235,0,2.56494,3740.94,2899.83,-23845.5
6.68622e+07,146.969,2,2.47386,-22133.3,4953.81,-7532.23
6.69059e+07,64.3712,0,2.49343,2445.16,-8713.05,-23087.9
6.71002e+07,14.252,2,2.56016,-2814.5,-970.978,-28061.2
6.73236e+07,32.9998,1,2.99038,5999.57,2812.76,-26857.7
6.73398e+07,31.1551,1,2.81183,-3324.55,-1472.78,-23364.8
6.76985e+07,79.9449,2,2.51303,-3321.31,13518.2,-19312
6.7797e+07,306.087,1,2.38704,-18562.8,-4520.68,3171.01
6.79099e+07,103.182,1,2.51296,-5350.78,9058.54,-9687.9
6.79558e+07,17.2651,0,2.47356,2186.15,1461.58,-26205.1
6.82333e+07,6.648,1,2.96435,930.613,136.288,-27787.7
6.82831e+07,153.45,0,3.03617,7316.54,41.8263,-8246.28
6.8592e+07,108.811,0,2.82692,15380.9,-4947.32,-12563.4
6.86278e+07,31.6054,0,2.55156,4118.52,-945.5,-23593.4
6.86696e+07,19.8479,0,2.863,1426.98,-2625.08,-25862.5
6.89292e+07,132.171,2,2.94661,-12461.2,-5692.88,-4676.03
6.9171e+07,11.543,0,2.63982,2499.36,142.688,-28365
6.92505e+07,37.0432,1,2.62776,-1058.66,2933.53,-21624.1
6.9452e+07,107.114,1,2.616,-1717.15,10620.8,-8894.29
6.9475e+07,149.35,1,2.88352,-27700.1,14918.2,-28128.2
6.95261e+07,45.759,0,2.57432,6102.6,2176.68,-21574.4
6.95624e+07,70.2278,0,2.75422,13758,1074.83,-23269.6
6.96928e+07,33.5965,2,2.63761,4399.24,2113.78,-23713.7
6.97288e+07,10.2065,0,3.01109,2196.39,-535.196,-28957.1
6.98101e+07,92.2514,2,2.68511,-12854.5,2635.08,-14475
6.99856e+07,242.473,1,2.58148,-11439.7,-21968.2,15964.5
7.01298e+07,7.61436,1,2.9562,412.984,1199.46,-27788.7
7.03628e+07,91.1115,2,2.37951,-10993.8,-14794.1,-22847.9
7.08027e+07,56.3656,0,2.75618,-4447.64,-3066.88,-18274.6
7.12388e+07,11.326,1,2.48662,-2076.67,752.793,-27697.5
7.13104e+07,58.9864,1,2.89967,-8775.44,168.486,-20045.8
7.13622e+07,115.498,0,2.68693,-12292.6,15190.5,-14342.5
7.14038e+07,73.0395,0,2.53516,13135.9,5564.18,-22759.4
7.1862e+07,20.9556,1,2.43072,3615.51,2397.39,-27860.3
7.19072e+07,2.89068,2,3.01969,-565.64,-445.338,-28775.3
7.1953e+07,131.543,1,2.58642,-708.214,21364.7,-10968
7.2186e+07,7.89253,0,2.96592,908.11,402.752,-27433.4
7.23196e+07,156.237,2,2.64198,-20874.3,-19606,-12383.2
7.27942e+07,62.9022,2,2.99595,551.762,-13251.2,-27942.4
7.33574e+07,45.9502,0,3.04442,6916.2,6057.48,-25691.8
7.40853e+07,59.6653,2,2.57071,-7281.48,-10385.2,-28055.6
7.46301e+07,104.05,2,2.81461,-21028.1,-1763.14,-22838.5
7.46924e+07,2.61458,1,2.84646,-517.36,-247.699,-28985.6
7.49385e+07,54.9565,2,2.85229,-5757.16,-10026.9,-27326.5
7.54044e+07,75.5494,0,2.50675,11969.1,9873.93,-24669.4
7.56649e+07,131.174,2,3.04864,-26254.5,-7832.45,-26519.4
7.59283e+07,27.0957,2,2.86826,918.831,-5606.48,-29822.4
7.67616e+07,40.2704,1,2.43231,-4678.83,5830.35,-24557.8
7.67721e+07,0.80015,1,2.73668,-143.443,28.0365,-28671.7
7.6861e+07,4.33032,0,2.82679,896.1,-81.5029,-28367.7
7.68746e+07,73.3106,2,3.0188,2369.53,-5907.77,-19870.8
7.70059e+07,100.291,1,2.70114,-10204.6,18247.8,-25069
7.709e+07,29.3273,2,3.04562,5042.6,-759.248,-25411.9
7.73078e+07,112.446,1,2.84306,-10104.2,21468.9,-29252.1
7.74119e+07,78.2959,2,2.77339,-4903.36,7454.86,-14977.9
7.74752e+07,15.0686,1,2.67605,-2092.18,1303.59,-26699.8
7.74759e+07,28.8178,1,2.63754,4433.83,1036.85,-24789.3
7.74862e+07,145.799,1,2.8131,4771.45,23116.6,-9159.87
7.79152e+07,19.2131,0,2.567,4059.38,-520.623,-28139
7.81024e+07,65.8938,0,2.68383,-5473.14,-2964.34,-16454.4
7.82028e+07,36.436,0,2.71056,2591.06,-7183.16,-27628.3
7.88813e+07,53.1081,0,2.8431,3782.9,8036.43,-22015.3
7.99585e+07,84.4385,2,2.4793,-8556.13,-23.4832,-13147.8
8.01175e+07,23.4811,2,2.70156,2651.44,-4252.94,-28609.7
8.03938e+07,121.304,2,2.71024,-14744.2,-20880.3,-26621.4
8.03942e+07,40.3193,2,2.94075,-2302.06,-8031.33,-27060.9
8.06779e+07,159.295,1,2.64225,-26227.4,21182.3,-29532.2
8.086e+07,37.8673,0,2.80201,3597.14,-5007.15,-23706
8.09817e+07,158.528,2,2.87349,-14018.7,-25896.5,-13114.6
8.10629e+07,86.4385,0,3.04047,16302.5,-7989.18,-27406.7
8.18651e+07,64.8735,0,2.83718,-6137.62,4349.15,-17518.1
8.21317e+07,26.963,1,2.56427,-4295.42,957.394,-25131.4
8.24659e+07,195.073,0,2.88762,4820.94,-18958.7,-24894
8.28828e+07,125.788,2,2.90431,1648.13,-18027.6,-9524.94
8.29412e+07,135.031,0,2.54863,-5402,-10576.4,-5206.36
8.30097e+07,109.8,0,2.61796,10834.9,-3486.23,-8594.61
8.32907e+07,114.705,1,2.89492,-10068.1,21303.7,-23539.5
8.33796e+07,119.616,2,2.45361,-17548.6,17331.6,-23255.6
8.4059e+07,102.029,1,2.83885,-3774.14,-12113.1,-11575.9
8.42817e+07,97.4746,0,2.97991,10976.9,-8775.71,-13907.8
8.438e+07,2.12675,0,3.02628,-237.27,-213.196,-28567.8
8.44586e+07,59.0498,1,2.40334,-6716.83,-4211.25,-21063.1
8.45067e+07,54.5102,2,2.76946,-114.93,7689.23,-20357.6
8.48332e+07,86.4087,1,3.06166,-10362,-9434.11,-17429.1
8.50783e+07,19.5929,1,2.74478,-3105.36,771.066,-26118.1
8.51197e+07,89.5512,1,2.94675,151.328,14258,-16495.9
8.53357e+07,126.953,2,2.39735,-11379.5,22268.8,-19165.8
8.5392e+07,44.6606,1,2.88673,-8098.49,-2594.45,-24781.9
8.58622e+07,112.775,1,2.70648,19335.2,6239.53,-16483.5
8.59706e+07,117.555,2,2.57931,-23039,6675.76,-26208.3
8.63914e+07,167.576,2,2.99988,28649.3,6242.29,-9571.03
8.69475e+07,126.467,2,2.97115,-20253.4,-12094.7,-16546.4
8.70156e+07,83.8018,0,2.8111,-3783.24,-1507.67,-28326.4
8.7196e+07,30.826,0,2.76705,3717.25,-1727.82,-23718.7
8.73894e+07,222.738,0,2.76632,25127.1,-23082,3403.67
8.74342e+07,5.60465,1,2.93105,-460.057,836.866,-28026.2
8.75189e+07,25.2888,1,2.55679,-4622.72,-1783.76,-26818
8.75421e+07,12.9756,1,2.58508,1627.81,316.302,-26642.9
8.83621e+07,29.2702,0,2.94667,-3915.64,-969.493,-24247.1
8.88905e+07,76.4229,2,2.45146,-8830.73,3839.65,-15835.7
8.93165e+07,10.5512,0,2.42691,2077.23,-157.273,-27822.7
9.00796e+07,114.24,2,2.93794,14123.3,8357.27,-11414.4
9.02704e+07,103.094,1,2.62455,-13927.4,8236.22,-14188.8
9.03985e+07,14.6117,1,2.76641,752.849,2780.99,-27554
9.04853e+07,17.5314,0,2.90418,737.303,-2754.8,-26463.4
9.07747e+07,73.1788,1,2.6269,10819.4,11005.7,-27685.5
9.08773e+07,79.3028,2,2.57076,1286.02,-9739.76,-25502.1
9.11813e+07,48.6595,0,2.44284,3420.37,3974.77,-19935.7
9.1469e+07,329.652,0,2.6988,-25214.7,-13765.2,-14559.2
9.16449e+07,119.642,0,2.7184,12960,-3654.1,-7468.49
9.16681e+07,274.704,2,2.89374,26881.6,-26784.5,14648.3
9.17234e+07,146.004,2,2.65354,1193.17,-24356.4,-9910.49
9.17577e+07,16.4438,2,2.42864,-2248.71,2619.7,-28457.7
9.18119e+07,55.4564,2,2.95112,-8572.51,-6611.36,-24309
9.20007e+07,44.731,0,2.62352,5131.92,3490.26,-21654
9.20865e+07,127.539,0,2.87269,4987.89,-16041,-7918.25
9.21567e+07,64.2013,0,2.57859,-9836.8,8184.98,-24468.4
9.252e+07,98.8995,2,2.93127,-14318.6,7582.01,-15859.1
9.25404e+07,34.5842,1,2.99958,-3924.18,6202.96,-29385.7
9.2875e+07,95.5674,1,2.84328,11071.8,-373.349,-12118.7
9.29582e+07,171.041,1,2.92376,18241.7,-12425.7,-563.913
9.29673e+07,17.9873,1,2.78938,-1030.14,3532.99,-27625.9
9.32733e+07,3.17968,0,2.46656,764.069,0.385097,-28660.1
9.33936e+07,81.9175,2,2.72883,-9750.04,-3785.29,-15464.4
9.38815e+07,29.9139,2,2.91975,-4174.18,2348.49,-24739.6
9.38819e+07,37.9032,2,2.60687,1548.26,5213,-23036.3
9.39123e+07,55.5088,2,2.43565,3774.27,-4575.56,-18664.3
9.43988e+07,57.8193,2,2.4958,4842.07,-4326.43,-18439.3
9.4491e+07,19.0261,1,2.38431,-3654.08,559.787,-27058.5
9.4729e+07,23.0753,0,2.40174,4569.87,-1719.92,-27859.6
9.49142e+07,11.6849,1,2.78956,-1978.54,956.813,-27612.2
9.49598e+07,47.1428,0,2.60148,-4458.54,-4367.01,-21090.4
9.49899e+07,79.5483,1,2.36931,-825.02,6234.48,-13168.1
9.52145e+07,167.061,1,2.65892,3660.07,23100.3,-16101.5
9.54701e+07,100.459,0,2.47393,4156.01,2679.97,-20427.5
9.5723e+07,5.36733,1,2.6591,-1099.37,-260.859,-28456.2
9.58212e+07,21.5347,0,2.80844,1208.33,4398.05,-29315.7
9.59674e+07,16.8298,0,2.67578,1438.91,-3289.34,-28997.5
9.63738e+07,314.161,0,2.58791,5080.8,19386.3,-530.046
9.67849e+07,36.3303,1,2.64078,6164.11,4558.92,-28076.5
9.69233e+07,156.101,2,2.93771,280.478,-14847,408.17
9.74765e+07,42.9654,2,3.01327,1590.77,-8666.92,-26626.1
9.76561e+07,154.626,1,2.56852,28053.8,6272.49,-13381.5
9.78032e+07,31.0733,1,2.7571,-4687.17,2778.36,-25117.9
9.80351e+07,189.531,0,2.9218,29445.1,16441.3,-7595.02
9.82848e+07,155.605,0,2.84417,21907.5,20587.2,-15797.1
9.88047e+07,14.2676,0,2.98344,-514.291,-1297.25,-26194.6
9.90811e+07,5.42954,0,2.6339,716.615,-789.399,-28231.1
0,5.5241,0,2.50218,0,0,0
0,5.4073,0,2.39986,0,0,0
0,5.43139,0,2.63149,0,0,0
9.91602e+07,121.109,0,2.54082,18653.2,4100.47,-11701.5
9.95522e+07,200.84,1,2.50143,-26042.1,21873.3,-3288.05
9.96962e+07,262.678,0,2.61363,4575.42,23278.2,21284.4
1.00288e+08,58.7415,2,2.75026,-4030.46,-5890.89,-18665.8
1.00575e+08,31.5272,0,2.87573,5106.4,1432.45,-24738.7
1.01136e+08,24.9224,2,2.99523,-2304.51,-2397.46,-24716.4
1.01138e+08,98.2886,0,2.45352,3815.14,-19785.7,-23551.1
1.01631e+08,5.13627,2,2.93347,751.639,-854.937,-28866.8
1.0205e+08,11.9599,1,2.43028,518.071,-1173.47,-26673.9
1.0206e+08,56.6622,0,2.49865,-1439.78,-10966.8,-24242
1.02695e+08,29.1792,2,2.86015,570.334,-4278.69,-24404.6
1.03074e+08,43.3123,1,2.83319,-2374.62,8629.93,-26735.4
1.03159e+08,30.3957,1,2.46534,-3409.08,3933.3,-24916.6
1.03349e+08,6.58154,1,2.55597,-315.533,-343.445,-27529.3
1.03372e+08,33.3281,0,2.94292,-2016.88,6661.66,-29221
1.03407e+08,27.0955,1,2.59419,150.22,-3994.69,-24762.1
1.0352e+08,8.26953,0,2.69463,-389.775,-1415.29,-27919
0,7.86082,2,2.6046,0,0,0
1.03782e+08,35.1741,2,2.94433,-5447.89,-3091.95,-24776.1
1.0389e+08,12.6565,0,2.86025,1549.85,709.821,-26722.3
1.03958e+08,160.99,2,2.85817,-26136.4,2442.63,-7442.52
1.04249e+08,45.132,0,3.05012,-5348.26,-144.594,-27391.5
1.0428e+08,232.861,1,2.61818,-27388.6,-1915.16,11968.4
1.04615e+08,94.6938,2,2.67728,-4362.59,10397.7,-12368.6
1.04869e+08,88.9971,2,2.81639,-3097.99,-9603.26,-13009
1.04879e+08,34.7158,2,2.62898,-3233.08,-6027.33,-25963.5
1.05041e+08,47.5503,2,2.67641,2244.27,4566.24,-20211.2
1.05047e+08,10.1077,0,2.64043,-1587.81,-336.192,-27505.6
1.05395e+08,73.9071,1,2.54114,-4679.02,10217.2,-17889.6
1.05484e+08,7.579,0,2.64854,-527.423,1174.68,-27894.9
1.05566e+08,12.6606,2,2.99679,-270.278,-2036.79,-27039.5
1.05696e+08,26.5563,1,2.94111,-4407.86,2458.17,-26361.8
1.05737e+08,19.3595,0,2.50445,2645.57,2814.7,-27266.8
1.05937e+08,19.8117,2,2.88119,-3708.83,1376.66,-27429.3
1.05954e+08,123.865,2,2.88147,-19420,15314.5,-22781.3
1.06112e+08,75.6875,1,2.40763,14047.8,-1178.12,-21313.9
1.06236e+08,35.3988,2,2.73488,1237.5,-7456.58,-28733
1.06253e+08,29.1441,0,2.67031,-4470.07,877.301,-24758.3
1.06526e+08,50.961,2,2.6389,-3168.59,569.578,-27689.6
1.06897e+08,92.3434,0,2.81933,16882.7,-9147.01,-25305.3
1.07787e+08,120.059,0,2.43592,13518.8,-9923.53,-9687.42
1.07798e+08,46.3901,1,2.79449,7259.03,4061.51,-23667.7
1.08157e+08,7.94446,0,2.97923,1608.63,392.982,-28231.5
1.08483e+08,60.2088,2,2.7051,11345.1,-3929.12,-24728.1
1.08508e+08,5.71436,1,2.86404,-914.427,894.936,-29113.9
1.0905e+08,121.847,2,2.63605,21822,-2424.12,-21924.3
1.09236e+08,46.1276,2,2.86224,-130.916,-8256.55,-23651.2
1.09517e+08,21.8636,1,2.90828,-275.862,4407.86,-27310.6
1.09642e+08,104.359,1,2.91388,-1400.57,21890.6,-27214.8
1.09836e+08,3.95033,0,2.83978,790.364,512.711,-28847.8
1.10058e+08,95.533,1,2.39152,-3516.8,-13189,-13963.7
1.10126e+08,32.4517,2,2.75264,-3567.7,-5532.68,-26679.2
1.10192e+08,32.0884,2,2.81344,30.1416,-2880.21,-22672.8
1.10342e+08,87.0067,1,2.95954,8031.41,-1019.73,-12474.2
1.10468e+08,59.6646,2,2.78793,8337.85,-6392.75,-21887.4
1.10755e+08,26.4809,1,2.49082,-5174.07,-863.315,-26782.2
1.11028e+08,130.929,1,2.90739,12375.4,24611.6,-28888.7
1.11604e+08,9.79315,0,2.7838,-670.392,1338.39,-27455.4
1.11631e+08,13.9126,2,2.59856,-1547.25,1910.1,-27231.4
1.1185e+08,72.5064,2,2.94949,14158.9,3499.38,-24680.6
1.12515e+08,98.7052,2,2.6102,-5449.26,14201.6,-14629.5
1.12546e+08,29.0825,0,2.43723,-4626.23,-1083.38,-25010.7
1.13069e+08,213.225,1,2.98555,8890.33,-16377.6,-4938.91
1.13149e+08,9.9499,0,2.68645,1722.45,332.813,-27530.8
1.13536e+08,93.7966,1,2.8465,-7318.31,-9048.88,-12958
1.13564e+08,29.1673,0,2.43594,-1661.08,5192.59,-25928
1.13597e+08,146.103,2,2.7408,5973.02,-27624.1,-16466.5
1.13616e+08,71.1578,2,2.58969,-3773.76,-12945.9,-21993.4
1.14152e+08,131.277,1,2.73232,-7699.22,8042.31,-3493.9
1.14215e+08,32.4957,2,2.55638,1809.47,-3142.91,-22972
1.14561e+08,80.1054,2,2.74752,7218.1,-12800.4,-20443.3
1.149e+08,5.46658,1,2.52695,-569.947,1064.4,-28459.4
1.15439e+08,111.42,1,3.01691,6873.82,11775.5,-9829.96
1.15511e+08,115.082,0,2.66173,-13666.9,7030.29,-10481.5
1.1569e+08,14.7546,1,2.79154,-2469.97,1959.56,-29253.7
1.16054e+08,141.045,2,2.68264,-13164.7,-751.615,-21180.3
1.1718e+08,7.86892,2,2.41046,-800.438,1106.11,-27914.2
1.17442e+08,71.7918,1,2.90897,-2655.91,13439.7,-22340.5
1.17738e+08,7.49604,2,3.02325,-1214.17,-534.083,-27899.5
1.1776e+08,178.637,1,2.63777,-27466.5,-1165.13,-2977.5
1.17788e+08,68.1866,2,2.48697,7622.78,-11457.7,-24309.4
1.18221e+08,21.4511,2,3.0021,3345.08,327.444,-25850.5
1.18641e+08,22.3931,2,2.40878,-3157.37,1643.45,-25662.6
1.18843e+08,8.64473,0,2.57521,1345.56,1224.58,-28282.2
1.18905e+08,61.9611,2,2.51156,-1899.23,-9513.13,-19933.9
1.18978e+08,145.141,0,2.75892,3076.41,-28020.3,-16999.5
1.19014e+08,101.422,2,2.7621,17147.6,-8573.35,-19450.2
1.19645e+08,161.029,2,2.6479,-19831.5,19170,-11222.5
1.19716e+08,12.7519,0,2.66886,-1839.27,-1126.01,-27292.9
1.20042e+08,35.2765,2,2.44391,4614.63,4819.79,-25621.8
1.20127e+08,41.9577,1,2.74781,8269.56,3140.97,-28905.1
1.20527e+08,148.661,1,2.86225,14535.3,25752.8,-18555.7
1.20969e+08,58.6776,2,3.01219,6758.42,-7588.07,-29226.6
1.21251e+08,10.4308,2,3.0508,1431.23,-257.531,-27216.2
1.21759e+08,86.5492,2,2.77317,-13802.6,-9273.6,-21200
1.21764e+08,277.801,0,2.56171,6022.28,11647.8,-20330.9
1.21998e+08,1.54997,2,2.5995,-347.664,73.3893,-28945.4
1.22341e+08,56.9718,1,2.38876,10423,-5026.25,-25586.4
1.22383e+08,153.206,0,3.02576,89.676,28876,-14829.8
1.22642e+08,71.1443,0,2.67423,11634.1,-243.45,-19257.6
1.22658e+08,2.19896,0,2.42102,459.089,101.32,-28571
1.22999e+08,96.2295,1,2.6676,-11553.3,-10591.3,-15938.5
1.23083e+08,119.357,1,2.63588,9014.44,11635.3,-8351.97
1.23813e+08,98.2485,2,2.56782,-239.986,-17156.7,-17011.2
1.24013e+08,130.915,0,2.45337,-11956.3,-18164.6,-11722
1.24137e+08,60.8143,0,2.59986,-1367.72,-10948.6,-22241.4
1.24276e+08,91.7632,1,2.56882,2797.66,-8019.41,-11446.8
1.24316e+08,30.3256,0,2.8882,-930.058,-3815.46,-23815
1.24511e+08,70.9097,2,2.62371,-10359.3,5180.4,-19349.6
1.24787e+08,109.692,1,2.38107,4964.91,21197.8,-20549.8
1.2494e+08,8.91106,1,2.80518,471.685,-482.461,-27094.4
1.25006e+08,39.4542,1,2.56804,6597.29,-1938.05,-24148.7
1.2511e+08,48.4033,0,2.53703,1493.97,-9258.11,-24625.5
1.25598e+08,134.359,0,3.00335,14068.8,-15580.2,-9977.06
1.25929e+08,156.012,0,2.56417,9146.03,-10501.6,208.725
1.26328e+08,70.8736,1,2.66352,14507.3,1802.45,-25722.5
1.26492e+08,5.38793,1,2.38282,-667.425,-890.488,-28666.7
1.26617e+08,66.8511,1,2.91456,-4128.95,4826.73,-16258.7
1.26739e+08,15.1699,0,2.61205,2989.09,1377.41,-28936.1
1.26759e+08,149.336,1,2.40482,454.14,20079.5,-4375.88
1.26775e+08,15.397,2,2.54666,1040.51,-2558.95,-26989
1.26778e+08,65.8792,2,3.03516,-744.381,8817.02,-18291.7
1.27232e+08,44.3452,2,2.39513,2395.97,-3159.83,-20295.9
1.2737e+08,41.0138,2,2.79818,-1584.2,-3415.16,-21013
1.27661e+08,0.191841,0,2.78685,92.6348,-84.2492,-28823.6
0,0.252737,0,2.38019,0,0,0
0,0.219143,0,2.41396,0,0,0
0,0.243359,0,3.65596,0,0,0
0,0.254315,0,4.0302,0,0,0
1.27733e+08,3.84311,2,2.58717,539.476,-446.931,-28387.5
0,3.94337,2,2.83333,0,0,0
1.28073e+08,102.737,0,2.94845,13877.2,-14538.9,-20866.4
1.28215e+08,18.2913,0,2.66983,3708.18,115.047,-27444.9
1.28404e+08,18.6801,2,2.59982,-2881.71,-2836.13,-29072.9
1.28624e+08,16.4836,2,2.73212,-1950.97,-1212.78,-26134.8
1.28668e+08,32.8941,1,2.86021,-4513.92,3264.15,-24601.3
1.29188e+08,21.4052,1,2.71021,1460,1063.11,-24669.4
1.29636e+08,20.7125,0,2.86152,777.113,3049.71,-25793.6
1.29739e+08,22.6282,1,2.51919,2031.92,2932.13,-25568
1.29929e+08,3.58559,0,2.6315,608.539,240.63,-28312.8
0,3.6264,0,3.03785,0,0,0
1.3002e+08,4.07692,2,2.3904,45.8317,733.915,-28444.3
1.30066e+08,182.618,2,2.60774,5370.16,7757.65,-15859
1.30304e+08,27.5448,2,3.03483,-1457.82,4030.79,-27307.2
1.31296e+08,29.3404,0,2.43827,-3538.74,2560.95,-24456.4
1.31355e+08,26.2505,0,2.46066,4700.95,2523.73,-26986.3
1.31871e+08,175.214,0,2.61379,18135.3,-23942.5,-7178.64
1.32482e+08,19.7589,0,2.82621,2938.73,-149.511,-25804.2
1.3252e+08,20.0292,1,2.66271,2076.03,1985.13,-25696.1
1.32547e+08,17.1875,0,2.88539,3059.2,2065.87,-28990
1.32576e+08,54.6245,0,2.42031,11636.4,822.118,-28421.2
1.3263e+08,40.3045,1,2.60138,-8267.06,2261.17,-28573.2
1.32896e+08,69.1892,0,2.47744,-1608.68,6965.31,-16052
1.33214e+08,193.523,1,2.97949,-7314.91,27385,294.591
1.33311e+08,21.6814,2,2.70547,-1181.49,-3532.25,-26043.4
1.33812e+08,150.337,2,2.42638,-25817.7,18447.4,-26489.4
1.33852e+08,169.435,2,2.56135,-18306.3,16490.7,-2845.89
1.34424e+08,42.7345,1,2.43532,7695.15,-3268.77,-25493.8
1.34686e+08,3.25252,1,2.85695,73.7266,698.069,-28513.3
1.3473e+08,28.0202,2,2.7626,2278.99,-4977.61,-26463.2
1.34741e+08,174.609,0,2.65923,-10635.2,-7164.62,-20982.6
1.3598e+08,170.752,1,2.52642,-40.392,24242.5,-2052.91
1.36078e+08,39.5359,2,2.39092,-6170,-1523.73,-23317.9
1.36275e+08,72.4033,0,2.58849,12114.9,-8335.69,-24363.5
1.36603e+08,5.16002,2,2.72281,-387.409,-556.215,-27913.8
1.37209e+08,72.0951,2,2.84698,-2926.11,-14460.7,-24946
1.37604e+08,126.307,2,2.93908,-18659.6,-4687.82,-10525.6
1.37757e+08,150.843,0,2.43192,-13116.3,-12403.3,-2585.35
1.37824e+08,89.2649,0,2.95433,11983.4,9787.76,-18192.1
1.37824e+08,132.044,2,2.59941,8279.51,14139.8,-6337.76
1.3788e+08,72.2217,2,3.03461,-3527.01,9248.52,-17404.1
1.37986e+08,12.8262,0,2.38444,-447.186,1766.22,-26806.8
1.38447e+08,48.8092,0,2.52756,-1994.91,-5415.12,-20305.5
1.38457e+08,137.505,2,2.78392,-6275.14,26297.5,-18706.6
1.3886e+08,113.347,0,2.70213,22900.9,1604.29,-21930.8
1.39106e+08,142.037,2,2.4917,6664.97,-19608.6,-7015.14
1.39112e+08,35.3024,0,2.80605,-3130.89,-5350.19,-26999.4
1.39145e+08,145.521,2,2.97406,-27839.2,-3156.07,-16655.9
1.39794e+08,163.39,2,2.91233,3132.08,28233.2,-9678.02
1.40026e+08,58.6435,0,2.89882,-2927.73,-11458.8,-25375.2
1.40438e+08,39.6567,2,2.96164,-8264.06,1099.49,-29276.1
1.40476e+08,35.0809,1,2.68531,-4278.14,-2756.78,-23437.7
1.40524e+08,91.556,0,2.39891,11858.8,3565.98,-13866.7
1.40598e+08,3.93559,1,2.62767,-765.381,343.774,-28459.3
1.41038e+08,26.1158,2,2.80917,3490.32,-1779.93,-24947.9
1.41548e+08,33.5257,2,2.52481,-330.411,-6335.59,-26744.3
1.41631e+08,26.9525,1,2.87222,-2264.78,4301.49,-25807.6
0,27.3793,0,2.87222,0,0,0
1.41753e+08,19.7429,1,2.63451,-1302.83,3752.36,-27297
1.41756e+08,211.882,0,2.71466,29690.9,15504.9,-26929.3
1.42041e+08,3.66046,2,2.51027,355.752,-696.808,-28528.3
1.42135e+08,165.424,2,2.48229,-17509.2,29387.5,-21716.3
1.42753e+08,45.441,0,2.9807,4196.77,-2677.6,-20651.1
1.43095e+08,25.4949,2,2.92092,-529.099,2813.61,-24318
1.43099e+08,126.353,1,3.00878,1087.38,26498.9,-28889.1
1.43109e+08,6.81172,2,3.02152,-1347.04,228.697,-29422.3
1.43127e+08,65.0478,1,2.41924,12141.7,6150.19,-26589.5
1.43322e+08,308.427,1,2.51178,-1429.28,-5575.97,-29770.4
1.43407e+08,11.2048,1,2.39594,-1279.82,2102.06,-28505.7
1.43497e+08,6.14452,2,2.92334,-242.064,-1200.32,-28181.2
1.43705e+08,127.698,1,2.73679,-8202.57,-12724.2,-24929.1
1.43938e+08,96.9412,2,2.64809,-2265.45,-7070.32,-25389.6
1.4403e+08,19.8759,2,2.92097,1873.35,-3805.95,-28463.9
1.44103e+08,30.5431,0,2.60798,-2022.63,5690.4,-26625.6
1.44157e+08,77.2475,1,2.9199,-3200.96,9567.47,-16050.2
1.44327e+08,43.5178,2,2.87465,-6459.58,-1993.73,-27478.6
1.44369e+08,11.1109,2,2.80614,-1825.79,1500.31,-28848.5
1.44625e+08,12.5422,2,2.71422,452.884,-2140.23,-27229.6
1.449e+08,59.7488,0,2.43999,6923.81,7691.35,-21507.6
1.45005e+08,45.2655,1,2.68429,-455.676,2284.89,-21316.6
1.45117e+08,99.1575,2,2.49602,-11493.9,-17387.5,-25937.2
1.45129e+08,87.7589,0,2.96819,-7229.05,16674.1,-25904.6
1.45192e+08,30.8448,1,2.36487,626.066,6383.87,-27297.1
1.45589e+08,5.32874,1,2.97044,-61.3806,789.465,-27951.7
1.45616e+08,152.851,1,2.66162,-3978.14,23536.4,-17692.7
1.45655e+08,83.6818,2,2.95651,-7914.39,-10010.3,-16713.7
1.45671e+08,22.1141,2,2.99555,1664.23,-1487.84,-24742.9
1.45757e+08,39.4682,2,2.45563,-6126.47,-3950.83,-24622.8
1.45758e+08,130.512,2,2.78776,-1689.35,-17842.7,-7960.73
1.4591e+08,78.2528,0,2.57754,-1195.58,-16335.1,-26585.6
1.46131e+08,18.4342,2,2.89194,907.628,-2864.03,-26291.6
1.46171e+08,14.6907,0,3.01777,-672.993,3000.46,-28849.5
1.462e+08,136.767,2,2.71449,26868,-10375.4,-28076.9
1.46331e+08,101.741,0,2.69478,-12546.3,14613.3,-19473.4
1.46651e+08,48.2645,2,2.79609,-7898.01,-4245.64,-23897.1
1.46748e+08,13.235,0,2.78413,2720.92,-637.349,-28200.7
1.46854e+08,70.1008,0,2.53465,-3148.71,-14453.4,-29921.6
1.46872e+08,143.747,1,2.8208,5767.26,28110.7,-19094.8
1.46899e+08,146.153,1,3.04391,-16598.1,10858.6,-5450.63
1.47297e+08,96.9429,0,2.39226,-5410.24,15371.1,-16384.2
1.47507e+08,9.49313,0,2.81582,-657.253,-1523.76,-27758.1
1.47601e+08,124.742,2,2.61938,-2754.81,-11003.4,-5023.94
1.4762e+08,14.5588,2,2.66092,-1366.09,-613.966,-26089.7
1.47655e+08,179.362,0,2.67392,-1172.72,-24145.7,262.827
1.47799e+08,37.3895,1,2.64506,3129.4,1697.47,-21788.4
1.48696e+08,34.5403,2,2.96077,4974.22,4743.53,-27014.7
1.48913e+08,239.038,1,2.36776,-15280.7,29205.7,8763.4
1.48973e+08,127.478,2,2.53401,-18032.5,-11205.7,-12136
1.49047e+08,73.1001,1,2.74223,3937.01,8110.35,-16331.1
1.49406e+08,61.156,0,2.58261,-8084.64,3428.11,-19453.2
1.49679e+08,32.0607,0,2.43081,-6124.45,-576.503,-26128
1.49784e+08,356.418,0,2.8273,12795.9,-8083.27,-10120
1.5006e+08,46.1164,1,2.96352,-3987.24,3731.35,-20796.8
1.50091e+08,27.6846,1,3.00579,-3034.93,4630.59,-26792.6
1.50372e+08,119.869,2,2.70668,-17132.2,-16646.1,-20309
1.50629e+08,149.524,2,2.87701,15874.4,-20605,-11138.1
1.50633e+08,206.575,1,2.7692,14449.9,-14716.4,9365.77
1.51186e+08,12.4487,0,2.6164,-1212.79,1736.01,-27289.4
1.51537e+08,125.606,2,2.66675,-16023.7,-18454.6,-18408.3
1.51794e+08,4.36089,2,3.0419,-82.3516,-830.154,-28341.2
1.52033e+08,54.6052,1,2.65849,3224.8,7775.56,-20909.6
1.52275e+08,137.182,1,2.63176,-4474.04,28414.6,-24967.2
1.5251e+08,86.6099,2,2.54523,9944.79,-14728.9,-24216.7
1.52513e+08,85.684,0,2.48543,13548,-2652.25,-16980.4
1.53052e+08,18.6487,0,2.90659,2767.88,-2889.43,-28515
1.53465e+08,158.276,2,2.40492,17717,-17052.2,-6066.55
1.53667e+08,76.9804,0,2.5391,4271.66,-5820.94,-14238
1.53744e+08,1.73997,2,2.55186,20.2692,-76.8964,-28451.7
0,1.7247,2,2.7467,0,0,0
1.54321e+08,128.568,0,2.98317,-1843.62,-26884.4,-29625.9
1.54518e+08,135.476,1,2.89155,18270.3,9965.38,-9419.86
1.54583e+08,171.484,1,2.77533,-20436.4,9747.9,-656.688
1.54901e+08,10.005,2,2.68174,-1207.55,-1381.42,-27639.2
1.54965e+08,17.6452,1,2.41514,-2275.02,-1114.67,-26173.4
1.54977e+08,136.814,2,3.00148,13626.5,19617.4,-13068.6
1.55441e+08,267.836,1,2.69936,-88.6544,-161.918,-29023.3
1.55956e+08,12.1404,2,2.7418,-0.369526,-2655.37,-28743.5
1.55969e+08,7.65244,0,3.01136,657.435,538.912,-27442.7
1.56029e+08,15.5672,2,2.62823,-2018.93,-2710.53,-28524.8
1.5613e+08,22.3571,2,2.49919,3175.36,-809.2,-25438.5
1.56358e+08,71.6394,1,2.37822,-12605.3,8420.28,-26997.7
1.5667e+08,68.2862,1,2.84233,-446.233,11278.5,-19857.9
1.56687e+08,118.827,1,2.58672,9894.38,14159.3,-10591.2
1.56796e+08,194.192,2,2.634,-17729.4,-20188.9,2159.29
1.56934e+08,156.324,0,2.95037,-23410.8,22672.8,-25530.4
1.57049e+08,13.6464,0,2.59143,2459.3,-1091.74,-27549
1.57088e+08,122.411,1,2.49153,25568.2,3113.33,-26409.1
1.57091e+08,105.063,1,3.0419,-12392.4,13804.1,-16866.2
1.57107e+08,57.6297,1,2.76273,8012.56,1917.08,-19924.3
1.57186e+08,144.776,1,2.66518,-7645.33,-13246.8,-2990.39
1.57266e+08,20.7407,2,2.63507,-3002.92,-1373.33,-25864.8
1.5754e+08,34.4936,0,2.539,7263.17,1429.12,-29185.1
1.57553e+08,1.00119,0,2.9854,268.624,-69.8772,-28989.7
0,1.02565,0,3.01948,0,0,0
1.58033e+08,18.8448,1,2.60886,2376.58,-601.404,-25722.1
1.58143e+08,187.528,0,3.01858,-11789.8,589.559,-29776.3
1.58798e+08,65.2054,1,2.61023,-6165.46,10878.8,-24883.9
1.58825e+08,274.594,1,2.42929,-15558.7,22005.9,21357.4
1.589e+08,86.8522,1,2.8848,-9719.85,-9121.3,-16379
1.58918e+08,36.4821,2,2.6123,-6758.49,2466.86,-26046.4
1.58933e+08,36.7109,1,2.94104,-4973.99,-3441.9,-24069.9
1.59474e+08,64.8232,0,2.77227,7745.74,9718.98,-23085.2
1.5969e+08,6.17926,0,2.5391,292.008,240.998,-27543.4
1.59857e+08,108.11,1,2.46005,4349.8,22287.5,-25590.5
1.60275e+08,203.755,0,2.67131,-17135.2,8076.83,3382.01
1.60393e+08,11.6977,1,2.6424,-1343.12,1917.3,-27804.7
1.60663e+08,88.1289,2,2.86711,13779.7,-4766.53,-17417.1
1.60901e+08,92.3807,2,3.05417,3508.65,-18616,-24608.3
1.61128e+08,7.69878,2,2.92843,-447.208,-435.02,-28973.4
1.61708e+08,1.3879,0,2.57772,277.544,-250.399,-28746
0,1.38917,0,2.64783,0,0,0
1.6174e+08,80.0604,0,2.48189,12914,5899.29,-19467
1.61832e+08,204.073,0,2.64908,10295.2,-21998.4,6752.88
1.61983e+08,22.3429,1,2.72812,1292.31,1943.27,-24707
1.62085e+08,107.406,2,3.00133,-14836,-15858.9,-22522.1
1.62255e+08,219.566,0,2.78118,1892.55,-11385.3,-24286.1
1.62284e+08,154.896,0,2.53105,15081.1,492.173,-17604.3
1.62739e+08,35.0149,0,2.8763,-6364.55,-1757.91,-25744.9
1.63388e+08,132.93,0,2.65046,-16283.7,525.537,-6040.66
1.63484e+08,131.324,1,2.84635,-24137.3,-12873,-25167.1
1.6359e+08,174.66,2,2.49414,-17790.5,-3475.4,3373.86
1.63849e+08,117.049,0,2.37451,-3275.79,23357.2,-21208.5
1.63916e+08,85.2526,2,2.59658,-11186.8,13261.7,-23999.5
1.64123e+08,31.1404,1,2.51972,3023.17,1466.48,-23149.9
1.64169e+08,57.4663,2,2.52913,-11431.3,-4265.49,-29535.7
1.64272e+08,18.7675,1,2.98074,2972.39,2659.17,-28740.4
1.64294e+08,83.1804,1,2.59497,-11250.7,-6455.56,-16970.8
1.64474e+08,76.9147,0,2.65758,5386.09,-7906.46,-15701.4
1.64502e+08,41.3361,2,2.97729,-3881.48,3758.97,-22046.8
1.64562e+08,37.8699,1,2.57857,3759.99,-5639.96,-24659.3
1.6548e+08,15.9427,2,3.00296,-1307.82,-346.791,-25759
1.65683e+08,4.63474,0,2.50619,904.144,548.229,-28860.3
1.6574e+08,164.636,1,2.82076,11622.9,-18034.4,-1715.6
1.66055e+08,20.1462,1,2.40509,-3522.87,2109.08,-27354.2
1.66426e+08,34.4574,0,2.78877,2741.56,-6729.51,-27970.1
1.6664e+08,39.1509,2,2.79288,-5554.22,1524.95,-22949.6
1.67027e+08,93.6517,2,2.66453,-9495.61,5589.58,-12418.4
1.67112e+08,26.0256,1,2.59949,1999.23,2071.24,-24154.2
1.6757e+08,23.6235,2,2.57478,2312.56,-4426.54,-29704.9
1.67752e+08,128.172,1,2.78528,11149.8,-14970.4,-9431.23
1.67794e+08,85.8462,0,2.85196,340.19,8529.24,-12920.7
1.68158e+08,0.62422,2,2.79103,36.8413,-39.954,-28714.4
0,0.555683,2,2.52526,0,0,0
0,0.602224,2,2.45213,0,0,0
0,0.509003,0,2.85622,0,0,0
0,0.561031,0,3.0229,0,0,0
0,0.592063,2,2.48412,0,0,0
0,0.498192,0,2.49973,0,0,0
0,0.491267,0,2.93819,0,0,0
0,0.493295,0,2.73028,0,0,0
1.68227e+08,14.6074,2,2.90037,-1427.86,2496.85,-27808.8
1.68304e+08,97.5123,0,2.56514,2004.69,-14694.4,-14503.9
1.6895e+08,112.603,0,2.94356,9342.84,18191.9,-16905.4
1.69041e+08,93.6084,1,3.05085,-17863.8,-1203.11,-20707
1.69043e+08,8.11229,0,2.46577,1038.66,912.489,-27692.9
1.69134e+08,16.6778,0,2.679,1278.55,3048.11,-27457.4
1.69356e+08,51.7709,0,2.75705,-5018.21,-8775.6,-24809.9
1.69491e+08,106.754,2,2.43518,-7437.27,17409.7,-16579.7
1.6957e+08,12.751,1,2.91332,1278.23,-169.246,-26503.3
1.69631e+08,20.4948,0,2.74642,1915.17,-3020.75,-26316.9
1.69692e+08,13.5511,2,2.82667,-834.469,-2836.06,-28781.8
1.69909e+08,26.6655,1,2.367,-3310.9,1126.52,-24356.6
1.70386e+08,80.3768,0,2.81199,-5664.22,-6931.39,-14513.7
1.70402e+08,33.3327,0,2.51584,6741.05,1258.29,-26891.2
1.70704e+08,23.7638,1,2.92164,-1786.11,1131.63,-24269.4
1.70826e+08,38.6336,2,2.6619,6410.45,56.153,-23814.3
1.70872e+08,45.8443,1,2.88399,-9299.47,2690.64,-29752.4
1.70911e+08,7.39431,2,2.59357,631.276,1102.82,-27979
1.70945e+08,104.725,1,3.05105,6336.97,-15061.8,-14259.5
1.71063e+08,104.167,0,2.54003,20058.7,3900.7,-20395.2
1.71187e+08,29.1902,1,2.58984,1034.54,3800.21,-24033.7
1.7144e+08,15.3805,0,2.43371,2380.46,-2321.18,-28989.4
1.71442e+08,143.295,0,2.7599,18637.6,14049.4,-14893
1.71719e+08,82.9437,1,2.71338,-5709.88,16600.4,-27869.5
1.71765e+08,4.11749,2,2.58318,-340.445,-734.487,-28380.5
0,3.98852,2,2.38867,0,0,0
1.71858e+08,62.1106,1,2.57706,-6630.31,3926.61,-18154.7
1.72178e+08,65.813,0,2.70856,5782.22,-12400.4,-26234.3
1.72263e+08,16.1141,1,2.83325,552.928,3426.04,-29019
1.72706e+08,5.72975,2,2.56387,-696.367,980.318,-28866.9
1.72709e+08,91.3552,0,2.64471,10731.5,1415.78,-12838.5
1.73559e+08,115.037,1,2.65813,-16940.4,11575.8,-15726.5
1.7375e+08,79.3302,2,2.56235,-11553.3,10643.3,-22996.9
1.73847e+08,53.9594,1,2.63262,-6136.28,9371.64,-26426.4
1.74008e+08,72.3526,2,2.48321,-10705.4,-10454.3,-25222.4
1.74014e+08,73.8472,0,2.90165,7174.31,247.777,-15043.5
1.74081e+08,13.3421,2,2.67875,267.813,-2906.21,-28973.4
1.74497e+08,73.0467,0,2.42163,-6307.28,2824.84,-15020
1.74618e+08,96.7298,0,2.41793,-3211.99,17412.9,-18603.4
1.74861e+08,73.2503,2,3.047,8665.92,-2587.45,-16450.6
1.74953e+08,59.8299,0,2.64732,1011.73,-6472.36,-18022.8
1.75373e+08,15.9629,0,2.5488,677.381,2763.36,-26937.6
1.7595e+08,52.1174,2,2.90853,-6245.06,7622.48,-24087.5
1.75971e+08,52.6711,1,2.84665,-806.09,-7016.76,-20347
1.7598e+08,72.7113,0,2.94532,6799.13,-13665.7,-27534.7
1.76569e+08,133.443,1,2.77711,14800.4,-7101.91,-9174.06
1.7693e+08,50.2404,2,2.47223,265.111,-5879.54,-19929.8
1.77044e+08,45.0466,2,2.85728,-7846.72,-5456.32,-28489.3
1.77179e+08,130.892,0,2.65898,901.074,-13603.2,-4811.76
1.77736e+08,2.39403,1,2.5158,-315.502,496.243,-29037.4
1.78098e+08,166.024,1,2.71827,-13455.5,4537,3174.97
1.78417e+08,51.3038,0,3.00935,5146.17,3786.98,-20117.1
1.78491e+08,53.2059,0,2.56426,-4319.76,-4284.95,-19430.9
1.78512e+08,28.4254,0,2.69032,-327.384,5961.09,-28246.1
1.78515e+08,25.8178,2,2.45874,3116.92,-3617.13,-26111.9
1.78786e+08,81.3587,1,2.794,-10120.4,-10149.1,-19476.1
1.78871e+08,50.2651,1,2.74483,-2748.45,10331.2,-28468.3
1.78899e+08,99.1402,2,2.65811,14544.1,8354.46,-16432.1
1.78923e+08,10.9426,0,2.90495,1607.05,-1749.76,-28771.8
1.78945e+08,12.2628,2,2.86535,1948.38,-501.688,-27224.5
1.79156e+08,76.6697,2,2.39988,-11308,-9042.35,-21323.3
1.79569e+08,8.35852,0,2.41072,677.966,-372.355,-27195.8
1.79589e+08,62.3416,1,2.49163,1009.91,-5526.27,-16930.9
1.79745e+08,93.8381,1,2.78374,-12628.3,771.973,-13629.3
1.79946e+08,188.821,2,2.71017,28397.1,15365.1,-5653.29
1.80719e+08,94.5036,0,2.49524,16842.8,2922.95,-18328.6
1.81068e+08,27.7493,2,2.83224,2573.69,-4340.65,-25781.7
1.81317e+08,27.6589,0,2.96731,724.384,-4624.01,-25352
1.81807e+08,25.1398,2,2.70794,-4025.69,-216.709,-25374.2
1.81871e+08,114.461,2,2.81249,-4696.71,-13493.3,-9384.43
1.81875e+08,151.313,2,2.65976,-11460.8,-29889.9,-28823.6
1.82384e+08,39.0718,0,2.7898,158.25,3686.87,-21459.6
1.82827e+08,79.7028,1,2.46923,-15958.8,-5577.92,-28485.5
1.82863e+08,52.7934,0,3.03289,-4148.85,9889.88,-26223.6
1.83075e+08,69.3262,0,2.43358,-1657.81,-11448.9,-19813.9
1.83128e+08,20.5634,1,2.80549,-3384.67,2882.79,-28961
1.83235e+08,149.87,2,2.98251,12779.5,-8915.32,-11981
1.83279e+08,15.4117,0,2.80487,3272.62,562.371,-29078.8
1.83319e+08,22.0323,2,2.95708,799.711,-3870.13,-26348.7
1.83398e+08,69.8637,1,2.86056,-7038.81,6682.06,-17737.6
1.83494e+08,95.2607,2,2.59278,-8244.87,17954.3,-25826.4
1.83515e+08,192.997,2,3.0171,17035.1,-18381.3,-15283
1.83728e+08,26.9646,2,2.68367,-811.703,4202.23,-25127.4
1.83873e+08,54.9503,2,2.91026,-7770.59,-504.305,-20292.6
1.83915e+08,177.937,2,2.49701,-1101.26,-9655.96,5240.66
1.84062e+08,113.026,1,2.43622,3236.1,18749.9,-14307.9
1.84351e+08,36.0448,1,2.5547,-5703.82,-2315.45,-24290.1
1.84634e+08,127.74,0,2.50623,24985.6,8139.27,-22212.2
1.84737e+08,57.5452,1,3.01242,-2528.83,8914.93,-20991.8
1.84801e+08,219.987,0,2.72478,-27167.9,-4028.23,8459.44
1.84859e+08,0.238365,2,3.55246,28.4908,-38.1923,-28807.8
1.84865e+08,46.2199,2,2.98357,-9459.9,696.759,-26578.3
1.84925e+08,32.8481,1,2.97549,-4298.8,4915.51,-26326
1.85074e+08,12.5759,1,2.41696,1072.25,1991.84,-27354.2
1.8509e+08,22.0431,2,2.80069,-2406.58,-2909.25,-26008.5
1.85422e+08,22.4657,1,2.54601,-226.574,4841.22,-29138.5
1.8567e+08,109.362,1,2.82101,-5560.95,11347.6,-9560.2
1.85687e+08,80.1981,0,2.85423,16426.7,-2785,-25687.1
1.85856e+08,9.05355,1,2.71861,-1844.38,368.991,-28213
1.86337e+08,53.6328,2,2.47408,-10231.6,-4144.09,-25912
1.86637e+08,29.3191,1,3.05455,4894.04,-1275.29,-25401.3
1.86718e+08,145.316,0,2.74664,13407.9,-8137.04,-27354.4
1.86948e+08,164.51,1,2.88689,-17056.9,4740.85,880.316
1.87414e+08,16.2988,2,2.93482,1384.76,-3202.1,-28713.6
1.87537e+08,141.082,1,2.91372,970.49,20036.5,-6972.99
1.87943e+08,28.8477,1,2.41446,-1896.84,4835.54,-25477.9
1.88246e+08,47.9312,2,2.50387,-9526.29,-853.731,-25256.7
1.88696e+08,87.8696,1,2.71748,10630.6,7215.91,-15472.5
1.89186e+08,108.003,0,2.86695,1955.28,-20949.5,-20262.5
1.89203e+08,33.8076,0,2.54263,-6098.75,-2200.98,-25927.6
1.89273e+08,139.289,2,2.95047,-14729.5,-15940.8,-9172.18
1.89471e+08,147.058,0,2.62202,15876,278.486,-25942.1
1.905e+08,142.524,0,2.75634,29286.8,-6260.2,-25714.5
1.90508e+08,33.2483,2,2.71864,-3030.6,-1081.26,-22568.3
1.9114e+08,36.9067,1,2.40115,-2438.34,-6380.77,-25116.1
1.91273e+08,172.889,1,2.72027,-26882.9,-21464.4,-16844.1
1.91409e+08,10.2527,2,2.52635,-1935.2,-1000.76,-29484.3
1.91525e+08,84.4456,1,2.6007,-5308.7,10673.8,-15503.5
1.91974e+08,55.9538,0,2.67275,11823.2,864.012,-27804
1.92055e+08,15.5633,2,2.59361,750.289,2125.84,-26502.1
1.92298e+08,1.56271,2,2.7827,196.83,-89.3086,-28572.5
0,1.57829,2,3.01901,0,0,0
1.92308e+08,72.4009,1,2.74679,-688.476,-4928.9,-21931.1
1.9261e+08,84.7628,1,2.82197,-725.734,-11694.2,-15431.4
1.93044e+08,3.97765,0,2.56506,-387.25,167.162,-28140.9
1.9308e+08,29.3121,1,2.50334,1112.3,6125.27,-29602.6
1.93099e+08,122.933,0,3.02604,-616.466,-15509.9,-8308.77
1.93276e+08,55.3015,1,2.42026,-2376.42,-9562.89,-22607.6
1.93422e+08,24.3152,0,3.00737,4536,2538.25,-28946.9
1.93584e+08,67.0585,0,2.964,-5284.82,4693.68,-17112.3
1.93849e+08,141.191,1,2.99102,19008.7,-15275.1,-12136.7
1.93897e+08,19.9866,2,3.01492,2714.32,-2654.39,-26980.3
1.94013e+08,85.7099,1,3.03049,-7531.19,-1070.66,-12544
1.9408e+08,18.8756,1,2.86568,-288.958,2540.53,-25745.8
1.94162e+08,120.425,1,2.47173,22458.7,-217.514,-16878.6
1.94366e+08,73.7711,1,2.61716,-8340.37,8132.01,-18378.8
1.94388e+08,22.4071,0,3.03093,870.572,1272.65,-25945.7
1.9449e+08,23.5456,2,3.0383,-1267.34,-3042.9,-25073.7
1.94928e+08,111.902,0,2.4054,5392.19,12066.3,-9146.96
1.95091e+08,27.1806,1,2.95966,-4801.32,62.8334,-25655.2
1.96153e+08,137.849,1,2.97302,-24303.7,-14412.6,-22698.1
1.96457e+08,60.8511,0,2.85056,4764.5,5225.87,-18165.5
1.96508e+08,58.7391,1,3.03676,-8883.36,-2024.92,-21712.6
1.97806e+08,70.6424,0,2.83764,-1001.3,-14807.8,-29574.1
1.97823e+08,56.9405,1,2.86465,9188.14,-5954.18,-25354.4
1.98085e+08,37.6069,1,2.63033,2938.47,-1663.78,-21673
1.98128e+08,148.366,2,2.93225,7250.75,-17472.7,-5808.2
1.98259e+08,64.5486,2,2.67958,-5231.95,-12649.2,-28156.8
1.98676e+08,9.07804,0,2.39253,1775.17,-648.968,-29593.5
1.9872e+08,22.5748,2,2.58133,-2184.78,2582.07,-25454
1.98909e+08,141.124,2,2.9726,10042.8,20542.5,-10173
1.99482e+08,41.8008,1,2.91612,2728.19,6243.99,-23228.8
1.99529e+08,6.49482,1,2.6135,-995.748,591.709,-27954.3
0,6.55407,1,2.95292,0,0,0
1.99719e+08,71.6693,1,2.85223,4005.47,-2913.66,-16640.5
1.99871e+08,57.3716,2,2.41512,-8153.53,-1163.33,-19838.1
2.00699e+08,157.806,0,2.50401,-19175.9,7660.44,-2683.58
2.00723e+08,61.4447,1,2.38105,-9915.89,7258.65,-24398.3
2.01024e+08,5.19632,0,2.41848,887.589,-245.178,-29602
2.0116e+08,28.2545,0,2.48059,4693.46,3833.35,-29349.4
2.0165e+08,148.968,1,2.88268,20186.8,23855,-26636.8
2.01777e+08,82.4248,2,2.39719,6564.82,-15132.8,-23033.9
2.0219e+08,245.802,0,3.02883,26483.3,13762.8,11715.2
2.023e+08,128.145,0,2.76961,21913.6,13078.1,-19864.8
2.02485e+08,7.27565,1,2.81539,496.69,1544.14,-28870.3
2.02619e+08,311.6,0,2.67546,24923.7,-27163.6,25596.3
2.02684e+08,45.5818,1,2.67194,-4868.28,443.15,-20522.9
2.02775e+08,44.8986,2,2.36771,-6153.23,-5807.38,-24334.8
2.02859e+08,86.1752,1,2.86737,16331.1,173.834,-21062.5
2.03042e+08,130.845,0,2.91709,5403.71,25380.1,-19692.4
2.0309e+08,123.371,0,2.63335,14523.2,-21049.1,-24392.5
2.03191e+08,307.884,1,2.91412,1838.67,4622.01,-28223.8
2.03323e+08,24.248,0,2.46002,-30.7308,-4927.39,-27314
2.03554e+08,288.343,0,2.79465,1939.88,5702.32,-29165
2.03666e+08,19.6067,0,2.46813,2845.17,2164.48,-26610.8
2.03989e+08,5.40565,0,2.44167,632.636,-486.013,-27934.8
2.04031e+08,72.4202,0,2.57299,605.917,8856.45,-16372.6
2.04497e+08,31.5168,0,2.6536,-5167.85,3815.25,-27262.7
2.05126e+08,136.91,2,2.49816,-13497.7,-14318.4,-7536.26
2.05229e+08,19.3637,0,2.55678,3810.05,-1631.5,-28123.5
2.05525e+08,45.3704,2,2.58286,-5080.9,2663.83,-21142.7
2.06247e+08,58.5303,2,2.66968,2006.09,-12171,-27278.9
2.06547e+08,54.8816,2,3.04254,-4873.72,1343.35,-20733
2.06597e+08,30.5606,0,2.70365,-27.2319,-5889.92,-26143.3
2.06754e+08,40.3465,0,2.68802,7142.07,326.737,-24051.7
2.06851e+08,206.449,2,2.94396,-9315.3,-6021.34,-18922.8
2.06996e+08,102.237,1,2.37325,-8796.64,19871.9,-28107.7
2.07098e+08,52.2408,1,2.83681,-2882.71,-7138.17,-21022.3
2.07316e+08,80.3169,0,2.60938,-2724.57,-9248.01,-14902.3
2.07318e+08,56.6553,1,2.70577,-7312.94,-8783.19,-25409
2.07672e+08,47.8306,2,2.70263,-8250.09,-5795.62,-27353.4
2.07702e+08,57.9608,0,2.55879,-6178.96,10232.3,-26195
2.08102e+08,1.9361,0,2.44647,-104.076,-87.6861,-28442.6
2.08443e+08,62.0865,2,2.533,-6643.34,-4780.6,-18489.7
2.08692e+08,50.6902,1,2.5158,9026.62,2562.8,-23666.4
2.08918e+08,43.8806,1,2.68975,-3030.61,2530.92,-20414.2
2.09027e+08,180.379,0,2.47628,19487.2,10582.6,-6050.5
2.09041e+08,166.477,1,2.77734,12379.9,1569.92,-21466.1
2.09228e+08,23.4323,2,2.91099,-2454.06,-3498.08,-26223.6
2.0932e+08,10.1255,0,2.71001,1584.36,568.676,-27391.8
2.09477e+08,9.20892,1,2.40978,-279.727,1479.46,-27473.5
2.09589e+08,137.934,0,2.47853,22133.8,1370.79,-9785
2.09646e+08,40.7002,2,2.49366,6341.67,-3728.48,-24332.4
2.09668e+08,258.615,1,2.79152,-28723.9,26924.9,8788.04
2.10087e+08,64.2592,0,2.4073,4736.67,12520.7,-26299.6
2.10098e+08,33.5705,2,2.93672,-4554.62,-3630.44,-24741.3
2.10418e+08,26.6023,0,3.00468,-1459.99,-5114.21,-27138.7
2.10756e+08,126.073,0,2.85793,6487.92,25048.4,-23020.5
2.10905e+08,40.7196,2,2.41921,-4572.55,-2333.91,-21842.9
2.11254e+08,20.7844,1,2.50809,2411.76,634.581,-25213.1
2.11497e+08,54.9657,0,2.96068,6911.51,9242.13,-28062.9
2.12557e+08,91.4077,1,2.69492,-4495.17,14822.8,-19913.1
2.13916e+08,130.641,2,2.78107,6485.93,-8439.84,-16406
2.1418e+08,16.6347,2,2.45062,1184.5,-1945.35,-26131.2
2.14525e+08,48.0397,0,2.40982,2865.86,9538.05,-26697.5
2.14668e+08,164.736,1,2.75113,19326.7,-1624.11,-14175
2.14957e+08,31.7993,0,2.9122,1487.52,-4534.09,-24097.6
2.15424e+08,77.3955,0,2.50683,6525.96,-240.9,-13777
2.15446e+08,91.851,2,2.73739,-5653.5,-6143.4,-11347.8
2.15493e+08,140.307,1,2.91838,-26245,11423,-27202.2
2.15971e+08,36.3524,0,3.04941,3042.41,881.028,-21868
2.15995e+08,111.387,0,2.92562,-17271.3,-13811,-21408.5
2.16615e+08,53.2261,2,2.65235,9746.48,-5311.01,-27101.7
2.17048e+08,89.2976,1,2.57023,-3251.22,18439.9,-25957.7
2.17174e+08,83.8976,0,2.3863,-5426.27,7498.91,-13685.2
2.17705e+08,5.10524,2,2.86927,-699.814,769.46,-28626
2.17817e+08,54.7186,0,2.60567,-5992.66,-8566.18,-23968.7
2.17826e+08,86.9858,2,2.80885,-12501.4,-4953.83,-16331.1
2.18671e+08,99.3384,1,2.79622,72.4954,20369.2,-27214.6
2.18739e+08,46.864,0,2.47283,-7383.25,-6444.41,-27576.1
2.1894e+08,17.7492,2,2.39854,1633.31,1858.2,-26057.4
2.19041e+08,43.6997,2,2.7206,-3830.89,-5641.57,-22538.6
2.19321e+08,66.2431,2,2.92287,1080.47,11789.6,-21668.3
2.19478e+08,5.37479,2,2.84586,-740.395,746.359,-28449.5
0,5.39623,2,2.93097,0,0,0
2.19818e+08,8.99956,1,2.94182,-530.358,1506.21,-27702.6
2.20022e+08,7.63068,1,2.95035,1260.94,1024.93,-28927.6
2.20149e+08,178.257,2,2.41465,22406.4,-28437.4,-18162
2.20228e+08,53.4282,1,2.77014,-7717.93,5277.81,-28842.7
2.203e+08,17.2899,2,3.04045,-681.055,-2542.92,-26248.2
2.20391e+08,8.60642,1,2.56146,-1025.52,1454.87,-28134.4
2.20642e+08,76.4892,2,2.95853,10146.2,9262.25,-20626.8
2.20714e+08,184.183,1,2.86678,-28520.1,14460.4,-6964.46
2.21201e+08,25.0818,2,2.94865,670.352,2924.42,-24531.7
2.21232e+08,2.92848,2,2.88925,479.772,-85.9307,-28446.7
2.21736e+08,102.095,2,2.97973,1306.22,-18660.7,-18278.3
2.22143e+08,9.1599,0,2.87893,1328.13,490.808,-27442.2
2.22197e+08,8.60408,0,2.88314,326.491,1763.98,-28378.8
2.22351e+08,18.1494,2,2.41651,-1740.04,250,-25387.5
2.23285e+08,71.9117,1,2.6203,-3861.96,-13947.4,-24580
2.23347e+08,118.564,2,2.60401,839.613,-19667.1,-13244.4
2.24026e+08,34.2399,1,2.85116,3387.04,3610.35,-23594.7
2.24245e+08,119.168,2,2.74604,-6846.59,10879,-7308
2.24289e+08,124.71,1,2.87091,1405.1,19794.6,-21543.1
2.24453e+08,59.6543,2,2.80084,-9914.8,-5440.45,-23217.8
2.24468e+08,77.8419,1,2.43125,-4737.29,-11991.9,-18623.6
2.2479e+08,143.227,0,2.44347,12012.1,2741.03,-1108.55
2.24857e+08,20.2848,2,2.7515,1596.08,-3804.32,-27497.3
2.24888e+08,15.8721,1,2.6323,1654.3,472.476,-25950.7
2.2501e+08,57.0321,0,3.03608,10760.5,4834.19,-26489.8
2.25186e+08,20.7614,1,2.59973,574.495,2933.47,-25545.7
2.26276e+08,92.4898,2,2.88154,9116.57,-7448.72,-13393.6
2.26775e+08,3.91182,0,2.57379,81.7005,673.074,-28327
2.26834e+08,36.5672,0,2.70954,-3310.79,1271.09,-22012.4
2.26965e+08,20.4826,0,2.46638,-2247.93,873.961,-25763
2.2711e+08,6.81417,1,3.01679,-919.788,1241.79,-28970.5
2.27175e+08,16.6887,1,2.87028,-1240.08,2450.43,-26553.8
2.27314e+08,136.564,0,2.87622,9740.57,-10437.8,-3902.46
2.27658e+08,204.355,2,2.89284,9978.68,-1723.49,-13337.9
2.27762e+08,49.3049,0,2.83318,9063.62,-5195.27,-28416.7
2.27806e+08,179.786,0,2.70326,-5972.22,-21845.8,-3258.68
2.2795e+08,82.4613,0,2.69041,9861.93,-2674.3,-14694.6
2.28134e+08,14.6895,2,2.61181,-729.61,1326.55,-26158.7
2.28189e+08,156.787,0,2.86793,29148.5,14091.7,-22645.4
2.28265e+08,21.7229,0,2.77824,2460.03,-539.736,-24940.3
2.28278e+08,34.7359,0,2.80899,-107.051,6870.41,-26302.5
2.28473e+08,90.4071,1,2.5692,-10250.7,16254.2,-28790.4
2.28527e+08,23.3975,1,2.75947,-4317.89,-2341.49,-28298.2
2.28745e+08,58.5897,1,2.76,-6864.46,9938.81,-25934.9
2.28931e+08,349.891,2,2.83709,28595.3,2527.35,-1748.36
2.29077e+08,44.3386,0,2.64164,150.619,4606.26,-20673.1
2.29514e+08,80.8177,0,2.75755,1457.13,-15259.3,-21372.6
2.29853e+08,128.85,1,2.36415,26813.6,942.576,-24098.3
2.2987e+08,96.609,0,2.89255,-18430.7,1517.05,-20610.4
2.30035e+08,59.2966,2,2.96894,-6439.69,-10033.3,-24930.1
2.30102e+08,216.635,0,2.84657,-28545.4,5415.56,-15180.3
2.30108e+08,183.876,1,2.73995,-5812.16,-22164.1,-23099
2.30695e+08,17.6831,1,2.80017,-1864.38,1812.91,-26082.8
2.30838e+08,49.1604,2,3.03756,8485.82,2164.09,-23481.1
2.31406e+08,169.378,0,2.3645,13972.9,-21223.8,-3481.88
2.31421e+08,137.812,0,2.59776,-27238.6,-2900.72,-19235.5
2.31718e+08,89.8255,0,2.94352,8698,-9831.45,-15244.3
2.3174e+08,15.2376,2,2.56777,-1726.38,-2537.18,-27666.3
2.31895e+08,41.168,0,2.98102,232.851,-5824.62,-22427.4
2.32063e+08,88.2248,0,2.75241,10140.7,-3999.76,-13739.8
2.32278e+08,123.893,1,3.00175,-14672,8021.18,-8922.34
2.32346e+08,56.5146,1,2.91315,-5696.53,2384.12,-18643.8
2.32376e+08,134.756,0,3.00693,-21753,1190.38,-10948.4
2.32694e+08,56.72,2,2.65454,-2174.7,-7147.78,-19402.7
2.32971e+08,70.3224,1,2.94415,8523.86,-5679.32,-18241.7
2.33266e+08,1.96872,0,2.90812,517.574,113.292,-28801.4
0,1.94475,0,2.49067,0,0,0
2.33332e+08,111.127,1,2.69619,-3902.74,-12096.2,-9185.38
2.33446e+08,117.271,2,2.78078,3288.21,15172.6,-9689.71
2.33459e+08,2.21948,1,2.99736,436.766,111.184,-28802.1
2.33599e+08,132.27,2,2.5533,-15096.4,-12903.1,-9076.85
2.33694e+08,165.627,2,2.6117,21116.3,25814.5,-20108.6
2.34014e+08,27.6964,1,2.83762,-5288.46,1040.37,-26499.9
2.34587e+08,78.2441,2,2.74483,8112.77,-13860,-24857.2
2.34746e+08,11.2351,0,2.3872,80.7394,2397.25,-28766.1
2.34806e+08,20.5467,0,2.77581,4248.25,1270.77,-28552.5
2.34836e+08,25.4287,2,2.91489,2699.76,-4416.48,-27248.5
2.34967e+08,177.492,1,2.93234,-26603.8,14399.4,-7030.07
2.35528e+08,27.6374,0,2.71285,5203.91,2818.6,-28622.9
2.35794e+08,127.356,1,2.829,-19353.9,16855.4,-20861.3
2.36003e+08,89.4225,2,2.49748,-16594,9097.91,-28123
2.36349e+08,14.9882,2,2.71824,1173.89,-2842.77,-27831
2.36359e+08,51.2953,0,3.05231,10827,62.6965,-29158.4
2.36567e+08,47.1985,1,2.37413,-1784.25,4658.28,-20114
2.36735e+08,89.6405,2,2.51293,-14371.5,12251.7,-27290
2.36882e+08,5.62875,1,2.38234,-1166.39,-407.449,-29021.3
2.375e+08,76.075,0,2.59148,5860.19,-13238.7,-21728.1
2.37605e+08,12.3275,0,2.74997,2083.42,484.651,-27231.2
2.37945e+08,106.839,1,2.93661,-13636.1,-7824.78,-20666.9
2.38917e+08,148.573,1,2.51256,-18558,20308.8,-13552.8
2.39045e+08,46.7693,1,2.69927,-9000.99,-2892.53,-25968.6
2.3946e+08,1.9393,1,2.46563,-366.341,-138.102,-28696.2
2.39557e+08,110.047,0,3.02264,7778.8,6651.01,-8143.66
2.39692e+08,145.019,0,2.49751,8155.06,16980.5,-4619.63
2.39722e+08,19.8676,1,2.60051,3555.15,2313.69,-28714.4
2.40181e+08,173.217,1,2.47275,22303.2,29070.9,-26987.5
2.40276e+08,52.8294,2,2.68852,-7548.83,-5733.84,-22816.3
2.40569e+08,74.7437,2,2.55311,-14685.6,5920.91,-28865.3
2.40959e+08,89.0391,1,2.66168,-10378.4,11813.7,-18426.8
2.41195e+08,27.3724,0,3.01315,1639.49,-5432.64,-29925.5
2.41369e+08,32.1272,1,2.62903,-2575.44,5945.73,-26513.5
2.41724e+08,10.0626,0,2.96941,912.512,-266.588,-26915.1
2.41977e+08,90.6659,0,2.82409,-4662.06,-1282.59,-17454.2
2.4235e+08,61.553,0,2.55325,-1467.07,-6802.26,-17832.3
2.42548e+08,140.727,1,2.56704,-4810.13,-13839.4,-2975.19
2.42602e+08,85.9549,1,2.87696,-18034.9,-636.663,-27070.1
2.4278e+08,139.701,1,3.06049,2378.91,17168.9,-5212.19
2.43227e+08,134.847,1,2.52887,-24499.7,894.36,-14184
2.43307e+08,137.308,1,2.78424,-1253.97,21845.9,-9871.58
2.4334e+08,22.2701,2,3.0339,2082.34,-3702.62,-26780.6
2.43794e+08,75.3243,0,2.52621,4775.38,10757.8,-18068
2.44663e+08,24.3867,2,3.03333,-4490.01,538.791,-26351.9
2.45197e+08,32.3814,2,2.75941,2126.07,2916.72,-23077.4
2.45217e+08,146.554,2,2.55977,-123.825,-19271.2,-4541.68
2.45354e+08,86.7814,0,2.80728,-10524.7,10771,-18612.2
2.45531e+08,130.62,0,2.47892,5020.43,-10648,-3817.88
2.45587e+08,140.676,1,2.82349,-19880.4,4272.1,-7298.6
2.4585e+08,52.8738,2,2.57718,1656.22,-7829.85,-20964
2.45881e+08,45.4127,2,2.72282,4793.56,1401.47,-20700.2
2.45912e+08,5.25394,2,2.93733,144.12,-723.986,-27936.1
2.45982e+08,27.3293,2,2.78532,4775.11,-3059.77,-27657.3
2.46122e+08,157.864,0,2.65758,29489.8,3318.43,-13612.7
2.46439e+08,7.55977,1,2.41329,-1424.47,236.642,-28042.9
2.46523e+08,19.5249,2,2.75048,2248.61,-3128.13,-27253.3
2.46624e+08,161.055,2,2.48198,29756.9,-11718,-17185.8
2.46771e+08,35.4923,1,2.54459,-459.353,7032.63,-26003
0,35.7706,1,2.99669,0,0,0
2.46778e+08,181.294,2,2.86182,-9842.79,-17126.2,-5080.44
2.4727e+08,149.959,0,2.81994,-14562.3,-3290.4,-1079.91
2.4742e+08,88.1588,0,2.41092,14907.7,-1007.41,-17534.7
2.47762e+08,33.7867,1,2.68901,-4360.8,5760.06,-29285.5
2.48143e+08,60.8992,0,2.59753,-2361.19,11434.6,-23469.4
2.48287e+08,4.93721,0,2.36525,-489.653,-85.0445,-27924.1
2.48368e+08,116.976,0,2.69737,16698.7,18252.5,-28519.1
2.48866e+08,47.4458,2,2.70734,-3890.97,7625.06,-23684.6
2.48988e+08,26.8566,0,2.45306,5646.57,1215.98,-28663.4
2.49041e+08,37.7071,1,2.4577,-7632.53,-1830.1,-27288.3
2.49298e+08,27.5549,1,3.01305,4530.23,3642.55,-28992.9
2.49374e+08,10.4319,2,2.49284,968.369,-1124.2,-27169.2
2.49395e+08,39.2389,2,2.82122,7640.69,-3080.8,-28028.4
2.49539e+08,8.38478,1,2.40344,-538.459,1484,-27851
2.49676e+08,36.4295,1,3.00005,-3518.86,6725.01,-27259.6
2.49752e+08,87.9128,2,2.93675,4364.99,-13236.2,-16674.5
