#class tools::wcsv::ntuple
#title time
#separator 44
#vector_separator 59
#column double eventID
#column double t(ns)
#column double copynumber
#column double energy(eV)
#column double x(mm)
#column double y(mm)
#column double z(mm)
42517,327.204,2,2.86315,25730.9,2491.97,29287.4
251042,20.1434,2,2.92711,1581.88,-3246.77,-26548.5
497272,2.86521,2,2.6486,-488.345,-520.796,-28797.7
830579,40.6682,2,2.59204,-7357.91,-3342.92,-28888.4
1.07388e+06,79.7211,0,2.88503,2198.51,-189.128,-27936
1.17253e+06,173.432,1,2.90212,19038.8,25839.4,-11553.7
1.52303e+06,17.8395,0,2.48705,-2665.93,559.586,-26294.4
1.73595e+06,3.51906,1,2.62507,-186.931,733.224,-29244.5
2.19231e+06,71.5351,1,2.53862,-8592.92,9085.28,-20194.2
2.27537e+06,101.857,0,2.67156,-6735.79,-18682.4,-20671.4
2.6317e+06,50.2904,0,2.53765,8883.14,4034.63,-24419.3
3.56415e+06,75.9452,0,2.95771,-1594.57,8111.32,-15213
3.66631e+06,42.7072,1,2.80984,-408.609,7895.93,-24387.9
3.70114e+06,132.285,1,2.92578,-17252,12269,-16342.6
3.8493e+06,285.59,2,2.69606,-6999.81,18052.7,3923.98
4.28362e+06,36.7041,0,2.41352,5053.3,-2141.91,-23241.2
4.36192e+06,66.5692,2,2.80279,-5557.45,-999.064,-15979
4.41829e+06,72.4826,0,2.96095,14330,5259.3,-29832.5
4.77742e+06,22.6109,0,2.53441,527.336,1894.86,-24440.8
4.88151e+06,9.62052,1,2.63456,3.38233,1465.68,-27323.2
5.20265e+06,143.028,0,2.94375,-2635.33,23285.4,-10125.3
5.23802e+06,90.6923,1,2.6665,-10866.7,14570.9,-22596.7
5.34086e+06,19.7639,2,3.00056,-229.65,-2865.37,-25760.1
5.70587e+06,2.35533,0,2.77716,-43.4968,385.003,-28509.2
5.75954e+06,42.7879,1,2.74352,-4705.78,3562.87,-21929.7
5.77372e+06,59.6798,0,2.65761,9387.72,6039.7,-24102.1
6.10472e+06,16.3508,2,2.72515,763.431,-3410.37,-28292.4
6.30016e+06,177.334,2,2.81433,10428.9,-18284.7,-5263.19
6.73785e+06,46.5933,1,2.90334,8638.8,-4369.18,-27680.1
6.88682e+06,19.7703,1,2.72728,-966.276,-3212.96,-26407.2
0,19.7716,1,2.49655,0,0,0
7.05546e+06,106.965,1,2.73438,-19649.2,1609.87,-17811.5
7.14556e+06,7.927,1,3.01503,1234.57,-527.295,-27945.8
7.27057e+06,16.2131,0,2.71526,1672.32,69.1734,-25811.9
7.90479e+06,180.72,1,2.56429,-21566.1,1547.91,2682.9
7.96487e+06,76.1602,2,2.73771,7937.61,12145.5,-22132.2
7.97467e+06,68.3367,2,2.88348,8929.29,-7989.62,-20885
7.9897e+06,32.0752,1,2.73048,575.887,3994.24,-23350
8.27357e+06,230.898,1,2.47327,18483,24205.5,9332.19
8.44762e+06,19.3149,0,2.51242,-1064.82,-2168.06,-25556.3
8.46685e+06,6.07081,1,2.46834,-741.548,-190.922,-27771
9.01866e+06,1.70358,0,2.37929,-182.784,-171.774,-28654.2
9.11107e+06,88.7407,0,3.02489,18479,-1612.68,-26436
9.3082e+06,59.9958,2,2.37299,8049.16,7101.45,-22190
9.31036e+06,44.5808,1,2.62942,-1474.28,7002.86,-22618.8
9.46581e+06,91.351,0,2.86934,12498.3,14675.5,-29093.5
9.50218e+06,9.84956,1,2.69997,-2.57573,-1754.4,-27775.1
9.60899e+06,22.7608,0,2.42993,3942.65,-130.757,-25913.8
9.95304e+06,21.97,0,2.62754,-1804.16,-1225.91,-24747.3
1.01891e+07,76.0106,0,2.9181,1609.82,13908.3,-28666.2
1.0204e+07,88.4431,1,2.76703,-15116.7,10040,-24350.1
1.04983e+07,77.5012,1,2.59859,-10413.2,7908.05,-18865.2
1.0633e+07,4.16053,0,2.54033,823.576,-244.408,-29301.5
1.06401e+07,61.5706,2,2.63123,-3433.24,-4077.97,-16924
1.09164e+07,197.809,0,2.80108,1889.78,-29592.1,390.821
1.09855e+07,8.79957,2,2.98736,1083.08,-1281.23,-27933.6
1.12647e+07,40.2281,1,2.8362,-7222.29,-2188.02,-24980.1
1.13428e+07,93.2293,2,2.40485,-11230.6,1450.84,-12648.6
1.13506e+07,12.8724,0,2.39153,1528.67,-689.479,-26605.1
1.13664e+07,46.9203,0,2.54111,-1021.35,-9009.85,-24750.4
1.15277e+07,102.502,2,2.479,-1747.95,-10045.3,-9651.51
1.15492e+07,42.6069,1,2.61976,1057.8,6745.53,-22867.1
1.18215e+07,149.021,0,2.99068,27942.6,-5882.56,-15932.9
1.23334e+07,27.4468,2,2.81045,-1492.35,-2271.66,-23679.2
1.27118e+07,15.1861,1,2.53505,-1960.47,-1140.58,-26558.3
1.27148e+07,25.2224,0,2.96687,3462.34,-3787.48,-27314.1
1.28687e+07,148.599,0,2.65743,24930.1,-16947.4,-19932.5
1.32967e+07,5.53411,2,2.613,192.309,-1115.12,-28286.1
1.3428e+07,0.416188,1,2.47769,-38.2746,-22.4234,-28770.1
0,0.393015,1,2.44295,0,0,0
0,0.567287,0,2.18045,0,0,0
1.34998e+07,102.236,0,2.4784,21188.8,3875.88,-25966.5
1.35505e+07,95.1419,1,2.97797,-13727.7,3051.35,-14621.8
1.36036e+07,49.7302,2,2.79494,-3555.59,-1489.43,-19153.9
1.36619e+07,44.8879,2,3.04394,-5853.59,-6239.29,-24717
1.39606e+07,23.6159,2,2.50082,2390.31,-3891.58,-26659.4
1.41056e+07,24.8919,2,2.65804,-2386.46,83.5234,-24118
1.4152e+07,86.1644,1,2.75088,8588.26,-9922.17,-21874
1.41996e+07,126.294,0,2.74305,-1187.71,19828.3,-11140.2
1.4471e+07,73.9823,0,2.99522,-1997.03,2243.08,-19282.2
1.47584e+07,3.00014,1,2.87713,-292.575,-276.178,-28333.8
1.50892e+07,62.8754,0,2.62778,10598,3036.15,-21298.5
1.52353e+07,1.61401,0,3.03386,-137.505,96.0561,-28572.4
1.55242e+07,50.2036,0,2.51079,1257.37,-6028.36,-20152.6
1.57658e+07,11.1604,2,3.03135,-787.988,-975.229,-26789.6
1.6248e+07,15.6512,2,2.51685,-3112.48,-739.558,-27730.9
1.63891e+07,126.859,2,2.96556,-6288.76,-10033,-4980.77
1.66637e+07,63.2121,1,2.77353,6690.49,10669.5,-24399.4
1.67334e+07,26.8369,2,2.43542,792.746,-5697.38,-28519.2
1.67606e+07,106.01,2,2.93933,5889.89,14809.6,-13389.3
1.68175e+07,19.5286,0,3.02942,720.293,-2219.83,-25455.1
1.68704e+07,151.472,1,2.96346,-25281.7,9756.46,-12151.7
1.69604e+07,70.7836,0,2.53477,132.421,-223.81,-29525
1.72533e+07,4.97977,0,2.47488,-81.3482,-1081.25,-28765.7
1.74721e+07,75.4919,0,2.66842,15970.2,-1247.17,-28022.5
1.75769e+07,1.5502,1,2.80457,131.203,-130.735,-28585.4
1.76604e+07,70.6101,0,2.46625,10775.4,6646.44,-20771.9
1.78109e+07,206.249,0,2.56989,22273.2,-10977.5,7001.79
1.78446e+07,101.933,1,2.67354,1237.83,21484.3,-27040.1
1.79909e+07,52.065,0,2.81113,4672.51,-8320.25,-23364.2
1.84999e+07,148.883,0,2.3677,27981.1,3845.13,-14688.9
1.93764e+07,17.8642,1,2.84391,-3549.33,956.636,-27715
1.9468e+07,103.374,1,2.85851,-5499.26,-9269.47,-9969.5
1.964e+07,87.5813,2,2.60352,-8374.22,-16136.8,-25035
2.00369e+07,32.1967,2,2.79919,4110.19,-3610.9,-24767.7
2.05293e+07,35.2688,0,2.54854,3707.98,3650.16,-23429.4
2.0641e+07,71.1193,2,2.40668,-7943.19,-12815.3,-27269.7
2.07096e+07,43.772,0,2.90379,7010.09,5905.77,-27310.1
2.0948e+07,56.4244,1,2.73905,-11193.3,4018.53,-29979.5
2.12582e+07,3.38058,2,2.59071,-8.49176,-798.003,-28668.5
2.15166e+07,77.9083,1,3.04563,-4990.9,12749.2,-19829.5
2.1543e+07,154.097,0,3.04039,1136.65,-12436.1,-19471
2.1901e+07,33.9075,0,2.71234,4449.95,2516.17,-23754.3
2.20226e+07,31.7905,0,2.50212,-2009.22,5056.66,-24925.5
2.22154e+07,139.26,1,2.5311,6700.41,-14221.3,-4001.41
2.23158e+07,50.7424,2,2.6885,7564.96,1642.36,-21478.8
2.24045e+07,40.6603,0,2.94028,1468.07,8392.05,-27837.6
2.24285e+07,73.9589,2,2.84933,-11011.7,-11026.9,-27398.4
2.27506e+07,19.0982,0,2.47411,1013.32,1609.03,-28602.4
2.31612e+07,130.776,0,2.95913,163.257,-12812.9,-12976.6
2.36296e+07,136.352,1,2.42215,5810.93,16905.5,-6158.57
2.39049e+07,12.3373,2,3.0465,-1674.24,-1788.24,-29941.3
2.40817e+07,21.6726,2,2.92074,-1714.81,-4282.84,-28166.9
2.41869e+07,79.5417,2,2.72768,9374.74,7787.48,-20160.9
2.42694e+07,28.79,0,2.92524,5858.56,486.636,-27021.3
2.43217e+07,19.4734,0,2.99031,-2384.4,-1309.3,-25857.9
2.44059e+07,23.0001,2,2.88848,-2584.5,392.487,-24740.1
2.45998e+07,53.4431,0,2.38386,2131.03,-9271.49,-22694.5
2.46551e+07,86.5643,2,2.60516,3348.53,-15289.2,-19295.2
2.4733e+07,6.86816,1,3.05229,572.304,302.544,-27554.5
2.50561e+07,29.1435,2,2.4103,5879.35,-1281.02,-27515.3
2.51721e+07,35.0348,1,2.74356,-6887.96,2750.16,-28035
2.53508e+07,131.449,2,2.49127,17336,12129.3,-10923.3
2.55177e+07,14.5039,2,2.93613,2594.37,-1660.23,-28602.4
2.55255e+07,26.2468,2,2.84374,1444.88,3661.12,-25059.6
2.56326e+07,78.0921,0,2.733,4191.72,11056.5,-17341.7
2.59144e+07,86.8733,2,2.79991,6431.67,-12148.8,-16715.7
2.59196e+07,205.885,0,2.79116,27377.6,21656.5,-3081.99
2.6125e+07,60.0221,1,2.92348,-384.758,8032.65,-19090.9
2.64623e+07,49.5757,2,2.44238,-10036,353.904,-25667.3
2.65256e+07,230.747,0,2.96978,-4416.7,23043.9,13492.5
2.67464e+07,3.07202,2,2.75006,427.746,250.364,-28487.9
2.69295e+07,168.901,2,2.83191,-27218,1722.51,-6055.22
2.69665e+07,15.7763,2,2.75017,-3256.69,511.747,-28111.9
2.73085e+07,35.708,2,2.84155,-4499.9,-2311.5,-23198.6
2.75566e+07,87.3151,0,2.89666,15699.8,2143.79,-19428.2
2.75915e+07,49.2626,0,2.41727,8780.3,2981.06,-23888.2
2.76466e+07,36.2194,1,2.68371,-6898.27,1385.62,-25719.1
2.77943e+07,194.885,1,2.72068,598.047,-28.2465,-29730.4
2.81879e+07,193.254,1,2.56537,26892.3,-5673.96,1343.54
2.82211e+07,60.7935,0,2.67953,10266.7,-7309.28,-26055.7
2.84511e+07,122.105,2,2.4084,-471.283,-12326.8,-6106.67
2.85726e+07,65.2005,1,2.89277,-8306.5,-1712.92,-18066.4
2.87207e+07,12.4612,1,2.52727,1455.62,1023.19,-26889.7
2.90076e+07,101.648,2,2.82739,-12205.7,-13653.5,-17648.2
2.94726e+07,21.8595,2,2.53634,-303.436,-3134.95,-25353.8
2.94992e+07,141.758,2,2.67567,-23994.7,12202,-15795
2.95087e+07,25.2468,0,2.68566,4750.45,2639.64,-28818.3
2.96586e+07,7.29418,1,2.76524,-963.81,669.211,-27725.6
2.97933e+07,26.2824,1,2.97598,1298.41,4692.28,-26128.1
2.98807e+07,324.175,0,2.82259,17258.8,13427.6,11189.4
3.05136e+07,70.7972,1,2.4926,-7824.18,-5967.03,-17536.7
3.11614e+07,77.1037,1,2.75991,-10420.8,-9600.72,-21378
3.12047e+07,31.4668,2,2.65818,821.329,-6655.63,-28387.6
3.12079e+07,2.11376,1,2.41606,-234.64,18.7142,-28411.8
0,2.23607,1,2.45405,0,0,0
0,2.15531,1,2.94631,0,0,0
3.12167e+07,104.716,1,2.70076,-12067.8,691.84,-10317.9
3.15859e+07,133.147,1,2.53893,-11841.4,25626.4,-28004.5
3.17762e+07,25.3578,0,2.52317,2958.36,-1879.59,-24699.3
3.18294e+07,14.0214,2,2.82185,-1518.71,-768.481,-26368.9
3.18678e+07,37.1155,2,2.9405,5581.87,-5417.83,-29727.5
3.22318e+07,61.8597,0,2.92103,5005.14,2733.88,-21129.2
3.2433e+07,23.3809,2,2.84635,-824.041,-2950.73,-24930.3
3.24797e+07,82.566,0,2.36937,9870.99,-393.538,-14343.6
3.24812e+07,26.2679,0,2.87804,4355.4,-3221.91,-27343.8
3.26432e+07,88.8401,2,2.54761,1976.02,18566.2,-27399.1
3.29455e+07,26.4913,2,2.84527,1670.06,-5319.44,-27856.5
3.3147e+07,2.77519,0,2.46091,665.327,-205.107,-28899.2
0,2.85306,0,2.88745,0,0,0
3.31918e+07,178.689,2,2.40514,-19830.1,-25080,-8505.48
3.37468e+07,25.8723,1,2.62209,-197.456,4399.6,-25464.5
3.38873e+07,112.832,2,2.68548,9385.39,-17141.7,-15197.1
3.40651e+07,8.01048,1,2.95879,-1217.49,2.83054,-27655.6
3.41485e+07,29.0006,0,2.62678,246.672,-2895.79,-23436
3.44358e+07,53.4208,2,2.64089,-1425.39,-7751.37,-20675.2
3.45614e+07,142.052,1,2.74815,-23928.4,-677.977,-10811.6
3.48029e+07,13.9415,1,2.55864,-2116.82,-2032.62,-28709.3
3.56739e+07,135.321,1,2.64496,-27421.8,2341.4,-21046.4
3.57972e+07,31.7432,1,2.69715,-2429.7,4370.21,-24259.9
3.58227e+07,144.561,2,2.40888,-7565.77,-10948.9,-1367.94
3.59633e+07,44.2019,2,2.62907,-7635.71,3278.9,-24517
3.61945e+07,12.3082,1,2.67697,1758.68,-347.349,-26997.9
3.64238e+07,77.1394,1,2.66707,11999,7633.38,-20905.1
3.65738e+07,116.815,0,2.97369,10316.2,-21341.6,-22505.8
3.66956e+07,33.1694,2,2.89447,2582.16,-2551.54,-22868.8
3.67364e+07,50.2468,1,2.37218,-7497.73,7641.1,-28645.5
3.6855e+07,67.2624,0,2.92952,-1892.32,6162.37,-16277.4
3.73219e+07,28.3847,2,2.63466,-5591.09,-1600.11,-27162.2
3.74955e+07,141.283,1,2.85364,-35.3736,19590.2,-6465.94
3.75375e+07,231.498,0,2.56327,14904.9,25903,9858.49
3.78055e+07,24.9094,2,2.84186,-1911.59,-3285.56,-25136.8
3.7961e+07,109.6,0,2.83059,6334.76,-9920.39,-8979.6
3.79754e+07,47.1581,1,2.39785,-4819.84,-1125.56,-20134.3
3.8196e+07,25.9622,1,2.89097,2774.06,4745.28,-29419.7
3.82137e+07,5.70879,1,2.41897,-1187.35,532.79,-28870.4
3.82725e+07,217.338,1,2.69698,-23033.1,10839.5,2557.4
3.84283e+07,81.5996,1,2.73354,-8405.99,-4969.6,-14707.5
3.843e+07,82.5526,2,2.46404,1956.19,11127.6,-15558.7
3.84507e+07,27.6518,0,2.99896,-746.082,-4967.96,-25900.6
3.85003e+07,0.360663,1,3.28864,-142.496,29.636,-28869.3
0,0.558021,2,3.71705,0,0,0
0,0.38379,1,3.11313,0,0,0
0,0.331799,1,3.11445,0,0,0
3.85706e+07,30.6989,1,2.67647,-6357.96,-1461.16,-28670.9
3.87466e+07,21.0106,2,2.99707,2207.99,1214.91,-25273.3
3.9024e+07,36.2873,2,2.74816,-5217.38,2.58361,-23180.6
3.92837e+07,1.59785,1,2.4772,-274.458,245.246,-28620.9
4.05259e+07,219.535,1,2.63002,-21043.2,19954.1,-9904.9
4.06067e+07,65.3141,2,2.5912,4912.4,11524.9,-23229
4.07007e+07,1.03683,2,3.0319,8.96487,-157.779,-28626.8
4.07814e+07,31.3326,2,2.51589,109.824,4955.7,-24472.1
4.08163e+07,118.473,1,2.724,-17266.6,204.577,-10752.4
4.19423e+07,64.2219,1,2.8541,6150.79,12063.3,-28025.4
4.20104e+07,7.04304,1,2.754,-1134.73,-947.475,-28975.1
4.20365e+07,134.041,1,2.66068,-15723.1,-6108.07,-6111.43
4.2079e+07,4.79894,2,2.52531,496.624,-641.433,-28171.3
4.21328e+07,151.755,1,2.90191,-2359.04,-5283.12,-28096
4.22465e+07,95.1023,0,2.74364,-16141.8,11732.3,-28712
4.28848e+07,11.015,0,2.78153,1142.66,-335.093,-26784.9
4.29063e+07,88.3893,1,3.02399,7819.81,11297.3,-16404.2
4.29301e+07,45.1754,2,2.81043,-4918.77,-2213.91,-20941.5
4.29957e+07,19.7755,1,2.95421,399.647,-3697.23,-27131.8
4.30041e+07,127.949,1,2.81511,-17974.5,-15112.6,-15777.3
4.32194e+07,77.3712,1,2.60803,-8987.15,1829.13,-15265.7
4.33094e+07,91.4949,0,2.6561,-4773.14,6994.89,-21108.8
4.35532e+07,68.1396,0,2.52254,13658.4,3859.76,-25830
4.36393e+07,43.4917,1,2.75175,-1406,-7388.49,-23664.4
4.38372e+07,107.171,1,2.93604,-13083.6,7493.19,-16141.3
4.39239e+07,28.3726,0,3.01803,-3859.44,-3763.04,-26386.7
4.39984e+07,50.9737,2,2.42658,-9152.77,988.207,-23108
4.41897e+07,34.8776,1,2.80653,4437.54,5128.59,-25951.6
4.42178e+07,57.6104,1,2.92085,-7572.54,8657.09,-24796.3
4.4517e+07,19.9137,1,2.44263,-748.862,3664.68,-26703
4.46003e+07,13.3325,2,2.42533,1603,-2249.49,-28097
4.4982e+07,82.3126,2,2.95362,-9333.31,-9547.46,-17798.5
4.51041e+07,137.135,2,2.39166,-10798.4,12930.5,-5226.64
4.54029e+07,14.3552,1,2.53832,-2479.36,1764.05,-28224.1
4.55531e+07,25.837,2,2.58418,-72.9209,4925.44,-26561
4.57005e+07,53.2009,2,2.66059,1245.2,-9551.85,-27814.2
4.58852e+07,24.9517,2,2.87866,-58.0845,-2585.22,-24220.9
4.64346e+07,122.197,1,2.88743,3760.07,18822,-11704.3
4.64451e+07,39.0909,0,2.56656,4350.9,7108.73,-28568.6
4.68938e+07,126.299,2,2.87244,13743.9,-3261.05,-6367.39
4.69054e+07,7.29201,1,2.94555,541.803,-775.032,-27656.2
4.69412e+07,12.6747,1,2.89281,-956.861,-732.167,-26437.1
4.70078e+07,73.7358,2,2.88938,4533.85,-4202.17,-14602.1
4.71379e+07,33.489,2,2.92339,-763.774,-4801.33,-23679.2
4.71957e+07,98.0311,0,2.71985,9255.81,821.56,-10333.2
4.77536e+07,401.172,1,2.70847,19175.7,5006.08,-8275.22
4.77971e+07,31.5311,2,2.68642,689.431,-6699.18,-28681.3
4.78706e+07,89.0563,0,2.56517,5232.01,18012.2,-26820.4
4.86363e+07,12.2278,2,2.87502,243.764,-2229.23,-27441
4.88682e+07,3.14509,2,2.42471,470.723,72.7042,-28428.5
4.93278e+07,6.38304,0,2.60084,801.082,123.312,-27693.5
0,6.73373,2,3.01894,0,0,0
4.93357e+07,145.399,1,2.94108,-984.508,22051.7,-7693.07
4.93851e+07,91.6168,0,2.76686,-5079.97,12551.5,-15118.2
4.94865e+07,141.964,0,2.96849,-2958.42,-14293.7,-2926.32
5.04732e+07,9.66855,0,2.56754,-281.52,2019.29,-29208.4
0,9.7716,0,2.96323,0,0,0
5.04987e+07,56.5169,1,2.73242,6421.58,5852.39,-20657.8
5.08894e+07,26.0207,1,2.85167,-1348.25,4028.94,-25260.6
5.09842e+07,113.377,1,2.90068,19041.8,-3914.41,-15132.4
5.12328e+07,176.735,2,2.45239,6754.08,14495.9,-23307.8
5.17347e+07,148.101,2,2.48269,-5631.05,436.577,-19232.2
5.22145e+07,49.8573,2,2.56276,4299.29,-4826.95,-20473.2
5.24733e+07,265.929,0,2.57548,3450.59,-29074.4,18947.5
5.26555e+07,195.276,0,2.76893,13373.2,12422.9,8016.63
5.26985e+07,20.8703,0,2.53131,-834.72,2368.31,-25199.2
5.27095e+07,47.1252,0,2.62951,-348.986,6164.91,-21006.4
5.29648e+07,61.5956,0,2.39835,-1873.58,-10375.1,-21156.8
5.29652e+07,73.5007,1,3.00683,7133.47,13607.1,-27307.6
5.33205e+07,114.448,1,2.58011,-18157.9,3759.74,-13220.7
5.33749e+07,44.745,0,2.50152,6850.44,3712.28,-24254.4
5.46032e+07,123.988,1,2.50118,8918.44,15939.9,-9999.75
5.49628e+07,54.4362,1,2.83805,7829.03,7985.32,-26287
5.51388e+07,2.30913,2,2.5368,127.737,387.691,-28668.9
5.52958e+07,72.4067,1,2.68273,-8731.06,-1980.8,-17809.6
5.55211e+07,20.8457,0,2.63296,2315.36,-1081.33,-25170.1
5.55714e+07,237.207,0,2.75905,-3802.57,15187.3,10278.5
5.5818e+07,50.9438,1,2.60938,-3208.79,5913.14,-20359.5
5.60613e+07,33.9646,2,2.93398,1470.97,-5382.56,-24306.2
5.62274e+07,92.3661,2,2.58197,-6271.34,-7423.03,-16770.3
5.62396e+07,3.38401,1,2.47836,142.306,772.907,-28626.9
5.62885e+07,71.6227,1,2.69103,5893.16,-2406.91,-15150.1
5.63731e+07,1.25666,2,2.79355,161.773,-286.047,-28907.5
0,1.22303,2,2.40253,0,0,0
5.63961e+07,48.2226,0,2.73679,-7644.16,-409.163,-22220.5
5.66196e+07,75.2106,2,2.61736,-15481.1,-3742.43,-27798.8
5.6799e+07,117.113,1,2.46189,-22881.8,-2621.65,-23071.5
5.69795e+07,160.804,0,2.38217,17742,20131.8,-7830.77
5.73046e+07,110.891,0,2.80965,-16357.7,4650.48,-12934.2
5.73592e+07,78.6352,2,2.79811,-8724.31,59.8837,-14727.3
5.74459e+07,181.412,1,2.59851,-20207,-2175.51,3663.39
5.7453e+07,5.86542,0,2.57793,829.24,-509.111,-27955
5.77269e+07,66.6095,2,2.85866,-13815.1,-2464.74,-27759.9
5.79039e+07,5.85039,0,2.88797,221.152,-821.567,-27886.9
0,5.84293,0,2.78617,0,0,0
5.82868e+07,122.772,2,2.96718,-5350.15,-10455.7,-5866.77
5.84177e+07,102.125,1,2.67362,-8206.18,-9079.85,-11132.1
5.84816e+07,43.7767,1,2.76334,7158.5,-5395.68,-26873.3
5.8962e+07,107.803,1,2.50019,-10572.9,-3253.28,-22901.1
5.90583e+07,60.4447,0,2.85093,8785.69,7733.07,-23670.8
5.923e+07,3.93559,1,2.84785,458.824,-555.435,-28597.4
5.92331e+07,18.8144,1,2.39819,2850.91,1500.05,-26462.1
5.92966e+07,2.35542,2,2.79759,-268.717,-434.41,-28543.5
5.95276e+07,65.7244,2,2.91676,11582.6,3838.4,-22483
5.96401e+07,135.941,1,2.86867,-18319.6,20344,-20458.7
5.97216e+07,109.474,1,2.61465,-10487.8,15266.1,-14866.5
5.97749e+07,16.831,0,2.48136,2021.43,-2791.9,-29958.8
5.98096e+07,18.7675,1,2.91413,179.197,3117.54,-26330.9
5.98248e+07,60.3475,2,2.91349,-8027.37,-2531.44,-19281.9
5.99672e+07,61.7036,1,2.51188,6391.08,-8020.54,-28295.1
6.0011e+07,68.9489,2,2.63542,583.498,-4249.64,-26789.6
6.0151e+07,43.5075,1,2.38678,7163.52,3173.67,-23975.7
6.02178e+07,131.904,2,2.91113,10408.7,-22707.7,-18176.4
6.03887e+07,1.98447,0,2.88369,167.751,-44.8026,-28405.9
6.05229e+07,147.177,1,2.44441,-16012.8,3628.66,-2345.08
6.06029e+07,13.2163,1,2.78203,-2647.35,763.706,-29689.6
6.06509e+07,45.6458,0,2.54711,1203.04,-7983.88,-23486.6
6.08416e+07,175.369,2,2.39895,25352.3,-27150,-28189.6
6.10035e+07,217.42,0,2.85572,23016.8,23152.5,-1833.06
6.13155e+07,57.7119,0,2.53331,983.454,-12149.6,-27876.1
6.16891e+07,76.7829,1,2.74725,-3046.35,9013.69,-16425.5
6.2247e+07,25.6222,1,2.47752,-70.7114,5153.27,-26901.5
6.26957e+07,20.751,0,2.83848,1656.94,-3889.91,-27584.5
6.28062e+07,164.143,2,2.789,2552.74,4901.87,-3121.4
6.32589e+07,24.29,1,2.4449,2515.01,2374.93,-24998.3
6.33981e+07,138.766,0,2.78508,-11619.9,11549.5,-4688.21
6.36565e+07,41.0069,0,2.51574,8192.98,373.738,-25719.3
6.40744e+07,128.655,0,2.50879,16205.4,742.585,-6935.53
6.41528e+07,202.302,0,2.75667,1808.49,-1294.28,-21835.1
6.41872e+07,50.1679,0,2.61724,4875.26,4247.18,-20410.8
6.44062e+07,45.9894,1,2.68145,-1224.48,3661.95,-19881.6
6.46144e+07,71.4728,2,2.7736,-9989.99,-1735.89,-17660.1
6.48206e+07,55.9516,0,2.92516,8144.14,-8395.36,-27045.2
6.49254e+07,52.1626,2,2.57742,-7951,775.57,-21189.9
6.50594e+07,108.036,1,2.68259,-16090.1,8298.24,-14893
6.54537e+07,215.718,0,2.95638,8468.78,27079,6436.92
6.56758e+07,18.3816,1,2.70232,-1066.74,3717.42,-27922.6
6.57097e+07,16.1874,2,2.66254,-2824.17,1945.12,-28944.8
6.58124e+07,31.746,1,2.76397,-1715.74,6471.53,-27734.1
6.59877e+07,90.954,1,2.84523,2112.57,19017.3,-27576
6.60466e+07,101.031,1,2.37284,-10268.4,4659.98,-10628.7
6.65338e+07,24.9622,2,2.82202,-2631.56,-1452.82,-24466.9
6.66802e+07,7.74581,0,2.53359,1702.6,-131.17,-29277.2
6.68555e+07,52.4301,1,3.03952,196.901,10329.7,-24881.2
0,52.2982,0,2.70185,0,0,0
6.72867e+07,98.6895,0,2.45982,18531.8,5110.73,-20498.1
6.73122e+07,157.942,1,2.78827,24471.5,11768.5,-9663.88
6.75683e+07,69.0607,0,2.6052,-4265.7,13953.2,-28904.7
6.8013e+07,11.4558,1,2.87359,1886.52,908.73,-27643.1
6.81912e+07,142.893,2,2.98538,-937.473,-27180.2,-16128.1
6.84563e+07,6.38684,0,3.00666,-167.462,482.789,-27596.9
6.86334e+07,173.759,1,2.69534,-28737.2,18996.6,-16158.4
6.86942e+07,10.0569,1,2.60688,-1565,1582.34,-28677
6.88023e+07,26.5328,1,2.87698,1275.85,3663.58,-24748.2
6.90812e+07,156.683,2,2.37553,-12884.2,19987.2,-5739.1
6.93772e+07,43.0329,0,2.6758,6590.19,-1698.16,-22759.6
6.93932e+07,53.4239,2,2.69088,-5405.05,-9907.64,-29806.5
6.93981e+07,28.0083,1,2.9351,-2907.3,2726.35,-24415.6
6.94844e+07,82.8059,0,2.91733,5568.51,3398.18,-12695.7
6.95722e+07,106.747,1,2.54389,1769.78,4225.11,-24115.8
6.99359e+07,40.6173,2,2.49217,-2005.52,4894.75,-22075.6
7.02209e+07,50.9862,2,2.77847,912.74,-8172.38,-21859.3
7.02323e+07,1.78074,0,2.44558,178.611,-301.726,-28578.9
7.02643e+07,24.4521,2,2.70105,4842.06,-515.977,-27164.6
7.05003e+07,18.19,1,2.81028,-2823.87,2741.75,-28550
7.05222e+07,46.4038,1,2.405,8928.93,-235.817,-24805.5
7.05388e+07,168.658,0,2.58298,3957.99,-18891.1,-9638.89
7.055e+07,97.1284,1,2.62305,-13922.6,12069.4,-20081.4
7.10365e+07,8.16313,2,2.44441,-139.765,-1811.35,-28996
7.1637e+07,88.2562,2,2.63778,17900.9,1389.11,-23966.9
7.21389e+07,116.59,1,2.84827,9342.37,7557.99,-7471.97
7.33553e+07,117.55,2,2.88831,-24752.6,-306.453,-29169.1
7.33721e+07,4.16856,1,2.90967,257.828,738.582,-28335.5
7.33823e+07,129.198,2,3.02319,8450.28,-20179.9,-12812.3
7.35457e+07,155.395,1,2.81101,13432.6,-22386.7,-9264.86
7.36785e+07,31.9539,0,3.06148,-1145.58,4955.68,-24985
7.37115e+07,48.2299,2,2.85152,7724.5,-1789.5,-22512
7.39205e+07,89.3803,2,2.71004,-15101.2,8410.89,-21294.2
7.43201e+07,60.3673,0,3.00545,2150.33,10958.8,-22808.3
7.45264e+07,68.3138,2,3.01795,-13129.9,-1076.94,-23119.8
7.47933e+07,6.48253,2,3.0368,-1083.29,529.398,-28143.7
7.52644e+07,0.951514,2,2.58388,-195.59,-91.1316,-28683.7
0,1.02608,2,2.61282,0,0,0
0,1.40061,0,2.87523,0,0,0
0,0.918843,2,2.54003,0,0,0
7.5591e+07,24.1475,0,2.88555,2572.16,-3267.41,-25826.7
7.57127e+07,105.951,0,3.03458,-13411.8,-15949.7,-21390.9
7.57586e+07,19.4878,0,2.8822,-2227.28,3242.89,-27776.7
7.60406e+07,131.333,0,2.48566,6376.83,-14169,-5787.46
7.60701e+07,13.5528,2,3.02113,-813.459,-1458.93,-26476.5
7.61867e+07,33.2034,2,2.58945,-6684.52,-2305.38,-29215.2
7.6412e+07,198.49,1,2.95906,-21220.8,15766.1,3275.49
7.65203e+07,104.412,0,2.94129,-11931.5,3210.56,-10820.8
7.69695e+07,50.3941,1,2.37112,-6747.24,2968.11,-21037.7
7.70131e+07,43.8997,1,2.77033,-9162.89,-1239.61,-28088.3
7.70755e+07,7.44583,0,2.98466,-591.94,30.8505,-27419.7
7.72061e+07,87.0506,2,2.52129,-9454.28,-11933.9,-25354.4
7.75354e+07,8.83517,2,2.94425,-1333.64,-1216.94,-29626.3
7.84533e+07,46.0317,0,2.46582,479.916,6876.01,-21965.5
7.84609e+07,65.8828,2,2.82233,12420.8,-2098.83,-23677.5
7.86351e+07,153.792,1,3.03299,13314,23541.6,-11286.2
7.89833e+07,5.36464,0,2.58542,638.338,1001.92,-28741.7
7.90227e+07,118.999,2,2.38017,13404.6,-13297.4,-12164.6
7.91341e+07,54.0163,1,2.96224,-6853.32,8141.47,-24658.9
7.91641e+07,23.526,0,2.46058,1030.78,-4509.01,-26963.7
7.91944e+07,139.022,2,2.80906,-847.408,-12427.3,-19855.7
7.94555e+07,65.5294,2,2.71682,-13270.5,-3378.3,-26462.1
7.98894e+07,107.54,0,2.53015,12522.1,-3867.32,-10184.6
7.99039e+07,57.492,0,2.72782,-7141.89,-245.894,-19086.3
8.0145e+07,8.12186,0,2.61452,1682.33,645.889,-28626.1
8.0298e+07,44.9671,0,2.48372,2698.46,-7984.35,-24308.2
8.05342e+07,1.97306,1,2.94483,-107.325,503.46,-28978.3
8.05508e+07,121.131,2,2.55087,-22278,3369.71,-16579.3
8.06172e+07,85.1987,1,2.55096,-10468,7455.77,-16151.2
8.06379e+07,0.0295618,1,4.09681,-52.9644,116.972,-28858.2
0,0.0284583,1,2.72499,0,0,0
8.11394e+07,61.6362,1,2.96273,6315.53,6981.41,-19922.8
8.12528e+07,145.398,1,2.51756,-1581.41,19477.3,-5047.34
8.16919e+07,18.8892,2,2.50637,-2955.93,-2150.98,-27021.9
8.20305e+07,80.7677,2,2.45099,-7194.12,1199.15,-13392.6
8.23244e+07,59.5677,0,2.49781,8463.42,-3504.9,-20076.5
8.23315e+07,21.7667,1,2.92959,-2992.61,3322.02,-27454
8.23484e+07,45.2865,2,2.68827,-5338.08,992.073,-20939.9
8.24822e+07,23.4613,1,2.71155,-2202.99,4557.86,-28750.1
8.28666e+07,131.291,1,2.79248,-13020.6,12388.4,-29220.1
8.31323e+07,156.699,1,2.46148,-7586.74,17695.8,-1807.15
8.35374e+07,77.2871,0,2.88925,1735.24,-16174.2,-28541.8
8.37894e+07,127.347,1,3.05687,-11527.9,21138.4,-17160.3
8.45647e+07,176.473,1,3.01051,-5761.38,25284.3,-2391.48
8.46691e+07,95.2575,1,2.6864,2443.58,17923.5,-20003.3
8.48778e+07,53.295,0,2.42726,-4569.8,-7757.21,-22131.4
8.48873e+07,1.56424,1,2.49278,95.4914,2.26784,-28539.5
8.50092e+07,2.44728,2,2.47895,80.9603,226.234,-28426.2
8.5452e+07,132.767,2,2.58027,-22184,-10797.9,-15372
8.55318e+07,94.7609,1,2.88281,4967.73,14279.6,-15813.2
8.55333e+07,33.9774,0,2.3684,1194.51,-2864.81,-22319.1
8.55536e+07,84.8848,2,2.39141,-10394.9,14554.1,-27574.8
8.57524e+07,11.1449,1,2.9236,1444.55,1678.13,-27976.7
8.64004e+07,108.108,1,2.73454,22503.1,3091.73,-27363.5
8.65641e+07,93.3206,1,2.60253,-18609,-6487.5,-28318.5
8.69362e+07,28.4014,1,2.7327,1617.73,2096.58,-23446.6
8.73224e+07,35.1532,2,2.46494,-7133.04,1971.13,-27784.6
8.75945e+07,127.643,1,2.86692,151.893,4831.72,-18721.8
8.78009e+07,8.0887,0,2.4057,949.558,1203.67,-27953.5
8.91031e+07,187.745,0,2.50512,-24034.7,7072.64,1858.06
8.93612e+07,51.942,0,2.82238,2744.39,-10134.2,-25700.9
8.97293e+07,119.518,0,2.90349,6117.36,-10533.1,-6851.65
8.98018e+07,44.2915,0,2.81343,1109.28,8455.52,-25003.8
8.98682e+07,54.4471,2,2.51797,1038.28,-6887.49,-19601.9
9.03991e+07,60.3212,1,2.49074,-10886.5,1522.69,-22312.2
9.04758e+07,58.6071,1,2.73057,3550.43,11900.8,-29060.2
9.07199e+07,10.1153,1,2.87855,-1635.02,1236.96,-29749.1
9.11454e+07,15.645,1,2.87043,327.726,3339.94,-28378.9
9.12736e+07,274.919,0,2.86803,-10468.6,26954,-16923.8
9.13441e+07,16.623,2,2.88464,-1966.94,-2677.36,-27498.6
9.16242e+07,104.596,2,2.40511,12668.1,-5686.39,-11609.8
9.18852e+07,118.392,2,2.48606,-20810.2,-12282.4,-21984.7
9.19283e+07,40.9388,2,2.61449,5685.56,306.273,-22338.7
9.238e+07,58.3775,0,2.97228,8921.99,-727.279,-20364.5
9.25874e+07,84.0195,1,2.95069,-5510.58,6856.39,-13516.8
9.27158e+07,42.8413,0,2.59299,4223.21,-3801.16,-21725.2
9.27486e+07,55.1868,1,2.47915,-8232.71,-6900.08,-24218.9
9.28472e+07,105.736,0,2.62689,-5841.08,12574.7,-11345.7
9.29345e+07,89.6875,2,2.65997,-8009.08,-9920.77,-14782.9
9.30106e+07,123.353,0,2.70477,11151.8,-15400.6,-23787.6
9.3163e+07,21.1209,0,2.73897,1511.5,2262.75,-25410.9
9.32533e+07,45.8434,1,2.70211,-3719.37,628.036,-19903.3
9.34674e+07,39.7794,1,2.51053,1338.45,5534.88,-22572.2
9.37019e+07,15.749,1,2.38773,-2791.67,1835.57,-29595.3
9.4057e+07,6.47803,0,3.01846,995.997,667.912,-28037.6
9.48787e+07,58.4164,1,2.85663,-6869.5,-3172.74,-19146.2
9.51313e+07,86.8269,1,2.95416,73.8809,18311.8,-28985.2
9.53964e+07,290.829,2,2.63945,9402.67,-16916.9,-2771.47
9.54112e+07,59.328,1,2.60715,9730.75,7934.82,-28454.3
9.54793e+07,98.856,1,2.73999,-1696.46,18345.4,-20024.3
9.5964e+07,127.015,0,2.78904,-15783.6,4280.91,-7763.56
9.61799e+07,26.7591,0,2.71116,5067.04,2620.81,-28282.7
9.66692e+07,26.6292,1,3.01461,-3562.62,763.459,-24533.3
9.67731e+07,21.2935,2,2.88587,336.233,1561.18,-29929.1
9.71487e+07,69.1989,2,2.40967,-8150.37,5174.1,-17812.9
9.73819e+07,19.9036,0,2.38348,-3576.48,1297.51,-27122.7
9.75986e+07,28.6578,0,2.50189,3621.85,-258.314,-23902.8
9.79268e+07,30.4718,2,2.66801,5369.15,-851.114,-25393.1
9.82777e+07,123.182,1,2.58148,8381.53,-24116.6,-24148.5
9.8492e+07,4.41863,0,2.78497,746.883,-641.014,-28548.9
9.89374e+07,23.724,0,2.96575,-1059.18,2641.14,-24733.1
9.90484e+07,121.574,0,2.91569,-486.191,-10536.2,-12972.8
9.91133e+07,37.8727,0,2.86932,-309.944,-6304.1,-23947.8
9.91419e+07,11.7948,0,2.41844,-785.253,2356.43,-29007
9.91655e+07,62.0994,0,2.84328,-1380.86,-6733.7,-17727.5
9.92469e+07,91.2622,2,2.87985,16376,-7744.38,-24821.1
9.92826e+07,82.8103,1,2.78071,-14770.6,-6232.05,-21944.3
9.94347e+07,39.521,2,3.01553,-5251.09,6196.31,-27199.7
9.9662e+07,73.6858,1,2.76972,7307.81,13644.5,-27278.9
9.9809e+07,10.6737,1,2.91333,1081.05,-1334.44,-27450.1
9.98771e+07,141.236,2,2.90247,8935.53,-19659.3,-8430.2
9.99364e+07,102.545,1,2.4776,2262.85,17400.2,-16012
9.99497e+07,64.2277,1,2.85512,-4759.98,7923.66,-18900.3
1.00037e+08,11.3759,0,2.402,1590.97,1893.01,-28503.9
1.0021e+08,6.20938,1,2.84231,-500.162,-773.943,-27903.8
1.00282e+08,41.4529,2,2.96043,5982.4,-4006.26,-23958.2
1.00301e+08,44.9768,2,2.50675,-1214.73,-7421.03,-22879.2
1.00473e+08,66.0853,0,2.37138,-4669.2,-3877.8,-16251.8
1.00596e+08,116.763,2,2.53853,21694.7,-654.162,-17168
1.00627e+08,24.8121,1,2.94846,-2602.32,4277.97,-27081.5
1.00658e+08,40.9711,1,2.48655,-809.608,-6761.11,-23546.4
1.00712e+08,46.0704,0,2.93802,-5851.51,59.228,-21186.8
1.01087e+08,237.763,2,2.89627,-17725.1,-25707.4,10145.7
1.01407e+08,80.9772,0,2.62956,-7276.38,706.171,-28916.9
1.01689e+08,138.28,0,2.54936,8736.99,1525.78,-8008.45
1.01912e+08,147.215,1,2.69204,-15723,26871.7,-28194.3
1.01934e+08,70.3747,0,2.95631,6833.52,5431.36,-16881.9
1.02255e+08,115.874,2,2.84464,-8711.55,7526.93,-7381.62
1.02311e+08,54.5899,2,3.05539,-7731.37,431,-20389
1.0282e+08,48.4356,0,2.88198,-4406.32,-6716.66,-22629.7
1.03403e+08,40.5328,2,2.87368,-3439.58,-1933.74,-21242.4
1.03444e+08,35.4094,1,2.93327,1585.78,3221.05,-22279.1
1.03496e+08,103.564,0,2.42006,4235.48,-21332.2,-26399.5
1.03622e+08,37.9052,2,2.66112,3202.89,-7401.18,-29433.9
1.03795e+08,65.4074,2,2.90869,-155.842,-8929.11,-18353.8
1.03837e+08,2.39784,0,2.59926,123.667,261.049,-28369.1
1.03956e+08,113.054,2,2.99464,18614.8,-14721.3,-29150.7
1.04395e+08,26.5512,0,2.48222,5687.39,307.355,-28390.5
1.0449e+08,44.6966,0,2.9117,1725.03,-8348.64,-24817.1
1.0467e+08,69.8306,1,2.91144,-9845.43,138.212,-17948.7
1.05029e+08,86.5358,1,3.04201,-13677.5,-1293.21,-16937.8
1.05698e+08,45.2804,1,2.94815,1227.97,-8949.99,-26121.6
1.05791e+08,185.125,0,2.70987,28746.7,4034.29,-2699.54
1.0594e+08,166.188,0,2.46871,29846.4,12036,-14533.8
1.06039e+08,2.38986,0,2.65513,197.524,-413.062,-28548.7
1.06462e+08,16.9127,1,2.65784,1789.64,3022.09,-28018.8
1.06681e+08,27.4276,0,2.53068,-2958.03,3576.93,-25387.5
1.0684e+08,19.5086,0,2.62267,3971.28,697.918,-27556.8
1.06878e+08,203.116,1,2.65287,-13237.3,19559.6,6964.29
1.07318e+08,14.327,1,2.5321,-86.2444,-1986.88,-26621.7
1.0742e+08,22.3796,0,2.55245,4370.73,-76.3662,-26779.3
1.07815e+08,33.6674,1,2.92232,1764.9,6927.69,-28443.2
1.07907e+08,170.109,2,3.03854,17909.4,-14228.6,-1485.08
1.08025e+08,88.1522,1,2.42349,1639.68,16887,-20898.3
1.08073e+08,47.4814,1,2.92756,-2738.17,9680.83,-29331.6
1.08097e+08,5.21385,1,2.37293,-534.598,613.398,-27987.4
1.08243e+08,36.5786,2,2.62243,2634.3,-2505.51,-22005.4
1.08306e+08,17.2937,0,2.41943,3280.32,-1859.45,-28858.8
1.08422e+08,2.17822,0,3.02702,367.395,207.412,-28513.4
1.08474e+08,187.125,2,2.7449,-14586.3,-19505.6,-6450.42
1.08593e+08,88.5852,2,2.91634,-11226,-11994.1,-19947.3
1.08938e+08,49.4873,1,2.52747,-9985.99,-3283.44,-29049.4
1.09073e+08,27.766,2,2.61756,2885.69,-4254.52,-25906.9
1.09215e+08,39.6496,2,2.8344,2267.16,-8095.31,-29401.7
1.0924e+08,24.9868,2,2.88335,4522.09,2512.68,-28334.1
1.09332e+08,23.7759,2,2.83445,3084.41,-2954.5,-26200.5
1.09379e+08,23.9208,0,2.56873,-1340.62,-4669.86,-27447.4
1.09591e+08,31.6934,0,2.49186,286.352,3342.94,-22997.9
1.09729e+08,228.107,2,2.72148,20440.7,-1802.65,14622.7
1.10132e+08,114.518,0,2.85039,14170.7,-2213.44,-9431.18
1.10287e+08,44.2347,2,2.81564,-2245.55,-8158.83,-24732.1
1.10306e+08,97.2448,1,2.82979,3698.09,15984.1,-16528.5
1.1033e+08,31.831,2,3.03147,-222.797,5927.53,-25849.7
1.10364e+08,57.8755,0,2.82274,-3928.74,-4627.85,-18304
1.10385e+08,152.971,1,2.44319,15331.6,25058.2,-15287.1
1.10474e+08,107.13,2,2.43297,-13481.6,-11301.6,-14436.3
1.10596e+08,1.98856,2,2.61311,-392.958,-174.235,-28599.5
1.1076e+08,139.778,0,2.91214,-5054.74,16694.8,-5227.87
1.11126e+08,59.3875,1,2.5868,-1802.32,-1058.06,-29510.2
1.1137e+08,133.453,0,2.75772,22974.6,-4277.49,-13863.1
1.11587e+08,271.204,2,2.7666,26293.9,-17490,18602.5
1.1182e+08,30.0973,2,2.38968,-2860.72,1547.3,-23334.5
1.11977e+08,1.39877,2,2.81881,95.0073,-99.409,-28565.8
1.12169e+08,172.774,2,2.56861,-22965.8,-23794.3,-13202
1.12279e+08,205.043,1,2.46524,27417.8,6840,4058.52
1.12418e+08,94.5201,0,2.79578,9397.86,-2973.53,-11521.9
1.12602e+08,61.4491,2,2.75532,9401.75,-5748.49,-22042.5
1.12748e+08,8.71835,0,2.3752,-1334.16,-936.95,-28021.3
1.13134e+08,100.318,1,2.87154,-15503.9,13096.3,-22803
1.13249e+08,58.3951,1,2.90733,4608.79,-8913.62,-21908.3
1.13374e+08,283.341,1,2.68746,24356.5,11665.4,24431.4
1.13901e+08,9.41758,2,2.8893,1386.08,-1434.78,-29120.4
1.14097e+08,20.9733,2,2.48122,-2417.39,2792.84,-26373.3
1.14458e+08,203.781,2,2.42803,-22223.3,-4757.07,3439.66
1.14992e+08,137.226,2,2.99879,-7154.92,-15464.6,-17631.5
1.1514e+08,79.3493,2,2.98124,-4887.73,-4871.64,-13639.6
1.15252e+08,98.1843,1,2.73802,-3516.85,19361.2,-22173.5
1.15323e+08,77.3627,1,2.51717,6371.78,13847.7,-22750.3
1.16113e+08,109.81,1,2.75881,-512.066,208.465,-29411
1.16405e+08,23.5531,2,2.9349,4723.59,-1513.19,-28832.9
1.16457e+08,35.5767,2,2.63607,-291.974,3856.96,-22431.7
1.16499e+08,81.6879,1,2.83649,-7034.61,3944.65,-13616.1
1.16906e+08,85.6122,1,2.56201,17724.4,-2079.97,-26001
1.17084e+08,5.91312,1,2.602,572.627,1029.08,-28271.9
1.17443e+08,169.833,0,3.01809,20369.6,-21140.7,-11429.7
1.17486e+08,41.2566,0,2.77898,3443.26,4058.57,-21927.1
1.17991e+08,87.9157,0,2.7682,13397.6,7514.86,-18382.8
1.18516e+08,1.74598,2,2.84499,-244.641,117.412,-28542.6
1.18773e+08,9.40665,1,2.87102,307.577,1720.22,-27774.3
1.18976e+08,104.174,2,2.89688,-1724.32,14567.5,-13012.1
1.19039e+08,32.5971,0,2.60237,-2320.35,4334.45,-24044
1.19148e+08,62.959,0,2.7063,7679.54,-348.281,-17952.4
1.19504e+08,7.67923,0,2.375,1142.78,1165.6,-28415.9
1.19504e+08,80.505,1,3.00107,8835.15,9903.09,-18383.9
1.20156e+08,49.2059,1,2.82772,4532.72,3757.96,-20284.7
1.20486e+08,135.383,2,2.82354,3595.05,-28329.5,-29538.6
1.20744e+08,87.8728,2,2.54417,9549.69,4244.7,-13503.1
1.20965e+08,43.8316,2,2.93463,8711.8,-397.743,-25937.2
1.21365e+08,15.1102,0,3.0509,2853.15,-1610.24,-28921.2
1.21615e+08,57.3489,1,2.6686,5087.4,5131.72,-19118.4
1.21806e+08,167.788,2,2.73506,24200.7,4281.85,-5049.84
1.2197e+08,55.004,0,2.4466,-673.971,11012.3,-25053.3
1.22495e+08,57.3426,0,3.01135,8479.93,8406.21,-26804.4
1.2278e+08,70.0229,2,2.61099,-8791.96,-3134.35,-17289.9
1.22889e+08,15.8319,2,2.67256,2497.96,-2013.03,-29931.1
1.23088e+08,11.391,2,2.55076,-422.988,1554.45,-27059.5
1.23094e+08,130.306,1,2.66093,25828.7,-4288.53,-20641
1.23293e+08,41.8042,2,2.50138,-3714.02,-2711.41,-25749.3
1.23415e+08,153.477,0,2.56115,-3119.46,-5381.23,-17824.5
1.23445e+08,23.8338,2,3.05649,3249.96,-3123.29,-26637.8
1.23455e+08,161.238,2,2.89431,28999.7,-12852.4,-16978.5
1.24132e+08,116.939,1,2.88691,-10230.2,18164.2,-15703.8
1.24426e+08,24.4897,0,2.38605,2100.53,1299.67,-24217.9
1.24464e+08,61.5921,1,2.91723,-3042.27,10068.4,-21173.3
1.24669e+08,30.6746,1,2.81055,2035.79,4209.55,-24328.3
1.24864e+08,58.618,2,2.81993,7419.35,-5662.66,-20769.4
1.24883e+08,38.1078,0,2.55065,3336.27,-2033.46,-21762.5
1.2489e+08,140.022,0,2.75022,23783.8,17320.9,-25834.1
1.24943e+08,47.1711,0,2.71732,-3064.19,7974.74,-23755.7
1.2518e+08,94.8825,1,2.91606,-3029.02,11987.4,-17182.9
1.25256e+08,127.558,2,2.84044,8533.52,-16963.5,-9836.4
1.25403e+08,106.582,1,2.89114,14708.1,16226.5,-24073.2
1.25415e+08,34.0159,2,2.53009,3629.89,-2612.09,-23194.9
1.25741e+08,232.915,0,2.58627,-5985.39,1613.37,-23009.2
1.25996e+08,91.7967,2,2.74651,3897.49,-18607.8,-24916.1
1.26212e+08,29.7958,0,2.71052,-1032.16,-2528.07,-23164.1
1.26519e+08,187.893,2,3.05648,-16192.3,20795.4,353.222
1.26544e+08,127.026,1,2.55427,-1701.56,25771.6,-21178.9
1.26589e+08,19.6714,1,2.85607,1655.74,-531.93,-25084.4
1.27135e+08,24.7668,0,2.4535,488.537,2171.8,-24064.8
1.27266e+08,22.1013,2,2.74816,-876.576,2750.02,-25202.1
1.2727e+08,25.9056,0,2.72019,149.231,2303.43,-23892.1
1.277e+08,13.3783,0,2.75335,-594.466,2777.92,-28805
1.28042e+08,55.8395,1,2.65032,-6511.75,336.829,-18965.4
1.2816e+08,13.9531,2,2.8807,-509.598,-2929.22,-28182.6
0,13.8849,2,2.38839,0,0,0
1.28392e+08,41.5033,2,2.95902,-4241.99,7566.52,-29373.6
1.28443e+08,75.6068,1,2.85504,3568.86,7117.34,-15064.3
1.28472e+08,265.732,0,2.47641,-19116.2,17873.6,20867
1.29e+08,18.3329,0,2.83766,-2231.33,-1068.06,-25935.5
1.29072e+08,2.84502,2,2.43449,-339.569,-448.963,-28469.6
1.29101e+08,282.97,0,2.46324,13259.5,21819.4,25292.9
1.29317e+08,3.19786,1,2.82772,174.09,157.748,-28197.9
0,3.30761,1,3.04561,0,0,0
1.29322e+08,91.1772,1,2.86311,-330.359,346.642,-29173.4
1.29487e+08,45.8277,0,2.56397,1553.56,7913.54,-23410.3
1.29566e+08,44.683,2,2.96344,-7311.73,1066.22,-22993.6
1.29642e+08,71.4635,1,2.84064,-11587.4,7924.52,-23213.4
1.29849e+08,131.549,2,2.89338,17600.8,-12573.3,-11634.7
1.30188e+08,47.8516,1,2.68675,-4236.69,-9104.76,-28059.1
1.30522e+08,43.1154,1,2.75964,4843.66,2739.36,-21636.5
1.3058e+08,40.2365,2,2.58404,-1348.04,-3605.01,-21216.3
1.30661e+08,86.4115,1,2.71573,3633.9,10142.4,-14122.7
1.30796e+08,64.3743,2,2.76011,-12525.6,5183.91,-27831.1
1.31066e+08,0.745253,1,2.46177,-107.03,-45.3212,-28737
0,0.741654,1,2.37553,0,0,0
1.31528e+08,35.748,1,2.42149,-5223.78,-2823.12,-24109.8
1.32261e+08,22.2236,2,2.76878,-594.536,2967.76,-25292.8
1.32277e+08,86.3794,2,2.44872,-5779.43,-8823.76,-13863.2
1.3231e+08,110.348,2,2.56458,-21950.2,7959.18,-27854.2
1.32814e+08,75.8671,1,2.3864,-15223.7,-4776.99,-26625.2
1.32891e+08,50.0077,1,2.99666,-5077.27,9253.57,-28340.4
1.33129e+08,157.848,2,2.87606,22115.7,-23194.5,-20177.9
1.33347e+08,28.0663,1,2.4682,-630.162,5171.84,-25845.3
1.33543e+08,125.682,0,2.89012,-15943.3,-4382.47,-8297.39
1.33723e+08,24.948,2,2.73998,-1157.59,3332.84,-24988.6
1.33751e+08,118.854,1,2.69691,-24051.1,372.665,-21622.2
1.34123e+08,25.7647,1,2.6132,-4000.63,1184.07,-25232.6
1.34186e+08,7.44887,0,2.85561,911.479,-1305.32,-28476.4
1.34262e+08,23.9804,1,2.38731,-2422.3,1774.33,-24664.9
1.34442e+08,9.32061,0,2.52134,1264.92,-800.179,-27440.6
1.34895e+08,24.1143,2,2.76112,1815.84,-3824.04,-25916.9
1.34992e+08,61.6142,2,2.60072,836.736,-12993.6,-27301.6
1.35554e+08,64.6402,2,2.63794,-9633.44,4184.26,-20112.2
1.35589e+08,163.697,2,2.47839,16150.6,534.711,-27111.2
1.35734e+08,44.2685,1,2.48325,627.402,8369.23,-24511.2
1.35815e+08,2.64515,2,2.45631,111.153,347.584,-28437.3
1.3595e+08,25.5944,0,2.81555,3723.05,839.823,-24958.1
1.36151e+08,19.4911,0,2.80924,-2509.95,-185.509,-25643.1
1.36178e+08,12.2143,2,2.52991,768.991,-777.158,-26476.5
1.3627e+08,108.638,2,3.01207,6397.54,-16863.2,-14885.8
1.36372e+08,12.554,1,3.01483,-2455.45,-364.49,-27899.5
0,12.2375,1,2.47917,0,0,0
1.36569e+08,53.996,0,2.80357,-9981.65,552.995,-23531.1
0,54.309,0,2.80357,0,0,0
1.3664e+08,66.5879,2,2.53493,-13482,-4041.38,-27394.4
1.36815e+08,192.177,0,3.0471,29974.5,24749,-18151.2
1.37713e+08,190.295,0,2.93496,16883.7,-23833.1,-1536.21
1.37831e+08,155.637,0,2.61106,14942.2,11899.8,-2059.96
1.37998e+08,29.2624,2,3.04203,-4621.09,-2150.12,-25294.4
1.38554e+08,158.733,1,2.36347,-6512.23,9059.57,2164.08
1.38789e+08,62.0307,0,2.56094,5452.81,-6757.99,-18944.4
1.3882e+08,64.4716,1,2.56574,-978.514,4992.29,-29374.1
1.38962e+08,47.6707,1,2.89796,1998.5,4951.76,-20320.6
1.39136e+08,138.218,2,2.58916,-10179.4,-15120,-6028.62
1.39152e+08,100.623,2,2.44093,10122.8,-15225.5,-17864.8
1.39307e+08,13.2522,0,2.72993,696.508,2311.2,-27398.5
1.39643e+08,81.4303,1,2.52452,-2913.51,16818.2,-25918.7
1.39665e+08,86.6467,2,2.55237,15536.3,8677.57,-24704
1.40533e+08,7.06283,2,2.58947,-853.045,640.172,-27779.4
1.40802e+08,75.238,2,2.86908,-14517,6251.27,-28071.3
1.41029e+08,58.9056,0,2.6176,10293.7,-7145.81,-28618.6
1.41206e+08,28.2618,1,2.51122,2203.55,5535.52,-27717.1
0,28.3159,1,2.64127,0,0,0
0,28.3671,0,2.43391,0,0,0
1.41375e+08,221.188,2,2.42656,-1891.82,-17184.2,14682.6
1.41426e+08,176.59,2,2.38932,9658.88,-21741.7,-1233.5
1.41546e+08,65.9488,1,2.81215,-5989.91,-10909.6,-22763.2
1.41671e+08,97.9321,0,2.57158,10883.6,-7135.57,-12667.6
1.41677e+08,4.86568,0,2.51332,485.063,696.648,-28142.8
0,4.88657,0,2.74382,0,0,0
1.41784e+08,254.129,1,3.02093,27441.7,-22447,-29309.4
1.41796e+08,147.529,0,2.69115,18442.9,613.227,-3728.12
1.42389e+08,6.80707,2,2.9366,912.971,305.955,-27812.4
1.42455e+08,83.3267,1,2.91379,-2172.35,11481.4,-15735.5
1.4251e+08,30.9564,1,2.5156,4512.77,-2704.04,-25039.5
1.43217e+08,144.14,0,2.8352,27181.6,4601.41,-16036.6
1.43612e+08,34.9072,2,2.47054,-6928.44,1860.72,-26866.6
1.43614e+08,177.79,0,2.91837,2678.61,293.817,-28032.6
1.43673e+08,49.3817,0,2.62363,-4334.37,-8582.19,-24848.1
0,48.8936,2,2.6807,0,0,0
1.43982e+08,71.4767,2,2.72273,11433.1,-7758.47,-23015.8
1.44375e+08,135.565,1,2.86107,-4160.59,3605.71,-1238.89
1.4503e+08,86.7313,0,2.79109,18226.7,-1994.15,-29509.2
1.45153e+08,55.9516,0,2.6133,-1827.17,2503.65,-24554.8
1.45174e+08,79.6983,1,2.68887,-521.845,-7307.97,-13724.8
1.45468e+08,110.03,1,2.90258,2373.31,12451,-29002.1
1.45492e+08,212.945,1,2.9539,-29703.5,6556.39,3894.34
1.45817e+08,100.749,1,2.75273,280.872,-1247.17,-28002
1.45921e+08,5.43387,0,2.88344,1049.04,-491.852,-28421.8
1.46052e+08,53.0592,1,2.9246,10350.5,1380.47,-25023.1
1.46172e+08,19.4602,0,2.92991,784.7,-3545.86,-26876.1
1.46187e+08,5.84828,0,2.43006,1022.05,317.224,-28062.5
1.46425e+08,13.3342,0,2.53717,-1566.96,-1452.7,-27049.8
0,12.8116,2,2.79311,0,0,0
1.46627e+08,7.552,0,2.85761,-139.363,667.897,-27392.1
0,7.57906,0,2.64267,0,0,0
0,7.56694,2,2.51509,0,0,0
1.46646e+08,141.113,1,2.76616,-3878.8,28995.8,-23128.7
1.46647e+08,155.551,0,2.68925,22808.4,12705.7,-8870.83
1.46649e+08,134.663,1,3.04513,-4499.37,15230.7,-5498.53
1.46656e+08,3.01854,0,3.05436,640.735,200.18,-28539.7
1.46716e+08,28.2879,0,2.9903,4638.3,3652.95,-27748.6
1.47415e+08,1.21732,1,2.53785,42.7275,-117.772,-28650.6
1.47458e+08,42.1522,1,2.84239,-6179.55,-5855.09,-26303.5
1.48112e+08,132.364,0,3.01311,24885.2,711.41,-16392.5
1.48277e+08,43.7849,1,2.9617,5492.28,5876.69,-24321.2
1.49175e+08,39.4563,1,2.43324,-7884.03,128.786,-25947.7
1.49219e+08,167.291,2,2.79615,29637.8,-15963.6,-18529.6
1.49256e+08,61.0563,1,2.57976,-3424.45,12253.1,-26118.4
1.49433e+08,75.6652,2,2.85403,-7074.21,-10116,-18703
1.49713e+08,70.4377,2,2.67658,6641.12,3522.25,-16060
1.50176e+08,46.213,1,2.96535,7158.69,1449.58,-22470.6
1.50221e+08,114.622,0,2.74672,-4512.86,11133.2,-7910.19
1.50235e+08,104.227,2,2.50804,13922.7,-13566.2,-18374
1.50445e+08,53.0587,1,2.90232,-7613.02,-2360.39,-21041.3
1.50474e+08,27.4144,2,2.93716,4117.18,-266.961,-24848.4
1.50589e+08,51.4759,1,3.02193,92.3713,10704.1,-26872.9
1.50715e+08,48.3684,2,2.96627,-2826.73,-9852.88,-28933.7
1.50839e+08,23.3073,1,2.53017,-4485.83,1995.77,-27772.2
1.50984e+08,56.0929,2,2.99381,-9651.66,-6028.31,-25556.1
1.51791e+08,18.5212,0,2.88046,2331.85,3124.05,-28099.2
1.51935e+08,86.0894,0,2.92616,-8093.26,-12947.6,-19200.3
1.51993e+08,262.842,1,2.97879,-26037.1,12483,17979.1
1.52395e+08,42.5532,2,2.5458,5898.71,2856.54,-22720.9
1.53046e+08,17.4725,2,2.84521,3380.34,138.89,-27469.4
1.53224e+08,146.593,1,2.90505,4843.18,27352.1,-15418.8
1.53614e+08,278.262,0,2.85175,11848.8,27592.3,21361.9
1.54184e+08,14.8664,1,2.89317,393.865,3078.96,-29652.8
1.54465e+08,124.728,0,2.96289,-6454.19,-22802.8,-17734.9
1.54674e+08,38.2467,0,2.48746,-1710.61,-7230.08,-25593
1.54766e+08,138.071,0,2.70554,-334.028,6432.61,-23279.7
1.54959e+08,94.875,2,2.83447,-19911.2,1750.89,-27792.4
1.55324e+08,39.5329,1,2.43647,-3631.57,6263.22,-24463.2
1.55461e+08,3.71612,0,2.73488,244.011,171.706,-28088.5
1.55604e+08,33.4324,0,2.51861,-1501.7,82.5755,-26493.7
1.56108e+08,11.2348,2,2.6461,2023.47,1127.28,-28696.5
1.57082e+08,60.4591,0,3.02009,8953.37,-1191.68,-19846.1
1.57149e+08,117.856,1,2.7266,-23767.9,3546.82,-22314.6
1.57286e+08,138.813,2,2.97241,-160.981,-16989.2,-24890.3
1.57493e+08,42.8228,1,2.36211,7718.97,1968.28,-24515.1
1.57632e+08,166.886,0,2.84372,22248.7,-25241.9,-18731
1.57858e+08,13.7315,1,2.47818,-1365.09,-981.703,-26472.7
1.58196e+08,38.067,1,2.43819,3365.15,7373.78,-28130.5
1.58472e+08,82.7787,2,2.85626,-16684.1,-1017.77,-23773.5
1.58695e+08,170.644,0,2.86279,-16591.4,9591.64,1438.31
1.58825e+08,152.24,0,2.75681,10946.4,23681.9,-10155.9
1.60005e+08,316.485,1,2.73505,-19781.5,387.143,26149
1.60049e+08,24.5836,1,2.91961,504.306,4431.31,-26114.5
1.60484e+08,74.7865,1,2.88277,12650.4,5986.21,-21697.6
1.60509e+08,127.81,0,2.82227,15830.2,21253.8,-23926.1
1.6087e+08,79.1648,2,2.96446,-4979.81,-11998.4,-18368.2
1.61153e+08,5.7618,2,2.53298,677.873,-1022,-28606.6
1.61164e+08,71.9165,1,2.96097,-849.57,-8548.18,-16471.8
1.61247e+08,69.7109,0,2.40409,12197.2,8430.75,-29427
1.61508e+08,109.786,2,2.45937,-9878.7,-16884.5,-16174.1
1.62337e+08,62.7063,1,2.63227,-10490.2,-4515.54,-22116.8
1.62489e+08,3.36819,1,2.71138,-112.516,217.518,-28122.5
1.62549e+08,35.1063,2,2.70048,3417.55,-1995.82,-22563.2
1.62959e+08,59.208,2,2.64175,-354.999,-10034.1,-21284.2
1.63105e+08,74.7566,1,2.82321,-10431.7,7585.45,-19711
1.63141e+08,44.0831,2,2.7314,-7217.38,5876.79,-28465.6
1.63185e+08,61.5726,2,2.79671,-7260.51,-835.18,-18111.6
1.63805e+08,24.5673,1,2.40628,-2818.09,1591.66,-24685.3
1.64854e+08,188.154,1,2.72011,-28293.1,19611.2,-9033.31
1.64898e+08,59.4656,1,2.79902,-5774.69,2929.12,-18096.5
1.65836e+08,22.3356,2,2.51869,-2393.71,946.755,-24842.7
1.66195e+08,76.3986,2,2.77271,-9523.76,-11094.5,-21915.1
1.66263e+08,116.112,2,2.7642,4239.51,-17924.3,-12689.2
1.66297e+08,27.9938,1,2.96147,3092.85,675.398,-23869.1
1.66806e+08,6.04577,0,3.00848,456.426,1199.98,-28515.6
1.6681e+08,15.1416,2,2.50452,2747.31,-1429.17,-27979.5
1.66865e+08,38.732,0,2.72463,596.917,-7890.83,-26769.3
1.66943e+08,48.4903,0,2.77703,-5814.96,-6147.39,-23151.4
1.67005e+08,46.6015,2,2.68579,7585.63,-6221.66,-29883.8
1.67135e+08,118.843,0,2.84291,-9316.58,-18889.3,-15476.7
1.67331e+08,204.87,0,2.47691,-7931.14,-27243,3378.13
1.67537e+08,30.301,1,2.44594,-4698.34,-3210.64,-25828.6
1.67686e+08,37.1683,2,2.4404,5168.45,-2252.44,-23367.1
1.68251e+08,64.4371,0,3.01766,6553.23,-2077.35,-17166.7
1.68626e+08,90.4285,1,3.03245,11361.7,4946.57,-14504.5
1.68709e+08,57.6577,1,2.78864,-6237.69,10184.7,-26168.2
1.68901e+08,27.6501,0,2.64994,4080.65,-3146.69,-26022.7
1.69042e+08,144.963,1,2.45506,2894.53,-16955.6,-3488.37
1.69063e+08,24.3858,0,2.78944,4663.05,1543.51,-27031.5
1.69215e+08,48.2397,0,2.60684,4234.05,-2841.33,-19964.7
1.6951e+08,57.4231,2,2.40874,3269.79,-10780.2,-24118.6
1.69801e+08,13.638,2,2.86302,676.96,-2210.55,-27020.1
1.70159e+08,152.55,2,2.88714,-2882.23,-26802.2,-11362.9
1.70202e+08,43.6558,0,2.54483,-2466.39,-8892.43,-29156.7
1.70225e+08,32.8214,1,2.69327,-3580.88,6008.5,-29662.9
1.7033e+08,136.741,0,2.65418,7647.41,24515.5,-15590.3
1.70403e+08,50.0457,2,2.77738,3194.96,-4895.68,-20017.1
1.70791e+08,8.94575,1,2.38748,-1375.79,-906.471,-27907.1
1.70865e+08,75.3467,2,3.03564,7013.81,-10834.5,-19649.5
1.70892e+08,25.0524,1,2.84306,-1597.46,1325.7,-23937.5
1.71098e+08,173.005,0,2.67427,-14001.1,-27021.9,-8801.41
1.7132e+08,37.3072,2,2.42579,477.162,-5623.86,-23252.9
1.71559e+08,39.3118,1,2.92677,1217.49,3810.25,-21559.5
1.71609e+08,148.203,1,3.04733,-24840,-1575.77,-10235.8
1.71799e+08,98.0617,1,2.89919,1718.21,-2753.78,-28517.8
1.7195e+08,76.5895,0,2.91732,9079.92,-3285.59,-15901.1
1.72023e+08,2.99287,1,2.9603,-541.934,263.634,-28463.6
0,2.97451,1,2.60303,0,0,0
1.72094e+08,28.8868,2,2.65087,-1773.54,1859.3,-23321.3
1.72148e+08,116.043,1,2.74147,-6226.01,-17809.3,-13327.8
1.72832e+08,140.168,1,2.72736,-20235.6,-1987.21,-7394.71
1.72843e+08,13.0431,2,2.54384,-1048.36,533.404,-26313.3
0,12.988,1,2.47221,0,0,0
1.73094e+08,99.3621,1,2.6023,-20935.3,-2185.93,-28985.6
1.7318e+08,52.7108,0,2.66448,-606.862,-5914.2,-19426.4
1.73334e+08,132.17,0,2.51442,22059.6,3660.34,-11970.7
1.73353e+08,80.9806,1,2.87295,4499.7,-6102.54,-13692.7
1.73459e+08,109.765,2,2.44135,10581.1,-104.217,-8207.89
1.73751e+08,18.4748,1,2.52398,2029.64,3415.77,-29000.4
1.73972e+08,140.622,0,2.6765,-28026.4,-4552.81,-20545.9
1.74153e+08,87.4848,1,2.79919,-7196.21,13808.7,-18868
1.74307e+08,2.63729,0,2.4479,168.334,-203.045,-28303.9
0,2.6309,0,2.96029,0,0,0
1.74308e+08,9.15105,2,2.54563,-89.8639,-991.676,-27118.3
1.74424e+08,231.729,0,3.00787,21750.8,-13829.8,12367.7
1.74632e+08,38.2923,2,2.82654,-1216.37,7620.32,-26679.8
1.74696e+08,94.2859,0,2.74955,7063.22,17773.4,-23283
1.74861e+08,25.0206,0,2.80538,1794.19,-3113,-24938.1
1.75084e+08,93.1199,0,2.47228,-9148.12,11626.9,-15853.8
1.75286e+08,4.88363,0,2.82745,-367.42,859.368,-28461.6
0,4.28764,1,2.74595,0,0,0
1.75778e+08,40.2016,1,2.73658,-5344.82,6274.31,-26515
1.75866e+08,15.7778,2,2.89307,-1837.74,-977.062,-26216
1.75876e+08,49.3987,1,3.0419,1457.23,7905.31,-22227.8
1.76517e+08,162.61,2,2.52001,12323.4,8228.29,-17.426
1.7672e+08,9.2252,1,3.04572,-1015.58,-480.027,-27224.2
1.76758e+08,64.0751,0,3.01143,1725.46,9898.44,-19872.3
1.76788e+08,6.60384,1,2.6912,-1208.85,324.295,-28060.8
1.76834e+08,110.724,2,2.56531,786.424,-23312.6,-26041
1.77008e+08,16.6957,2,2.63424,-182.457,-2997.92,-26858.1
1.77122e+08,0.147528,2,3.75357,-39.0613,-89.7868,-28818
0,0.0289514,2,4.06183,0,0,0
0,0.153177,2,3.77573,0,0,0
0,0.0260583,2,3.76382,0,0,0
0,0.0206379,2,3.65917,0,0,0
0,0.060541,2,2.30963,0,0,0
0,0.0409619,2,2.27064,0,0,0
0,0.0267455,2,2.19483,0,0,0
0,0.0252745,2,3.6272,0,0,0
0,0.0662217,2,2.32243,0,0,0
0,0.0376395,2,3.28988,0,0,0
0,0.0232676,2,4.07183,0,0,0
0,0.0262568,2,4.01922,0,0,0
0,0.0834498,2,4.03436,0,0,0
0,0.0691706,2,3.31315,0,0,0
0,0.0271268,2,3.81135,0,0,0
0,0.0787048,2,2.78516,0,0,0
0,0.0683679,2,3.25446,0,0,0
0,0.188437,2,3.50102,0,0,0
0,0.118318,2,2.51686,0,0,0
0,0.0843981,2,2.08305,0,0,0
0,0.0243154,2,2.8349,0,0,0
0,0.154765,2,3.27198,0,0,0
0,0.0386628,2,2.66947,0,0,0
0,0.0341267,2,3.22708,0,0,0
0,0.0431967,2,3.46893,0,0,0
0,0.0206408,2,3.67453,0,0,0
0,0.257616,2,3.18022,0,0,0
0,0.183153,2,3.03681,0,0,0
0,0.0327867,2,2.86847,0,0,0
0,0.0367139,2,3.09689,0,0,0
0,0.243204,2,3.67709,0,0,0
0,0.137011,2,2.18996,0,0,0
0,0.0562887,2,4.07344,0,0,0
0,0.0931973,2,2.32906,0,0,0
1.77605e+08,113.928,1,2.71892,21708.2,-9822.26,-26325.3
1.778e+08,166.457,1,2.54094,-23073.9,4957.56,-2671.81
1.78258e+08,27.3927,1,2.73019,-743.263,5671.09,-27516.8
1.78438e+08,219.143,0,2.62835,6537.55,19702.4,12508.3
1.78479e+08,136.453,1,2.62872,18039.6,15566.2,-12604.1
1.78805e+08,66.8298,2,2.46111,-7190.36,12123.7,-28906.6
1.79353e+08,72.2868,0,3.00395,11681.2,-9599.59,-27018.3
1.79464e+08,52.8787,0,2.4511,9307.27,370.71,-22500.5
1.79575e+08,72.8197,0,2.50149,9020.59,-12456.6,-27308.5
1.79592e+08,296.629,0,2.68605,-12789,-6802.9,-4732.85
1.79931e+08,33.787,0,2.40145,-1684.16,6880.88,-27804
1.80154e+08,5.23402,0,2.89219,-456.418,-429.259,-27940.5
1.8057e+08,25.6043,0,2.68366,4877.37,-2413.47,-27994.3
1.80662e+08,58.6513,1,3.02839,-11074.4,2931.34,-24245.4
1.80821e+08,18.0735,2,2.70177,-3274.12,-2121.7,-28896.8
1.81261e+08,78.6887,0,2.69888,-6726.66,9482.77,-17022
1.81286e+08,55.0539,1,3.03183,-9808.07,-423.008,-22697.9
1.81453e+08,25.0014,2,2.9945,-3867.91,-2589.13,-26234.4
1.81828e+08,144.707,2,2.42474,-7630.28,-29058.3,-22511.5
1.82102e+08,64.0268,2,2.69928,-9814.82,-6674.38,-22229.1
1.82165e+08,168.228,0,2.65174,6703.59,15609.4,-3155.63
1.82204e+08,19.128,0,2.469,-2699.33,27.7259,-25872.2
1.82449e+08,131.209,0,2.93032,-19980.3,-12955,-15083.5
1.82554e+08,35.2008,0,2.58574,7448.92,-803.695,-29676.5
1.82832e+08,128.288,1,2.45539,-17620.8,19678.4,-22311.2
1.82999e+08,39.2621,1,2.73243,1750.22,6777.58,-24334.7
1.83625e+08,167.435,1,2.90419,29444.9,9426.96,-12761.2
1.8364e+08,38.6763,2,2.94282,-2636.69,-5205.84,-23076.5
1.83759e+08,61.423,2,2.88401,5366.51,-10797,-24033.4
1.84166e+08,29.6566,0,2.70975,-6066.63,-409.515,-27632.3
1.84998e+08,148.97,2,2.65696,-20892.9,-10559.9,-7766.55
1.85255e+08,30.0405,1,2.61048,5099.27,1647.09,-25410.7
1.85721e+08,27.0481,1,2.77071,112.558,5469.24,-26974.5
1.85801e+08,60.0986,2,2.76246,1887.64,-12600.7,-28699.9
1.85887e+08,44.8786,0,2.85768,-1665.32,4022.9,-20452.1
1.85904e+08,178.5,0,2.89335,15265.5,20468.7,-1320.79
1.86239e+08,48.3448,2,2.90219,4144.85,-5630.51,-21430.9
1.86386e+08,171.841,1,2.8677,24600.5,15779,-7617.24
1.86439e+08,81.6991,2,2.38508,-8387.35,-8504.25,-16263.8
1.8696e+08,9.32905,1,2.94895,-1949.65,500.149,-29204.2
1.87149e+08,53.8983,1,3.0199,2673.65,10861.6,-26749.4
1.87423e+08,4.59548,0,2.87345,603.043,133.961,-28012.3
1.87692e+08,2.10839,0,2.59848,361.423,-285.284,-28604.7
1.87764e+08,28.3885,0,2.61723,4695.52,1205.59,-25175.5
1.88528e+08,39.6902,2,2.54285,-7608.5,-2957.84,-26565.2
1.8869e+08,60.1728,1,2.96268,-2007.29,7569.46,-18846.5
1.89011e+08,67.0275,1,2.80132,7133.47,7306.35,-19058
1.89211e+08,106.682,1,2.92597,-323.752,18139.6,-15584.8
1.89285e+08,63.4971,2,2.94211,-5587.01,9151.44,-20980
1.89428e+08,92.1582,1,2.88805,16702.1,-3429.67,-20229
1.89539e+08,76.9108,0,2.44146,7997.52,5628.25,-15804.7
1.89784e+08,21.3991,0,2.86597,3714.76,1978.28,-27034.5
1.89861e+08,149.611,2,2.6437,-13893.9,20977.5,-9798.23
1.90151e+08,39.0108,0,2.85129,6911.55,4384.55,-27461.3
1.90295e+08,83.7502,1,2.38206,14350.7,30.8351,-18459.8
1.90303e+08,56.948,1,2.79348,-8768.16,1943.18,-20826
1.90455e+08,22.7481,1,2.41383,2535.66,252.082,-24740.9
1.90852e+08,131.318,1,2.96225,-24923.6,-7588.26,-19849.7
1.90876e+08,26.7045,1,2.94683,576.382,5578.29,-27787.9
1.9163e+08,315.833,1,2.66805,12392,-4705.26,26443.8
1.91779e+08,42.6531,0,2.54864,289.255,5228.83,-21467.6
1.91923e+08,139.174,0,2.3753,-584.135,-10437,-2214.19
1.92268e+08,227.603,1,2.70968,10875.2,22621.6,12062
1.92583e+08,15.3715,1,2.88427,1403.71,2440.93,-27116.6
1.93087e+08,35.4686,2,2.68681,1762.14,5591.67,-24283.1
1.93237e+08,7.2321,2,2.52141,620.431,-1096.57,-29829.8
1.93813e+08,74.7435,2,2.74629,2338.26,-9578.23,-16507.5
1.93837e+08,31.8279,1,2.74143,-187.646,4355.86,-25050.6
1.94788e+08,62.3755,1,2.91045,8195.83,7946.92,-24673.7
1.94934e+08,149.842,0,2.99901,19961.4,20817.3,-16289.5
1.95008e+08,52.6613,2,2.50955,2640.93,6468.43,-20222.2
1.95058e+08,171.86,2,2.67501,-3375.5,131.818,-6908.2
1.95663e+08,135.182,0,2.76835,21605.3,1844.51,-10497.5
1.96538e+08,17.6186,0,2.46749,1472.13,3279.85,-27638.3
1.96635e+08,10.3947,2,2.62378,-1475.56,-1635.45,-28153.9
1.97112e+08,64.234,1,2.7401,-8731.24,-1311.25,-18534.2
1.97125e+08,4.28713,2,2.66158,0.781589,-478.984,-28001.8
1.97212e+08,180.813,2,2.86312,-17194.2,-18872.2,-634.166
1.9723e+08,139.643,0,2.53774,2630.47,18526.2,-5981.2
1.97422e+08,111.407,1,2.91005,-3820.69,19930.9,-17027.5
1.97726e+08,131.429,1,2.93391,-19050.7,18234.8,-20420.9
1.97986e+08,113.156,1,2.88247,-21219.2,8998.69,-22732.1
1.98051e+08,183.68,0,2.85349,-13158,-24792.9,-14876.6
1.98234e+08,22.6694,1,2.62473,-1994.88,-2975.95,-25691.7
1.98351e+08,105.398,1,2.92507,-12005.3,9880.59,-14226.8
1.98493e+08,124.42,0,2.67711,1093.43,-21131,-13279.8
1.9854e+08,43.1049,1,2.83149,5614.48,-54.1949,-21731.9
1.98565e+08,27.2559,2,2.65644,-1076.04,-5689.27,-29657.2
1.98588e+08,7.82515,2,2.54009,-423.723,-1565.79,-28182.6
1.98612e+08,31.4097,2,2.84692,3245.94,-5814.52,-28233.4
1.98662e+08,28.9845,0,2.44826,-2911.99,-1224.78,-23636.7
1.99084e+08,10.4167,2,2.5334,1415.01,-1677.26,-28303
1.99364e+08,74.4444,1,2.50707,-5294.24,14904.9,-27749.8
1.99749e+08,79.6145,2,2.61991,-4305.3,-9448.78,-26112.4
1.99855e+08,112.371,2,2.69167,-21428.3,-7530.51,-21821.4
2.00185e+08,95.3586,2,2.37751,-8796.99,-7347.36,-12155.8
2.00627e+08,37.1898,2,3.03602,7407.08,-2442.56,-28570
2.00812e+08,31.6269,2,2.41647,-6228.23,-2100.92,-27155.6
2.01028e+08,2.25583,1,2.46665,-241.878,489.36,-28653.3
0,2.26149,1,2.67491,0,0,0
0,2.22199,1,2.57206,0,0,0
2.01195e+08,5.80016,0,2.77628,1223.83,-88.3805,-29272.5
2.01254e+08,99.222,2,2.60475,10258.9,14772,-18219.7
2.01274e+08,87.9198,2,2.61283,-7873.53,13378.4,-18659.8
2.01287e+08,30.5546,1,2.90179,-3028.2,5744.62,-29042.5
2.01499e+08,49.9372,2,2.80648,-7092.47,-2551.14,-21419.1
2.01778e+08,158.486,0,2.72197,-2202.53,-14034.2,-24528.6
2.0198e+08,105.446,2,2.58165,-9921.8,-7213.36,-10195.8
2.02031e+08,62.2217,1,2.69248,-8044.48,4718.45,-19508.2
2.02187e+08,88.37,2,2.92989,-12323.6,-12775.8,-23193.4
2.02241e+08,27.1094,2,2.69518,5523.56,-480.383,-27453.4
2.02493e+08,56.2359,1,2.73212,-8891.08,5190.57,-22841.8
2.02816e+08,229.669,2,2.42246,-28893.8,-12282.9,8300.6
2.02926e+08,42.6078,1,3.011,-5877.79,-3393.06,-22997.3
2.03086e+08,159.936,0,2.88091,-9306.78,-11892.6,1045.58
2.03492e+08,20.8481,1,2.5198,-629.19,4370.75,-27873.2
2.03567e+08,37.6681,0,2.91148,5417.01,2492.3,-23515.7
2.03589e+08,83.8016,1,2.96551,11505.1,-5080.53,-16586.5
2.03634e+08,106.547,2,2.95404,-13928.9,1595.04,-25505.7
2.03673e+08,195.739,2,2.44997,14760.2,-19803.6,4413.02
2.04096e+08,161.801,1,2.8742,553.112,13850.1,2244.05
2.04338e+08,70.1754,1,3.01165,6569.19,6979.87,-17633.9
2.04797e+08,69.2895,1,2.908,9079.88,11236.7,-27602.8
2.0499e+08,3.9095,2,2.64312,-37.7665,-713.525,-28272.2
2.05096e+08,45.5285,1,2.7157,-7177.62,117.865,-22385
2.05187e+08,164.801,2,2.91331,-27578,-16678.8,-18908
2.05214e+08,86.8235,0,2.66002,17824.8,-3525.35,-25991
2.05313e+08,7.49417,1,2.56389,-550.787,927.644,-27604.7
2.0546e+08,147.296,2,2.90434,3912.91,-15357.6,-11794.2
2.05482e+08,38.1971,0,2.5144,7502.14,-956.03,-25719.8
2.05549e+08,18.3569,0,2.39597,2130.57,-1966.15,-26145.3
2.06159e+08,149.762,2,2.99613,-13014.9,-22848.3,-11537.8
2.06217e+08,116.313,1,2.81969,-14506.7,-994.639,-9159.04
2.06673e+08,95.924,1,2.75016,4572.11,-14898.2,-16044.6
2.06746e+08,8.5855,2,2.59032,-1019.49,-1200.11,-27769.3
2.069e+08,152.31,2,2.38735,-24692,-3192.03,-8277.03
2.06975e+08,24.882,1,2.46625,-2914.55,-3377.82,-26066.5
2.0737e+08,11.7263,2,2.76743,-500.851,-2385.8,-28084.1
2.07508e+08,47.5471,2,2.83866,-9654.77,2671.92,-28534.5
2.07525e+08,61.8926,2,2.88914,-2694.58,7335.16,-18462.3
2.07548e+08,134.977,2,2.69048,-13317,1563,-6931.85
2.07661e+08,73.0976,2,2.70926,9340.21,-8654.05,-20082
2.0773e+08,49.2196,1,2.64453,-3223.23,9145.56,-24848.1
2.08103e+08,15.1692,0,2.66596,-2168.28,1684.49,-27299.9
2.08136e+08,207.797,2,2.88342,-2064.64,-15880,-20591.6
2.08181e+08,137.06,0,2.74232,19647,5779.49,-8404.08
2.08219e+08,24.2197,0,2.85437,-933.23,-3558.31,-25351.7
2.08287e+08,18.2761,1,2.77733,-3528.65,-1551.18,-29239.5
2.08301e+08,83.0006,1,2.7624,3207.93,-16610.5,-24771.7
2.0837e+08,21.1534,1,2.46563,4468.4,58.037,-28822.8
2.08489e+08,65.081,2,2.42173,8603.23,-4830.08,-19243.3
2.08586e+08,32.743,1,3.02494,-80.5273,2807.23,-27417.2
2.08629e+08,59.9758,2,2.99111,4747.93,4197.07,-18005.5
2.08729e+08,152.157,2,2.80279,-21599,11588.7,-8225.95
2.08983e+08,39.7464,1,2.65743,-3450.6,-5866.29,-23977.5
2.09023e+08,23.2951,0,2.62962,-230.171,3738.05,-25633.1
2.09037e+08,11.3865,1,2.40498,621.012,-1067.84,-26778.5
2.09342e+08,23.1829,0,2.63708,3826.53,1917.12,-26332.9
2.10088e+08,9.83594,1,2.44228,-824.292,1979.64,-28373.5
2.10173e+08,133.335,2,2.57743,49.3012,15536.3,-5411.37
2.10225e+08,73.1127,2,2.93138,-2034.72,-2745.69,-27497.3
2.10316e+08,33.3121,0,2.69754,-6521.05,-1414.14,-26832.5
2.10905e+08,184.674,1,2.91331,371.861,12624.2,-16486.5
2.11145e+08,95.2271,1,2.66574,-13727.8,6486.28,-15576.5
2.11847e+08,38.3422,1,2.73406,-3200.53,-2326.09,-21793.4
2.1193e+08,157.033,0,2.45104,1331.07,536.889,-28695.2
2.12055e+08,61.5205,1,2.87801,10439.8,2324.72,-21575.9
2.13071e+08,142.009,0,2.54597,19512.5,-4246.36,-6343.93
2.13102e+08,167.227,2,2.72481,26900.8,12228.4,-22685.2
2.13719e+08,66.4074,2,2.73992,-3427.18,-6303.27,-16759.7
2.13884e+08,147.469,0,2.5029,-15717.8,-22767.1,-15730.6
2.14036e+08,100.292,2,2.75825,16264.2,12304,-23625.6
2.14286e+08,44.4612,2,3.0388,7982.73,4391.75,-27111.8
2.14368e+08,60.5889,0,2.85231,11672.2,5157.29,-27362
2.14372e+08,41.5635,0,2.67317,-6753.77,-5523.16,-28480.1
2.15342e+08,139.161,0,2.50396,-10895.6,-15562,-23797.6
2.15412e+08,23.2146,1,2.49954,-1339.31,2767.25,-24922.9
2.16344e+08,65.7351,2,2.43177,4482.99,-13027.2,-26376.3
2.16495e+08,3.72129,2,2.65472,-163.807,-735.915,-28388.3
2.16835e+08,67.7333,0,2.39776,7285.25,-6838.9,-18498.6
2.17134e+08,243.404,0,2.7018,24832.2,-29117.1,5394.49
2.17374e+08,120.471,1,2.53616,6676.53,8719.39,-26380.5
2.17466e+08,43.7546,2,2.61553,7984.91,-4646.47,-28128.4
2.1748e+08,120.556,0,2.85871,10062.4,15298.1,-11254.7
2.17821e+08,36.1407,0,2.53535,-6001.72,3079.61,-25358.4
2.17917e+08,59.5,2,2.70067,7853.88,-305.883,-19058.4
2.17964e+08,85.5083,2,2.67919,13438.5,-3879.45,-17470.8
2.17983e+08,49.241,1,2.81994,-9215.42,-1379.87,-24178
2.18063e+08,69.0079,1,2.58153,-6477.81,10573.8,-21012.9
2.18254e+08,47.6393,2,2.79557,2326.97,8466.96,-24133.8
2.18272e+08,27.9181,0,3.01128,-1574.84,-3221.55,-24231.5
2.18417e+08,49.212,2,2.61122,-6101.92,3679.76,-21260.9
2.1851e+08,70.8782,2,3.01553,-2298.73,-13397.1,-22614.3
2.18632e+08,69.2024,0,2.74214,1363.05,14303.5,-26147.7
2.18712e+08,102.026,1,2.83335,-7575.43,4222.24,-9180.87
2.18897e+08,175.075,0,2.53854,-229.787,-3580.47,-29084.4
2.19046e+08,13.0312,0,2.63021,-1921.84,965.35,-27204.3
2.19126e+08,30.5629,1,2.96041,1211.92,4349.98,-24222.2
2.19319e+08,24.4734,0,3.02372,3289.03,-3651.53,-27089.1
2.19331e+08,11.7086,2,3.00684,1235.42,446.589,-26779
2.19535e+08,93.9402,2,2.90681,13860.5,-13320.3,-24195.9
2.19617e+08,130.622,2,2.66966,2335.33,-24280.9,-15870.5
2.19708e+08,32.3944,0,2.42542,3162.5,-2511.11,-23232.2
2.19769e+08,25.9499,1,2.65192,-972.538,5221.32,-27245.1
2.20159e+08,91.4033,2,3.00072,-16141.9,-4269.8,-19337.5
2.20219e+08,30.8319,0,2.77736,5251.64,3096.98,-26350.7
2.20248e+08,44.5771,0,2.75473,-3233.24,6144.14,-22557.7
2.20439e+08,161.443,0,2.94164,-7289.13,17762,-22907.1
2.20849e+08,139.647,1,3.05445,-11565.4,26532.6,-24020
2.2089e+08,78.8637,1,2.89967,-8387.28,14382.5,-28041.2
2.20956e+08,3.69279,2,2.6322,11.7288,-672.074,-28307.1
2.21129e+08,41.6744,0,2.67602,7063.1,1965.69,-23880
0,41.3926,0,2.41121,0,0,0
2.21203e+08,72.2597,1,2.6922,5777.54,4370.53,-15403.9
2.21264e+08,43.26,0,2.8166,-508.934,6422.8,-22379.8
2.21349e+08,144.619,2,2.86243,17452.8,13973,-8356.62
2.21604e+08,45.6172,0,2.60891,4303.58,8579.08,-27436.4
2.21885e+08,91.2349,2,2.64824,-13825.2,-13060,-25220.8
2.22029e+08,121.047,0,2.75436,13623.2,-4729.35,-7769.64
2.22046e+08,34.9277,2,2.8154,-7208.14,-1180.12,-27432.2
2.22126e+08,24.8792,2,2.56064,-3064.13,-4398.08,-29242.2
2.22427e+08,11.0532,1,2.94783,688.698,1714.31,-27328.8
2.22619e+08,68.8233,2,2.68945,11671.2,1478.85,-20356.9
2.22924e+08,62.1565,0,2.58062,-6728.5,5164.46,-18859.5
2.23197e+08,456.669,0,2.8638,-29721.6,24943.2,-22656.6
2.23233e+08,125.546,1,2.83992,8023.65,23940.5,-20918.5
2.23426e+08,70.1422,1,2.90115,-6722.76,2061.14,-15839.6
2.23936e+08,7.95103,1,2.94981,-1368.67,882.967,-29562.1
2.24021e+08,142.656,1,2.81563,-431.279,-6104.07,-663.723
2.24187e+08,64.0711,0,2.58182,4118.18,-11570.1,-23006.6
2.24361e+08,11.0867,2,2.61835,1709.94,-1662.8,-28624.4
2.24422e+08,146.174,1,2.84292,9594.67,29255.2,-27999.5
2.24548e+08,23.9156,0,2.73028,4003.72,3187.34,-28561.4
2.24566e+08,45.3346,0,2.65321,5917.19,-2940.22,-21841.9
2.24608e+08,12.7239,0,2.48302,1808.8,-1221.59,-27143.7
2.24626e+08,175.395,0,2.98035,28120.5,23739.4,-27108.9
2.2466e+08,26.9391,2,2.74395,677.03,-2593.04,-23784.4
2.24676e+08,53.8888,2,3.02111,-5652.54,-9895.17,-29124.6
2.24699e+08,88.6349,2,2.93662,10426.7,5973.73,-14703.9
2.24785e+08,76.1529,1,2.657,-6180.62,14287.4,-24499
2.24885e+08,36.1406,2,2.89242,4962.48,2979.84,-23966.9
2.25149e+08,57.1833,0,2.5983,-8018.64,-1435.75,-19956.9
2.25311e+08,3.94529,1,2.66854,-343.332,503.3,-29518.8
2.25387e+08,21.774,1,2.71587,-3673.68,2768.67,-27991.5
2.25443e+08,11.6232,2,2.39349,1683.36,1032.2,-27423.2
2.25461e+08,50.7191,1,2.54148,-3310.95,9371.37,-24546.9
2.26035e+08,1.88926,2,2.79649,389.577,-28.6715,-28827.4
0,1.91996,2,3.00172,0,0,0
0,1.26356,0,2.88359,0,0,0
2.2627e+08,88.7513,2,2.59315,9463.15,9645.89,-15898.5
2.26281e+08,294.553,0,2.53044,18565.8,12025.5,24132.1
2.26323e+08,229.844,2,2.40227,24110.1,-29843.2,1106.32
2.2649e+08,14.8357,0,2.62541,1496.03,-1208.77,-26305.2
2.26682e+08,45.6089,0,2.44821,6866.63,1061.26,-22029.7
2.2671e+08,7.56382,0,2.77743,306.803,564.82,-27332.9
2.27008e+08,37.6635,0,2.52321,594.006,-7955.66,-29302.3
2.27068e+08,50.0034,1,2.45503,-6496.75,8307.47,-27122.9
2.27238e+08,48.1749,2,3.02,-5697.19,590.809,-20472.4
2.27331e+08,7.75194,0,2.88303,1654.41,-383.865,-29101.4
2.27547e+08,24.2877,1,2.90619,3946.73,409.285,-25647.9
2.27815e+08,76.7493,2,2.69178,-10399.5,-3586.26,-16890.4
2.28236e+08,204.523,2,2.77325,-26836.4,-25725.5,-6993.63
2.28608e+08,74.4863,0,2.88559,-10987,-6617.32,-19999.3
2.28735e+08,193.516,1,2.78229,22549.7,-6772.95,4330.98
2.28897e+08,39.6742,1,2.86667,-3447.94,-6538.19,-25000
2.29027e+08,87.3816,1,2.46168,-13244.9,10523,-21177.4
2.2905e+08,131.875,0,2.90893,4880.89,-12989.1,-4874.35
2.29224e+08,81.724,0,2.66872,16102.9,-756.853,-22514.4
2.29298e+08,71.0704,1,2.7855,-8026.46,12735.9,-28483.2
2.29834e+08,12.0597,1,2.39296,-2523.59,790.512,-28651.1
2.2992e+08,88.7175,2,2.9507,-8876.4,14393,-21076.3
2.30122e+08,17.718,2,2.70926,-1478.86,1379.13,-28815.3
2.30125e+08,13.3591,2,2.71255,-1975.5,-1430.21,-27261.7
2.30171e+08,41.6763,1,2.72286,-5666.5,6148.7,-25836.1
2.30491e+08,101.436,2,2.93053,13826.3,-5934.69,-13753
2.30744e+08,88.8237,1,2.43387,11605.8,1580.05,-14166.1
2.30762e+08,44.4246,0,3.03884,-638.793,7775.04,-23782.1
2.31019e+08,13.1545,2,2.62747,-2440.07,-883.608,-27621.8
2.31115e+08,20.7924,2,2.8963,2476.78,-561.688,-25275.7
2.31168e+08,8.90609,0,2.96481,1371.96,-508.979,-27551.9
2.31309e+08,60.5007,0,2.59892,1297.12,-12057.5,-24674.3
2.3144e+08,106.974,0,2.86706,21697.6,-6265.19,-28519.6
2.31878e+08,23.8531,1,2.95133,0.336957,4397.75,-26287.8
2.32011e+08,59.2333,1,2.37511,8222.61,-7684.84,-23439.2
2.32066e+08,12.421,1,2.68097,-2370.59,760.752,-27762.5
2.32157e+08,7.55065,1,2.76527,-730.408,391.463,-27429.7
2.32208e+08,39.9997,0,2.71235,7002.86,2742.84,-24823.6
0,39.8336,0,2.41726,0,0,0
2.32646e+08,3.99192,2,2.38383,-868.617,31.1973,-28537
2.32703e+08,64.8268,2,2.81234,-6617.38,-7540.25,-19492.2
2.32817e+08,42.7986,2,2.76986,-6174.63,-4294.64,-23765
2.32989e+08,18.2539,1,2.53687,-2621.44,907.127,-26077.1
2.33059e+08,109.407,2,2.57993,-5479.76,17747.3,-15114.1
2.33642e+08,17.8638,0,2.7545,2617.35,59.4873,-26026.4
0,18.0128,0,3.00224,0,0,0
2.33763e+08,12.5925,1,3.05014,-1934.59,825.119,-27118.4
2.33801e+08,27.1954,2,2.60201,2454.84,-5234.94,-29581.6
2.33804e+08,183.212,2,3.01348,-22954.6,17893.2,-3795.93
2.34014e+08,130.728,0,2.80789,-118.703,-22716.9,-13294.8
2.34082e+08,14.2833,2,3.04846,-1604.95,-1198.02,-26532.6
2.34299e+08,14.1883,2,2.73705,1329.69,96.3552,-26183.5
2.34364e+08,95.9317,0,2.38264,-10143.1,-13489.6,-17623.2
2.34438e+08,48.4422,2,2.43372,-1426.39,-7478.14,-21901.7
2.34642e+08,2.79953,1,2.55493,-212.873,609.162,-28632.5
0,2.69618,1,2.86289,0,0,0
2.35144e+08,70.0416,1,2.8002,-10258.1,-8156.3,-22050.9
2.35155e+08,29.9468,2,2.43699,-1524.71,-5871.64,-26704.6
2.35192e+08,187.324,2,2.76541,-17669.4,11809.1,4368.35
2.35226e+08,39.2052,2,2.88799,293.706,-7262.63,-24809.4
2.35266e+08,76.9138,2,2.7186,-15506.2,4787.37,-28769.7
2.35288e+08,2.90557,0,2.78476,665.421,212.581,-28739.6
2.35468e+08,48.306,2,2.5732,-6199.94,-4840.99,-22208.2
2.35773e+08,79.0769,2,2.826,-12846.8,-9773.62,-24495.4
2.36208e+08,38.009,2,2.91772,-4433.67,-1385.64,-22287.2
2.36573e+08,52.9119,1,2.47134,1617.21,7148.19,-21011.2
2.36646e+08,100.659,0,2.83286,-2907.22,-20971.3,-29490.5
2.36904e+08,111.294,1,2.43258,2116.62,23528,-28474.5
2.36956e+08,98.8643,2,2.59067,-5676.08,11640.7,-12545.4
2.3717e+08,83.04,0,2.75231,6629.99,1696.57,-12722
2.37318e+08,30.9295,1,2.65483,217.19,5766.74,-25622.8
2.37474e+08,9.24574,1,2.87865,421.258,1420.65,-27510
2.37494e+08,19.0261,1,2.58288,-3794.89,-1439.8,-29199.1
2.37602e+08,79.6228,2,2.61641,9235.07,1621.98,-14904.3
2.37679e+08,36.3686,1,2.55415,6292.87,3022.84,-25591.7
2.38072e+08,80.5961,2,2.73691,16762.4,-831.908,-26459.2
2.38104e+08,23.0895,0,2.85538,-4000.93,794.737,-26320.8
2.38582e+08,49.3449,2,2.67912,2191.21,9714.93,-26015.8
2.38615e+08,236.56,2,2.44454,18181.6,-8345.61,16991.4
2.38728e+08,6.98543,1,2.90578,-376.662,-261.82,-27424.1
0,7.03812,1,2.58676,0,0,0
2.3876e+08,2.47803,0,2.40435,-237.8,442.343,-28780
2.38779e+08,97.4235,0,2.62356,11686.1,5243.12,-12693
2.38817e+08,212.049,1,2.52014,-20182.7,18345.8,-20020.1
2.39094e+08,72.4318,0,2.51874,13908.1,-4849.23,-24398
2.39223e+08,119.711,0,2.76598,1302.49,-4767.88,-11679.1
2.39268e+08,36.1462,1,2.47654,-4756.91,-3981.43,-25099.3
2.39304e+08,22.5679,2,2.47167,-1925.25,-2733.33,-25330.8
2.39333e+08,5.37275,2,2.85762,-973.887,-634.69,-28427.7
2.39646e+08,15.9871,1,2.78724,-24.6925,1990.53,-26081.3
2.39701e+08,171.506,1,2.86917,-7143.88,-14948.2,-8528.46
2.39831e+08,11.5288,2,2.36303,-1403.08,-2136.19,-28717
2.39836e+08,12.4896,1,2.87521,943.154,2464.14,-28238.5
2.40027e+08,150.346,0,2.50677,25207.2,8740.4,-15584.4
2.40536e+08,1.53076,0,3.05714,99.9196,162.883,-28563.4
0,1.44858,0,2.71641,0,0,0
0,1.47383,0,3.04083,0,0,0
0,1.52498,0,2.40398,0,0,0
0,1.41116,0,2.63222,0,0,0
2.40569e+08,44.1112,2,2.53187,-6991.31,5789.7,-26591.5
2.40671e+08,109.273,2,2.74801,9996.12,-2566.75,-8301.95
2.40719e+08,134.648,2,2.55627,-11438,-26143.7,-27638.2
2.40973e+08,16.0376,1,2.44215,-1935.42,2231.56,-26996.1
2.41257e+08,161.395,2,2.97911,-12288.5,-8650.96,278.194
2.41339e+08,113.348,1,2.73593,8370.2,11621.5,-9683.79
2.41378e+08,115.718,1,2.66819,-4380.92,-12535.9,-8363.29
2.41472e+08,85.7489,1,2.80013,5490.07,16123.2,-22658.3
2.41595e+08,191.032,0,2.75789,-2154.13,25825.9,1916.09
2.41672e+08,45.5053,0,2.62815,-2698.79,2365.96,-21795.8
2.41725e+08,33.652,1,2.67182,-3572.85,5706.67,-26384.9
2.41846e+08,93.5065,0,2.38215,4194.2,-9088.75,-11730
2.41963e+08,80.1074,1,2.84821,-6062.65,5034.41,-13908.7
2.42002e+08,39.6456,0,2.4189,-6406.11,4554.19,-26053.4
2.42042e+08,37.0372,0,3.01726,4550.02,-6369.94,-28831
2.42189e+08,92.55,1,2.39507,-3937.98,10374.6,-12652.6
2.4236e+08,135.513,1,2.6503,17787.3,10113.5,-8862.9
2.42612e+08,33.8647,1,2.52999,3467.89,5587.52,-25840.2
2.42745e+08,56.4625,1,2.46931,-6922.37,9607.09,-26610.8
2.4276e+08,157.522,2,2.39452,-21222.2,-923.766,-3099.95
2.43127e+08,50.9728,1,2.60871,1405.99,-7242.08,-21090.2
2.43197e+08,107.433,1,2.605,-17275,6757.46,-15656.2
2.43198e+08,1.40255,2,2.71337,98.5414,-210.103,-28601
2.43346e+08,11.0348,0,2.5611,695.939,1589.72,-27216.5
2.4362e+08,111.476,0,2.92715,18191.1,-9626.23,-17524.2
2.43689e+08,21.6461,0,2.37242,-4092.63,-437.865,-26927.6
2.43764e+08,114.783,1,2.92097,-1989.83,22066.8,-19136.1
2.44599e+08,17.1256,0,3.04757,1405.64,-2431.89,-26593.2
2.44812e+08,10.3086,1,2.92122,-1867.93,647.307,-27784.6
2.45015e+08,236.683,0,2.95414,6810.21,15753.1,-13736.3
2.4513e+08,44.0303,0,2.88807,4347.12,-3495.66,-21411.5
2.45261e+08,22.9693,0,2.80524,-3651.2,34.2293,-25724.3
2.45267e+08,164.957,2,2.95425,-24544.8,-15667.5,-10023.4
2.45286e+08,5.32285,2,3.03038,-679.82,-69.509,-27911.1
0,5.34104,2,2.52658,0,0,0
2.45291e+08,16.2523,0,2.80151,-2616.21,-6.97609,-26682.4
2.45324e+08,121.283,1,2.42531,10269.4,11435.6,-8247.22
2.45635e+08,183.15,1,2.45713,-18745.9,19213.6,-827.819
2.45953e+08,85.2945,2,2.635,13187.4,-11666.1,-24873.6
2.46038e+08,130.28,0,2.60017,-18388.6,-18888.3,-21235.5
2.46218e+08,131.314,0,2.64893,24813.7,7575.34,-18871.9
2.46477e+08,119.123,1,2.71307,7112.99,-13955.2,-25085.2
2.47048e+08,3.88185,1,3.03579,319.529,-479.543,-28348.4
2.47133e+08,10.0345,0,2.62746,1064.11,-1904.37,-28542.3
2.47181e+08,92.4523,1,3.02,5749.21,-13047.3,-15769.2
2.47529e+08,113.59,1,2.77574,2460.41,4570.85,-26048.6
2.47837e+08,40.1147,0,2.37572,3310.41,-4486.3,-22370.3
2.47951e+08,74.504,0,2.96626,5373.27,-12004.1,-20336.3
2.48057e+08,82.3981,0,2.59274,-5430.12,10047.2,-15711.6
2.49017e+08,35.9205,1,2.87839,-1552.55,7497.37,-28495.4
2.49353e+08,90.8515,1,2.6145,-7548.85,-5302.44,-12025.5
2.49534e+08,29.26,2,2.42177,-5947.79,-2004.44,-28432.9
2.49552e+08,148.783,0,2.72881,8022.59,-25030,-11694
2.49695e+08,11.9919,0,2.84647,2367.62,-903.336,-28133.2
2.49713e+08,120.021,2,2.64195,9463.6,434.577,-18477.4
