#class tools::wcsv::ntuple
#title time
#separator 44
#vector_separator 59
#column double eventID
#column double t(ns)
#column double copynumber
#column double energy(eV)
#column double x(mm)
#column double y(mm)
#column double z(mm)
198248,78.6546,2,3.05755,-11788.8,-11446.8,-28786.9
363940,8.21654,0,2.7138,243.914,-1629.06,-28380.3
517265,86.2631,0,2.8342,4823.97,6008.91,-12398.4
546942,116.53,0,2.52211,3292.29,-6336.92,-5180.52
797260,146.752,1,2.95106,16633.8,944.118,-11966.6
849963,39.6385,2,2.93013,-3488.97,-3786.74,-22141.3
908657,62.5019,2,3.03363,-4956.86,-11418.3,-24524.1
1.01711e+06,214.731,1,2.67383,-19498.4,12988.1,10093.5
1.10088e+06,64.446,1,2.52382,6873.96,8385.57,-20434.8
1.17121e+06,37.3038,2,2.41667,-667.757,-510.1,-23357.9
1.25042e+06,9.67408,0,2.93815,1849.47,-756.95,-28336.2
1.31725e+06,3.97613,2,2.51471,135.436,726.374,-28453.5
1.35431e+06,125.779,0,2.65553,15609.6,-2936.03,-7556.45
1.3895e+06,30.7178,1,2.76205,-3480.85,5381.31,-27441.8
1.69975e+06,131.237,1,2.57922,-3759.48,26857.1,-22568.2
1.855e+06,48.3812,1,3.04783,4261.02,2762.43,-20045
1.8674e+06,30.4621,1,2.38894,3152.81,5706.82,-29048.4
1.93095e+06,71.9833,2,2.46793,9410.62,-11315.8,-25082.5
1.98864e+06,225.825,2,3.0122,12215.6,-16646.7,13759.4
2.01677e+06,104.896,1,2.94491,-5170.87,18247.7,-17545.1
2.12093e+06,58.7537,1,2.64479,-4995.4,4376.69,-18394.7
2.15044e+06,30.1933,1,2.64567,-4032.95,479.23,-23857.3
2.15599e+06,273.061,0,2.42815,28309.1,-19149.4,17761.6
2.21175e+06,126.456,0,2.90331,4290.69,-23115,-16414.1
2.53282e+06,132.758,0,2.91294,-13274.7,-22012.2,-18098.1
2.55154e+06,56.6077,2,2.91176,6059.19,8733.15,-23616
2.87654e+06,190.024,2,2.71573,9886.03,-26325.6,-271.841
3.0481e+06,55.4341,0,2.90302,-833.562,-5281.76,-18518.4
3.09375e+06,105.295,1,2.59001,11839.2,-5781.33,-10930.4
3.19659e+06,59.328,1,2.62943,3735.87,11868.7,-26648.2
3.40111e+06,10.5065,1,2.48114,1554.38,1585.96,-28544.2
3.4961e+06,112.959,1,2.79643,9691.49,18646.2,-17621.6
3.5551e+06,50.7355,1,2.47526,-6407.96,-5409.67,-22100.1
3.69157e+06,35.4238,1,2.70974,495.07,3146.18,-22038
3.79856e+06,31.8087,1,2.51619,1766.67,6537.56,-27774.2
3.91952e+06,40.0935,2,2.52726,60.9398,-5224.87,-22333.3
3.92134e+06,6.7068,0,2.9213,-304.809,-1347.41,-28436.1
4.02628e+06,194.829,2,2.66071,19625.7,-11344.8,5464.6
4.02875e+06,3.63408,1,2.88101,-520.828,-177.669,-28221.6
4.08451e+06,56.8581,1,2.77679,-815.466,-4177.17,-17915.7
4.09793e+06,84.6377,2,2.65342,-12184.8,4788.17,-16706.9
4.27136e+06,77.8396,0,2.45791,6419.16,-13727.9,-22516.8
4.52266e+06,50.4741,1,2.90649,-6603.24,8302.37,-27141.8
4.54849e+06,29.5033,1,2.92785,859.914,-2465.27,-27323.9
4.58573e+06,4.38782,1,2.59344,-464.704,-452.324,-28161.6
4.60886e+06,42.6445,1,2.71397,-2129.94,-3702.15,-20995.2
4.62856e+06,72.6938,0,2.63825,1772.28,-13137,-21492.4
4.68824e+06,184.909,1,2.5515,-487.303,-2338.14,-24142.3
4.78616e+06,123.229,1,2.98284,-15145.9,7435.23,-9300.26
4.82672e+06,7.1677,1,2.53294,1426.32,1.87786,-28418.3
4.82985e+06,52.2742,0,2.89378,1404.59,-6795.6,-20292.2
4.86039e+06,6.82737,2,2.739,-307.654,1141.45,-28117.5
4.99521e+06,18.2703,2,2.4171,-1627.58,67.1173,-25306.7
5.06561e+06,71.3916,1,2.67225,-4353.52,13166.4,-22613.8
5.12746e+06,33.2121,0,2.79417,2295.96,5756,-25663.9
5.22426e+06,25.1235,1,2.97185,3363.83,2145.57,-25315
5.30959e+06,33.5369,0,2.80763,5181.18,-4712.66,-27342.4
5.36975e+06,59.4852,0,2.69137,10335.5,-4441.54,-23088.9
5.39859e+06,39.3721,2,2.68241,-4628.56,-4904.23,-23899.4
5.40389e+06,1.4521,0,2.38128,171.389,-302.741,-28842
5.50304e+06,24.6184,1,2.5563,4494.14,2496.04,-28126.1
5.58157e+06,18.2928,2,2.99457,-1220.36,-2093.38,-25726.5
5.58254e+06,136.817,2,2.59568,20050,-6918.31,-9292.56
5.58983e+06,21.1289,1,3.01294,1024.32,4148.74,-27655.3
5.62204e+06,187.609,0,2.94237,-19782.8,-24998.4,-5774.45
5.99766e+06,88.7703,0,3.05195,-7041.7,12439.1,-19075.5
6.13786e+06,96.2131,0,2.43808,13409.7,5450.24,-14584
6.19882e+06,9.00364,1,2.79068,1698.24,-325.642,-28214.1
6.22776e+06,38.1054,0,2.67766,978.925,5646.16,-23273.5
6.61017e+06,226.673,2,2.86023,-17028.9,5187.04,-6115.61
6.64007e+06,95.8251,0,2.39037,14477,14240.5,-27888.5
6.77189e+06,76.1246,2,2.47011,-5878.27,5320.39,-14835.6
6.7803e+06,76.7101,1,2.80671,-14287.9,2623.27,-21761.8
6.8099e+06,7.5193,2,2.97759,985.658,604.748,-27786.1
6.8452e+06,211.691,0,2.63074,-20122.3,-5232.47,-7708.33
6.90178e+06,47.5016,1,2.73037,8861.04,452.324,-24425.4
7.00261e+06,52.794,1,2.75904,-3640.19,-9200.94,-23866
7.17785e+06,82.3666,2,3.00051,-8592.18,-1680.46,-13740.8
7.40339e+06,29.0725,0,2.59337,-3423.7,-4836.58,-27237.9
7.47789e+06,97.281,1,2.73563,-8510.34,-3293.51,-10381.5
7.58487e+06,47.8764,2,2.71767,688.039,-2210.27,-18988.4
7.60983e+06,25.6403,2,2.70273,-107.396,-5451.07,-28184.1
7.70522e+06,32.5019,1,2.65985,767.573,3761.41,-23076.1
7.78891e+06,118.381,0,2.55125,4446.22,18312.9,-12713.8
7.79884e+06,100.075,1,2.88209,4513.46,5850.34,-9146.69
7.8882e+06,28.6954,0,2.9177,5689.23,-2307.13,-28240
7.90458e+06,109.671,2,2.65057,-20687.8,4117.09,-19288
7.92634e+06,133.991,2,2.58718,-21190.4,-18779.7,-26867.9
8.07093e+06,10.3579,1,2.79811,-2007.88,-716.281,-28207.7
0,10.1358,2,2.8084,0,0,0
8.07725e+06,111.129,1,2.56456,-14752.2,-17768.5,-26704.1
8.14498e+06,55.3029,1,2.72089,-9708.14,135.913,-22330.5
8.23016e+06,12.9985,0,2.36836,1982.06,875.071,-27119.1
8.2478e+06,17.9948,0,2.36293,3652.01,1453.37,-28667.8
8.25779e+06,144.811,1,2.96117,-4798.86,-29785.8,-25519.6
8.25994e+06,39.2353,1,2.90089,5405.06,-1460.95,-22794.6
8.35989e+06,160.576,0,2.6994,-22132.7,-18535.9,-11373.3
8.41832e+06,10.6851,2,2.42127,-2052.02,-1104.36,-28498.3
8.45161e+06,100.76,2,3.04974,-10518.3,-11629.2,-16480.7
8.50795e+06,67.6765,2,2.98377,12307.4,-3967.8,-23001.9
8.56255e+06,108.974,0,2.85705,8365.36,-2574.75,-7608.91
9.0483e+06,26.8988,2,2.37007,1803.14,-5381.4,-28153.1
9.08241e+06,102.398,0,2.69135,12587.1,-16124.4,-21717.1
9.09037e+06,27.6981,2,2.49753,-2350.09,-3052.83,-24348.4
9.10742e+06,19.1212,0,2.98621,1481.67,1380,-25433.6
9.2086e+06,49.6808,0,2.90989,5862.83,8475.71,-26760.2
9.24832e+06,60.1227,1,2.66796,3676.41,11609,-25198.8
9.25389e+06,98.2534,1,2.87814,-16610.8,-9698.02,-21309.6
9.27547e+06,115.784,0,2.73669,11301.2,7113.66,-8525.13
9.33676e+06,36.7673,0,2.84491,2427.41,3094.65,-22054.5
0,36.6937,0,2.93929,0,0,0
9.40632e+06,74.3062,2,2.45919,-8063.33,358.862,-17047.6
9.41616e+06,5.35481,1,2.36655,-929.844,910.789,-28532.1
9.46164e+06,62.195,0,2.52829,-2599.93,7257.46,-18514.6
9.4818e+06,104.149,1,2.55328,-7689.01,11867.6,-11931.8
9.51352e+06,84.8906,0,2.76024,1048.82,4344.16,-19169.2
9.55926e+06,25.0735,2,2.67572,-3499.45,2808.58,-26004.7
9.56188e+06,120.928,0,2.38698,22447,860.25,-16397.6
9.80573e+06,63.1,0,2.6958,-1109.72,-13102.1,-26725.1
9.8419e+06,88.1914,2,2.94627,5351.09,-11263.1,-18198.7
9.89438e+06,2.88288,2,3.02743,323.091,-362.822,-28380
0,2.88541,2,2.44382,0,0,0
9.93261e+06,69.2991,1,2.419,-7944.03,11821.1,-24909.8
1.0051e+07,175.416,1,2.98839,9507.03,-14132.1,-18828.2
1.01619e+07,8.38312,0,2.60087,1121.88,-892.224,-29941.3
1.01754e+07,83.1257,1,2.83845,13231,11244,-27328.5
1.03603e+07,32.957,1,2.4028,5488.7,4041.39,-29176.3
1.03624e+07,187.361,2,3.04224,-27995.2,-15622.8,-6099.38
1.03858e+07,50.2659,0,2.63502,-2767.24,-3433.43,-19193.7
1.0397e+07,89.6758,1,3.00772,-18664.5,-1119.97,-26245
1.04136e+07,163.503,0,2.57592,-18834.3,-24005.9,-12988.1
1.04184e+07,1.72825,1,2.77358,-318.06,-51.9596,-28564.5
0,1.64735,1,2.52326,0,0,0
1.04443e+07,4.4096,0,2.75506,547.454,830.787,-28596.6
1.04468e+07,140.435,2,2.39877,22213.9,-11110,-12440.6
1.06752e+07,6.87362,0,2.94507,-625.065,599.513,-27781.6
1.06767e+07,88.1155,2,2.83842,7821.68,9462.62,-22082.4
1.07194e+07,93.0419,2,2.69444,13371.2,-10408.2,-18908.6
1.07373e+07,31.2776,0,2.56624,1792.28,6150.33,-27025.4
1.0951e+07,115.756,2,3.00983,-3068.71,-13146.4,-8621.34
1.11436e+07,150.206,1,2.67655,583.11,7392.53,2061.74
1.13069e+07,151.838,0,2.9482,-16188.6,-26404.4,-21663.4
1.14664e+07,19.5678,2,2.76377,1866.47,-3407.88,-27586.9
1.15233e+07,58.7559,1,2.44904,7316.45,-3096.93,-19476.4
1.15458e+07,96.3759,2,2.58885,17003.6,-6765.96,-19870.5
1.16976e+07,62.2507,2,2.94654,8125.02,-9845.99,-25777.9
1.18028e+07,32.5198,0,2.84461,-3776.34,-5032,-26244.2
1.18217e+07,110.462,1,2.7745,-5215.29,16277.7,-12958.8
1.18864e+07,136.814,1,2.72587,19151.8,14100.5,-12670.2
1.18989e+07,14.0451,1,2.89784,-1364.92,-806.252,-26489.4
1.18999e+07,78.5454,0,2.64935,-4147.2,-15339.6,-24150.5
1.20415e+07,19.4919,2,2.86059,2170.6,-2189.67,-26066.2
1.20497e+07,139.037,0,2.51381,4161.99,23804.1,-11794.9
1.22928e+07,92.3424,1,2.50673,-11089.5,4978.77,-13617.4
1.25464e+07,78.7553,0,2.9867,-14948.2,2065.66,-22214.8
1.26651e+07,32.3934,2,2.8231,3360.35,-2942.35,-23691.8
1.2687e+07,84.4738,2,2.7015,-16934.7,-5450.6,-27201.3
1.29973e+07,51.8752,0,2.53006,313.806,-10553.6,-25414.9
1.30946e+07,68.587,0,2.47339,5668.84,-8936.31,-18771.6
1.32956e+07,54.6337,0,2.54894,10553,-2806.6,-24789.4
1.32993e+07,17.7239,2,2.64853,-1460.76,-2857.64,-26657.8
1.34664e+07,121.669,2,2.53744,1440.12,-10728.7,-5474.27
1.34702e+07,3.84367,1,2.39733,543.694,531.598,-28448.1
1.37377e+07,37.0604,2,3.04739,3473.22,3430.14,-23059.6
1.37467e+07,223.27,2,2.91633,-14748.6,-15624.7,12817.5
1.3826e+07,77.5355,0,2.9221,3711.52,-3976.7,-13418.1
1.38346e+07,9.24898,2,2.63949,-269.741,-844.644,-26919.3
1.38359e+07,41.8408,0,3.0598,6165.77,4538.27,-24616.6
1.40136e+07,40.8159,2,2.39174,-2930.06,-2124.78,-20971.3
1.40684e+07,83.5794,1,2.63756,972.834,17704.5,-28705.7
1.43293e+07,179.969,1,3.00341,-6382.58,15597.1,4877.22
1.4533e+07,8.0644,1,2.61195,-1007.76,1460.59,-29264.2
1.45369e+07,57.4488,1,2.52306,-4466.5,-170.839,-17558
1.47101e+07,300.757,2,2.90301,29548,23771.3,-4581.98
1.47232e+07,79.4102,0,2.82748,-4328.28,11837.1,-17910.9
1.55717e+07,23.1653,0,2.97927,1417.93,-2387.92,-25007.6
1.56103e+07,183.435,2,2.92103,-21562.2,-6990.35,-22231.5
1.58774e+07,37.0937,1,2.94632,1580.19,6673.54,-24905.9
1.58815e+07,103.008,2,2.61213,-4189.18,17408.2,-16510.9
1.59374e+07,82.1031,2,2.37311,-16879.2,-4170.73,-27195.9
1.59412e+07,194.63,2,2.86498,5835.38,-28325.4,215.773
1.60149e+07,156.973,2,2.74787,-23938.8,-22937,-28696.2
1.62926e+07,0.938894,1,2.46413,38.1626,33.0301,-28649.2
0,0.842857,0,2.86136,0,0,0
1.62975e+07,77.3586,2,2.92174,3619.22,5243.9,-27738.8
1.63318e+07,24.7606,2,3.01012,1242.11,3504.01,-25259.6
1.63839e+07,135.988,2,3.02518,-12360.3,15130,-8384.53
1.66232e+07,41.8195,1,2.73962,-3656.51,6742.13,-24544.1
1.66492e+07,166.69,1,2.87282,26419.2,-20789.8,-19334.3
1.66941e+07,61.8484,2,2.92454,-4099.46,6946.64,-18604.7
1.67168e+07,75.8517,0,2.97653,1269.95,5551.25,-13965.7
1.67352e+07,11.9976,1,2.43012,-2172.82,182.813,-28004.3
1.68218e+07,42.8221,2,2.8412,-2052.58,-6690.31,-22833.4
1.684e+07,92.0282,1,2.82841,-5354.58,-5489.4,-11189.2
1.69051e+07,156.393,2,2.94001,-19178.9,160.303,-2378.06
1.69481e+07,12.1369,0,3.01999,2267.25,-373.757,-28201.3
1.70233e+07,71.7726,2,2.55357,7799.13,-3836.7,-16529.6
1.70547e+07,31.09,1,2.57855,-6542.98,333.508,-28788.8
1.70585e+07,197.051,1,2.59673,-16058.1,-2315.82,-16726.7
1.71032e+07,39.8491,1,2.9624,-6045.52,3344.65,-24013.1
1.75311e+07,39.0412,2,2.46289,-7479.96,-2966.33,-26545.7
1.77695e+07,45.6942,0,2.84576,3888.4,-7360.32,-23938.5
1.78154e+07,68.1286,2,2.73659,-9551.39,-9270.06,-23270.4
1.78357e+07,89.802,2,2.55982,-7547.48,-16132.3,-22076.5
1.78388e+07,53.1609,0,3.02338,1599.19,7417.72,-20605.5
1.81396e+07,58.3055,1,3.0242,2602.1,10097.1,-22584.4
1.81563e+07,70.9666,2,2.46285,-4808.14,-11063.4,-19754.8
1.81566e+07,220.517,0,2.93643,26495.5,27341.9,-7958.71
1.81737e+07,167.896,2,2.51016,16036.4,-19513.3,-3813.82
1.83092e+07,14.1809,2,2.90816,126.926,-693.686,-25896.3
1.83704e+07,308.567,0,2.90211,8427.23,-11071.9,-29659
1.85174e+07,175.833,1,2.58728,27138.9,-4556.66,-3955.42
1.8529e+07,229.085,1,2.46638,-15743.8,17773.2,13191.6
1.87498e+07,5.83472,1,2.82492,-1201.17,-628.864,-28989.7
1.87653e+07,44.6156,1,2.63665,3732.22,411.454,-20193.3
1.87882e+07,92.506,0,2.95676,17215.4,-780.334,-19679.1
1.88109e+07,82.0316,2,2.38994,-4481.4,-16548.6,-25490.7
1.90534e+07,49.2405,1,2.70092,-3836.85,7317.23,-22429.4
1.91084e+07,124.805,2,2.84946,13406.8,10143.9,-8764.85
1.92446e+07,29.2889,1,2.61692,-4839.67,-4061.34,-28886.4
1.93079e+07,4.62343,0,2.40744,-148.133,721.711,-28376.5
1.93206e+07,110.16,0,2.97303,-6995.58,7060.13,-18771.3
1.9325e+07,38.2274,0,2.63694,-3590.71,-4347.02,-23079.2
1.95162e+07,87.8807,2,2.63549,-6644.11,10527.5,-15260
1.95351e+07,146.42,2,2.43756,-15125.2,9575.23,-28514.9
1.95369e+07,103.763,2,2.42363,16108.1,-7883.97,-16150
1.97096e+07,88.2726,1,2.36802,-12994.2,1556.35,-16156.9
1.9762e+07,47.915,1,2.90991,-6091.96,7257.1,-25168.3
1.98971e+07,156.852,1,2.74444,-5371.64,7856.4,-19187.4
1.99032e+07,33.5336,2,2.62398,-336.626,-7228.87,-28295.7
2.02161e+07,85.1356,0,2.68451,8021.62,-2788.52,-12972.4
2.02748e+07,165.347,0,2.75616,22923.7,3299.37,-2894.2
2.05216e+07,60.8106,2,2.83494,-1501.4,-10236.8,-21167.4
2.0752e+07,125.751,2,2.92524,21252.5,7657.4,-15250.3
2.0799e+07,45.7822,0,2.46093,7339.18,5367.77,-25296.1
2.09432e+07,56.2609,2,2.89522,-11557,-2341.98,-27460.4
2.09898e+07,27.7458,1,2.73698,-3030.56,2695.79,-24488.4
2.10275e+07,16.0064,2,2.86149,1164.96,-2250.47,-26721.1
2.10394e+07,28.2218,2,2.57654,-1105.01,-3569.12,-24042.9
2.11044e+07,39.4591,1,2.63128,-7661.86,-602.174,-25618.6
2.11165e+07,15.8815,2,2.56968,-1181.77,-2070.45,-26506.3
2.12756e+07,40.7225,0,2.8751,4176.37,-2230.95,-21804.1
2.15576e+07,62.3541,2,2.97885,476.766,-5928.66,-17135
2.15695e+07,6.8616,0,2.67526,-223.947,-956.961,-27804.5
2.16685e+07,63.8568,0,2.99043,6705.69,6825.38,-19428
2.18683e+07,3.44238,2,3.04169,-690.197,97.2545,-28578.9
2.20768e+07,19.0872,2,2.92376,-1325.41,3534.39,-27651
2.22672e+07,100.882,1,2.38855,-5931.54,11014.3,-11448.3
2.22711e+07,32.5173,2,2.78826,-6884.75,114.903,-29218.1
2.22942e+07,65.6946,1,2.79406,370.406,13067.7,-24043.2
2.23152e+07,69.2353,1,2.64348,-4653.17,8780.43,-18048.4
2.25223e+07,122.992,0,2.96105,19362,10134.5,-15126.4
2.26084e+07,46.0797,0,2.4366,9299.93,-3303.37,-27620.5
2.26093e+07,130.73,2,2.55312,24916.8,-11355.9,-25323.5
2.26342e+07,75.3111,0,2.88384,9908.03,-9320.42,-20636.1
2.26715e+07,18.9394,2,2.40276,-2907.18,225.323,-26014.8
2.27503e+07,106.447,2,2.72236,-4665.41,-21420.3,-23747.9
2.27998e+07,94.5403,2,2.44444,-9484.94,-15026.2,-19489.3
2.29708e+07,25.3071,0,2.81311,-2258.41,-2357.4,-24633.4
2.29939e+07,87.536,0,2.84816,14321.3,-8286.73,-20261.7
2.30113e+07,42.9192,0,2.53616,-17.2286,7802.11,-24026.3
2.33056e+07,40.422,0,2.89769,1357.54,6289.37,-23209.3
2.34667e+07,44.4927,2,2.74621,-2630.54,1097.96,-28137.5
2.367e+07,178.512,2,2.38411,-24289.5,-7264.69,-733.558
2.3726e+07,47.7735,1,2.87116,-2469.99,2139.97,-19324.4
2.38035e+07,8.8081,1,2.68692,-705.81,1677.23,-28138.9
0,8.7536,1,2.37351,0,0,0
2.39938e+07,66.7434,1,2.83144,25.9911,13495.3,-27331.5
2.40284e+07,139.851,2,2.73606,-5626.74,-17122.3,-5545.52
2.40666e+07,62.9041,0,2.54322,-3416.11,6150.65,-17546.1
2.40707e+07,18.4375,2,2.3811,3441.33,-393.367,-27820
2.41365e+07,121.194,0,2.58149,4890.74,-1893.08,-3732.63
2.4139e+07,14.203,0,2.3939,2611.17,-1719.15,-28917.9
2.41862e+07,133.699,1,2.53276,-15026.3,6126.75,-5630.9
2.41969e+07,82.8645,1,2.50427,4185.4,-10654.5,-16351.4
2.43886e+07,158.203,2,2.53536,-28330.9,6437.27,-12208.6
2.44037e+07,76.4906,2,2.82443,-14705,-5725.51,-25030.9
2.44237e+07,72.1404,0,2.36609,10652.4,9419.62,-23033.5
2.45499e+07,23.2318,2,2.68931,3327.29,-3023.97,-26630.8
2.45843e+07,166.207,0,2.72707,-5581.98,-15688.5,1694.82
2.47341e+07,109.09,1,2.96909,-10890.5,16150.3,-16603.3
2.49246e+07,129.014,2,2.88738,-8964.63,20168.1,-13259.3
2.50956e+07,35.5954,2,2.499,-452.779,-1668.05,-21475.6
2.51156e+07,253.115,1,2.46701,8811.04,27648.8,16218.2
2.51511e+07,166.238,1,2.85178,-8985.93,9194.53,3572.25
2.51588e+07,17.1786,0,2.82991,1299.3,1318.23,-25721.4
0,17.136,0,2.67983,0,0,0
2.53734e+07,54.8149,0,2.68277,-858.075,-10182.8,-23300.1
2.539e+07,86.6688,0,2.36774,13639.5,6774.06,-18439.9
2.54752e+07,4.7284,0,2.73524,780.893,202.627,-28774.5
2.55796e+07,143.876,0,2.80002,-26851.6,-10646.7,-19714.3
2.56103e+07,22.852,0,2.77418,3167.77,-190.753,-25151
2.57028e+07,119.034,2,2.38801,10505.5,9049.2,-7887.8
2.57651e+07,57.983,1,2.70656,-7607.97,9458.5,-26316.1
2.577e+07,200.175,1,2.93137,-18567.4,5823.58,8439.6
2.57832e+07,32.551,2,3.03873,-5225.77,-1087.02,-24432.7
2.58073e+07,19.982,1,2.66031,3285.83,-345.025,-26275.5
2.59386e+07,109.244,0,2.88749,11702.8,-17029.7,-18814.7
2.59497e+07,177.559,1,2.68067,1449.05,-9547.87,-29256.3
2.60085e+07,29.7018,2,2.74666,-1756.86,2811.3,-23544.3
2.60151e+07,143.967,2,2.9344,9499.74,-6876.23,-1008.28
2.60503e+07,250.678,2,2.79128,-48.4639,1778.84,-19326.4
2.60864e+07,51.385,0,2.60324,10098.4,4265.35,-28706.3
2.62235e+07,36.7361,1,2.41489,6240.27,-4250.78,-27203
2.6233e+07,28.1856,2,2.59158,-5110.73,-3206.34,-28101.5
2.62488e+07,3.77072,2,2.62423,-265.027,-770.732,-28644.5
0,3.8022,2,2.95409,0,0,0
0,3.78383,2,2.62761,0,0,0
0,3.7965,2,2.37966,0,0,0
0,3.81864,2,2.93941,0,0,0
0,4.48709,1,2.8765,0,0,0
2.62924e+07,44.9063,1,2.64924,7764.72,5549.92,-27954.7
2.63489e+07,37.9403,1,2.54207,-1088.32,3631.17,-21750.4
2.6358e+07,115.68,0,2.71733,16024.7,10827,-13852
2.64358e+07,89.939,0,2.81724,560.431,64.0282,-28789.4
2.64433e+07,215.765,2,2.50722,-22426.4,-28493.3,-1333.65
2.64929e+07,187.137,0,2.74471,27023.9,26842.9,-18246.8
2.65548e+07,10.1727,1,2.87704,-963.764,1621.66,-27685.8
2.6566e+07,2.55147,1,2.82996,-549.581,76.3064,-28657.8
0,2.48493,1,2.95007,0,0,0
2.66434e+07,24.7741,2,2.53886,1657.1,-2832.09,-24830.8
2.66605e+07,7.8196,0,2.61397,1269.23,1359.73,-29235.6
2.68045e+07,18.7251,0,2.63683,2655.8,-2130.74,-26616
2.69123e+07,46.4484,2,2.57705,-2976.72,-9194.78,-26891
2.70047e+07,124.171,0,2.63947,-14220,7087.2,-8002.28
2.70161e+07,57.1811,1,2.40718,-10294.7,4937.45,-24626.3
2.72149e+07,75.9116,2,2.58409,5846.53,-7884.99,-16123.9
2.73891e+07,137.977,1,3.03842,21251.7,14384.4,-15411.5
2.73926e+07,71.2244,1,2.98991,4897.15,3631.14,-15336.1
2.7407e+07,13.4825,2,2.43521,2318.47,-1608.56,-28401.5
2.74555e+07,181.594,1,2.61021,24394.5,-16211.3,-4202.86
2.74605e+07,0.505752,2,3.63538,-139.126,-36.1098,-28723.6
0,0.51993,2,3.10525,0,0,0
0,0.51512,2,3.16735,0,0,0
0,0.502577,2,2.2739,0,0,0
0,0.503811,2,4.07077,0,0,0
0,0.507131,2,3.1674,0,0,0
0,0.506517,2,3.01168,0,0,0
0,0.504071,2,2.80281,0,0,0
0,0.512149,2,2.65631,0,0,0
0,0.50586,2,3.74423,0,0,0
0,0.507827,2,2.84123,0,0,0
0,0.509285,2,3.40749,0,0,0
0,0.50392,2,3.62743,0,0,0
0,0.512259,2,2.57303,0,0,0
0,0.514398,2,3.79676,0,0,0
0,0.530675,2,3.16107,0,0,0
0,0.508061,2,3.23506,0,0,0
0,0.565042,2,3.07412,0,0,0
0,0.518628,2,3.20538,0,0,0
0,0.503207,2,2.60233,0,0,0
0,0.506264,2,3.63729,0,0,0
0,0.526444,2,2.61338,0,0,0
0,0.506839,2,2.93674,0,0,0
0,0.519465,2,3.89514,0,0,0
0,0.619707,2,3.07632,0,0,0
0,0.51154,2,3.33516,0,0,0
0,0.532605,2,2.85535,0,0,0
0,0.503848,2,2.2479,0,0,0
0,0.506286,2,3.34335,0,0,0
0,0.557692,2,3.47713,0,0,0
0,0.506977,2,4.1296,0,0,0
0,0.511977,2,3.08406,0,0,0
0,0.501685,2,3.50967,0,0,0
0,0.501327,2,2.25062,0,0,0
0,0.50434,2,3.24143,0,0,0
0,0.503262,2,3.9997,0,0,0
0,0.511439,2,3.34575,0,0,0
0,0.501652,2,3.76248,0,0,0
0,0.503349,2,2.08706,0,0,0
2.75451e+07,14.0654,2,3.04666,1328.7,277.264,-26204.9
2.76302e+07,60.393,0,2.72319,3239.56,-10325.2,-22080.9
2.76428e+07,37.5817,2,2.36394,5968.08,-1723.46,-23843.1
0,37.8694,1,2.6408,0,0,0
2.78148e+07,49.7004,1,2.39062,-6203.03,3056.5,-20760.9
2.78233e+07,71.0002,0,2.86427,7630.02,12712.5,-27337.8
2.78875e+07,235.912,1,2.73305,-25013.1,9575.35,12998.6
2.79356e+07,67.6101,0,2.56716,-7385.07,-134.562,-17225.7
2.85642e+07,45.5712,2,2.79952,-6738.75,6776.75,-28583.4
2.86574e+07,26.8173,2,2.37656,-96.6602,-3490.86,-24267.5
2.8842e+07,84.0357,2,2.94499,-3789.41,-17040.7,-26531.3
2.89041e+07,85.8384,0,2.96351,1746.96,-12239.1,-15858.6
2.90919e+07,133.142,1,2.80414,-14948.3,9999.18,-7127.88
2.91555e+07,1.95883,2,2.97192,-418.567,-255.153,-28731.6
2.93794e+07,9.18245,2,2.3788,236.832,-1975,-28496.5
2.95054e+07,62.6946,0,2.39259,6313.06,11004.7,-25303.5
2.95209e+07,59.7205,1,2.46845,-2088.03,12489.8,-27083.6
2.95953e+07,28.7597,2,2.81823,-2518.16,-532.874,-23378.4
2.97926e+07,47.2999,2,2.36896,-1852.46,646.171,-27011.3
2.99107e+07,8.59433,2,2.45343,-1431.21,380.927,-27699.6
