#class tools::wcsv::ntuple
#title time
#separator 44
#vector_separator 59
#column double eventID
#column double t(ns)
#column double copynumber
#column double energy(eV)
#column double x(mm)
#column double y(mm)
#column double z(mm)
156986,88.7064,0,2.78533,14767.4,-10801.2,-24746.5
356344,134.702,0,3.0364,24120.1,-13914,-23761
679327,62.1293,1,2.83164,-10937,730.066,-21659.4
708764,40.7227,1,2.49279,340.046,-4835.6,-21783
1.09829e+06,125.586,2,2.37115,9699.13,-19445.5,-23073.9
1.21973e+06,14.3151,1,2.38396,-2656.17,-1127.4,-29870.5
1.41892e+06,85.9014,0,2.49241,9856.7,-15301.8,-27580.7
1.87924e+06,16.4328,0,2.45813,1438.06,-2322.37,-26639.6
1.98637e+06,54.0291,2,2.60136,7718.24,-6074.03,-22990.2
2.08758e+06,59.8695,0,2.69729,4265,2478.37,-17182.9
2.32148e+06,59.8646,1,2.50545,-6895.35,-2246.24,-18421
2.82115e+06,6.84309,2,2.97437,355.214,1029.46,-27949.8
3.53652e+06,17.2862,0,2.6435,534.28,1086.88,-25508.9
3.70937e+06,196.687,2,2.78732,18640.4,-6152.69,7587.88
3.94722e+06,163.713,0,2.64735,25789.6,17360.9,-13602.6
4.00178e+06,26.5552,1,2.70554,1468.98,4359.67,-25533.5
4.07228e+06,56.8975,1,2.4111,-6835.91,-5254.65,-20420.7
4.38182e+06,6.42659,1,2.66614,-1269.5,-429.397,-29272.8
4.51562e+06,124.358,1,2.75027,-5068.28,-596.381,-22327.8
4.54376e+06,53.1275,1,2.40239,-3767.27,8756.85,-22915
4.66455e+06,116.968,2,3.0529,13410.6,-7477.75,-9757.83
4.73761e+06,7.99077,1,2.60355,-798.689,376.307,-27343.4
4.81263e+06,33.1301,0,2.69268,6576.93,-1840.37,-26940.7
4.87375e+06,5.73444,2,2.90427,-504.188,-1125.13,-28416.9
5.00327e+06,94.7195,2,2.36469,-14542.2,2105.88,-15151.1
5.1857e+06,28.726,2,2.38742,2003.23,3373.19,-26958.2
5.27923e+06,180.494,2,2.87252,-26273.4,5710.1,-2055.34
5.4359e+06,11.8312,2,2.64656,-2341.85,-1116.92,-29116.6
5.48384e+06,23.0135,0,2.71163,3967.2,-1229.29,-26215.4
5.61497e+06,97.7778,0,2.84142,20527,-1789.92,-29669.8
5.66183e+06,52.4232,1,2.85639,-4727.53,757.506,-18867.5
5.7952e+06,42.2764,2,2.39132,7623.02,-4704.49,-28471.3
6.16841e+06,12.1193,2,2.91521,-1821.01,113.167,-26984.7
6.43004e+06,30.3052,2,2.95573,-3941.04,-3051.14,-24754.2
6.48101e+06,79.824,0,2.41699,2587.92,9035.87,-14761.3
6.55556e+06,212.435,0,2.9361,-16639.1,29720.8,-137.418
6.77322e+06,72.5097,0,2.47287,13590.7,299.334,-21574.4
6.91459e+06,101.212,0,2.4979,15066.5,-15257.8,-28723.8
7.03558e+06,35.321,2,2.93825,2700.52,1789.32,-22189.4
7.07973e+06,76.6311,1,2.6423,-8098.98,3186.12,-15150.6
7.1439e+06,208.331,0,2.39925,7586.51,20189.6,9623.84
7.44492e+06,39.7452,2,2.44581,8229.6,-1637.53,-28435.7
7.51993e+06,25.1643,1,2.42272,-4304.75,-1566.55,-26028.4
7.65647e+06,12.0583,1,2.46578,-1677.04,1893.84,-28006.7
7.80049e+06,54.1111,1,2.43029,-5153.37,7274.11,-21518.8
7.99445e+06,113.004,1,2.72715,3751.84,19412.8,-15471
8.04635e+06,99.4976,2,2.67144,7817.26,7128.35,-10738.6
8.35265e+06,94.0926,2,3.01802,-16676.9,-7478.41,-21284.1
8.45824e+06,68.4969,2,2.93679,-6499.3,3020.51,-16362.8
8.59338e+06,12.8644,1,2.6798,-2272.21,1265.2,-27763.7
8.63311e+06,98.8125,0,2.8887,5094.53,-17862.6,-19466
8.63862e+06,51.7937,0,2.7185,10930.1,1263.72,-28746.9
9.14777e+06,281.721,1,2.50446,-25774.4,11901.2,23558.5
9.36262e+06,135.849,2,2.77999,25252.2,9412.65,-19461
9.418e+06,146.385,2,2.5796,-6246.53,24649.4,-11355.1
9.42254e+06,14.1825,2,2.86098,-2017.89,344.395,-26643.9
9.60748e+06,98.0145,1,2.54921,-11182.7,17364.1,-26366.8
9.64193e+06,26.5426,1,2.52621,258.399,-2991.31,-24146.2
1.01094e+07,71.3866,1,2.61683,-12233.7,-4017.06,-20926.9
1.04957e+07,105.241,2,2.46927,18190.4,7869.2,-18846.8
1.05922e+07,35.4625,1,3.00933,6203.26,1667.3,-25063.3
1.09126e+07,18.434,1,2.65229,-3493.21,-1697.91,-29377.8
1.09653e+07,21.1293,2,3.02426,-2936.05,-3355.33,-29630.6
1.1056e+07,94.4679,1,3.01136,12264.5,9955.71,-16846.2
1.13143e+07,50.4003,1,2.5467,9985.95,3738.83,-28436.3
1.15821e+07,3.45171,1,2.95087,684.749,314.484,-28871.2
1.19504e+07,20.0755,2,2.76509,215.763,-1900.81,-25648.3
1.20173e+07,84.6765,2,2.64026,-12565.7,-12831.8,-28300.6
1.24591e+07,84.6016,1,2.37382,-532.518,7416.62,-12498.8
1.26259e+07,82.2889,1,2.65502,14041.4,7732.98,-22162
1.3458e+07,12.1707,2,2.55556,-2068.58,-1010,-27523.9
1.35899e+07,3.17435,1,2.77445,87.6447,-557.331,-28582.7
1.40568e+07,43.8506,2,2.58944,-9167.4,1456.51,-28232.1
1.41491e+07,58.0119,0,2.42603,9549.5,6662.14,-24720.7
1.43346e+07,57.0913,1,2.92139,923.544,8244.74,-20118.9
1.43398e+07,143.283,1,2.97552,-20081.9,-7765.78,-7867.97
1.44108e+07,136.458,0,2.39344,4438.94,25116.1,-15223
1.4478e+07,16.8183,2,3.00561,304.498,-2556.95,-26355.6
1.47636e+07,16.7808,1,2.73585,-2662.96,-616.793,-26541.3
1.4769e+07,8.64249,2,2.64642,1651.45,-29.9839,-28090.2
1.48332e+07,69.8876,1,2.40115,7086.47,-7668.31,-18438.5
1.50887e+07,101.809,0,2.83241,5503.48,-18513.7,-19493.7
1.52278e+07,17.2605,2,2.58751,-1204.59,-3517.2,-28302.7
1.53777e+07,95.137,0,2.40405,17924.5,9290.05,-27534.3
1.58019e+07,161.597,0,2.75865,22007.2,-15905,-8225.38
1.58586e+07,80.6104,0,2.61003,5405.1,10303.1,-16353
1.61272e+07,137.637,0,2.66499,15911.8,19795.6,-14641.2
1.62632e+07,3.40518,1,2.52607,-554.865,-181.258,-28377
1.63272e+07,4.62015,0,2.9634,1066.85,-107.842,-29058.1
1.64049e+07,75.1452,2,2.96713,-5575.79,-5844.89,-15301
1.79169e+07,50.6023,0,2.94978,-3194.08,7411.95,-23192.7
1.81837e+07,140.235,0,2.62204,-10556.1,-25168.6,-17398.4
1.85247e+07,134.358,2,2.69567,-1035.49,-17247.8,-6329.52
1.8932e+07,39.9552,1,2.92358,-6249.41,781.936,-23251.1
1.90334e+07,80.5908,2,2.48287,-11592.8,977.029,-16330.2
1.90639e+07,49.5624,1,2.4984,5298.25,5568.91,-21648.8
1.91764e+07,180.129,2,2.54498,-20037,-17574.7,-1561.12
1.93203e+07,26.5425,1,2.39747,4317.07,-2792.93,-26702.6
1.95702e+07,17.9611,0,2.98337,455.82,3197.78,-26855.8
1.96336e+07,90.4059,1,3.00813,-14871.3,1780.63,-17156
1.97813e+07,171.217,2,2.43994,-6017.25,-29782.3,-8992.85
1.98871e+07,95.6418,0,2.43732,11924.4,-16286,-26695.7
2.00495e+07,23.9831,2,2.81759,1094.5,-3513.3,-25313.2
2.00689e+07,8.20583,1,2.48047,-1227.37,892.174,-27817.6
2.06967e+07,174.581,2,2.58153,25463.7,-26620.7,-26822.4
2.07414e+07,98.256,0,2.49653,7818.94,5265.22,-10280.5
2.09691e+07,5.99566,0,2.45828,-674.813,347.984,-27853.4
2.10068e+07,43.6562,1,2.39769,681.622,-8427.99,-25232.6
2.11564e+07,113.05,2,3.02821,-19815.3,-13155,-28786.4
2.1464e+07,94.7259,1,2.6865,-14863.9,3293.71,-15817.1
2.17942e+07,90.4067,1,2.5388,8247.58,-6214.99,-12783
2.22414e+07,49.0138,1,3.04056,5223.73,2108.58,-20258.5
2.23641e+07,85.2018,2,2.52986,-9280.79,-1617.97,-13441.7
2.28797e+07,84.3939,0,2.58803,11550.7,-465.711,-15194.2
2.30515e+07,35.5745,2,2.66295,-3387.17,550.2,-22130.3
2.31819e+07,106.637,1,2.37006,11609.2,8781.6,-11598.5
2.37945e+07,82.9697,0,2.38229,9284.36,10337.8,-18025.4
2.40604e+07,187.26,1,2.74214,-20078.2,28462,-10176.4
2.44005e+07,151.719,1,2.92784,-9505.65,21720.3,-8837.84
2.44953e+07,2.95174,2,2.39082,-642.032,-223.349,-28650.4
2.4565e+07,195.847,0,2.86754,19398.2,-118.697,7487.22
2.47664e+07,110.893,0,2.44966,-16719.8,3199.57,-12746.9
2.48199e+07,83.1665,1,2.95182,3502.45,855.922,-13831.2
2.49049e+07,123.406,2,2.71278,2179.09,-25968.5,-27564.1
2.53688e+07,13.442,2,3.00222,1085.92,313.708,-26253.5
2.5385e+07,4.36244,1,2.66012,-297.921,567.436,-28084.4
2.55841e+07,5.78728,1,2.86101,-709.399,1089.79,-28752.5
2.56746e+07,51.7435,1,2.685,-8171.75,3233.52,-22258.5
2.58359e+07,130.123,1,2.56329,4031.64,26427.3,-23365.1
2.60262e+07,19.9852,0,2.79577,-1987.95,-3359.55,-27347.1
2.61156e+07,54.1819,2,3.01239,-3814.62,-4960.94,-19300.4
2.64192e+07,118.533,1,2.98822,-10726.9,6142.35,-21157.6
2.64395e+07,36.8064,1,2.4845,-7356.44,928.068,-26280.5
2.69884e+07,92.6445,1,2.37063,-10715.4,13154.3,-18828.4
2.70389e+07,18.4199,2,2.58473,1320.26,-2838.14,-26471.4
2.70835e+07,85.0809,2,2.55674,9322.23,-4083.58,-14036
2.72442e+07,48.9878,2,2.78986,9213.88,-1681.08,-24537.5
2.72656e+07,18.5631,1,2.64581,-918.986,3791.65,-29768.2
2.76637e+07,69.6784,0,2.8033,-759.534,14130.8,-25034.4
2.76893e+07,85.1456,2,3.02051,-12737.8,4940.82,-17329.1
2.7808e+07,2.22801,1,2.55585,38.1591,-268.33,-28490.1
2.84951e+07,28.3007,1,2.75376,866.311,-2736.27,-23621
2.89298e+07,199.403,1,2.66174,-14013.7,-25839.5,1216.96
2.96334e+07,24.2832,0,2.55007,1405.54,-3010.77,-24857
2.98084e+07,9.88921,0,2.90668,1280.7,1161.71,-27554.5
3.00099e+07,12.3472,1,2.72103,-1825.85,1322.44,-27359.2
3.0059e+07,112.655,2,2.69329,-5947.34,-3648.64,-24133.3
3.01385e+07,54.9878,1,2.82004,3613.83,11059.8,-28515.8
3.03953e+07,59.8384,0,2.72975,7431.99,-1978.81,-18761.6
3.06179e+07,64.7307,1,2.73267,-10614.4,3515.28,-20912.9
3.08026e+07,114.651,1,2.97364,6374.91,10454.5,-8117.53
3.0885e+07,28.7874,0,2.57539,2018.44,5410.63,-26789.5
3.1009e+07,61.4427,0,2.7867,5068.99,7301.66,-19418.3
3.13291e+07,89.6341,0,2.85733,-11073.8,-173.287,-13654.5
3.16512e+07,98.6547,2,2.45618,-19579.9,6037.05,-24694.9
3.1772e+07,64.1773,1,2.68156,-8894.91,5937.43,-20455.5
3.1982e+07,67.6469,1,2.37735,2654.52,3835.1,-27067.8
3.19846e+07,158.494,1,2.48192,-25604,10540.4,-9840.4
3.23517e+07,40.681,1,2.58597,-6386.96,-1062.05,-23134
3.26433e+07,59.8203,1,2.72107,-5288.52,-4425.99,-18273.4
3.29443e+07,82.2277,0,2.72006,3332.76,1625.6,-28087.5
3.29602e+07,7.88049,0,2.78659,-329.706,494.17,-27283.2
3.29902e+07,137.885,1,2.4294,-18684.7,-10283.2,-12360.5
3.30173e+07,51.9106,2,2.5825,-5531.37,-6684.57,-21994.9
3.35772e+07,10.6103,1,2.44156,-88.3268,-1927.8,-27746.8
3.377e+07,4.64139,1,2.93039,650.017,782.115,-29009.2
3.39418e+07,90.8684,1,3.01368,-9442,14537,-20732.7
3.39632e+07,25.971,0,2.8426,-331.651,-2756.61,-24136.1
3.39666e+07,23.338,1,2.95715,-3179.36,1387.6,-25280.7
3.40398e+07,7.85068,2,2.39412,-1111.46,-1369.24,-28899.1
3.40813e+07,181.327,0,2.5531,13924,24043.9,-2395.4
3.42918e+07,30.7471,1,2.5354,1678.87,3214.64,-23408.7
3.44686e+07,18.0784,0,2.94003,3404.64,-1807.81,-28290.5
3.44888e+07,9.98305,2,2.47497,-1168.72,-918.752,-27230.1
3.51087e+07,2.44798,2,2.95804,-53.4437,-413.59,-29111.3
3.52148e+07,112.751,1,2.79727,1763.69,3190.72,-24274
3.52268e+07,30.8928,2,2.64688,1274.41,-3391.3,-23359.1
3.55192e+07,185.498,1,3.02335,12747.3,15709,3029.79
3.56334e+07,99.19,2,3.03931,1918.91,629.939,-28875.8
3.57412e+07,72.1298,0,2.87743,9672.79,11172.4,-25123.1
3.59163e+07,12.3867,2,2.85533,-1069.7,839.146,-27718.8
3.60448e+07,77.7471,1,2.56255,-9334.06,11051.8,-20873.3
3.70175e+07,58.4463,1,2.98222,-11601.9,1379.94,-25004.3
3.71673e+07,12.8624,1,2.9107,723.657,2683.56,-28516
3.73663e+07,47.6417,2,2.64264,-4232.09,-1163.76,-19755.6
3.74853e+07,113.631,0,2.6902,11159.9,11923.2,-26265.4
3.78677e+07,28.4073,2,2.951,5266.04,-1022.78,-26270.5
3.78867e+07,167.082,2,2.77112,-23198.7,-24264.4,-18032.3
3.79083e+07,83.2978,0,2.82652,3440.81,-12638.2,-17184.6
3.82065e+07,121.451,2,3.05331,-11085,8062.63,-7410.5
3.82765e+07,310.14,2,2.83433,-4973.04,14005.2,-9246.68
3.83301e+07,22.1719,0,2.69697,-2724.8,-2238.41,-25789.1
3.83473e+07,0.885814,2,2.69231,13.534,-29.247,-28637
0,0.959554,0,2.71358,0,0,0
0,0.876478,0,2.42621,0,0,0
3.84464e+07,21.003,1,2.62535,-4152.11,1518.51,-29804.2
3.87015e+07,107.254,1,3.03844,-5715.25,15415.2,-13420
3.88476e+07,91.8546,0,2.85593,9253.13,8877.85,-21592.2
3.88656e+07,18.4293,0,2.41534,-1662.71,-3497.61,-29250
3.91797e+07,1.28391,0,2.60213,-155.906,-111.494,-28723.7
3.95566e+07,205.101,1,2.72589,10139.7,25413.9,4654.87
3.98343e+07,90.9189,0,3.04451,14583.3,12226.4,-26838.5
3.98458e+07,1.68021,1,2.72353,-148.97,246.826,-28535.8
4.00352e+07,8.63299,1,2.79773,-1383.16,265.579,-27585.8
4.01305e+07,18.4642,2,2.96808,-3875.48,-441.373,-29471.9
4.04574e+07,69.7516,0,2.99915,9994.39,5579.58,-19616.1
4.08828e+07,3.78012,0,2.88547,810.884,398.681,-28817.7
4.11571e+07,28.1276,1,2.85402,-3719.76,-1412.08,-24420.7
4.1432e+07,127.236,2,2.99219,24184.2,11091.7,-28170.3
4.1585e+07,137.267,1,2.39129,-14689.6,17998.3,-11282.8
4.18883e+07,173.425,1,2.91357,6906.17,-2500.95,4075.19
4.20808e+07,102.592,2,2.63687,-13333.1,1694.86,-11808.3
4.20896e+07,137.763,0,2.42985,-21169.1,13833.5,-14456.4
4.24148e+07,43.2288,1,2.79157,-6904.23,675.112,-22866.3
4.24848e+07,35.4342,1,2.84643,7281.72,-616.225,-27501
4.27405e+07,161.301,1,2.6984,-27792.5,3686.64,-9509.02
4.27973e+07,108.474,1,2.96349,-4946.33,-9250.93,-8652.4
4.28244e+07,59.272,0,2.67727,11699.7,4538.85,-27640.3
4.28973e+07,31.1507,2,2.45098,-1767.87,-2730.8,-24364.3
0,25.8155,2,2.42652,0,0,0
4.29342e+07,0.229995,0,2.46013,130.449,-26.3863,-28790
0,0.239703,0,2.72516,0,0,0
4.31223e+07,38.6625,1,2.96443,2010.78,3963.9,-27229.6
4.31425e+07,63.8888,0,2.74377,8232.23,3025.89,-18546.5
4.38232e+07,14.8661,2,2.87129,-1670.67,-2718.75,-29426.2
4.38942e+07,283.169,2,2.97188,6734.92,-3924.31,-25707
4.40009e+07,99.708,1,2.45408,-17134.9,8298.07,-19599.5
4.41252e+07,9.45373,0,3.04967,706.817,-1488.42,-27647.1
4.41642e+07,185.839,2,2.53469,18136.5,-17176.4,1506.75
4.45872e+07,17.9915,0,2.8053,1335.96,-3603.22,-28944.8
4.47822e+07,160.69,1,2.78759,29940.8,-8532.02,-15748.2
4.51244e+07,148.011,2,2.57226,-11986.7,17955.6,-6221.89
4.52026e+07,18.9022,0,2.37855,3101.02,1083.89,-26467.8
4.6353e+07,27.0301,2,2.48744,2233.01,-655.868,-23598.6
4.63904e+07,51.432,2,2.61905,4620.08,-9859.67,-29550.2
4.66831e+07,66.6085,2,2.49364,1127.62,12932.1,-23504.9
4.73402e+07,171.068,1,2.65217,14655.4,-13036.9,1417.8
4.77624e+07,142.573,2,2.65863,-16382.5,-20348.3,-13757.4
4.78344e+07,62.4174,1,2.42946,-8026.69,-3186.8,-18885.4
4.82287e+07,24.6411,2,2.48424,137.457,-5307.82,-28604.6
4.83704e+07,67.9677,0,2.49472,12983.6,4868.96,-24753.1
4.85364e+07,160.966,1,2.67786,7263.91,23010.9,-4910.77
4.85624e+07,112.814,0,2.65432,-2183.08,21097.4,-18034.4
4.86503e+07,124.434,2,2.88502,-1728.39,-19742.7,-11693.3
4.86823e+07,13.7925,1,2.80208,345.849,-2653.05,-28090.9
4.88149e+07,130.441,1,2.9121,3104.31,22083.3,-12832.9
4.90647e+07,19.2635,0,2.70009,2560.04,696.797,-25667.2
4.93943e+07,56.3651,0,2.67363,-3193.6,-10500.8,-24281.6
4.96388e+07,83.2523,0,2.93211,10643,-6731.22,-17187.7
4.99383e+07,16.1077,2,2.66174,-2141.73,2303.38,-27552
5.02288e+07,7.87616,1,2.4385,1036.05,599.451,-27655.5
5.05771e+07,161.43,0,2.51827,5355.7,29411.8,-12296.1
5.06772e+07,12.6628,0,2.74557,2531.8,704.983,-28050.3
5.08267e+07,197.562,0,2.98922,-3153.98,16325.2,2354.67
5.09242e+07,100.698,1,2.76397,18971.1,-8524.1,-24923.1
5.09973e+07,66.3878,0,2.92181,9207.9,-8303.64,-22309.9
5.13915e+07,19.442,0,2.74492,3307.26,2568.72,-29206.2
5.1509e+07,33.6041,0,2.68127,-1853,3328.14,-22851.6
5.23966e+07,12.1909,0,3.01408,-1107.74,784.41,-26674.4
5.26865e+07,18.2185,0,2.564,902.61,-1916.5,-25589.5
5.27547e+07,27.8491,2,2.43768,56.4863,-4306.61,-24727.1
5.28079e+07,9.19741,0,2.51747,555.714,-59.0517,-26926.6
5.34381e+07,175.955,2,2.84788,-19152.6,-28651.1,-15234.7
5.38779e+07,5.47873,1,2.58478,-246.728,1091.66,-28272.8
5.40646e+07,9.91438,2,2.39232,1211.63,-1712.62,-28275.3
5.41959e+07,28.0302,1,2.57313,5558.16,2019.7,-28180.5
5.44843e+07,210.715,1,2.94778,-7527.09,22116.2,7166.27
5.4621e+07,44.189,0,2.61362,5297.4,6870.51,-25193.3
5.4934e+07,5.99462,1,2.9526,26.3652,-501.879,-27697.9
0,5.83656,0,3.00362,0,0,0
5.50268e+07,42.7938,0,3.00882,2746.82,-1896.87,-20461.3
5.54845e+07,187.044,2,2.79485,6430.54,-24087.3,-2343.5
5.55791e+07,170.695,2,3.04709,-20446.5,-3761.22,278.156
5.63663e+07,92.82,0,2.71921,4218.51,11455,-13553.9
5.63671e+07,136.031,1,2.94076,18497,-2031.17,-7290.73
5.65274e+07,64.5612,2,2.70929,8353.02,-4680.17,-19147.6
5.6557e+07,187.255,1,2.98823,11734.2,-4420.43,-4323.09
5.65714e+07,136.733,2,2.89407,25452,6208.44,-17146.5
5.66035e+07,49.8494,1,2.57851,-8158.19,4771.07,-24058.5
5.70234e+07,23.9258,0,2.42855,1746.98,-3144.4,-25196
5.75374e+07,20.0476,2,2.97734,-368.825,-2161.98,-25176
5.7589e+07,67.1409,1,2.36328,-6183.47,3651.99,-16527.2
5.75896e+07,37.5066,1,3.00305,6257.04,4292.14,-26624.7
5.79524e+07,54.7127,2,3.04616,3597.38,7018.68,-20855.5
5.81003e+07,147.818,0,2.86763,10867.5,4035.27,21.4787
5.81154e+07,4.40796,0,2.73532,475.63,-877.224,-28984.7
5.81397e+07,29.8148,1,2.7998,-3342.57,1649.62,-23735.5
5.83593e+07,21.7633,1,2.8409,1877.06,-586.389,-24719.2
5.83672e+07,49.0974,0,2.87885,8800.46,-5580.08,-28639.5
5.84611e+07,156.776,1,2.44173,-7055.95,-22215.9,-5316.78
5.85231e+07,120.54,2,2.65419,-17227.4,-13839,-16085.5
5.89464e+07,7.28203,1,2.69518,682.961,744.091,-27636.7
0,7.14753,0,2.44593,0,0,0
5.92972e+07,96.0699,0,2.70971,-15852.4,8426.87,-19617.4
5.93674e+07,94.0341,1,2.74006,-15472.8,7989.4,-19221.9
5.93695e+07,23.2807,1,2.84399,-3970.15,1782.16,-26419.8
5.94733e+07,59.3162,1,2.72396,-7959.75,-1960.16,-19370.3
5.95296e+07,0.964687,0,2.99967,110.81,-247.082,-28821.9
5.97647e+07,114.486,1,2.66385,-3918.99,-14712.8,-10153.9
5.99054e+07,127.5,0,2.71284,2236,26777,-28218.9
5.99466e+07,77.1781,1,2.6619,-10737.1,11573.5,-24451.7
6.01612e+07,99.7042,0,2.80519,19095.2,-5792.84,-22086.3
6.0196e+07,6.45552,1,2.56556,-999.273,881.193,-28318
6.03312e+07,47.8953,0,2.68607,1385.8,8722.77,-23899.3
6.07015e+07,107.096,0,2.61471,-8493.63,16023.8,-15383.6
6.07525e+07,13.6663,0,2.55817,955.933,-1087.96,-26291
6.08701e+07,120.816,2,2.49784,-19657.8,1019.71,-12524.5
6.15479e+07,132.496,0,2.98027,14395.4,-6453.32,-28721.2
6.1551e+07,149.804,2,2.68578,25993.9,-17047.2,-23062.2
6.20655e+07,22.9097,2,2.79286,-3361.85,-3605.08,-28974.4
6.20737e+07,56.1156,2,2.78329,5496.33,-10401.7,-27373.2
6.25083e+07,1.46761,0,2.82975,303.083,-210.807,-28686.4
6.25751e+07,66.249,0,2.67665,4517.97,8523.68,-18715.7
6.25884e+07,99.2587,1,2.44882,18746.7,-2888.3,-19922.6
6.28781e+07,57.7781,2,2.47675,969.824,-1996.76,-28826.2
6.32174e+07,63.6062,0,3.0348,8098.91,10659.1,-28487.9
6.34031e+07,29.8434,1,2.57803,574.648,-4852.57,-24895.1
6.36774e+07,27.382,1,3.00623,1426.49,2408.77,-23779.1
6.37263e+07,112.3,1,3.05856,-16547.8,10339.6,-15663.5
6.38096e+07,187.486,2,3.05474,-24187.8,-5288.66,1685.16
6.51788e+07,37.8239,2,2.73183,-2611.57,-4497.76,-22712.6
6.57172e+07,17.7058,0,2.62315,56.4667,3717.03,-28328.2
6.57633e+07,21.1638,1,2.56124,-1979.61,-569.741,-24843.3
6.57832e+07,6.69907,0,2.62993,-723.671,-691.07,-27904.4
6.58059e+07,79.212,0,2.56821,11132.2,-10179.9,-21408.6
6.62192e+07,0.355871,0,2.36766,121.424,72.5365,-28777.3
6.62617e+07,88.8729,2,3.04928,-560.966,-18583.9,-26737.5
6.63646e+07,122.121,2,2.46636,-7263.33,10083.8,-6190.08
6.74287e+07,30.6675,2,2.77852,-5639.31,3205.93,-28747.4
6.75517e+07,26.7439,2,2.38846,-776.843,-4672.69,-25578.9
6.76434e+07,68.326,0,2.81102,-9181.78,744.217,-17871.5
6.77205e+07,9.39778,2,2.75836,1171.4,591.876,-27423.4
6.77936e+07,77.6455,0,2.83115,15797.3,-332.164,-24397.6
6.79257e+07,111.01,0,2.95939,597.043,8443.38,-16223.1
6.8309e+07,50.2284,1,2.91188,1968.89,8547.32,-22847.3
6.85353e+07,22.4486,2,2.90097,-1583.76,-4523.43,-28538.1
6.86962e+07,17.4196,2,2.59461,-1559.63,-2368.49,-26380.2
6.89338e+07,275.742,2,2.59848,1726.09,-17082.6,-15437.5
6.8965e+07,47.9607,2,2.98035,2667.78,-137.696,-19950.2
6.89971e+07,40.4938,0,2.99609,5816.76,6038.57,-27065.4
6.90384e+07,12.1654,1,2.95905,-2181.94,1400.32,-29428.8
6.9485e+07,172.349,1,2.39504,-6327.79,-17838.8,2326.57
7.01436e+07,58.7341,1,2.45725,-6587.02,10395.2,-26560.3
7.0255e+07,69.8434,1,2.56684,-7567.1,4578.68,-16940.2
7.0491e+07,62.3587,1,2.83572,6617.27,5727.76,-19046
7.08499e+07,148.362,2,2.86239,9001.48,-22209.5,-9601.68
7.09684e+07,23.3486,2,2.90789,-1321.81,-4789.44,-28486.7
7.11733e+07,9.17739,2,2.86212,1254.23,-621.863,-27468.1
7.13267e+07,17.8703,2,2.80119,3685.87,-303.452,-28235.1
7.18659e+07,15.1473,0,2.70569,32.2571,-1493.92,-25983
7.18861e+07,6.61246,1,2.59326,-498.306,1425.7,-28810.3
7.23198e+07,32.7274,1,2.75794,6354.19,2526.77,-27797.6
7.24951e+07,18.4951,1,2.84577,-2004.65,1685.07,-25860.6
7.31213e+07,79.0271,2,2.42647,2959.2,-6514.01,-13685.4
7.33513e+07,45.4016,1,2.79247,-7801.94,-1551.38,-23464.3
7.33891e+07,54.4779,2,2.57955,9866.49,-5958.56,-29177.3
7.36222e+07,45.2953,1,3.02028,550.233,-4732.92,-26786.3
7.36633e+07,55.825,0,2.91061,9580.06,-6655.65,-26896.4
7.37869e+07,2.79056,0,3.02018,448.044,-381.206,-28541.6
0,3.34824,1,2.96139,0,0,0
7.38473e+07,65.821,2,3.0025,-6489.7,11867.2,-26236.6
7.42802e+07,2.41221,1,2.54846,-14.2258,-243.085,-29127
7.58619e+07,13.0681,2,2.93472,-1962.21,-573.307,-26952.9
7.59005e+07,196.258,0,2.74677,-12400.8,-28690.5,-1811.74
7.62312e+07,15.8754,2,2.59737,-1429.21,-2983.82,-27815.9
7.67417e+07,40.7937,2,2.44402,-1576.4,-8542.55,-27878.3
7.72358e+07,53.518,1,2.40514,-11120,118.668,-28990.1
7.72678e+07,55.9755,0,2.67306,9876.45,6363.1,-27171.3
7.7444e+07,41.2699,2,2.549,-1188.86,-8570.42,-27056.4
7.75502e+07,59.0868,0,2.54792,-5204.29,4671.85,-18528.9
7.7619e+07,284.393,1,2.96688,12132.4,-13545.2,7814.38
7.76953e+07,4.18974,1,2.81762,-884.853,206.869,-28511.1
7.79996e+07,304.401,1,2.94868,6444.16,10548.4,-29734.8
7.82337e+07,64.6832,2,3.02559,-6670.96,-11766,-27172.6
7.82942e+07,204.452,1,2.8464,23741.6,5903.18,3743.1
7.8856e+07,43.1646,0,2.51916,3181.88,-5578.82,-22310
7.9126e+07,37.0399,2,2.98966,3515.64,1338.18,-22079.6
7.91537e+07,75.7477,0,2.93013,200.241,13071.9,-19771.1
7.933e+07,57.8441,1,2.52521,1860.36,12130.5,-29663.9
7.94849e+07,54.5036,1,2.77746,-3014.71,1346.61,-29564.1
7.94972e+07,209.42,0,2.60261,-4386.38,2758.83,9797.63
7.96189e+07,136.838,2,2.80574,19123.4,-21588.4,-28836.9
8.00239e+07,4.27917,1,2.39991,-748.879,-463.546,-28587.5
8.05609e+07,28.2928,2,2.93978,-5858.7,989.796,-28003.4
8.06298e+07,75.0507,2,2.92466,-11882.9,1982.64,-18621.6
8.07455e+07,13.9395,1,2.37476,850.225,1141.28,-26215.7
8.11216e+07,53.1604,0,2.53212,7774.52,5302.01,-22561.8
8.1391e+07,5.51432,2,2.89543,574.928,41.5537,-27825.2
0,5.63841,1,2.95046,0,0,0
8.17125e+07,22.9161,1,2.86167,-3944.66,-965.741,-26157.1
8.17572e+07,120.565,2,2.73111,-2677.02,-18775.8,-11849.8
8.17784e+07,21.7123,0,2.88651,-2433.6,-906.897,-25127
8.17859e+07,145.322,2,2.79653,-12345.2,-11336.9,-3216.34
8.18424e+07,123.496,0,2.54242,-20049.5,15377.9,-22461.3
8.19304e+07,36.0447,0,2.40324,2793.2,2025.89,-25637.9
8.19925e+07,92.2143,2,3.03705,2734.9,-17411,-20826.3
8.22128e+07,19.5245,0,2.8821,1112.69,3969.11,-29208
8.25136e+07,6.27783,0,3.01032,1268.23,-197.148,-29474.4
8.25237e+07,80.1564,2,2.96823,229.71,-14408.3,-20016.1
8.27364e+07,129.147,1,2.64724,-15139.6,1582.12,-21170.9
8.27556e+07,4.69897,1,2.89952,-723.777,-575.143,-28463.5
8.27688e+07,1.80212,2,2.8769,52.622,-292.095,-28524.5
8.31139e+07,60.4065,1,2.69793,6005.75,-5631.74,-21699.7
8.35344e+07,5.99048,2,2.56991,-169.319,-893.066,-27857.5
8.40009e+07,3.23053,1,3.0448,-587.286,474.115,-28626.6
8.40866e+07,15.6468,1,2.65588,503.192,3238.5,-27990.3
8.43485e+07,316.429,0,2.78564,3942.94,-351.203,-21605.8
8.439e+07,25.9586,1,2.68349,-1507.41,4949.47,-26747.2
8.46033e+07,7.22717,2,2.62922,216.266,-1505.64,-29409.1
8.46965e+07,50.8297,0,2.67466,3597.22,-9499.64,-25214.8
8.48046e+07,125.926,2,2.69464,-8303.89,-25001.4,-24883.9
8.50119e+07,154.396,2,2.58784,11796.1,-24895.4,-11329.4
8.53661e+07,40.1417,2,2.6942,-5601.75,-5791.48,-25920.5
8.56159e+07,232.114,1,2.93899,-27488.4,-10588.6,9959.82
8.56886e+07,102.581,0,2.39397,7513.65,-6530.69,-9498.74
8.59331e+07,141.858,2,2.83389,-22443.8,-19306.8,-24431.1
8.61526e+07,20.8764,2,3.05403,4151.64,5.93529,-27491
8.62603e+07,5.47526,1,2.88859,910.136,-471.155,-28428
8.65227e+07,43.619,0,2.88119,4365.99,-7559.74,-25814.7
8.6684e+07,58.6435,0,2.88562,6970.56,-6578.08,-21007.6
8.67034e+07,106.683,0,2.51119,-20309.5,-3616.51,-19881.2
8.72161e+07,151.285,2,2.50617,-10215.2,-5692.88,971.31
8.76408e+07,61.8938,0,2.48444,3890.96,-912.621,-26937.7
8.8188e+07,37.1571,0,2.45487,-1115.66,3945.44,-22147.4
8.82488e+07,0.489775,0,2.48193,37.4204,121.887,-28791.2
0,0.337219,1,2.72131,0,0,0
0,0.369543,1,2.56988,0,0,0
0,0.321778,1,2.72378,0,0,0
8.84315e+07,149.851,2,2.40362,-14668,-27115.8,-21001.7
8.87935e+07,76.1534,0,2.46597,-12191.6,3200.92,-18917.1
8.8811e+07,5.71134,0,2.86142,-138.674,1112.14,-28352.8
8.88644e+07,27.4216,2,2.5117,-5667.65,-1022.28,-27637
8.8988e+07,37.5933,1,2.62915,3175.16,-2626.28,-22108.6
8.90265e+07,35.7752,0,2.56678,3195.82,-206.827,-22731.3
8.90755e+07,48.9726,2,2.8687,7212.28,-7286.43,-27758.4
8.90908e+07,67.3928,1,2.95962,-11998.8,-671.964,-21299.5
8.92e+07,135.614,1,2.82922,20011.6,-7537.29,-10818.1
8.96441e+07,73.4397,2,2.75405,10062.2,-1576.99,-21209.9
9.0126e+07,23.9943,2,2.73225,4649.54,-1915.55,-29529
9.02345e+07,39.2103,1,2.42368,3015.76,7819.46,-28733.1
9.07272e+07,45.5398,0,2.59963,6376.2,7300.35,-29267.7
9.08695e+07,48.1736,1,2.87728,-7050.25,2053.25,-28441.7
9.1046e+07,56.8664,1,2.72899,-5357.93,181.236,-18100.7
9.12702e+07,26.0857,1,2.67337,-4642.02,2612.46,-27092.4
9.16704e+07,41.1407,2,2.68795,2571.81,-7436.91,-24997.6
9.16987e+07,109.993,1,2.51092,-9801.73,-20987.1,-27166.3
9.19707e+07,29.582,0,2.85098,771.939,-4963.68,-25113
9.21832e+07,14.8662,1,2.41677,-2936.8,419.027,-27565.5
9.22307e+07,114.048,0,2.91957,-20444.2,-10675.3,-22664.8
9.22382e+07,54.2569,2,2.98854,-10511.4,1183.93,-24552.5
9.32097e+07,22.5906,0,2.66713,4781,-254.929,-27875.7
9.34178e+07,136.41,1,2.71753,-16185.9,2130.91,-23945.3
9.34184e+07,6.30321,1,2.74214,-151.868,-1183.39,-28365.9
9.39816e+07,125.619,1,2.67644,11536.8,23857,-27229.2
9.40151e+07,58.5633,1,2.93331,4537.42,6797.6,-19613.6
9.43399e+07,48.3813,1,2.45176,8799.65,-4757.22,-26898.7
9.43618e+07,43.8137,2,2.5008,-6113.62,6951.7,-28470.5
9.44385e+07,12.7895,2,2.64277,-2606.52,859.184,-28698.6
9.46451e+07,16.4637,0,2.51832,-1052.95,1598.53,-25925.3
9.48112e+07,36.4439,2,2.839,198.936,4793.09,-22883.1
9.50951e+07,18.3327,2,2.45265,-2502.08,-1278.53,-26056.5
9.55132e+07,5.71132,0,2.52041,-808.185,701.794,-28386.7
9.55448e+07,142.883,2,2.84972,26353.6,-5239.77,-15541.8
9.56288e+07,85.891,1,2.73977,16464.2,5061.83,-23277.6
9.61327e+07,30.3591,1,2.78428,1381.34,3159.11,-23424
9.65459e+07,57.862,2,2.56576,12124.8,-1386.35,-28103
9.66118e+07,13.9321,1,2.49851,-2675.66,641.551,-27560.2
9.70941e+07,173.562,0,2.48355,28741.2,-18894,-17482.6
9.70976e+07,19.3941,0,2.44257,933.512,-71.3169,-29011.5
9.71113e+07,31.4463,2,2.40569,3996.23,-3281.6,-24634.5
9.73648e+07,12.3597,2,2.95124,-946.46,-1084.29,-26620.5
9.75473e+07,14.9687,0,2.60872,1954.65,1019.04,-26466.7
9.7649e+07,4.27421,0,2.59595,923.322,-424.15,-28765.5
9.83102e+07,19.7468,0,2.85931,281.623,-4027.1,-29912.7
9.84736e+07,15.5371,1,2.64571,1163.41,-1985.29,-26577.2
9.86423e+07,35.8222,0,2.57086,1606.62,-7316.01,-27407.8
9.91385e+07,291.328,2,2.55277,26249.9,-26196.5,20329.2
9.93237e+07,68.1758,2,2.38793,-8056.5,2248.59,-17046.8
9.9354e+07,57.8315,2,2.88302,2199.31,-10354.1,-22722
9.96302e+07,40.0901,0,2.91587,-4170.22,-3233.16,-22317
9.96588e+07,12.3983,0,3.04462,1443.17,-1413.2,-27125.8
9.97016e+07,41.9169,0,2.95971,5535.25,3630.47,-22958
1.00156e+08,78.5845,1,2.80441,-3605.91,16027.7,-26350.6
1.00556e+08,0.991838,1,2.75255,-192.424,-19.5616,-28668
1.00954e+08,20.6372,1,3.04547,-51.357,2707.61,-25384.3
1.00961e+08,106.563,0,2.80036,4758.34,9802.58,-9204.51
1.01057e+08,130.553,1,2.38623,-23622.3,-5176.96,-15383.7
1.01644e+08,117.025,1,2.9667,-16076.5,15355.9,-18215.5
1.0172e+08,11.5444,1,2.63836,-2482.26,344.051,-28652.8
1.01731e+08,37.7985,1,2.68954,-4634.42,4323.28,-23871.4
1.01756e+08,34.203,0,3.04219,2770.82,6241.22,-26495.7
1.01793e+08,86.5129,1,2.82309,-10947.9,-11007,-19376.2
1.01798e+08,22.6097,2,2.75703,2029.94,-3615.28,-26360.8
1.01906e+08,17.1829,1,2.89548,191.415,3691.4,-29235.4
1.02017e+08,257.137,1,2.66677,-19195.9,23640.9,16074.7
1.02099e+08,37.5039,2,2.58842,7335.29,1224.23,-26252.6
1.02238e+08,163.684,1,2.98671,-13307.7,-13226.2,-107.096
1.02327e+08,38.7186,2,2.42607,-4810.59,-2523.8,-23671.7
1.02721e+08,127.135,2,2.50314,-8486.78,7002.47,-27400.2
1.02769e+08,282.03,1,2.77577,-3052.78,-1675.17,-20745.2
1.02866e+08,15.3776,0,2.70508,1803.73,-2684.02,-29602.9
1.02935e+08,79.4593,1,2.54235,-7664.59,-11803.8,-19747.9
1.02938e+08,23.0742,0,2.9108,-1921.74,1778.31,-25761.4
1.03332e+08,40.2251,0,3.05591,-3601.8,7419.77,-27156.3
1.04085e+08,51.6263,2,2.63676,-4113.95,-2695.86,-19089.8
1.04602e+08,5.92062,1,2.88411,539.868,-768.761,-28081.8
1.04701e+08,8.5127,2,2.97364,-557.594,-274.564,-27142
1.04781e+08,53.6646,2,2.56921,-6463.47,-1292.78,-19555.7
1.04808e+08,40.5929,2,2.47368,3531.48,-1225.2,-21121.1
1.04813e+08,44.0264,1,2.84921,-1182.46,5153.97,-21210.1
1.04968e+08,15.1452,0,3.01877,2076.77,-2326.85,-27889.2
1.05129e+08,261.665,1,2.44196,-29524.4,-4431.03,17781.7
1.05386e+08,19.0703,0,2.56397,-2715.99,-280.953,-25898
1.05432e+08,172.613,0,3.02894,26561.8,-12715.5,-7731.38
1.05543e+08,32.0951,1,3.03944,3899.03,5096.97,-26669.9
1.05871e+08,188.869,1,3.00234,-10148.4,-18092,4842.48
1.05969e+08,104.683,1,2.77064,-15672.4,11704.9,-18505.1
1.06017e+08,51.8525,2,2.81766,-3940.63,-7326.88,-21653.8
1.06265e+08,19.4296,0,3.00043,2358.28,2926.71,-27100.8
1.06908e+08,71.1421,1,3.0252,-3423.35,6085.31,-15623.3
1.06923e+08,6.61917,0,2.61741,1182.47,-19.0363,-27960.5
1.06944e+08,277.384,2,2.37541,8556.84,-18198.5,-3450.77
1.06989e+08,75.7901,1,2.46546,-8548.4,-6776.2,-17089.4
1.07171e+08,45.7061,2,2.38867,5286.97,-8144.55,-29197
1.07868e+08,110.536,0,2.53721,16880,4691.81,-13264.7
1.07942e+08,2.99368,2,2.79998,-489.446,112.6,-28412.4
1.08371e+08,66.0271,2,2.69275,-6495.17,-11693.4,-24697.2
1.08843e+08,80.2364,0,2.42092,14650.8,-6403.1,-22887.7
1.08906e+08,65.7429,0,2.86493,7530.34,-11326.3,-26051.6
1.09397e+08,42.5761,0,3.02014,6654.44,-5621.66,-26556.4
1.09434e+08,75.8903,2,2.67181,13543.6,8397.68,-28454.3
1.09726e+08,243.083,2,2.85206,-19861.4,7494.06,16310.4
1.10268e+08,96.6374,2,2.58125,-13902.3,-8970.91,-16744.2
1.10372e+08,17.8077,0,2.89865,238.679,-2709.72,-29692
1.1049e+08,54.5832,0,2.85121,-9900.45,3282.33,-24212.7
1.10519e+08,9.32636,2,2.94159,-1281.98,-792.818,-27495.3
1.10597e+08,16.1733,2,2.71435,-1644.33,-2854.18,-27667.5
1.11204e+08,15.3989,1,2.95246,-2955.98,-825.914,-27776.7
1.11547e+08,134.903,0,2.52824,11245.1,11604.5,-5303.09
1.11651e+08,38.093,1,2.5581,5256.5,3181.1,-23587.7
1.11754e+08,158.428,2,2.66318,17993.8,-28123.7,-26332.3
1.12097e+08,98.8097,0,2.50137,-12587.5,-1002.64,-12267.3
1.12418e+08,46.1943,0,2.84818,-8294.92,4330.9,-26488
1.12582e+08,28.7224,1,2.58244,2923.25,4582.21,-26073.3
1.12671e+08,23.6951,1,2.80206,4295.82,1770.61,-27021.7
1.12891e+08,38.7561,2,2.85454,-1422.1,-8095.52,-29628.8
1.12969e+08,269.261,1,3.0198,-6199.44,-24354.6,21639.5
1.13166e+08,45.8402,2,2.95181,-6152.19,-2482.06,-25809.9
1.13408e+08,79.8569,0,2.83981,8524.43,10848.4,-19190.7
1.13463e+08,88.7469,0,2.72278,10075.1,6163.56,-14274.7
1.13521e+08,37.7794,2,2.68759,-3600.24,2708.17,-22262.9
1.13524e+08,30.6114,0,2.50761,-2379.86,-5881.38,-27640.4
1.13896e+08,14.3325,1,3.00604,2841.73,889.508,-28450
1.14148e+08,102.364,0,2.48869,11348.4,-18503.5,-28358.5
1.14155e+08,65.4793,0,2.92759,3275.95,-8689.5,-18661.1
1.14408e+08,52.4929,1,2.70957,-5267.2,7216.56,-23959.8
1.14943e+08,136.521,1,2.39652,-22047.8,18113.9,-23876.8
1.15168e+08,84.7249,0,2.55891,17679.1,-966.36,-25537
1.15183e+08,53.8216,2,2.52437,-10064.4,5029.92,-26954.2
1.15453e+08,33.1774,2,2.58656,-6282.55,-3202.09,-27963.3
1.15599e+08,61.9234,2,3.02157,5763.77,5154.98,-18491.7
1.15783e+08,58.7779,0,2.45857,2785.06,-5813.61,-18175.7
1.1581e+08,78.0282,0,2.62452,-5066.23,6161.21,-14452.7
1.16136e+08,46.9584,1,2.46853,6112.85,-274.16,-21029.4
1.16161e+08,38.2772,0,2.59772,-485.235,7030.59,-24812.1
1.16325e+08,133.781,1,2.45,-791.553,27995.7,-24203.6
1.16442e+08,8.4546,1,2.89716,427.657,1736.38,-28333.1
1.16457e+08,143.731,1,3.01347,1303.02,26404.9,-14293.4
1.16953e+08,109.948,0,2.75755,-5732.66,13429.2,-10897.8
1.16962e+08,77.2826,1,2.74229,15627.6,4219.47,-27290
0,80.6006,1,2.74229,0,0,0
1.17179e+08,48.1356,2,2.86932,2406.97,-5126.55,-20400.4
1.1719e+08,89.6439,1,2.5326,-8156.72,2376.81,-11850.4
1.17471e+08,167.548,1,2.76332,13386.6,-9861.51,2217.73
1.17504e+08,81.4821,1,2.61406,-10622.6,-11376.4,-21479.3
1.17576e+08,26.8841,1,2.55886,-778.427,5474.58,-27202.4
1.1776e+08,195.277,2,3.03126,-23017.8,15060.5,1449.9
1.17918e+08,33.9357,0,2.7243,5540.96,1891.69,-24606.3
1.18075e+08,29.4146,0,2.64525,4770.52,-3443.41,-26573.8
1.18166e+08,55.6338,2,2.52428,-9376.07,2744.06,-22216.1
1.18357e+08,77.6899,2,2.63682,6228.62,-9599.79,-17083.5
1.18563e+08,59.5039,2,3.0404,-2997.92,-10489.4,-22611.8
1.18683e+08,125.886,2,2.52156,-9099.11,-21970.3,-16705.8
1.18774e+08,26.0327,1,3.03394,-1331.1,-4624.84,-26327.8
1.18806e+08,122.587,2,3.05988,-6985.81,15996.1,-21405.1
1.19189e+08,29.2097,1,2.99082,2824.09,-2572.98,-24083.5
1.19362e+08,108.155,0,2.66213,21783.8,-1087.69,-22069
1.20095e+08,76.2121,2,2.75674,3056.06,12644.4,-19508.1
1.20285e+08,31.6883,1,2.61452,309.101,6528.02,-27118.5
1.20791e+08,146.089,0,2.75702,22256.8,-2757.63,-12434.9
1.21129e+08,16.2339,1,2.96458,-1108.64,3183.1,-27878.1
1.2115e+08,5.8334,1,2.69536,-812.235,779.384,-28201.9
1.21577e+08,59.9628,1,2.84052,3678.59,10883.9,-23510.4
1.22065e+08,126.743,0,2.7429,-18364.2,-8879.37,-11829.3
1.22108e+08,14.3089,2,2.74075,2543.69,1210.2,-27856
1.22291e+08,51.4311,1,2.64604,-6519.35,36.3162,-20133.4
1.22351e+08,85.2607,0,2.9308,11503.8,-3384.73,-15460.3
1.22402e+08,44.4073,0,2.70216,-5410.67,6881.67,-25553.2
1.22504e+08,57.0568,0,2.42369,4184.64,-1335.71,-17574.6
1.22588e+08,46.0104,2,2.47775,-3851.16,777.543,-19900.7
1.22706e+08,134.157,0,2.92218,-7008.09,24701.1,-17315.7
1.22832e+08,68.8109,1,2.97713,-13359,5546.28,-27456.9
1.22964e+08,95.7469,0,2.80971,-14997.2,8604.91,-18617.3
1.22983e+08,67.1715,2,2.84626,6335.81,-12534.1,-26792.3
1.23033e+08,9.51238,0,2.53048,1790.66,-53.4564,-27768.1
1.23253e+08,55.9896,0,2.99504,1887.12,-1163.16,-24022.4
1.23343e+08,139.943,2,2.70878,-2893.88,-21321.1,-8586.28
1.23483e+08,281.43,0,2.5884,23223.5,1563.27,6343.27
1.23723e+08,49.6882,1,2.48104,-6698.72,-7006.6,-24768.3
1.2376e+08,180.29,2,3.03253,29339,-15802.7,-11062.8
1.24131e+08,158.042,1,2.58258,-19977.1,-19278.1,-10275
1.24215e+08,42.1057,0,2.76036,5468.44,-6650.11,-26387
1.25016e+08,147.406,1,2.99238,177.822,1919.82,-27213.2
1.25247e+08,81.6865,0,2.78482,-9478.72,-8246.86,-17134.7
1.25247e+08,18.6585,0,2.42957,-2887.34,-423.157,-26232.6
1.25327e+08,139.172,2,2.88094,-10457,-8315.92,-2786.47
1.25411e+08,129.108,2,3.0591,5444.22,16062.6,-7818.63
1.2564e+08,145.156,0,2.66744,10950.4,-12042.6,-2869.76
1.2568e+08,58.4642,1,2.8361,4905.94,3697.13,-18161.9
1.25936e+08,88.9876,1,2.88919,-8161.8,10571.3,-15682.6
1.26462e+08,98.9941,0,2.82766,-17517.8,-2579.78,-18020.3
1.26466e+08,92.988,0,2.75425,5660.02,-8908.35,-12305.6
1.26756e+08,56.4575,2,2.41218,-11982.5,245.247,-28423.4
1.27059e+08,102.74,0,2.69701,11650.5,-15365.8,-18826.9
1.2746e+08,71.5669,2,2.55157,-451.982,-9761.54,-17224.1
1.27674e+08,60.6207,0,2.96785,5912.04,-893.664,-17571.3
1.27844e+08,64.6407,1,2.38567,-10692.8,8416.98,-26655
1.27902e+08,48.6451,0,2.38854,2524.98,7818.12,-22553.4
1.28394e+08,13.4635,2,2.85178,194.601,2268.72,-27233.5
1.28519e+08,98.0004,0,2.7013,-7337.58,6679.13,-26918.8
1.28605e+08,153.945,1,2.61404,18865.2,19044.1,-10430.4
1.28656e+08,57.1102,0,2.86409,1697.49,-9450.89,-21575.8
1.29207e+08,248.287,2,2.53593,-26600.3,-11792.7,14850.8
1.2954e+08,1.31607,0,2.98112,380.864,-60.5015,-28871.4
0,1.31884,0,2.94358,0,0,0
1.29569e+08,147.429,2,2.56342,-11288.1,15960.4,-4588.11
1.30119e+08,59.0303,0,2.87705,6414.44,7228.33,-20993.6
1.30269e+08,114.775,2,2.50968,-16454.8,1872.41,-11038.9
1.30842e+08,231.773,0,2.9257,-20800.7,-22518.6,-12652
1.30945e+08,8.53683,2,2.42869,-599.497,1410.41,-27943.7
1.3137e+08,56.5767,0,2.51998,10034.1,-4486.15,-23876.7
1.31466e+08,119.93,1,2.48206,-18447.2,9495.96,-14121.1
1.31599e+08,15.0381,1,2.88296,-2247.08,2215.12,-27969.9
1.31649e+08,2.42828,2,2.6627,-576.926,-95.6148,-28889.7
1.32492e+08,26.4227,1,3.04633,3070.61,4225.36,-26861.6
1.32494e+08,46.672,0,2.97272,5589.49,421.215,-20737
1.32883e+08,63.3503,0,2.97678,11845.2,6216.02,-28337.8
1.3338e+08,42.8357,1,2.93309,-2160.9,-4566.63,-21426.9
1.33551e+08,256.999,1,2.78308,-6100.64,22807.4,11582.6
1.33566e+08,22.3296,1,2.64906,3813.02,-797.255,-26201.9
1.33652e+08,8.48358,1,2.64247,802.904,1455.64,-28013
1.33783e+08,112.002,2,2.943,-875.986,13372.2,-9547.95
1.34027e+08,100.157,0,2.37351,16473.2,11986.8,-22670.3
1.34165e+08,103.001,0,2.64329,8208.13,6404.21,-9741.23
1.34221e+08,82.0668,1,2.79079,-10309.8,10490.8,-19624.7
1.34384e+08,2.59172,1,2.69393,-84.7812,607.375,-28980.3
0,2.41771,1,3.03049,0,0,0
1.34799e+08,20.5055,0,2.47485,759.124,3077.88,-25863.8
1.34989e+08,23.8913,2,3.03595,3048.99,-922.236,-24949
1.3503e+08,124.132,0,2.49978,3954.5,-18360.1,-10465.5
1.35176e+08,158.035,1,2.94403,2731.94,28345.4,-11700.5
1.35216e+08,31.1054,2,2.55868,4381.96,783.536,-23999.4
1.35304e+08,182.038,0,2.91023,4696.05,-19298.7,3459.04
1.35316e+08,36.6502,2,2.97301,5936.25,196.665,-23975.1
1.35462e+08,136.576,0,2.93817,-21429.5,1833.65,-21179.5
1.35781e+08,0.0468357,2,2.49807,-13.24,-65.6847,-28801.8
0,0.0602805,2,3.81936,0,0,0
0,0.0480687,2,2.57144,0,0,0
0,0.0465981,2,3.50254,0,0,0
0,0.0771793,2,3.06734,0,0,0
0,0.0757061,2,3.93321,0,0,0
0,0.0542564,2,3.65188,0,0,0
0,0.048399,2,2.18045,0,0,0
0,0.0685306,2,3.17532,0,0,0
0,0.0727514,2,3.79826,0,0,0
0,0.0800913,2,2.94557,0,0,0
0,0.0747598,2,3.46015,0,0,0
0,0.0791206,2,3.149,0,0,0
0,0.0533382,2,2.75207,0,0,0
0,0.0710159,2,2.3984,0,0,0
0,0.0553211,2,3.41911,0,0,0
0,0.0568128,2,3.38862,0,0,0
0,0.102087,2,2.0749,0,0,0
0,0.0526666,2,2.81502,0,0,0
0,0.049966,2,3.87484,0,0,0
0,0.0495577,2,2.86367,0,0,0
0,0.0803152,2,4.07862,0,0,0
0,0.0502032,2,2.60063,0,0,0
0,0.0486363,2,3.6943,0,0,0
0,0.052631,2,3.19047,0,0,0
0,0.119969,2,2.56769,0,0,0
0,0.0484591,2,3.66157,0,0,0
0,0.0740218,2,3.51897,0,0,0
0,4.00483,2,2.09925,0,0,0
0,0.0721194,2,2.67804,0,0,0
0,0.0675701,2,3.60488,0,0,0
0,0.0514738,2,2.18495,0,0,0
0,0.588024,1,3.63297,0,0,0
1.36207e+08,94.7909,2,2.88871,8603.73,-12771.6,-16151.1
1.36226e+08,104.298,1,2.73644,-9133.66,18899.7,-22079.9
0,105.279,2,2.9973,0,0,0
1.3668e+08,89.3851,2,2.46592,7849.57,-10003.2,-14827.6
1.36709e+08,43.9671,0,2.88474,2865.08,4990.7,-21546.9
1.36722e+08,46.6877,0,2.59896,5519.89,408.204,-20608
1.36772e+08,94.7669,2,2.76626,17124.7,-9401.9,-24728
1.36985e+08,155.906,2,2.7804,-27489.7,-10042.9,-13903.5
1.36989e+08,137.514,1,2.9978,-4506.41,27480.5,-21079.1
1.3709e+08,169.073,2,2.67834,28138.8,8541.08,-8746.06
1.37173e+08,68.7076,1,2.62183,-13508,2179.67,-23792.3
1.37431e+08,67.66,1,3.00247,-14012.6,-1501.41,-26788
1.37611e+08,140.613,1,2.93402,-21051.1,-12998.4,-12722.8
1.37764e+08,161.075,1,2.80184,-27397.4,-14153.3,-14776.3
1.38077e+08,36.075,2,2.36828,1685.45,-7412.23,-27440.5
1.39157e+08,23.6507,0,2.87192,3793.33,-3348.91,-28518
1.39163e+08,150.522,2,2.74047,-14394.9,-8754.81,-29051.9
1.39381e+08,134.027,0,2.59238,22198.2,-17547,-26427
1.39509e+08,174.991,1,2.83535,5972.09,17787.8,2686.21
1.40116e+08,107.827,0,2.43541,-10090.5,-12298.9,-12527.3
1.404e+08,116.124,2,2.71157,11897.9,-764.184,-7587.22
1.40404e+08,17.9602,0,2.65438,-2352.15,-2315.7,-27066.4
1.40428e+08,58.0459,1,2.40371,-3066.01,11432.2,-25241.3
1.4051e+08,51.2623,1,3.03778,-4752.58,9602.43,-27100.1
1.40612e+08,41.9062,0,2.88338,3541.44,-2664.74,-21183.4
1.40683e+08,39.9855,0,2.99073,3328.31,-1772.08,-28315.7
1.41328e+08,142.711,1,2.66999,-25919.7,5287.34,-14358.9
1.41494e+08,56.2564,0,2.66901,4583.29,-7610.25,-20883.5
1.4176e+08,64.1151,0,2.71116,11571.3,-2196.66,-22043.6
1.42156e+08,80.3477,1,2.84583,2330.69,6910.43,-13574.9
1.42248e+08,88.7741,1,2.79594,-16413.8,9121.29,-28690.1
1.42615e+08,40.6583,2,2.76246,-7623.43,2264.86,-25544.2
1.42928e+08,279.843,2,2.62536,10688.1,-29400.1,10171.6
1.43038e+08,48.3824,1,2.39606,7773.99,2011.09,-22498.4
1.43455e+08,44.4493,0,2.77491,-4694.08,-614.74,-20815.6
1.43472e+08,28.6099,2,2.61749,-4228.28,2377.62,-25234.2
1.43554e+08,22.1301,2,2.49508,-4724.76,100.636,-28619.1
1.43883e+08,122.856,0,2.8043,-13774.9,4553.18,-7466.86
1.44155e+08,9.15751,1,2.75117,296.556,1721.46,-27860.3
1.44213e+08,21.6168,2,2.41871,-387.652,3701.22,-26209.2
1.44466e+08,17.8814,2,2.81714,-258.667,-3808.91,-29389.9
1.44544e+08,35.1791,0,2.63908,-5555.18,-1707.9,-24271.8
1.44839e+08,37.4561,2,2.91649,-2059.47,6793.4,-25506.4
1.45101e+08,116.722,2,2.60187,-6218.06,-14423.4,-9766.44
1.45584e+08,20.6769,0,2.75921,-2612.75,622.143,-25450.7
1.45949e+08,22.4921,2,2.87084,2900.25,3321.2,-27317
1.46009e+08,92.2462,2,2.61387,-16887.2,5393.35,-20669.9
1.46303e+08,33.1359,0,2.4477,1431.43,-6895.56,-28674.2
1.46516e+08,230.488,0,2.65699,-20752.5,21867.7,-18320.8
1.46556e+08,141.315,2,2.94528,3760.92,-27485.2,-27060.8
1.46772e+08,30.6354,2,2.45298,624.512,-6532.23,-28881.6
1.47418e+08,82.3497,2,2.91916,-6592.02,-14012.8,-21024.9
1.47515e+08,107.767,2,2.40996,-13634.1,13845.7,-16909.1
1.47742e+08,73.0067,1,2.81041,-14708.1,-3407.62,-25968.6
1.48061e+08,120.762,0,2.38308,-14260.6,-19728,-21126
1.48348e+08,28.3851,2,2.67999,3790.63,3909,-26452.1
1.48458e+08,15.1238,0,2.48359,3162.94,632.645,-29631.8
1.49072e+08,139.562,2,3.02047,-5826.47,-25151.6,-14974.5
1.49107e+08,39.1378,1,2.56864,-4530.73,6384.85,-25865.8
1.49209e+08,20.1218,2,2.53581,533.152,2138.91,-25212.9
1.49528e+08,156.185,2,2.84172,-22904.2,1240.77,-5949.55
1.50075e+08,124.176,1,2.45754,-12228.8,-12566.3,-9281.33
1.50151e+08,19.9506,0,2.91745,3382.07,-1857.08,-26972.5
1.50217e+08,37.7339,1,2.70735,5899.4,1648.52,-24592.8
1.50408e+08,20.4626,2,2.58992,2670.53,-1688.29,-25855.7
1.50763e+08,4.4938,2,2.88305,-492.227,-402.465,-28052.9
1.5113e+08,58.8677,1,2.90858,-7397.81,-228.879,-18875.8
1.5157e+08,98.2789,1,2.58885,-2106.07,-9395.74,-10456.4
1.51916e+08,128.07,1,2.55071,-8837.99,16011.7,-8787.12
1.52129e+08,66.052,0,2.71255,7541.97,2791.09,-17427.3
1.52434e+08,236.845,1,2.99428,9906.48,16672.9,-15549.8
1.5254e+08,24.2307,0,2.37644,3220.27,-4099.4,-28647.5
1.52692e+08,8.53662,2,3.02341,-713.703,1144.69,-28063.7
1.52731e+08,158.029,1,2.52193,-14604.1,-22920.8,-9430.02
1.52838e+08,106.408,2,2.68026,-14324.6,-851.355,-11537.2
1.5309e+08,76.6267,0,2.68476,-13860.5,7963.22,-26865.2
1.53162e+08,106.269,0,2.7815,8528.51,-14806.2,-14350.2
1.53445e+08,41.2003,2,2.86684,3086.85,2417.1,-21151.6
1.53448e+08,29.0938,0,2.73354,3195.96,2755.83,-24302.8
1.53485e+08,98.0769,1,2.53968,10442.4,-5404.86,-11797
1.53887e+08,132.964,1,2.47171,-11950.9,8450.54,-4782.68
1.53932e+08,20.9633,2,2.97806,1796.78,-3979.64,-27907.7
1.53966e+08,57.4181,0,2.99529,3790.75,-8184.65,-20797.6
1.5419e+08,157.863,0,2.37567,16347.1,-2686.78,-12137.7
1.54624e+08,89.7763,1,2.76862,7925.72,2679.36,-11889.7
1.54867e+08,29.9862,0,2.64583,-5463.13,-969.036,-25886.9
1.54974e+08,27.6532,1,2.5979,5403.31,-368.659,-26758.8
1.55116e+08,25.8722,1,3.01275,-3001.11,4624.87,-28809.4
1.55193e+08,143.721,0,2.58609,13638.6,-7937.61,-2858.53
1.55324e+08,37.4875,2,2.73878,2580.09,-3127.3,-22035.3
1.55485e+08,102.963,2,2.72965,16117.4,4450.99,-15073.8
1.55728e+08,72.9155,0,2.71778,7812.02,-11977.1,-23090.3
1.55816e+08,113.96,1,2.8099,22939.7,1274.9,-22066.2
1.56124e+08,28.2698,2,2.46532,-3701.92,-3577.78,-25636.3
1.56314e+08,33.6921,2,2.93936,1018.49,-5886.84,-24921.5
1.5637e+08,26.6147,1,2.51578,2278.75,3742.16,-25209.1
1.56384e+08,98.0678,1,2.78593,-11854.4,9116.37,-14740
1.56587e+08,8.77675,0,2.82907,374.82,-135.059,-27004.7
1.56664e+08,62.0172,2,2.81093,11994.9,3696.55,-25476.6
1.56949e+08,28.4666,2,2.57795,2935.72,-875.587,-23637.8
1.56993e+08,99.2357,2,2.4414,-4757.98,-17348,-21273.6
1.57098e+08,4.93239,0,2.68618,807.445,753.03,-29015.3
1.57207e+08,22.6721,0,2.76275,3819.6,-2901.15,-28221
1.57402e+08,60.0523,2,2.71678,-7090.58,-10573.7,-28172.4
1.57455e+08,88.3623,2,2.61958,11479.7,-2639.38,-14560.8
1.57724e+08,90.1497,1,2.55036,9208.75,16738.2,-28289.5
1.58172e+08,74.7496,2,2.73796,-10225.1,1912.72,-16972.9
1.58226e+08,22.5919,2,2.42007,-1139.09,-4263,-26748.9
1.58487e+08,86.8725,0,2.56217,11529.7,14083.2,-25876.9
1.58543e+08,83.2999,1,3.04575,4136.25,7176.36,-13445.8
1.58751e+08,75.6313,2,2.66011,-11470.6,-11130.9,-27664.9
1.59522e+08,69.5141,0,2.75178,11223.8,-6313.89,-21694.8
1.59842e+08,106.011,2,3.01278,-19460.5,10551.9,-27655.1
1.59971e+08,52.6634,2,2.86022,-975.871,-7294.84,-20476.7
1.60022e+08,10.0069,1,2.41277,-1413.59,1288.2,-27733.8
1.60369e+08,9.46475,2,2.79586,-192.031,-1832.85,-27858.9
1.60703e+08,9.92768,0,2.99412,1179.79,789.813,-27255.6
1.609e+08,50.9767,1,2.39055,3732.92,5534.2,-20329.9
1.61485e+08,24.4182,2,2.89609,-206.617,-3180.37,-24737.3
1.61591e+08,174.913,1,2.41769,-29170.3,15310.1,-11853.1
1.61712e+08,112.536,1,2.59533,2039.84,-22836.5,-22792.3
1.61752e+08,89.0681,0,2.88357,-529.138,566.153,-28654.7
1.62007e+08,57.2709,2,2.59966,7898.91,-2123.36,-19909.2
1.62104e+08,0.205447,0,2.512,96.8728,16.9233,-28770.3
0,0.231795,0,2.99879,0,0,0
0,0.226364,0,2.3852,0,0,0
0,0.207221,0,2.78754,0,0,0
0,0.204843,0,2.95972,0,0,0
0,0.20281,0,2.42423,0,0,0
0,0.205214,0,2.92198,0,0,0
0,0.209467,0,2.8526,0,0,0
0,0.248409,0,2.37114,0,0,0
0,0.216345,0,2.39416,0,0,0
0,0.204478,0,2.95665,0,0,0
0,0.321373,0,2.97727,0,0,0
0,0.358327,0,2.43019,0,0,0
0,0.298115,0,2.85927,0,0,0
0,0.231065,0,2.49059,0,0,0
0,0.315789,0,3.04483,0,0,0
0,0.227241,0,2.66222,0,0,0
1.6252e+08,53.8826,0,2.89559,2334.14,9250.73,-22703.5
1.62824e+08,260.901,2,2.86713,13728,-26990.2,16886.7
1.6292e+08,29.4699,1,2.861,3783.3,-1013.47,-24946
1.63158e+08,4.05669,0,3.03438,613.261,681.894,-29058.5
1.6317e+08,185.554,1,2.64535,-9678.65,27866.9,-2997.96
1.63348e+08,99.5934,1,2.58431,-12894.5,16552.5,-26344
1.63365e+08,23.223,0,2.73968,416.034,3126.53,-25047.4
1.63881e+08,42.7873,1,2.66456,6123.78,273.979,-29052.5
1.63925e+08,148.693,0,2.97623,9233.68,11073.8,-1192.32
1.63972e+08,61.3682,0,2.63683,880.958,-7073.46,-18030.2
1.63991e+08,61.5625,0,2.54053,-4506.81,12154.6,-27810.2
1.64078e+08,3.50342,1,2.43293,-111.704,-470.225,-28301.9
0,3.52733,1,2.63958,0,0,0
1.64461e+08,65.8881,0,2.57695,-6167.56,-5036.91,-17460.2
1.64504e+08,48.7119,0,2.78791,3243.16,9704.39,-27569.2
1.64599e+08,57.5366,0,2.36841,-5979.22,4275.61,-19148.6
1.64778e+08,220.573,1,2.95352,3614.76,27921.9,-6313.48
1.64862e+08,67.5478,2,2.39938,1244.21,-7245.77,-16518.8
1.64969e+08,21.1226,1,2.37654,-2480.5,-3700.34,-28532.7
1.65117e+08,14.2265,2,2.52025,2955.47,106.175,-29257.8
1.65517e+08,67.4077,1,3.01641,-7145.88,12287.3,-28024.7
1.66496e+08,15.1354,1,2.45783,3085.74,773.355,-28427.7
1.66588e+08,12.4867,2,2.61866,-858.631,799.066,-26462.8
1.66872e+08,97.8214,0,2.87526,3954.05,10712.5,-11728.2
1.67011e+08,98.6573,1,2.51657,17997.6,5498.76,-19815.7
1.67081e+08,176.185,0,2.61702,24259,18000.5,-7043.14
1.67139e+08,9.78681,2,2.60044,-627.614,-33.4938,-26831.7
1.67296e+08,94.4301,1,2.50712,8862.07,-5515.37,-11874.4
1.67855e+08,74.9522,1,2.38885,4833.99,-4250.75,-28156
1.67944e+08,114.393,2,2.76098,-16546.4,-3886.83,-11715.8
1.68082e+08,113.374,1,2.52805,-23374,-4943.26,-26319.7
1.68263e+08,106.435,2,2.56817,13658.5,6895.88,-12407.2
1.68687e+08,30.7049,0,2.93894,5260.79,1360.35,-26018.1
1.68939e+08,13.0594,2,2.99862,1049.42,-439.123,-26322.3
1.69094e+08,6.1874,0,2.80076,-287.286,1030.13,-28077.9
1.6927e+08,11.0721,0,2.40698,2102.58,-1197.07,-28952.1
1.69494e+08,41.8057,0,3.00378,3692.8,7823.69,-27125.5
1.69503e+08,80.6404,1,2.57265,-12075.6,4006.05,-17398.4
1.69607e+08,119.333,2,2.97297,-2096.66,20558.2,-14791.8
1.6992e+08,266.358,1,2.52977,-25849.7,21856.8,16214.7
1.69999e+08,34.8796,1,2.63759,-2925.93,1536.81,-22213.7
1.70022e+08,55.2925,1,2.50281,-7383.74,-2026.69,-21863.7
1.7029e+08,19.9669,0,2.69034,-3977.02,463.565,-27795.7
1.70361e+08,111.382,1,2.45794,-8855.82,11745.8,-10377.3
1.7085e+08,220.056,0,2.52539,-19692.2,-8922.91,12231.1
1.70868e+08,96.0352,0,2.8297,18337.3,7180.76,-23916.4
1.71448e+08,142.447,2,2.98173,-17972.7,-23978.2,-28338.5
1.7149e+08,169.612,0,3.0191,21893.1,9237.16,-2364.61
1.71621e+08,112.916,2,2.93734,8906.93,-8824.62,-8700.18
1.72073e+08,48.4736,2,2.75154,-8045.48,-6164.32,-26976.2
1.72228e+08,234.565,2,2.47889,-15847.5,16850.4,15004.6
1.7223e+08,34.3908,0,3.03234,-3298.41,-2243.7,-22863.6
1.72361e+08,24.1484,2,2.9489,-5048.74,-527.947,-29631.6
1.72473e+08,36.116,2,2.3628,4417.01,-6073.37,-27245.6
1.72543e+08,102.002,2,2.43587,7400.71,13586.2,-13851.3
1.72674e+08,32.9994,0,2.99071,5914.92,1327.84,-25313.6
1.7279e+08,74.4258,2,2.77179,-11496.7,6998.93,-20799.5
1.72845e+08,129.674,2,2.75086,-20425.4,-7917.36,-12471.7
1.73013e+08,105.983,2,2.909,-7843.97,-19244.5,-20666.2
1.73258e+08,45.5333,0,2.91092,8641.13,1947.11,-24971.6
1.73678e+08,42.6093,1,2.99851,-8851.01,-1461.34,-28365.5
1.73929e+08,89.9865,0,2.47789,14518.3,3327,-16855.7
1.74091e+08,182.559,2,2.43813,-19763.6,-6550.86,3740.18
1.74124e+08,32.0779,2,2.77896,-6115.95,-162.629,-25836.9
1.74207e+08,69.6045,2,2.55372,4162.33,-10859.1,-19762.3
1.74294e+08,19.6842,2,2.61395,-3134.51,402.179,-26096.7
1.74527e+08,106.782,2,2.7883,-8876.26,-10264.7,-12544.8
1.75021e+08,14.2785,0,2.62994,2761.91,-1403.54,-28602.1
1.7528e+08,44.9306,0,3.06134,6421.03,1730.49,-22078.2
1.75495e+08,156.717,0,2.82705,22758.4,22648.7,-21102.8
1.75977e+08,148.638,2,2.55741,-6647.4,21585.2,-7093.19
1.75999e+08,26.9968,1,2.58287,397.844,2472.42,-23654.9
1.76012e+08,54.3474,1,2.55554,-46.367,11443.3,-27011
1.76121e+08,108.896,2,2.56978,-7000.27,-7690.3,-8262.9
1.76245e+08,102.026,2,2.42806,-10005.4,746.712,-9689.4
1.76398e+08,74.929,0,2.98505,5572.68,12182.8,-20573.8
1.76592e+08,10.899,1,2.46201,-353.218,2342.57,-29176.8
1.76723e+08,30.6424,2,2.9062,2813.97,2251.93,-23524.1
1.77003e+08,98.563,2,2.79228,-18868.3,8151.11,-25871.6
1.77099e+08,66.7713,1,2.60662,2349.83,11243.6,-20559.7
1.77338e+08,36.6214,1,2.40353,-3324.04,6364.13,-25685.7
1.77373e+08,7.73934,0,2.76364,-1037.54,699.275,-27872.2
1.77741e+08,19.3508,2,2.64653,-3823.65,-176.69,-27210.6
1.77891e+08,23.7394,0,2.9071,2844.39,1119.73,-24813
1.78091e+08,80.3813,1,2.51668,-3463.93,11906.5,-17116.5
1.78359e+08,53.8586,1,2.73609,-9304.05,6622.05,-28215.4
1.78668e+08,62.8831,0,2.92264,3011.18,6435.8,-17660.7
1.78727e+08,177.733,0,2.92452,20126.8,27094.9,-12798.9
1.79277e+08,12.4222,1,2.58696,-1510.7,1727.06,-27424.7
1.79498e+08,79.4066,1,2.45272,11655.3,6981.11,-18955.3
1.79842e+08,119.823,2,2.58237,-6363.72,-24601.3,-28074.5
1.79858e+08,118.465,2,2.92191,-11721.8,19442.8,-18755.4
1.80067e+08,59.0871,2,2.91414,7733.66,547.896,-19180.6
0,59.1068,2,2.90718,0,0,0
1.8064e+08,35.3982,2,2.94185,4922.26,516.271,-23295.7
1.80938e+08,82.5605,0,2.64443,16059.9,866.527,-21915
1.80945e+08,286.608,1,2.53524,12348.9,-26216.6,24328.2
1.80966e+08,9.71324,1,3.01291,-1738.91,887.395,-28019.8
1.81034e+08,47.9047,0,2.90214,692.513,-4202.17,-19690
1.81221e+08,183.13,1,2.84807,-24020.1,17190.1,-4039.55
1.81238e+08,163.413,0,2.88341,-7543.44,-29506.5,-28443.8
1.81247e+08,56.3751,1,2.71832,-3259.86,7260.95,-20593.9
1.81366e+08,191.024,1,2.49312,20906.8,-7715.09,4807.77
1.81399e+08,17.3557,2,2.53889,218.852,-3561.83,-27645.2
1.81699e+08,70.8203,0,2.71618,1895.32,2303.99,-26808.1
1.81906e+08,173.808,1,3.00826,-29292.8,20580.7,-21655
1.81922e+08,143.064,0,2.76968,-7013.53,-19472.3,-6957.35
1.82073e+08,9.83431,0,2.689,1402.82,1264.87,-27790.3
1.82159e+08,131.821,1,2.94036,22886,6961.32,-14956.1
1.82192e+08,20.2495,2,2.70613,3538.23,-2465.33,-29000.4
1.82222e+08,7.50879,2,2.38093,-950.234,-577.519,-27613
1.8234e+08,47.4052,1,2.91207,3176.78,4161.13,-20995.1
1.82731e+08,94.726,1,2.65145,-10678.7,-844.652,-11946.8
1.83083e+08,156.163,1,3.01259,-2730.3,4318.52,-23699.7
1.832e+08,34.2836,0,2.54711,4189.03,-1100.34,-22943.1
1.83368e+08,140.491,0,2.8259,6728.95,12005.6,-2681.28
1.83691e+08,9.35053,1,2.79183,-2018.37,-297.838,-28852.3
1.83907e+08,55.7981,2,2.89077,4107.15,-8613.86,-21916.9
1.8405e+08,26.8615,2,3.02111,379.767,-2944.73,-23996.3
1.84303e+08,18.1254,1,2.43184,-1321.58,3707.38,-28759.4
1.84526e+08,24.7914,1,2.82844,0.891867,2284.02,-24112.7
1.84806e+08,8.29417,2,2.56515,454.959,-1616.5,-28106.6
1.84831e+08,11.279,1,2.46437,-1650.87,-179.084,-27080.4
1.85071e+08,38.1155,1,2.71955,521.464,3565.33,-21607.5
1.85143e+08,112.689,1,2.77668,-23153.2,5383.71,-29066.7
1.85561e+08,84.9689,0,2.86989,-9084.41,-15312.2,-27826.2
1.85618e+08,37.1956,2,2.92922,-7356.77,2684.55,-29505
1.8609e+08,47.7825,0,2.65243,4214.04,3028.26,-20147.2
1.86298e+08,76.6098,1,2.52475,-9672.93,2806.21,-16088.8
1.8636e+08,158.991,2,2.863,-26448.7,-370.477,-8340.78
1.86373e+08,29.7501,2,2.74865,957.304,-6148.33,-27704.4
0,29.8021,2,2.91397,0,0,0
1.86965e+08,109.98,2,2.53876,-13302.5,-18921.5,-25618.8
1.87103e+08,37.6784,0,2.8165,-6648.58,-70.6974,-24622.7
1.87218e+08,118.717,0,2.89766,16063.9,-3600.6,-10035.7
1.87436e+08,62.7669,0,3.03193,-3532.78,-6135.57,-17772
1.87677e+08,0.285032,2,3.04058,-78.7348,-147.063,-28810.7
1.87679e+08,35.9829,1,2.45219,-5313.74,-1114.52,-23460.9
1.87717e+08,133.509,0,2.59246,-14400.9,-3852.56,-4962.86
1.87767e+08,125.877,1,2.76292,23399.3,11710.4,-24765.1
1.87839e+08,7.57556,1,2.65881,-858.165,1488.81,-28810.9
1.87913e+08,2.92173,2,2.43298,312.068,-361.667,-28376.5
1.88012e+08,9.26506,0,2.44344,-380.638,827.715,-27089.8
1.8813e+08,150.314,2,2.47382,-194.568,-27071.7,-12023.3
1.88208e+08,69.6014,2,2.82576,-2239.47,-7851.78,-16611
1.88416e+08,176.88,1,2.58417,-12999.6,-20920.4,-746.768
1.88545e+08,85.6431,1,2.4844,5546.79,-11567.1,-16138.6
1.88546e+08,29.4398,0,2.44416,6271.52,-931.438,-29081.1
1.88601e+08,123.229,2,2.85717,-7499.23,-17270.1,-10941.5
1.88636e+08,35.4881,2,2.85537,-1031.99,-7463.07,-29552.2
1.88657e+08,147.937,2,3.01364,-23148.5,-12763,-12516
1.89049e+08,103.737,2,2.69306,-15341.1,-15501,-29028.7
1.8909e+08,17.0166,1,2.79778,-2714.86,-47.5735,-26410.7
1.89229e+08,51.168,2,2.72293,-314.613,-4693.33,-20124.9
1.89229e+08,110.88,1,2.74899,-12911.6,14936.6,-16213.4
1.89437e+08,23.6693,0,2.81138,1906.88,2702.46,-25051.1
1.89624e+08,143.562,1,3.03859,15487.7,13187.4,-6652.01
1.89876e+08,157.047,2,2.92544,-13593.4,5326.79,737.088
1.9164e+08,150.598,2,2.91975,-12343.6,-13081.2,-2785.85
1.91712e+08,79.1451,1,2.53995,-5464.23,-9176.59,-15983.5
1.91896e+08,48.0965,0,3.00473,9736.25,-119.104,-25934.7
1.91966e+08,43.5782,0,2.39669,8477.82,-1088.15,-25179.6
1.91994e+08,210.207,1,2.91699,-2110.14,15366.3,12489.6
1.92291e+08,62.395,2,3.04253,10165.8,-8200.1,-27895.9
1.92325e+08,161.562,2,2.72756,26840.4,-19998.2,-22561.1
1.92457e+08,123.906,1,3.05369,11906.4,15913.3,-12124.5
1.92489e+08,123.019,1,2.87334,18431.2,16331.4,-20895.6
1.92633e+08,13.7204,2,2.36885,-882.434,-2482.63,-27473.1
1.92897e+08,17.6708,0,2.84863,1467.8,1823.34,-25881.3
1.92905e+08,8.00462,1,2.84417,-824.001,1504.57,-29332.6
1.93069e+08,20.4556,0,2.51095,-866.242,-3396.91,-26281.7
1.93165e+08,133.206,2,3.00302,6613.36,25528.8,-20492.7
1.93389e+08,119.066,1,2.83264,-14308.1,-12939.4,-12907.5
1.93438e+08,18.3866,0,2.77963,-1659.08,3470.99,-29183.7
1.93785e+08,44.4382,0,2.42349,-404.975,9022.91,-26130.9
1.93926e+08,8.81723,0,2.85686,1214.93,921.772,-27662.1
1.94211e+08,191.204,2,2.62811,19052.8,18526.6,1460.2
1.94297e+08,31.7236,0,2.37291,3893.33,2208.23,-23768.6
1.94823e+08,11.7924,0,2.79021,2464.74,763.917,-28630.2
1.94825e+08,63.665,1,2.37257,-7492.44,7597.02,-23879.3
1.94995e+08,14.4094,1,3.0155,-2885.25,-298.913,-27800
1.95106e+08,161.891,2,2.53501,-28884.9,2354.57,-10578.5
1.95221e+08,106.283,1,2.44756,13769.9,14628.4,-19714.6
1.95242e+08,129.826,0,2.93626,-948.422,17364.1,-7839.72
1.95269e+08,34.4098,2,2.83244,-2855.3,-6684.28,-29800.9
1.95583e+08,224.43,2,2.67112,-10667.1,23925.1,10564
1.956e+08,66.4002,1,2.7732,-3937.97,12899.3,-25038
1.95993e+08,68.7952,2,2.7955,-14095,2640.12,-26491.5
1.96313e+08,112.516,2,2.50478,-554.107,-23778.8,-26866.9
1.96628e+08,76.7115,0,2.6698,-24.0034,13228.2,-19500.5
1.96696e+08,58.2151,2,2.60703,1342.2,-8687.29,-20169.8
1.96892e+08,106.259,1,2.52807,11820.2,5430.78,-10549.2
1.97235e+08,165.275,0,2.70237,-6600.83,-14473.5,-11617.9
1.97476e+08,64.467,2,2.89294,-1321.6,-2236.6,-23240.8
1.97497e+08,109.18,2,2.5449,-7810.11,-21275.3,-23990.3
1.9754e+08,6.45945,1,2.62796,-1409.43,108.149,-28562.5
1.97549e+08,18.1297,2,2.78649,-1285.37,-1354.51,-25458.1
1.97966e+08,191.573,0,2.58425,5249.14,-24266.3,-4716.05
1.98203e+08,184.23,1,2.99096,19783.6,16171.6,-21855.1
1.98421e+08,0.593149,0,2.3993,238.151,27.3573,-28807.3
1.98442e+08,34.398,2,2.57961,-3317.11,6206.95,-27123.8
1.98513e+08,17.9467,1,3.00599,-2539.22,-1951.53,-26813.1
1.98566e+08,44.3809,1,2.61604,816.032,-915.454,-28756.1
1.98902e+08,17.1563,1,2.53849,-1966.87,2031.59,-26424.8
1.99129e+08,234.25,0,2.58789,7695.49,-5603.24,-29360.3
1.99236e+08,11.7161,2,2.67509,341.254,-2488.86,-28346.2
1.99427e+08,83.1333,2,2.98933,14832.5,-6961.96,-22812.4
1.9988e+08,46.2493,2,2.62075,-1702.98,5953.8,-21291.7
1.99883e+08,22.7422,1,2.5596,-2890.83,-1412.18,-25233.7
1.99897e+08,169.704,2,2.66832,2467.31,-1001.37,-20928.9
1.99969e+08,148.731,1,2.42643,-10433,-8753.26,-475.925
2.00315e+08,35.2346,2,2.71421,-6776.64,1971.87,-26433.8
2.00358e+08,2.99477,1,2.57781,615.873,81.3597,-28904.1
2.0055e+08,30.3427,1,2.83749,1843.39,1890.13,-22988.6
2.00557e+08,172.955,0,2.56938,21783.3,-18077.3,-5644.98
2.00884e+08,170.546,1,2.98258,20221.2,27804.9,-18812.9
2.00974e+08,162.551,0,2.87608,19393.4,21621.9,-27711
2.0101e+08,81.4372,1,2.6298,5874.2,-8671.68,-15265.1
2.01467e+08,144.063,1,2.58929,19097,1092.5,-5215.81
2.01876e+08,212.928,0,2.98358,-1878.93,-24545.6,8395.63
2.0188e+08,27.1123,0,2.45524,3497.92,221.674,-24223.6
2.01893e+08,159.195,1,2.73683,-4557.23,17740.5,-687.789
2.02138e+08,61.1105,0,2.93828,289.139,9357.51,-20096.9
2.02256e+08,15.9484,1,2.72005,-1235.89,3195.61,-29409.4
2.02476e+08,119.209,2,2.82387,-20855.7,-11712.1,-21123
2.02519e+08,63.312,0,2.87354,241.041,13201,-26909.3
2.02542e+08,134.172,1,2.87906,-12266.9,23834,-19848.2
2.02726e+08,22.1443,0,2.5247,3914.69,2593.21,-28027.7
2.03738e+08,82.494,0,2.70772,14391.2,5937.11,-20923.8
2.03916e+08,186.123,1,2.55551,18894.6,-314.583,5642.14
2.03952e+08,52.7064,1,2.50078,-3590.61,7784.88,-21579.7
2.04253e+08,5.7451,0,2.75032,279.55,802.95,-27919.1
2.04392e+08,112.763,1,2.82786,3551.97,-22456.4,-22341.2
2.04399e+08,31.9054,0,2.77052,5831.52,3055.55,-27156.4
2.04458e+08,108.688,0,3.02307,-1463.08,19547.9,-22070.4
2.04585e+08,17.2873,0,2.76883,183.976,3591.1,-29543.1
2.04612e+08,161.078,2,2.67346,-3891.56,-12910.5,-3461.34
2.04799e+08,222.84,2,2.43521,-13512.2,-20810.2,11288.9
2.04846e+08,125.318,1,2.82206,-402.057,16756.7,-8435.38
2.05259e+08,24.305,0,2.95411,1402.97,1638.18,-24167
2.05418e+08,10.2726,0,2.56776,1553.98,1423.24,-29623.4
2.05686e+08,173.18,2,2.37213,29655.8,-14150.7,-12666.2
2.05701e+08,191.374,2,2.61814,19809.9,-1885.53,6312.59
2.06198e+08,44.5221,2,2.56502,4751.16,-535.885,-20718.9
2.06265e+08,110.565,2,2.79636,-1963.8,-18827.4,-15188.4
2.06293e+08,107.861,0,2.95846,-3129.92,10222.5,-8889
2.06984e+08,24.9557,1,2.85524,3429.15,3388.22,-26668.3
2.07143e+08,15.744,2,2.78209,1372.86,-1155.43,-26025.9
2.07592e+08,77.8947,1,2.92355,-10917.3,9487.05,-21061.9
2.08503e+08,164.39,0,3.05012,15107.6,15995.7,-2301.19
2.0883e+08,4.47461,2,2.69867,93.7832,-635.154,-28071.4
2.09057e+08,116.006,2,2.70808,-16823,-15152.4,-19379
2.09136e+08,4.8377,1,2.70136,548.456,578.011,-28167.4
2.09628e+08,4.82859,1,2.87491,422.765,-45.8391,-27915.1
2.09658e+08,157.884,1,2.78348,-10967.6,-13531.3,-28997.7
2.09685e+08,58.1367,1,3.01559,-1518.57,-5023.75,-17849.3
2.09712e+08,119.932,1,2.8782,4842.3,24054.3,-22827.9
2.09819e+08,78.1587,1,2.42194,-5817.35,-15452.3,-29060.6
2.09965e+08,38.6371,1,2.68118,-5914.06,-2970.24,-24066.7
2.10077e+08,14.056,2,2.47323,-249.289,-3039.52,-29054.7
2.10411e+08,120.215,2,2.78971,-24474.2,1402.51,-22472.6
2.10453e+08,104.007,2,3.04283,19332.4,2032.73,-19099.7
2.1056e+08,169.674,1,2.89862,-11406.9,660.348,-15984.6
2.1059e+08,44.551,0,2.81768,914.407,-4912.27,-20872.4
2.10634e+08,5.48748,2,2.67167,-365.668,-1141.71,-28447.2
2.10818e+08,56.3993,2,2.58308,10051.2,-5989.99,-26591.1
2.10855e+08,7.31093,1,3.05103,-175.056,1418.26,-28058.5
0,7.36464,1,2.89414,0,0,0
2.11134e+08,94.2018,1,3.04689,-15887.7,-3340.11,-17546.7
2.11517e+08,48.6489,2,2.80873,-3585.36,-9630.3,-27663.2
2.1155e+08,163.063,1,2.71913,4457.99,-18563.4,-11272
2.12194e+08,135.873,0,2.75808,12525,18184.3,-10554.1
2.12387e+08,73.3213,1,2.45906,-12488.5,-2325.59,-19860.7
2.12395e+08,164.328,1,3.0247,-21746.8,12196.8,-5003.17
2.1245e+08,99.2009,0,2.98446,9235.89,13738.4,-16162.8
2.12454e+08,7.28768,2,3.01127,-958.223,474.582,-27696.3
2.13013e+08,24.3562,0,2.56117,945.838,4799.75,-27098.3
2.13228e+08,72.9853,1,2.76313,14005.9,3923.75,-23918.9
2.13233e+08,3.53162,2,2.7222,337.601,-567.582,-28398.6
2.13633e+08,135.148,0,2.59616,7493.04,15698.8,-6155.72
2.14041e+08,101.728,2,2.37686,-20715,-515.28,-22776.7
2.14048e+08,9.92856,2,3.03598,626.655,-2054.39,-28926.1
2.14174e+08,116.417,0,2.77486,8623.36,-8320.31,-7411.63
2.14654e+08,7.08513,2,2.71858,-1135.87,511.987,-27936.9
2.14926e+08,96.0385,2,2.48747,-12298.2,14199.4,-26704.4
2.14966e+08,107.564,2,3.03622,3382.76,16729.5,-14175.7
2.15075e+08,17.5009,2,2.88535,-3249.56,-1897.98,-29189
2.15919e+08,6.8355,2,2.65969,-1328.56,-668.935,-28643
2.16575e+08,37.9556,1,2.88316,-3372.39,7342.48,-28785
2.1701e+08,26.2125,2,2.57283,231.626,-2525.42,-23861.6
2.1729e+08,13.978,0,2.88698,1835.7,-2077.17,-27641.3
2.17315e+08,58.6924,1,2.66062,-6683.54,1672.1,-18496
2.17559e+08,111.381,2,2.55294,-8039,-19960.8,-19118
2.17707e+08,7.44822,2,2.66422,-1631.67,101.258,-28690
2.17768e+08,0.469343,2,2.80594,62.6532,-31.0665,-28769
0,0.451886,2,2.20703,0,0,0
0,0.444788,2,2.06843,0,0,0
0,0.465618,2,3.22623,0,0,0
0,0.492703,2,3.50076,0,0,0
0,0.450875,2,3.48674,0,0,0
2.18606e+08,65.0695,0,2.91193,12168,421.723,-22426.3
2.19532e+08,183.804,0,2.53656,-12032.1,-27058.9,-3732.59
2.19788e+08,3.72759,2,2.3804,597.413,-23.0348,-28313.9
2.19862e+08,75.8837,2,2.81536,-6979.92,-3289.31,-17001.1
2.19886e+08,24.8361,1,2.47502,-2941.57,4483.97,-28462.1
2.199e+08,7.78771,1,2.74314,-691.613,1150.68,-27776.3
2.20078e+08,248.237,0,2.98766,16484.7,-17755.2,17223.6
2.2071e+08,14.6659,1,2.64981,2172.51,-1791.11,-27692.6
2.2105e+08,26.4175,1,3.02024,4878.53,1961.77,-27026.9
2.21122e+08,48.0645,2,2.8342,7577.09,6383.64,-27200.9
2.2133e+08,37.8215,0,2.40666,3363.4,6349.15,-25158.5
2.21538e+08,24.8501,0,2.49767,-4361.82,-2095.18,-26893.4
2.22072e+08,14.5314,1,2.58189,-2621.01,-1631.5,-28526.3
2.22212e+08,141.052,1,2.46382,337.212,21092.2,-7657.39
2.22221e+08,4.83545,1,2.91863,-1061.39,118.562,-28694.5
2.22301e+08,108.76,0,2.82968,-6310.2,-5602.32,-12762.8
2.2234e+08,41.3943,1,2.6736,-7039.29,5203.63,-27592.5
2.22516e+08,16.2587,1,3.00393,3243.36,325.886,-27930.3
2.22581e+08,2.82747,2,2.73715,583.461,2.42293,-28795.6
2.22666e+08,89.9312,2,2.37153,6989.5,8210.55,-13200.2
2.2299e+08,92.2296,1,2.73205,-9156.02,11680.5,-16209.2
2.23171e+08,41.5827,2,2.36365,2451.49,-5171.24,-22119.8
2.23286e+08,186.019,1,2.58575,-15436.2,-26309.1,-4106.52
2.2343e+08,11.81,2,2.74355,-286.711,-2060.97,-27312.5
2.23887e+08,78.2293,2,2.51175,7036.22,12298,-20399
2.23999e+08,16.3249,1,2.59348,-2189.57,2271.54,-27304.5
2.24277e+08,221.418,0,2.51227,17810.8,16826.5,11067.8
2.24914e+08,86.2597,2,2.68211,-17203.3,954.656,-22869.1
2.2517e+08,27.2548,0,2.88697,4308.8,-3790.39,-27968.5
2.25371e+08,16.736,1,2.50323,1614.73,1834.66,-26243
2.25769e+08,63.7731,1,2.96495,6270.13,4487.84,-17891.6
2.258e+08,89.9185,2,2.74146,6569.3,-5022.9,-11771.1
2.25892e+08,151.888,1,3.00044,-10836.6,-26185,-14412.7
2.259e+08,78.1719,2,2.42783,-13013.8,8008.02,-22461.3
2.25941e+08,52.8229,0,2.86335,8315.82,386.195,-21368.5
2.26001e+08,140.961,2,2.58927,11920.9,-20718.6,-10991.4
2.26399e+08,97.1731,2,3.04598,-1257.91,-17532.3,-18437
2.26488e+08,38.4456,1,2.73354,-3118.06,-5371.35,-23662.7
2.26787e+08,30.4622,2,2.89224,-3638.01,2762.09,-24367.8
2.27067e+08,5.11852,1,2.87489,-796.318,-638.392,-28432.6
2.27175e+08,55.0207,0,2.61031,11056.3,-3761.76,-28023.3
2.27616e+08,16.9534,0,2.66989,2072.75,2668.55,-27454.4
2.27617e+08,9.07678,2,2.76601,-1506.94,-463.182,-27686.1
2.27654e+08,19.2755,2,2.45597,-2871.61,2429.09,-27269.8
2.27691e+08,102.532,0,3.02552,-2751.74,-19579.8,-20391.4
2.28148e+08,76.3231,0,2.86893,14936.3,5975.39,-27990.2
2.28405e+08,27.6604,0,2.55426,4291.12,101.222,-24760.1
2.28531e+08,35.8374,1,2.36599,3509.7,978.749,-22199
2.28569e+08,35.1387,1,2.66587,-1533.44,-5346.19,-24484.1
2.28916e+08,121.93,0,2.92782,20537.8,6522.25,-14927.7
2.28992e+08,47.4963,1,2.90371,-314.709,6473.15,-21174.6
2.29457e+08,12.8753,0,3.00801,-109.905,-1231.64,-26419.1
2.29605e+08,6.31184,2,2.71573,108.967,858.299,-27850.1
0,6.33142,2,2.96386,0,0,0
2.29702e+08,37.494,1,2.57874,339.337,3416.26,-21671.6
2.29768e+08,48.1693,0,2.54554,9976.06,2134.47,-27728.3
2.29907e+08,248.689,1,2.5132,-20174.4,-5193.23,-13727.2
2.30145e+08,166.336,2,2.58524,13638.8,-15258.3,-10737
2.30399e+08,41.5502,2,2.6398,-3331.66,-5742.92,-23020
2.30424e+08,34.9305,1,2.57892,6608.91,2583.08,-26780.3
2.30506e+08,4.69547,1,2.45725,-626.634,779.979,-29280.7
2.30571e+08,31.2407,2,2.65942,4698.64,-4668.48,-28786
2.31268e+08,3.20082,2,2.85397,-343.401,337.34,-28381.8
0,3.10132,2,2.77951,0,0,0
2.31321e+08,37.5155,2,2.5608,-3855.36,-1184.83,-21960.5
2.3159e+08,121.686,1,2.52623,3551.97,16729,-9542.48
2.31694e+08,36.7278,0,2.52095,2598.31,-1109.94,-26883.8
2.318e+08,30.6974,1,2.51733,3711.46,4382.23,-25699.5
2.31862e+08,19.2512,1,2.57807,2321.68,-1735.74,-26036.6
2.32011e+08,51.65,2,2.75912,-5494.62,-9429.06,-27514.1
2.32415e+08,22.2606,0,2.74512,-3375.97,520.175,-25660.8
2.32491e+08,168.579,0,2.6805,5848.5,15811.7,2485.62
2.32615e+08,17.6808,2,2.62488,829.748,-3396.36,-27303.3
0,17.6626,2,2.57546,0,0,0
2.32998e+08,128.492,2,2.56903,18986.7,10421.9,-12539.9
2.33074e+08,7.5894,2,2.749,-1037.34,-1209.46,-28230.2
2.33095e+08,127.306,2,2.45115,1860.68,-13277.5,-5454.59
2.33517e+08,14.032,0,2.90981,1884.94,2340.55,-29135.7
2.33613e+08,112.468,0,2.80737,17898.6,9114.23,-16246.7
2.33951e+08,23.9887,0,2.65457,4582.53,-2401.38,-28832.8
2.34242e+08,29.5705,0,2.48724,3732.44,-3721.48,-25371.5
2.34451e+08,6.27725,2,2.80974,447.273,-1304.26,-28613.1
2.34464e+08,114.204,0,2.57251,7467.19,-19944.7,-17426.6
2.34493e+08,76.1199,2,2.54327,-11571,3352.88,-18107.8
2.3453e+08,124.699,1,2.55944,-11383.9,-23399.1,-24905.4
2.34777e+08,30.0815,0,3.0564,-4483.18,-2188.44,-25081.4
0,29.8167,0,2.86673,0,0,0
2.34797e+08,91.1267,0,2.72552,-15814.6,2563.93,-18377.3
2.35149e+08,6.61185,1,2.79478,-1095.76,728.228,-28181.4
2.35617e+08,147.989,2,2.41295,25378.8,-929.877,-10592.1
2.35795e+08,88.4076,1,3.04089,14081.4,10443.2,-22850
2.35812e+08,36.7212,2,2.43993,3283.93,-4231.95,-23156.3
2.35878e+08,56.2259,0,2.7753,8159.09,6451.56,-23037.6
2.35971e+08,133.619,1,2.50176,19152.4,17245.6,-17169.4
2.36039e+08,60.2936,0,2.52098,9069.06,9066.31,-29113.3
2.36158e+08,242.886,0,2.77205,29504.5,20995.5,-4279.09
2.36217e+08,43.0105,0,3.0484,5069.3,2766.91,-21844.1
2.36248e+08,84.4529,2,2.57158,13824.5,-11298.9,-27828.9
2.36264e+08,45.3259,2,2.71988,-299.295,-9034.39,-25935.2
2.36409e+08,35.0784,0,2.6384,4630.91,3570.07,-24198.6
2.36742e+08,19.4734,1,2.68538,-5.92444,4093.88,-29819.9
2.36849e+08,76.5014,1,2.55091,-16061.5,1237.84,-26796.7
2.37056e+08,23.524,1,2.66271,3752.48,2150.8,-26418.2
2.37077e+08,296.396,2,2.62461,14624.9,-11289.3,-18676.9
2.37159e+08,93.1285,1,2.82194,-14795.6,-11811.6,-23747.2
2.3765e+08,169.927,2,2.65612,18061.6,2060.05,1090.86
2.3784e+08,114.058,0,2.52059,-8064.63,-19129,-27989.9
2.3786e+08,22.1242,1,2.58576,-2861.97,175.614,-25100.3
2.37918e+08,181.343,0,2.59155,24136.8,-12973,-1995.31
2.38426e+08,30.8968,0,2.73626,2720.05,-3000.46,-23697.4
2.38473e+08,19.5121,0,2.539,-1409.03,-2201.65,-25639
2.38534e+08,61.0139,2,2.51125,-9715.69,-6955.3,-23752.2
2.38695e+08,77.3554,0,2.88615,12324.3,-8034.14,-21806.4
2.38834e+08,50.8797,2,2.69572,-3835.25,-10139.4,-28881.6
2.38925e+08,84.4547,0,2.78479,12484.2,-173.926,-16075.9
2.39e+08,1.08886,2,2.90983,11.7902,-188.747,-28620.3
0,1.1574,2,2.98568,0,0,0
2.39006e+08,143.768,1,2.65071,3097.94,17870,-4483.61
2.39062e+08,10.8615,0,2.85213,-41.3772,1520.93,-27097.5
0,10.6507,1,2.48507,0,0,0
2.39073e+08,24.5202,2,2.89792,-341.342,-5015.39,-27300.9
2.39108e+08,262.029,2,2.96403,-6477.16,-21773.7,-28477.8
2.39202e+08,65.525,1,2.83766,12757.7,3740.35,-25216.7
2.39251e+08,130.32,1,2.89209,16509.6,-15029.8,-13080.4
2.3926e+08,60.0195,1,2.96016,-10618.3,-3413.72,-22904.7
2.39689e+08,6.83281,0,2.65488,-598.521,-899.684,-27915.2
2.39978e+08,175.015,2,2.57863,-28616.9,23158.4,-25384.1
2.40056e+08,27.2813,0,2.47609,2326.39,-3811.56,-25113.3
2.40179e+08,65.9864,1,2.46598,-5743.57,-12689.1,-28521.3
2.40264e+08,179.718,0,2.50379,23604.4,29121.3,-22269.2
2.40295e+08,18.6853,2,2.94928,-2794.98,-1778.61,-26583.6
2.40714e+08,159.294,0,2.71105,-20136.1,12274.4,-4982.11
2.40817e+08,170.892,0,2.70412,-1016.46,-1525.33,-29061.1
2.41174e+08,8.77632,2,2.76877,1053.32,-1446.47,-28160.1
2.41342e+08,57.2589,2,2.73325,-9222.49,90.0324,-20985.1
2.41451e+08,33.7434,0,2.92116,5882.42,4095.5,-28303.1
2.41612e+08,212.855,1,2.7338,10857.3,17758.3,5649.85
2.41795e+08,36.651,2,2.50811,-3010.24,-1007.24,-21729.2
2.41859e+08,2.54148,1,2.88021,0.376659,279.884,-28331
0,2.54994,1,3.00523,0,0,0
2.4187e+08,100.857,0,2.62264,-7962.62,16684,-18347.5
2.42095e+08,23.8965,1,2.39638,-146.289,-4392.48,-26409.1
2.42435e+08,8.73179,1,2.51579,1295.23,850.703,-27792.2
2.4248e+08,319.149,1,3.0096,1114.4,9409.77,-15471.5
2.42484e+08,239.736,0,3.00312,6829.02,-17162.4,-10553.3
2.42832e+08,41.7384,2,2.3643,-6567.24,3113.1,-23768.9
2.43021e+08,27.2122,2,2.65036,3511.91,-4540.74,-27935.3
2.43201e+08,96.8842,1,2.93558,-4349.62,19607.9,-25157.2
2.43407e+08,13.6794,2,2.42449,2294.62,-1601.29,-29730.5
2.43494e+08,22.2513,1,2.84852,-1017.05,3538.3,-25818.7
2.43604e+08,95.8646,2,2.71632,-16984.6,-9079.09,-22446.7
2.43608e+08,66.9645,0,2.50106,13592.1,-4255.97,-29819.8
2.43625e+08,25.4192,1,2.9087,-1650.79,4497.3,-26290.6
2.43701e+08,57.8808,0,2.37961,4833.98,9665.34,-22936.2
2.4379e+08,133.334,0,2.54763,15946.3,13324,-11976.1
2.44103e+08,18.6808,2,2.80507,-2150.05,-2912.19,-27051.5
2.44237e+08,124.397,1,2.52974,7875.4,21305.6,-15515.2
2.44303e+08,160.445,1,2.38503,-12124.3,28961.4,-15697.6
2.44609e+08,185.706,0,2.98966,26610.1,5665.7,-898.726
2.45452e+08,33.8993,0,2.40705,4883.37,-5327.61,-29546.8
2.4555e+08,98.4287,0,2.8665,6449.35,18414.3,-21886.9
2.4573e+08,83.1889,0,2.65166,14227.9,2913.17,-18831.8
2.46152e+08,137.818,0,2.81194,-16281.3,-6818.13,-5915.02
2.46188e+08,31.13,2,3.01863,-3150.53,2362.81,-23623.5
2.46247e+08,47.3842,2,2.43783,1595.54,-9970.93,-28441.6
2.46273e+08,66.0358,2,2.45558,2709.2,-9059.83,-18510.7
2.46312e+08,30.1434,1,2.67465,-49.7586,2282.26,-22890.2
2.46858e+08,32.4181,2,2.94559,1903.35,-6063.12,-26182.2
2.46926e+08,142.806,2,2.97948,-25544.2,12675.7,-19629.8
2.4704e+08,122.297,1,3.02719,9903.25,-19564.8,-15666.9
2.47138e+08,59.3227,1,2.83685,1896.98,6859.04,-18541.8
2.47177e+08,63.343,2,2.3939,7598.68,-1835.31,-17962.7
2.47546e+08,14.5903,0,2.71272,2778.09,1213.87,-27869.9
2.47669e+08,49.8925,0,2.60416,-5238.6,1892.72,-19934.1
2.47673e+08,6.63064,0,2.76504,720.677,37.8046,-27593.3
2.47735e+08,24.4379,2,2.55763,-1408.11,2620.73,-24612.1
2.47741e+08,9.87912,2,2.87998,-752.302,-1333.59,-27322.6
0,9.79457,2,2.52663,0,0,0
2.48627e+08,90.6399,1,2.80547,3823.08,18203.5,-24318.2
2.48727e+08,17.8005,1,2.8475,-3266.53,2042.64,-29036.6
2.48799e+08,22.2311,2,2.9665,-598.798,-4212.28,-26715.5
2.48927e+08,26.1659,1,2.97267,725.749,-2488.58,-24047.8
2.49043e+08,34.8738,2,2.77071,-3599.31,-6413.98,-28321.1
2.49193e+08,75.5024,0,2.46784,7810.56,10211.6,-19291.2
2.49473e+08,23.0406,0,2.79787,302.541,-3109.23,-25100.2
2.49492e+08,127.945,0,2.63224,23238.5,12963,-23775.7
2.49574e+08,13.7112,0,2.972,1557.93,-2163.64,-27583
2.49578e+08,151.21,1,3.01338,-7444.51,28026,-15837
2.49591e+08,14.9046,0,2.7841,224.623,2588.84,-27032.6
2.49635e+08,82.3054,0,3.00591,-3489.84,-11689.4,-16639.6
2.4968e+08,65.8915,2,2.4135,769.985,9607.81,-18828
2.49852e+08,118.557,1,2.65496,-14472.8,17710,-18522.8
2.49918e+08,61.2927,0,2.38149,-3785.97,-11045,-23160.1
2.49988e+08,5.8815,0,2.67334,593.564,903.318,-28124.4
0,5.84906,0,3.05221,0,0,0
