#class tools::wcsv::ntuple
#title time
#separator 44
#vector_separator 59
#column double eventID
#column double t(ns)
#column double copynumber
#column double energy(eV)
#column double x(mm)
#column double y(mm)
#column double z(mm)
8175,1.08038,2,2.47249,-269.308,-48.2303,-28785.5
237724,71.8104,1,2.41194,-13925.4,2520.04,-23088.5
683927,57.7641,0,2.7528,2610.22,11916.2,-28288.3
696917,45.7054,0,2.62025,5501.34,-2010.4,-21096.7
977835,17.9244,2,2.36226,-1456.07,-3571.18,-29340.2
1.0001e+06,125.322,2,2.39432,24825.4,-7293.54,-23255.7
1.10598e+06,241.994,0,2.40714,-28331,21974.2,7674.84
1.26894e+06,287.007,1,2.54062,-3338.81,-19115.6,11798.4
1.40685e+06,13.378,1,2.44374,-1532.75,2284.88,-27887.4
1.42631e+06,50.9726,2,2.65298,1971.72,-8205.62,-22071.2
2.09908e+06,16.2667,1,2.60262,-2548.7,2085.76,-27555.6
2.44452e+06,0.274027,0,3.78125,128.928,-71.1898,-28833.6
0,0.25554,0,3.94976,0,0,0
0,0.257998,0,2.46372,0,0,0
0,0.253917,0,2.08516,0,0,0
0,0.246779,0,2.0976,0,0,0
0,0.245367,0,2.15614,0,0,0
0,0.236702,0,2.12765,0,0,0
0,0.238569,0,3.84953,0,0,0
0,0.284456,0,2.71948,0,0,0
0,0.234562,0,3.91231,0,0,0
0,0.283613,0,3.88201,0,0,0
2.69044e+06,24.9695,0,2.51898,3437.71,3456.18,-26645.6
2.72876e+06,208.282,1,2.74314,-26241.3,-24582.1,-15765.9
2.95415e+06,62.4805,1,2.55207,-6002.96,7483.87,-19660.2
3.11852e+06,61.1553,0,2.98524,-146.834,-12687.3,-26953.5
3.66911e+06,17.4015,2,2.53771,1751.94,207.409,-26104.1
4.0993e+06,7.83007,0,2.71576,1023.39,1314.25,-28534.6
4.42022e+06,8.25717,2,2.63856,845.127,-18.713,-27299
4.62112e+06,89.5712,2,2.66108,-6196.7,-794.992,-10983.6
4.75472e+06,54.2861,1,2.78743,-7243.9,115.186,-19948.7
4.86042e+06,2.93123,1,3.03402,-11.1028,716.645,-28902
4.86529e+06,87.8111,1,2.64337,-14514.8,5581.62,-18622.7
4.93407e+06,93.331,2,2.62158,-15595.9,10938.5,-23752.4
5.10284e+06,24.399,0,2.72208,638.672,-1944.75,-24079.8
5.38212e+06,71.083,2,2.9939,-4860.48,-6886.55,-16491.5
5.48101e+06,205.936,1,2.55244,13314.1,-26299.4,119.77
5.56537e+06,227.776,1,2.65724,6886.87,15003.2,16269.8
6.0145e+06,146.163,1,2.76785,-11036,10477,-2051.47
6.03307e+06,57.5701,1,2.66077,4452.88,11320.7,-29904.4
6.34892e+06,121.18,1,2.95287,1380.13,-24784.1,-23719.1
6.35227e+06,31.6136,2,2.45904,-328.507,-6712.33,-29587.5
6.39923e+06,10.9803,2,2.66165,177.375,-877.415,-26651.8
6.82406e+06,16.463,0,3.0364,2242.93,2252.1,-27287.1
6.87278e+06,236.658,2,3.05092,-16490.8,-11425.5,3892.15
6.90559e+06,56.306,0,2.97258,7486.01,-1583.45,-19757.8
7.02229e+06,69.2005,0,2.7269,-3560.59,7833.65,-20427.7
7.30152e+06,33.4326,1,2.71106,-3566.56,5239.54,-25573.3
7.77717e+06,3.12684,0,2.94701,570.222,-42.1843,-28364.9
7.85476e+06,82.8686,0,2.9038,11093.5,-3761.38,-15905.4
8.11024e+06,196.022,1,2.83676,188.281,19463.2,4817.26
8.20507e+06,35.2182,2,2.73611,-5186.75,-419.048,-23467.4
8.52338e+06,91.3188,1,2.74964,-9437.41,-2121.49,-12174.6
8.84086e+06,27.2198,1,3.04948,2019.16,599.954,-23523.3
8.85905e+06,63.698,2,3.04726,-3581.51,-10050.4,-20698
9.27733e+06,177.269,1,2.79611,-6920.02,-25487.5,-18913.3
9.30562e+06,31.2522,1,2.77576,-4960.75,4270.7,-27537.6
9.43316e+06,21.4744,1,2.49658,-509.285,3775.75,-26222
9.51828e+06,84.6138,1,2.94999,-17079.2,-631.433,-23784.5
9.73082e+06,145.334,1,2.55077,10187.7,23180.8,-11345.2
9.77114e+06,120.77,2,2.44119,-21699.6,5268.18,-16375.2
9.79072e+06,16.2916,1,2.55977,-1870.46,2862.79,-29777.4
9.89079e+06,136.307,2,2.57265,-13316.5,2594.5,-3403.11
9.99001e+06,68.3008,0,2.78267,11645.4,7512.89,-24687.6
1.01018e+07,162.973,2,2.56613,-8201.99,-4958.54,-9824.66
1.0283e+07,121.52,1,2.54791,1421.64,-13762.8,-7224.52
1.05104e+07,90.3273,2,2.48314,-18112.8,2560.91,-23210.7
1.05604e+07,116.857,0,2.61966,10278.4,-10996.8,-9237.5
1.10934e+07,91.0388,1,2.86829,-15795.3,10953.8,-28182.7
1.12674e+07,208.518,2,3.03361,13426.4,-10349.9,11397.5
1.13724e+07,78.8107,0,2.50381,11670.9,-11319.7,-24824.7
1.14424e+07,16.3495,2,2.5544,218.984,-2255.79,-26141.4
1.17707e+07,211.21,0,2.55131,4188.78,12745.1,13757
1.1994e+07,71.2895,0,2.44546,3759.73,3331.33,-14602.7
1.23544e+07,17.4059,0,2.51584,136.623,-3664.59,-28269.1
1.24045e+07,132.443,0,2.59083,16261,3047.24,-6213.87
1.25552e+07,76.1975,1,2.53851,-2916.35,8934.93,-15690.7
1.27493e+07,8.76791,0,3.03274,-633.117,698.438,-27272.3
1.28847e+07,100.801,2,2.71365,-15778,6594.78,-16216.8
1.29367e+07,307.885,2,2.74103,17656.2,-21302.1,29815.8
1.29866e+07,122.311,0,2.45128,9236.1,-11569.7,-7571.7
1.31694e+07,98.683,1,2.76156,16560.3,8558.74,-19727.2
1.3196e+07,108.292,1,2.90093,-19415.6,-5050.51,-18031.3
1.32217e+07,65.4708,2,2.8765,-8463.5,8890.79,-22628.3
1.33343e+07,90.2558,2,2.47683,1754.52,9100.32,-12165.2
0,90.7671,0,2.87387,0,0,0
1.34053e+07,29.1298,2,2.67489,3873.68,-873.34,-24138.7
1.34365e+07,87.3524,0,2.51962,-8313.19,13198.8,-18971.2
1.34571e+07,26.9219,2,3.05975,305.031,4392.42,-25384.3
1.34633e+07,158.611,1,2.75278,-19860.6,6367.98,-2702.83
1.37283e+07,135.979,2,2.83177,-5918.67,-15408.7,-15807.1
1.38696e+07,125.219,2,2.53994,-2278.34,16668.4,-8443.27
1.39905e+07,41.4712,2,2.43071,639.985,-5425.54,-21902.2
1.42499e+07,144.356,2,2.80875,4747.72,-20101.5,-6521.42
1.43121e+07,3.91489,0,2.80981,306.681,-806.199,-28747.9
0,3.89312,0,3.00096,0,0,0
1.43153e+07,36.8533,0,2.57082,2152.78,-2923.14,-21893.2
1.43208e+07,180.351,1,2.60312,21888.6,28426.4,-15954
1.43276e+07,8.27448,0,2.52738,-547,-822.578,-27389.5
1.46265e+07,79.7534,0,2.43522,-1621.96,10311.6,-15560
1.48211e+07,166.21,1,2.88087,5821.06,2267.7,-21698.5
1.48242e+07,57.6568,1,2.88091,8395.93,-4101.11,-21157.5
1.48273e+07,59.0108,2,2.44959,9913.53,-4706.55,-22852.9
1.51115e+07,10.4812,0,2.76613,2065.74,-810.086,-29535.2
1.52597e+07,69.181,0,2.72291,11800.5,-4335.64,-21297.1
1.52663e+07,23.2362,2,2.92205,-426.66,321.277,-28993.7
1.5455e+07,97.0055,1,2.73291,-907.075,10217.7,-11120.7
1.55301e+07,83.9153,1,2.97356,6631.48,-13662.4,-28357
1.58601e+07,10.2658,1,2.98664,-1392.84,-492.979,-27218.2
1.67537e+07,225.071,1,2.53313,-16065.6,-13880.7,-13002.4
1.68364e+07,119.073,1,2.95239,-9022.56,-5097.43,-27506.3
1.70252e+07,73.5911,2,2.43032,2255.44,-15450.5,-28245.2
1.70329e+07,33.6799,2,3.02485,-3842.47,-3521.87,-23995.7
1.72421e+07,64.4079,1,3.01082,1551.49,11653.3,-22042.6
1.74836e+07,90.9907,0,2.90986,-16385.1,9010.34,-25164.5
1.7637e+07,77.0455,2,2.42573,-12472.5,-1063.08,-18307.1
1.77731e+07,126.659,1,2.76009,-6669.28,-23667.4,-18610.8
1.78578e+07,35.3339,1,2.67945,3681.86,-1425.87,-22517.5
1.81495e+07,122.247,0,2.43137,7003.58,9873.58,-5940.27
1.81682e+07,141.436,0,2.80492,8058.62,-8598.93,-1507.75
1.83035e+07,146.802,2,2.77741,-485.353,-29144.6,-18344.5
1.83575e+07,195.767,0,2.81695,21037.2,14801.8,3360.73
1.85192e+07,121.892,1,2.4331,-10005.2,23854.9,-28203.1
1.87122e+07,82.7887,0,2.81306,-6859.86,-12421,-19932.7
1.91624e+07,99.0623,0,2.68478,-5035.44,18947.6,-21656.1
1.91794e+07,107.444,1,2.54936,7596.5,10348.8,-10084.5
1.92072e+07,17.5888,1,2.74315,-671.123,210.668,-25194.2
1.92591e+07,75.9533,2,3.02178,11620,-6379.18,-20010.5
1.95311e+07,150.623,2,2.84901,-26933.7,14931,-21402.7
1.97003e+07,374.825,2,2.73226,-18419.1,-14132.2,-25171.7
1.98691e+07,31.9429,0,2.4317,3495.88,5717.58,-27483.9
1.99233e+07,121.308,2,2.99967,2369.89,-12046.9,-6522.48
2.07828e+07,37.8103,1,2.44044,-460.961,3062.2,-21405
2.11991e+07,24.0714,2,2.37138,-4600.97,-2301.86,-28489.5
2.13475e+07,8.83073,0,2.99896,-97.8449,-858.926,-27173.1
2.16518e+07,209.962,0,2.89346,-28632.8,-16737.8,-3722.85
2.17225e+07,113.407,1,3.00501,300.412,-12633.5,-8727.13
2.17575e+07,61.4415,1,2.74411,6920.36,9814.23,-23943.3
2.19616e+07,87.2496,2,2.45874,3654.54,-11585.3,-14931.8
2.21401e+07,171.458,0,2.90051,8757.8,24091,-3508.62
2.21594e+07,36.2175,0,2.63813,-5930.99,431.938,-24087.1
2.24971e+07,42.6058,0,3.0044,-5608.8,-427.373,-21954.9
2.25552e+07,126.01,1,2.72977,-19942.7,851.807,-11323
2.28364e+07,7.11477,0,2.53773,984.005,1154.21,-28483.3
2.28645e+07,62.4114,1,2.7604,-8043.1,9235.99,-23841
2.35959e+07,17.6145,2,2.93431,-2721.67,1767.79,-27000.4
2.36157e+07,140.904,0,2.60556,8606.85,-884.109,-14614.2
2.37326e+07,35.742,1,2.94232,-4946.46,2953.97,-23917.6
2.37877e+07,56.0754,2,2.7724,-11050.1,4244.31,-28625.2
2.40854e+07,26.8885,1,2.63368,-4736.92,1536.17,-25941.4
2.41742e+07,275.734,0,2.71062,-24767,-7245.63,8344.11
2.41915e+07,149.443,1,2.74905,4272.4,10004.4,-5030.46
2.43067e+07,104.29,2,2.6926,-10195.5,-16257.6,-17919.5
2.4436e+07,25.641,1,2.72718,1029.1,4651.72,-26171.1
2.4451e+07,124.378,1,2.8377,-17962.2,15192.6,-17253.7
2.51213e+07,33.6199,0,2.52499,3965.07,-5192.01,-25893.6
2.5245e+07,11.2589,0,2.579,-1359.38,825.085,-27112.6
0,11.3595,0,2.92597,0,0,0
2.53997e+07,284.771,0,2.78461,-7134.14,-27983.4,23662.4
2.56606e+07,109.339,0,2.50483,-15335.7,17225,-28358.2
2.59332e+07,8.69638,0,2.50265,493.068,-114.305,-27021
2.60105e+07,11.7076,0,2.89478,-826.979,1763.75,-27335.2
2.61438e+07,147.71,2,2.7708,-22982.8,6624.7,-26733.2
2.63282e+07,51.9367,2,3.0311,8382.99,6635.95,-27077.5
2.655e+07,24.4753,0,2.63967,-3438.45,-2566.24,-26024.7
2.6914e+07,62.2098,1,2.82664,-4895.7,3269.13,-17103
2.69351e+07,24.9541,2,2.54134,-920.682,3975.22,-25510.4
2.72873e+07,18.0373,2,2.37307,3314.41,-1840.22,-28263.9
2.73682e+07,0.432542,0,2.82003,201.028,52.1919,-28853.6
2.74369e+07,28.2777,1,2.85643,1757.86,-4199.81,-25066.7
2.77416e+07,56.3748,2,2.64495,-7389.23,8015.36,-24045
2.77911e+07,6.94896,1,2.84754,-1358.05,471.185,-28290
0,6.82292,1,2.50889,0,0,0
2.82236e+07,42.6845,0,2.6208,-2452.14,8107.48,-25751.4
2.83508e+07,38.4047,1,2.8467,2107.59,-4631.31,-22599.3
2.84029e+07,17.7814,2,2.7799,-3602.65,-775.701,-27923.7
2.92173e+07,134.1,1,2.55297,4669.5,27685.1,-24420.9
2.92443e+07,103.62,1,2.75996,-20883,-2543.74,-22874.9
2.94503e+07,151.805,0,2.97015,18245.8,-23685.4,-17739.4
2.94532e+07,16.8065,1,2.62292,2915.15,2017.72,-28275.9
0,16.8774,1,2.84438,0,0,0
3.00336e+07,55.2621,0,2.46714,-6688.72,-4955.47,-20758
3.00544e+07,148.988,1,2.72255,-10505.1,16223.1,-4022.18
3.02621e+07,135.089,0,2.86104,-11486.5,-14705.2,-7478.76
3.03793e+07,75.4201,1,2.70501,14191.5,-3891.17,-22893.5
3.039e+07,37.5366,2,2.49493,7647.11,-105.994,-26819.3
3.04015e+07,26.8829,2,2.57622,3966.57,-3201.85,-26225.6
3.04262e+07,111.877,2,2.50395,-11326.4,4684.8,-8580.55
3.06233e+07,35.0788,1,2.46278,-3989.41,4356.29,-24227.8
3.06667e+07,177.868,0,2.88287,12617.1,-283.1,6347.75
3.07874e+07,160.154,1,2.50082,22815.2,6845.76,-21374.9
3.09411e+07,21.3403,2,2.61003,-2603.58,1980.29,-25729.3
3.14906e+07,89.8769,1,2.58451,-9396.46,12481.1,-17889.4
3.17051e+07,182.483,2,2.60769,-24139.4,-22638.4,-8945.61
3.17111e+07,23.7259,2,2.71554,-2333.98,3046.11,-25614.3
3.1842e+07,97.7783,1,2.48043,-61.2066,18050,-18587.5
3.19214e+07,1.59119,1,2.51529,-294.501,-171.035,-28803.9
3.198e+07,177.821,2,2.72004,-274.805,20405.8,2540.22
3.26124e+07,85.6107,2,2.8753,1171.54,11914.8,-15446.3
3.27148e+07,123.186,0,2.54975,14402.7,20867.8,-26188.3
3.29101e+07,189.205,2,2.46368,-791.892,-27449.9,321.602
3.31399e+07,78.6737,1,2.87071,5283.22,-7772.48,-15267.9
3.32534e+07,57.3122,1,3.05727,-4805.29,7831.59,-21726.4
3.37181e+07,56.4074,1,2.78765,-9549.99,-7026.3,-27871.1
3.3779e+07,4.28411,2,2.90164,-92.7713,-581.792,-28067.5
3.39284e+07,116.126,2,2.83253,163.424,-8936.18,-6074.93
3.39608e+07,50.7569,2,2.94545,-5340.03,-5687.86,-21464.3
3.44863e+07,123.204,2,2.59985,-6564.09,8937.92,-5308.8
3.45954e+07,21.927,1,2.50284,-2154.83,-8.71927,-24706
3.49405e+07,34.628,1,2.83196,-5634.8,4750.52,-29513
3.53284e+07,24.7878,1,2.99933,-2217.19,-4528.33,-29962.4
3.56862e+07,53.18,2,2.51333,3049.09,5290.66,-19436.7
3.57307e+07,55.1034,1,2.93409,5957.5,9978.3,-28167.3
3.6171e+07,17.5359,2,2.40339,-1738.4,-1184.59,-25707.4
3.64989e+07,63.865,1,2.66169,-10123.1,2311.39,-20148.8
3.67679e+07,102.18,2,2.85676,1603.86,-11987.8,-11573.4
3.70446e+07,0.89163,1,2.73154,-230.656,176.518,-28774.7
0,0.903462,1,2.49553,0,0,0
0,0.887933,1,2.60723,0,0,0
0,0.899507,1,2.88593,0,0,0
3.71208e+07,105.821,1,2.60141,-3544.1,12526.3,-10629.9
3.71637e+07,15.0964,2,2.39918,1734.98,-1629.92,-26661.4
3.74394e+07,11.952,1,3.02625,-1522.19,2108.12,-28653
3.78666e+07,76.4939,0,2.4342,4557.08,2378.28,-13449.4
3.79772e+07,28.9021,2,2.79244,194.192,-3279,-23655.5
3.81411e+07,179.985,2,2.89555,-21571.3,-5952.72,-2319.98
3.82084e+07,6.70539,2,2.58043,893.655,-513.319,-27840.2
3.83951e+07,21.2124,0,2.98547,2672.95,-1260.56,-25426.4
3.84229e+07,9.60076,1,3.02546,-1814.39,882.056,-29447.4
3.85064e+07,27.8345,0,2.67295,2272.06,5264.37,-27337.2
3.88781e+07,28.5514,1,2.7065,-3000.79,3417.1,-24769.6
3.90243e+07,81.7568,1,2.61065,-16560.6,514.025,-23791.3
3.93405e+07,41.6077,1,2.82914,-2881.46,7904.96,-26137.1
3.95795e+07,70.3652,1,2.48385,-7809.84,12782.5,-29283.7
3.99129e+07,13.2713,1,2.63486,-1392.3,-181.753,-26367.6
4.01438e+07,164.759,2,2.6863,-2860.82,19504.9,-253.66
4.07448e+07,42.0351,2,2.71821,6711.71,4259.62,-25078.9
4.14312e+07,23.3643,1,2.87012,979.051,1493.29,-24233.6
4.14696e+07,30.5645,2,2.85051,-6410.79,387.461,-29707.3
4.15692e+07,229.797,2,2.59805,-16710.1,-18544.3,12832.4
4.18446e+07,50.5153,2,2.36595,-8630.97,-5566.49,-25524.1
4.19759e+07,125.492,1,2.73854,-17133,10758.3,-11727.5
4.21798e+07,11.5074,0,2.69602,1133.95,-257.423,-26648.8
4.25282e+07,103.651,0,2.97811,21268.9,289.705,-27365.1
4.25849e+07,7.28402,2,2.46098,-552.272,-1026.55,-27720.1
4.27394e+07,3.9964,2,2.62388,528.26,261.966,-28264.4
4.31759e+07,7.9451,0,2.78497,1540.33,-821.371,-29110.3
4.32206e+07,148.426,1,2.79043,-16151.3,11022.1,-4411.3
4.33195e+07,34.5758,0,2.9418,1165.29,1301.85,-21756.6
4.36015e+07,98.7115,1,2.89454,13582.8,-10158.9,-17003.6
4.36951e+07,27.0825,1,2.88079,5188.67,1225.95,-26832.5
4.37237e+07,17.963,2,2.56096,-356.874,-211.493,-28944.6
4.37709e+07,256.81,1,2.99699,-3187.65,6740.73,-25392.3
4.39175e+07,80.1323,1,2.71295,15920.8,4552.93,-25452.4
4.39187e+07,86.2257,2,3.01057,-398.229,17452,-24420
4.39659e+07,9.1551,1,2.60916,96.1795,2036.02,-29026.2
4.41197e+07,20.9502,1,2.82976,-4079.92,-535.187,-27081.5
4.42833e+07,18.2571,2,2.7086,-94.9137,-1662.04,-25317.2
4.46284e+07,60.0395,0,2.51694,-470.155,-5073.97,-17229.6
4.46672e+07,175.751,0,2.7247,-8202.42,17693.3,2626.4
4.4673e+07,16.9247,0,2.51791,-518.96,2987.38,-26891.3
4.47044e+07,50.9864,2,2.64556,-2216.35,9671.55,-24777.2
4.471e+07,180.828,2,2.54056,-23528.1,9011.16,-59.5743
4.47476e+07,30.2119,1,2.48693,3241.86,5378.4,-27345.7
4.48668e+07,16.9153,0,2.59373,1005.68,2387.08,-26306.6
4.51141e+07,128.414,0,2.99062,24047.9,2557.23,-16841.8
4.52532e+07,15.8577,2,2.97833,1742.36,-1771,-26554.8
4.52538e+07,33.2526,1,3.00199,-5754.5,3669.08,-26999.7
4.57445e+07,111.975,2,2.81014,-16025.9,433.068,-11536.5
4.64899e+07,103.736,2,2.82096,-7836.25,8543.72,-27336.3
4.67368e+07,7.79705,0,2.68003,955.232,-285.975,-27441.8
4.68059e+07,132.895,1,2.59442,3585.81,19687.6,-9084.06
4.70443e+07,31.6806,2,2.72698,-100.406,-4708.09,-24845.5
4.7403e+07,105.763,2,2.87902,-21623.4,-5339.64,-29493.8
4.76381e+07,176.547,0,2.41322,997.258,3102.26,-29253.6
4.76637e+07,28.2616,0,2.61562,2664.11,-1339.99,-23611.5
4.80146e+07,107.65,1,2.49545,-11239.6,3637.39,-9323.76
4.80874e+07,159.815,0,2.39652,13745.8,19271.3,-4634.38
4.81878e+07,56.1048,2,2.45107,6391,-9857.98,-26869.6
4.86979e+07,48.6594,1,2.43871,8226.02,320.141,-22694.4
4.8814e+07,155.197,0,2.64771,-16742.2,-6487.13,-1524.56
4.90565e+07,71.9181,1,2.90158,-8310.45,11500,-23421.9
4.92573e+07,4.79245,2,2.6425,525.689,-102.535,-28001
4.94953e+07,26.5597,2,2.99208,-2341.31,2080.82,-24235.7
4.97748e+07,17.4158,1,2.94175,-2154.79,717.657,-25903.5
0,17.2569,1,2.52024,0,0,0
4.98714e+07,79.2267,1,2.56432,-7775.64,14849.3,-27115
5.00489e+07,171.177,2,2.68825,-16653.5,13542.3,164.535
5.02499e+07,36.912,1,2.65156,-6354.6,-1982,-24737.9
5.06186e+07,121.971,0,2.39095,-17119.7,-5228.76,-10342.8
5.06988e+07,60.2471,1,2.7545,9774.77,542.963,-20771.6
5.10969e+07,12.1513,0,2.50245,1062.05,294.562,-26458.2
5.1222e+07,51.7606,1,2.75735,3174.53,9747.06,-24985.7
5.14515e+07,39.246,2,2.56892,-3400.63,6018.39,-24316.5
5.18537e+07,52.7086,0,2.51861,11221.1,-324.18,-27949.9
5.19561e+07,8.29967,1,2.84583,434.93,1735.33,-28459.3
5.21711e+07,70.977,2,2.53771,11333.1,-6255.43,-21228.2
5.23069e+07,51.6754,2,2.69498,1685.07,-7845.95,-21365.7
5.23585e+07,10.3972,2,2.82169,-524.424,-2150.14,-28278.9
0,10.4014,2,2.90208,0,0,0
5.23715e+07,19.3655,0,2.53034,660.263,-3391.35,-26568.4
5.23996e+07,65.0046,0,2.83852,341.107,-13628.1,-27546.3
5.25083e+07,93.5887,1,2.67655,-6541.12,10747.2,-16220.7
5.25366e+07,132.619,2,2.55892,-9738.59,-679.434,-2537.32
5.29014e+07,40.9902,1,2.53581,6858.44,-3701.86,-25188.3
5.29083e+07,24.7226,1,2.58686,-282.98,1828.38,-23923.9
5.2917e+07,51.5864,1,2.50425,-4331.75,-9268.83,-25149.5
5.29921e+07,104.638,1,2.83733,-9030.89,19764.2,-24784.8
5.30081e+07,92.4574,1,2.42803,-3916.66,-18513.7,-24146.3
5.32146e+07,72.8324,1,2.58745,-11040.7,8792.88,-22487.1
5.36698e+07,68.5457,0,2.87312,4505.1,-3722.21,-15628.9
5.4094e+07,74.2687,1,2.45581,10744.3,2817.92,-17720.5
5.42707e+07,7.31329,0,2.41909,546.729,-573.271,-27446.9
5.47334e+07,16.8271,2,2.87177,-3299.47,-769.939,-27558.2
5.48044e+07,54.0829,2,2.67352,-11050.1,-1837.67,-26270.9
5.49007e+07,61.6567,2,2.7126,4198.3,8988.13,-20504.4
5.49306e+07,2.25107,0,2.91257,250.297,119.615,-28397
5.53701e+07,3.72059,1,2.54093,-675.943,470.356,-28503.3
5.53759e+07,188.032,0,2.7233,183.453,-331.784,-28789.7
5.54462e+07,15.755,2,2.70734,2823.36,-1180.71,-27525.9
5.54498e+07,88.4298,1,2.91737,6668.25,-974.207,-11532.5
5.54617e+07,90.8588,2,2.74644,5496.11,-12269,-15189.1
5.55125e+07,71.7264,1,2.41051,-4120.98,-11103.8,-20171.5
5.55564e+07,55.2365,2,2.65354,-677.054,-11584.3,-26937.1
5.56974e+07,6.68717,1,2.74064,-480.303,628.847,-27594.3
5.59866e+07,85.36,2,2.8898,-9093.42,11910.3,-19020.1
5.60325e+07,243.835,2,2.79186,-17556.8,-19315.2,14677.3
5.60759e+07,96.1852,2,2.93859,-1957.32,6903.19,-9966.89
5.62124e+07,13.007,0,2.9755,2823.01,224.426,-28735.2
5.63171e+07,2.7385,1,2.81361,447.162,72.0035,-28473
0,2.70759,1,2.41294,0,0,0
5.63444e+07,63.258,1,2.63734,-3523.53,10338,-21025.4
5.63864e+07,49.8177,1,2.73325,-1310.35,9516.97,-24401.5
5.64346e+07,6.85532,0,2.80272,636.469,-1363.51,-28966.6
5.6436e+07,58.2031,1,2.85179,-4215.99,5252.4,-18555.9
5.7236e+07,51.8555,0,2.96864,1705.69,-911.415,-18115.5
5.73234e+07,105.301,1,2.92674,-16084.3,5410.71,-14577.4
5.75273e+07,36.1559,1,2.64956,-3987.09,2172.5,-22623.6
5.75602e+07,194.426,2,2.99381,2995.72,-25988.6,-23771.4
5.77622e+07,74.8818,1,3.02987,-13450,-90.438,-20691.1
5.77703e+07,49.0806,2,3.02543,4212.64,-3027.98,-19939.8
5.79984e+07,72.2465,2,2.43614,2474.57,13627.2,-22479.4
5.85994e+07,22.5295,2,2.56995,4702.03,-234.403,-28334.7
5.87692e+07,34.0148,2,2.65588,5315.09,-4697.34,-27468.4
5.8949e+07,10.358,1,2.96043,-1220.05,-1252.21,-27569.4
5.89566e+07,171.814,1,2.85271,-23858.6,-14714.2,-6065.06
5.90083e+07,191.071,0,3.05253,-25660.8,985.384,1780.06
5.92775e+07,43.1983,2,2.65654,-3889.48,-2839.92,-21025.9
5.96224e+07,49.9383,0,2.65535,9944.85,-2850.44,-26329.4
5.98656e+07,157.187,1,3.05147,5282.87,15746.8,-19996.4
6.02243e+07,57.2119,0,2.74121,7226.66,-2401.86,-19422.5
6.0256e+07,20.6797,0,2.4449,3722.81,1138.47,-26638.3
6.04066e+07,93.2812,2,2.90182,-6033.23,-7851.5,-11890.8
6.04441e+07,13.5997,1,2.78352,-1647.66,2119.98,-27638.4
6.05859e+07,2.83181,0,2.79812,437.513,485.215,-28976.6
6.06321e+07,154.265,1,2.96599,5196.71,13975.9,-121.42
6.06769e+07,117.344,2,2.80767,3533.03,-16945.2,-11154.8
6.10857e+07,8.28918,0,2.37455,1042.43,1374.94,-28201.9
6.12192e+07,14.4827,1,2.63358,-1218.35,158.917,-25996.2
6.12661e+07,54.066,0,2.7816,2641.16,3355.07,-18262.7
6.14182e+07,9.27059,1,2.94868,665.517,380.132,-27047.9
6.15359e+07,6.60617,1,2.54997,-837.428,1018.07,-28133.3
0,6.66473,1,2.91556,0,0,0
6.15699e+07,116.938,1,2.96676,-10317.3,6066.11,-7373.42
6.17614e+07,63.5945,0,2.67486,-2346.52,13172.8,-27944.8
6.18345e+07,148.167,1,2.61362,-22117.7,8369.06,-8288.95
6.21602e+07,2.89186,1,2.41666,494.555,399.43,-28744.4
6.27136e+07,67.7241,0,2.84503,7232.39,-6439.93,-20526
6.27979e+07,22.2172,2,2.48251,1332.4,-2510.18,-25027.2
6.29507e+07,240.435,2,2.85402,-1466.5,12603.1,16132.8
6.32433e+07,64.4984,2,2.65641,-6145.77,9917.37,-21894.3
6.34249e+07,98.0934,0,2.75997,19354.1,-743.787,-21385.1
6.37206e+07,32.5902,2,2.86092,405.911,-6901.67,-28074.4
6.37574e+07,255.504,1,2.82362,-2825.81,8113.02,-6943.04
6.46206e+07,76.8732,0,2.62874,-2828.85,-8175.1,-15120.3
6.50937e+07,85.4549,2,2.9428,17886.7,-1007.66,-29118.4
6.52562e+07,125.961,2,2.90844,271.574,-5890.94,-3040.88
6.53188e+07,138.747,0,2.45297,10695,-17851.5,-8097.86
6.55403e+07,35.0875,0,2.6567,-680.242,3404.39,-22310.8
6.56685e+07,128.542,0,2.66112,9167.56,7578.57,-4467.48
6.58046e+07,95.5793,0,2.58964,-4946.05,-13271.1,-14470.4
6.58731e+07,118.236,1,2.57878,-20288.2,4275.83,-14804.3
6.59984e+07,31.1559,1,2.36896,1834.6,6416.13,-29037.9
6.60132e+07,117.198,0,2.63489,5266.61,-18889.8,-13747.7
6.6076e+07,116.575,2,2.82528,-4594.32,-12315.6,-8078.76
6.64805e+07,195.777,1,2.57623,-9055.53,20456.1,6014.02
6.65469e+07,27.6344,1,2.51729,-5900.45,483.66,-28767.4
6.71041e+07,47.7958,2,2.42937,-6418.31,4093.77,-22157.2
6.77685e+07,20.7547,0,2.40007,3445.56,-2688.36,-29718.5
6.78953e+07,22.759,0,2.37993,2800.09,3611.74,-27139.1
6.79137e+07,53.7358,1,2.49223,-8503.35,-4163.11,-22494.3
6.79187e+07,84.7308,0,2.70928,3441.85,16951,-24331.1
6.81345e+07,83.9063,2,2.42359,-4525.64,-16237.8,-22950.2
6.86203e+07,18.0872,0,3.00167,2820.65,-2614.67,-28324.5
6.87059e+07,139.744,2,2.42663,10188.1,-9625.84,-2792.11
6.8979e+07,59.9157,2,2.85173,-6333.82,2237.56,-18160.9
6.90162e+07,13.9547,0,2.70286,-478.489,1459.54,-26322.6
6.90367e+07,70.0919,0,2.56227,10674,5285.24,-19916.8
6.95309e+07,48.2227,0,2.38889,7445.9,-5293.01,-24094.3
6.98484e+07,23.4747,2,2.74666,-2291.36,4156.53,-27468.8
6.99194e+07,44.4904,2,2.77792,-9424.57,-317.759,-28387
7.03083e+07,97.6407,1,2.98724,-14968.8,-1739.85,-14916.4
7.03708e+07,97.1298,1,2.5125,-10059.6,-17062.9,-23452.2
7.05359e+07,157.346,2,2.61705,10633.6,-12609,-3061.11
7.05728e+07,115.715,1,2.96077,-8617.74,-2954.22,-15489.1
7.06378e+07,233.485,1,2.53617,20503.3,17959.4,-3173.35
7.08475e+07,27.1538,2,3.01892,470.46,-3795.38,-24528.2
7.09366e+07,54.2647,0,2.75872,10040,269.953,-23207.5
7.11482e+07,86.5545,2,2.89373,-4386.15,-890.425,-11209.8
7.12596e+07,84.2351,0,2.51817,4598.69,16948.7,-25574.5
7.14364e+07,61.4248,1,2.88876,-10750.8,-1765.48,-21856.4
7.15226e+07,1.71304,2,2.44663,327.09,-195.382,-28803
7.16992e+07,8.67497,0,2.58763,833.835,1347.49,-27795
7.19691e+07,42.9659,1,2.3744,-5460,2168.2,-21822
7.21274e+07,106.849,2,2.7259,-2832.39,-994.675,-17876.6
7.21689e+07,150.942,1,2.62748,-17013.9,-8310.83,-3500.68
7.24257e+07,17.9739,2,2.94759,-1526.94,-2852.08,-26721.4
7.26796e+07,25.5817,0,2.92925,-1453.42,-2401.35,-24249
7.27206e+07,37.819,1,2.85072,-5978.41,3923.75,-25208.3
7.27558e+07,53.1788,1,2.50519,-1660.94,6142.87,-19493.5
7.29289e+07,93.3841,2,2.98854,-5019.71,-18371,-23863.6
7.29933e+07,42.572,0,2.4715,4654.9,294.66,-21072
7.32829e+07,30.3477,0,2.55565,6482.17,187.907,-29539.5
7.33406e+07,96.9667,1,2.94265,8065.76,15620.2,-18471.2
7.36729e+07,152.446,0,2.50189,5914.94,22467.1,-6444.38
7.37998e+07,59.6815,0,2.80309,-2313.63,9588.68,-21110.9
7.38556e+07,58.0309,2,3.05906,10085.6,-6744.19,-29616.2
7.39264e+07,89.2766,0,2.90621,-14221.6,-1299.66,-16752.8
7.43865e+07,143.395,2,2.5668,3997.52,-3878.78,-26894.3
7.44997e+07,152.091,1,2.43721,6503.6,-12594.3,-23080.8
7.45797e+07,142.842,2,2.61148,7872.48,-4138.7,-15971.8
7.47391e+07,73.8427,0,2.63126,7579.82,13478.8,-26528.5
7.47842e+07,116.743,1,2.59372,-22044.9,6441.33,-19708.7
7.48464e+07,4.95578,2,2.99638,-526.876,-581.739,-29628
7.49103e+07,38.3921,1,2.87168,4535.3,4920.07,-24242.1
7.49581e+07,51.5131,1,2.7366,354.257,3012.47,-18416.5
7.50434e+07,6.03947,0,2.4881,376.525,1264.03,-28815.3
7.52313e+07,52.7415,2,3.02105,-6246.92,-7996.52,-24216.4
7.52743e+07,31.0222,0,2.91826,4685.94,457.978,-24228.4
7.53273e+07,11.9944,2,2.4624,967.84,-1691.88,-27142.7
7.55655e+07,246.741,1,2.64833,-1134.4,8650.21,-4845.69
7.56344e+07,39.0058,1,2.75732,-770.018,8287.58,-28684.5
7.57408e+07,9.50806,0,2.79317,1517.87,804.63,-27652.2
7.58607e+07,14.873,1,2.55188,-2314.08,-559.809,-26712.6
7.62461e+07,20.7021,1,2.91795,3663.19,976.556,-26724.8
7.63391e+07,31.6821,2,2.83405,-6500.1,540.367,-27214.7
7.64587e+07,90.1696,2,2.45203,-16732.7,-8505.34,-29314
7.64634e+07,84.9772,0,2.60673,4975.52,16528.9,-23795.3
7.67209e+07,31.6052,0,2.9391,3137.31,-2605.95,-23539.1
0,31.6483,0,3.02587,0,0,0
7.67954e+07,43.6672,0,2.52976,5949.19,-7146.42,-29228.5
7.68296e+07,11.0725,0,2.87706,2171.95,-1038.19,-29190.7
7.70296e+07,63.8077,0,2.80859,3916.74,8446.27,-19111.1
7.73819e+07,106.04,0,2.8857,14311,-17143,-28957.8
7.77568e+07,67.7579,1,2.81085,-13200.5,3252.51,-24333.5
7.78067e+07,4.91003,0,2.56565,-653.979,-100.786,-28083.6
7.79176e+07,9.49787,1,3.04623,-310.179,2023.35,-28384.8
7.79752e+07,8.65772,0,2.75097,868.133,224.626,-27189.1
0,8.62033,0,2.85771,0,0,0
7.82833e+07,247.691,1,2.91382,18323.3,23411.8,13711.6
7.84753e+07,23.3999,0,2.66859,4355.94,-1289.2,-26723.8
7.84774e+07,185.589,0,2.7308,-17490.1,3529.31,5925.74
7.86596e+07,9.32256,1,2.91459,-283.089,749.399,-26989.9
7.86651e+07,143.134,0,2.62151,2902.59,-28384.3,-18783
7.87241e+07,6.32176,2,2.54484,-690.373,-884.973,-27982.6
7.88026e+07,28.8093,0,3.0288,4344.56,1066.93,-24679.3
7.88241e+07,95.4357,2,2.96679,-10904.8,15644.5,-22827.9
7.89586e+07,68.0743,1,2.84436,5483.64,-6443.83,-17324.2
7.91546e+07,93.4503,1,2.62298,-15453.1,-10102.8,-21869.6
7.93063e+07,51.1086,1,2.90969,-1.95091,8991.59,-23175.7
7.95055e+07,95.3053,1,2.77113,-10597.3,4639.04,-12418.2
8.07207e+07,71.7046,0,2.49719,10660.9,-3970.02,-18736
8.07463e+07,35.6501,1,2.50801,3037.78,-3536.34,-22946.3
8.11093e+07,39.8066,0,2.36871,-514.843,-2826.95,-20895.4
8.1149e+07,21.9028,1,2.94998,1517.55,4334.01,-27928.4
8.1488e+07,127.846,1,2.52687,2294.83,-13633.3,-8734.43
8.14977e+07,66.4903,0,2.40997,2143.5,-8634.91,-17920.8
8.15847e+07,51.5363,2,2.66141,-6475.26,-3924.36,-20935.5
8.17052e+07,14.8928,1,2.70727,-1755.83,-1469.01,-26666
8.18142e+07,131.512,1,2.85788,12956.6,5692.14,-5085.29
8.20612e+07,8.75514,1,2.36978,1570.83,1013.56,-29058.6
8.20681e+07,78.6187,0,2.98829,-5897.57,11721.1,-18901.6
8.22605e+07,125.183,2,2.97582,-6773.21,-2721.15,-25110.7
8.23144e+07,6.01948,0,2.73755,945.63,-419.373,-27977.7
8.25798e+07,57.3214,0,2.94124,2759.47,2464.43,-17381
8.31011e+07,108.233,2,2.67756,-22512.8,-4140.61,-28646.8
8.34203e+07,29.6411,2,2.63506,1360.85,-6184.87,-28496.9
8.3515e+07,9.80165,1,2.54591,952.839,-1199.96,-27479.1
8.37888e+07,36.0155,2,2.39712,-3932.84,2853.58,-22943.4
8.3974e+07,35.2799,1,2.45253,2825.52,1530.55,-22089.9
8.39885e+07,36.8639,2,2.89984,-6694.37,-973.872,-24938.2
8.41614e+07,123.654,0,2.84255,1291.78,-14973.6,-7601.84
8.4865e+07,160.708,2,2.51568,-29058.4,-5388.62,-11965.7
8.4923e+07,144.46,2,2.99935,7248.11,-22078.1,-9373.11
8.60654e+07,57.9672,1,2.83149,7190.48,-4888.5,-20331.2
8.61481e+07,92.9087,2,2.81012,-8008.52,14024.8,-17924
8.61866e+07,4.29522,1,2.99347,322.52,-575.194,-28257
8.64626e+07,28.4386,2,3.01996,2047.98,-5128.4,-26392.1
8.65248e+07,76.2897,2,2.88154,5563.4,-13807,-22758.5
8.67041e+07,57.7647,2,2.83214,-637.755,-6008.9,-18295.5
8.69007e+07,85.1868,2,2.40469,-1830.55,-15805.2,-20208.7
8.69187e+07,104.222,0,2.7509,-8676.41,13701.7,-14061
8.72649e+07,34.4805,1,2.65342,-3982.31,4562.35,-24676.2
8.74336e+07,39.5545,1,2.63903,1268.38,5561.55,-22653.3
0,39.5224,1,2.46734,0,0,0
8.74563e+07,60.847,1,2.63821,-7414,10620.9,-28978
8.75028e+07,89.3669,1,2.85852,17553.8,3573.58,-23985.1
8.77145e+07,3.72869,0,2.79474,669.568,537.567,-28628.7
8.78949e+07,157.573,2,2.75799,21542.2,6206.11,-4419.45
8.79025e+07,143.348,0,2.98549,-20011.5,-1953.13,-6540.33
8.79417e+07,28.8153,2,2.93405,5308.26,1518.82,-26478.9
8.79922e+07,89.9641,0,3.03203,-9864.09,-11415.2,-17587.8
8.86067e+07,111.825,2,2.96729,3673.97,-15549.1,-11586
8.87255e+07,7.04178,1,2.92744,777.611,1285.49,-29157.4
8.89141e+07,26.5756,2,2.92751,1856.83,2260.37,-24120.5
8.90164e+07,14.6855,0,2.89846,2419.55,-1103.99,-27121.2
8.91014e+07,49.817,1,2.7893,2235.62,9821.55,-25654.2
8.91253e+07,27.1243,2,2.91787,-4371.33,-2540.01,-26091
8.94628e+07,122.658,1,2.95723,-8066.5,6618.53,-22495.5
8.94752e+07,125.924,1,2.49791,11263.5,-967.066,-4732.31
9.05144e+07,31.094,1,2.75751,-5317.97,1715.14,-25345.1
9.05448e+07,210.004,0,3.01619,-18928.7,-24082.3,2647.5
9.09792e+07,164.904,0,2.49989,-23497.2,8226.2,-4599.26
9.10248e+07,0.690109,2,2.44009,-173.027,-117.492,-28769
0,0.69174,2,2.84215,0,0,0
0,0.68333,2,2.561,0,0,0
0,1.19134,0,2.42445,0,0,0
9.11863e+07,75.1443,1,3.01677,13452.1,5526.73,-24928.7
9.1237e+07,85.6352,1,2.54227,4250.83,7511.45,-12897.9
9.12599e+07,71.4681,0,2.92787,6211.98,7607.61,-23391.8
9.13661e+07,4.18481,1,2.38874,-101.595,-268.955,-27990.4
0,4.21624,1,2.76765,0,0,0
0,4.218,1,2.60171,0,0,0
0,4.2436,1,2.93505,0,0,0
9.14246e+07,43.8928,0,3.01305,7550.15,3796.05,-24968.2
9.17695e+07,19.1521,2,2.78674,-3247.62,921.484,-26619.8
9.18102e+07,2.43924,0,2.51282,457.888,-392.972,-28982.2
9.1905e+07,47.5574,0,2.38876,3713.81,5056.37,-20903.1
9.21755e+07,79.8103,0,2.44068,-2150.79,-16680.7,-27286
9.21983e+07,42.7862,1,2.47592,-7297.17,5456.45,-28059.2
9.23079e+07,24.3142,1,2.53762,-3809.45,3203.16,-27174.3
9.27205e+07,133.526,1,2.68506,10633.5,23175,-16817.2
9.28668e+07,275.978,0,2.86415,-27919.4,-2819.29,-27270.7
9.38986e+07,61.7277,2,2.47825,-9730.49,2231.59,-20372.7
9.39309e+07,87.2557,2,2.94875,-5218,-16494.1,-22545.4
9.41599e+07,171.11,1,2.76903,14853.1,25197.4,-29506.2
9.41974e+07,47.1127,2,2.59257,-7390.44,1519.82,-22311.4
9.44684e+07,432.156,1,2.43374,26971.7,8020.82,25949.4
9.48501e+07,21.8109,2,2.62059,-2545.21,-3072.01,-26343.8
9.497e+07,93.0065,0,2.60668,8504.37,-15555,-20275.3
9.5016e+07,87.0494,0,2.78016,-16017.7,-6629.09,-23063
9.52439e+07,27.5776,2,2.76311,-1315.56,-4792.5,-25672
9.5809e+07,65.8691,2,3.01002,-11512.9,7289.12,-26482
9.59247e+07,40.8709,2,2.51249,7978.56,-3275.57,-28385.7
9.60773e+07,350.237,1,2.69374,-7457.28,-16939.6,5667.57
9.63117e+07,28.0018,1,2.87254,-4596.53,3471.54,-27196.9
9.63455e+07,167.729,0,2.48295,-10348.2,13281.6,2346.54
9.65442e+07,30.3868,1,2.81701,-3838.51,-1921.82,-24085.1
9.65467e+07,42.4197,1,2.44612,-2520.44,1001.95,-20255
9.65879e+07,68.6576,1,2.49541,7694.64,8266.6,-19667.5
9.66231e+07,15.223,0,2.76467,2098.93,-2127.5,-27497.9
0,15.1096,0,2.6409,0,0,0
9.69246e+07,14.0296,1,2.70619,2230.98,1936.73,-29390.9
9.69717e+07,172.225,1,2.99921,-7826.1,-5803.37,-18539.4
9.70863e+07,27.1154,1,2.74637,-3563.6,-4414.72,-29473.6
9.73936e+07,33.9147,2,2.82542,-6780.87,2187.83,-27892.6
9.76244e+07,26.8097,1,2.69779,-3785.8,-1171.7,-25543.3
9.76507e+07,99.241,0,2.91648,11599.1,15048.1,-20367.9
9.79978e+07,13.1808,0,2.91723,12.4584,2558.86,-27693
9.80947e+07,18.3952,2,2.61905,1506.74,-3608.19,-29536.9
9.82437e+07,132.284,0,2.37111,-14439.7,-4126.98,-5247.58
9.82893e+07,100.255,2,2.79778,-16205.3,10043.2,-19791.6
9.85334e+07,19.9727,2,2.71536,-2707.65,-2148.4,-26334.5
9.88773e+07,52.8042,1,2.8082,7841.82,7872.09,-27839.5
9.89942e+07,58.1362,2,2.82332,-10750.9,-1579.51,-23087.5
9.91518e+07,67.9808,1,2.9309,-7354.04,10963.6,-23211.9
9.91832e+07,110.941,2,2.37929,-12647.3,-3268.48,-9303.37
9.92586e+07,83.616,2,2.83468,-10472.8,5505.69,-15805.1
9.92748e+07,31.5383,0,2.69292,3825.08,4004.17,-25058.9
1.00522e+08,225.87,0,2.68987,-21166.6,-28448.8,2908.38
1.00717e+08,0.741923,0,2.90478,-37.1738,90.1946,-28717.2
1.00784e+08,28.4166,1,2.68299,4948.79,1494.9,-25789.4
1.00864e+08,10.7077,0,2.57383,2357.45,-91.875,-28623.8
1.00962e+08,27.978,2,2.57894,-4023.24,-223.041,-24456.1
1.01279e+08,58.1153,1,2.81618,-1540.42,12216.1,-28353.6
1.01381e+08,102.643,2,3.02559,8924.21,16312.6,-18147.3
1.02008e+08,33.4401,1,2.6377,4541.79,-3654.7,-24938.9
1.02076e+08,7.35297,1,3.0103,-856.085,1123.26,-27997.8
1.02495e+08,51.4629,0,3.05248,4448.52,-7718.29,-22683.9
1.02503e+08,32.037,0,3.05498,-1040.63,-2230.31,-22598.9
1.02593e+08,62.9878,2,2.54014,765.321,-8080.4,-18203.2
1.02919e+08,113.212,0,2.58928,-3169.5,-21549.2,-18927.7
1.03057e+08,35.7033,0,2.78446,879.817,892.881,-22066.8
1.03123e+08,0.755524,1,2.66745,-40.6241,268.793,-28884.6
1.03377e+08,9.62925,1,2.75609,-1238.05,1542.84,-28025.8
1.03404e+08,118.027,2,2.99581,1411.41,-24786.7,-29499
1.03543e+08,30.5397,2,2.87027,3160.55,1400.04,-23473.1
1.03656e+08,18.9882,2,2.55405,-2223.81,-3272.41,-29976.7
1.03796e+08,67.9775,1,2.95057,-4634.74,8076.36,-17942
1.03843e+08,133.887,0,3.02822,-14424.9,-10709.1,-11014.2
1.04147e+08,8.09535,0,2.85226,520.479,525.585,-27262.7
1.04484e+08,4.55683,2,2.78773,-780.993,572.574,-28680.2
1.04858e+08,73.7491,2,2.51465,5877.01,-13998.9,-25107.7
1.0486e+08,44.4114,1,2.66976,-8369.04,-1193.62,-24734.8
1.0486e+08,101.667,1,2.48858,7426.21,-14880.3,-15284.3
1.05231e+08,116.436,0,2.57844,-8312.11,-8294.41,-7247.9
1.0578e+08,37.7534,0,2.76247,2909.78,3422.8,-22215.2
1.05831e+08,9.70047,1,3.0137,-161.503,-905.923,-27020.7
1.05863e+08,98.1536,0,2.7179,19581.1,6362.14,-25931.7
1.06093e+08,47.2658,0,2.52917,6563.4,-3565.87,-22080.8
1.06378e+08,107.255,0,2.73501,17028.2,-8074.69,-16223.5
1.06514e+08,24.4265,2,2.88116,508.397,-3849.83,-25373
1.06885e+08,37.1054,0,2.91744,-3604.86,2897.84,-22580.5
1.069e+08,186.305,1,2.77579,26696.9,14149.2,-3832.98
1.07141e+08,140.318,2,2.67819,-27896.7,-10089.7,-28190.5
1.07207e+08,114.697,2,2.42344,-20900.5,4152.2,-17177.8
1.07407e+08,48.3732,1,2.93466,-5306.64,8353.31,-26118.5
1.07461e+08,71.4056,2,2.69427,9841.94,-7180.7,-19938.1
1.07702e+08,116.108,1,2.70184,-13824.2,-9100.11,-10787.8
1.07734e+08,114.852,2,2.80076,10021.4,-21960.2,-28064.9
1.07749e+08,69.2244,0,2.72316,11202.6,2424.79,-19683
1.08135e+08,88.0128,2,2.67453,-18081.4,-2425.31,-25036.3
1.08431e+08,121.805,2,2.60675,-22230,-7168.31,-17898.7
1.08963e+08,52.4698,2,2.96561,-10751.5,2317.91,-29692.8
1.09022e+08,51.5503,1,2.99777,5620.91,5818.53,-21603.3
1.09056e+08,43.4199,0,2.77583,1812.77,-8118.41,-24990.5
1.09147e+08,149.66,1,2.69987,21170.6,23221.1,-25605.4
1.09347e+08,35.777,0,2.61841,1251.27,-1650.81,-21552.1
1.0936e+08,22.1891,2,2.95667,-2234.12,3765.31,-27297.2
1.09653e+08,13.9241,0,2.64508,294.966,-1205.64,-27684.3
1.0968e+08,117.882,0,2.92523,4646.86,-13508.1,-22190.6
1.09729e+08,88.0547,1,2.66922,4506.04,16609.6,-21656.3
1.09831e+08,6.98077,2,2.64302,45.7116,723.136,-27570.7
0,7.01986,2,2.61448,0,0,0
1.10094e+08,182.05,1,3.0543,4840.73,22204.6,1474.4
1.10195e+08,36.906,1,2.59032,3253.26,-3092.55,-22510
1.10243e+08,55.1945,0,2.77623,-665.039,-11526.7,-27340.4
1.10249e+08,116.254,0,2.69597,1637.39,-1631.2,-28631.8
1.10256e+08,71.4553,1,2.92901,-5067.88,1967.58,-14813.2
1.10322e+08,94.5361,2,2.77239,-703.296,-8068.54,-10615.1
1.10325e+08,82.0619,2,2.41537,-15514.2,5644.91,-23320.2
1.10464e+08,42.9044,0,2.5629,-2268.49,-8502.59,-26639.8
1.10485e+08,100.16,2,2.37571,-20717.6,-196.826,-24041.5
1.10498e+08,53.9648,0,2.85012,1818.69,-5554.33,-19082.1
1.10511e+08,85.5021,0,2.8536,14041.3,10422.3,-24301.2
1.10545e+08,132.636,0,2.49925,20196.8,-11075.7,-12722
1.10619e+08,23.595,1,2.55859,-5025.47,631.329,-28772.1
1.10643e+08,22.4307,1,2.8404,-3929.6,-1463.05,-26588.3
1.1091e+08,57.0603,2,2.88358,3547.63,-7351.27,-19983.2
1.10952e+08,77.3352,1,2.53652,-2201.53,8292.91,-14851.2
1.11034e+08,78.4695,2,2.98356,-2526.26,-9802.02,-16303.7
1.11424e+08,189.006,1,2.94053,9507.71,19826.3,4164.37
1.11465e+08,137.256,0,3.00897,-9430.98,12828.8,-4887.24
1.11596e+08,126.045,1,2.72963,-19959.1,17078.5,-24688.4
1.11923e+08,13.3566,1,2.95423,-1994.88,1694.65,-27599.7
1.11928e+08,81.6456,1,2.83786,-13722.4,-10227.8,-27270.6
1.12345e+08,9.62152,0,2.70024,1032.95,-1735.38,-29409.5
1.1277e+08,57.1688,1,2.40081,-7459.22,6923.02,-22147.5
1.12933e+08,70.1633,1,2.47752,9148.21,10809.7,-24318
1.13152e+08,4.94703,0,2.98231,544.412,678.933,-28147.3
1.1316e+08,50.1478,2,2.90801,2011.93,3810.15,-19260
1.1323e+08,3.32514,0,2.7557,82.585,744.085,-28794.8
1.13236e+08,54.2256,1,2.86342,-10611.5,3829.01,-26671.5
1.13449e+08,8.37444,2,2.6781,-1522.3,-112.302,-27815
1.13544e+08,34.5169,1,2.92888,-2610.39,6373.5,-26333.1
1.13553e+08,12.0793,1,2.73785,-606.406,1163.57,-26581.2
1.13785e+08,36.344,1,2.69834,6331.02,3375.2,-26061.7
1.14128e+08,11.1982,2,2.47316,112.758,-2205.99,-29915.9
1.14299e+08,101.104,2,2.86325,10247,-16674.1,-20423.5
1.14304e+08,123.488,1,2.6921,-13352.7,-1677.77,-6519.83
1.14415e+08,193.627,1,2.42236,9088.63,10628.9,9667.83
1.14569e+08,68.6819,2,2.88288,7355.07,-7123.69,-18644.1
1.14645e+08,33.2727,2,3.05341,668.843,-6943.7,-27725.3
1.14775e+08,34.53,2,2.94144,510.506,-3355.6,-22382.7
1.15182e+08,7.26366,0,2.75277,1385.42,-808.994,-29031.7
1.15691e+08,29.6724,2,2.9973,-4790.87,3806.18,-27570.7
1.15904e+08,94.1079,1,2.57229,-12965.4,15178,-28445.9
1.16145e+08,72.239,0,2.57617,13314.8,-7650.89,-29496.2
1.16163e+08,43.9319,1,2.58671,-7503.92,-5485.84,-29089.6
1.16333e+08,179.827,2,2.8585,-14287.6,-8753.07,862.519
1.16369e+08,4.98218,1,2.67312,-988.313,216.27,-28418.7
1.16564e+08,51.5973,0,2.88517,4946.92,4357.27,-20790.1
1.16583e+08,4.37818,1,2.83305,-337.934,708.192,-28199.9
0,4.36921,1,2.63727,0,0,0
1.17108e+08,10.5984,1,3.04966,-2258.95,-28.5653,-29179.9
1.17398e+08,162.143,0,2.53325,-1251.61,19477.2,-657.647
1.17536e+08,28.3371,0,2.77639,-1074.2,5724.8,-27458.5
1.18156e+08,66.0612,0,2.51836,8394.15,3853.65,-18300.8
1.18351e+08,65.0088,1,2.87441,4478.64,8373.3,-18995.8
1.18427e+08,121.832,0,2.6108,-5324.64,15834.9,-9271.42
1.18713e+08,117.969,2,2.74024,12267.9,6697.91,-8357.37
1.18937e+08,43.6772,1,2.48387,-7719.71,-3098.97,-24751.1
1.19384e+08,45.6211,2,2.71677,-9402.12,604.596,-26586.3
0,45.8671,2,2.96919,0,0,0
1.19588e+08,75.6789,1,3.0302,7864.51,-12221.3,-22646.8
1.19604e+08,15.8723,0,2.94877,-1613.47,-2905.28,-28929.5
1.19772e+08,140.819,0,2.69479,18038.1,9966.21,-7411.15
1.20294e+08,28.1463,0,2.50387,1929.37,1786.3,-23464.6
1.20299e+08,4.22321,2,3.02927,285.451,-173.434,-27991.7
1.2031e+08,130.27,0,2.50695,6936.92,25103.9,-19791
1.2035e+08,95.8982,2,2.69008,-4409.87,13874.4,-14855
1.20353e+08,21.4904,1,2.66946,3124.75,-1745.44,-26087.7
1.20493e+08,27.1355,0,2.9165,-4723.79,-2899.01,-27709.4
1.20671e+08,78.3444,1,2.91025,-8234.58,-2805.56,-14837.6
1.207e+08,65.0366,0,2.42206,4258.21,-8792.12,-19093.4
1.2083e+08,171.531,2,2.8577,-20356.8,-24053.5,-11186.4
1.20921e+08,31.2899,1,2.93483,-6317.94,-1506.4,-27581.4
1.21046e+08,34.4819,0,2.61408,-648.129,6363.8,-25365.3
1.21156e+08,7.36045,1,2.4931,-211.084,1565.67,-28414.6
1.2151e+08,2.27061,1,2.87023,-350.252,279.923,-28511.5
0,2.23392,1,2.98328,0,0,0
1.21686e+08,68.1219,2,2.42565,-4525.37,-12079.9,-22223.3
1.21696e+08,37.7087,0,2.58067,-466.093,-6745.2,-24581.6
1.21973e+08,1.66347,2,2.84545,-315.666,-341.626,-28799.7
0,1.65947,2,2.3846,0,0,0
0,1.73686,2,2.78413,0,0,0
1.22333e+08,167.02,1,3.03955,6763.92,-19504.9,-648.877
1.22379e+08,60.3269,1,2.67946,-2509.27,8799.85,-19899.8
1.22989e+08,13.1443,1,2.9652,1630.42,1151.28,-27107
1.23244e+08,21.2608,0,2.8241,438.507,4466.81,-29237
1.23653e+08,55.9739,1,2.97427,5240.99,2439.5,-18599.8
1.23689e+08,58.1634,0,3.04856,8652.49,-8046.93,-25547
1.24031e+08,43.0241,2,2.87191,-2941.24,-764.683,-20285.7
1.24038e+08,101.089,2,2.57511,-11491.3,-18121.2,-29439.8
1.24274e+08,123.457,0,2.81337,1767.97,-25070.1,-22255.5
1.24334e+08,47.8888,2,2.68818,8115.82,-6022.47,-28015
1.24639e+08,123.133,1,2.68392,-18320.9,521.997,-10426.9
1.24652e+08,49.3451,2,2.56306,7568.34,6645.98,-26333.2
1.24877e+08,35.4233,2,2.98418,117.453,4648.32,-23123.8
1.2495e+08,22.2942,0,2.79319,3728.59,880.24,-27232.6
1.25044e+08,186.837,1,2.42396,24839.6,29102.9,-18718
1.25088e+08,19.1223,1,2.50818,1402,829.004,-25131.5
1.25337e+08,10.6285,1,2.93538,-1941.84,1250.89,-29033.5
1.25464e+08,106.046,2,2.79726,-6472.54,7758.43,-8930.52
1.25752e+08,8.22321,0,2.75459,-274.883,1404.46,-27840.8
0,8.13419,0,2.57403,0,0,0
0,8.17858,0,2.45109,0,0,0
0,8.22835,0,2.93181,0,0,0
1.2603e+08,133.81,0,2.99362,-24642.5,8807.96,-18937
1.26074e+08,164.218,2,3.01994,-24193.6,-12877.2,-8910.62
1.26082e+08,56.3207,0,2.93089,-5801.33,-1786.07,-26891
1.2622e+08,129.556,2,2.41799,18528.2,-12797.9,-24207.8
1.26268e+08,27.0318,1,3.05565,-742.476,5147.52,-26371.6
1.26283e+08,28.2493,1,2.77252,-2782.56,1025.82,-23622.4
1.26413e+08,53.0944,2,2.65875,6853.43,-6901.43,-23197.7
1.26607e+08,23.3347,2,2.56972,-1829.01,-4699,-28713.6
1.26686e+08,2.56721,2,2.59893,-23.4369,-336.646,-28343.2
1.27292e+08,83.4815,0,2.98056,-10971.5,-10536.4,-20276.3
1.27331e+08,47.7316,2,2.93055,-7761.98,-168.765,-22409.4
1.27556e+08,13.4875,2,2.92399,2053.1,1381.87,-29291.9
1.2776e+08,102.543,0,2.87369,6494.34,-16535.1,-16578.1
1.28003e+08,110.629,1,2.85448,9250.63,20369.8,-22315.2
1.28185e+08,12.63,0,2.77799,2599.72,374.179,-27970.1
1.28227e+08,44.1297,1,2.92704,-3387.12,4855.91,-21640.9
1.28849e+08,42.7019,2,2.53151,-792.494,-8585.3,-25836
1.2891e+08,50.973,0,2.94778,-6298.09,-3928.76,-21162.9
1.29052e+08,17.2301,0,2.59396,3576.54,1097.1,-29210.6
1.29164e+08,26.6369,1,3.0474,-5055.81,2347.42,-27756.3
1.29369e+08,24.4936,2,2.36261,3617.8,-294.178,-25150.4
1.29524e+08,17.05,2,2.48849,-2574.82,330.381,-26276
1.29802e+08,43.053,0,2.53086,7091.2,-1760.75,-23289.4
1.30036e+08,14.3982,1,2.64388,-492.119,-1409.26,-26187.9
1.30239e+08,119.087,0,2.82623,16483.1,-17706,-22119.1
1.30283e+08,50.0826,1,2.65068,7253.09,-4954,-23036.9
1.30432e+08,70.6929,0,2.99826,-7979.85,-6638.29,-18305.5
1.30438e+08,13.7425,0,2.42105,362.675,-2019.87,-26717.8
1.30506e+08,32.4559,1,2.79055,-4802.41,257.027,-23939.9
1.30828e+08,155.066,1,2.44142,12105.7,-16680.7,-3365.17
1.30861e+08,29.4733,0,2.81949,-1712.8,5771.09,-27366.2
1.30926e+08,139.374,0,2.9618,8397.65,3440.15,-1034.76
1.30949e+08,112.69,2,2.88047,-5862.49,16023.4,-22274.3
1.3096e+08,7.91659,2,2.87498,1237.04,-1153.19,-29162.8
1.30968e+08,75.8729,1,2.97387,-2754.2,-11019.9,-17718.3
1.31185e+08,14.8019,1,2.79376,-1683.63,2400.58,-27592.2
1.31244e+08,13.636,2,2.54946,1815.93,-2172.88,-29638.3
1.31419e+08,6.2729,2,2.79884,-812.807,-1187.25,-28959.3
1.31453e+08,45.7992,2,2.75698,763.555,-8847.85,-24900.8
1.31568e+08,18.8751,1,2.82593,1216.66,2670.78,-26096.4
1.31624e+08,9.30179,0,2.70081,1438.8,958.19,-29933.1
1.31772e+08,148.271,1,2.76243,2558.67,-12334.6,-301.192
1.31844e+08,95.4219,0,2.78446,8192.11,5641.44,-12380.1
1.31928e+08,81.1508,0,2.73595,11565.6,6914.91,-18208.9
1.31955e+08,43.7642,0,2.55665,-6868.22,-3571.2,-23842.3
1.32393e+08,47.4586,0,2.84281,7400.47,78.0583,-22029.2
1.32418e+08,13.6298,0,2.53749,1765.34,-1169.12,-26785
1.32497e+08,61.2601,1,2.5436,327.151,2617.98,-16130.9
1.32802e+08,33.2615,1,2.75138,4113.97,2836.6,-23901.9
1.33023e+08,55.9415,2,2.87237,-2806.25,4263.37,-18236.8
1.33451e+08,79.7269,1,2.89686,310.934,15570.9,-22496.7
1.33545e+08,236.203,0,2.59286,6149.34,-7345.33,-11727.5
1.33615e+08,136.452,2,2.40122,2966.52,18811.9,-7219.75
1.3378e+08,41.9698,1,2.83559,-3843.95,942.677,-20894.4
1.33785e+08,111.689,2,2.866,17974.9,-14960.5,-26395.4
1.33849e+08,190.229,0,2.83064,17255.7,21865,-880.499
1.33933e+08,53.3114,0,2.97131,-5556.41,-1001.19,-22634.6
1.34005e+08,7.24476,2,3.00154,-109.197,907.585,-27636.3
1.34135e+08,85.3021,2,2.69474,-2799.41,-16952.3,-23275.8
1.34386e+08,3.23054,0,2.43575,705.516,285.054,-28710.5
1.34476e+08,39.0833,1,2.43995,2629.5,3545.84,-21796
1.34617e+08,43.0635,2,2.89177,-8030.96,3502.2,-26465.1
1.34879e+08,205.294,0,2.72377,6981.61,-15432.3,10977
1.35193e+08,21.2851,1,2.98763,-3977.37,-1922.16,-27980.3
1.35443e+08,17.9646,2,2.53636,1998.71,-868.378,-25714.4
1.35485e+08,32.7906,2,2.59973,1029.06,-6722.85,-27101.4
1.3599e+08,12.6365,0,2.80991,2730.36,-151.326,-28903.6
1.36084e+08,49.6244,0,2.43491,1808.89,-9324.7,-24337.1
1.36109e+08,43.8694,2,2.84387,-9109.1,1760.37,-28741.2
1.36321e+08,64.9651,0,2.82165,879.386,-5746.75,-16456.5
1.36676e+08,251.91,1,2.67315,20684.1,-10747.5,18867
1.37012e+08,87.7246,0,2.97241,1391.04,-8037.89,-12352.9
1.37274e+08,215.413,0,2.51341,4746.66,-28562.3,6291.5
1.37555e+08,92.3134,0,2.88008,16054.2,7127.06,-20397.3
1.37564e+08,6.18393,0,2.99185,-1172.2,-261.459,-28506.1
1.37635e+08,43.9813,1,2.55033,-6913.27,5763.57,-26182.1
1.37831e+08,7.644,0,2.54236,-462.188,947.97,-27611.2
1.38442e+08,111.611,2,3.06045,-22854.5,4139.67,-25986
1.3848e+08,80.0499,0,2.43672,5628.2,-12620,-18984.6
1.38812e+08,78.7592,2,2.92692,-8693.67,-7666.68,-16975.7
1.38823e+08,120.113,1,2.70427,-22832.7,-4698.04,-19034.8
1.38863e+08,8.15757,1,2.41541,614.532,811.189,-27413.5
1.38881e+08,114.933,0,2.7974,20921.8,6317.5,-18275.9
1.38888e+08,95.5901,0,2.46272,12380.8,16078,-29087.9
1.38936e+08,29.717,2,2.97933,-274.544,2807.99,-23301
1.39159e+08,18.4386,1,2.85519,2143.24,-1258.81,-25881.1
1.39518e+08,52.0958,0,2.96709,931.063,9921.86,-24276.2
1.39553e+08,35.4624,0,2.46413,923.576,-7395.35,-27644.4
1.39631e+08,42.3611,2,2.95333,-463.927,-2765.47,-20376.8
1.39681e+08,52.1082,0,2.38967,4451.15,-2633.41,-28886.6
1.39756e+08,12.0361,0,2.85918,1878.95,-1626.43,-29686.5
1.3977e+08,11.6973,1,3.0313,364.79,2429.47,-28299
1.39779e+08,179.292,1,2.76392,961.018,15450.3,-19863.9
1.40032e+08,65.0874,0,3.00921,-9905.47,-5231,-21134.2
1.40226e+08,152.077,1,2.87916,-10562.5,27770.3,-16830.3
1.40334e+08,27.3871,0,2.68319,726.492,-5318.36,-26578.7
1.40467e+08,3.29806,2,2.77306,-547.109,-525.687,-28602.2
0,3.37992,2,2.72813,0,0,0
1.40512e+08,81.9631,2,2.99638,-1578.46,-6364.45,-14665.9
1.40579e+08,280.127,0,2.74119,-10530,29374.5,20941.9
1.40756e+08,3.68859,2,2.98162,-96.0433,462.474,-28248.4
1.40781e+08,176.277,0,2.70747,-25077,18237.1,-8465.56
1.41099e+08,213.533,1,2.65842,11601.7,-27306.2,4995.28
1.41272e+08,100.185,1,2.65947,-5582.96,-11843.6,-12279.9
1.41381e+08,34.3757,0,2.41221,5666.71,2698.25,-24996.1
1.4146e+08,166.444,0,3.04955,25751,20813.1,-18654.1
1.41464e+08,7.38334,2,2.4842,1399.31,-644.029,-28470.4
1.41522e+08,27.3258,1,2.54993,979.378,2530.81,-23701.1
1.41704e+08,115.942,0,2.67076,14015.5,-11935.6,-12654
1.41776e+08,45.9953,1,2.87695,-6421.42,-3073.3,-27376
1.41981e+08,58.6004,0,2.85538,12271.4,-1805.49,-28030.6
1.42154e+08,107.973,2,2.97334,-20093.2,-8122.67,-21993.9
1.422e+08,106.845,2,2.72922,718.134,377.406,-27783.5
1.42227e+08,78.543,2,2.57167,8838.49,6837.23,-16611.9
1.42335e+08,100.488,2,3.04444,6484.78,3672.71,-12780.7
1.42385e+08,12.3987,2,2.38196,-1801.57,1163.7,-27295.2
1.42435e+08,0.414058,1,2.47711,-135.934,152.725,-28851.2
1.42835e+08,104.244,2,2.87373,4695.84,-20164.3,-21542.2
1.42932e+08,52.0397,1,2.68275,-3101.67,-3536.53,-18915.9
1.43272e+08,25.7996,0,2.71093,-3833.05,-1663,-25410.7
1.43323e+08,39.2098,1,2.65013,5.99564,6287.04,-23349.8
1.44081e+08,76.0319,2,2.86088,-2849.18,10898.6,-17532.6
1.441e+08,72.5334,2,2.69203,249.047,-6562.13,-15010.9
1.44199e+08,29.561,1,2.52567,-4635.49,4309.95,-28300.3
1.44726e+08,43.1716,1,2.91743,-4041.7,6937.7,-24576.8
1.4501e+08,49.7978,2,2.97358,-2066.16,-6333.61,-22789
1.4538e+08,244.736,0,2.97468,25802.4,26539.7,6784.88
1.45396e+08,27.5003,0,2.463,-2742.84,-734.28,-23786.6
1.45726e+08,8.17919,0,2.46645,1033.29,1309.66,-28124.9
1.45908e+08,57.233,0,2.53273,6971.23,8023.68,-22954
1.45934e+08,128.785,2,2.67545,-7779.86,-16943.7,-9002.06
1.46061e+08,80.9582,0,2.55203,-13553.4,-380.171,-18465.3
1.46189e+08,157.632,0,2.69151,-19549.3,14804.4,-6606.23
1.46287e+08,13.9814,2,2.55829,-1327.05,-629.35,-26205.2
1.46379e+08,162.7,1,2.91836,12906.9,11227.2,-23988.1
1.46411e+08,171.478,2,2.69841,-29307.9,-21256.4,-27625.9
1.46427e+08,45.4191,2,2.55174,1273.31,-3620.44,-20002.5
1.4655e+08,3.4664,1,2.77154,-428.625,713.039,-28704.4
0,4.11895,2,2.86968,0,0,0
0,3.44823,1,3.05389,0,0,0
1.46655e+08,111.091,1,2.94285,9216.25,-5163.13,-8066.56
1.46684e+08,31.8055,1,2.61933,3605.16,-1862.45,-23494.9
1.46722e+08,148.3,0,2.51766,-4696.14,6366.1,-28607.9
1.46773e+08,234.086,1,2.71309,16655.7,29552.1,5029.23
1.46993e+08,20.608,2,2.7283,-4242.54,-351.472,-29910.2
1.47458e+08,12.8491,1,2.69815,-861.936,-197.615,-26263.8
1.47832e+08,74.6848,1,3.0291,-3851.95,895.305,-18049.6
1.48056e+08,47.4987,1,2.79086,-4642.03,7355.05,-23739.2
1.48148e+08,28.677,2,2.62968,-5032.81,-456.416,-25410.3
1.48192e+08,158.313,2,2.75182,16259.8,-23912.5,-12175.8
1.48654e+08,47.009,0,2.92808,4872.16,-1011.71,-20294.5
1.48743e+08,76.6264,1,3.04922,5529.35,15011.5,-27777.3
1.4938e+08,60.7667,2,2.62318,-5376.6,1196.26,-17213.4
1.49425e+08,33.3502,1,2.72751,6342.06,2888.76,-29905
1.49441e+08,159.736,1,2.63839,-19048.7,-14622.3,-5181.91
1.49501e+08,29.4838,1,2.92161,3501.5,1018.69,-23828.3
1.49693e+08,26.0828,1,2.99698,-2268.43,5083.66,-29160.5
1.49725e+08,50.4333,2,2.94888,-5309.85,-3199.6,-20188
1.49786e+08,102.768,0,2.6806,-11539.1,16953.8,-21895.4
1.49824e+08,6.27811,1,2.44761,1253.61,115.313,-28428.8
1.50145e+08,5.03853,1,2.69787,518.797,960.292,-29142.5
0,5.02449,1,2.39199,0,0,0
0,4.99822,1,2.88606,0,0,0
1.50172e+08,70.6662,2,2.62582,-568.496,7911.3,-22100.1
1.50523e+08,18.8122,0,2.90305,3640.78,359.622,-27127
1.50813e+08,47.4507,0,2.58713,2511.03,-9681.55,-29859.7
1.50823e+08,63.4915,0,3.04162,3521.24,9511.09,-21043.6
1.50851e+08,154.927,1,2.39403,22591.5,9194.21,-6927.23
1.50968e+08,62.0912,0,2.6652,7915.58,2887.6,-18722.6
1.50997e+08,314.375,2,2.83263,10086.9,-12016.9,-19667.3
1.51358e+08,107.469,0,2.39697,4364.84,-18067.3,-15727.2
1.51465e+08,55.0313,2,2.49991,-1719.39,-6806.97,-19476.5
1.51645e+08,31.7838,0,2.7184,6459.84,2068.31,-28483.1
1.52024e+08,99.4227,2,2.43815,-11542.3,-12208.7,-16054.8
1.52172e+08,26.6492,0,2.62513,-3609.23,-3942.6,-27229.1
1.52206e+08,25.5331,2,2.7955,2848.29,-2009.85,-24709.2
1.52233e+08,17.1535,2,2.72353,-2503.48,2067.81,-27190.4
1.5226e+08,96.587,0,2.8156,2367.97,-8588.09,-10573.5
1.52315e+08,81.7318,2,2.67538,-14717,-4450.12,-20932.5
1.52365e+08,29.5436,2,2.41496,-2135.49,233.397,-22943.2
1.52374e+08,16.8699,1,2.99667,1238.6,-3157.88,-28012.3
1.52554e+08,19.8598,0,2.98784,-3102.16,2547.83,-27845.4
1.53247e+08,93.1818,1,2.48263,-240.71,7585.86,-27136.1
1.53577e+08,15.416,2,2.85184,1313.6,-93.4209,-25896.5
1.53774e+08,17.2042,2,2.75169,-3482.97,189.387,-29998.9
1.5379e+08,104.676,0,2.72943,9452.33,930.878,-10130.2
1.53822e+08,60.7525,0,3.00442,8082.77,-6339.76,-24140.6
1.53827e+08,66.9559,2,2.94732,-11986.3,-7518.88,-28820.1
1.53843e+08,213.657,0,2.86786,-21261.2,336.812,10511.7
1.53977e+08,107.02,2,3.04799,-799.054,2240.49,-24339.6
1.54227e+08,60.3569,2,2.42837,-2380.4,-2846.45,-16582.4
1.54422e+08,115.575,1,2.47906,14236.5,10328,-11843.2
1.5446e+08,21.6886,2,2.69949,4175.65,-1854.32,-29259.8
1.54751e+08,7.82552,1,2.61001,-890.552,-999.087,-27852.1
1.5491e+08,85.308,2,2.76146,16307.9,6241.74,-25094.6
1.55158e+08,55.7049,2,2.78313,-4747.59,-2785.49,-18439
1.55299e+08,32.1315,1,2.52866,-5277.62,3331.87,-25920.6
1.55385e+08,19.605,2,3.02734,-3345.41,-2324.95,-29813.7
0,43.5676,1,3.02734,0,0,0
1.55522e+08,4.54578,1,2.73046,860.994,312.946,-28493.3
1.55561e+08,44.8326,0,2.65534,6739.73,3223.1,-22914.2
1.55692e+08,103.25,2,2.55891,19476,-9146.8,-25133.9
1.55721e+08,117.866,2,2.94952,5983.34,-5295.46,-29973
1.55783e+08,122.864,0,2.94465,-3791.33,-8479.47,-4786.32
1.56246e+08,17.7708,1,2.95932,3198.57,1930.11,-29142.3
1.56375e+08,115.842,0,2.81049,-9187.98,-17606.6,-14733.4
1.56662e+08,5.18742,0,2.76494,-83.1855,1081.85,-28757.9
1.56916e+08,17.169,2,2.90149,-1488.89,-2949.8,-27147.7
1.56956e+08,105.354,1,2.39251,-17471,9381.42,-18470.2
1.57286e+08,42.8933,2,3.00413,-8030.3,-2767.17,-25619.3
1.57379e+08,98.7935,0,2.41995,19908.8,-6346.76,-26648.8
1.57586e+08,26.8974,0,2.87769,3131.58,-2193.65,-24596.5
1.57648e+08,34.7141,1,2.73614,464.371,4485.25,-23002.2
1.57816e+08,7.04227,2,3.04179,346.744,-810.661,-27586.8
1.58251e+08,16.9937,1,3.03513,2638.55,902.258,-26582.6
1.5846e+08,62.3266,1,2.40822,-5618.47,9584.24,-21589
1.58655e+08,4.65897,0,2.9196,-744.871,565.205,-28672.4
1.58756e+08,126.395,0,2.87443,-9454.03,-21571.4,-17011.1
1.58762e+08,68.215,2,2.84781,8855.12,-11332.4,-28258.9
1.58806e+08,148.971,2,2.80334,-15750,-11980.3,-4477.27
1.58906e+08,24.4415,1,2.86765,-4666.3,2170.46,-29731.9
1.58965e+08,27.0441,2,2.97835,-1471.77,-4568.13,-25647.2
1.58965e+08,59.2994,1,2.76403,-9156.03,4366.03,-21424.6
1.59172e+08,132.335,2,2.92727,-18905.2,-18952.9,-22675.7
1.59353e+08,66.5114,0,2.53404,2810.86,-13765.8,-29699.1
1.5944e+08,5.90906,0,2.69624,246.498,521.995,-27684.4
0,5.92162,0,2.5939,0,0,0
1.5953e+08,127.506,1,2.54373,8523.71,4314.51,-3660.15
1.59592e+08,80.6406,2,2.99985,2565.39,-9892.46,-15304.4
1.59863e+08,173.822,0,2.89717,-14821,13077.6,1826.07
1.59888e+08,152.946,2,2.93137,-16849.5,-18460.7,-8586.9
1.59979e+08,44.2567,1,2.57816,2171.85,-8721.59,-26500.1
1.60029e+08,7.11667,0,2.40982,-1225.15,667.218,-28462.1
1.60261e+08,25.9624,1,2.38315,513.515,4288.84,-25336.7
1.60526e+08,45.425,1,2.97007,5843.69,2015.93,-21587.9
1.60685e+08,120.2,2,2.83539,18568.9,-891.531,-11744.2
1.60966e+08,91.7604,0,2.77148,-3024.56,17438.2,-21098.6
1.60966e+08,107.226,1,2.69363,-12659.5,-16008.7,-19145.4
1.61103e+08,19.54,0,2.52056,2112.06,3094.82,-26962.5
1.61122e+08,84.2959,2,2.63363,15835.5,2177.88,-21104.9
1.61382e+08,86.3356,1,2.78353,9181.67,11359,-17943.3
1.6142e+08,6.58454,1,3.0041,-886.349,818.649,-28042.9
1.61556e+08,74.5524,2,2.75674,-3074.13,12431.3,-19853.7
1.61704e+08,64.0822,1,2.54661,8163.1,10532.5,-26103.6
1.6176e+08,75.7782,2,2.7758,-9005.79,90.6643,-15625.4
1.61886e+08,95.8073,2,2.73466,8632.79,-18183.3,-26624.6
1.62082e+08,12.9297,2,2.57072,-2008.79,-1983.37,-28447.3
1.62145e+08,6.15175,2,2.71811,-468.634,-1262.7,-29144
1.62254e+08,113.498,2,2.78512,-2665.04,20536.1,-17047.7
1.62895e+08,162.166,0,2.53246,567.745,7645.42,-26830.5
1.62962e+08,116.905,2,2.83563,13068.1,6445.13,-9077.08
1.63115e+08,131.547,1,2.90899,3354.83,16259.4,-6699.77
1.6317e+08,38.0696,2,2.38059,6548.34,-3034.21,-25223.4
1.63256e+08,131.413,2,2.53113,-24869,-8105.98,-19319.7
1.63381e+08,121.321,0,2.70731,-15815.2,8649.93,-10767.7
1.63424e+08,70.4081,2,2.43997,-7202,-11039.2,-21695.7
1.63558e+08,11.7779,2,2.5966,-2280.37,-565.512,-27847.4
1.63715e+08,76.8388,2,2.56066,-5669.01,-13539.4,-24056.8
1.6383e+08,133.608,0,2.81286,5305.05,-5590.36,-18887.1
1.6386e+08,73.1637,2,2.93065,-4038.04,-4685.08,-14747.2
1.64062e+08,53.7156,0,2.87146,-7062.24,-8326.92,-26111.5
1.64071e+08,57.1287,0,2.83813,-11307,-1758.11,-25372.9
1.64135e+08,67.4816,1,2.56001,-457.729,6052.77,-15876.3
1.64268e+08,80.2478,0,2.67189,2727.07,8890.61,-14658.9
1.64534e+08,102.976,0,2.8468,16135.4,-12907.2,-22171.5
1.64661e+08,76.2914,2,2.5787,9322.18,-13180.9,-27608.3
1.64784e+08,27.0428,1,2.52742,4377.05,1381.28,-25437.6
1.65035e+08,31.5387,2,2.57954,-1478.37,-5805.49,-25699.3
1.65054e+08,4.52546,0,3.05126,185.672,269.355,-27905.5
0,4.48594,0,2.51319,0,0,0
1.65218e+08,13.8723,2,2.60895,-1382.37,-1730.07,-26810.5
1.65788e+08,21.7877,0,2.46734,1741.55,-2557.93,-25345.4
1.65838e+08,88.7887,2,2.6825,-10624.1,-10489.1,-17400.1
1.66193e+08,13.0069,1,2.56377,-1359.35,-2352.33,-29220.6
1.66353e+08,6.0086,0,2.47224,1039,-3.80622,-27969.8
1.66386e+08,164.573,0,2.81726,-15597.8,2909.82,1866.17
1.66413e+08,102.219,1,2.65947,-14083.8,11806.8,-17390.2
1.66446e+08,21.0904,1,2.5643,-1971.91,4006.23,-27905.8
1.66534e+08,3.18409,2,2.56136,-476.552,-430.189,-28431.6
0,3.17933,2,2.38959,0,0,0
0,3.24547,2,2.90968,0,0,0
0,3.25956,2,2.91195,0,0,0
1.667e+08,13.1745,2,2.77873,459.271,-2027.66,-27325.2
1.66975e+08,117.67,0,2.85697,24234.8,1563.98,-23646.5
1.67171e+08,21.5323,1,2.88326,-611.717,-3592.1,-26197.4
1.67632e+08,84.8951,2,2.9057,-4619.31,7746.87,-13452.1
1.6769e+08,67.1183,2,2.69202,3287.22,8003.4,-17702.9
1.6814e+08,47.932,2,2.43171,-6316.7,-8029.98,-28006.7
1.68155e+08,91.9309,2,2.82155,-17549.3,-7774.36,-25998
1.68285e+08,64.8065,0,2.88461,3610.89,1994.71,-21824.5
1.68511e+08,119.292,1,2.84769,-10539.9,-1255.18,-6082.44
1.68597e+08,146.788,0,2.82778,886.457,691.226,-27201.9
1.68959e+08,43.818,2,2.68723,-7529.31,186.469,-23377.5
1.69013e+08,2.59798,0,2.96664,476.474,41.8325,-29255.7
1.69054e+08,1.90417,2,2.81008,-230.508,-462.257,-28809.6
1.69097e+08,68.8877,2,2.67647,-12698.1,-628.944,-21676.3
1.69291e+08,186.636,1,2.39152,-23418,4207.54,1277.5
1.69474e+08,46.4319,2,2.45152,-5740.64,759.771,-20900.7
1.69935e+08,33.9381,0,2.39813,311.864,7170.59,-28499
1.70119e+08,167.504,2,2.44392,5268.54,-17848.8,1352.8
1.70535e+08,18.1033,0,2.95657,2832.83,1054.16,-26399.4
1.70698e+08,27.1065,2,2.7491,4881.82,1032.16,-26159.4
1.70882e+08,4.30252,1,2.81877,698.603,376.109,-29310.7
1.71025e+08,62.3377,0,3.03763,4184.85,-7686.08,-19090.1
1.71622e+08,33.0906,0,2.64658,3205.78,1208.57,-24221.8
1.71795e+08,113.552,0,2.57231,3902.31,22525.7,-21488.8
1.71807e+08,28.7969,0,2.49096,4643.5,2333.59,-25505.9
1.72e+08,130.32,0,2.74474,16473.7,15065.2,-15932.3
1.72014e+08,13.2242,0,2.45394,1448.41,2244.82,-27842.7
1.72185e+08,35.8068,2,2.91937,1012.46,4296.88,-22791.6
1.72414e+08,122.183,1,2.53158,-3459.05,-13154.2,-7440.01
1.72433e+08,15.1823,0,2.53162,-620.783,-3094.44,-28300
1.72446e+08,27.4015,2,2.97852,-634.181,-5365.29,-26700.2
1.72666e+08,79.7928,0,2.92663,6735.12,14380.5,-23392.1
1.73065e+08,26.5337,2,2.85922,-1373.53,3808.62,-25046.3
1.73227e+08,173.582,2,2.98191,7484.69,-2545.21,-2917.54
1.73555e+08,145.203,0,2.99696,-6151.17,-1490.85,-20798.3
1.73737e+08,65.917,2,2.40296,8639,4298.44,-18795.1
1.73772e+08,224.191,0,2.87837,26632.1,19484,4845.15
1.73821e+08,36.9002,2,2.91161,4119.93,4854.95,-24507.5
1.73846e+08,137.12,1,2.55134,5326.68,3138.44,-27421.4
1.74396e+08,127.173,1,2.39483,-22233.8,15251.7,-27266.8
1.74413e+08,3.35925,2,2.76963,-178.645,358.752,-28260.4
0,3.35752,2,2.50716,0,0,0
1.74589e+08,65.1445,2,2.38484,12950.5,118.573,-24186.1
1.74644e+08,52.0929,1,3.05152,-84.2611,3015.35,-18316.5
1.74655e+08,10.23,0,2.64446,1277.85,-1241.53,-27546.1
1.74742e+08,134.8,0,2.84988,-8186.42,15413.8,-6529.03
1.74804e+08,35.5494,0,2.50417,6482.78,3467.57,-26836
1.75267e+08,126.689,2,2.83305,-9635.24,-2684.28,-4131.55
1.75335e+08,6.58264,2,2.78496,-416.086,1132.96,-28184.9
1.75814e+08,74.8747,2,2.76348,-4386.53,-14989.5,-26009.8
1.76229e+08,2.87043,0,2.45128,629.08,279.64,-28689.4
1.76267e+08,44.8632,2,2.51884,-3798.87,-8662.33,-27192
1.76345e+08,220.903,0,2.9508,-5130.79,10677.8,-22999.6
1.76397e+08,27.874,0,2.53426,-1910.76,5261.29,-27074.5
1.76405e+08,54.3755,0,2.71212,-4894,-3285.5,-19027.6
1.76637e+08,68.0001,0,2.85645,5546.94,-6319.44,-17258.9
1.76658e+08,145.867,0,2.86349,-9227.05,-17288.7,-24740.9
1.77449e+08,15.8352,2,2.68913,-1328.33,-3116.18,-29342.3
1.77782e+08,43.364,2,2.72621,7844.38,4405.45,-27527.1
1.77815e+08,193.622,1,2.93764,27109.3,1016.19,-18091.7
1.7805e+08,92.8744,1,3.02669,2858.17,6087.24,-11504.9
1.78121e+08,70.4279,1,2.58299,-12516.9,-5747.19,-23176.5
1.78164e+08,4.01602,1,2.77678,209.176,917.448,-28886.8
1.7825e+08,9.24372,2,2.52946,-1646.69,736.615,-28039.2
1.78533e+08,17.7536,1,2.69844,-3287.25,1667.07,-27827.6
1.78823e+08,73.1616,0,2.82317,-6883.32,8241.55,-17852.2
1.78853e+08,13.3464,2,2.56666,-537.915,-1732.03,-26581.3
0,13.3688,2,2.63964,0,0,0
1.78853e+08,38.6846,1,2.85883,1701.71,3330.73,-21571.7
1.78956e+08,100.429,1,3.04933,-12328.3,-13068.8,-17942.4
1.78985e+08,68.4539,0,2.69453,-2446.37,-8924.9,-17778.8
1.7904e+08,20.0708,2,2.56999,-4255.82,111.828,-28213.5
1.79145e+08,67.3717,2,2.51573,-2472.69,7439.37,-16954.7
1.79199e+08,84.8593,1,2.97994,11943.5,-4051.41,-16314.4
1.7923e+08,94.5334,1,2.9324,-9114.62,-5406.24,-12045.8
1.79421e+08,37.4626,1,2.86527,6499.94,606.664,-24426.7
1.79625e+08,52.534,2,2.67319,-1730.46,-639.402,-17899.1
1.79714e+08,15.057,1,2.73974,-3087.48,-480.195,-28111.8
1.79781e+08,145.304,1,2.89034,10860.7,23035.9,-11971.3
1.79815e+08,47.3888,1,3.01959,3022.19,-5565.63,-23937.9
1.79944e+08,13.8396,1,3.03912,-2513.87,-1333.62,-29576.8
1.80319e+08,102.688,0,2.79262,16060.2,6508.5,-15849.7
1.8058e+08,41.8201,0,2.91748,-5744.37,-3491.28,-28008.2
1.80656e+08,1.28871,2,3.05027,171.816,-69.9548,-28620.6
1.80687e+08,83.0088,0,2.70203,-5366.31,-10283.4,-15762.1
1.80793e+08,143.685,1,3.02289,-29588.5,-2872.48,-23992.5
1.80954e+08,81.4854,0,3.05793,-534.86,-9243.73,-16088.3
1.80978e+08,85.4798,1,2.6207,-5622.33,-9666.53,-14692.7
1.81244e+08,27.6922,2,2.47803,-4184.94,-2474.39,-25490.8
1.81287e+08,20.6907,1,2.86763,-2794.2,1433.74,-25855.9
1.81347e+08,231.674,1,2.85986,-21922.9,-5076.55,14358.5
1.81642e+08,123.53,1,2.90638,-2983.2,13283.5,-6703.6
1.81765e+08,25.7302,0,2.82279,4301.25,946.312,-25552.9
1.81794e+08,135.457,0,2.6699,17278.3,9551.58,-12491.4
1.82205e+08,48.3788,2,2.78814,-2054.37,-9422.73,-25341.3
1.82206e+08,68.7902,0,2.69278,-1570.8,12254.3,-21246.6
1.82337e+08,23.9619,0,2.52213,5062.88,190.352,-27925.6
1.82352e+08,72.3307,2,2.54363,-7624.05,-10441,-20507.6
1.82818e+08,88.5938,1,2.71615,-14493.5,9249.94,-21402
1.83287e+08,104.686,2,2.82412,3386.72,9959.45,-9521.42
1.83631e+08,59.6837,1,2.82755,-4280.09,11398.5,-25406.6
1.83743e+08,57.8957,1,2.85599,-2763.79,7322.19,-19454.4
1.83861e+08,36.1955,2,2.58576,3600.61,-3445.09,-22996.3
1.83995e+08,82.5318,1,2.54225,-15710.6,4212.2,-22338.1
1.84015e+08,26.5567,1,2.70601,1018.83,1326.17,-23478.6
1.84227e+08,41.202,2,2.7033,5730.97,509.179,-22372.9
1.84285e+08,29.6525,2,2.60183,887.698,-4176.38,-24171.5
1.84357e+08,16.0263,1,2.94668,-2426.43,-656.296,-26530.1
1.84815e+08,53.8816,2,2.55811,-10851.2,3189.36,-27212
1.85078e+08,13.0783,1,2.8081,-2490.17,-1097.93,-28171.2
1.85157e+08,45.8519,2,2.83742,3343.12,7298.49,-23578.1
1.85241e+08,13.0691,1,2.4399,1003.68,1161.77,-26515.6
1.85333e+08,29.9509,1,2.96738,-1106.3,-2433.89,-23161.7
1.85364e+08,3.47053,1,2.70719,-698.503,-27.0048,-28447.2
1.85449e+08,0.626708,2,2.38329,-14.248,-8.9807,-28699.1
1.85961e+08,12.5343,1,2.84296,-836.074,1286,-26609.8
1.85995e+08,7.35065,0,2.3794,1587.13,-333.735,-29170.5
1.86593e+08,10.8494,2,2.96069,-2209.84,205.434,-28213.4
1.86596e+08,61.06,2,2.41279,-7350.87,8359.35,-22289.7
1.87205e+08,139.41,0,2.47552,4007.13,27436.7,-18744.1
1.87267e+08,61.4088,0,2.47296,-11574,2312.65,-23523.5
1.87603e+08,9.74672,1,2.9408,923.253,-930.174,-27295.6
1.87606e+08,51.5659,2,3.03346,6987.63,-1443.52,-20721.2
1.8764e+08,65.8209,2,2.44896,-9122.4,-10155,-25681.8
1.87696e+08,89.8989,2,2.89172,15949.5,2138.73,-19006.4
1.87824e+08,283.511,0,2.75567,23951.6,3843.35,24457.3
1.88154e+08,4.88674,2,2.88846,-877.769,-561.175,-28415
1.88183e+08,114.959,0,3.04004,-1833.92,-19979.2,-15559.7
1.88249e+08,60.9368,0,2.97609,8782.24,-7636.74,-23429.1
1.88441e+08,14.8163,2,2.39443,-1845.39,-2572.23,-28159.5
1.88843e+08,38.0856,2,2.59501,-7386.94,2550.29,-26874.6
1.891e+08,13.9404,2,2.44611,319.16,-899.074,-26039.6
1.89612e+08,176.449,0,2.95242,21300.2,7160.8,648.986
1.89659e+08,24.1046,2,2.36907,-1624.02,-3697.65,-25609.3
1.89775e+08,445.941,2,2.59336,26040.3,2266.9,21118.8
1.90086e+08,37.1799,0,2.86331,1002.82,2621.38,-27163.9
1.9039e+08,70.2074,2,2.63396,545.116,-5990.97,-16419.9
1.90396e+08,132.617,0,2.59419,-6693.92,13629.9,-5322.73
1.90713e+08,71.4008,0,2.92746,7201.13,-1196.6,-17132.4
1.90815e+08,113.51,1,2.72687,8932.08,-17030.8,-14705.1
1.90927e+08,184.199,2,2.99721,6073.43,2477.67,-16450
1.90946e+08,123.112,0,2.87681,-5351.15,-21986.4,-16356
1.9155e+08,32.0946,0,2.8002,2660.63,5995.42,-27099
1.91865e+08,66.2869,2,2.45183,13378.5,-3608.78,-26658.9
1.91927e+08,18.5242,1,2.46074,2631.61,2676.26,-27538.2
1.91995e+08,18.686,1,2.40697,2706.16,2026.07,-26733.4
1.92149e+08,82.1475,1,2.44173,7698.23,15591.2,-27359.6
1.92169e+08,80.8294,1,2.60081,-9039.65,-11882.5,-20619.8
1.92315e+08,172.182,0,2.97514,18915.6,8130.59,-27384.3
1.92444e+08,49.0104,0,2.40342,3888.68,3425.97,-19792.8
0,49.1426,0,2.62035,0,0,0
1.93028e+08,102.888,0,2.53418,12065.5,-15511.3,-19376.2
1.93223e+08,22.5077,2,2.67121,682.324,-4267.52,-26725.3
1.93297e+08,57.357,0,2.67792,4722.97,176.845,-17649.2
1.93358e+08,134.217,2,2.9264,4907.26,-14645.5,-5597.23
1.93778e+08,143.14,1,2.77299,-6104.94,29392.6,-25575.8
1.94004e+08,103.636,1,2.42894,-6458.22,2221.38,-7976.97
1.94708e+08,62.1373,1,2.63988,-11634,4441.13,-24502.7
1.94714e+08,208.024,2,2.71377,-1583.15,-21.3569,-25961.3
1.94728e+08,84.3207,1,2.73126,-7358.89,-6786.62,-14392.5
1.95042e+08,205.673,0,2.67584,21531.8,-22805.3,1193.51
1.95288e+08,168.857,2,2.61215,-23599.9,-23790.6,-16392
1.95669e+08,95.6606,1,2.74714,-18438.2,-7614.21,-25756.7
1.95771e+08,206.159,0,2.40382,11977.8,-27810.6,2594.04
1.96034e+08,105.452,1,3.01168,-19740.3,3781.93,-19529.9
1.96034e+08,46.4048,1,2.82999,-2782.47,-6443.79,-22118.6
1.96053e+08,86.7352,0,2.74295,7654.32,1769.15,-12299.6
1.96092e+08,56.4268,0,2.85852,1073.05,11776.7,-27586.9
1.96113e+08,160.582,1,2.64921,11638.8,-1249.66,-3107.67
1.96217e+08,78.0212,0,2.69794,-3705.13,16014.8,-28908.3
1.96503e+08,103.65,1,2.7721,2364.93,-19244,-18987.7
1.96672e+08,155.156,1,2.99496,-1970.92,-2670.62,-27331.8
1.96907e+08,10.8765,0,2.48284,1838.72,419.54,-27414.2
0,10.9094,0,2.91336,0,0,0
1.96965e+08,15.5981,2,3.00628,-2733.19,910.082,-27272.3
1.97137e+08,23.4554,1,2.60747,-4006.81,435.5,-25856.6
1.97212e+08,111.576,0,2.58929,22360.6,1690.29,-21284.6
1.97527e+08,117.449,0,2.90112,-19442.3,8368.1,-16254.9
1.97591e+08,17.2684,2,2.751,-2290.75,-2453.63,-27185.4
1.97648e+08,50.6833,0,2.39541,6585.87,1705.2,-20449.7
1.97677e+08,102.256,1,2.837,653.427,-20396.7,-22221.7
1.97971e+08,21.853,1,2.86564,2275.11,1418.42,-29338.3
1.98071e+08,71.4079,0,2.99779,5899.17,-7476.37,-20501.9
1.98371e+08,97.3675,0,2.67215,1649.84,13531.6,-13449.3
1.98662e+08,9.40714,0,2.99051,1040.78,1678.44,-28271.3
1.9895e+08,28.3263,1,2.90804,-3398.23,1879.58,-24239.6
1.99086e+08,155.832,0,2.43833,29309.4,-15279.7,-28785.7
1.99403e+08,33.3425,1,2.86615,3251.06,1542.37,-22796.4
1.99501e+08,10.4466,1,2.38124,-529.273,-645.975,-26781.7
1.99854e+08,5.45944,0,3.01813,1012.76,598.149,-29279
2.0001e+08,19.901,0,2.62033,2259.49,-3594.74,-28588
2.00032e+08,51.0928,2,2.69104,-1383.21,9602.67,-24226.1
2.00258e+08,14.9365,2,2.75121,-2347.24,-631.476,-26768.3
2.00284e+08,37.4388,1,2.8271,-3341.36,4627.3,-23301.4
2.00424e+08,81.5838,0,2.38039,10480.7,10421.6,-19826.4
2.00434e+08,98.4896,0,2.49324,8607.8,11670.4,-13826.1
2.0052e+08,33.2111,2,2.92399,1804.08,-6762.09,-27859.5
2.00826e+08,66.8996,0,2.9142,-5465.28,-2344.06,-16127.7
2.0105e+08,63.173,0,2.39743,-9859.24,-2034.29,-20098.4
2.01179e+08,34.1765,2,2.47103,-2592.57,5453.55,-24874.9
2.01506e+08,20.3524,2,2.50291,-1221.24,-4230.26,-28440.6
2.01547e+08,71.8986,0,2.97866,12692,8267.07,-28672.7
2.01658e+08,58.7687,2,3.01186,-3514.62,-11402.7,-25450.6
2.01744e+08,77.9892,2,2.82626,-12145.7,-10782.6,-26005.6
2.01781e+08,153.262,1,3.02294,20879.1,3751.43,-4724.47
2.01837e+08,52.7194,0,2.77457,3578.38,1821.28,-18441.9
2.01917e+08,13.8446,0,2.61502,2783.83,1079.93,-29410.3
2.02007e+08,188.16,0,2.50293,20949.3,902.035,5021.7
2.0206e+08,79.7025,2,2.56649,-2780.78,14450.7,-20712.6
2.02175e+08,94.7244,0,2.45367,-1262.76,18464.1,-21121
2.02211e+08,77.7893,1,2.5017,-16097.3,-3243.77,-27420.7
2.02284e+08,135.318,2,2.79314,-21031.8,3324.49,-9871.53
2.02294e+08,3.87857,2,2.78584,-677.676,470.351,-28832.2
2.02365e+08,59.9837,0,2.40504,2233.91,1814.51,-16462.6
2.0239e+08,34.8388,2,2.7179,-1157.16,-6028.73,-24664.1
2.02688e+08,63.7258,1,3.02007,-10649.9,4789.76,-22273.6
2.02797e+08,105.939,0,3.03918,5965.95,-8881.67,-10968.2
2.02952e+08,46.4874,1,2.96813,-60.6243,5044.34,-20460
2.02995e+08,46.394,1,2.85188,5142.58,8003.32,-26515.4
2.03435e+08,160.864,2,2.49002,20288.2,2729.12,-1707.58
2.03775e+08,36.8877,0,2.82882,-1172.17,5200.5,-23196.1
2.04075e+08,5.15632,1,3.04857,-1075.18,376.107,-28540.5
2.04111e+08,150.893,1,2.83451,13149,18797.1,-6871.09
2.0418e+08,84.7354,0,2.6998,-7434.79,9623.08,-15781.8
2.04209e+08,60.4235,1,2.97624,3100.71,-8988.28,-20520.7
2.04409e+08,111.854,1,2.62469,-5551.22,-18748.1,-15654.3
2.04675e+08,253.075,1,2.90886,-28173.1,24350.9,9075.19
2.04883e+08,64.3181,0,3.02356,10368.7,-7914.71,-25109.2
2.05062e+08,15.5124,1,2.91478,2638.4,461.497,-26965.9
2.0543e+08,36.208,0,2.52917,6694.14,-3857.43,-28371.3
2.05742e+08,60.8326,2,2.47191,12761.2,-1595.52,-29065.6
2.06018e+08,149.539,2,2.76492,-10640.9,-12852.5,-2091.85
2.06096e+08,76.918,1,2.65827,6627.15,5027.81,-16599.4
2.06165e+08,101.793,2,2.57188,-11051.5,-18048,-24419.6
2.06188e+08,17.8508,1,2.86306,1332.99,-1868.82,-25923.4
2.06336e+08,139.308,1,2.89363,-243.449,25301.7,-14041.8
2.06503e+08,58.4984,1,2.89922,10298.9,3896.32,-23368.3
2.06734e+08,168.802,1,2.60302,-27562.9,-3243.36,-6398.25
2.06936e+08,42.633,1,2.78364,-5175.75,2414.19,-21847.2
2.07498e+08,65.6617,1,2.90408,993.267,13634.4,-26374.1
2.07958e+08,97.8262,2,2.71355,-295.827,16460.5,-16491.7
2.08083e+08,62.6381,0,3.00816,-3876.54,-12433.2,-27249.7
2.08196e+08,83.898,1,2.36983,927.923,16985.8,-23565.6
2.08209e+08,80.9164,0,2.69766,3207.33,9713.19,-15144.4
2.08227e+08,245.924,0,2.72977,2879.74,7555.98,-28914.9
2.08248e+08,46.3524,0,2.84059,6248.85,-1041.28,-21341.9
2.08293e+08,58.7403,1,2.96211,-3371.87,5064.85,-18106.2
2.08374e+08,25.4218,0,2.66548,3989.65,450.333,-25172.2
2.08502e+08,25.7766,0,2.39866,4314.25,400.848,-25385.1
2.09113e+08,69.132,0,2.78264,14208.1,61.3376,-25284.7
2.09157e+08,80.0242,1,2.76742,4128.21,-14401,-21226.4
2.10051e+08,52.2429,1,2.48797,6080.48,4017.6,-20526.8
2.1021e+08,121.605,2,2.54067,-11152.5,-15806.7,-11798.4
2.1064e+08,79.4347,1,2.77286,-13354,-9794.97,-26457.8
2.10647e+08,39.629,2,2.46569,-8417.69,-257.312,-29328.1
2.10731e+08,98.3078,2,2.84752,416.582,-6961.65,-9354.85
2.10832e+08,190.069,1,2.47533,-14502.7,-4190.53,7028.35
2.10884e+08,4.96081,2,2.75533,634.021,-483.764,-28117.6
2.11059e+08,277.989,1,2.67989,-3253.16,4375.37,12540.1
2.11665e+08,22.8876,2,2.43506,-612.945,-1879.06,-24385.4
2.11783e+08,30.5647,0,2.82663,4720.13,-583.367,-24405.9
2.12186e+08,118.563,2,2.51375,21782.2,-9032.84,-20326.2
2.12391e+08,126.101,1,2.51727,8796.77,21117.8,-15048.3
2.1245e+08,82.7153,1,2.39669,6426.03,8107.37,-14678.9
2.12618e+08,5.2994,0,2.38376,637.281,-761.178,-28188.6
0,5.31381,0,3.00731,0,0,0
2.12724e+08,134.154,1,2.5281,16409.5,-4973.12,-6282.66
2.12887e+08,0.85747,0,2.62086,230.264,151.676,-28891.8
0,0.810342,0,2.43801,0,0,0
2.1292e+08,3.71496,2,2.70783,-595.954,-610.578,-28567.8
0,3.7857,2,2.8988,0,0,0
2.13018e+08,26.7552,2,2.73179,-2854.91,-3544.73,-25380.4
2.1323e+08,78.5652,0,2.7229,15077.6,955.469,-21829.4
2.13383e+08,109.6,1,2.71308,-17096.4,15109.6,-24655.6
2.13819e+08,130.344,0,2.87388,16542,12533.6,-10879.7
2.13866e+08,83.8481,0,2.86085,5738.45,3333.24,-12469.2
2.14117e+08,340.816,0,3.05799,-18218.7,-8186.96,-26333.9
2.14403e+08,192.476,1,2.79614,20887,2194.22,5765.12
2.14434e+08,8.37761,2,2.60716,1199.28,299.917,-27599.6
2.14588e+08,25.9015,2,2.60459,-5080.95,-2250.81,-29254.3
2.14997e+08,106.371,1,2.68846,1966.28,14406.1,-11718.4
2.15077e+08,190.193,1,2.4755,-28369.7,26586.5,-18447.1
2.15078e+08,192.333,1,2.64309,-623.99,15515.8,8689.44
2.15533e+08,9.74498,2,2.57339,-331.644,-493.107,-26824.7
2.15564e+08,53.8172,1,2.88762,-10190.7,-1938.64,-24300.5
2.1572e+08,41.9559,0,2.807,5314.77,7133.69,-28328.7
2.16314e+08,141.336,2,2.48542,-23405.6,-13154.2,-15512.9
2.16354e+08,59.9707,0,2.80676,5894.37,-7514.47,-20494.6
2.16475e+08,119.011,0,2.39454,6467.4,-19199.1,-13829.5
2.16769e+08,69.9836,1,2.44445,-10074.1,8997.03,-22540.6
2.17259e+08,99.4139,0,2.71361,19044,-5281.69,-21645
2.1757e+08,47.4841,1,2.60963,4236.28,-4471.45,-20962.4
2.17573e+08,199.481,2,2.77474,-23158.1,22840.5,-2287.29
2.17994e+08,126.825,0,2.88573,26339,-4683.17,-28740.8
2.1802e+08,23.1348,2,2.8859,1590.76,1017.44,-24370
2.18339e+08,162.483,2,2.78194,19363.1,10189.3,-2592.71
2.18573e+08,7.62163,2,2.56358,-1427.9,-942.14,-28978.8
2.1859e+08,52.2052,2,2.4031,-4406.28,9961.85,-27118.5
2.18676e+08,109.399,2,2.78927,697.345,-10114.2,-8122.27
2.18699e+08,115.861,0,2.53323,16863.4,17852.2,-28492.7
2.18785e+08,45.3039,0,2.92609,1284.67,8464.25,-24616.1
2.18826e+08,91.682,2,2.84054,14864.6,1685.59,-16694.5
2.18836e+08,102.306,2,2.998,-7838.36,7408.8,-10298.5
2.19045e+08,101.167,1,2.50758,-12502.3,-1751.07,-11893.1
2.19048e+08,24.8707,2,2.70868,-1842.08,-3748.01,-25524.8
2.19106e+08,30.2835,0,2.46076,3814.17,5144.36,-27868.1
2.1945e+08,59.7895,2,2.47788,-646.545,-7853.65,-18873.4
2.19547e+08,113.55,0,2.90278,17601.8,2375.32,-12811.8
2.1968e+08,83.9619,1,2.52321,-5402.57,-5801.36,-12975.9
2.19832e+08,86.9568,1,2.94784,-5410.24,9621.58,-24464.7
2.20134e+08,126.675,1,2.93059,-1559.86,1312.53,-29271.8
2.20208e+08,177.122,0,2.993,25327.6,-21997.1,-12838.5
2.20351e+08,219.496,1,2.89691,-21128.2,-6370.28,-21732.8
2.20439e+08,34.6917,1,2.84434,-5490.61,-460.941,-23999.2
2.20481e+08,128.426,1,2.52592,1059.97,9415.18,-3377.66
2.20727e+08,14.9735,0,2.97122,1377.36,1262.22,-26240.5
2.20941e+08,16.3396,0,2.84215,1469.68,223.728,-25698.4
2.21121e+08,147.801,0,2.65497,-20539.4,-4589.03,-5921.56
2.21252e+08,19.4275,0,2.4462,623.618,1988.34,-25277.1
2.21444e+08,239.869,1,2.53368,29024.7,28242.8,1699.48
2.21495e+08,29.5923,1,2.91918,-662.292,4595.75,-24600.9
2.21515e+08,32.0271,2,2.51459,2095.18,3801.51,-23693.9
2.21769e+08,63.6951,0,2.70693,4858.99,-2521.04,-16547.4
2.21881e+08,7.28776,2,2.93145,-179.062,-1092.85,-27681.2
2.22074e+08,116.778,2,2.76074,-23927.6,-5550.77,-27039.9
2.22107e+08,12.7983,2,2.39315,1054.28,79.9011,-26336.5
2.22237e+08,134.338,1,2.54701,9498.56,7027.16,-3009.7
2.22289e+08,87.7427,0,2.9204,11849.3,-1959.97,-14799.4
2.22404e+08,7.08259,1,2.95799,1074.05,-695.209,-28136.1
2.22458e+08,59.0237,1,2.60491,-461.633,10406.3,-21866.9
2.22529e+08,147.419,2,2.51057,57.0181,-9158,-21804.4
2.22596e+08,127.818,0,2.66354,10797.6,-9432.22,-11704.4
2.23304e+08,28.5106,2,2.7654,-4476.39,2196.17,-25427.6
2.238e+08,51.353,2,3.05818,622.529,5154.96,-19453.8
2.23893e+08,36.6912,1,2.39387,-7227.84,-2823.62,-28182.9
2.23894e+08,73.7028,2,3.04083,-4575.34,-11177.4,-19087.1
2.24119e+08,2.67848,0,2.62079,-183.348,31.044,-28308.6
2.24124e+08,14.0112,2,2.97527,1308.11,-780.645,-26286.6
2.24577e+08,49.7978,2,2.57565,-1877.77,-10403.6,-29925.2
2.24651e+08,56.5702,0,2.68652,11621.5,1806.82,-26279.8
2.24825e+08,51.6743,0,2.49005,7991.91,616.772,-21286.8
2.2497e+08,28.4199,1,2.4437,-2673.44,-476.137,-23474.3
2.25056e+08,28.5174,0,2.66102,-2168.76,2426.1,-23776.5
2.25091e+08,168.154,2,2.92188,16960.2,22710.1,-7911.95
2.25618e+08,4.6689,2,2.59746,525.122,-428.668,-28089.1
2.26034e+08,118.205,2,2.59282,12850.4,15180,-14936.2
2.26081e+08,7.38354,1,2.71489,315.743,1628.98,-28890.2
2.2679e+08,90.3733,1,2.59353,-18115.5,6201.87,-29403.5
2.26846e+08,63.3407,2,2.79838,-4104.54,-3152.82,-16508
2.27057e+08,26.8943,0,2.90958,1157.33,3793.52,-24769.8
2.27097e+08,126.874,1,2.99364,16722,6735.86,-9288.34
2.27249e+08,20.2479,1,2.8266,-3589.8,2487.54,-28935.8
2.27424e+08,27.6416,0,2.65512,1608.97,852.438,-27676.8
2.27466e+08,15.6405,1,2.79669,233.957,-2278.27,-28461.1
2.27604e+08,118.295,0,2.36406,5078.56,18920.1,-13214.5
2.27705e+08,162.01,0,2.7367,22581,-10493.9,-5402.66
2.28406e+08,97.4529,1,2.67531,-5669.31,-9745.07,-11687.5
2.28939e+08,75.3338,0,2.7795,13167.4,-8993.94,-28305.9
2.29221e+08,90.3631,1,2.99673,18903.3,-85.151,-29822.8
2.29289e+08,12.2745,0,2.47306,-506.154,-2100.75,-27398.7
2.29343e+08,46.8927,0,2.75924,108.814,8874.1,-24470.3
2.29453e+08,62.6484,1,2.65188,10754.8,-7133.9,-26214.5
2.29463e+08,11.1554,1,2.37353,-2110.19,342.662,-27662.9
2.29888e+08,109.317,0,2.71364,22516.3,-2204.49,-24022.6
2.29922e+08,23.5716,1,2.77456,-2420.14,4430.58,-29161.5
2.30314e+08,29.644,0,2.72857,5691.17,2711.8,-28033
2.30435e+08,165.163,2,2.59427,1725.93,8629.37,-9266.81
2.31006e+08,26.4014,2,2.47889,-900.989,-3633.1,-24611.2
2.31072e+08,12.283,2,2.36749,-1686.4,1774.99,-27976.2
2.31197e+08,43.7876,0,2.56031,3200.24,-8385.33,-26397.7
2.31235e+08,133.153,2,2.48224,20435.4,-17938.1,-21486.6
2.31291e+08,126.006,0,2.71153,26330.6,-4014.36,-28541.5
2.31308e+08,43.8265,2,2.92415,8258.59,-506.787,-27228.7
2.3156e+08,29.5966,0,2.68731,462.06,3203.8,-23500.1
0,29.375,0,2.49034,0,0,0
2.31569e+08,30.3592,2,2.7126,-3957.19,-4462.18,-26256.3
2.31618e+08,76.8564,2,2.67002,15730.5,1969.82,-25584
2.31659e+08,11.5007,2,2.59681,-1926.1,-1601.25,-29132.4
2.31998e+08,77.2386,0,3.03725,5735.19,3962.58,-14181.7
2.32193e+08,152.573,2,2.91298,24779.2,-20128,-25821.9
2.32395e+08,0.692317,2,2.79471,-132.367,-103.387,-28698.2
2.32421e+08,140.534,0,2.39204,15433.1,-15746.7,-8794.89
2.3277e+08,44.1306,0,2.82403,8173.36,-4382.06,-27525.9
2.32796e+08,14.2349,0,2.37207,-1465.44,1137.86,-26491.8
2.32797e+08,88.4081,0,3.05654,12962,-7648.73,-17923.8
2.32931e+08,75.5459,2,2.7864,-7740.42,-1215.54,-14957.1
2.32964e+08,28.5765,2,2.9203,2471.26,1548.73,-23602.9
2.33259e+08,39.4703,1,2.6998,-4260,7242.14,-29524.2
2.34045e+08,125.407,1,2.71235,2411.49,25685.4,-22816.5
2.3405e+08,78.812,2,2.58872,15768,-366.727,-23545.1
2.34071e+08,149.452,0,2.91729,23256.8,6268.24,-8619.79
2.34234e+08,21.1998,0,2.83486,2368.91,-3587.25,-27418.4
2.34293e+08,7.34706,2,2.79538,-1052.34,552.806,-27824
0,7.31793,2,2.47688,0,0,0
2.34491e+08,112.017,0,2.8278,21265.3,9383.63,-24537.5
2.34536e+08,42.1825,0,2.72259,3281.34,-4921.2,-22124.7
2.3464e+08,120.43,2,2.83015,5712.62,-22467.7,-18542.4
2.34751e+08,159.727,0,2.81119,18249.1,-14547.3,-4597.05
2.35017e+08,33.3538,0,2.49579,5898.98,-586.764,-24855.8
2.3586e+08,113.039,0,2.58614,9983.82,4436.91,-7554.89
2.3608e+08,153.62,2,2.82297,21221.2,15571.7,-10172.6
2.36125e+08,211.398,0,2.90059,684.621,-8002.92,-28741.4
2.36483e+08,124.816,0,2.95981,24170.6,-3214.38,-20162
2.36723e+08,20.1505,0,2.8383,3220.65,2516.63,-27433.4
2.36734e+08,40.7393,0,2.72703,7043.94,4975.96,-27890
2.37837e+08,133.693,2,2.38435,-11609.7,5213.63,-3557.68
2.38072e+08,53.4027,2,2.59938,216.737,5850.34,-19229.7
2.3814e+08,2.3833,2,2.9977,-413.243,-25.708,-28496.2
0,2.39043,2,2.95084,0,0,0
2.38156e+08,88.3773,0,2.46937,-1279.58,-17709.6,-22985.8
2.38207e+08,6.64635,2,2.506,-205.6,823.712,-27729.6
2.38666e+08,33.3312,2,2.8614,-5060.61,-5015.39,-28787.8
2.38737e+08,171.945,0,2.75816,-24683.9,-2327.56,-2522.49
2.38864e+08,91.7727,1,2.8887,-2640.26,11737.8,-13725.2
2.39016e+08,3.21592,1,2.96762,359.105,603.179,-28644.9
2.39101e+08,70.5038,1,2.3769,-2353.15,10603,-18497.2
2.39147e+08,49.0014,0,2.80721,3223.63,9743.18,-27360.7
2.39348e+08,25.4069,0,2.74843,1095.2,-5173.77,-29955.5
2.39361e+08,88.5243,0,2.84506,-4960.5,-15889.3,-20534.8
2.39474e+08,78.2353,1,2.74309,-9174.74,4387.23,-15826.9
2.39496e+08,33.398,2,2.38655,-6819.76,-1684.33,-27578.5
2.39851e+08,32.5044,0,2.64131,5717.45,3974,-28772.4
2.40164e+08,39.7998,0,2.79331,-4094.95,16.6659,-21555.1
2.40271e+08,37.9045,2,2.57694,2917.25,-1964.21,-21635.9
2.4055e+08,146.99,1,2.39938,-13152.4,12407.8,-13766.1
2.41021e+08,25.3995,0,2.70794,4418.81,3185.48,-29225.7
2.41138e+08,74.5494,2,2.39697,-11383.3,5281.09,-19217.6
2.41183e+08,42.2104,0,2.79992,5640.27,2294.99,-22302.6
2.41478e+08,151.001,2,2.69302,-788.023,4801.87,-27734.8
2.41528e+08,130.941,0,2.43417,-6204.79,-26975.1,-27532.8
2.41625e+08,131.006,0,2.72414,13802.5,-18076.6,-13172.6
2.41708e+08,129.719,1,2.77613,-9932.35,1760.91,-3441.03
2.41729e+08,1.36863,2,2.6004,-322.156,-114.741,-28781.1
2.41839e+08,172.615,1,2.89004,-3821.55,-21316.2,220.094
2.41937e+08,149.122,0,3.00312,7755.87,-16076.5,-25786.4
2.41967e+08,200.141,0,2.66329,9776.64,10101.6,10975.4
2.42095e+08,58.8222,1,2.99044,8926.5,3751.59,-21159.3
2.42128e+08,42.0164,0,2.70191,-3798.22,254.329,-20850.4
2.42451e+08,18.1149,2,2.48276,519.533,-1940.41,-25514.9
2.42899e+08,164.018,0,2.69741,22541.4,-5037.8,-3047.82
2.43571e+08,46.3355,2,2.87831,-9506.21,2333.61,-28738.3
2.4376e+08,3.16983,0,2.86106,-42.638,593.72,-28478.2
2.44036e+08,91.7522,0,2.95334,18837.3,-796.813,-24528.5
2.44332e+08,78.1032,2,2.9272,-2610.58,-7064.92,-14232.5
2.44359e+08,47.9362,2,2.6644,-6203.87,-3248.9,-21482.5
2.44683e+08,1.06372,0,2.83848,198.638,188.734,-28703.4
0,1.05026,0,2.51251,0,0,0
2.44775e+08,10.1372,0,2.54314,954.703,444.531,-26903.6
2.45397e+08,34.7149,1,2.90276,-5276.85,5071.76,-28538.2
2.45645e+08,64.8347,1,2.91643,2236.43,8534.56,-18420.7
2.45794e+08,28.1466,0,2.95961,2235.4,-561.92,-23354.6
2.46057e+08,190.118,0,2.58625,25422.3,-19539.7,-4547.79
2.4628e+08,35.1247,1,2.47874,520.468,-3720.95,-22455.5
2.46393e+08,15.8741,2,2.57326,-365.021,2198.84,-28425.1
2.46595e+08,157.885,1,2.75221,-24201.6,-21681.5,-21869.3
2.46631e+08,41.6887,2,2.60143,-3186.31,-8305.12,-29336.4
2.46856e+08,65.6282,1,2.74005,-3362.97,4595.21,-16182.9
2.46962e+08,37.0506,2,2.59594,-2440.76,-7545.08,-28451.3
2.48475e+08,147.175,1,2.88256,17243.7,3938.16,-3473.27
2.48735e+08,29.2341,2,3.02162,2280.16,-3936.6,-24673.5
2.48935e+08,51.8689,1,2.93053,-7962.01,7557.93,-29430.2
2.49088e+08,209.618,0,2.88933,-14741.9,17460.1,8731.27
2.49159e+08,10.7902,2,2.87267,-1279.85,-590.652,-26976.9
2.49192e+08,53.0665,1,2.97364,8646.79,4124.75,-23130.8
2.49292e+08,25.3366,0,2.36369,-565.821,-5350.37,-29200.4
2.49292e+08,25.9988,1,2.9867,2881.73,3479.07,-25738.9
2.49599e+08,42.6566,0,2.70098,826.074,-8644.22,-26390.4
2.49893e+08,32.3902,0,3.05124,-1215.41,-5221.9,-24651.4
2.4991e+08,170.048,1,2.45506,-19035.6,13464.3,-1401.03
