#class tools::wcsv::ntuple
#title time
#separator 44
#vector_separator 59
#column double eventID
#column double t(ns)
#column double copynumber
#column double energy(eV)
#column double x(mm)
#column double y(mm)
#column double z(mm)
18701,62.3327,1,2.36757,-4920.48,4576.56,-17534.3
174247,49.1575,2,2.51593,5685.47,-8758.35,-29062.2
284825,150.673,2,3.04246,-15094.5,-16645.3,-6735.62
469667,49.2598,2,2.75963,-6264.31,-8027.82,-26761.1
609512,182.326,0,2.8288,24246.8,-19803.2,-6584.42
696484,174.395,2,2.73648,-16827.2,-4078.48,3559.67
721939,140.42,0,2.85395,25958,-4291.05,-15200.8
744762,225.251,1,2.53578,-16239.6,-26923.9,6948.28
850428,54.0783,1,2.87248,-5725.55,6907.46,-21659
898160,42.287,0,2.54712,-2003.2,3911.89,-21139.7
929278,172.355,2,2.77155,-23305.9,-17317.9,-7127.1
975588,127.386,1,2.97012,-7087.65,20619,-18208
1.07993e+06,102.385,2,2.83371,-15896.8,5014.33,-18671.4
1.15069e+06,40.6533,2,2.9987,3468.01,-5378.44,-23127.5
1.15742e+06,19.5661,1,2.74818,-2808.81,-725.626,-25852.6
1.21548e+06,29.7828,2,2.745,3987.87,-2703.92,-24840.9
1.3993e+06,46.3946,1,2.90625,-819.329,9654.33,-27079.4
1.58888e+06,151.64,2,2.63255,-26869.3,-17507.3,-28986.7
1.59176e+06,39.3693,2,2.82825,-8280.92,619.478,-28055.3
1.61587e+06,12.9307,2,2.78012,-1807.42,-1987.96,-28079.6
1.72492e+06,304.392,2,2.80445,-28642.1,-6526.14,14097
2.26626e+06,83.7133,2,2.45876,-8457.83,873.139,-13277.7
2.27745e+06,9.38012,2,2.42977,-411.242,888.798,-27136.2
2.62321e+06,24.1216,0,2.42104,4504.57,454.047,-26260.5
2.68362e+06,15.5941,0,2.8709,-984.534,-1042.61,-25908.3
2.78178e+06,86.3683,2,2.68946,2883.31,-16389.2,-21273.2
2.90534e+06,19.2462,2,3.04763,-1577,592.7,-25525
3.04968e+06,87.0362,2,2.50768,-511.731,-16748.8,-21378.1
3.19798e+06,5.08985,1,3.01672,-661.006,893.819,-29268.8
3.20141e+06,43.4563,0,2.54219,2930.31,-2380.88,-20329.6
3.66851e+06,56.3941,1,2.64834,3504.76,4593.18,-18389.5
3.67411e+06,85.1137,0,2.82534,-2283.48,-10713.5,-14718.4
3.69834e+06,26.5172,0,2.51513,3624.53,-3402.61,-25871.8
3.86967e+06,179.943,0,2.83866,-6687.33,-19660.7,-24119.8
3.93179e+06,31.7036,0,2.73723,3158.83,-3570.66,-24024.3
3.93792e+06,103.725,1,2.6723,-15753.2,-5229.84,-14573.7
4.18304e+06,10.3636,0,2.89239,-975.444,-235.345,-26826.4
4.27938e+06,149.052,0,2.74102,29683.3,2724.64,-18491.8
4.33445e+06,45.5917,0,2.79858,-2736.31,-5097.85,-21191.7
4.50323e+06,23.8217,0,2.45995,2055.67,-2295.72,-24812.9
4.54362e+06,61.8084,1,2.75897,-7706.78,2614.75,-18604.7
4.60278e+06,35.4616,1,3.0193,-4655.41,5027.92,-25743.2
4.88824e+06,88.4985,2,2.73282,8183.9,-8941.63,-14782.5
4.90436e+06,8.9171,2,2.43297,-373.574,1457.31,-27827.8
4.93708e+06,241.392,1,3.0554,-10763.6,-5891.65,10038.6
4.93887e+06,81.419,0,2.81325,10582.4,4808.43,-16201.9
5.10513e+06,60.6184,2,2.66133,10383.1,-5953.15,-24251
5.20346e+06,126.733,0,2.8533,-154.466,-20299.5,-11789.3
5.24758e+06,38.7778,1,3.0551,7223.66,3801.67,-28460.3
5.28576e+06,14.1115,1,2.61637,-2983.41,144.235,-28108.4
5.3199e+06,13.3227,2,2.8102,-1472.02,536.717,-26488.8
5.4139e+06,113.099,1,3.05593,3751.05,20106.5,-16765.8
5.41973e+06,39.6568,1,2.36217,-6899.18,4953.34,-28594
5.45143e+06,25.9134,2,2.95081,2111.51,4101.11,-28675
5.56401e+06,136.496,0,3.02736,20952.2,-16595.2,-18815.5
5.64316e+06,12.1037,0,2.75967,-1251.85,625.465,-26776.9
5.85188e+06,100.79,0,2.43035,9265.56,-12857.9,-14431
5.87704e+06,24.6996,0,3.05662,3638.72,-3530.77,-27603.2
5.88434e+06,145.3,2,2.66645,-8589.21,2442.97,-26186.3
5.90971e+06,26.196,0,2.54467,4363.04,-3418.74,-29458.5
5.99721e+06,22.1828,0,2.68069,4604.32,1436.47,-29326
6.01614e+06,127.339,2,2.72647,7863.85,-24656.1,-21265.9
6.04481e+06,24.3987,0,2.68156,2450.48,4587.33,-28675.9
6.04643e+06,11.7926,0,3.01694,2424.73,-365.878,-28217.8
6.0835e+06,45.7793,2,2.56363,-6180.75,-3927.75,-22502.6
6.10824e+06,23.7694,1,2.5497,-1705.57,4268.45,-26702.1
6.2143e+06,12.1606,0,2.65852,-2221.09,-148.65,-27653.3
6.34977e+06,52.0425,0,2.66251,3455.81,9998.27,-25663.9
6.37063e+06,19.5178,0,2.64422,1804.92,-2964.69,-26941
6.42109e+06,5.29814,0,2.95802,869.936,121.174,-28426.7
6.45707e+06,103.889,1,2.82754,19718.5,-5739.88,-21385
6.49629e+06,33.5383,1,3.00625,6014.79,3647.41,-29421.8
6.58782e+06,172.234,1,2.45095,24937,-178.105,-2289.2
6.75288e+06,86.4142,2,2.8298,-17049.6,-5958.38,-26954
6.89121e+06,61.632,1,2.73015,5337.12,-2205.69,-17215.8
6.90382e+06,125.98,0,2.674,-4896.77,23925,-18630.3
7.03389e+06,147.984,2,2.67467,-11982.3,-27974,-21813.8
7.07785e+06,52.9988,1,2.47028,-2530.37,-5766.38,-19506.6
7.17684e+06,39.2913,0,3.00582,-5699.15,-4996.17,-26055.2
7.35798e+06,17.8459,0,2.43527,2193.72,3123.44,-28443.7
7.39644e+06,105.95,1,2.76213,9851.97,-14118.1,-19459.5
7.45598e+06,187.787,2,2.62854,23945.4,14851.8,-1039.52
7.4771e+06,126.285,2,3.02923,21377.2,9479.93,-16412.5
7.54836e+06,53.2657,0,2.61594,3380.93,3808.91,-20289.4
7.55563e+06,25.6422,0,2.79402,1757.18,4482.46,-26321.9
7.70097e+06,64.3149,0,2.49059,13031.3,2718.3,-25444.8
7.81876e+06,122.991,2,2.61901,-6605.05,-11267.6,-6328.07
7.93133e+06,165.143,1,2.7608,-27777.3,-20285.1,-26276.7
7.966e+06,18.7247,2,2.51146,-1126.11,-3505.07,-27146.1
7.97046e+06,101.94,2,2.84344,-17805.4,-3872.53,-23541.5
8.04951e+06,21.676,2,2.83394,3096.31,-3486.78,-28831.6
8.34209e+06,23.2695,1,2.53938,-4671.97,218.137,-27058
8.51164e+06,32.6596,1,2.94907,-2592.66,6460.1,-28348.4
8.5931e+06,59.8826,2,2.84683,-413.088,-12602.3,-27453.6
8.67619e+06,80.7967,2,2.96817,-9505.69,-12073.5,-21442.7
8.88481e+06,39.4164,0,2.42753,7304.84,4264.53,-27521.2
8.8938e+06,15.9946,1,2.60092,-1490.28,1752.22,-26280.9
9.12152e+06,127.032,1,2.56153,-13774.8,-18533.8,-15237.5
9.27886e+06,111.71,2,2.88896,3362.35,-8774.37,-10192
9.33105e+06,50.6048,1,3.03514,-8224.55,-4222.15,-24529.2
9.36414e+06,196.897,0,2.9197,19947.3,-6708.1,6765.41
9.39309e+06,24.4899,1,2.68332,-3781.05,-948.365,-25568.4
9.41632e+06,182.789,2,2.94084,-22809.9,-7074.29,1231
9.62266e+06,38.9508,0,2.9376,1185.84,-6950.7,-24644
9.79432e+06,125.867,2,2.67913,11127.9,-18369.9,-13113.4
1.00085e+07,175.82,0,2.46371,-21147.2,19876.4,-5604.47
1.00424e+07,223.554,0,2.4003,6459.79,-28647.2,8268.68
1.04528e+07,73.3505,2,2.94087,1451.77,-7271.87,-15305.8
1.05167e+07,28.7959,2,2.72028,-4418.2,4114.77,-28256.4
1.05763e+07,64.9601,2,2.8875,7225.85,-11110.6,-25591.8
1.05916e+07,57.4291,1,2.96387,2906.9,10339.8,-23218
1.06846e+07,26.9519,1,2.38737,2600.76,2118.08,-24236.4
1.08723e+07,238.117,1,2.4886,22484.5,-20469.1,-10451.2
1.08836e+07,2.01077,0,2.50317,146.585,-398.02,-29052.1
1.09238e+07,114.944,1,2.89647,15724.1,-7008.09,-11928.7
1.1032e+07,82.2024,1,2.36941,-8292.04,7361.32,-25816.9
1.10725e+07,16.6953,1,2.84968,-127.735,3653.73,-29231.8
1.12377e+07,85.64,0,2.50696,3365.25,-8594.01,-16238.4
1.12718e+07,128.105,2,2.68986,-8848.61,17652.8,-10500.9
1.14314e+07,189.651,2,2.51572,-19955.4,-18183.6,327.828
1.15296e+07,195.564,2,2.69415,-10646.3,21592.8,1601.56
1.16622e+07,94.3206,0,2.41859,-12773.9,11175.9,-18462.7
1.17046e+07,81.3437,0,2.61005,9132.38,-14388.3,-26217.6
1.17237e+07,8.94556,2,2.65482,-1593.44,-788.996,-27949.2
1.18501e+07,63.828,2,2.51835,-1108.39,-10886.8,-21294.8
1.18646e+07,132.6,2,2.99384,-2447.46,-12904.7,-4327.34
1.19271e+07,107.147,0,2.92379,-198.828,18839.3,-16501.4
1.19573e+07,10.8754,0,2.6705,-147.425,2018.01,-27602.5
0,10.8385,0,2.61048,0,0,0
1.19995e+07,174.965,0,2.52146,-20286.5,4230.51,-15176.1
1.20118e+07,20.6261,0,2.55374,-4223.44,-574.304,-28173.8
1.20251e+07,23.4335,2,2.59535,2070.52,-4330.21,-27305.6
1.23269e+07,21.5963,0,2.53216,-831.937,-2290.89,-25090.1
1.23366e+07,22.9588,2,2.79997,4185.18,-1510.72,-26856.1
1.2361e+07,59.2042,0,2.59809,-619.555,-12370.1,-26899.7
1.30208e+07,124.339,2,2.73642,20952.5,-13586.5,-21039.1
1.30364e+07,75.8512,0,2.96272,6971.78,-5314.43,-27068.5
1.3488e+07,27.5308,0,2.98394,-1462.81,3061.52,-24280
1.36201e+07,209.468,1,2.78591,7242.89,3098.27,-23991.4
1.36537e+07,23.3534,2,2.83824,-2041.24,557.802,-24309.1
1.37571e+07,34.2673,1,2.88682,7007.13,120.254,-28084.2
1.37813e+07,13.1587,1,2.97263,1286.12,-824.612,-26619.3
1.38551e+07,13.0027,0,2.50457,2056.03,1585.11,-29915
1.38907e+07,29.069,0,2.75821,3582.11,5004.37,-28369.3
1.41746e+07,136.195,1,2.74313,-2051.84,20810.1,-9322.35
1.42892e+07,65.5767,2,2.9271,-11931.8,6204.03,-25811
1.4292e+07,54.6254,2,2.6748,-10192.5,4250.68,-25411.9
1.44163e+07,7.54117,2,2.72972,-894.511,-1296.36,-28205.9
1.45057e+07,85.9948,1,2.52271,-10453.3,13384.7,-22109.1
1.45681e+07,34.7861,2,3.03543,-2355.51,4829.16,-23776.3
1.46454e+07,31.3251,1,3.02872,-751.275,6588.62,-28262.1
1.465e+07,14.0893,0,2.91317,2492.68,1403.8,-27764
1.47654e+07,189.839,1,2.77014,16073.9,-17600.7,3146.48
1.47951e+07,30.3873,1,2.54954,-5105.69,4065.68,-29475.8
1.48197e+07,57.241,0,2.87201,2698.42,-9638.57,-22008.7
1.48457e+07,96.5832,2,2.38422,11268.1,7157.81,-13358.7
1.48901e+07,48.5212,2,2.63911,-4067.4,-9541.12,-29156.1
1.4989e+07,220.325,1,2.95561,-673.392,-428.824,-28895.9
1.51597e+07,242.87,0,2.77535,18107.2,4979.34,14535.9
1.52018e+07,97.019,0,2.9284,-12206.1,-12574.2,-18394
1.52104e+07,12.4402,1,2.65198,-1616.95,-1453.25,-27664.6
1.53129e+07,47.4563,2,2.69061,-9266.02,532.883,-26317
1.53387e+07,73.8875,0,2.4249,2054.29,6716.73,-14939.3
1.53747e+07,147.973,0,2.99547,-11178.2,22179.4,-10299.7
1.5407e+07,47.2183,1,2.41686,-2469.69,-6733.79,-21924.4
1.54084e+07,56.7426,1,2.53506,-1376.09,6234.63,-18553.2
1.57936e+07,169.468,1,2.81099,-1502.84,-17936.5,-28172.1
1.58146e+07,138.826,0,3.05144,-23392.6,-2548.9,-11848.5
1.59441e+07,17.4569,1,2.83363,2887.5,2003.04,-28598.5
1.60098e+07,37.3213,1,2.63504,-2583.39,3370.46,-22383.6
1.6025e+07,73.7576,2,2.5185,6033.57,-2744.96,-14749.2
1.61913e+07,10.7272,2,2.92871,-546.494,348.59,-26681.4
1.62462e+07,64.1571,2,2.4595,-11305.3,-1754.75,-21432.3
1.62572e+07,22.5816,0,2.56584,3998.59,-918.584,-26250.6
1.62574e+07,60.7021,0,2.86538,6159.88,-6306.35,-19550.4
1.62855e+07,17.4804,0,2.64291,754.446,448.975,-29257.3
1.62986e+07,111.593,1,2.64287,20097.8,-2393.72,-16847
1.64292e+07,37.9111,0,2.47904,1999.36,-6335.91,-24212.3
1.64534e+07,31.762,0,3.02167,4975.04,3288.42,-25660.6
1.64909e+07,46.6251,2,2.38935,4209.66,-8407.71,-25488.9
1.65018e+07,39.0959,1,2.52147,-5930.54,5099.21,-25781.4
1.66733e+07,80.1582,2,2.38589,-15707.2,6263.37,-26424
1.68015e+07,127.628,2,2.44203,-16093.6,-21725.9,-29583.4
1.68481e+07,58.1677,0,2.86055,11178.3,-5144.61,-28751.6
1.69241e+07,11.5636,2,2.74409,-2243.18,369.872,-29779.8
1.7279e+07,110.048,0,2.79502,19819.1,3815.06,-17322.3
1.73423e+07,90.7411,2,2.44655,-2973.46,-12093.8,-14195.3
1.74258e+07,54.7659,0,2.76474,-2913.49,-8021.58,-21120.3
1.75454e+07,118.939,0,2.58269,23845.5,-1532.81,-20761.1
1.75746e+07,34.9674,2,2.69001,5653.62,-4006.74,-26596.8
1.78459e+07,5.71558,1,2.7126,-575.865,611.721,-27983.8
1.78769e+07,73.0838,1,2.50486,-7208.6,-11663.9,-21960.1
1.81266e+07,20.906,0,2.45471,862.139,-2725.6,-25341.2
1.81539e+07,118.169,0,2.40534,18266.1,12222.6,-16635.4
1.86577e+07,3.98022,1,2.5637,93.8609,445.468,-28001.8
1.86897e+07,6.79635,0,2.43875,1515.54,-154.855,-29037.9
1.86929e+07,28.0318,0,2.68336,4452.59,3702.58,-27673.7
1.87861e+07,102.592,0,2.9134,10570.6,-18198.8,-23967.2
1.88122e+07,94.6535,2,2.53874,4391.37,-16795.5,-18736
1.89175e+07,1.10198,2,3.05979,43.6739,-41.4393,-28633
0,0.919677,2,3.00135,0,0,0
1.90295e+07,40.4888,2,2.38644,8080.75,-2848.68,-29353.7
1.93541e+07,194.268,1,2.91123,17585.2,26465.6,-14371.9
1.93734e+07,19.7167,2,2.60496,2459.39,-3393.44,-29565.3
1.95028e+07,30.2251,0,2.9086,3250.21,5518.2,-28822
1.95256e+07,13.1544,1,2.94936,-2569.12,-931.94,-28404.1
1.96244e+07,92.062,2,2.77683,12576,-8110.45,-16603.3
1.97147e+07,111.787,1,2.84221,13513.7,16610.2,-19084
1.97769e+07,55.8162,0,2.50432,4567.29,-4930.31,-18913.8
1.9822e+07,45.4235,0,2.47944,839.199,-7390.93,-22709.9
1.98511e+07,76.502,1,2.89959,5999.6,10674.9,-18986.5
2.0456e+07,155.591,0,2.81252,23602.1,15634.7,-12684.9
2.05789e+07,112.005,0,2.3625,-16830.8,6688.03,-13834.1
2.0768e+07,5.96955,2,2.52314,540.39,277.933,-27788.5
2.08309e+07,129.785,1,2.99853,-642.84,-21389.7,-12129.7
2.10682e+07,57.8437,2,2.89132,1455.33,-2561.68,-26512.2
2.12657e+07,121.967,0,2.57158,1967.6,12298.2,-6440.67
2.13376e+07,220.24,2,2.71594,23619.3,-19594.3,5923.57
2.15092e+07,25.394,0,2.7087,1186.72,2357.84,-24156.7
2.15217e+07,72.8752,1,2.85847,-13788,3421.38,-22928
2.1671e+07,88.9669,1,2.7441,-7700.48,-14992.5,-20535.7
2.16865e+07,138.151,0,2.76822,8428.95,27561.3,-26834.8
2.17783e+07,86.9314,2,2.68535,-16124.6,-3833.77,-20706.1
2.18038e+07,12.7097,0,2.99137,2651.31,-243.444,-28188.2
2.1991e+07,132.449,1,2.83179,-21960.7,4958.96,-12307.5
2.20815e+07,54.792,0,2.49819,5763.3,-5844.57,-20579.5
2.21213e+07,28.5558,0,2.9319,2797.89,-5082.07,-27133.9
2.21932e+07,97.292,1,2.37236,6666.99,-11918.2,-13467
2.22624e+07,16.1188,0,2.96019,-2107.94,-2509.64,-28967.2
2.23008e+07,82.659,0,2.75545,3028.21,13076.1,-17732.8
2.23013e+07,21.2493,0,2.9511,-917.027,3769.73,-26964.1
2.23431e+07,4.47105,0,2.52851,829.805,137.617,-29291.5
2.24187e+07,6.17736,1,2.80658,528.285,-656.134,-27883.8
0,6.04983,1,2.57011,0,0,0
2.2505e+07,66.9239,2,2.76436,2924,-13828.2,-26713.8
2.25166e+07,44.4546,1,3.01925,5239.99,7592.1,-28373.1
2.26033e+07,113.868,0,2.87121,11638.2,16925.6,-16530.2
2.26338e+07,89.531,2,2.63184,-9640.74,6863.13,-14111.5
2.26394e+07,63.2097,0,2.5641,1022.89,-13343.6,-28587.4
2.2842e+07,24.0907,1,3.04779,-1882.87,1566.81,-24429.3
2.28872e+07,43.7089,2,2.78304,2594.74,-8714.91,-26903.9
2.29887e+07,16.4565,0,2.70682,1802.44,2545.55,-27259.2
2.30375e+07,79.0534,1,2.7719,1352.78,-7414.77,-14073.2
2.30619e+07,97.0297,1,2.75136,-10252.6,17546.4,-25780.9
2.31455e+07,198.648,1,2.84742,-22046.7,28001.5,-9859
2.32005e+07,11.2068,2,2.58644,1315.41,-460.082,-26858.1
2.32485e+07,49.6645,0,2.60516,3900.9,-692.639,-19155.5
2.35873e+07,28.7603,2,2.37725,5450.44,2367.26,-27878.1
2.36173e+07,176.997,2,2.5743,22476.9,-9464.58,-521.466
2.37715e+07,3.57493,1,2.64546,389.101,-344.9,-28244
2.38134e+07,128.478,2,2.77437,-21121.2,2930.6,-12236.6
2.38539e+07,72.3477,0,2.60485,8446.22,9584.07,-20450.8
2.39899e+07,148.182,1,3.03942,-2885.62,-8617.93,-24785.9
2.4239e+07,70.4217,2,2.80523,-7826.43,-6700.64,-17897.6
2.42892e+07,20.5254,2,2.56871,-4222.78,-1026.06,-28264.6
2.42997e+07,69.9545,2,2.51628,-10645.9,-5769.8,-20212.1
2.44811e+07,69.551,2,2.86324,-11517,-4105.98,-20703.3
2.44846e+07,32.1097,2,2.39501,5467.52,971.005,-25503.1
2.4732e+07,5.94162,0,2.81302,470.255,221.205,-27821.3
2.48422e+07,115.958,0,2.64029,-8328.66,-22652.3,-24941
2.48449e+07,61.258,0,2.68544,6950.52,10341.3,-25188.3
2.48769e+07,59.7185,1,2.95473,8125.99,9182.72,-25943.5
2.49599e+07,96.7948,2,2.56308,11778.6,-6715.73,-13346.2
2.50674e+07,19.2667,2,2.60473,2373.16,-2935.88,-27173.7
2.54957e+07,134.825,0,2.7347,4071.12,-22012.5,-11251.5
2.55317e+07,103.966,0,2.81,13744,-957.878,-11769.1
2.5537e+07,188.795,1,2.79569,17797.9,22602.9,-1526.92
2.55536e+07,13.1232,0,2.4694,723.65,-1773.05,-26792.5
2.5837e+07,69.9255,2,2.82192,-7279.39,-8433.87,-19412.1
2.59904e+07,139.805,2,2.72867,-22775.1,4836.31,-10750.3
2.61658e+07,34.2257,2,2.86512,-3680.23,-4883.86,-25021.4
2.62519e+07,31.6838,0,3.05883,-3523.7,-4265.01,-25449.3
2.63581e+07,140.36,1,2.58195,-25733.2,-4091.64,-14615.6
2.63658e+07,40.5199,0,2.57766,-1060.43,8506.41,-28912.8
2.64748e+07,51.7684,0,2.71587,10123.8,1671.68,-24863.8
2.64916e+07,18.7722,0,3.06117,-1935.98,1555.8,-25828.4
2.65519e+07,109.713,2,2.39888,7858.97,-18398.8,-16999.7
2.65556e+07,116.288,1,2.36408,11480.7,-1686.62,-7195.92
2.6676e+07,42.8646,0,2.70256,4525.89,-7887.69,-29085.7
2.67603e+07,42.2845,2,2.51432,-7128.88,-2559.79,-23980.2
2.67612e+07,97.216,2,2.54879,14658.1,2034.85,-14754.4
2.68238e+07,2.38665,1,2.49035,64.9313,480.448,-28606
0,2.2332,1,2.70892,0,0,0
2.70419e+07,164.468,0,3.00304,-15462.9,2755.16,1771.03
2.70533e+07,6.46048,2,2.83284,15.8102,961.421,-27958.3
2.73299e+07,10.068,2,2.94486,664.803,683.086,-26925.9
2.75916e+07,104.619,2,2.66115,5958.89,21048.2,-26321.5
2.76212e+07,1.69602,1,2.96861,-122.052,376.654,-28624.4
0,1.69429,1,2.56149,0,0,0
2.76506e+07,106.777,2,2.89559,20292.1,798.477,-19835.9
2.76759e+07,111.123,1,2.39827,-2036.43,-17210.9,-12968.7
2.80443e+07,18.8165,0,2.58176,2478.44,3246.48,-28272.4
2.80903e+07,33.3802,1,2.68541,-3926.05,5958.43,-29265
2.81878e+07,41.2281,2,2.88024,2475.1,8108.62,-27420.2
2.82624e+07,93.9374,2,2.38145,-861.846,-17544.7,-19193.7
2.82827e+07,53.8464,1,2.84784,5471.08,-3317.69,-19507.7
2.83754e+07,48.0325,0,2.65523,10045.7,2223.78,-28829.3
2.8453e+07,1.70403,0,2.40049,-186.755,234.398,-28630
2.84812e+07,145.805,2,2.65137,-21246.9,11717.4,-9933.36
2.84833e+07,85.708,1,2.86237,-16016.4,2196.92,-20705.2
2.8568e+07,172.754,0,2.52852,8781.9,21162.9,-740.294
2.86201e+07,5.77893,1,2.47643,514.941,983.073,-28208.8
0,5.90102,1,3.04792,0,0,0
2.86634e+07,140.854,1,2.88132,21397.3,-5461.58,-9138.83
2.87569e+07,14.9796,1,2.38882,-3078.98,481.306,-29083.3
2.88142e+07,224.632,2,2.49791,-13086.3,-20189.9,12056.4
2.88729e+07,14.2127,1,2.68335,-1430.93,2581.2,-29761
2.90515e+07,73.586,0,2.91662,3524.22,7874.92,-15881.1
2.9151e+07,151.637,1,2.46838,-10009.5,8892.86,-8698.36
2.92795e+07,93.5342,2,2.8922,3215.24,-8870.06,-11573.2
2.93034e+07,120.308,2,2.98048,-17788.9,-3147.8,-11189.2
2.93073e+07,31.7161,1,2.63154,-2359.69,3869.03,-23885.2
2.93589e+07,84.8712,0,2.5581,15057.4,-5555.32,-24479.1
2.93828e+07,45.3256,0,2.71599,1662.03,9406.6,-29763.1
2.95861e+07,320.812,2,2.86175,-21684,-18215.9,-11470.9
2.96213e+07,59.9289,2,2.96399,-6220.78,-1465.16,-17974.9
