#class tools::wcsv::ntuple
#title time
#separator 44
#vector_separator 59
#column double eventID
#column double t(ns)
#column double copynumber
#column double energy(eV)
#column double x(mm)
#column double y(mm)
#column double z(mm)
50662,11.7015,2,2.68082,-721.831,-1296.23,-26774.9
358232,65.9045,2,3.02086,2357.02,-12485.1,-23214.9
432774,39.6469,0,2.73171,3499.52,-2665,-21658.9
644729,114.901,1,2.44262,4747.68,14102.7,-9562.67
1.09344e+06,39.4662,1,2.85864,539.247,4797.64,-21950.9
1.11871e+06,55.0709,2,2.67703,-5864.27,-7187.26,-21751.4
1.20687e+06,142.162,1,2.4237,-12941.4,-13265.3,-5166.99
1.33438e+06,15.8957,1,2.48303,-782.405,3249.86,-28337.1
1.38001e+06,200.29,1,2.61446,-26287,-24280.8,-6279.58
1.54618e+06,24.2625,0,2.57187,2015.2,-3662.76,-25823
1.63652e+06,17.7461,1,2.4144,-304.328,3793.2,-29214.1
2.03688e+06,218.424,2,2.77452,-28819.6,-12804.9,4644.91
2.22333e+06,48.6318,1,2.82646,1196.43,4414.43,-19580.5
2.23958e+06,45.6718,1,2.55522,4351.15,-3711.57,-21537.4
2.29669e+06,307.404,2,2.9828,18788.8,-25695.3,7880.8
2.54027e+06,45.683,1,2.96355,-6912.31,3095.29,-22559.6
2.59001e+06,7.596,0,2.44577,-585.349,1124.58,-27743.5
2.67929e+06,15.5929,2,2.62279,-1278.35,-1115.23,-25949.8
2.70231e+06,86.4495,0,2.4172,8542.85,1309.44,-12867.3
2.96018e+06,185.063,1,2.70991,366.895,24296,1929.48
3.06852e+06,128.694,0,2.6079,20205.9,7537.9,-12192.1
3.07462e+06,122.503,1,2.48933,-7396.93,20456.6,-14544.2
3.08628e+06,56.0525,1,2.3639,-5671.36,2482.26,-18592.5
3.20422e+06,116.184,0,2.91424,19308.1,15000.1,-27514.3
3.21411e+06,19.3852,0,2.9387,-1801.3,2786.92,-26495.1
3.23297e+06,121.969,2,2.96526,7216.78,-2717.63,-15398.6
3.23461e+06,38.3898,2,2.72623,-6074.4,-269.878,-23418.7
3.38285e+06,224.583,0,2.70901,27693.5,-18991.8,4679.84
3.43997e+06,32.3796,1,2.80486,3009.68,4572.1,-24759.8
3.51595e+06,69.7093,2,2.5882,28.2889,-7224.35,-15944.4
3.52092e+06,20.9191,1,2.49497,3922,2098.47,-28701.9
3.63536e+06,182.832,0,3.01719,-22149,-8023.14,-29117
4.27035e+06,24.8743,1,2.54626,-2441.96,1508.03,-25436.8
4.30024e+06,26.5736,1,2.78958,-158.186,814.7,-27227.3
4.35359e+06,13.3379,2,2.99977,-21.7815,-2823.68,-28079
0,13.3097,2,2.57328,0,0,0
4.43681e+06,94.9874,2,2.54183,-594.043,-19951.1,-25943.2
4.49949e+06,223.4,0,2.65677,16212.8,19997.2,10667.1
4.51303e+06,17.9628,2,2.75081,-2164.81,843.871,-25822
4.56298e+06,27.1931,0,2.70245,2944.12,-3322.81,-25088.4
4.60184e+06,32.3719,1,2.46268,-4530.01,-429.891,-23724
4.62764e+06,107.298,2,2.60353,20363.3,8136.63,-23211.2
4.63034e+06,12.698,2,2.61813,-1133.89,88.4424,-26391.4
5.14521e+06,108.859,1,2.89536,12898.6,11436.5,-13752.2
5.23913e+06,5.69194,1,2.39672,-417.288,510.926,-27828.2
5.33342e+06,75.1298,1,2.46851,-12859,-8999.87,-26544.5
5.34214e+06,13.2097,2,2.98262,-639.138,-1208.44,-26367.5
5.34815e+06,25.7428,2,2.89678,-228.863,-4039.43,-25303.3
5.89881e+06,64.7231,0,2.95553,13537.4,2077.85,-28560.7
6.05938e+06,45.1109,0,2.95946,-103.605,-9446.25,-29003
6.23372e+06,79.7908,2,2.64715,10167,-12420.1,-23600.7
6.29151e+06,8.40587,2,3.01287,1279.82,244.195,-27740.7
6.33602e+06,178.441,2,2.5117,11680,-24757,-2796.01
6.44308e+06,74.5173,1,2.91163,519.44,9896.53,-16613.4
6.50841e+06,116.319,2,2.57076,-17987.4,5566.44,-13123.5
6.65889e+06,99.5163,1,2.80453,-4102.97,16954.6,-17226.6
6.81106e+06,7.40732,2,2.61103,-756.66,-295.813,-27503.2
6.87142e+06,24.9325,1,2.41822,-2721.25,4223.73,-26869
6.88217e+06,129.711,1,2.53553,-23228.3,12013.4,-20430.7
6.93882e+06,9.72524,0,2.60784,1983.49,746.731,-29015.8
7.01268e+06,111.379,0,2.89789,22051.9,923.691,-20695.8
7.05173e+06,22.4815,1,2.85127,-4261.53,1732.88,-27943.4
7.06804e+06,42.1464,0,2.98169,7205.88,4844.29,-26786.1
7.10482e+06,143.452,0,2.92616,-11484.3,4337.52,-1388.74
7.16828e+06,191.051,2,2.47843,18170.3,19109.1,1449.67
7.35118e+06,37.3707,2,2.94683,-6703.25,3949.14,-27580.3
7.37172e+06,70.4426,0,2.85775,14210.1,3321.76,-25998.9
7.38628e+06,100.394,0,2.36833,9038.16,-17500.2,-20727.7
7.72533e+06,86.0405,2,2.56905,710.635,-7584.21,-12322.9
7.86886e+06,108.532,0,2.48745,-8335.95,-19129.8,-20933.8
7.90191e+06,114.604,0,3.04289,1011.99,14574.7,-9777.47
7.96941e+06,105.803,1,2.83682,-21761.9,4149.2,-29450.8
8.10347e+06,17.8508,2,2.51768,717.837,-3833.55,-28942.3
8.1365e+06,22.2078,0,2.69186,-4450.43,-478.996,-28095.3
8.19141e+06,47.997,1,2.6686,-5654.04,-5735.05,-22675.4
8.25059e+06,123.775,1,2.48195,-22177.3,10492.6,-19454.5
8.27619e+06,119.065,2,2.95295,-15058.7,3689.69,-9222.17
8.42985e+06,1.58263,2,2.78825,192.643,-277.281,-28684.1
0,1.58544,2,2.92096,0,0,0
8.55645e+06,180.558,2,2.3794,-23203.2,-22943.9,-27529
8.81398e+06,15.8916,0,3.04984,1302.5,-3179.79,-28634.4
8.9466e+06,257.35,0,2.40464,25683.2,25234.3,11948.2
8.98252e+06,46.1879,1,2.45768,3752.18,-8500.57,-25952.6
9.0007e+06,37.0929,2,2.73087,-7482.58,-2450.78,-28513.2
9.29034e+06,203.079,0,3.01371,16221.5,-5561.14,7560.54
9.51314e+06,122.395,1,2.52271,-17323.6,-11814,-13519
9.58645e+06,20.8461,2,3.02885,1324.67,-1387.44,-24837.5
9.64178e+06,10.5846,0,2.6955,935.195,-1022.46,-27014.7
9.67042e+06,46.6945,2,2.4005,686.499,6123.39,-21069.3
9.69377e+06,3.67718,2,2.88181,-150.899,-887.559,-29030.5
0,3.64003,2,2.64676,0,0,0
9.77554e+06,27.3965,2,2.4985,-4228.22,-1877.65,-25255.5
9.81684e+06,76.3534,2,2.55358,-5999.89,-13532.4,-22134.6
9.8799e+06,51.5715,2,2.92031,-6838.92,-1017.32,-20368.4
0,51.3639,2,2.6876,0,0,0
9.89384e+06,95.9249,2,3.00113,-825.25,-19738.1,-24668.4
9.90592e+06,28.9264,0,2.64211,-5626.8,1760.85,-27509.6
9.92296e+06,12.2947,0,2.37133,1008.61,2151.59,-27625
9.94288e+06,61.4697,0,2.5271,-7222.12,7520.69,-21183.5
1.01727e+07,33.0594,1,2.89863,-1559.19,5351.28,-24576.7
1.0181e+07,90.597,2,2.92923,4393.78,-9925.47,-13123.9
1.02139e+07,19.7803,2,2.96323,-4089.99,585.459,-29426.8
1.02211e+07,10.4836,0,2.75282,257.432,1342.14,-27042.5
1.03231e+07,60.6699,2,2.4912,-8729.57,-1946.51,-19571.8
1.04296e+07,74.095,0,2.7176,13695.1,1630.8,-21511.2
1.04773e+07,111.366,2,2.70554,16768.5,7529.16,-14306.6
1.05015e+07,26.7045,1,2.67998,-2045.2,4913.5,-27628.8
1.05791e+07,19.5183,2,2.97153,3412.95,80.3246,-26524.4
1.05801e+07,108.984,0,2.73381,-8391.71,14915.5,-13678.4
1.06396e+07,145.31,2,2.84627,-1816.76,13929.4,-1750.37
1.07545e+07,83.3976,0,3.04055,-1384.82,7215.43,-13036.3
1.07648e+07,174.806,1,2.89965,-22183.8,-8176.79,-721.353
1.0792e+07,14.5761,2,2.76055,-2840.06,615.25,-27756.8
1.10815e+07,37.4963,0,2.74108,-775.266,-5165.52,-22925.5
1.12768e+07,46.6867,0,2.8397,9569.43,1437.05,-26736.5
1.128e+07,133.599,1,2.90178,505.903,26525.9,-19436.6
1.12997e+07,19.4037,1,2.47172,-80.6029,2649.77,-25553.4
1.13597e+07,53.5219,1,2.93833,-5082.63,3712.88,-19530.9
1.13821e+07,74.9598,2,2.5204,-14449.2,-5113.72,-24387.4
1.14123e+07,47.0708,0,2.60592,-1995.57,-8521.68,-24160.5
1.14357e+07,89.2982,1,2.83004,-8506.33,7648.75,-27370.4
1.14366e+07,72.3382,1,2.78729,6133.16,4753.25,-15794.1
1.1516e+07,5.72434,1,2.65261,-299.292,1284.39,-29220.2
1.16795e+07,95.4875,0,2.80163,-13289.9,-11008,-18662.1
1.16949e+07,103.606,1,2.81142,-16356.9,13757.1,-25110.7
1.1731e+07,154.135,0,2.46932,12719,27801,-17490.1
1.1931e+07,6.60807,1,2.716,-1405.53,-402.67,-29026.1
1.21621e+07,22.0603,0,2.88275,-895.404,-4490.11,-28132.4
1.24097e+07,106.344,0,2.59083,18383.4,9397.71,-19576.4
1.25606e+07,80.0753,1,2.64084,-4280,7852.71,-14512.3
1.25664e+07,8.97257,1,2.53847,-80.6495,1943.64,-28409.2
0,8.95653,1,2.54612,0,0,0
1.25726e+07,68.5297,1,2.81753,2337.25,11396.9,-20724.6
1.28192e+07,57.1126,2,2.5939,-2313.07,-7717.53,-19755.5
1.28349e+07,19.1509,0,2.98542,3697.59,-1792.94,-29172.5
1.28553e+07,86.2806,1,2.72205,-16909.3,6982.8,-28037
1.29233e+07,11.2269,1,3.03636,823.003,1340.18,-27017.9
1.30911e+07,53.6317,2,2.92576,-6729.89,9044.51,-28557.3
1.31572e+07,100.815,2,2.42422,6762.15,-20200.6,-28745
1.323e+07,44.3096,2,3.05028,3452.06,2190.69,-20723.8
1.32339e+07,78.2691,0,2.91018,1693.8,-15733.8,-24214.4
1.32442e+07,29.024,1,2.93591,2849.8,5327.83,-29997.7
1.32627e+07,10.7325,2,2.70245,-1768.12,-1610.2,-28737.9
1.34242e+07,118.283,2,2.84879,-19604.7,7666.9,-15421.3
1.34587e+07,24.3875,2,2.75919,-3731.18,3377.01,-27742.4
1.34621e+07,48.8884,0,2.94528,8638.98,5831.67,-28670.7
1.39375e+07,137.779,1,2.74339,6962.92,10742.7,-2798.46
1.40132e+07,119.694,1,2.76179,-15695.2,16371.8,-17700.8
1.41456e+07,46.4526,0,2.92603,-9532.95,-1459.45,-27658.5
1.41531e+07,160.677,2,3.05027,22776.8,-1729.46,-4167.29
1.41711e+07,97.8173,1,3.057,-5628.31,7421.86,-10792.4
1.44438e+07,35.4772,0,3.04701,-659.68,-3393.68,-22291.9
1.46161e+07,386.391,2,2.54808,9502.45,-11145,7502.29
1.48771e+07,87.1226,0,2.3687,13312.2,12867.9,-29938.2
1.50575e+07,106.679,1,3.02151,-8060.17,19396.7,-28988.5
1.52671e+07,33.1168,0,2.82237,688.556,6665.16,-26744.6
1.52983e+07,140.932,2,2.66033,-4729.96,-6596.05,-27510.2
1.53176e+07,69.1543,1,2.38345,14145.2,-574.201,-24849.4
1.54139e+07,179.559,0,2.66291,-18148.6,-5232.29,3968.51
1.54254e+07,15.4641,0,2.54831,2174.55,1940.84,-27247.5
1.55085e+07,25.7642,0,2.60097,4426.24,-1298.98,-25788.2
1.56999e+07,24.3442,2,2.95933,347.864,-4143,-25808.6
1.57403e+07,41.873,1,2.47851,-6624.36,6061.77,-29006.8
1.5903e+07,28.7635,0,2.49097,-1969.93,-4164.41,-24970
1.59338e+07,138.977,0,2.63723,24504.4,-13343.2,-19780.6
1.62173e+07,21.383,2,2.485,960.887,-2666.26,-25236.4
1.62594e+07,82.6994,1,2.90046,6004.04,14880.1,-22372.8
1.64605e+07,51.7822,1,2.59607,-5698.7,-626.987,-19464.3
1.65494e+07,121.645,2,2.77078,11759.3,1172.7,-6126.43
1.67067e+07,127.991,0,3.00505,22066.6,-1051.14,-13390.4
1.67939e+07,128.779,1,2.52711,17947.5,20505.7,-27514.3
1.68044e+07,77.6111,0,2.53856,5040.22,-15376.8,-25898.4
1.70145e+07,130.101,0,2.47751,-7711.09,15848.1,-7794.98
1.70156e+07,32.2388,2,2.49551,-2083.23,-4049.81,-23662.8
1.7026e+07,59.763,2,2.75067,-12380.8,-1109.23,-27444.7
1.70311e+07,39.0921,2,3.04471,-878.35,6791.7,-24781
1.71121e+07,122.179,2,2.89028,9440.83,6900.27,-12637.1
1.72212e+07,222.347,0,2.99883,11079.2,-17199.3,13060.4
1.72412e+07,84.1633,1,2.75418,5977.86,15338.6,-22792.7
1.74794e+07,124.089,2,2.89002,7332.42,-14352.6,-8337.14
1.76405e+07,14.6954,2,2.84259,948.291,-2950.78,-28065.6
1.76585e+07,91.5406,2,2.43072,7185.39,3843.64,-11049.2
1.78857e+07,165.408,1,2.97508,-10282.3,16077,-20.3724
1.81253e+07,17.0726,2,2.9181,-2359.32,-1895.41,-26943.5
0,16.9668,2,2.54716,0,0,0
1.827e+07,53.2737,1,2.55573,9819.08,5423.34,-29883.4
1.83045e+07,126.749,0,2.76934,-219.079,-17521.6,-8686.95
1.84138e+07,36.5699,0,2.46812,7018.65,2968.56,-27157.6
1.85e+07,68.7112,1,2.93941,-9192.16,7068.9,-20945.2
1.85178e+07,64.9967,1,2.83363,-6790.39,3232.98,-17257.2
1.86777e+07,37.7055,0,2.61945,6919.48,1034.43,-24716.3
1.87352e+07,70.8677,0,2.99043,7655.06,8215.29,-18949.2
1.89417e+07,88.5267,2,3.0485,-13996,7622.57,-21020.8
1.89864e+07,20.9642,2,2.65792,-3557,-1363.65,-26485
1.90211e+07,55.8455,0,2.95341,-6611.93,2824.71,-19610.7
1.90741e+07,91.0066,0,2.5113,17195,-8793.72,-28571.9
1.91588e+07,43.2105,1,2.82952,-6828.48,-4457.5,-25054.7
1.93199e+07,49.4706,0,2.6822,805.366,-484.864,-28070.2
1.95495e+07,50.5944,0,2.96977,5107.21,-7657.09,-23433.4
1.96341e+07,35.7422,2,2.93453,-4545.13,-1534.46,-23002.1
1.97969e+07,37.3684,1,2.63109,1102.87,5843.72,-23599.4
1.98815e+07,89.6044,1,2.58371,-11148.5,2392.11,-13606.1
1.98991e+07,64.4783,2,3.01556,-12739.9,4787.5,-28015.4
1.99762e+07,98.8198,0,2.70514,4165.73,-9236.83,-10659.9
1.99786e+07,8.98869,2,2.79983,1084.77,-1232.5,-29645.4
2.0177e+07,46.8512,0,2.799,7796.13,-3940.15,-24154.1
2.03116e+07,166.45,2,2.70827,19145.6,-19082.7,-7144.7
2.03435e+07,4.67892,2,3.02453,-163.765,-737.247,-28159.1
2.04003e+07,103.399,2,3.00449,-15762.5,-7257.59,-15991
2.04039e+07,87.2932,2,2.80827,-4706.86,-16963.1,-23102.1
2.04332e+07,77.3936,2,2.43592,1209.59,-6039.37,-13658.1
2.04738e+07,58.5832,2,2.79275,4419.97,-10713.5,-24673.4
2.04756e+07,17.5352,1,2.82042,-2373.26,-1567.71,-26444
2.06709e+07,5.54546,1,2.65793,373.304,867.304,-28086.1
0,5.63903,1,2.76786,0,0,0
2.07091e+07,26.8388,0,2.52224,2194.6,413.306,-23722.2
2.07673e+07,38.3863,0,3.05294,4789.32,-5971.78,-26387.4
2.0861e+07,55.9004,0,2.80106,9514.23,-814.003,-21926.9
2.08836e+07,117.684,2,2.9766,1322.97,-19950,-14347
2.09137e+07,6.76306,2,2.58022,-805.403,-715.822,-29929.3
2.09914e+07,183.296,2,2.62065,-23663.5,-16975.5,-3297.95
2.10087e+07,92.8991,1,2.78388,-4322.14,7202.38,-25740.2
2.10414e+07,125.122,0,2.87392,13681.2,19106.3,-16868.9
2.13387e+07,18.0545,1,2.90027,2391.61,2859.54,-28519.2
2.13578e+07,22.6383,0,2.4027,-474.51,-3295.55,-25387
2.14499e+07,23.4468,1,3.02399,285.768,3098.03,-25003.2
2.14575e+07,118.306,0,2.61919,10765.9,-5668.35,-7095.48
2.15293e+07,41.7571,1,2.83924,7781.59,-3134.14,-26448
2.1608e+07,97.9833,0,2.84598,7131.11,12182.4,-13855.5
2.16256e+07,142.269,1,2.53043,-16691.6,4677.88,-4226.11
2.18198e+07,129.171,0,2.53173,-3143.6,21539.5,-12313
2.19748e+07,143.221,1,2.97332,27067.9,-7585.31,-18254.2
2.20662e+07,44.6833,1,3.01089,-1734.51,9302.66,-28108.6
2.20688e+07,32.4426,0,2.86784,3921.17,3637.48,-24491.7
2.21765e+07,24.0546,1,2.77511,3817.92,825.487,-26137.5
2.23171e+07,44.8507,2,2.83027,1497.2,-8070.59,-24038.3
2.23817e+07,28.228,1,2.70361,1440.69,-2411.08,-27767.9
2.24632e+07,33.9143,2,2.77815,-2466.33,1209.26,-22223.8
0,33.9115,2,2.77016,0,0,0
2.24679e+07,46.2352,2,2.72712,-1534.21,-5656.77,-21093.7
2.27593e+07,11.9574,2,2.44861,1767.7,-1652.12,-27961.3
2.27928e+07,10.7359,2,2.69361,-1909.26,-1135.58,-27966.4
2.32887e+07,148.99,0,2.55807,-5157.15,9706.64,-25059.3
2.33521e+07,23.7407,1,2.78555,-1696.03,-4343.81,-27190.9
2.34368e+07,18.3765,1,2.97826,805.661,1257,-25752.7
2.38986e+07,13.3604,1,2.45197,1991.58,34.7872,-27053.4
2.39563e+07,61.2387,1,2.47346,-7790.07,7888.2,-22196.8
2.40043e+07,2.20686,1,2.75781,-32.9959,458.573,-28557.4
0,2.22897,1,2.87183,0,0,0
2.40273e+07,57.3575,1,2.63577,-11079.3,-473.38,-23747.4
2.40293e+07,270.924,1,3.01406,-5615.68,-16947,-19071.6
2.40337e+07,9.08672,2,2.79879,-1083.71,-664.705,-27310.6
2.40769e+07,19.3334,1,2.7045,1921.04,-114.788,-25202.5
2.42122e+07,30.0056,0,2.6456,3774.09,3656.09,-25037.1
2.42392e+07,60.616,2,2.74647,12077.4,-3893.13,-27527
2.42596e+07,5.03947,1,3.04448,-184.675,721.692,-27992.9
2.42643e+07,15.314,2,2.62091,2314.56,-2177.92,-27867.7
2.43421e+07,42.2324,0,2.40301,3053.41,6180.64,-28265.8
2.43496e+07,39.5597,0,3.04067,-4360.63,-453.518,-22154.9
2.44289e+07,2.54696,1,2.9745,-356.503,-74.5155,-28458.1
2.44548e+07,39.3537,2,2.79634,-2858.22,-7541.64,-26521.5
2.4579e+07,55.4775,1,2.41313,8112.15,4542.35,-21713.6
2.46059e+07,79.0354,1,2.58003,5579.07,-6071.89,-14558.6
2.46399e+07,19.8197,1,2.87256,1610.37,3380.26,-26918.5
2.47106e+07,16.1626,2,2.57384,-3269.87,-809.442,-27689
2.48401e+07,2.47447,1,2.60724,-540.12,120.254,-28704.4
0,2.48855,1,2.75054,0,0,0
0,2.35826,1,2.71486,0,0,0
2.50605e+07,16.7266,2,2.89034,3114.11,-1442.72,-27882.7
2.51955e+07,203.444,2,2.48525,-29308.5,19731.9,-4509.04
2.54206e+07,91.2381,0,2.83438,-11174.9,685.745,-26190.1
2.57548e+07,49.5218,1,2.42198,-4711.63,7193.36,-26143.6
2.58377e+07,125.204,0,2.78353,22474.6,11225.1,-21365.8
2.5861e+07,27.3137,2,2.96014,1973.87,1937.49,-23864.5
2.60755e+07,127.887,0,2.39139,22087.4,-3960.68,-13673.4
2.61889e+07,65.1604,1,2.9115,-4571.7,7642.19,-18375.4
2.62186e+07,36.478,2,2.7782,-5799.41,4764.24,-27199.6
2.62561e+07,36.0408,2,2.5883,2598.77,-7086.8,-29953.6
2.63255e+07,72.3261,2,2.75104,-5482.91,7492.99,-16834.8
2.63633e+07,54.731,2,3.01819,-6931.57,-2050.05,-24056
2.63765e+07,1.13405,2,3.84918,-212.642,97.8997,-29034.4
0,1.13143,2,2.59485,0,0,0
0,1.13321,2,3.51319,0,0,0
0,1.13718,2,3.54943,0,0,0
0,1.13655,2,2.73241,0,0,0
0,1.13227,2,4.12441,0,0,0
0,1.13328,2,2.92985,0,0,0
0,1.13507,2,2.07454,0,0,0
0,1.13373,2,4.05348,0,0,0
0,1.13136,2,4.08252,0,0,0
0,1.13597,2,3.48618,0,0,0
0,1.13545,2,3.75205,0,0,0
0,1.13577,2,2.76615,0,0,0
0,1.13627,2,2.48444,0,0,0
0,1.13235,2,2.86384,0,0,0
0,1.13283,2,3.08274,0,0,0
0,1.13564,2,3.79093,0,0,0
0,1.13689,2,2.34807,0,0,0
0,1.13556,2,2.11555,0,0,0
0,1.13232,2,4.00763,0,0,0
0,1.13204,2,3.02245,0,0,0
0,1.13543,2,3.1603,0,0,0
0,1.4443,2,3.72147,0,0,0
0,1.4457,2,2.81231,0,0,0
0,1.39825,2,2.98416,0,0,0
2.64401e+07,154.371,2,2.55833,-10853.5,349.223,-12798.7
2.64502e+07,57.4512,0,2.40921,8395.39,4894.02,-21568.4
2.6514e+07,88.0641,2,2.59025,-7618.47,-3630.42,-25028.6
2.67044e+07,24.8454,2,3.04114,2175.76,-2050.09,-24728.8
2.67061e+07,45.1686,1,2.94994,5766.94,-2795.67,-21945.9
2.68949e+07,49.1511,0,2.92243,4763.46,1415.02,-19687.9
2.69109e+07,181.084,0,2.49219,-14670.1,-19098.1,901.998
2.69689e+07,67.1632,2,2.86056,2272.38,-13988.8,-29828.5
2.70345e+07,52.0459,0,3.0357,-8203.29,-4843.9,-23848.9
2.70929e+07,109.596,0,2.62411,3684.28,16212.8,-23963.5
2.7604e+07,179.479,1,2.76079,-22965.4,-7531.83,276.921
2.76959e+07,40.6982,2,2.55867,-2939.48,8086.85,-28809.2
2.78091e+07,70.2614,2,2.70789,-6412.24,3510.62,-15810.2
2.78573e+07,72.4673,2,2.69393,-5933.71,-14129.9,-29976.5
2.78715e+07,16.382,0,2.71012,1049.14,-3327,-28801.8
2.78918e+07,99.0338,2,2.78647,-874.977,-19451.8,-21209.1
2.79713e+07,69.3277,1,2.87942,-10835.7,3013.97,-19611.9
2.8117e+07,94.3825,2,2.73609,6516.09,-14363.9,-16656.2
2.83027e+07,15.7922,2,2.66885,1215.65,-202.622,-25720.1
2.84007e+07,23.3425,2,2.93866,4645.51,-892.141,-27263.1
2.84977e+07,34.6434,0,2.36299,4991.15,-4252.95,-25286.9
2.85181e+07,104.396,2,2.53795,-2738.71,-15683.3,-13242.9
2.85606e+07,1.46917,1,2.63177,40.6612,335.599,-28627.2
2.85889e+07,76.0911,2,2.53933,5168.92,7063.32,-15346.5
2.86545e+07,44.0726,1,2.98018,8980.32,2077.53,-29441
2.86967e+07,50.6704,1,2.87278,6224.98,-7309.87,-24519.2
2.8724e+07,56.6188,2,3.04217,11011,-1839.91,-25164.9
2.90264e+07,140.68,2,2.78927,-23365,-15611.1,-19307.5
2.91791e+07,41.4467,2,2.70298,-5312.65,-2345.14,-22386.6
2.92849e+07,29.4891,1,2.86914,598.548,5808.5,-26572
2.93847e+07,19.0344,1,2.55568,-478.44,2194.83,-25761.7
2.94018e+07,110.886,1,2.59222,3407.5,17692.8,-13764.7
2.94059e+07,6.21677,2,2.8602,-1337.19,63.2689,-28445.7
2.94532e+07,96.1339,1,2.9143,-11322.2,15086.2,-22621.4
2.96347e+07,48.732,0,2.62874,4384.24,502.7,-19481.6
