#class tools::wcsv::ntuple
#title time
#separator 44
#vector_separator 59
#column double eventID
#column double t(ns)
#column double copynumber
#column double energy(eV)
494994,95.0257,1,2.95892
0,95.2187,1,2.95892
1.70174e+06,75.0691,2,2.71797
3.03019e+06,25.8832,2,2.69863
4.8547e+06,22.5282,0,2.66229
5.25728e+06,91.2878,0,3.05213
5.62691e+06,20.8911,2,2.65916
0,21.1551,2,2.65916
5.71638e+06,58.6002,2,2.53597
5.88145e+06,114.969,2,2.65619
6.10194e+06,109.867,0,2.86107
6.8361e+06,289.061,1,2.78588
7.0393e+06,185.916,2,2.81359
7.07825e+06,80.2944,2,2.86872
8.45615e+06,72.4325,1,2.47121
9.28368e+06,33.4544,1,2.41073
9.73465e+06,37.7025,2,2.98252
0,38.0426,2,2.98252
1.05265e+07,83.1928,0,2.77291
1.08495e+07,175.13,2,2.53743
1.0975e+07,98.6529,0,2.50076
1.09805e+07,7.99716,2,2.9206
1.20382e+07,13.5598,1,2.823
1.2238e+07,65.2933,0,2.85153
1.33935e+07,41.717,2,2.6656
1.35767e+07,108.262,0,2.58556
1.44863e+07,67.7792,2,2.70343
1.56249e+07,28.0205,1,2.50421
1.63832e+07,6.58282,1,2.85557
1.64659e+07,20.9763,1,2.87121
1.6952e+07,150.237,2,2.65437
1.78616e+07,175.526,0,2.86024
1.78659e+07,84.0909,0,2.82439
1.79406e+07,167.694,2,2.84264
0,167.889,2,2.84264
1.83655e+07,185.849,1,2.5372
1.86319e+07,73.6727,2,2.44384
0,74.0337,2,2.44384
1.90539e+07,59.5936,0,2.47909
1.93717e+07,174.889,2,3.0156
1.95107e+07,52.6229,1,2.89242
2.02204e+07,95.8038,2,2.38691
2.08358e+07,31.6912,0,2.61174
2.12772e+07,3.75485,2,2.65564
2.25063e+07,162.405,0,2.71639
2.26721e+07,11.1829,2,2.82833
2.30704e+07,117.588,0,2.60011
2.34363e+07,48.6112,0,2.61583
2.43926e+07,15.0413,2,2.42647
2.45124e+07,149.177,0,3.04252
0,149.443,0,3.04252
2.53077e+07,11.2672,2,2.94956
2.57662e+07,95.3197,1,2.42453
2.58201e+07,24.4881,2,3.01638
2.62532e+07,99.2121,2,2.93647
0,99.5298,2,2.93647
2.63185e+07,83.8058,1,2.6798
2.76202e+07,90.2488,1,3.04992
2.77003e+07,21.5137,1,2.62024
2.80501e+07,133.706,2,2.86429
2.80508e+07,169.907,0,2.81587
2.82241e+07,30.3411,0,2.85703
2.83258e+07,150.459,2,2.47361
2.86999e+07,152.432,2,3.00772
0,152.577,2,3.00772
2.89365e+07,18.8284,0,2.91547
0,19.1596,0,2.91547
2.93442e+07,236.523,1,2.94981
2.96301e+07,303.269,1,2.45363
3.03949e+07,30.5317,0,2.9262
0,30.7616,0,2.9262
3.05996e+07,48.0894,1,2.5953
3.06123e+07,38.9397,0,3.03501
3.0839e+07,91.1597,1,2.6968
3.30769e+07,44.3562,1,2.48976
3.35925e+07,52.5247,0,2.88402
3.3778e+07,243.334,1,2.78062
3.4352e+07,82.7815,2,2.85091
3.47949e+07,171.088,0,2.41072
3.53253e+07,59.9895,1,3.02837
3.60264e+07,52.1615,1,2.63186
3.63943e+07,27.6663,0,2.76027
3.65759e+07,169.808,1,2.98637
0,169.997,1,2.98637
3.67738e+07,91.4712,2,2.61211
3.76126e+07,60.7848,2,2.59023
3.81194e+07,14.0202,1,2.46718
3.81661e+07,55.653,0,2.75333
0,55.9456,0,2.75333
3.84657e+07,131.109,0,2.57374
3.85817e+07,213.378,2,2.76901
3.89715e+07,157.795,0,2.92863
0,158.017,0,2.92863
4.03893e+07,152.434,2,2.76332
0,152.693,2,2.76332
4.04362e+07,28.2118,0,2.52541
0,28.4306,0,2.52541
4.05106e+07,58.1215,0,2.57302
4.1059e+07,43.5134,1,2.4634
4.13471e+07,31.8396,2,2.59602
0,32.1336,2,2.59602
4.15059e+07,234.713,1,2.70319
4.16357e+07,79.6878,1,2.48066
4.19208e+07,41.249,0,2.71592
4.20785e+07,127.56,1,2.99883
0,127.759,1,2.99883
4.29178e+07,58.2895,1,2.67678
0,58.4534,1,2.67678
4.40268e+07,3.20221,2,2.50196
4.41456e+07,8.2974,0,3.03109
4.43201e+07,29.8489,2,2.84483
4.50513e+07,9.91831,0,2.38937
4.55505e+07,73.8077,0,2.4915
4.5733e+07,71.5418,1,3.00503
4.66917e+07,144.912,2,2.52914
4.68042e+07,10.7086,1,2.48848
4.77718e+07,95.5593,1,2.55089
0,95.7486,1,2.55089
4.8815e+07,97.7537,2,2.97122
4.90609e+07,15.5506,2,2.53824
4.92068e+07,19.3461,1,2.65344
5.14218e+07,92.2558,0,2.81121
0,92.3945,0,2.81121
5.22226e+07,46.6386,1,2.82581
5.23396e+07,247.362,0,2.82226
5.28998e+07,61.5286,0,2.38127
5.30429e+07,369.189,2,2.76413
5.31082e+07,5.43667,0,2.51082
5.342e+07,65.8242,2,2.90916
5.34292e+07,81.3036,0,2.89999
5.37645e+07,114.234,0,2.57468
0,114.56,0,2.57468
5.40948e+07,31.7009,2,2.51317
0,31.9384,2,2.51317
5.43573e+07,155.589,2,2.39595
5.43979e+07,119.322,0,2.49401
5.49417e+07,325.046,0,2.90436
0,325.391,0,2.90436
5.51545e+07,99.9962,1,2.84854
5.63507e+07,267.142,2,2.75051
5.67072e+07,27.4488,0,3.04523
0,27.646,0,3.04523
5.78134e+07,86.9512,1,2.39958
5.80528e+07,113.178,0,2.66551
5.85994e+07,283.526,1,2.66039
5.88616e+07,84.5556,2,2.78429
5.9499e+07,24.4736,1,3.05375
6.117e+07,115.599,0,2.85687
6.11869e+07,54.5331,0,2.7628
0,54.3465,0,2.56662
6.20407e+07,3.79085,1,2.88076
6.23439e+07,0.894069,2,2.78145
0,0.948902,2,2.60849
0,1.11448,2,2.60849
6.27617e+07,262.955,2,2.55878
6.34329e+07,187.614,0,2.93794
6.37341e+07,18.1753,0,2.42766
6.37749e+07,45.5211,2,2.67863
6.38867e+07,74.4024,1,2.71316
6.39721e+07,30.0258,2,2.91179
6.42581e+07,57.7435,2,2.62326
6.46151e+07,48.3945,1,2.82595
6.51776e+07,12.2897,0,2.66061
6.53977e+07,29.7171,0,2.67866
0,29.8298,0,2.87989
6.55455e+07,19.0377,2,2.94723
6.56906e+07,176.725,1,2.73635
6.62008e+07,194.035,2,2.57802
6.6271e+07,28.3459,2,3.01782
6.67939e+07,271.865,0,2.80758
6.75406e+07,92.3608,1,2.77759
6.78544e+07,9.56784,1,2.9262
6.94005e+07,20.7532,0,2.77046
6.94153e+07,1.74703,1,2.88495
6.99087e+07,15.9034,1,2.40094
7.11394e+07,226.558,2,2.71186
7.13944e+07,29.8648,0,2.45357
7.14793e+07,85.3031,1,2.79668
7.31673e+07,18.0148,0,2.6788
7.31775e+07,152.129,2,2.80295
7.32064e+07,101.322,1,2.6893
7.33608e+07,160.433,1,2.91595
7.51096e+07,24.2747,0,2.55998
7.56145e+07,93.6125,0,2.94966
7.60617e+07,40.5718,2,2.91665
7.631e+07,67.0777,0,2.75915
7.71891e+07,35.396,1,2.37098
7.82719e+07,53.6583,2,2.54066
7.98535e+07,8.1722,2,2.98023
8.02878e+07,36.1854,1,2.54482
0,36.5553,1,2.54482
8.11336e+07,113.211,0,2.71651
8.18697e+07,204.958,0,2.83144
8.22967e+07,58.3496,1,2.53642
8.2617e+07,22.0261,0,2.78997
8.32056e+07,22.88,1,2.9534
8.34077e+07,30.0417,1,2.85774
8.34527e+07,13.0585,0,3.01804
8.3535e+07,240.998,2,2.49242
8.41904e+07,224.804,0,2.88339
8.44972e+07,134.591,1,3.0205
8.49253e+07,163.77,1,2.88871
8.53594e+07,7.81673,1,2.39728
8.55452e+07,116.208,1,2.37416
8.56077e+07,254.829,0,2.5771
8.56883e+07,88.9088,2,2.78599
8.75296e+07,148.408,2,2.72531
8.77205e+07,16.4074,2,2.52818
8.8022e+07,95.6325,0,2.47258
8.87904e+07,148.608,2,2.50662
8.97312e+07,39.548,1,2.63008
0,39.6886,1,2.63008
8.97851e+07,18.552,0,2.65268
0,18.9073,0,2.65268
9.00385e+07,99.4417,0,2.81397
0,99.5849,0,2.81397
9.00769e+07,120.774,0,3.004
0,121.083,0,3.004
9.03857e+07,59.0726,0,2.66716
9.05515e+07,195.709,1,2.80988
9.06013e+07,219.149,1,2.64114
9.07074e+07,203.708,2,2.7212
9.15761e+07,111.592,1,2.98959
0,111.842,1,2.98959
9.16442e+07,13.9159,0,2.85731
9.22264e+07,18.5312,2,2.92664
9.25987e+07,65.9911,1,2.45552
9.26335e+07,284.452,1,2.80512
0,284.785,1,2.80512
9.30496e+07,4.37204,2,2.54209
0,4.3598,2,2.67387
9.31551e+07,82.4073,1,2.46802
9.42553e+07,38.4986,0,2.63987
9.49711e+07,64.6982,2,2.57886
9.60687e+07,16.5808,0,2.8577
0,16.7415,0,2.8577
9.63536e+07,26.4242,2,2.78521
0,26.6425,2,2.78521
9.71201e+07,127.034,2,2.96551
0,127.167,2,2.96551
9.72941e+07,166.774,2,2.47338
9.7667e+07,43.4666,1,2.53257
9.78329e+07,362.75,1,2.69761
9.82818e+07,70.1011,0,2.82387
9.96649e+07,61.8176,2,3.02334
0,61.8722,2,3.02334
9.99196e+07,176.598,1,2.87552
0,176.774,1,2.87552
1.01431e+08,34.8047,0,2.98555
1.01711e+08,287.224,0,2.58302
1.01783e+08,26.2854,0,2.83628
0,26.633,0,2.83628
1.02562e+08,149.677,0,2.47191
1.02681e+08,31.6457,2,2.56956
1.02876e+08,21.8303,2,2.72429
1.02943e+08,3.56836,0,2.89836
1.04448e+08,159.17,2,2.66896
1.04642e+08,112.014,2,2.6708
1.04854e+08,178.667,0,2.81797
0,178.832,0,2.81797
1.05054e+08,47.6678,2,2.87948
1.05189e+08,39.1087,1,2.91957
1.05647e+08,18.9166,2,2.4167
1.06612e+08,8.28997,0,2.55051
1.06775e+08,19.5493,2,2.76014
1.07278e+08,106.908,1,2.92021
1.09266e+08,111.169,0,2.9256
1.10253e+08,42.8165,1,2.95595
1.1036e+08,95.7038,0,2.78858
1.11209e+08,54.5832,0,2.4206
1.11222e+08,36.432,0,2.53146
1.1127e+08,72.5069,0,3.05705
1.11619e+08,5.71762,0,2.61969
1.12267e+08,112.742,0,2.81356
1.14256e+08,205.501,1,2.81537
1.15051e+08,16.6118,1,2.91052
0,16.2456,1,2.78824
0,16.5749,1,2.78824
1.15551e+08,233.862,2,2.79666
1.16263e+08,231.819,2,2.52052
1.16477e+08,56.5583,1,2.55755
1.16607e+08,264.257,0,2.58572
1.17176e+08,9.23483,2,2.45712
1.18076e+08,2.80856,0,2.77492
1.18219e+08,108.93,0,2.71313
1.19116e+08,29.3668,0,2.54001
0,29.5708,0,2.54001
1.21042e+08,201.729,2,2.9505
1.21818e+08,63.6329,1,3.00998
0,63.8965,1,3.00998
1.23388e+08,49.6748,1,2.65502
1.23842e+08,372.031,1,2.72288
1.23954e+08,16.7833,2,2.8214
1.2406e+08,64.9037,1,2.7223
1.24386e+08,3.76479,1,2.37516
1.24817e+08,56.3774,1,2.4052
1.24839e+08,33.5,0,2.62884
1.24975e+08,81.0403,1,2.7784
1.25501e+08,114.734,0,2.69122
1.26082e+08,76.9603,0,2.82792
1.26314e+08,13.126,2,2.49317
1.2632e+08,47.2498,1,2.72621
1.26549e+08,61.8378,0,2.67086
1.26855e+08,106.525,2,2.50916
1.27237e+08,94.2071,2,2.40185
1.27446e+08,74.0758,0,2.36314
1.2745e+08,61.1693,2,2.66735
1.28208e+08,144.348,1,2.89555
1.29291e+08,65.2581,1,2.55373
1.29579e+08,124.399,1,2.88445
1.30043e+08,50.086,0,2.76632
1.3011e+08,128.07,2,2.81049
1.30154e+08,4.32614,2,3.05222
1.30336e+08,88.8083,1,2.8373
1.30926e+08,214.497,1,2.63286
1.31e+08,88.1252,2,2.85507
1.31529e+08,54.2345,2,2.93093
1.31654e+08,115.906,0,2.45646
1.3223e+08,48.9502,1,2.78978
1.33322e+08,52.9229,0,2.72265
1.33553e+08,223.119,1,2.97261
1.3364e+08,235.28,1,2.56293
1.34364e+08,13.0271,2,2.96681
0,13.2586,2,2.96681
1.34563e+08,147.832,2,2.77482
1.34904e+08,160.425,1,2.50351
1.3492e+08,97.0421,0,2.68511
0,97.3535,0,2.68511
1.35501e+08,12.7342,1,2.62754
1.35672e+08,206.41,1,2.39605
1.35815e+08,43.0995,0,2.72203
1.36289e+08,3.88379,2,2.41391
1.37551e+08,62.2737,1,2.95661
1.37623e+08,124.101,0,2.58396
0,124.424,0,2.58396
1.37853e+08,77.7189,0,2.8243
1.38591e+08,57.2833,2,2.57572
0,57.5415,2,2.57572
1.38761e+08,150.839,2,3.00345
1.39079e+08,16.6805,2,2.8962
1.39102e+08,35.6854,2,2.48118
1.40684e+08,53.0012,1,2.78782
0,53.2705,1,2.78782
1.41222e+08,44.2415,0,2.5709
1.42476e+08,48.9535,0,2.46095
1.42576e+08,26.625,2,2.40141
1.43503e+08,90.9172,0,3.0115
1.44447e+08,108.71,1,3.00031
1.44706e+08,6.92814,1,2.462
1.46206e+08,59.4758,2,2.92878
0,59.7348,2,2.92878
1.47754e+08,16.3595,2,2.46233
1.48605e+08,155.949,1,2.52133
1.49242e+08,182.355,1,2.4604
1.50613e+08,75.6182,2,2.99072
1.5083e+08,87.8747,0,2.60478
0,88.0525,0,2.60478
1.51294e+08,318.567,2,2.64057
0,318.796,2,2.64057
1.51314e+08,11.957,1,3.03676
1.51495e+08,4.0273,2,2.93228
1.52586e+08,15.1056,0,3.03586
1.52626e+08,76.191,0,2.57812
1.52713e+08,11.7343,2,2.68348
1.54802e+08,145.421,1,2.9356
1.55291e+08,186.932,0,2.55513
1.55699e+08,82.5266,2,2.90797
1.56768e+08,47.7143,1,2.54234
1.57225e+08,77.825,0,2.5683
1.57396e+08,0.621479,2,2.51874
0,0.527122,2,2.51542
1.57487e+08,30.5461,2,2.75671
1.58352e+08,193.763,0,2.9852
0,193.958,0,2.9852
1.58391e+08,70.0187,2,2.84872
1.59208e+08,253.248,2,2.6098
1.59263e+08,83.6759,0,3.01836
1.59323e+08,16.7586,0,2.38113
1.59513e+08,0.802305,0,3.04292
0,0.947586,0,3.04292
1.59677e+08,211.733,2,2.5296
1.60806e+08,189.506,1,2.98528
1.61009e+08,7.81523,2,2.43128
1.62372e+08,41.5468,1,2.73655
1.62582e+08,12.7675,0,2.51437
1.62678e+08,81.2467,1,3.01361
1.62722e+08,232.674,1,3.0151
1.63313e+08,10.7189,0,2.67928
0,10.9977,0,2.67928
1.63458e+08,26.6024,0,2.76967
1.64267e+08,274.569,1,2.9913
1.64632e+08,40.4139,2,2.89501
1.64831e+08,99.005,2,3.01775
1.66886e+08,153.742,2,2.39511
1.67706e+08,17.6695,0,2.54643
1.6815e+08,52.3643,2,2.81069
1.68837e+08,254.048,0,2.76493
1.69203e+08,152.915,2,2.71525
0,153.099,2,2.71525
1.69249e+08,101.947,1,2.62009
1.69265e+08,157.406,0,2.92691
1.69595e+08,120.842,1,3.02697
1.70251e+08,12.0004,0,2.64638
1.70335e+08,40.401,2,2.70871
1.71238e+08,66.7676,2,2.76728
1.71518e+08,39.2298,1,2.37414
0,39.462,1,2.37414
1.71796e+08,78.846,2,2.79002
1.72015e+08,16.9286,2,3.05916
1.72675e+08,36.4277,1,2.9063
1.7275e+08,232,0,2.54889
1.73415e+08,202.678,2,2.45171
1.73483e+08,280.443,0,2.70745
1.73614e+08,68.8969,1,2.80912
1.73767e+08,88.82,0,2.64978
1.74218e+08,99.8896,0,3.06093
1.746e+08,58.4755,2,2.4809
1.74647e+08,91.8638,0,2.96214
1.74789e+08,89.9413,0,2.44534
1.74794e+08,124.528,0,2.86403
0,124.782,0,2.86403
1.7508e+08,56.9752,1,2.99783
1.75519e+08,100.034,2,2.57697
1.75823e+08,182.322,2,2.94151
1.76052e+08,283.329,2,2.69149
0,283.545,2,2.69149
1.76112e+08,102.92,0,2.49916
0,103.277,0,2.49916
1.76648e+08,325.411,0,2.48624
1.76658e+08,35.86,0,2.47093
1.77605e+08,97.2759,0,2.90766
1.77904e+08,42.5277,1,2.86605
1.78587e+08,118.604,0,2.767
1.79471e+08,31.7061,0,2.84374
0,31.8382,0,2.84374
1.80908e+08,53.5038,2,2.55194
1.81419e+08,161.784,1,2.43435
1.82484e+08,99.0933,2,2.3792
1.82891e+08,68.0546,0,2.50796
1.84292e+08,10.8293,1,2.39164
1.84691e+08,63.1018,1,2.86774
1.84908e+08,0.567011,0,2.65307
0,0.553718,0,2.9936
0,0.587709,0,2.89978
0,0.609447,0,2.84691
1.86154e+08,174.024,2,2.37148
1.88448e+08,54.0534,2,2.57934
1.8962e+08,46.254,1,2.92888
1.91083e+08,136.748,0,2.95949
1.91886e+08,5.36725,1,2.80701
1.93869e+08,180.434,1,2.93049
1.94271e+08,42.6692,0,2.65132
1.94685e+08,272.61,2,2.77957
1.94828e+08,96.4088,1,2.79438
1.97263e+08,269.012,0,2.51221
1.98328e+08,178.78,1,2.61538
1.98869e+08,119.432,2,2.64046
2.00082e+08,182.032,2,2.56901
2.00532e+08,10.6036,0,2.96413
2.01256e+08,36.8046,0,2.82989
2.03353e+08,12.9344,0,2.89887
2.03751e+08,67.0574,2,2.81462
2.03938e+08,21.1775,2,2.55407
2.04678e+08,7.75579,1,2.82755
2.04753e+08,15.7616,0,2.76621
2.05471e+08,112.641,0,2.4553
2.05898e+08,102.994,1,2.43723
2.06144e+08,43.3855,1,2.71067
2.07277e+08,123.493,2,2.99608
2.0735e+08,7.7663,1,2.78162
2.07442e+08,14.2898,0,2.40756
0,14.526,0,2.40756
2.08061e+08,172.698,0,2.65056
2.10709e+08,10.4002,2,2.39281
2.10855e+08,51.2667,2,2.72791
2.10989e+08,113.619,0,2.68383
2.11009e+08,207.121,2,2.54973
2.11211e+08,50.9753,1,2.54817
2.1144e+08,186.37,2,2.75932
2.14123e+08,11.1239,1,3.03217
2.14258e+08,13.43,1,2.85951
2.16806e+08,120.461,2,2.80046
2.17723e+08,22.3963,1,2.64109
2.18967e+08,142.796,2,2.90777
2.19198e+08,63.2988,0,2.60722
0,63.4513,0,2.60722
2.19482e+08,55.7224,2,2.42861
0,55.9287,2,2.42861
2.20233e+08,22.0691,1,2.95577
2.2069e+08,163.293,2,2.54573
2.20974e+08,15.0533,2,2.52098
2.21571e+08,15.4894,0,2.68389
2.2428e+08,37.6387,1,2.58601
0,37.8804,1,2.58601
2.24287e+08,43.4435,0,2.91877
2.25156e+08,17.3991,0,2.92289
2.26162e+08,123.232,1,2.58999
2.2791e+08,10.2349,2,2.75785
2.28304e+08,155.963,2,2.90589
2.28468e+08,17.9442,0,2.70538
2.28799e+08,22.431,0,2.86475
2.29241e+08,106.823,1,2.75555
2.30095e+08,217.736,1,2.42084
2.31664e+08,150.139,2,2.80352
2.32076e+08,34.7538,1,2.57586
2.33065e+08,13.8525,0,2.60961
2.33097e+08,171.564,0,3.01494
2.33583e+08,24.8516,2,3.02517
2.34051e+08,17.9164,1,2.66291
2.35863e+08,117.777,2,2.48866
2.36043e+08,36.1938,0,2.77692
2.36669e+08,132.802,1,2.50323
2.3706e+08,205.852,2,2.75935
2.37333e+08,35.4401,2,2.41125
2.37371e+08,60.2576,1,2.8282
2.37638e+08,4.20833,1,2.61314
0,4.22444,1,2.39911
2.37848e+08,31.1403,1,2.89408
2.38019e+08,224.542,2,2.59299
2.38053e+08,52.0186,1,2.40955
2.38864e+08,120.592,0,2.4565
2.39886e+08,30.3898,0,2.92941
2.40792e+08,79.2311,0,2.73653
2.40971e+08,36.2012,0,2.72706
2.41408e+08,181.639,2,2.63243
0,181.965,2,2.63243
2.42804e+08,12.5761,1,2.42713
2.43375e+08,25.3564,2,3.03762
0,25.5459,2,3.03762
2.44483e+08,44.7033,0,2.4253
2.45862e+08,17.8061,2,2.89918
2.46196e+08,84.214,0,2.88194
2.47078e+08,3.63343,2,2.48285
2.47142e+08,45.0352,2,2.47149
2.47674e+08,145.412,0,2.5159
0,145.735,0,2.5159
2.48152e+08,24.3057,2,2.71958
2.48241e+08,85.2667,1,2.48118
2.48526e+08,99.6724,2,2.73136
2.49962e+08,222.953,1,2.79091
