#class tools::wcsv::ntuple
#title time
#separator 44
#vector_separator 59
#column double eventID
#column double t(ns)
#column double copynumber
#column double energy(eV)
118742,36.2416,2,2.84682
740921,44.1668,2,2.84262
855640,4.3828,0,2.70574
882198,12.5491,2,2.84387
1.38067e+06,139.275,0,3.04451
1.54971e+06,253.594,0,2.67455
1.76013e+06,174.775,2,2.97052
2.04785e+06,105.85,2,2.78221
2.09061e+06,2.01198,2,2.69557
0,1.94369,2,2.45343
2.37744e+06,279.827,2,2.96722
2.4915e+06,126.24,2,2.5899
2.98989e+06,175.11,1,2.89545
3.84284e+06,90.6322,2,2.42555
4.04894e+06,71.6269,0,2.98622
4.15344e+06,14.0618,0,2.71396
4.59598e+06,12.3693,2,2.84156
4.63257e+06,22.4354,0,2.83705
4.89808e+06,42.3017,0,2.55949
5.05597e+06,147.108,1,2.66184
5.44570e+06,9.25867,1,2.86516
5.71079e+06,149.019,0,2.58313
6.47704e+06,51.5497,0,3.0013
6.50981e+06,48.0484,0,2.74405
6.88772e+06,6.56061,1,2.91387
7.17571e+06,82.511,1,2.43656
7.38528e+06,209.1,0,2.69752
7.49202e+06,53.5269,2,2.61741
7.49574e+06,17.4397,2,2.64946
7.8429e+06,73.3521,2,2.75764
8.04393e+06,15.6445,0,3.00471
8.21037e+06,110.339,0,2.92639
8.24495e+06,20.1772,0,2.80414
8.38504e+06,73.6915,2,2.70316
8.64167e+06,189.889,2,2.80148
8.68517e+06,31.2668,0,2.96001
8.72014e+06,25.2877,1,2.93546
9.20127e+06,55.5439,2,2.60239
9.3671e+06,12.8695,0,2.39871
9.68045e+06,2.65063,2,2.78654
9.74904e+06,212.25,1,2.36626
9.85405e+06,82.2506,0,2.56793
9.88613e+06,5.81433,0,2.98179
9.95102e+06,18.4511,2,2.73423
1.0068e+07,84.3194,0,2.5076
1.02555e+07,133.265,0,2.76837
1.05513e+07,75.0271,1,2.97551
1.07532e+07,8.86709,0,2.54922
1.07644e+07,127.14,2,3.03084
1.10635e+07,6.87528,2,2.71007
1.11559e+07,16.5261,0,2.49937
1.11677e+07,74.1966,2,2.97145
1.11694e+07,63.9152,1,2.85137
1.16437e+07,91.4671,2,3.00763
1.18731e+07,54.677,0,2.58335
1.19808e+07,81.1679,2,2.62807
1.20753e+07,44.5966,2,2.49732
1.24398e+07,34.2493,0,2.95806
1.25236e+07,39.5968,0,3.05477
1.27568e+07,34.5834,2,2.42016
1.28918e+07,85.6488,0,2.39084
1.30158e+07,54.5019,0,2.40159
1.3077e+07,131.48,2,2.71499
1.34771e+07,17.6432,2,2.63886
1.39738e+07,83.4625,2,2.74387
1.43997e+07,38.9655,0,2.53786
1.45317e+07,38.8539,2,2.61973
1.45656e+07,1.77755,2,2.65555
1.46641e+07,5.3597,0,2.80706
1.47247e+07,4.09596,0,2.93596
1.5177e+07,195.634,2,2.47319
1.54175e+07,149.49,0,2.84836
1.54679e+07,22.2966,0,2.65658
1.54855e+07,103.67,0,2.46262
1.55281e+07,176.757,2,2.44701
1.58169e+07,133.882,2,2.5926
1.59221e+07,83.9357,2,2.57384
1.63195e+07,96.6886,2,2.50941
1.63559e+07,76.0529,2,2.93033
1.64613e+07,9.22656,2,2.5155
1.68495e+07,55.8841,1,2.68421
1.69393e+07,50.1257,0,2.73925
1.69636e+07,80.789,1,2.62506
1.73105e+07,29.894,1,2.88143
1.73534e+07,1.62261,1,2.9553
1.73957e+07,74.405,0,3.04839
1.75429e+07,5.02126,2,2.97888
0,4.98759,2,2.72647
1.76259e+07,100.276,0,2.44559
1.77477e+07,5.29581,1,2.5168
1.84222e+07,45.1592,1,2.44622
1.87729e+07,11.5493,1,2.75418
1.87766e+07,48.9106,0,2.58863
1.88978e+07,11.3914,2,2.52496
1.91587e+07,43.9948,1,2.8831
2.02543e+07,71.798,2,2.86368
2.03478e+07,48.545,0,2.95489
2.09171e+07,68.5728,1,2.85149
2.09861e+07,84.3346,1,2.6674
2.10395e+07,38.4882,1,2.53449
2.11563e+07,274.079,0,2.90112
2.12358e+07,119.19,2,2.52974
2.22041e+07,4.31338,2,2.64718
2.22214e+07,109.361,1,2.90102
2.23223e+07,102.525,0,2.95633
2.23925e+07,47.4212,0,2.93922
2.24313e+07,48.3529,2,2.57051
2.28214e+07,144.422,2,2.61507
2.2915e+07,59.558,2,2.87619
2.2919e+07,135.389,2,2.79731
2.36155e+07,77.3341,0,2.86463
2.3907e+07,194.786,1,3.05617
2.42512e+07,87.9499,1,3.04401
2.4561e+07,12.8069,2,2.50073
2.49745e+07,100.412,2,2.74038
2.51288e+07,24.2645,1,2.4643
2.52165e+07,18.3669,2,2.39028
2.54712e+07,48.2407,0,2.6818
2.55444e+07,69.9348,2,2.8204
2.55866e+07,15.6428,2,3.04127
2.56499e+07,187.302,1,2.43213
2.60176e+07,92.963,2,2.88138
2.62969e+07,55.155,0,2.96851
2.6863e+07,134.909,0,2.69887
2.73588e+07,137.236,1,3.03106
2.75104e+07,8.40926,1,2.70717
2.78274e+07,95.1383,1,2.65655
2.79652e+07,74.952,1,2.52596
2.80209e+07,62.5255,1,2.37301
2.81418e+07,32.1254,0,2.49719
2.83898e+07,15.1478,2,2.59463
2.90425e+07,16.4739,2,3.31009
2.91158e+07,19.2885,1,2.39421
2.9464e+07,50.2761,0,2.97866
2.98614e+07,32.1992,0,3.06151
3.03964e+07,29.3132,2,2.93923
3.04399e+07,39.9966,2,2.67221
3.04493e+07,112.594,0,2.59781
3.09126e+07,102.467,2,2.78138
3.11878e+07,24.523,2,2.8916
3.15419e+07,85.9541,2,2.82504
3.21593e+07,34.0799,1,2.37611
3.22027e+07,26.4741,0,3.03027
3.22778e+07,20.7501,1,2.59511
3.24241e+07,4.70462,0,2.75036
3.24775e+07,200.865,1,2.94602
3.26169e+07,133.159,0,2.53569
3.27836e+07,136.964,1,2.65006
3.27995e+07,143.993,1,2.55918
3.29373e+07,132.638,1,2.86707
3.30855e+07,47.9352,0,2.5498
3.3121e+07,83.8499,2,2.4049
3.31802e+07,78.032,0,2.84119
3.35245e+07,46.2212,0,2.5189
3.359e+07,10.01,0,2.62499
3.36995e+07,49.7109,2,2.65755
3.37226e+07,181.5,1,2.80223
3.37671e+07,124.504,0,2.87363
3.42813e+07,22.7879,0,2.59368
3.46733e+07,10.1989,1,2.97775
3.47766e+07,2.91622,2,2.61185
3.50234e+07,49.6244,1,2.97416
3.52815e+07,120.247,0,2.46859
3.5472e+07,207.095,1,2.84064
3.55327e+07,44.0435,2,2.64145
3.55652e+07,100.845,1,2.79469
3.55975e+07,75.1003,1,2.50188
3.57772e+07,98.4507,1,2.82033
3.58689e+07,202.513,0,2.75481
3.60175e+07,1.66124,1,2.5062
0,1.70165,1,2.57668
3.60442e+07,14.9144,2,2.82039
3.61672e+07,93.406,0,3.0002
3.64597e+07,24.5584,0,2.47989
3.69018e+07,7.40659,2,2.77978
3.70799e+07,92.4805,2,2.73492
3.74047e+07,151.619,2,2.38299
3.74519e+07,120.023,1,2.36241
3.74633e+07,20.1281,2,2.36809
3.75393e+07,20.6921,1,2.42069
3.78101e+07,23.2977,0,2.66834
3.81853e+07,97.7725,0,2.75353
3.8476e+07,44.0671,2,2.76627
3.84854e+07,53.8833,0,3.05066
3.86125e+07,82.096,2,2.9769
3.93107e+07,62.5089,1,2.55493
3.95547e+07,54.4613,2,2.84693
3.97485e+07,213.569,0,2.97596
3.98111e+07,17.7986,2,2.37554
4.01507e+07,22.1896,0,2.93297
4.02634e+07,148.422,2,2.48405
4.03585e+07,167.796,1,2.42842
4.05621e+07,12.6347,2,2.76859
4.10354e+07,84.3074,0,3.02915
4.10889e+07,61.3418,1,2.80679
4.13095e+07,90.4023,2,2.96036
4.16206e+07,60.5534,1,3.02317
4.18528e+07,43.5946,1,2.95971
4.23514e+07,38.7307,0,2.36904
4.23897e+07,47.667,1,2.83657
4.28593e+07,43.0896,2,2.68624
4.32223e+07,20.1848,0,2.68906
4.34149e+07,72.1733,2,2.81396
4.36481e+07,5.68542,0,2.92551
4.45627e+07,40.9236,0,2.69282
4.50828e+07,230.599,0,2.77493
4.51994e+07,55.069,0,2.65766
4.52104e+07,37.6973,0,2.49416
4.52959e+07,158.476,0,2.97229
4.53766e+07,179.94,1,2.73182
4.61032e+07,50.6444,0,2.41376
4.69372e+07,33.024,1,2.8106
4.70366e+07,17.8299,1,2.63021
4.72452e+07,19.3536,1,2.53331
0,19.39,1,2.77011
4.74227e+07,13.2789,1,3.00506
4.79036e+07,261.995,0,2.83418
4.80504e+07,41.1716,0,2.67339
4.8182e+07,99.0949,2,2.91363
4.82794e+07,60.5296,0,2.51484
4.83761e+07,100.125,0,2.425
4.84478e+07,73.6797,0,3.05983
4.85501e+07,131.157,0,2.60637
4.89741e+07,101.725,1,2.53421
4.90066e+07,56.3907,0,2.46427
4.92007e+07,13.8441,1,2.94355
4.92311e+07,34.2498,1,3.03282
4.96107e+07,204.772,1,2.4054
4.98012e+07,96.687,1,3.05155
5.02383e+07,119.753,0,2.64967
5.03177e+07,274.196,0,2.75615
5.03474e+07,3.33684,1,2.6206
5.04491e+07,15.493,0,2.83088
5.04518e+07,125.534,2,2.92997
5.07279e+07,2.63618,0,2.39137
5.08445e+07,3.429,0,2.96391
5.13904e+07,33.0948,2,2.82745
5.14891e+07,43.4037,1,2.62976
5.14973e+07,27.7492,1,2.56952
5.25706e+07,11.0518,1,2.70661
5.26316e+07,37.0783,2,2.8293
5.26879e+07,172.341,0,2.74485
5.27167e+07,159.926,0,2.86353
5.28901e+07,43.9526,1,2.92364
5.29394e+07,34.3765,2,2.6513
5.33556e+07,54.6611,0,2.7384
5.3386e+07,35.2817,2,2.63385
5.36597e+07,161.032,1,2.67592
5.37631e+07,52.903,1,2.99773
5.39759e+07,53.1373,1,2.85843
5.45621e+07,95.776,0,2.58571
5.47701e+07,43.4738,2,2.50296
5.49331e+07,48.594,1,2.77818
5.52211e+07,80.1722,1,2.78977
5.52462e+07,97.9705,2,2.94526
5.53206e+07,19.034,0,2.74042
5.5332e+07,1.52746,2,2.98789
0,1.46654,2,2.70438
0,1.4751,2,2.92344
5.64224e+07,153.57,2,2.75824
5.65116e+07,15.9397,1,2.80614
5.67405e+07,85.762,1,2.73214
5.69434e+07,49.7273,0,2.63997
5.69515e+07,192.946,0,2.68335
5.71011e+07,47.1652,1,2.72461
5.76319e+07,30.8888,0,2.6756
5.7955e+07,155.592,1,2.7496
5.8052e+07,41.1725,1,2.97522
5.80794e+07,54.9711,2,3.0421
5.8329e+07,101.296,1,2.56811
5.86387e+07,2.7956,2,2.74621
5.88878e+07,46.5185,2,2.68138
5.89382e+07,73.1832,2,2.64989
5.90196e+07,33.6633,2,2.75775
5.9066e+07,25.0004,1,2.60143
5.91106e+07,2.50206,2,2.91403
5.92045e+07,184.523,2,2.64686
5.95974e+07,44.5685,1,2.57185
5.97638e+07,98.4351,2,3.01106
5.97882e+07,205.595,0,2.55092
5.99313e+07,122.313,2,2.70558
6.00177e+07,90.4016,1,2.99588
6.0143e+07,93.5115,2,2.86261
6.01805e+07,103.912,0,2.73128
6.04519e+07,41.4021,0,2.90852
6.0506e+07,84.9276,0,2.56149
6.06608e+07,55.2633,2,2.76526
6.08188e+07,221.074,2,2.61103
6.08453e+07,126.771,1,2.76809
6.08981e+07,102.066,2,2.58002
6.09476e+07,87.5063,2,2.58974
6.19105e+07,180.73,2,2.37696
6.19313e+07,2.87999,1,2.51268
0,2.82577,1,2.92813
0,2.78273,1,2.44924
6.19729e+07,133.757,0,2.53114
6.21059e+07,118.204,2,2.98417
6.21438e+07,58.2774,2,2.40456
6.23471e+07,106.969,0,2.53238
6.25519e+07,120.66,0,2.5584
6.26877e+07,67.5997,1,2.60603
6.28557e+07,23.2133,1,2.60107
0,22.9686,2,2.47463
6.30141e+07,4.29816,2,2.7776
0,4.14049,1,2.60008
6.32335e+07,78.7959,2,2.95138
6.33745e+07,242.442,2,2.4144
6.35857e+07,109.178,0,2.68043
6.37337e+07,1.64776,2,2.64508
0,1.63572,2,2.65967
6.3764e+07,84.4447,1,3.05095
6.38774e+07,24.7498,2,3.02981
6.43621e+07,24.0536,0,2.64863
6.44211e+07,32.3929,1,2.37838
6.4579e+07,11.6152,2,2.37871
6.46313e+07,171.212,1,2.5556
6.48735e+07,57.6387,2,2.7063
6.54927e+07,114.677,1,2.69318
6.57647e+07,122.396,2,3.00484
6.57776e+07,19.4323,1,2.54275
6.62396e+07,38.9098,2,2.4891
6.62662e+07,80.177,0,2.41504
6.64776e+07,54.3062,0,2.37908
6.69569e+07,33.6466,0,2.48174
6.7067e+07,42.9323,2,2.76637
6.70756e+07,62.8507,2,2.98388
6.74394e+07,21.4941,1,3.00063
6.75351e+07,158.852,2,2.91235
6.78138e+07,125.52,2,2.74579
6.78305e+07,52.0233,2,2.68351
6.80238e+07,52.5881,1,2.92347
6.80695e+07,13.1203,0,2.72049
6.84454e+07,162.076,0,2.96939
6.84601e+07,15.4552,0,2.39235
6.86308e+07,29.097,2,2.41122
6.87376e+07,3.13228,1,2.79747
6.90273e+07,72.657,0,2.65241
6.92091e+07,40.0818,2,2.37721
6.93643e+07,86.3096,0,2.60235
6.93754e+07,15.9592,1,2.41469
6.94526e+07,221.893,2,2.47594
6.95341e+07,24.9576,0,2.56097
6.96389e+07,119.5,0,2.47774
6.9864e+07,169.271,2,2.88763
6.98923e+07,230.427,1,2.81697
7.02435e+07,123.498,1,2.76995
7.03075e+07,74.1442,0,2.78141
7.07097e+07,54.5434,1,2.84847
7.07998e+07,37.2421,1,2.85987
7.08433e+07,90.9349,0,2.48793
7.08839e+07,83.6631,0,2.59114
7.09015e+07,21.6827,1,2.80145
7.11994e+07,22.7348,0,2.96159
7.12518e+07,90.6981,1,2.45732
7.13024e+07,31.3679,1,2.56147
7.15867e+07,110.138,1,2.56939
7.18061e+07,55.0764,2,2.40953
7.19391e+07,60.829,2,2.59551
7.22735e+07,21.9013,2,2.76329
7.24581e+07,184.635,0,2.84251
7.26104e+07,25.1334,1,2.56735
7.28375e+07,83.3936,1,3.06142
7.29493e+07,152.358,1,2.967
7.30006e+07,30.4135,0,2.36679
7.34797e+07,144.427,1,2.69635
7.36159e+07,85.6887,1,2.80455
7.41148e+07,63.5537,2,2.54851
7.47181e+07,161.696,1,2.91513
7.48397e+07,102.514,2,2.82855
7.49338e+07,34.6438,1,2.80157
7.4963e+07,13.17,1,2.36533
7.49779e+07,55.2651,0,2.64678
7.49826e+07,17.4878,2,2.91005
7.51836e+07,26.6396,1,2.5489
7.5512e+07,26.0195,0,2.94047
7.56987e+07,17.34,1,2.54549
7.57891e+07,21.5354,0,2.98495
7.58956e+07,32.4778,2,2.81552
7.62619e+07,235.841,1,2.67504
7.66181e+07,89.3868,2,2.50213
7.67981e+07,35.1291,1,2.6668
7.68487e+07,6.03834,0,2.88036
7.70886e+07,44.9471,1,2.98458
7.71082e+07,123.327,1,2.99816
7.71396e+07,29.6915,1,2.4915
7.81238e+07,11.5353,2,2.51489
7.84002e+07,4.73458,0,2.89895
0,4.82696,0,2.46467
7.84185e+07,33.03,0,2.81049
7.84902e+07,172.093,2,2.7789
7.85733e+07,7.45806,0,2.71969
7.87239e+07,156.891,0,2.79443
7.88988e+07,78.5661,2,2.86224
7.89584e+07,9.75926,0,3.0249
0,9.58082,2,2.68557
7.90516e+07,46.8216,1,2.59174
7.92576e+07,29.1081,2,2.95061
0,28.9836,2,2.70506
7.94486e+07,33.8437,2,2.79103
7.97691e+07,239.066,1,2.90934
7.99373e+07,15.3929,1,2.74158
7.99719e+07,39.6574,2,2.44681
8.00017e+07,184.81,2,2.48544
8.00892e+07,12.4379,1,2.97772
0,12.2834,1,2.44205
8.01498e+07,8.62472,2,2.75042
8.07114e+07,45.2739,1,2.83943
8.0838e+07,75.2228,2,2.51736
8.09333e+07,81.4198,2,2.40868
8.09998e+07,46.236,2,2.88206
8.10593e+07,167.301,0,2.57802
8.11186e+07,85.9488,1,2.75214
8.12002e+07,184.195,1,2.70864
8.12279e+07,62.3081,0,2.67188
8.12437e+07,98.1944,1,2.74037
8.12696e+07,87.75,0,2.42333
8.1347e+07,8.01056,2,2.65915
8.15488e+07,101.089,0,2.60094
8.19304e+07,46.7363,0,2.77415
8.24883e+07,29.3934,0,2.6321
8.28495e+07,12.928,2,2.41445
8.34159e+07,147.024,1,2.82141
8.3462e+07,73.8444,0,2.45126
8.44031e+07,23.5642,2,2.81319
8.44321e+07,4.91129,1,2.51514
8.46133e+07,122.806,2,2.97965
8.51084e+07,133.591,0,2.4289
8.51414e+07,17.3656,2,2.45672
8.53804e+07,52.9002,0,2.79985
8.5676e+07,18.0292,1,2.98339
0,17.7939,1,2.58382
8.58229e+07,145.634,2,2.37776
8.59347e+07,115.831,1,2.86176
8.60551e+07,66.3249,1,3.00832
8.61602e+07,45.7509,2,2.43891
8.61882e+07,14.8711,2,2.56245
8.66795e+07,70.8703,1,3.00059
8.68035e+07,5.85937,2,2.71148
8.75361e+07,118.902,0,2.62612
8.75811e+07,62.2283,1,2.88138
8.77385e+07,38.4981,1,2.76967
8.7838e+07,100.356,1,2.53902
8.78641e+07,144.43,2,2.69828
8.81464e+07,117.083,0,2.62998
8.85084e+07,101.54,1,2.88132
8.87391e+07,1.5826,1,2.76926
0,1.57036,1,2.57059
8.91464e+07,0.362444,0,2.87903
8.91559e+07,92.574,0,2.5364
8.92012e+07,86.7433,2,2.80251
8.93779e+07,6.15287,2,2.3959
0,5.75173,0,2.93492
8.95681e+07,83.2068,1,2.98396
8.98644e+07,17.3469,1,3.0091
9.01144e+07,177.14,2,2.50486
9.01544e+07,25.0594,2,3.0198
9.02184e+07,53.3703,2,2.43862
9.0246e+07,183.627,2,2.99147
9.11962e+07,118.569,0,2.64649
9.18417e+07,181.349,2,2.94942
9.213e+07,39.5133,2,2.36852
9.23212e+07,93.4301,0,2.72485
9.23727e+07,157.07,1,2.542
9.25956e+07,114.822,1,2.98023
9.36269e+07,118.973,1,2.41586
9.37293e+07,115.416,2,2.78225
9.39264e+07,57.9234,2,2.6076
9.41686e+07,169.22,0,2.54273
9.4186e+07,90.8467,0,2.54772
9.4252e+07,63.4926,0,2.96447
9.44067e+07,12.3192,2,2.60035
9.46599e+07,7.16765,1,2.54777
9.47671e+07,64.9434,2,2.5168
9.47738e+07,334.24,2,2.74452
9.48891e+07,1.20823,2,2.98766
9.54806e+07,8.84072,1,2.44858
9.58698e+07,110.14,2,2.69622
9.58725e+07,4.16299,2,2.88932
9.59729e+07,53.4886,1,2.39862
9.60422e+07,154.826,0,2.88492
9.60841e+07,21.0112,0,2.38688
9.63463e+07,105.806,1,2.79279
9.63597e+07,5.26653,0,2.71998
9.64028e+07,199.299,0,3.04041
9.65329e+07,33.2393,1,2.72317
9.66896e+07,41.7051,0,2.57044
9.67237e+07,89.5248,0,2.48267
9.68119e+07,4.91364,1,2.98656
9.70192e+07,28.7477,0,2.85797
9.74401e+07,10.5228,0,2.90006
9.74849e+07,118.716,0,2.92978
9.76318e+07,9.07622,0,2.49148
9.81371e+07,6.60161,2,2.56856
9.82048e+07,22.3297,0,2.82928
9.88595e+07,171.402,0,2.83052
9.88962e+07,93.2211,2,2.97341
9.90796e+07,108.348,0,2.45393
9.90853e+07,14.4337,1,2.39685
9.91361e+07,209.421,2,2.84424
9.96398e+07,7.13882,1,2.97873
1.00441e+08,155.941,1,2.72254
1.00499e+08,217.156,0,2.81968
1.01073e+08,25.4608,1,2.65832
1.01078e+08,121.807,0,2.71021
1.0112e+08,38.6881,2,2.79171
1.01275e+08,117.441,1,2.64596
1.01487e+08,238.047,1,2.69064
1.0149e+08,169.646,0,2.45573
1.01622e+08,39.9111,0,2.5267
1.01739e+08,35.39,0,2.91841
1.01761e+08,102.034,2,2.66354
1.01813e+08,166.426,2,2.58938
1.02291e+08,154.544,2,2.89777
1.02308e+08,30.4983,2,2.92502
1.02426e+08,10.5362,0,2.76704
1.02752e+08,146.155,1,2.83204
1.02881e+08,0.804725,1,2.43471
0,0.821168,1,2.80545
0,0.80848,1,2.86737
0,0.828419,1,2.78466
1.03022e+08,21.248,2,2.99423
1.03067e+08,59.5667,2,2.69369
1.03212e+08,65.3836,1,2.96512
1.03227e+08,7.62245,2,2.47349
1.03338e+08,108.502,1,2.77205
1.03341e+08,66.095,0,2.43725
1.03489e+08,28.4342,2,2.41941
1.03581e+08,59.7228,2,2.68678
1.0372e+08,14.8582,1,3.03077
1.03726e+08,0.645494,0,2.86257
1.03815e+08,96.5997,0,2.96648
1.03829e+08,117.87,1,2.74284
1.03872e+08,14.6471,2,2.89919
1.03888e+08,43.4276,1,2.52996
1.03941e+08,12.8714,0,2.92523
1.03982e+08,53.1331,2,2.44523
1.04196e+08,8.51915,1,2.99396
1.0446e+08,106.318,1,2.44959
1.04612e+08,1.88235,1,2.50192
1.04945e+08,21.0713,2,2.39269
1.05292e+08,38.3035,1,2.66788
1.05364e+08,31.5686,2,2.50611
1.05674e+08,79.3244,1,3.03699
1.05801e+08,297.211,0,2.77575
1.0584e+08,270.003,2,3.00834
1.06029e+08,140.121,1,2.48798
1.06141e+08,153.892,1,2.64975
1.06603e+08,133.009,2,3.01023
1.06829e+08,87.6061,1,2.63537
1.06851e+08,129.656,2,2.59525
1.06922e+08,353.494,1,2.53525
1.06956e+08,86.8873,0,2.63252
1.07063e+08,14.3386,0,2.46333
1.07133e+08,80.9546,2,2.94064
1.0721e+08,63.2584,0,2.87075
1.07282e+08,61.0919,0,2.49502
1.07702e+08,138.839,0,2.88729
1.07724e+08,49.4102,1,3.03157
1.07842e+08,149.791,1,2.57283
1.07995e+08,81.206,0,2.89682
1.08193e+08,65.9661,0,2.93185
1.0839e+08,36.0782,2,2.98177
1.08737e+08,32.6057,0,2.60446
1.09137e+08,51.1612,2,2.88026
1.09205e+08,117.78,2,3.02998
1.09367e+08,44.2603,1,2.59886
1.09403e+08,19.2866,0,2.58703
1.09461e+08,211.666,0,2.91301
1.09472e+08,53.6254,2,2.69808
1.097e+08,69.2946,2,2.64736
1.10342e+08,76.7866,0,3.00823
1.10838e+08,83.4539,0,3.03988
1.10914e+08,11.4362,0,2.5999
1.10953e+08,27.0968,0,2.56834
1.11109e+08,79.2854,0,2.85982
1.11112e+08,3.13141,2,2.45842
0,3.11724,2,2.65771
0,3.13223,2,2.7227
1.11124e+08,1.8824,1,2.49289
1.11176e+08,1.48475,1,2.99067
1.11542e+08,141.108,2,2.69235
1.11852e+08,8.15333,1,2.7239
1.12103e+08,55.2769,2,2.73237
1.12148e+08,28.7834,2,2.96354
1.12444e+08,17.0421,1,2.555
1.12589e+08,99.6171,1,2.57102
1.12698e+08,150.861,1,2.67745
1.12841e+08,23.6015,1,2.83372
1.12952e+08,51.8812,1,2.77013
1.13299e+08,68.4017,0,2.93046
1.13437e+08,132.591,0,2.71027
1.13532e+08,11.8638,0,3.00226
1.13577e+08,83.7871,0,2.56247
1.13632e+08,15.1788,2,2.42026
1.1405e+08,80.1213,2,2.58364
1.14702e+08,142.791,1,2.87009
1.1483e+08,202.89,0,2.92656
1.1509e+08,28.6848,2,2.78375
1.15194e+08,148.455,1,3.02354
1.15628e+08,74.6346,1,2.83301
1.15964e+08,98.8527,2,2.90579
1.16049e+08,59.0062,2,2.57034
1.16079e+08,26.7369,2,2.5794
1.16131e+08,57.9891,2,3.02787
1.16197e+08,113.982,2,2.72906
1.16397e+08,38.1269,2,2.49079
1.16583e+08,101.116,0,2.42903
1.16798e+08,111.886,0,2.62847
1.17185e+08,125.83,1,2.49878
1.17389e+08,167.767,2,2.55617
1.18089e+08,149.487,2,2.37053
1.18307e+08,65.2016,2,2.88491
1.18577e+08,149.173,0,2.80668
1.18812e+08,40.8481,2,2.71945
1.18828e+08,179.62,2,2.42361
1.18939e+08,68.9352,2,2.63112
1.18984e+08,22.1003,0,3.04181
1.19497e+08,44.6009,0,2.63766
1.1976e+08,30.8479,1,2.75104
1.20253e+08,45.9968,1,2.4687
1.20359e+08,243.089,2,2.43882
1.20492e+08,96.4807,0,2.78593
1.20953e+08,38.3117,2,2.9943
1.21126e+08,12.748,0,2.83539
1.2116e+08,164.804,0,2.85521
1.21364e+08,4.99364,1,2.82054
1.21592e+08,29.9043,2,2.64456
1.21663e+08,233.289,2,2.57487
1.21737e+08,1.32918,0,2.505
1.21937e+08,87.6923,1,2.74613
1.2205e+08,140.084,0,2.95629
1.22443e+08,29.0252,2,2.69983
1.2261e+08,139.123,1,2.90671
1.2286e+08,26.3078,1,2.59851
1.22984e+08,55.4001,0,2.94761
1.23102e+08,45.3743,2,3.04973
1.23148e+08,81.8628,1,2.851
1.23386e+08,153.592,1,2.90214
1.23536e+08,119.648,2,2.37622
1.24087e+08,13.8749,2,2.6258
1.24421e+08,12.4663,2,2.46425
1.24607e+08,23.2659,0,2.37227
1.24827e+08,181.736,1,2.99517
1.25121e+08,24.3875,1,2.41174
1.25212e+08,4.85443,1,2.82519
1.25249e+08,6.10064,0,2.50169
1.25386e+08,15.6423,2,2.52003
1.25976e+08,5.9873,2,2.79938
0,5.85058,2,2.56985
1.26209e+08,67.3977,1,2.54984
1.26258e+08,11.5836,2,2.4554
1.26445e+08,32.0027,2,2.47769
1.26447e+08,253.561,2,3.05808
1.26503e+08,42.4707,1,2.93857
1.2676e+08,33.2033,1,2.48986
1.26874e+08,29.9266,2,2.98265
1.2703e+08,307.484,2,2.61568
1.27133e+08,89.2134,1,2.96772
1.2738e+08,35.6812,1,2.9027
1.27406e+08,23.5441,0,2.73354
1.2783e+08,91.2367,2,2.6897
1.2788e+08,112.082,2,2.6232
1.27946e+08,38.8901,1,2.45741
1.28567e+08,17.2436,1,2.39657
1.2894e+08,50.6415,1,2.94253
1.28977e+08,84.3529,1,2.96561
1.29084e+08,101.542,0,2.79431
1.29355e+08,99.0194,1,2.99905
1.29461e+08,94.6593,2,2.77792
1.29464e+08,95.1208,2,2.71178
1.29556e+08,29.2872,2,2.82618
1.3001e+08,101.604,0,2.82357
1.30069e+08,28.7983,2,3.04637
1.3017e+08,8.45372,0,2.92826
1.30179e+08,35.2419,0,2.56376
1.30216e+08,14.3984,0,2.60647
1.3061e+08,10.6345,2,2.8519
1.30616e+08,46.5498,1,2.79143
1.30834e+08,105.486,0,2.44732
1.30839e+08,26.1287,2,2.42466
1.30914e+08,96.3337,0,2.39609
1.30926e+08,73.604,0,2.73541
1.31378e+08,129.501,1,2.93164
1.31592e+08,2.142,2,3.05467
1.32124e+08,97.8612,1,2.43245
1.32196e+08,155.684,2,2.46852
1.32265e+08,184.491,0,2.84035
1.32501e+08,60.5038,1,2.9619
1.32592e+08,25.8665,2,2.83142
1.32685e+08,226.578,2,2.51665
1.32819e+08,121.163,0,2.38106
1.33623e+08,42.1589,2,2.70235
1.33868e+08,11.1021,0,2.48383
1.34102e+08,16.6458,1,3.05316
1.3412e+08,82.6417,1,2.73493
1.34143e+08,84.8238,1,2.63377
1.34205e+08,176.336,0,3.01508
1.34257e+08,48.9944,1,2.59666
1.34261e+08,12.1309,1,2.91899
1.34321e+08,138.144,2,2.58712
1.34336e+08,19.0222,1,2.43588
1.34401e+08,135.879,1,2.7273
1.34503e+08,80.7712,0,2.72035
1.34569e+08,14.5335,1,2.57696
1.34805e+08,10.1985,2,2.54477
1.3482e+08,10.9793,1,3.00629
1.34838e+08,125.317,1,2.6244
1.3521e+08,5.05586,1,2.86563
1.35224e+08,91.9688,2,2.819
1.35528e+08,232.472,0,2.67735
1.35581e+08,65.0537,0,2.53051
1.35642e+08,66.5927,0,2.41887
1.35772e+08,56.4366,2,2.48004
1.35821e+08,9.77694,2,2.44645
1.35906e+08,168.969,0,2.45945
1.36164e+08,138.214,1,2.94617
1.36245e+08,83.7374,2,2.87191
1.36659e+08,39.0068,1,2.55978
1.36868e+08,31.0758,2,2.66441
1.3689e+08,97.6851,2,2.87538
1.37065e+08,129.418,2,2.95492
1.37454e+08,66.4689,2,2.36746
1.37505e+08,23.4486,1,2.88717
1.37662e+08,16.4637,2,2.95948
1.37736e+08,76.5162,2,2.64677
1.37859e+08,70.225,0,2.84369
1.37989e+08,11.4344,1,2.42072
1.38369e+08,129.632,2,2.78985
1.38586e+08,163,0,2.71793
1.38597e+08,10.8641,1,2.43521
1.38623e+08,14.2296,0,2.56247
1.38697e+08,21.415,1,2.58196
1.38881e+08,39.1598,2,2.66316
1.39216e+08,4.01388,1,2.65322
1.39243e+08,25.7058,1,2.92909
1.3935e+08,149.447,2,2.89198
1.39463e+08,3.67877,0,2.97336
1.39496e+08,55.2764,0,2.86638
1.39744e+08,6.97109,0,2.89268
1.39771e+08,22.4696,1,2.98453
1.39794e+08,58.3274,2,3.01233
1.40126e+08,48.0888,0,2.51757
1.40244e+08,321.382,0,2.88369
1.4087e+08,153.162,0,2.90116
1.41088e+08,23.9406,0,3.00729
1.41208e+08,87.2047,2,2.56203
1.41289e+08,52.3353,0,2.63149
1.41424e+08,26.4362,2,3.01604
1.4143e+08,7.56008,2,2.72831
1.42161e+08,22.8343,2,2.6606
1.42164e+08,105.969,1,2.37935
1.42628e+08,74.1885,2,2.37748
1.42989e+08,55.0535,0,2.62981
1.43144e+08,75.8897,1,2.61091
1.43145e+08,58.7129,1,2.68976
1.43202e+08,110.761,1,2.77704
1.43664e+08,67.1555,0,2.74761
1.43694e+08,91.0365,1,2.38522
1.44519e+08,230.506,1,2.65675
1.44643e+08,57.521,2,2.42267
1.44668e+08,86.3835,0,2.9823
1.44874e+08,228.499,0,2.73563
1.44914e+08,95.5665,2,2.59663
1.44971e+08,27.6463,0,2.73854
1.4509e+08,28.3549,2,2.69263
1.45159e+08,8.2789,1,2.95686
1.45212e+08,64.6911,2,2.77561
1.453e+08,52.5583,1,2.72459
1.45305e+08,191.919,1,2.9368
1.45434e+08,64.9615,1,3.06065
1.45844e+08,49.0277,2,2.67557
1.46042e+08,56.3751,0,2.48773
1.46272e+08,35.0666,0,2.49869
1.46357e+08,78.3725,0,2.91811
1.46567e+08,40.7939,0,2.5567
1.4658e+08,18.9639,0,2.79547
1.4662e+08,112.593,2,2.78874
1.46927e+08,95.6018,0,2.48188
1.47204e+08,108.639,2,2.76329
1.47246e+08,25.4958,0,2.74337
1.47257e+08,40.4805,1,2.49061
1.47327e+08,136.149,2,2.97449
1.47424e+08,27.7672,2,2.74785
1.47663e+08,93.5174,0,2.54166
1.47763e+08,74.3204,0,2.88193
1.47785e+08,7.66446,1,2.70195
1.47906e+08,7.9223,2,2.8791
1.48178e+08,14.5539,2,2.41453
1.48223e+08,14.1808,0,2.98397
1.48499e+08,42.6132,1,2.70369
1.48553e+08,24.354,2,2.58369
1.48677e+08,35.8535,1,2.60221
1.4871e+08,22.0286,1,2.43519
1.48798e+08,45.2662,2,3.05106
1.48835e+08,177.878,0,2.68223
1.48973e+08,15.8947,1,2.8643
1.4929e+08,22.9627,0,2.76193
1.49456e+08,206.639,1,2.74983
1.49513e+08,156.89,2,2.73267
1.49949e+08,156.327,0,2.96591
1.50085e+08,19.2709,0,2.88993
1.50347e+08,26.5218,1,2.5994
1.50609e+08,117.795,0,2.38375
1.50807e+08,19.9656,0,2.84449
1.51036e+08,143.506,1,2.4337
1.51271e+08,72.0241,0,2.48472
1.51342e+08,175.844,0,2.5062
1.51457e+08,80.6321,2,2.86699
1.51708e+08,128.605,1,2.71882
1.51914e+08,97.0525,1,2.49449
1.52094e+08,198.294,2,2.60193
1.52213e+08,4.7165,2,2.79346
1.52258e+08,209.214,0,2.38296
1.52315e+08,6.83356,2,2.83125
1.52431e+08,10.0017,2,2.89335
1.52497e+08,172.662,0,2.8713
1.52527e+08,79.0708,2,2.75731
1.52636e+08,138.749,0,2.53456
1.5283e+08,225.893,0,2.79623
1.52936e+08,31.7959,0,2.84606
1.53147e+08,72.1429,2,2.38502
1.53702e+08,46.3373,2,2.8927
1.54361e+08,83.5288,1,2.84084
1.54614e+08,149.613,2,2.78776
1.54647e+08,12.6622,0,2.42194
1.54727e+08,76.5884,2,2.49804
1.54896e+08,82.278,2,2.7955
1.55118e+08,6.80008,0,2.3923
1.55125e+08,27.6643,2,2.98707
1.55391e+08,115.161,1,2.93202
1.55515e+08,3.29496,2,2.84064
1.55781e+08,28.6686,0,2.53468
1.55837e+08,208.589,0,2.51805
1.55973e+08,70.4833,1,2.91416
1.56075e+08,92.1644,1,2.907
1.56586e+08,45.2059,1,2.36978
1.56716e+08,150.34,1,2.85003
1.56926e+08,15.6326,2,2.92933
1.56946e+08,72.329,0,2.91259
1.57256e+08,124.005,2,2.58105
1.57273e+08,69.9713,2,3.03712
1.5744e+08,17.3513,2,2.90452
1.57449e+08,103.068,0,2.69056
1.57666e+08,41.6173,2,2.62411
1.58002e+08,160.337,0,2.4101
1.58283e+08,302.318,1,2.81269
1.58288e+08,290.731,1,2.647
1.59185e+08,85.0787,1,2.50521
1.59417e+08,217.675,2,2.69584
1.59429e+08,61.4339,1,2.99424
1.5951e+08,122.357,0,2.43985
1.59584e+08,78.4131,1,2.42925
1.598e+08,26.9436,0,2.7597
1.60161e+08,54.2242,2,2.39731
1.60679e+08,12.0038,0,2.38646
1.60809e+08,26.6729,0,2.96797
1.60942e+08,112.317,1,3.03957
1.6119e+08,0.292438,2,2.63943
0,0.222897,2,3.1964
0,0.428311,1,3.77315
0,0.455937,1,2.52825
0,0.247784,2,3.69878
0,0.235891,2,3.92686
0,0.425209,1,3.11375
0,0.247739,2,2.93423
0,0.239137,2,3.3385
0,0.221383,2,3.86677
1.61216e+08,19.6857,1,2.4781
1.61446e+08,11.2837,1,2.65379
1.61455e+08,31.6303,1,2.65694
1.6184e+08,8.75439,2,2.43028
1.6194e+08,120.598,0,3.01939
1.61964e+08,88.2615,0,2.76306
1.62213e+08,144.047,1,2.62089
1.62486e+08,136.685,0,2.70419
1.62897e+08,24.8822,1,2.55674
1.62907e+08,51.4282,0,2.45879
1.63028e+08,57.4457,2,2.67405
1.63289e+08,38.9523,0,2.53392
1.63407e+08,201.752,2,2.48326
1.63511e+08,22.5897,0,2.53295
1.64044e+08,93.9935,1,2.71504
1.64333e+08,184.005,2,2.66398
1.64417e+08,134.552,0,2.50634
1.6549e+08,119.527,2,2.42947
1.65526e+08,34.1779,0,2.65387
1.65959e+08,99.7033,2,2.58179
1.6609e+08,289.253,2,2.69346
1.66174e+08,19.6907,1,2.53317
1.66183e+08,34.008,1,2.54356
1.66415e+08,87.3233,2,2.93051
1.66745e+08,125.562,2,2.84195
1.66816e+08,261.679,2,2.67876
1.66842e+08,23.5959,1,2.46361
1.66932e+08,21.4435,1,2.8057
1.67127e+08,47.427,1,2.99573
1.67534e+08,5.27061,2,2.37626
1.67948e+08,29.6925,1,2.63598
1.68042e+08,20.3326,1,2.5062
1.68558e+08,88.261,1,2.3869
1.69123e+08,175.857,1,2.74926
1.69341e+08,33.6188,0,2.36462
1.69366e+08,43.9628,0,2.45993
1.69443e+08,146.275,1,3.01678
1.69609e+08,4.31222,2,2.9752
1.69725e+08,4.66355,1,2.84624
1.69878e+08,40.8766,1,2.86341
1.70002e+08,7.56809,0,2.81639
1.70011e+08,21.1641,1,2.59325
1.70153e+08,147.407,0,2.97364
1.70255e+08,85.5304,1,2.41553
1.70278e+08,36.3909,2,2.79119
1.70665e+08,165.275,2,2.66361
1.70919e+08,22.594,2,2.84501
1.70943e+08,237.174,1,2.89646
1.71034e+08,43.0987,0,2.98734
1.7106e+08,150.215,2,2.65648
1.7116e+08,70.0639,1,2.68099
1.71172e+08,147.581,2,2.75001
1.71214e+08,30.1531,2,2.79501
1.71505e+08,45.487,1,2.69274
1.71681e+08,58.6768,2,2.67454
1.7177e+08,20.8785,1,2.40779
1.71841e+08,14.2715,0,2.47317
1.71986e+08,32.827,2,2.60585
1.72459e+08,17.8222,1,2.61513
1.72476e+08,94.4995,1,3.05253
1.72592e+08,5.6107,1,2.86919
1.72679e+08,13.6723,2,2.71858
1.72951e+08,55.469,2,2.78798
1.73017e+08,144.969,2,2.9093
1.73255e+08,11.9215,2,2.81968
1.73397e+08,9.954,1,2.92919
1.73491e+08,8.01341,2,2.66903
1.73739e+08,103.561,2,2.40637
1.7383e+08,47.1512,1,2.39631
1.73859e+08,104.532,2,2.99628
1.73992e+08,145.305,1,2.39404
1.74056e+08,167.748,2,2.94771
1.74199e+08,64.3341,2,2.8535
1.74231e+08,7.46688,2,2.54358
1.74535e+08,54.407,1,3.04288
1.74596e+08,17.1408,0,2.98075
1.74669e+08,12.1554,0,2.55242
1.74837e+08,10.0334,0,2.93371
1.75182e+08,0.0750902,2,4.05665
0,0.0753542,2,2.86959
0,0.0975299,2,2.98973
0,0.0771553,2,2.29449
0,0.0762261,2,4.03569
0,0.139668,2,3.84072
1.75339e+08,69.9503,2,2.42518
1.75412e+08,13.0053,1,2.44706
1.75456e+08,129.122,1,2.50032
1.75572e+08,138.661,0,2.77884
1.76337e+08,46.0918,2,2.46316
1.76485e+08,110.651,1,2.92652
1.76521e+08,40.3268,0,2.54712
1.76748e+08,57.1919,2,2.72771
1.76749e+08,51.5236,1,2.49597
1.76766e+08,211.412,2,2.94
1.76898e+08,192.437,2,3.02194
1.77e+08,17.0773,2,2.61062
1.77102e+08,196.266,2,2.97282
1.77478e+08,26.2085,1,2.87353
1.77842e+08,170.295,2,3.05562
1.78548e+08,16.3345,1,2.75934
1.78619e+08,112.546,2,2.83011
1.78694e+08,67.9784,0,2.83463
1.78921e+08,45.6415,2,2.62612
1.78923e+08,107.303,0,2.45435
1.79061e+08,95.4971,0,2.45771
1.79555e+08,51.6798,2,2.80406
1.79867e+08,59.116,2,2.57049
1.80077e+08,33.0277,2,2.81664
1.80673e+08,13.6446,0,3.02313
1.80675e+08,15.1629,2,2.83804
1.80999e+08,1.5487,1,2.99461
1.81359e+08,220.506,0,2.38119
1.81366e+08,17.1988,0,2.76353
1.8162e+08,156.36,2,2.63141
1.8179e+08,14.2449,2,2.71382
1.82163e+08,49.8938,1,2.43583
1.82313e+08,9.35619,1,2.66029
1.82407e+08,59.1928,2,2.82037
1.82436e+08,81.1637,2,2.70166
1.82597e+08,87.0737,2,2.89319
1.82712e+08,163.898,2,2.91428
1.82772e+08,74.6853,0,2.54021
1.82845e+08,18.6228,2,2.98358
1.82846e+08,22.8844,1,2.87704
1.82906e+08,25.5486,0,2.9077
1.83318e+08,28.5062,0,2.47717
1.83336e+08,31.5318,2,2.46677
1.83355e+08,61.0973,1,2.88836
1.83361e+08,28.0859,2,3.05475
0,27.8959,0,2.36434
1.83692e+08,97.3635,2,2.76792
1.83781e+08,89.2924,2,2.75342
1.8413e+08,75.0667,1,2.62385
1.84145e+08,17.9628,2,2.85854
1.84181e+08,46.0578,2,2.48943
1.84272e+08,10.4948,0,2.44692
1.84603e+08,110.7,0,2.48036
1.84688e+08,67.1111,0,2.85659
1.85067e+08,111.045,0,2.53999
1.85083e+08,22.1651,1,2.83818
1.85198e+08,39.7691,2,2.90567
1.85309e+08,106.436,1,3.00224
1.85321e+08,32.8002,1,2.50123
1.85652e+08,58.6142,1,2.90685
1.8579e+08,30.3777,0,2.39705
1.86215e+08,82.3793,0,2.88506
1.86715e+08,20.7114,2,2.53563
1.87198e+08,72.8523,2,2.67971
1.87298e+08,3.36433,0,2.54807
1.87393e+08,36.045,0,2.89911
1.87508e+08,76.6514,1,2.75506
1.8765e+08,115.891,2,2.98947
1.87712e+08,78.5167,0,2.99376
1.87895e+08,7.46678,0,2.41069
1.88099e+08,254.896,0,2.78555
1.88333e+08,223.829,2,2.81257
1.88424e+08,75.6954,2,2.8033
1.88437e+08,31.0853,0,2.63395
1.88924e+08,41.3883,2,2.41138
1.89007e+08,4.53243,2,2.75082
1.89074e+08,42.0233,2,2.98133
1.89136e+08,37.1243,1,2.95115
1.8922e+08,3.31215,1,2.68302
1.89407e+08,149.062,2,2.54877
1.89421e+08,50.8434,0,2.89125
1.90161e+08,78.8411,2,2.47554
1.9082e+08,69.2139,1,2.60665
1.90892e+08,96.8832,1,2.7843
1.91261e+08,0.13576,0,3.64287
0,0.136535,0,2.34339
0,1.04314,1,2.54799
0,0.161893,0,3.53552
0,0.130673,0,3.06233
0,0.145319,0,2.88626
0,0.137654,0,3.32551
0,0.141283,0,3.95229
0,0.14777,0,2.35643
0,0.134576,0,2.75539
0,0.137764,0,2.2587
0,0.135504,0,2.89912
0,0.155943,0,3.60678
0,0.133432,0,2.65972
0,0.130715,0,2.5116
0,0.131252,0,3.13164
0,0.130583,0,2.35855
0,0.128592,0,3.19064
0,0.131604,0,2.92498
0,0.144028,0,3.22772
1.91297e+08,75.6092,1,2.37804
1.91332e+08,26.6803,2,2.87753
1.91374e+08,61.0237,0,2.74029
1.91492e+08,53.2178,2,2.69428
1.91501e+08,42.2776,1,2.63929
1.91666e+08,24.0991,2,2.94461
1.9199e+08,82.8705,1,2.98622
1.92115e+08,56.0968,0,2.60642
1.92168e+08,29.9287,2,2.4961
1.92862e+08,87.7755,2,2.60418
1.9289e+08,47.7803,1,2.69313
1.92924e+08,89.045,2,2.59549
1.93175e+08,28.4669,1,2.57145
1.9334e+08,32.9377,2,2.73997
1.93793e+08,34.616,0,2.41486
1.93881e+08,114.141,1,2.74479
1.94624e+08,148.386,1,2.39354
1.94707e+08,24.9582,0,2.56371
1.94896e+08,55.2234,1,2.73305
1.95105e+08,40.7668,1,2.861
1.95604e+08,59.6154,2,2.56074
1.95684e+08,3.78475,1,2.74027
1.95693e+08,19.9094,0,2.41473
1.95815e+08,0.941913,2,3.02895
0,1.13978,2,2.37837
0,1.03638,2,2.48184
0,1.0072,2,2.4012
1.95975e+08,29.1948,1,2.80502
1.96069e+08,17.3965,0,2.92727
0,17.2427,0,2.50144
1.96287e+08,149.689,1,2.84954
1.96312e+08,125.436,2,2.74728
1.9656e+08,47.4565,2,2.55411
1.96811e+08,8.00863,0,2.44678
1.96915e+08,138.483,1,2.85934
1.96946e+08,71.1002,2,2.65473
1.97226e+08,27.0542,0,2.83808
1.97532e+08,3.98033,0,2.84743
1.98716e+08,15.817,2,2.56015
1.98748e+08,4.70645,0,2.6016
1.98813e+08,116.252,1,3.00935
1.98956e+08,61.6647,0,2.50497
1.99002e+08,8.15209,1,2.94308
1.99092e+08,66.3732,0,2.57547
1.99439e+08,67.2926,0,2.50865
1.99643e+08,10.7307,2,2.69429
1.9987e+08,51.2045,1,2.67515
2.0004e+08,110.546,1,2.74725
2.00184e+08,48.9658,0,2.40006
2.0033e+08,9.7743,0,2.47908
0,9.74311,0,2.75148
2.00453e+08,77.1584,1,2.78445
2.0049e+08,90.1793,1,3.00128
2.00538e+08,129.722,0,2.7854
2.00574e+08,158.089,0,2.38687
2.00734e+08,42.5238,1,2.99
0,42.4226,1,2.87733
2.01181e+08,57.7848,0,2.77461
2.0121e+08,25.9557,0,2.62361
2.01241e+08,97.0561,2,2.98778
2.01446e+08,26.5614,1,2.83033
2.01626e+08,30.0564,1,2.7969
2.01817e+08,17.6742,1,2.39721
2.0192e+08,9.58483,1,3.03125
2.01991e+08,2.79797,0,2.6134
2.02072e+08,35.8696,2,2.87018
2.02086e+08,23.5669,2,2.81222
2.02425e+08,65.6766,2,2.82681
2.02725e+08,141.372,2,2.75061
2.02729e+08,13.7007,1,2.78714
2.02829e+08,47.3154,2,2.75046
2.02846e+08,32.8345,1,2.39483
2.02851e+08,42.6047,1,2.989
2.02985e+08,73.2979,1,2.75804
2.0318e+08,18.1493,2,2.63376
2.03357e+08,20.5001,2,2.3715
2.03368e+08,63.5664,2,2.84943
2.03609e+08,144.933,0,2.7185
2.03614e+08,19.1563,1,2.43661
2.03884e+08,47.5997,1,2.78298
2.03888e+08,7.20726,1,3.02301
2.04011e+08,282.119,1,2.45525
2.04037e+08,55.8749,0,2.65402
2.04138e+08,29.915,1,2.42065
2.0415e+08,122.791,0,2.87309
2.04392e+08,165.483,0,2.5463
2.04479e+08,63.4205,2,2.94254
2.04567e+08,111.666,2,2.87786
2.04639e+08,148.167,2,2.48788
2.04973e+08,78.0685,0,2.59588
2.05292e+08,34.2077,2,2.77182
2.05536e+08,21.1486,1,2.82701
2.05913e+08,119.338,0,2.42951
2.06058e+08,129.021,1,2.55578
2.06176e+08,156.417,0,2.74602
2.06355e+08,245.391,0,2.82219
2.06439e+08,84.7022,0,2.52968
2.06558e+08,211.202,1,3.0611
2.06602e+08,102.216,1,2.83805
2.06761e+08,113.4,0,2.51796
2.06956e+08,68.0645,2,2.86357
2.07069e+08,8.87887,2,2.76658
2.07078e+08,1.60152,0,2.69741
0,1.6178,0,2.82473
2.0725e+08,14.5421,1,2.39729
2.07409e+08,113.211,1,2.73187
2.07418e+08,102.798,2,2.42873
2.07441e+08,66.4658,2,2.78953
2.07585e+08,16.283,2,3.02313
2.07931e+08,178.72,0,2.99625
2.07972e+08,63.341,2,2.70531
2.08023e+08,107.997,2,2.82971
2.08076e+08,14.6667,1,3.00523
2.08454e+08,97.4994,2,2.40626
2.08466e+08,115.345,2,2.63529
2.08926e+08,35.2371,0,2.8774
2.0898e+08,21.0581,1,2.61939
2.09096e+08,98.3602,2,3.01622
2.09098e+08,107.577,0,3.05595
2.09181e+08,74.7702,1,2.66478
2.09567e+08,88.9094,0,2.41449
2.09797e+08,102.683,2,2.52176
2.09861e+08,81.6014,1,2.88436
2.09932e+08,101.205,1,2.71857
2.10266e+08,67.8154,0,3.03825
2.10418e+08,16.3254,0,2.36515
2.10481e+08,97.1304,0,2.76438
2.10837e+08,26.6894,2,3.06084
2.10838e+08,38.1147,2,2.70804
2.10877e+08,143.27,1,2.50219
2.10963e+08,24.0721,0,2.82681
2.11012e+08,94.2979,0,2.43794
2.11107e+08,84.0069,2,3.00368
2.11128e+08,10.8132,0,2.52561
2.11196e+08,37.1426,2,2.98129
2.11615e+08,1.93171,0,2.4275
2.12383e+08,7.36156,1,2.88913
2.12399e+08,62.969,1,2.42841
2.12484e+08,38.5711,0,2.52694
2.12739e+08,66.0092,1,2.96812
2.13074e+08,90.3891,1,2.83624
2.13388e+08,10.8833,2,2.50597
2.13508e+08,206.603,2,2.91943
2.1369e+08,13.4737,1,3.01115
2.13776e+08,73.6092,2,2.7239
2.1398e+08,12.238,1,2.56278
2.13985e+08,98.6415,1,2.41957
2.14395e+08,32.5046,0,2.85916
2.14427e+08,4.09526,2,2.68235
2.14484e+08,20.8359,1,3.02487
2.14717e+08,114.033,2,2.99596
0,113.131,1,2.49271
2.14992e+08,20.3028,1,2.7015
2.15013e+08,265.814,1,2.86295
2.15762e+08,241.361,0,2.59455
2.15934e+08,91.3389,2,2.79952
2.1609e+08,158.109,2,2.74541
2.16342e+08,72.3774,0,2.5997
2.16357e+08,31.6865,0,2.47567
2.16497e+08,125.662,2,2.60651
2.16523e+08,41.8237,1,2.50954
2.16596e+08,159.351,1,2.86855
2.16666e+08,30.7394,0,2.38465
2.16684e+08,74.7315,0,3.05265
2.1679e+08,76.4597,1,2.36229
2.16931e+08,184.86,0,2.9644
2.18708e+08,22.6853,2,2.84164
2.19159e+08,72.9928,2,2.61421
2.19201e+08,22.5619,0,2.56215
2.19534e+08,1.74583,1,2.62472
0,2.14918,0,3.04018
0,1.76722,1,2.88198
0,1.80299,1,2.69264
0,1.75477,1,2.39271
2.19547e+08,27.0732,0,2.86419
0,27.2641,0,3.05394
2.19556e+08,8.55591,2,2.81154
2.19592e+08,8.58746,0,2.72936
0,8.68859,0,2.58395
2.19712e+08,53.3293,0,2.79749
2.19962e+08,81.3556,2,2.77418
2.20019e+08,0.615244,1,2.88486
2.20094e+08,44.5307,0,2.57368
2.20327e+08,98.3453,2,2.74354
2.20346e+08,99.1145,1,2.41277
2.20386e+08,158.255,0,2.67788
2.20427e+08,29.6903,0,2.9527
2.20464e+08,113.092,2,2.78506
2.20677e+08,199.137,2,2.64717
2.2089e+08,44.6418,2,2.50706
2.20952e+08,48.6433,0,2.50009
2.20969e+08,6.62729,1,2.61539
2.20976e+08,10.3352,0,3.04763
2.21161e+08,155.869,2,2.40231
2.21221e+08,51.37,1,2.8618
2.21407e+08,7.78635,1,2.64363
2.21942e+08,410.44,1,2.83569
2.21959e+08,94.3832,0,2.83184
2.22232e+08,111.624,0,2.86297
2.22274e+08,129.944,0,2.48043
2.22527e+08,58.1027,1,2.81802
2.22994e+08,84.7851,2,2.714
2.23087e+08,125.183,1,2.91213
2.2313e+08,0.397266,2,2.37565
0,0.614546,1,2.5135
0,0.386385,2,2.46731
0,0.379741,2,2.72563
0,0.606462,1,2.76752
0,0.388558,2,3.04497
0,0.523377,0,3.02741
2.23234e+08,58.1953,0,2.75688
2.23497e+08,4.70705,1,2.96794
2.23498e+08,15.4922,0,2.37598
2.23504e+08,46.1261,2,3.00411
2.23516e+08,49.1866,1,2.85561
2.23735e+08,283.619,1,2.61319
2.23751e+08,137.581,2,2.97983
2.23805e+08,31.7779,1,2.48065
2.24147e+08,74.3565,0,2.56552
2.24191e+08,16.5724,0,2.44158
2.2449e+08,233.198,1,2.38014
2.24698e+08,80.902,1,2.58138
2.24737e+08,73.1169,1,2.68245
2.24968e+08,45.5604,1,2.59801
2.2504e+08,48.2122,0,2.99128
2.25186e+08,159.322,0,2.43171
2.25837e+08,152.285,2,2.70379
2.2586e+08,180.367,0,2.80726
2.25931e+08,71.9149,2,2.88239
2.25939e+08,43.3222,0,2.42242
2.27773e+08,75.7217,0,2.59097
2.27841e+08,53.7663,0,2.59859
2.27904e+08,30.2764,1,2.98643
2.28282e+08,110.53,1,2.46247
2.28436e+08,41.5571,1,2.72758
2.28488e+08,125.93,2,2.47085
2.28533e+08,3.50439,1,2.79146
0,3.55727,1,3.04684
2.28553e+08,17.2545,2,2.47543
2.29138e+08,85.2202,1,2.91341
2.29448e+08,259.881,2,2.76762
2.29648e+08,59.2166,1,2.897
2.2967e+08,11.5114,2,2.7244
2.30104e+08,51.6435,0,2.88426
2.30227e+08,86.0287,0,2.64897
2.30492e+08,65.2255,2,2.77792
2.30756e+08,56.8874,1,2.75142
2.30855e+08,153.392,0,2.84492
2.31071e+08,109.66,2,2.83924
2.31174e+08,63.5623,2,2.72738
2.31177e+08,26.1359,2,2.81482
2.31401e+08,209.21,2,2.57325
2.3183e+08,72.1848,0,2.90476
2.31927e+08,34.1321,1,2.68178
2.32058e+08,1.73785,0,3.05453
2.32903e+08,21.6464,1,2.47316
2.32961e+08,57.4967,2,2.71139
2.33024e+08,6.15952,1,2.88876
2.33146e+08,97.6607,2,2.96277
2.33199e+08,16.2929,1,2.70478
2.33249e+08,113.629,1,2.93364
2.33612e+08,44.7021,1,2.71952
2.33701e+08,20.3339,2,2.64469
2.33772e+08,3.53403,2,2.7234
2.33995e+08,115.211,1,2.76344
2.34019e+08,66.9389,1,2.56806
2.34234e+08,80.0148,0,2.82456
2.34281e+08,11.3069,2,2.50803
2.34572e+08,111.874,2,2.61061
2.34591e+08,55.5929,2,2.72031
2.34784e+08,19.5957,0,2.47918
2.34794e+08,33.3145,1,2.61142
2.34804e+08,152.781,0,2.88764
2.34805e+08,72.8118,1,2.51049
2.34849e+08,29.0582,1,3.04676
2.34851e+08,118.612,2,2.83369
2.35027e+08,32.1548,2,2.37646
2.35272e+08,10.4574,2,2.49234
0,10.4265,2,2.68714
2.35529e+08,26.1041,0,2.63108
2.35592e+08,90.5161,0,2.81017
2.35645e+08,19.7864,2,2.63583
2.35788e+08,45.4608,2,2.70539
2.36072e+08,57.8209,0,2.98593
2.36103e+08,18.6405,2,2.76085
2.36201e+08,17.0018,0,2.82282
2.36815e+08,49.7583,1,2.50834
2.37028e+08,43.42,0,2.62624
2.3722e+08,92.31,2,2.68378
2.37608e+08,128.272,1,2.80422
2.37845e+08,40.2784,0,2.56855
2.37974e+08,35.0195,2,2.57778
2.38369e+08,99.332,1,2.51203
2.3933e+08,85.0467,2,2.58412
2.3946e+08,45.9351,1,2.6968
2.39956e+08,87.5145,2,2.44945
2.40027e+08,32.5974,1,2.67409
2.40135e+08,36.1294,2,2.42144
2.40164e+08,269.377,0,2.75949
2.40306e+08,55.9478,0,3.00585
2.40411e+08,45.1317,2,2.48706
2.41007e+08,115.377,0,2.68631
2.41602e+08,57.7708,2,2.86547
2.41973e+08,126.269,0,2.69591
2.42037e+08,33.024,0,2.47091
2.42179e+08,59.3642,0,2.91592
2.42235e+08,55.2135,1,2.56745
2.42597e+08,17.7709,1,2.58194
2.42632e+08,443.118,0,2.67651
2.42647e+08,101.135,1,2.44439
2.42859e+08,29.7433,1,2.99685
2.42976e+08,104.497,0,2.41981
2.43105e+08,54.7268,2,2.83705
2.4325e+08,120.352,2,2.52075
2.43504e+08,157.851,0,2.95288
2.4351e+08,51.6851,1,2.48224
2.43646e+08,39.3195,0,2.56951
2.43749e+08,12.6303,0,3.02289
2.44167e+08,68.756,1,2.65667
2.44223e+08,153.12,2,2.83576
2.44375e+08,69.2403,0,2.70095
2.4481e+08,56.1858,2,2.81692
2.45368e+08,179.02,1,2.65366
2.45491e+08,65.6148,1,2.63128
2.45654e+08,135.185,2,2.84333
2.45855e+08,16.0423,0,2.70798
2.45992e+08,24.5361,2,2.56498
2.4612e+08,0.617256,0,2.82007
0,0.666864,0,2.98681
2.46258e+08,32.7815,1,2.92753
2.47407e+08,2.80422,0,2.52791
2.47435e+08,103.309,1,3.05659
2.47649e+08,11.3144,2,2.49898
2.47663e+08,60.4579,2,2.90136
2.47806e+08,25.1863,2,2.75731
2.47841e+08,65.3551,0,2.75451
2.48079e+08,17.2196,0,2.49357
2.48236e+08,45.0367,2,2.98703
2.48289e+08,106.037,1,2.91753
2.48304e+08,16.1792,2,2.76273
2.48315e+08,72.3902,1,2.3867
2.48319e+08,273.968,0,2.60598
2.48784e+08,3.38416,0,2.96966
2.49157e+08,64.1214,1,2.83866
2.4949e+08,80.7363,0,3.03762
