#class tools::wcsv::ntuple
#title time
#separator 44
#vector_separator 59
#column double eventID
#column double t(ns)
#column double copynumber
#column double energy(eV)
#column double x(mm)
#column double y(mm)
#column double z(mm)
4755,16.527,2,2.98334,-2835.43,-245.261,-26776.1
97614,20.2967,0,2.567,346.396,-215.886,-29008.1
382189,191.694,1,2.86064,-17128.8,22525.2,-124.523
461080,40.9486,0,2.58743,5647.48,3253.03,-23466.9
806050,57.464,2,2.81353,-7084.14,4041.6,-19898.3
877755,238.895,1,2.62379,-24855.3,11339.2,11940.4
896740,51.565,1,2.62577,-3355.95,9980.1,-26596.1
919388,0.874765,2,2.73953,-76.4534,-13.744,-28622
0,0.830965,2,2.41069,0,0,0
962084,78.4513,2,2.81192,13418.6,-7404.73,-22641
976204,100.628,2,2.56168,-19121.1,5269.76,-21287.9
1.05201e+06,60.8035,0,2.501,601.25,12684,-26535.9
1.05341e+06,11.7537,0,2.67987,348.011,2263.17,-29774.9
1.08091e+06,7.72999,1,2.62679,-248.234,-1232.15,-28492.1
1.38302e+06,131.026,2,2.44354,-13151.2,-9865.8,-6489.58
1.43518e+06,203.517,1,2.98004,-9720.12,-21127.4,-4176.44
1.45805e+06,13.125,0,2.68232,2178.54,-781.669,-27217.3
1.46901e+06,105.256,1,2.73697,-993.512,8417.88,-25163.3
1.84422e+06,14.0259,2,3.03761,2267.76,-618.813,-27070
1.94588e+06,19.6065,0,2.80375,2831.57,-1914.29,-26392
1.99395e+06,15.1696,1,2.40289,-681.1,2733.63,-27117
2.12578e+06,45.5859,0,2.97982,1474.38,3151.22,-25385.3
2.23566e+06,6.87496,0,2.61143,1421.54,-226.239,-28458.5
2.2574e+06,174.001,0,2.53077,-19788.4,16328,-2474.48
2.29200e+06,63.0817,1,3.02741,-10211.6,8177.15,-26403.4
2.48666e+06,94.9625,2,2.85745,-9844.38,13882.7,-18414.8
2.55003e+06,36.0102,1,2.56204,-87.65,-3937.63,-22445.9
2.71011e+06,71.1445,2,2.48185,-9576.63,8534.21,-21017.7
2.72089e+06,16.3254,0,2.60842,2391.93,2524.35,-29058.6
2.83978e+06,35.4657,1,2.66071,3117.71,6665.49,-27153.2
2.8506e+06,12.1533,2,2.69271,-1307.9,-2217.6,-29165.9
2.85555e+06,24.5903,2,2.99432,-2019.53,-2907.01,-25055.3
2.87656e+06,66.5764,2,2.51189,1234.63,-13618.6,-25169
2.94219e+06,88.5848,0,2.79748,15510.6,3612.15,-19451.9
3.00277e+06,37.7942,1,2.83239,-4990.44,3961.49,-24001.7
3.04608e+06,6.2869,1,3.03623,-510.668,835.651,-27906.9
3.0484e+06,21.6524,1,2.69005,2076.62,-924.364,-24870.3
3.08213e+06,10.5852,1,2.80524,-1673.61,-1119.46,-27845.2
3.09254e+06,38.8059,1,2.41337,-4100.77,5029.15,-23701.9
3.21237e+06,36.2735,2,2.42342,-4322.64,-4148.54,-23950
3.2164e+06,12.5932,0,2.9167,-1296.42,909.474,-26755.8
3.32436e+06,20.0604,1,2.55564,-1901.75,1715.43,-25376.2
0,20.1729,1,2.90228,0,0,0
3.3552e+06,302.73,2,2.71156,-19504.4,20409.1,28287.2
3.36498e+06,231.637,0,2.74285,6303.29,5439.14,-16733.2
3.41458e+06,48.8711,2,2.54512,4611.95,-2069.18,-19808.5
3.41749e+06,95.5571,0,2.48088,14316.8,-3211.59,-15359.1
3.43831e+06,14.9508,0,2.99572,220.393,2764.06,-27266.2
3.50967e+06,144.632,2,2.3944,-12349.4,-25236.4,-28478
3.57541e+06,7.70735,1,2.41784,-812.04,1079.64,-27799.7
0,7.99543,2,2.46291,0,0,0
3.73944e+06,133.151,1,2.84745,12030.4,-5482.83,-4642.39
3.84823e+06,56.7838,2,2.68231,-10107,-3293.97,-23097.7
3.88803e+06,108.306,0,2.5205,11939.5,1698.75,-9606.08
3.92193e+06,103.478,2,2.87655,-19164,-9997.61,-26498.6
4.0605e+06,52.5234,2,2.78665,8092.67,-4060.43,-22439.3
4.08592e+06,199.786,2,2.88236,21198.6,2373.04,-2895.1
4.27572e+06,166.798,2,2.63916,22050.1,22436,-13278
4.35817e+06,92.008,1,2.70684,-3367.57,9885.18,-12492.2
4.3875e+06,31.6866,0,2.45879,-1793.26,4204.06,-23978.8
4.51418e+06,91.2172,1,2.47858,-7772.59,17328.2,-24953.1
4.52797e+06,82.9525,2,2.61976,8409.12,-11442,-18501.3
4.57095e+06,27.0342,2,2.98559,958.339,-2864.48,-28781.2
4.59662e+06,6.66322,0,2.59331,1287.71,-156.757,-28149.9
0,6.65526,0,2.42839,0,0,0
4.7348e+06,59.3362,1,2.6163,-1639.98,5837.54,-17810.7
4.82395e+06,26.0665,2,2.75142,1186.45,1915.54,-23971
4.87295e+06,72.702,2,2.79952,-731.505,-14733.7,-24455.4
4.93897e+06,13.5156,1,2.88913,-473.879,2540.08,-27615
4.98741e+06,81.1014,2,2.92087,-13182.8,6599.24,-20498.6
5.26868e+06,133.726,0,2.76865,830.452,-618.728,-29830.1
5.30776e+06,110.238,0,2.98,11249.4,5183.16,-9284.35
5.40448e+06,89.0789,1,2.95563,-17761.5,-5902.73,-28556.7
5.52661e+06,163.243,0,2.6926,-640.172,12883.1,-6781.32
5.75452e+06,25.8712,1,2.55811,-1785.79,-5148.39,-29371.4
5.89607e+06,162.673,0,2.44172,-13182.4,-3013.33,-14564.1
5.98844e+06,66.6169,2,2.79506,-109.956,-13409.4,-24336.3
6.23579e+06,35.2297,2,2.80957,1445.71,-6826.75,-26116.1
6.42242e+06,117.419,1,2.88093,-15611.7,4599.02,-18686.5
6.42853e+06,23.923,0,2.42984,3093.5,-1836.64,-25187.7
6.47097e+06,57.8448,2,2.95738,8225.63,4247.05,-25086.2
6.53076e+06,29.6762,2,2.94469,-978.679,-5991.52,-26560.2
6.71395e+06,33.7562,2,2.6742,1834.59,-5837.56,-25245.8
6.74564e+06,242.5,2,2.70678,6327.96,15395.1,-12398.3
6.77971e+06,61.7656,0,2.77847,-5100.26,-11266.3,-24790.9
6.8242e+06,32.8977,2,2.64077,-2000.78,5352.46,-24953.9
6.91449e+06,231.155,1,2.91916,6497.6,-20528.7,-5987.94
7.08789e+06,36.0827,1,2.73444,6303,-3580.2,-26250.3
7.1694e+06,20.2684,2,2.93786,607.623,-2849.23,-25656.2
7.1883e+06,166.62,2,2.47484,13683.1,-25053.8,-8070.74
7.23286e+06,50.5114,1,2.53183,7541.98,2075.64,-21552.2
7.25942e+06,42.7912,1,3.00699,4198.49,5483.72,-23052.1
7.26418e+06,87.1042,2,2.92263,-7394.85,-11329,-16434
7.41448e+06,14.6638,2,2.78443,-78.8073,-2599.32,-27452.1
7.45256e+06,174.926,1,2.53719,-1580.07,-23281.4,-200.817
7.46239e+06,116.324,1,2.4404,319.173,-12597.1,-7738.93
7.66296e+06,46.5539,1,2.41154,2086.89,9498.41,-28868.8
7.69687e+06,115.938,1,3.01985,16529.3,-8403.63,-13200.5
7.71712e+06,26.5063,1,2.52233,-3162.92,967.809,-24251.5
7.76599e+06,43.8897,1,2.4139,3812.53,4677.55,-21664
7.81147e+06,13.709,0,2.51146,1747.85,1130.97,-26732.8
7.88042e+06,11.2809,1,2.77957,762.156,1933.62,-27794.4
7.93378e+06,26.7226,2,2.60194,3414.73,-4521.73,-28383.5
7.9623e+06,137.146,2,2.68286,-21407.4,-19510.9,-27400.7
8.07665e+06,176.368,2,2.46061,27108.9,18196.2,-10919.2
8.3209e+06,0.688868,1,2.52694,-32.7262,38.8475,-28715.9
8.50914e+06,39.3488,1,2.83156,-2420.87,-2252.44,-21315.5
8.62455e+06,24.02,0,2.70241,3080.66,-3706.15,-27052.9
8.7091e+06,55.6317,2,2.61951,-5421.16,-7425.66,-21353
8.79877e+06,18.6079,0,2.46125,2663.91,-2958.5,-28899
8.82326e+06,76.5711,1,3.03955,13366.5,-3932.93,-20967.1
8.82998e+06,154.843,2,2.84245,-28568.6,6371.28,-14494
8.97051e+06,14.1878,2,2.55133,-1677.46,1472.11,-26847.4
9.07817e+06,45.8232,0,2.8763,9618.97,485.191,-28360.2
9.14597e+06,54.5759,2,2.4611,6516.53,-7631.73,-23068.6
9.33398e+06,55.0015,1,2.91752,1180.93,-11119.3,-26027.7
9.34579e+06,75.664,2,2.70641,6212.4,-4669.65,-14963.8
9.56152e+06,25.7725,2,2.74774,919.205,-4556.03,-25865.4
9.56356e+06,18.9353,2,2.98949,-1359.52,-1922.28,-25577
9.58505e+06,92.5964,1,2.9061,-2850.93,18317.2,-23457.5
1.00032e+07,40.3875,2,2.54986,-4623.04,4607.13,-23360.8
1.00085e+07,47.8971,2,2.7999,-3316.65,7431.31,-23509.1
1.01611e+07,47.5261,0,2.47211,7723.24,1319.59,-22401.4
1.01725e+07,43.5511,1,2.62542,-4021.59,8363.04,-29673.1
1.0183e+07,162.891,1,2.62527,9888.98,-29045,-13436.1
1.01856e+07,83.9796,1,2.75625,-14914.7,1986.04,-19434.9
1.03009e+07,201.563,2,2.55777,8260.89,-25965.8,3919.48
1.04372e+07,71.0636,0,2.54575,14467.6,-3342.71,-26132
1.05053e+07,84.6899,0,2.58406,-3037.98,-9887.08,-14231
1.05417e+07,133.018,0,2.69641,-653.546,-23061.1,-12899.2
1.06066e+07,17.8395,2,2.56039,1722.57,-3408.67,-28952.9
1.06674e+07,6.3624,1,2.52367,-1312.38,190.254,-28139.1
1.0708e+07,44.453,1,2.8929,-5969.52,-6558.78,-25821.3
1.07403e+07,40.0701,2,2.9972,-1295.87,6594.65,-23833.2
1.08135e+07,100.81,0,2.89787,11583.8,-16939.6,-23917.1
1.09093e+07,111.207,0,2.73917,8023.28,-7249.59,-8225.92
1.11201e+07,92.7099,2,2.90183,8087.48,-15964.8,-21700.1
1.12373e+07,92.8152,1,2.69792,-13470.1,-3782.2,-15163.6
1.13538e+07,15.2167,1,2.48101,655.836,-1158.63,-25925.9
1.14548e+07,182.074,0,3.01358,-9626.51,-29892.8,-7126.89
1.15369e+07,124.782,1,2.40153,13428.8,-17782.6,-17412.2
1.17402e+07,122.14,0,2.8156,-20780.6,-3211.36,-19793.3
1.19953e+07,78.3575,0,2.83146,-12471.2,-8613.01,-22489.4
1.21038e+07,21.2812,2,2.86107,-237.903,-4323.48,-27191.8
1.22282e+07,46.535,2,2.51729,-8890.2,-3642.28,-26578
1.22936e+07,35.5944,0,2.49723,-3429.35,-1017.91,-22493.5
1.22992e+07,117.606,0,2.772,-16405.6,7187.54,-11806.7
1.23759e+07,37.3844,0,2.63325,6944.09,3868.01,-28160.9
1.24253e+07,69.4133,1,2.50251,13932.6,4759.15,-29089.2
1.26446e+07,10.3434,1,2.81808,26.2292,2183.75,-28386.3
1.2804e+07,24.5092,2,2.74896,-4208.52,-2807.24,-27005.1
1.29001e+07,19.374,1,2.37406,530.287,-3558.91,-27030.8
1.30134e+07,52.0795,1,3.05768,-7752.41,2265.07,-21455
1.30685e+07,240.856,0,2.3754,23085.5,20336.8,11755.8
1.3073e+07,128.173,2,2.98642,-17095.9,-19039.1,-20462.1
1.30978e+07,51.284,2,2.57975,4466.23,-5602.91,-20597.8
1.32597e+07,77.7296,2,2.72083,-9667.72,587.608,-15621.5
0,78.01,1,2.88738,0,0,0
1.33758e+07,98.8973,2,2.77452,-15275.4,1903.74,-22958.1
1.35625e+07,48.1692,0,2.39193,9446.62,-3595.14,-27471.3
1.35946e+07,274.935,1,2.80651,17837.9,23604.8,20835.2
1.37813e+07,114.058,0,2.41862,-8424.9,21740.6,-22801.7
1.40133e+07,132.22,0,2.74568,13589.4,15160,-9726.1
1.40584e+07,3.55446,0,2.92649,399.405,-774.36,-28921.6
1.41533e+07,114.747,2,2.70535,15759,-18343.3,-27382.8
1.42028e+07,113.199,1,2.6201,-19380.6,9919.01,-18824.4
1.42658e+07,270.313,1,2.80478,-5730.53,28562.7,19924.1
1.43392e+07,178.905,2,2.89121,-26916.4,-211.35,-2569.57
1.43508e+07,17.3054,1,2.86174,-1880.58,584.741,-25782
1.43958e+07,42.2541,1,2.79357,-4745.33,7488.6,-27560.2
1.44385e+07,83.6197,2,2.43082,-8246.58,-7351.22,-14936.7
1.46513e+07,118.085,2,2.93059,11294.6,19400.9,-18431.2
1.47417e+07,243.628,2,2.75523,28738,-14559.1,11079.8
1.47433e+07,3.37051,1,2.52022,637.47,375.232,-28627.5
1.48292e+07,116.256,1,2.63688,-4143.23,23871.7,-24454.2
1.5128e+07,171.31,2,2.47501,-29407.1,-12741.8,-11813.2
1.51957e+07,7.36629,1,2.75203,1617.22,612.329,-28712.3
1.52231e+07,60.1158,2,2.44079,10150.9,-2562.38,-21585.2
1.53227e+07,172.352,0,2.79487,18583,-23697.2,-16258.4
1.55222e+07,201.679,0,2.53859,6356.4,22722.3,6624.4
1.55541e+07,5.67768,2,2.90836,18.0163,-1339.29,-28570.3
1.55817e+07,80.5023,2,2.53031,-14085.5,-2941.59,-19611.8
1.56717e+07,14.5782,0,2.70073,2082.46,79.2881,-26489.1
1.57032e+07,15.1669,0,2.87773,-1201.02,-1450.59,-26268.2
1.57636e+07,273.919,1,2.87508,17121.8,27247.1,14547.5
1.58932e+07,69.7039,2,2.46536,-5007.43,6711.5,-16831.5
1.60581e+07,21.1097,1,2.73764,-211.905,4115.43,-27069.9
1.60683e+07,12.3955,2,2.48419,-2244.86,-1276.9,-27979.6
1.6078e+07,31.0199,1,2.78868,-1422.01,6378.65,-28431.5
1.63587e+07,188.554,2,2.5243,-14522.7,-28769.3,-5255.89
1.63667e+07,21.4349,1,2.71711,-2452.89,-921.746,-25197.7
1.64197e+07,12.6909,1,2.81442,-1809.92,1539.16,-29411.9
1.64433e+07,5.33972,2,2.63816,66.1977,-323.435,-27726.6
1.65218e+07,1.44699,0,2.54829,393.656,-9.47487,-28670.4
0,1.43587,0,2.44814,0,0,0
0,1.41229,0,2.67466,0,0,0
0,1.47357,0,2.96562,0,0,0
1.65287e+07,48.3571,1,2.85849,-7880.1,4356.63,-23897.7
1.65367e+07,191.855,1,3.02401,4067.72,-26464,1143.65
1.65629e+07,42.3936,1,2.97947,-4892.99,1535.41,-21506.2
1.65678e+07,102.735,0,2.56731,-4529.5,-21121.8,-27916.8
1.67688e+07,31.7296,2,2.58833,2226.45,-5487.89,-25420.5
1.67855e+07,13.616,0,2.40712,2145.94,162.731,-26918.8
1.69359e+07,158.658,0,2.94255,13718,-2365.3,-3595.1
1.69618e+07,102.266,0,2.79144,-2533.89,-14730.9,-13334
1.70789e+07,137.22,2,2.76585,-28866.5,629.381,-28587.1
1.7123e+07,44.7095,2,2.96758,-5085.06,-7504.52,-25895.3
1.71546e+07,60.4956,1,3.03316,3039.35,358.815,-26639
1.72889e+07,120.366,1,2.45701,13336.4,-4646.88,-7734.01
1.74286e+07,43.9143,0,2.43567,-392.275,5331.08,-21163.8
1.75466e+07,52.8608,0,3.05973,-1577.9,9318.73,-23216.2
1.7605e+07,43.0329,2,2.49004,-6716.54,-2534.99,-23181.9
1.76967e+07,121.818,2,2.68246,1245.95,-19756.7,-12405.5
1.77221e+07,78.1768,2,2.96395,1022.14,12411.9,-18304.9
1.7895e+07,1.47723,2,2.73309,-157.044,-194.833,-28563.4
0,1.47694,2,2.90239,0,0,0
1.81737e+07,42.7598,2,3.01544,3449.11,-7481.79,-25264.6
1.82487e+07,78.5755,0,2.85007,9771.72,-9877.74,-19771.3
1.83915e+07,99.369,2,2.98479,15382.4,-13886.2,-28958
1.86537e+07,85.6185,1,3.02034,10265.8,14631.1,-26718.5
1.8686e+07,213.995,1,2.38739,-3030.66,27511.9,-23127.7
1.88723e+07,63.784,1,3.01916,9576.89,-7401.85,-23218.6
1.89141e+07,29.6727,0,2.72249,571.489,-4251.11,-24253.2
1.9048e+07,42.1067,2,2.88425,7525.62,3862.4,-26370.3
1.90621e+07,92.7031,2,2.95798,-4202.34,-6769.87,-10953.7
1.92212e+07,16.104,0,2.47783,2760.66,-1779.23,-28726.4
1.93534e+07,159.093,1,2.74075,-20334.3,-6434.29,-2933.49
1.93826e+07,2.73974,1,2.70941,134.891,461.088,-28420.9
1.94346e+07,67.4852,2,2.65863,11994.2,4245.49,-22501.8
1.95741e+07,140.8,1,2.50893,1730.45,17549,-4849.93
1.97249e+07,109.878,1,2.57587,-22553.3,-4627.15,-25869.7
1.97582e+07,22.824,0,2.9228,2350.65,1215.68,-24764.6
1.97813e+07,69.5747,0,2.46852,4451.82,13681.8,-25241.5
1.97914e+07,88.7364,1,3.03193,-12610.3,13201.3,-24903.2
1.98758e+07,9.96405,0,2.87298,-1195.4,1748.55,-29009.8
1.98882e+07,66.4088,1,2.90503,-11688.4,5688.76,-23695.5
2.00085e+07,52.2537,2,3.00213,-10128.1,2935.91,-25708.3
2.01016e+07,97.2933,0,2.45217,8405.39,-6602.56,-11188.9
2.01766e+07,25.0581,2,2.58705,4468.94,-2889.73,-29149.4
2.02873e+07,45.4222,2,2.85496,25.1172,-5228.04,-20787.9
2.02896e+07,246.32,1,3.05907,26448.1,18497.7,9792.95
2.0323e+07,172.527,1,2.84583,-17361.7,21347.4,-5067.7
2.04987e+07,60.2397,1,2.8736,-9224.88,4268.44,-21773.4
2.06053e+07,140.612,1,2.52989,-22153.9,3998.04,-9388.78
2.07162e+07,37.6279,2,2.55265,-7034.22,-4109.11,-27715.5
2.0914e+07,28.1362,2,3.04101,-655.956,4434.07,-24882.1
2.11229e+07,13.8179,1,2.76397,61.2455,1336.71,-26180.5
2.11358e+07,28.9018,2,3.00025,-3014.09,-5288.3,-27836.9
2.12079e+07,16.9977,0,2.59538,-354.701,-1395.75,-25636.8
2.1355e+07,92.0948,2,2.66934,-3170.97,-19105.5,-28170.4
2.14017e+07,20.1272,2,2.43145,2811.87,-1852.24,-26133.7
2.1448e+07,60.6854,0,2.95562,7676.99,9866.36,-26746.6
2.15984e+07,104.851,2,2.5703,12221.9,-10900.5,-13937.4
2.16435e+07,31.2935,1,2.99178,-4023.33,-3642.31,-25817.1
2.16702e+07,18.5866,2,2.40725,-3160.63,498.63,-26519.4
2.17631e+07,5.20237,2,3.03223,-774.614,795.155,-29096.2
2.18543e+07,46.4383,1,2.7654,5051.61,1140.1,-20538.4
2.18732e+07,46.1836,0,2.76881,2075.1,7053.79,-22435.5
2.22241e+07,73.1572,2,2.95327,7122.9,-12522.1,-23633
2.23066e+07,6.60215,2,2.63534,-358.471,-1072.6,-27888.6
2.23312e+07,103.475,1,2.59635,-5305.63,-19889.1,-21805.1
2.24e+07,14.9762,0,2.71063,2182.69,328.636,-26532
2.24191e+07,7.01532,2,2.65138,646.609,-930.789,-27963.7
2.25488e+07,51.1125,1,2.69804,5588.33,-8485.94,-25416.2
2.25671e+07,83.7965,2,2.75024,-16447.3,1804.45,-22629.5
2.26333e+07,121.234,2,3.04411,-8267.21,-24039.4,-27071.3
2.26475e+07,35.9719,2,2.58414,-3148.1,-2345.06,-22289.2
2.26843e+07,26.707,1,2.80034,1321.06,3940.25,-25066.2
2.27358e+07,27.5283,1,2.93711,-3483.64,3934.22,-27036.6
2.27639e+07,141.58,2,2.88701,-22397.7,-6986.82,-10509.9
2.28012e+07,8.30382,0,2.37303,663.613,879.444,-27413.4
2.30065e+07,9.60355,0,2.98152,-1286.06,78.0806,-27450.4
2.30132e+07,42.891,2,2.89499,-4277.73,1236.39,-20590.9
2.30647e+07,39.4095,0,2.63925,7092.74,-4538.68,-28713.9
2.31335e+07,16.9789,0,2.59115,1534.89,3184.36,-29721.6
2.32248e+07,100.879,1,2.53796,1584.23,20611,-23456.1
2.32307e+07,60.5375,1,2.65065,-2223.31,10948.9,-22382.1
2.325e+07,38.2441,1,3.0079,-4304.47,5936.08,-25337.1
2.34314e+07,80.0324,1,2.73766,-9939.46,12624.8,-23541.3
2.35302e+07,124.782,2,2.53943,543.687,15553.9,-7565.79
2.35644e+07,17.3572,0,3.05039,-267.548,3644.45,-29069.8
2.35798e+07,30.0711,1,2.59076,-3866.97,4248.43,-26100.2
2.38052e+07,9.94271,1,2.68522,-1806.84,-915.762,-28206.2
2.39019e+07,88.9029,2,3.01709,-9410.97,-2291.83,-13369.1
2.39538e+07,45.4212,0,2.87465,5800.93,7447.01,-27873.8
2.40086e+07,76.0625,2,2.88879,-6984.16,3978.92,-15003.7
2.40146e+07,18.4073,1,3.02984,-847.443,2357.88,-25932
2.4183e+07,149.736,1,2.91559,-4204.3,24054.3,-9032.18
2.42805e+07,7.49333,0,2.82517,1334.95,976.004,-28862.1
2.42808e+07,277.931,1,2.69417,-29232,22208,16750
2.43447e+07,34.7476,1,2.82004,168.174,-7071.6,-27514.1
2.43733e+07,20.0607,1,2.70638,-3918.61,-1345.09,-27775.5
2.44703e+07,53.9551,0,2.5124,5081.49,5822.04,-20784.7
2.45147e+07,76.3477,1,2.99085,-11552.9,-85.0992,-17690.9
2.46004e+07,98.1191,0,3.03275,19947.4,4777.99,-26682.7
2.46124e+07,124.952,0,2.89526,20544.9,-16186.9,-25989.3
2.46356e+07,88.8634,2,2.91512,-6455.61,16715.5,-23698.1
2.46648e+07,32.3077,1,2.49517,-4230.38,4569.58,-25873.6
2.46745e+07,182.183,2,2.85117,15406.7,-13786.9,3351.13
2.4717e+07,9.72338,0,2.8298,1893.62,396.891,-27916.5
0,9.6288,0,2.48563,0,0,0
2.4836e+07,45.5398,2,2.41889,2760.77,-6104.31,-21880.7
2.48393e+07,27.6466,0,2.68229,4048.38,4200.68,-27926.6
2.4915e+07,19.3752,1,2.77376,-1683.75,-1215.78,-25347.9
2.49645e+07,102.711,0,2.40302,-18263.8,-2036.42,-17392.7
2.49905e+07,74.8098,2,2.37798,-1077.23,-15892.2,-28329.1
2.51669e+07,118.67,2,2.98627,9030.13,-22973.2,-25216.4
2.54257e+07,82.1073,2,2.68597,-13784.6,8352.56,-22622.9
2.5445e+07,57.3696,0,2.45173,-4484.49,7896.67,-20791.1
2.55687e+07,64.503,1,2.66519,-8914.33,6864.94,-21359.8
2.55984e+07,49.1518,0,2.68283,-6510.32,-7686.38,-26747.1
2.56258e+07,68.4486,0,2.86112,-56.8169,-11390.8,-23338
2.57821e+07,76.4856,2,2.69215,11626.7,-1775.89,-17880.5
2.58002e+07,182.79,1,2.47123,-14611.5,-2149.21,3821.79
2.58114e+07,13.655,0,2.83344,-2509.39,-254.396,-27629.8
2.58481e+07,41.1555,1,2.95818,2714.03,2442.68,-20988.9
2.58823e+07,4.25228,1,2.39717,-190.646,904.188,-28702.5
0,4.79937,2,2.40546,0,0,0
2.5981e+07,85.1896,1,2.3667,11414.9,4028.7,-18797.5
2.60287e+07,108.857,0,2.43594,19182.1,7914.19,-19082.6
2.60753e+07,57.2329,1,2.68353,-8541.54,-8349.43,-27469.9
2.60841e+07,40.1033,2,2.54397,7385.76,3332.02,-27181.9
2.61533e+07,8.9302,2,2.48064,-56.7659,-766.125,-27092.8
2.61784e+07,23.699,2,2.63764,3139.48,1816.23,-25313.2
2.62965e+07,108.577,0,2.89173,-13672.7,-17718,-25872.8
2.64708e+07,116.699,0,2.85869,14695.9,-10724.7,-12261.6
2.6489e+07,53.5491,0,2.50313,4819.93,-9060.16,-23859.8
2.66186e+07,208.778,2,2.83344,23799.5,-7606.71,-14435.5
2.6789e+07,118.303,2,2.95808,13199.3,-11729.2,-11367.8
2.68234e+07,66.353,0,2.94305,12425.7,-2199.19,-22548.5
2.68751e+07,175.571,2,2.80869,-6477.21,-16115.3,-27045.4
2.68779e+07,89.0074,1,2.88786,-9885.94,13007.6,-19584.4
2.68991e+07,4.6595,1,2.95013,25.6564,178.564,-27979.6
2.69816e+07,80.184,2,3.00194,13589.1,-8291.4,-23399.3
2.6987e+07,95.7899,1,2.65203,-14005.1,11394.9,-19587.1
2.71327e+07,28.1899,1,2.67066,-2468.44,5047.61,-26577.8
2.72741e+07,39.0808,1,3.00902,-1058.11,4918.37,-22350
2.73022e+07,12.9071,2,2.69056,1469.81,-2086.95,-27725.7
2.73298e+07,4.83597,1,2.48762,534.725,152.241,-28240.9
0,4.72363,0,2.6316,0,0,0
2.73671e+07,21.5059,0,2.51399,3696.11,-401.167,-26082.3
2.7418e+07,86.4014,1,2.85292,4247.05,14718.5,-18972.6
2.74782e+07,25.8705,0,2.80825,2628.03,-1564.87,-24180.6
2.7579e+07,45.9424,1,2.83246,9540.88,1278.39,-28096.4
2.76599e+07,9.51699,2,2.47692,-429.14,-1908.22,-27999.3
2.77478e+07,48.5901,0,2.88755,-141.81,9483.07,-24843.8
2.77502e+07,10.8815,1,2.89018,-2006.08,-848.045,-28290.1
2.77812e+07,114.363,1,2.41108,7295.07,13163.1,-9850.23
2.7837e+07,131.852,0,2.66421,7817.28,-23400.8,-16246.8
2.81156e+07,15.1575,0,2.80448,2143.4,1629.36,-27173
2.82588e+07,81.7858,2,3.01894,6616.53,-12174.8,-18649.5
2.85861e+07,87.2716,1,2.45138,-18034.2,-540.779,-25446.8
2.86053e+07,122.002,2,2.93357,-10327.5,-21563.6,-19422.1
2.86585e+07,135.225,1,2.88368,20474.1,8788.27,-25091.4
2.89366e+07,213.841,0,2.58306,-21426.8,-16846.5,7080.06
2.89784e+07,276.944,2,2.71022,-792.114,-3816.65,-27782.1
2.92237e+07,48.4683,2,2.60282,-5459.62,-6341.92,-22804.1
2.92343e+07,208.684,0,2.77304,14092.5,-26179.5,3286.79
2.92549e+07,49.1498,1,2.5867,-3593.86,5418.44,-20646.4
2.92927e+07,7.0919,0,2.54914,1450.22,184.798,-28162.3
2.92981e+07,110.825,2,2.62781,6530.32,-13244,-10700.8
2.93088e+07,126.691,1,2.53871,-2047.16,20497.8,-11840
2.95439e+07,7.40296,0,2.79295,1333.95,-939.998,-28441.4
2.95721e+07,24.9868,0,2.4901,-1015.05,4937.48,-27251.6
2.95869e+07,59.373,0,2.75681,8201.69,965.267,-19426.6
2.96151e+07,240.969,0,2.7946,6139.21,1112.56,-19271.4
2.98547e+07,7.26166,2,2.66427,-755.528,436.524,-27454.8
2.99229e+07,54.7635,2,2.52523,7151.11,-9159.42,-27884.4
