#class tools::wcsv::ntuple
#title time
#separator 44
#vector_separator 59
#column double eventID
#column double t(ns)
#column double copynumber
#column double energy(eV)
#column double x(mm)
#column double y(mm)
#column double z(mm)
12481,45.3956,0,2.80564,165.507,-8780.43,-25290.5
44058,22.3404,0,2.73752,1610.59,-2178.7,-24909.1
321325,10.4517,1,2.62478,1819.15,1072.07,-28072.4
354848,67.1002,0,2.68201,-6795.6,11088.3,-23290.4
404187,18.9886,0,2.37297,3927.39,-1160.21,-29077.2
525603,186.581,1,3.01981,5989.08,3996.9,-28937.7
540857,45.3203,1,2.76715,-7172.42,-6225.85,-27877
601823,109.52,0,2.56739,-19169.4,11169.5,-22395.3
873504,20.5947,0,2.36644,3070.84,-2970,-27610.3
898473,11.9462,1,2.65798,-253.123,-1508.67,-26805.2
906847,164.79,1,2.54507,20068.3,23925,-14212.3
981447,172.635,2,2.81865,18942.2,-20842.6,-5884.73
1.0078e+06,89.6833,1,2.75088,10010.8,7908.78,-14827.8
1.26857e+06,119.339,1,2.65547,-17460,13851.2,-16860.8
1.34865e+06,113.916,2,2.69992,-9231.97,15038,-12628.1
1.45416e+06,189.064,1,2.98984,564.413,-16007.2,-15297.2
1.56559e+06,4.34524,0,2.77504,-259.287,778.217,-28494.2
1.6185e+06,80.9852,1,2.58029,-6571.33,14724.5,-22883.8
1.72528e+06,71.2122,0,2.811,4270.62,-2513.87,-20586.3
2.0974e+06,89.3817,0,2.86405,5028.41,-5334.56,-26377.2
2.1464e+06,237.763,0,2.46818,2836.59,-10375.6,-28421.2
2.28148e+06,53.1112,2,2.47639,2730.8,-9201.45,-22886
2.29574e+06,184.523,2,2.90546,-14565.1,-1280.68,-18620.4
2.41849e+06,119.598,2,2.68476,12213.6,19605.3,-18952
2.47444e+06,65.6842,2,3.04501,-11796.5,6252.04,-25690.6
2.54267e+06,44.8381,1,2.91048,863.195,-5999.16,-21672.9
2.5599e+06,188.892,0,2.88542,14128.5,5940.67,7686.07
2.61768e+06,70.677,1,2.73272,-13243.4,-5291.67,-24483.9
2.67616e+06,152.861,1,2.93547,-18911.2,13981,-7096.14
2.70709e+06,22.6024,2,2.80419,3766.57,-2930.89,-29047.1
2.85313e+06,78.0703,2,2.7032,8451.15,-14191.4,-28613.8
2.87974e+06,134.12,0,2.63686,-12531.1,12109.1,-6519.48
3.0891e+06,5.42652,0,2.42289,-676.857,845.832,-28564.9
3.284e+06,115.253,2,2.39532,-17727.5,1425.81,-12103.5
3.39369e+06,19.2113,0,2.45553,3198.21,-22.4903,-26347.4
3.43727e+06,69.0489,0,2.66984,7993.65,10337.3,-22266.6
3.68802e+06,17.2084,2,2.40285,932.323,2243.6,-26226.3
3.69596e+06,7.94597,1,2.96585,434.407,1067.06,-27434.8
3.73144e+06,22.1467,2,2.90259,3185.25,1706.92,-25924
3.78234e+06,112.575,1,2.46115,19098.9,-3145.6,-17074.9
3.81956e+06,11.4783,1,2.53673,561.609,1729.69,-27077.6
0,11.5679,1,2.97664,0,0,0
0,11.6438,1,3.03183,0,0,0
3.90613e+06,95.7025,2,3.04082,12047.1,-2386.59,-13010.4
3.99093e+06,42.3125,1,2.54643,-6695.63,-1205.87,-22857.3
4.07055e+06,8.31736,0,3.02028,692.043,-1561.32,-28162.6
0,8.33439,0,2.94491,0,0,0
4.24907e+06,44.0462,2,2.44039,1667.68,-5197.12,-21401
4.31001e+06,13.502,1,2.59823,-117.941,2692.1,-27687.9
4.64851e+06,105.177,1,2.91506,330.212,12028.3,-16572.8
4.82217e+06,14.3404,1,2.89386,1210.75,2616.66,-27775.6
4.9138e+06,25.2101,0,2.4095,-1633.51,-4571.65,-26927.4
4.93838e+06,103.439,2,2.76103,-16158.9,4876.22,-15487
5.0066e+06,275.692,1,2.4936,-12980.4,-22528,23315
5.04413e+06,100.29,2,2.89328,-5732.46,-11346,-11983.1
5.06346e+06,147.589,1,2.69593,29214.9,-8827.26,-22904.9
5.21692e+06,48.0747,0,2.4655,10038.8,1569.35,-27502.8
5.22019e+06,150.371,1,2.89532,19997.7,21611.7,-17351.1
5.31141e+06,31.3825,0,2.48751,1909.26,-1427.87,-22609.6
5.34457e+06,28.5563,0,2.94725,5247.83,-657.039,-25787.4
5.40936e+06,107.072,0,2.87058,-13250.7,-13307.9,-16212.7
5.43694e+06,40.5662,2,2.67673,-5459.31,5105.56,-24638.7
5.45986e+06,127.338,0,2.94432,-8625.6,7215.25,-28877.6
5.57382e+06,33.0749,1,2.9313,-4341.45,-3870.88,-24991.2
5.57424e+06,67.8126,1,2.87136,-9490.06,10437.9,-26116
5.75284e+06,84.8914,1,3.02572,-9528.89,9143.52,-23461.3
5.76867e+06,27.0277,2,2.73557,517.875,-5367.89,-27004.5
5.86575e+06,36.3375,1,2.53432,4748.01,1261.37,-22861.5
5.95625e+06,131.208,2,2.82613,13033.9,-11383.4,-12044.6
6.02655e+06,81.8048,2,2.42417,7930.55,-9766.36,-16892.1
6.43204e+06,169.709,0,2.78358,2579.51,28541.8,-7396.47
6.47483e+06,185.411,0,2.5979,-5613.54,24480.8,1038.05
6.53855e+06,138.552,2,2.93771,-443.218,-15415.3,-22613.9
6.55762e+06,118.912,1,2.69926,13670.6,5858.2,-8600.14
6.7934e+06,155.66,0,2.66746,25913.6,20297,-29177.2
6.81227e+06,51.8978,1,2.60354,-8793.65,6666.55,-27736.4
6.82493e+06,5.06635,2,2.7597,725.909,108.322,-28000.1
6.93365e+06,122.184,1,2.86858,20608.4,-12307.3,-19441
7.01508e+06,30.6223,1,2.87336,-1578.05,-5391.6,-26371.1
0,30.4337,0,2.84646,0,0,0
7.06059e+06,57.6282,2,2.48646,-9403.24,-7825.34,-27524.9
7.07629e+06,68.2502,1,2.85323,-12550.8,5263.85,-24461.8
7.11196e+06,107.421,2,2.96736,10896.6,6746.18,-10478.8
7.20487e+06,72.9809,1,2.69082,-7642.68,-8449.94,-21280.2
7.22232e+06,142.581,1,3.00566,7180.65,23037.3,-11156.7
7.38666e+06,24.6967,1,2.89211,-1669.33,5003.75,-28355.8
7.38958e+06,70.5189,0,2.93489,11096.7,4834.02,-20257.3
7.58483e+06,34.0634,1,3.0557,3540.08,-1942.94,-22963
7.78602e+06,233.054,1,3.02594,-13027.7,2100.97,-15806.2
7.84641e+06,33.2579,1,2.45384,-6274.12,-2779.14,-26979.3
7.98984e+06,23.9634,0,2.64536,-4519.46,-691.713,-27115.5
8.03067e+06,127.147,0,2.43274,10286.7,-11962.6,-7090.5
8.09901e+06,68.4654,2,3.05952,-1835.21,11538.6,-20599.1
8.22784e+06,63.7505,0,2.45496,246.066,-6837.41,-17305.8
8.3825e+06,149.226,0,2.47398,-2688.74,7026.34,-23836.2
8.41988e+06,6.9635,2,2.92856,-940.902,-919.848,-28226.8
8.463e+06,10.2001,2,2.91708,860.582,-2024.13,-28358.8
8.46714e+06,118.407,0,2.47623,19219.5,-16136,-29768.6
8.58393e+06,76.1064,2,2.7599,-15456.5,418.33,-24358.4
8.63757e+06,5.3215,0,2.79947,686.34,-884.277,-28623.2
8.747e+06,4.2901,0,2.60912,746.194,-685.949,-28341.2
8.76644e+06,19.3394,0,2.44784,3199.74,2526.2,-29780.1
8.90488e+06,11.5301,0,2.69961,2054.54,780.868,-27653.1
8.90726e+06,50.6377,1,2.89272,-8523.74,6361.09,-27942.4
9.07354e+06,12.0973,1,2.4754,1407.95,1516.71,-27340.9
9.09121e+06,19.1216,1,2.94685,1394.96,-3222.23,-26892.8
9.09415e+06,6.45973,2,3.00517,-979.103,-1047.88,-28854.5
9.10307e+06,100.168,1,2.9393,-14064.4,15643.3,-27928.6
9.1095e+06,6.41243,2,2.37781,774.123,-1166.51,-29095.1
9.16902e+06,80.4594,2,2.96129,-5071.5,-14091.7,-20869.2
9.17824e+06,89.8144,0,2.72992,-4323.86,-15745,-19499.8
9.40982e+06,178.668,0,2.7854,1740.1,-1647.05,-11593.6
9.44493e+06,169.298,0,2.41432,17493.7,3725.72,2246.36
9.47707e+06,25.5889,2,3.0581,-4410.34,-1942.11,-26872.1
9.54125e+06,146.829,1,2.63598,11746.3,28110.5,-22765.2
9.7255e+06,50.8061,1,3.03071,4058.29,-6443.47,-21412.1
9.81625e+06,50.0406,2,2.46854,5193.08,-5327.47,-21291.5
9.82443e+06,88.4734,2,2.56237,-17194.5,2377.04,-21844.4
9.89702e+06,14.4212,0,2.43568,901.496,2936.22,-28285
9.90004e+06,18.0488,2,3.01143,2125.82,-2252.53,-28019
9.98836e+06,88.6167,2,2.82234,10067.1,-12556.5,-19196.6
1.00394e+07,151.117,0,2.71849,3661.53,19074.1,-17357.6
1.00919e+07,2.88545,1,2.39855,298.264,435.803,-28551
0,2.83154,1,2.74521,0,0,0
1.01665e+07,40.7475,1,2.79922,2182.78,3821.86,-21433.5
1.02179e+07,99.2973,2,2.67029,6524.89,-19495.4,-24526.8
1.02571e+07,59.5938,2,2.46127,-11370.7,-1379.83,-23463
1.0385e+07,208.228,2,2.62824,-7342.77,23974.6,-14031.9
1.06018e+07,222.374,2,2.88763,-16590.4,-16613.4,-17982.1
1.06351e+07,154.23,0,2.69598,21069.7,-7403.48,-21753.1
1.06833e+07,52.7621,1,2.6614,4733.8,-4652.45,-20034
1.07089e+07,39.1555,1,2.67927,-5186.09,3639.1,-23591.9
1.0743e+07,127.129,2,3.02813,-2940.02,-10885.6,-4617.77
1.07657e+07,142.531,1,2.36749,22043.9,20632.1,-28067.6
1.1002e+07,108.953,0,2.8252,16068.2,12883.9,-18602.7
1.10305e+07,165.326,1,2.59033,-19783.4,2695.15,-19834.2
1.12139e+07,8.3161,0,2.48982,1906.83,-170.699,-28753.2
1.1234e+07,162.07,1,2.562,13765.6,11687.9,-174.896
1.12759e+07,23.3119,1,2.48992,-2746.13,-398.521,-24832.1
1.13179e+07,55.314,2,2.83181,3309.8,-11168.2,-27850.8
1.13462e+07,99.1272,2,2.84738,7147.55,-18122.1,-21206.3
1.14599e+07,70.6633,2,2.93281,10404.8,652.247,-21865.9
1.16511e+07,60.836,1,3.03895,-11612.4,-2261.39,-23888.5
1.16694e+07,10.5562,0,2.39702,2234.81,13.9382,-29442.4
1.1784e+07,28.4619,0,2.52453,-4087.62,864.454,-24569.2
1.18044e+07,12.7492,2,2.8909,-1820.89,1512.29,-27658.6
1.18261e+07,148.201,1,2.85646,17364.1,-15860.5,-8529.12
1.19468e+07,100.371,2,2.63652,-18138.2,-7643.81,-20927.3
1.19558e+07,119.652,0,3.03491,8934.35,11724.6,-8516.98
1.26021e+07,82.029,2,2.83928,-4148.92,-14048.7,-19561.3
1.2629e+07,7.62823,2,2.62557,-364.393,-432.524,-27280.7
1.26591e+07,155.236,1,2.74253,18718.7,10522.2,-4160.13
1.2662e+07,42.2364,0,2.97179,4932.74,-7048.19,-28201.4
1.28469e+07,239.204,0,2.9679,3448.3,-6140.85,14893.2
1.28652e+07,95.9923,1,2.79099,16038,-11011.2,-25665.7
1.29155e+07,20.4666,2,2.82863,-2433.8,-3432.71,-27591.4
1.30161e+07,103.147,1,2.37611,9100.19,919.018,-9030.77
1.30227e+07,13.1143,0,2.89939,2368.34,-1114.56,-29946
1.32826e+07,3.60389,2,2.84418,-393.889,-709.803,-28801.2
1.33663e+07,65.3025,0,2.61529,13278.8,-2365.49,-25644.9
1.34925e+07,21.6616,2,2.48995,3352.04,-623.754,-26015.7
1.3506e+07,61.4232,2,2.66276,4954.19,10843.7,-23897.2
1.36038e+07,123.075,2,2.97384,-2492.45,-23788.5,-19056.3
1.3609e+07,171.834,0,2.47571,9685.6,14180.5,3229.09
1.38085e+07,21.6823,1,2.55633,-1451.92,4380.05,-29601.8
1.41452e+07,56.5384,2,2.49444,5442.42,372.663,-18154.9
1.42704e+07,220.423,2,3.04948,-25246.6,28456.4,-2783.15
1.42793e+07,22.7852,0,2.77495,2766.41,2607.23,-25799.3
1.42802e+07,133.533,1,2.49915,-3720.66,25621.9,-17325.9
1.4372e+07,8.7838,1,2.70488,-1288.81,129.994,-27436.7
1.44058e+07,438.807,0,2.50324,-7386.28,-18985.3,-8265.17
1.44171e+07,73.8496,1,2.49247,-11936.1,-667.726,-18934
1.45251e+07,76.2725,2,2.82952,-12642.2,3421.08,-19748.9
1.46173e+07,26.8568,1,2.89173,-2751.79,933.027,-24179.1
1.47329e+07,17.9002,0,2.3956,366.85,3544.26,-27649.1
1.47344e+07,20.0665,1,2.37367,3708.05,1986.6,-28035
1.47379e+07,219.782,2,2.59496,-18655.8,-28889.9,2383.26
1.47512e+07,18.0135,0,2.37711,-147.805,-3317.68,-26974.4
1.48201e+07,95.7145,0,2.41796,-16330.3,-4883.67,-18073.8
1.48341e+07,25.8471,1,2.58722,-517.326,5115.88,-26755.7
1.48477e+07,76.9038,1,2.90476,-12661,10161.4,-29314.1
1.48927e+07,12.2097,2,2.87287,-1558.05,-2026.42,-29658.7
1.49221e+07,138.846,2,2.9569,3007.65,10279,-9279.36
1.49345e+07,19.3011,2,2.80367,1310.09,-3951.47,-28473.9
1.49717e+07,109.317,1,2.67808,16601.4,4399.79,-14064
1.49953e+07,35.6239,1,2.93167,5981.67,1799.45,-24541.6
1.50383e+07,80.4074,1,2.39198,-917.8,13815.3,-18809.7
1.51153e+07,23.897,2,3.03769,-3787.2,1365.95,-26082.7
1.51201e+07,53.1805,2,2.74536,-8215.48,-1153.48,-21254.7
1.524e+07,63.9588,0,2.80605,12681.9,-1789.69,-24385.2
1.53236e+07,8.20714,0,2.80041,1696.6,252.173,-29099.4
1.53532e+07,28.8022,0,2.8724,2384.44,3232.23,-24172
1.54126e+07,59.1374,1,2.69036,6930.79,-3720.47,-19214.3
1.54371e+07,0.388049,0,3.44416,129.994,28.5151,-28782.9
0,0.386261,0,3.37082,0,0,0
0,0.195093,0,2.98563,0,0,0
0,0.191223,0,3.43582,0,0,0
0,0.191378,0,4.06198,0,0,0
0,0.194521,0,2.1497,0,0,0
0,0.190944,0,4.0999,0,0,0
0,0.194949,0,2.94978,0,0,0
0,0.192442,0,2.86956,0,0,0
0,0.190612,0,2.39599,0,0,0
0,0.191705,0,3.57866,0,0,0
0,0.191408,0,3.47776,0,0,0
0,0.192422,0,2.69852,0,0,0
0,0.193894,0,3.10804,0,0,0
0,0.191024,0,2.81672,0,0,0
0,0.192452,0,2.21821,0,0,0
0,0.194554,0,2.73232,0,0,0
0,0.193968,0,3.30337,0,0,0
0,0.191012,0,2.21011,0,0,0
0,0.191232,0,2.49005,0,0,0
0,0.192665,0,4.11213,0,0,0
0,0.192424,0,3.7944,0,0,0
0,0.194196,0,4.13209,0,0,0
0,0.193113,0,3.65501,0,0,0
0,0.194816,0,2.1933,0,0,0
0,0.194422,0,2.5777,0,0,0
0,0.190785,0,2.97537,0,0,0
0,0.19534,0,3.57699,0,0,0
0,0.192964,0,2.72965,0,0,0
0,0.191332,0,3.3157,0,0,0
0,0.19104,0,2.06866,0,0,0
0,0.191129,0,2.13311,0,0,0
0,0.195468,0,2.21135,0,0,0
0,0.194806,0,3.06332,0,0,0
0,0.193163,0,3.73741,0,0,0
0,0.190572,0,2.99072,0,0,0
0,0.191492,0,2.10883,0,0,0
0,0.194545,0,3.75519,0,0,0
0,0.195506,0,3.53553,0,0,0
0,0.261063,0,3.53553,0,0,0
0,0.195407,0,2.63102,0,0,0
0,0.252387,0,3.18484,0,0,0
0,0.242402,0,2.1333,0,0,0
0,0.234049,0,3.63904,0,0,0
0,0.195249,0,2.8975,0,0,0
0,0.195811,0,2.25597,0,0,0
1.55033e+07,19.3368,2,2.84243,-1645.85,2287.29,-26039
1.55345e+07,21.6524,0,2.45334,1838.7,1376.65,-24811.1
1.55682e+07,118.192,2,3.01043,-1308.68,24148.9,-23718.5
1.56796e+07,95.9948,0,2.87334,11584.3,-1077.44,-12290
1.57228e+07,45.6565,0,2.77924,-6677.66,371.81,-22192.2
1.58004e+07,175.733,1,2.61865,14604.5,27569.5,-8605.39
1.58225e+07,83.4318,2,2.73085,12148.4,1754.01,-16320.9
1.58585e+07,140.375,1,2.62217,-28618.9,-3946.54,-21264.7
1.59645e+07,8.2426,1,2.9382,706.625,-345.391,-27245.5
1.60255e+07,123.029,1,2.76161,-1938.39,-11524.3,-5755.33
1.60955e+07,11.3791,0,2.404,448.025,-2083.08,-28836.9
1.61725e+07,20.2799,0,2.66529,1589.5,2337.04,-25564.1
1.61863e+07,16.4959,2,2.57681,1684.84,-2275.51,-26931.1
1.62338e+07,159.918,1,2.93856,23896.4,-6006.23,-6137.81
1.63168e+07,141.305,1,2.71791,-964.545,-25305.2,-13410.1
1.63373e+07,69.9568,1,2.96817,3933.37,13715.2,-26222.2
1.63445e+07,27.3941,2,2.36314,69.0165,-2125.75,-23334.8
1.64674e+07,53.2242,2,2.83342,-10218.8,4593.58,-28221.2
1.64804e+07,157.972,1,3.0004,-26553,5621.39,-10092.6
1.66941e+07,29.4897,1,2.9566,-979.288,5028.18,-25391.9
1.69151e+07,108.294,1,2.89735,-21208.9,1411.38,-20569.9
1.70332e+07,55.0153,2,2.76695,-6201.48,-8535.25,-23826.3
0,54.9559,2,2.5828,0,0,0
1.70389e+07,0.727445,2,2.98466,-155.61,-125.159,-28763.7
1.71209e+07,23.6153,1,2.76938,-55.3343,4121.41,-25932.5
1.72282e+07,112.251,2,2.90555,-3317.68,-10313,-7970.78
1.72486e+07,87.5121,2,2.82969,-7577.54,-11087.4,-16194.2
1.733e+07,66.9456,1,2.93723,-6456.44,-927.439,-20487.9
1.74721e+07,5.18127,0,3.00317,494.584,576.196,-28014.6
1.75007e+07,89.0106,2,2.7336,-316.799,-14124.8,-21313.2
1.76253e+07,6.57405,1,2.45527,610.714,1366.64,-28738.3
1.76357e+07,168.515,0,2.92839,12142,18503.3,-29792.9
1.77131e+07,10.1822,0,2.47429,1891.02,-152.147,-27561.3
1.77577e+07,24.2859,1,2.3634,-3619.01,-628.643,-25244.7
1.777e+07,17.1733,1,2.60918,-2284.11,-1606.83,-26728.4
1.78613e+07,162.004,0,2.8101,16594.6,1451.94,986.642
1.79722e+07,174.335,2,3.00568,21580.3,-29466.4,-26934.7
1.7982e+07,47.0317,1,2.97448,-7807.71,-3995.54,-24345.6
1.79921e+07,11.0437,1,2.56693,-1199.76,2144.71,-29210.1
1.80661e+07,32.7681,0,2.47104,5623.86,-2146.69,-25233.7
1.8069e+07,64.0075,0,2.73838,-5506.3,-3582.5,-17108.6
1.80861e+07,63.9022,1,2.52724,-6735.36,5721.72,-18542.1
1.80912e+07,173.349,2,2.83563,29968.3,-678.717,-8162.02
1.8278e+07,22.7951,1,2.45538,-11.8772,4368.78,-26506.6
1.85094e+07,70.2244,0,2.77014,13103.3,-6365.36,-25732
1.85458e+07,139.285,1,2.62573,-14727.7,11470.2,-6106.87
1.85911e+07,141.671,0,2.83268,5219.48,-18740.6,-6388.21
1.85956e+07,97.7689,1,2.57036,10839.1,16809.9,-23498.3
1.87394e+07,16.9037,2,2.81434,-3188.83,1307.25,-28946.9
1.87646e+07,80.5802,1,2.8703,-5766.51,-5664.07,-13946
1.87811e+07,144.697,2,2.41821,-22717.9,-9261.02,-10470.6
1.88856e+07,57.4308,0,2.82869,-7239.41,-4991.14,-20696.5
1.90324e+07,156.63,0,2.37354,11912.7,-18344.5,-3883.73
1.91283e+07,53.2211,1,2.83697,-240.107,170.211,-28309.6
1.91678e+07,192.476,0,2.70289,14657,-22220.4,1790.24
1.91738e+07,151.214,2,3.05778,-6010.63,14272.6,-15336.9
1.92498e+07,35.1804,2,2.42587,-5880.53,-1598.01,-24472.8
1.93853e+07,94.8491,1,2.80295,-1187.34,-8206.61,-19162.9
1.95561e+07,8.02107,1,2.51195,-551.307,1721.96,-28697.8
1.96896e+07,24.0638,1,3.0209,185.914,3740.61,-25439.4
1.97292e+07,92.6489,1,2.91749,-13479.4,5791.35,-16009.1
1.9747e+07,86.3349,2,2.9739,8974.87,-3502.17,-13652.7
1.98072e+07,109.139,2,2.61468,-1009.06,-22913.8,-25775.1
1.98508e+07,10.593,2,2.39967,-1318.65,115.626,-26900.6
1.98583e+07,33.8093,2,2.78902,-3189.97,-6226.6,-27110.3
1.99314e+07,239.99,2,2.88476,-6655.72,7749.05,13872.8
1.99346e+07,27.8859,0,2.63482,2919.37,5002.08,-27184.1
2.00131e+07,5.28375,2,2.70184,-226.3,-350.677,-27715.2
0,5.27035,2,2.53855,0,0,0
0,5.29416,2,2.63969,0,0,0
0,5.30717,2,2.93035,0,0,0
2.00655e+07,2.72879,1,2.8747,-106.416,-253.451,-28677.6
2.01117e+07,7.31216,0,2.61344,-99.1666,611.684,-27604.8
2.03121e+07,48.7682,1,2.6637,-9206.93,4664.76,-27884.6
2.03167e+07,126.083,1,2.61555,6029.54,-16903.3,-9191.14
2.04866e+07,22.3617,2,2.66103,-1445.29,-4278.61,-27549.3
2.05773e+07,8.96009,0,2.82093,1859.03,91.0781,-28133.9
2.07366e+07,41.0972,2,2.71221,-7475.79,-3828.17,-26271.3
2.09217e+07,21.3462,1,2.59935,-4435.4,-1139.92,-28976.1
2.09671e+07,3.63614,0,2.39289,829.519,344.983,-28848.1
0,3.61785,0,2.47646,0,0,0
2.09877e+07,137.983,0,2.50786,12575.2,5061.89,-24256.5
2.1005e+07,108.866,1,2.80519,-22910.9,-941.132,-29625.8
2.1046e+07,117.092,1,3.04914,-24351.3,-1564.14,-26970.5
2.10644e+07,51.4986,1,2.54423,10288.1,-518.344,-25545.5
2.11199e+07,29.2764,0,2.6573,2226.29,-4967.78,-25783.5
2.11955e+07,43.7197,2,2.78138,2078.99,-5269.05,-21525.8
2.13122e+07,42.9208,2,2.6732,5465.51,-5659.06,-24364.2
2.13963e+07,63.1021,0,2.87687,3903.91,-6689.12,-18042.6
2.14447e+07,29.7235,2,2.79448,-3828.15,-3871.53,-25669.9
2.14686e+07,86.6167,2,2.70034,-16106.5,8103.66,-26149.2
2.15343e+07,86.2565,2,3.02322,-12722.7,-5200.61,-20470.8
2.15394e+07,169.045,0,2.84936,9916.21,-352.749,-3583.81
2.16618e+07,103.735,1,2.36324,-15858.9,-14978.8,-26069.7
2.16796e+07,41.5155,1,2.80315,-3773.93,7883.74,-28148.2
2.17407e+07,32.1931,2,2.5532,-3751.64,-1106.64,-23213.9
2.19968e+07,64.0929,1,2.56015,-1741.22,5370.16,-16409
2.21028e+07,133.277,0,2.53453,14074.7,-5753.88,-19516.2
2.22823e+07,122.283,0,2.60427,-21943.2,1853.86,-15464
2.23854e+07,60.0119,2,2.89188,-8708.07,-1638.52,-19814.4
2.26167e+07,97.794,2,2.54396,-6736.19,-19551.5,-27196.6
2.27265e+07,16.2556,2,2.61647,-621.794,-1894.2,-25988.7
2.27376e+07,45.7748,0,2.74742,7600.96,-5928.64,-27002.6
2.28025e+07,93.7054,1,3.03116,-7423.47,-3827.96,-26044.5
2.29271e+07,11.4066,0,3.02778,2218.17,932.818,-28206.7
2.29745e+07,39.2645,0,2.81006,544.262,-863.593,-27938.1
2.31565e+07,25.1149,1,2.72272,4913.66,1727.97,-29301.3
2.32062e+07,212.577,0,2.43528,11084.1,-21824.6,8906.38
2.32236e+07,97.3371,0,2.36529,15169.5,-10430.4,-19453
2.33537e+07,200.663,0,2.48604,-22424.8,6961.49,6525
2.34316e+07,27.3893,2,2.5089,-3527.62,-3389.4,-25555.7
2.34991e+07,115.532,2,2.69329,8620.27,-15113.3,-11974.3
2.35552e+07,92.8061,2,2.4765,13114.8,-4756.12,-15047.2
2.36097e+07,237.223,1,2.97805,22899.4,27872,5405.15
2.36879e+07,55.6048,0,2.7993,8611.96,-8027.74,-27950
2.37154e+07,49.2686,1,2.67174,-9454.57,4517.17,-28880
2.37843e+07,57.7698,0,2.55896,9531.64,1628.92,-21264.1
2.38413e+07,167.983,2,2.90196,9614.62,-29638.5,-12651
2.39848e+07,59.4566,2,2.52105,4108.67,-4425.62,-17761.5
2.41349e+07,13.1882,0,2.76289,-2399.77,682.271,-27715.1
2.41652e+07,5.48768,1,2.88469,-393.69,-611.008,-27879.6
2.43026e+07,33.2557,2,2.94791,6788.66,-730.023,-27111.8
2.43207e+07,7.44925,0,2.99983,477.251,1306.99,-27997.2
2.44643e+07,158.391,1,2.98846,-28199.2,-7418.13,-13085.4
2.48672e+07,44.0031,2,2.68708,-9132.4,1697.95,-29595.2
2.48742e+07,47.2514,2,2.94378,6666.18,-6264.1,-24830.8
2.49358e+07,42.0808,0,2.86445,5743.48,211.352,-22045
2.49618e+07,5.52651,2,2.5514,-1195.11,-266.24,-28580.1
2.49655e+07,19.6414,0,2.76543,-2906.35,789.103,-25920.9
2.49808e+07,76.9577,2,2.45055,-11420.7,11365.4,-29711.9
2.5297e+07,7.81737,2,2.62912,-101.772,-1017.1,-27504.7
2.53016e+07,191.854,1,2.84809,-22005.7,-26895.8,-8404.23
2.53611e+07,58.9972,1,2.71311,-10961,5845.83,-27285.7
2.55302e+07,89.3866,2,2.72176,-6763,-6602.38,-12508.2
2.58167e+07,50.2026,1,2.75045,-10099.6,-2732.54,-27428.6
2.58225e+07,27.7383,0,2.97497,3214.6,-4716.78,-27481.1
2.58509e+07,100.316,2,2.58401,11339.3,-3892.16,-11507.5
2.59131e+07,24.2941,2,2.7678,2505,-508.425,-24635
2.59299e+07,176.87,2,2.74383,7563.77,-18217.6,-1419.87
2.62305e+07,88.2576,0,2.69089,-10679.1,11195.5,-19204.1
2.62373e+07,54.6748,1,2.43364,4584.29,9119.19,-23306.9
2.63464e+07,51.0074,2,2.53877,-751.753,2994.81,-25683.7
2.6384e+07,47.159,1,3.05335,-3962.46,5028.32,-21241.3
2.65671e+07,7.29814,0,2.58611,-845.645,552.06,-27685.1
2.66345e+07,107.033,2,2.80185,-4153.25,-16255.6,-13437.7
2.66692e+07,161.908,2,2.78124,5512.32,-26165.9,-11486.1
2.68152e+07,66.7874,2,2.56632,-7052.22,-6910.34,-18730.6
2.6818e+07,17.997,2,2.37553,1688.47,2002.18,-26185.6
2.69517e+07,87.8016,1,2.61649,4235.14,7684.37,-12513.4
2.69997e+07,20.0137,0,2.92328,-37.0228,-4215.18,-29043.3
2.70641e+07,267.933,1,2.57363,-6173.8,29583.5,19042.3
2.70982e+07,25.8432,0,2.46911,3178.04,-4211.85,-27209.4
2.71551e+07,85.9705,1,2.84169,-1169.72,13063.2,-16306.9
2.73035e+07,56.7409,2,2.72261,9424.97,-7175.37,-27090.1
2.76068e+07,70.8017,2,3.00352,-14867.2,144.36,-29734
2.76149e+07,160.205,2,2.60663,-17222.3,-28821.8,-23876.9
2.76329e+07,17.2705,0,2.88678,3512.91,584.782,-29841.4
2.77105e+07,389.186,0,2.96773,11177.2,578.686,16514.7
2.77711e+07,42.9055,0,2.84379,3087.12,4445.44,-21645.8
2.77767e+07,14.1135,2,2.91336,205.475,-2539.83,-27309.4
2.78291e+07,31.7492,1,2.51938,3970.18,2279.88,-23775.3
2.79207e+07,170.5,0,2.99806,-4189.22,10263.2,-22323.9
2.81155e+07,53.261,2,2.86724,-510.509,4883.94,-18802.5
2.81334e+07,69.1027,1,2.88704,1620.39,8659.02,-17323.3
2.81454e+07,108.197,1,2.44492,19178.5,3023.23,-16412.2
2.81799e+07,201.888,0,3.02494,-5538.26,26868,3335.59
2.81847e+07,16.5272,0,2.796,2575.96,2422.19,-28905
2.82669e+07,69.9856,0,2.90354,3595.39,-11781.9,-20818.4
2.84398e+07,107.317,0,2.56504,10520.1,-8777.07,-10719.7
2.85409e+07,6.20039,1,2.79879,-466.918,1011.7,-28125.6
2.86358e+07,21.9516,1,3.03774,3957.11,-1861.51,-27647.7
2.89395e+07,11.5237,1,2.86047,-1700.51,1690.65,-29464.7
2.9105e+07,62.3814,1,2.75279,-12997,-1926.1,-28475.4
2.9173e+07,93.9533,1,2.52438,-4891.56,10819.1,-14767.9
2.9202e+07,25.4755,1,2.39539,-2895.08,-4312.76,-27341.2
2.92132e+07,97.0643,2,2.89424,11671.3,-15822.2,-23254.2
2.9408e+07,120.504,2,2.98574,-21543.2,4850.31,-20251.8
2.95507e+07,48.3361,1,2.69311,-5079.84,6193.42,-22456.4
2.97575e+07,26.0188,2,2.8574,237.644,-5064.95,-26592.2
2.97755e+07,5.4204,0,2.86553,433.698,-150.631,-29464.5
2.98716e+07,64.4045,2,2.7758,-7419.8,7264.75,-19912.9
2.98999e+07,36.1374,0,2.9304,2390.49,-3236.84,-22579.9
