#class tools::wcsv::ntuple
#title time
#separator 44
#vector_separator 59
#column double eventID
#column double t(ns)
#column double copynumber
#column double energy(eV)
#column double x(mm)
#column double y(mm)
#column double z(mm)
9962,9.76689,0,3.0491,967.648,1079.09,-27316.6
42305,5.05693,2,2.36922,-486.86,-856.146,-28194.5
119801,96.5052,1,2.44214,-17376.9,3999.56,-18746
203707,126.779,2,2.80969,-5920.12,14565.8,-7326.39
225974,82.3154,0,2.48984,967.906,7272.76,-13283.4
377496,60.9775,0,2.53709,12090.2,-4539.15,-27348.2
416884,38.1023,2,2.80677,-4533.26,5260.7,-24852.8
440984,38.5307,1,2.66539,5869.87,5692.44,-28370.9
550287,74.5031,0,2.92609,-174.842,-4075.23,-26493.5
604881,7.0846,1,2.43413,-189.124,1525.75,-29303.3
637532,131.55,1,2.9179,11262.9,-7549.35,-4862.35
655945,2.93439,0,2.57928,716.025,94.6271,-28656.1
831391,20.6391,2,2.41179,-3400.76,-529.285,-26050.9
956162,16.9063,1,2.96529,-3418.58,693.135,-29786.2
974707,34.5998,0,2.86627,2903.1,-1004,-22225.2
1.08493e+06,72.8539,0,2.72044,12442.1,-4697.31,-21122.2
1.19442e+06,69.78,0,2.37703,8514.07,-8221.55,-20000.5
1.39124e+06,78.1185,2,2.71528,-3359.66,-964.961,-20763.7
1.429e+06,90.2122,0,2.37181,-6573.55,-9378.25,-13594.4
1.44123e+06,17.1344,1,2.5498,-2777.32,-1553.19,-27045.5
1.45223e+06,57.9498,1,2.43312,-11582.5,1920.66,-24652.6
1.57284e+06,32.3103,2,2.87686,1894.06,4076.38,-23814.3
1.74238e+06,18.2802,0,2.97703,3066.75,-1067.9,-26527.1
1.77457e+06,29.2736,0,2.46884,-404.224,6151.17,-28578.5
1.88161e+06,1.00799,1,2.66501,133.011,303.978,-28875.8
1.89024e+06,132.37,1,2.40879,-8573.87,24291.2,-17624.3
1.96858e+06,3.74533,0,2.47972,420.038,436.628,-28332.3
2.03038e+06,119.479,2,2.61325,2416.44,-25185.2,-27720.4
2.06179e+06,101.857,1,2.38298,-16228.4,1846.9,-14820.7
2.2594e+06,114.729,1,2.96425,-9849.97,8710.15,-8705.46
2.27298e+06,46.8191,1,2.92102,-7225.04,5969.91,-25861.3
2.39429e+06,20.7721,2,2.64985,-744.537,1450.14,-24758.2
2.46398e+06,134.293,1,3.0218,-25741.8,-4719.75,-18362.5
2.60325e+06,159.014,0,2.7644,-4029.21,11740.3,2247.97
2.63297e+06,76.2476,0,2.6051,-7921.74,-3438.51,-15200.2
2.85413e+06,115.699,1,2.50677,1374.56,20455.9,-16476.9
2.86021e+06,78.7903,2,3.03705,-1453.02,-9683.69,-15453.3
2.88802e+06,26.7771,1,2.55891,-2142.59,-567.365,-23470.9
2.94362e+06,51.5686,2,2.79048,8878.35,3620.13,-23724.3
3.12948e+06,13.228,2,2.53293,-2305.33,-1462.35,-29565.1
3.13027e+06,24.535,2,2.65458,-1078.55,-2312.81,-28067
3.57279e+06,318.738,0,2.85285,25046.3,20756.5,29281.1
3.58355e+06,131.873,1,2.78035,2798.85,9771.51,-3023.74
3.75982e+06,83.4575,0,2.80281,-6808.31,-12467.1,-19035.1
3.78154e+06,71.3891,1,2.43809,2102.48,-8598.65,-19655.1
4.17502e+06,78.3775,2,2.47052,-12983.7,6685.02,-20992
4.34379e+06,20.6372,1,2.61162,1523.67,180.696,-26881
4.44818e+06,30.678,1,3.02674,-4879.83,3339.74,-27609.4
4.58247e+06,114.651,1,3.06022,9468.99,11745,-10523
4.60013e+06,5.85869,2,2.56559,-234.902,-1365.55,-29055.6
0,6.27344,0,2.86409,0,0,0
4.60489e+06,14.2474,0,2.5166,2379.31,-1730.97,-27969.9
4.78434e+06,124.626,2,2.45629,18049.1,18654.9,-24415.6
4.81874e+06,64.7448,0,2.57361,1478.84,12991.5,-24776.1
4.95283e+06,113.989,1,2.49328,-21080.6,5011.47,-18095.6
4.98191e+06,140.101,2,2.84193,-11237.4,-6969.39,-21205
5.16437e+06,5.47631,2,2.36621,652.299,627.548,-28186.5
5.17543e+06,75.2708,0,2.77252,9108.65,3599.37,-16331
5.43185e+06,70.9132,0,2.59459,11831.1,-8019.01,-24138.6
5.43399e+06,115.263,1,2.53111,13719.8,-1796.65,-8742.98
5.5658e+06,138.34,2,2.93215,3555.89,6866.45,-27555.2
5.65931e+06,44.6256,0,2.93151,6814.46,-767.992,-22489
5.66004e+06,109.572,0,2.86443,1128.54,14052.2,-10668.7
5.6991e+06,51.7695,2,2.84962,-7312.47,-8284.79,-28239.3
5.87153e+06,111.061,1,2.96371,-17005.4,9523.89,-15759.2
5.8856e+06,32.9446,2,2.74334,3574.26,-5198.06,-25867.7
5.93845e+06,31.789,0,2.73998,-518.76,2210.25,-22505.5
5.97123e+06,12.6292,0,2.69253,1327.66,-429.804,-26515.3
6.01027e+06,9.01116,1,2.62148,-1236.04,1330.59,-29738.2
6.051e+06,87.5708,0,3.04241,1134.98,13028.3,-15953.4
6.31563e+06,6.00983,2,2.88934,-319.845,-343.331,-27620.1
0,6.05604,2,2.82924,0,0,0
6.37611e+06,29.226,1,2.62088,2417.94,5773.73,-28801.8
6.51718e+06,21.6485,1,2.69277,-2545.6,1377.32,-25567.8
6.61346e+06,129.277,0,2.68972,-17486.8,14071.1,-13452.8
6.68746e+06,48.2325,0,2.38643,3417.83,-4240.28,-20320.4
6.72093e+06,151.465,0,2.94216,27764,11868.5,-18718.7
6.76246e+06,91.2217,1,2.63224,2699.34,4034.08,-10161.7
6.79944e+06,43.707,2,3.0485,-5652.78,-1472.77,-21702.7
6.94838e+06,180.287,0,2.83733,-28220.4,-21165.1,-15559.8
7.08749e+06,23.9627,2,3.04603,-4760.34,1620.34,-29381.2
7.15748e+06,24.491,1,2.87143,-4978.21,1361.33,-27977.4
7.17023e+06,30.547,1,3.0082,-2684.34,-3861.12,-24483.3
7.24239e+06,112.767,2,2.64615,14819.2,15251.4,-18519.2
7.2525e+06,11.5273,2,2.66946,-297.009,-2559.03,-28937.3
7.29358e+06,163.478,2,2.90408,-22481.8,15609.8,-8075.24
7.31904e+06,60.6365,0,2.82737,-2224.57,11221.5,-23261.1
7.34645e+06,171.434,0,2.73896,22737,28040.5,-27486.9
7.46895e+06,41.4232,1,2.85194,-5211.1,7151.92,-29008.5
7.63456e+06,70.6905,0,2.72377,-637.065,5384.4,-14942.4
7.65429e+06,153.857,0,3.04697,-9114.82,-29667.7,-20835.3
7.90406e+06,44.7624,1,2.8488,-4087.74,-4705.75,-22012.5
7.9085e+06,101.809,2,2.54933,20265.1,4893.21,-23742.3
7.94584e+06,130.343,2,2.55279,-3466.78,-9059.98,-3063.38
8.08048e+06,7.46865,2,2.84767,-600.154,-1718.8,-28952.5
8.19406e+06,2.85501,0,2.50588,256.245,-406.662,-28472.6
8.25847e+06,40.3634,2,2.80252,2651.38,-2097.9,-21153.7
8.36486e+06,91.6812,0,2.89044,8153.39,17135.3,-25320.3
8.3963e+06,71.4102,2,3.01783,-68.1922,-5339.95,-14830.2
8.5553e+06,54.2912,1,2.46194,3456.58,8738.12,-22148.5
8.66914e+06,46.3734,1,2.73686,-6682.37,-4997.98,-23708.7
8.71077e+06,9.59377,1,2.41068,-425.584,804.172,-26926.6
8.7659e+06,83.1229,0,2.85291,16185.7,-6693.62,-29152.7
8.78335e+06,77.7736,2,2.82508,-891.934,-6458.02,-13812
8.80715e+06,85.6373,0,2.7738,17811.9,-3483.41,-29689.5
8.81821e+06,209.625,1,2.94153,-27699.8,23829.6,-4213.83
8.82564e+06,169.628,2,2.60472,-7866.3,27873.2,-7788.9
8.84915e+06,89.2912,2,2.50964,15935.4,-9271.68,-24294.3
0,89.0799,0,2.45491,0,0,0
9.32056e+06,142.417,1,2.47822,5153.5,6137.7,-9145.84
9.49973e+06,54.0904,0,2.5422,-58.9602,-7092.78,-19821.8
9.52738e+06,95.5955,1,2.89516,-8123.07,13054.4,-15860.3
9.54295e+06,13.8674,0,2.57573,-122.527,2814.59,-29725.7
9.56414e+06,97.3236,2,2.96764,4125.39,-12468.8,-13177.1
9.59923e+06,62.2806,1,2.53711,-7648.19,-6491.42,-20423.4
9.88164e+06,215.34,2,3.06171,-27243.3,-15553.7,3526.25
9.95449e+06,83.1542,0,2.99838,5938.99,16198.6,-27182.7
1.012e+07,47.1167,0,2.74037,929.667,1583.23,-27114.9
1.01617e+07,1.99632,0,3.04393,-142.838,-69.1103,-28463.6
1.01751e+07,106.24,0,2.70965,11213.8,19137.5,-25290.3
1.02585e+07,58.2668,0,2.60689,6190.27,-1027.21,-18209
1.03519e+07,233.207,2,2.62757,15335.3,-11435.2,16568.5
1.04021e+07,23.2677,1,2.37799,194.527,-3155.89,-25108.7
1.04092e+07,49.8019,0,2.81405,1954.84,-2362.2,-18830
1.0546e+07,138.277,0,2.78295,22652.4,6345.68,-11518.7
1.06869e+07,21.2539,2,2.95609,-2270.41,-3528.36,-26972.9
1.07228e+07,98.386,2,2.46413,7755.83,11794.2,-13815.7
1.08318e+07,4.23042,0,2.51606,1061.01,-226.473,-28526.1
1.09811e+07,100.623,1,2.97393,-13600,13066.1,-18560.1
1.10398e+07,33.0319,0,2.5678,3188.62,-6255,-28655.1
1.11022e+07,77.1491,0,2.99025,-15615.1,-573.583,-24876.6
1.12117e+07,52.5884,0,3.00836,-8216.65,-5828.84,-24371.1
1.12782e+07,76.7001,0,2.45187,-15669.6,649.469,-27940.3
1.13397e+07,51.4481,1,2.93316,-9005.06,4432.68,-24687.7
1.14972e+07,75.127,2,2.49303,-13325.8,-8496.87,-27130.8
1.16649e+07,190.937,1,2.71552,22124.2,24829.4,-20275.5
1.17202e+07,55.3812,1,2.44249,4864,10436.7,-27044.8
1.178e+07,30.9306,2,2.73199,-3511.03,5116.35,-26986.6
1.18768e+07,17.0457,1,2.87824,-3203.06,449.951,-27081.8
1.19209e+07,92.5664,0,2.51755,12740.2,10381.6,-18086
1.20337e+07,9.58204,1,2.70736,485.207,1658,-27444.2
1.20412e+07,30.8615,1,2.55459,2762.75,5736.19,-27008.6
1.20998e+07,20.2716,0,2.4137,-2320.92,978.447,-25342.5
1.22548e+07,18.6351,2,2.96275,-3241.29,-1428.24,-27086.7
1.22597e+07,11.0192,1,2.8547,-475.174,206.023,-26559.1
1.23264e+07,50.2199,1,2.8253,-2370.77,-2695.6,-18862.7
1.23998e+07,122.468,0,2.66285,-12318.1,-7658.7,-7502.38
1.24032e+07,132.712,2,2.94548,-1997,-7229.36,-5801.33
1.25102e+07,113.118,1,2.92902,-17179,-963.831,-12384.5
1.25295e+07,48.307,0,2.50402,-7088.66,-5912.31,-24288.6
1.26192e+07,116.15,1,2.36885,-20088.5,13619.2,-24448.1
1.27365e+07,62.1071,2,2.76606,3627.46,-11772,-24268
1.27464e+07,37.7248,0,3.02246,3889.91,4845.21,-23915.8
1.28968e+07,91.0985,0,3.05817,-18089.6,4412.96,-25900.6
1.29303e+07,114.591,2,2.62058,136.486,-11364.4,-7413.61
1.29313e+07,111.036,0,2.52798,16874.6,-1410.17,-12493.7
1.34507e+07,49.5582,1,2.67053,-10396.4,793.446,-26633.5
1.36231e+07,36.2585,2,3.0032,-3250.55,2701.19,-22466.1
1.36323e+07,76.5894,2,2.69261,-1261.98,-6394.5,-14054.8
1.36343e+07,34.9473,0,2.88766,2366.86,7009.67,-28226.5
1.37289e+07,154.514,0,3.03569,10454.6,13710.2,-1399.99
1.38082e+07,69.1821,0,2.50022,8651.75,-5009.88,-18102.1
1.39144e+07,9.42824,2,2.65459,1596.48,-250.35,-27662.8
1.39999e+07,27.5475,0,2.59789,3442.55,-2890.3,-25046.2
1.40776e+07,89.5422,2,2.61575,14903.7,6155.2,-19221.8
1.4148e+07,107.187,0,2.62879,-15519,15506.6,-23317.2
1.41709e+07,151.356,2,2.53513,24706.6,1406.15,-8652.61
1.42135e+07,25.8573,0,2.88187,1774.11,2180.8,-24437.4
1.42758e+07,99.1867,2,2.41855,-16362.8,4140.66,-16431.1
1.44107e+07,39.6566,2,2.58915,6199.02,-1054.3,-23257.9
1.45445e+07,31.1573,1,2.69565,-4113.24,2234.07,-24936
1.48503e+07,133.873,1,2.50962,-23160.9,12089,-17741.3
1.48886e+07,58.6668,0,3.00283,3849.45,-9647.21,-22101.1
1.49171e+07,111.692,1,2.36687,-10114.3,11475,-13215
1.49223e+07,257.108,1,2.89469,-14420.7,-16642.5,20252.9
1.5164e+07,25.7825,1,2.49878,3647.48,-2804.36,-26167.1
1.52508e+07,80.5516,1,2.61292,-9368.37,13896.9,-25655.8
1.53655e+07,63.818,0,2.70818,-4845.14,6672.04,-18216.5
1.5422e+07,71.9545,2,3.03928,-10249.5,-3182.6,-18178.4
1.54245e+07,117.075,2,2.78016,-6510.17,2077.97,-18200.4
1.55366e+07,4.64238,2,2.72548,-184.434,-962.283,-28387.9
0,4.66158,2,3.04194,0,0,0
1.5557e+07,151.15,2,2.67565,-14113.5,-27304.4,-19564.8
1.55898e+07,54.8342,0,2.71903,11638.5,-575.958,-29507.2
1.56959e+07,257.53,2,2.97404,-2206.52,-15614.9,9971.49
1.57296e+07,7.21675,1,2.41396,-1581.98,733.706,-28535.8
1.59028e+07,127.885,0,2.74373,20559.2,14452.1,-18977.9
1.59102e+07,98.9212,0,2.47224,-8118.51,9076.72,-11866
1.60439e+07,63.755,1,2.46178,-6767.64,11674.5,-29378.7
1.63961e+07,17.8389,0,2.66095,2036,1003.86,-25817.9
1.6532e+07,32.586,1,2.53586,-6200.54,2802.51,-27266.5
1.66479e+07,51.687,1,2.56475,-3717.44,-3018.99,-19167.9
1.68503e+07,69.7098,0,2.72172,3066.2,8727.63,-19793.2
1.7063e+07,181.982,2,2.59594,-8340.3,13154.1,6274.74
1.71451e+07,101.917,2,2.81104,-11055.3,-9420.86,-13022.2
1.74077e+07,73.7395,1,2.45847,-12653,-5734.17,-22952
1.74803e+07,107.103,1,2.60135,21146.4,7499.62,-25169.3
1.75373e+07,56.8577,1,2.52521,-8498.81,-953.527,-20330
1.75437e+07,148.79,0,3.05952,1931.92,29371.5,-18637.6
1.76134e+07,54.159,0,2.51571,9009.61,-5804.56,-24821.3
1.78187e+07,193.122,2,2.83236,15384.4,6123.13,8263.4
1.78211e+07,10.106,2,2.6025,962.902,-1057.35,-27259.5
1.78335e+07,94.738,0,2.96393,-3847.77,18628.2,-23368.6
1.78834e+07,21.1975,1,2.70613,1211.19,4235.55,-27576.2
1.80333e+07,25.9284,1,2.99523,-1572.76,5275.07,-28507.6
1.80583e+07,77.8997,2,2.92247,-7047.94,-13937.6,-23677.6
1.80845e+07,29.2223,1,2.46729,-1536.95,2772.68,-23389.8
1.81035e+07,43.3339,0,3.02271,45.0313,3854.77,-20591.1
1.81626e+07,8.03146,1,2.45647,238.756,1684.05,-28424.5
1.81828e+07,37.3371,2,2.8567,-6664,-2499.2,-25390.9
1.82333e+07,56.9852,2,2.86994,-5357.91,-3037.43,-18794.6
1.82674e+07,8.0265,2,2.40452,-1182.7,925.891,-29532.3
1.84173e+07,20.4011,1,2.84055,-2082.1,-2853.71,-26513.4
1.84265e+07,21.8288,2,2.66802,-3699.06,2178.63,-27005.4
1.87368e+07,41.1244,1,2.67002,7573.55,1097.71,-24855.6
1.87573e+07,26.1293,2,2.90061,-5421.34,-333.861,-29665.9
1.87664e+07,25.3465,0,2.81024,507.28,-3190.68,-24574.9
1.87867e+07,118.788,2,2.49316,-12088,-11836.1,-29299.1
1.89159e+07,92.3971,1,3.00063,9989.14,16207.9,-26828.2
1.91429e+07,30.6628,0,2.71654,4255.57,-3561.78,-25595.6
1.928e+07,82.6116,2,2.96622,5231.8,-16102.2,-24774.1
1.9287e+07,37.804,0,2.93429,5914.92,-518.015,-25184.9
1.93134e+07,3.72352,2,2.48441,-689.757,-501.19,-28707
0,3.78064,2,2.71902,0,0,0
1.9405e+07,118.777,1,2.80769,16250,6850.43,-11380.6
1.94144e+07,27.645,0,2.48068,3716.17,-960.463,-24784.7
1.94928e+07,48.5028,0,2.91271,4543.7,9116.64,-27998.6
1.95877e+07,44.7805,2,2.74782,-3429.63,-688.339,-20106.3
1.96553e+07,54.9248,2,2.43773,-8729.65,6879.55,-26383.5
1.98066e+07,64.2457,2,2.9825,8332.7,-1833.34,-18489.6
1.98261e+07,66.5787,2,2.46607,-13470.3,4077.03,-27119.8
2.00179e+07,61.8408,2,2.98375,10958.6,897.773,-22177.3
2.0128e+07,113.758,0,2.96923,22620.5,-2272.8,-21866.3
2.03145e+07,14.2277,2,2.824,-1847.46,1839.77,-27220.4
2.04492e+07,13.1064,1,2.9445,2271.87,-223.668,-27086.6
2.06195e+07,6.23236,2,2.72034,-620.762,888.972,-28308
2.06711e+07,9.12876,1,2.60796,-376.684,1769.15,-27962
2.07492e+07,28.4577,0,2.99221,-2234.32,-5521.85,-29263.5
2.08946e+07,92.4868,2,2.42762,4138.23,-6463.48,-10730.7
2.08946e+07,64.1433,0,2.88174,6725.53,-5629.82,-18511.8
2.0898e+07,170.558,1,3.06157,-24198.8,9113.95,-4169.3
2.116e+07,44.9327,1,2.70916,-1015.12,-8266.63,-24221.7
2.12071e+07,29.1358,0,2.72012,2592.55,-620.127,-23250.8
2.12615e+07,32.9435,0,2.50301,3255.85,-1213.52,-22619.9
0,33.1205,0,2.77403,0,0,0
2.12812e+07,9.8672,1,3.028,-276.685,-981.688,-27032.1
0,9.89675,1,2.39971,0,0,0
2.13098e+07,113.746,2,2.74941,-15637.4,-2640.11,-10744.6
2.13317e+07,35.7505,1,2.56425,-3248.57,3937.45,-23175.4
2.13469e+07,212.749,0,2.59405,26779.4,10344.7,5645.33
2.14192e+07,27.1608,0,2.9318,2027.03,4705.27,-26327.7
0,27.5963,2,2.90852,0,0,0
2.15322e+07,52.9125,1,2.70423,-8073.47,7734.27,-27426.6
2.16571e+07,69.333,0,2.49877,-10492,8451.58,-23599.4
2.18388e+07,116.713,1,2.84871,5779.86,-13433.8,-10588.5
2.19087e+07,44.9589,0,2.48122,1969.63,-5435.48,-21242.6
2.203e+07,14.9327,1,2.76049,-1199.34,1403.18,-26207.6
2.2158e+07,10.5282,0,2.47045,-1177.92,1702.27,-28038.4
2.23359e+07,48.201,0,2.6308,618.716,7188.03,-21704.4
2.2339e+07,18.8343,1,2.44175,-79.7396,-2738.04,-27465.4
2.24505e+07,58.5789,2,3.02682,-8560.07,8042.91,-25671.3
2.25629e+07,26.1288,1,2.98785,-2012.69,3260.25,-24814.1
2.25896e+07,144.221,0,2.41968,20932,20061.8,-19158.9
2.25941e+07,88.7781,2,2.37186,-16221.8,9387.45,-27291.4
2.26701e+07,2.12244,2,2.97007,-433.183,-75.356,-28511.1
2.27236e+07,54.286,2,2.5451,-9667.84,4719.33,-24830.6
2.27317e+07,84.7012,1,2.77232,13228.2,-1409.65,-17023.6
2.28295e+07,28.2603,0,2.46567,6115.65,169.576,-28921.4
2.29182e+07,144.708,2,3.00669,16949.4,-18890.9,-12968.2
2.30658e+07,227.279,0,3.00808,10048.7,12915.4,15927
2.30663e+07,25.4642,0,2.804,-3967.36,-1693.58,-25715
2.3073e+07,13.2168,1,2.57256,-2498.56,1187.13,-27898.4
0,13.312,1,2.55258,0,0,0
2.30774e+07,91.6335,0,2.89033,9691.78,-15725.2,-23154.3
2.32338e+07,107.559,0,2.44275,6004.88,-14383.5,-12949
2.32924e+07,21.1634,1,2.87669,-3026.07,3217.44,-29924.9
2.33122e+07,129.142,2,2.97117,-10370.2,-24269.5,-22883.4
2.33492e+07,41.3211,2,2.69773,1567.21,7153.16,-23994.5
0,41.3467,2,2.70075,0,0,0
2.35288e+07,99.2477,2,2.96499,-12292.7,-4895.63,-12717.2
2.35398e+07,46.3834,0,2.44456,8624.9,1816.54,-24538.9
2.35558e+07,54.9892,2,2.40838,6798.19,-2696.83,-19741
2.36074e+07,42.2305,0,2.45983,4399.48,-3817,-21967.6
2.36276e+07,51.2202,2,2.57246,-10271.6,3481.25,-28964.3
2.36354e+07,18.3962,0,2.47065,-1829.71,-3353.87,-28408.6
2.37531e+07,110.3,0,2.47583,-15232.1,-8948.65,-13754.1
2.41091e+07,28.8587,2,2.86559,-2169.55,-2112.22,-23496.9
2.44166e+07,156.052,1,2.60445,566.932,18544,-1591.46
2.44219e+07,29.5315,0,2.5633,3855.65,637.875,-23865.1
2.45489e+07,61.8076,0,2.67639,3431.13,12537.3,-28345
2.46225e+07,166.34,1,2.87267,-16434.3,-18272.8,-24001.6
2.48552e+07,104.772,1,2.79823,-8508.59,16039.5,-16180.4
2.49655e+07,56.0088,2,2.64013,8238.79,6556.64,-23597.8
2.49915e+07,92.3349,1,2.78678,16096.9,10732.7,-27438.3
2.51147e+07,3.40664,1,2.85296,-300.679,779.521,-29023.7
2.53396e+07,109.589,0,2.7298,22160.8,-6707.39,-26712.9
2.54061e+07,53.9172,2,2.89873,-8175.44,-7941.52,-28480.2
2.54292e+07,14.399,2,2.76325,-2018.19,150.586,-26562.5
2.55413e+07,58.6697,2,2.76692,-7720.51,2830.37,-19614.9
2.56677e+07,231.11,1,2.88916,-8624.92,4293.15,18792.2
2.56712e+07,91.0461,1,3.03208,3157,18608.9,-26087.7
2.58852e+07,257.196,1,2.71681,-22961,-2724.56,20145.7
2.61451e+07,97.4803,1,3.05091,17314.7,-3314.71,-18545.1
2.61464e+07,116.315,2,2.84891,7492.62,8983.51,-7307.37
2.64217e+07,118.749,0,3.06157,19866.3,13602.6,-23396.4
2.64595e+07,62.6102,2,2.93118,9983.44,-7888.02,-25324.1
2.65008e+07,47.216,2,2.83872,-2256.84,6878.92,-22084.6
2.65732e+07,96.7051,2,2.39854,5726.1,-5513.34,-9922.93
2.68931e+07,291.133,2,2.67515,-2232.03,-20741.1,11823.8
2.68988e+07,70.0577,0,2.52367,12578.6,4331.79,-21929.3
2.6937e+07,14.3061,2,2.92599,1040.63,1264.77,-26390.9
2.71408e+07,92.7354,2,2.44112,-11370.1,13180.5,-19921.9
2.72537e+07,76.4383,0,2.85353,-575.938,-13736.5,-20534.9
2.72882e+07,159.707,2,2.82616,-11236.4,-28618.5,-15109.8
2.72961e+07,66.6869,0,2.47788,1811.91,12565,-22831
2.73309e+07,146.701,2,2.89199,-20884.6,-22789.1,-29342.1
2.7384e+07,54.7342,0,2.38609,-11024.3,947.328,-25785.3
2.74871e+07,26.5413,1,2.58775,-5241.79,2199.15,-28846.1
2.75906e+07,158.427,2,2.72157,28109.8,-17602.6,-26790.1
2.7721e+07,161.702,2,2.50523,24741,-19517.8,-15931.8
2.77542e+07,102.668,1,2.44725,-84.2989,12894,-11413.9
2.78334e+07,47.5268,1,2.7803,-3012.55,-4160.45,-20647.2
2.7835e+07,48.2082,1,2.68043,278.18,2247.7,-18885
2.79688e+07,7.04113,1,3.06024,698.245,-1.14943,-27559.6
2.80173e+07,16.9766,1,2.95894,-1921.97,2486.96,-26947.1
2.80698e+07,6.884,0,2.65448,8.3165,-458.164,-27519.2
2.84399e+07,236.279,0,2.65451,21665.1,-24812.3,8569.23
2.85156e+07,100.448,1,3.01053,-9525.77,17766.7,-22341.9
2.86948e+07,14.37,2,2.65532,206.524,-2306.89,-26764.2
2.89962e+07,82.3612,2,2.8421,-11524.2,3409.14,-16398.1
2.90921e+07,100.279,1,2.88071,-14796.7,7590.65,-15782.9
2.92828e+07,11.6976,1,2.97585,-864.914,-325.503,-26835.5
2.93174e+07,47.8147,0,2.56299,2978.19,9297.19,-29314.4
2.93529e+07,33.3095,0,3.02775,552.9,6547.59,-26511.8
2.93993e+07,66.5001,2,2.66023,-3494.96,-2285.31,-15390.6
2.94262e+07,111.448,0,2.48643,-5642.2,22388.5,-23938.7
2.94292e+07,2.79572,0,2.86662,631.478,81.8543,-28585.5
0,2.77154,0,2.58838,0,0,0
2.94494e+07,41.397,2,2.81886,1079.34,-2621.02,-20535.5
2.95324e+07,113.131,0,2.97348,-10311.2,20241.9,-21755.6
2.95472e+07,135.8,2,2.75583,-19749.8,-14649.4,-14095.6
2.97541e+07,153.561,2,2.49532,11625.2,-29683,-22402.7
2.97637e+07,15.9485,0,2.63462,-1116.97,-3142.38,-28598.4
2.97799e+07,201.953,1,2.55101,-17292.5,496.782,10311.9
