#class tools::wcsv::ntuple
#title time
#separator 44
#vector_separator 59
#column double eventID
#column double t(ns)
#column double copynumber
#column double energy(eV)
#column double x(mm)
#column double y(mm)
#column double z(mm)
205815,24.0519,2,2.52057,527.625,-5115.22,-28122.9
232483,15.3565,0,2.97525,594.328,-1431.17,-25965.1
560958,139.09,0,2.78374,18325.5,-6525.4,-6891.93
1.028e+06,247.651,1,2.58798,3385,20206.1,19324.5
1.14045e+06,78.6263,2,2.61844,-7629.04,-8585.13,-16745.7
1.33567e+06,32.4407,1,2.99715,-4598.73,-4805.65,-27444.8
1.51528e+06,19.1837,0,2.70091,404.959,1752.51,-25212.4
1.73054e+06,238.333,2,2.92326,-22414.9,18953.3,11668
1.94986e+06,20.2151,2,2.75215,2268.86,-3687.23,-28615.7
2.04872e+06,198.778,1,2.94315,-10975.5,4043.51,-3604.95
2.22902e+06,160.052,1,2.68703,-17989.4,11765.2,-2754.04
2.25702e+06,170.467,0,2.89125,-24511.1,24125.3,-19097.4
2.7102e+06,112.208,0,2.98271,-3058.35,21857.7,-20653.4
2.94659e+06,106.834,1,2.9266,7373.93,10624.5,-10477.8
3.19384e+06,43.0928,0,2.44183,4934.89,-1628.48,-21266
3.20725e+06,30.7287,0,2.48342,1883.12,-5163.76,-25354.3
3.36457e+06,32.5431,0,2.59068,-3387.25,-1906.69,-23207.2
3.45245e+06,172.562,1,2.42807,-25624.3,11341.5,-5343.1
3.98302e+06,8.0838,0,2.60642,1394.45,556.093,-27844.2
0,8.17712,0,2.96829,0,0,0
4.08716e+06,126.642,0,2.71216,-6672.94,12902.9,-6444.89
4.19766e+06,1.41774,1,2.44616,-15.2152,264.419,-28583.2
4.41626e+06,3.77811,0,2.59272,565.256,-404.008,-28330.6
4.60634e+06,70.0566,1,2.37465,-4150.87,14341.2,-28273
5.49794e+06,47.902,2,2.46922,4353.48,6619.48,-22581.4
5.57173e+06,1.55775,2,2.77754,-235.292,-117.248,-28552.3
6.30488e+06,12.2959,1,2.49019,1259.42,1194.57,-26845.4
6.5785e+06,132.148,1,2.78219,-21233.9,-14199.7,-17854.4
7.2069e+06,54.2358,0,2.8774,11196.8,-2599.64,-29436.3
7.47277e+06,41.1844,1,2.8833,-5413.79,6776.93,-27573.8
7.54134e+06,4.58773,0,2.97242,122.275,-944.974,-29168.8
0,4.58679,0,2.74059,0,0,0
8.10796e+06,138.948,2,2.66097,-28802.1,-1676.14,-23367.2
8.13844e+06,101.843,2,2.8917,30.2366,-16352.8,-14941.3
8.5016e+06,15.416,1,2.81408,-1592.62,1219.21,-26222.9
8.95849e+06,40.2035,1,2.76697,6792.19,4615.98,-26694.3
9.39401e+06,15.3075,2,2.91456,1987.18,-498.765,-26347.8
9.42919e+06,40.5686,2,2.91982,-8303.03,1182.88,-27085
9.43607e+06,3.40477,1,2.68383,-578.718,46.0522,-28377.7
9.72206e+06,102.595,1,2.65461,-1396.68,-13700.2,-14851.6
1.01175e+07,34.7579,2,2.60764,-4206.28,1957.13,-23140.6
1.03687e+07,1.26678,2,2.90825,-260.24,-261.44,-28905.7
0,1.26582,2,2.89744,0,0,0
1.06061e+07,42.2575,1,3.04419,1537.91,5659.14,-22122.8
1.06781e+07,16.2171,0,3.04577,1243.21,3135.23,-28163.1
1.0724e+07,79.6627,0,2.64208,-3167.19,-14626.8,-21173.8
1.07546e+07,177.595,1,2.55575,23987.5,-13335.3,-3294.76
1.08291e+07,161.608,1,2.82449,25374.2,-4029.5,-6659.59
1.1335e+07,81.4789,0,2.78405,13594.3,-5267.96,-28492.6
1.14271e+07,40.7162,0,2.88539,-5779.67,2238.65,-22974.2
1.14475e+07,81.0924,2,2.90863,-11095.1,-13052.9,-29302.4
1.14634e+07,9.63285,2,2.36361,574.664,-1863.3,-28044.4
1.1544e+07,101.845,0,2.56104,3254.48,-12039.1,-11255.5
1.24854e+07,40.0572,2,2.94901,-1168.61,-3359.73,-21165.9
1.25679e+07,8.50387,2,3.00491,751.662,-1595.68,-28365.7
1.27393e+07,68.8167,1,3.05133,-7997.09,1046.53,-16838
1.33854e+07,136.892,1,2.97344,-23182,11185.4,-16026.1
1.35621e+07,100.578,0,2.45349,1366.27,11453.6,-10942.8
1.37156e+07,70.7874,2,2.62604,-8966.6,-11013.1,-23930.3
1.37367e+07,158.533,0,2.84107,675.881,15800.8,505.811
1.37888e+07,173.02,0,2.9772,-21254.8,29272.9,-26833.9
1.38517e+07,8.12075,0,2.56513,187.772,1735.37,-29100.7
1.38804e+07,108.459,0,2.66591,2770.74,22017.9,-23128.7
1.40498e+07,72.2522,1,2.94563,-8281.16,3.82475,-16086.2
1.46232e+07,18.293,1,2.76564,2308.12,3063.12,-28098.6
1.48703e+07,13.8092,0,2.77305,2212.66,-1044.03,-27114.1
1.50762e+07,30.1552,0,2.5053,-1933.48,-5223.09,-25779.2
1.52343e+07,37.4275,2,2.48144,-6626.77,-4220.7,-27278.6
1.54215e+07,27.0174,1,2.76015,1062.38,2225.78,-23660.6
1.61953e+07,17.7238,2,2.37781,-3268.77,-1385.57,-27383.7
1.62054e+07,50.5564,2,2.5816,6570.55,-5070.11,-22068.3
1.65289e+07,48.7757,2,2.72614,5868.52,-6712.22,-23625.9
1.67774e+07,0.360452,0,3.24349,166.124,28.6912,-28913.4
0,0.341391,0,2.95205,0,0,0
1.68137e+07,209.141,1,2.54864,17856.4,-29681,-1486.57
1.70182e+07,58.0804,0,2.40103,7316.36,2231.71,-19195.2
1.73489e+07,50.4366,2,2.52191,5258.07,-885.768,-19836.7
1.73689e+07,50.7677,2,2.93283,5192.16,-3637.65,-20231.7
1.74266e+07,133.516,1,3.04917,-658.865,22719.5,-12448.4
1.7908e+07,368.945,0,2.70023,1104.5,2535.95,-28357.1
1.80664e+07,3.26682,0,2.98409,-383.809,-237.128,-28357.1
1.80819e+07,166.048,2,2.51971,6103.6,-18302.5,539.411
1.82357e+07,7.05381,1,2.89718,637.174,-1140.06,-28230.6
1.85311e+07,30.5233,0,2.60135,6316.96,-1653.09,-29499.7
1.85767e+07,63.5856,0,2.96796,7990.6,-10188.3,-25372.4
1.85836e+07,52.4554,0,2.91915,-5030.56,-7122.26,-22149.2
1.87858e+07,167.084,0,2.95476,28958.6,4297.9,-9467.4
1.91282e+07,8.64002,1,2.53548,617.246,-915.651,-27426.6
1.97195e+07,63.797,1,2.87936,150.367,13043.5,-25376.4
1.98698e+07,9.07871,2,2.58974,1563.54,616.303,-28025.6
1.99845e+07,30.5827,0,2.74656,6477.94,-937.221,-28882.1
1.9997e+07,141.03,1,2.81399,9741.94,6686.33,-1605.5
2.01325e+07,23.5535,1,3.01789,-1784.43,-1024.6,-24320.7
2.0184e+07,9.15767,1,2.41613,-1483.02,1274.15,-28292.5
2.02692e+07,1.99323,0,2.76606,310.272,-272.66,-28556.6
2.03796e+07,39.8293,0,2.40449,-2885.67,4639.61,-22421.6
2.09927e+07,172.948,2,2.84425,-21065.6,25816.2,-14347.5
2.11336e+07,3.70957,1,2.42742,-479.642,589.784,-29318.8
2.11768e+07,102.657,2,2.44581,-17791.4,-12544.4,-28282.9
2.12966e+07,149.069,1,2.75857,5190.83,4962.21,-21127.8
2.16552e+07,149.641,1,2.96868,-8787.43,-9712.1,-343.683
2.18156e+07,31.6218,1,2.5152,-4287.17,2328.89,-24153.7
2.25613e+07,60.4402,2,2.37905,7817.69,-7808.99,-22295.3
2.29345e+07,78.8231,2,2.68116,6262.92,13340,-21276.5
2.3029e+07,62.6619,1,2.66527,6139.63,-3111.33,-17582.4
2.30743e+07,19.9673,1,2.53757,-4006.16,1386.66,-29568.6
2.36526e+07,63.5604,0,2.90544,-8621.58,-9599.56,-25536.4
2.41165e+07,104.979,1,2.61109,-10572.5,-4328.34,-9815.2
2.4154e+07,16.6887,2,2.45627,1107.64,1579.85,-25914.1
2.42926e+07,221.342,1,2.61521,6145.68,27659.8,8367.3
2.43757e+07,79.8688,1,3.03411,-7542.24,14255.8,-24006.8
2.45933e+07,34.2864,1,2.59613,-1901.94,5717.49,-24686.9
2.50082e+07,83.2449,1,2.5633,1095.41,16934,-23861.3
2.50842e+07,19.9843,2,2.58897,-329.516,2265.15,-25300
2.55911e+07,44.6354,1,2.72546,-429.176,8186.74,-24059
2.56891e+07,96.8399,1,2.74289,-8523.85,10318.7,-13375.9
2.57257e+07,13.8796,1,2.493,1099.33,-1091.3,-26378.3
0,13.6072,0,2.53002,0,0,0
2.61055e+07,103.514,1,3.01878,-6054.47,17882.2,-17982
2.61505e+07,5.79713,0,2.91641,1258.78,281.114,-28500.4
2.62019e+07,21.0143,2,2.50337,-2759.67,1269.67,-25545.2
2.62532e+07,189.402,0,2.63456,2365.99,15706.9,7834.12
2.62853e+07,75.3093,2,2.79891,-13286.8,5778.52,-22342.6
2.76655e+07,33.0306,1,2.78522,25.0883,6481.38,-26124.9
2.78062e+07,7.1975,1,2.62171,437.014,437.299,-27424.8
2.79891e+07,43.0915,2,2.49682,538.258,3798.63,-20578.2
2.79909e+07,111.789,1,2.67126,-22380.7,-3619.53,-22284.3
2.81776e+07,7.71766,1,3.05046,198.067,1023.62,-27533.4
2.84533e+07,48.3319,2,2.71022,6601.2,-7838.03,-29152.1
2.85924e+07,46.4328,2,3.01095,9278.36,1348.16,-26373.8
2.87769e+07,30.4121,1,2.77479,5964.13,1249.82,-26848.2
2.92707e+07,29.8295,0,2.68639,-1366.96,5350.74,-25865.5
2.9342e+07,123.966,2,2.85021,-4582.69,-20270.5,-13056.5
2.94953e+07,27.4819,2,2.86285,1132.77,-5140.28,-26258.4
2.94971e+07,21.0813,1,2.57814,1351.04,1829.75,-24994.7
2.95654e+07,99.4025,0,2.59352,-1805.94,-19713.6,-21894.6
2.97376e+07,146.671,2,2.94646,17958.6,13458.3,-20514.1
2.97822e+07,3.26006,2,2.76243,-380.726,-711.262,-28850
0,3.26029,2,2.90875,0,0,0
2.98915e+07,119.83,0,2.37952,3126.38,-24980.2,-25504.5
3.00482e+07,8.93929,1,2.77367,-449.204,1326.09,-27476.9
3.02518e+07,70.0072,1,2.54809,-13637.2,5993.91,-28614.6
3.02618e+07,290.331,1,2.4589,-19255.8,-17302.9,26803.4
3.03017e+07,7.00327,2,2.45606,-339.048,816.649,-27652.3
3.04563e+07,17.5261,1,2.64949,1969.49,3127.64,-29572.1
3.05691e+07,35.9314,0,2.99369,4997.68,-2435.55,-23646.3
3.06345e+07,41.3884,1,2.66792,-7157.12,-4679.57,-26927.7
3.08278e+07,23.9428,1,2.90907,-3643.32,554.467,-25359
3.09099e+07,160.886,1,2.75152,-28613.7,3114.43,-10850.9
3.14935e+07,114.139,2,2.5979,17878.5,-7276.42,-14394.2
3.15849e+07,4.57752,1,2.59822,-930.065,30.3755,-29302.6
0,4.79944,1,2.59822,0,0,0
3.17666e+07,4.70036,1,2.72027,24.8418,811.337,-28678.1
3.20685e+07,73.5426,0,2.58611,1103.73,-13808.7,-21734
3.21728e+07,135.102,0,2.46262,28010.3,5848.11,-28525.4
3.21975e+07,60.6683,2,2.75158,-2918.66,-4557.24,-17417.3
3.25082e+07,24.8958,2,2.78289,-3661.3,2006.69,-25663.4
3.26634e+07,185.789,1,2.64458,21784.6,7201.9,2960.43
3.29575e+07,102.851,0,2.82037,1509.32,-19162.3,-18885.3
3.30351e+07,169.295,0,2.68713,-14022.1,29743.5,-14984.8
3.40574e+07,29.7529,1,2.56341,2555.31,2961.63,-23861.3
3.41215e+07,48.652,0,3.00193,-422.055,6811.75,-21221.7
3.41236e+07,59.9321,0,2.40709,8693.51,7063.58,-22810.5
3.46394e+07,49.578,2,2.64492,-6226.32,-6262.21,-23068.9
3.47843e+07,34.6645,0,2.81029,-1092.75,-7215.51,-28839.9
3.5033e+07,45.4795,0,3.05724,-3800.02,-2978.53,-20645.1
3.50642e+07,68.7209,1,2.91062,10830.7,8729.34,-24840.5
3.52693e+07,25.8774,1,2.76488,-3796.02,3618.89,-27051.3
3.52935e+07,245.865,2,2.82124,13717.9,-17612.9,-17901.3
3.58573e+07,44.5857,1,2.86706,-4761.41,-4908.3,-25366.2
3.58822e+07,76.0709,2,2.63983,6103.6,-13158.1,-21796.5
3.58827e+07,116.7,1,2.62961,15722.3,19036.4,-28671.5
3.6559e+07,95.9363,2,2.47029,-7901.2,18086,-24300.5
3.66834e+07,19.3485,1,2.41427,-934.057,2333.92,-25510.8
3.68876e+07,35.1875,0,2.89297,-3080.37,6610.99,-27805.6
3.72153e+07,31.8638,2,2.42899,-5077.72,-1339.33,-24529.3
3.74935e+07,18.1245,1,2.97046,-2955.55,2521.04,-29056.8
3.76656e+07,124.645,2,2.66065,-19094.5,-17543.5,-23934.9
3.77015e+07,90.7671,1,2.81991,-17661.1,-6618.32,-25598.7
3.77302e+07,89.913,0,2.87931,18475.1,-2664.36,-25335.4
3.79595e+07,68.3573,0,2.98884,3048.63,7606.53,-17238.4
3.8666e+07,44.5567,2,2.58334,1717.89,-9312.2,-28286.7
3.87199e+07,21.2564,0,2.55164,3496.3,-1074.15,-26084.5
3.89039e+07,111.125,1,2.40444,-11309.7,15921.5,-15619
3.91825e+07,54.5568,0,2.78745,4189.28,-5860.12,-19835.5
3.93283e+07,0.683471,1,2.08865,95.6745,180.821,-28902
0,0.741122,1,2.20344,0,0,0
0,0.717397,1,2.24,0,0,0
4.00375e+07,16.2423,1,2.75121,-1430.02,-3075.09,-28995.2
4.01075e+07,54.5464,0,2.71024,4644.98,1817.59,-18441.2
4.01725e+07,203.051,1,2.43101,-20741.7,-24004.7,-186.329
4.02187e+07,42.888,1,2.96093,-2209.23,7504.11,-24285.4
4.03711e+07,95.0416,0,2.40264,-634.199,2524.83,-23930.1
4.03873e+07,18.245,1,2.45384,-1369.12,-1953.18,-25823.7
4.081e+07,44.6455,0,2.93202,8400.1,2343.18,-25174.9
4.08364e+07,3.29706,2,2.37988,-468.452,-222.581,-28307.8
4.09177e+07,27.8885,0,2.44004,4069.66,-4331.24,-28208.9
4.14463e+07,81.3671,2,2.51604,8104.27,-3005.93,-13982.1
4.14885e+07,9.32446,1,2.95841,1792.33,173.779,-28121
4.16437e+07,4.78055,1,2.58362,384.736,-119.47,-27914.1
4.16543e+07,39.0063,0,2.71354,7844.81,784.738,-26158.2
4.1926e+07,68.9509,2,2.82009,336.943,-1042.01,-27745.8
4.2125e+07,14.2007,1,2.54945,-38.7555,2859.97,-27735.2
4.24075e+07,24.4433,1,2.43858,-3644.25,1807.99,-25532.5
4.28707e+07,24.8947,0,3.00797,172.804,3432.75,-24952.6
4.31363e+07,79.8881,0,2.6013,12462,-7654.03,-20297.8
4.32834e+07,63.7987,1,2.55827,-12559.1,-3530.49,-25287
4.33111e+07,21.6734,2,2.45774,-2721.31,3049.13,-26735.1
4.36446e+07,19.0756,1,2.44968,-2291.15,3107.36,-27334.7
4.3734e+07,126.968,0,2.73967,21198.9,-5743.76,-13444.6
4.393e+07,145.486,0,2.62339,-3392.81,15409.8,-2485.8
4.40371e+07,128.386,1,2.85066,14805.3,20911.7,-20230.2
4.40804e+07,9.41914,0,2.61032,1708.89,1208.78,-28770.6
4.41004e+07,163.676,2,2.76195,-26470.7,-4008.62,-7077.24
4.41299e+07,40.1611,1,2.91367,746.613,7861.18,-25640.5
4.42775e+07,62.5227,1,2.82669,5531.31,12003.2,-29094
4.46351e+07,99.3274,0,2.77626,15658.3,828.136,-15260.6
4.47841e+07,47.4772,0,2.51857,2458.38,-6585.19,-21614.1
4.48514e+07,25.5774,1,2.83929,3225.5,4343.46,-28617.1
4.56542e+07,373.38,1,2.48579,-16582.3,-24298.2,28722.1
4.58817e+07,41.9368,1,2.40042,8346.11,2683.78,-27552.4
4.59373e+07,159.71,2,2.7307,3573.19,23778.3,-5405.82
4.59745e+07,160.788,1,2.58184,-25343.4,-1504.44,-6245.23
4.6431e+07,144.985,0,2.57035,-2959.86,12607.3,-1064.51
4.65309e+07,171.64,1,2.79436,-17919.5,-9213.09,-12923.1
4.68036e+07,51.0177,2,2.62389,10027.7,-2376.41,-25692.4
4.68126e+07,78.133,2,3.04001,4350.89,10114.5,-16803.1
4.71454e+07,13.1049,2,3.00311,215.136,-1733.5,-26634.3
4.71931e+07,3.81704,2,2.85139,-762.379,-368.672,-29065
4.72867e+07,166.209,2,2.8135,-17230.5,22674,-9877.12
4.75381e+07,163.085,2,2.66354,768.641,-224.914,-29857.1
4.77083e+07,131.256,2,2.88313,14715.1,-13293.2,-9708.89
4.8488e+07,8.97533,2,3.00305,-129.194,-522.389,-26987.2
4.85331e+07,25.8301,1,2.70927,2437.2,3315.62,-25196.4
4.87975e+07,59.8659,2,2.3931,9179.17,3004.91,-20670.3
4.88514e+07,81.5722,0,2.7046,7627.49,-146.547,-13367.1
4.9086e+07,56.5309,0,2.85496,5958.19,-2703.87,-18882.8
4.91066e+07,44.9583,0,3.03192,3051.08,2985.93,-20411.8
4.94653e+07,215.582,0,2.63467,14404.4,-16181.6,9251.24
4.97969e+07,10.8601,1,2.68296,-1889.66,-1215.36,-28404.4
4.99377e+07,133.581,0,2.86564,926.495,-26527.9,-19632
5.00638e+07,275.363,1,2.7093,-9973.04,-4369.11,-462.691
5.02411e+07,75.3599,1,2.81685,-8727.6,3732.36,-26498.2
5.05254e+07,154.315,2,2.88579,-2490.53,-15648.3,-535.487
5.07564e+07,35.2496,1,2.90986,-120.46,5536.96,-23827
5.07655e+07,59.2483,0,2.89729,-6106.72,-1981.52,-18196.4
5.0969e+07,54.632,0,2.81391,10541.1,-4551.87,-27225
5.11617e+07,80.6971,2,2.7215,3351.78,-15072.6,-21551.9
5.11828e+07,132.085,2,2.69147,-14647.3,-23783.4,-29857.5
5.15849e+07,100.744,0,2.66324,8861.14,-10073.4,-12307.1
5.17414e+07,75.6327,0,2.82784,14855.6,-4419.7,-24972.9
5.18609e+07,54.2822,1,2.80882,-9796.47,-1362.85,-23032.1
5.19371e+07,35.9152,2,2.70747,-5971.6,-1122.15,-24219.2
5.20532e+07,9.90769,0,2.79407,581.51,1501.23,-27429.7
5.2906e+07,23.6354,1,2.85865,1606.01,4062.06,-26331.8
5.3243e+07,49.0662,0,2.88144,-3805.71,-9266.29,-26438.2
5.33683e+07,31.8329,0,2.56604,2316,4618.76,-24437.8
5.34888e+07,38.6243,1,2.81965,1165.88,7961.27,-27339
5.39831e+07,151.269,2,2.57315,8851.19,-12600.7,-4452.02
5.41125e+07,30.5405,0,2.92482,2670.26,33.1888,-22955.5
5.43302e+07,147.498,0,2.59742,-28064.4,-12848.7,-25168.4
5.45158e+07,130.899,0,2.72585,25224.2,7024.51,-19922.6
5.46173e+07,0.154456,1,3.88483,-29.8663,98.4047,-28837.1
0,0.0849874,1,3.25098,0,0,0
0,0.0644943,1,3.32276,0,0,0
0,0.0542381,1,3.11537,0,0,0
0,0.0915457,1,3.63596,0,0,0
0,0.118033,1,2.65786,0,0,0
0,0.0509166,1,2.29475,0,0,0
0,0.0818332,1,3.33008,0,0,0
0,0.0524464,1,2.15215,0,0,0
0,0.0585046,1,2.56436,0,0,0
0,0.051633,1,3.26251,0,0,0
0,0.0586269,1,4.1326,0,0,0
0,0.0644244,1,3.75597,0,0,0
0,0.075438,1,3.24668,0,0,0
0,0.0973005,1,2.42104,0,0,0
0,0.0504148,1,4.02684,0,0,0
0,0.163212,1,4.11971,0,0,0
0,0.0510718,1,3.45202,0,0,0
0,0.162545,1,2.14456,0,0,0
0,0.0519494,1,2.71128,0,0,0
0,0.106748,1,3.53939,0,0,0
0,0.129597,1,3.10538,0,0,0
0,0.11777,1,2.97012,0,0,0
0,0.164298,1,2.4144,0,0,0
0,0.162486,1,3.90534,0,0,0
0,0.0514733,1,2.89213,0,0,0
0,0.124554,1,3.55522,0,0,0
0,0.168692,1,2.78275,0,0,0
0,0.0499521,1,2.08418,0,0,0
0,0.131389,1,4.08898,0,0,0
0,0.104087,1,3.40907,0,0,0
0,0.139415,1,2.06694,0,0,0
0,0.115318,1,2.51863,0,0,0
0,0.169482,1,3.23547,0,0,0
0,0.055039,1,3.42611,0,0,0
0,0.0700913,1,3.4001,0,0,0
0,0.161325,1,3.22069,0,0,0
0,0.0727272,1,3.7103,0,0,0
0,0.0737602,1,2.5222,0,0,0
0,0.136095,1,2.18701,0,0,0
0,0.0650738,1,3.03224,0,0,0
0,0.0512881,1,2.56642,0,0,0
0,0.0873177,1,3.45636,0,0,0
0,0.113806,1,3.14603,0,0,0
0,0.160655,1,2.23155,0,0,0
0,0.114597,1,3.11164,0,0,0
0,0.0482663,1,3.96528,0,0,0
0,0.0808039,1,2.96287,0,0,0
0,0.0504538,1,3.38797,0,0,0
0,0.0497853,1,3.41204,0,0,0
0,0.104343,1,3.90813,0,0,0
0,0.111205,1,3.157,0,0,0
0,0.0627847,1,2.72953,0,0,0
0,0.0741807,1,3.34689,0,0,0
0,0.0983303,1,2.63979,0,0,0
0,0.0689192,1,3.16872,0,0,0
0,0.0486331,1,4.06743,0,0,0
0,0.0526422,1,2.32836,0,0,0
0,0.0783176,1,3.11397,0,0,0
0,0.062835,1,2.7268,0,0,0
0,0.0547404,1,2.98218,0,0,0
0,0.0499346,1,3.77464,0,0,0
0,0.0549627,1,3.3085,0,0,0
0,0.0725096,1,2.47942,0,0,0
0,0.049703,1,3.01159,0,0,0
0,0.153893,1,3.5047,0,0,0
0,0.163644,1,3.22827,0,0,0
0,0.0482507,1,3.73875,0,0,0
0,0.0894336,1,4.03774,0,0,0
0,0.0526462,1,3.30389,0,0,0
0,0.161919,1,2.77274,0,0,0
0,0.0550786,1,3.64229,0,0,0
0,0.0553539,1,4.02783,0,0,0
0,0.161967,1,2.71041,0,0,0
0,0.060103,1,3.18919,0,0,0
0,0.068002,1,2.5646,0,0,0
0,0.142585,1,3.37568,0,0,0
0,0.0734852,1,2.26221,0,0,0
0,0.0645811,1,3.83405,0,0,0
0,0.0673344,1,2.29824,0,0,0
0,0.113678,1,2.11746,0,0,0
0,0.0737311,1,3.857,0,0,0
0,0.071633,1,2.28555,0,0,0
0,0.106776,1,3.49126,0,0,0
0,0.0864444,1,3.38413,0,0,0
0,0.0675311,1,3.67108,0,0,0
0,0.091244,1,3.1789,0,0,0
5.50217e+07,259.686,1,2.78762,8837.03,23265.2,19814.3
5.54721e+07,19.0698,1,2.57752,375.397,2562.13,-25672.8
5.55985e+07,90.4784,0,2.78995,1391.88,-12362.6,-14389.4
5.56354e+07,71.7631,1,2.84787,-14118.7,1129.42,-23455.6
5.58537e+07,83.72,0,2.46337,8081.59,-2561.03,-13233.7
5.58649e+07,174.359,1,2.49174,9216.21,-21950.2,-732.084
5.59573e+07,88.6809,0,2.57478,3580.6,-17208.1,-22210.8
5.60047e+07,67.8164,0,2.64142,-116.911,-330.794,-29633.3
5.61316e+07,98.0451,0,2.57336,6943.35,14289.7,-15488.9
5.61907e+07,61.5604,0,2.52672,1954.79,5561.62,-26813.9
5.64525e+07,20.6332,1,3.01866,1190.24,4171.41,-28075.5
5.65536e+07,98.8046,2,2.60456,-12134.2,14452.9,-19966.5
5.67159e+07,106.214,2,2.50629,-13584.7,-16604.8,-21875.7
5.78332e+07,38.5548,0,2.82503,-5597.64,5344.75,-26512.7
5.80745e+07,81.9549,2,2.82292,6669.19,-9271.25,-15881
5.82382e+07,116.705,0,2.83623,4463.4,10834.3,-7240.72
5.84307e+07,6.66875,1,2.55281,656.531,1295.93,-28880.2
5.84537e+07,200.338,0,2.47257,-19607.6,-10935.7,7035.73
5.88195e+07,51.6141,1,2.67209,8772.79,5170.39,-24993.9
5.88566e+07,43.3149,0,2.94421,7759.54,2994.46,-24982.7
5.89295e+07,72.8563,2,2.42404,-4945.31,-14700.4,-28841.3
5.96383e+07,81.7226,2,2.92576,6747.32,-9078.12,-15914
5.96776e+07,16.4313,2,2.93953,-2165.76,-894.301,-26211.1
5.97982e+07,97.4752,1,2.50586,-10260.1,-16904.7,-23129.8
5.99073e+07,13.6993,0,3.00295,1270.3,-1764.78,-26893.1
6.05226e+07,22.0004,0,2.59877,-2930.99,3035.55,-26923.3
6.05378e+07,97.3678,0,2.89813,-11974.6,4816,-13006.6
6.06435e+07,6.06941,0,2.41663,753.945,473.856,-27842.9
6.09232e+07,84.418,0,2.6317,-1489.4,-17440.2,-25393.3
6.10401e+07,103.243,1,2.95183,-20528.5,-2196.41,-22086.4
6.124e+07,17.37,2,3.01631,-2198.29,-2833.44,-27874.6
6.12782e+07,28.6873,1,2.75431,4061.67,719.87,-24401.8
6.13088e+07,282.989,1,2.6922,-21407.9,21286.7,17854.6
6.15695e+07,91.753,1,2.63068,-9649.92,6962.47,-13505.3
6.16045e+07,77.6533,2,2.91226,-408.509,8318.27,-14839.3
6.20191e+07,77.4049,1,2.71434,4333.34,-13481,-20871.8
6.22991e+07,13.0915,0,2.40747,2818.1,-575.965,-29075.5
6.25354e+07,102.698,2,2.95428,9324.22,7359,-10966.9
6.25359e+07,63.8933,1,2.68149,4036.44,-10824.5,-22042.5
6.28572e+07,35.7863,1,2.71631,2621.26,5743.06,-24583
6.2905e+07,128.374,1,2.47371,16142.3,-3500.8,-7309.7
6.32127e+07,32.894,2,2.6342,-6343.54,2913.44,-28429.3
6.33753e+07,53.5804,2,2.55206,-3269.72,3043.29,-18441.9
6.33761e+07,134.93,1,2.7595,26573.7,-9869.17,-27809.8
6.34521e+07,43.66,0,2.8478,5994.38,5180.6,-29217.6
6.38169e+07,10.4345,0,2.74486,2051.87,540.268,-27937.2
6.38999e+07,124.862,2,2.82631,16972.5,-18943.5,-22158.2
6.39131e+07,64.1172,0,2.64222,918.005,7627.42,-17685.7
6.39889e+07,80.2278,1,2.41591,2842.14,11778.9,-16859
6.39967e+07,47.2995,1,2.8504,-8019.36,-1844.51,-23170
6.40238e+07,168.708,0,2.38497,-21918.9,-24309.7,-14710.7
6.4205e+07,50.5307,1,2.90628,-8919.24,4058.34,-24611.2
6.46104e+07,58.5481,1,2.95377,-10031.6,7253.56,-29257.1
6.4611e+07,54.3633,2,2.69072,7699.29,-2840.55,-20849.8
6.51004e+07,65.4245,0,2.52273,-9906.79,-9239.62,-26338
6.51369e+07,8.21512,0,3.00917,924.206,-1307.66,-29620.7
6.51686e+07,101.855,0,2.45104,-7554.39,8161.86,-10430.9
6.53157e+07,49.8656,0,2.61228,7267.65,-6491.04,-24694.3
6.54643e+07,64.9466,1,2.6239,-1310.26,11501.8,-21324.9
6.55124e+07,21.823,2,2.75058,-2417.73,-908.213,-24989.6
6.5559e+07,115.839,2,2.88401,5536.6,-23124.6,-23280.2
6.5626e+07,38.4418,2,2.82859,4325.01,-4076.51,-23291.4
6.56446e+07,37.9779,1,2.9892,5056.51,5711.95,-26395
6.56544e+07,22.2975,2,2.37286,-2155.18,-4198.67,-29895
6.60409e+07,8.93241,1,2.71327,-460.888,169.68,-26986.7
6.61578e+07,12.4443,0,2.44492,458.968,1919.3,-27027
6.61737e+07,51.8683,0,2.95184,6486.76,-4096.59,-21036.5
6.629e+07,120.43,0,2.38538,5596.36,24700,-25792.9
6.64595e+07,91.7933,2,2.38135,6952.57,-18202.6,-27820.2
6.6604e+07,13.517,2,2.57975,-1128.97,2337.85,-27667.7
6.6628e+07,15.6554,1,2.51619,-2144.32,-479,-26314.5
6.66499e+07,146.846,2,2.74249,-4616.45,23799.2,-9694.15
6.67489e+07,42.0024,1,2.81035,-1685.47,8749.91,-29660.1
6.67858e+07,65.4156,1,2.73237,7664.77,113.467,-17407.9
6.67895e+07,172.529,0,2.81023,2743.77,12621.3,-3818.43
6.68461e+07,75.2566,1,2.38394,-8754.34,13376.5,-27574.9
6.69059e+07,22.5489,2,2.73953,-2471.53,-2185.38,-25313.8
6.69382e+07,17.9507,2,2.98691,-2382.15,127.71,-25901.5
6.72546e+07,102.687,0,2.49245,15699.8,6897.71,-15385.4
6.73327e+07,48.5012,1,2.87512,-2904.43,-3926.23,-19881.5
6.74107e+07,57.1206,2,2.45632,3511.12,-9027.57,-23441.4
6.74496e+07,95.8992,2,2.93592,-7397.17,-18322.5,-24473.7
6.75116e+07,165.856,1,2.4648,-6384.78,27896.1,-8445.67
6.76742e+07,17.3407,1,2.75033,2111.52,1935.62,-26519.1
6.78306e+07,39.6186,2,2.87706,-2741.05,5282.74,-23058.7
6.80258e+07,32.4265,1,2.79018,-3675.37,4175.92,-24732.6
6.81792e+07,32.7302,0,2.5636,87.3217,-2970.38,-25484.2
6.82438e+07,179.209,1,2.4095,-9024.67,23467.8,-398.099
6.84272e+07,198.027,0,2.85521,19677.5,4903.02,-27562.2
6.87701e+07,9.43434,1,2.47837,-1777.58,-514.644,-27967.8
6.87786e+07,139.232,0,2.99108,5116.41,-27664,-21386.3
6.89087e+07,34.9133,1,2.85826,2099.74,5511.41,-24426.1
6.90101e+07,139.293,1,2.59552,-23617.1,-7129.12,-12747.6
6.9579e+07,100.965,2,2.87565,11839.1,-803.781,-17742.9
7.00042e+07,160.5,1,2.78147,7025.87,21068.3,-3415.37
7.00748e+07,12.218,1,2.73416,-2525.28,426.037,-29478.2
7.06211e+07,82.7212,2,2.42501,-4127.56,-11637.4,-16361.1
7.06826e+07,54.3488,0,2.93525,7685,229.172,-20321.6
7.09739e+07,52.2766,1,2.94392,1480.87,-2419.47,-26269.8
7.10025e+07,190.911,0,2.92764,16051.9,-5417.58,-29444.4
7.1264e+07,15.1354,0,2.66151,2351.37,1195.77,-26895
7.17417e+07,44.357,2,2.6899,289.641,547.697,-27974
7.18366e+07,109.87,0,2.6265,14606.2,-17468.6,-24195.5
7.1883e+07,66.8497,0,2.49791,20.5697,-8024.04,-17173.7
7.3394e+07,76.9655,0,2.50445,14117.3,5408.64,-22627.2
7.38127e+07,125.315,2,2.93136,-18308.8,-1472.78,-9958.92
7.39673e+07,45.3898,0,2.41589,3796.11,6662.05,-22974.6
7.43043e+07,8.62833,1,2.54427,217.358,1720.45,-28045.1
7.55053e+07,78.5252,0,2.96701,-259.242,12940.6,-19956.4
7.57622e+07,80.5365,2,2.91982,3459.8,-6615.13,-28391.9
7.57653e+07,27.2835,2,2.52481,-4603.51,3268.16,-27559.9
7.57799e+07,62.3076,0,3.00821,3924.92,-8907.31,-20055.5
7.57883e+07,175.939,2,2.96552,9951.23,-13052.7,4222.88
7.65135e+07,20.8292,2,2.55545,-3625.57,-2694.08,-28739.3
7.68839e+07,37.5602,2,2.44233,-1705.6,-7394.54,-26152.1
7.71041e+07,124.676,0,3.04568,18548.1,-16763.2,-21050
7.72262e+07,149.919,0,2.89508,2955.06,12668.4,-177.8
7.7345e+07,6.41194,2,2.63387,-1338.35,349.624,-28681.6
7.73821e+07,101.441,1,3.03016,-6238.2,14149.9,-14177.3
7.74922e+07,53.2601,2,2.75114,4796,-8364.73,-22985.6
7.76936e+07,159.184,0,2.53843,28676.5,-17740.4,-27954.6
7.77631e+07,73.9905,2,3.04818,-7948.88,7058.78,-17573.9
7.78838e+07,113.474,1,2.65014,-9468.94,22020,-27299.2
7.78906e+07,61.5283,2,2.56464,-12467.5,-1545.6,-25268.1
7.79247e+07,130.517,1,2.40906,15377,1908.25,-5986.15
7.80926e+07,29.9088,1,2.60449,-5629.43,2276.65,-26874.2
7.92642e+07,70.0947,1,2.44496,1247.54,-13190.8,-22295.7
7.96275e+07,41.4631,0,3.00692,7574.54,3095.8,-25621.4
7.96673e+07,49.1998,1,2.54114,-8607.25,5522.38,-26518.5
7.98554e+07,120.588,1,2.68786,16855.6,7368.46,-11268.1
8.0161e+07,111.546,1,2.46864,-18389.2,1393.39,-14044.9
8.01913e+07,24.7456,2,3.01056,-5201.85,689.59,-29143.4
8.04385e+07,172.475,2,2.70513,7541.38,13216.3,-29065.7
8.04618e+07,79.3301,2,2.6762,-12141.6,5702.33,-20951.1
8.05979e+07,41.287,2,2.45273,-3881.87,-5869.64,-23538.9
0,42.0081,0,2.87022,0,0,0
8.08171e+07,102.394,0,2.47668,-4701.56,-20056.3,-22141.4
8.08387e+07,24.0476,2,2.60828,-4282.47,-2106.05,-26867.1
8.08824e+07,11.9807,0,2.4007,953.956,-877.154,-26616.1
0,12.0031,0,3.02738,0,0,0
8.09681e+07,138.867,1,2.7921,-14416.6,3710.46,-3642.66
8.09859e+07,4.52252,0,2.69076,-361.314,831.776,-28612.4
8.11214e+07,73.4666,0,2.56454,6317.24,-6575.32,-16231.6
8.1129e+07,157.269,0,2.70207,-23383.7,-23326.4,-26514.9
8.11343e+07,101.606,0,3.0484,-1610.85,-12698.5,-11828.4
8.17584e+07,227.951,1,2.82384,5881.92,4098.45,-21107.7
8.18311e+07,76.6964,0,2.82506,-5568.9,14888.6,-26215.2
8.27639e+07,53.8176,2,2.51304,-10324.5,4862.41,-28485.5
8.29829e+07,136.063,1,2.51277,-22648.7,8793.53,-13304.3
8.30455e+07,82.8468,1,2.43013,-7106.41,-7023.17,-14451.3
8.30647e+07,138.949,0,2.47389,23182.8,17739,-24992.9
8.30848e+07,134.192,0,3.01198,8289.53,-10497.1,-4061.01
8.35376e+07,7.38127,0,2.58227,1505.4,-96.1602,-28185.7
8.37644e+07,90.0176,1,2.80809,-10231.3,-4248.08,-13507
8.37809e+07,72.4329,1,2.80121,1327.01,13887.1,-22518.5
8.38742e+07,100.742,2,2.7244,-17854.8,1871.12,-17410.3
8.39635e+07,184.543,0,2.81309,1502.76,21797.8,3225.59
8.39899e+07,23.0195,2,2.72952,-244.507,-2962.43,-24933.4
8.40961e+07,13.5788,0,2.44191,1048.56,-2733.57,-28544.5
8.43895e+07,86.522,1,2.97591,8099.31,6293.53,-13832.2
8.44601e+07,17.7591,0,2.51992,-1232.87,1856.17,-25824
8.48589e+07,100.791,0,2.72382,-513.486,-15438.1,-14267.9
8.5295e+07,31.7398,0,2.70684,4116.58,5121.64,-27302.5
8.5394e+07,94.1566,2,2.58411,-11764.6,-16163.8,-28456
8.54847e+07,41.9141,1,2.59279,4654.4,6946.59,-25733.3
8.55127e+07,144.215,2,2.8216,-28758.2,805.582,-19049.4
8.56959e+07,118.516,0,2.71433,19829.6,859.737,-13555.4
8.60267e+07,61.0036,0,2.58967,12606,-1267.13,-26052.4
8.61491e+07,62.6894,1,2.88374,2902.19,11664.3,-23326.9
8.72643e+07,57.8552,2,3.05985,-7851.28,-7873.2,-23777.5
8.74758e+07,54.3784,1,2.61863,-2109.94,11396.6,-29003.6
8.74907e+07,69.8659,2,2.86936,-8754.48,-1185.59,-17044.9
8.75709e+07,16.9813,1,2.69396,-3654.52,-119.81,-28922.5
8.76193e+07,190.891,1,2.85208,-6299.9,29011.6,-1769.7
8.79611e+07,234.833,0,2.5424,905.063,-1933.05,-25626.5
8.79862e+07,66.7272,1,2.96068,9603.79,2183.13,-19310.9
8.82008e+07,319.205,2,2.71041,-26371.7,-2201.41,28218.5
8.82494e+07,215.895,2,3.02504,-19430.3,-728.105,-19360.8
8.82788e+07,0.662269,2,3.01622,5.05398,8.16233,-28722.4
8.83396e+07,64.8871,1,2.47012,-12936.2,-63.3018,-24092.3
8.85177e+07,60.2824,1,2.45959,1296.18,5953.53,-17586.1
8.8674e+07,154.131,2,2.87579,-20628.5,-980.329,-3877.03
8.87592e+07,36.341,2,2.77699,2691.54,-6550.97,-25774.2
8.92442e+07,94.89,2,2.41115,8249.83,-718.579,-10537.5
8.96045e+07,60.3695,2,2.42331,2069.74,-6031.52,-17721.6
8.96699e+07,111.886,0,2.5386,17412.9,11701.1,-17735.7
8.98249e+07,71.4006,2,2.41068,-3227.45,-8611.07,-16771.2
8.99085e+07,64.206,2,2.8315,8503.74,2932.19,-18809.8
8.99768e+07,141.286,1,2.99489,19812.6,21943.9,-26712.8
8.9996e+07,27.2523,0,3.05283,2676.72,-1916.83,-24104.8
8.99977e+07,112.377,2,2.98242,-10023.7,3043.16,-23055.1
9.00731e+07,7.49321,1,2.45116,-1226.14,1168.9,-28691
9.01485e+07,16.0613,2,2.66784,575.794,-3239.42,-29911.5
9.0403e+07,108.807,2,2.53459,-17656,-13015.1,-21756.5
9.06557e+07,44.7813,2,2.41808,5222.9,-2831.43,-21419.4
9.09928e+07,150.459,1,2.68952,-13468.8,20282.9,-8398.36
9.11346e+07,103.43,0,2.76429,-11146.3,12103,-14654.7
9.14606e+07,6.94642,0,2.49988,-276.561,-510.132,-27491.3
9.14757e+07,19.0781,1,3.00033,-537.048,3600.5,-27016.2
9.18399e+07,41.2341,0,2.97636,999.214,3980.87,-21620.9
9.18458e+07,94.9351,2,2.86978,11200.2,10234,-15962.1
9.2445e+07,29.0753,0,2.53976,4228.53,4417.84,-27620.2
9.24528e+07,254.527,1,2.97621,-24232.2,26019,11038.2
9.30838e+07,54.689,1,2.86598,-5355.17,-2445.59,-27926.9
9.32297e+07,211.679,1,2.71283,-13496.5,-14174.2,11237.1
9.40613e+07,93.0302,1,2.78047,-18127.5,1295.28,-21374.7
9.43344e+07,21.9705,1,2.59201,-3728.62,-1464.25,-26433.7
9.44329e+07,33.1409,1,2.51224,1228.83,6171.33,-25610.9
9.47271e+07,91.6043,2,2.85648,-9670.94,15639,-23220
9.47892e+07,61.94,2,2.98899,-12900.4,-1908.36,-28966.9
9.4844e+07,15.1787,0,2.68354,2554.06,-1145.04,-27118.5
9.50815e+07,70.4435,2,2.92575,7678.83,-5757.46,-17567.8
9.52317e+07,39.5207,0,2.91793,4565.89,4648.75,-23607.3
9.54769e+07,160.411,1,2.38628,-18271.9,-16696.2,-5623.69
9.56831e+07,5.80413,0,2.6332,514.968,306.836,-27715.2
9.57608e+07,4.69697,2,2.70287,631.455,-829.593,-28707.5
0,4.75954,2,2.85512,0,0,0
9.59128e+07,53.5507,1,2.44098,-11117.9,2560.36,-28277.8
9.59915e+07,123.329,0,2.71905,7891.16,17693.7,-11448.4
9.60184e+07,7.56973,1,2.7566,412.041,1221.33,-27783.4
9.61943e+07,122.473,0,2.78159,-24421.9,-3542.03,-21629.9
9.63016e+07,84.4516,2,2.92387,-16124.1,4509.59,-22984
9.7336e+07,154.323,2,2.44118,21553,-24229.7,-24720
9.73748e+07,55.4687,2,2.65341,-7058.77,-1475.13,-19554.6
9.74791e+07,42.9784,2,2.86787,-2755.99,-5925.96,-22494.3
9.74819e+07,84.0606,0,2.59947,-3781.56,6072.76,-21170.3
9.74995e+07,17.4557,2,2.7297,260.579,1833.16,-25694.8
9.75305e+07,97.4429,0,2.47878,-5862.92,-10325.8,-12007.2
9.80162e+07,60.9421,2,2.63919,121.029,-7577.38,-18374
9.831e+07,30.5686,0,2.96924,-766.816,-3001.18,-23211.9
9.83723e+07,66.7508,2,3.00383,8285.27,-3175.57,-18456.2
9.85244e+07,98.2216,1,3.04433,-6054.87,17596.5,-19858
9.86504e+07,7.75591,0,2.38446,1163.09,-1263.93,-28694.7
9.88514e+07,44.1478,1,3.058,-4616.59,7061.27,-24824.1
9.88963e+07,79.4595,0,2.4786,7599.38,-12112.8,-19924.1
9.91035e+07,141.263,0,2.55247,-12971.3,23289.7,-17103.9
9.93665e+07,31.5697,1,2.73062,-3552.88,5436.85,-26971.2
9.94251e+07,11.9585,0,2.95397,1221.53,-2012.3,-27786.4
9.94743e+07,39.1321,1,2.62907,-2480.81,-3586.27,-21808.3
9.95108e+07,33.0943,2,2.49543,-344.436,3084.38,-22603.2
9.97561e+07,20.4196,2,2.63664,2711.66,-3393.16,-28946.5
1.00068e+08,66.695,0,2.54138,2920.55,9889.31,-19158.1
1.0007e+08,42.9805,0,2.49075,8333.38,859.477,-25068.9
1.0035e+08,178.395,0,2.70007,1835.04,-18933.4,3597.94
1.00359e+08,23.5666,1,2.61072,-2124.52,1241.08,-24445.1
0,23.6143,1,2.63656,0,0,0
1.00413e+08,62.2208,2,2.63235,12203.3,-4527.69,-27052.7
1.00452e+08,30.4344,1,2.45973,-2651,4084.25,-24509.5
1.00489e+08,50.8688,1,2.56125,-10657.8,2000.71,-28747.6
1.00526e+08,40.3547,1,2.36703,-2245.23,3469.85,-21299.7
1.01123e+08,25.2215,2,2.4314,-1359.56,2745.69,-24459.2
1.01664e+08,12.7597,0,2.86078,2449.71,-1173.79,-28279.6
1.02057e+08,58.3146,0,2.75123,6976.12,575.051,-18670.2
1.02209e+08,88.0728,2,2.66904,11157.2,13900.9,-23821
1.02396e+08,56.3449,2,2.37027,4524.51,-3024.68,-18232.9
1.02473e+08,151.211,1,2.84157,-9175.85,12945.9,-1235.79
1.03053e+08,32.4522,1,2.70555,-3968.52,3567.66,-24446
1.03074e+08,24.1055,0,2.55185,4469,-2600.22,-28785
1.03563e+08,33.8884,0,2.71185,3682.33,-4221.69,-26891.4
1.0364e+08,28.5029,2,2.95819,810.072,-5291.5,-25993.9
1.0395e+08,64.2106,2,2.45166,-12527.5,420.352,-23496.6
1.03981e+08,1.23286,2,2.59158,-266.746,-157.14,-29003
1.04026e+08,16.3367,1,2.76956,1200.05,-1399.86,-25991.8
1.04229e+08,27.5873,2,2.54173,2588.26,-2926.04,-24460.8
1.04708e+08,66.9868,1,2.49878,-9783.11,6077.56,-20455
1.04805e+08,123.331,2,2.36282,6181.66,-24309.9,-21313.6
1.04981e+08,80.7432,0,2.40714,8539.57,13035.1,-21729.8
1.05249e+08,74.4598,1,3.04941,11942.7,10048.7,-28148
1.05263e+08,34.2307,2,2.98136,-5217.14,-4013.16,-25807.3
1.05626e+08,168.724,0,2.95695,21148.2,-1900.53,-453.664
1.05638e+08,19.4832,0,2.42303,-1062.51,2034.71,-25434.8
1.05659e+08,66.8458,2,2.70795,5068.83,-7175.25,-17762.1
1.05878e+08,47.1155,2,3.00075,-490.854,-9590.04,-26118.8
1.06124e+08,45.1709,0,3.00997,-4142.55,-3335.27,-21013.7
1.06552e+08,38.5475,1,2.93063,477.693,6000.47,-23350.2
1.0668e+08,42.1599,0,2.70878,-4267.78,3429.35,-21884.2
1.06767e+08,38.7416,2,2.64257,-7932.37,-2256.64,-28486.9
1.06906e+08,58.6026,0,2.7887,-4609.39,4010.91,-18124.8
1.06925e+08,62.8651,1,2.78531,-2222.36,5703.64,-17053.1
1.07077e+08,22.2985,2,2.68873,-3153.91,-2572.95,-26316.9
1.07109e+08,36.8471,0,2.54684,5065.91,3873.53,-24253.2
1.0739e+08,313.677,0,2.69922,26956.9,-25151.6,26078.5
1.07503e+08,120.049,0,2.86382,-14471.1,-2841.64,-8462.84
1.08222e+08,109.079,1,2.58914,-2650.54,-10396.9,-8463.45
1.0882e+08,56.6242,0,2.67769,7308.12,-8647.05,-24890.2
1.09377e+08,46.1843,2,2.90312,-5530.11,-1902.37,-21025.3
1.09382e+08,50.438,1,2.90544,7075.98,-2011.88,-21242.4
1.10202e+08,37.4781,0,2.80635,2868.2,-7157.67,-26956.6
1.10224e+08,3.89774,0,2.97952,-567.846,-134.937,-28320.4
1.10361e+08,82.3026,2,2.78735,12490.6,5705.85,-21161.9
1.10365e+08,37.6002,0,2.83627,-5081.47,-758.946,-22860.6
1.1045e+08,25.056,0,2.78651,-3277.67,3774.76,-27206.3
1.10837e+08,71.2072,2,2.96009,-10717.3,857.163,-18420
1.10911e+08,213.056,2,2.82772,14581.3,-11391.8,11975.3
1.11037e+08,24.2886,1,2.72565,-4562.23,-485.518,-26424.7
1.11122e+08,39.8314,1,2.54321,-2442.11,7278.19,-25183.2
1.1132e+08,58.2896,1,2.829,-9250.08,-7988.02,-28066.5
1.11491e+08,62.0876,0,2.9969,11130.9,6942.59,-28662.5
1.11621e+08,17.0863,1,2.97503,-52.2098,1689.14,-25614
1.11918e+08,30.085,0,2.76281,5945.71,-1137.07,-26634.8
1.11943e+08,181.737,1,2.89537,-29657.6,9128.06,-6528.27
1.11991e+08,134.82,2,3.05691,-6434.15,-27586.2,-29013.4
1.12018e+08,3.5463,1,2.93352,-690.105,-17.3671,-29255.3
1.12345e+08,53.8808,1,2.40365,-7246.71,8889.93,-28206.4
1.12509e+08,22.1559,0,2.67253,1452.12,-1273.66,-24525.8
1.12755e+08,67.4003,1,2.97791,9777.9,1174.54,-22293.2
1.13088e+08,72.1086,0,2.43767,7610.63,10669.1,-20903.3
1.13109e+08,27.6423,0,3.03694,3754.63,-3743.26,-26363.3
1.13127e+08,50.2607,1,2.39449,821.962,9215.38,-23428.2
1.13569e+08,1.98539,2,2.62231,-230.584,90.1879,-28479.7
0,1.8039,1,2.94664,0,0,0
1.13614e+08,100.552,2,3.02921,-15098.1,-9375.7,-17375.9
1.14013e+08,48.5055,1,2.38161,3399.62,7403.89,-22487.2
1.14089e+08,41.6266,2,2.99854,8161.34,2923.33,-28238.7
1.14337e+08,58.7455,0,2.61741,8536.4,8877.87,-26847.6
1.1447e+08,57.6196,1,2.61594,-7236.18,6118.82,-21079.5
1.1463e+08,76.9256,1,2.73368,-7328.87,324.111,-14346.4
1.15321e+08,124.001,1,2.4518,-21233.5,5026.31,-14171.5
1.16032e+08,71.5967,0,2.65674,-5602.62,-2853.83,-15125.3
1.16131e+08,1.668,2,2.36717,29.8503,-433.211,-28706.1
1.16261e+08,68.1439,2,3.04219,556.793,-8117.65,-17048.1
1.16585e+08,222.024,1,2.46196,-29393.9,23557.8,-692.143
1.16681e+08,49.4599,1,2.73753,-2879.46,9923.32,-26828.6
1.16739e+08,148.399,2,2.56137,-10796,-15515,-19136.2
1.16862e+08,3.75136,0,2.89272,887.35,-116.456,-29021
1.17037e+08,19.2059,1,2.41126,129.631,-2175.53,-25418.5
1.1719e+08,100.816,0,2.77805,9015.79,17239.4,-20243.4
1.17317e+08,116.35,0,2.62652,8979.91,18405.4,-15185.2
1.17475e+08,32.1056,2,2.99516,-3018.4,1713.7,-23048.4
1.176e+08,71.4874,2,2.6901,-5564.86,-14127.1,-28730.6
1.17835e+08,25.0437,0,2.65843,1953.14,4512.09,-26742.5
1.18048e+08,147.384,0,2.59509,23792.4,-18700.2,-21198.2
1.1842e+08,68.8095,1,2.64489,-7879.85,11161.8,-23667.1
1.18469e+08,75.5633,0,2.58137,15354.1,2090.79,-24636.3
1.18526e+08,11.804,1,2.91152,-374.228,2562.42,-28913.8
1.18575e+08,83.0657,1,2.44965,-2165.41,-8472.47,-13621.2
1.18718e+08,48.2354,2,2.70821,-4090.1,-4497.69,-20608.4
1.18758e+08,85.8507,2,3.00864,-13008.7,-10992.1,-22763
1.18836e+08,8.50548,0,3.05707,419.725,-90.1124,-27081.4
1.18859e+08,90.6812,2,2.81328,-10139.5,3264.25,-19442.7
1.19073e+08,35.4387,2,2.82152,2034.79,2979.66,-25463.2
1.19839e+08,13.5594,2,3.02819,-1446.69,-1177.5,-26603
1.20006e+08,136.697,1,2.83323,-4102.42,26940.6,-19556.6
1.20131e+08,12.8635,1,2.5107,-2484.14,1249.4,-29139.3
1.20343e+08,261.251,0,2.57635,22054,-29247.5,12492.6
1.20418e+08,61.6057,1,2.45546,-2793.77,10614.8,-21677.5
1.20435e+08,31.0548,0,2.65849,5045.97,-4158.63,-29975.3
1.20594e+08,16.9753,0,2.62152,3309.57,-1088.4,-29993.9
1.20618e+08,21.781,1,2.73314,-3753.94,2776.97,-29375.9
1.21147e+08,76.0493,2,2.74971,1347.65,-13171.4,-19700.3
1.21351e+08,75.5737,2,2.70047,-10285.3,1089.73,-16664.8
1.21484e+08,46.1636,2,2.84824,-3581.59,-4607.72,-27731.1
1.21707e+08,170.154,0,2.58984,2162.78,17225.9,2635.66
1.21889e+08,8.96335,2,2.63982,-1115.77,-650.548,-27363.1
1.22216e+08,178.233,0,2.69504,9058.5,26818.4,-5878.13
1.223e+08,18.6962,1,2.52991,977.093,-2886.44,-26372.2
0,18.8924,1,2.85201,0,0,0
1.22316e+08,104.252,1,2.87324,86.0067,859.551,-28210.6
1.22465e+08,8.83544,0,2.68505,1684.76,-40.5685,-27846.2
1.22583e+08,56.4505,2,3.0348,-7211.39,2421.21,-25172.7
1.22629e+08,60.782,0,2.81336,-1312.06,-5279.58,-17291.8
1.22744e+08,111.244,2,2.3966,11086.7,8536.41,-9934.16
1.23329e+08,96.6961,0,2.58477,2531.14,-20261.9,-29801.4
1.23377e+08,47.3964,1,2.46489,8680.54,-3255.05,-25114.5
1.23378e+08,70.0796,1,2.82629,-3531.87,14372.8,-27837.7
1.23539e+08,82.5013,0,2.895,-877.315,-8693.12,-13873.4
1.23562e+08,30.7704,0,2.59833,3614.44,-4732.18,-26107.6
1.23563e+08,64.4676,2,2.89294,-11897.2,1902.27,-22545.3
1.23647e+08,203.03,0,2.87214,16168.8,-25713.5,1170.86
1.23787e+08,32.4832,1,2.70833,2435.65,5968.91,-26323.3
1.23807e+08,220.13,0,2.92679,24071.2,-266.975,10643.8
1.24161e+08,45.1737,1,2.65335,5556.85,-4704.01,-22750.8
1.24192e+08,9.30175,1,2.66653,-1565.33,1304.7,-29206.6
1.24457e+08,169.061,2,2.62765,-26193.2,-23589.5,-22992
1.24459e+08,130.705,0,2.8823,11227.2,21109.9,-15238.1
1.24513e+08,141.215,1,2.68693,-7858.19,12950.2,-12786.8
1.24536e+08,95.2577,0,2.61314,9854.66,7981.92,-13187
1.2458e+08,121.886,0,2.81187,8409.73,6186.25,-5380.01
1.24747e+08,141.795,0,2.85975,15229.9,15829,-8617.94
1.24828e+08,16.9357,2,2.85739,-829.875,-2630.86,-26448.3
1.24855e+08,115.844,2,2.79253,-20867.8,-9522.33,-21896.9
1.2489e+08,5.05659,1,2.85397,702.462,639.567,-28266.1
1.2491e+08,4.67482,2,2.69753,85.2046,-295.079,-27883.3
1.2521e+08,10.5456,2,2.61984,-417.257,-1342.35,-27015.5
1.25247e+08,70.5321,0,2.67693,7656.72,-12302.4,-25186
1.25513e+08,134.732,2,2.78703,18437.7,-9835.93,-9645.58
1.26309e+08,18.8069,2,2.85657,3892.87,-594.787,-28404.2
1.26323e+08,142.115,2,2.62316,-5346.33,-28889,-22323.1
1.26438e+08,85.1684,0,2.68647,18054.1,-6.65933,-29592.4
1.26506e+08,50.5837,1,2.65331,8847.09,5456.25,-26407.1
1.2666e+08,96.8147,2,2.53246,-6273.87,-11204.6,-12824.3
1.26663e+08,4.97598,2,2.36716,-700.426,-743.873,-28301.1
1.26836e+08,6.73169,2,2.80717,280.389,-1381.6,-28372.5
1.2687e+08,92.0125,1,2.57772,-738.797,13440.7,-14718.1
1.27091e+08,62.6356,0,2.49872,7268.64,4016.37,-18437
1.27212e+08,27.7394,0,2.95332,-3778.47,-4262.45,-29839.1
1.27656e+08,25.0163,2,2.99037,-1405.99,-2045.87,-24150.2
1.27958e+08,95.8739,1,2.73839,-3225.97,228.989,-25650.9
1.28311e+08,78.2721,1,3.03678,-9495.41,5078.82,-16388.4
1.28328e+08,99.132,1,2.68027,-5588.03,14149.4,-14427.9
1.28408e+08,62.5157,0,2.53949,2350.05,12025.1,-23783.8
1.28496e+08,34.5995,2,3.04074,-5787.29,-4518.73,-28472
1.28768e+08,72.3973,2,2.58447,880.977,-15329.9,-29899.6
1.28873e+08,17.2495,1,3.0295,750.729,-3216.34,-27536.5
1.29012e+08,43.1846,0,2.93015,8239.85,3914.79,-28206.3
1.29115e+08,133.17,0,2.53295,1243.53,-11111,-2982.05
1.29119e+08,66.5405,2,2.59489,4834.42,-13279.5,-28443.9
1.29184e+08,44.5637,1,2.99079,5324.44,7700.59,-27995.2
1.29224e+08,78.1513,1,2.7073,-23.0095,12849.7,-18406.8
1.2924e+08,7.63878,0,2.45275,1536.99,755.667,-28733.3
1.29455e+08,77.7247,1,2.83268,1186.7,-9031.79,-22077.6
1.2962e+08,120.623,0,2.80229,11551.7,3564.74,-6465.03
1.29797e+08,170.092,2,2.91445,-2645.86,-22138.7,-869.161
1.29846e+08,102.016,2,2.73526,6764.41,-9145.7,-10570.7
1.29985e+08,83.2403,0,2.79635,15990.9,-1940.99,-21748.2
1.3103e+08,22.7765,2,2.83999,-3543.67,-584.651,-25576.4
1.31082e+08,94.5458,1,2.37464,9040.76,-4211.02,-11499
1.31114e+08,24.0043,0,2.76013,5074.74,998.93,-29092.2
1.31154e+08,53.3324,1,2.91363,-7730.93,1433.52,-27229.1
1.31234e+08,94.9936,2,3.02326,-10465.5,-13868.4,-18945.1
1.31615e+08,64.0725,1,2.91043,-1471.68,13457.7,-29286.9
1.31961e+08,188.559,0,2.39822,-11500.4,17356.3,5173.91
1.32441e+08,175.672,2,2.68978,-1040.36,-27871.7,-4371.82
1.32705e+08,146.223,2,2.44036,1052.04,-21802,-6857.18
1.33049e+08,127.414,2,2.88067,-19975.1,-16253.6,-21229.1
1.33291e+08,88.443,1,2.58966,-17936.2,-3380.38,-24572.6
1.33303e+08,104.143,2,2.61664,-15911.4,-14327.2,-23407.6
1.33325e+08,194.297,0,2.99318,-13854.6,-27163.5,-23388.1
1.33346e+08,124.472,0,2.80286,20599.3,16297.6,-28756.3
1.33485e+08,63.1243,0,2.57374,7797.23,-10879,-28103.9
1.34061e+08,123.07,0,2.6356,-13408,2721.39,-6816.29
1.34916e+08,34.4255,0,2.39381,-4724.44,-5174.1,-27007.2
1.3517e+08,9.7356,1,2.55167,-1231.61,-1619.26,-28573
1.35416e+08,16.0307,0,2.7701,1807.59,-1645.04,-26441
1.35821e+08,9.84361,2,3.01468,-564.903,-1738.62,-27694.1
1.35843e+08,130.162,0,3.02229,21806.9,-12042.9,-17602.6
1.36103e+08,99.427,2,2.92562,4822.92,-6131.69,-14564.7
1.36269e+08,21.0869,0,2.83898,2315.05,-3858.84,-28544.5
1.36279e+08,16.0897,2,2.82766,-2338.5,-2572.16,-28784.2
1.36351e+08,23.5429,2,2.60744,3418.05,-2138.72,-25908
1.36662e+08,83.6219,0,2.50096,10222.5,-12163.4,-20944.3
1.36795e+08,14.8971,0,2.70275,-655.606,-2497.82,-27049.1
1.3692e+08,20.53,0,2.85801,-110.58,-3149.55,-25856.4
1.37634e+08,63.5949,2,2.93951,-89.343,-11340.5,-21675.7
1.37655e+08,105.834,1,2.89751,-990.35,18408.6,-28344.1
1.37725e+08,25.7829,1,2.83524,2992.35,4436.44,-27677.6
1.3778e+08,73.6477,1,3.00599,-2638.81,9600.02,-16949.3
1.38004e+08,49.3043,1,3.03539,-4193.35,9538.43,-29585.4
1.38079e+08,46.9371,0,2.59555,3745.12,2630.93,-21062.7
1.38238e+08,29.2507,1,2.71602,3127.21,4630.92,-26148
1.38783e+08,6.33165,1,2.47654,-670.53,419.641,-27698.7
1.39047e+08,151.606,1,2.47552,4489.53,29035.5,-15830.3
1.39059e+08,37.3243,2,2.97395,-568.293,-7518.27,-26505.2
1.39278e+08,96.814,1,2.46492,-6464.66,-13229.7,-14615
1.39487e+08,40.8654,1,2.81529,2697.55,5255.06,-22551.4
1.39681e+08,78.3299,0,2.5394,-13477.5,6739.25,-22082.4
1.39879e+08,34.8246,2,2.80705,4601.48,2152.58,-23592.4
1.39926e+08,109.293,0,2.63755,17096.5,15203,-25333
1.40213e+08,33.8986,0,2.88452,-3274.12,-509.104,-22568.4
1.40234e+08,57.3591,0,2.61309,3316.71,7514.26,-19885.6
1.4051e+08,20.8181,2,2.73515,1851.93,3744.76,-27733.4
1.40626e+08,135.95,0,2.90392,9498.85,-143.982,-17298.4
1.40901e+08,92.9179,1,2.73537,-4455.3,18965.1,-26166.4
1.41064e+08,86.5238,2,2.74458,-15759.7,399.061,-19625.6
1.41321e+08,16.9109,1,2.38515,2773.74,-285.802,-26629.6
1.41382e+08,51.4142,1,2.60658,-2830.56,-4200.99,-19223.3
1.41653e+08,110.469,2,2.99021,-11049.4,15225.1,-15346
1.41966e+08,68.0177,1,2.66363,-6033.8,11988.6,-23572.8
1.4208e+08,15.8274,1,2.45767,-2630.24,-1746.19,-27720.1
1.42152e+08,78.4272,2,2.44952,8684.26,-11331.3,-20343.1
1.4232e+08,116.741,1,2.95588,15595.8,10098.6,-12837
0,116.43,2,2.63903,0,0,0
1.42342e+08,166.626,0,2.38913,21940.6,-11604.6,-3748.46
1.42414e+08,14.2774,0,2.88699,3095.63,231.168,-28786.2
1.42472e+08,52.4992,1,2.83262,35.7759,7056.5,-20290.6
1.42579e+08,40.8442,0,2.45031,7814.47,-3745.4,-27941.2
1.42735e+08,48.119,2,2.68029,-3118.01,-9544.01,-26976
1.43088e+08,101.074,0,2.52277,12690.9,-9266.59,-14261
1.43134e+08,68.1066,0,2.46686,755.124,12752.2,-24844.8
1.43808e+08,140.701,1,2.90208,-16766.5,21060.6,-16480.9
1.43841e+08,2.16563,2,2.45766,-319.311,-169.694,-28484.4
1.43903e+08,22.3072,1,2.67874,-3622.83,3177.13,-28668.7
1.44022e+08,24.9371,2,2.85303,-374.05,-4374.02,-25827.8
1.44333e+08,121.898,0,2.45624,7815.74,-10855.8,-6782.86
1.44334e+08,20.378,1,2.36819,-4014.28,-1689.35,-28868.7
1.44499e+08,43.5806,1,2.74722,1651.35,-4174.1,-24357
1.4474e+08,73.0007,2,2.53441,3322.3,-14347.6,-24020.7
1.45243e+08,61.9524,0,3.0517,-6810.2,10968.4,-27883.4
1.45337e+08,62.0764,0,2.79422,8557.38,-8065.09,-22998.8
1.45635e+08,3.19149,2,2.38066,-212.398,-655.769,-29214.6
1.45923e+08,3.13501,2,2.53943,-617.692,-314.229,-29163
1.45947e+08,249.845,2,2.79005,-14522.8,-28928.3,12648.3
1.4625e+08,138.887,1,2.77935,-8530.15,-18597.2,-8009.41
1.46533e+08,2.56225,2,2.87344,-570.769,42.2382,-28690.8
0,2.56243,2,2.42947,0,0,0
0,2.40596,1,2.51625,0,0,0
1.46538e+08,18.2227,0,2.60696,850.475,-3323.06,-27010
1.46643e+08,219.981,1,2.46952,17229.9,-879.639,-2321.24
1.47143e+08,179.997,2,2.52978,-1131.94,25819.7,-1017.77
1.47353e+08,109.764,1,2.71798,-13109.3,3235.21,-17555.2
1.47512e+08,37.0694,1,2.40042,-6966.55,-2666.31,-26307.1
1.48021e+08,4.16504,0,2.48934,932.68,-294.094,-28823.9
1.48234e+08,60.7618,2,2.64836,-152.386,-5219.4,-17080.2
1.48615e+08,87.2468,0,2.76255,74.8111,-14005.5,-16924
1.48654e+08,20.8521,1,2.96406,-1299.76,4254.24,-28990.3
1.487e+08,73.9763,1,2.59554,-13584.9,-2419.01,-21461.2
1.48968e+08,72.9918,2,2.38712,-2918.93,-8179.6,-15991.4
1.49301e+08,28.3253,0,3.01977,4575.61,-3900.76,-29096.3
1.49444e+08,51.6143,0,2.97492,-6402.84,7130.39,-23850
1.49782e+08,53.4073,0,2.84378,997.361,7734.58,-20720.4
1.4983e+08,10.0206,1,3.00572,-21.3431,2020.15,-27962.3
1.50024e+08,165.174,1,2.59011,-3246.48,-18768.4,342.25
1.50085e+08,50.896,2,3.04108,-8781.03,-6172.04,-28385.5
1.50165e+08,48.714,0,3.03004,1371.09,-1215.43,-22909.3
1.50594e+08,81.7093,2,2.56726,-15103,2123.27,-20668.6
1.51132e+08,84.2787,0,2.44496,15015.3,2895.91,-19494.8
1.51188e+08,139.05,2,2.58488,4446.91,-26438.9,-16648.1
1.5119e+08,15.4882,1,2.65269,-3215.41,641.639,-28276.8
1.51423e+08,151.664,2,2.56971,-4383.64,-19625.4,-3813.44
1.5152e+08,152.502,0,2.86797,20314.6,22419.9,-18048.4
1.51611e+08,129.691,2,2.78491,-8117.56,-16072.6,-8231.11
1.51655e+08,50.4332,2,2.82461,-9880.86,3886.69,-29784.3
1.51709e+08,27.5284,2,2.41697,-4429.83,-3727.22,-27572.1
1.51714e+08,156.841,2,2.79732,8318.74,-22859.9,-6472.21
1.51783e+08,79.4464,2,2.49221,-11650.7,-12201.6,-29777.1
1.52019e+08,79.6041,0,2.45666,5527.13,-11046,-17363
1.52166e+08,64.4185,2,2.88763,6417.79,-5673.95,-18333.8
1.52343e+08,83.9815,1,2.45684,-15828.9,955.784,-20682
1.52452e+08,41.9268,1,2.48529,7101.35,-683.532,-23589.7
1.52466e+08,158.43,2,2.40066,13725.8,-26735.5,-13869.2
1.52501e+08,70.0115,0,2.86225,9993.86,-2427.91,-18213.5
1.52624e+08,130.01,2,2.60258,-17134.4,4476.72,-8144.44
1.52833e+08,150.111,1,2.80361,12308.5,-5735.88,-335.943
1.53044e+08,56.2303,1,2.67045,6548.66,9562.49,-26070.8
1.53287e+08,2.16132,2,2.69636,321.912,-415.937,-28809.6
1.53308e+08,52.8557,1,2.9773,-4347.86,-6404.9,-20910.4
1.53562e+08,20.0488,0,2.98573,-2197.29,1023.43,-25413
1.53643e+08,146.497,1,2.87577,-11282.8,27758.8,-21527.5
1.54227e+08,3.14902,2,2.74696,-162.535,307.315,-28298.9
1.54298e+08,99.5685,0,2.7136,12256.1,16938.3,-26321.2
1.54403e+08,84.8864,0,3.02573,5780.49,7828.77,-13901.3
1.54454e+08,223.695,2,2.7226,15586.7,13155.8,13591.4
1.54465e+08,107.043,1,2.74207,-6017.85,2212.21,-28506.3
1.55083e+08,156.555,2,2.68431,-26185.3,20127.4,-28980.3
1.55235e+08,70.2927,0,2.93935,13973.7,2169.18,-24274.5
1.55842e+08,83.8075,1,2.60105,1750.24,10900.3,-14931.7
1.55939e+08,46.2314,1,2.89044,-6224.63,5320.18,-23454.1
1.56118e+08,13.6206,1,2.48341,-1703.82,2199.96,-27756.5
1.56433e+08,12.0368,0,3.06132,-179.422,-2421.19,-28099.9
1.56698e+08,22.2594,2,3.059,-3546.72,-689.085,-28558.6
1.57018e+08,37.2902,1,2.88311,-6301.32,4802.38,-28292.4
1.57275e+08,107.011,2,2.72619,20280.5,1333.99,-19159.7
1.57344e+08,142.384,2,2.6488,-5608.67,-21883,-8931.69
1.57574e+08,62.7131,1,2.53106,-11159.6,6283.27,-25099.8
1.57586e+08,111.606,1,3.05874,17064.2,-14251.8,-25692.1
1.57707e+08,85.1691,0,2.87615,12344.5,-13039.4,-27942.6
1.57818e+08,57.0816,2,2.79817,-6604.17,-4533.92,-19810.7
1.57918e+08,78.2093,0,2.39785,-11473.7,-11274.1,-25091.4
1.57982e+08,174.333,2,2.93797,16450,-21072.4,-4275.94
1.58189e+08,299.173,2,3.05922,-920.401,-12961.8,17454.4
1.58254e+08,30.0271,0,2.52811,-1063.24,-5662.51,-26192.2
1.58401e+08,148.13,1,2.96145,28009,6025.11,-16798.7
1.58476e+08,218.061,1,2.59862,-11512.5,-25795.1,6697.08
1.58704e+08,10.2371,0,2.65421,2161.3,-685.745,-28952.2
1.58945e+08,84.7528,0,2.72043,-377.48,-10708.5,-14543.8
1.59012e+08,17.5537,1,2.41296,-1810.82,3215.96,-29856
1.59118e+08,44.2597,1,2.53748,6084.78,-5669.07,-24635.9
1.60147e+08,76.8746,1,2.38344,-14163.2,-3505.74,-21524.8
1.60355e+08,21.631,2,2.94214,-3040.18,598.348,-25455.4
1.60457e+08,125.729,1,3.00611,11944.7,22521.8,-22028.9
1.6046e+08,17.4013,0,3.00449,-2863.86,-1898.01,-27757.8
1.60683e+08,19.5813,1,2.47542,1213.24,4019.07,-29151.1
1.61002e+08,151.465,1,2.81658,-11497.8,-22067.7,-9001.22
1.61082e+08,147.277,0,2.63454,-2232.97,-24233.5,-9544.3
1.61097e+08,89.5465,0,2.66226,7407.74,15975.2,-21826.5
1.61212e+08,3.05554,2,2.89887,60.4101,442.366,-28421.1
0,3.06931,2,2.81218,0,0,0
1.61293e+08,54.5825,2,2.57177,4542.63,-6182.73,-20186.1
1.61494e+08,10.7205,1,2.98011,1929.07,1116.86,-29274.9
1.61806e+08,66.7181,0,2.91383,-10324.8,-2464.49,-19752.1
1.61819e+08,101.289,1,2.75491,-5581.07,18577.5,-19821
1.61896e+08,54.2891,0,2.93286,7976.54,2489.94,-20978.6
1.61937e+08,133.047,0,2.47423,-4019.07,-13526.2,-7615.69
1.62096e+08,199.192,0,2.41283,-17849.7,-28766.4,-4031.02
1.62103e+08,24.2722,0,2.52751,4256.31,2644.01,-27330.4
1.6229e+08,122.616,2,3.03441,2955.98,-25577.1,-29049
1.62472e+08,74.82,0,2.97584,7907.25,13617.2,-28714.4
1.62541e+08,3.81811,0,2.78821,683.135,-517.145,-29052.3
1.63238e+08,8.08478,0,2.57633,698.381,-733.37,-27401
1.63269e+08,219.23,1,2.55454,20430.9,-7510.95,12002.8
1.63628e+08,2.13574,1,2.78408,-184.58,442.76,-29069
1.63917e+08,54.1055,2,2.48538,-1578.14,-9902.53,-23157.5
1.6397e+08,208.756,0,2.70641,14819,-812.745,5921.75
1.64251e+08,111.772,0,2.73289,6309.2,18792.6,-16071
1.64343e+08,92.8966,1,2.46593,-12591.4,9130.1,-16709.2
1.65673e+08,211.609,1,2.71392,17621.9,18994.3,7473.38
1.65709e+08,66.75,1,2.76412,-9925.29,-6673.98,-21418.5
1.65725e+08,200.016,2,2.98392,17007.8,24897,-2911.95
1.65819e+08,118.937,0,3.05947,20960.8,-11283.5,-21213.9
1.6593e+08,92.833,2,2.62106,-19545.3,-2146.86,-29372.7
1.66214e+08,30.3059,2,2.96971,-4417.2,-3542.83,-25763.3
1.6644e+08,19.7011,2,2.95786,-2723.31,2092.92,-26504
1.66651e+08,103.82,0,2.82129,8227.22,20166.8,-27232.5
1.66745e+08,144.353,1,2.94096,-23356.1,16056.2,-17900.2
1.66849e+08,8.12251,0,3.01828,1783.01,-226.66,-29037.8
1.66887e+08,17.1338,0,2.68692,3073.2,612.578,-26866.3
1.67075e+08,64.6313,1,3.05511,8957.56,-2833.98,-19109.9
1.67624e+08,50.1434,0,2.49634,8542.13,-5221.27,-25131.1
1.67848e+08,140.726,1,2.91996,-26800.4,-1028.38,-16431.3
1.6803e+08,121.157,0,2.64334,12864.6,8815.02,-8514.44
1.68174e+08,66.5835,2,3.01897,8340.55,4476.62,-18662.5
1.6834e+08,64.941,1,2.61798,11940.5,-4931.73,-24425.1
1.68463e+08,266.173,0,3.01537,6244.55,-5901.84,-25929.8
1.6854e+08,3.66031,1,3.02588,500.197,-118.447,-28269.9
0,3.32979,0,2.95079,0,0,0
1.68547e+08,61.7504,2,2.79922,4804.48,-10791.1,-23338.5
1.68662e+08,14.3,1,2.41409,-2967.78,132.872,-27999
1.68999e+08,49.1002,1,2.56152,-5798.16,8056.01,-25472.5
1.69007e+08,21.1524,2,2.50975,-4435.53,23.6148,-27904.7
1.69027e+08,96.8759,2,2.37208,5570.93,-8910.43,-11245.3
1.69177e+08,58.4795,0,2.37471,7257.28,-3508.21,-19359.9
1.69862e+08,126.543,1,2.73952,3278.73,18112.1,-9501.38
1.69954e+08,2.53138,0,2.47651,26.6445,-525.373,-29067.3
1.70153e+08,28.5591,2,2.69616,-5361.28,-2910.09,-28386.5
1.70416e+08,2.03184,2,2.91821,-457.776,-165.847,-28993.6
1.70431e+08,124.176,0,2.81611,-8325.12,14679.7,-8954.97
1.70658e+08,18.4804,1,2.93421,-2135.29,-119.637,-25577.6
1.70811e+08,81.435,0,2.90516,9528.05,6745.39,-18037.7
1.71136e+08,107.833,1,2.76385,18227.4,7845.24,-17820.9
1.71205e+08,15.2993,2,2.4636,-853.336,-994.083,-25822.1
1.71211e+08,83.524,0,3.01091,-5257.32,-950.972,-21240.9
1.71213e+08,140.113,2,2.84345,-16726,-13220.5,-8419.01
1.71449e+08,41.5517,1,2.69472,-2045.44,4585.02,-21599.4
1.71703e+08,13.6126,1,2.40009,-451.438,2762.47,-27808.6
1.71752e+08,99.7038,2,2.96855,6732.78,-11387.5,-12580.3
1.71793e+08,28.5102,1,2.8409,-5761.86,1880.84,-29100.8
1.7231e+08,30.7542,1,2.81833,-5.90935,-5731.22,-25949.9
1.72487e+08,30.7189,2,2.84962,-5516.64,-2793.84,-26663.1
1.72488e+08,126.329,0,2.94204,22626.6,13841,-26824.2
1.72626e+08,59.9426,2,2.78805,-8460.41,-8475.54,-24577
1.72806e+08,57.2657,0,2.71301,11458.8,3988.68,-28121.6
1.73445e+08,28.823,0,2.9867,2903.67,4725.28,-26295.4
1.73503e+08,15.5683,2,2.58263,-2897.86,-730.851,-27275.3
1.73546e+08,168.734,0,2.98476,6373.87,29166.5,-9851.28
1.73595e+08,128.527,1,2.94044,20611.3,-7627.8,-13280.6
1.73961e+08,69.5465,0,2.54948,12618.7,4900.19,-22878.4
1.74144e+08,21.3573,0,2.89591,2211.68,3711.4,-27437.4
1.7427e+08,42.2267,0,2.89994,4873.09,-1374.69,-21481.3
1.7431e+08,33.3404,0,3.04259,1997.34,-3135,-23227.1
1.74408e+08,64.1084,2,2.75382,4301.59,-12863.4,-28952.4
1.74448e+08,126.144,0,2.86697,13263.6,-7120.44,-6953.64
1.7479e+08,29.6511,1,2.61977,-4738.39,-2337.16,-25441.3
1.748e+08,97.4871,0,2.93432,4506.72,10690.7,-11939.3
1.75821e+08,82.7445,0,2.82033,9932.04,5777.43,-15689.4
1.75934e+08,2.8387,0,2.65964,302.817,-479.493,-28527.6
1.75978e+08,12.8845,2,2.74253,-2651.14,-426.74,-28151.2
1.76211e+08,36.8245,1,2.69381,-3461.48,-4070.87,-23189
1.76216e+08,176.193,1,3.05145,-6818.65,4035.4,-17827.5
1.76267e+08,22.0554,1,2.53829,-2506.8,3943.79,-29682.6
1.7652e+08,141.862,2,2.57386,-17502.1,-14255.1,-9004.95
1.76574e+08,43.1105,2,2.4428,5366.21,4729.58,-23267.6
1.77293e+08,46.33,2,3.03912,-5228.23,1752.33,-20814.6
1.77505e+08,132.629,2,2.99396,-10775.1,4917.74,-3713.99
1.77509e+08,29.1147,2,2.38816,6080.36,-735.03,-29284.6
0,28.7128,0,2.93716,0,0,0
1.77946e+08,34.3745,2,2.72483,-3730.62,-689.119,-22650.7
1.78621e+08,129.222,2,2.65134,-19496.8,9832.04,-12496
1.78701e+08,147.844,2,2.58341,-29041.8,-4068.92,-17924.6
1.79175e+08,72.633,2,2.57713,-4099.38,-12381.4,-20574.3
1.79235e+08,4.93177,1,2.78928,-381.06,511.207,-27931.9
1.79332e+08,63.5395,1,2.4964,-6778.47,-9457.51,-22311.2
1.79406e+08,47.9738,0,2.60409,-8842.21,724.723,-24031.3
1.79786e+08,138.122,1,2.8511,1238.72,11020.8,-1978.37
1.80424e+08,113.98,2,2.77761,-18620.2,8917.21,-16555.6
1.80605e+08,128.206,0,2.68323,21124.7,15213.9,-21232.4
1.80625e+08,89.1385,0,2.61114,15137.2,-1631.21,-17656
1.80821e+08,216.609,2,2.74627,4363.03,-26247,8274.77
1.80913e+08,4.40762,2,3.01113,-842.658,116.575,-29334.8
1.80937e+08,17.465,2,2.40921,2144.1,-2452.29,-27002.2
1.81529e+08,82.1597,2,2.60572,-14973.2,-8913.66,-27970.2
1.81972e+08,46.5753,1,2.98459,9232.86,206.427,-25678.9
1.81993e+08,0.93255,1,3.0226,-37.1327,62.3238,-28621.8
0,0.930964,1,2.95994,0,0,0
0,1.13933,2,2.63661,0,0,0
1.82063e+08,42.9345,0,2.56592,1074.61,5715.22,-21873.8
1.83117e+08,74.9287,1,2.5364,6658,-4383.86,-16896.6
1.8343e+08,173.177,1,2.46464,18080.9,18995.9,-3269.45
1.8361e+08,164.818,2,2.92045,-22681,-11411.1,-5253.85
1.8369e+08,18.0416,0,2.87637,3508.25,-581.165,-27300.8
1.83849e+08,67.0665,0,2.86663,6441.98,3476.51,-16846.6
1.83958e+08,67.9974,1,2.97312,-3037.59,-10181.2,-19338.1
1.8438e+08,13.4896,0,2.89867,1222.81,838.247,-26361.6
1.84478e+08,139.459,1,3.00846,17353.7,-6932.36,-6396.62
1.84568e+08,86.0542,1,2.70602,13043.4,5309.6,-21364.8
1.84748e+08,17.2908,0,2.87213,2342.55,491.007,-26016
1.85006e+08,169.206,0,2.69938,16818.4,-23421.2,-7760.6
1.85314e+08,39.7337,0,2.99594,1452.23,-7992.03,-26892.5
1.85619e+08,145.192,2,2.78459,16995.6,-21254.7,-18690.8
1.85646e+08,13.3318,1,2.60101,2553.91,1058.16,-29387.5
1.85966e+08,86.1406,0,2.5219,-6309.69,16071,-23123.8
1.86065e+08,19.6244,1,2.37635,95.7965,3788.11,-26914.6
1.86705e+08,21.078,0,2.70981,4247.52,-262.665,-27258.9
1.86916e+08,9.03598,2,2.66675,-224.915,-1083.31,-27216.9
1.87342e+08,168.554,2,3.05991,-7349.67,-26089.5,-6132.62
1.87349e+08,11.225,2,2.86812,-2048.94,389.7,-27713.4
1.87639e+08,60.0671,0,2.9502,4417.73,-3757.77,-17634.7
1.879e+08,137.319,2,2.9616,13072.4,-20247.2,-12965
1.87982e+08,100.459,1,2.59377,-16231.8,-12281.4,-22818.8
1.88411e+08,150.334,1,2.84824,661.198,28483.9,-14989.9
1.8845e+08,63.0891,0,2.87214,4310.61,4340.57,-17039.7
1.89021e+08,48.5121,0,2.74992,10206.5,-1244.92,-27943
1.8922e+08,92.5451,0,2.84137,-4846.21,-737.892,-22037.9
1.89849e+08,90.8893,0,2.80774,16194.9,7364.16,-26311.2
1.89969e+08,47.0629,0,2.57103,-6676.64,182.101,-21505.8
1.90007e+08,102.165,2,2.81102,-12430.1,-17156.7,-24653.7
1.90244e+08,72.141,2,2.58981,-9278.43,-4793.3,-17678.4
1.90331e+08,22.9432,1,2.67875,-4906.6,127.894,-28964.7
1.90453e+08,9.43948,1,2.91987,635.823,-1131.33,-27384.7
1.90803e+08,241.321,1,2.73601,3483.9,19000.1,18207.2
1.91064e+08,153.11,0,2.59033,21780.2,-23158.8,-22553.6
1.91087e+08,3.79229,2,2.39441,261.236,-122.988,-28086.7
1.91121e+08,97.2549,1,2.87809,-17779.4,-1949.25,-28186.8
1.91128e+08,135.925,2,2.95894,1095.79,-6161.71,-18213.6
1.91203e+08,8.51564,2,2.45383,-169.507,1322.7,-27704.9
1.91369e+08,2.83301,2,2.48848,-180.583,-437.049,-28347.1
1.91748e+08,83.8636,1,3.03885,137.711,143.36,-28853.5
1.92075e+08,85.5696,1,2.92039,9172.74,-6049.8,-17472.9
1.92153e+08,50.778,2,3.02997,8178.95,4919.78,-24223.7
1.92204e+08,118.452,0,2.79204,21878.5,-11329.2,-25955.4
1.9286e+08,114.141,0,2.84187,-2064.77,-20553.4,-16620.4
1.92915e+08,120.678,1,2.59351,-10118.1,14850.8,-10673.3
1.92918e+08,58.1559,1,2.6927,11559.8,-3595.49,-27160.4
1.93039e+08,97.0869,2,2.88628,-7576.77,-4715.57,-10457.1
1.93076e+08,31.5053,0,2.87391,1264.4,-3878.58,-23568
1.93112e+08,4.54025,0,2.55107,536.117,861.919,-28630.4
1.93197e+08,26.1142,1,2.56241,-2585.55,3859.73,-25693
1.93415e+08,126.129,2,2.84574,-16864.9,4233.5,-29968.9
1.93464e+08,69.2621,1,2.67116,-14634.6,274.228,-27876.9
1.93625e+08,213.888,1,2.62666,-5134.77,7547.97,-27678.5
1.94053e+08,55.8723,0,2.90173,-6232.3,6548.54,-21383.8
1.9406e+08,9.53692,2,2.96111,-252.856,-2066.62,-28464.9
1.94144e+08,94.9384,2,3.0539,-7623.31,-10533.1,-13712.6
1.94272e+08,128.298,0,2.94995,11247.6,-6259.3,-5171.51
1.94395e+08,33.3475,1,2.99183,-1712.38,-6587.62,-27424.5
1.94438e+08,20.7559,0,2.53078,996.511,-3727.8,-26635.1
1.94772e+08,175.794,0,2.69764,2759.46,21537.8,1204.24
1.94776e+08,89.2367,0,2.79219,11838.6,-5037.57,-16193.1
1.94856e+08,97.5428,0,2.95684,-8836.67,11004.2,-19742.7
1.94948e+08,25.0391,2,3.03435,2532.63,-421.528,-24242
1.95195e+08,94.1446,1,2.83101,-6284.17,6055.53,-11017
1.95658e+08,19.3892,1,2.52036,1932.5,2372.87,-26028.6
1.96089e+08,35.9466,0,2.58769,6158.28,-3300.14,-25621.8
1.9653e+08,119.475,2,2.92651,18179.9,-7065.62,-13047.7
1.96899e+08,19.056,0,2.95421,142.259,3991.59,-28221.3
1.96978e+08,5.78461,2,2.67635,-305.139,-994.256,-28088.4
1.97037e+08,24.2733,2,2.77844,-2792.09,-3027.54,-25658.6
1.9709e+08,95.2447,0,2.7429,10527.2,-17154.2,-28280.8
1.97272e+08,9.89859,2,2.85275,-1551.21,-1467.58,-29316.2
1.97479e+08,117.22,2,2.6116,1381.75,-24782.3,-28236.5
1.98034e+08,26.7703,2,2.77448,-435.502,-5685.5,-29442.9
1.98495e+08,8.62514,2,2.56414,-1646.71,-502.29,-28030.8
1.98649e+08,13.5826,0,2.51037,1095.08,1370.39,-26496.6
1.9872e+08,57.8575,2,2.66463,-3313.55,5592.48,-18546.3
1.98799e+08,36.7257,1,2.65224,-5257.66,-757.063,-23139.1
1.98878e+08,123.658,1,2.54824,22129.6,11137.8,-20462
1.98996e+08,13.4176,2,2.66121,-2445.62,-1162.68,-27809.3
1.99348e+08,130.457,0,2.83934,25982.8,535.084,-20689.4
1.9941e+08,10.4978,0,2.79862,772.583,-1487.75,-27332.8
1.99431e+08,39.1092,1,2.95849,-2732.35,-3863.66,-22141.7
1.99432e+08,29.8597,1,2.67179,6275.72,471.462,-28716.3
0,30.1021,1,2.67179,0,0,0
1.99444e+08,28.995,0,2.39954,2516.8,-5500.78,-27561.3
1.99815e+08,29.5694,1,2.58999,-4354.35,-1311.78,-24554
1.99925e+08,34.7645,2,2.77035,-5133.73,-736.023,-23613.7
2.00159e+08,179.134,2,2.99165,-28883.3,-15047.8,-10002.9
2.00291e+08,27.0216,1,2.81955,2161,1118.79,-23678.8
2.00746e+08,92.8019,2,3.03857,13357,-3132.53,-15331.9
2.00951e+08,36.929,1,2.59619,2313.72,4579.48,-22891.7
2.01102e+08,5.74565,2,2.71225,-703.404,-838.477,-28144.9
0,5.75691,2,2.95822,0,0,0
2.01112e+08,40.7938,2,2.88843,7733.31,-3664.04,-27962.6
2.01283e+08,6.19764,0,2.84631,1343.41,399.756,-28810.3
2.01319e+08,148.649,1,2.89828,-7717.26,18681.2,-4985.22
2.0155e+08,61.7693,2,2.94541,12631.5,-1624.57,-26483.7
2.01603e+08,190.36,1,2.44295,-27616.3,29264.9,-25848.1
2.02036e+08,40.7422,2,2.54446,-6182.67,-6050.01,-28008.3
2.0255e+08,84.9712,1,2.97947,-11898.8,5508.38,-16701.6
2.02899e+08,113.856,2,2.51274,-17775.2,-6093.24,-13691
2.03179e+08,166.166,0,3.05585,23958,-16664.1,-9858.92
2.03279e+08,16.906,1,2.82702,1463.42,-1385.7,-25925.6
2.03314e+08,28.5006,0,2.42952,2577.61,673.028,-23387
2.03371e+08,47.3596,2,2.81993,-3080.2,-258.891,-27062.6
2.03751e+08,9.19036,2,2.70175,-554.049,-1875.33,-29444.1
0,9.19325,2,2.6356,0,0,0
2.03858e+08,191.615,0,2.86135,28962.6,4940.41,-3923.77
2.04127e+08,102.602,2,2.84291,8069.22,-17978,-19926.5
2.04556e+08,5.13002,0,2.40302,507.235,-784.427,-28191.1
2.04625e+08,50.9851,2,2.42176,5324.71,3589.8,-20185.1
2.04807e+08,13.3492,0,2.86543,1030.33,-2641.33,-28604.7
2.04897e+08,129.723,2,2.4045,-6879.29,-26010.7,-22919.8
2.05446e+08,63.2245,1,2.62614,-6804.5,-5138.64,-18545
2.05609e+08,44.8103,0,2.50745,-6108.15,1972.9,-21921.5
2.05614e+08,221.402,1,2.51182,-18625.1,9226.93,12240.2
2.05729e+08,32.8643,1,2.69486,511.337,6891.72,-27526.3
2.05772e+08,10.7382,1,2.42129,-1819.41,1473.19,-28815.9
2.05824e+08,41.0952,2,2.60354,-4536.1,-6094.44,-24442.7
2.06914e+08,32.6364,1,2.72726,874.297,6548.84,-26639.1
2.06935e+08,103.025,0,2.9783,2162.9,16457,-15027.6
2.07025e+08,159.044,1,2.87265,20106.5,-13432.1,-5856.4
2.07777e+08,47.0859,2,2.68798,7389.73,-4339.26,-23784.4
2.08069e+08,31.3501,1,2.81264,-2796.5,-5886.99,-28857.8
2.08152e+08,59.2609,2,2.98344,-2196.33,-5461.39,-17839.7
2.08725e+08,9.07213,1,2.40697,65.8981,2009.63,-28780.6
2.08978e+08,143.901,1,2.80872,304.03,-17130.3,-3911.89
2.0903e+08,35.0025,2,2.98197,4015.42,262.417,-22715.4
2.0922e+08,66.0465,1,2.8322,-11936.4,6444.95,-25492.1
2.097e+08,166.711,1,2.58745,-1243.41,27910.5,-7279.93
2.09844e+08,11.5239,0,2.39859,679.494,-2284.14,-29517.8
2.10555e+08,7.56702,2,2.45921,-776.104,960.495,-27826
2.10599e+08,240.869,2,2.65031,189.974,1025.34,-27155
2.10816e+08,87.1775,1,2.612,-8701.36,-8102.23,-14776.9
2.11055e+08,62.2675,0,2.97883,8269.41,-211.121,-18639.9
2.12077e+08,163.519,0,2.7778,-15095.6,19923.5,-5217.5
2.12231e+08,216.947,1,2.65453,23993.3,7377.76,9406.53
2.1226e+08,115.92,1,2.79834,12244.5,-7752.52,-9258.47
2.12547e+08,88.8596,1,2.41543,-17548.8,-6835.14,-28279.9
2.1272e+08,126.592,0,2.75874,5735.68,23703.4,-17980.3
2.1276e+08,64.006,2,2.71161,-7748.86,-9969.71,-23852.5
2.12904e+08,15.1345,1,2.72652,-2094.03,1328.64,-26712.3
2.13169e+08,4.84514,1,2.42823,700.998,83.173,-28090.3
0,4.83333,1,2.83551,0,0,0
2.13502e+08,95.817,1,3.04787,6485.01,14065.8,-16051.7
2.1355e+08,93.2754,2,2.90811,7113.03,-15762.1,-19549.6
2.13708e+08,166.987,1,2.65513,-2383.81,-1508.17,-24933.8
2.13717e+08,21.1469,2,2.74157,-4462.59,-676.386,-28996.7
2.14009e+08,128.378,0,2.55058,3864.18,-15485.4,-6856.56
2.14085e+08,171.216,2,2.45368,-21432.9,-26530.2,-16396.1
2.14192e+08,52.3793,2,2.65698,-5608.04,-6019.92,-21345.3
2.14384e+08,51.2487,1,2.74165,-4114.02,5412.67,-20366.7
2.14789e+08,84.2491,2,2.82138,-15643.4,-1848.99,-20571.5
2.14911e+08,35.7436,1,2.81318,-7394.68,-913.2,-27558.1
2.15007e+08,41.994,2,2.599,-7477.77,4456.3,-26958.7
2.15045e+08,57.2887,1,2.91036,-7291.02,9617.26,-27711.2
2.15163e+08,163.95,0,2.75164,15297.5,-6798.08,-14871.4
2.15344e+08,41.5981,1,2.86566,-539.096,4521.08,-21310.2
2.15507e+08,87.4451,1,2.47093,1217.24,15570.9,-18817.7
2.16071e+08,34.8288,0,2.43622,2373.59,-3530.47,-22771.9
2.163e+08,38.6468,0,2.58035,2805.65,-3595.79,-22005.6
2.16597e+08,53.913,1,2.66838,4502.61,5222.19,-19794.3
2.16612e+08,172.749,0,2.7107,-25691.7,5858.1,-3810.92
2.16619e+08,60.8073,2,3.03176,-6045.43,-8375.15,-21257
2.16759e+08,235.974,0,2.58845,24804.8,-13262.6,-20462
2.1719e+08,49.0925,0,2.83137,-2491.36,3006.04,-26579.9
2.1733e+08,5.43112,0,2.85586,442.288,502.343,-27885.1
0,5.73036,2,2.74906,0,0,0
2.1773e+08,17.0014,0,2.85354,689.535,-1615.24,-25676
2.17854e+08,139.837,1,2.77573,-363.855,29429.6,-26782.3
2.17958e+08,48.0603,0,2.82665,1179.36,-6657.97,-21280.3
2.18113e+08,22.2306,0,2.38422,2475,-729.035,-24851.8
2.18618e+08,81.1357,0,2.70629,10002.2,-13846.1,-26977.2
2.18677e+08,44.0559,2,2.52959,8939.05,1967.89,-27385.2
2.18756e+08,106.983,0,2.59719,2942.03,20727.2,-20253.7
2.18825e+08,27.2284,1,2.49372,207.636,-2750.95,-23808.9
0,27.3282,1,2.80438,0,0,0
2.1885e+08,48.938,0,2.9897,7660.39,-5623.4,-24817.8
2.19633e+08,67.4064,2,2.47941,-7398.15,11093.2,-23861.7
2.19675e+08,80.6058,2,2.37681,11889.5,-12237.7,-29779
2.19691e+08,118.741,0,2.98293,19062.5,4713.15,-13406.2
2.20101e+08,174.679,2,2.61983,-14824.1,-1181.42,4938.47
2.20167e+08,159.062,1,2.59937,-13795,-19628.5,-5327.97
2.20336e+08,2.07229,0,2.8795,110.138,-426.049,-28667.2
0,2.03725,0,2.55016,0,0,0
2.20523e+08,6.75758,0,2.56807,-1006.27,-660.336,-28135.4
2.20534e+08,98.8451,2,2.80851,7411.87,8199.95,-11275.5
2.20554e+08,20.2703,2,2.78273,2242.26,-3233.86,-27087.2
2.20558e+08,103.59,0,3.04233,3641.14,10478.6,-10207.1
2.20836e+08,208.471,2,2.63928,-24798.6,29039.7,-7035.9
2.20863e+08,12.6582,0,2.66806,2092.39,-296.695,-27064.6
2.21132e+08,80.1886,1,2.62696,2533.38,-13776.9,-19435.1
2.21523e+08,26.955,0,2.80327,2399.53,-3657.27,-25149.2
2.22028e+08,11.7256,1,2.62152,-915.296,2342.78,-29483.7
2.2234e+08,15.9853,0,2.99608,-1381.01,-1564.49,-26224.8
0,15.9402,0,2.61428,0,0,0
2.22392e+08,7.38582,2,2.3814,-757.385,1067.07,-27970.9
2.22461e+08,164.271,0,2.55238,10036.6,-16563.7,19.5185
2.22579e+08,86.1939,1,2.75437,-12852.5,8926.4,-19479.4
2.22792e+08,11.2093,2,2.91637,-822.282,-2076.86,-27852.4
2.23237e+08,1.49808,2,2.87322,2.68054,-222.892,-28538.8
2.23352e+08,51.5164,0,2.94284,5010.77,-2774.84,-19600.7
2.23543e+08,23.9978,2,2.40401,-2716.97,-2088.5,-25002.3
2.24005e+08,52.7765,1,2.66401,1782.39,5985.21,-19554.4
2.24073e+08,231.023,0,2.96506,-17183.4,-11278.7,15020.7
2.24104e+08,80.0951,2,2.97858,16516.7,2273.92,-26989.8
2.24291e+08,52.039,2,2.75393,1862.04,-7394.4,-20898.8
2.24605e+08,51.6634,1,2.46094,-8895.83,-3242.44,-23316.2
2.24856e+08,53.3643,2,2.69341,7604.95,-4830.66,-22079
2.2524e+08,61.3248,0,2.43945,1555.86,-5449.34,-17131.2
2.25326e+08,102.125,0,2.82001,-10295.5,12780,-14999.1
2.25445e+08,49.7845,1,2.68241,6459.49,-5558.07,-22794.8
2.25853e+08,5.70669,0,2.92304,1262.03,146.996,-28522.7
0,5.66215,0,2.66082,0,0,0
2.2606e+08,161.899,2,2.4444,22807.1,-18523.1,-11641.6
2.26165e+08,73.6313,2,2.85889,-6375.15,-4185.35,-15598.5
2.263e+08,14.3747,0,2.72227,2796.3,940.012,-27837.3
2.26426e+08,72.8467,2,2.88808,3091.74,-14768,-25770.9
2.26459e+08,13.6429,2,2.91204,-2393.05,-693.268,-27261.2
2.26702e+08,0.240626,0,3.33339,164.09,-32.9481,-28836.9
0,0.250618,0,3.01097,0,0,0
2.26786e+08,28.8997,2,2.84251,-3329.77,-3383.03,-24916.2
2.26833e+08,232.396,1,2.81984,25634.6,14886.6,10032.4
2.26951e+08,37.3226,1,2.97799,6974.53,1833.8,-25813.9
2.2705e+08,37.0111,2,2.68653,-7257.02,-1149.64,-25983.5
2.27127e+08,71.6521,1,2.90256,-1225.95,5546.77,-14885.3
2.27155e+08,144.423,2,2.65837,-9892.25,-28676.5,-25269
2.27459e+08,58.0975,2,2.81043,-7100.19,5682.19,-20653
2.27779e+08,148.585,0,2.66385,16821,25874.8,-23194.1
2.28106e+08,22.9624,0,2.41535,4591.15,400.381,-26990.1
2.28204e+08,52.2552,1,2.43533,-10684.4,2095.77,-26459.4
2.28262e+08,26.0498,0,2.78725,1352.4,4034.39,-25335
2.28282e+08,6.57073,0,2.91459,1028.76,-828.784,-29511.1
2.28505e+08,38.484,2,2.49998,-4458.8,-6866.05,-27801.4
2.28566e+08,29.5022,2,2.55839,657.564,-4635.93,-24652.3
2.28638e+08,91.3273,2,2.92802,-6577.15,-9197.68,-13486.6
2.29225e+08,172.273,2,2.60843,-9679.49,-11500.3,-22844.5
2.29337e+08,92.5989,2,2.6151,-7471.53,-7912.04,-12543.6
2.29446e+08,4.11614,0,2.68627,-624.668,-463.58,-28517.1
2.29715e+08,131.302,2,2.67169,-12277.8,10310.6,-6299.86
2.29895e+08,2.53728,1,2.63893,90.8563,81.1416,-28293.2
2.30196e+08,14.9888,2,2.62836,892.756,2970.85,-28594.5
2.30239e+08,204.989,0,2.90546,2886.47,-27533.7,4113.19
2.30513e+08,18.0148,2,2.38147,1533.04,1518.09,-25732.3
2.30555e+08,33.9288,2,2.65462,-2392.62,-3282.5,-22876.7
2.31158e+08,89.7,0,2.76121,4942.34,-15058.2,-18523
2.31242e+08,256.038,2,2.60652,-22864.6,-1181.97,20163.8
2.31401e+08,35.8458,0,2.71103,5310.05,2947.27,-24204.1
2.31453e+08,21.927,0,2.90776,2740.68,-1164.36,-25229.5
2.3153e+08,18.8006,1,2.42012,-1962.29,-2357.42,-26353.7
2.31636e+08,2.05632,0,2.47446,512.144,73.5573,-28747.6
2.3177e+08,52.5973,1,2.90342,9065.57,6291.6,-29910.8
2.31984e+08,129.252,0,2.96337,-7517.28,21906,-14778.2
2.32143e+08,59.7692,1,2.41147,-1491.09,8818.08,-19789.9
2.32273e+08,70.2801,2,2.47597,-747.719,-14702.2,-26137.4
2.32602e+08,20.1909,2,2.43546,1177.35,-2596.3,-25583.7
2.32897e+08,6.83933,1,3.04199,-557.174,368.966,-27518.3
2.32957e+08,190.929,1,3.01152,-15984,-18045.4,3088.4
2.33002e+08,50.2187,0,2.92771,-4327.48,3147.13,-19779.1
2.33012e+08,138.307,2,2.55275,-3140.72,-398.794,-26389.1
2.3331e+08,13.2293,2,2.8244,1175.8,-2377.41,-29930.9
2.33364e+08,104.52,0,3.02666,21505.5,-1716.81,-24508.8
2.33557e+08,44.6016,1,2.86327,-6193.33,6195.51,-25296.1
2.33662e+08,113.793,2,2.92164,3877.94,-23646.8,-28782.1
2.33916e+08,132.486,0,2.53041,19152.7,-15714.6,-15612.6
2.34334e+08,1.33757,2,2.61056,-294.017,-50.1856,-28676.5
2.34373e+08,69.6196,0,2.73113,2424.96,8025.3,-16779.7
2.34858e+08,13.4905,0,2.72226,-1331.38,-184.34,-26359.4
2.3486e+08,34.6283,0,2.88264,-2552.38,3553.32,-23078.6
2.35254e+08,11.4966,0,2.98772,-34.7497,1761.13,-27149.8
2.36006e+08,96.3023,0,2.6501,4211.31,-19568.3,-25064.3
2.36053e+08,39.3519,1,2.93503,-6393.8,-4315.57,-25892.2
2.36179e+08,30.4494,1,2.57967,-2867.88,-1784.8,-23345.7
2.36181e+08,163.954,0,2.61751,-8371.94,26444.2,-8154.62
2.36415e+08,7.02018,2,2.6111,-243.55,1407.99,-28575.9
2.36509e+08,85.9737,2,2.37066,-4572.86,-8918.84,-13582.2
2.36955e+08,30.1728,1,2.90506,-1220.78,3931.23,-23936.9
2.36973e+08,89.5364,2,3.04789,-6022.08,-9330.65,-13651
2.37065e+08,107.561,2,2.91407,-18487.3,2333.99,-16437.3
2.3719e+08,7.4176,2,2.41756,-296.263,-1583.33,-29351.1
2.37833e+08,91.8252,1,2.45068,-13615.5,-1635.34,-15037.8
2.37947e+08,112.604,2,2.9016,-5705.29,-7997.74,-21046.3
2.38018e+08,101.977,0,2.95798,14324.6,4209.62,-13426.5
2.38028e+08,87.2037,2,2.6746,-6173.22,-14561.3,-21676.6
2.38047e+08,28.0347,1,2.72239,-4410.34,-3703.99,-27485.1
2.38275e+08,112.588,1,2.81976,10845.8,4783.44,-8325.86
2.38574e+08,209.6,0,2.38718,10160,-14192.5,11944.3
2.38928e+08,91.6595,0,2.95033,14566.7,-2018.63,-16320.6
2.39062e+08,102.865,1,2.87354,-9011.57,14629.4,-15628.5
2.39156e+08,93.0637,0,2.99581,-14960.9,10862.4,-22775.6
2.39386e+08,81.239,1,2.52668,14502.7,9249.83,-28491.2
2.39737e+08,75.4769,2,2.89879,-1348.37,7554.86,-14981.1
2.40735e+08,46.014,0,2.54315,8572.11,-4681.51,-27944.3
2.40768e+08,53.2948,1,2.64681,-4280.85,7689.07,-21699.6
2.40847e+08,56.2694,1,2.63911,2781.57,-5207.81,-18557.5
2.40893e+08,19.9665,1,3.00417,-1589.67,818.696,-25015.2
2.41403e+08,60.037,0,2.77557,11007.9,-3849.04,-23718.7
2.41445e+08,165.156,2,2.90935,-7102.25,29421.2,-11977.1
2.41883e+08,52.7553,1,2.62513,8390.3,2214.89,-21843.7
0,52.864,1,2.62047,0,0,0
2.42122e+08,202.491,2,2.87591,-8252.76,-29674.2,437.841
2.42416e+08,126.397,0,2.69205,18513.8,-15056,-16820.3
2.42591e+08,123.621,2,2.7595,-7802.52,12863,-7608.55
2.42596e+08,47.9989,0,2.81724,7849.64,-3445.95,-23392.9
2.42701e+08,55.8498,1,2.48496,2902.13,11282.2,-26447.5
2.42748e+08,289.966,2,2.96882,21924.3,-28893.7,19916.9
2.42962e+08,16.8931,2,2.37263,-3215.13,-1703.69,-29427.2
2.43371e+08,81.9088,2,2.86012,-11756.1,2486.25,-16471
2.43917e+08,11.7701,2,2.94732,2289.08,-941.157,-28665.9
2.43922e+08,110.04,1,2.9302,-16707.4,-4970.96,-13643.4
2.44191e+08,20.8715,1,2.65191,2229.1,-1666.98,-25468.3
2.44606e+08,155.54,0,2.99346,21171.5,7063.83,-12945.4
2.45112e+08,118.453,1,3.01015,-22806.9,-7721.48,-22719.4
2.45505e+08,14.2433,1,2.70032,-1576.88,-2257.46,-27635.4
0,14.24,1,2.61922,0,0,0
2.45769e+08,59.457,2,3.02343,-8754.88,8462.21,-26314.6
2.45812e+08,65.2801,1,2.77652,-4890.17,-7445.91,-18386.6
2.45846e+08,7.75321,2,2.92715,667.71,-1094.92,-28564.6
0,6.51645,1,2.40503,0,0,0
2.459e+08,77.1291,2,2.45491,-11411.7,10231.4,-23325.3
2.46265e+08,31.3262,2,2.53758,2588.78,-5683.71,-26492.2
2.46457e+08,32.0895,0,2.79816,-1176.02,6112.12,-26169
2.46738e+08,54.8574,1,2.69948,2274.54,8921.4,-21720.1
2.47156e+08,106.512,1,2.64519,793.583,-20693.1,-20221.6
2.47291e+08,19.2895,2,2.66674,-3279.51,746.683,-26504.5
2.47981e+08,19.5435,2,2.93091,-2893.24,-2960.73,-28081.4
2.48881e+08,6.98747,2,2.8084,-517.204,-1437.51,-28417.6
2.48914e+08,50.4179,0,2.87033,-2216.77,8912.13,-23550.1
2.49099e+08,63.3588,1,2.96422,1324.24,-5625.23,-22656.1
2.49198e+08,153.35,1,3.0302,-16819.1,24122.4,-15676.9
