#class tools::wcsv::ntuple
#title time
#separator 44
#vector_separator 59
#column double eventID
#column double t(ns)
#column double copynumber
#column double energy(eV)
#column double x(mm)
#column double y(mm)
#column double z(mm)
233540,103.868,2,2.69421,-2721.03,-16530.9,-14652.1
538716,64.9527,0,2.99177,-6118.37,11353.2,-24522.2
553436,81.524,2,2.97774,-10231.2,-10615,-20023.7
557408,17.5496,1,2.91348,-80.3501,2122.66,-25748.9
557622,186.913,2,2.76691,-27642.9,6742.92,-1637.41
844958,60.8282,2,2.55234,868.044,-12904.8,-29389.4
881656,7.93789,0,2.63015,658.429,-591.355,-27346.9
1.17744e+06,51.1797,2,2.38512,-4559.67,-9844.95,-27711.8
1.19789e+06,161.523,1,2.38447,15269.6,9160.81,345.353
1.23142e+06,28.9929,2,2.83316,-3841.6,-3299.91,-25294.2
1.45392e+06,10.5521,1,2.85687,-1378.47,-732.795,-27276.1
1.62881e+06,7.53427,1,2.96472,402.097,1468.96,-28277.7
0,7.86603,2,2.68318,0,0,0
1.90847e+06,21.2191,1,2.98303,341.29,-3150.1,-25794.2
1.95406e+06,46.9714,2,2.73249,7005.22,-499.22,-21855
2.00775e+06,193.93,2,2.54727,-13033.7,-14530.1,7258.23
2.38976e+06,34.4866,2,2.56644,4454.76,855.745,-23139.6
0,34.4877,1,2.71905,0,0,0
2.48715e+06,44.9098,0,2.59995,-6168.1,1090.42,-21775.8
2.49436e+06,23.3526,1,2.5715,813.218,-3294.76,-25330.8
2.65463e+06,69.801,0,2.92821,7307.86,6288.16,-23811.9
2.72657e+06,16.5531,2,2.583,-2543.15,1562.13,-27014.7
0,16.4645,2,2.73788,0,0,0
2.80021e+06,102.331,1,2.79969,-20813.1,5689.68,-29715.5
2.91654e+06,56.4279,0,2.83136,3723.86,-8778.97,-21698.6
2.97586e+06,86.6109,2,2.82466,12692.3,-8843.45,-19182.4
3.18441e+06,114.02,2,2.91407,10512.6,7000.67,-8519.42
3.19149e+06,80.9697,2,2.56198,-10108.8,-2555,-15206
3.40917e+06,47.7115,1,2.62935,-4451.75,9140.15,-29084.6
3.50876e+06,154.302,0,2.94689,22638.4,-22472.2,-22968.4
3.61845e+06,29.1294,0,2.38107,1628.68,4727.84,-25216.8
3.86922e+06,49.0041,2,2.66009,506.417,-4680.34,-19574.7
4.11808e+06,32.4959,1,2.71812,1530.5,366.541,-29179.6
4.1339e+06,146.59,0,2.69035,-8752.26,-17609.3,-5023.41
4.53544e+06,11.5316,2,2.61644,-298.98,1531.02,-26977.4
4.78598e+06,128.671,2,2.53943,-12068.9,13021,-8267.59
5.10761e+06,164.942,2,2.56052,4215.1,3392.35,-19277.6
5.39229e+06,16.6416,1,2.83236,-1826.21,2385.79,-26910.9
5.77009e+06,63.3794,0,2.6249,8501.06,6198.49,-20481.7
5.86913e+06,82.39,1,2.99819,-15538.1,-5783.72,-23905.2
6.60045e+06,143.85,0,2.36677,2666.89,17001.5,-3699.56
6.70594e+06,142.95,2,2.79041,-11043.7,-11090.9,-3091.19
6.99711e+06,30.6178,0,2.59706,-615.51,-3167.31,-23244
7.20271e+06,115.371,1,2.54418,321.283,24446.2,-28709.9
7.66737e+06,117.587,2,2.4194,-11950.7,-6398.52,-7922.42
7.73282e+06,134.011,0,2.84964,6132.16,16842.7,-7061.78
7.79095e+06,16.2861,1,2.66671,-2634.35,739.466,-26657
7.91527e+06,28.962,0,2.55164,-4913.06,-1314.18,-25515.9
8.04804e+06,24.2816,2,2.57447,-2849.38,-3061.74,-25739.2
8.24347e+06,17.6211,0,2.69196,2871,1550.36,-26879.1
8.2643e+06,24.4103,2,3.03605,-1808.75,2348.99,-24672.1
8.33086e+06,10.9633,0,2.40693,-793.909,726.752,-26781
8.35343e+06,62.4114,2,2.53203,-7261.82,-10273.1,-24537.1
8.39748e+06,69.3963,1,2.9782,8576.82,11548.5,-26288.4
8.46229e+06,75.2212,1,2.78324,-1818.24,14976.2,-23771.2
8.72157e+06,36.2496,2,2.90062,-3408.76,-6745.66,-27224.7
8.84104e+06,95.9918,0,2.75945,18869.4,-6909.89,-26015.9
8.97971e+06,12.0439,0,2.48171,1674.23,-1145.6,-27167.7
9.11259e+06,19.9489,0,2.8189,3324.88,889.357,-26285.4
9.38051e+06,119.294,2,2.81315,-20606.9,2015.28,-14612.1
9.6999e+06,91.0129,0,2.84246,-4339.75,-10576.6,-13521.7
9.7081e+06,2.7433,1,2.72956,-160.495,597.497,-28574.2
9.73308e+06,36.9608,1,2.48025,5382.49,-3901.78,-24783.2
9.85876e+06,58.2543,1,2.95558,-5771.35,10277.3,-25255.6
1.02974e+07,5.40064,2,2.36288,102.865,-1244.36,-28752.5
1.03141e+07,67.7298,1,2.65198,-9639.28,9601.82,-24155.2
1.03148e+07,37.9925,1,2.6662,3733.45,3884.75,-22857.2
1.04293e+07,192.405,1,3.01452,-13764,7922.76,6178.61
1.07158e+07,125.779,2,2.70502,6458.38,-20628.5,-13378.6
1.08251e+07,15.4725,0,2.91934,2759.72,307.12,-26988.4
1.10151e+07,24.2046,2,2.4461,-4878.99,-1766.98,-29219.3
1.10181e+07,62.6583,0,2.47289,-10151,-6284.31,-23155.3
1.14896e+07,50.0096,0,2.64272,7912.11,-5717.96,-24614.5
1.18351e+07,126.979,2,2.92987,-9486.92,20446.1,-14674.9
1.18443e+07,18.7642,1,2.53154,-1691.91,-2758.61,-26574.9
1.19229e+07,41.9346,1,2.7959,249.964,6642.75,-22922.3
1.20001e+07,115.796,0,2.72605,-1594.78,-18931.2,-13512.1
1.23629e+07,127.906,1,2.72158,-19088.8,-3094.66,-10083.2
1.28289e+07,22.4761,2,2.8693,4677.31,33.0621,-29347.9
1.2886e+07,43.3284,2,2.48668,-7366.28,-5173.56,-26628.5
1.31436e+07,133.636,0,2.83572,11799.5,-10607.4,-5605.98
1.32377e+07,7.09719,0,2.86045,941.086,-943.619,-29648
1.3483e+07,3.71823,1,2.93961,-77.362,620.932,-28241.9
0,3.74501,1,2.80305,0,0,0
0,3.73676,1,2.77616,0,0,0
1.35413e+07,56.371,1,2.7766,-7554.69,8839.42,-26034.8
1.35587e+07,211.906,2,2.78539,-6288.4,-20535.9,10266
1.42242e+07,252.334,0,2.49202,-15548.6,-29147.1,12990.9
1.42938e+07,26.6038,1,2.50996,-5651.13,208.382,-28486.9
1.49724e+07,26.4624,2,2.44675,-3536.54,-1313.52,-24633
1.52798e+07,6.99253,1,2.59097,-574.398,1418.96,-28431
1.5389e+07,61.0569,1,2.53031,-10506.6,7656.99,-29497.1
1.5673e+07,5.34826,0,2.78822,1119.19,-105.071,-29353.5
1.58278e+07,27.0667,1,3.00472,4214.47,-2162.9,-25777
1.58714e+07,152.76,0,2.78126,-21219.1,740.648,-4740.16
1.5942e+07,63.0191,1,2.40158,-6127.68,-10947.5,-24442
1.6031e+07,98.709,1,2.50137,-18448.7,9938.43,-27951.3
1.63354e+07,199.895,2,2.95262,6025.68,-6210.86,-21243.6
1.65161e+07,124.301,2,2.52189,-15078.6,4174.02,-7684.59
1.65931e+07,5.99074,0,2.4039,343.831,203.174,-27584.8
1.67601e+07,73.3823,2,2.80753,8813.88,11581.3,-23892.6
1.67804e+07,76.5207,0,2.70582,-2204.59,-9457.53,-15946.8
1.69569e+07,152.055,1,3.02318,24483.2,17099.1,-23256.4
1.70627e+07,141.964,1,2.81117,-17233.6,319.323,-4409.19
1.74285e+07,15.1364,1,2.58831,974.987,1521.07,-26170.6
1.74289e+07,170.511,2,2.62113,-17862.9,-19668.2,-27847.6
1.76133e+07,27.8199,1,3.03692,5699.5,20.7253,-27766
1.76594e+07,5.8844,0,3.00899,-617.286,-862.659,-28227.9
0,5.37797,2,2.92198,0,0,0
1.77075e+07,220.859,1,2.52023,17247.6,28663.6,3763.72
1.77088e+07,123.215,0,2.73003,-23509.5,1804.51,-18153.4
1.7848e+07,168.291,2,2.63713,8639.87,-17152,1079.78
1.79913e+07,123.751,1,2.94329,-8495.47,8407.75,-5737.23
1.80674e+07,16.3595,2,2.82007,-1255.49,3136.85,-29287.5
1.80933e+07,12.1376,1,2.8536,-1605.66,-377.902,-26840.2
1.82188e+07,62.325,1,2.80966,-1392.04,12424.2,-24585.9
1.8265e+07,53.0454,2,2.4153,9261.35,-6006.83,-26636.8
1.85125e+07,17.5782,0,2.44531,-2745.16,611.053,-26478.5
1.8811e+07,46.0325,1,2.51795,-5877.45,4386.82,-22316.4
1.89169e+07,12.5705,2,2.60317,-2646.92,-733.101,-29004.4
1.90458e+07,1.01241,1,2.88945,-127.71,74.5283,-28628.6
0,0.990116,1,3.00114,0,0,0
1.91679e+07,4.54223,1,2.74212,-830.295,452.305,-29307.8
1.92687e+07,38.5919,2,2.42419,-3541.01,1623.47,-21625
1.93979e+07,45.0303,1,2.72494,4033.56,8626.27,-29405.6
1.95776e+07,52.8331,2,2.87902,8302.17,-7129.53,-26736.7
1.95799e+07,5.49207,1,2.82893,-931.64,-169.009,-28086.9
2.023e+07,149.261,0,2.6696,13093.6,-28639.8,-27106.9
2.05615e+07,1.50832,0,2.92482,91.8734,-249.182,-28615.7
0,1.55544,0,2.84384,0,0,0
2.07376e+07,175.122,1,3.05211,18965.8,29260.5,-20817.4
2.07467e+07,109.75,2,2.97587,-16179.7,-10898.8,-16493.2
2.09668e+07,80.8483,2,2.43116,12433.3,9072.14,-21801.4
2.10262e+07,131.075,2,2.8239,-21837.4,-14749.9,-20721.5
2.12467e+07,99.4652,1,2.60149,-4937.67,11769.2,-12093.3
2.15168e+07,9.76552,0,2.90342,1671.52,-1325.84,-28933.6
2.15625e+07,27.449,1,2.50587,-2540.8,4706.01,-26339.8
2.1622e+07,155.259,1,2.90391,-12031.9,29508.1,-21498.9
2.18077e+07,117.179,1,2.72873,-180.624,13214.4,-7936.68
2.18347e+07,24.2669,2,2.89536,-3658.72,1296.48,-25466
2.21575e+07,24.9499,2,2.42286,-4844.05,2001.55,-29791.5
2.23413e+07,88.8455,0,2.91558,16467.8,890.358,-19917.1
2.23853e+07,51.1088,2,2.53498,-15.1867,-5451.68,-19471.2
2.2444e+07,31.5299,0,2.6382,6099.56,2776,-27924.9
2.27158e+07,3.43803,1,2.54823,-692.143,411.522,-28675.4
2.29798e+07,57.5951,0,2.36611,5449.18,-2935.58,-18287.4
2.32674e+07,36.3358,2,2.88,4487.99,-4006.56,-24239.4
2.36349e+07,123.955,0,2.57887,9950.67,16324.5,-10904.6
2.36525e+07,39.7235,0,2.98361,-6127.46,-2614.59,-23932
2.38641e+07,3.51681,2,2.38833,-380.795,35.2439,-28155.5
2.39981e+07,22.8126,0,2.80484,4831.56,-40.3532,-29795.4
2.40786e+07,36.9351,1,2.36621,-1798.26,7531.84,-27154.8
2.45904e+07,20.1342,2,2.79107,-3869.15,-1721.4,-27916.3
2.52383e+07,153.458,0,2.40318,19322.2,23592.2,-17484.1
2.54877e+07,30.9029,2,2.58775,-1607.32,-2837.69,-23111.3
2.58243e+07,84.3863,0,2.92158,-10762.7,-2593.47,-15063.1
2.59819e+07,38.5743,2,2.97698,5103.74,-6184.05,-27434.7
2.63404e+07,161.785,1,2.45512,-13999.4,29298.7,-18301.2
2.65542e+07,110.922,0,2.84257,20104.3,-3882.3,-29007
2.72221e+07,174.289,2,3.00457,-17879.7,-7560.26,2160.45
2.73258e+07,5.11067,2,2.77021,-1037.19,295.084,-28657.9
2.73789e+07,54.9493,0,2.63125,10043.8,2437.91,-23372.8
2.77112e+07,49.7275,0,2.959,-4298.66,4307.39,-20365.5
2.77622e+07,4.7222,0,2.40633,794.888,-621.508,-28458
2.78322e+07,60.735,1,2.91564,-12571.6,2568.7,-28254.4
2.78566e+07,105.094,1,2.90938,14777.8,-8535.42,-14913.2
2.83246e+07,48.8629,2,2.45946,-4254.45,-1690.26,-19513.5
2.83866e+07,33.147,2,2.7655,-4606.93,-3291.17,-24622.2
2.85324e+07,25.0559,1,2.4118,-3982.39,-1157.53,-25505.2
2.87969e+07,37.1244,1,2.91701,-6326.59,-4446.71,-29996.2
2.88733e+07,119.901,2,2.37977,-4322.97,-24940.9,-25924.3
2.90014e+07,20.4218,0,2.36474,924.385,-1787.88,-25003
2.90456e+07,103.192,2,3.06143,-18730.1,-6615.5,-20149.8
2.9666e+07,185.408,0,2.71024,25756,-10615.3,-1373.64
2.9694e+07,93.1765,1,2.66101,-12069.8,15643.6,-29023
2.97115e+07,7.50126,1,2.3942,-594.72,1541.55,-29282.5
2.97467e+07,173.742,2,2.82654,16109.8,-25776.2,-8514.16
3.00038e+07,22.5601,1,2.88271,-3941.89,-242.734,-26131.6
3.03137e+07,19.5198,0,2.68359,83.912,-3988.46,-27682.7
3.05459e+07,1.46937,1,2.84803,-380.27,-35.139,-28825.9
3.0783e+07,218.247,1,2.43446,11143.8,29332,5052.39
3.12506e+07,200.63,0,2.74921,-22022.9,19527.1,1423.51
3.13566e+07,45.9963,1,2.59334,4998.01,-5010.67,-22232.4
3.17648e+07,12.8088,0,2.43192,2358.85,-985.022,-29982.9
3.18075e+07,128.83,2,2.83676,-8308.09,-13572.1,-6837.62
3.18199e+07,82.3841,1,2.77932,-9318.38,732,-14189.5
3.19419e+07,40.6213,2,2.43216,-4392.08,-4502.79,-22858.7
3.20243e+07,49.0866,2,2.70119,6380.31,-54.6144,-20728.1
3.22023e+07,30.1981,2,3.04138,-5920.79,1208.14,-26777.8
3.24504e+07,67.6782,1,2.80503,12119.2,-7337.25,-28378.3
3.24831e+07,95.9883,1,3.06162,-12101.2,-15400.6,-24336.9
3.27411e+07,58.6639,0,3.04927,-8792.71,6891.09,-23826.7
3.29403e+07,73.0319,0,3.03806,284.617,7772.56,-15655.1
3.2991e+07,69.7998,1,2.92411,-3846.95,10618.5,-19569.5
3.32904e+07,1.85503,2,3.05203,354.749,-193.417,-28754.9
0,1.46371,0,2.63614,0,0,0
3.38017e+07,41.6968,2,2.36932,677.875,6235.13,-22681.9
3.41467e+07,47.8966,1,3.03888,-9487.9,-2853.56,-27149.9
3.42782e+07,20.5952,2,2.79747,-4400.12,122.917,-28814.9
3.4534e+07,69.4802,1,2.61973,-3838.95,13895.6,-25602.9
3.46816e+07,111.821,2,3.05984,8480.47,-21911.5,-28399.5
3.47348e+07,103.664,0,3.01703,8203.34,-11325.6,-12168.1
3.48238e+07,9.07789,2,2.88202,-1967.09,-182.023,-28589.1
3.50636e+07,6.65259,0,2.52224,973.954,1125.04,-28662
3.51627e+07,161.587,2,2.71943,-7984.38,2166.51,-11529.3
3.52516e+07,88.3671,2,2.65983,-4228.28,-16088.5,-20217.9
3.53688e+07,59.4051,2,2.78852,-7452.94,4222.7,-19723.9
3.54513e+07,59.5171,2,2.41154,-9171.98,2814.7,-20627
3.57015e+07,24.3317,1,2.56438,-877.765,4206.7,-25896.4
3.5742e+07,115.489,1,2.94526,5811.22,23588.4,-29842.6
3.59159e+07,348.249,1,2.53344,2372.75,-1224.69,-24751.1
3.66181e+07,156.714,0,3.00317,10373.2,-3592.02,-1144.2
3.67726e+07,34.7321,0,3.04182,248.515,4574.87,-23160.9
3.69748e+07,120.752,0,2.9305,15152.3,-6085.05,-9369.05
3.72024e+07,134.712,0,2.87892,20695,-14735.4,-16229.7
3.72334e+07,40.3105,2,2.68239,-6936.87,-4961.36,-27693.7
3.85929e+07,5.29792,2,2.96531,896.083,559.495,-28708.5
3.87368e+07,13.2416,1,2.57435,-1130.67,2216.55,-27358.1
3.87457e+07,175.853,2,2.45496,12739.9,-27644.8,-7395.76
3.8911e+07,85.0697,2,2.76421,-14806.1,-2563.51,-19036.7
3.91026e+07,23.2352,1,2.38552,-3118.22,-313.986,-24997.3
3.94789e+07,189.072,2,2.8979,-16797.1,28892.8,-7443.22
3.98911e+07,100.923,1,2.47031,6965.47,5397.5,-9372.68
4.00349e+07,64.6815,2,2.62797,-5061.2,-12394.8,-25641.7
4.01187e+07,76.2703,2,3.03623,-10811.9,-7466.2,-19610.7
4.04327e+07,9.42137,0,2.67566,1199.35,-868.087,-27437.9
4.05271e+07,90.2792,2,2.41982,697.488,-16221.4,-18625.8
4.07138e+07,49.9796,0,2.58016,5385.54,-1437.33,-19802
4.08603e+07,66.2452,0,2.60784,2387.16,9661.81,-18948
4.10858e+07,163.915,0,2.87166,1513.27,-22853.2,-15155.8
4.11218e+07,39.969,1,2.71353,1055.47,-4292.3,-21695.7
4.12993e+07,24.2421,2,2.70519,-2273.64,-3431.76,-25705
4.13252e+07,111.528,0,2.38662,-707.878,-17974.4,-13576.9
4.14209e+07,81.7521,2,2.9594,1145.83,-317.783,-26888.6
4.15871e+07,11.8327,0,2.48817,2415.85,-232.782,-27909.8
4.16636e+07,123.837,1,3.02906,-11049.6,-11556.3,-8395.28
4.17122e+07,82.6136,1,2.92921,12031.7,11227.7,-23309
4.19447e+07,30.4387,0,2.67464,5245.04,-984.701,-25107.7
4.21234e+07,6.5579,2,3.01876,112.055,-830.643,-27678.3
4.24776e+07,6.6406,2,2.55486,-776.005,-1271.36,-28682.2
4.28521e+07,103.605,0,2.71263,17881,-8058.06,-19037.1
4.28955e+07,51.8173,2,2.60562,-10664.3,-1142.57,-26303.8
4.32562e+07,12.2454,0,2.94271,1916.01,1668.8,-28044.9
4.34984e+07,48.8636,2,2.72037,6743.82,3007.75,-21719.4
4.3767e+07,196.218,0,3.05814,19422.6,-19905.6,-6425.73
4.40868e+07,21.1203,2,2.67855,-2782.6,-2831.44,-26644.4
4.44976e+07,66.5932,2,2.65725,10600.7,1016.38,-19679.7
4.4779e+07,41.5257,1,3.01216,-198.936,8745.04,-29888.2
4.50306e+07,75.1442,0,2.54127,1806.23,-12858.1,-19672.3
4.51657e+07,0.761545,1,2.8437,41.3771,229.906,-28941.1
4.52928e+07,53.2162,1,2.59851,-5924.54,-2960.82,-19763.3
4.53497e+07,34.5642,2,2.9589,4655.74,-667.686,-23364.5
4.56875e+07,5.93682,0,2.70476,581.701,-610.369,-27855.9
4.6043e+07,49.7197,2,3.01272,-6303.11,-4197.82,-21599.2
4.61035e+07,72.7493,2,2.9853,14114,208.205,-23104.6
4.61315e+07,82.0515,2,2.39809,8158.66,-4519.89,-14202
4.62161e+07,82.03,0,3.05356,10300.7,6148.72,-16443.2
4.62557e+07,50.0832,0,2.72042,-2277.19,8089.78,-22470.2
4.64329e+07,107.603,2,2.975,-2614.45,-18013.9,-15364.9
4.67416e+07,63.1318,0,3.04232,-4492.6,2694.53,-23362.3
4.67478e+07,85.5337,0,2.7712,-585.239,17413.4,-24202.6
4.67629e+07,10.5772,2,3.01548,-66.0536,-2308.78,-28636.2
4.67917e+07,49.1782,2,2.63083,-7414.66,-4860.07,-23269.8
4.7305e+07,51.431,0,2.77248,534.736,10229.4,-25204.5
4.7656e+07,79.7528,1,2.7463,7133.22,9339.67,-16793.2
4.82378e+07,68.7654,1,2.72516,7194.73,11453,-23509.2
4.8448e+07,120.805,2,2.68106,-5466.92,-23240,-19696
4.86142e+07,98.9967,2,2.89157,3551.63,19530.9,-22804.4
4.86932e+07,137.862,1,2.54252,-23272.1,-17346.9,-26113
4.8741e+07,66.82,0,2.89862,11171.6,-1477.55,-20353
4.8798e+07,8.40983,1,2.99034,-635.115,1671.6,-28280.7
4.88143e+07,84.925,2,2.70137,-9284.69,-14891.3,-24948.8
4.90738e+07,65.0881,0,2.72373,-1149.99,-2083.02,-24955.3
4.91933e+07,165.408,0,2.40269,-18541.3,-756.377,777.023
4.92763e+07,2.08886,0,2.63664,159.257,-182.817,-28422
4.93924e+07,121.283,1,2.39944,-10271.1,15575.3,-11139
4.94654e+07,18.3006,0,2.56627,3303.29,1821.49,-27680
4.98712e+07,160.873,0,2.89934,11714.7,21342.4,-5365.86
5.00536e+07,52.0061,1,2.79219,-2242.77,10813.6,-28860.8
5.00581e+07,0.547354,0,2.4248,-1.82666,88.9027,-28758.8
0,0.593372,0,2.86191,0,0,0
0,0.538151,0,2.52666,0,0,0
5.06976e+07,23.8934,2,2.79012,4043.31,-2559.33,-27276.9
5.09538e+07,51.396,2,2.73002,-153.277,-10077.4,-25161.5
5.11593e+07,5.89949,1,2.97188,-1103.51,-172.061,-29474.1
5.12077e+07,16.5013,2,2.7651,-2179.68,-2447.4,-27411.8
5.14305e+07,132.452,0,2.78257,803.726,14135.2,-18595.6
5.14812e+07,34.1983,1,2.99802,-3505.09,5229.41,-25216.9
5.14921e+07,13.5794,1,3.05181,-2398.43,1541.11,-29583.3
5.15947e+07,48.3696,0,2.62483,-788.363,-3365.09,-25031
5.1695e+07,109.743,2,2.40848,14878.3,15708.5,-20586.6
5.20771e+07,72.76,1,2.89119,14406.8,4866.16,-27125.7
5.22043e+07,15.0553,0,2.99347,954.591,974.043,-25936.5
5.22252e+07,3.06838,0,2.51551,207.79,-429.596,-28331.1
0,3.07699,0,2.70834,0,0,0
5.23621e+07,32.7981,0,2.66827,490.487,-3782.67,-23039.6
5.2417e+07,135.679,2,2.67802,-2420.07,-27127.5,-19856.5
5.27194e+07,29.4951,0,2.50769,1475.47,3013.82,-23529.7
5.29374e+07,71.2088,0,2.38221,935.368,10986.1,-18518.1
5.30863e+07,41.7241,1,2.66022,6829.19,4847.94,-25983.3
5.32658e+07,16.0434,0,3.02455,1477.88,-553.351,-25800
5.32687e+07,149.233,1,2.63572,-9570.67,-2.58836,-14886
5.33099e+07,173.682,0,3.01541,12047.8,-22679.4,-3038.52
5.33467e+07,169.503,0,2.89363,-26455.7,18787.8,-14368.4
5.34979e+07,107.3,2,2.42907,-11434.6,-15896.3,-17181.7
5.46628e+07,7.25441,1,2.77025,-321.55,1515.67,-29366.7
5.47672e+07,31.0745,0,2.85537,2295.99,3480.56,-23748.1
5.4835e+07,266.677,0,2.69578,5.0853,-26285.6,-13956.8
5.4894e+07,15.9123,1,2.37902,1016.59,-1015.71,-25799.5
5.50298e+07,155.434,0,2.44951,11203.3,24758.9,-10255.9
5.50689e+07,13.2817,0,2.91193,121.858,1371.75,-26379.2
5.51754e+07,34.5448,2,2.61515,-3592.73,-51.0072,-22458
5.52227e+07,46.4641,0,2.45262,-6043.18,-7663.73,-29816.7
5.54512e+07,142.894,1,2.40342,-15087.5,13981.6,-16255.4
5.61004e+07,24.2932,1,2.74357,-3315.21,3943.7,-27931.3
5.61727e+07,50.5407,1,2.68419,-9584.93,-4211.56,-26619
5.62317e+07,14.3414,0,2.53537,-2323.31,-1082.69,-27308.9
5.70151e+07,107.519,2,2.38708,6255.69,-21850.6,-26704.7
5.72175e+07,76.632,2,2.37202,7177.59,-13349.9,-22935.9
5.74495e+07,29.2488,1,2.52229,4966.65,-370.487,-25219.9
5.75589e+07,116.012,1,3.05825,-2402.55,-6069.99,-6266.51
5.75662e+07,81.5944,2,2.45404,-7399.18,-15663.9,-29845.9
5.80079e+07,7.53508,1,2.85633,-1210.09,-846.315,-28274.4
5.80479e+07,95.6543,1,2.88368,-17035.5,-8999.6,-23278
5.81838e+07,68.4315,1,2.74446,-10187.9,-3806.73,-19321.3
5.82657e+07,41.0158,1,3.0345,921.951,37.3205,-24692.5
5.83312e+07,1.70927,0,2.87687,378.386,228.463,-28891.9
5.84923e+07,2.4185,1,2.96616,-152.518,370.997,-28430.3
5.85594e+07,7.3191,2,2.71582,-431.507,-635.884,-27441.3
0,7.36158,2,2.79383,0,0,0
5.87016e+07,74.189,2,2.50176,-4118.57,5394.24,-14703.4
5.91247e+07,70.53,2,2.93484,-3143.46,-14294.9,-26166.5
5.92122e+07,17.2866,2,3.053,-2637.75,-251.095,-26276.7
5.93856e+07,99.3364,1,2.41234,-2785.85,20525.9,-24742.7
5.94153e+07,56.837,2,2.69169,-3794.77,-3316.53,-17906.6
5.94471e+07,82.113,1,2.97753,6357.53,3344.88,-13166.9
5.95931e+07,59.8174,0,2.48781,122.885,7423.91,-18610.5
5.98931e+07,16.212,2,2.50018,287.764,-3443.48,-28173.8
6.00707e+07,118.255,2,2.43714,-23647.5,7937.62,-26463.2
6.05577e+07,31.0884,1,2.62143,-1371.76,4715.55,-24378.1
6.07564e+07,117.637,2,2.71092,21610.8,-10380.2,-22491.7
6.09997e+07,11.0409,2,2.44731,1787.7,-507.823,-27447.3
6.10387e+07,87.6715,2,2.90029,-13519.5,-12509.1,-26895.2
6.12257e+07,15.4253,2,2.87609,-2422.93,-527.134,-26642.1
6.14139e+07,36.3962,0,2.4847,6354,3966.81,-26733.2
6.14741e+07,2.18222,2,3.00003,-303.963,-273.078,-28487.5
6.1952e+07,12.4994,1,3.00761,-1522.17,849.857,-26787.3
6.22939e+07,13.5297,1,2.4172,774.07,1587.57,-26515.8
6.23973e+07,88.9982,1,2.67186,6848.74,2460.65,-11518.3
6.24415e+07,194.087,0,2.91059,29575.8,-24647.6,-15291.6
6.25032e+07,242.704,1,2.45946,-4000.51,-23382.3,16652.2
6.29504e+07,44.956,0,2.87736,4378.49,2390.78,-20765.6
6.3376e+07,69.8183,0,2.5385,4965.69,-10966.7,-20210.1
6.33895e+07,140.49,2,2.59503,6435.82,-29006,-29741.8
6.34801e+07,109.398,0,2.37785,-224.34,-18356.2,-14698.6
6.42118e+07,104.585,2,2.83577,2058.92,-16830.9,-21739.6
6.4356e+07,22.2506,1,2.44947,1784.1,4144.86,-27237.4
6.43788e+07,5.60076,2,2.75061,54.5863,835.781,-28083.4
6.48709e+07,173.756,2,2.38664,21528.9,3654.04,704.152
6.51941e+07,229.724,2,2.48162,-16639.6,-22888.8,10703.1
6.5346e+07,104.242,1,2.84735,12800.9,16456.7,-21965.7
6.54149e+07,86.7237,0,2.96702,-3177.98,-8538.24,-13100.8
6.5428e+07,61.8342,2,2.44845,607.147,5516.45,-16997.5
6.5958e+07,82.8222,1,2.53461,5944.85,8963.16,-14989.3
6.68017e+07,89.4473,0,2.39555,13719.7,-13130.3,-27774.8
6.7101e+07,147.794,2,2.57382,-20133,17756.1,-21673.7
6.75046e+07,59.0962,2,2.78145,3298.86,-9799.67,-21804.8
6.75056e+07,17.5118,2,2.95754,-2714.71,-2617.25,-28446.4
6.75237e+07,41.9836,0,2.39794,4930.36,4595.9,-22940.3
6.82913e+07,137.748,1,2.41772,-20410.8,17476.7,-19176.5
6.83007e+07,112.53,1,2.80005,-10097.7,17341.1,-16101
6.83716e+07,68.9438,1,2.97526,5366.73,6897.93,-17271.6
6.85274e+07,64.7473,1,2.68218,239.742,2175.92,-26540.8
6.87213e+07,136.88,1,2.50515,20666.4,-3708.44,-8938.47
6.95136e+07,63.6574,1,2.66992,-9708.48,9430.09,-28958.6
6.9637e+07,29.2338,0,2.50721,5818.96,-2356.31,-28635.7
6.98483e+07,28.6553,0,2.61303,2434.29,5614.8,-28666.3
6.9855e+07,15.9432,1,2.75176,-666.787,-1513.37,-25933.8
7.01519e+07,35.9614,2,2.4006,3753.96,-5578.35,-25148
7.02282e+07,34.6925,0,2.44079,-4287.23,882.397,-22994.7
7.04809e+07,215.437,2,3.00041,17002.9,-27866.7,-16963.6
7.09145e+07,6.62357,0,3.05652,1057.3,1037.78,-28704
7.09413e+07,84.5145,1,2.43191,7812.83,14782,-22359.9
7.09694e+07,45.8395,2,2.6921,-1758.32,-5757.13,-21196.9
7.11777e+07,183.016,0,2.58715,-11558.7,-23976.4,-24315.9
7.2257e+07,140.742,2,2.55448,-28375.9,8959.45,-29114.5
7.2267e+07,24.4167,2,2.84756,-1861.4,-3707.41,-25697.9
7.25856e+07,20.6189,1,2.98185,-2372.92,3675.87,-29416.7
7.27536e+07,71.6695,1,2.3865,12277.5,-910.05,-19992.9
7.30692e+07,78.1377,2,2.90398,10258.4,-12864.9,-28485.1
7.30737e+07,17.5109,2,2.36788,-1694.71,-3352.24,-28173.1
7.32724e+07,110.205,1,2.42674,-15236.7,4226.66,-11640.6
7.34224e+07,41.2705,2,2.39752,7222.58,-2813.62,-24824.2
7.35427e+07,98.8569,2,2.67875,-8878.07,1355.88,-10006.7
7.43794e+07,27.1542,0,2.41276,4398.62,3810.98,-29080
7.46601e+07,106.468,1,3.01659,733.581,21658.6,-23174.6
7.49638e+07,15.2063,1,3.05749,-33.6106,3254.49,-29150.5
7.52461e+07,10.6173,0,2.81291,2037.77,737.196,-29749.1
0,10.7335,0,3.03629,0,0,0
7.52897e+07,71.6491,0,2.51131,6037.49,-12929.3,-23854.4
7.56502e+07,23.3864,0,2.72136,3659.1,252.439,-25422.7
7.63254e+07,129.725,0,2.41414,-17893.7,-5758.65,-8880.35
7.65841e+07,109.33,2,2.42285,-6439.35,-22290.2,-27900.2
7.72414e+07,202.334,0,3.03774,9779.83,-22720.3,5601.83
7.74259e+07,26.4301,0,2.68817,365.848,2216.25,-23726
7.74262e+07,158.659,2,2.43452,9465.78,15996,-928.058
7.76762e+07,53.8421,1,2.58501,-5335.16,-5216.54,-20240.2
7.81473e+07,63.7047,2,2.50118,7508.52,-6644.9,-19785.1
7.81791e+07,105.561,2,2.41649,-12355.6,18176.2,-24921.4
7.83108e+07,96.9486,0,2.44067,15081.4,13609.5,-25496
7.83204e+07,19.9583,2,2.73128,2146.28,-3619.55,-29480.1
7.83679e+07,94.939,1,2.73943,1688.89,15928.6,-16740.9
7.85231e+07,34.4138,0,2.5396,224.099,4171.55,-22852.6
7.85732e+07,35.27,1,2.64126,-1070.61,-3412.44,-22341.5
7.88389e+07,39.191,2,3.00021,-1941.74,-7367.91,-25574.5
7.88732e+07,98.2368,0,2.42605,6929.87,-19561.5,-26992.3
7.9273e+07,147.52,2,2.69835,-23754.8,-4751.27,-9273.19
7.94637e+07,53.6286,1,2.57197,10985.9,1608.55,-26652.9
7.99566e+07,197.784,2,2.79531,22551.2,19218.9,257.203
7.99609e+07,57.3305,2,2.66111,760.459,-10019.9,-21959.4
8.03696e+07,54.5998,2,2.821,3011.93,-4878.28,-18846.5
8.13465e+07,41.1144,0,2.9861,4069.11,-3822.45,-23533.9
8.14955e+07,44.4993,1,2.39222,-3709.96,7599.84,-24554.1
8.18237e+07,38.7003,1,2.85513,4972.28,3386.06,-23327.7
8.20448e+07,4.93318,2,2.49257,-509.333,-1053.25,-28851.1
8.26295e+07,106.191,1,2.65516,-11365.4,-15887.3,-17919.7
8.27112e+07,57.289,2,2.62078,-8716.55,-7162.04,-24259
8.29868e+07,122.035,1,2.49212,16664.1,19681.8,-27419.6
8.29997e+07,37.4937,2,2.8369,-493.013,5948.17,-23712.6
8.3099e+07,104.676,1,2.8318,-13923.4,16287.8,-23361.8
8.31775e+07,65.0478,1,3.04803,-10183.3,-7724.28,-24119.4
8.34207e+07,112.093,0,2.6167,16208.3,8434.67,-19590.2
8.34275e+07,23.3489,2,2.58382,4276.62,-2328.06,-27889.8
8.41136e+07,29.5916,0,2.38299,2175.11,-4948.79,-25604.2
8.46459e+07,6.2533,1,2.78474,-740.02,402.519,-27744.9
8.46477e+07,97.996,0,2.90921,1344.43,-11901.2,-12097.6
8.48944e+07,103.568,0,2.75329,12457,7185.93,-12383.5
8.5093e+07,35.0709,2,2.75479,-4143.51,-3040.93,-23426.4
8.52037e+07,6.09032,1,2.69491,-307.312,-600.696,-27748.7
8.52675e+07,2.47153,1,2.9188,-412.067,314.803,-28519.9
8.52707e+07,58.8218,0,2.90813,5621.47,11013.1,-27732
8.53758e+07,8.03981,2,2.8427,-726.251,761.652,-27548.4
8.54354e+07,104.648,2,2.37186,8100.98,20337.8,-25914.1
8.57317e+07,44.8166,1,2.67325,3690.65,4028.74,-21107.3
8.58314e+07,102.505,2,2.7666,5908.31,9815.84,-10592.9
8.59033e+07,2.53551,2,2.72244,-480.749,-444.02,-28906.3
8.59914e+07,5.13118,1,2.47462,427.219,-416.642,-27981.2
8.6169e+07,2.52338,0,2.89788,410.09,-382.486,-28598.3
8.62147e+07,178.565,1,2.60513,-29311.6,22471.7,-20820.9
8.63852e+07,157.833,0,2.50572,20968.1,22046.7,-15025.2
8.64558e+07,21.3048,0,2.39883,-1919.29,1656.75,-25118.8
8.65464e+07,77.0962,0,2.79134,10810.3,10036.9,-21929.1
8.67125e+07,79.6387,1,2.88607,-8890.15,-7731.66,-16950.9
8.70073e+07,111.72,1,2.7521,12079,3538.68,-8960.95
8.72041e+07,124.2,1,2.86324,389.257,25326.7,-22158.4
8.74364e+07,3.55004,0,3.04426,-395.981,593.764,-28722.8
0,2.87864,1,3.05407,0,0,0
8.74453e+07,6.7245,1,2.4697,325.268,1444.27,-28582.6
8.75185e+07,14.8753,2,2.49445,-427.669,-2107.01,-26435.7
0,14.9998,2,2.90019,0,0,0
8.76887e+07,5.41882,2,2.91346,-467.942,984.511,-28729.1
8.77836e+07,5.70565,1,2.61661,-501.828,-365.272,-27787.9
8.77891e+07,11.9285,0,2.72186,2269.48,-375.317,-27599.7
8.79263e+07,113.89,2,2.46818,-5247.22,-23101.2,-23963.4
8.80224e+07,21.7468,0,2.93483,1761.95,2860.87,-25658.7
8.81584e+07,167.777,1,2.75445,-10921.4,27117.2,-8863.98
8.83326e+07,5.31921,1,2.63314,141.581,1194.04,-28692.8
8.87304e+07,41.0981,1,2.89605,-8609.68,1185.35,-28196.4
8.90027e+07,12.0778,1,3.01847,-2296.59,30.2106,-27692.1
8.93224e+07,144.158,1,2.51946,-8041.25,29456.6,-27314.7
8.9377e+07,30.3043,2,2.79601,-4418.43,-915.998,-24254.2
8.94707e+07,262.843,2,2.40006,19756.1,19017.4,19516.6
8.96107e+07,17.2967,2,2.92635,-1172.46,-1918.05,-26787.6
8.99927e+07,50.4039,0,2.86361,6496.07,5327.23,-22262.7
9.00877e+07,40.2188,0,2.49449,1357.35,7742.69,-25523.8
9.01785e+07,12.1665,1,3.05067,315.797,2519.85,-28100.8
9.0198e+07,93.5805,0,2.45848,14727.3,-7625.57,-18276.1
9.02668e+07,37.9797,2,2.87479,271.673,5040.09,-22680
9.03694e+07,1.37817,0,2.77439,-26.7487,-194.394,-28606.2
0,1.33161,0,2.58021,0,0,0
0,1.12154,2,2.94073,0,0,0
9.03854e+07,40.3307,2,2.72587,7592.63,-2649.37,-26067.9
9.0411e+07,77.0114,1,2.58804,-13029,1710.78,-19160
9.05576e+07,2.71403,1,3.05952,-211.613,621.616,-29006
0,2.68656,1,2.56013,0,0,0
0,2.6846,1,2.70532,0,0,0
9.11191e+07,48.7008,2,2.49216,-751.306,-7847.94,-22091.3
9.12924e+07,140.325,0,2.73648,21819.7,19469.1,-23966
9.13584e+07,246.778,0,2.7029,3211.18,-11991.2,-26734.3
9.174e+07,83.4178,1,3.044,6221.9,13889.2,-20116.1
9.18068e+07,158.23,2,2.60424,-25803,12258.3,-11478.6
9.19924e+07,67.218,1,2.66025,-1299.03,11573.9,-20603.2
9.20577e+07,48.7584,2,2.72866,4441.57,7893.18,-24086.2
9.20724e+07,118.268,2,2.36422,21502.3,-10993.2,-22172.2
9.21137e+07,68.4745,0,2.74438,3458.51,6036.3,-16189.1
9.21434e+07,6.11851,0,3.02326,462.871,-281.414,-27625
9.24124e+07,12.0002,2,2.40529,-1485.74,-2182.88,-28576.8
9.26111e+07,120.659,2,2.59356,12762.8,16765.1,-14603.2
9.2705e+07,77.0057,1,2.77831,8924.04,9923.23,-19616.3
9.27864e+07,39.7931,1,2.5404,-4782.05,-5598.48,-24806.8
9.32389e+07,30.2104,2,2.83983,2729.59,-5101.41,-26056.1
9.35468e+07,103.035,2,2.59765,-10849.1,-16050.1,-18738.6
9.38029e+07,238.853,0,2.53037,-5152.4,-9062.79,-23404.1
9.38578e+07,67.5755,0,2.83665,12376.3,-6761.13,-26412.6
9.38952e+07,90.3228,1,3.04285,16525,9164.17,-27951.6
9.41831e+07,8.57986,2,2.56664,76.4682,1089.84,-27440.6
9.4483e+07,205.28,1,2.65691,-25537.1,13951.6,3291.95
9.48486e+07,24.3454,2,2.6107,2955.48,70.1902,-25267.5
9.51094e+07,150.066,1,2.69318,21636.6,-866.325,-6213.6
9.58224e+07,51.2133,2,2.82392,5912.21,5490.63,-21742.5
9.61427e+07,146.259,0,2.44471,5624.55,-7329.61,-6783.27
9.67381e+07,143.981,1,2.71136,-29858.5,-5266.4,-26701
9.67877e+07,98.7581,1,2.83176,15675.1,13631.7,-29920.4
9.68678e+07,138.096,1,2.75527,-16313.6,-5790.97,-5449.41
9.70849e+07,34.2494,0,2.80742,-364.384,6385.37,-25469.8
9.72058e+07,157.029,0,2.98351,-3117.71,27714.5,-11354.3
9.72158e+07,57.3321,2,2.72113,-8686.39,-8514.72,-28118.3
9.72341e+07,15.2658,1,2.49927,-2894.21,685.467,-27392.5
9.72877e+07,35.9091,0,2.42882,4525.96,-5805.2,-26767.5
9.74103e+07,36.8516,2,2.79052,-5542.89,1869.65,-23731.8
9.78619e+07,83.5828,1,2.62025,-17193.1,-3153.45,-26154.3
9.82175e+07,20.5486,0,2.85162,-91.9888,-4342.7,-29137.7
9.82366e+07,117.184,1,2.84239,-8598.49,-22540.2,-24264.5
9.82833e+07,114.409,1,2.70928,13349.3,-12173.1,-12923.6
9.83538e+07,108.128,2,2.41918,-6618.16,-1927.6,-25055
9.85956e+07,51.2227,0,2.77418,7800.34,5218.98,-23355.3
9.87219e+07,50.9716,1,2.88268,7983.19,-6039.82,-25226.5
9.91443e+07,17.8733,0,2.45381,522.634,3409.53,-27264.5
9.92029e+07,68.0513,1,3.02818,3889.62,10525,-19994.6
9.92163e+07,11.701,1,2.4017,-2053.79,1572.55,-28821.3
9.96203e+07,131.922,0,2.97313,-14176.9,8813.31,-26166.8
9.96208e+07,206.101,1,2.79446,21340.4,-27618.3,-19910.2
9.96235e+07,11.9458,1,2.50686,-2476.85,426.167,-28132.3
9.98336e+07,15.5529,0,2.59514,2471.01,-1995.45,-27691.6
1.00154e+08,137.71,1,2.46908,25516,-8824.72,-18063.2
1.00253e+08,62.178,2,2.94347,-4979.42,-9542.18,-21360.5
1.00436e+08,79.6445,0,2.83584,4188,13879.5,-20401.5
1.00457e+08,78.3985,1,2.88227,1731.88,13852.7,-19968.3
1.00589e+08,41.244,2,2.68939,-3853.83,-1848.6,-21199
1.00701e+08,106.509,0,2.73248,-446.573,22337.8,-26683.6
1.01126e+08,77.1779,0,2.64514,-3308,13283.3,-26735.7
1.01414e+08,9.08174,2,2.71915,-336.42,-1782.29,-27958.7
1.01999e+08,82.6861,1,3.00374,1228.98,-17032.7,-26259.6
1.02179e+08,1.05265,1,2.65628,-23.6553,41.227,-28585.6
0,1.11336,1,2.82,0,0,0
1.02233e+08,55.8268,2,2.37536,-6584.27,-7054.56,-21890.3
1.02418e+08,40.2351,0,2.8758,7768.46,3554.23,-28281.6
1.02438e+08,49.9362,1,2.88363,-2592,8529.01,-23152
1.02829e+08,66.1103,0,2.68234,11265.1,-2654.26,-20980.7
1.03027e+08,264.009,2,2.95376,1780.66,-2187.08,-27595.8
1.03171e+08,11.005,1,3.0124,2115.87,-92.7007,-27962
1.03315e+08,34.4704,2,2.41056,-2643.32,-1291.15,-22118.7
1.0362e+08,26.5139,0,2.61798,3010.98,-2389.08,-24679.6
1.03771e+08,139.519,0,3.04231,16048.7,-5764.62,-14097.4
1.03807e+08,20.3925,1,2.86807,-2204.32,2760.28,-26259.6
1.03812e+08,18.945,2,2.66858,-1211.18,1582.42,-25889
1.03964e+08,101.701,2,2.47001,-6791.61,-16061.8,-16115.7
1.04003e+08,21.8768,2,2.94805,4316.29,-1527.52,-28575.1
1.04472e+08,9.87025,1,2.77562,-2049.78,248.087,-28236.5
1.04555e+08,262.431,1,2.8078,26566.3,25229.9,12481
1.04796e+08,87.8249,1,2.9216,13671.1,2746.53,-17000.3
1.04924e+08,141.68,1,2.9958,-15824,2622.95,-3819.3
1.05396e+08,58.9221,1,2.79376,-11119.4,-5388.45,-27400.7
1.06039e+08,83.9514,0,2.67283,-5821.31,-16156.5,-24582.2
1.06064e+08,71.3865,1,2.66213,8005.55,1454.06,-16164.3
1.06086e+08,3.7583,2,2.87518,181.765,-163.277,-28057.7
1.06732e+08,112.594,1,2.83138,3399.07,18190.2,-13961.5
1.06926e+08,79.1214,1,2.41108,9196.87,9092.06,-18162.3
1.075e+08,16.0766,0,2.45463,1376.53,-2938.45,-27649.3
1.07531e+08,10.0856,2,2.65775,1873.69,-1049.04,-28710.6
1.07569e+08,5.24595,2,2.55981,-484.128,-226.447,-27813.1
1.07685e+08,145.078,1,2.88804,-5916.86,25835.6,-13645.1
1.07782e+08,2.77958,2,2.74802,279.282,-358.164,-28430
1.08074e+08,105.019,1,2.55034,-8747.31,19651.2,-22951.5
1.0846e+08,86.245,2,2.66045,-10646.6,-14627.7,-26180.4
1.08833e+08,113.882,2,2.39607,-13941.8,-16499.5,-17951.8
1.08834e+08,9.59667,0,2.45275,-984.988,1579.34,-28048.4
1.08883e+08,15.654,0,2.7069,-2240.81,-1089.19,-26920.1
1.0901e+08,110.528,1,2.37566,20053.2,12046,-29617.7
1.09051e+08,116.837,0,2.96822,23873,4179.56,-24673
1.09152e+08,99.0943,1,2.8275,-3706.18,19101,-23818.8
1.094e+08,78.717,1,2.56622,-5976.47,8938.24,-24021.3
1.09409e+08,118.836,1,3.00682,-18657.3,6537.8,-28331.6
1.09444e+08,57.994,1,2.85274,-5969.24,6940.24,-20695.1
1.09571e+08,26.6334,0,2.63372,-1463.34,4999.47,-26693.9
1.09772e+08,138.108,0,2.60855,-23509.7,4960.71,-12397.7
1.09828e+08,142.885,1,2.61809,-10923.4,5801.54,-12874.9
1.09885e+08,14.3419,1,2.59725,-2725.27,1287.21,-28047.3
1.09948e+08,10.3555,1,2.62699,1397.26,1479.97,-29793.9
1.09957e+08,37.4683,1,2.66573,-4055.68,2858.92,-22622.9
1.10042e+08,84.596,0,2.87485,12909.5,-11832.9,-25402.5
1.10173e+08,146.99,1,2.57029,-904.999,10318,-16489.9
1.10194e+08,12.5405,0,3.0324,-775.031,797.698,-26460.3
1.10226e+08,3.50701,2,2.9339,-388.521,-765.415,-28863.3
0,3.50139,2,2.64035,0,0,0
1.10358e+08,20.6742,0,2.41528,-1395.04,-3473.18,-26593.7
1.10371e+08,89.2624,2,2.73856,-7557.45,6261.15,-12790.7
1.10543e+08,51.3268,1,2.71308,1660.44,-3145.48,-18928.6
1.1064e+08,40.4106,1,2.96099,7282.95,2742.96,-25445.7
1.10679e+08,145.707,1,2.83079,-29629.9,1150.87,-20875.2
1.10839e+08,17.7663,0,2.59698,2579.42,-2307.09,-27199.9
1.11448e+08,63.9269,1,2.52199,-7005.21,8221.93,-20585.3
1.12837e+08,12.0966,1,2.37518,-435.761,-1192.94,-26647
1.12899e+08,23.1727,1,2.4485,192.223,3430.44,-25253.4
1.13007e+08,203.363,2,2.76607,-22902.3,883.126,7338.49
1.13095e+08,60.3451,1,2.40242,728.614,6143.1,-17617
1.13169e+08,48.9581,1,2.70617,9363.52,870.084,-24593.6
1.1324e+08,21.9325,2,2.90556,-2778.23,3593.52,-28137.7
1.13291e+08,294.336,1,2.75562,22565.3,20270,-18745.1
1.13622e+08,134.278,2,3.06071,-21179.5,-11560.9,-14592
1.13739e+08,27.0432,1,2.72224,-4210.08,3515.03,-27013.5
1.13873e+08,140.666,2,2.84418,1871.92,-29228.4,-24260
1.14456e+08,39.5417,2,2.49875,-4971.59,-5025.39,-24225.7
1.14548e+08,49.3314,0,2.5161,6820.59,1137.79,-20949.4
1.14574e+08,101.417,2,2.71684,-8500.01,-19518.8,-26075.2
1.14697e+08,140.343,0,2.73178,23673.6,10792.5,-18314.8
1.14903e+08,76.1933,1,3.04523,-14342.2,5566.76,-24294.6
1.14925e+08,33.9827,1,2.69155,5880.3,711.293,-24791.4
1.15098e+08,1.00871,1,2.97378,-46.6503,298.797,-28740.6
1.15338e+08,7.26974,2,2.38405,-980.221,1097.01,-28351.4
1.15341e+08,119.181,2,2.88455,-11439.8,-22195.9,-26225.4
1.15813e+08,19.9122,0,2.81135,1077.17,-4035.58,-28068.9
1.16054e+08,125.75,1,2.68765,-14918.2,15317.9,-13082.7
1.16117e+08,64.5639,2,2.49195,-6070.42,-12319.2,-29196.7
1.164e+08,128.386,0,2.51351,-5043.56,-13533.1,-5901.78
1.16417e+08,110.112,2,2.53779,10637.4,-3099.48,-8374.43
1.16596e+08,117.567,0,3.00078,-21976.1,9239.68,-22806.8
1.16741e+08,46.7053,0,2.67319,-2790.99,-5650.09,-21353.1
1.17135e+08,150.288,0,2.64906,-3897.69,13777.4,-556.593
1.1791e+08,88.6593,2,2.87581,-1897.57,14537.7,-17421
1.18024e+08,86.7606,1,2.88882,-6031.67,-10312.9,-15095.9
1.18058e+08,135.331,1,3.05797,-15687.9,10813.8,-8177.23
1.18193e+08,93.8047,0,2.63278,7736.86,2795.97,-10776.7
1.1896e+08,62.9423,0,2.78831,1852.16,-11676.7,-22825.9
1.1902e+08,177.061,1,2.96689,-25385.1,25166.5,-18487.5
1.195e+08,39.7964,1,2.90641,-439.836,5518.61,-22483.4
1.1953e+08,72.6791,1,2.41879,6405.9,-11188.6,-20569.2
1.20217e+08,4.67362,1,2.56119,-141.584,-851.179,-28426.9
1.20287e+08,100.413,2,2.72119,-20395.4,5774.45,-28222.6
1.20434e+08,7.74713,0,3.051,185.482,1053.57,-27616.9
1.20663e+08,68.165,0,2.43117,-3566.79,-13053.1,-23831.7
1.20674e+08,94.8699,0,2.98501,-14647,12105.7,-24166.9
1.20755e+08,20.5632,1,2.41654,3848.81,1798.42,-29780.1
1.20757e+08,3.25079,2,3.02974,193.024,-729.755,-28993.2
1.21129e+08,112.047,0,2.51773,-9972.55,20978.9,-24323.7
1.21353e+08,40.8667,1,2.95191,-4276.49,-3449.94,-22256
1.21562e+08,101.27,2,2.63133,11498.4,-12015.3,-15363.3
1.21673e+08,134.641,0,2.79633,22996.9,-13817.2,-19467.5
1.21683e+08,11.7341,0,2.88662,-41.8312,-2115.25,-27556.2
1.21877e+08,107.215,2,2.39956,16587.2,-9054.14,-16250.7
1.22136e+08,152.585,2,2.88586,-6135.27,2975.71,-13889.5
1.22465e+08,102.946,0,2.92132,-4482.37,6570.91,-29748.6
1.22944e+08,19.7048,0,2.49368,1069.36,-2094.71,-25357.2
1.22962e+08,10.0608,0,2.72676,1909.49,-74.2583,-29963.9
1.23547e+08,78.9165,2,2.45705,-82.0035,-10292.8,-15633
1.23628e+08,44.6038,0,2.79939,-5067.16,-2639.52,-21422.1
1.23669e+08,51.6216,1,2.90394,3654.13,-8988.73,-24140.5
1.24234e+08,103.279,0,2.69378,21504.6,-143.722,-24856.6
1.24323e+08,104.696,0,2.88861,9971.48,18614.3,-22473.6
1.24323e+08,67.9764,2,2.45703,-4489.55,-13624.1,-26852.5
1.24421e+08,36.2023,2,3.00815,4347.97,-6191.43,-27716.3
1.24826e+08,49.7254,1,2.66186,-5151.33,5755.49,-21623.6
1.2502e+08,7.02146,1,2.95423,-428.517,-383.038,-27494.5
1.25095e+08,67.6695,0,2.75083,-6450.18,-5314.63,-17335
1.25206e+08,28.4696,2,2.81674,4936.64,2154.76,-26300.6
1.25239e+08,29.0277,1,2.42302,-4079.07,3988.65,-26301.4
1.25466e+08,74.9369,1,2.47956,1356.47,15131.2,-24153.1
1.25706e+08,55.1988,0,2.80717,5152.09,7479.85,-21502.1
1.26107e+08,101.254,0,2.41363,2739.32,12361.5,-11520.5
1.2696e+08,37.1967,2,2.47508,-4494.27,1311.5,-22510
1.27175e+08,20.2394,1,2.85493,374.428,-3163.14,-26090.9
1.27224e+08,18.28,1,2.5483,-1984.29,1180.95,-25675.4
1.27414e+08,71.1341,2,2.91697,-11929.6,-9098.16,-29248.8
1.27439e+08,138.222,0,2.4545,14014.4,23984.7,-19617.5
1.27628e+08,128.818,1,2.8792,-1498.76,19393.5,-20260.5
1.27987e+08,142.867,1,2.3786,-27260.1,-8679.69,-19040
1.28413e+08,19.232,2,2.6908,3328.58,-1316.76,-26917.9
1.28466e+08,164.614,1,2.66595,6880.38,6789.23,-8645.39
1.28684e+08,51.2318,1,2.75317,-9305.65,-597.546,-23372.4
1.28839e+08,41.208,1,2.51051,-3183.53,3030.12,-23061
1.29043e+08,5.2196,1,2.55604,-847.851,199.293,-28092.1
1.29469e+08,19.5596,2,2.52237,3950.2,-628.755,-27871.9
1.29537e+08,39.6436,2,2.87862,-2169.17,-5656.44,-23003.3
1.29605e+08,92.6671,2,2.934,-940.915,-15979.8,-20254.8
1.29923e+08,62.6376,1,2.70956,-1702.76,-10666.4,-21292.5
1.30003e+08,3.67479,1,2.80561,-598.302,595.708,-29093.5
1.305e+08,33.0163,2,2.62312,2426.93,4170.41,-23870.2
1.30538e+08,25.5785,1,2.78142,-1297.15,4661.5,-26295.5
1.30665e+08,117.401,2,2.69781,-24494.8,-3901.23,-28856.5
1.30733e+08,61.2214,0,2.6942,7516.94,-10403.3,-26888.2
1.30733e+08,2.40714,1,2.45369,-39.6067,274.022,-28354.1
1.30843e+08,238.136,1,3.02475,-23218.2,-4230.28,15142.4
1.30976e+08,69.5304,1,2.66775,-14078,2291.81,-25121.4
1.30979e+08,62.2534,1,2.376,-4757.2,3249.96,-16935.4
1.31071e+08,21.2031,0,2.88378,3202.13,-3138.83,-29569.7
1.31516e+08,22.5837,1,2.72123,-184.541,3913.92,-25987.2
1.31808e+08,104.513,0,2.85266,2602.85,-4298.77,-9781.98
1.31829e+08,196.853,2,2.62509,-15090.5,-23807.4,1766.83
1.32065e+08,27.9463,0,2.48696,1731.68,5147.26,-26387
1.32128e+08,11.0495,1,2.91532,843.979,1035.41,-26889.7
1.32134e+08,28.0376,2,2.68725,1908.45,-2802.94,-26172.6
1.32172e+08,73.2749,1,2.41006,-9984.66,9194.61,-21162.9
1.32454e+08,147.294,0,2.71131,6366.5,-27903,-16726.6
1.32725e+08,10.9779,2,2.67674,732.262,-2215.07,-28313.5
1.33579e+08,30.1822,1,2.91265,-5896.09,167.816,-26345.7
1.33785e+08,16.3906,0,2.91252,3524.85,-155.134,-29049.6
1.33979e+08,21.6462,1,2.4496,-1035.66,4016.14,-26699.6
1.34019e+08,162.224,0,2.42128,-7795.64,-26102.6,-7972.93
1.34178e+08,78.5521,2,2.66404,-2174.21,-16488.6,-29434.2
1.35634e+08,229.665,2,2.82447,-16338.6,-10852.9,15307.1
1.35637e+08,23.1582,0,2.43678,3939.64,-2842.1,-27835.2
1.35701e+08,138.173,1,2.73876,6434.19,20481.6,-9102.97
1.35785e+08,158.323,0,2.51504,16108.8,-29284.8,-28371
1.3604e+08,19.1337,1,2.8233,-1612.61,782.578,-25181.2
1.36123e+08,91.0702,0,2.98048,10724.4,-15525.4,-25422
1.36223e+08,82.0681,0,2.78861,-5983.02,13259.1,-19548.5
1.36361e+08,95.955,1,2.78295,-1962.78,1922.26,-27469.3
1.36473e+08,152.26,2,2.59407,26659.6,10046.2,-20097
1.36533e+08,23.0802,1,3.02056,-4307.57,443.22,-26553.7
1.36657e+08,105.869,1,2.63345,-30.9746,-21800.4,-24177.5
1.37216e+08,7.52414,2,2.51029,-1096.24,1103.67,-28619.8
0,7.42078,2,2.5535,0,0,0
1.37382e+08,181.097,0,2.50463,-23321.2,20654.7,-13925.9
1.37575e+08,22.6286,1,2.99085,-4026.18,-1407.16,-26645.6
1.37641e+08,10.6649,0,2.83428,1972.04,-204.961,-27594.8
1.37754e+08,162.695,1,2.61622,-14870.7,-19461.6,-4802.13
1.37894e+08,3.41284,0,2.45851,321.394,-482.728,-28329
1.37932e+08,132.719,2,2.59842,7989.52,-20996.3,-11972.2
1.3808e+08,35.1355,0,2.51972,3832.98,1421.84,-22554.4
1.38096e+08,98.1466,0,2.89669,13034.4,6094.17,-14025.4
1.3811e+08,54.0656,0,3.03243,7127.68,-8384.12,-25906.1
1.38734e+08,31.5104,1,2.68879,-4692.24,1977.28,-24461.9
1.40085e+08,35.3756,2,3.00686,-4141.19,-280.045,-22650
1.40103e+08,18.0332,2,3.03343,1441.67,-3568.77,-28947.6
1.40336e+08,17.9689,2,2.39678,3110.72,-461.385,-26680.1
1.40376e+08,27.9198,0,2.59593,1405.28,5598.01,-27503.6
1.40379e+08,214.389,2,2.81954,-18448.2,-22927.3,5377.52
1.40601e+08,71.3269,1,2.4105,-2509.1,14960.6,-29399.5
1.41632e+08,77.007,0,2.41661,-8518.62,-5411.29,-16061
1.42167e+08,122.006,0,2.39053,25907.6,441.637,-27876.9
1.42316e+08,64.0932,2,2.84945,7913.93,7714.28,-21194.1
1.42326e+08,42.631,2,3.04302,5277.55,-547.751,-21659.4
1.42773e+08,77.4944,1,3.0114,-11424.3,-5767.91,-18795.5
1.43377e+08,33.2654,1,2.79181,-5139.01,-2572.22,-24786
1.43424e+08,8.85016,2,2.84217,-1818.96,222.376,-28223.5
1.44143e+08,150.491,0,2.79387,-669.747,18839.3,-26103.9
1.44155e+08,77.3359,1,2.46155,-11443.2,-715.794,-21645.5
1.44163e+08,25.8365,0,2.96686,3543.1,660.274,-24698
1.44207e+08,115.7,2,2.87346,-7037.81,12656.8,-9317.56
1.44614e+08,43.255,1,2.96276,1446.06,8379.67,-25420.8
1.44633e+08,66.697,1,2.99275,1390.69,-7416.58,-17085.2
1.44942e+08,78.7824,0,2.71808,8473.93,2662.91,-14750.9
1.44974e+08,103.454,0,2.61254,13176.3,16178.3,-22208.3
1.45255e+08,44.7435,0,2.78674,6884.26,4245.15,-23854.5
1.45367e+08,81.9391,1,2.78362,-4180.87,-14321.5,-20233.5
1.45579e+08,19.7953,0,2.69985,2038.33,3726.13,-28581.3
1.45621e+08,170.438,0,3.03596,9009.07,26023.1,-6081.27
1.45728e+08,140.908,1,2.57342,-1513.78,-15832.6,-6793.94
1.45896e+08,21.0513,1,3.0345,-3477.01,2461.42,-27374.6
1.46028e+08,27.8413,0,2.69896,5883.89,-481.064,-29658.5
1.46317e+08,37.4483,2,2.4946,6060.59,1954.76,-24169.3
1.46536e+08,38.5778,1,2.62848,-3657.49,5209.19,-23631.3
1.47081e+08,91.9457,0,2.63057,13991.8,1306.57,-15380.5
1.47325e+08,41.9654,0,2.48917,3961.79,-7966.94,-27869
1.47461e+08,13.8821,0,3.00013,2249.55,1933.97,-28353.1
1.47507e+08,26.633,0,2.79403,-1615.56,-4188.63,-25518.5
1.47588e+08,36.3492,2,2.3948,-2011.66,-3050.82,-22000.8
1.48217e+08,99.7435,2,2.99046,-6597.19,-17404.4,-19163.5
1.4827e+08,90.9291,0,2.52839,-12806.7,-13401.1,-23885
1.48272e+08,13.929,0,3.0543,-1632.87,-2208.04,-27923.9
1.48471e+08,39.5631,1,2.53662,-6669.24,3062.38,-24659.4
1.48517e+08,35.7297,0,2.47011,7063.79,2995.14,-28725.3
1.48561e+08,45.7693,0,2.73461,9521.65,-1764.78,-27740.6
1.48776e+08,196.759,0,2.7201,-11958.4,21995.1,-4608.7
1.48781e+08,66.5273,0,2.48994,12983,-4311.9,-25145.7
1.49028e+08,26.6517,0,2.41771,2260.82,3654.97,-25100
1.49134e+08,15.5657,2,2.44847,3048.28,-1173.98,-28268.6
1.49641e+08,5.6865,2,2.40063,-176.993,-408.295,-28437.2
1.49712e+08,65.9101,1,2.92704,2620.5,-6992.27,-17247.5
1.50033e+08,37.1845,2,2.36958,485.297,-7813.3,-27537.5
1.50043e+08,162.032,1,2.7539,17541.1,27097.3,-17618
1.50134e+08,101.29,2,2.48177,-13491.1,7944.78,-14181.8
1.50295e+08,1.30634,0,3.04581,219.484,-141.746,-28607.2
0,1.47136,0,2.73923,0,0,0
1.50377e+08,28.3283,2,2.36413,-4861.74,-3470.93,-27594.8
1.50532e+08,20.1881,2,2.70585,1930.47,-3411.19,-27091.5
1.5072e+08,66.8907,1,3.04624,3983.02,11572.5,-21883.9
1.5102e+08,140.44,0,2.67036,-23437.5,11981.8,-15401.2
1.51185e+08,89.0376,2,2.60837,2649.33,-9764.3,-12956.3
1.51728e+08,254.238,0,2.96687,7374.48,23887.6,18263.2
1.51757e+08,94.0243,0,2.67348,11173.3,-1783.47,-12481.2
1.51899e+08,155.093,2,2.62951,-21712.2,16731.4,-10955.1
1.52298e+08,151.713,2,2.80996,-8833.44,4197.32,-21318.5
1.52473e+08,86.062,0,2.46749,5312.21,5384.69,-12236.3
1.5257e+08,195.099,1,2.37512,-17188.4,3211.26,8593.65
1.52664e+08,424.758,1,2.85229,22564.2,-5434.76,25578
1.52686e+08,66.6323,2,2.42827,3188.08,-6725.84,-16820.6
1.52722e+08,13.7989,1,3.00636,-1663.74,163.868,-26414
1.52759e+08,27.8414,0,2.8541,-568.475,2271.38,-23456.4
1.53411e+08,33.4092,1,2.66899,-4695.55,-4586.2,-26256.2
1.53447e+08,13.4199,0,2.40649,2650.55,1267.42,-28914.6
1.53631e+08,3.73782,2,2.78813,-788.28,-102.443,-28486.5
1.53706e+08,178.666,0,2.64743,18265.5,-27520.5,-10559.5
1.53777e+08,9.10425,1,2.50766,481.395,331.161,-26971
1.54088e+08,56.6798,1,2.9846,-448.718,10192.5,-22580.6
1.54373e+08,216.651,0,3.0206,-3274,4969.81,-18568.1
1.54625e+08,92.9302,1,2.85245,12675,13737.1,-22997.9
1.54662e+08,18.9741,0,2.9618,1931.64,-3310.02,-27553.4
0,18.9681,0,2.87717,0,0,0
1.54792e+08,36.8631,0,2.78952,7399.69,-1742.15,-26855.3
1.54796e+08,130.827,1,2.46967,-990.863,22530,-16066.5
1.55151e+08,63.3965,1,2.78851,-1216.71,7831.49,-18061.5
1.55169e+08,171.84,2,2.46621,15963.2,-22984.4,-5616.86
1.55395e+08,30.9972,0,2.98201,4071.19,-2419.63,-24271.9
1.55411e+08,136.571,0,2.9078,8982.25,11793.6,-4256.06
1.55693e+08,169.095,1,2.46642,-10376.4,25956.5,-6411.45
1.55719e+08,5.62006,0,2.94958,943.327,747.086,-28411.4
1.55947e+08,179.025,0,2.95285,8660.25,-17931.8,-7074.53
1.56019e+08,32.5897,1,2.8353,6311.02,1345.36,-26518.8
1.56027e+08,19.8989,2,2.48873,-3057.77,-2964.46,-29390.4
1.5621e+08,135.277,0,2.39987,-10114.4,7853.47,-3249.25
1.5623e+08,19.6748,1,2.51428,-3757.07,713.377,-27045.4
1.56366e+08,23.8949,1,2.77191,-5033.87,-609.851,-28580.3
1.56395e+08,279.832,2,2.88573,20251.5,-23258,21217.8
1.57091e+08,115.249,1,2.72501,-1377.73,-22961.8,-21268.2
1.57116e+08,64.4183,2,2.74433,-10269.9,-5907.54,-22099.8
1.57145e+08,51.6197,2,2.52194,-6158.41,-3649.64,-20511.6
1.57152e+08,200.119,1,2.54009,-14574,-10419.1,9490.88
1.57202e+08,299.72,0,3.03232,24629.1,22908,24215.5
1.57412e+08,25.49,2,2.70142,-1777.05,4025.71,-25770.8
1.57562e+08,162.302,0,2.70332,-12038.9,14540.8,-335.932
1.57609e+08,63.7444,1,2.47441,-312.624,12606.5,-23847.1
1.57947e+08,8.47851,0,2.66056,-1023.4,-763.942,-27617.3
1.58534e+08,10.29,0,2.68717,58.8359,1586.61,-27316.8
1.58558e+08,76.9894,0,2.64484,12539.3,9803.8,-25156.7
1.58575e+08,29.6871,1,2.90016,4991.72,-1547.9,-25478.5
1.5892e+08,8.8586,1,2.56805,-254.463,1943.77,-28620.1
1.59131e+08,7.18171,2,2.60468,-178.647,-826.247,-27519.3
1.59209e+08,109.172,0,2.55358,11490.7,61.9372,-9789.97
1.59419e+08,47.8023,2,2.40536,-1094.16,-6034.51,-20705.2
1.59561e+08,104.905,1,2.67613,3616.08,21547.5,-24880.3
1.59596e+08,119.212,0,2.76706,4509.12,10817.3,-17426.4
1.59658e+08,3.42419,2,2.69274,97.5864,585.566,-28509.3
0,2.98175,0,2.47795,0,0,0
0,3.00303,0,3.03276,0,0,0
1.59885e+08,14.5383,1,2.39118,2327.43,636.026,-26937
1.59907e+08,24.2176,0,2.76481,4845.85,-1650.42,-27970
1.60041e+08,5.3051,2,2.90733,-1018.07,-527.163,-28464.4
1.60415e+08,86.5451,0,2.9943,-6609.84,5014.42,-12711.1
1.60534e+08,23.1477,0,2.4024,46.0433,-2429.89,-24560
1.60923e+08,48.6046,2,2.74834,-9094.97,-4499.35,-26971.3
1.61334e+08,240.819,0,2.8736,-2739.61,5782.68,-23586.3
1.61371e+08,96.9485,1,2.84428,-11293.6,17075.9,-28332.6
1.61901e+08,37.9163,0,2.66849,-3148.12,-7266.47,-29952
1.61924e+08,101.257,2,2.57466,2271.83,-17196.4,-16189.9
1.62123e+08,53.8165,0,2.43357,-6781.19,2611.76,-20116
1.62433e+08,54.5363,1,2.61876,-962.22,4662.48,-18297.5
1.62535e+08,17.4963,0,2.94204,-2878,1832.58,-27597.5
1.62565e+08,31.8849,0,3.04597,2974.97,-5999.87,-29696.8
1.62859e+08,37.96,0,2.4723,-5683.56,203.136,-23212.6
1.63213e+08,18.7273,1,2.55414,-1983.68,-47.2952,-27262.9
1.63356e+08,131.007,0,2.39161,20994.9,-10296.9,-13861.5
1.63408e+08,18.3815,0,2.49194,3373.04,2041.32,-28342.4
1.63533e+08,58.6911,1,2.45589,4645.2,8214.28,-20686.2
1.63663e+08,63.1893,0,2.55355,2248.48,-9368.94,-19589
1.63776e+08,12.9929,1,2.83705,-1879.05,283.389,-26787.9
1.63832e+08,19.2341,1,2.49273,1271.25,3513.11,-27032.9
1.64096e+08,47.166,2,2.96044,-8084.34,-731.61,-23078.8
1.64394e+08,16.8288,2,3.04603,-392.803,-3602.83,-28500.5
1.66119e+08,49.2499,0,2.63494,-5766.26,-3384.01,-20893.8
1.66162e+08,59.4141,2,2.9025,9627.44,4430.15,-22325.6
1.66348e+08,48.1794,2,2.9308,-6177.16,-7657.05,-26061.1
1.6661e+08,45.1937,0,2.5335,-5491.24,7669.23,-27428.1
1.66749e+08,4.63093,0,2.90284,609.867,-160.923,-28039.2
1.66773e+08,89.8294,0,2.60311,-10192.4,14180.9,-21460.4
1.67021e+08,15.2854,1,2.74952,1489.51,-617.075,-26069
1.67212e+08,50.1649,0,3.01303,3456.19,-3175.47,-21854.6
1.67331e+08,41.704,0,3.04118,-3119.01,4660.03,-22183.2
1.67388e+08,11.5394,0,2.56199,419.43,953.378,-26585.1
1.67554e+08,80.46,0,2.74936,8266.11,13144,-21875.4
1.67784e+08,32.6255,2,2.47036,-4486.36,-2950.95,-24378.7
1.67922e+08,127.866,1,2.81436,-3369.36,-21012.1,-12474.1
1.67979e+08,139.897,0,2.97634,12160.4,19355.4,-10365.7
1.6839e+08,41.4733,1,2.98217,-1391.08,3593.67,-20983.2
1.68516e+08,2.52169,2,2.43681,-337.771,-345.262,-28493.1
1.68653e+08,139.031,2,2.61897,19562.2,-21914.8,-27662
1.68719e+08,163.558,1,2.78414,22645.3,-5737.81,-3910.84
1.68731e+08,35.3014,1,2.45394,-1861.95,6608.5,-25702
1.69468e+08,24.3185,0,2.6732,-1579.21,-2047.34,-24397.8
1.70025e+08,95.3608,2,2.93887,-2634.19,-11064.9,-12310.3
1.70156e+08,33.8418,2,3.00706,-3352.75,-6256.2,-27817.5
1.70315e+08,74.4689,0,2.87802,6341.96,-7651.78,-16822.6
1.70412e+08,152.461,0,2.79678,19646.1,15017.4,-8308.22
1.70495e+08,4.04382,2,2.48537,194.744,-893.489,-28635.1
1.7106e+08,157.558,0,2.74303,21896.4,3311.97,-17788.4
1.71195e+08,77.3116,2,2.64894,-14668.8,-6486.35,-25473.9
1.71264e+08,104.471,0,2.86019,4560.29,12661.7,-11439.6
1.71274e+08,26.842,1,3.01721,3863.53,-2979.77,-26122.2
1.71295e+08,154.189,2,2.74014,1415.94,-1996.69,-23108.6
1.71536e+08,70.8684,0,2.61612,6279.4,-12965.3,-24649.7
1.71728e+08,127.558,0,3.05346,-18828.2,-16334.6,-19393.3
1.71837e+08,11.1026,0,2.64022,1767,232.659,-27215.3
1.71953e+08,76.7119,0,2.62961,10557.2,-12357.1,-29537.4
1.72001e+08,14.2164,1,3.06112,2945.24,-314.384,-28837.3
1.72174e+08,81.697,0,2.46547,794.708,-9009.15,-14091.9
1.7268e+08,31.8663,0,2.86817,1851.21,6400.58,-27863.2
1.72809e+08,20.4434,0,2.61557,4161.6,1235.36,-28000.9
1.72913e+08,238.324,0,2.86807,17015,26086.2,8638.28
1.72939e+08,7.91492,2,2.7611,434.425,-317.036,-27228.5
1.73005e+08,30.0229,1,2.8251,461.777,5200.15,-25154
1.73134e+08,35.1964,2,2.77291,1827.35,-5198.93,-23788.7
1.73344e+08,47.6406,1,2.80159,-6752.22,1651.98,-21535.9
1.73475e+08,42.812,0,2.70128,6300.04,6209.26,-26625.3
1.73579e+08,39.0956,0,2.94228,1352.51,7161.64,-24973.3
1.73681e+08,33.6829,1,2.81029,188.15,-5643.7,-24604.9
1.73774e+08,191.934,0,2.7179,22294.1,21188.4,-2522.91
1.7389e+08,28.3834,2,2.85672,-4093.11,-1185.22,-24615.8
1.74247e+08,79.7262,1,2.63526,11186.2,-9031.5,-20184
1.74363e+08,182.934,1,2.61643,6929.81,19613.8,3723.65
1.74569e+08,148.296,2,2.50534,12304.4,-16301.7,-5013.94
1.74669e+08,14.9408,2,3.02067,-1256.56,-2929.43,-29496.4
1.75038e+08,72.995,0,3.00644,-4355.84,-13911,-24161.7
1.7517e+08,11.0416,0,2.50891,-530.882,-2196.03,-29473.4
1.75924e+08,179.934,2,2.7194,-6432.94,26960.2,-3029.49
1.7611e+08,36.3812,1,2.58144,124.31,7756.64,-28165.1
1.76307e+08,68.8165,1,2.80743,6617.57,2103.28,-16465.5
1.76455e+08,86.4379,2,2.76477,533.658,-8365.69,-12633.6
1.76552e+08,77.1659,2,2.44075,-3818.71,-8520.58,-15374.7
1.76931e+08,108.555,0,2.54138,-20110.7,-1715.81,-18041.3
1.77374e+08,11.5812,1,2.62719,-1181.35,-42.0537,-26668
1.77672e+08,3.12241,0,2.61623,345.803,-296.322,-28281.2
0,3.45973,1,2.40877,0,0,0
1.782e+08,64.6337,0,2.65494,9623.41,-6899.42,-21909.6
1.78324e+08,23.9806,0,2.76145,-2125.26,-2658.7,-25132.7
1.7849e+08,154.526,1,2.87193,-26675.4,-18223.9,-25681.4
1.79076e+08,163.783,2,2.94206,-19661.8,17611.6,-6839
1.79077e+08,72.7985,1,2.82585,12186.8,9313.21,-28500.9
1.79821e+08,118.041,2,2.71538,-16097.1,4863.89,-10462.6
1.79941e+08,64.8042,1,2.71888,713.935,-6218.89,-16721.5
1.80129e+08,10.8431,2,2.96838,-625.151,-2015.88,-27744.5
1.80326e+08,89.3749,0,2.5207,13568.2,13075.4,-26641.8
1.80355e+08,43.8294,2,3.01237,-668.16,-3574.82,-28776.6
1.80537e+08,71.4335,2,2.53507,8472.77,-12509.7,-27831.4
1.80639e+08,45.3231,2,2.88701,-2939.71,-2110.67,-27344.6
1.80785e+08,69.5548,0,2.5889,2011.04,10289,-18486.6
1.80835e+08,90.4596,1,2.9558,-15739.9,-26.7946,-18155.4
1.8092e+08,100.043,1,2.74305,4636.1,18998.6,-20784
1.81098e+08,59.1061,0,2.54976,1399.01,-8470.08,-19716.4
1.81395e+08,14.4785,1,2.64424,-1697.37,2007.01,-27106.7
1.81626e+08,91.7189,2,2.68431,786.07,-11903.3,-13580.9
1.81641e+08,76.8644,2,2.78062,2319.13,-16067.4,-29179.7
1.81715e+08,62.5838,0,2.9877,-5209.43,-11383.2,-24948.3
1.81881e+08,260.535,2,2.55014,-18568,-26955.4,15484.4
1.81948e+08,25.788,0,2.49019,-2538.74,3664.6,-25728.8
1.82013e+08,67.7361,1,2.6908,-10952,8209.85,-24436.2
1.82139e+08,11.9319,0,2.44544,-1778.1,1118.63,-27537.7
1.82264e+08,72.4657,2,3.04893,4959.24,4637.84,-15276.8
1.82512e+08,49.3572,1,2.55678,-380.074,10119.4,-25958.7
1.82702e+08,154.899,0,2.91061,-14638.4,25421.1,-14914.4
1.82746e+08,20.5962,0,2.41287,-1789.93,3561.83,-27149.2
1.83045e+08,30.2416,2,2.57691,-3013.26,-5760.55,-29237.7
1.8311e+08,161.864,0,2.48889,23336.7,-22704.7,-18049.3
1.83402e+08,151.129,2,3.04525,-23675.6,-7265.71,-17275.2
1.83402e+08,7.04251,2,2.569,-686.923,-1434.97,-29013.9
1.83518e+08,213.213,1,2.91936,-14121.4,-2937.52,-16458.8
1.83783e+08,3.00858,1,2.43522,-615.26,365.814,-28983.9
1.83806e+08,40.994,1,3.01195,7318.16,-1212.43,-24569.7
1.83968e+08,26.141,0,2.74342,106.541,-5426.38,-29928.3
1.84423e+08,64.3598,1,2.40399,-6969.7,11496.4,-26142.2
1.84465e+08,60.1576,1,2.49024,6720.16,6522.25,-20179.9
1.84655e+08,1.54161,2,3.02597,-371.509,-175.641,-28951.9
1.85063e+08,56.7372,0,2.74201,-1226.14,-8637.23,-20678.9
1.85337e+08,81.8715,1,2.56026,-13762,-624.435,-18353.6
1.8552e+08,69.7157,1,2.82586,-11923,-2628.98,-20664.7
1.85542e+08,112.696,2,2.54081,-12542.1,-11584.5,-12136.4
1.85607e+08,154.193,2,2.83911,-19408.6,-17008.4,-9089.16
1.85872e+08,13.3997,0,3.04889,-2086.87,1190.66,-27458.5
1.85876e+08,47.2091,2,2.73838,-4965.31,-3597.5,-20944.3
1.85901e+08,31.586,0,2.58073,-5953.18,-695.691,-26020
1.86086e+08,7.43076,1,2.41178,811.162,458.259,-27587.5
1.86551e+08,159.948,1,2.60083,-24097.1,-21238.8,-23645.5
1.86768e+08,58.6835,1,2.60266,-9775.08,5734.99,-23598
1.86897e+08,109.882,0,3.05317,-5441.97,-13387.4,-10929.5
1.86916e+08,37.8466,2,2.63695,-6279.96,-66.5398,-23808.4
1.87023e+08,108.85,0,2.89885,18019.9,-2742.77,-14923.5
1.87051e+08,0.634495,1,2.78269,16.585,13.8697,-28698.7
0,0.609529,1,2.92624,0,0,0
0,0.602673,1,2.73431,0,0,0
0,0.661909,1,2.95071,0,0,0
0,0.605058,0,3.0076,0,0,0
1.87108e+08,141.518,2,2.93642,-13059.3,-1026.5,-2162.95
1.87306e+08,84.3361,1,2.46973,-17633.4,3170.08,-29309.8
1.87474e+08,283.69,1,2.98781,-29282.5,22149.4,18004.4
1.87679e+08,105.77,1,2.59869,-1599.63,21361.8,-22194.3
1.87792e+08,85.2182,0,2.75491,13491.9,10393.4,-22971.4
1.87827e+08,21.7085,1,2.81141,1805.62,4235.8,-29195.9
1.87855e+08,75.3346,1,2.9069,-3385,9063.65,-16235.1
1.87931e+08,149.66,1,2.61993,23478.6,6977.21,-8895.36
1.88065e+08,25.8511,1,2.39563,5060.92,-1804.74,-27999.5
1.8821e+08,5.01109,0,2.9102,1130.22,-137.843,-28814.1
1.88423e+08,138.606,0,2.7529,-12397.7,-10031,-4460.01
1.8867e+08,52.5259,2,2.51537,-3672.63,-2573.82,-18634.1
1.88884e+08,103.069,1,2.78948,14309,2279.95,-12702.1
1.88924e+08,34.3183,0,2.94466,3725.74,-5581.61,-26098.5
1.88977e+08,109.726,2,2.54111,-18804.2,-11997,-22158.3
1.8917e+08,66.4702,0,2.54911,8476.77,9757.83,-23151
1.89392e+08,27.833,1,2.47654,2029.25,2771.31,-23998.7
1.89393e+08,1.88258,1,2.49333,-274.292,-217.202,-28659.1
1.89416e+08,4.62307,1,2.38124,-672.685,401.305,-28137.3
1.89601e+08,14.0747,1,2.61262,689.162,2852.62,-28078.1
1.89615e+08,52.5031,0,3.05398,1094.04,2819.21,-18328.4
1.89656e+08,109.483,0,2.56138,12009.1,-14663.1,-15488.8
1.898e+08,33.0485,2,2.76653,5096.78,-2383.42,-24765.8
0,32.7932,2,2.69052,0,0,0
1.89937e+08,249.997,0,2.57827,-11.2564,27965.1,15972.7
1.89979e+08,21.6805,1,2.4845,1236.58,2135.7,-24918.5
1.90023e+08,2.23087,1,2.81446,-393.557,198.437,-28538
0,2.76702,0,2.96304,0,0,0
1.90121e+08,179.309,1,3.01522,22531.2,16549.9,-3702.8
1.90534e+08,141.293,2,2.83042,1571.18,19766.2,-6771.35
1.9081e+08,63.554,1,2.81566,7566.85,7969.3,-21161
1.9096e+08,96.5342,0,2.41331,17980.4,6887.51,-21738
1.91098e+08,49.1444,0,2.83225,-1131.46,-8446.49,-22965.5
1.9117e+08,119.654,0,2.83939,5880.99,-4288.57,-19884.6
1.91454e+08,26.6388,1,2.93449,-5236.86,-397.61,-26782.3
1.91513e+08,251.442,2,2.64574,24130.6,27972.7,8874.71
1.92065e+08,27.4042,2,2.78377,-959.915,-3238.3,-24077.9
1.93413e+08,181.264,0,2.82702,24533.7,14644.8,-3507.51
1.93499e+08,129.582,0,3.00026,19653.5,-18820.3,-27633.7
1.93754e+08,107.629,1,2.51375,-8099.3,12169.7,-15819
1.94512e+08,95.0538,0,2.49134,16550.3,10248.1,-23549.9
1.94567e+08,95.0202,2,2.45545,-15860.3,10097.2,-21698.9
1.94785e+08,40.8645,2,2.42888,-2343.21,5609.39,-22712.2
1.95127e+08,41.6233,0,2.70806,3192.13,265.512,-28473.2
1.95395e+08,131.138,2,2.38982,-10948.2,-25106.3,-23751.5
1.95425e+08,83.051,2,2.80753,5498.71,-15139.2,-21915.1
1.95436e+08,77.7348,1,2.59453,7192.8,14722.9,-27133.6
1.95642e+08,174.183,2,2.6174,5368.66,-18384,-824.897
1.96012e+08,3.33737,0,2.78228,-8.06263,-433.295,-28255
1.96115e+08,81.7647,0,2.40929,-8954.34,13917.4,-23839.3
1.96161e+08,15.6922,2,2.93561,1777.1,-192.328,-26094.6
1.96257e+08,8.27306,0,2.93909,722.871,-918.123,-27481.1
1.96511e+08,44.2795,1,2.4647,7193,402.764,-22857
1.96695e+08,60.3165,1,2.37998,-8250.39,-5566.5,-20832.3
1.96733e+08,0.00262193,2,4.06523,-50.9204,-82.2639,-28812.2
0,0.00970529,2,2.72157,0,0,0
0,0.00449016,2,2.61235,0,0,0
0,0.00102147,2,3.34258,0,0,0
0,0.000529713,2,3.42583,0,0,0
0,0.000933376,2,3.61198,0,0,0
0,0.00693856,2,3.39156,0,0,0
0,0.00651704,2,2.47151,0,0,0
0,0.000548137,2,3.42095,0,0,0
0,0.00235938,2,3.04057,0,0,0
0,0.00836505,2,2.81342,0,0,0
0,0.00957464,2,3.36926,0,0,0
0,0.00177499,2,3.34393,0,0,0
0,0.00103668,2,3.60812,0,0,0
0,0.0020429,2,3.50223,0,0,0
0,0.0022143,2,2.7297,0,0,0
0,0.000348246,2,2.63443,0,0,0
0,0.00982429,2,3.0912,0,0,0
0,0.00738034,2,3.57841,0,0,0
0,0.00814585,2,2.48625,0,0,0
0,0.00155167,2,2.6264,0,0,0
0,0.000145113,2,3.61656,0,0,0
0,0.00238916,2,3.75755,0,0,0
0,0.00733971,2,3.33591,0,0,0
0,0.00765576,2,3.47234,0,0,0
0,0.00363645,2,3.28373,0,0,0
0,0.0071574,2,2.87995,0,0,0
0,0.00622772,2,3.29148,0,0,0
0,0.00568886,2,3.52546,0,0,0
0,0.00602407,2,2.81447,0,0,0
0,0.0027187,2,2.0788,0,0,0
0,0.00658371,2,4.08133,0,0,0
0,0.00538454,2,2.87026,0,0,0
0,0.000216795,2,3.77057,0,0,0
0,0.00370182,2,4.13091,0,0,0
0,0.00281894,2,3.81071,0,0,0
0,0.00122667,2,3.52842,0,0,0
0,0.000190162,2,3.80839,0,0,0
0,0.00386846,2,4.08809,0,0,0
0,0.000330536,2,3.95173,0,0,0
0,0.00566249,2,2.3865,0,0,0
0,0.00251532,2,2.5336,0,0,0
0,0.00826513,2,3.24861,0,0,0
0,0.00164748,2,2.80903,0,0,0
0,3.60423e-05,2,2.7695,0,0,0
0,0.0072312,2,2.23371,0,0,0
0,0.00210654,2,2.11101,0,0,0
0,0.00965773,2,2.08638,0,0,0
0,0.00162009,2,3.97261,0,0,0
0,0.000437228,2,2.38102,0,0,0
0,0.00757722,2,3.30183,0,0,0
0,0.0031029,2,3.74494,0,0,0
0,0.00838283,2,3.12243,0,0,0
0,0.00604507,2,2.09829,0,0,0
0,0.00678479,2,3.80466,0,0,0
0,0.00397922,2,2.12758,0,0,0
0,0.00911862,2,2.3169,0,0,0
0,0.00651662,2,3.18167,0,0,0
0,0.00253029,2,3.03823,0,0,0
0,0.00566853,2,3.68499,0,0,0
0,0.00384145,2,2.7494,0,0,0
0,0.00250024,2,2.37243,0,0,0
0,0.00371394,2,2.46803,0,0,0
0,0.00599063,2,3.22388,0,0,0
0,0.00688639,2,2.79939,0,0,0
0,0.0079304,2,3.98861,0,0,0
0,0.00867118,2,2.08877,0,0,0
0,0.00519508,2,3.38639,0,0,0
0,0.0098063,2,2.64902,0,0,0
0,0.00320606,2,2.19263,0,0,0
0,0.00525925,2,3.53187,0,0,0
0,0.00150489,2,3.73317,0,0,0
0,0.0065418,2,3.95407,0,0,0
0,0.00489687,2,2.79109,0,0,0
0,0.00239095,2,2.28084,0,0,0
0,0.00587431,2,3.78692,0,0,0
0,0.00157057,2,3.75473,0,0,0
0,0.00161037,2,3.18444,0,0,0
0,0.00269867,2,3.96027,0,0,0
0,0.00578513,2,4.09946,0,0,0
0,0.00501926,2,3.7226,0,0,0
0,0.00355443,2,2.34375,0,0,0
0,0.000254381,2,2.51189,0,0,0
0,0.00335856,2,3.71725,0,0,0
0,0.00782324,2,3.27835,0,0,0
0,0.00450753,2,2.34071,0,0,0
0,0.00134191,2,3.47538,0,0,0
0,0.00253513,2,3.83153,0,0,0
0,0.00347031,2,2.76471,0,0,0
0,0.00527351,2,4.02756,0,0,0
0,0.00435848,2,3.98063,0,0,0
0,0.00942116,2,2.12111,0,0,0
0,0.0067536,2,2.29459,0,0,0
0,0.00810014,2,3.90474,0,0,0
0,0.00890401,2,3.40708,0,0,0
0,0.00620574,2,3.72173,0,0,0
0,0.00720118,2,4.12522,0,0,0
0,0.00600538,2,3.19402,0,0,0
0,0.00692252,2,2.85027,0,0,0
0,0.00690602,2,3.84538,0,0,0
0,0.00655939,2,2.42956,0,0,0
0,0.00626957,2,2.35989,0,0,0
0,0.00999259,2,3.82182,0,0,0
0,0.00713977,2,3.03759,0,0,0
0,0.0081998,2,2.22535,0,0,0
0,0.00664353,2,3.56811,0,0,0
0,0.00991247,2,3.95035,0,0,0
0,0.00755448,2,2.79454,0,0,0
0,0.00599009,2,2.62265,0,0,0
0,0.00939582,2,4.04387,0,0,0
0,0.00649833,2,4.03842,0,0,0
0,0.00831533,2,2.69079,0,0,0
0,0.00668953,2,2.80605,0,0,0
0,0.0098797,2,2.61742,0,0,0
0,0.00926113,2,3.303,0,0,0
0,0.00702221,2,3.68651,0,0,0
0,0.0080452,2,3.1722,0,0,0
0,0.00936952,2,3.14313,0,0,0
0,0.0073219,2,3.13125,0,0,0
0,0.00822474,2,2.72265,0,0,0
0,0.00797562,2,4.12177,0,0,0
0,0.00754569,2,3.60971,0,0,0
0,0.00919039,2,3.88811,0,0,0
0,0.00881601,2,4.04556,0,0,0
0,0.00944014,2,2.19977,0,0,0
0,0.00993685,2,2.29662,0,0,0
0,0.00897149,2,3.14394,0,0,0
0,0.00961523,2,3.29279,0,0,0
0,0.0100071,2,2.77664,0,0,0
1.97185e+08,45.2647,2,2.82213,-2195.12,-8100.64,-24202.3
1.9731e+08,152.085,2,2.55759,-448.557,22756,-6184.61
1.9753e+08,28.0744,0,3.05414,3340.65,3538.53,-25409.5
1.97565e+08,97.5012,0,2.53857,12555.3,-16382.5,-27453.5
1.97643e+08,170.412,0,2.72191,27265.1,18256.5,-14079.2
1.97924e+08,48.4832,2,2.43559,380.042,-8900.87,-23619.6
1.97996e+08,10.5452,1,2.36679,1679.3,1290.19,-27986.3
1.98105e+08,123.283,2,2.99435,-2086.15,-11555.9,-5779.82
1.98368e+08,75.1089,2,2.40519,-1043.49,11990.1,-18507.1
1.98713e+08,102.446,0,2.49516,16237.9,-13097.1,-22740.5
1.98992e+08,9.33295,0,2.45178,-1213.68,1480.07,-28503.1
1.99395e+08,68.3359,1,2.72535,-8765.08,7104.24,-19757.1
1.9944e+08,41.4463,0,2.82836,8618.72,-1788.82,-29521.4
1.99793e+08,236.117,0,2.80041,27838,-18.2693,12364.1
1.99868e+08,61.0555,2,2.93433,543.342,-12891.9,-29296.6
2.00096e+08,70.0157,0,2.82822,4016.26,7943.58,-17057.4
2.00495e+08,40.9349,0,2.83025,5327.05,170.944,-22006.8
2.00976e+08,93.6991,0,2.38851,-11542,5145.77,-13603.7
2.01175e+08,38.7813,2,2.96662,-1936.73,5459.7,-23142.8
2.01535e+08,37.8112,0,2.7365,721.119,-7938.35,-28408.9
2.01616e+08,20.5082,1,2.41229,-3608.29,-1531.03,-26912.2
2.01803e+08,10.7218,2,2.6485,-382.652,1425.87,-27129.9
2.02184e+08,57.226,0,2.47568,6137.6,4391.9,-20442.6
2.0255e+08,100.25,1,2.61436,-21021.4,2373.51,-26873.6
2.02572e+08,11.2994,2,2.68172,-1058.81,879.013,-26877.6
2.02931e+08,65.7122,2,2.59203,6291.08,-9847.49,-21240
2.03033e+08,72.3752,2,2.99972,-2879.07,-9559.8,-17327.9
2.03049e+08,11.446,1,3.02794,1709.26,1400.98,-27805.8
2.03276e+08,130.381,0,2.62178,20907.4,-8697.52,-13088.9
2.03619e+08,195.969,0,3.0265,-16546.1,17127.9,4571.45
2.03632e+08,3.9911,0,2.90895,-240.782,-686.952,-28435.6
2.03737e+08,176.358,1,2.68259,-277.49,26460.9,-2632.38
2.04158e+08,156.206,0,2.97569,28192.8,-16280,-24565.4
2.04561e+08,48.9638,0,2.84503,4893.02,8240.63,-24913.8
2.05399e+08,188.032,1,2.70096,27582.7,-10276.6,-2351.42
2.0559e+08,12.8592,0,2.7527,1295.89,2401.17,-29429
2.05636e+08,56.5895,1,2.62534,-2341.43,8891.73,-21081.4
2.05749e+08,147.953,0,2.80238,23933.8,5025.88,-9493.9
2.06026e+08,103.618,2,2.53598,11499.6,-4545.88,-10744.6
2.06185e+08,39.8396,0,2.59959,6349.89,-4583.55,-25524.5
2.06277e+08,21.1,0,3.05859,1829.52,956.088,-24873
2.06382e+08,30.5975,1,2.58263,4713.89,4508.19,-28824.6
2.06873e+08,51.7297,1,2.58175,-9404.19,-5523.98,-29795.2
2.06879e+08,9.19069,1,2.92227,-526.136,357.306,-26972.9
2.06933e+08,69.2291,1,3.00281,-4467.43,-11240.6,-20861.3
2.07126e+08,171.501,0,2.55905,25691.5,609.879,-3200.68
2.07466e+08,42.1382,0,2.94334,-1331.84,8477.5,-26683.7
2.07526e+08,117.512,1,2.70441,11488.5,19769.8,-19176
2.07596e+08,133.016,0,2.87774,16196.6,-10002.5,-8303.79
2.08016e+08,71.3411,1,2.58868,5844.19,-11400.9,-20981.6
2.08307e+08,151.887,1,3.03401,-7101.7,22701.5,-7594.76
2.08393e+08,68.3122,0,2.40734,-8837.31,-4037.38,-18198.8
2.08462e+08,18.5139,1,2.61754,352.309,1783.96,-25319.5
2.08535e+08,86.3179,0,2.36732,-7163.06,-16444.3,-25439.7
2.08904e+08,113.547,1,2.39144,22711.3,-7409.65,-26826.5
2.09001e+08,117.59,0,2.97011,12715.5,20628.2,-24092.4
2.09083e+08,126.166,1,2.6402,-21064.9,2179.6,-12618.3
2.09088e+08,141.161,0,2.82682,-945.072,-16490.7,-9466.06
2.09097e+08,87.5623,2,2.54983,10157.3,5962.54,-14593.7
2.09641e+08,60.7346,0,2.86675,10034.7,-6522.96,-24224
2.10122e+08,18.2011,0,2.75023,3206.21,354.621,-26608
2.10476e+08,43.7795,1,2.63173,8669.06,-2587.97,-27116.9
2.10703e+08,118.594,1,2.67832,15878.2,4243.09,-10027.7
2.10709e+08,132.324,0,3.03159,-20128.8,4948.63,-10523.4
2.10792e+08,45.5015,1,2.59923,-7472.09,4765.17,-24894.5
2.1082e+08,34.942,1,2.87982,-2998.62,568.469,-22125.2
2.10991e+08,8.7267,1,2.63694,1689.25,709.068,-28491.2
2.11291e+08,51.953,2,2.89036,10001.4,-1027.44,-24609.9
2.11455e+08,96.071,0,2.40033,2241.55,-16556.8,-17210.9
2.11616e+08,66.7237,2,2.7963,10480,-9411.27,-28505.8
2.11933e+08,3.75479,1,2.38245,-29.226,795.851,-28442.9
2.11936e+08,198.938,1,2.67997,-23221.1,-25439.2,-5008.07
2.11956e+08,47.26,0,2.70816,-270.02,-9989.48,-28785.1
2.12124e+08,3.04156,0,2.74114,438.632,-460.785,-28528.2
2.1218e+08,102.213,1,3.02408,-20116.7,-6135.85,-24665.9
2.12506e+08,100.42,1,2.95818,-15032.2,13074.6,-21701
2.12521e+08,8.06463,2,2.4642,-1174.12,-1300.91,-29223.9
2.12585e+08,9.49028,1,2.37942,-431.235,217.275,-26861.8
2.12592e+08,84.1975,0,2.57989,14070.1,-1312.27,-17907.7
2.12684e+08,44.901,2,2.4453,1188.72,-7273.72,-22740.6
2.12777e+08,187.988,1,3.02332,28190.2,14473.6,-5418.13
2.12955e+08,98.9763,2,2.76256,-19856.3,4996.43,-24732.8
2.12989e+08,93.3602,1,2.46205,15388.5,-9142.83,-20648
2.13323e+08,128.509,1,2.6555,18608.2,16874.3,-18590.5
2.13648e+08,26.0366,1,2.48432,2157.24,3403.71,-25034.4
2.13818e+08,112.692,2,2.37977,13489.4,-14297.7,-15335.9
2.13824e+08,41.3737,1,2.54065,-7908.87,2186.22,-25597.6
2.13978e+08,18.9443,2,2.87423,1034.19,3479.09,-27363.5
2.14117e+08,56.1023,0,3.01423,10717.7,-3032.01,-24825
2.14484e+08,163.303,2,2.43616,-26962.3,-11595.6,-10501.6
2.14567e+08,153.469,2,2.54314,28706.1,-4509.61,-14457.8
2.14676e+08,1.5158,0,2.3952,296.865,251.724,-28712.2
0,1.49257,0,2.53484,0,0,0
2.14898e+08,36.0615,2,2.36429,-2192.26,-3027.29,-22129.8
2.15152e+08,31.2666,0,2.60583,-268.124,-5977.8,-26019.3
2.15182e+08,32.3618,0,2.63493,5389.08,-3854.02,-26822
2.15328e+08,87.7805,1,2.70225,-13363.2,10713.4,-21580.8
2.15333e+08,0.487858,1,2.70022,-151.191,145.716,-28801.2
0,0.48146,1,2.93174,0,0,0
0,0.486434,1,2.59461,0,0,0
2.15719e+08,22.7287,1,2.66952,-2670.98,579.685,-24879.6
2.16513e+08,106.926,2,2.92157,-7564.86,17990.2,-17852.4
2.16614e+08,85.7199,0,2.49993,-2994.15,12601.6,-19000
2.16636e+08,47.1565,1,2.79372,-5137.54,8566.55,-28177.3
2.16861e+08,26.9573,2,2.6011,868.515,-2055.31,-29916.8
2.17294e+08,6.42096,1,2.80363,-1050.58,959.896,-28626.9
2.17485e+08,68.6645,0,2.51018,4790.61,-6597.23,-16799.7
2.17733e+08,134.475,0,2.71691,-888.731,-14743.3,-4677.21
2.1789e+08,32.2961,2,2.54995,-1929.7,3557.95,-23375.4
2.18156e+08,16.5214,1,2.68348,-1969.52,2985.31,-28421.7
2.18194e+08,93.1902,2,2.6069,-3190.22,-3771.54,-24323.2
2.18321e+08,161.411,1,2.86385,-21294.7,25258,-20797.1
2.18569e+08,126.562,2,2.95077,1675.75,-37.8329,-28444.2
2.18578e+08,70.2926,0,2.70822,-1542.66,-12402.3,-20835.2
2.18826e+08,44.4378,0,2.80648,-1792.38,4146.9,-20665
2.19523e+08,131.136,2,2.52751,2167.65,22826.6,-13358.6
2.20046e+08,94.2851,2,2.38909,14677.5,-12227.2,-23042.6
2.20157e+08,135.389,0,3.0139,14600.2,-12044.1,-7631.72
2.20281e+08,100.296,2,2.74907,2457.31,-20346.8,-23368.7
2.20493e+08,41.2135,2,2.78351,-588.689,-3158.73,-20740.1
2.20769e+08,31.1287,0,2.45104,2124.8,-1525.61,-25049.9
2.21029e+08,48.4669,1,2.82636,3170.05,4983.99,-20474.2
2.21053e+08,17.0232,2,2.44544,-490.462,-1734.15,-25650.7
2.21313e+08,20.1514,0,2.38715,-2224.42,-881.948,-25327.9
2.21359e+08,191.878,1,2.91196,-28120,-648.68,-76.4287
2.21473e+08,54.2485,0,2.53455,-1130.83,-6971.25,-19785.8
2.21694e+08,8.28937,0,2.85598,462.616,1687.36,-28460.6
2.21738e+08,68.2287,2,2.76505,-4251.85,8734.34,-18297.1
2.21793e+08,32.2796,2,2.73324,-5226.06,-665.276,-24433.3
2.21817e+08,43.4434,1,2.73555,-1127.52,7285.48,-23280.3
2.21961e+08,25.4494,1,2.58131,-1825.14,-3144.21,-24863.4
2.22002e+08,259.235,1,2.59022,-15593.6,26369.6,16594.6
2.22069e+08,20.2486,2,2.41236,422.569,2225.55,-25217.2
2.22336e+08,40.108,0,2.42469,3677.41,-318.654,-21138
2.22384e+08,66.59,1,2.61301,-12940.4,-4558.88,-25559.8
2.22394e+08,30.6764,1,2.76012,5988.29,1537.18,-26982.3
2.22413e+08,15.4422,1,2.91508,-881.259,3142.3,-29623.1
2.22576e+08,237.309,0,2.82809,5646.52,-16447,17569.5
2.22788e+08,20.402,0,2.56575,-542.529,-3762.02,-26835.6
2.22882e+08,12.8649,1,2.51916,-2507.99,961.867,-29628.1
2.2302e+08,64.934,0,3.03932,-3314,9438.63,-19639.9
2.23025e+08,24.9027,1,3.00435,2825.55,3925.3,-26716.1
2.2322e+08,75.9938,1,2.66015,4479.34,11509.5,-18527.1
2.23374e+08,104.66,0,2.48555,15678.8,-4563.66,-13808.4
2.23475e+08,225.744,0,2.81545,27431.6,3924.78,9784.25
2.23547e+08,93.7288,1,2.40942,9237.91,10361.6,-14678.1
2.23612e+08,30.1863,2,2.54329,5129.02,-3429.21,-27065.8
2.23639e+08,24.5192,0,2.66183,4120.34,1977.44,-26264.6
2.23654e+08,34.4074,0,2.55975,-5090.61,3474.47,-25084.9
2.23972e+08,9.83409,2,2.79351,1196.14,-483.529,-27188.4
2.24007e+08,32.3508,2,2.47132,-3610.43,-1130.54,-23117
2.24047e+08,132.3,0,2.47351,9645.44,-314.099,-8375.13
2.24076e+08,92.6251,2,2.42007,-4813.37,-18690.5,-24963.9
2.2417e+08,4.27183,2,2.81065,249.168,-849.913,-28426.7
0,4.25445,2,2.84215,0,0,0
0,4.23198,2,2.80865,0,0,0
2.24426e+08,6.43327,0,2.97219,-273.737,-1107.75,-28101.6
2.24609e+08,96.3089,1,2.41521,-22.7247,-17961.7,-19345.3
2.24612e+08,67.763,2,2.73094,7344.05,-11267,-23905.7
2.24676e+08,33.7182,2,3.04089,2611.17,2658.28,-22876.3
2.24698e+08,110.758,1,2.47305,-15020.2,10960.3,-14496.4
2.2486e+08,101.511,1,2.7394,-7435.06,17353.6,-19609.9
2.25084e+08,10.0452,1,2.85506,-68.754,1975.19,-27856.3
2.25213e+08,137.906,0,2.83845,23154.7,15394.1,-20307.1
2.2545e+08,27.2085,0,2.39838,4031.99,2885.77,-25754.3
2.25778e+08,108.999,1,2.72588,-21835.8,-173.504,-21531
2.25779e+08,6.81434,2,2.98913,-732.604,-1200.92,-29393
2.25784e+08,109.148,1,2.75057,-12540.7,18137.4,-22114.1
2.26614e+08,101.266,0,2.38815,5280.75,14602,-14034.8
2.26621e+08,147.091,2,3.02639,16225.3,-13665.7,-16228.9
2.26663e+08,21.335,1,2.77639,-3851.2,1932.65,-27254.8
2.26887e+08,43.3176,0,2.37298,4441.74,1509.74,-20889.3
2.27293e+08,22.2552,0,2.59901,-606.186,4494.42,-27491
2.27686e+08,177.367,0,2.9685,20083.9,11459.4,350.619
2.27808e+08,60.4111,1,2.77739,5409.23,5556.79,-18746.9
2.27823e+08,25.3049,0,2.46528,3801.94,3257.45,-26810.5
2.27997e+08,20.7608,0,2.85359,4140.2,-694.856,-27367.4
2.28023e+08,72.9846,0,2.89436,13739.3,3085.97,-22593.3
2.2853e+08,17.4108,2,2.75298,-2008.22,-2456.87,-26819.1
2.28612e+08,72.2756,1,2.83486,-3083.71,7791.06,-16101.5
2.2879e+08,98.8474,2,2.62729,16443.5,3990.31,-16708.9
2.28899e+08,75.6441,2,2.45811,-15271.9,-4919.48,-29344.4
2.28994e+08,3.25434,2,2.92236,-263.862,-419.963,-28273.9
2.29181e+08,53.7164,1,2.42308,-6761.02,1049.62,-19708.4
2.2923e+08,12.9005,2,2.3902,-1661.03,-788.145,-26736.8
2.30104e+08,23.5632,1,2.69122,-979.853,-3683.52,-25675.7
2.30265e+08,117.218,2,2.85206,8006.1,5710.15,-6357.25
2.30289e+08,178.103,2,2.94848,-27739.6,-23709.7,-20380
2.30321e+08,94.9655,0,2.52369,6690.88,17592.1,-21729.2
2.30806e+08,122.727,0,2.81322,11105.2,-15692.2,-11525.3
2.30815e+08,4.88909,0,2.87002,34.8434,-812.896,-28165.7
2.30881e+08,96.5048,0,2.67915,9865.36,-15256.8,-19521.6
2.3098e+08,68.8453,0,2.62481,2021.41,13644.4,-24166.5
2.31264e+08,119.177,0,2.6833,-18477,-5100.99,-12673.2
2.32136e+08,0.458157,2,2.39952,-7.12059,-78.7381,-28715.8
2.32182e+08,21.6812,2,3.06165,4128.49,-788.366,-27183.9
2.32271e+08,87.0173,0,2.95132,11033.2,5772.57,-15404.1
2.32682e+08,39.74,0,2.55845,-4566.48,2166.36,-22169.4
2.32806e+08,5.13685,1,2.69202,-118.264,1155.77,-28886.2
0,4.99866,1,2.69129,0,0,0
2.33104e+08,119.427,0,2.57721,836.643,96.5562,-28154.5
2.33131e+08,97.6375,1,2.72375,15785.7,5168.47,-16761.8
2.33203e+08,135.987,1,2.87188,3259.99,28295.2,-25624.9
2.33504e+08,3.47845,1,2.39274,-73.7409,-637.504,-28523.3
2.33731e+08,4.23791,0,2.75413,399.326,784.557,-28469.8
2.34657e+08,103.832,2,2.89861,-20131.1,-7663.23,-24915.4
2.34754e+08,10.0859,1,3.04049,-232.521,2186.97,-29192.1
2.34868e+08,199.547,2,2.77964,-5601.41,24962.3,4436.48
2.35127e+08,16.6287,2,2.61032,2000.04,846.284,-26139.6
0,16.1682,0,2.68988,0,0,0
2.35188e+08,68.0328,0,2.75116,-5366.86,-12966.9,-25935.8
2.35574e+08,23.7743,1,2.79434,-3850.85,3371.25,-28749.5
2.3569e+08,86.0198,2,2.69743,-14933.3,-8647.12,-22972.7
2.35729e+08,36.8146,2,2.96621,-6744.3,-3039.74,-26316.3
2.3583e+08,32.4399,0,2.62531,6894.13,904.144,-28484.8
2.35968e+08,52.7236,2,2.75773,2680.21,-8942.62,-22689.3
2.36002e+08,27.1742,2,2.99203,-631.489,3508.31,-24456.3
2.36923e+08,29.5692,1,2.815,-4983.54,3896.09,-28465.1
2.36974e+08,188.868,0,2.84294,7735.36,-3094.21,-18007
2.37063e+08,109.446,0,2.7313,-1718.6,19299.6,-16549
2.37315e+08,54.2882,1,2.89335,-6631.78,8065.64,-24041.9
2.37367e+08,147.122,1,2.80757,17533.2,4517.35,-3736.96
2.37452e+08,37.6386,0,2.95798,4315.87,-4945.51,-24389.4
2.37643e+08,4.49174,1,3.01832,-836.235,-476.628,-28743
2.3767e+08,55.0315,1,2.81094,-6925.02,4108.32,-20415.8
2.37882e+08,53.2147,2,3.00002,-8370.82,-3033.39,-22012
2.37923e+08,3.54865,0,2.91763,644.769,12.6332,-28329.1
2.37972e+08,68.8024,2,2.60859,-13268.4,-2151.75,-23149.6
2.3806e+08,83.6472,1,2.66169,-10932.9,-10651.4,-19999.5
2.3843e+08,31.8032,0,2.43876,5887.07,-2693.23,-26741.2
2.38472e+08,194.313,2,2.75593,23053.4,-423.695,-12269.6
2.38681e+08,125.78,2,2.89825,15688.2,-18960.9,-19119.3
2.39376e+08,171.028,1,2.48242,2287.84,29937.2,-16640.6
2.39501e+08,116.319,1,2.801,1243.87,12741,-7961.61
2.3959e+08,22.669,1,2.98085,1936.85,-2627.04,-25416.4
2.39617e+08,25.1314,1,2.59897,-1603.12,4935.71,-27440.2
2.39754e+08,6.58331,2,2.90227,-1161.14,-869.58,-28588.4
2.40432e+08,6.02466,1,2.48989,420.563,988.575,-28059.3
2.40513e+08,129.565,1,2.42357,-24945.4,7066.85,-19746.4
2.40558e+08,147.01,2,2.77727,-4538.64,-19394.2,-5993.83
2.40728e+08,19.6106,1,2.38644,-1170.34,2515.37,-25661.7
2.40819e+08,126.864,0,2.81538,7516.01,-21139,-14316.8
2.40915e+08,21.891,1,2.76505,1092.73,3736.29,-26228.5
2.41115e+08,13.1084,0,3.03298,2054.73,-1078.39,-27209.4
2.41137e+08,71.7925,2,2.46285,-10010.5,-11470.6,-27523.6
2.41259e+08,15.9511,2,2.76983,2809.14,-1221.24,-27455.2
2.41293e+08,13.6877,2,2.44008,1745.16,-2211.34,-28008.2
2.41547e+08,133.538,0,2.86311,19781.9,-14297.2,-14877.6
2.41761e+08,108.775,0,2.83993,-12591.4,-235.287,-9794.56
2.41934e+08,52.7728,1,2.67326,5968.05,6089.67,-21662.7
2.42103e+08,106.725,2,2.83057,-12721.9,9781.82,-13139.8
2.42393e+08,129.695,0,2.72483,13899.6,-4914.53,-5763.56
2.42871e+08,18.9645,0,2.44419,2687.75,-57.2013,-25764.7
2.4303e+08,24.8171,1,2.76001,5178.5,-360.925,-29133.2
2.43335e+08,87.6589,2,2.42003,3440.24,15262.2,-18976.9
2.4357e+08,45.4508,0,2.93577,3197.11,8950.96,-27750.8
2.43594e+08,37.9573,0,2.81264,524.56,5221.42,-22783.9
2.43663e+08,157.765,1,2.46432,-26722,-8168.1,-10530.9
2.43665e+08,39.5042,0,2.88442,1575.38,-5663.88,-22919.2
2.43721e+08,0.954412,1,2.81227,-87.7622,-103.156,-28682.1
2.43739e+08,32.2735,2,2.5236,1636.11,-2695.28,-22767.2
2.4383e+08,28.7722,2,3.01993,3323.27,2194.19,-24338.9
2.43907e+08,21.0255,2,2.71267,-1226.95,-4055.13,-27241.6
2.43993e+08,12.7238,2,2.85044,1721.01,328.364,-26840.9
2.44258e+08,109.32,0,3.03418,16820.1,1832.72,-13291.7
2.44297e+08,17.1111,1,2.91809,2597.36,1185.79,-26647.8
2.44321e+08,78.8555,2,2.8107,-3650.44,-1943.7,-17454.7
2.44442e+08,14.1426,2,2.70473,-2515.23,-661.542,-27223.6
2.44623e+08,44.8136,1,2.9419,-2046,-6924.73,-22854.7
2.44768e+08,21.3921,1,2.3774,-1152.33,4431.08,-28345.4
2.44783e+08,15.796,1,2.59696,-829.98,3206.83,-27975.6
2.44924e+08,25.3103,0,2.65494,3625.3,2041.88,-25372.2
2.44991e+08,22.436,0,2.73386,3287.41,654.678,-25421.4
2.45023e+08,181.243,0,2.51108,6778.25,5458.15,-18892.5
2.45216e+08,61.3941,2,2.37859,-5639.79,5417.03,-18443.8
2.45815e+08,59.7301,1,2.66744,4306.7,9517.87,-21687.6
2.46329e+08,67.6059,0,2.6159,8334.94,11680,-29060.5
2.46582e+08,29.1547,1,2.74997,-3721.34,780.108,-23941.1
2.46645e+08,44.6176,0,2.9241,4659.74,-4130.7,-21765.8
2.46992e+08,4.84119,1,2.39954,-721.477,550.531,-28199
0,4.96812,1,2.68608,0,0,0
2.474e+08,7.14857,1,2.68271,878.751,1284.55,-29136.6
2.47448e+08,84.93,1,2.82142,-7978.1,11119.4,-17234.3
2.48302e+08,71.7231,1,2.76922,1201.49,-6996.66,-15566.4
2.48358e+08,84.3642,0,2.65953,8235.89,5107.51,-13866.7
2.48447e+08,138.053,2,2.4665,-21676.8,4978.83,-9858.26
2.48765e+08,5.30659,2,2.6989,600.165,-456.459,-28009.3
2.49347e+08,215.655,2,2.77885,-24175.6,-11251.3,7928.94
2.49525e+08,4.24176,2,2.83019,53.9688,-500.033,-28047.3
2.4963e+08,225.224,2,2.43154,7761.25,-16595.5,15147.5
2.49795e+08,11.5231,0,2.95217,2369.37,520.941,-28203.2
2.49941e+08,159.796,0,2.66412,18488.3,16292.5,-5753.77
