#class tools::wcsv::ntuple
#title time
#separator 44
#vector_separator 59
#column double eventID
#column double t(ns)
#column double copynumber
#column double energy(eV)
#column double x(mm)
#column double y(mm)
#column double z(mm)
195667,121.692,1,2.53814,-5477.24,-1146.35,-23789.8
362742,29.2385,0,2.80798,-3940.17,-1383.54,-24349.4
533011,57.9562,2,2.40859,6919.15,3195.25,-19270
807368,14.8231,2,2.47167,-631.622,2352.68,-26885.7
946903,34.1562,2,2.90406,2509.8,-6718.17,-27675.3
1.08552e+06,51.7407,1,2.63171,4075.83,-248.184,-23612.6
1.16875e+06,81.1855,1,2.62946,-8166.67,15189.7,-29204.5
1.49323e+06,7.17018,0,2.63299,1245.04,258.645,-27880.5
1.88861e+06,146.892,0,2.94202,-8274.63,23645.5,-10926.1
1.99171e+06,33.4697,1,2.97245,4027.19,-4840.07,-25885.5
2.06938e+06,95.6739,0,3.01768,19347.2,4389.7,-25329.4
2.13751e+06,52.7705,1,2.57885,-9404.09,1666.57,-22939
2.15958e+06,172.708,0,2.90193,-20584.9,-17785.1,-4911.9
2.31962e+06,182.402,1,2.70125,29669.7,-23180.8,-21450.3
2.36905e+06,112.079,1,2.69877,-20396.1,2229.57,-20638.1
2.65600e+06,1.75279,0,2.98589,417.689,-218.544,-28791
3.10378e+06,116.114,0,2.93371,13489,10265.1,-11239.3
3.79074e+06,15.2646,0,2.82196,537.075,-2659.04,-27031
3.93756e+06,85.1327,2,2.60598,9825.32,-14494.8,-24515.3
3.96857e+06,92.7436,0,2.78233,7771.49,-5003.23,-11610.4
4.30561e+06,21.2128,1,3.05303,1640.69,1839.41,-25097.9
0,21.1948,0,2.80639,0,0,0
4.71569e+06,13.1847,0,2.62119,1488.81,-1773.55,-27160.1
4.73647e+06,7.91454,2,2.67636,-1394.19,-1088.07,-29084.7
5.5993e+06,64.6777,2,2.99184,-10925.7,5095.8,-22571
5.66584e+06,7.39853,0,2.79984,181.616,1574.54,-28860.1
5.66916e+06,31.739,0,2.89516,4716.94,504.37,-24054.4
5.78266e+06,3.79114,0,2.99274,-566.782,-357.919,-28473.7
0,3.79338,0,2.93706,0,0,0
5.83042e+06,259.572,0,2.59818,-10490,9276.47,-18863.2
6.14917e+06,28.3278,1,3.04426,3445.38,-398.34,-24051.3
6.23198e+06,8.21796,0,2.77828,780.017,433.712,-27283.6
6.44085e+06,25.9085,2,2.59513,1732.84,-1841.59,-23944.1
6.4596e+06,6.66601,0,2.68588,880.2,-1207.63,-28795
6.63675e+06,8.01149,1,2.43802,1074.34,48.5751,-27567.6
7.05693e+06,11.9944,2,2.43251,-626.335,-2410.13,-27969.1
7.25658e+06,134.998,1,2.53349,-25349.4,12966.5,-25886.8
7.6802e+06,82.8672,2,2.51288,-6437.45,-7769.33,-14476.6
7.91378e+06,16.9461,2,3.04997,-1387.39,2826.06,-27211.7
8.12064e+06,82.7114,0,2.96326,11648.6,-12204.1,-24436.4
8.14318e+06,47.2949,2,2.84762,7461.41,3449.36,-23281.9
8.25504e+06,39.5919,2,2.81413,-4169.98,321.807,-21617
8.33648e+06,18.7526,2,2.78541,-3698.91,-833.077,-27576
8.55553e+06,19.7127,0,2.89308,2009.35,-1709.78,-25577.9
8.59849e+06,403.708,1,2.84694,-168.874,-148.332,-29975.5
8.66318e+06,11.6091,0,2.93352,-1373.69,-1920.97,-28394.1
8.91128e+06,102.844,1,2.6284,-15995.6,-6070.44,-15430
8.9183e+06,39.6938,2,2.37372,-5635.23,-6186.59,-27307
9.52937e+06,81.5182,1,2.76527,-9071.02,-3153.01,-14582.5
9.97054e+06,219.705,2,2.78424,2060.54,-23498.2,10977.8
1.00483e+07,2.68139,2,2.96714,-439.319,-388.928,-28547.4
0,2.70771,2,3.04382,0,0,0
0,2.67008,2,2.7908,0,0,0
1.01689e+07,110.055,2,2.52642,-18775.6,-5182.94,-19512.5
1.02885e+07,19.8256,1,2.63542,-4018.3,1383.8,-28644.7
1.04002e+07,23.4207,1,2.62435,-3130.47,120.699,-24952.6
1.04401e+07,84.3325,2,2.70545,2383.15,3384.29,-27268
1.04445e+07,154.98,2,2.56365,12313.2,-28658.5,-18653.1
1.05197e+07,95.418,2,2.85722,-15511.3,627.522,-16054.3
1.05487e+07,99.391,2,2.97565,-5620.85,-19309.2,-23004.3
1.06169e+07,78.181,0,2.6437,-13008.1,5971.4,-20718.3
1.12176e+07,52.8994,2,2.7354,-3627.27,-6091.74,-20148.2
1.12483e+07,108.723,0,2.71804,6518.74,-12811.4,-10983.2
1.12738e+07,17.219,0,2.45108,1925.28,-1533.2,-26070.2
1.13154e+07,86.7356,2,2.71535,-2554.17,-17346.5,-23362.4
1.13188e+07,16.438,1,2.66443,1684.75,499.12,-25871.5
1.14708e+07,77.5283,2,2.6078,7843.81,-13151.2,-22879.9
1.16531e+07,132.986,1,2.6405,-3409.11,25813.2,-18123.9
1.18769e+07,109.791,0,2.91027,13922.5,-14785.3,-17776.2
1.20319e+07,10.3608,2,2.67017,-2164.91,-303.347,-29423.9
1.2163e+07,97.1929,2,2.98256,8242.2,9800.28,-13022.6
1.23363e+07,40.2308,0,2.50931,7301.66,-2915.08,-25608.8
1.25195e+07,8.80056,2,2.38302,-1328.18,421.336,-27538.1
1.28248e+07,32.5327,2,3.05259,-5230.49,-848.894,-24460.9
1.29397e+07,0.948775,2,2.36769,-43.2195,-191.808,-28652.4
0,0.9226,2,2.56544,0,0,0
0,0.945026,2,3.05206,0,0,0
0,0.94844,2,2.82078,0,0,0
0,0.981409,2,2.91224,0,0,0
0,0.920201,2,2.44054,0,0,0
1.29462e+07,97.5137,2,2.86545,7444.44,-11723.1,-13702.8
1.32633e+07,128.22,1,2.95777,-11532.5,1437.96,-4542.51
1.37094e+07,62.2994,0,3.05142,1344.72,-9204.79,-19687.4
1.37881e+07,146.025,1,2.88366,-19856.2,-6457.11,-29909.3
1.3802e+07,122.634,0,2.56005,-15828.7,-6089.06,-9389.51
1.39839e+07,102.905,0,2.69692,21011.3,3944.13,-24582.7
1.41409e+07,18.2035,1,2.41109,2405.95,3085.85,-28944.5
1.43293e+07,118.537,0,2.8076,-2324.44,12223,-7243.94
1.43928e+07,41.9171,2,2.48567,-6515.69,-3426.35,-23752.1
1.47809e+07,132.507,0,2.75135,8848.71,-7820.3,-3524.42
1.4837e+07,62.0726,1,2.60456,6691.44,-1220.98,-17634.9
1.49946e+07,213.753,0,2.6184,-8544.58,-13255.2,9564.13
1.53222e+07,6.26983,2,2.933,1167.36,396.242,-28526.2
1.53454e+07,29.6307,2,2.48435,-4436.57,2054.73,-24906.3
1.54596e+07,33.7705,0,2.83959,6134.21,-2543.83,-26078.8
1.57565e+07,119.236,2,2.83511,-9389.37,-5560.17,-6214.14
1.59888e+07,136.017,2,2.37508,8130.99,-9680.37,-2977.15
1.60716e+07,200.826,1,2.56571,-17387.4,26632.8,-637.66
1.61771e+07,152.554,0,2.83378,12503.9,-9217.17,-748.593
1.61991e+07,146.73,2,2.76609,-5565.75,22050.1,-7991.02
1.6219e+07,119.081,2,2.55941,14639.1,-18338.6,-19604.1
1.62958e+07,59.3689,0,2.94436,12342.5,-2361.18,-29055.9
1.68671e+07,109.456,0,2.54034,-9819.84,-14678.5,-13904.5
1.68679e+07,71.7508,0,2.63253,11210.3,9123.66,-24039.9
1.68885e+07,60.5537,1,2.65854,5497.58,6382.53,-19174.3
1.80554e+07,46.8453,0,2.84241,-2284.94,7384.75,-22746.3
1.80812e+07,42.122,1,2.54201,2051.72,8655.16,-27733.1
1.80818e+07,54.059,1,2.56494,-10740,-748.216,-24904.3
1.83743e+07,7.92411,0,2.83145,200.987,1659.38,-29228
1.85643e+07,33.5014,0,2.50215,1922.69,2416.55,-22418.1
1.87161e+07,136.705,2,2.51295,-12336.6,-24845.3,-20447.9
1.8748e+07,66.9971,0,2.55642,13969.8,1315.08,-26372.2
1.90055e+07,50.3069,0,2.82619,2466.57,9860.66,-25754.7
1.90405e+07,43.6837,0,2.83924,5490.71,-6359.41,-24965.5
1.91882e+07,74.7913,0,2.68025,7580.33,-13863.3,-28108.6
1.92714e+07,67.7411,2,2.93976,-9838.31,8701.14,-23408.5
1.93874e+07,191.083,1,2.73071,22567.5,21805.2,-3621
1.95555e+07,24.1822,2,2.9029,-5026.92,-952.863,-28099.1
1.98059e+07,43.4302,2,2.93488,7922.06,-3044.58,-25520
2.02721e+07,21.2287,2,2.71319,-3047.41,184.344,-25505.4
2.06714e+07,144.189,0,2.51633,19172.9,-2396.63,-5195.76
2.07197e+07,40.6037,2,3.0051,-3904.34,1030.76,-21345.4
2.09822e+07,167.538,2,2.88583,-28646.8,-18381.7,-24154.7
2.11549e+07,50.7202,2,2.50739,-4818.05,-6022.44,-21271.8
2.11813e+07,28.403,2,2.69735,3670.53,-519.549,-24123.1
2.15073e+07,200.177,2,2.6854,4172.51,20104.8,8009.13
2.16237e+07,42.677,0,2.77333,6387.04,-6315.89,-29869.4
2.16533e+07,41.9506,2,2.852,-4783.97,-5571.99,-23789.8
2.17132e+07,38.9036,2,2.89013,-5430.21,4983.69,-25324
2.18549e+07,139.158,0,2.54479,28230.3,8127.17,-27427.8
2.18644e+07,22.9338,2,2.90435,2153.66,-3724.52,-27157
2.19603e+07,12.3099,0,2.68281,1720.57,1433.65,-27369.1
2.21786e+07,27.464,0,2.65151,-668.088,5733.27,-29501.6
2.21897e+07,49.9181,2,2.3866,10329.9,-1769.53,-27710.1
2.22023e+07,5.90614,0,3.00607,60.6865,728.715,-27814
2.2717e+07,47.7328,0,2.66145,9734.21,-1566.15,-26373.6
2.28344e+07,83.1888,2,2.43877,4387.17,-14446.3,-19650
2.28723e+07,10.3385,0,2.85609,1447.9,802.14,-27342.8
2.28876e+07,41.1025,0,2.80381,6922.84,4606.31,-26128
2.33078e+07,14.3848,1,2.80149,-943.38,-2637.81,-27741.3
2.34814e+07,8.14307,0,2.44011,57.6897,845.155,-27300.1
2.36076e+07,44.098,2,3.01328,-8366.13,-3907.24,-27570.4
2.36641e+07,178.772,2,2.7836,-21259.5,29967.1,-20863.6
2.39341e+07,5.42764,2,2.60887,-562.382,-1050.56,-28441.6
0,5.41331,2,2.59237,0,0,0
2.39415e+07,41.9506,1,2.59937,3314.32,1495.92,-20741.2
2.47302e+07,143.75,1,2.36723,-11345.6,-7918.41,-1729.62
2.50325e+07,13.2124,1,2.44271,-442.391,2550.89,-27596.9
2.56834e+07,10.834,0,2.41242,1441.86,525.552,-27042.1
2.56851e+07,165.364,2,2.61613,8768.25,-29794.4,-12837.3
2.58851e+07,94.8745,2,2.99012,-1187.36,-15003.1,-15713.9
2.58999e+07,187.598,1,2.49697,16085.9,3397.49,7260.05
2.59709e+07,40.7514,2,3.00669,-330.506,-8072.79,-25799.1
2.6478e+07,5.5037,0,2.8123,564.29,-146.842,-27779.6
2.73098e+07,120.6,2,2.53615,-13047.1,-19937.5,-19512.6
2.74964e+07,116.535,1,2.90973,-17664.2,13970.5,-19110
2.75874e+07,96.4446,0,2.38468,18795.9,-730.197,-20761.1
2.77703e+07,66.4919,0,2.50764,6075.83,2229.61,-16293.8
2.78152e+07,190.851,1,2.90665,2736.64,29091.2,-1417.73
2.79322e+07,16.6144,1,2.4332,-3230,811.507,-27489.8
2.79515e+07,142.267,1,2.95534,18745.1,-558.812,-6036.42
2.79522e+07,44.2744,0,2.76708,2746.93,3105.89,-20444
2.81816e+07,143.036,1,3.04731,28196.3,724.715,-18789.6
2.81951e+07,127.413,0,2.95015,-10464.5,-11563.1,-7139.79
2.83212e+07,140.85,1,2.69841,6084.62,17153.4,-5361.52
2.84121e+07,3.36306,2,2.92588,-149.514,-463.038,-28243.3
2.85451e+07,2.5925,0,2.70408,310.403,-181.641,-28371.6
2.86403e+07,11.5096,2,2.44812,-1778.59,129.573,-27100.4
2.86585e+07,136.669,1,2.43322,-26655.3,6221.62,-19340.7
2.86911e+07,137.728,2,3.0118,-24006.4,-4711.3,-13403.5
2.87445e+07,136.716,2,2.38045,-19444.4,5519.06,-8101.86
2.89181e+07,30.4498,1,2.49034,-6492.57,575.296,-28915
2.92918e+07,12.8813,0,2.42544,1358.99,-186.438,-26419.5
2.93233e+07,77.3288,0,2.49096,8368.3,-578.461,-14731.9
2.95686e+07,16.877,1,2.97801,2266.78,-1107.25,-26424.4
2.98475e+07,84.3635,1,2.68959,6052.16,13746.1,-19198.3
3.01847e+07,1.94094,2,2.74117,-283.346,-364.909,-28631.9
3.01848e+07,4.4108,0,2.63937,906.115,130.122,-28353.4
3.0323e+07,14.589,0,2.91893,1663.25,-2636.01,-28543.7
3.03482e+07,33.662,0,2.95136,1542.57,-6579.79,-26653.6
3.04252e+07,60.6882,1,2.97697,1973.22,-2743.97,-21380.8
3.0692e+07,58.1364,1,2.98194,2832.74,-7260.01,-19487.3
3.08982e+07,22.6823,0,3.0127,3644.29,-2467.65,-26806.6
3.09197e+07,61.6256,2,2.41122,3691.82,-10986.9,-22729.4
3.1008e+07,86.2894,1,2.67286,-14708.9,-9615.29,-24050.2
3.10508e+07,76.2062,1,2.52727,3767.82,9127.99,-16042.1
3.12149e+07,117.874,0,2.78755,14608.7,-3457.8,-9041.55
3.13225e+07,155.728,0,2.59871,-435.601,15303.1,244.466
3.16329e+07,2.16901,0,2.83072,193.884,-451.611,-28688.9
3.17307e+07,55.3966,2,2.61083,614.746,6123.3,-18899.9
3.1915e+07,7.53889,1,2.97098,135.54,-941.537,-27634.1
3.19516e+07,36.1562,1,2.40502,339.437,5340.73,-23273.7
3.20166e+07,92.7394,1,2.89163,-12957.9,14294.5,-25479.3
3.20719e+07,26.9441,0,2.47818,-1068.5,-5211.14,-26779.6
3.24933e+07,78.9841,2,2.45939,10595.2,-11110.2,-22146.8
3.27773e+07,41.3091,1,2.93291,-2630.46,6002.91,-23037.6
3.28811e+07,15.487,0,2.61114,2845.14,-996.19,-27391.3
3.3362e+07,16.6373,2,2.54251,59.0152,-3043.21,-26925.2
3.36945e+07,208.598,0,2.46551,10441.4,-28533.6,3181.21
3.40448e+07,2.96899,0,2.91134,474.713,-369.138,-28463.6
3.41227e+07,74.8459,1,3.04392,-13171.4,6932.35,-23667.2
3.44225e+07,39.0949,0,2.3874,1906.61,-4293.51,-22012.3
3.47065e+07,72.8858,2,2.63645,-9144.91,2858.14,-16755.9
3.48014e+07,100.309,0,2.9025,19388.2,5058.07,-22015.7
3.48438e+07,101.009,0,2.7035,18653.8,5469.79,-19949.8
3.48569e+07,62.7951,0,2.82899,11604.1,-6452.14,-28054.5
3.50407e+07,58.1384,0,2.77575,1038.13,2563.02,-24740.4
3.5198e+07,39.4107,2,2.4806,3667.04,716.562,-25802.3
3.53579e+07,4.06302,2,2.3777,485.754,-462.092,-28249.2
3.58301e+07,92.437,0,2.70919,17178.4,-9256.72,-27580.2
3.58438e+07,93.7383,1,2.73639,-16032.5,-1144.01,-17303.3
3.58669e+07,83.3499,0,2.64805,-279.792,2596.41,-12983.8
3.60965e+07,62.4136,2,2.98238,2311.27,-12965.3,-28202.4
3.62164e+07,165.252,0,2.76284,29828.7,12655.5,-22141.7
3.63356e+07,5.32113,1,2.70955,-557.326,86.5569,-27814.2
0,5.28722,1,2.389,0,0,0
3.66297e+07,45.5496,1,2.60049,-9375.82,-1856.26,-27523.7
3.69729e+07,85.8601,2,2.92127,2667.44,-11740.2,-16884.3
3.72602e+07,30.8709,2,2.77578,4395.06,-4768.89,-29654.8
3.74284e+07,79.996,2,2.50718,9163.15,-2647.6,-14849.3
3.75415e+07,28.2223,2,2.99773,694.325,-5627.29,-26890.2
3.78259e+07,24.4662,1,2.40188,-2615.63,2913.17,-25346.8
3.80406e+07,17.1336,2,3.04262,-1970.82,-2259.35,-26712.5
3.82471e+07,64.0695,0,2.40174,-4192.78,12767,-27115.6
3.86069e+07,16.6291,1,2.65909,-1496.58,-2711.11,-27259
3.88367e+07,88.4818,1,2.90726,4714.56,3248.95,-14005.7
3.88484e+07,135.832,1,2.62835,-24033.9,11902.5,-18467.3
3.9135e+07,236.302,1,3.05173,-3724.38,-15169.1,-18608.5
3.91517e+07,153.963,2,2.48,16571.6,-22020.4,-11429.9
3.96686e+07,38.4173,0,2.42395,-6298.87,-1306.84,-23935.5
4.00378e+07,30.0934,2,2.47647,2646.62,2329.83,-23573.8
4.01156e+07,156.509,2,2.76577,1623.58,-21641.4,-3968.28
4.03104e+07,25.3689,2,2.79436,429.438,-5328.83,-29852.5
4.04199e+07,127.255,0,2.9437,13569.8,18061.5,-18419.4
4.09246e+07,141.269,1,2.45308,-17592.1,-1120.61,-4661.44
4.09666e+07,159.367,1,2.4075,-24158.8,-10701.4,-7853.38
4.09934e+07,115.028,0,2.72842,14818.9,19172.7,-27110.5
4.10308e+07,81.8893,2,2.94005,7828.17,-8262.42,-15908.4
4.14212e+07,2.40345,1,2.57999,178.365,363.268,-28478.7
4.14387e+07,99.1687,2,2.57843,-13360.4,-14256.8,-21010.3
4.15335e+07,58.3584,2,2.51874,-9067.65,-2501.07,-22246.8
4.1781e+07,89.5231,1,2.52423,-8081.59,797.584,-11703.9
4.20679e+07,27.9364,1,2.52513,-4541.47,-1015.18,-25174.3
4.22927e+07,112.004,1,2.93175,-13907.1,18689,-25118.9
4.2395e+07,48.7598,0,2.95575,-2441.33,-9935.72,-28621.8
4.25284e+07,43.349,2,2.66693,-8214.03,2829.78,-25830.7
4.25748e+07,89.5275,0,2.70096,-2062.03,-17785.7,-22892
4.27941e+07,134.133,1,2.79303,-18200.4,-4843.59,-14487.6
4.28306e+07,28.3592,0,3.05963,1117.72,-5885.11,-28577
4.28498e+07,37.1867,2,2.9092,3755.85,-6903.2,-28755.2
4.29373e+07,125.792,1,2.4911,17310.9,-195.335,-8666.16
4.30589e+07,26.8883,0,2.70209,1690.11,2840.67,-24203.5
4.31424e+07,19.8188,2,2.47438,-75.6851,-3770.55,-26838.5
4.31736e+07,41.9203,2,2.37876,-1161.14,5036.34,-21646.6
4.3397e+07,154.392,0,2.37724,-4723.65,-23975.7,-7185.86
4.35956e+07,34.7366,1,2.36801,-3708.17,1057.88,-22527.4
4.37909e+07,21.6076,2,2.76804,208.18,2670.09,-25181.5
4.4183e+07,61.39,2,3.017,11835.7,2498.13,-24546.3
4.44587e+07,29.6894,1,2.74466,3506.96,268.642,-23843.3
4.46034e+07,7.31403,0,2.49236,980.87,-909.943,-29752.2
4.50247e+07,51.6837,1,2.40225,-5495.34,-2909.06,-19806.2
4.52254e+07,31.1774,0,2.99043,3646.82,-3556.17,-24647.4
4.53637e+07,5.43889,1,2.70614,-1135.65,-299.964,-29116.3
4.5364e+07,59.1203,2,2.45514,-8367.91,-311.674,-19692.5
4.56142e+07,28.0105,2,2.70786,149.453,5456.76,-26674.6
4.56385e+07,44.5521,0,2.96066,8046.6,-37.8463,-23906
4.58655e+07,254.414,2,3.0409,-5934.64,-19568.4,20380.7
4.58664e+07,55.3558,2,2.894,8009.18,4812.94,-21987.1
4.59541e+07,91.8804,1,2.90209,17901.4,5232.77,-23851.9
4.59873e+07,2.64548,1,3.02784,197.964,435.533,-28456.6
4.62313e+07,5.14883,0,3.05076,-247.009,573.589,-27962.6
4.64172e+07,54.6299,2,2.68848,-3931.49,-7706.42,-21102.1
4.64786e+07,183.635,1,2.72275,-23890.1,-3787.57,591.341
4.67183e+07,36.157,1,3.01666,-2016.26,7152.43,-28564.6
4.7201e+07,28.4648,2,2.58318,258.677,-5410.97,-26100
4.7778e+07,97.7102,2,2.98756,12716.7,-4695.7,-13512.6
4.7873e+07,43.0139,0,2.37497,8486.06,2057.76,-25910
4.7905e+07,120.216,0,2.7508,25281.6,-1760.21,-26994
4.84945e+07,37.5601,1,2.84748,-1935.07,4349.86,-22460.9
4.85351e+07,7.45344,1,2.37404,-516.477,31.9814,-27316.2
4.85927e+07,61.9925,2,2.85759,1305.13,11956,-23936.3
4.89182e+07,128.848,0,2.52159,-2725.51,19647.2,-10152.4
4.9064e+07,47.9615,1,2.46779,-910.036,10172.9,-28824.2
4.91942e+07,76.7334,1,2.66505,-2973.05,7089.27,-14535.4
4.92062e+07,176.977,1,2.77792,-19194.4,21331.7,-4970.54
4.92096e+07,92.1065,1,2.89195,-2455.95,-9882.55,-12413.9
4.93115e+07,5.56508,1,3.05541,724.411,979.602,-29038.7
4.97275e+07,120.486,2,2.46508,11520.9,4801.47,-6657.48
4.98466e+07,27.8249,1,2.38772,-3870.13,4552.06,-28488.4
5.00635e+07,66.6188,1,2.44794,-796.159,9656.3,-18531.4
5.00818e+07,8.54922,2,2.79325,-109.689,1284.08,-27652.2
5.00844e+07,131.322,1,2.84226,11309.2,21181,-15133.9
5.02852e+07,64.27,1,2.64757,-1461.63,9889.29,-19569.1
5.02957e+07,40.1518,0,2.41887,5479.35,-5804.06,-25705.6
5.06965e+07,21.5545,0,2.84433,-2395.77,-2291.14,-25793.9
5.07538e+07,170.066,1,2.69053,-1663.89,26480.9,-4635.38
5.07914e+07,57.3047,1,2.82852,8231.1,4306.27,-21135.4
5.09999e+07,29.3393,0,2.41087,1441.8,4668.59,-24926.9
5.11722e+07,39.8489,1,2.44019,-921.566,-4707.67,-21907.5
5.13481e+07,59.0891,0,3.03485,11664.2,-352.358,-24444.5
5.13848e+07,70.5325,1,2.49029,-5983.29,4467.28,-15861.9
5.16601e+07,37.0359,2,2.50022,-6176.61,2386.82,-24570.2
5.1703e+07,84.3141,0,3.03628,15696.7,1444.12,-20655.1
5.18704e+07,83.8503,0,2.793,-1534.53,-9089.38,-13799.9
5.19696e+07,107.161,0,2.83984,-1987.52,12187.2,-28551.2
5.23632e+07,138.437,0,2.84505,20505.8,-19241.7,-21041.8
5.26585e+07,152.672,1,2.38101,15103.2,14464.8,-4177.04
5.2693e+07,55.9337,1,2.85684,4286.97,10958.5,-29999.9
5.27602e+07,17.8682,2,2.77721,1844.12,1157.25,-25794.6
5.3022e+07,96.5086,2,2.56743,17723.2,9869.72,-27290.3
5.31719e+07,19.1435,1,2.60516,-1646.96,3014.36,-26544.8
5.32848e+07,100.458,1,2.92186,-7420.88,3401.87,-9352.11
5.35203e+07,148.973,0,2.60182,-9692.59,25305.9,-12903.9
5.38913e+07,94.5694,2,2.61736,755.883,-8610.67,-10862.4
5.39607e+07,77.7632,1,2.44084,-8492.35,12099.1,-21418.8
5.40873e+07,11.9642,1,2.99066,123.22,2579.2,-28443.2
5.45661e+07,18.3563,2,2.36405,-563.738,-1746.47,-25355.7
5.46633e+07,19.5857,0,2.3819,-3974.96,-408.509,-28002.2
5.49753e+07,10.7867,2,2.48319,720.236,-2259.52,-28638.9
5.50148e+07,48.4159,1,2.56463,1253.82,-4898.31,-19961.8
5.52694e+07,44.2066,1,2.86576,-295.679,8283.7,-24531
5.53959e+07,27.9531,2,2.42151,3415.32,-4893.45,-28448.3
5.54132e+07,110.056,0,2.843,10815.1,984.168,-8347.08
5.55102e+07,116.682,2,2.81058,-21386.3,-9299.92,-20910.8
5.60281e+07,234.882,1,2.84946,-7382.3,25638,-21466.2
5.61363e+07,79.0385,2,2.94541,6211.32,2983.33,-22874.9
5.66778e+07,58.1844,2,2.73175,6005.01,162.767,-18142.6
5.72976e+07,132.102,1,2.6969,2400.45,11943.4,-3764.79
5.74478e+07,9.69804,2,2.54637,-1925.83,3.69606,-29672.1
5.74695e+07,111.503,2,2.37734,15348,-5622,-11810.4
5.74894e+07,125.678,1,2.74992,7861.73,9940.66,-5566.65
5.79739e+07,57.2363,2,2.73538,4134.75,-3550.21,-18052.4
5.80011e+07,117.659,1,2.40447,15962.8,-12688.2,-14631.8
5.80422e+07,280.996,1,2.6755,-21961.4,8355.81,25582.7
5.82122e+07,67.3282,2,2.79659,10049.3,7781.81,-23151.4
5.82983e+07,126.017,2,3.04805,1684.19,20620.7,-12511.7
5.85723e+07,54.3187,2,2.47369,7233.42,1551.86,-20087.9
5.87239e+07,26.7916,1,2.42722,2217.52,-2217.81,-24164.9
5.89164e+07,33.9869,0,2.40258,3360.07,-5131.58,-25015.5
5.92953e+07,96.1515,1,2.73006,-18515.1,-6063.74,-24175.3
5.9771e+07,34.8698,1,2.60899,2019.25,7078.59,-27746.3
5.99333e+07,168.285,1,2.41592,20709.5,6918.63,-710.34
6.01882e+07,74.0888,0,2.92996,2106.36,7067.94,-15133.3
6.03648e+07,24.5504,0,3.0538,-163.667,5032.37,-27644.8
6.06197e+07,206.826,0,2.65805,9139.07,-15181.1,11049.8
6.0626e+07,139.694,0,2.95941,-27372.3,9719.23,-26061.4
6.06805e+07,73.9832,0,2.48137,4549.41,8152.27,-16227.8
6.08507e+07,144.278,1,2.60537,16090.4,18474.4,-10665.4
6.1046e+07,187.517,1,2.42934,15977.7,-25049.9,-2683.68
6.11785e+07,27.8182,1,2.88433,-2152.86,2828.75,-24109.3
6.11945e+07,99.2294,2,3.03673,13382.1,2600.59,-13196.8
6.14452e+07,13.7772,2,2.73252,-2179.4,-2072.07,-28721.6
6.15152e+07,83.2872,0,2.64397,3544.93,-6773.57,-12983
6.17524e+07,69.9418,2,2.6382,-5723.41,-9004.64,-18534.1
0,70.8887,0,2.95309,0,0,0
6.17547e+07,113.964,1,2.51067,18611,-1104.66,-13606.8
6.21873e+07,192.933,0,3.00257,16186.8,-7144.55,-5734.71
6.22563e+07,26.356,1,3.00159,3555.46,2556.6,-25400.5
6.23137e+07,16.7501,0,2.84076,-1239.17,-873.548,-25667.2
6.24361e+07,36.901,0,2.99384,-4810.34,418.903,-22837.1
6.27008e+07,29.7408,2,2.37894,-989.551,5809.64,-26699.8
6.27479e+07,38.9352,1,2.74175,-4323.23,5400.83,-24264.9
6.28224e+07,127.228,1,2.63199,-750.675,19977.3,-10800.7
6.28905e+07,24.8417,0,2.61616,4821.86,2336.99,-28826.7
6.33918e+07,13.0473,2,2.80592,-640.323,-2283.08,-27314.7
6.34e+07,21.4487,1,2.72055,2046.66,-1167.31,-25025.6
6.34163e+07,10.8871,1,2.89828,-815.311,2060,-29711.9
6.36189e+07,3.87214,0,2.74792,784.349,276.881,-28499.9
6.36548e+07,12.6035,2,2.49238,1920.96,-1901.96,-29101.7
6.38499e+07,64.2017,2,2.76857,-1345.95,6154.69,-16887.4
6.39087e+07,98.2263,1,2.79184,2392.53,18922,-20692.4
6.42274e+07,52.7816,2,2.44369,-7684.13,-5892.3,-23108.9
6.43699e+07,108.298,2,2.40979,-3821.79,20493.8,-19401.8
6.44483e+07,39.1396,1,2.79538,-1878.25,-4359,-22124.7
6.49027e+07,99.6564,0,2.77028,8826.74,18471.1,-23971.2
6.52703e+07,37.2587,2,2.75505,-787.5,3663.17,-21964.6
6.55768e+07,209.172,1,2.50337,18321.8,11736.4,9647.25
6.57598e+07,4.62939,1,2.73215,155.168,860.046,-29430.6
6.63764e+07,18.8662,2,2.55032,1117.13,-3804.77,-27898.8
6.63841e+07,1.19943,1,2.65083,-263.727,125.756,-28722.9
6.64404e+07,72.5612,2,2.68038,-2506.01,-15006.4,-26379.7
6.65913e+07,46.3223,0,2.40265,-5190.76,-8261.17,-28494.3
6.67081e+07,26.2835,0,2.47667,597.419,-248.865,-28645.2
6.69476e+07,45.7264,1,2.66462,4232.47,8746.08,-29211.1
6.7029e+07,87.4648,0,2.82671,-3757.4,9731.16,-13739.9
6.74581e+07,86.2751,0,2.9655,17428.2,-2079.97,-24123.8
6.74905e+07,69.1311,2,2.66273,7964.01,3877.96,-17272.8
6.77101e+07,14.828,1,2.5117,-1451.24,604.408,-26062.8
6.77741e+07,71.3184,0,2.46801,-11244.8,4561.67,-19944
6.81839e+07,112.369,2,2.50688,22455.3,179.136,-21150.6
6.85168e+07,125.207,2,2.3711,-25048.9,-2118.66,-20612.1
6.86394e+07,69.1778,2,2.94936,-6518.72,12794.3,-26909.2
6.90422e+07,3.37281,0,2.55003,64.2573,-696.046,-28575.4
0,3.3736,0,2.78274,0,0,0
6.91526e+07,70.1585,2,2.63321,9877.3,-4249.82,-18650.1
6.92043e+07,230.386,0,2.45279,-28541.4,16256.2,7102.17
6.92758e+07,21.4531,1,2.81237,1322.48,3941.91,-26919.9
6.93795e+07,38.2294,0,2.7434,-5284.61,3285.43,-23758.9
6.97302e+07,31.5824,0,3.05283,2070.84,2441.83,-28218.7
7.02201e+07,42.1482,0,2.79519,2975.75,-8105.3,-26651.4
7.04185e+07,209.32,2,2.615,-25952.8,-5958.81,6470.43
7.04737e+07,60.1245,2,2.67081,-3829.62,-12125,-27490.8
7.06064e+07,89.98,1,2.76154,2710.2,-11880.5,-14378.1
7.06738e+07,66.125,0,2.65048,4924.75,12742.2,-25734.2
7.08504e+07,108.009,0,2.73572,7879.87,-15102,-13682.7
7.13397e+07,8.26326,2,2.77814,12.1658,-1829.02,-28952.3
7.17831e+07,78.1468,0,2.86601,10047.1,-6730.17,-17630.3
7.19862e+07,129.566,2,2.69661,-25083.6,-10530.5,-25581.5
7.21415e+07,12.6572,2,2.76499,-1728.39,-1531.32,-27395.2
7.22923e+07,34.1566,1,2.46646,92.0984,-3428.84,-22517.1
7.23048e+07,211.081,0,2.86529,-989.991,-26650.5,-25430.2
7.27296e+07,58.7368,1,2.81933,-2006.43,-11482.9,-24875.8
7.30865e+07,149.664,2,2.7542,-14464.6,-11144.1,-16098.4
7.33385e+07,2.01322,0,2.36279,-55.9507,418.816,-28705.4
0,2.01951,0,2.44278,0,0,0
7.343e+07,53.0905,1,2.66947,2567.22,9434.94,-23225.8
7.45696e+07,177.812,0,2.84246,-24123.8,7077.94,-1235.02
7.47182e+07,132.436,2,2.54349,-18917,11699.3,-11804.1
7.48022e+07,55.4371,0,2.91215,8601.49,1084.73,-20988.6
7.4835e+07,121.474,0,3.03638,-6978.58,17827.8,-12083.8
7.5069e+07,138.919,0,2.37669,-2389.95,17161.9,-5077.67
7.50821e+07,13.4594,0,2.5259,1388.04,-696.225,-26376.6
7.50836e+07,44.1447,1,3.0482,-8360.96,4122.09,-28082.6
7.52834e+07,39.3581,2,2.41111,-3778.23,3370.04,-22199.1
7.55047e+07,81.4009,1,2.88113,-6046.7,13176.3,-19634
7.55242e+07,159.359,0,2.91986,14730.6,-17731.3,-28392.4
7.55493e+07,43.3928,0,2.36427,2342.91,6172.66,-22393.7
7.62302e+07,50.6698,2,3.04033,8436.82,-4691.71,-24406.1
7.63962e+07,20.4172,2,2.62808,-947.806,-2993.92,-25792.8
7.72795e+07,176.882,2,2.90991,25640.8,-26320.4,-23145
7.75462e+07,25.05,2,2.74571,2845.44,-1838.32,-24753.1
7.76901e+07,17.6887,0,2.89167,3302.28,-528.567,-27016.7
7.77758e+07,68.2625,0,2.95733,-575.67,13235.5,-23354.4
7.79463e+07,161.014,1,2.52849,12748.7,10901.3,789.469
7.79548e+07,121.775,1,2.91911,841.759,18390.1,-11010.6
7.82819e+07,12.7573,0,2.40052,1033.28,820.739,-26420.2
7.82834e+07,29.094,0,3.02178,5040.92,-3510.66,-27974.1
7.85894e+07,111.955,1,2.6496,20487.2,2864.85,-17475.5
7.89164e+07,64.8389,0,3.0114,677.209,9045.17,-18710.6
7.91272e+07,69.6809,1,2.46576,-10141.2,-6583.23,-20368.2
7.93956e+07,20.5364,2,2.73133,-2437.03,845.404,-25327.4
7.94536e+07,89.6187,2,2.84507,5502.46,12889.2,-16327.3
7.97498e+07,27.0099,2,2.93115,-2042.68,964.219,-23620.3
7.98796e+07,206.328,0,2.62062,25020.2,-10009.3,5442.26
7.9961e+07,111.887,0,2.52405,-3328.94,-18635.4,-14676.6
8.00946e+07,70.8865,2,2.79045,-4541.57,5125.17,-15576.4
8.03525e+07,22.2445,0,2.77761,3658.91,-1803.99,-26367.7
8.08432e+07,33.3219,1,2.69943,-4047.1,-1742.39,-23320.7
8.09146e+07,58.4809,0,2.50938,8126.28,9345.5,-27800.2
8.10208e+07,34.4618,0,2.43733,-3801.83,-603.235,-22663
8.10556e+07,66.8629,2,2.54433,-2937.52,-5344.55,-16037
8.11643e+07,88.548,1,2.54349,-10241,10406.4,-17020.4
8.11909e+07,149.001,0,2.36633,13258.8,24537.6,-14046.7
8.12697e+07,5.62651,2,2.64139,-1169.28,373.917,-28679.4
8.13572e+07,53.4408,2,2.43443,-5427.8,2165.89,-26340.6
8.15515e+07,75.3894,0,2.96594,4754.88,5983,-18188.9
8.16576e+07,87.2175,1,2.74344,7999.05,12222.9,-17605.7
8.18418e+07,32.3269,1,3.0359,-4044.21,5382.53,-27410.6
8.1979e+07,51.249,2,2.3667,4248.39,-2322.38,-19132.1
8.20592e+07,6.53783,1,2.67771,476.057,662.492,-27666.5
8.23791e+07,93.7598,0,2.92743,7066.51,-18419.8,-29224.8
8.23798e+07,94.0474,2,2.60097,1444.12,-18596.1,-21831.1
8.25172e+07,104.336,1,2.48182,-10536.8,17436.3,-20193.4
8.25695e+07,1.13567,2,2.43052,-43.2575,-201.982,-28633.4
8.27317e+07,56.6755,0,2.41008,9648.45,-5897.52,-24600.6
8.29319e+07,56.0263,0,2.55033,533.714,-11202.2,-24963.2
8.31847e+07,154.832,1,3.03286,24793.5,15639.4,-14925.6
8.32099e+07,136.275,1,2.67319,-684.999,-19650.7,-7922.86
8.34242e+07,35.2485,2,2.76006,-379.04,-5354.77,-23621.1
8.35082e+07,92.6452,2,2.84595,12170,-6027.28,-14875.8
8.36004e+07,116.846,0,2.98162,2778.6,-21949,-18295.8
8.37273e+07,89.399,0,2.60255,10823.2,-13156.1,-20528.8
8.40518e+07,276.709,1,2.75752,-23569.6,7162.21,23951.3
8.437e+07,178.986,0,2.87413,13986.7,-13127.8,3539.69
8.47652e+07,14.5349,2,2.84109,-3051.39,-329.923,-28182.8
8.49984e+07,41.5952,2,2.82931,552.983,-5692.86,-22149.8
8.50398e+07,17.3228,2,2.4333,-1984.35,897.528,-25851
8.53722e+07,24.59,2,2.87833,1666.64,-4243.19,-26296.1
8.57362e+07,34.0948,2,3.00082,2006.29,-6918.38,-28961.4
8.6005e+07,26.9773,0,2.53104,1221.21,-5497.32,-27710.9
8.60149e+07,88.3532,0,2.71991,1006.7,-10385.8,-13434.6
8.61165e+07,50.8824,0,2.84909,10562.6,1563.67,-27156.6
8.6127e+07,7.22624,0,2.70693,1492.02,460.057,-29211.6
8.61419e+07,106.093,1,2.67095,-19836.1,-6322.78,-20532.8
8.6258e+07,10.6522,0,2.66889,-1411.38,945.959,-27412.7
8.63152e+07,162.367,0,2.97848,-18013.3,24276.7,-13280
8.70184e+07,68.4251,0,2.77233,12687.7,-6950.43,-29932.6
8.71667e+07,45.5223,2,2.91251,-5737.35,-6724.13,-24957.9
8.72457e+07,83.7286,1,2.54304,-14316.1,5548.11,-19887.6
8.75298e+07,29.3198,0,2.99555,5859.38,1356.37,-27149.9
8.80596e+07,3.8785,0,2.6907,415.104,-638.433,-28379.8
8.81558e+07,27.4504,2,2.94308,-3160.53,4621.22,-27458.4
8.85011e+07,126.409,1,3.0394,2672.4,15808.4,-23854.1
8.88137e+07,108.867,0,2.79691,9781.12,-4525.06,-8588.99
8.90365e+07,17.4461,1,2.6612,327.722,3720.03,-29310.9
0,17.4385,1,2.66284,0,0,0
8.94538e+07,13.4873,2,2.36592,-2379.24,-1718.59,-28394.5
8.97763e+07,160.875,2,2.37613,-15190,-21027.4,-6699.33
8.97909e+07,29.7892,2,2.67995,-3712.73,3821.7,-25485.6
9.00056e+07,38.2224,1,2.75688,-4933.72,4640.95,-24384.9
9.00139e+07,28.2733,0,2.66112,3853.44,3879.31,-26250.3
9.00423e+07,168.292,1,2.88635,-813.517,23786.7,-2683.81
9.00769e+07,95.2614,1,2.51065,-5601.87,-14923,-16556.1
9.0317e+07,32.1926,0,2.65865,2583.7,2293.58,-22948.1
9.05582e+07,6.99134,0,2.80441,-377.877,-720.039,-27600.7
9.0616e+07,72.0386,2,2.65222,2989.71,-12453.5,-20564.8
9.1464e+07,36.719,0,2.99569,2637.02,7281.15,-29452.4
9.14897e+07,179.954,1,2.60539,-27603.7,23952.8,-18131.4
9.15251e+07,25.0674,1,2.52898,-1911.51,-845.66,-23939.4
9.18743e+07,121.229,0,2.65597,13611.7,16187.5,-14381.7
9.19374e+07,4.83429,2,3.01642,569.914,-814.064,-29261.5
9.20314e+07,97.2809,1,3.05599,15549.7,6902.62,-17591.4
9.22425e+07,31.0382,0,2.82107,1064.83,-6434.55,-29595.3
9.22637e+07,113.569,1,3.03334,13452.9,12675.7,-14013.6
9.2525e+07,90.8495,2,2.86762,6345.59,15694.3,-20112.2
9.28229e+07,61.0119,2,2.72203,-12049.2,-4767.68,-28661.8
9.34481e+07,137.929,0,2.50515,-4642.97,-14626.1,-4028.36
9.37197e+07,77.4006,2,2.62255,-1991.18,-15776.9,-24647.5
9.39725e+07,13.3465,0,2.9196,-293.518,-2442.06,-27513.4
9.41024e+07,92.9232,2,2.7658,-5030.14,11350.4,-13723.9
9.41594e+07,61.448,2,2.55449,-1008.43,6196.67,-17504.4
9.43757e+07,94.5662,1,2.72464,1201.24,9862.91,-11536.6
9.45041e+07,185.936,1,2.77064,19922.4,-18897.3,-3257.73
9.4651e+07,80.7649,2,2.97831,-11597.8,-11104.6,-23161.1
9.47009e+07,29.5069,1,2.50001,-2120.64,5883.41,-27702.3
9.47461e+07,17.4716,0,3.00342,3527.43,1307.58,-29008
9.52838e+07,116.476,0,2.78206,-1873.8,-24217.9,-25438.3
9.54749e+07,24.9154,0,2.94148,-3736.43,3556.33,-28330.4
9.5547e+07,120.758,0,2.56636,-1746.16,15156.7,-13844.9
9.57634e+07,56.4834,2,3.05754,7736.35,-5101.45,-21456.9
9.59533e+07,82.5117,0,2.45271,15866.8,-5352.1,-23600.2
9.61229e+07,192.362,0,2.86913,22344.5,15852.1,913.867
9.61491e+07,167.98,1,2.40481,-27708.8,10632.7,-9153.29
9.62918e+07,4.87129,2,2.70641,-180.866,-854.64,-28150.2
9.63133e+07,184.734,1,2.80457,18082.8,7185.02,4802.7
9.63771e+07,34.9826,2,2.58576,3985.67,-436.934,-22631.8
9.65198e+07,34.7202,0,2.81458,7270.87,229.236,-27514.4
9.66085e+07,62.7876,1,2.9765,-4655.37,5445.38,-17716.1
9.66858e+07,39.4315,0,2.97328,5380.79,-3364.93,-23440.6
9.67712e+07,67.7893,0,2.88913,4246.77,10995.8,-20768.3
9.70401e+07,57.942,2,2.9265,3959.54,7679.7,-20335.5
9.71467e+07,52.5527,1,2.773,-9364.34,-4809.06,-25355.8
9.71494e+07,20.8094,2,2.5749,4187.23,234.544,-27634.7
9.76534e+07,112.133,1,2.79619,-9460.6,2204.27,-7296.43
9.77859e+07,46.2336,1,3.03891,-8395.49,2262.5,-24422.6
9.78947e+07,10.7932,0,2.88155,-1090.61,-1844.58,-28229.6
9.80239e+07,253.371,1,2.52871,-8926.13,7164.75,-22075.3
9.82115e+07,85.7623,1,2.37961,-1165.09,16084.4,-20387.2
9.8932e+07,50.8404,2,2.81951,-4088.09,4588.74,-20070.1
9.93223e+07,24.4886,0,2.84829,-851.031,4858.75,-27296.1
9.93979e+07,105.394,1,2.74887,-20967,5553.45,-23745.3
9.94776e+07,93.2626,2,2.53057,8111.8,-14788.5,-18506.2
9.95747e+07,200.352,2,2.41748,17483.7,-13066.7,-14620.8
9.96103e+07,213.637,0,2.80122,-2991.71,19381.3,11613.3
9.98978e+07,4.28397,1,2.75367,-282.184,-322.86,-28026.5
1.00084e+08,97.2914,0,2.88955,9969.82,-2233.28,-11076
1.00214e+08,78.6828,1,2.5909,10719.3,12723.3,-29988.3
1.00245e+08,63.2459,0,2.43827,1368.76,-5803.37,-16838.7
1.00318e+08,113.661,2,2.86762,14349.4,-10788.8,-13085.9
1.00684e+08,24.3084,1,2.47835,-1990.09,4232.7,-26494.5
1.00707e+08,67.2975,2,2.66252,-9188.24,-10914,-29988.2
1.00973e+08,112.545,2,2.70371,-6115.15,-19615.8,-16808.2
1.01206e+08,7.11715,1,2.43325,513.589,-152.75,-27432.6
1.01207e+08,197.32,1,2.8064,-19169.5,-21263.8,1203.4
1.01282e+08,144.573,0,2.55202,24767.3,-8577.93,-13043.6
1.01418e+08,18.5806,2,2.95913,-986.084,-1760.49,-26184
1.01552e+08,80.5945,2,2.95933,-10669.4,-10451.6,-20767.4
1.01749e+08,46.8607,1,2.62629,-3433.88,-8805.46,-26024.3
1.02277e+08,96.7265,1,2.49085,1624.28,-13743.6,-13836.1
1.02342e+08,15.6527,1,2.61197,-860.929,3152.68,-29796.3
1.02653e+08,134.501,1,2.40638,3100.45,26833.9,-19622.8
1.03031e+08,48.9143,0,2.39563,-6064.61,4210.3,-21609.4
1.03087e+08,152.084,0,2.43565,403.748,-551.965,-27711.9
1.031e+08,126.291,1,2.62138,-12667.9,15050,-10769.5
1.03258e+08,82.4861,1,2.832,8827.87,2356.14,-14076.5
1.03445e+08,58.531,0,2.53686,9144.19,8469.07,-28461.6
1.03464e+08,186.96,2,2.64586,-12306.8,17624.8,4232.29
1.0347e+08,8.78863,1,2.39949,-1504.01,922.061,-28016.8
1.03675e+08,10.7181,0,2.75662,1298.29,1467.83,-27577.7
1.0387e+08,5.97025,2,2.69477,-390,-1308.75,-28673.9
1.04207e+08,99.6883,2,3.05685,7571.3,-7118.01,-10781.9
1.04212e+08,28.7122,2,2.85062,-3589.87,4119.02,-26254.2
1.04266e+08,7.6828,0,2.38243,1375.4,24.2722,-27818.3
1.04313e+08,29.7122,1,2.43483,-4098.68,4845.88,-28104.2
1.04652e+08,12.2603,1,2.45541,531.14,2154.86,-27375.9
1.0474e+08,54.5107,0,2.76526,5413.31,5263.41,-20109.6
0,54.5203,0,2.67174,0,0,0
1.0488e+08,9.92466,1,2.64558,-1510.32,-1351.27,-28309.2
1.05099e+08,32.8091,0,2.65644,75.3202,6472.44,-26308.8
1.05274e+08,44.4392,2,2.64574,4761.85,-4170.42,-21922.4
1.05358e+08,46.0498,2,2.8712,-7963.31,-1179.43,-23352
1.05768e+08,5.81746,2,3.01558,-557.527,181.724,-27732.1
1.06107e+08,78.7092,0,2.88283,-10372.6,4044.55,-16656.7
1.06717e+08,8.65253,1,2.81479,241.649,1789.57,-29501.8
1.06744e+08,4.19507,0,3.01951,425.287,-662.323,-28314.4
1.06854e+08,15.597,1,2.75608,-747.728,2542.91,-26758
1.06978e+08,9.5234,1,2.54995,-1368.64,1441.51,-29548.5
1.0701e+08,188.147,0,2.6613,28900.1,14364.4,-5637.91
1.0709e+08,23.5342,0,2.76719,-810.637,2872.29,-24887.1
0,23.1952,1,2.56243,0,0,0
1.07348e+08,90.45,1,3.03944,-2761.8,-16644.1,-20353
1.07509e+08,94.8887,0,2.37661,16472.4,11520.2,-27179.9
1.07538e+08,122.005,1,2.59508,-9229.86,11590.2,-7720.31
1.0759e+08,208.085,1,2.63272,-28804,19650.2,-2019.22
1.07656e+08,5.87559,1,2.57884,-595.489,-128.231,-27724.6
1.081e+08,79.1351,0,2.41922,-5536.85,-8916.01,-15857.8
1.0815e+08,40.1201,2,2.45797,2957.61,-4253.69,-22054.9
1.08743e+08,43.4753,2,3.03981,1240.14,-3861.97,-20668.3
1.09179e+08,185.408,2,2.74997,-4490.5,7627.37,-25461.7
1.09407e+08,17.9716,0,2.8103,1257.33,-3004.73,-26863.1
1.09555e+08,16.3441,2,2.94825,708.341,-2840.02,-26897.2
1.09764e+08,121.222,2,2.76768,-1041.16,16976.6,-9838.72
1.09981e+08,9.93524,0,2.63371,-1837.62,-821.032,-28400.1
1.09987e+08,26.0685,2,3.02744,-2906.87,-4745.61,-28807.3
1.10023e+08,95.6512,2,2.76655,-5646.33,-15753.9,-17493.9
1.10361e+08,79.5598,1,2.41572,-1898.13,15400.6,-22070.8
1.10416e+08,108.828,2,3.00474,-22254.6,4756.51,-26859.1
1.10492e+08,4.71986,0,2.95725,993.138,433.512,-28698.7
1.10745e+08,6.01395,2,2.36522,-483.257,-554.274,-27714.2
1.10769e+08,23.0922,0,2.74618,4871.06,-710.753,-28180.1
1.10973e+08,115.369,0,2.79429,-16835.9,10300.4,-14785.3
1.11022e+08,7.5518,2,2.83728,-1350.34,707.016,-28280.2
1.11158e+08,7.94578,2,2.6895,1091.51,-101.364,-27583.2
1.11183e+08,57.0625,1,2.6959,-9810.97,3521.36,-22680.9
1.11284e+08,48.0501,0,2.75941,5387.84,2717.38,-26203.5
1.11337e+08,102.178,2,3.03041,14026.7,15148.6,-23405.9
1.1162e+08,117.621,0,3.02606,20025.4,-11997.7,-20756.4
1.1205e+08,111.161,0,2.43094,20932.8,8566.64,-22162.6
1.12328e+08,71.4721,0,2.90203,-12480,-5740.26,-22927.7
1.12503e+08,59.2029,2,3.04684,7992.23,552.883,-19393.5
1.1269e+08,7.77876,1,2.60108,401.392,1607.46,-28407.3
1.12759e+08,164.042,0,2.43325,24193.9,21589.7,-16364.4
1.13012e+08,51.191,2,2.9952,292.735,-7084.46,-20703.3
1.14032e+08,2.2338,0,2.41161,334.054,199.623,-28467.4
0,2.19487,0,2.90568,0,0,0
0,2.25801,0,3.00149,0,0,0
1.14063e+08,84.2025,0,2.88314,11051.4,12923.3,-23718.8
1.14534e+08,39.0999,1,3.01964,2537.91,6948.29,-25132
1.14696e+08,115.129,0,3.01761,1453.88,-15690.4,-23865.9
1.15166e+08,131.623,2,2.73427,-15473.4,-12794,-9608.73
1.15469e+08,3.69829,0,2.39534,-290.062,706.854,-28683.5
0,3.74243,0,2.77687,0,0,0
1.1606e+08,17.9787,2,2.85791,-1840.49,-1553.26,-25838.8
1.16566e+08,32.6531,1,2.39585,-2511.62,5201.53,-24887
1.16686e+08,28.1145,1,2.72532,2625.34,-3570.37,-24947.9
1.16803e+08,21.6068,1,2.57068,-1608.83,850.454,-24596.1
1.17015e+08,29.0303,0,2.70245,2490.43,269.114,-23198.6
1.17184e+08,16.3769,2,2.60352,-1573.03,-2675.5,-27120.1
1.17214e+08,16.2034,0,3.02403,3215.78,972.631,-27841.7
1.17425e+08,62.6599,2,2.85878,10708.3,-1403.49,-21291.1
1.17715e+08,52.0523,2,2.67133,-7861.66,-55.3817,-21151
1.17723e+08,116.193,0,2.95754,8872.37,10670.6,-8739.55
1.17795e+08,197.285,2,3.05822,-1569.34,22851.2,5476.97
1.17865e+08,82.3048,0,2.74531,6353.35,11554.7,-27236.6
1.17869e+08,93.1818,0,2.87359,-5103.2,14249.4,-24132
1.17922e+08,98.1937,0,2.42115,2050.95,-10699.7,-11172.8
1.18559e+08,77.7935,2,2.41346,668.261,-13171.1,-18879
1.18621e+08,111.11,0,2.73273,-15489.1,17170.2,-25585.7
1.18767e+08,6.64016,1,3.02757,-1204.44,566.83,-29440.2
1.18886e+08,114.287,0,2.60948,-12701.8,20231,-25796.6
1.18889e+08,14.8105,0,2.4919,471.541,-2951.89,-27863.4
1.18948e+08,85.0501,2,2.589,1750.55,-15618.7,-19996.6
1.18965e+08,88.8249,2,2.86751,4154.18,12643.1,-15795.8
1.19055e+08,2.37783,1,2.5115,303.943,482.719,-28834
1.19528e+08,11.0447,0,2.86732,2377.94,240.27,-28589.5
1.19654e+08,97.9261,2,2.75701,-5883.85,17462.4,-19645.3
1.19682e+08,3.54271,2,2.43418,-421.856,485.23,-28454.3
1.20002e+08,79.9365,2,2.53748,2425.13,14717.3,-21626.5
1.20066e+08,62.9094,2,2.78494,-5352.23,-4482.8,-17523
1.20261e+08,87.5813,1,2.79873,3512.54,17257.6,-23192.7
1.20518e+08,64.2337,0,2.70067,-6271.4,-8402.4,-20282.7
1.2055e+08,153.643,2,2.64554,-18134.5,-5303.59,-2456.01
1.20663e+08,57.4214,1,2.47604,3384.52,3145.03,-17586.4
1.20784e+08,64.4562,2,2.57595,-12170.3,-6251.58,-27921.8
1.21222e+08,78.9177,2,2.86944,-7344.89,1475.02,-14045.1
1.21268e+08,82.5983,2,2.85124,-17399.5,-81.6999,-29810
1.21448e+08,35.9329,1,2.4157,-1710.94,7492.53,-29487.2
1.2239e+08,28.3863,2,2.7847,3433.75,-1433.25,-24129.3
1.22655e+08,56.3364,2,2.38074,-5877.07,-10429.2,-27641.1
1.22749e+08,36.7283,0,2.82599,-1556.58,-7579.05,-29153.1
1.22753e+08,49.5373,0,2.45807,8087.62,6421.8,-26681.6
1.22838e+08,35.4028,2,2.71489,-4387.19,-6093.06,-29879
1.22861e+08,29.1235,1,2.6892,3959.78,-2038.08,-24650.4
1.23123e+08,72.8305,2,2.46224,-6079.43,-4838.66,-15475.9
1.2337e+08,1.80659,0,2.47449,-237.325,192.583,-28705.5
1.23428e+08,110.627,2,2.4625,-1736.99,10420,-7970.21
1.2346e+08,33.4333,1,2.81519,-2585.46,2684.46,-22799.3
1.23557e+08,9.69027,2,2.53134,-1243.07,724.882,-27364.9
1.23714e+08,59.3926,0,2.83589,9017.06,8040.55,-25410.9
1.23772e+08,6.65859,1,2.78083,-1239.28,676.393,-28331.9
1.24429e+08,26.6395,0,2.47554,5468.36,782.009,-27286.5
1.24525e+08,172.818,0,2.46131,1722.49,21821.9,-481.256
1.25249e+08,116.441,2,2.47185,-10857.5,-19056.1,-17493.3
1.25376e+08,180.172,2,2.69435,-27693.8,-12291,-14310.7
1.25552e+08,151.665,0,2.97333,-6262.87,20333.1,-5239.67
1.25612e+08,48.7163,2,2.77906,-7741.36,-6701.5,-27517.3
1.26395e+08,21.6021,1,2.93963,-3623.72,-2768.66,-28883.7
1.26421e+08,38.8744,1,2.72397,-2511.95,-2523.46,-21455.3
1.2671e+08,21.8159,0,2.90648,906.439,-3200.59,-25636.6
1.27046e+08,15.5145,0,2.93474,1870.3,188.269,-26098.2
1.27118e+08,2.84224,1,2.81457,-78.0207,-448.932,-28481.4
0,2.91029,1,2.70654,0,0,0
0,2.86653,1,2.86712,0,0,0
1.27168e+08,37.2012,0,2.46338,2017.33,3661.06,-22135.2
1.27496e+08,67.4068,1,2.57875,5214.82,-12780.8,-25586.1
1.27713e+08,68.042,2,2.97611,-13214.7,-4715.96,-25763.2
1.27954e+08,190.049,0,2.40669,11211.2,-12963.4,7559.91
1.28162e+08,23.7015,0,2.42656,-1614.03,4592.05,-29996.3
1.28311e+08,67.5555,1,2.78908,-14170.2,1346.02,-27724.4
1.28601e+08,115.002,1,2.36309,-3817.82,-10455.1,-7191.6
1.2865e+08,110.609,0,2.71592,-7513.97,5650.02,-7514.08
1.2909e+08,152.688,1,2.96399,9144.18,23238.5,-8714.39
1.29354e+08,45.7336,1,2.61994,-4114.35,-4168.43,-21225.4
1.29484e+08,37.0808,0,2.41544,3347.96,6773.84,-26535.8
1.29834e+08,18.9271,1,3.05173,226.831,4031.74,-28405.7
1.2988e+08,79.9972,2,2.54911,1200.43,-16170.3,-23842.3
1.30289e+08,134.577,2,2.43683,-6664.57,18655.9,-8459
1.30425e+08,78.1806,0,2.6501,-7724.73,-12548.3,-21462.5
1.3058e+08,42.3016,1,2.99802,-6831.43,-4969.26,-26064.2
1.30653e+08,170.406,2,2.87485,20275.9,7963.8,-446.676
1.30874e+08,146.04,2,2.79122,19133.1,-16652,-11502.5
1.3095e+08,42.3256,0,2.73599,6931.45,-2586.8,-23698.9
1.30951e+08,29.369,0,2.46563,-3040.86,-3353.19,-24640.1
1.31055e+08,96.8112,1,2.45841,12128.9,13228.9,-18880
1.31372e+08,13.7262,0,2.65079,2736.1,855.409,-29690.9
1.31431e+08,3.33479,0,2.53587,388.736,-649.445,-28695
1.31494e+08,32.596,2,2.96134,-5523.6,-2637.83,-25610.9
1.315e+08,33.7753,1,2.78463,-5506.01,-2328,-24929.8
1.31822e+08,71.7488,1,2.6607,-12390.9,5710.35,-22118
1.32e+08,198.638,1,2.37277,-22468.9,-3888.7,6511.97
1.32012e+08,19.0224,0,3.06084,3596.32,-1876.91,-29282.2
1.32265e+08,8.40681,0,2.72368,1787.89,1.18859,-29407.5
1.32352e+08,2.19575,2,2.57228,51.3555,-553.716,-28800.2
1.3237e+08,71.591,1,2.6825,-13597.2,2336.57,-22628.8
1.32413e+08,88.2907,2,2.93489,-15333.9,10213.6,-26773.7
1.3267e+08,30.6167,0,2.59542,-3067.02,951.494,-23243.9
1.32894e+08,55.0678,2,2.96225,-3880.43,-10970.7,-28167
1.3326e+08,71.2526,1,2.86197,-7372.54,12703.4,-25566.6
1.33342e+08,5.33984,2,2.49146,177.319,-747.564,-27955.8
1.33382e+08,98.1811,0,2.43082,14332.1,-13781.9,-22541.8
1.33468e+08,42.8198,2,2.5868,531.927,-7487.47,-23652.7
1.33988e+08,42.8954,1,2.56269,-4499.07,1854.71,-21119.5
1.34112e+08,69.0221,1,2.64816,-9431.02,10006.7,-23789.5
1.34701e+08,20.018,2,2.38163,-3687.67,2099.07,-29107.2
1.35e+08,63.1449,1,2.6385,5780.29,82.9212,-16826.4
1.35194e+08,120.406,2,2.55804,-1122.28,234.883,-28165.8
1.35311e+08,70.9896,1,2.61013,-4374.98,13031.9,-22613.3
1.3532e+08,191.546,0,3.00926,7011.33,-28981,-1940.53
1.35361e+08,60.595,0,2.79276,11740.8,-2606.15,-24392.6
1.35553e+08,99.7836,0,2.74612,-18245.5,8235.99,-22618.5
1.35686e+08,56.0954,0,2.77128,7480.23,-9201.36,-28648.4
1.35906e+08,37.3707,0,2.74194,-2868.56,-4223.27,-22878.5
1.36077e+08,159.671,0,2.39339,11312.4,19757.7,-3835.05
1.36435e+08,115.773,2,2.43135,6729.59,-23557,-27162.7
1.36443e+08,72.4055,1,2.70621,1403.36,-6170.01,-21229.1
1.36632e+08,28.3159,2,2.93483,-5455.61,-2162.54,-27451.2
1.36768e+08,1.07138,1,2.81869,-103.046,26.4608,-28624.8
0,1.19485,0,2.56866,0,0,0
1.36832e+08,17.877,1,2.66,-362.83,-2279.41,-25869.1
1.36876e+08,170.658,0,2.76036,-7280.83,14903.9,2799.26
1.36912e+08,2.92906,2,2.52818,592.253,-214.5,-28778.7
1.37213e+08,142.626,0,2.76823,26349,7379.64,-16311.1
1.37527e+08,14.3199,0,2.77759,-1974.32,1497.91,-27169.8
1.37596e+08,193.934,1,2.78024,21673,21717.8,-1883.86
1.38111e+08,7.31202,0,2.41342,834.287,871.029,-27763.8
1.38224e+08,144.172,2,2.49944,-19535.5,7816.4,-6753.22
1.38562e+08,180.489,2,3.04876,-6391.32,-23652.2,-9.25675
1.38667e+08,103.198,0,3.0215,18147.3,1263.13,-16986.4
1.38754e+08,109.357,0,2.76325,10612.1,18072.7,-19212.9
1.38983e+08,39.2907,1,2.87078,2806.47,5182.38,-26596.1
1.39303e+08,36.2505,0,2.688,7367.47,2435.12,-28904.2
1.39328e+08,145.486,0,2.41248,5855.95,20907.8,-7018.73
1.3937e+08,76.7036,0,2.61721,-10274.9,7963.64,-19229.8
1.39633e+08,22.0427,1,2.93679,-3280.42,-3239.97,-28644.3
1.39746e+08,136.721,2,2.82691,8141.37,15508.6,-6095.41
1.39801e+08,92.9511,2,2.77494,11477.7,2751.97,-13246
1.40061e+08,24.2574,0,3.02476,-4211.92,914.949,-26240.7
1.40258e+08,103.861,0,2.53308,-5607.74,7657.19,-9600.1
1.40381e+08,2.78977,0,2.82511,114.771,-453.451,-28413.3
1.40524e+08,0.395325,1,3.39092,-64.5445,50.1674,-28784.9
0,0.185358,1,3.37902,0,0,0
0,0.190166,1,3.02533,0,0,0
1.40937e+08,2.00743,0,2.75097,479.667,26.4405,-28626.9
1.40946e+08,10.8587,1,2.96813,-2002.16,1139.16,-29480.1
0,10.7937,1,2.7188,0,0,0
1.41121e+08,133.183,0,2.7643,17128.4,-8428.34,-8216.79
1.41368e+08,3.15399,2,2.50028,-383.039,-373.066,-28328.3
1.41733e+08,29.6143,2,2.78878,-3584.21,-4450.07,-26101.2
1.41742e+08,113.631,2,2.55931,-17697.2,-8305.86,-14758.3
1.41996e+08,71.5043,0,2.39685,2509.52,12187.7,-20194.6
1.42174e+08,138.835,0,2.48834,10748.4,-6423.87,-2300.54
1.42652e+08,60.3326,2,2.5332,3793.5,-9125.71,-20673.5
1.42692e+08,106.947,0,2.38557,12850.8,17802.5,-23057
1.42932e+08,84.6058,0,2.64963,-9435.41,13745.9,-22575.7
1.42954e+08,101.759,2,2.95552,-19149,7997.22,-23676.8
1.43319e+08,37.1313,2,2.66565,545.288,-2892.21,-23641.9
1.43328e+08,9.48682,2,2.52549,-1924.23,-741.181,-28431.6
1.43345e+08,36.7346,1,2.68485,-7128.18,1575.79,-26010.7
1.4374e+08,30.7367,2,2.70009,6097.59,232.297,-26759.5
1.44135e+08,106.081,1,2.89122,-13944,-10876.5,-15780.1
1.4475e+08,77.4497,0,2.97624,-8006.12,-3705.28,-15218.1
1.45086e+08,59.4211,2,2.57502,-11812.7,-1603.17,-24666.2
1.4555e+08,109.675,1,2.619,13462.4,7423.06,-11493.2
1.46295e+08,49.3696,0,2.52367,2925.2,-2384.14,-19059.4
1.46308e+08,68.5563,2,2.60639,1108.06,12349.2,-21451.9
1.46519e+08,85.0811,0,3.01765,10348.3,-2275.97,-14421.2
0,85.1036,0,3.04031,0,0,0
1.46539e+08,13.1901,2,2.68498,-16.3016,-2857.84,-28482.5
1.46566e+08,60.44,2,2.9271,-7628.54,7735.38,-23049.7
1.4665e+08,11.3399,0,2.78184,2249.33,-442.516,-27861.6
1.47123e+08,94.2733,2,2.87941,9443.87,-5626.13,-12337.8
1.47611e+08,3.93249,1,2.4236,-278.681,-221.026,-28099.4
1.47649e+08,14.3555,0,2.97818,2153.1,1665.92,-27356.9
1.47922e+08,46.7294,1,2.36842,-2207.04,6385.6,-21542
1.48325e+08,3.3908,0,2.41336,684.306,-402.288,-28675.4
0,3.45657,0,3.02295,0,0,0
1.48346e+08,26.5661,2,3.00723,-4470.33,-2047.52,-26039.8
1.48389e+08,16.1173,2,2.61702,-2408.75,-1768.57,-27021.1
1.48461e+08,5.65302,2,2.66129,-1060.92,43.0096,-28234.5
1.48583e+08,86.9423,1,2.69823,-3534.15,-14313.2,-17998.2
1.48715e+08,33.0446,0,2.53666,-1319.98,-4656.31,-23792.7
1.49463e+08,106.459,1,3.0378,8301.78,-12668.8,-12514.5
1.49593e+08,57.4528,0,3.05319,7538.07,-8556.66,-24808.9
1.49726e+08,101.535,2,3.00469,18927.6,3864.28,-19970.5
1.49791e+08,60.3324,1,2.49833,-10715,123.955,-21807.1
1.49814e+08,88.2119,2,3.04441,16833.3,-7568.55,-27686.6
1.501e+08,57.1511,1,2.92674,11882.5,1619.78,-28982.9
1.50294e+08,201.172,0,2.60055,20017.7,-8135.6,7791.22
1.50342e+08,8.42365,2,2.95566,1291.55,387.441,-27708.8
1.50424e+08,95.6275,0,2.39239,16781,-4386.89,-18253.6
1.50449e+08,75.824,2,2.58547,9993.55,5580.3,-17663.4
1.50609e+08,145.218,2,2.93952,18838.7,622.793,-4920.99
1.50789e+08,2.98979,0,2.93049,243.244,-364.04,-28312
1.50809e+08,26.0818,2,2.59009,-5117.84,-612.333,-26799.5
1.50981e+08,124.187,0,3.0015,14723.3,-9740.71,-9649.81
1.51002e+08,76.4218,0,2.51587,11004.7,11634.3,-26330.4
1.5109e+08,32.7206,2,2.64063,-6802.2,-265.247,-27439
1.51202e+08,41.6899,2,2.73483,3066.6,-8246.03,-29895.3
1.51298e+08,22.7166,0,2.43275,-1948,4069.22,-27203.2
1.51319e+08,25.9968,2,3.03978,171.644,-3351.01,-24464.2
1.51449e+08,34.8053,0,2.90772,202.356,-6405.78,-28269.7
1.51484e+08,1.15894,0,3.06107,362.184,16.9114,-28885.4
1.51679e+08,53.1299,0,2.90413,7581.16,6267.53,-23399
1.51858e+08,78.3069,2,2.60839,-12873.4,-8999,-23370.5
1.52046e+08,9.00561,1,2.8199,-1060.39,-1535.62,-28590.2
1.52181e+08,41.0848,1,2.68935,-3192.39,7871.59,-26735.4
1.52587e+08,22.4465,2,2.46423,1945.63,-1994.91,-24940.2
1.53929e+08,25.3469,0,2.5893,2377.08,-4656.07,-27403.1
1.54435e+08,63.8482,2,2.79258,-3741.59,8300.33,-18979.4
1.5462e+08,206.915,2,2.43702,15896.7,19944.3,6691.07
1.54682e+08,46.7229,1,3.02052,2068.24,-8980.98,-25715.9
1.54919e+08,21.457,0,3.01793,2331.94,-3932.86,-28818.2
1.55784e+08,74.5848,1,2.36687,-6449.01,-14361.8,-27959.7
1.55821e+08,179.646,2,2.85091,-28638.5,16448.1,-10529.6
1.55948e+08,49.4984,0,2.43854,-5670.53,2092.81,-20340.1
1.56194e+08,14.1385,2,3.05575,425.803,-2760.29,-27615.4
1.56827e+08,104.988,0,2.72292,-6588.95,-20526.7,-23973.5
1.56845e+08,33.3311,2,2.49097,386.06,-901.406,-26859.5
1.56969e+08,4.64592,1,2.52157,-238.802,927.719,-28393
1.56995e+08,25.2174,1,2.70153,-3772.78,-1400.15,-25309
1.57302e+08,14.6305,1,2.61557,826.718,-2407.26,-27149.1
1.5733e+08,87.3925,1,2.49062,-8094.53,-13758.7,-27157.9
1.57554e+08,94.1527,1,2.39232,-3487.99,-10271.5,-12157
1.58518e+08,25.0221,2,2.96781,385.718,-3374.34,-24749.4
1.58865e+08,80.1223,2,2.94086,-16186.7,1434.58,-24363
1.58964e+08,21.9574,0,2.89339,2621.31,-3681.4,-27630
1.59004e+08,40.4593,1,2.58677,7054.99,-4173.15,-26661.2
1.59393e+08,30.7433,2,2.80373,417.517,-4902.8,-24560.8
1.59449e+08,29.9217,1,2.43793,-1073.49,-3387.99,-23608.6
1.59509e+08,126.749,2,2.49337,149.855,-9191.48,-24504.6
1.59685e+08,86.9756,2,2.39909,10251,6558.68,-15092.7
1.60471e+08,14.5232,1,2.89277,-2299.65,734.307,-26891.4
1.60598e+08,103.256,2,2.88161,16812.2,-6812.56,-16919
1.6064e+08,144.713,1,2.45516,26094.8,-13011.7,-19750.8
1.60797e+08,133.314,2,3.02113,-24220.6,-13988.6,-27193.5
1.60922e+08,127.414,2,2.41267,-16965.3,-8279.88,-9502.82
1.61025e+08,133.603,0,2.90912,-17551.6,-19678.7,-19404.9
1.61095e+08,53.1643,0,2.66754,11301.5,-671.829,-28827.1
1.61348e+08,71.1556,1,2.46188,-14230.5,-4324.1,-26326.1
1.61372e+08,7.55089,2,2.90335,-776.321,1365.71,-28899.1
1.61443e+08,130.587,1,2.70536,6306.51,26795.9,-27007.5
1.61953e+08,150.258,2,2.41758,-2623.2,-17783.8,-2557.95
1.61985e+08,33.488,2,2.45763,-2268.61,-6572.67,-26990.6
1.62171e+08,170.561,2,2.90549,-22327.6,-25157.4,-16268.8
1.623e+08,16.9856,2,2.98531,486.213,-2953.11,-26760.1
1.62364e+08,45.4914,1,2.66813,-178.126,-6154.17,-21490.8
1.62409e+08,14.1247,2,2.74403,150.459,1995.46,-29353.5
1.62481e+08,24.5239,1,2.75554,-4402.09,2265.03,-27144.5
1.62694e+08,71.0967,2,2.52515,-2981.91,14281.1,-25444.8
1.627e+08,135.246,0,2.6037,14205.6,-10997.3,-6599.06
1.62707e+08,117.116,0,2.46188,-603.544,14799.9,-8985.85
1.62901e+08,29.9083,2,2.91589,1925.08,-5630.87,-26616.8
1.6307e+08,45.9125,0,2.75694,5208.73,-6948.8,-24437.5
1.63179e+08,93.9359,0,2.80845,-8427.47,-17286.3,-24449.1
1.6322e+08,153.542,0,2.61101,-5264.23,-27448.1,-12398.6
1.63326e+08,17.0252,2,2.49717,-2219.63,260.889,-25976.6
1.63643e+08,75.9405,0,2.85072,-5870.25,-12532.5,-20937.1
1.63687e+08,17.261,0,3.01835,1655.76,995.079,-25714.8
1.64014e+08,22.4212,0,2.99844,1668,1871.25,-24824.2
1.64375e+08,5.8162,1,2.83272,-638.077,-1011.72,-28582.9
1.65068e+08,45.8164,2,2.51348,-575.367,4337.68,-23268.9
1.65276e+08,73.605,1,2.50219,14386.2,2153.04,-23351.3
1.65568e+08,69.6435,1,2.78631,13726.5,2458.01,-24362
1.65899e+08,69.007,1,3.02648,-10968.7,9338.25,-26690.6
1.66027e+08,138.502,0,2.95941,17338.8,17810.2,-14271.9
1.66368e+08,11.0326,0,2.55146,2332.91,522.324,-28508.1
1.66475e+08,59.9925,1,2.51966,-3067.09,-6727.37,-18549.1
1.66796e+08,31.8196,2,2.93541,3094.62,4760.31,-25412.9
1.66824e+08,22.8641,1,2.80388,-3501.1,1804.1,-25967.7
1.67488e+08,26.8659,0,2.75428,4755.08,-992.145,-25754.2
1.67622e+08,17.4532,1,2.49675,3261.12,-659.908,-27276.2
1.68068e+08,227.839,0,2.43434,17463.6,-25871.5,7928.62
1.68611e+08,56.0977,1,2.3765,-1974.69,6239.28,-18872.9
1.69392e+08,2.30273,1,2.78681,-330.853,508.039,-28871.6
1.69729e+08,102.493,1,2.39523,-13188.6,10548.4,-15129.9
1.70347e+08,15.2993,0,2.90046,2921.8,-717.615,-27463.4
1.70368e+08,12.1047,1,2.69203,-2116.03,-517.943,-27464.6
1.70374e+08,26.821,1,2.8686,1394.17,5444.02,-27743.8
1.70396e+08,44.8756,0,2.66695,8450.31,120.104,-24393.3
1.7056e+08,20.007,0,3.03812,4124.12,448.17,-27691
1.70936e+08,124.528,0,2.67202,1266.52,-26238.3,-28540
1.70983e+08,35.2432,2,2.82826,-2896.21,3966.02,-23268.7
1.71116e+08,84.983,0,2.8969,17942.9,538.049,-29282.8
1.71154e+08,57.4076,1,2.51487,4379.3,-4397.82,-18429.1
1.71255e+08,42.7739,2,2.54982,-1840.23,-8681.64,-26625.9
1.71551e+08,25.7876,0,2.5035,2038.03,-5089.61,-29343.5
1.71678e+08,20.854,0,2.46434,-558.081,-4398.67,-28887.6
1.71872e+08,13.3965,1,2.77666,2066.25,1917.37,-29401.7
1.71927e+08,46.5465,1,3.01271,3750.86,8344.06,-28523.9
1.72028e+08,12.3046,0,2.8709,-669.514,1884.24,-27208
1.7233e+08,70.8507,1,3.01225,8359.33,-6259,-18358.2
1.72658e+08,66.4155,1,3.02991,8873.79,9822.1,-24461.9
1.72696e+08,24.7246,0,2.57493,4320.02,1028.75,-25942.1
1.72741e+08,56.5117,0,2.93758,-5549.47,7473.84,-21532.3
1.73005e+08,107.018,1,2.60049,-20989.8,-1365.87,-20429.8
1.73066e+08,5.41338,0,2.76997,901.759,-770.849,-28529.4
1.73376e+08,127.947,2,2.50258,13991.8,-4189.07,-6082.44
1.73493e+08,114.044,0,2.9881,10327.6,4821.74,-7771.01
1.73727e+08,100.277,1,2.68905,-21003.1,-2691.21,-29539.6
1.73779e+08,91.9686,2,2.6543,-14744.1,4709.72,-17074.8
1.73979e+08,60.3916,1,2.69487,5933.83,10566.2,-24761.2
1.74103e+08,6.64634,1,2.52354,122.433,1249.44,-28044
0,6.63828,1,2.63125,0,0,0
1.7417e+08,84.5405,1,2.45521,15280.1,4044.91,-20491.4
1.7445e+08,44.416,0,2.88323,-350.877,3783.27,-20296.5
1.75244e+08,252.304,2,2.79572,-23121.5,-2584.66,18880.8
1.75304e+08,8.54653,0,2.91109,470.824,-433.622,-27134
0,8.51604,0,2.93955,0,0,0
1.75694e+08,103.026,0,2.85776,19772.4,447.057,-19784.7
1.75716e+08,19.0041,0,2.97183,3763.02,1508.01,-29201.9
1.75953e+08,1.33053,0,3.007,207.08,-25.9344,-28566.4
0,1.3299,0,3.05843,0,0,0
1.76574e+08,89.6388,1,3.06147,-1786.85,5952.61,-23549.3
1.76742e+08,142.219,0,2.82735,16608.9,24028.4,-22162.4
1.76753e+08,68.3608,1,2.84812,2271.51,-7232.12,-16663.8
1.76866e+08,13.8699,2,2.96216,634.261,1945.93,-26840.5
1.77019e+08,70.5595,1,2.79814,7738,-223.415,-16177.7
1.7713e+08,15.7306,0,2.89141,2525.69,-2201.91,-28246.4
1.77369e+08,17.9996,1,2.68063,1351.15,3022.15,-26851.3
1.77445e+08,117.456,0,2.74144,13042,4523.59,-8242.46
1.77605e+08,27.6447,1,2.83297,-4959.02,3205.04,-28904.6
1.77667e+08,57.6846,2,2.78587,9034.06,2155.79,-21039.4
1.7778e+08,126.508,2,2.96505,-9188.84,-5632.74,-4553.71
1.78468e+08,81.8456,1,2.71446,8117.17,-9271.49,-16865.7
1.78862e+08,11.1632,0,3.04835,-534.007,1403.3,-27036.6
1.7901e+08,28.2984,1,2.99008,-2489.86,4073.66,-25159.2
1.7906e+08,23.1146,2,2.51192,1535.97,-4648.91,-29600.3
1.7911e+08,10.0095,0,2.56742,-554.035,954.87,-27034
1.80169e+08,71.9994,2,2.54323,12819.7,4999.29,-22400
1.80339e+08,117.01,1,2.51371,-15466.9,-25.4308,-9489.14
1.80725e+08,52.1659,0,2.96533,2544.93,5205.65,-19503.2
1.80774e+08,33.6762,0,2.5821,1253.23,-7029.43,-29105.6
1.81384e+08,168.202,1,2.47165,29576.4,10304.4,-11972.5
1.81803e+08,108.089,2,2.79245,-13472.8,-9177.34,-12891.6
1.81924e+08,22.486,2,2.57445,968.724,-4682.33,-28025.9
1.81981e+08,23.336,0,2.71346,-238.072,-4914.27,-29176.1
1.82102e+08,38.9533,0,2.65902,3468.78,5017.6,-23254.6
1.82209e+08,8.45671,2,2.93895,-746.46,-1659.77,-29353.8
1.82943e+08,43.44,1,2.62666,-7184.67,-5037.15,-26188.3
1.83294e+08,27.3126,2,2.54229,2389.63,-726.502,-23626.8
1.83436e+08,10.1858,1,2.57926,-1795.43,-1215.25,-28875.7
1.8345e+08,84.5781,1,2.61284,-16434.6,4144.17,-23016
1.83789e+08,80.8238,0,2.83698,-7502.48,14963.5,-26068.8
1.83792e+08,6.73397,2,2.457,293.428,-1410.08,-28458.7
1.84409e+08,97.5286,1,2.54184,-4330.86,-14301.6,-14660.5
1.8474e+08,175.202,1,2.94452,-29549.6,-7128.06,-8108.31
1.84907e+08,79.2946,1,2.4315,-13753.8,-8768.71,-24900.4
1.84942e+08,74.2943,2,2.46964,7802.77,-12118.2,-22422.6
1.85188e+08,159.034,2,2.79636,-15984.2,1302.83,565.936
1.85245e+08,89.8157,1,2.93817,-14384.1,-2064.67,-16757.4
1.85559e+08,26.7241,1,2.60043,2636.08,2135.41,-24281.2
1.85594e+08,75.9893,2,2.59073,11711.3,-11039.5,-28484.6
1.85665e+08,38.3571,0,2.61751,-984.766,3628.09,-21647.9
0,38.5105,2,2.68769,0,0,0
1.85728e+08,129.304,2,2.8806,14576.5,961.913,-5968.36
1.8585e+08,126.219,0,2.62155,22665.7,7438.85,-16791.7
1.85864e+08,37.9304,0,2.56816,6407.04,-988.66,-23980.6
1.85903e+08,95.197,0,2.4236,-8957.04,-4325.46,-11373.5
1.85962e+08,51.187,1,2.46738,-7100.85,8142.98,-27166.4
1.85979e+08,66.8217,2,2.7154,10726.6,8758.54,-26614.9
1.8604e+08,154.769,0,2.75366,16536.8,-8784.52,-7821.39
1.86386e+08,81.179,0,2.79655,14570.9,-8365.61,-25340.1
1.8645e+08,295.257,2,2.58695,20943.6,-12490.3,28560.5
1.86542e+08,210.523,0,2.68033,20709.1,14851.6,1922.88
1.86961e+08,58.1367,1,2.72472,-1093.29,10112.7,-21898.6
1.86974e+08,35.2537,0,2.5303,1741.27,114.793,-29107.1
1.87043e+08,74.4617,1,2.81913,8088.83,-1550,-16273.9
1.87178e+08,245.125,0,2.68238,9644.96,10312.9,16205.2
1.87322e+08,40.7187,2,2.36546,-998.768,-8624.26,-29550.4
1.87756e+08,78.2169,0,3.05657,-4456.34,-7447.18,-14940.3
1.88048e+08,292.899,0,2.69082,15296.3,20490.3,27386.7
1.88323e+08,5.25804,0,2.5367,978.487,-468.908,-28306.4
1.88594e+08,136.191,0,2.36398,6275.58,-4211.26,-26842.4
1.88623e+08,62.5731,2,2.48568,8053.19,-9622.97,-26953
1.89091e+08,134.809,0,2.67674,16463.4,-18851.7,-15219.2
1.89157e+08,159.22,2,2.65655,-9761.96,-11236,1314.54
1.89175e+08,39.0686,0,2.693,4141.33,4119.58,-22933.9
1.89317e+08,25.2174,1,2.76556,2500.52,2031.23,-24571.5
1.89928e+08,184.914,2,2.90036,-18420.8,4227.57,5075.89
1.89955e+08,25.5965,0,2.41713,788.732,-4894.41,-26613.7
1.90524e+08,179.482,1,2.65599,-15326.7,-22985.5,-2975.52
1.91026e+08,21.2275,1,2.54874,-1478.51,1458.78,-24809
1.91028e+08,24.436,0,2.8329,2747.69,-3393.9,-25990.3
1.91155e+08,60.6558,2,2.52888,4149.11,-12110.8,-27384.8
1.91159e+08,91.0405,0,2.64818,-8501.89,14231.5,-19185.3
1.91323e+08,90.7958,2,2.46038,-16814.8,-9116.6,-26235.7
1.92481e+08,174.368,1,2.71883,-25163.2,26718.7,-25826.5
1.92773e+08,124.377,1,2.42726,-1015.39,-22167.6,-14759.3
1.92992e+08,30.7931,2,2.97141,-1523.31,-3487.65,-23556.4
1.93423e+08,78.3962,0,2.94806,-1843.83,-7940.69,-14533.2
1.93491e+08,92.7903,1,2.44367,-16848.8,8106.43,-22596.5
1.93815e+08,23.8539,0,3.04976,-2089.41,-1317.64,-24538.2
1.93966e+08,70.1098,1,2.88174,-3843.45,4201.55,-15202.6
1.94296e+08,178.048,1,2.88843,-24157.4,-20878.1,-9421.9
1.94401e+08,236.302,1,2.70471,15612.3,23287.3,-8494.04
1.94448e+08,28.9818,2,2.57946,-1957.24,4119.36,-24748.9
1.94545e+08,79.193,0,2.84971,-2161.68,6413.41,-13619.8
1.94572e+08,110.742,1,2.79136,4334.24,-10435,-8506.85
1.94629e+08,10.9877,2,2.47586,-1140.2,-2064.4,-28237.3
1.95338e+08,102.981,0,2.6215,13797,-4933.21,-12705
1.95418e+08,26.7022,0,2.90699,3163.55,-3285.79,-25477.4
1.95596e+08,44.3701,0,2.49356,4425.35,7391.82,-24946.4
1.95643e+08,149.962,2,3.0462,-2263.95,-19949.1,-14838.2
1.95787e+08,166.18,1,2.68077,-2714.41,16851.8,1806.21
1.96046e+08,151.88,0,2.68497,-11687.8,-6834.28,-1236.42
1.96079e+08,87.5778,2,2.46622,-11556.1,-12518.4,-21340.1
1.96208e+08,111.803,1,2.74694,-8225.59,19893.4,-19062.6
1.96362e+08,102.808,0,2.54911,11314.7,-360.44,-10233.6
1.96565e+08,63.9936,2,2.65102,-3817.73,-11949.4,-23581.7
1.96614e+08,21.0442,0,2.86602,197.836,4351.26,-27864.3
1.96862e+08,85.5372,1,2.37,6352.37,-5239.01,-12728
1.96878e+08,38.2059,1,2.49254,-5012.56,4989.14,-24736.2
1.97776e+08,100.626,1,2.84442,678.522,18304.6,-18162.3
1.97807e+08,190.22,1,2.82558,15072.3,23761.7,-6028.92
1.97926e+08,111.124,2,2.94556,17299.1,-14387.6,-22559.3
1.98005e+08,44.0226,1,2.96613,3929.22,1665.46,-20626
1.9882e+08,178.181,2,3.02392,-15046.8,-13888,716.106
1.99228e+08,38.7568,2,2.81108,-1025.98,-6863.07,-24398
1.99611e+08,71.3047,0,2.57367,9997.56,-11187.7,-26754.4
1.99803e+08,175.236,1,2.54139,-26541.4,11939.7,-5834.29
2.00216e+08,17.9768,2,2.36196,-3108.08,-2269.14,-28199.3
2.00512e+08,36.7054,2,2.75621,-7287.4,2028.96,-26981.7
2.00612e+08,115.674,1,2.60788,-14525.7,16716.3,-18329.8
2.00654e+08,84.6394,0,2.92943,6636.59,-4033.44,-12836.7
2.0122e+08,144.243,2,2.72775,5333.17,23425.9,-10311.6
2.01404e+08,32.1317,2,2.44762,-2405.01,6088,-27131.1
2.01613e+08,224.27,0,2.49591,3517.04,29183.3,8367.84
2.02016e+08,184.232,0,2.632,-3376.75,-23931.1,-264.109
2.02246e+08,18.0436,2,2.79238,-992.152,-3568.47,-27592.8
2.02361e+08,49.6425,2,2.76961,-8468.65,4233.18,-24357.1
2.02388e+08,132.235,0,2.65085,26611.2,-5428.99,-22059.1
2.02443e+08,275.398,0,2.45735,21560.9,-15905,22893.4
2.02952e+08,21.6224,0,2.41916,2414.91,1218.07,-25069.3
2.0328e+08,13.3302,0,2.57643,950.076,-724.204,-26240.6
2.03401e+08,0.165039,0,3.47241,118.897,49.1644,-28819.5
0,0.139256,0,3.33615,0,0,0
0,0.139313,0,2.46202,0,0,0
0,0.142227,0,3.58381,0,0,0
0,0.129929,0,3.66696,0,0,0
0,0.19884,0,2.48708,0,0,0
0,0.131605,0,3.1144,0,0,0
0,0.207185,0,2.96159,0,0,0
0,0.161153,0,2.53232,0,0,0
0,0.163701,0,3.42463,0,0,0
0,0.139116,0,2.64318,0,0,0
0,0.138412,0,2.53766,0,0,0
0,0.136529,0,3.3548,0,0,0
0,0.130348,0,3.10641,0,0,0
0,0.159756,0,3.64156,0,0,0
0,0.146628,0,2.19463,0,0,0
0,0.197845,0,3.97618,0,0,0
0,0.242892,0,2.77364,0,0,0
0,0.229774,0,2.59583,0,0,0
0,0.218601,0,3.33423,0,0,0
0,0.192462,0,2.15862,0,0,0
0,0.135166,0,3.43733,0,0,0
0,0.139538,0,3.55469,0,0,0
0,0.197442,0,2.62296,0,0,0
0,0.129901,0,3.40124,0,0,0
0,0.130412,0,3.00412,0,0,0
0,0.166441,0,2.81094,0,0,0
0,0.139286,0,3.74146,0,0,0
0,0.14032,0,2.33296,0,0,0
0,0.198167,0,3.86905,0,0,0
0,0.134413,0,3.65386,0,0,0
0,0.185234,0,2.31779,0,0,0
0,0.182802,0,2.43696,0,0,0
0,0.253955,0,3.33854,0,0,0
0,0.136161,0,3.90272,0,0,0
0,0.128633,0,3.4351,0,0,0
0,0.161406,0,2.33605,0,0,0
0,0.183043,0,3.9332,0,0,0
0,0.194484,0,2.52394,0,0,0
0,0.135111,0,2.83509,0,0,0
0,0.130287,0,4.05301,0,0,0
0,0.135659,0,3.73061,0,0,0
0,0.165406,0,2.92013,0,0,0
0,0.133165,0,2.39995,0,0,0
0,0.209119,0,2.11206,0,0,0
0,0.130907,0,3.14268,0,0,0
0,0.128902,0,3.5602,0,0,0
0,0.147655,0,2.92213,0,0,0
0,0.138662,0,2.11188,0,0,0
0,0.16001,0,3.3235,0,0,0
0,0.158694,0,2.42204,0,0,0
0,0.128349,0,3.55709,0,0,0
0,0.129613,0,3.77625,0,0,0
0,0.185629,0,3.93954,0,0,0
0,0.130067,0,2.86053,0,0,0
0,0.146569,0,3.23524,0,0,0
0,0.130946,0,3.96669,0,0,0
0,0.129771,0,3.83357,0,0,0
0,0.132066,0,2.50068,0,0,0
0,0.113459,0,2.93165,0,0,0
2.03529e+08,103.445,2,2.84005,-20769.2,-73.629,-22165.3
2.03592e+08,27.2787,0,2.53386,5856.21,-185.165,-28905.5
2.03885e+08,22.9217,1,2.69101,-4785.54,-983.617,-29135.4
2.04034e+08,12.3046,1,2.57265,1206.02,-83.0461,-26555.4
2.04619e+08,87.0151,2,2.61967,-7274.26,-1504.45,-11997.5
2.05025e+08,105.663,1,3.01217,-6071.12,12196.5,-11306.1
2.05151e+08,80.0818,0,2.91029,11115.7,-3098.75,-25415.2
2.05215e+08,81.3305,1,3.00393,1774.29,17033.2,-28316.6
2.05382e+08,63.7995,1,2.87016,7805.18,1286.66,-18012.8
2.05462e+08,83.8722,1,2.59453,-11050.1,11425.6,-20846.5
2.06017e+08,24.438,2,2.67789,-3087.88,-3799.66,-26987.5
2.06113e+08,13.9102,2,2.5839,1252.11,-1878.17,-26883.4
2.06549e+08,127.537,0,2.74618,24657.2,-9817.95,-24095.9
2.06801e+08,80.8867,2,3.01144,11229.7,11629.3,-23949.5
2.06862e+08,132.318,2,2.68565,-7452.33,-17616.9,-8462.91
2.07005e+08,3.85428,2,2.74187,689.854,-73.8552,-28465.8
2.07035e+08,5.42451,0,2.3958,-40.7696,896.986,-28136.4
2.07055e+08,60.2465,0,2.68688,7782.83,6011.02,-20695
2.07689e+08,15.0961,2,3.05255,-2439.55,-1855.59,-27732
2.07774e+08,68.7759,2,2.69458,5540.76,-4329.35,-16124.2
2.07818e+08,23.0803,0,2.99186,4891.7,-1.72399,-28027.9
2.07876e+08,1.422,1,3.02776,-339.112,-10.9624,-28711
2.07987e+08,129.089,1,2.6654,-25822.6,8114.32,-25308.2
2.08448e+08,86.9721,0,3.05102,-7884.18,16193.4,-26198.5
2.08485e+08,52.2926,1,2.40205,12.8707,-5444.49,-19248.2
2.08496e+08,26.824,0,2.9685,4871.1,974.046,-26057.2
2.08651e+08,72.6341,2,3.01563,9160.03,-12190.6,-28067
2.08925e+08,60.8585,2,2.89459,-9556.67,-1896.12,-20473.1
2.09499e+08,5.33351,0,2.40012,-516.827,67.5263,-27879.5
2.09587e+08,16.4877,0,2.78491,-2293.8,239.659,-26275.3
2.09671e+08,10.3929,0,2.97197,1715.48,989.818,-27726.3
2.0976e+08,24.8876,0,3.02711,2778.15,-2337.19,-24998.1
2.09876e+08,179.754,1,3.0284,27576.9,1451.05,-3247.27
2.10032e+08,24.5532,1,2.76475,-1138.91,4372.7,-26138.7
2.10155e+08,16.6888,2,2.70804,-2563.74,-1375.91,-26727.9
2.1036e+08,98.0588,2,2.81296,-16504.6,3932.35,-23083.2
2.10365e+08,17.7822,2,2.90537,687.653,-1708.06,-25567.9
2.10434e+08,5.71405,2,2.66504,-723.708,29.4226,-27823.8
2.10651e+08,69.5253,1,2.54818,-5587.57,-2621.36,-15495.7
2.10706e+08,15.4041,0,3.01057,665.527,1370.74,-25941
2.10998e+08,199.926,1,2.88101,6409.53,12507.2,-18184.2
2.11041e+08,147.487,1,2.61773,13854.1,21511.3,-11009.7
2.11299e+08,30.8688,1,2.73585,147.264,-6429.47,-28343.7
2.1148e+08,26.7748,2,2.40564,-3833.35,21.2888,-24600.8
2.11608e+08,23.064,2,3.00518,1619.96,-4562.63,-27942.2
2.11652e+08,109.351,2,2.63156,8378.6,-7929.61,-8814.78
2.11769e+08,85.0379,2,2.68197,-8179.72,4649.66,-13543.1
2.12205e+08,29.1561,1,2.69606,4408.39,-3201.51,-26083.2
2.12535e+08,0.452432,2,2.96653,-42.0445,-186.369,-28778.2
0,1.18934,1,2.64112,0,0,0
0,0.458522,2,2.75129,0,0,0
0,0.446366,2,2.64456,0,0,0
2.12595e+08,48.3621,2,2.97893,-3746.39,9254.94,-27328.5
2.1315e+08,230.791,1,2.64262,22982.8,-1468.3,14034.9
2.13182e+08,25.6566,1,2.87388,1388.36,3962.96,-25359.7
2.13254e+08,41.5202,2,2.75153,-512.478,5469.03,-22059.9
2.13382e+08,126.721,0,2.87208,6253.31,-11347.8,-9499.27
2.13504e+08,35.4865,1,2.40637,3447.64,-3167.82,-22995.3
2.13538e+08,82.6059,1,2.94131,-5066.15,16590.4,-27032.2
2.13633e+08,8.91248,1,2.91075,1006.65,1623.46,-29208.4
0,8.96123,1,2.89785,0,0,0
2.1375e+08,66.6847,1,2.80059,1038.7,9867.02,-18873.5
2.13798e+08,72.0605,1,2.64499,398.411,8291.56,-16029
2.13988e+08,33.6408,1,2.63466,2486.87,6728.02,-29024.4
2.14167e+08,96.286,1,2.58102,-10042.9,14772.5,-18919.1
2.14277e+08,60.9281,0,2.88741,-8455.86,-3266.57,-19896
2.1446e+08,76.1382,2,2.56842,11524.7,-9935.76,-23467.5
2.1455e+08,80.2799,2,2.88963,-7541.01,158.558,-13748.1
2.14708e+08,49.0638,2,2.89854,-2568.24,-6497.51,-21166.1
2.14757e+08,8.70347,2,2.99094,-1029.47,-1312.43,-27917.8
2.15037e+08,107.522,1,3.00079,5370.98,10821.6,-9769.47
2.15088e+08,40.6491,2,2.40775,6294.72,3263.31,-24010.8
2.1509e+08,49.5579,1,2.43688,5934.43,8533.07,-27110.3
2.15107e+08,111.747,1,2.79997,8817.87,-13364.3,-11671.6
2.15605e+08,1.11003,0,2.73001,17.1842,-55.9518,-28599.9
2.15617e+08,84.0973,2,2.88169,6406.12,10666.3,-16361.2
2.16149e+08,37.8478,2,2.73755,46.0545,-8048.6,-28231.4
2.16252e+08,27.561,2,3.00507,-3906.89,-797.051,-24568.4
2.16261e+08,166.199,0,2.90668,22937.8,6178.21,-4329.34
2.16286e+08,144.704,1,2.6731,25753.8,15647.4,-23950.2
2.16365e+08,44.442,1,2.85332,-5823.17,1558.53,-21620
2.16375e+08,8.27846,2,3.04056,279.222,-1760.06,-29168.7
2.16459e+08,41.8705,2,2.71319,-4129.96,1146.39,-21104.5
2.17422e+08,156.942,1,2.78591,-21701.4,22470.5,-17961.2
2.17423e+08,42.5778,1,2.72427,-6325.52,2602.49,-22916.8
2.17653e+08,92.103,2,2.66034,-16987.9,-9572.75,-28765.1
2.17719e+08,113.886,1,2.78519,18108.4,-8194.47,-15660.9
2.17772e+08,16.6856,1,2.96351,821.865,2573.17,-26521
2.17985e+08,90.5986,0,3.00931,-14200.7,11820.4,-24621.1
2.1809e+08,73.981,1,2.66245,-12285,-3066.74,-19690.9
2.18102e+08,183.032,2,2.44217,-25622.9,-5864.49,-340.414
2.18313e+08,115.821,2,2.65857,11890.7,-21244.7,-26243.7
2.18321e+08,80.3839,1,2.38928,12501.5,11084.5,-25460.2
2.18586e+08,3.8874,1,2.55843,-423.792,-250.035,-28152.7
2.189e+08,160.503,1,2.95188,-23403.9,20454.9,-15701.9
2.19171e+08,49.2278,0,3.04419,9283.6,-2408.73,-24809.7
2.19218e+08,244.431,2,2.88352,-27027.9,15802,-17461.3
2.19354e+08,145.052,2,2.66577,6470.55,-18409.8,-5219.84
2.19455e+08,105.883,0,2.4129,5758.71,-10457.3,-22653.3
2.1956e+08,4.94537,1,2.92342,-373.844,-916.972,-28598.4
0,5.00941,1,3.00753,0,0,0
2.19605e+08,152.274,1,2.71656,3929.01,6421.98,-16315.8
2.19673e+08,96.7575,0,2.83444,9105,-14271.9,-17443.2
2.19774e+08,18.4435,0,2.72087,-312.357,-1518.58,-25266.6
2.19793e+08,48.4789,2,2.45234,1321.03,-6611.19,-21042.8
2.19944e+08,216.321,2,2.42643,-19731.3,13441.5,10206.9
2.19981e+08,46.2203,0,2.54162,-2583.55,-4666.33,-20681.5
2.20147e+08,94.9679,0,2.77828,13304.4,-4240.64,-14466.9
2.20343e+08,36.4667,1,3.02447,119.572,5041.61,-23018.5
2.20383e+08,28.5612,2,3.06117,565.09,-4599.88,-24935.1
2.2056e+08,176.566,1,2.98295,-20001,16071.9,-7596.82
2.20782e+08,21.6381,1,3.03927,3682.92,-45.1616,-26225.2
2.20894e+08,43.2533,0,2.82182,-1545.17,-5345.74,-21633.2
2.21282e+08,143.334,1,2.51327,2609.64,-13571,-1908.42
2.21443e+08,59.9749,1,2.97096,3568.07,-11381.4,-24998
2.21882e+08,10.5807,0,2.40087,528.662,-1282.5,-27033.5
0,10.6579,2,2.97429,0,0,0
2.21962e+08,106.856,2,2.94905,10353.9,10669.3,-26919.5
2.22179e+08,14.6375,2,2.63873,2605.92,-1599.31,-28176
2.22292e+08,47.3463,2,2.93696,484.139,-7717.18,-22496.4
2.22383e+08,10.8597,2,3.02,-687.583,-1314.68,-27031
2.22391e+08,127.641,1,2.64513,-25657.2,6350.42,-23343.8
2.22587e+08,136.13,0,2.51365,8815.26,-25870.4,-19720.7
2.22672e+08,66.4662,1,2.7238,-5003.84,5793.04,-17037.6
2.22679e+08,35.1666,1,2.74821,-5086.12,-4530.47,-25888.1
2.23569e+08,148.898,0,2.64975,26876.2,-2913.12,-12669.1
2.23577e+08,114.032,2,2.54884,-9933.14,13456.3,-11487
2.23746e+08,17.7476,2,2.7233,-2005.08,-2577.57,-26840.1
2.24488e+08,30.9058,2,2.88454,2966.78,-1666.85,-23322.7
2.24545e+08,9.18395,1,2.78114,-1596.32,-1075.11,-28569.5
2.24763e+08,69.2791,2,2.55314,-329.491,-10221.6,-18284.5
2.24801e+08,138.299,0,2.86716,25818.3,-43.4881,-15383.6
2.24915e+08,34.9946,1,2.93435,2883.44,4742.57,-23936.8
2.25191e+08,165.334,2,2.76604,-19243.2,-29018.8,-26954.6
2.25256e+08,96.8672,2,3.00273,4775.3,-9492.81,-24978.3
2.25301e+08,75.0722,0,2.94148,5408.3,-9318.26,-17276.1
2.25508e+08,9.42928,1,2.64509,-1880.29,841.084,-28529.8
2.25839e+08,281.646,2,3.00408,-27069.9,-15653.1,10592.6
2.25955e+08,35.2119,2,2.48606,5099.14,184.478,-23448.9
2.26273e+08,59.0882,0,2.98605,-3065.33,4864.59,-17869.2
2.2629e+08,94.7121,2,2.69613,-14619.3,10263.6,-19888.3
2.26984e+08,4.27987,2,2.90803,-479.595,88.1085,-28032.8
2.27372e+08,18.0541,2,2.54645,-2115.44,-3304.47,-28831.5
0,18.2389,2,2.79657,0,0,0
2.2745e+08,47.0149,0,3.04489,9470.25,-3038.74,-29186.7
2.27471e+08,19.5975,2,2.99668,-714.11,-1958.99,-25234.4
0,19.6167,2,2.94843,0,0,0
2.27619e+08,45.0835,1,2.66858,1584.16,6779.27,-22310.5
2.27745e+08,257.344,0,2.39681,23733.2,-7551.64,19384
2.27752e+08,134.499,2,2.71238,-10535.9,23899,-17938.3
2.27915e+08,64.0633,1,2.51914,2065.3,12312.4,-23375.2
2.2821e+08,49.2971,0,2.40301,10387.6,-61.0439,-27044
2.28228e+08,145.748,0,2.66367,3231.37,28962.5,-18950.9
2.28709e+08,58.5915,2,2.54949,-3517.77,-4725.28,-17877.9
2.28983e+08,157.685,0,2.83311,19968.2,6559.17,-3128.46
2.29421e+08,99.8392,0,2.83515,9844.67,-4624.44,-10841.4
2.29425e+08,9.21254,2,3.04587,-953.4,234.332,-27130.9
2.29457e+08,95.41,2,2.71889,-15530.9,6144.12,-29427
2.29603e+08,78.6509,2,2.8227,-1265.11,-16571,-29883.5
2.29846e+08,166.491,0,3.01772,14791.6,-20058.8,-4356.54
2.29867e+08,14.5324,1,2.71678,-718.511,-1440.41,-26246.2
2.30149e+08,113.271,2,2.6673,9141.18,-18437.3,-16618
2.30436e+08,178.505,1,2.80995,16626.7,10471.7,-691.145
2.31088e+08,107.035,1,2.43796,-13967,10947.5,-14654.6
2.31264e+08,38.0627,0,2.96016,2004.26,-7718.95,-27861.5
2.31457e+08,148.727,0,2.98796,17542.1,-25491.4,-24772.6
2.31604e+08,19.3551,2,3.03326,-4007.97,469.848,-28043.6
2.31966e+08,28.1117,2,2.59572,-2442.85,358.45,-23402.1
2.32118e+08,33.1987,0,2.82517,-2788.07,-1294.86,-22594.9
2.32305e+08,207.92,1,2.41293,5017.93,24941,7091.24
2.32424e+08,42.8986,1,2.91211,-1536.63,-5267.49,-21711.4
2.32531e+08,132.531,1,2.46511,-8339.61,18793.8,-9723.51
2.32879e+08,109.312,2,2.98786,6187.84,-21891.3,-25506.8
2.33233e+08,43.4903,2,2.5827,-4781.91,-4443.92,-22274.4
2.33314e+08,29.0797,1,2.95678,-4897.41,3825.07,-28908.3
2.33327e+08,99.1388,0,2.58534,-6110.56,-11181,-12252.4
2.33336e+08,144.732,2,2.93069,-8838.52,-28358,-22036.7
2.33368e+08,31.5002,2,2.95524,1536.36,-2508.09,-22885.6
2.33521e+08,12.7471,0,2.52209,1771.88,2102.86,-28429.8
2.33526e+08,102.427,0,2.99073,5516.05,-8967.2,-10087.4
2.33574e+08,48.7514,2,2.90476,7240.21,-3714.94,-22606.5
2.33778e+08,17.7823,0,2.94777,1112.21,2639.53,-26382.1
2.34004e+08,93.6786,0,2.41527,5970.46,6459.4,-11033.8
2.34368e+08,69.0313,2,2.85688,9671.89,-7543.57,-21060.3
2.34524e+08,41.0281,0,2.79667,6813.42,5451.55,-29153.1
2.34674e+08,64.0181,1,2.82436,-7808.95,-8553.18,-21944.5
2.34702e+08,15.0516,0,2.385,2537.17,1668.9,-27631
2.34765e+08,5.12788,2,2.98678,-624.146,-979.829,-28636.6
2.34834e+08,99.1652,2,2.76981,-18429.1,2657.22,-19666.8
2.35139e+08,32.4422,0,2.43658,-2815.76,2972.11,-23376.8
2.35216e+08,58.8655,1,2.98163,-5747.6,7444.57,-20731.5
2.36054e+08,10.1235,1,2.73873,529.677,2134.18,-29125
2.36058e+08,100.987,0,2.75769,8559.71,9186.02,-11648.9
2.36314e+08,27.8535,2,2.57903,3585.69,-2674.44,-24994
2.36681e+08,113.578,2,2.4419,-6223.2,-18185.4,-14281.6
2.36701e+08,119.781,2,2.64039,-6389.17,8299.21,-5847.94
2.36725e+08,9.7379,0,2.59334,591.302,-1935.22,-28214.2
2.36796e+08,55.8515,0,2.8987,-4961.61,-4705.84,-24596.9
2.37003e+08,171.692,1,2.4166,5296.73,18467.3,2005.7
2.37011e+08,154.322,0,2.69705,-23795.6,-17816.2,-15726.2
2.37324e+08,123.544,1,2.81299,-5698.83,-9677.11,-19849.4
2.3733e+08,130.41,2,2.70994,6876.75,-9991.79,-4145.22
2.37391e+08,4.60582,1,2.9265,-548.648,232.359,-28000.2
2.37391e+08,5.67692,1,2.47994,609.362,1058.59,-28576.3
2.37732e+08,99.2113,1,2.3838,-14240.8,15488.2,-27563.4
2.37766e+08,120.262,0,2.86326,9744.07,-20410.7,-17468
2.38035e+08,46.5938,1,3.03809,7096.96,-224.263,-22182.6
2.38275e+08,76.6388,0,2.67745,13350.4,2328.88,-19873
2.38747e+08,167.58,2,2.76985,-3117.07,-19315.8,568.548
2.38764e+08,2.70666,1,2.49623,-41.9377,145.991,-28265
2.39214e+08,31.2704,1,2.66888,4452.73,-939.565,-24091.7
2.39601e+08,10.5192,0,2.38056,-1386.25,-1358.32,-27856.8
2.39823e+08,92.9266,2,2.74338,-19430.7,-2517.24,-27322.5
2.39967e+08,30.2334,1,2.93396,-1129.99,3257.18,-23453.8
2.40057e+08,87.2014,0,2.71989,14317.6,118.609,-17206.1
2.40284e+08,190.668,2,2.62952,-13910.1,25740.9,-1305.08
2.4066e+08,48.9988,1,2.76655,-10270.7,199.225,-27358.5
2.40794e+08,8.23284,1,2.68715,713.103,688.17,-27398
2.41105e+08,137.218,2,2.65379,-4686.57,-12628.4,-3167.7
2.41134e+08,162.827,2,2.92136,25615,13944.3,-11116.1
2.41481e+08,165.827,1,2.6538,20177.6,-13596.8,-26709.9
2.41583e+08,26.2891,0,2.68108,597.616,3902.78,-24905.1
2.41862e+08,23.2314,1,2.79848,-1039.94,4859.13,-29402.9
2.42049e+08,92.066,2,2.47958,-11921.3,-4161.02,-13974.6
2.42173e+08,21.9431,0,3.05274,-3331.47,3101.47,-28431.6
2.42383e+08,2.13209,1,3.02663,-170.053,-219.043,-28500.3
2.42453e+08,63.678,0,2.94939,569.775,-5567.4,-16673.4
2.42454e+08,109.517,0,2.62353,-1481.24,-13123.7,-9878.74
2.42739e+08,16.6487,0,2.94088,-2683.2,-876.164,-26839.1
2.43014e+08,142.534,2,2.54851,-28262.5,-1921.27,-18470
2.43041e+08,144.083,0,2.71547,28037,3639.85,-17592.2
2.43446e+08,91.879,1,2.53857,-11784.3,8022.85,-21704.9
2.43852e+08,60.8896,0,2.73265,-6207.79,5145.36,-18877.5
2.43913e+08,115.986,1,2.82166,5944.26,-12263.6,-8634.49
2.44097e+08,142.985,0,2.9453,13884.6,9808.62,-14906.3
2.44164e+08,242.85,0,2.73805,14679.8,-17576.7,16931.9
2.44188e+08,23.4827,0,2.63944,-1823.79,4425.13,-27578.8
2.4439e+08,204.084,1,2.95155,-25928.3,19479.2,-816.68
2.44419e+08,3.05862,1,2.70836,-643.542,157.882,-29081.3
2.44554e+08,163.894,1,2.6872,-25332.9,5606.69,-24496.5
2.44644e+08,182.091,1,2.44247,-26313.4,7279.22,-1645.77
2.45205e+08,19.4962,1,2.64701,-3755.82,-510.572,-27091.9
2.45386e+08,38.2367,1,2.79311,-6943.52,-2311.75,-25427.6
2.45919e+08,7.81096,1,2.78889,-1594.69,677.395,-28886.9
2.4603e+08,167.727,2,2.64037,9297.32,-11671.4,-280.413
2.46039e+08,11.3739,2,2.7168,-2217.9,843.263,-29383.5
2.46354e+08,70.6672,2,3.05061,-9440.43,-7352.72,-20013.4
2.46625e+08,5.79511,1,2.39567,-1020.08,639.651,-28279.4
2.46855e+08,38.6091,2,2.76701,-5224.6,-1023.31,-22616.7
2.4701e+08,9.59199,0,2.89405,824.527,936.639,-27202.3
2.47055e+08,52.1385,0,2.80385,-1908.53,6792.06,-20442.1
2.4757e+08,26.0994,1,2.91213,2365.05,-1617.82,-24199.9
2.47722e+08,37.3329,1,2.89136,-742.054,-4706.47,-22622.9
2.47733e+08,106.453,2,2.80048,5305.68,19312.1,-21597.4
2.47904e+08,18.2639,2,2.78874,-2356.86,17.2974,-25778
2.48185e+08,278.37,2,2.59924,-25547.4,-11845.2,-28451.4
2.4821e+08,200.913,0,2.52479,11210.1,29646.7,-537.732
2.48219e+08,208.147,0,2.91347,10861.9,13519.2,-15204.3
2.48312e+08,21.8719,1,2.74351,2392.02,3521.74,-26954.4
2.48387e+08,4.5662,0,2.47909,-160.802,-783.63,-28260.4
2.48441e+08,16.2037,0,2.50272,3250.95,-459.507,-27587.5
2.48615e+08,158.917,2,2.9228,20477.9,-20866,-12741.9
2.48819e+08,34.699,2,2.98011,-2164.44,-4653.91,-23569.6
2.49391e+08,222.276,2,2.40466,-18293.4,-14457.8,12053.4
2.49449e+08,0.000133654,0,2.58115,87.1921,-43.83,-28834.7
0,0.000275601,0,2.52244,0,0,0
0,0.000374775,0,3.90948,0,0,0
0,0.000428256,0,3.65344,0,0,0
0,0.000402053,0,3.95169,0,0,0
0,8.35917e-05,0,4.0645,0,0,0
0,0.00017895,0,3.78723,0,0,0
0,0.000598844,0,3.13268,0,0,0
0,0.00060142,0,3.13268,0,0,0
0,0.000393723,0,2.94792,0,0,0
2.49898e+08,39.5776,2,2.93659,2425.63,-2298.06,-21199.5
