#class tools::wcsv::ntuple
#title time
#separator 44
#vector_separator 59
#column double eventID
#column double t(ns)
#column double copynumber
#column double energy(eV)
#column double x(mm)
#column double y(mm)
#column double z(mm)
122771,138.444,0,2.47417,14845.9,5234.73,-25243.4
472077,19.6322,0,2.50683,3558.82,-2231.47,-28223.8
513022,249.95,2,2.86094,-22231,-25635.2,11317.3
578927,14.2844,1,2.45678,-599.697,1945.93,-26513.6
721315,169.921,0,2.97043,4089.54,-7675.85,2408.14
739802,128.292,2,2.72601,-5247.64,-23516.3,-16393.6
923564,35.0377,2,2.58046,-2897.16,-4852.67,-23831
1.14902e+06,84.3905,2,2.47022,-1709.89,-17871.7,-28187.4
1.19984e+06,82.6545,2,2.39732,-9351.79,4586.02,-14752.1
1.3051e+06,47.5296,2,2.84592,-6484.26,1892.92,-26928.7
1.40986e+06,40.7832,1,2.90422,-8072.79,1616.31,-26260.2
1.46718e+06,7.88879,1,2.49341,-684.378,1426.41,-28257.8
1.59918e+06,77.9909,2,2.72393,-6265.24,12697.9,-20577.6
1.64949e+06,68.5763,2,2.43269,-2039.43,4673.91,-15323.5
1.7979e+06,144.957,1,2.97408,5002.74,29948.3,-26560.1
1.88352e+06,29.9553,2,2.93584,-5945.39,383.943,-26721.7
1.93534e+06,134.594,1,2.48999,-7729.56,14503.3,-5733.25
1.94245e+06,140.021,1,2.6669,-21833.2,13152.8,-21498.7
2.03376e+06,23.5385,0,2.64181,-318.563,-3639.6,-25788.6
2.25686e+06,11.6915,2,2.70785,296.259,-1531.58,-26856.7
2.28168e+06,31.8358,0,2.91465,-899.937,5116.89,-24531.3
2.42829e+06,21.7825,2,2.8345,3482.22,-2968.35,-28282
2.64899e+06,160.283,0,2.68066,25540.4,-4104.07,-6923.53
2.70119e+06,135.703,1,3.00178,-24493,-1308.58,-14607.3
2.89567e+06,18.9873,2,2.88875,1574.11,1163.19,-25556.1
2.91674e+06,110.437,2,2.88465,2290.47,-11510.1,-23135.4
2.9571e+06,24.3034,2,2.51787,2488.19,4027.47,-27084.9
3.04528e+06,71.8142,0,2.76169,-8472.5,10673.2,-22335.4
3.10182e+06,31.576,2,2.67626,-2418.46,-4137.77,-24177.3
3.11934e+06,12.5065,1,2.9675,-602.119,2612.46,-29146.9
3.31277e+06,47.0944,2,2.97472,1819.04,-6125.36,-21234.7
3.4095e+06,94.5124,2,3.04971,-13973.4,-14061.9,-27394.1
3.5031e+06,152.05,2,2.84481,-18269.6,-24155.1,-18354
3.53645e+06,14.0616,1,2.5233,-383.84,2930.6,-29390.1
3.65298e+06,146.48,1,2.76294,-19013.6,2927.68,-24672.8
3.72881e+06,30.4282,0,2.6454,-1730.31,6098.11,-27967.9
3.8079e+06,120.389,2,2.74134,3916.42,-5712.16,-4435.69
3.81173e+06,221.451,0,2.99434,-1391.19,-25061.9,10213.8
4.00878e+06,18.2412,1,2.45013,-1959.68,2077.97,-26198.7
4.0354e+06,98.9373,0,2.46926,7624.99,13827.1,-15052.2
4.15791e+06,51.9037,2,2.76676,-9575.09,-888.293,-23550.1
4.20036e+06,45.9326,0,2.85241,6300.31,-4044.88,-22612.3
4.2188e+06,22.3444,0,2.87659,4022.9,1225.04,-26706.3
4.22906e+06,46.1919,0,2.99099,7220.76,4010.34,-23647.7
4.47087e+06,71.7458,1,2.50628,-6368.77,13810.7,-27729.4
4.51847e+06,6.84067,0,2.54861,535.148,-1172.66,-27887.7
4.65346e+06,20.4895,0,2.77027,4156.18,1642.45,-29129.8
4.70795e+06,14.5167,1,2.73201,-2945.39,-803.525,-29478.7
4.75698e+06,139.739,0,2.8616,15208,10202.8,-19145.4
4.79727e+06,64.4638,2,3.0212,5002.58,-9603.6,-20767.9
4.88514e+06,173.561,2,2.95296,4108.12,-29687.6,-8066.08
4.93776e+06,13.2343,0,2.52108,-1987.69,1229.88,-27358.5
5.07737e+06,90.6511,1,2.66926,15400.1,3225.74,-18458.7
5.19746e+06,13.9488,1,2.41433,-2354.86,-795.139,-27112.9
5.26582e+06,20.7999,0,2.563,-1005.14,-3982.42,-27350.9
5.7e+06,68.163,0,2.78026,-799.477,-10219.3,-18785.1
5.78016e+06,8.83896,1,2.61081,-1718.4,656.61,-28294.7
0,8.91788,1,2.97098,0,0,0
5.78358e+06,66.1459,2,2.8437,4601.75,-13136.5,-29709.8
5.99851e+06,90.9021,0,2.94767,17041,-3982.32,-20908.2
6.03877e+06,8.47149,1,2.58607,248.081,844.168,-27167.8
6.20718e+06,42.2765,2,2.38498,1174.5,-4435.5,-21112.2
6.22886e+06,114.613,1,2.88816,3293.24,19300.3,-20786.6
6.25546e+06,179.399,2,2.9211,28008.5,-24467.5,-22772.8
6.31286e+06,111.329,0,2.95663,6842.54,-13904.7,-11402
6.38134e+06,19.3224,1,2.59121,-2157.59,3302.46,-27583.4
6.40798e+06,31.7102,0,2.71167,3778.6,3258.23,-24290.4
6.42357e+06,89.8822,0,2.77931,9700.93,-1873.99,-12639.4
6.58451e+06,12.4386,0,2.57362,1696.98,-1163.82,-27117.4
6.64793e+06,10.1207,1,3.01022,780.177,-816.234,-27106.5
6.74641e+06,229.151,1,2.5966,3258.31,-1870.67,-28681.5
6.77618e+06,139.629,1,2.449,13632.7,-901.611,-2707.52
6.87583e+06,135.1,1,2.79681,-27920,1471.75,-23719.8
7.10681e+06,102.635,1,3.04629,9077.25,5912.17,-10243.3
7.12118e+06,5.4502,0,2.59021,596.163,1051.67,-29268.6
7.24126e+06,24.3762,2,2.8839,2437.34,-4437.58,-29972.4
7.28149e+06,32.7788,1,2.5454,-2399.03,-2837.55,-22985.2
7.29584e+06,34.6961,2,2.69825,438.619,-5237.14,-23711.1
7.44836e+06,54.0668,2,2.95407,8796.85,6220.46,-25517.7
7.45589e+06,115.444,0,2.85534,4440.14,13545.5,-9047.05
7.49138e+06,87.0185,0,2.54563,-15794.1,4302.29,-20516.2
7.60698e+06,11.1553,2,2.61983,-1652.99,1523.31,-27692.1
7.62305e+06,74.7363,0,2.78634,12016.9,-2177.03,-18896.1
7.75053e+06,44.2978,2,2.81891,8563.3,3214.24,-27320.4
7.75463e+06,23.4277,2,3.02573,4378.58,-377.324,-28800.9
7.82374e+06,76.6228,1,2.43177,13721.5,7986.57,-26360.7
7.85952e+06,27.972,0,2.92048,134.003,-2133.8,-23314.3
8.04104e+06,78.4606,0,2.8895,-10526.2,-331.949,-16160.8
8.21349e+06,44.3265,2,2.39706,3558.72,-4721.99,-21573.9
8.22642e+06,97.4033,2,2.61705,1415.36,-18873.2,-20750.8
8.26736e+06,84.588,2,2.63877,-1899.87,-17554.6,-26475.4
8.3576e+06,139.111,0,2.96396,25833.4,11306.7,-20908
8.37095e+06,32.7382,1,2.69576,1516.79,6492.53,-26569.8
8.50404e+06,56.9818,0,2.5799,8143.68,5101.18,-21525
8.51817e+06,75.7711,2,2.87332,15557.2,-788.613,-25126.6
8.53757e+06,169.804,1,2.7161,-20549.9,-18970.3,-7186.35
8.5482e+06,17.8853,0,2.43617,3524.25,382.841,-27221.7
8.87828e+06,3.87192,0,2.78641,893.885,72.5869,-28503.2
8.92962e+06,71.8014,2,2.83735,-9202.57,-10574,-23015.7
9.0387e+06,5.28931,0,2.66363,670.945,-250.987,-27932.9
0,5.39923,0,2.88819,0,0,0
9.05794e+06,84.3009,2,3.0461,-15419.3,49.414,-20155
9.32589e+06,49.3995,1,2.3688,140.299,2743.51,-18726.7
9.34716e+06,61.7002,0,2.42311,11470.5,-3747.24,-23693
9.40143e+06,57.817,2,2.56302,4978.79,-9437.16,-22814
9.45217e+06,116.458,2,2.64773,-24184.9,-1113.83,-24046.8
9.4768e+06,85.3911,1,2.88573,11294.8,12695.1,-22995.1
9.48298e+06,116.931,0,2.39574,17265.6,-15328.5,-20175.5
9.53944e+06,55.4667,0,2.61727,319.733,4925.15,-18179.3
9.83633e+06,33.6255,1,2.82902,649.359,7237.6,-28341.2
9.86163e+06,45.2146,2,2.94977,-2927.67,-4197.01,-20653.9
9.90489e+06,105.573,2,2.41335,-13251.8,-488.505,-21880.7
1.0064e+07,54.238,2,2.74075,513.846,-10390.4,-23828.8
1.02414e+07,3.95319,2,3.03861,230.017,-376.022,-27994.4
1.02698e+07,17.9143,1,2.48744,1427.67,3569.3,-29452.5
1.06862e+07,138.394,2,2.62694,19183.7,-6967.13,-7676.67
1.08842e+07,86.3163,1,2.76287,-2917.75,10267.4,-14390.7
1.09243e+07,143.338,1,2.83339,-7247.22,2557.12,-23756.2
1.10356e+07,6.23067,0,2.72864,-901.122,-634.54,-28143.7
1.11095e+07,19.9995,2,2.5735,954.587,-2159.4,-25301
1.11389e+07,32.704,0,2.67076,884.81,-4487.67,-23616.2
1.11901e+07,5.15299,1,2.50011,65.1793,853.726,-28195.4
0,5.17485,0,3.02882,0,0,0
0,5.21455,1,2.83264,0,0,0
0,5.15508,0,2.59492,0,0,0
1.1237e+07,6.63833,0,2.76595,994.757,408.095,-28029.2
1.13166e+07,48.2192,1,2.94391,5275.93,1227.3,-24584.7
1.17531e+07,33.7443,0,3.00765,-2558.45,4997.01,-25023.1
1.1756e+07,116.443,2,2.61938,-14533.5,1224.92,-8909.53
1.17952e+07,99.1361,1,2.50919,5433.44,14098.1,-14225.8
1.2069e+07,52.8938,0,2.49437,549.563,4194.39,-18446.7
1.20879e+07,70.2291,1,2.78897,-3852.59,14356.8,-28495.2
1.23715e+07,144.288,2,2.71973,29995.7,-958.076,-27515.5
1.2457e+07,55.6132,2,2.75633,-10752.6,-2902.64,-24960.6
1.26311e+07,37.807,1,2.86184,2981.83,6971.85,-27787.4
1.27539e+07,160.183,1,2.79327,-23957.5,13151.7,-8992.65
1.27587e+07,36.5919,1,2.81828,-7670.58,-734.265,-29084.3
1.2762e+07,103.514,1,2.79707,20273.8,-7576.53,-27900.9
1.28108e+07,97.0679,0,3.01915,7177.38,14926.1,-17165.3
1.28624e+07,51.6032,0,2.4862,6117.98,-696.374,-19870.6
1.29285e+07,109.215,0,2.49059,9701.66,-2357.79,-7967.64
1.29458e+07,136.108,1,2.47378,5314.47,28261,-26673.9
1.29751e+07,17.5587,0,2.43228,-2564.27,2153.01,-27313
1.32408e+07,96.8124,1,2.92779,18965.5,300.245,-22550.6
1.3347e+07,213.122,2,3.02077,28700.2,24491.6,-5035.81
1.33761e+07,6.44297,0,2.63115,-497.64,-758.588,-27814.9
1.36122e+07,39.7798,2,2.50184,-7597.03,-2704.84,-26957.8
1.36699e+07,56.8513,1,2.66493,-4189.97,9069.47,-22123.1
1.38401e+07,61.2151,1,2.84727,-2583.49,9873.96,-20965.4
1.38775e+07,100.062,1,2.77847,-12509.4,9001.51,-14491.1
1.39784e+07,152.314,2,2.77861,10460.2,-24885.3,-11618
1.40792e+07,35.5874,1,3.01831,-3618.24,995.646,-22334
1.42724e+07,116.164,2,2.72552,-14883.2,-19293.4,-25913.3
1.4358e+07,28.1587,0,2.71242,3008.07,2775.58,-24475.9
1.44145e+07,131.934,2,2.56123,27296.2,-5727.05,-28929.1
1.46234e+07,38.471,2,2.95166,-1882.4,3938.21,-22189.9
1.46832e+07,53.2744,2,2.95588,-5501.97,257.062,-28397.1
1.5075e+07,6.21326,1,2.42612,-1161.68,184.169,-29308.5
1.51059e+07,52.1961,0,2.7552,4277.87,719.423,-18786.4
1.51491e+07,71.8639,1,2.99332,5766.48,-8342.34,-17653.7
1.52483e+07,59.8036,0,2.47435,8056.21,-6709.76,-21748.2
1.53435e+07,66.8307,1,2.95439,-5597.5,3522.52,-16551.2
1.54093e+07,140.498,1,2.75798,-25413.7,12840.5,-20316.4
1.55036e+07,12.7818,0,2.71295,2794.52,-115.321,-28490.8
1.55174e+07,122.823,2,2.54643,-2464.05,20027.4,-12574
1.55317e+07,4.83998,2,2.52627,-149.188,939.973,-28619
1.56781e+07,7.45455,1,2.46011,-470.554,1494.73,-29188.9
1.56882e+07,47.419,1,2.89554,2702.47,-6206.61,-21549.4
1.58048e+07,70.164,2,2.57698,13524.1,5555.97,-26854.3
1.58175e+07,43.6308,2,2.82767,-6411.64,-411.716,-22266.3
1.58638e+07,45.4475,2,2.61299,-5358.85,6172.56,-23622.1
1.58889e+07,40.462,0,2.69999,3378.65,4923.85,-22798.7
1.59048e+07,70.1811,0,2.91914,12378.1,-7608.1,-26836.8
1.5914e+07,75.7844,0,2.76666,2201.17,-10557.8,-17513.6
1.60657e+07,236.169,0,2.72246,8453.25,-16417.8,17422.7
1.61648e+07,58.1395,2,2.87268,-9087.26,-7540.17,-25287.1
1.61843e+07,95.0496,1,2.77063,-6722.6,126.88,-10045.9
1.62663e+07,35.1562,0,3.04811,6535.31,-3726.18,-29349.5
1.6357e+07,129.507,2,2.42401,1821.22,20871.5,-11218.1
1.64967e+07,17.2037,0,2.49268,1691.52,-672.95,-25611.3
1.65181e+07,1.2973,2,4.00186,241.24,-92.8889,-28563.6
0,1.28862,2,3.09977,0,0,0
0,1.29798,2,2.58821,0,0,0
0,1.29269,2,2.7689,0,0,0
1.65464e+07,135.091,0,2.6829,16758.7,6468.76,-6594.83
1.65804e+07,77.764,0,2.40777,10831.9,3689.06,-16963.7
1.68028e+07,131.154,2,2.53299,-18038.7,9667.97,-10107.3
1.68954e+07,79.4861,2,2.67454,-8446.07,-11526.3,-19913.6
1.70111e+07,75.8927,2,2.86057,3424.46,-15661,-28780.6
1.70242e+07,65.6331,2,2.72065,5633.27,-5601.53,-17415.2
1.70468e+07,105.389,2,2.67974,-12842,-18213.5,-27608.3
1.70596e+07,35.0319,2,2.3781,-2876.79,-6598.04,-26825.6
1.70768e+07,11.0369,1,2.8921,531.435,1366.43,-27947.6
1.71261e+07,24.1831,2,2.71969,-4248.67,-2209.86,-27232
1.71532e+07,19.3466,0,2.56946,352.24,1774.08,-25490.6
1.71587e+07,4.9362,0,2.64203,-750.056,-271.881,-28217.5
1.72331e+07,4.16986,1,2.51883,530.171,731.921,-29140.2
1.72917e+07,50.4334,0,3.04333,-7333.37,-3216.74,-22497.8
1.77026e+07,170.147,0,2.95354,21207.8,-28222.8,-23390.6
1.7838e+07,17.8126,2,2.56928,-2899.42,-1251.31,-26481.3
1.79547e+07,21.2935,2,2.63434,-2527.8,2295.56,-25875.3
1.79746e+07,13.6861,1,2.71913,-970.547,264.64,-26143.5
1.81061e+07,82.6728,1,2.74178,-5635.01,10626,-16145.5
1.81241e+07,6.36374,2,2.74079,-494.403,-111.541,-27441.4
1.83417e+07,25.8135,1,3.00217,-4080.68,3444.57,-27833.8
1.84243e+07,17.9627,2,2.84158,-2939.53,694.643,-26529.6
1.84747e+07,112.619,2,2.94609,9615.24,4108.93,-7738.67
1.86064e+07,37.6846,1,2.37315,6460.16,-1712.68,-24435.1
1.86445e+07,41.3584,0,2.37094,3053.83,-1460.74,-20692.5
1.87844e+07,45.8278,0,2.59753,3551.41,4993.01,-21069.4
1.89409e+07,115.894,2,2.75744,-10541.9,-17088,-14846.6
1.89621e+07,37.8324,2,2.56659,-6114.18,1857.32,-23979.6
1.9032e+07,182.569,2,2.90514,20838.2,9156.91,1991.87
1.91154e+07,115.32,2,2.51086,12690.5,-20732.3,-25979.8
1.92186e+07,212.952,1,2.53851,-29651.6,20016.8,-1407.52
1.92511e+07,111.52,0,2.45233,22806.2,-5535.06,-25746.1
1.94503e+07,85.3676,1,2.75258,-14336.9,9910.11,-24006.3
1.95318e+07,10.4953,1,2.47438,-774.663,1089.2,-26968.3
1.9549e+07,56.7483,0,2.37002,1929.64,-7908.59,-19720.7
1.96495e+07,115.627,1,2.59045,21925.4,4565.33,-19161.8
1.9681e+07,27.1184,0,2.76936,-3784.7,3948.7,-27364.7
1.97049e+07,55.5723,0,2.38736,-5441.2,993.498,-18496.8
1.97589e+07,35.5916,0,2.99866,1140.18,-6508.15,-25275.7
1.98425e+07,76.9004,2,2.97683,-12722.1,-9962.96,-28927.1
1.98578e+07,168.155,1,2.5478,22251.7,18419.6,-8471.78
1.9907e+07,21.5111,0,2.57093,2692.59,-3492.68,-27810.4
1.99558e+07,128.105,0,2.68286,-21839.5,-12242,-29387.3
1.99817e+07,67.9839,0,2.98183,-9956.56,2168.95,-18900.2
2.01868e+07,86.0691,1,2.77521,-8605.91,14314.6,-21720.7
2.03351e+07,12.5034,1,2.93667,-1377.08,726.67,-26649
2.03859e+07,168.843,0,2.87432,21319.5,-28416.9,-28920.3
2.04436e+07,14.853,0,2.45992,1398.26,1978.49,-26615.5
0,14.9979,0,2.68986,0,0,0
2.04889e+07,103.199,2,2.56786,-11129.6,9750.75,-13056.1
2.06939e+07,123.833,0,2.63178,7180.11,405.585,-17422.6
2.07087e+07,273.918,2,2.74833,17431.4,16071.1,13234.8
2.0773e+07,24.4001,2,2.57676,-2178.82,-1343.41,-24399.4
2.0791e+07,239.104,1,2.99585,21213.7,13353.8,14530.6
2.09417e+07,57.0894,2,2.90449,3837.68,-9646.74,-24268.6
2.09962e+07,152.306,2,2.39803,656.717,24702.7,-21326.8
2.11182e+07,12.1425,0,2.58844,1107.02,-1138.82,-26781.9
2.11938e+07,97.0874,1,2.52335,11546.9,-13405.5,-18546.3
2.12422e+07,29.9696,2,3.03004,-6117.82,-1173.93,-27860.4
2.13238e+07,30.7619,2,2.67898,4268.72,-5015.12,-29429.3
2.1448e+07,93.2543,2,3.05659,-16180.9,-11153.2,-28491.4
2.14703e+07,70.7602,0,2.54513,10170.9,4166.9,-18621.1
2.14956e+07,17.8073,1,2.40755,2280.73,985.481,-25951
2.1533e+07,126.802,2,2.49545,-23083,4101.66,-15920.8
2.16321e+07,91.4178,2,2.4263,-1706.21,-2789.46,-28847.4
2.17796e+07,75.5702,1,2.73791,-7996.36,-6259.07,-16559.4
2.17826e+07,36.707,1,2.9964,-7011.22,126.687,-25491.7
0,36.7021,1,2.73418,0,0,0
2.18643e+07,56.2423,0,2.71677,-3850.49,10745.8,-25872.6
2.18701e+07,78.5583,1,2.70436,7226.8,8021.89,-16263
2.21426e+07,74.7705,0,2.81194,-10524.7,669.877,-17193.7
2.21627e+07,15.0946,0,2.80323,3019.77,-539.559,-29930.4
0,15.0225,0,2.42506,0,0,0
2.22784e+07,42.611,1,2.39699,8728.26,2001.48,-27955.8
2.23953e+07,12.6823,2,2.59561,-1955.44,1070.4,-27406.7
2.24724e+07,4.4383,2,2.36321,-103.466,-976.704,-28656.4
2.25388e+07,147.147,0,2.46747,26182.1,-4360.31,-12525.2
2.2585e+07,69.4653,1,2.85328,-10781.3,114.333,-19043
2.2676e+07,31.0427,2,2.56863,2037.84,-4856.78,-24931.1
2.26782e+07,9.19769,0,3.01499,412.777,852.385,-27113.2
2.27253e+07,125.839,0,2.74334,26125.8,-194.822,-23793.5
2.27827e+07,17.0688,1,2.53425,2520.95,1788.62,-26896.6
2.28163e+07,67.0368,2,2.81832,-12029.4,-7480.18,-28137.9
2.28413e+07,49.3236,2,2.96793,-4300.5,-8982.26,-25632.7
2.28454e+07,179.906,2,2.49378,-12960,1623.11,-18684.3
2.29106e+07,113.314,0,2.70632,2151.46,18068,-13355.8
2.30183e+07,86.012,0,2.9627,1908.54,-13572.3,-20461.5
2.31684e+07,98.5167,1,2.87892,3156.44,9642.12,-10720
2.31947e+07,29.0633,1,2.95095,-3466.59,1480.32,-24019
2.36577e+07,37.3509,2,2.57056,1329.61,4608.39,-22537.8
2.37623e+07,123.969,1,2.4598,5267.92,-14922.6,-8015.45
2.38477e+07,102.116,2,2.65519,-1440.24,16358.5,-14926.6
2.39085e+07,2.60478,0,2.84378,-359.644,-200.493,-28361.7
2.42296e+07,134.766,0,2.68478,-18645,-10266.9,-10003.1
2.46519e+07,237.37,0,2.41803,-18971.8,-13789.3,-22977.9
2.49127e+07,111.121,0,2.92609,13565.3,-9373.55,-12245.5
2.5124e+07,117.26,0,2.94407,2077.95,13775,-8485.54
2.5177e+07,27.4504,0,2.46543,5471.21,387.216,-27866.6
2.51816e+07,2.21245,1,2.3918,-335.049,-61.3284,-28572
0,2.02401,2,2.90151,0,0,0
2.55657e+07,77.919,0,2.62847,-15536.3,2741.49,-24630
2.58138e+07,2.2685,2,2.57799,334.61,-295.667,-29009.6
2.59306e+07,18.5107,0,2.60921,1958.43,2434.49,-26352.5
2.59413e+07,56.6322,1,2.3657,-11118.8,4301.2,-26598.7
2.61962e+07,1.13178,1,3.57972,-306.809,236.97,-28924.2
0,1.13137,1,2.995,0,0,0
0,1.1306,1,2.27994,0,0,0
0,1.13186,1,2.82983,0,0,0
0,1.12685,1,2.18731,0,0,0
0,1.1305,1,2.82572,0,0,0
0,1.1316,1,3.54985,0,0,0
0,1.13092,1,3.57884,0,0,0
0,1.13225,1,3.08698,0,0,0
0,1.13134,1,3.89925,0,0,0
0,1.13069,1,3.84579,0,0,0
0,1.13405,1,2.45867,0,0,0
0,1.12754,1,2.40412,0,0,0
0,1.12845,1,2.6336,0,0,0
0,1.13054,1,2.81207,0,0,0
0,1.13108,1,3.98995,0,0,0
0,1.13091,1,4.12066,0,0,0
0,1.13321,1,2.25475,0,0,0
0,1.12941,1,2.24779,0,0,0
0,1.12753,1,4.08504,0,0,0
0,1.13226,1,3.45916,0,0,0
0,1.13544,1,2.8652,0,0,0
0,1.12784,1,3.35246,0,0,0
0,1.13191,1,3.14923,0,0,0
0,1.13322,1,2.45804,0,0,0
0,1.13056,1,2.70972,0,0,0
0,1.13222,1,3.34754,0,0,0
0,1.13211,1,2.29915,0,0,0
0,1.12812,1,2.39253,0,0,0
0,1.12977,1,3.71615,0,0,0
0,1.12874,1,3.26138,0,0,0
0,1.13358,1,3.48667,0,0,0
0,1.12878,1,2.22329,0,0,0
0,1.13595,1,2.86295,0,0,0
0,1.13152,1,2.86129,0,0,0
0,1.13254,1,2.29025,0,0,0
0,1.13037,1,3.12168,0,0,0
0,1.12803,1,2.71953,0,0,0
0,1.13127,1,3.63524,0,0,0
0,1.13021,1,2.33636,0,0,0
0,1.12812,1,2.4186,0,0,0
0,1.13478,1,2.30224,0,0,0
0,1.13149,1,2.934,0,0,0
0,1.13593,1,3.58791,0,0,0
0,1.12955,1,2.56935,0,0,0
0,1.13312,1,2.80868,0,0,0
0,1.13535,1,2.99294,0,0,0
0,1.13223,1,4.03214,0,0,0
0,1.12834,1,3.16879,0,0,0
0,1.13451,1,3.29286,0,0,0
0,1.12999,1,2.95707,0,0,0
0,1.13557,1,3.91991,0,0,0
0,1.13502,1,3.20226,0,0,0
0,1.12871,1,3.80989,0,0,0
0,1.1302,1,2.75246,0,0,0
0,1.12794,1,3.9853,0,0,0
0,1.13149,1,2.18691,0,0,0
0,1.13461,1,3.82726,0,0,0
0,1.12708,1,2.94015,0,0,0
0,1.13605,1,2.97775,0,0,0
0,1.13342,1,3.52781,0,0,0
0,1.13342,1,3.81079,0,0,0
0,1.1293,1,2.12436,0,0,0
0,1.12934,1,3.05543,0,0,0
0,1.13173,1,3.25513,0,0,0
0,1.12915,1,2.90298,0,0,0
0,1.13326,1,3.50482,0,0,0
0,1.1285,1,2.3409,0,0,0
0,1.13275,1,4.09828,0,0,0
0,1.13549,1,3.98873,0,0,0
0,1.12718,1,2.11774,0,0,0
0,1.12805,1,2.2424,0,0,0
0,1.13545,1,2.55728,0,0,0
0,1.13583,1,4.06475,0,0,0
0,1.13389,1,2.22626,0,0,0
0,1.1278,1,2.86914,0,0,0
0,1.13304,1,2.72548,0,0,0
0,1.13077,1,2.2749,0,0,0
0,1.13441,1,2.43409,0,0,0
0,1.13538,1,2.7083,0,0,0
0,1.13349,1,2.58443,0,0,0
0,1.12826,1,3.51683,0,0,0
0,1.12896,1,3.71218,0,0,0
0,1.13042,1,3.50336,0,0,0
0,1.13031,1,3.55915,0,0,0
0,1.1348,1,3.71105,0,0,0
0,1.12742,1,2.15735,0,0,0
0,1.13286,1,2.9499,0,0,0
0,1.12966,1,2.18204,0,0,0
0,1.13291,1,3.43925,0,0,0
0,1.13081,1,3.97973,0,0,0
0,1.13499,1,2.47965,0,0,0
0,1.12746,1,3.86736,0,0,0
0,1.13313,1,2.79062,0,0,0
0,1.12753,1,2.1993,0,0,0
0,1.13087,1,3.58395,0,0,0
0,1.13161,1,2.09865,0,0,0
0,1.13133,1,3.94615,0,0,0
0,1.13279,1,3.2237,0,0,0
0,1.13537,1,3.58604,0,0,0
0,1.12751,1,3.85672,0,0,0
0,1.13498,1,2.717,0,0,0
0,1.13106,1,3.73582,0,0,0
0,1.13382,1,2.29337,0,0,0
0,1.13441,1,3.23789,0,0,0
0,1.13137,1,2.13126,0,0,0
0,1.13063,1,2.72148,0,0,0
0,1.12923,1,2.9823,0,0,0
0,1.1283,1,2.96568,0,0,0
0,1.13074,1,2.73103,0,0,0
0,1.13323,1,2.53347,0,0,0
0,1.13378,1,3.62828,0,0,0
0,1.13392,1,3.36827,0,0,0
0,1.13364,1,3.95032,0,0,0
0,1.13393,1,2.96422,0,0,0
0,1.13392,1,2.36542,0,0,0
0,1.13394,1,2.36542,0,0,0
0,1.13319,1,2.2728,0,0,0
0,1.13393,1,2.17158,0,0,0
0,1.13369,1,3.16076,0,0,0
0,1.13425,1,2.33345,0,0,0
0,1.13593,1,2.75453,0,0,0
0,1.13622,1,3.112,0,0,0
0,1.13707,1,4.13082,0,0,0
0,1.13755,1,2.99712,0,0,0
0,1.13509,1,3.00763,0,0,0
0,1.1343,1,3.99859,0,0,0
0,1.13963,1,2.1433,0,0,0
0,1.13508,1,3.45602,0,0,0
0,1.13487,1,3.69498,0,0,0
0,1.13842,1,2.58903,0,0,0
0,1.13784,1,2.74247,0,0,0
2.62378e+07,47.0425,1,2.64599,1761.77,9112.07,-24798.6
2.62447e+07,105.799,1,2.89987,-5920.97,11369.1,-10624.3
2.63152e+07,98.9614,1,2.39054,9465.78,2272.69,-10294.6
2.65148e+07,121.873,2,2.83587,190.642,7091.13,-26715.1
2.65687e+07,149.681,1,2.49285,13453.6,5316.46,-829.227
2.673e+07,233.246,2,2.7471,-13168.7,-4753.89,4460.21
2.68233e+07,168.148,1,2.60482,-20359.6,23344.1,-11316.1
2.69028e+07,123.15,2,2.97891,11493,-21245.2,-19689.9
2.69582e+07,21.7408,0,2.96025,-1273.51,4074.07,-27268.7
2.70337e+07,28.0297,1,2.68857,-472.359,5692.74,-26889.9
2.70395e+07,90.8099,1,2.85098,-12073.9,-12502.4,-20979.6
2.70568e+07,37.152,2,2.44883,-2011.33,-4075.67,-22327.1
2.70625e+07,159.929,0,2.5135,15131.2,-10130.8,-10791.1
2.74106e+07,75.3551,2,2.55283,4722.65,-9281.15,-16733.3
2.7537e+07,179.391,2,2.56868,11336.2,-26845.6,-4550.73
2.77857e+07,168.846,0,2.82096,26976.6,12998.1,-9514.83
2.78081e+07,94.9086,1,2.67967,5255.1,17003.5,-19330.6
2.78192e+07,53.7317,1,2.79188,5717.27,9584.7,-26803
2.78435e+07,60.5418,2,3.00374,-10048.2,-7088.23,-25495.2
2.78517e+07,7.03084,2,2.48059,728.444,-1340.12,-28488.4
2.78646e+07,110.748,2,2.72113,-7424.95,-8754.51,-13197.4
2.78787e+07,43.2894,2,2.5953,4175.73,-8145.68,-29399.2
2.78818e+07,164.109,1,2.51078,2240.38,12681.8,3382.35
2.79862e+07,109.717,1,2.78743,1205.19,8367.37,-7313.49
2.80657e+07,130.974,0,2.62028,25307.5,1740.56,-17729
2.81241e+07,58.3647,1,2.87513,2239.19,-6781.62,-18934.2
2.81753e+07,200.225,1,2.54425,-20176.1,-6746.66,6591.74
2.82767e+07,221.308,0,2.71766,-28194.8,-7982.24,7383.27
2.83317e+07,14.963,0,2.58254,-1616.79,-1481.63,-26587.2
2.8488e+07,3.19068,1,2.97489,-668.295,-101.283,-29074.8
2.86675e+07,10.3079,2,2.745,-2054.72,793.961,-28772
2.8761e+07,164.654,1,2.58458,-19617,13723.9,-3609.81
2.88715e+07,50.9729,2,2.58292,10502.8,-2015.6,-28024.8
2.89075e+07,18.3664,1,2.93171,-832.958,1746.38,-25414.6
2.89656e+07,0.560838,1,2.1408,-142.945,136.23,-28958.9
2.89696e+07,47.8608,0,2.83379,-2883.67,-5899.29,-21195.4
2.90906e+07,25.7328,1,2.9453,-495.282,3723.01,-25126.4
2.91417e+07,2.03066,1,2.81029,-267.795,-299.871,-28578.6
0,2.04917,1,2.68817,0,0,0
0,1.91007,1,2.63313,0,0,0
0,2.03576,1,2.79133,0,0,0
0,1.93346,1,2.5634,0,0,0
2.91995e+07,116.916,0,2.96241,-14963.9,8521.1,-11509
2.92742e+07,44.1098,2,2.60814,3929.35,2018.82,-20742.8
2.92762e+07,40.628,0,3.05266,-4736.45,-233.531,-21749.7
2.92971e+07,159.749,2,2.63224,-21174.4,16998.4,-20951.5
2.93222e+07,26.2601,1,2.88487,-5001.3,365.906,-25908
2.94209e+07,112.813,1,2.67729,2243.24,9173.42,-29233.2
2.98047e+07,6.14918,2,2.81139,-182.723,-1182.67,-29534.4
2.98609e+07,75.2176,1,2.98747,-12380.2,7391.36,-21903.4
