#class tools::wcsv::ntuple
#title time
#separator 44
#vector_separator 59
#column double eventID
#column double t(ns)
#column double copynumber
#column double energy(eV)
#column double x(mm)
#column double y(mm)
#column double z(mm)
157052,142.009,0,2.85989,2506.37,28026.8,-18804.7
176578,29.8299,1,2.89273,-3639.75,1.83324,-23734.5
362466,111.421,0,3.04504,3871.83,22853.4,-25834.6
1.24631e+06,62.0062,0,2.58479,-3915.93,9335.14,-20583.1
1.45468e+06,153.197,0,3.03033,13476.4,13701.8,-3142.39
1.90273e+06,123.901,2,2.83641,-4980.73,-22072.6,-15846.1
2.1123e+06,12.7781,2,2.50384,-1907.4,-738.68,-26973.5
2.19596e+06,2.00737,1,3.02272,-277.818,392.945,-29063.8
2.23068e+06,67.4928,1,2.39574,12127.2,-6962.96,-26189.5
2.32157e+06,206.763,1,2.76879,-11464.2,-8648.05,-15335.9
2.42752e+06,14.4201,2,2.61986,-1263.06,-1325.42,-26316.1
2.59503e+06,100.475,0,2.64395,-14113.9,-4832.83,-13829
2.61638e+06,68.5921,2,2.73991,-5437.78,-12934.6,-25072.2
2.67882e+06,146.749,0,2.65603,1370.39,-21117,-6220.54
2.88584e+06,80.2287,1,2.95606,-9076.48,5207.9,-15573.7
3.18579e+06,69.6337,2,2.96739,2033.52,-10388.5,-18726.8
3.44502e+06,38.5781,0,2.95041,3370.61,-6824.16,-25881.9
3.52937e+06,40.0504,2,2.88899,-6720.96,4108.55,-25838
3.6333e+06,118.243,1,2.79604,13088.8,19316.2,-20087.7
4.19635e+06,136.053,1,3.05477,-741.833,16525.5,-5591.28
4.23714e+06,52.7329,0,2.54086,3339.21,8986.87,-23092
5.11858e+06,60.9157,2,2.96189,7664.17,-8520.86,-23133.9
5.17062e+06,22.8262,1,2.88318,-951.794,-3157.37,-25358.2
5.20214e+06,38.5005,1,2.84687,-7092.42,-3858.62,-28007.9
5.48369e+06,21.802,0,3.04673,4553.47,-1038.16,-28904.5
5.64435e+06,76.7993,1,2.6695,13233.3,-805.784,-19606.6
5.73866e+06,145.311,2,2.47423,19135.1,-24093.9,-29770.7
5.95488e+06,19.1607,0,2.67684,4065.42,-852.157,-29120
6.11115e+06,154.938,1,2.68875,-12006.3,17766.9,-4111.94
6.57815e+06,148.857,2,2.56092,-12219.8,21902.9,-9874.85
7.28681e+06,167.052,2,2.86949,25781.9,-23434.9,-25395.9
7.45575e+06,7.0189,1,2.99437,-690.926,1427.13,-28821.8
0,6.9843,1,2.92434,0,0,0
7.54978e+06,202.907,2,2.91617,-3958.79,-3289.46,-26609.6
7.57152e+06,79.9937,2,2.43395,16466.9,-3126.49,-26615.9
7.81499e+06,106.014,1,2.38138,-13667.6,10031.1,-14031.3
8.06041e+06,11.3797,2,2.46635,1639.25,281.463,-27100
8.06629e+06,77.1591,0,2.882,-2258.6,-6310.88,-14085.7
8.47567e+06,109.984,2,2.61341,-1440.4,-21783.6,-20703.8
8.73099e+06,115.768,1,2.96384,3760.63,21416.4,-17863.6
8.81682e+06,35.136,2,3.05663,-2570.8,-3497.83,-26717
9.14692e+06,5.60101,1,2.57947,986.152,716.031,-28909.5
9.29456e+06,239.014,1,2.81531,-2908.56,24515.8,15004.5
9.42928e+06,43.7537,2,2.63175,-2082.65,-3627.49,-29845.7
9.93906e+06,27.9345,0,2.8104,2072.74,-3522.18,-24569.2
1.00269e+07,55.4756,1,2.72594,-536.458,-3290.63,-20609.5
1.02406e+07,78.1235,2,2.64928,-6706.56,-12970.5,-21037.3
1.0376e+07,16.0109,1,2.38144,3116.41,850.752,-27763.7
1.04682e+07,137.213,1,2.61052,-21878.8,14963.8,-19879.8
1.07534e+07,155.371,0,2.6304,28529.2,14258.2,-20835.5
1.08015e+07,145.07,0,2.68641,-2349.38,12647.4,-1106.24
1.11826e+07,66.2909,2,2.77008,-1437.26,-13294.5,-24520.2
1.12796e+07,2.98036,0,2.91568,135.586,-541.73,-28519
1.13787e+07,4.54179,1,2.96356,-201.597,977.9,-28589.9
1.14433e+07,32.7524,0,2.51527,2687.19,-563.674,-22435.2
1.15769e+07,27.3185,1,2.59067,-3187.17,3461.83,-25347
1.20292e+07,64.0398,2,2.98131,-6779.15,-10173.2,-23064.6
1.205e+07,155.063,1,2.95633,-7403.87,-13366.4,-122.542
1.21171e+07,22.6831,1,2.74772,3355.57,1534.26,-25782.7
1.22799e+07,42.5143,0,2.52088,-1043.22,-6862.37,-23134.1
1.24122e+07,0.629844,1,2.68863,-5.42747,132.217,-28708.5
1.24577e+07,95.7782,1,2.89722,-5664.15,8836.58,-11633.7
1.2503e+07,50.7511,0,2.58059,-3519.84,-6793.95,-21355.1
1.2888e+07,36.984,2,2.69367,-2415.14,-2778.73,-21906.8
1.31368e+07,15.1673,0,2.516,2314.94,744.019,-26620.7
1.34653e+07,13.0682,0,2.98792,2428.44,1434.05,-28908.6
1.36367e+07,71.6853,0,2.98737,-21.4777,-7275.65,-15659.2
1.38068e+07,161.01,1,2.56992,-14405.6,8977.28,695.519
1.38186e+07,108.823,1,2.64316,-11401.1,-16723.5,-18031.1
1.38596e+07,115.301,1,2.90091,13829.4,3801.51,-9343.78
1.39608e+07,17.148,1,2.72986,-3531.57,655.407,-29571.1
1.41172e+07,101.001,2,2.63408,1897.2,9365.87,-9827.81
1.41899e+07,106.884,2,2.7407,-16255.6,-3285.63,-13986.7
1.44185e+07,113.629,1,2.5116,9880.49,2171.98,-7065.5
1.45391e+07,206.018,2,2.84645,-17685.2,-3155.06,10542.2
1.47251e+07,25.7595,2,2.36401,-1235.44,-2631.85,-24145.2
1.4823e+07,26.1564,1,2.77251,895.012,-3261.76,-24519.4
1.50165e+07,31.802,2,2.55363,-6376.46,1471.34,-27130.1
1.51847e+07,61.8302,0,2.53442,1765.44,-9172.46,-19641
1.51942e+07,0.688034,2,2.49866,21.3116,-54.0067,-28692.3
1.52856e+07,56.5036,2,2.60067,-874.917,-9098.32,-21042.9
1.52941e+07,43.7324,0,2.59725,5161.73,7721.21,-28427.7
1.53137e+07,26.4562,0,2.49734,-1656.96,5324.22,-28236.8
1.5344e+07,15.3186,0,2.67583,3238.88,703.444,-28850.7
1.53939e+07,44.3772,0,2.88386,4314.47,7996.08,-29117.6
1.55399e+07,27.0358,0,2.97253,4406.85,114.109,-25160.6
1.57382e+07,87.4332,2,2.65429,14274.4,-10437.1,-23462.6
1.57424e+07,53.2506,2,2.97829,353.489,-4851.31,-18736.2
1.59218e+07,24.7898,1,2.50992,-1412.33,5141.35,-28290.9
1.64459e+07,192.759,0,2.96695,-978.603,-12992.1,-24079.3
1.65505e+07,3.3923,0,2.94006,80.2613,-724.105,-28997
1.70029e+07,19.8925,1,2.43831,-1293.82,2724.12,-25796.8
1.72738e+07,21.3664,0,2.37186,-236.313,-2504.4,-25051.8
1.75853e+07,71.5342,1,3.05367,-7314.89,1736.03,-15833.1
1.774e+07,35.0955,0,2.63507,-2793.9,-5634.13,-24939.4
1.77558e+07,107.529,0,2.79844,15299.9,14222.9,-20037.4
1.78103e+07,64.6952,1,2.89889,-10704.4,8218.07,-28080.7
1.78292e+07,5.50239,0,2.73762,-552.475,-757.94,-28176
1.79252e+07,5.1455,0,2.59416,665.835,-567.176,-28078.9
1.79595e+07,222.535,2,2.4029,-26115.9,29849.8,-3485.44
1.79718e+07,207.035,1,2.94213,29966.1,-13888.9,-675.775
1.81586e+07,56.5455,2,2.92607,6869.35,3823.33,-19970.5
1.84824e+07,62.1951,0,2.56008,12656.2,3502.86,-27254
1.85747e+07,129.253,1,2.9976,-25089.1,6211.4,-20816
1.88717e+07,98.5493,2,3.00606,2900.98,-17423.5,-17978.1
1.90674e+07,101.762,1,2.83935,3416.55,9150.51,-9796.56
1.9124e+07,86.1398,1,2.96869,2471.37,-13710.3,-17380
1.92362e+07,154.509,2,2.57829,-7423.48,17980.2,-2652.96
1.95912e+07,52.2811,2,3.02797,-1288.12,-5730.53,-19531.7
1.9771e+07,80.991,1,2.80329,16808.5,987.175,-26303.5
2.01619e+07,83.0451,0,3.02799,-13971.6,-32.5328,-18574.6
2.0261e+07,83.5249,2,2.53575,10924.1,-8194.99,-17600
2.04838e+07,38.1091,2,2.79224,2951.79,-6209.36,-24858.1
2.05277e+07,42.1922,0,3.0096,-3916.65,5651.52,-23279.4
2.05348e+07,74.8305,2,2.58967,-11151.7,-2268.78,-17778.6
2.08363e+07,11.192,0,2.94713,1016.63,260.083,-26669.7
2.09742e+07,11.3962,0,2.72652,250.315,1705.38,-27152.7
2.11576e+07,52.2229,2,2.93788,-10207.1,-4225.33,-28249.3
2.13651e+07,31.1958,2,2.98414,-4103.88,-837.833,-23736.1
2.15255e+07,44.1855,2,2.77452,-4354.17,734.177,-20645.4
2.17233e+07,118.378,1,3.01086,-7773.85,15147.7,-10696.1
2.19644e+07,10.575,1,2.70889,1000.43,1580.24,-27519.5
2.24254e+07,58.6399,2,2.85027,-8404.18,5839.03,-21922.8
2.2449e+07,7.88589,1,2.84487,235.152,1461.59,-27935
2.25362e+07,18.5268,0,2.98058,903.82,3804.55,-29313.5
2.26525e+07,0.145625,2,2.76629,-1.18668,-37.9678,-28792.4
0,0.189199,2,2.94751,0,0,0
2.27246e+07,56.067,0,2.6998,-329.264,11836,-29288.7
2.27975e+07,34.0301,2,2.70149,-1623.62,-4589.22,-23464.5
2.28801e+07,66.4808,2,3.03443,-13331.1,4198.01,-28425.7
2.30575e+07,5.90089,0,2.96207,905.759,25.0449,-27885.5
2.38913e+07,84.5751,0,3.06093,-14276.9,9436.04,-24481.9
2.39078e+07,4.74173,1,2.36587,-855.109,-121.302,-29466.5
2.40219e+07,67.0708,2,2.7002,3453.36,-10357.3,-19771.3
2.45177e+07,64.1644,2,2.47652,7024.92,-1558.47,-17341.5
2.45484e+07,12.767,1,2.62772,905.904,2212.06,-27432.7
2.4733e+07,40.7394,0,2.79916,3877.5,-6431.1,-24569.5
2.47409e+07,379.561,1,2.60955,-3003.2,-484.741,-24306.1
2.49099e+07,99.6478,2,2.61164,-11795.8,3207.24,-11677
2.49375e+07,85.1983,0,2.47369,-7600.57,-4245.45,-13078.5
2.50031e+07,123.73,1,2.72472,16128.8,11874.3,-14288.9
2.52878e+07,79.9987,2,3.05409,15231.5,-6194.13,-25561.7
2.53876e+07,89.2464,2,2.59323,9123.25,-117.541,-12336.9
2.59369e+07,47.2871,1,2.87442,-8530.54,-1488.65,-23919.3
2.59427e+07,58.7824,0,2.77804,6662.72,2263.33,-18586.5
2.59905e+07,138.569,2,2.74177,25947.4,12592.5,-24798.5
2.6021e+07,10.2156,1,2.69274,-1923.06,777.701,-28026.8
2.62371e+07,44.0849,2,2.90853,6480.93,-5717.2,-25404.7
2.62783e+07,26.0416,0,2.84223,-2108.79,-1296.22,-23966.4
2.67489e+07,80.3391,2,2.65233,-1896.61,-14948.6,-21065.9
2.69226e+07,13.5718,2,2.8854,-2768.92,668.105,-29468
2.70402e+07,90.4635,0,2.42374,10456.1,-5145.29,-14792.9
2.74066e+07,67.4967,2,2.5714,-9155.11,-9042.03,-22473
2.75572e+07,69.384,0,2.66425,11594.6,1738.08,-22602
2.8121e+07,39.2235,2,2.43855,-4324.81,4832.46,-23678.9
2.81608e+07,7.81615,2,2.95561,-348.752,1331.49,-27995.8
2.83408e+07,47.9363,1,2.98953,-3257.34,3000.47,-19754.8
2.85136e+07,31.5805,2,2.45585,-6054.89,-693.875,-25936.9
2.90428e+07,112.471,0,2.67326,-1148.91,-22475.2,-21372.3
2.91777e+07,80.5351,2,2.62965,12001.3,-7915,-19737.1
2.97094e+07,24.0845,0,2.83467,316.857,-2108.37,-24225.7
2.98441e+07,4.0359,1,2.53822,559.51,681.616,-28752.9
2.99008e+07,152.694,2,2.85864,-2985.08,-20567.7,-4326.27
2.996e+07,33.3797,2,2.97186,-2016.24,-1405.34,-29391.6
3.07832e+07,227.378,2,2.78268,-5379.57,8912.48,-12933.3
3.105e+07,77.6949,2,2.83101,-2460.44,-9320.57,-15586.7
3.11103e+07,88.0642,0,3.03475,-3567.27,-7658.74,-12428.4
3.1231e+07,1.48336,2,2.36941,261.841,-179.23,-28720.1
3.12381e+07,103.341,1,2.48354,3154.4,-17128,-15701.4
3.14606e+07,16.974,0,2.88466,-531.338,3170.05,-27254.3
3.18713e+07,74.6531,1,2.4111,-12753.7,2605.34,-19777.6
3.19448e+07,184.842,0,2.51108,25754.2,-29184.3,-29098.6
3.20183e+07,25.8072,1,2.41292,-3531.88,92.551,-24615.9
3.25607e+07,199.986,2,2.88652,-18723.7,-6074.51,8287.49
3.26606e+07,31.6248,2,2.94686,-912.888,4957.35,-24566
3.2684e+07,109.826,2,2.5283,21762.4,-3559.24,-21677.6
3.28012e+07,54.5188,0,2.97381,8477.24,204.313,-21050.4
3.33849e+07,77.3679,1,2.7027,-8832.49,13204,-24821.2
3.34719e+07,43.9307,0,2.50225,8722.69,-2289.48,-26219.9
3.36636e+07,131.443,0,2.55194,6136.45,21989.2,-12995.2
3.40321e+07,102.607,1,2.94962,1445.34,11135.4,-10440.5
3.41488e+07,120.149,1,3.04871,-23018.8,6176.15,-20550
3.43922e+07,74.6941,0,2.67759,-7732.27,-1182.68,-15215.5
3.46978e+07,36.0795,2,2.87538,3729.61,-6362.34,-26878.5
3.47723e+07,1.85686,2,2.75472,-13.8446,-194.609,-28441.9
3.49985e+07,159.099,1,3.03218,6345.22,18190.5,-23446.2
3.51123e+07,2.60013,0,2.81537,477.176,-278.033,-29163
3.52537e+07,123.848,0,2.38534,-6475.46,-19278.5,-15240.7
3.53015e+07,146.951,0,2.75737,10406.7,-28685,-23416.7
3.53348e+07,186.669,1,2.67259,-8914.03,18585.3,4759.94
3.54106e+07,35.193,2,3.03627,-5812.53,46.1412,-24257
3.5483e+07,140.814,2,2.56112,-5411.06,-17262.1,-5129.79
3.55012e+07,0.959604,1,2.42191,11.7394,303.015,-28841.2
0,0.959822,1,2.90205,0,0,0
3.55096e+07,126.052,0,2.70163,9333.54,-24923.4,-29067.5
3.57052e+07,125.574,2,2.82167,-5124.42,44.7101,-28657.4
3.57422e+07,41.5499,1,2.40891,4017.63,1917.24,-21227.7
3.57652e+07,134.526,2,2.70178,-24756.3,13387.3,-25114.2
3.57929e+07,46.1787,2,2.68109,-4115.93,271.13,-19986.3
3.60303e+07,13.2926,2,2.52638,-1168.09,-2588.05,-28132.2
3.63515e+07,68.1101,2,2.99337,-4896.45,-13163.5,-25886.4
3.65014e+07,57.4344,0,2.63771,9332.14,7851.82,-29224.2
3.65304e+07,16.6136,0,2.89375,131.822,1527.2,-25694.8
3.65846e+07,31.8674,0,2.63912,-2047.07,4766.4,-24554.4
3.67441e+07,164.982,0,2.59713,28736.1,-19207.7,-27390.7
3.67782e+07,109.446,1,2.70779,-7098.23,-18301.9,-16821
3.68094e+07,133.641,2,3.05476,-16607.6,-6354.43,-7160.45
3.68246e+07,87.8041,0,2.61046,17107.2,-4447.44,-22976.3
3.73848e+07,141.467,1,2.48906,28272.5,6618.93,-21693.9
3.74174e+07,14.287,0,2.8731,106.714,2066.56,-26676.9
3.77317e+07,14.768,2,2.95086,-2102.79,-1674.15,-27116.5
3.79608e+07,156.903,1,3.0286,-18720.6,21354.5,-12198.7
3.82994e+07,40.6977,1,2.75487,6510.3,1718.15,-27388.6
3.83278e+07,72.0498,2,2.60209,-5207.82,11071.7,-19838.8
3.86703e+07,20.0713,2,2.89842,-176.764,-4200.52,-29861.9
3.90444e+07,95.6416,1,2.51909,-12460.5,9611.27,-16017.5
3.91295e+07,12.2835,2,2.65683,1429.81,-620.63,-26735.7
3.92093e+07,101.386,0,2.97476,7207.47,4757.06,-25269.7
3.92918e+07,163.579,1,2.43316,18825,-6629.12,-602.922
4.02115e+07,4.06692,2,2.62453,-223.757,343.466,-28075.4
4.03033e+07,187.881,0,2.7661,-16138.3,-12571.6,4992.55
4.04926e+07,1.99378,2,2.98938,-285.684,-424.451,-28724.4
4.0573e+07,79.0167,2,2.39751,1752.39,-3942.63,-18750.8
4.06114e+07,28.1117,1,2.75443,-2139.61,5607.73,-28312.1
4.06235e+07,50.2773,2,2.58632,-9769.29,2112.49,-26275.6
4.06459e+07,31.0617,1,2.75199,-5916.62,640.278,-25987.3
4.08027e+07,101.729,2,2.71834,-2302.42,13922.7,-12750.5
4.10755e+07,125.704,2,2.81597,-10908.4,646.629,-4736.77
4.13927e+07,29.5106,0,2.90562,4120.42,3862.14,-26117.7
4.14089e+07,1.98448,0,2.9351,-35.8803,-381.87,-28629.4
0,2.02238,0,2.56349,0,0,0
4.15926e+07,134.324,1,2.86984,9322.2,18951.2,-10047
4.19758e+07,1.82076,2,3.00244,-258.805,-229.015,-29144.9
4.2217e+07,93.1579,2,2.56539,-14109.2,-12112.7,-22119.3
4.22272e+07,15.3851,0,2.57861,949.789,-2786.83,-27356.2
4.22512e+07,17.575,1,2.74903,-1745.4,-319.57,-25562.5
4.23264e+07,114.026,0,2.45833,12558.9,18774,-20211.2
4.25765e+07,83.6153,1,2.91707,10299.3,3261.75,-15027.3
4.26695e+07,20.6128,2,2.5426,-3847.47,1921.78,-29633.7
4.27054e+07,36.8916,1,2.49911,-5015.14,6069.6,-28569.9
4.27083e+07,318.746,1,2.97601,-1406.19,-20985.9,22760.7
4.27654e+07,36.5182,0,2.98132,2887.04,-7142.52,-28418.3
4.3251e+07,56.0934,2,2.39255,-4522.39,-9082.04,-22521.4
4.33506e+07,68.958,0,2.93735,-7218.35,-1703.81,-16439.9
4.33694e+07,21.8007,1,3.01915,-1611.95,1196.09,-24682.8
4.36843e+07,166.333,2,2.68532,-14506.8,8357.7,-21888.4
4.37183e+07,69.2707,2,2.83136,120.706,-14582.1,-27727.5
4.41083e+07,13.7607,0,2.72952,-127.097,1423.2,-26304.7
4.41214e+07,23.6819,1,2.62017,2518.18,4393.57,-28971.1
4.45083e+07,12.0936,2,2.38651,961.314,-766.881,-26551.8
4.47135e+07,219.481,1,2.68943,11473,-5530.31,-16642.1
4.53527e+07,68.3716,2,2.89961,-13764.9,-4411.73,-28805.1
4.53686e+07,148.351,1,2.68873,-9580.38,24838.4,-12258.2
4.54154e+07,189.834,0,2.80724,10774.8,-16439.6,5942.76
4.54647e+07,37.5581,1,2.53189,-552.411,-6987.52,-25197.3
4.54825e+07,111.276,2,3.05801,-17064.6,-12467.6,-18848.4
4.55028e+07,29.4887,2,2.57619,-1555.89,-6143.63,-29119.3
4.56302e+07,13.1426,1,2.70914,-1454.09,-161.145,-26433.8
4.58077e+07,27.3987,1,2.92571,-365.362,4380.32,-25014.7
4.59629e+07,2.54136,0,2.6192,157.196,-19.9434,-28281
4.62945e+07,14.851,0,2.5101,-2242.22,-610.078,-26775
4.64999e+07,58.7309,2,2.71122,7721.61,1159.33,-19256.1
4.65076e+07,154.07,2,3.02084,-19430.5,11632.8,-5842.94
4.65757e+07,13.3179,2,2.95234,-2431.14,1113.24,-27873.4
4.66466e+07,70.1043,2,2.4491,-7718.14,-10241.7,-21234
4.66767e+07,74.338,1,2.7658,8636.22,2120.07,-15962.1
4.67117e+07,14.282,2,2.85429,830.701,-880.488,-26078.8
4.68012e+07,7.19056,2,3.05225,635.876,-1182.06,-28016.3
4.71772e+07,102.527,2,2.78353,-14458.6,-9173.2,-15607
4.7576e+07,39.2103,2,2.50044,-4933.28,-6733.54,-28064.5
4.78313e+07,29.3301,0,2.94101,4990.68,-2774.37,-26296
4.83844e+07,30.8004,1,2.39595,-2149.27,-4847.56,-25075.5
4.85942e+07,57.2982,0,2.74183,9124.55,3579.1,-21654.6
4.863e+07,62.6508,0,2.45311,-7023.26,-2572.05,-17925.8
4.8726e+07,20.9987,0,2.39861,2864.21,-3040.83,-27108.5
4.8956e+07,95.8269,0,2.81953,-5670.13,7314.72,-10970.1
4.95014e+07,331.509,1,2.95184,-17513.5,-14196.4,17520.5
4.98801e+07,61.2235,0,3.0124,8513.58,8207.61,-23656.7
5.01485e+07,5.99751,0,2.70925,417.159,-1226.58,-28618.2
5.01912e+07,10.5166,1,2.67054,-953.496,1887.79,-29808.7
5.0391e+07,195.089,2,2.8227,619.178,-24373.6,4180.31
5.04372e+07,11.1402,0,3.04034,1360.25,1442.33,-27487.4
5.05491e+07,4.0334,0,2.83897,879.826,-238.61,-29080.6
5.05603e+07,106.011,2,2.863,21183.7,-3783.01,-23442.9
5.058e+07,73.9362,1,2.61083,-11330.5,-3028.69,-18469.4
5.06044e+07,13.5824,0,2.88725,-1400.99,-2154.38,-27612.5
5.06541e+07,123.888,2,2.71486,-15727.6,-579.24,-7973.22
5.06745e+07,24.6419,1,2.86743,765.889,-2588.15,-24436.8
5.069e+07,6.99211,0,2.43441,1469.66,-51.3339,-29425
5.07974e+07,36.0892,0,2.4503,2709.67,-1083,-21731.8
5.09677e+07,11.7037,0,2.60308,-1067.51,-1641.26,-27374.5
5.11052e+07,95.2932,0,3.0022,8969.01,1348.69,-10979
5.11549e+07,27.6736,2,2.89583,4398.46,-686.995,-25087.7
5.1297e+07,71.2623,1,2.97812,-13630.5,3977.84,-23989
5.13117e+07,101.694,1,2.81697,-13676.2,15702.9,-23575.7
5.18347e+07,15.5447,1,2.99073,72.0982,-2295.74,-26555.3
0,15.5437,1,2.65484,0,0,0
5.18438e+07,25.0809,2,2.50639,1846.2,-2429.87,-24444.1
5.20516e+07,124.53,1,2.83136,-17280.3,18950.9,-23103
5.21549e+07,100.546,0,2.98755,-12072.6,-6321.95,-12790.2
5.25233e+07,7.02082,2,2.90692,54.0026,-1044.98,-27709.4
5.31331e+07,75.2163,1,2.38617,-2088.15,6418.83,-14371.6
5.31419e+07,26.6898,1,2.74489,4573.81,-1943.21,-26257.9
5.31552e+07,30.0532,2,2.88699,4918.53,3664.92,-27555.3
5.3235e+07,60.0886,0,2.76039,1298.36,12607.6,-28215.7
5.3931e+07,69.9987,1,2.3624,-11076.2,8745,-24084
5.40081e+07,49.2401,1,3.05038,-10277.7,-1326.98,-28406.9
5.43856e+07,13.7872,1,2.41768,-2450.28,340.702,-27180
5.44973e+07,9.0961,1,2.49847,-78.9595,-1021.49,-27216.1
5.48429e+07,61.2171,2,2.62483,8964.15,-4872.06,-22761.8
5.48602e+07,84.1388,1,2.65162,-12070.6,-909.518,-15790.1
5.50513e+07,37.4564,0,2.65426,-1697.96,6676.06,-24931.7
5.51697e+07,73.8104,1,2.40772,-11144.9,-2589.03,-18184.5
5.52112e+07,85.4147,2,2.94195,-6762.44,-16081.1,-24308.9
5.53068e+07,58.017,1,2.50206,8827.85,5283.84,-22141.1
5.53095e+07,331.186,1,2.79074,-3811.76,8479.67,-26885.7
5.53196e+07,8.19862,0,2.44597,1368.15,1170.76,-28581.8
5.55503e+07,26.551,1,2.50956,-4614.83,-494.076,-25577.4
5.60022e+07,45.3561,0,2.65098,362.463,-271.795,-28648.2
5.60893e+07,9.62235,2,2.89544,-508.004,-2023.02,-29325.2
5.6458e+07,41.8003,2,3.02634,6884.54,-5466.8,-28659.6
5.65376e+07,10.7936,1,2.66475,-668.526,2274.41,-28888.1
5.65476e+07,59.9626,1,2.50104,-9410.57,8217.95,-26182.1
5.66021e+07,7.40673,2,2.76982,-1485.02,467.481,-28410.4
5.77536e+07,8.94523,1,2.57338,-1104.16,1659.61,-28567.8
5.81295e+07,67.8058,1,2.72205,-13708,4040,-27360.8
5.85399e+07,83.1036,1,2.8192,-11849.2,11772.3,-23446.5
5.86476e+07,59.8703,0,2.80497,7806.73,2312.7,-19151.4
5.87048e+07,194.019,2,3.02578,-14376.3,22729.1,1586.31
5.89004e+07,156.291,0,2.81766,-8935.55,24725.6,-9116.39
5.91734e+07,8.20379,0,2.66908,294.842,871.212,-27328.8
5.92137e+07,215.588,0,2.73626,26678.4,7252.42,7230.54
5.9275e+07,46.502,2,2.37935,-6291.15,-5661.88,-23642.3
5.92869e+07,4.92708,2,2.85863,-269.265,-342.384,-27855.8
5.93088e+07,14.101,1,2.65946,-3001.44,-507.581,-28707.2
5.95579e+07,8.9505,2,2.73089,-1794.17,-36.9355,-28128.8
5.96047e+07,88.0336,0,2.69214,16282.3,7973.96,-29221
5.96242e+07,58.2337,0,2.67747,1228.91,5718.68,-18023
5.97233e+07,175.817,2,2.60197,-28095.1,4719.08,-9799.79
5.98504e+07,39.0071,1,2.47165,7171.25,4046.18,-29524.9
6.02874e+07,67.5047,1,2.53041,1695.79,9235.86,-18012.6
6.03756e+07,11.0274,1,2.58056,2153.76,692.122,-28314.9
6.05979e+07,74.8477,2,2.50133,-13525.9,-8354.38,-27890.4
6.06759e+07,73.957,2,2.92498,-8796.92,-9780.47,-20419.8
6.06909e+07,48.0925,1,2.68003,4557.71,-8624.37,-26291.9
6.07181e+07,110.932,2,2.82738,8401.16,-17334.1,-21323.5
6.07499e+07,67.2687,0,2.84734,1586.02,-10826.4,-19885.6
6.12822e+07,46.1742,2,2.66128,6500.3,-2806.47,-22126.3
6.13877e+07,1.92375,0,2.44526,136.984,-237.197,-28501.7
6.15698e+07,112.307,0,2.96656,9310.01,10079.6,-20299.3
6.22488e+07,82.7648,0,2.79894,12915.8,-8400.5,-20563.5
6.23656e+07,62.1539,0,2.55033,6781.42,11295,-28738.2
6.25724e+07,48.309,2,2.80348,6536.49,5873.73,-23837.3
6.26973e+07,57.1095,0,3.00324,8776.98,-7849.05,-26264.4
6.27908e+07,135.936,1,2.95922,15896.8,14224.4,-9861.81
6.31151e+07,70.2527,1,2.76397,11832.1,-4229.59,-21136.8
6.33167e+07,7.21115,2,2.70036,233.265,677.283,-27500.9
6.33992e+07,1.7915,2,2.84453,255.544,-346.062,-28899.5
0,1.7236,2,2.62469,0,0,0
0,1.71938,2,2.7162,0,0,0
6.36664e+07,39.2366,2,2.82858,4881.87,4000.53,-23566.6
6.41361e+07,17.5311,1,2.4969,-1855.9,3320.86,-28443.9
6.42265e+07,59.392,1,2.81281,2868.1,-7616.63,-19419.5
6.42843e+07,105.764,1,2.87623,-21686.5,4860.83,-27183.7
6.42932e+07,11.5906,2,2.74211,-1137.37,-1593.62,-27245.9
6.43579e+07,80.8924,2,2.6199,-10753.2,12033,-23235.1
6.45278e+07,82.14,0,2.5929,8534.22,-9652.95,-20255.6
6.51404e+07,7.52046,2,2.87272,313.861,-1379.95,-29735.4
6.5374e+07,103.193,0,3.0192,9722.35,-5484.42,-10257.1
6.57465e+07,86.5933,1,2.73016,-1947.48,16402.7,-20917.2
6.60807e+07,31.5041,1,2.98188,-5081.95,2693.44,-25419.6
6.60989e+07,130.649,1,2.76607,17008.4,6929.52,-8368.73
6.61134e+07,108.883,1,2.8656,9132.86,19025.2,-19816.1
6.61192e+07,63.2391,2,2.49698,-5505.96,9883.66,-21772.3
6.64421e+07,150.307,1,2.69,27055.2,-11847.3,-17565.1
6.67527e+07,125.609,0,2.93718,11747,-19140.4,-14918.2
6.70633e+07,93.3796,2,2.98673,-1399.71,1451.84,-29635.5
6.70733e+07,51.2511,2,2.5211,7760.06,-7090.22,-25999.8
6.71821e+07,57.5538,0,2.62561,11840.4,1669.54,-26175.1
6.73782e+07,137.362,1,3.0547,16159.1,22550.3,-21044.9
6.75069e+07,20.0685,2,2.64566,1488.22,-2989.29,-26161.4
6.75308e+07,19.6201,0,2.77574,2734.17,928.58,-25784.1
6.76387e+07,114.302,1,2.52749,4870.95,22736.9,-22108.6
6.82306e+07,57.3651,0,2.91084,6746.75,10050.8,-28196.6
6.8568e+07,11.0651,0,2.88998,2144.59,885.831,-29561.4
6.86952e+07,24.7761,0,3.01199,3070.16,1870.99,-25001.5
0,24.8062,0,3.00186,0,0,0
6.87706e+07,5.43143,0,2.94404,-505.881,-527.007,-27986.5
0,4.95734,2,2.39131,0,0,0
6.8797e+07,88.0604,1,2.88268,16155.3,3969.09,-20740.2
6.88495e+07,9.98624,0,3.01753,-1655.86,-1125.46,-28445.9
6.89749e+07,122.983,0,2.59526,13004.1,6889.5,-7380.79
6.93902e+07,17.2673,1,2.37187,-3601.34,-644.932,-28172.9
6.95942e+07,228.634,1,2.82464,26583.8,-5412.58,10796.6
6.97668e+07,101.507,0,2.36433,10967.1,-18543.1,-28034.3
6.99731e+07,30.2791,2,3.01421,-391.348,5646.66,-26030.7
0,29.6898,1,2.95113,0,0,0
6.99763e+07,27.4518,0,2.64106,5339.38,2410.39,-28188.1
6.99938e+07,26.6263,1,2.76674,1285.6,-3501.75,-24691.3
7.06996e+07,90.7558,2,2.81412,-14064,12883,-29879.9
7.09467e+07,36.0895,1,2.80788,-5545.01,5282.14,-28259.3
7.11926e+07,77.8565,0,2.71145,-2005.02,-14607.9,-21667.6
7.15148e+07,211.79,0,2.75296,-19987.7,15643.3,7788.86
7.15194e+07,56.1313,0,2.60943,-5575.42,-1059.25,-18451
7.17686e+07,15.5893,0,2.64392,2815.59,1073.52,-27317
7.20631e+07,13.0151,2,2.8364,27.9313,-2013.46,-26881.8
7.22074e+07,258.422,1,2.91788,26249.2,10959.9,17333
7.22367e+07,3.71496,2,2.99306,-834.038,22.9205,-28933.5
7.23735e+07,20.6399,0,2.69677,2016.2,-3594.24,-27284.2
7.2419e+07,148.273,0,2.80274,26545.2,1514.58,-12361.4
7.2583e+07,13.4679,2,2.38645,2333.58,-165.903,-27239.3
7.28399e+07,116.943,0,2.74466,10740.9,-22215.3,-28663.8
7.28944e+07,45.1642,2,2.41622,794.907,5578.68,-21132.9
7.29521e+07,21.959,2,2.45998,4083.24,-1922.87,-27690
7.29652e+07,60.4566,2,2.37454,-8037.6,-8051.37,-22771.8
7.30229e+07,10.2795,2,2.50472,-1769.96,-1047.07,-27894.2
7.31969e+07,104.173,0,3.04612,7918.77,-2167.96,-27383.8
7.33985e+07,69.3878,0,2.49645,-1904.32,-14005.2,-24939.6
7.34922e+07,67.6872,0,2.79015,6156.81,-9458.98,-20062.2
7.3505e+07,146.419,1,2.77688,-24260,-6042.87,-10782.4
7.36224e+07,46.8262,1,2.40484,-9201.6,52.8601,-25022.3
7.37423e+07,95.9934,1,2.8529,-17969.4,6508.77,-22135.9
7.37507e+07,171.883,1,2.85961,13946.3,-15526.6,-1599.19
7.4219e+07,74.4785,0,2.73506,-551.427,-14940.7,-23980.9
7.44127e+07,97.3815,0,2.87567,3275.03,-6645.26,-9839.51
7.44301e+07,129.393,1,2.71394,20.3112,2444.73,-29359.7
7.45537e+07,1.83456,0,2.79278,52.2611,283.353,-28536.1
7.45727e+07,166.293,2,2.82649,15443.5,-18249,-10908.5
7.4576e+07,49.2634,1,2.58561,-3465.35,9932.13,-28958.7
7.49775e+07,56.1701,0,2.88937,-9463.39,-5959.98,-25265.5
7.50228e+07,212.921,2,2.41987,-26602,-13211.2,5100.91
7.51493e+07,121.878,2,2.89876,-10488.3,1646,-5528.47
7.54376e+07,78.3185,0,2.60873,-4755.14,-13907.4,-21259.7
7.55653e+07,148.114,1,2.60085,16313.6,23927.3,-16903.6
7.5653e+07,70.4579,2,2.64076,7522.66,-10397.1,-21256.7
7.63464e+07,34.8804,1,2.84917,-2185.39,-2636.66,-22371.4
7.63651e+07,346.628,2,2.8641,12023.1,-14170,4416.96
7.6421e+07,63.0552,0,3.01377,-9634.67,7533.03,-23913.3
7.64318e+07,22.458,1,2.37078,-3100.56,3751.27,-28876.1
7.6457e+07,16.0751,0,2.526,1343.14,-1133.7,-25881.2
7.70172e+07,120.123,2,2.54306,-3329.39,12345.4,-6922.37
7.70289e+07,48.9391,2,2.61303,-4912.52,-8432.47,-25147.5
7.71017e+07,29.9551,0,2.79854,-1317.86,3452.83,-23728.2
7.71673e+07,43.94,1,3.00016,-2596.87,-4395.9,-21191.9
7.75818e+07,177.293,0,2.74485,4792.21,17402.8,3853.43
7.76813e+07,94.4715,2,2.78586,-6425,14252.6,-17092.4
7.77004e+07,6.85839,1,2.53244,108.954,1491.47,-29285.1
7.77296e+07,58.3477,1,2.75537,-9624.57,3597.27,-21967.1
7.77906e+07,19.4542,2,2.70284,-3181.28,-2772.3,-28940.8
7.79574e+07,31.154,0,2.49567,-1652.44,5428.48,-25470.8
7.79796e+07,76.3229,0,2.40037,-2172.34,-12196.4,-18495.5
7.80092e+07,30.6048,1,2.75229,5532.67,2568.23,-26732.4
7.81243e+07,6.00038,0,2.98919,1299.6,-433.554,-28749
7.82654e+07,79.5969,1,2.86095,-10877.8,-3269.56,-16556.5
7.83192e+07,64.8664,2,2.77048,-7273.79,-992.128,-17275.5
7.83849e+07,47.0877,0,2.67153,2272.07,-9683.34,-28184.5
7.85759e+07,34.8329,2,2.89227,3944.81,-6197.81,-28093.1
7.87545e+07,23.9328,0,2.55431,4635.87,-909.105,-26757.6
7.90864e+07,85.1992,2,2.92594,-3354.98,-14040.4,-18151.8
7.9182e+07,21.051,2,2.54868,-1857.51,-3838.66,-27233
7.91856e+07,166.516,0,2.84592,-3577.12,16264.3,1960.02
7.92134e+07,88.3715,1,2.59655,3344.8,12530.8,-15327.8
7.95754e+07,2.50209,1,2.68448,202.354,65.537,-28335.1
7.95951e+07,10.7748,1,2.85269,535.17,1367.26,-27052
7.97118e+07,2.44802,0,2.55877,364.876,462.92,-28732.9
0,2.43135,0,2.77487,0,0,0
7.9861e+07,173.074,2,2.55099,24189.4,19780,-9942.49
7.99604e+07,181.489,1,2.72742,-21565.7,-26709.6,-12019.7
7.99936e+07,13.2255,1,2.88741,-889.103,1813.83,-26831.8
7.99943e+07,105.065,2,3.05338,10265.2,-15175.4,-16600.3
8.02441e+07,170.28,2,2.45298,-14426.2,-11806.5,-15041.2
8.05123e+07,171.327,0,2.60896,-9459.67,11318,-26320
8.05128e+07,67.5203,1,2.97373,300.691,13249.1,-23583.5
8.06366e+07,76.6869,0,2.49445,4505.7,5163.67,-14110.4
8.06975e+07,37.1598,0,2.39074,3458.23,1355.32,-21841.4
8.09552e+07,347.176,2,2.40813,6601.03,-2802.96,-14306.5
8.09743e+07,89.0229,2,2.52296,-8360.4,-6117.13,-13069.1
8.11463e+07,20.1706,2,2.74094,1849.41,-1823.02,-25424.5
8.12415e+07,33.2352,2,2.72345,-6761.96,1864.79,-28097.4
8.13313e+07,110.753,0,2.61014,11133.3,19141.7,-21121.4
8.15079e+07,38.9998,1,2.67712,-7821.38,1215.49,-26318.1
8.15388e+07,13.6869,1,2.42853,-808.066,2685.19,-29845.6
8.17877e+07,32.0073,2,2.4937,-5882.53,-3460.46,-28112.6
8.18539e+07,7.27209,0,2.51408,-986.642,-793.688,-28057.4
8.18605e+07,10.8909,2,3.03405,-1180.71,-1764.32,-29941
8.22312e+07,97.2932,0,3.02813,-3497.98,-8155.98,-10488.5
8.22917e+07,18.1762,2,2.45948,1163.5,-1309.7,-25391.1
8.23351e+07,26.683,2,3.00024,5492.88,-716.895,-29563.2
8.24461e+07,49.4446,1,2.36392,-1193.12,9504.16,-24426.2
8.25005e+07,32.6852,1,2.9703,822.081,3542.55,-22970.3
8.28388e+07,1.47633,2,2.42678,-355.838,-84.7532,-28722.8
0,1.41587,2,2.55843,0,0,0
8.28876e+07,61.6006,2,2.59561,4816.23,-9517.35,-21290
8.30409e+07,140.556,0,2.69431,-14062.5,26035.6,-28889.7
8.32227e+07,153.214,1,2.68421,-26225.6,-95.1091,-9929.38
8.35304e+07,66.1103,1,3.01911,-10050.7,4369.21,-20243.6
8.35886e+07,57.5955,1,3.00674,-10083.7,6764.36,-28987.4
8.37445e+07,43.707,1,3.05442,595.942,-3572.93,-27513.8
8.38424e+07,186.166,2,2.63651,13776.7,-15935.8,4319.05
8.38447e+07,37.5781,1,2.40164,4262.41,6755.53,-28113.8
8.38635e+07,60.7573,1,2.89346,-8616.67,-2686.13,-19784.6
8.41213e+07,57.8065,0,2.5761,-1227.76,8196.46,-19834.7
8.44416e+07,2.65189,2,2.13297,-124.018,-80.4091,-28262.4
8.54276e+07,60.7765,0,2.40936,-9657.21,-1790.36,-20594.6
8.57858e+07,19.4769,2,2.45997,3404.26,-2031.32,-27650
8.60208e+07,14.6025,1,2.72548,2349.45,2066.73,-29001.1
8.60358e+07,132.375,2,2.72077,-9854.31,-26011.4,-25612.2
8.63329e+07,40.5088,0,2.86947,-4318.46,5149.22,-23642
8.65866e+07,25.9465,2,2.75913,-2936.31,3850.03,-26342
8.69151e+07,161.424,0,3.05987,24481.1,8863.95,-9310.96
8.74384e+07,104.937,1,2.93173,-1696.26,-17772.9,-16029.9
8.7446e+07,58.467,2,2.76365,-10676.3,-5833.79,-26368.9
8.75393e+07,96.7604,0,2.81529,-9526.78,-6981.64,-12295.8
8.76001e+07,121.476,0,2.93151,-11796.3,11641.9,-9481.79
8.78803e+07,74.9452,2,3.00965,5926.76,-11881.6,-20322.3
8.8321e+07,8.31982,2,2.82075,-739.88,1353.62,-28016.9
8.84783e+07,96.7588,2,2.68968,-15066.2,9629.33,-18967.6
8.84997e+07,18.6622,2,2.83144,2380.31,-1917.52,-26361
8.87482e+07,20.5764,2,2.44433,918.168,-4256.94,-29754
8.889e+07,16.7246,2,2.70327,2790.91,-2218.25,-28663.9
8.8892e+07,65.5266,1,2.78149,7820.09,1637.39,-17588.9
8.89054e+07,41.5639,2,2.55441,-5288.75,-5778.69,-24664.8
8.89382e+07,36.05,0,2.85436,5594.88,2296.21,-24130
8.91034e+07,37.554,0,2.99206,-5874.83,-3308.52,-24848.9
8.91797e+07,31.2492,0,2.68406,4234.53,5114.12,-28997.1
8.92828e+07,74.9132,1,2.69893,-3965.95,-5934.19,-14748.7
8.97087e+07,3.22619,2,2.90647,-322.202,-654.887,-29136
8.9743e+07,125.108,2,2.61514,-9662.51,-20344.5,-14872.4
8.98216e+07,65.0052,2,2.40966,8173.57,-6868.97,-20122.8
9.00226e+07,63.0451,0,2.65636,5215.06,-2316.55,-16774.8
9.02305e+07,58.5993,2,2.78864,-7636.06,-962.368,-19138.2
9.04613e+07,69.009,2,2.65278,-5166.98,-13255.4,-25273.9
9.06087e+07,28.1531,2,2.49559,-366.442,-4001.18,-24367.1
9.12036e+07,72.2484,0,2.53712,-5281.27,-4684.76,-15328.8
9.12677e+07,31.7962,1,3.03016,-4166.21,2977.21,-24447.5
9.14281e+07,32.664,2,2.36347,-3897.88,1174.63,-23200.9
9.16509e+07,31.1406,0,2.71675,-2843.44,4067.41,-24557.8
9.17069e+07,50.3614,1,2.8115,1582.18,9155.48,-23595.2
9.19527e+07,18.662,1,3.05786,-2059.3,2572.49,-26570
9.21469e+07,27.4941,0,2.6346,5014.9,-2868.32,-29945
9.28246e+07,115.045,1,2.79589,-8349.89,4175.18,-23927.2
9.34335e+07,43.9832,2,2.82435,-2932.66,62.6549,-23837.5
9.37072e+07,67.9762,1,2.72079,7617.64,-11570,-25437.8
9.40854e+07,9.9096,0,2.51784,1746.88,1255.02,-28456.3
9.46183e+07,96.8086,1,2.64013,12141.4,14036.6,-20202.4
9.4673e+07,69.6689,0,2.71141,12828,-1941.95,-21842.3
9.48323e+07,22.8633,2,2.78692,-3413.93,-3528.53,-28797.3
9.49501e+07,26.8467,1,2.65818,-1514.08,4701.52,-25923.3
9.54212e+07,124.389,1,2.50487,-8513.9,21703.2,-16487.1
9.60278e+07,36.4725,1,2.44158,-4187.05,-2122.12,-22683.8
9.61864e+07,40.8253,1,2.57988,5359.88,-3228.98,-22967.2
9.64002e+07,169.761,0,2.73838,-27845.9,-2098.38,-18851.2
9.64089e+07,184.607,0,2.46906,19886.9,6272.03,4190.79
9.66816e+07,109.669,1,2.65132,-21499.6,1749.02,-20278.8
9.67097e+07,14.9149,0,2.55408,3170.68,-461.301,-29384.3
9.68685e+07,187.552,1,2.62048,-22136.7,-2295.35,-9032.8
9.6972e+07,15.6886,0,2.79566,1700.04,-896.714,-26097
9.73192e+07,33.6826,2,2.52972,4683.87,-2507.1,-24101.1
9.73767e+07,143.222,2,2.90978,-21648.8,-12476.1,-11983.8
9.75651e+07,23.0524,1,2.83551,487.275,4855.36,-28324.1
9.77747e+07,4.16792,0,2.36843,398.025,832.2,-29031.1
0,4.14502,0,2.75286,0,0,0
9.81141e+07,74.268,1,2.50383,-9625.51,3196.14,-16791.7
9.8322e+07,33.77,1,2.93861,6519.01,2383,-27335.4
9.8512e+07,212.841,2,2.91342,6654.42,-19673.2,-11504.5
9.86699e+07,83.5435,0,3.04851,7310.46,-2976.15,-13163.1
9.95018e+07,9.62657,2,2.42468,-1219.45,-1766.51,-28660.2
9.9559e+07,5.26411,0,2.63141,876.551,329.563,-28089.4
0,5.26813,0,2.48027,0,0,0
0,5.24944,0,2.44342,0,0,0
0,5.41834,0,3.05729,0,0,0
9.97967e+07,137.881,2,2.78603,9778.78,-22989.7,-13982.8
9.98306e+07,43.426,0,2.38019,-4842.46,859.674,-21123.7
1.00173e+08,40.368,0,2.62512,-3320.35,-7578.12,-26889.4
1.0033e+08,83.9045,1,2.38262,6005.71,5828.64,-13184.8
1.01166e+08,72.3917,1,2.68397,12433.4,1692.57,-20155.1
1.01271e+08,117.517,0,2.51032,-13028.2,20931.9,-25887.6
1.01349e+08,101.139,1,2.54861,16454.8,-6237.42,-16771.3
1.01637e+08,45.6712,0,2.95929,2398.4,-8831.68,-26060.3
1.01917e+08,54.5164,0,2.65578,9248.57,-5354.48,-24366.3
1.01989e+08,123.724,1,2.38022,-9194.25,-8802.01,-23292.6
1.02146e+08,80.3897,1,2.85275,-760.673,6621.73,-20417
1.02288e+08,296.503,2,2.94129,-28543.8,-29720.3,17841.2
1.02338e+08,133.194,2,2.76325,-11453.9,-20732.9,-13679.3
1.0297e+08,114.735,2,2.37685,-3128.38,-12527.9,-8233.09
1.02993e+08,19.5072,1,2.61822,-1637.86,-3702.78,-28163.5
1.03042e+08,54.1889,1,2.38199,6663.27,-2622.23,-19912.5
1.03842e+08,64.9471,1,2.71921,-10691,7881.41,-25138.4
1.04204e+08,31.1893,1,2.8477,4610.99,4469.43,-27445.1
1.04375e+08,124.323,0,2.85383,21803.3,-12898.3,-22091.4
1.04378e+08,31.8311,0,2.81619,-4945.69,-3054.17,-25587.1
1.04396e+08,61.8391,1,2.89201,-5011.73,6779.62,-18867.8
1.04412e+08,198.425,1,2.58258,17166,-15059.4,6259.67
1.04646e+08,28.5435,1,2.51683,3738.03,4243.14,-26630.3
1.04956e+08,21.7212,2,2.61851,4187.73,914.286,-27257.8
1.04967e+08,5.96524,0,2.38052,1093.85,650.165,-28413.1
1.0513e+08,79.3444,2,2.50734,-16462,-3504.42,-29709.9
1.0551e+08,82.5483,1,2.95864,11474.1,5875.3,-17306
1.057e+08,4.39949,1,2.88258,258.486,953.394,-28713.9
1.05844e+08,101.637,0,2.87612,19855,-4599.64,-22182.9
1.05846e+08,19.0815,2,2.6338,-2259.68,-2566.78,-26539.1
1.05853e+08,5.93612,2,2.55663,1112.84,-485.635,-28470.9
1.06298e+08,129.273,0,2.93665,13127.1,4250.04,-5421.34
1.06718e+08,19.3119,0,3.00539,-1949.47,-513.387,-25357.2
1.06785e+08,81.1189,2,2.60152,3693.3,-10824.8,-16013.1
1.06799e+08,71.1505,0,2.54967,14167.9,-4801.53,-26461.8
1.06887e+08,39.9829,0,2.73878,3613.98,5632.57,-23626.9
1.07764e+08,30.5125,1,2.39952,-2257.78,4407.88,-24567.1
1.07772e+08,5.81261,1,2.43492,147.816,1194.94,-28293.1
1.07806e+08,57.8372,1,2.59903,-6892.38,8874.29,-23806.4
1.07968e+08,104.888,2,2.7213,13648.6,-17448.1,-28135.5
1.08013e+08,150.817,0,3.04072,16971.7,-9661.86,-3952.02
1.08088e+08,19.4278,1,2.373,470.125,1524.53,-25006.9
1.08142e+08,7.11963,2,2.45968,-619.398,-999.811,-27777.8
1.08154e+08,69.1706,1,2.86665,-4378.61,12989.4,-23727.6
1.08363e+08,24.6504,1,2.68132,-4275.53,-2862.96,-27902.6
1.08389e+08,133.66,0,2.52752,10815.4,-22446.2,-15459.7
1.08531e+08,172.176,2,2.40756,5033.95,-13103.3,-12038.8
1.08599e+08,134.487,2,3.01062,-6419.15,-27140.3,-24316
1.09006e+08,11.2691,1,2.4241,-893.838,915.654,-26780.7
1.09552e+08,177.963,2,2.58192,-19581.1,-29984.3,-17123.6
1.09754e+08,247.872,2,2.58747,8598.63,-22340.2,17749.7
1.10035e+08,10.5726,1,2.78205,2044.77,-675.096,-28432.3
1.10121e+08,31.2997,0,2.69478,-330.46,-4911.43,-24398.1
1.10422e+08,15.7087,2,2.92957,-1374.42,-1640.63,-26238.6
0,15.594,2,2.60926,0,0,0
1.10517e+08,126.837,0,2.72143,2964.47,20977.8,-15072.9
1.10765e+08,95.8636,2,2.63791,-6125.44,-17632.1,-20829.8
1.1091e+08,37.0557,1,2.54523,-2950.46,4407.02,-22975.6
1.10927e+08,66.1795,0,2.63122,9910.33,-7075,-21818.1
1.11162e+08,10.9136,1,2.47183,-1355.47,1916.77,-29470.4
1.11546e+08,80.3314,2,2.55076,-5979.51,-7018.21,-14506.3
1.11635e+08,65.608,2,3.04331,-11950.7,6724.75,-29843.8
1.11887e+08,39.4789,0,2.73568,-633.262,6156.45,-23249.4
1.11922e+08,167.315,2,2.59697,-28676.9,-15744.8,-15256.7
1.12137e+08,29.8909,1,2.44125,-1518.91,5657.57,-26221.8
1.1225e+08,33.2724,1,2.98793,-5420.68,2919.73,-25388.6
1.12569e+08,129.421,1,2.79276,-10091.5,9603.58,-5591.73
1.12803e+08,17.3974,0,2.85141,1443.91,3202.73,-27624.8
1.12848e+08,33.4706,1,2.84123,-2575.63,1381.77,-22380.4
1.12849e+08,86.2789,1,2.80835,-11251.3,-9407.94,-18122.6
1.13171e+08,9.4005,2,2.89696,314.864,-1203.88,-27233.2
1.13331e+08,87.2174,1,3.059,11113.8,-9467.19,-17946
1.13381e+08,82.3925,0,2.93651,9973.19,-4011.33,-15209.9
1.13449e+08,7.18817,1,2.41973,-297.916,1330.88,-27978.2
1.13485e+08,44.5541,0,2.86481,4097.86,6580.49,-23478.8
1.13629e+08,196.183,0,2.81015,19212.5,-2510.17,7650.48
1.13787e+08,7.92539,1,2.67439,-969.099,1296.96,-29563.1
1.14e+08,107.922,1,2.70271,17608.3,-11686.7,-20539.6
1.14025e+08,2.34549,1,2.63692,-102.413,593.906,-28814.4
1.14091e+08,121.268,2,2.61752,21603.1,7074.47,-17166.3
1.14303e+08,14.9173,0,2.87936,2537.41,-798.961,-27015
1.14622e+08,43.2385,0,3.01039,8303.62,3657.35,-27584
1.14898e+08,3.8364,0,2.8468,-574.708,-26.4474,-28318.9
0,3.88341,0,2.6481,0,0,0
0,3.42695,1,2.58353,0,0,0
0,3.44421,1,2.67642,0,0,0
1.14931e+08,5.91981,2,2.89802,700.064,-1070.21,-28513.7
1.14947e+08,73.6306,1,2.571,15481.9,-1104.47,-29454.1
1.1496e+08,31.1831,1,2.67488,-769.315,-3152.27,-23119.1
1.15235e+08,155.132,1,2.65492,-6370.45,20973.5,-4465.07
1.15377e+08,34.8589,2,2.77494,-3918.94,-1178.07,-22675.6
1.15603e+08,53.4871,1,2.58237,-883.667,-7622.32,-20582.5
1.15676e+08,162.823,1,2.37564,-7664.21,22457.7,-3781.18
1.15978e+08,14.0088,1,2.70252,1350.73,1609.12,-26740
1.15991e+08,16.1212,1,2.4282,-2806.74,-658.156,-26926.1
1.16065e+08,164.564,2,2.78811,-25594,-23470.2,-29466.3
1.1613e+08,12.1614,2,2.40925,612.394,-1655.12,-26916.3
1.16287e+08,42.4137,0,2.41494,5449.58,-3112.03,-22347.4
1.16508e+08,207.758,1,2.48354,8158.31,16310.4,11153.7
1.17549e+08,11.0419,0,2.56304,494.07,1207.53,-26849.3
1.17853e+08,30.1163,2,2.73808,-3727.45,-4856.46,-26798.3
1.18066e+08,5.19177,0,2.4526,1040.84,572.8,-28831.1
1.18502e+08,7.39554,1,2.45573,-1053.54,1121.96,-28214.2
1.18584e+08,91.3945,0,2.52961,3286.44,9686.08,-18653
1.19029e+08,89.4899,1,2.96759,-4195.66,16752.8,-21262.3
1.19113e+08,109.006,2,2.83362,-6203.51,-12160.2,-10361.2
1.19203e+08,7.70914,1,2.85547,-1624.98,-259.895,-28515.6
1.19399e+08,101.814,2,2.87481,-18607.7,-3191.25,-18652.7
1.19829e+08,8.35752,2,2.3816,-1616.77,-916.208,-28851.8
1.20084e+08,39.6732,0,2.75398,8262.31,-714.299,-27241.4
1.20158e+08,84.2031,2,2.48478,-11048.3,-1892.28,-14944.5
1.20269e+08,44.0694,2,2.57248,6001.06,2393.79,-22163.3
1.20554e+08,104.232,0,2.68408,-430.431,-11598.1,-10151.8
1.20617e+08,148.853,0,2.48909,15261,-13094.6,-4574.96
1.20649e+08,70.5388,0,2.39153,1059.79,11266.2,-19053.4
1.20701e+08,28.4133,2,2.90916,1784.03,-2616.58,-23736
1.2084e+08,11.7713,2,2.80382,-897.245,-2397.13,-28902.8
1.2091e+08,31.2576,1,2.68552,6047.53,2622.84,-28449.4
1.21267e+08,198.029,1,2.65523,-6817.84,2147.37,-27358.6
1.21384e+08,133.393,1,3.03215,-10756.7,9709.06,-4893
1.21506e+08,155.153,0,3.01068,11513.7,171.052,1212.72
1.21651e+08,47.7259,0,2.92345,-6822.21,-3801.28,-22596.2
1.21779e+08,104.709,2,2.72853,-758.59,21546.5,-25195
1.22102e+08,5.41522,1,2.70845,356.603,994.789,-29435.1
1.22493e+08,127.175,0,2.73779,-8349.21,19067.6,-20424.2
1.22569e+08,192.108,1,2.81988,15195.9,26180.2,-2040.87
1.22684e+08,21.2216,2,2.49146,-2004.59,462.834,-24804.2
1.23127e+08,146.931,2,2.69157,-29409.6,241.966,-18992
1.23171e+08,163.965,0,2.84588,20337.9,3939.38,-1215.06
1.23216e+08,250.394,2,2.9623,8341.99,4289.77,-8372.57
1.23467e+08,45.7912,2,3.01331,820.47,-5424.05,-20916.8
1.23812e+08,146.766,2,2.86505,-20870.4,22221.3,-25715.4
1.24259e+08,46.9756,2,3.04106,-6721.97,5382.26,-24069.2
1.24769e+08,160.429,2,3.03571,12306.8,11922,-5643.97
1.24879e+08,185.805,1,2.38049,21826.5,5335.83,3374.73
1.24987e+08,94.7187,1,2.67316,-4785.62,-8838.33,-11628.9
1.25031e+08,141.717,1,2.8752,3801.3,-13992.3,-2875.57
1.25803e+08,85.0743,2,2.39725,-4181.85,-14216.8,-18497.1
1.26257e+08,13.6996,2,2.38507,-2833.88,812.798,-28804.3
1.26403e+08,115.003,1,3.002,12060.3,20700.7,-27377.3
1.26428e+08,125.709,2,2.78434,-16932.2,-1630.72,-8513.61
1.26518e+08,30.7434,1,2.63116,-2982.36,5104.2,-25990
1.2671e+08,201.362,1,2.81283,-29327.8,4727.74,1414.23
1.26771e+08,34.7607,0,2.55598,5331.57,5148.84,-29481.7
1.26937e+08,44.356,2,2.84481,-4314.64,7284.43,-26661.8
1.26964e+08,83.5267,1,2.67777,-13987.9,-6956.8,-20658.7
1.27098e+08,52.1519,2,3.05981,-10042.8,3551.19,-26238.6
1.27308e+08,53.6256,0,2.86163,1853.25,-8047.79,-21105.2
1.27817e+08,105.064,1,2.5216,-3590.91,18487.1,-16922.9
1.2802e+08,42.4491,1,2.6641,-7183.27,-200.342,-23400.7
1.28057e+08,1.67639,0,2.44713,339.103,-124.495,-28578.3
1.28156e+08,13.6922,1,3.01584,-2921.74,-330.034,-28874.1
1.28498e+08,101.965,2,2.65902,5507.94,-17106,-29345.4
1.28873e+08,20.8321,1,2.98885,-3210.28,2933.36,-27753.8
1.28957e+08,139.743,2,2.95672,-13178,4877.44,-17744.9
1.29497e+08,148.159,0,2.65715,-9861.85,-10061.4,-966.225
1.29661e+08,34.2972,2,2.49133,-4606.42,-3817.86,-24593.1
1.2974e+08,14.9889,2,2.88083,-1484.68,2501.75,-27675
1.29831e+08,59.9406,0,2.8616,11160.2,-2496.05,-23389.5
1.29997e+08,81.9297,1,2.78994,6756.84,-3349.22,-13370.3
1.30214e+08,135.372,0,2.58448,22961.8,13623.7,-18401.8
1.30267e+08,57.0164,1,2.47106,2290.71,7658.33,-19730.8
1.30763e+08,62.7775,0,2.41063,3968.38,12385.7,-26011.4
1.3083e+08,146.357,0,2.71658,12138.2,-5900.93,-1080.92
1.30831e+08,129.965,0,2.55637,-15721.2,-16974,-14067.5
1.31029e+08,148.676,0,2.67967,-21803.9,-567.383,-6389.63
1.31101e+08,107.812,1,2.81932,-13475.7,15967.9,-19781.3
1.3119e+08,12.5214,0,3.05704,1445.06,313.717,-26596.8
1.31358e+08,13.5167,2,2.56071,1191.14,-963.408,-26413.1
1.31632e+08,206.314,0,2.60273,26161.3,-16070.2,-2033.54
1.31682e+08,127.339,2,2.55575,-17380.8,-1400.73,-8272.48
1.32042e+08,63.3105,0,2.42651,12088.3,-5942.16,-29184.6
1.32123e+08,112.178,0,2.51292,-5852.84,-12869,-9810.77
1.32142e+08,60.8537,2,2.98787,11035.9,1306.2,-22690
1.33144e+08,69.5845,0,2.59364,-4686.71,-10801.5,-20053
1.33397e+08,69.8089,0,3.03396,-341.041,-13887.3,-24209.7
1.33722e+08,10.0628,1,3.00296,-1636.56,1471.85,-29036.9
1.33909e+08,3.19793,0,2.37147,227.083,-660.178,-28687.3
1.33917e+08,15.8668,0,2.70274,-1423.33,346.369,-27820.6
1.34243e+08,24.8135,2,2.47445,-2496.3,320.503,-24188.7
1.3455e+08,32.8379,1,2.7329,-2389.21,4066.16,-23664.8
1.34581e+08,9.5984,0,2.88753,1660.09,1307.76,-28752.2
1.34583e+08,218.827,1,2.6723,24860.8,-1650.44,-7716.62
1.34813e+08,22.4916,2,2.50841,1670.35,-2968.07,-25441.7
1.34893e+08,37.2113,0,2.77862,-612.018,7512.38,-26642.7
1.35132e+08,45.4841,1,2.90153,4729.5,3268.68,-21177.9
1.35269e+08,78.7325,2,2.49568,1968.93,13290.3,-19071.5
1.35491e+08,167.214,1,2.68391,-17462.5,-26912.5,-14269
1.35748e+08,62.1041,1,2.43948,12787.5,2887.12,-29474.1
1.36356e+08,115.134,2,2.89997,9474.86,6657.53,-23595.3
1.36488e+08,7.53463,1,2.51468,1182.62,1093.28,-29116.6
1.3653e+08,75.4102,2,2.78809,3249.53,-12613.6,-19645
1.36714e+08,42.9273,1,2.99695,3444.99,7299.18,-24693.4
1.36785e+08,29.1864,2,2.47808,3451.95,-1013.53,-23804.7
1.36805e+08,89.1849,2,2.93627,7639.59,2510.24,-11945.4
1.36856e+08,65.1929,1,2.49594,-3552.32,-5677.08,-16790.1
1.37063e+08,17.051,2,2.44901,-217.593,-2609.35,-26258.2
1.37199e+08,49.2605,2,2.91816,8531.46,4328.89,-29023.1
1.37351e+08,93.471,1,2.66915,923.218,-11281.3,-12713.9
1.37469e+08,28.9332,2,2.72592,-4181.32,-2631.57,-25133.2
1.37518e+08,111.718,0,2.9268,-11234,10788.7,-11337.5
1.37624e+08,137.132,2,2.3793,4117.95,-23017.6,-11566
1.37853e+08,34.8611,1,3.01812,-5643.28,-43.3315,-25539.9
1.38007e+08,156.961,1,2.81904,13248.1,19968.9,-6104.3
1.38133e+08,89.5457,1,2.62439,-10881.3,13692,-21428.4
1.38186e+08,29.5913,0,2.42308,3957.39,-4918.73,-28946.3
1.38214e+08,55.178,2,2.78774,-11061.6,1471.53,-25438.4
1.38233e+08,36.7391,1,2.40639,-7283.54,2807.61,-27853.7
0,36.8208,1,2.61512,0,0,0
1.3825e+08,100.611,0,2.54601,12776.5,14543.6,-19856.5
1.38418e+08,2.97194,1,2.40635,-195.451,-381.103,-28415.6
1.38681e+08,66.4024,0,2.7463,8113.58,1242.96,-17436.2
1.38696e+08,105.07,0,2.79266,-8401.92,-19811.8,-23805.2
1.38721e+08,133.063,0,2.97091,14415.5,20928.3,-17179.7
1.38816e+08,46.4455,0,2.72795,-1963.33,8960.69,-25460.3
1.38819e+08,44.4751,1,2.67821,4856.21,5800.99,-23254.4
1.40291e+08,1.97966,2,3.04434,-180.435,-5.41239,-28435.5
1.40821e+08,69.4985,0,3.01659,13047.6,-4965.94,-24337.1
1.41093e+08,85.6105,0,2.43096,3236.5,15483.6,-19963.2
1.41243e+08,102.772,0,2.56956,-4803.97,-11230.5,-10884.5
1.41348e+08,79.551,1,2.7171,9118.77,3506.63,-15195.3
1.41407e+08,157.117,2,2.67804,23041.7,14050,-9703.62
1.41521e+08,18.0841,0,3.01465,2965.75,2424,-28464.1
1.41559e+08,131.563,0,2.84077,23993,-13895.2,-27878.1
1.4202e+08,44.4903,1,2.7535,-2366.31,-3456.42,-20448.3
1.42077e+08,77.2941,0,2.52048,-15061,918.485,-22697.2
1.42288e+08,55.8944,0,2.39384,8808.22,7959.39,-27770.9
1.42545e+08,11.8835,0,2.53703,-1531.7,-515.627,-26944.5
1.42747e+08,112.09,0,2.70239,6363.25,9357.01,-8056.64
1.43261e+08,199.575,2,2.54325,-18936.1,-25929.6,-17317.8
1.43371e+08,129.832,2,2.44252,13770.9,-12280.2,-8521.69
1.43372e+08,109.444,0,2.46775,14303,18149.3,-28405.6
1.43668e+08,146.711,0,2.72555,26905.3,-8777.75,-16181.6
1.43908e+08,36.8932,0,2.7893,-1620.93,-5017.95,-23131
1.44107e+08,120.944,1,2.65029,-14079.2,11685.3,-10943.4
1.44428e+08,102.269,0,2.8764,-11347.2,13092.6,-16229.7
1.44643e+08,75.2768,0,2.80842,-4420.23,-14960.1,-26118
1.44654e+08,91.7058,2,2.8554,-11770.3,11479.7,-18821.8
1.45838e+08,130.613,2,2.80267,-5336.84,-18627.9,-9263.19
1.45951e+08,40.2786,2,2.50828,-5579.79,1859.1,-22619.9
1.46004e+08,158.436,1,2.41176,-23140.2,-6880.89,-5534.78
1.46597e+08,2.96458,1,2.54466,-223.191,399.91,-28328.4
1.46738e+08,32.1633,0,2.95749,2327.68,-755.238,-25703.1
1.46762e+08,97.924,0,2.54194,18436.2,8165.06,-24033.3
1.46854e+08,43.0664,2,2.94773,-1948.99,5271.65,-21779.4
1.46962e+08,50.6527,0,2.85923,-1422.12,7933.55,-21896.4
1.47277e+08,42.124,0,2.96346,-3697.99,4549.2,-22289
1.47421e+08,83.8919,2,2.87086,-10174,4602.25,-15178.8
1.47476e+08,3.23168,0,2.82518,645.972,-305.144,-29163.1
1.48068e+08,15.7334,0,2.82917,2955.62,-1693.93,-28647.7
1.48133e+08,153.811,0,2.56604,7051.32,-7992.64,-25003.8
1.4816e+08,113.94,1,2.97198,17933.6,15390.3,-24978.3
1.48177e+08,8.72599,1,2.74832,-321.518,656.139,-27101.3
1.48557e+08,22.4399,2,2.90133,-1568.19,-4561.88,-28639.1
1.4858e+08,84.3935,0,2.41081,13367,4506.69,-17789.1
1.48746e+08,96.2035,2,3.02536,4918.26,17039.7,-19395.1
1.48807e+08,82.9976,0,2.95667,10963.8,-10398.2,-20035.5
1.48909e+08,82.3481,2,2.77922,11197.2,-12657.7,-24741.2
1.49038e+08,117.904,0,2.73426,767.227,-20739.6,-15160
1.49235e+08,119.058,0,3.05585,-13961.2,1567.71,-24796.3
1.49376e+08,31.8701,1,2.47209,4880.63,413.574,-24211.9
1.49556e+08,21.3742,1,2.91291,-800.084,-2124.47,-24961.8
1.4966e+08,43.9512,1,2.6777,3092.07,-7593.65,-24612.4
1.49819e+08,241.816,2,3.01172,21704.3,2423.37,-29456.2
1.49835e+08,74.0374,1,2.77106,3129.28,6419.91,-14942.2
1.49883e+08,72.4388,0,2.64135,9461.32,-4151.81,-17472.5
1.49959e+08,113.649,0,2.93639,-21563.2,4374.5,-21984
1.49984e+08,175.195,0,2.72085,4245.23,15600.1,2333.15
1.50373e+08,36.2698,2,2.52989,-4278.55,741.495,-22510.8
1.50643e+08,54.5915,1,3.01802,-2035.05,11316.6,-27732
1.50898e+08,34.1545,0,2.7867,-1759.26,-3863.51,-23053.4
1.50982e+08,108.598,0,2.85885,10441.9,17131.9,-17919.5
1.50993e+08,29.8151,2,2.93954,-4036.07,4392.35,-26936.5
1.51567e+08,34.2724,2,2.52417,-1297.92,-6164.59,-25079.2
1.51575e+08,30.0027,0,2.94621,5088.62,2853.9,-26255.6
1.51734e+08,45.6832,1,2.76233,-4963.11,-8001.9,-26900.2
1.52256e+08,14.0696,2,2.54752,-2056.03,561.363,-26703.8
1.52268e+08,41.7758,2,3.03616,8376.07,-1701.29,-27008.2
1.52704e+08,25.6436,0,2.53033,4634.8,-893.398,-25995.3
1.52742e+08,118.344,2,2.78417,-161.579,-1066.43,-22634.1
1.52812e+08,108.137,0,2.81945,19055.1,-2774.12,-16591.3
1.52952e+08,5.61756,0,2.62598,1243.72,-377.262,-28896.5
1.52956e+08,7.10485,1,2.39704,-355.461,1494.49,-29360.1
0,7.22402,1,2.64601,0,0,0
1.53001e+08,29.902,2,2.60179,493.995,-6360.35,-28284.2
1.53113e+08,100.604,1,2.37234,13364.7,14444.1,-20593.5
1.53257e+08,17.0658,1,2.88138,452.39,-3238.8,-27494.5
1.53472e+08,151.702,0,2.98935,28569.6,1537.6,-14768.9
1.53593e+08,20.9007,0,2.76713,2665.45,-2907.49,-29425.5
1.53789e+08,42.5976,0,3.03786,-7626.18,-3406,-25885.3
1.53856e+08,102.278,2,2.87661,-19079.4,1035.88,-18908.5
1.5432e+08,30.0061,0,2.76606,4485.09,-2851.46,-25268.7
1.54475e+08,6.99778,1,2.65428,-1487.74,-361.283,-28825.7
1.5457e+08,154.034,0,2.51238,-19778.3,-11307.9,-5620.02
1.54834e+08,87.5477,0,2.80408,15659,4383.62,-20020.2
1.54975e+08,54.5172,0,2.93093,-4319.06,10335.9,-26562.1
1.55076e+08,8.72629,1,2.40269,-805.192,-928.153,-27451
1.55186e+08,15.1398,1,2.88771,-2248.64,1178.36,-26788.5
1.55222e+08,13.065,1,2.38364,-2374.86,-1427.27,-28945.5
1.55287e+08,2.84066,1,2.52875,-498.051,453.268,-28984.8
1.55447e+08,52.5655,0,2.96016,-10462.2,-1986.68,-26237.4
1.55757e+08,186.568,2,3.00641,22104.3,1931.24,3318.85
1.55848e+08,63.9649,2,2.53046,-3817.08,-7090.98,-17897.2
1.55895e+08,73.8499,1,2.57533,8316.47,-3340.49,-16111.6
1.55949e+08,11.8052,2,2.50885,-1200.7,-235.485,-26615.8
1.56027e+08,75.0638,2,2.94912,-10838.9,4595.4,-18331
1.56069e+08,77.7139,1,2.49047,-78.8003,16124.1,-25267
1.56094e+08,228.699,1,2.7484,-19111.6,24288.9,8143.01
1.56178e+08,15.9213,0,2.48618,3398.65,-122.954,-28121.6
1.5648e+08,55.41,0,2.99664,-113.755,10754.8,-24385.2
0,54.705,1,2.45506,0,0,0
1.56565e+08,14.2909,1,3.04212,-1271.21,1977.19,-26877.8
1.57017e+08,71.9899,2,2.50279,-2864.03,-686.59,-27844
1.57436e+08,134.379,2,2.60364,20841.4,-5615.87,-10473.4
1.57479e+08,162.431,2,2.81346,-12347.5,6602.54,-25140.4
1.57934e+08,93.5422,1,2.77277,-1336.25,16897.4,-18661.6
1.58313e+08,114.885,0,2.91236,12749.1,-7660.05,-9778.41
1.58561e+08,115.941,0,2.89066,-14240.8,15683.9,-16918.9
1.58571e+08,40.4855,2,2.51943,-3423.66,-284.667,-21014.8
1.58603e+08,26.4836,0,2.85994,-3853.34,2105.74,-25512
1.58649e+08,21.1502,2,3.05082,164.537,2046.23,-24916.1
1.58682e+08,161.787,1,2.72844,-17336.7,-18176.8,-6971.45
1.58902e+08,7.47371,0,2.36774,1394.9,-438.015,-28011.2
0,7.48037,0,2.47273,0,0,0
1.58904e+08,55.9868,2,2.91262,8498.16,1825.38,-20934.9
1.58957e+08,41.9718,2,2.76152,3378.85,-7576.33,-25577.5
1.59008e+08,40.4535,2,2.99705,-112.271,-5211.51,-22061
1.59358e+08,65.2101,1,2.45185,-10898.9,-6470.56,-23325.4
1.595e+08,59.0706,2,2.86385,-5343.16,-8163.01,-21022
1.59679e+08,117.991,1,2.80713,-19136.1,-1704.44,-13073.8
1.59682e+08,52.4845,2,2.75541,5902.34,1654.61,-19659
1.59702e+08,263.699,1,2.55139,-20362.6,-23225.7,17550.6
1.60431e+08,134.285,2,2.38487,1715.49,21797.5,-20768.9
1.60477e+08,18.3889,0,2.49624,3765.43,-1323.38,-28509.3
1.60772e+08,29.6276,0,2.99923,-4691.63,179.081,-25386.1
1.60855e+08,82.8765,0,2.92266,-8916.49,1013.85,-13987.5
1.60984e+08,121.499,0,2.40867,22012.9,7454.4,-17685.6
1.61385e+08,29.5674,2,2.55457,-2606.47,-5212.35,-26310.7
1.61426e+08,1.82269,0,2.62645,511.111,-3.80535,-28846.5
1.61505e+08,23.4512,2,2.87575,-3804.39,-2326.77,-26530.8
1.61524e+08,13.1232,2,2.60183,-1453.22,-2315.2,-29796.1
0,13.1195,2,2.38125,0,0,0
1.62099e+08,16.5219,2,2.62775,777.862,2862.27,-27084.9
1.62287e+08,35.113,1,2.38207,585.751,-6489.2,-25391
1.62294e+08,100.922,0,2.87454,11553.3,10280.6,-14257.7
1.62547e+08,30.5473,1,2.72325,-3897.05,5187.59,-28159.5
1.62689e+08,180.858,0,3.05666,15954.9,-5380.57,5114.22
1.62835e+08,260.841,0,2.91506,-23731.4,2978.04,20368.5
1.63012e+08,121.031,2,2.87575,-10906.8,-15466.5,-11745.4
1.63093e+08,4.86722,2,2.86553,-559.191,-812.725,-28310.2
1.63127e+08,64.5079,2,2.47578,-10621.2,-5102.99,-21834.9
1.63135e+08,256.693,1,2.77513,-3745.3,16943.9,-15450.9
1.6397e+08,194.293,1,2.37798,-24476,27282.2,-10027.5
1.6401e+08,29.2038,0,2.72975,4072.69,155.788,-24132.7
1.64012e+08,98.4501,0,2.76855,-2867.68,20505.7,-28503.3
1.64168e+08,20.7548,1,2.74462,-4135.87,1163.35,-27731.1
1.64405e+08,58.3043,0,2.77968,-4744.07,6500.8,-19748.2
1.65009e+08,48.3495,0,3.02366,-3503.75,7798.04,-23457.6
1.65959e+08,30.7569,0,2.43045,1220.82,-6425.94,-28305.6
1.66237e+08,21.4124,0,2.3942,-3927.62,908.092,-26890.1
1.66317e+08,129.072,1,2.97293,-6229.98,25211.9,-20904.9
1.66327e+08,105.592,1,2.96115,6547.18,19586.4,-20647.4
1.66507e+08,216.656,1,2.70161,-18585.6,13426,10704.3
1.66621e+08,11.6159,2,2.703,-599.7,2340.76,-28695.4
1.66911e+08,39.3994,1,2.56659,-5808.1,4786.34,-25120.6
1.66936e+08,136.085,2,2.5762,18665.5,-2927.06,-7158.51
1.66982e+08,115.45,2,2.53872,20807.2,-9778,-20644.1
1.67129e+08,38.191,0,2.65618,668.66,5850.41,-23283
1.67257e+08,64.6029,2,2.43584,-7440.7,-10926.5,-24989.1
1.67327e+08,103.077,2,2.909,-21131.8,4305.8,-26646.6
1.67382e+08,18.2833,2,2.59775,1471.63,-3606.18,-28245.3
1.67495e+08,14.4128,2,2.93012,-1183.49,-2850.91,-28368.2
1.6754e+08,88.3937,2,2.44748,-11080.4,-14969.5,-26360.9
1.67616e+08,202.994,1,2.75825,-22963.1,18815.9,1995.64
1.67848e+08,8.52138,0,2.91203,-1011.53,-570.903,-27517.6
1.68008e+08,60.438,2,2.77137,-12458.1,-2032.78,-26687.5
1.68098e+08,107.832,2,2.60247,5746.82,-22123.9,-28847.4
1.68278e+08,61.9359,1,2.78334,-5999.52,2131.62,-17401.1
1.68355e+08,12.4595,1,2.93887,-1758.13,924.504,-27046.1
1.68875e+08,102.665,0,2.43653,17207.2,-7489.7,-17764.8
1.68876e+08,78.6146,0,2.87739,14034.8,5921.32,-22300.8
1.68925e+08,63.5492,1,2.88982,10976.5,5332.55,-23438.5
1.698e+08,238.815,2,2.71015,3252.44,-28801.5,12364.3
1.69903e+08,103.042,2,2.89348,-17703.3,-11141.6,-22944.6
1.69982e+08,3.28924,2,2.94455,464.951,203.322,-28394.9
1.70072e+08,140.546,1,2.57247,19330.3,11574.2,-9478.12
1.70767e+08,191.025,2,2.51737,18489.7,-2988.56,-8414.1
1.70868e+08,158.662,1,2.66462,-24347.8,9940.76,-9448.84
1.71091e+08,13.567,2,3.04832,-806.971,-2667.16,-27865.3
1.71123e+08,38.6507,1,2.58297,2170.68,6558.76,-24350.3
1.71297e+08,13.9427,1,2.37185,-2446.9,-173.388,-27112
1.71707e+08,15.999,0,2.9667,1340.77,-945.088,-25857.9
1.71825e+08,249.175,2,2.5632,-12377.2,22005.8,17356.6
1.72196e+08,257.371,0,2.66234,888.873,-2397.92,-23619
1.72561e+08,9.33933,1,3.04973,-1888.91,51.0281,-29571.7
1.72739e+08,74.8176,2,2.93791,7880.67,-11234.8,-21097.9
1.73428e+08,86.6676,1,2.51086,8759.43,7212.78,-14458.9
1.736e+08,118.374,2,2.88061,-12762.6,17044.6,-16029.5
1.73714e+08,122.019,0,3.01494,2486.12,-5538.93,-26224.2
1.7415e+08,149.341,0,2.75514,16064.4,-2612.07,-1912.19
1.75122e+08,11.1848,0,2.64959,2004.58,540.744,-27520.4
1.75228e+08,72.6174,0,2.70136,-4392.77,-10252.5,-18357.2
1.75522e+08,23.5556,2,2.51084,-2126.78,-1312.97,-24493.5
1.76064e+08,33.8417,2,2.61854,-4960.52,-2671.62,-24325.8
1.76187e+08,98.149,1,2.85335,-793.519,10634.1,-11119.7
1.76222e+08,81.4493,1,2.64939,-9475.94,13694.6,-24225
1.76367e+08,20.0062,0,2.60238,-2625.82,1911.64,-26203
1.76519e+08,8.46619,0,2.46363,1033.36,127.139,-27316.4
1.76698e+08,35.2668,0,2.5196,-919.744,-1213.52,-29092.3
1.76969e+08,44.2491,0,2.45007,1153.47,9296.79,-29619.7
1.76969e+08,141.761,0,2.90471,20347.8,15955.5,-13934.2
1.77146e+08,7.87421,1,2.53802,602.213,410.008,-27315.1
1.77179e+08,98.2918,0,2.37419,7388.06,-13495.5,-14772.9
1.773e+08,193.402,1,2.44909,-14069.7,-16124.2,-23297.6
1.77324e+08,50.8495,1,3.00915,-5365.65,634.378,-19606.3
1.77388e+08,107.588,1,2.68873,-15611,-10576.5,-18571.2
1.77439e+08,44.7167,1,2.56211,-6957.05,-1448.91,-22569.9
1.7756e+08,137.529,2,2.57409,-16360.4,-5735.63,-5464.87
1.77995e+08,140.299,2,3.01104,-3547.34,-20119.6,-7605.82
1.78064e+08,41.1978,0,2.78131,5387.29,-1633.66,-22146.2
1.78091e+08,3.98171,0,2.42948,-669.856,-199.544,-28444.7
0,3.55567,2,3.01487,0,0,0
0,3.3977,2,2.62961,0,0,0
1.78327e+08,40.2896,1,2.68201,-8081.38,2797.19,-28075.1
1.78955e+08,6.56076,0,2.48785,885.976,1074.2,-28377.6
1.79048e+08,128.87,2,2.61503,784.139,-25534,-19225.4
1.79104e+08,114.914,0,2.66393,-8847.06,8604.32,-9986.77
1.79267e+08,88.3681,0,2.4094,-6294.2,16321.6,-22285.9
1.79368e+08,0.215339,1,3.18246,32.9331,99.617,-28823.2
0,0.220573,1,2.9743,0,0,0
0,0.273914,1,2.98986,0,0,0
0,0.202224,1,2.85602,0,0,0
0,0.220909,1,2.56717,0,0,0
0,0.246388,1,2.58147,0,0,0
1.79637e+08,12.3061,0,2.60536,-626.044,1090.8,-26566.7
1.80535e+08,146.095,0,2.80868,23202.2,-827.812,-8609.85
1.81026e+08,15.7219,0,2.52321,2707.32,1953.65,-28140.7
1.81048e+08,140.217,1,2.66658,-1006.45,21889.2,-8869.07
1.81192e+08,134.885,1,2.95849,24558.4,9794.78,-18718.8
1.81262e+08,29.6734,1,2.64431,-3664.65,-5062.76,-28482.4
1.81291e+08,154.285,1,2.38321,-26203.9,18926.5,-23618.1
1.81472e+08,34.1179,0,2.42874,3710.53,-5645.21,-26087.5
1.81553e+08,59.0052,2,2.67946,-4627.52,-10173.6,-23185.7
1.82211e+08,96.1741,1,2.51593,-18652.8,6688.78,-23920.5
1.82249e+08,75.6514,2,2.70758,-1123.2,-8652.69,-15423.6
1.82453e+08,47.3711,2,2.51446,6199.01,-2278.43,-21298.7
1.82838e+08,69.1786,1,2.9915,-13508.5,5492.51,-28121.7
1.82891e+08,99.7517,2,2.53085,-10807.9,-18003.4,-25998.9
1.83002e+08,32.4297,1,2.42982,-4563.87,780.051,-26207
1.83221e+08,41.959,0,2.74899,-934.145,-7210.82,-27987.1
1.83255e+08,28.0617,0,2.54938,-4906.63,7.20475,-25629.7
1.83282e+08,46.8339,2,2.67957,-3468.45,-7654.82,-23468.7
1.83466e+08,181.43,0,2.76566,18724.6,16649.4,62.4334
1.83502e+08,53.7504,0,2.72373,-9608.56,4524.5,-25010.5
1.83557e+08,34.4697,0,2.44397,-714.781,-4876.61,-23490.8
1.83734e+08,13.5538,0,2.6288,711.788,-2410.55,-27380.6
1.83746e+08,195.846,0,2.97038,9761.16,-20042.9,5677.3
1.83867e+08,50.6374,1,2.69574,-8578,4981.55,-24647.6
1.83979e+08,104.397,0,2.70565,-4792.4,-18635.8,-18197.5
1.84054e+08,27.536,2,2.70624,2784.47,-5118.6,-28016.7
1.84064e+08,45.1572,0,2.44335,-5033.29,-3229.91,-21432.1
1.84125e+08,79.2214,1,2.41061,3622.15,-15624.4,-24210.9
1.84205e+08,150.77,1,2.45974,-14822.9,23128.1,-12493.2
1.84448e+08,168.122,0,2.71099,12185.6,17627.1,-568.124
1.84806e+08,3.23067,2,2.86526,264.798,-679.129,-29078.4
1.84833e+08,28.0616,2,2.99831,2924.68,-3985.67,-25604.1
1.84905e+08,1.88714,1,2.84949,-185.464,464.901,-28817.6
0,1.87055,1,2.63488,0,0,0
1.85056e+08,121.054,0,2.87935,21798.7,7478.88,-17894.2
1.85151e+08,170.157,2,3.02604,9558.86,-13598.6,-23103.7
1.85158e+08,90.2162,1,2.51724,18179.6,1718.21,-25568.1
1.85848e+08,48.4519,0,2.70677,-2970.91,-6052.7,-21159.9
1.85927e+08,35.8435,0,2.88572,-3289.76,-6610.69,-27428.1
1.86825e+08,27.1845,2,2.44876,-4733.3,-2008.9,-26070.5
1.86998e+08,135.909,1,2.60337,-17055.5,20079.1,-17277.6
1.87074e+08,63.1753,2,2.9739,-9466.04,-4964.43,-20898.4
1.87676e+08,20.1021,1,2.51793,2411.73,-1936.54,-25978.5
1.87715e+08,80.2522,1,2.70941,-5037.37,13745.2,-20186.7
1.87762e+08,114.555,0,3.01524,15111.8,9267.94,-12572.4
1.88018e+08,17.22,0,2.97913,2199.33,-506.047,-25931.1
1.88256e+08,30.9108,0,2.49012,6557.87,950.739,-28465.3
1.88733e+08,57.1743,2,2.70827,3662.56,-11560.3,-28656.2
1.89123e+08,91.0823,2,2.92065,-7884.36,-17536,-29396
1.89472e+08,142.635,0,2.7761,-980.176,22459.7,-8951.81
1.89506e+08,18.023,1,2.47608,2998.55,280.094,-26516.5
1.90069e+08,173.808,0,2.38045,8920.54,-13661.3,4147.3
1.90099e+08,65.744,2,2.63283,-13351.9,-2871.66,-25940
1.9097e+08,126.329,1,2.64043,-24988,-6240.93,-24950.6
1.90995e+08,61.9456,1,3.00115,4883.89,8992.99,-20822.5
1.91012e+08,125.371,0,2.36923,6045.08,-10177.2,-5051.34
1.91018e+08,72.7381,2,2.72955,8967.95,-10433.5,-22010.6
1.91263e+08,24.904,2,2.99239,-4149.97,3173.43,-29154.1
1.91626e+08,79.931,2,2.39938,-16470.8,2406.04,-25499.4
1.91931e+08,168.724,1,2.79017,-16831.9,-8136.77,952.637
1.92391e+08,87.2894,2,2.41732,-11190.1,-14798.7,-27916.6
1.92936e+08,46.3204,1,2.40636,-6395.62,-434.833,-21417.4
1.93171e+08,21.8593,0,2.69133,3921.6,-2626.17,-28841.1
1.93333e+08,110.244,0,2.50999,-6119.1,-20146.7,-18867.8
1.94239e+08,179.517,0,2.47896,-21674,-24852.7,-10102.3
1.94996e+08,82.0093,1,2.48727,360.404,16870.7,-24509.5
1.95202e+08,186.414,1,2.75365,-26585,17192.5,-5512.76
1.9547e+08,15.7179,2,2.74675,1653.48,-1511.78,-26375
1.955e+08,5.76399,1,2.39499,-541.297,137.144,-27699.8
1.95572e+08,40.1998,1,2.66912,6223.95,2602.04,-23692.8
1.95643e+08,0.628665,1,2.97679,27.6705,196.08,-28887.7
0,0.509371,1,2.85843,0,0,0
0,0.560198,1,2.26983,0,0,0
0,0.525876,1,3.00118,0,0,0
0,0.524739,1,2.07906,0,0,0
0,0.525168,1,2.18813,0,0,0
0,0.514017,1,2.30241,0,0,0
1.96219e+08,121.747,0,2.63376,-9496.96,-13202.2,-8956.93
1.96405e+08,201.708,0,2.98478,10528.6,-18112.6,-16249.1
1.96553e+08,120.34,1,2.5133,6668.69,24576,-27525.1
1.96782e+08,134.965,1,2.64603,-17317.1,-8912.67,-8037.81
1.96942e+08,15.6761,0,2.61962,-1467.03,-2588.98,-27385.7
1.97269e+08,46.3737,0,2.42248,5468.03,-263.373,-20623.8
1.97412e+08,26.57,1,2.58654,-251.351,-5515,-28231.1
1.97618e+08,70.7143,0,2.63049,12667,-8018.59,-29185.6
1.97827e+08,306.355,0,2.57319,-26867.8,-11293.1,28927.8
1.97874e+08,59.4099,1,2.58411,-7676.09,-5967.97,-20911.8
1.98519e+08,26.4307,2,2.98738,-2731.56,-4634.66,-27169.5
1.98973e+08,33.9273,2,3.01124,-3164.36,-1307.14,-22589.2
1.99003e+08,166.42,2,2.8028,-13069.3,21817.8,-4781.78
1.99097e+08,31.9238,2,2.88727,3051.73,-496.327,-22869.7
1.99252e+08,48.6803,1,2.56588,-778.424,5032.3,-19843.7
1.99845e+08,99.5144,2,2.64373,1870.42,-10926.5,-11619.2
2.00062e+08,172.779,0,3.05544,-7772.01,-9680.98,-24264.8
2.00197e+08,120.225,0,2.97351,4146.47,-2730.5,-28535.3
2.0033e+08,87.0063,0,2.90744,-608.121,-13560.4,-16595.7
2.00417e+08,120.275,2,2.78319,3139.63,-21300.8,-15390.5
2.00473e+08,106.743,2,2.88161,-6934.08,-10380.5,-10161.8
2.01491e+08,57.2417,0,2.77901,3983.51,-7790.22,-20487.9
2.01698e+08,4.95041,0,2.4324,249.61,-478.296,-27918
2.01703e+08,143.986,1,2.73606,-29877.8,-5210.04,-27151.7
2.01987e+08,56.166,2,2.61267,2962.08,-8952.72,-21581
2.02314e+08,1.42004,0,2.80452,403.809,-26.5926,-28756.9
2.02461e+08,15.4844,1,2.52873,-865.98,3192.15,-28167
2.02751e+08,72.2405,0,2.57705,10280.7,-8341.84,-21075.8
2.02891e+08,34.5845,0,2.48707,-1100.85,-5903.48,-24681.2
2.03205e+08,155.954,2,2.58629,-5798.92,-12517.7,1096.34
2.03614e+08,127.563,2,2.7851,-21733.4,-12413.5,-18920.9
2.03711e+08,49.9494,1,2.97961,-636.161,10353.3,-26844.6
2.04328e+08,95.5077,2,2.71041,3269.8,-19586.1,-25013.7
2.04421e+08,76.8869,0,2.81329,-2828.48,-11247.2,-17560
2.04719e+08,42.4139,2,2.59272,-664.128,6562.45,-22796.4
2.04799e+08,53.8791,2,2.873,10487.6,1998.08,-25156.9
2.05107e+08,47.0518,2,2.46641,-7370.03,-6839.4,-28425.4
2.05293e+08,66.2269,1,2.80523,-13690.7,2588.26,-27264.8
2.05317e+08,10.9382,0,3.06013,1184.59,1865.95,-29674.3
2.0553e+08,77.6623,0,3.00244,239.636,29.9554,-28875.3
2.0564e+08,199.412,2,2.79695,26016.8,-19863.5,-2616.34
2.05679e+08,127.412,0,3.02744,14800.1,9502.66,-8685.59
2.0573e+08,127.959,1,2.74918,-18253.2,9829.3,-11532.1
2.05906e+08,146.715,0,2.57675,22731.6,14857.6,-13810.9
2.06191e+08,5.89304,1,2.61579,38.7338,1225.34,-28287.8
0,5.94419,1,2.43829,0,0,0
2.06984e+08,42.3794,1,2.89884,5407.29,-2023.53,-22107.3
2.07043e+08,155.173,0,2.70734,11680.2,14094.9,-1693.37
2.07311e+08,233.697,0,2.8251,9205.08,-2946.05,-23682.5
2.0736e+08,2.70661,2,2.52037,190.882,-542.626,-28550.6
0,2.80807,2,2.84333,0,0,0
2.07381e+08,37.5105,1,2.57,7240.63,-946.402,-25778.6
2.07463e+08,33.6305,1,2.70662,4868.94,3416.4,-24903.3
2.07482e+08,29.1449,1,2.80993,-4502.45,-283.922,-24610.2
2.07958e+08,122.681,1,2.94301,-9045.5,24142.6,-27129.1
2.08031e+08,23.8976,2,2.86183,-2299.1,-2600.69,-25112.3
2.08495e+08,32.9436,0,2.67287,-869.715,-6896.68,-28325.8
2.08715e+08,132.957,1,3.02703,-16992.6,5200.78,-7331.51
2.08735e+08,5.08282,1,2.50401,-1120.26,35.6654,-28737.7
2.08833e+08,110.32,2,2.5648,20036.6,-1049.41,-17017.7
2.08999e+08,102.955,2,2.85763,-7107.19,-701.027,-17558
2.09065e+08,42.9156,1,2.83108,6016.18,-3496.26,-23182.2
2.09222e+08,188.155,2,2.94083,-5974.77,7620.89,-10440.7
2.09365e+08,2.20578,0,2.57654,-69.5065,-482.078,-28824.7
2.09416e+08,19.6881,2,2.58164,1719.05,-3466.16,-27117.6
2.09768e+08,143.167,1,2.69707,-13815.3,19065.4,-9858.89
2.09864e+08,26.3382,1,2.99501,-1997.55,905.467,-23713.8
2.09948e+08,14.6404,0,2.84444,-1720.89,-828.059,-26448.6
2.09999e+08,116.423,0,2.69958,13157.1,19272.4,-21071.6
2.10048e+08,78.2837,0,2.59751,7502.55,8711.82,-16916.5
2.10267e+08,87.8263,1,3.05343,-13224.8,10593.3,-21534.1
2.10711e+08,11.1663,2,2.62529,-1780.41,-487.287,-27259.9
2.1077e+08,57.8849,2,2.57378,5643.76,-10209.2,-24985.8
2.10868e+08,265.688,1,2.65356,-17752,22132.5,19552.8
2.10997e+08,14.1883,0,2.90075,2399.56,-308.486,-26958.2
2.11088e+08,26.7224,2,2.67357,-3903.75,-4211.22,-28871.4
2.11412e+08,71.4973,1,2.70326,14907.4,1955.54,-29637.7
2.11448e+08,47.3088,1,2.51317,-7259.29,-2599.83,-22436.7
2.1159e+08,29.8193,2,2.43545,-1546.07,-4919.82,-25056.9
2.11787e+08,157.798,2,2.74857,-14987,4737.99,-9967.97
2.11983e+08,79.0968,0,2.62401,14277,7080.39,-23555.6
2.121e+08,59.8728,0,2.55652,-292.085,5118.04,-17261
2.1321e+08,8.72081,0,2.69923,1604.8,996.775,-28505.8
2.13689e+08,76.9815,0,2.51417,-502.8,-13856.4,-20345.4
2.13918e+08,90.5706,1,2.39327,-2447.52,-12091.9,-14236.9
2.14059e+08,1.22699,0,3.03189,-48.4424,-23.4267,-28590.9
2.14209e+08,167.952,1,2.54362,-17811.3,29611.8,-28282.7
2.14665e+08,127.506,1,2.94081,-14009.2,21350.2,-20630.4
2.14896e+08,153.484,0,2.42405,16634.3,-27967.2,-29059.5
2.14915e+08,90.0313,2,2.81411,10094,3284.2,-13204.5
2.15165e+08,81.3351,0,2.57918,15552.2,250.753,-21337
2.15804e+08,8.21062,0,2.82906,1802.59,129.702,-28492.1
0,8.16622,0,2.70377,0,0,0
2.16095e+08,241.468,0,2.50563,-17700.4,13031.8,17209.7
2.16303e+08,5.93882,1,2.72651,272.106,-781.036,-27923.1
2.16322e+08,388.568,0,3.00376,28879.1,16631.3,5489.89
2.16433e+08,13.1407,2,2.86501,-1856.65,-1181.13,-27081.7
2.16918e+08,29.9932,2,2.45989,-4412.01,-3975.03,-26396.4
2.17044e+08,112.808,2,3.03406,6892.06,-6890.44,-7293.89
2.17424e+08,31.6905,2,2.48025,-6722.43,-633.062,-28211.5
2.17531e+08,104.882,2,2.69103,7336.25,-20940.6,-28413.3
2.17836e+08,73.7903,0,2.6795,637.619,7431.04,-15149
2.17929e+08,61.9362,1,2.61423,-7569.3,9937.16,-24683.1
0,61.9814,1,2.7134,0,0,0
2.1807e+08,36.2264,1,2.48718,4555.3,5185.02,-25416.6
2.18125e+08,18.2894,1,2.61354,1060.5,3204.87,-26855
2.18382e+08,51.143,2,3.05551,-3591.84,-3798.17,-19421.2
2.1849e+08,141.966,1,2.57473,3511,2988.24,-29456
2.18793e+08,47.3046,1,2.73126,1471.07,-704.842,-27098.3
2.19244e+08,13.1132,2,2.91004,1132.89,-1674.68,-26904.9
2.19401e+08,142.518,1,2.78962,-28436.4,-4969.63,-20496.4
2.19792e+08,71.9036,0,2.82596,-13572.8,-2664.52,-22852.7
2.19937e+08,17.3942,1,2.87761,2635.22,-1839.3,-27154.8
2.20023e+08,201.26,1,2.40723,15964.9,-27251.3,-363.281
2.20121e+08,35.5474,2,2.58085,-1039.55,5535.77,-23930.6
2.20833e+08,82.632,2,2.7129,-8912.57,-3066.6,-14139.8
2.20873e+08,93.8844,0,2.4439,18677.9,-6874.08,-27732.7
2.20917e+08,12.1722,0,2.42574,-408.597,-2241.73,-27618.6
2.21595e+08,82.9706,0,2.77494,15964.7,-4807.98,-23386.6
2.2161e+08,119.569,2,2.41308,-2671.96,1431.65,-18150.4
2.21621e+08,19.6271,1,3.00908,-4055.75,946.46,-28285.9
2.21623e+08,3.05865,1,2.85948,-338.571,535.077,-29216.1
2.21741e+08,9.04451,1,2.58389,324.19,1695.15,-29843.8
2.22513e+08,11.5738,0,2.40324,1997.12,1565.62,-29061.7
2.22615e+08,8.47425,2,2.94979,3.65105,-1864.2,-29020.3
2.22742e+08,99.287,2,2.63112,10698.4,-13449.5,-16820
2.22827e+08,44.5659,1,2.58647,-3788.23,3214.09,-20772.8
2.22901e+08,74.8517,0,2.38067,-5358.12,9751.53,-17581.3
2.22949e+08,26.4971,2,2.9438,-1723.32,-5183.35,-27355.3
2.23228e+08,11.3182,2,2.90974,748.405,1193.33,-26949.8
2.24072e+08,127.778,1,2.82334,4783.58,-24942.8,-20271.1
2.24189e+08,79.1095,0,2.87916,-9375.75,9657.56,-19160.5
2.24543e+08,34.0549,2,2.51032,6795.23,-51.9254,-26564.2
2.2455e+08,145.027,0,2.69323,-23711.3,-5499.58,-10412.4
2.24622e+08,5.52789,0,2.84723,-810.645,-494.897,-28263.3
2.25397e+08,32.632,1,2.41848,2283.75,6302.96,-26847.8
2.25416e+08,183.355,1,2.49779,26289.5,9097.82,-22492
2.25845e+08,118.082,1,2.8034,7670.9,14689.4,-10304.7
2.25969e+08,57.2487,2,2.59859,7304.82,-8655.18,-24448.5
2.26056e+08,48.8463,2,3.02455,-3507.27,-2805.15,-19598.9
2.26231e+08,12.9059,0,2.4032,1792.25,-2147.72,-29195.6
2.26237e+08,30.6568,2,2.48085,5520.61,-1846.08,-25935.5
2.26295e+08,5.13233,1,2.38041,-854.575,775.181,-28602.6
2.26561e+08,31.875,0,2.99411,6677.4,-1254.55,-29198.1
2.26984e+08,59.3259,0,3.02753,26.3655,-5556,-20941.4
2.26993e+08,51.4319,2,2.54212,-7042.35,8255.13,-28427.2
2.27184e+08,143.831,2,2.51934,-5323.6,-24353.8,-11281.6
2.27344e+08,8.27234,1,2.52947,-833.875,222.879,-27270.5
2.27367e+08,55.2086,0,2.51576,-10586.2,-1039.62,-24217.3
2.27746e+08,2.98522,0,2.36296,715.513,-206.05,-28795.5
2.27779e+08,196.608,0,2.84814,8127.83,2236.55,-25993.1
2.2782e+08,135.54,0,2.67738,12578.2,24585,-21293.1
2.27932e+08,48.6091,0,2.83352,4403.03,9160.79,-27467.2
2.28309e+08,119.812,2,2.86475,-14388.7,-17074.4,-17001.7
2.28381e+08,49.5354,1,2.88015,3763.13,6015.86,-21170.1
2.28414e+08,84.6468,0,2.3788,15304.1,-1335.08,-19462.9
2.28568e+08,26.2711,0,2.88011,5133.28,-2075.25,-27807.4
2.28638e+08,27.2482,1,2.43924,-2903.24,1408.86,-23990.4
2.28711e+08,14.2578,0,2.4062,2389.48,1914.41,-29396.7
2.29137e+08,127.886,0,2.77089,-14649.1,15854.3,-29618.2
2.29395e+08,60.3589,0,2.66598,-6617.78,7322.37,-20825.5
2.29539e+08,200.088,2,2.45172,-13173.9,-21040.8,5490.99
2.29618e+08,163.866,2,2.61295,2968.26,-18679.6,-27926
2.29828e+08,72.9233,0,2.72072,9602.72,7023.53,-19000.1
2.30014e+08,133.886,2,2.97263,-5569.71,-26300.6,-20446.2
2.30136e+08,53.7468,0,2.72002,-266.793,8921.7,-21854.7
2.30201e+08,9.1723,2,2.46369,1652.34,-532.561,-28012
2.30256e+08,103.412,1,2.59978,18416.5,-11116.3,-25476
2.30728e+08,92.26,2,2.39164,15751.8,-11541.3,-28060.7
2.30873e+08,82.4711,2,2.5515,-9829.52,-7397.51,-16391
2.31094e+08,28.5026,1,3.03293,628.166,-4089.73,-24589.9
2.31784e+08,0.787642,1,2.52592,-84.3011,96.245,-28658.8
0,0.781338,1,2.43614,0,0,0
0,0.801996,1,3.02394,0,0,0
2.31975e+08,108.817,2,3.03647,-20775.7,-5567.74,-21071.8
2.32303e+08,61.5178,1,2.66393,-10592.2,7660.56,-29354.6
2.32527e+08,31.3201,0,2.66579,-385.543,-6612.83,-29217
2.32809e+08,144.607,0,2.77294,14782.2,1742.86,-2245.17
2.32997e+08,35.6692,2,2.47331,-7117.36,2616.07,-28396.5
2.32999e+08,114.826,0,2.41159,-2754.27,-12509.5,-8178.85
2.33157e+08,25.9047,0,2.50643,186.129,-4121,-25193.5
0,26.2158,0,2.83664,0,0,0
2.3319e+08,15.0571,2,2.73788,2276.54,392.098,-26693.9
2.33257e+08,58.2684,2,2.76818,-7159.17,4323.63,-19825
2.3332e+08,103.116,0,2.63767,20946.7,-6235.39,-28934
2.33624e+08,8.8845,0,2.70733,269.459,-571.48,-27034.1
0,8.96003,2,2.75757,0,0,0
2.33762e+08,123.998,1,2.96739,-14088.4,7787.56,-8342.08
2.33807e+08,83.8887,1,2.92118,-6378.19,-3582.12,-12797.5
2.33926e+08,296.904,2,3.01425,-14777.4,-9753.43,8821.59
2.33933e+08,172.666,2,2.40267,-15784.2,-15260.2,421.443
2.33948e+08,6.22195,2,2.9316,738.58,-541.795,-27873
2.34165e+08,22.3474,1,2.64069,-168.291,4507.77,-27238.4
2.34263e+08,11.4534,0,2.98948,-1916.81,1092.24,-27974.8
2.34439e+08,67.6779,2,2.51717,4407.77,-8628.24,-18244.4
2.34508e+08,27.6036,2,2.40344,-1950.45,-5603.88,-28318.4
2.34731e+08,143.761,2,2.79764,6891.47,23218.3,-10799.4
2.34845e+08,176.269,1,2.61766,18068.8,19656.1,-2888.98
2.35502e+08,111.481,0,3.009,14695.3,15297.2,-19644.1
2.35741e+08,114.347,1,2.82629,10686.7,15523.7,-13836.4
2.35894e+08,10.0051,2,2.51588,-360.293,-1004.67,-26940.1
2.3615e+08,14.1094,1,2.71477,-2492.76,240.594,-27104.1
2.36354e+08,289.381,0,2.84119,-18577.8,-19361.2,-1293.95
2.3653e+08,120.876,2,2.73204,2933.8,-13893.3,-7661.55
2.36671e+08,48.5938,1,2.88641,-7336.07,6511.47,-25664.8
2.36846e+08,115.05,2,2.44219,-19858,-7179.58,-16587.1
2.3687e+08,73.9867,0,2.54265,15498.8,2682.93,-29651.2
2.36939e+08,42.4692,1,2.77852,3110.75,8435.22,-29431.9
2.36965e+08,39.2118,2,2.48674,2830.16,-7618.6,-26885.7
2.37413e+08,62.4164,0,3.02818,-287.526,8460.44,-18838.3
2.37637e+08,100.926,0,2.64202,21318.8,1656.39,-28063.4
2.37941e+08,99.9196,2,2.70937,-14817.1,-3632.66,-14231.2
2.38129e+08,130.463,2,2.45331,13786.7,-8006.92,-6291.57
2.3816e+08,88.97,0,2.9385,17108.5,7632.18,-27750.9
2.38414e+08,149.831,1,2.6313,6114.42,22532,-11591.5
2.38811e+08,9.81662,0,2.37234,645.605,-1979.51,-28385.8
2.39281e+08,1.11381,0,2.60382,310.889,64.0962,-28715.8
0,1.10503,0,2.54897,0,0,0
2.39466e+08,6.84694,1,2.36692,-442.364,1451.77,-28552.4
2.39875e+08,54.9524,2,2.97775,-11151.5,2654.97,-27404.8
2.40506e+08,59.9489,2,2.50656,-773.32,8890.82,-19895.6
2.40686e+08,76.511,0,3.05526,14018,1646.05,-21077.2
2.40695e+08,33.6917,1,2.45273,-4478.17,1881.43,-23580.4
2.40767e+08,25.9322,2,2.72553,-4086,3582.3,-28130.7
2.40768e+08,136.443,1,3.01274,-10449.3,13037.6,-5564.46
2.41161e+08,32.5528,1,3.01655,658.608,3691.49,-23074.5
2.4119e+08,106.481,0,2.74351,18660.2,-4865.16,-17228.1
2.41406e+08,127.663,1,2.93029,-26071.7,-2178.08,-22774
2.41473e+08,195.588,2,2.73846,-27227.5,-28108.7,-15670
2.4157e+08,119.591,0,2.90933,-24201.5,985.977,-22484.4
2.41695e+08,14.9998,1,2.46499,-2805.74,1537.07,-29505
2.41769e+08,69.5338,0,2.38081,12091.1,-4910.57,-21900.2
2.41988e+08,169.408,2,2.37281,-16470.8,-22428.2,-6123.2
2.42147e+08,65.0626,2,3.04659,2629.76,5856.42,-16837.1
2.42422e+08,51.2262,1,2.44355,7232.35,-1292.21,-20933
2.42425e+08,94.0737,0,2.63845,13032.7,8699.87,-16551.6
2.42539e+08,159.267,1,2.43784,175.652,19496.6,-1330.74
2.43158e+08,55.743,0,2.52382,-3405.03,-4710.55,-18581.6
2.43299e+08,67.5251,1,2.70734,-9680.29,9297.06,-23866.1
2.43472e+08,14.9088,1,2.98092,-1114.33,3010.73,-29306.3
2.43591e+08,181.421,0,2.51213,-22634.3,-25006.8,-10638.9
2.43741e+08,119.127,0,2.53017,-74.9547,-11454.8,-6394.61
2.43748e+08,65.4888,0,2.40027,-3226.67,12406.7,-23558.2
2.43884e+08,94.2678,2,2.59604,-4611.07,-9112.05,-26596.3
2.43923e+08,10.2098,1,2.62097,-1402.04,816.098,-27311.3
2.43932e+08,157.805,0,2.72788,3373.77,-4153.31,-25777.9
2.43997e+08,91.7141,0,2.43388,16550.7,6876.49,-21216.2
2.44102e+08,35.5091,2,2.61821,-5970.35,3091.07,-25428.2
2.44353e+08,15.9414,0,2.896,3308.09,-773.266,-28235.5
2.44451e+08,43.6249,1,2.63681,-2175.6,4374.34,-20963.6
2.45519e+08,276.977,1,2.98435,24827.4,20039.9,-17631.5
2.45619e+08,50.3791,1,2.9843,-10076.1,2463.63,-26604.6
2.4588e+08,25.5165,2,2.85339,-619.612,-5339.97,-27837.4
2.46075e+08,42.631,1,2.85347,6185.27,-2457.87,-22933.7
2.46354e+08,81.2306,1,2.51428,2945.53,11450,-16294.2
2.46895e+08,91.2535,1,2.88557,360.853,-16930,-19939.4
2.46924e+08,14.4398,1,2.84107,1734.05,-1393.01,-26845.4
2.46967e+08,249.969,0,2.76766,20253,191.634,19725.3
2.47043e+08,2.23147,1,3.02229,-91.0885,324.477,-28430.5
2.47049e+08,43.9306,2,2.69536,2163.7,-6188.64,-22204.3
2.47063e+08,20.7239,2,2.92384,-4148.08,-1334.95,-28054.4
2.47555e+08,27.3415,2,2.86146,-740.877,2803.33,-23875
2.47697e+08,58.3426,0,2.57444,8576.89,5261.66,-21584.9
2.4807e+08,177.121,1,2.47335,12805.6,-14138.5,-26618.4
2.48072e+08,114.864,0,2.48265,5445.83,15914.8,-11298.4
2.48206e+08,16.6327,0,3.01523,832.52,-1865.38,-26007
2.48565e+08,50.6365,1,2.49406,-7769.58,7500.44,-29001.3
2.48578e+08,35.7395,2,2.3904,3524.73,4278.26,-23736.1
2.48632e+08,113.391,0,3.04155,5636.38,5203.91,-24178.9
2.48656e+08,15.2187,0,2.45783,1726.83,-2487.99,-27550
2.48794e+08,123.903,2,2.47291,6837.9,24744.7,-23894.3
2.48838e+08,17.8645,2,2.77525,-620.755,-1845.78,-25561
2.49205e+08,99.684,0,2.60816,14731.9,-15147.3,-29461.8
2.49214e+08,87.2766,1,3.04285,-10311.2,11662.3,-23693.2
2.49592e+08,4.93757,1,2.59539,-745.77,30.4197,-28034
