#class tools::wcsv::ntuple
#title time
#separator 44
#vector_separator 59
#column double eventID
#column double t(ns)
#column double copynumber
#column double energy(eV)
#column double x(mm)
#column double y(mm)
#column double z(mm)
306603,13.331,2,2.98669,-1859.61,-1474.82,-27219.4
439311,41.1588,2,2.44463,5729.14,-6292.74,-26759.6
758844,129.458,0,2.37541,24492.1,4852.02,-17365.7
897000,154.463,0,2.75598,-16958.9,21518.9,-21500.7
1.10764e+06,41.8099,1,2.9989,-5380.58,2915.27,-22469.6
1.11674e+06,52.7979,0,2.6867,6918.54,-8454.75,-26386.5
1.27224e+06,96.6624,0,2.75825,4779.22,-2737.92,-27204.8
1.777e+06,10.3746,0,2.57108,372.677,-1283.54,-27087.2
1.87379e+06,148.3,0,2.37479,-13478.5,-10383.1,-2499.84
1.97895e+06,154.172,1,3.03338,5922.73,2953.98,2337.29
2.0639e+06,101.79,1,2.70846,17881.5,-2253.21,-17234.9
2.10624e+06,36.299,2,2.81838,-2305.54,1719.11,-21785.8
2.37455e+06,2.39538,1,2.81589,-473.632,241.753,-29078.9
2.4686e+06,46.9809,2,2.90873,-9109.25,1748.36,-25341.2
2.57586e+06,213.688,1,2.81812,11002.5,359.754,-11085.6
2.75625e+06,115.267,1,2.96787,-5921.82,1342.55,-24784.4
3.10794e+06,86.2966,2,2.7843,-1744.01,3175.28,-14543.3
3.1144e+06,16.2472,2,2.40301,-802.678,1739.79,-26020.7
3.13038e+06,164.687,0,2.67377,-23796.1,-2827.04,-3780.42
3.19964e+06,184.906,0,3.02005,26367.9,3907.08,-646.145
3.58778e+06,15.3132,0,2.96482,3251.84,663.83,-28758.8
3.63528e+06,64.1891,1,2.95319,2584,10450.6,-20624.6
3.86452e+06,4.92541,2,2.42483,-642.302,-940.627,-28748.2
3.86956e+06,34.4093,2,2.65324,617.568,-5780.68,-24356
3.90241e+06,31.3353,1,2.85662,-4512.78,-3004.42,-25052.6
4.00524e+06,63.0624,2,2.92645,-3065.99,-7535.15,-18305.7
4.01259e+06,23.757,0,2.86567,4599.88,-2193.06,-29135.9
4.41532e+06,139.426,0,2.93049,11158.5,-8832.43,-6392.69
4.4728e+06,132.969,1,2.79707,-6526.92,19317.5,-9614.95
4.53095e+06,59.8122,2,2.4665,7783.62,-5734.36,-20647.4
4.57693e+06,5.51208,0,2.78207,-315.534,-670.261,-27957
4.87267e+06,73.4424,2,3.03877,2802.6,-2800.94,-13966.2
4.94846e+06,30.2935,0,2.89234,145.862,1824.56,-22717
5.2289e+06,56.9808,1,2.51757,-2958.75,3630.63,-17680.4
5.26432e+06,47.212,1,2.60032,3653.71,810.058,-19577.1
5.31142e+06,73.6043,2,2.50814,1265.78,-12343.6,-19317
5.50537e+06,20.9469,1,2.3881,-3081.85,3323.42,-28804
5.53596e+06,82.7219,0,2.79925,-4788.43,3831.3,-12552.5
5.61619e+06,65.9977,2,2.73415,8269.08,-8079.37,-21065.8
5.79944e+06,57.0267,1,2.47645,3297.25,10655.2,-24070.4
5.83425e+06,59.2858,2,2.66904,-12239.6,-678.17,-26043
6.3975e+06,39.7105,0,2.61277,6682.07,5192.29,-29101.3
6.57503e+06,72.2289,2,2.71328,-14113.5,-1254.31,-25313.9
6.65636e+06,69.7907,2,2.62071,-9898.42,5049.94,-19140.8
6.80371e+06,57.8707,1,3.00263,-8038.36,3397.83,-20311.4
6.87973e+06,156.08,2,2.74109,-9310.11,-29561.3,-17696.6
7.20452e+06,126.839,0,2.95476,-15225.1,5294.26,-7691.53
7.38972e+06,117.526,1,2.70236,4885.19,-10672.5,-7081.49
7.59124e+06,39.6634,0,2.53785,850.856,-3244.5,-21123.4
7.79722e+06,107.92,0,2.74594,10846.2,-19246.1,-23255
7.87393e+06,152.383,1,2.56017,-5358.32,17799.5,-2469.18
8.56061e+06,17.7939,1,2.71315,-3199.61,-1580.78,-27619.3
9.04636e+06,102.373,2,2.77623,16539.4,12138.1,-22490.5
9.56482e+06,52.1846,1,2.77582,6054.39,-4794.44,-21056.9
9.82102e+06,10.8432,0,2.71328,2382.04,-125.408,-28552.2
9.88439e+06,257.831,2,2.73208,16723,-24656.8,16609.5
9.89031e+06,6.96621,2,2.41922,-1238.24,803.751,-28601.8
0,6.90479,2,2.56752,0,0,0
1.06466e+07,100.873,0,2.55057,18655.8,-4936.19,-19628
1.07305e+07,5.15229,1,2.49862,-178.11,1159.48,-28728.6
1.08583e+07,80.1909,1,2.86333,-7675.13,9043.52,-16759.3
1.09695e+07,53.1171,1,2.38036,7367.4,6705.66,-23538.2
1.10633e+07,92.817,1,2.37924,-8589.85,-6959.79,-12593.7
1.1496e+07,37.7532,1,3.00858,2790.71,-1895.25,-21722.4
1.17695e+07,41.6497,0,2.87819,-3344.11,-6030.77,-23461.2
1.19288e+07,29.4156,1,2.45455,2840.86,-5337.9,-27678.5
1.19656e+07,69.6887,1,2.63151,608.321,5958.22,-15363.4
1.2305e+07,122.978,1,2.46357,-23467.8,-9473.4,-22703.8
1.23209e+07,45.6344,1,2.61448,-1461.69,3837.76,-20057.6
1.25524e+07,6.42409,0,2.48209,220.661,1209.74,-28171.1
1.25714e+07,47.5195,2,2.41223,-7088.15,1337.61,-21812.8
1.34788e+07,78.4605,0,2.82712,8643.52,-875.81,-14739.1
1.35376e+07,80.0757,0,2.78176,14733.4,3475.56,-21225.6
1.35653e+07,102.32,1,2.76055,1807.09,17854.5,-16780.4
1.36799e+07,21.9228,2,2.8624,-3948.48,2247.85,-27986
1.37944e+07,11.8133,1,2.47723,-1450.02,-380.548,-26841.1
1.41644e+07,5.74053,2,2.57694,-702.342,-628.875,-27944.3
1.42501e+07,26.5464,0,2.91677,-1554.64,-3943.12,-25212.2
1.42831e+07,24.2837,2,2.78103,-2897.6,1982.05,-25146.7
1.47689e+07,46.592,1,3.04157,-6805.31,2920.23,-22366
1.49899e+07,72.0109,0,2.71492,3973.9,-13664.9,-23491.8
1.50087e+07,86.9579,1,2.61081,-3849.07,3474.45,-11184.2
1.52437e+07,60.0101,0,2.75068,1978.97,12090.1,-25575.1
1.53485e+07,1.79742,2,2.84462,174.087,-99.1482,-28513.8
1.55005e+07,99.4527,1,2.97026,5906.22,14999.5,-15520.3
1.62648e+07,65.4902,1,2.65817,-8764.06,3949.3,-18838.5
1.64009e+07,123.879,2,2.41122,-14624.6,-5410.94,-7821.73
1.68138e+07,57.3605,1,2.95117,-7499.42,-8737.42,-25412.9
1.6828e+07,100.113,1,2.47221,-18442.1,9989.63,-25307.6
1.68565e+07,212.368,0,2.51008,-26709.4,-14230.7,4288.7
1.69351e+07,97.8897,0,2.80154,-8884.2,-1810.01,-12237.3
1.69791e+07,91.2078,2,2.81236,-1008.88,-3283.67,-9952.53
1.74788e+07,79.9148,0,2.66296,11041.5,459.224,-16016.1
1.75049e+07,66.2278,2,2.50992,-1745.32,11244.1,-20766.4
1.75756e+07,43.7463,0,2.45756,1411.91,-6343.27,-22203
1.75872e+07,27.4202,0,2.62544,5585.64,1603.03,-28061.5
1.78396e+07,100.348,0,2.90965,13455.6,6563.23,-17066.7
1.78858e+07,19.279,2,2.40417,319.117,-3702.05,-26958.7
1.84758e+07,206.321,2,2.87273,-9433.28,-8676.12,859.838
1.85547e+07,173.556,0,2.47629,15319.3,-23613.6,-5237.73
1.89907e+07,18.3102,1,3.05904,-3163.43,1564.03,-27114.3
1.90278e+07,21.0649,0,2.42609,2911.64,3459.41,-28504.5
1.92034e+07,62.1632,0,2.58412,10764.4,7674.75,-29201.8
1.92666e+07,27.6843,0,2.3926,-3459.63,-4429.32,-27291
1.95574e+07,15.4902,0,2.59842,1135.15,-2757.02,-27349
2.0158e+07,14.5475,1,2.71697,-872.663,3028.07,-29294.8
2.02689e+07,23.1244,0,2.73472,-3639.76,-2999.82,-27754.2
2.05619e+07,53.0924,0,2.92407,7507.22,538.455,-20529.5
2.06787e+07,18.4028,2,3.06071,-1372.82,1165.53,-25403.6
2.06886e+07,37.8849,2,2.58204,-4555.9,-6685.8,-29533.7
2.08119e+07,16.106,0,2.697,1219.97,-2055.97,-26344.3
2.10876e+07,41.0394,1,2.95911,2355.9,1245.63,-20627.5
2.11694e+07,28.7286,0,2.44818,3733.75,2128.4,-24446.3
2.11997e+07,67.3422,0,2.80348,7088.64,-5506.9,-17812.6
2.14098e+07,36.7053,1,3.01812,-1295.64,7082.93,-25888.4
2.14903e+07,254.954,2,2.70013,-27415.4,5280.54,17071.3
2.15237e+07,59.9897,1,2.8524,-2869.37,10665.9,-22580.3
2.17272e+07,137.546,1,2.36795,-3293.23,25936.5,-15945.8
2.19628e+07,47.6776,0,2.88957,6528.12,-7678.52,-29041.2
2.20011e+07,72.7817,1,2.6781,-2631.57,-10083.5,-17605.3
2.20276e+07,190.172,0,2.60383,8339.38,-10106.5,9142.84
2.21789e+07,263.92,2,2.77708,-17937.6,6519.26,6968.48
2.25842e+07,127.836,0,2.92662,2957.13,15537.7,-10048.8
2.27074e+07,8.82655,2,2.48744,1079.57,829.691,-27635.8
2.31745e+07,64.0808,0,2.78863,10732.6,-4172.99,-21698.4
2.33138e+07,133.249,0,2.63688,21268.4,-2608.67,-10507.6
2.33803e+07,15.1899,1,2.90243,-2491.32,341.031,-29846.9
2.34011e+07,89.4196,1,2.89318,4330.48,6271.9,-11636
2.35069e+07,64.4345,2,2.51319,-3763.7,5290.75,-16852.3
2.37071e+07,85.8028,2,2.52518,-14025.3,-10862,-24743.7
2.39633e+07,46.9414,0,2.56972,2046.6,8434.47,-23957.4
2.41473e+07,0.878082,0,2.57683,122.336,-108.009,-28683.1
0,0.755643,0,2.67677,0,0,0
0,0.794665,0,2.39874,0,0,0
0,0.765532,0,2.88386,0,0,0
2.44585e+07,41.3023,2,2.78197,-3765,-6494.1,-24264.7
2.49219e+07,50.3026,0,2.87306,-628.502,-3279.19,-27719.8
2.51091e+07,158.345,1,2.74845,16353.5,13462,-8951
2.51634e+07,60.1603,2,2.6083,-1896.97,-4711.77,-17158.5
2.5459e+07,98.727,1,3.00243,-7718.56,-11588.4,-13532
2.55706e+07,110.093,0,2.84168,2800.18,-13070.1,-9927.82
2.56116e+07,112.397,2,2.65696,19321,-13714.1,-27271.6
2.56731e+07,111.13,1,2.45901,-6844.37,-7618.18,-7689.47
2.57456e+07,175.5,0,2.97639,17119.1,24199.2,-6958.01
2.60846e+07,295.561,0,2.88516,-12800.6,27192.9,25460
2.62159e+07,2.37073,2,2.95651,-233.394,-523.548,-29034.6
2.63347e+07,7.60399,1,2.53195,160.099,1430.04,-29703.3
2.63689e+07,94.3576,1,2.89933,7545.43,1004.74,-10529.4
2.7007e+07,156.154,2,2.9132,-3107.09,-12574.6,1312.62
2.72157e+07,80.4671,2,2.70231,10626.6,-10220.2,-20386.6
2.72982e+07,0.334565,0,4.06565,17.896,41.7531,-28783
0,0.336116,0,2.46817,0,0,0
0,0.343033,0,2.10852,0,0,0
0,0.354934,0,3.54837,0,0,0
0,0.377327,0,2.22782,0,0,0
0,0.3471,0,2.79705,0,0,0
0,0.355644,0,2.31572,0,0,0
0,0.265185,0,2.25347,0,0,0
0,0.281715,0,2.90948,0,0,0
2.731e+07,132.36,1,2.68814,-12785.6,3327.92,-21336
2.73803e+07,134.622,2,2.62018,19981.1,-20122.2,-26963.8
2.74078e+07,20.7843,1,2.61549,-3864.37,825.011,-26765.9
2.78302e+07,37.8514,2,2.92998,5786.83,-1658.08,-24233.4
2.78792e+07,163.796,2,2.84987,18478.1,-2484.52,65.5748
2.80123e+07,68.7192,1,2.92365,7447.69,-10054.8,-21773.3
2.82102e+07,43.1583,0,3.05231,2376.97,-4522.89,-21325.9
2.82457e+07,41.2554,1,2.71165,1398.94,8657.91,-29359
2.8708e+07,73.5175,2,2.36554,113.868,14968.8,-24812.1
2.87395e+07,15.2185,0,2.51645,3167.46,-1025.71,-29075
2.87456e+07,196.375,0,2.87288,10223.3,18770.9,-21590.2
2.89917e+07,59.4227,1,2.50989,500.81,7776.69,-18911.3
2.97275e+07,115.841,1,2.91196,-2816.68,925.515,-24703.1
2.99194e+07,70.5176,1,3.03864,-2031.52,-14314.2,-25977.2
3.00096e+07,79.2704,0,2.96818,-15604.3,-3461.56,-24455.8
3.01148e+07,84.9768,0,2.76787,7695.66,2783.34,-12894.7
3.02674e+07,21.05,1,2.87148,-3481.59,2446.07,-27400.1
3.03165e+07,122.112,1,2.74664,-20329.4,5965.02,-14173.8
3.05055e+07,159.346,1,2.42276,10701.7,-10838.7,1198.99
3.05444e+07,21.7508,1,3.0164,2973.51,3487.91,-29401.8
3.0815e+07,52.5105,2,2.66929,-711.556,10003.5,-24242.4
3.08418e+07,245.608,0,2.82637,19801.8,25316.2,11633.5
3.09101e+07,146.83,0,2.64548,19388.8,-16678.3,-11276.8
3.122e+07,141.688,2,2.57147,2895.66,-27732.7,-17722
3.12926e+07,158.603,2,2.9194,-201.539,1825.83,-29609.5
3.14796e+07,7.93187,1,2.74441,-1419.32,454.812,-27924.8
0,7.88271,1,2.69529,0,0,0
3.16551e+07,37.9879,1,2.85569,588.461,2989.72,-21433.1
3.19375e+07,10.0515,2,2.63574,-1395.06,1318.94,-27971.6
3.19567e+07,32.2044,2,2.40846,-1491.33,4834.47,-24302.6
3.19762e+07,66.0058,1,2.52762,-5395.57,-5037.96,-16983.8
3.21512e+07,99.7679,2,2.91171,-19763.8,6741.63,-26981
3.22667e+07,5.93332,2,2.69959,-40.5219,747.553,-27863.9
3.23173e+07,36.189,2,2.63143,85.9864,-3645.69,-22066.8
0,36.1136,2,2.48563,0,0,0
3.2854e+07,66.7316,0,2.7302,3668.07,5934.79,-16592.5
3.29787e+07,154.127,1,3.01677,5929.33,14841.3,-13165.9
3.29835e+07,53.3916,2,2.99831,7820.42,1848.8,-21099.5
3.33674e+07,57.8042,0,2.51329,2048.22,12023.7,-27459.3
3.36734e+07,7.77875,2,2.72714,-934.145,351.755,-27533.8
3.39363e+07,152.873,1,3.04495,-25135.3,3317.87,-9224.71
3.40358e+07,35.6663,1,3.00265,-1201.03,971.623,-21502.8
3.4037e+07,4.13634,2,2.93467,-514.395,-820.523,-28891.1
3.40493e+07,72.0237,2,2.43048,-14120.9,-4081.4,-24641.3
3.40718e+07,111.602,1,3.04094,2616.96,20086.2,-17038.3
3.44013e+07,84.3968,1,2.53127,6276.85,-13189.2,-18666.4
3.4416e+07,78.1222,1,2.84761,-5006.29,6510.18,-14567.8
3.45419e+07,7.8129,0,2.50286,1052.49,-355.682,-27519.6
3.47679e+07,194.894,1,2.95355,4389.32,5774.03,-16504.8
3.48706e+07,85.5821,1,2.43241,-1668.49,17005.9,-22564.7
3.56589e+07,18.1584,0,2.60018,-751.749,-3715.24,-28348.3
0,18.1058,0,2.76504,0,0,0
3.57253e+07,99.6953,0,2.52046,10032.5,7923.84,-12007.8
3.57649e+07,29.1874,0,2.496,-2999.33,-4917.48,-26681.7
3.58466e+07,6.89776,0,2.68446,781.557,218.006,-27585.4
3.59056e+07,142.075,1,2.81661,-12484.1,18400.8,-8766.58
3.63798e+07,46.2519,2,2.68473,3000.17,6347.09,-22153.2
3.64702e+07,32.9807,1,2.472,-5410.74,3349.39,-25817.5
3.66263e+07,33.5473,1,2.3741,-3873.22,1102.14,-22958.4
3.66529e+07,18.6306,1,2.77429,-1618.58,1087.76,-25366.5
3.6921e+07,190.298,1,2.66154,-16070,-17607,3464.87
3.73632e+07,14.8981,2,3.03342,2796.55,-30.2464,-27499.4
3.76953e+07,46.1805,2,2.73408,4224.72,-6727.66,-23144.2
3.82833e+07,224.684,2,2.83891,-4325.72,7.64687,-8898.89
3.83633e+07,120.529,0,2.89757,7033.65,-22857.6,-20384.9
3.84311e+07,142.668,2,2.36516,-17653.4,-24623.1,-28509.2
3.84742e+07,4.7808,0,2.56081,-810.894,42.0109,-28353
3.85687e+07,79.5955,0,2.68019,8609.72,14436.3,-27674.6
3.86308e+07,135.796,1,2.6875,-4300.48,24476.7,-14500.2
3.8631e+07,43.5259,0,2.94551,8067.61,4439.38,-28499.8
3.86369e+07,16.9412,2,2.68061,-1985.76,-1129.09,-26022.4
3.87354e+07,162.882,2,2.41204,7567.15,23036.2,-4403.78
3.87442e+07,53.8489,2,2.89603,7619.09,1114.6,-20577.2
3.88914e+07,24.5092,1,2.86962,3148.99,1299.48,-24999.2
3.91756e+07,47.0056,1,2.99934,-1880.81,6030.23,-21190.5
3.94507e+07,14.6815,2,2.43708,-205.237,1805.45,-26353.9
3.94909e+07,202.283,1,2.91829,-1874.62,9108.57,-28199
3.95828e+07,41.9192,2,2.45649,-3566.61,-6354.42,-23650.6
4.01047e+07,46.4168,2,2.97623,6956.14,-3300.19,-22868.9
4.01303e+07,96.0773,1,2.38659,-7695.25,470.417,-9988.24
4.05694e+07,85.083,2,2.76878,-16135.8,-3572.44,-21735.6
4.07581e+07,49.6658,2,2.62058,-8650.78,-4366.85,-24662.4
4.12574e+07,10.9948,1,2.93297,-124.175,2250.94,-27982.2
4.12656e+07,40.8156,1,2.72075,1593.22,6969.5,-23946
4.13319e+07,124.742,2,2.97672,20374.3,-16445.6,-27781.6
4.14365e+07,2.12346,2,2.37368,42.1087,7.62483,-28393.9
0,1.97187,0,2.76508,0,0,0
4.14488e+07,122.172,2,2.4127,11494.6,9948.54,-10045.1
4.15171e+07,40.6797,1,2.75137,-623.894,8623.66,-28405.1
4.153e+07,41.0207,1,2.40056,-7780.54,420.032,-24894.2
4.17374e+07,30.9625,2,2.72823,-4412.49,2027.21,-26645.1
4.1808e+07,215.389,1,2.83576,-27821.3,-96.4489,6939.07
4.23291e+07,110.856,1,2.75542,6794.89,-20326.4,-19741.4
4.23748e+07,73.0918,0,2.82081,8383.49,8472.75,-19041.4
4.26503e+07,28.1721,0,2.88503,-2891.73,1924.22,-24063.4
4.27237e+07,143.149,0,2.54109,18152.9,-18122.7,-12655.6
4.2735e+07,114.1,0,2.38128,18285.4,1577.81,-13057.6
4.28725e+07,41.1594,1,2.78929,-2798.05,-4450.81,-21949.1
4.29867e+07,0.998175,0,2.49184,150.959,83.2346,-28646.2
0,0.971485,0,2.93759,0,0,0
4.32086e+07,144.281,0,2.70367,-8777.45,-12148.1,-2380.2
4.33254e+07,16.3822,1,2.5728,-3177.76,1619.93,-28714.6
4.34153e+07,82.8439,2,2.84576,-5538.18,-16588.6,-29163.4
4.34248e+07,45.5644,0,2.43015,-6718.15,5412.44,-24599.4
4.35285e+07,136.462,1,2.4251,11297.4,26543.4,-26433
4.40399e+07,202.903,0,2.5011,26105.7,-23983.5,-4608.43
4.46234e+07,93.4662,0,2.7186,-9351.14,10445.9,-15617.9
4.49289e+07,60.9299,2,2.67269,-7850.11,288.514,-18632.3
4.49718e+07,119.313,2,2.93235,-3201.77,15195.9,-9240.83
4.51813e+07,70.4268,0,2.80309,12146.6,7154.82,-23966.1
4.52253e+07,22.702,0,2.51507,2530.25,-3388.71,-26410.5
4.53947e+07,100.646,0,2.76932,20281.2,5444.84,-25409.1
4.57403e+07,161.48,2,2.45944,-10647.6,-7527.9,2750.74
4.599e+07,134.03,0,2.5734,24883.6,-7135.68,-17187.8
4.60749e+07,6.70537,1,2.75987,253.572,773.399,-27617.8
4.608e+07,33.7792,1,2.80936,2116.94,4339.36,-23556.9
4.61648e+07,8.54584,1,2.57399,386.516,1618.91,-29752.8
4.62433e+07,155.898,0,2.75013,20607.9,-25501,-26505.1
4.64139e+07,16.162,2,2.50233,-3121.21,-1246.55,-29760.3
4.65802e+07,52.9619,0,2.45859,581.212,-10913.3,-26243
4.70317e+07,93.6302,1,2.65208,960.305,-562.26,-20516.5
4.70777e+07,29.5733,1,2.37881,5819.89,415.395,-26597.5
4.70947e+07,73.3541,0,2.663,12956.1,-6132.87,-22822.5
4.74216e+07,32.0711,0,2.89826,1566.95,608.978,-22270.4
4.74636e+07,145.513,1,2.70024,16411.2,1359.61,-2985.74
4.76035e+07,11.3349,1,3.05355,-2393.79,-173.83,-28446
4.77864e+07,19.9561,1,3.00791,-1622.1,-806.715,-25044.4
4.82765e+07,13.3835,1,2.40907,-1851.92,1530.41,-27182.7
4.85182e+07,65.0094,0,2.38409,3978.25,3222.17,-16026.2
4.85557e+07,14.0099,1,2.60003,335.883,-1712.57,-26495
4.86158e+07,435.849,0,2.55443,27771.4,-12082.1,1142.97
4.87382e+07,24.0211,0,2.64431,2885.08,-3697.24,-26712.4
4.88156e+07,81.3735,2,2.75391,1510.2,-10886.1,-15627.6
4.88613e+07,35.211,2,2.44779,-1437.94,6161.73,-24999.6
4.89771e+07,38.6431,2,2.68834,1226.81,-2745.73,-21223.1
4.96973e+07,43.4707,0,2.99291,2482.36,-1566.38,-20161.6
5.0133e+07,5.82583,2,2.39436,-776.176,-179.816,-27817.3
5.0141e+07,44.1971,1,2.51548,-2479.03,-3954.64,-20753.4
5.04112e+07,36.392,0,2.67656,-597.079,3695.82,-22110.3
5.05543e+07,10.1631,2,2.92025,1707.46,-206.807,-27562.5
5.07307e+07,9.45589,0,2.78723,405.208,-607.614,-26949.7
5.10212e+07,16.4543,2,2.91336,2163.18,-914.76,-26678.9
5.10414e+07,1.34776,1,2.75972,-293.207,-57.159,-28970
5.16321e+07,14.6858,1,2.76829,-2569.41,-985.86,-27378.6
0,14.657,1,2.74134,0,0,0
5.16648e+07,102.856,0,2.5618,13892.2,-16810.1,-28880
5.17042e+07,108.978,2,2.80801,8862.31,-21231.5,-28783.6
5.17872e+07,24.2076,1,2.56493,1766.32,4496.53,-26919.2
5.2168e+07,14.7071,2,2.98003,-1307.62,-2627.07,-27603.4
5.2219e+07,66.3996,2,2.81882,-2735.48,-6954.83,-16981.4
5.23248e+07,10.3239,2,2.61473,-1432.73,427.729,-27191.3
5.27199e+07,209.083,2,2.49208,-6770.73,22357.4,8652.45
5.2734e+07,106.029,2,2.60643,-2874.65,5023.73,-18544.6
5.27623e+07,123.394,1,2.73431,15318.6,2772.47,-8010.61
5.27778e+07,21.746,2,3.02512,2095.33,-2648.37,-25699.8
5.30082e+07,18.8128,0,2.61626,3918.62,-11.2393,-28800.6
5.31486e+07,18.9307,2,2.65121,-2201.47,2258.51,-26422.2
5.35303e+07,108.436,1,2.61187,-19169.9,-3217.79,-16683.6
5.40618e+07,9.47199,1,2.40459,1515.03,384.605,-27566.8
5.43401e+07,45.1207,2,2.97618,-486,-6119.26,-21549.7
5.49216e+07,182.933,0,2.54566,-28630.3,22954.1,-24720.2
5.50514e+07,22.386,2,2.49912,-4515.35,-1692.45,-28488.1
5.54098e+07,153.045,2,2.7095,-13565,-8804.67,-877.24
5.57118e+07,93.0377,1,2.96438,-3154.07,6570.92,-10693.7
5.57896e+07,16.7607,1,2.39266,-109.409,2152,-25953.5
5.58564e+07,109.186,2,2.68665,-1636.76,-1206.71,-27884.9
5.58975e+07,66.5,2,2.85189,-5692.27,169.065,-16062.6
5.59558e+07,137.302,0,2.92836,-8816.3,7045.74,-2344.65
5.60044e+07,43.0706,0,2.8699,7398.16,-922.246,-23555.8
5.61511e+07,70.7954,0,2.79298,5144.57,-9872.58,-28975.2
5.6306e+07,17.8981,2,2.97775,3679.76,374.187,-28320
5.65673e+07,173.045,0,2.59657,29462.9,4572.61,-7579.67
5.66178e+07,28.7236,0,2.71471,1428.46,-5479.05,-26542.1
5.66594e+07,87.8613,2,2.8261,-2138.32,-17057.5,-21880.5
5.68009e+07,8.20986,2,2.5222,-1238.29,442.055,-27651.9
5.70662e+07,31.6435,0,2.70236,2748.26,4101.31,-24287.1
5.70887e+07,12.2056,1,2.76943,-1224.78,-1297.49,-26964.3
5.78135e+07,57.7609,2,2.83612,1616.14,-11998.6,-27077
5.78621e+07,33.2826,2,2.7789,-1511.94,4741.34,-23919.8
5.8105e+07,9.16056,2,2.99463,1099.31,-1062.54,-27645.8
5.81956e+07,11.5238,1,2.52199,1523.93,-1313.81,-27526.7
5.84979e+07,24.1775,1,2.87418,-2135.36,2797.17,-25066.8
5.85266e+07,89.6631,2,2.9507,-6627.65,-14744.9,-19044.2
5.88003e+07,276.407,2,2.51568,18134.7,-4227.68,26525.7
5.89379e+07,28.4931,1,2.51221,3818.79,4727.35,-29219.5
5.94092e+07,21.5078,0,2.55055,1479.44,503.2,-24547.2
5.9629e+07,25.808,1,2.37272,1075.65,1842.57,-23796.2
5.99503e+07,88.9692,2,2.96182,-15194,-10665.1,-26106.9
6.01722e+07,79.5944,1,2.98737,12319.6,-10563.1,-25204.1
6.02532e+07,92.4148,1,2.9407,-14679.2,2352.08,-16302.5
6.04316e+07,16.5363,1,2.90194,-3408.64,394.584,-29798.5
6.06041e+07,22.5817,2,2.54969,-3843.41,-2975.52,-28778.5
6.06863e+07,7.78641,2,2.46171,-1219.82,-1191.81,-28453.3
6.07578e+07,53.1275,2,3.0134,-4111.65,-1846.05,-18637.3
6.11482e+07,28.4994,1,2.6137,-5204.08,-1193.41,-25968.4
6.13395e+07,85.1984,2,2.99997,-10355.7,-7026.77,-15997
6.13483e+07,14.0838,1,2.72437,-740.357,506.444,-25982.1
6.15525e+07,203.492,0,2.80022,-18546.8,-21517.5,3159.52
6.17088e+07,64.5721,0,2.75015,8173.46,8998.92,-22565.9
6.1717e+07,52.4077,2,2.58635,-2438.23,-4820.58,-19109.4
6.19155e+07,12.9994,2,2.55869,74.451,-1612.91,-26545.5
6.20005e+07,87.4476,0,2.76014,5576.5,11039,-15165.4
6.20541e+07,19.3954,2,2.51445,-3877.14,1440.71,-28810.7
6.21298e+07,11.2879,1,2.65118,-2177.36,450.235,-27769.6
6.21961e+07,50.6382,2,2.87233,-3841.56,-8401.2,-23393.7
6.22231e+07,41.2481,0,2.74404,7322.44,-3175.76,-28599.3
6.24415e+07,7.9603,0,2.40155,-752.017,1375.61,-28357.7
6.2622e+07,2.95155,1,2.83922,-461.721,157.752,-28365.1
6.26581e+07,211.25,2,2.80969,-10895.2,-17550.9,10543.3
6.28208e+07,187.29,0,2.92275,20041.3,3998.98,4800.76
6.29636e+07,33.7783,0,2.62871,1456.11,-3892.45,-22994.8
6.31626e+07,101.908,2,2.41639,-6504.98,10200.5,-10984.6
6.33972e+07,131.4,2,2.67202,-1226.6,-27751.1,-28785.5
6.35443e+07,42.9098,2,2.4594,875.962,-9122.37,-28930.3
6.3603e+07,68.206,2,2.51438,-13538.9,-5207.38,-28657.1
6.38017e+07,100.792,1,2.68971,-18174.2,-8962.61,-22374.8
6.40644e+07,6.37065,2,2.74637,-397.949,-1316.54,-28390.1
6.41966e+07,40.5666,1,2.72117,-1163.64,759.84,-21221.9
6.42375e+07,23.9688,2,2.7973,2435.99,-4429.5,-29525.8
6.43045e+07,73.6079,2,2.70288,9847.46,-1713.14,-16970.6
6.43904e+07,4.64601,1,2.37928,-986.627,436.889,-28746.4
6.45197e+07,25.5758,2,2.50863,1107.41,-2438.18,-24107.1
6.45318e+07,48.617,1,3.01572,-5960.94,8239.37,-27450.7
6.48508e+07,207.15,2,2.80075,14916.1,-1121.75,-8634.72
6.50772e+07,47.8688,1,2.86743,8989.22,-587.4,-24390.7
6.54891e+07,85.5866,1,3.04629,-13753.8,9488.55,-22104.7
6.56097e+07,152.905,1,2.84616,9257.72,3008.65,1778.46
6.58522e+07,69.3804,0,2.91818,-10384.8,7521.46,-22037.3
6.59117e+07,50.1653,2,2.4234,6181.6,-7573.49,-24548.4
6.59828e+07,90.8881,1,2.43371,-7459.56,5512.18,-11962.9
6.61429e+07,22.0008,2,2.65504,-3903.17,-2492.59,-27855.6
6.61791e+07,33.0092,0,2.61747,3137.96,1436.95,-22719.3
6.68054e+07,95.6332,1,2.69692,-13910.1,9915.23,-18008.2
6.6865e+07,38.4445,2,3.02803,-3073.44,-907.027,-21422.3
6.69123e+07,142.491,1,2.62545,9267.31,27603.5,-21021
6.70029e+07,129.515,2,2.88436,-824.193,11124.3,-4043.36
6.70868e+07,118.289,0,2.44843,-5234.23,-9442.02,-6305.57
6.72303e+07,107.84,2,2.79811,20372.3,-8861.9,-24451.4
6.7244e+07,40.3,2,2.88202,-3728.4,313.863,-21226.7
6.7299e+07,2.32248,0,2.72647,222.839,-14.4325,-28344.2
0,2.44888,0,2.81285,0,0,0
6.73922e+07,23.819,0,2.46663,4854.86,839.143,-27392.7
6.80173e+07,6.8873,1,2.77092,-415.162,819.166,-27641.5
6.8365e+07,32.2203,0,3.02458,5098.77,2088,-24798.6
6.84268e+07,11.5734,2,2.41673,-1863.64,-1304.52,-27716.9
6.86672e+07,51.2137,2,2.51162,-1122.44,6196.97,-20033.2
6.88138e+07,146.625,2,2.90305,-1539.56,-5566.81,1399.66
6.90003e+07,175.089,2,2.50292,19959.4,-16016.4,-2069.42
6.9425e+07,156.967,0,2.52342,17045.8,-5702.66,-898.005
6.96002e+07,1.14835,2,2.48535,-15.7829,-90.748,-28576.6
6.96746e+07,112.852,2,2.70673,-5073.96,-17479.1,-13421.5
6.98049e+07,55.329,2,2.81403,-10785.2,-60.7199,-24321.7
6.99707e+07,163.03,0,2.98037,-5512.98,-13223.8,833.96
7.04308e+07,54.6239,2,2.45177,2507.29,6314.68,-19518.3
7.04343e+07,54.7073,2,3.01574,-9880.41,4533.03,-25090.5
7.06134e+07,92.2686,2,2.6399,-5395.61,-18131.8,-23966.7
7.07566e+07,5.01583,1,2.43756,-45.7334,1083.88,-28460.7
0,5.03481,1,3.02977,0,0,0
0,5.06739,1,2.70246,0,0,0
7.08233e+07,130.081,0,2.49517,-13118,-4396.37,-5093.51
7.10694e+07,76.4951,0,2.49277,11685.2,-11302.1,-29126.7
7.1223e+07,83.794,0,2.82198,-2158.35,2544.98,-23005.4
7.13972e+07,131.864,2,2.78557,-9814.84,-25937.9,-26479.1
7.14563e+07,177.073,1,2.44958,-27662.3,20214.6,-13536.8
7.15412e+07,23.5685,2,2.58886,3229.32,787.633,-25186.4
7.16962e+07,166.791,1,2.55084,-9011.94,27097.6,-8038.4
7.19736e+07,53.3753,1,2.83707,-8665.42,-7153.29,-29121.7
7.20368e+07,180.135,2,2.68875,-20760.4,28569,-14952.6
7.25301e+07,28.6606,2,2.60519,-3433.75,-4981.78,-27802.1
7.2547e+07,74.2381,0,2.91804,8873.59,-6770.96,-17905.8
7.30562e+07,120.004,1,2.74466,17548.1,-14470.3,-17977.6
7.31928e+07,83.9667,2,3.05154,-5830.06,16560.6,-28611.6
7.42468e+07,132.997,1,3.02795,-17200.3,-4055.8,-7288.72
7.43855e+07,153.467,2,2.42377,-19428,-23880.9,-18248
7.45163e+07,4.72511,2,2.87377,944.074,-172.204,-28607.7
7.47288e+07,64.6436,2,2.90178,8155.2,-10106.4,-24680.8
7.48974e+07,19.2386,1,3.04736,-3995.44,562.062,-28176.8
7.49669e+07,33.3366,0,2.45272,-5981.88,-2319.61,-26057
7.50985e+07,55.2948,0,3.03846,8726.26,-6819.68,-25159.5
7.52145e+07,45.0505,0,2.91581,-2558.21,-8762.05,-26301.8
7.5815e+07,77.702,0,2.85141,-13930.3,-7244.39,-24525.8
7.64483e+07,150.912,0,2.72207,11504.1,-11545.7,-1488.46
7.66011e+07,0.76396,0,2.7497,222.771,-147.417,-28824.1
0,0.761054,0,2.66,0,0,0
7.68131e+07,3.39379,0,2.6999,602.103,-515.645,-28905.8
7.69175e+07,83.7861,2,2.80937,-11830.3,-8189.09,-18519.8
7.69636e+07,18.715,0,2.77451,2270.92,-125.195,-25564.1
7.71479e+07,9.77024,2,2.76782,-2017.33,190.203,-28207
7.73766e+07,52.9134,1,2.98475,8946.05,4477.86,-24045.2
7.76713e+07,54.2974,1,2.61898,4728.12,9328.03,-23968
7.799e+07,36.305,0,2.48638,203.191,2281.33,-21498.5
7.80866e+07,32.9986,2,2.66536,-7027.98,111.518,-28554.1
7.86189e+07,59.1593,2,3.00729,-3301.5,-7122,-19158.8
7.8662e+07,6.95751,1,2.41933,-1317.11,5.93344,-28058.1
7.88977e+07,6.99176,1,2.64402,-1475.03,522.011,-28657.8
7.93946e+07,117.954,1,2.38977,-10857,11967,-9757.56
7.95567e+07,87.7295,2,2.68651,10769.9,283.892,-13834.9
7.99657e+07,92.9346,2,2.79271,-12133.1,15250.4,-27366.2
8.00755e+07,1.71615,1,2.9139,-47.9079,446.587,-28861.1
8.02412e+07,4.04925,0,2.52508,561.361,738.778,-28862.1
8.02979e+07,21.1886,0,2.84467,1247.69,-3841.07,-26846
8.05803e+07,81.5011,2,2.45009,9615.13,-6652.77,-16130.9
8.05937e+07,18.9898,0,2.86251,1710.76,1092.53,-25336.7
8.0606e+07,69.6129,0,3.02046,-12382,2731.74,-21798.6
8.08138e+07,156.603,0,2.90815,-18382.4,-6303.98,-2389.25
8.09104e+07,5.47015,2,2.99219,350.686,-42.6694,-27735.1
8.1096e+07,6.12877,1,2.90232,-477.651,-1141.16,-28624.2
8.12084e+07,5.31851,0,2.4245,548.844,43.9633,-27803.2
8.12522e+07,104.819,0,3.00368,-10050.2,-13967.8,-15194.3
8.14376e+07,85.6636,0,2.80761,11142.3,-4864.04,-15457.6
8.15008e+07,6.99008,0,2.97684,497.935,-1152.16,-28059.7
8.17756e+07,155.795,0,2.69038,-6366.27,-23895.8,-7236.39
8.17992e+07,58.1245,1,2.85612,-10515.3,2012.98,-22864.1
8.20287e+07,63.2884,2,2.48797,5623.67,5994.25,-18347
8.21153e+07,14.365,2,2.7129,866.911,-1166.32,-26136
8.24186e+07,33.363,0,2.46842,6808.53,391.202,-26678.6
8.25166e+07,41.473,0,2.71911,-2830.74,-8240.37,-29146.5
8.28504e+07,7.11862,2,2.52988,786.158,-1327.03,-28555.2
8.30709e+07,11.1811,0,2.59496,934.435,1410.12,-27110
8.32134e+07,47.3217,2,2.92026,-1880.13,-5648.9,-20797.4
8.33346e+07,98.9544,0,2.76169,18618.7,294.837,-19315
8.35146e+07,102.44,2,2.37209,-14830.4,13780.8,-21123.5
8.35311e+07,90.2684,1,2.64435,-7462.94,11110.9,-15214.6
8.37409e+07,117.397,0,2.45158,10628.8,-14435.9,-11572.8
8.40833e+07,124.249,0,2.36322,-17474.9,14403.8,-15584.8
8.44758e+07,22.2246,2,2.83458,849.408,2806.82,-25222.8
8.45255e+07,12.6013,2,2.92147,-2085.58,-1349.79,-27715.9
8.48625e+07,28.4598,2,2.90132,-4207.49,-1317.75,-24694
8.49621e+07,95.1888,0,2.49662,-12791.4,-1457.93,-13400.7
8.5145e+07,63.2124,0,2.98465,10059,-6251.41,-22700.9
8.56299e+07,167.765,2,2.94739,19721.3,14007.3,-3310.92
8.59705e+07,65.0999,2,2.6151,-6641.24,-10768,-23215
8.62607e+07,122.569,1,2.5915,20960.3,10185.7,-17540.8
8.64588e+07,33.1102,1,2.8203,2366.35,3483.24,-23242.7
8.74245e+07,42.8528,0,2.57713,-7004.31,5447.92,-27286.9
8.74874e+07,13.1391,2,2.48487,1478.91,-2192.05,-27898.5
8.8126e+07,26.0223,2,2.4435,1489.64,-3389.72,-24703.3
8.82636e+07,47.23,2,2.755,-3152.36,-8673.55,-24863.3
8.83536e+07,9.84395,2,2.97956,481.663,-1778.17,-27775.5
8.85311e+07,74.1554,0,2.84742,-7013.22,9860.22,-19048.7
8.87395e+07,59.4691,1,2.66468,-877.179,4607.01,-17149.4
8.89104e+07,20.1368,0,2.48986,1915.12,3870.22,-28476.4
8.89715e+07,30.8876,1,2.45104,-36.5519,2900.29,-22943.7
8.90361e+07,59.7927,0,2.73123,-7025.98,-6470.96,-20651.5
8.94187e+07,7.08946,0,3.00971,888.288,286.268,-28248.1
8.95244e+07,37.4427,2,2.72331,979.457,-4751.3,-22564.3
8.96485e+07,113.246,0,2.79086,17891.1,-14582.9,-22689.8
8.97779e+07,11.3651,1,2.7532,-1516.87,1559.72,-27625.3
8.98211e+07,19.929,2,2.84925,1001.07,1987.92,-25327.1
8.98926e+07,90.9795,1,2.99285,-8205.59,-7652.98,-13403.1
9.01743e+07,58.3533,1,2.48753,545.529,12365.8,-27753.1
9.03272e+07,19.2626,2,2.44388,2281.41,466.467,-25508.8
9.04433e+07,160.938,1,2.55383,29426.9,15848.4,-22480
9.04783e+07,36.5211,2,2.87406,2535.44,-737.969,-21624.6
9.05393e+07,140.073,2,2.74851,5547.71,19738.7,-7698.35
9.08619e+07,85.2426,0,2.62132,7592.2,16390.3,-29093.4
9.09093e+07,20.9669,2,2.72793,876.845,-4337.48,-28169
0,20.8072,2,2.56319,0,0,0
9.09135e+07,61.2117,1,2.94225,-7193.85,400.648,-18148.8
9.10821e+07,46.5656,0,2.76996,9896.73,-350.232,-28436.6
9.11747e+07,96.8979,0,2.54592,17463,-707.564,-18014.9
9.14132e+07,97.3968,1,2.57974,-13015.3,11227.7,-17394.8
9.14394e+07,67.7475,0,2.9,6961.74,8652.65,-19862.9
9.14563e+07,109.854,2,2.90668,2826.87,-20456.8,-18431.1
9.17008e+07,15.5483,0,2.84592,1863.43,594.075,-26130.8
9.22448e+07,80.6814,0,2.67458,1562.61,-494.729,-28635.8
9.23005e+07,103.031,1,3.0545,9602.34,15771.9,-17599.5
9.26578e+07,131.659,0,2.68163,-15996.9,5609.53,-6897.75
9.27657e+07,36.7498,0,2.58596,5939.93,-3699.71,-25346.9
9.30067e+07,87.0114,0,2.6758,60.7794,3953.25,-19335.1
9.32812e+07,123.085,2,2.92211,1653.53,-4315.06,-3739.33
9.37722e+07,55.2791,1,2.93122,-11155.4,2085.1,-26041.3
9.38382e+07,22.743,2,2.66228,1253.22,-3345.35,-25537.6
9.40428e+07,64.4965,2,2.4888,-9680.62,-9750.18,-29321.2
9.40543e+07,96.1767,1,3.05967,-16392.8,11830.9,-29878.4
9.44691e+07,6.71686,0,2.79815,1106.94,820.523,-28259.8
9.51499e+07,164.553,0,2.91275,-4824.12,-28109,-9344.33
9.53004e+07,141.333,1,3.05305,2037.22,11061.1,-1435.06
9.58668e+07,100.132,0,2.53913,1915.58,-19980.6,-22084.2
9.59844e+07,97.311,2,2.68768,-5574.83,9695.65,-11833.5
9.61007e+07,24.356,1,2.91458,-1530.67,-2136.32,-24459.6
9.62795e+07,86.2088,1,2.65053,-15206.7,6283.8,-20893
9.628e+07,70.8709,1,2.88808,1052.08,14660.7,-25931.7
9.63801e+07,38.7523,0,3.01898,6117.29,-5487.85,-29098.4
9.64652e+07,53.6274,0,2.52777,-1061.75,-6788.84,-19813.4
9.64886e+07,76.522,1,2.40233,-15842.7,-3415.14,-27765.8
9.66329e+07,74.7959,2,2.78555,9905.62,6032.15,-18249
9.67566e+07,29.8582,2,2.63507,1245.6,5701.02,-26635.9
9.7054e+07,3.6775,0,3.06129,617.948,-393.332,-29292.6
9.70609e+07,17.7828,0,2.67501,-417.367,-3062.27,-26696.4
9.72275e+07,70.6401,1,2.94747,-9034.09,-9406.1,-21966.3
9.72913e+07,33.7336,1,2.67044,-4040.03,1134.01,-23020.7
9.77939e+07,16.6854,0,2.84649,3437.98,-838.317,-29651.4
9.821e+07,143.446,2,3.00226,-16180.6,-18192.8,-11077.5
9.83822e+07,26.8957,0,2.44516,5455.1,490.602,-26988.3
9.84263e+07,1.76661,1,2.60051,108.229,-105.312,-28502
9.84447e+07,28.0316,2,2.75082,5000.38,-3001.84,-27860.8
9.84468e+07,94.3243,1,2.60888,-7419.4,1121.81,-23491.9
9.84718e+07,40.8927,0,2.70933,5650.39,-6594.64,-29133.1
9.91121e+07,115.423,0,2.4988,21524.2,-11681.8,-29473.5
9.91895e+07,109.723,0,2.49973,-7444.42,21485.6,-24348.1
9.93329e+07,53.558,1,2.76196,-939.121,8002.41,-20860.6
9.93381e+07,44.9067,0,2.43934,9564.1,-11.5248,-29663.2
9.93854e+07,28.8098,0,2.41936,6128.26,-1001.61,-28572.2
9.93885e+07,260.608,2,2.7222,-10068.5,-23122.2,-9891.7
9.94214e+07,62.6469,2,2.89293,-10012.9,-3961.39,-21143.3
9.96717e+07,44.103,1,2.75065,-1013.19,9182.88,-27116.3
9.99577e+07,101.123,2,2.49308,9830.4,-17381.4,-21017.8
1.00123e+08,90.3499,0,2.719,-7473.01,-17474.5,-28065.9
1.00266e+08,96.7869,2,2.51773,5603.62,6309.65,-28122.3
1.00364e+08,24.9961,2,2.84587,-4884.77,89.9128,-26737.7
1.00535e+08,134.494,1,2.88361,5667.66,25443.8,-17800.2
1.00779e+08,151.899,1,2.57809,-162.277,28842.9,-14575
1.00995e+08,34.7664,2,2.61953,4175.79,4581.29,-25015.9
1.01032e+08,51.3477,0,2.70909,-2138.32,-6390.11,-20399.1
1.01421e+08,176.841,2,2.58617,20461.7,-9771.79,834.57
1.01807e+08,20.9822,0,2.49407,3471.5,-727.21,-26048.7
1.0185e+08,151.764,1,2.70237,9752.18,-14753.6,-2235.93
1.01879e+08,52.0798,0,3.05153,9776.71,1048.8,-23907.8
1.02054e+08,81.5066,0,2.45551,17107.3,1053.32,-26326.3
1.02103e+08,69.3714,2,2.53543,5331.22,-5882.18,-29268.6
1.02441e+08,27.3891,0,2.7351,3521.21,2308.68,-24781
1.03155e+08,203.833,0,2.81685,15758.6,-12951.2,8910.12
1.0357e+08,1.85825,2,2.56133,-309.518,8.12939,-28515.6
1.03617e+08,155.074,0,2.6396,24540.6,17556.8,-15955.5
1.03649e+08,61.9228,2,2.53494,-7931.61,9391.49,-24337.8
1.03769e+08,128.099,0,2.80281,776.344,26940.1,-27767.9
1.03795e+08,109.965,1,2.95638,-13708.3,340.054,-28403.1
1.03988e+08,26.6394,2,2.97984,-5376.98,-1720.67,-28649.1
1.04231e+08,28.7137,2,2.6023,-1058.64,-2012.33,-23168
1.0426e+08,189.497,0,2.65964,5386.76,12588,8738.53
1.04454e+08,47.9372,2,2.37486,6956.65,-33.4835,-21451.4
1.04915e+08,287.625,2,2.88545,1597.82,-19226,25132.2
1.0538e+08,56.7172,0,2.81025,4655.6,4217.5,-18629.9
1.05519e+08,221.474,0,2.81787,-226.468,17788.7,2096.17
1.05733e+08,32.8531,0,2.80951,-3858.05,-3226.97,-24116.3
1.05751e+08,85.127,0,2.79248,8177.8,-12240.1,-18529.9
1.05828e+08,7.96551,1,3.03066,-125.25,1751.94,-28772.9
1.06063e+08,94.1768,2,2.72194,11398.9,-7430.64,-14367.4
1.06157e+08,142.375,2,2.6967,7640.48,17307.2,-5944.48
1.0635e+08,11.4702,0,2.87378,1799.94,-1580.62,-28114.2
1.06373e+08,116.447,1,2.54709,-2838.92,-12583.1,-7903.55
1.06558e+08,45.4442,0,2.72346,6128.13,5794.46,-24147.6
1.06934e+08,51.3585,0,2.51996,10411.4,1728.92,-25912.2
1.07015e+08,127.343,1,2.61069,-10111.9,12840.2,-7419.3
1.07394e+08,21.5336,1,3.04751,1096.78,4001.01,-26867.2
1.07413e+08,80.6902,2,2.55286,-4920.48,-12821.9,-18575.2
1.0742e+08,21.9846,2,2.6472,-4660.21,-338.003,-28156.5
1.07567e+08,186.649,1,2.96702,-17181.7,22395.2,-1624.99
1.07641e+08,108.19,0,2.73664,-9713.48,11980.6,-12074.2
1.07696e+08,25.6802,2,2.61373,-1627.55,-5185.21,-27969.4
1.07739e+08,147.845,2,2.78827,14246.5,-3374.65,-1388.48
1.07763e+08,159.893,0,2.73115,22454.2,-5262.77,-4191.36
1.07783e+08,10.6785,2,2.67535,-1729.71,1447.94,-28920.9
1.07854e+08,110.222,1,2.5196,13947,-62.8682,-10185.1
1.08239e+08,32.1002,1,2.43622,-2479.82,-5120.41,-25152.2
1.08247e+08,40.2533,1,2.5909,-7732.13,3019.8,-26612
1.08347e+08,222.972,1,2.56998,23929.9,19573.1,6732.06
1.08388e+08,136.165,0,2.6017,6720.84,6775.76,-1696.85
1.0854e+08,68.6058,0,2.92431,4008.3,3938.25,-15553.9
1.08566e+08,15.7989,1,2.39149,204.858,3312.99,-27989.6
1.09611e+08,7.19313,0,2.58499,572.132,643.657,-27517.6
1.09614e+08,3.56664,1,2.96672,-366.372,340.954,-28186.3
1.10046e+08,7.26903,2,2.85938,77.8855,-1455.91,-28174.1
1.10462e+08,6.86746,1,2.81207,602.3,-134.371,-27543.2
1.10788e+08,21.5991,2,2.74624,-4169.41,1922.2,-28784.2
1.10992e+08,13.1361,2,2.79946,-2156.48,-1604.19,-27843.8
1.11204e+08,125.778,2,2.73147,-11992.8,-20757.3,-17353
1.1136e+08,14.4157,0,2.4689,-1314.6,-2730.03,-28560.2
1.11654e+08,8.81232,1,2.94982,-107.731,1752.61,-29687.6
1.11678e+08,42.9973,2,2.67284,-5525.06,-2088.45,-21897.3
1.12127e+08,81.4325,0,2.76098,12059.8,-11629.5,-24826.3
1.12492e+08,37.2181,2,2.495,-6701.17,-1998.76,-25107.1
1.12505e+08,75.0085,1,2.49638,-7738.56,8762.07,-18030.7
1.12744e+08,177.255,1,2.78607,-19411.8,9716.9,1536.01
1.12926e+08,137.372,1,2.71299,12977,-12142.3,-6032.76
1.13169e+08,142.845,2,2.9891,17972.6,-2299.13,-5024.02
1.13198e+08,159.182,2,2.77747,-29859,-9693.61,-16998.3
1.13334e+08,53.0218,2,2.86698,9377.34,3098.87,-23759
1.13536e+08,115.127,1,3.01703,12016.6,-10529.6,-10812.8
1.13988e+08,22.1355,0,2.88055,2539.59,2830.65,-26030
1.14023e+08,29.1969,2,2.39158,3744.83,-4565.74,-26952.3
1.14884e+08,73.7634,0,2.71756,6602.77,14089.6,-29620.9
1.15202e+08,2.60701,2,2.82488,252.163,-223.521,-28396.2
0,2.83383,1,2.64583,0,0,0
1.15261e+08,39.2794,1,2.45815,-6145.66,-3626.61,-24582.8
1.15377e+08,6.3085,2,2.54086,1140.28,-769.975,-28729.1
1.1563e+08,159.885,2,2.53213,-9732.81,24835.9,-8111.39
1.15698e+08,7.47332,1,2.83819,-452.916,-403.413,-27372.1
1.15735e+08,43.2325,1,2.84411,-4574.65,-6298.26,-24186.4
1.15768e+08,12.4428,1,2.58732,1076.88,2349.09,-28476.3
1.16002e+08,7.32213,0,2.36374,752.721,700.919,-27614.9
1.16189e+08,25.98,2,3.04589,1081.18,2953.33,-24516.3
1.16208e+08,33.5024,1,2.57424,-3894.3,-5440.5,-26589.2
1.16413e+08,35.182,0,2.70303,6292.19,210.277,-24763.4
1.1667e+08,116.534,2,2.62757,-10942.2,-20531,-20568.3
1.16845e+08,98.6644,2,2.73222,13451.8,-14262,-21772.7
1.16922e+08,156.394,1,2.70866,8054.63,27677.4,-12707.7
1.17337e+08,93.7798,0,2.6244,4769.17,2307.98,-24785.2
1.17436e+08,99.6893,1,2.44129,-5618.85,7292.86,-9826.93
1.17913e+08,164.296,0,2.78417,17210.3,-29641.3,-23773.2
1.17944e+08,35.9914,2,2.86693,-4627.91,-6095.62,-29097.3
1.18154e+08,49.3922,0,2.87039,5334.12,-4353.22,-22051.8
1.18317e+08,118.916,2,2.65085,-17902.7,15906.1,-21376.2
1.18584e+08,86.1813,2,2.85886,-14369.8,-9874.99,-23722.3
1.18691e+08,92.0069,1,2.51195,1844.07,9073.98,-11711.7
1.18796e+08,24.0613,2,2.56437,2915.91,-3521.13,-26470.2
1.18974e+08,4.14345,1,2.87648,-459.44,848.102,-29021.5
1.18982e+08,97.8798,2,2.53438,-17653.9,-9709.69,-23738.3
1.19069e+08,60.4623,0,2.42836,3682.77,2528.02,-16818.3
1.19157e+08,198.992,0,2.55001,-8323.57,12910,10274
1.19859e+08,7.55135,1,2.72017,-389.505,-625.446,-27443.3
1.19905e+08,15.5639,1,2.78031,1207.99,3081.74,-29396.3
1.20289e+08,131.361,0,2.596,24713.1,9245.93,-19974.8
1.20318e+08,66.469,0,2.78028,11174.9,4797.72,-21767.8
1.20731e+08,168.235,0,3.05629,-22331.4,-400.417,-1654.04
1.21344e+08,108.277,2,2.84455,22679.1,953.122,-27345.7
1.21426e+08,35.682,2,2.59415,-6548.35,-3332.93,-26749.6
1.21646e+08,16.9731,0,2.82606,-1183.54,2534.94,-26656.9
1.21981e+08,116.121,1,2.8186,-14736.9,16037.4,-17588.9
1.21983e+08,46.1235,1,2.39821,-6993.43,3388.62,-22803.7
1.21987e+08,39.4853,1,2.73868,-424.05,8086.81,-26591.8
1.2228e+08,273.562,0,2.53398,11366.9,648.272,25369.1
1.22358e+08,72.6164,1,2.85263,4542.13,6757.67,-20048.5
1.22421e+08,14.4373,2,2.70366,-1403.81,-2504.84,-27569
1.22639e+08,97.0324,1,2.8893,441.283,19410.6,-22363.4
1.22957e+08,81.0122,2,2.58842,8887.74,10335.5,-18569
1.23358e+08,9.44942,0,2.88351,725.186,-1832.64,-28253.9
1.24177e+08,141.727,2,2.41861,-21490.9,20870.6,-29779.7
1.24273e+08,34.2413,2,2.60421,798.66,-6274.66,-25188.7
1.24699e+08,84.1449,0,2.40462,4990.62,-1172.93,-11750.3
1.24719e+08,80.9065,0,2.77896,12352,-2814.97,-17341.9
1.24793e+08,68.3889,1,2.84932,-4963.19,6666.19,-21118.8
1.24942e+08,102.793,1,2.92324,-12626.2,13313,-17375.9
1.2541e+08,81.891,0,3.02357,14912,-5874.03,-22532.2
1.25429e+08,136.334,0,2.96338,15864.9,-19453.3,-15050.5
1.25507e+08,107.664,1,2.49539,-7659.5,-15964.3,-14548.4
1.2551e+08,13.8866,2,2.95957,-1304.23,2572.56,-28937
1.25513e+08,207.479,2,2.80001,-22388.8,19773,2971.07
1.25515e+08,18.9423,1,2.56389,-989.968,-1860.78,-25422.6
1.25553e+08,82.3444,1,2.9911,-2085.72,5004.37,-12431.5
1.25604e+08,81.1651,0,2.45604,16205.1,2144.9,-23260.5
1.25879e+08,180.082,0,2.8651,2207.53,26554.5,-19320.1
1.26015e+08,62.5759,2,2.91021,-7286.82,-9858.04,-23839.1
1.26135e+08,169.419,0,2.51181,18722.5,5686.1,-3654.92
1.26237e+08,81.5795,1,2.38747,3842.8,16861.6,-27594
1.26244e+08,38.9058,2,2.81661,-7278.19,-3608.89,-27199.3
1.26471e+08,9.76646,1,2.81026,-1920.92,376.912,-28034.9
1.26536e+08,7.73284,0,2.98148,1425.74,714.961,-28247.8
1.26637e+08,159.695,2,2.86091,-4222.98,-5835.86,-23389.3
1.26701e+08,8.91225,2,2.93075,-1435.38,-850.957,-27820.4
1.26804e+08,11.417,2,2.88161,412.688,-2417.86,-28487.4
1.27343e+08,148.41,0,2.81957,6121.5,-4372.53,1475.73
1.27474e+08,123.653,1,2.64977,-25869.7,-3699.43,-29512.3
1.27481e+08,126.885,1,2.67763,9108.43,25207.4,-27875.1
1.27967e+08,37.0145,1,2.51023,-3983.42,6370.02,-26355.5
1.28146e+08,24.3459,1,2.67654,2272.1,2089.95,-24683.1
1.28436e+08,39.2036,1,2.55224,-4927.85,-2877.8,-22804.8
1.29064e+08,73.899,0,2.84734,-2447.35,8814.78,-16275.2
1.29066e+08,199.104,1,2.85413,-8473.14,-1878.61,12076.8
1.29107e+08,89.4605,1,2.56596,-16896.5,-1570.11,-20390.8
1.29281e+08,18.0524,0,2.57682,198.247,-3802.15,-29357.1
1.29719e+08,23.2037,0,2.46969,-3060.57,-3437.23,-27242.4
1.30038e+08,44.2705,1,2.95216,-8535.98,2247.34,-25727.2
1.30076e+08,26.694,1,2.6769,156.309,-3119.29,-24197.4
1.30318e+08,109.495,1,2.6795,8311.36,-21300.1,-26182.1
1.30566e+08,9.63699,1,2.37463,-1121.78,1211.09,-27515.7
1.30793e+08,12.9399,2,2.59945,2123.4,-1768.85,-28545.1
1.31085e+08,0.134341,1,3.08545,-64.5438,60.486,-28784.7
0,0.135753,1,2.42398,0,0,0
0,0.163289,1,2.81329,0,0,0
0,0.131252,1,2.96776,0,0,0
0,0.151762,1,2.60907,0,0,0
0,0.130157,1,2.37455,0,0,0
0,0.181758,1,3.22048,0,0,0
0,0.134833,1,3.52797,0,0,0
0,0.160825,1,2.09718,0,0,0
0,0.238764,1,3.45071,0,0,0
1.31099e+08,8.3046,1,2.9156,-107.76,469.756,-27126
1.311e+08,91.761,0,2.93225,10823.7,15558.3,-25114
1.31232e+08,4.21546,0,2.39089,-79.3768,747.689,-28304.9
1.31289e+08,140.014,1,2.94919,-24465.3,-993.99,-12521.7
1.31306e+08,91.9136,2,2.48836,-8152.73,-12528.2,-16303.3
1.31385e+08,97.2627,0,2.83623,2651.84,19973.8,-25120.2
1.3143e+08,43.2603,0,2.885,9090.13,-1185.43,-29631.2
1.31633e+08,162.509,0,2.74102,-8012,13585.8,1508.12
1.3164e+08,62.0341,2,2.72069,2510.29,-12515.9,-25813.6
1.31675e+08,34.817,1,2.38602,2263.32,2672.8,-22338.4
1.32079e+08,120.921,1,2.99016,25266.3,-77.8158,-27046.8
1.32693e+08,57.4151,1,2.63889,703.783,5455.56,-18002.8
1.32769e+08,92.3997,2,2.74569,17514.1,-2469.41,-20797.4
1.32838e+08,176.88,2,2.83239,29045.2,-9137.33,-7473.8
1.32925e+08,74.4579,0,2.96011,10588,-10996,-25245
1.32966e+08,40.0186,1,2.90421,-5211.3,-1860.69,-22459.8
1.33034e+08,40.12,1,2.88578,7538.67,3722.61,-29763.2
1.33686e+08,4.62288,0,2.59575,-622.994,-360.033,-28228.2
1.33816e+08,20.2669,1,3.04366,1905.31,1115.02,-25186.9
1.34004e+08,14.9317,2,2.99273,-2352.08,1694.43,-27616
1.34374e+08,2.75753,1,2.84978,-326.534,-109.823,-28329.6
0,2.65739,2,2.96694,0,0,0
1.34713e+08,81.6023,0,2.79766,-8088.44,8490.16,-16345.7
1.34826e+08,55.1906,0,2.37735,1468.46,8181.16,-20575.7
1.34847e+08,124.662,1,2.86085,12790,2379.51,-6112.63
1.34895e+08,137.357,1,2.43253,-22357.5,7361.67,-11728.2
1.34961e+08,110.743,2,2.9149,-17287,301.672,-13266.7
1.3512e+08,4.74546,1,2.39325,-190.527,506.581,-27927
1.35209e+08,10.2397,2,2.36464,-373.198,-1754.82,-27489.2
1.35243e+08,236.704,0,2.80949,6429.68,21179.4,15754.2
1.35563e+08,2.32426,1,2.94665,-312.55,465.236,-28644.3
1.35949e+08,41.2449,1,2.87774,-8662.93,-782.833,-29525.9
1.35974e+08,21.6265,1,2.87959,-4075.29,1920.76,-27821.6
1.36009e+08,121.857,2,2.69737,-7678.38,-832.208,-4310.12
1.36163e+08,61.9282,2,2.77789,11035.9,-7011.19,-28544.1
1.364e+08,115.981,1,2.45046,5280.67,23924.2,-26538.7
1.36853e+08,111.165,2,2.66422,-21002.6,4494.29,-19340
1.37365e+08,33.0455,2,2.97818,-2429.88,-6478.53,-27510.4
1.37636e+08,54.4773,0,2.46244,7214.07,-3256.96,-20359.6
1.3765e+08,87.6936,0,2.78907,13711,-1469.78,-16471.9
1.37757e+08,130.215,0,2.9438,3255.97,-10642.4,-3862.39
1.37903e+08,153.439,0,3.00002,17847.3,2046.11,-2095.47
1.3803e+08,26.5975,2,2.89654,426.021,-4858.01,-25970
1.3815e+08,83.0114,2,3.05832,-12432.2,2229.58,-16830
1.38154e+08,27.531,0,2.74011,-1112.32,-3824.67,-24618.6
1.38235e+08,17.8069,1,2.66396,-2547.93,1792.9,-26589.6
1.38354e+08,115.516,0,2.42417,4981.82,21467.9,-18201
1.38381e+08,4.81099,1,2.84477,-1073.03,43.4608,-28666.8
1.38392e+08,205.813,2,2.60667,-21644.4,4539.81,8586.81
1.38414e+08,149.514,1,2.48393,-13338.7,-19834.5,-15936.8
1.38488e+08,34.414,2,2.57577,-5455.86,4619.29,-27398.1
1.38559e+08,4.10586,1,2.5167,-339.683,218.525,-28023.2
1.38668e+08,295.25,0,2.79636,-29438.9,25896.9,773.604
1.39426e+08,165.055,2,2.82623,2639.21,-3712.11,341.3
1.39478e+08,9.74767,1,2.45581,1184.52,1550.52,-27993.8
1.39582e+08,89.9571,1,3.0513,638.77,9969.31,-12821.3
1.39599e+08,5.37209,0,2.42891,616.41,1041.05,-28691.4
0,5.48243,0,2.4235,0,0,0
1.39935e+08,66.5138,0,2.79887,3306.38,12145.5,-22609.4
1.39942e+08,16.0207,2,2.97463,1837.35,-1927.37,-26728
1.40233e+08,57.3167,0,2.5416,8131.37,-3979.74,-20719.1
1.40471e+08,147.035,2,2.84545,-12374.2,-26498.3,-18750
1.40676e+08,159.47,2,2.54595,12721.4,-27289.9,-17139.2
1.41066e+08,2.03332,1,2.63363,-422.012,261.346,-29054.8
1.41211e+08,187.576,2,2.56782,22875.7,2375.89,3396.44
1.41444e+08,165.144,1,2.59757,22265.1,22041.7,-13499.5
1.41611e+08,37.0436,2,2.99405,1618.98,3239.87,-22002.5
1.41646e+08,52.8357,1,2.52182,-7241.13,6269.04,-22907.8
1.4185e+08,10.5256,1,2.44126,1107.97,264.885,-26902
1.42038e+08,123.12,2,2.97723,15660.8,-9806.51,-10785.8
1.42503e+08,107.998,1,2.65696,12079.6,-6619,-10709.3
1.42581e+08,25.0634,2,2.53669,-2.37853,4482.95,-26099.2
1.42588e+08,11.1054,0,2.90925,1800.07,-91.8152,-27219.2
1.42661e+08,3.65454,1,3.03059,-519.267,578.429,-28504.4
1.43143e+08,14.1876,0,2.56562,1942.02,-2103.92,-27728.4
1.43784e+08,25.7299,2,2.811,2835.5,90.4058,-24258.4
1.43785e+08,260.502,1,2.78518,2488.95,-261.294,-27887.6
1.43792e+08,124.159,1,2.47168,-17682.5,16711.6,-18707.6
1.44068e+08,7.65296,2,2.63331,-1265.87,-26.5838,-27768.9
1.44506e+08,15.6278,1,2.60526,228.866,3247.71,-27963.3
1.44681e+08,52.1836,0,2.44041,-7324.8,2968.67,-21172.1
1.44957e+08,38.7045,2,2.75214,6140.22,-592.536,-23505.5
1.4502e+08,14.2794,1,2.47526,-123.985,925.578,-25947.1
1.45262e+08,132.738,2,2.7427,20479.2,4561.8,-10407.6
1.45579e+08,1.57737,2,2.97921,269.963,-241.895,-28784.1
1.45768e+08,10.7876,2,2.87011,-430.253,-2273.87,-28289.4
0,10.707,2,2.44795,0,0,0
1.45868e+08,13.1619,0,2.84872,-457.715,-896.95,-26272.9
1.45977e+08,139.748,0,2.73853,-2989.33,-26494.4,-16380.3
1.46012e+08,49.5505,0,2.77209,-4667.18,-8491.58,-25093.3
1.46222e+08,29.894,1,2.37781,-6315.35,580.265,-27965.9
1.46366e+08,99.1566,0,2.58891,-12962.3,-5956.56,-13538.4
1.46937e+08,12.5998,2,2.5862,-1717.84,699.034,-26903.3
1.47184e+08,98.7909,2,2.93845,2151.84,17984.3,-18861
1.47302e+08,52.9518,0,3.03774,848.129,3439.49,-18295.2
1.47373e+08,67.4017,2,2.50491,-11220.6,-7586.35,-24160.9
1.47374e+08,93.2629,2,2.97,6104.16,-5480.57,-23955.3
1.47759e+08,177.982,2,2.6829,14411.5,11057.9,-27064.8
1.4815e+08,138.084,1,2.50279,22465.8,-15170.8,-18141.3
1.48176e+08,37.7199,1,2.3898,-2542.46,4104.69,-28570
1.48263e+08,20.9138,2,2.67715,-3303.86,-3016.55,-28163.4
1.48408e+08,44.4453,2,2.87494,5718.91,-4894.4,-23240.5
1.48746e+08,23.7652,2,2.55129,-34.8839,-4500.14,-26442.5
1.48888e+08,47.9141,2,2.9818,5783.28,790.708,-20701.4
1.49301e+08,66.6427,1,2.7041,13753.7,-838.231,-26351.6
1.49785e+08,125.869,0,2.84006,988.122,3390.38,-29133
1.49806e+08,56.5944,2,2.84768,-1445.09,-8136.09,-20187.4
1.49874e+08,98.8655,2,2.56194,-6113.37,-20061.3,-29561.9
1.50043e+08,44.9222,0,2.57136,3003.53,-1404.47,-19918.3
1.50226e+08,18.1407,0,3.03653,2024.7,3317.27,-28842.7
1.50264e+08,139.385,2,2.83658,1990.14,-4648.2,-18991.7
1.50324e+08,41.2092,2,2.93346,-3027.76,-6966.71,-24506.4
1.50386e+08,117.959,2,2.45522,-19577.8,-14829.7,-23980.6
1.5044e+08,0.397076,0,4.12918,39.7644,-105.099,-28794.5
0,0.400043,0,3.18693,0,0,0
0,0.399609,0,2.53082,0,0,0
0,0.502162,0,3.58217,0,0,0
0,0.427048,0,4.01723,0,0,0
0,0.452224,0,2.70393,0,0,0
0,0.400375,0,2.71653,0,0,0
0,0.457298,0,3.41751,0,0,0
0,0.401691,0,2.88713,0,0,0
0,0.409232,0,2.92849,0,0,0
0,0.398181,0,2.6129,0,0,0
0,0.401244,0,2.72037,0,0,0
1.50618e+08,99.5356,1,2.69201,1983.78,18890.2,-19773
1.50949e+08,1.27513,2,2.4117,-26.9801,-50.2019,-28572.5
0,1.14193,2,2.95338,0,0,0
1.51078e+08,15.6885,2,2.37666,-2987.26,-1255.54,-27751.2
1.51623e+08,9.44661,0,2.41905,-28.2521,2004.32,-28973.9
1.51731e+08,179.498,1,2.57547,-27997.7,2638.39,-3314.96
1.51957e+08,64.5747,0,2.94669,7378.27,-9592.35,-22605
1.52003e+08,77.2875,0,2.99791,11445.2,2347.48,-17919.1
1.52217e+08,3.98025,1,2.70582,631.445,576.343,-28762
1.52437e+08,70.0777,2,2.96301,-4842.81,-4085.89,-15520.6
1.52654e+08,76.472,0,2.84452,15927.1,2889.78,-28462
1.52892e+08,70.3561,1,3.01932,2896.21,11792.8,-20346.7
1.53537e+08,20.5388,1,2.39929,2572.68,3521.21,-29412
1.53557e+08,146.607,2,2.5919,17457.6,-24369.6,-20870.2
1.53804e+08,112,2,2.637,-14171.1,-6644.94,-22284.9
1.53829e+08,13.9619,2,2.75294,-1980.69,-152.915,-26587.8
1.53967e+08,24.1653,2,2.5641,4533.02,1215.86,-26934.7
1.54009e+08,62.374,2,2.91934,-9335.79,-3921.95,-20455.3
1.54139e+08,15.9778,0,2.78256,1275.11,-1572.35,-26078.7
1.54251e+08,17.9658,2,2.40192,-991.173,-949.767,-25240.5
1.5426e+08,60.016,0,2.49687,1222.64,551.379,-17465.5
1.54349e+08,13.5886,2,2.96984,-2667.2,399.432,-27773.1
1.54472e+08,304.514,2,2.37471,10900.9,2856.2,27068.6
1.54752e+08,32.9891,2,2.74439,-3731.3,-3385.75,-23935.2
1.55064e+08,58.6058,2,2.37845,5549.03,10050.5,-24338.2
1.5569e+08,111.47,0,2.66933,-16658,6850.01,-27807.6
1.56071e+08,181.882,0,2.86699,-21760.2,-16885.1,-2418.9
1.56318e+08,144.892,1,2.78343,9713.12,10155.9,-1783.58
1.56451e+08,10.1183,2,2.58799,-1054.7,-1992.55,-28991
1.56498e+08,98.9134,2,2.67856,-7035.2,-14788.8,-15782.1
1.56521e+08,112.604,0,2.78202,21018.1,-3150.64,-18183.7
1.56625e+08,22.777,2,2.50058,1045.02,-3740.98,-25899
1.56666e+08,164.709,2,2.91892,2406.36,-7404.04,4872.42
1.56752e+08,104.944,1,2.56053,1590.65,-13538.9,-11382.6
1.57002e+08,156.453,0,2.81662,8664.33,-3517.71,2729.4
1.57095e+08,245.654,1,2.56548,-22188.1,19085.1,14065.6
1.57485e+08,83.1963,0,2.37172,-11849.1,-3681.12,-16378.9
1.57556e+08,56.0877,2,2.40506,-1028.56,-11877,-29549.3
1.58003e+08,142.262,2,2.93682,11392.8,7951.92,-2428.06
1.58109e+08,5.03806,1,2.37905,348.895,-878.822,-28451.8
1.58163e+08,117.311,1,2.92381,-13013.8,-15791.8,-15147.1
1.58634e+08,89.1365,2,2.8649,1950.25,-16372.9,-19807.4
1.59e+08,52.43,2,2.77092,5410.97,-6791.52,-21936.7
1.59441e+08,120.163,2,2.91169,-18636,-17018,-26587.7
1.5993e+08,37.5129,1,2.61179,-554.057,5558.01,-23121.8
1.60053e+08,23.7264,0,2.87163,1028.7,-3395.09,-25299.8
1.60101e+08,146.108,0,2.66184,11997.6,18265.2,-7071.46
1.60171e+08,99.7008,2,2.8634,13973,-15108.8,-24643.2
1.60613e+08,29.4359,0,2.88414,5256.67,3054.09,-27228.6
1.60863e+08,19.6333,0,2.52406,3988.8,-1002.75,-29982.2
1.60953e+08,25.7807,0,2.70516,429.685,3943.24,-25082.5
1.60996e+08,16.1833,2,2.79969,-2742.44,-915.952,-26927
1.61074e+08,40.7239,0,2.69669,-5261.24,-6664.68,-29807.5
1.61099e+08,120.907,1,2.62588,-10540.5,11522.4,-8584.27
1.61163e+08,3.52224,2,2.68597,-805.913,-132.451,-28738.6
1.61194e+08,20.4967,2,2.76157,-3325.13,775.665,-26126.3
1.61314e+08,9.23764,2,2.58931,382.272,-898.815,-27088.2
1.61373e+08,31.5874,0,2.97341,6327.09,-2187.38,-29326.3
1.61629e+08,162.464,1,3.02659,18341.5,-3169.62,-356.79
1.61728e+08,121.621,0,2.48549,12066.4,-19172.2,-23417
1.61783e+08,124.991,2,3.00203,-19819.6,-482.24,-11670.7
1.62572e+08,32.0213,1,2.54016,-3933.01,-1224.39,-23425.4
1.62756e+08,4.54794,2,2.46472,-136.104,-482.362,-27941.5
1.62899e+08,73.3144,1,3.02702,10290.9,11441.2,-29507.8
1.63123e+08,136.311,2,2.6452,9896.01,4492.02,-2232.25
1.63361e+08,105.652,0,2.38682,19314.4,-8611.65,-21797.8
1.63399e+08,8.11204,2,2.71111,-339.333,-1729.89,-29239.6
1.63541e+08,127.924,2,2.91022,-15769.2,-8441.86,-8782.35
1.63744e+08,35.4796,2,3.02115,-4034.91,-5517.51,-25690.1
1.63877e+08,275.531,1,2.71131,14823.1,24524.9,21658.1
1.64387e+08,26.4306,0,2.47114,4263.22,3714.7,-28358.3
1.6441e+08,30.265,2,2.75613,1714.73,-3431.82,-23690.3
1.64426e+08,150.525,0,2.79606,25343.4,8658.94,-11776.6
1.64631e+08,17.1398,1,2.84486,-593.174,3655.37,-28569
1.64697e+08,84.4761,1,2.80235,1576.25,4537.88,-27902.8
1.64986e+08,76.2425,1,2.95071,-13233.9,5457.8,-21511.7
1.65086e+08,90.5487,1,2.84792,11515.9,8077.41,-16029.5
1.6516e+08,38.9126,0,2.41922,-1175.8,5154.25,-22510.8
1.65164e+08,23.1922,0,2.47547,4241.23,2230.53,-27378.8
1.65245e+08,98.2972,1,2.91702,8440.58,3383.95,-10319.2
1.65556e+08,4.22681,0,2.8334,650.763,-638.628,-29182.2
1.65669e+08,20.5084,1,2.61938,4057.41,1365.23,-28314.4
1.65793e+08,127.266,1,2.57124,14608.6,14674.1,-11663.2
1.66042e+08,28.5109,2,2.42984,-3708.85,-423.565,-24032.2
1.66058e+08,158.195,0,2.62545,28140.3,3961.58,-11162.2
1.66499e+08,187.483,1,2.67853,2621.2,10121.7,9278.64
1.66529e+08,49.6419,1,2.42803,3209.23,3482.31,-19470.6
1.67081e+08,104.164,1,2.68262,-20504.2,-4942.36,-22542.5
1.67222e+08,25.9199,0,2.68235,5393.22,-1006.04,-27922.5
1.67352e+08,174.845,1,2.87103,4673.83,-17255.2,3226.01
1.67369e+08,231.46,2,2.42857,23883.9,-18334.5,9760.08
1.67467e+08,18.0684,0,2.3675,3827.26,-662.671,-28395.5
1.67489e+08,15.2605,1,3.04504,-2182.51,1065.83,-26646.4
1.67731e+08,91.4639,0,2.63035,8908.14,3526.17,-12034.3
1.68373e+08,138.174,2,2.82425,8164.97,18927.4,-8442.13
1.68698e+08,75.6293,0,2.85545,3583.41,-12783.3,-20016.7
1.68778e+08,130.709,0,2.84189,8171.7,-14737.3,-7133.22
1.69057e+08,45.3519,1,2.70079,4551,5012.73,-22065.6
1.69677e+08,70.3039,2,2.66077,7980.14,-9487.59,-20609.8
1.7011e+08,165.287,0,2.99597,3113.63,25245.1,-5280.26
1.7013e+08,40.0944,1,2.46652,3366.57,3429.31,-21818.1
1.70415e+08,31.0427,2,2.4934,-6458.57,996.863,-27836.9
1.70531e+08,24.9787,2,2.59972,-3281.62,1011.59,-24789
1.70643e+08,18.7328,1,2.80886,-3595.32,1466.81,-27728.8
1.70724e+08,68.6275,0,2.92247,-9196.97,10950.8,-27313
1.70833e+08,97.2131,1,2.81468,-9713.08,-8232.37,-12838.5
1.70876e+08,46.6465,1,2.65722,5721.68,2361.28,-21184.7
1.71206e+08,32.983,0,2.84874,-4682.86,-4622.56,-26732.1
1.71629e+08,29.9397,2,2.39051,3102.69,-2486.5,-23862
1.71661e+08,20.2756,2,2.44419,730.134,-3678.7,-26618.1
1.71696e+08,62.7602,2,2.91147,-11320.9,3789.59,-23164.8
1.71749e+08,8.37071,1,2.36777,-1781.45,-137.084,-28384
1.71852e+08,185.442,0,2.87614,23551.4,26305.9,-12208.3
1.71939e+08,78.2897,0,2.67635,6244.2,3108.07,-13840.8
1.7198e+08,23.9428,0,2.49854,5081.81,-645.567,-28182.1
1.72002e+08,16.2484,1,2.62704,-3006.49,1138.65,-27412.5
1.72003e+08,19.4308,1,2.85282,-4134.36,-356.644,-28661.4
1.72477e+08,73.3312,2,3.05428,-11728.7,-8958.3,-24281
1.72566e+08,21.6373,2,2.71837,-2309.52,-3931.74,-27872.8
1.72699e+08,77.6516,0,3.04423,3719.02,1150.34,-13015.5
1.73435e+08,11.6339,0,2.83919,2222.59,1098.34,-29384.2
1.73595e+08,98.6899,0,2.51971,14294.7,-11667.9,-18945.6
1.7406e+08,53.7848,2,2.4414,-4202.74,-4424.91,-19168.4
1.74141e+08,64.9452,0,2.85845,7509.88,8029.22,-20675.1
1.74271e+08,0.711804,2,2.63417,-37.8718,-137.236,-28675.8
0,0.711186,2,2.61449,0,0,0
0,0.710887,2,2.72252,0,0,0
1.74465e+08,59.6126,1,2.89656,-5977.9,6060.36,-19577.6
1.74519e+08,118.023,0,2.82079,9486.09,21976.6,-28608.1
1.75224e+08,130.272,1,3.00362,11370.4,17398.8,-11062.6
1.75469e+08,40.4909,0,2.48915,4770.57,2002.35,-23129.6
1.75632e+08,129.679,2,2.58755,16410.6,-14501.4,-12346.4
1.75801e+08,23.3945,2,2.76181,-2100.76,4421.58,-28395.8
1.77005e+08,32.3646,1,2.9435,-1643.57,6012.73,-25926
0,32.3287,1,2.73658,0,0,0
1.77367e+08,71.9786,0,2.78811,13159.4,-2657.08,-21614.6
1.77574e+08,34.7731,2,2.50975,-3110.49,-2093.38,-22463.9
1.77781e+08,24.639,2,2.66838,-1561.78,-1826.35,-24159.8
1.77824e+08,90.2202,1,3.02101,-7669.8,6321.33,-21510.1
1.77919e+08,47.5731,1,2.3701,-6481.56,-179.985,-21079.5
1.78131e+08,169.014,0,2.68853,-1339.76,15885.1,3044.73
1.78546e+08,14.452,1,2.55883,2394.35,1953.09,-28986.8
1.78562e+08,99.9907,0,2.93223,14386.4,8137.66,-16239.3
1.7894e+08,45.3849,2,2.57216,-1723.78,-9544.88,-28904.3
1.79116e+08,169.907,2,2.51925,13706.1,-18682.9,-1339.92
1.79207e+08,167.131,2,2.54914,-16730.7,-25465.7,-10830.4
1.79733e+08,128.101,2,2.40599,22107.3,-9498.99,-16384
1.80075e+08,171.112,1,2.72719,-10125.9,16635.7,-24704.3
1.80215e+08,72.98,1,2.54197,4032.39,7305.51,-16375.1
1.803e+08,13.203,0,2.80667,1915.92,-421.083,-26763.4
1.80569e+08,22.9284,1,2.87252,-2695.57,-3792.05,-27661.8
1.80947e+08,71.0609,2,2.58087,-1695.86,-4333.39,-15106.5
1.81054e+08,15.0821,2,2.981,926.945,-1045.93,-25954.5
1.81477e+08,71.6745,0,2.71655,2845.64,13463.3,-22533.6
1.81518e+08,39.5626,0,2.99299,-3868.51,-5189.62,-23712.2
1.81615e+08,93.7924,0,2.37465,-6141.05,15213.3,-17656.6
1.81651e+08,22.4704,0,2.69334,-1091.56,-4579.31,-28236.3
1.81657e+08,143.264,2,2.83117,-1404.9,3019.75,-27383.7
1.81753e+08,290.574,2,2.84593,-16160.6,-9782.26,29273.4
1.82253e+08,190.131,2,2.75801,-19896.9,-956.799,5878.18
1.82506e+08,44.3192,0,2.98031,-2366.63,7240.02,-23544
1.82798e+08,116.018,0,2.83935,-21441,10713,-24602.6
1.83225e+08,71.4899,0,2.40983,11656.3,-6676.05,-21691
1.83334e+08,47.1099,2,2.37108,2603.33,-6701.94,-21874.3
1.83924e+08,142.25,0,2.96041,8939.64,5344.18,-841.751
1.83987e+08,66.5027,2,2.96933,958.613,11020.4,-20392.8
1.84454e+08,152.229,0,2.58266,15177.4,-10281.9,-3812.43
1.84496e+08,27.5689,0,2.94162,1411.08,4130.69,-24983.6
1.84513e+08,63.9111,1,2.5125,-4067.02,-970.42,-16885.7
1.84568e+08,97.5248,2,3.00327,6119.08,14667.8,-16064.9
1.84793e+08,76.4322,1,2.50377,-633.469,-7523.51,-22911.8
1.84964e+08,183.772,1,2.54288,27206,24332.5,-15531.5
1.85419e+08,95.6064,2,2.84519,-15779,-12533.7,-27427.6
1.85859e+08,36.5478,0,2.71713,5215.79,2029.43,-23428.4
1.86242e+08,130.752,0,2.80423,16090.9,-17292.1,-14633.5
1.86297e+08,74.3312,2,2.53408,-10229.9,-12023.3,-27718.8
1.86373e+08,13.2721,1,2.99026,-2645.79,-378.526,-27844.8
1.8645e+08,35.928,1,2.73895,3712.1,5567.8,-25220.7
1.86632e+08,52.6763,1,2.97748,-3598.48,-968.612,-18430.5
1.86669e+08,127.866,1,2.77293,-20951.7,8182.94,-14260
1.86782e+08,61.2205,2,2.42486,11649.2,-4021,-24898.1
1.86932e+08,9.17841,0,2.81745,1693.61,-1007.79,-29381.6
1.87206e+08,92.4816,2,2.82898,-5182.65,-18140.1,-23717.9
1.87611e+08,22.7316,1,2.60954,2977.11,2755.97,-26200.8
1.87953e+08,35.828,1,2.52583,-7324.3,-30.1911,-26626.1
1.88032e+08,42.4326,2,2.36923,-6242.92,-5168.18,-24754.9
1.8828e+08,68.3621,1,2.61447,-7353.99,3338.46,-16803.8
1.88295e+08,181.039,1,2.58998,-22910.8,24327.2,-10107.1
1.88427e+08,287.718,0,2.8769,9593.42,-7192.06,20860.8
1.88576e+08,13.9692,2,3.0035,1741.01,-1350.22,-26876.8
1.89026e+08,54.8284,2,2.49488,-5166.51,-1506.49,-18517.5
1.89114e+08,22.9558,0,2.84751,1907.76,-4494.88,-28948.6
1.89122e+08,47.6311,1,2.6706,-4290.43,8833.36,-26344.6
1.89232e+08,107.008,0,2.77053,15203,-13838.9,-19493.6
1.89612e+08,58.0164,2,2.82527,4114.11,-11569.6,-29336.5
1.89812e+08,60.1239,1,2.96905,-12639.5,-1047.45,-28790.4
1.89825e+08,53.4991,2,2.97088,-4489.65,-2851.79,-18910.1
1.89873e+08,3.91257,2,2.76135,760.443,-311.898,-28949.3
1.90304e+08,36.7249,2,2.49893,-4812.22,23.8886,-22675.5
1.90823e+08,10.5783,2,2.81678,1670.76,-1329.96,-28108.7
1.90853e+08,120.418,2,3.03719,-4116.72,-22641.4,-18297.8
1.90969e+08,107.594,0,2.39122,18678.9,9353.88,-19615.6
1.91008e+08,135.685,2,2.74782,14784.6,-2695.49,-4542.08
1.91312e+08,43.716,2,2.61256,-4315.7,-859.637,-20684.1
1.91445e+08,8.00567,2,3.01686,-1595.73,646.83,-28922.7
1.91519e+08,167.76,0,2.7681,9876.8,-14082.8,2011.78
1.91739e+08,56.1527,1,2.63061,-865.845,-7567.32,-19835.2
1.92151e+08,274.166,0,2.37026,-19602.3,28016.8,18006.2
1.92324e+08,80.5731,0,2.55522,11170.4,-1135.75,-15937.8
1.92446e+08,76.376,0,2.94858,7052.79,12046.6,-20843.4
1.92538e+08,16.8877,1,2.75395,-3272.17,1184.82,-27778.7
1.92626e+08,70.943,1,2.49504,-13879,-5668.24,-27743.8
1.92638e+08,15.7731,1,2.90266,-1739.69,2928.03,-28489.1
1.92924e+08,72.9114,2,2.53113,-5451.95,-1286.42,-28582.7
1.93276e+08,127.34,1,2.82938,-15649.5,-21713.5,-28554.7
1.93405e+08,52.2659,1,2.87087,2836.84,6031.13,-20065.7
1.93426e+08,191.75,0,2.70674,18017.2,8414.84,6397.11
1.93457e+08,3.1143,2,2.52838,-438.863,-192.639,-28306.7
0,3.09898,2,2.56428,0,0,0
1.93556e+08,28.982,0,2.58159,-999.015,-5791.84,-27138.2
1.93731e+08,17.294,1,2.91096,-1983.67,3117.26,-29453.5
1.93826e+08,108.675,1,2.37229,21243.3,-1392.15,-20185.7
1.93837e+08,133.003,1,2.57808,-11603,-6371.16,-4043.02
1.93892e+08,68.3433,1,2.88982,-4365.29,13597.7,-27026.6
1.93925e+08,222.207,0,2.69877,-15544.6,-26805.9,6232.87
1.94164e+08,46.0037,1,2.61359,-8866.94,3781.05,-27062.6
1.94197e+08,66.4925,1,2.93332,11657.2,-6093.42,-24369.3
1.94583e+08,78.8087,2,3.02872,-8970.83,-2638.6,-18497.7
1.94744e+08,25.9484,0,2.94293,-3349.13,-1913.04,-25011.8
1.94885e+08,62.8616,0,3.04764,10656.2,-2396.74,-21368.6
1.94958e+08,3.5503,0,2.38581,155.16,456.593,-28230.1
1.94968e+08,106.456,0,2.98194,14254.8,73.8506,-11570.7
1.95283e+08,0.520452,2,2.50905,20.3706,-165.602,-28751.7
0,0.518213,2,2.47155,0,0,0
0,0.519262,2,2.56613,0,0,0
1.95342e+08,21.1062,1,2.7292,-2789.95,-2240.97,-26157.2
1.95493e+08,13.9214,0,2.51399,-2371.74,-112.42,-27153.3
1.95722e+08,25.2059,0,3.03145,1929.4,4374.43,-26531
1.95939e+08,11.7795,0,3.00534,982.21,-1872.19,-27490.8
1.9623e+08,25.7506,0,2.69841,1994.68,-3090.53,-24769.6
1.96667e+08,54.8324,2,2.90031,5606.35,-7425.96,-21974.5
1.97007e+08,107.412,1,2.38569,-3839.36,19233,-17214.4
1.97053e+08,175.393,0,2.54118,15371.8,-28524.8,-10709
1.97224e+08,55.5945,0,3.01198,129.366,11647.5,-28833
1.97367e+08,140.073,1,2.89744,-9564.96,22.9835,-1005.25
1.97533e+08,92.542,1,2.80629,-11032.5,7574.67,-14636.2
1.98038e+08,12.6313,0,2.72021,-529.638,1283.2,-29072.6
1.98501e+08,393.001,0,2.7001,11102.7,-5828.39,-1089.83
1.9875e+08,93.7831,1,2.72722,-10218.5,6006.86,-12994.8
1.98822e+08,27.7302,0,2.49502,2812.59,4997.79,-27404.3
1.98938e+08,34.8999,0,2.93813,-2807.72,4129.71,-23484.4
1.99016e+08,15.3796,1,3.03485,-2383.33,1558.23,-27155.9
1.99152e+08,35.2862,2,2.50755,-6874.06,1718.23,-26358.6
1.99192e+08,39.428,1,2.82879,-1411.37,8264.76,-28239.5
1.99437e+08,6.91874,1,2.44563,-348.37,406.044,-27443.9
1.99438e+08,5.6257,2,2.68307,-684.138,408.49,-27915.2
1.99685e+08,45.1685,2,2.41481,-6300.39,6305.02,-25390.7
1.99745e+08,30.0553,1,2.91313,-636.56,1970.41,-22840.3
1.99898e+08,65.6346,0,2.67619,9568.27,6529.24,-21144.6
2.00063e+08,107.132,2,2.71615,8406.73,-20903,-26567.7
2.00086e+08,46.7133,0,2.92017,-6690.09,456.419,-21743.4
2.00097e+08,9.38212,2,3.05105,133.762,-1225.24,-27226.5
2.00284e+08,47.4961,0,2.93048,9762.59,-1167.5,-26763.6
2.00316e+08,74.4793,0,2.71579,2246.48,5937.74,-20567.2
2.00515e+08,31.4951,1,2.52641,39.3046,5045.24,-24375.4
2.00553e+08,148.072,2,2.59467,-18024.9,720.514,-8484.66
2.00675e+08,8.44762,1,2.51207,-296.294,1654.28,-28049.5
2.00687e+08,72.055,2,2.59484,13506.3,6719.66,-27307.1
2.0081e+08,100.147,1,2.85943,-2490.71,9279.21,-10054.3
2.00818e+08,62.8383,0,2.92397,-5802.69,-7819.5,-19972.1
2.01008e+08,55.0775,2,3.06088,6864.44,1461.53,-19699.8
2.0102e+08,168.039,1,2.99114,-27955.6,16369.7,-14802
2.01053e+08,211.677,1,2.72507,-24336.2,27502,-20806
2.01073e+08,155.742,2,2.54928,-28683,-9470.43,-15556.9
2.0167e+08,67.375,2,2.99905,-7598.45,4515.18,-25736.2
2.01709e+08,96.423,2,2.37675,-3115.81,-14874.3,-15130.4
2.02054e+08,74.1135,0,3.01453,4397.02,3455.31,-14306.2
2.02071e+08,83.9609,2,2.42671,3523.76,-10477.4,-14890.1
2.02112e+08,252.605,1,2.68746,-23216.7,-3084.71,7821.04
2.02115e+08,24.0752,1,2.63322,-4598.25,1623.38,-27118.7
2.02377e+08,0.651765,2,2.54887,-17.6854,-81.4453,-28674.7
0,0.679644,2,2.88572,0,0,0
0,0.786255,2,2.7654,0,0,0
0,0.650702,2,2.69696,0,0,0
0,0.672278,2,2.88281,0,0,0
0,0.836399,2,2.56961,0,0,0
0,0.922267,1,2.95515,0,0,0
2.02554e+08,13.1078,1,2.69682,-1634.68,-2129.59,-28237.3
2.03361e+08,4.54047,0,2.67123,761.92,-0.500926,-28138.1
2.03363e+08,7.43906,0,2.96612,739.743,143.976,-27409
2.03429e+08,100.273,0,2.54453,-3204.36,-20597.2,-24919.8
2.03535e+08,11.5177,1,2.69543,-1218.14,666.154,-26781
2.04334e+08,6.72377,0,2.45602,-108.753,981.814,-27798.6
2.04512e+08,23.0471,1,2.84988,2429.01,3640,-26613.2
2.04634e+08,3.62946,1,2.82431,-641.378,-403.915,-28733.7
2.04869e+08,136.602,2,2.56406,-14533.5,-10471.9,-6129.28
2.05031e+08,112.391,1,2.81792,-14209.4,18633.8,-25318.8
2.0511e+08,27.9885,2,2.41279,-5828.01,-1143.81,-27938.5
2.0513e+08,59.4598,0,2.52578,8855.15,8066.73,-24850.6
2.05472e+08,107.609,1,2.98843,19855.7,7016.08,-29262.6
2.055e+08,159.268,0,2.98279,16576.4,-14765.7,-4195.45
2.05663e+08,90.635,1,2.91324,-6960.6,12683,-23786.6
2.05806e+08,122.664,2,2.80686,1614.46,20942.8,-13955.7
2.06022e+08,48.0734,2,2.62502,6328.25,-910.899,-20976.7
2.06349e+08,114.019,1,2.92104,-11219.3,16893.5,-27652.1
2.06407e+08,90.181,2,2.94885,-14062.6,-12778.5,-28043.5
2.06561e+08,82.0525,0,3.01272,5412.33,-3568.98,-18231.6
2.0658e+08,29.3863,1,2.95617,-2490.4,-3833.47,-24733.5
2.06755e+08,78.3677,1,2.4781,16130.8,-1459.48,-25432.9
2.06879e+08,4.11914,1,2.7013,113.24,930.302,-28992.3
2.06918e+08,64.0055,2,3.0549,12625.1,4116.92,-29197.8
2.07253e+08,8.94033,1,2.3761,-1956.8,51.6526,-28873.1
2.07373e+08,116.566,2,2.81255,14595.4,-3937.48,-9530.63
2.07655e+08,33.3556,1,2.57542,-5764.31,157.544,-24674
2.08532e+08,100.222,1,2.5077,6891.22,-6188.53,-9833.11
2.08839e+08,38.2326,0,2.50243,7777.62,-1183.16,-26684.9
2.08855e+08,28.3492,2,2.65444,-5261.08,1425.12,-26302.9
2.08892e+08,70.4867,1,2.78356,-5552.98,-12509.8,-23153.3
2.09157e+08,3.40147,1,2.71049,-441.928,511.299,-28382.6
2.09218e+08,36.0765,2,2.68254,-2164.37,-5353.79,-23750.4
2.09294e+08,82.956,2,2.36298,-9018.68,12337.9,-20182.6
2.09687e+08,57.6313,1,2.61146,-3844.11,9309.78,-21863.3
2.09688e+08,124.178,2,2.76064,18099.2,-12861.3,-15012.6
2.09717e+08,113.671,2,2.99226,15993.7,-5466.17,-12033.4
2.0977e+08,56.865,2,2.50219,-6366.57,1670.3,-18745.8
2.09854e+08,70.2672,0,2.6982,6407.76,13423.3,-29286.8
2.09877e+08,19.3809,0,2.51234,2437.88,3352.78,-28423.1
2.10022e+08,60.8848,0,2.54075,826.732,3508.2,-16456.8
2.10036e+08,90.8982,0,2.90973,12121,-4394.9,-14681.8
2.10099e+08,47.5219,2,2.46955,5733.41,7156.76,-24857.2
2.1016e+08,79.3229,0,2.43461,3355.88,-15009.4,-22063.3
2.10458e+08,232.685,1,2.53973,-20575.2,-2203.43,15799.2
2.1075e+08,74.8909,0,2.84824,8768.45,-5810.26,-17043
2.11187e+08,67.7822,0,2.67096,-5868.73,-12240.4,-24359.8
2.11548e+08,212.077,2,2.8681,-22065,20486.6,3970.02
2.12087e+08,19.4657,2,2.89107,1795.82,2981.94,-26788
2.12338e+08,137.245,2,2.50491,-17894.1,13458.3,-10362.3
2.12387e+08,144.047,0,2.84052,-26044.6,-10126.7,-17292.6
2.12562e+08,55.9645,1,2.48706,8213.82,-6125.09,-23031.1
2.12729e+08,25.4634,1,2.39308,3045.4,3117.07,-25632.1
2.12815e+08,37.0716,2,2.94914,-544.261,6641.12,-24872.5
2.13132e+08,94.1963,2,2.80542,-3313.99,8560.75,-11306.7
2.13499e+08,48.9678,1,2.72156,-396,10264.9,-27082.2
2.13809e+08,42.8122,2,2.91803,6421.96,5566.2,-29718.9
2.13829e+08,8.48506,1,2.63797,1543.09,-172.437,-28000.9
0,8.42768,1,2.40054,0,0,0
2.14142e+08,40.7124,2,2.99905,-6639.31,4797.98,-26341.8
2.1433e+08,59.7132,0,2.79504,-8303.2,5163.48,-20988.8
2.14411e+08,218.901,2,2.93864,-13352.8,9793.5,-7616.41
2.14545e+08,125.871,2,2.38994,-10707.6,17284.2,-11648.7
2.14922e+08,110.415,2,2.83036,3556.61,2663.69,-12903.7
2.15025e+08,82.6784,0,2.69066,9621.92,-8412.99,-16902.2
2.15855e+08,111.939,2,2.84855,-18928.4,9379.96,-18458.9
2.16254e+08,118.354,1,2.67316,-16232.8,-17119.3,-21185.8
2.16372e+08,145.722,1,2.76082,-2277.8,27327.1,-24147.9
2.16388e+08,91.2527,1,2.51588,-18495,1010.81,-23310.1
2.1693e+08,137.744,0,2.60822,2825.84,7561.96,-894.492
2.17251e+08,104.85,1,2.48844,-11065.9,5881.85,-10508.1
2.17421e+08,1.38917,0,2.38,363.648,86.8639,-28946.4
2.17669e+08,22.6869,1,2.82714,-273.475,-4710.47,-28779.3
2.17952e+08,131.974,1,2.9987,-12001.4,24090.1,-22352
2.18089e+08,20.5109,1,2.72216,-247.681,2553.13,-25286.3
2.18186e+08,22.1482,0,2.57715,3265.66,-2905.19,-26937.2
2.1825e+08,15.5675,2,2.74654,-1657.94,-1035.18,-26125.7
2.18289e+08,17.9986,2,2.78656,-239.962,-3882.83,-28567.3
2.18376e+08,129.407,0,2.70225,18076.3,-99.0452,-8328.83
2.1846e+08,37.9167,1,2.88056,1967.29,-5485.59,-23447.2
2.18983e+08,2.77329,1,2.97076,-82.5488,685.118,-28771.7
2.19206e+08,7.07034,0,2.66975,172.254,-1106.41,-27825.4
2.19248e+08,6.15799,1,2.42576,667.552,74.5656,-27700.8
2.19305e+08,24.3767,2,2.84495,1520.96,-3128.3,-25015.7
2.19348e+08,1.43005,1,2.75981,-205.148,240.785,-28638.7
2.19569e+08,111.33,2,2.57346,6019.2,-20814.1,-19506.2
2.19583e+08,95.1347,1,3.00453,-19662.2,-3009.83,-26811.3
2.19696e+08,253.802,1,3.03159,11486.3,6284.53,-12256.2
2.20218e+08,88.2888,2,2.42035,-17434.1,-3111.55,-22687.4
2.20524e+08,8.65377,0,2.77655,1860.17,329.741,-28567.9
2.20894e+08,32.4607,2,2.99323,-2177.24,-3290.95,-23217.2
2.21966e+08,86.8552,0,2.5394,-14982.5,9558.72,-24431.6
2.22085e+08,64.3034,2,2.60405,-9616.8,5029.36,-20625.9
2.22318e+08,126.2,1,2.80551,-13714,22746.7,-26551.7
2.22688e+08,25.7963,0,2.58181,3192.03,-3462.36,-25945.2
2.23108e+08,60.0321,0,2.72057,-714.884,8575.37,-19546.8
2.23328e+08,53.8553,2,2.65588,374.986,-9661.27,-22756.1
2.23654e+08,89.8704,0,2.77255,-3826.01,13538.8,-16194.8
2.24158e+08,6.4104,2,2.66501,-101.353,-1256.06,-29552
2.24399e+08,75.0607,2,2.55088,-14138.3,-2733.34,-21999.8
2.24448e+08,80.9988,0,2.69761,-460.638,13195.4,-17990.3
2.24634e+08,53.3649,2,2.45478,-4315.83,4498.65,-19410.7
2.24681e+08,82.4688,0,2.67957,5780.46,-5289.58,-13257.7
2.24745e+08,82.6773,0,2.9483,13199,-9651.09,-22789.4
2.24753e+08,98.7457,1,2.98976,9920.25,-1863.54,-10849.9
2.25442e+08,62.7937,0,2.41273,2877.54,-7081.78,-17918
2.25817e+08,37.0779,1,2.38946,-690.465,-5310.13,-23124.3
2.2604e+08,68.4852,2,2.79479,-11343.4,-7567.64,-23884.1
2.2607e+08,20.0478,1,3.00449,694.326,-2445.38,-25506.1
2.26141e+08,5.41315,0,2.42619,205.653,586.049,-27838
2.26244e+08,53.3634,1,2.97835,4320.24,1840.31,-18681.5
2.2634e+08,34.0008,0,2.63746,-3035.75,1358.17,-22495
2.26353e+08,86.6668,1,2.4656,1800.18,11781,-14826.6
2.26354e+08,12.2244,0,2.67084,1740.97,691.916,-26951
0,12.3033,0,2.94479,0,0,0
2.26654e+08,48.2312,2,2.80429,957.524,5379.88,-23498.4
2.26663e+08,26.8211,0,2.96825,1837.27,-5148.65,-27342.4
2.26679e+08,53.5135,0,3.0349,10622.5,-3700.83,-27662.8
2.26896e+08,14.5729,0,2.52463,-1957.21,-2080.28,-27734.3
2.26932e+08,45.2568,1,3.04955,-2755.32,9107.4,-27683.1
0,45.1885,1,2.90755,0,0,0
2.27219e+08,100.725,2,2.79226,-4402.51,12144.1,-12043.5
2.27289e+08,30.2569,2,2.65744,-5312.61,-3602.52,-27908.5
2.2752e+08,192.992,0,2.71394,-28455.4,-3278.16,-48.3483
2.27606e+08,68.682,2,2.78235,-13171.8,4431.87,-24674.1
2.28045e+08,57.9573,2,3.00825,6721.95,-2741.97,-19098.3
2.28153e+08,63.399,1,2.98004,-10980.7,-4248.23,-22579.7
2.28265e+08,4.63401,0,2.86637,-679.132,-305.385,-28265
2.28282e+08,85.0929,2,2.91208,-10061.8,-3683.54,-14471.7
2.28443e+08,6.41172,0,2.58786,792.483,-1012.58,-29451.4
2.28715e+08,17.8527,2,2.65375,-2010.95,758.781,-25706
0,18.1389,0,2.85761,0,0,0
2.2912e+08,51.0433,1,3.05074,-1783.37,9956.09,-25161.4
2.29209e+08,97.5921,0,2.77369,-13943.5,957.589,-13869.6
2.29314e+08,3.76041,0,2.62825,784.959,-350.621,-28597.8
2.29322e+08,20.3074,2,2.59258,-3609.23,2349.78,-28886.4
2.29341e+08,32.3923,2,2.85712,2387.9,-6273.93,-27269.2
2.29711e+08,110.627,2,2.68982,1515.27,14810.4,-25019.6
2.29793e+08,89.3524,2,2.51966,2452.02,-18196.9,-28608
2.29799e+08,7.92192,2,2.39301,431.142,-555.973,-27275.1
2.29926e+08,206.309,0,2.68634,-7921.04,-7865.01,3172.56
2.30064e+08,152.364,0,2.80471,-3360.98,-29569.8,-16986.5
2.30267e+08,22.9003,0,2.44305,391.558,2519.39,-24675.6
2.30341e+08,66.8065,0,2.82136,14108.4,897.79,-29715.4
2.30713e+08,126.16,2,2.89111,20643.3,14978.4,-21838.6
2.30839e+08,6.08751,2,2.45597,182.358,639.307,-27784.6
2.30856e+08,61.0526,1,2.74003,-11717.6,-1768.07,-23697.2
2.30901e+08,55.3383,2,2.85934,-5364.93,-10440.8,-29124
2.30949e+08,20.2825,1,2.7599,-1629.29,-2600.32,-25852.5
2.30965e+08,69.4565,1,2.58105,-10831,6960.38,-21678.5
2.31129e+08,40.4152,1,2.36658,-6890.84,4949.68,-27083.3
2.31317e+08,171.825,0,3.02962,12717.5,8055.46,3883.68
2.31409e+08,68.0522,1,2.88417,-11995.6,5984.33,-23626
2.31415e+08,3.14107,1,2.71072,-84.6025,-377.71,-28306.6
2.32289e+08,89.9888,2,2.52355,-13810,-12014.8,-23349.6
2.32402e+08,5.17693,0,2.99899,499.239,-960.753,-28425.2
2.3243e+08,132.882,1,2.48044,-15133.3,20100.1,-16112.8
2.32433e+08,38.8925,1,2.49326,964.83,4890.41,-22245.7
2.32453e+08,68.1573,1,2.36596,-5039.17,1785.71,-15395.8
2.3316e+08,66.858,0,2.55618,-5776.91,-4999.04,-16963.9
2.33224e+08,99.1828,2,2.42551,-18331.6,-9797.49,-25452.7
2.33388e+08,7.9065,0,2.48184,1565.18,-635.729,-29356.8
2.33466e+08,50.2591,0,2.51229,6419.25,-8492.93,-29952.6
2.33875e+08,35.246,0,2.70047,4989.9,-3476.84,-24500.2
2.33913e+08,11.9675,0,2.72025,2618.06,-34.6661,-28545.7
2.3413e+08,31.7237,0,2.81267,5118.2,4436.03,-28610.6
2.34311e+08,35.3184,2,2.89135,-4029.53,4110.31,-24140.2
2.34519e+08,50.3955,0,2.61014,9266.03,973.757,-23543.6
2.34693e+08,40.6051,1,2.45528,5324.91,510.747,-22119.7
2.34702e+08,10.5927,0,2.52603,434.939,-2225.3,-28663
2.34761e+08,145.275,1,2.5232,15573.8,-2683.15,-2515.07
2.34936e+08,45.2449,1,2.64022,-4078.18,6843.31,-23402.8
2.35633e+08,31.8589,0,2.90379,-4476.97,614.597,-23973.1
2.35965e+08,22.3063,1,2.43249,3081.13,526.222,-25321.6
2.36279e+08,22.666,0,2.97642,540.482,-4058.63,-26357.3
2.36448e+08,133.719,1,2.73996,-20168.7,18861.1,-22798.2
2.36482e+08,33.2573,0,3.04071,4626.41,-4338.23,-25756.4
2.36597e+08,14.3988,1,2.84996,-1512.84,1405.7,-26545.5
2.36697e+08,126.773,1,2.5432,12931,-7576.11,-6679.68
2.36704e+08,87.8373,2,2.818,-12115.3,-10181.3,-21131.8
2.36853e+08,71.9352,1,3.05221,8827.23,-1524.6,-21355.7
2.36974e+08,44.3374,0,2.69146,-3439.58,-4163.49,-21224.1
2.37198e+08,33.5362,2,2.78205,-5158.82,1310.63,-24138.7
2.37267e+08,46.8043,2,2.9494,4634.07,-1238.1,-20266.2
2.37524e+08,35.6902,0,2.67776,7631.3,-334.242,-28507.2
2.37661e+08,11.7542,0,2.64601,1516.27,264.282,-26796.9
2.37803e+08,3.41329,0,2.85909,283.56,719.956,-28696.5
2.37844e+08,38.3303,1,2.66926,-3468.04,-3603.62,-22491.3
2.38198e+08,4.86092,1,2.77708,-236.748,561.708,-27939.1
2.38245e+08,12.0856,0,2.83853,-791.51,2008.01,-27550.3
2.38306e+08,184.709,0,2.85131,-13302.1,-12726,5308.85
2.38329e+08,214.742,0,2.78329,12380.8,23910.3,7465.44
2.38341e+08,3.87895,2,2.39174,355.498,-291.267,-28151.2
2.38401e+08,68.4361,2,2.93,4512.71,3397.15,-15632.4
2.39255e+08,9.93585,2,2.49922,1370.78,485.753,-27331.9
0,10.008,2,2.38389,0,0,0
2.39268e+08,0.335166,2,3.6823,-46.2216,-172.128,-28868.2
0,0.31724,2,3.39169,0,0,0
0,0.339377,2,2.43439,0,0,0
2.39334e+08,12.6175,2,2.94894,-1792.47,-1869.36,-27899.2
2.39519e+08,49.6022,0,2.50502,-1244.37,7778.46,-21884.3
2.39579e+08,11.2033,1,2.4297,-2240.7,627.329,-28070.4
2.39581e+08,3.07336,1,2.84643,131.594,317.122,-28233.3
2.39866e+08,149.046,1,2.36386,18562.5,6567.91,-4218.87
2.40284e+08,159.313,1,2.87537,28032.4,5064.63,-11289.7
2.40394e+08,79.3031,1,2.44184,8703.04,4842.72,-15306.3
2.40404e+08,102.587,0,2.63182,5702.75,1553.17,-7972.47
2.41256e+08,55.7425,1,2.8698,-1607.46,5940.3,-18822.2
2.41484e+08,23.4751,0,2.53221,1778.81,-2187.36,-24708.1
2.41757e+08,192.359,1,2.52112,6398.68,14232.4,-13398.7
2.41799e+08,69.8488,2,2.62097,-13714.2,-1378.11,-23426.8
2.41841e+08,8.2509,1,2.69365,734.296,-166.317,-27306.1
2.41873e+08,41.706,0,2.76376,-3893.48,7444.03,-26287.1
2.42058e+08,50.1605,1,2.58854,396.163,8370.33,-22276.2
2.42199e+08,265.128,0,2.38916,-518.1,-560.495,-28068.4
2.42334e+08,71.5237,2,2.73452,1606.28,10082.1,-17787.2
2.42622e+08,6.93203,2,3.0491,-1047.8,-726.744,-29717.2
2.42926e+08,43.6989,1,2.81159,15.3666,8970.46,-26399.3
2.43014e+08,13.4654,0,2.54271,-1483.63,-1574.67,-27048.3
2.43045e+08,53.4538,1,3.03936,-355.287,3157.05,-18063.7
2.43237e+08,31.9276,1,2.45889,-2542.23,4647.69,-25155.5
2.43501e+08,24.5231,1,2.62378,83.3044,3196,-24685.5
2.43534e+08,175.509,2,2.57599,-1563.23,-5347.55,-28010.6
2.4365e+08,34.462,1,2.58092,2485.71,2545.13,-22477.2
2.43912e+08,121.045,1,2.65537,-24307.1,-4292.97,-22116
2.4401e+08,20.1031,0,2.99059,-2081.62,586.646,-25263.4
2.44028e+08,62.9271,2,2.45142,-3669.35,5770.41,-17412.5
2.44132e+08,5.73113,2,2.80515,-698.884,620.486,-28074.1
2.44275e+08,14.5063,2,2.98267,1361.26,-2080.63,-26994.4
2.44454e+08,7.85839,2,2.49791,-401.976,-1676.95,-29279
2.44648e+08,193.123,0,2.95289,13524.2,-19388.1,-14728.9
2.45215e+08,7.00484,1,2.8836,-1361.56,-633.281,-28711.2
2.45508e+08,121.607,1,2.61789,25008.1,1174.51,-23211.3
2.45676e+08,140.653,2,2.9931,12776.4,10372.9,-4414.29
2.45964e+08,9.48326,0,2.69542,2089.13,121.748,-28943.5
2.46114e+08,47.1074,0,2.47044,-4634.55,4633.04,-21359.2
2.46614e+08,54.0319,0,2.74258,11243.2,-1979.43,-27568.1
2.46801e+08,1.99209,2,2.87446,-315.524,-180.757,-28501
2.46863e+08,44.5299,1,2.6392,8155.74,2546.95,-24961.3
2.47024e+08,95.425,1,2.71145,-14222.6,1674.77,-14662.6
2.47133e+08,158.797,2,2.95818,15571.9,3289.17,-23661.3
2.47239e+08,122.891,1,2.36542,7944.65,6053.02,-4799.15
2.47306e+08,43.1322,2,2.76222,-365.095,8487.77,-25759.6
2.47317e+08,58.2406,0,2.56621,3089.9,-5702.69,-18327.4
2.47435e+08,167.331,1,2.59944,13967.1,25694.3,-8926.26
2.47808e+08,15.4306,2,2.43538,-1473.45,1892.33,-26646
2.48085e+08,37.8382,0,2.98802,7549.47,-2046.31,-26956.8
2.48093e+08,50.4912,1,2.49938,-160.935,7748.92,-21404
2.48269e+08,64.493,0,2.85641,5193.67,-3653.12,-16802.2
2.48607e+08,66.5705,1,2.64287,-13876.1,701.994,-26503.7
2.48689e+08,13.7411,2,2.80008,-2679.86,-1252.56,-28635.6
2.48961e+08,313.497,1,2.7221,-25585.9,-22203.3,27828.7
2.49127e+08,27.8661,0,2.40178,-3716.53,-2872.58,-25312.4
2.49418e+08,20.235,1,2.40803,-2103.67,981.281,-25168.4
2.49517e+08,57.611,1,3.02897,-5505.16,2293.56,-18281
2.4958e+08,77.9847,1,2.88332,-11853.2,-8331.33,-21166
2.49742e+08,16.2472,0,2.90343,953.579,3165.53,-27856
2.49821e+08,2.36426,1,2.41182,337.667,288.256,-28525.7
0,2.38247,1,2.68503,0,0,0
2.49857e+08,223.779,1,2.86491,-6075.9,21881.4,12385.2
2.49982e+08,71.9186,2,2.72951,-13057.3,1957.02,-21290.4
