#class tools::wcsv::ntuple
#title time
#separator 44
#vector_separator 59
#column double eventID
#column double t(ns)
#column double copynumber
#column double energy(eV)
#column double x(mm)
#column double y(mm)
#column double z(mm)
90682,71.0872,2,2.67635,623.133,-357.111,-27590.2
305027,13.4606,2,2.77321,-1955.18,-2108.95,-28368.2
343714,39.4066,2,2.76627,-871.516,-7683.94,-25566.4
598807,48.0425,0,2.55945,-6074.91,3548.5,-21538.3
876036,4.76588,0,2.65474,1022.15,-299.021,-28638.9
1.28738e+06,21.6881,2,2.7903,-4260.39,-1610.37,-29748.9
1.60924e+06,37.7489,2,2.73306,-6965.52,-2908.14,-26052.1
1.77015e+06,15.6916,0,2.74097,1953.53,2276.5,-27268.2
2.43202e+06,35.7355,2,2.79938,-3350.25,2784.81,-22682.8
2.44206e+06,5.14365,0,2.41364,258.258,612.032,-27926.9
2.48035e+06,100.22,2,2.56995,-8815.94,-5359.48,-10289.1
2.66906e+06,24.0141,2,2.58486,306.356,-5132.08,-29293.1
2.681e+06,117.948,1,2.54876,5212.9,11514.6,-7309.34
2.72378e+06,92.0141,2,2.68096,-1299.89,-14895.1,-16371
2.77308e+06,54.9236,2,2.65565,-866.625,9280.16,-22002.7
2.82592e+06,156.858,0,2.49899,-21408.3,-11091,-6136.59
2.86836e+06,3.77349,1,2.57183,-743.783,505.476,-28849.4
3.47575e+06,54.4173,0,2.42813,11407.5,-123.575,-26718.8
3.62141e+06,173.17,1,2.70947,-15492.5,25360.5,-7532.19
3.81156e+06,119.946,2,2.71308,11695.9,-19141.3,-17074.7
3.85476e+06,250.351,2,2.43614,20116.2,-21310.2,15242.8
3.86868e+06,80.7932,1,2.43881,12762.5,8543.09,-21254.2
4.0882e+06,46.9272,0,2.9254,-1473.25,4947.85,-20433.8
4.24029e+06,42.7621,2,2.46947,-3474.43,7863.33,-26103.1
4.66511e+06,63.744,2,2.7376,-2589.08,-4594.98,-21082.3
4.70811e+06,33.0495,0,2.79803,-391.343,5929.61,-25172.7
4.76468e+06,69.9042,0,2.48952,-9417.33,-3809.04,-18151.8
5.1769e+06,10.5858,0,2.98739,-533.034,-2081.09,-28236.6
5.67616e+06,128.565,0,2.36639,-10942.7,19481.7,-13319.2
5.7418e+06,36.7226,0,2.69229,7396.78,-694.801,-26369.3
5.74227e+06,144.914,0,2.7269,-10766.7,28435.6,-26083.2
6.30847e+06,59.788,1,2.83708,-8835.41,-8894.08,-29678.1
6.37102e+06,45.4107,2,2.40643,3926.27,-8846.16,-29291.9
6.46171e+06,24.2146,2,2.77493,-4972.19,861.649,-27822.6
6.50828e+06,130.645,0,2.50732,-11508.4,12055.2,-6854.08
6.83286e+06,130.265,0,2.82595,-11527.2,14089.1,-8447.86
6.94157e+06,56.8875,1,2.70022,-3346.54,11185.9,-25661.4
7.0445e+06,68.8596,0,2.94287,-6470.95,937.641,-15983.1
7.08191e+06,174.056,2,2.88407,-22739.1,5304.1,-690.77
7.23261e+06,120.849,2,2.94481,17163.2,-5248.35,-10912
7.3936e+06,15.3389,1,2.6283,198.406,3168.06,-27868.9
7.40134e+06,23.3681,1,2.66574,-1084.99,-4237.72,-26663.8
7.4091e+06,13.9522,2,2.86887,-2929.12,467.535,-29204.7
7.57264e+06,231.905,0,2.69802,17117.5,7434.21,16374.3
7.62166e+06,12.3348,1,2.82293,-1509.65,-1886.85,-27874.4
7.71186e+06,107.937,1,2.80964,-16149.8,-10773.7,-17025.1
7.74806e+06,21.2719,1,3.03319,-1786.46,-2896.26,-25977.4
7.81743e+06,84.6249,0,2.56073,10523.8,-5253.46,-15309.4
7.94465e+06,114.241,1,2.99695,-18346.9,-13274.9,-20995.7
8.1584e+06,66.089,0,3.02587,10710.1,6919.78,-23231.1
8.47808e+06,9.93211,0,2.97762,-1594.52,-571.975,-27685.7
8.62114e+06,10.4538,2,2.95569,-1607.51,-1414.49,-28011.8
8.82303e+06,31.8096,2,2.61381,-4761.89,-2288.54,-24568.7
8.8641e+06,67.0764,2,2.41938,612.593,-8811.14,-17668.2
8.90155e+06,46.3419,1,2.57121,-7906.38,3016.81,-23766.1
9.02913e+06,48.7432,1,2.52059,-9524.22,-2555.92,-25942.9
9.66737e+06,315.298,1,2.77906,17856.9,19237.6,842.521
1.0014e+07,13.7454,2,2.86919,-1474.07,-2462.58,-27995.5
1.06463e+07,32.3219,0,2.72019,5302.5,1912.82,-24894.4
1.09295e+07,22.2976,2,2.39815,-1114.24,-3293.36,-25522.6
1.1414e+07,33.0544,2,2.60737,2924.7,-4052.45,-23886
1.1494e+07,75.7412,1,2.71494,4282.98,10740.7,-17751.5
1.16115e+07,50.4844,2,3.04882,2675.87,-4674.24,-19700.3
1.16602e+07,12.2783,1,2.38724,724.056,-1370.01,-26797.5
1.21827e+07,36.0284,1,2.73244,3439.35,5746.17,-25131.6
1.23573e+07,191.558,2,2.6411,-16590.9,-6608.08,7466.12
1.2396e+07,113.011,0,2.37856,-4850.13,-18427,-14371.1
1.24537e+07,120.211,0,2.55774,16832.2,12186.2,-14091.4
1.28648e+07,24.2349,1,2.96285,-1250.64,2695.21,-24625.1
1.29066e+07,18.2916,1,2.4855,3395.3,1790.17,-28291.8
1.29573e+07,55.4639,2,2.80144,-6946.76,-9505.2,-28590.7
1.30057e+07,45.0209,1,2.56619,3356.82,7864.37,-24530
1.30612e+07,4.24491,0,2.52371,846.796,538.564,-28915.9
1.30657e+07,53.8554,0,2.5937,6853.65,-8094.3,-24506.1
1.32752e+07,35.4339,1,2.4373,-2125.29,-6138.2,-25146.8
1.32781e+07,220.045,1,2.74144,-8002.9,8541.6,-16740.7
1.3289e+07,54.1431,0,2.59822,8056.58,6630.66,-23957.6
1.38046e+07,37.9622,2,2.73687,4833.98,-5412.67,-25342.8
1.42036e+07,19.6026,1,2.36476,1337.64,3913.46,-29760.7
1.42038e+07,61.0985,2,2.48961,-3080.43,-12592.8,-27482.7
1.42336e+07,24.0177,0,2.55142,-2764.92,4186.31,-28281.3
1.47035e+07,159.704,1,2.90292,18678.8,5982.24,-1685.81
1.50302e+07,139.488,2,2.99691,-5261.89,232.649,-22362.9
1.51602e+07,7.21233,1,2.84901,-834.059,1325.79,-28393.7
1.55106e+07,3.07776,1,2.40941,-18.3862,690.242,-29155.3
1.55399e+07,99.3696,0,2.6166,7297.25,-5989.71,-10049
1.59147e+07,50.7999,1,3.05168,-6182.03,2912.26,-20601.4
1.61484e+07,79.2418,2,2.81543,-11358.6,9593.86,-21338.2
1.6149e+07,108.875,0,2.55443,-13193.3,-5975.94,-10994.7
1.70796e+07,26.3262,0,2.85075,4500.72,2520.43,-26668.1
0,26.1119,0,2.44696,0,0,0
1.70957e+07,165.979,0,2.4605,-17493.7,-24818.6,-11277.5
1.70978e+07,14.8127,2,2.37193,-1379.84,-2848.5,-29586
0,15.0161,2,3.06157,0,0,0
0,15.0257,2,2.80326,0,0,0
1.71909e+07,33.2835,2,2.45117,-6385.8,-2883.11,-27497.5
1.72824e+07,87.2482,1,2.93359,8029.66,7540.82,-14173.9
1.73262e+07,118.835,0,2.65606,7913.4,-20226.8,-16220.8
1.74282e+07,67.2928,0,2.62722,2592.66,-8972.9,-18119.6
1.76736e+07,10.0895,2,2.85485,1062.94,-1890.71,-28541.8
1.78061e+07,70.706,2,2.36806,-10985.8,3004.29,-19090.5
1.79146e+07,104.286,2,2.99958,6798.25,-1444.77,-11542.4
1.79172e+07,73.2713,2,2.61829,-6602.47,-3005.67,-15132.4
1.79369e+07,48.8975,1,2.81777,564.935,10311.4,-27813.7
1.79964e+07,78.0556,2,2.65688,4105.28,-7429.35,-14693.4
1.82742e+07,11.3151,1,2.66521,2026.01,-703.23,-27890.3
1.84695e+07,46.465,0,2.64073,4330,-8585.74,-26604.6
1.86405e+07,172.898,0,2.40891,5717.97,2697.27,3881.73
1.8799e+07,2.50964,0,2.8657,-111.987,25.4745,-28341.1
1.8953e+07,111.437,2,2.73036,-221.725,-17934.6,-17634.2
1.99245e+07,19.3318,1,2.76009,2871.63,1071.9,-26121.9
2.04638e+07,53.8224,0,2.55384,-3694.07,5094.41,-19362.9
2.05538e+07,182.505,0,2.76234,-17795.1,-19930.6,-1260.16
2.12264e+07,124.915,1,2.7483,-7187.4,23118.9,-18349.6
2.13676e+07,5.46817,2,2.85997,79.7277,-892.712,-27997.9
2.15393e+07,32.605,0,2.47521,-3901.45,-799.026,-23233.2
2.17138e+07,45.8379,1,2.78496,-1168.6,-4943.09,-20643
2.18257e+07,44.9542,1,2.36853,-8104.65,2097.71,-24162.8
2.2008e+07,11.4224,0,2.36988,-1443.58,868.066,-27144.1
2.24735e+07,26.2206,0,2.46946,-3176.54,-2770.48,-25256.7
2.26825e+07,20.5329,1,2.71235,-4348.11,-471.737,-28352.7
2.27134e+07,54.5034,2,2.90227,-8357.78,-1984.43,-21174.5
2.27964e+07,9.7406,2,2.6283,366.999,-583.94,-26870.4
2.32996e+07,9.1462,0,2.90847,-1417.05,-1176.15,-28418.1
2.33019e+07,22.4338,2,2.49081,-1820.05,-3433.05,-25986.3
2.33306e+07,58.8236,1,2.67376,-4149.18,7303.26,-19610.7
2.33614e+07,54.7614,0,2.58501,-1623.77,10849.1,-25109.6
2.349e+07,5.97152,1,3.02404,-449.046,-613.749,-27832.7
0,5.95123,1,2.4566,0,0,0
2.35899e+07,20.5673,1,3.02854,-674.463,3229.55,-25937.4
2.37919e+07,273.478,0,2.73121,18410.1,-13565.8,4202.34
2.39586e+07,125.812,0,2.69167,-13300,-12107.4,-9426.74
2.3987e+07,20.467,1,2.54011,1248.92,4026.14,-27535.8
2.40302e+07,19.8119,1,2.74551,-1498.21,-3605.72,-27504.8
2.4794e+07,72.1708,0,2.57975,3944.95,-14746.6,-29458.9
2.50294e+07,83.2859,1,2.5952,4118.92,9078.67,-14297.8
2.51944e+07,1.31077,2,2.38702,132.421,-254.041,-28659.7
2.53113e+07,129.62,1,2.82877,-8565.76,19743.8,-22491
2.53232e+07,12.4126,0,2.54387,-1095.2,1096.95,-26752.1
2.54216e+07,41.0599,0,2.61453,1520.95,7398.45,-24547.5
2.57444e+07,38.5334,0,3.03448,2922.48,-1305.65,-21373.1
2.60263e+07,78.2614,2,3.06168,5797.15,-10996.2,-23019.6
2.62089e+07,59.9216,2,2.63651,-9772.4,-7560.93,-25790.5
2.65554e+07,16.1792,1,2.85676,-1244.59,3251.41,-28332.8
0,16.0949,1,2.62344,0,0,0
2.67009e+07,111.736,2,3.05037,-17077,-56.255,-12774
2.69116e+07,122.061,0,2.66075,4255.55,12716.6,-23310.9
2.69754e+07,56.4913,0,2.95126,-5187.37,10441.6,-26739.4
2.72417e+07,23.1468,0,2.4922,-565.757,-4860.99,-28872.2
2.7923e+07,3.02086,1,2.41199,-424.221,-162.818,-28342.6
2.7928e+07,81.6713,0,2.41504,6805.98,-9875.72,-16323.7
2.80147e+07,26.4229,1,2.70695,-5640.59,161.42,-29102.9
2.80851e+07,21.8366,0,2.88485,-2240.74,-2127.19,-25489.6
0,21.3231,2,2.87119,0,0,0
2.82326e+07,59.8151,0,3.01929,2767.3,-7509.31,-29144.7
2.82593e+07,188.545,0,2.89024,26032.6,-27225.9,-16470
2.87123e+07,17.9198,0,2.68777,1082.57,-1072.11,-25334.1
2.87917e+07,26.9916,0,2.95172,2662.49,5068.74,-28390.5
2.88237e+07,173.096,1,3.03866,-14956.5,-9330.85,2826.89
2.91374e+07,9.55404,0,3.01378,477.129,-1568.63,-27630.3
2.93651e+07,123.746,1,2.94218,-14273.6,6556.49,-8103.93
2.93725e+07,30.8368,1,2.54318,-641.081,3986.81,-23648.1
2.94824e+07,20.9941,1,2.44875,-473.827,4327.53,-27577.5
2.96927e+07,75.9006,0,2.75946,14862.5,4633.02,-24934.8
2.98476e+07,117.57,2,2.46521,15271.5,-11446.8,-12867.5
2.99823e+07,31.0953,0,2.89416,-2730.1,5452.6,-26581.1
3.06153e+07,69.4918,0,2.65766,4899.71,11898.4,-21739.5
3.09095e+07,24.4962,2,2.95406,3098.52,1553.3,-26540.6
3.09233e+07,2.04004,0,2.90114,514.779,-43.1698,-28680.4
3.14118e+07,42.9534,2,2.86657,6285.57,2276.1,-22844.1
3.14585e+07,22.6263,2,2.48494,-4280.44,-2049.45,-29990.7
3.15165e+07,29.555,2,3.0218,-4805.3,3331.17,-26717.1
3.15924e+07,24.7714,2,2.68493,-4937.46,1846.41,-28864.6
3.1597e+07,66.0791,2,2.58117,-7801.82,4108.19,-18313.5
3.17581e+07,123.361,1,2.39786,8672.31,7754.1,-5490.37
3.18988e+07,55.5855,1,2.5911,-7142.23,-2662.72,-19894.4
3.21179e+07,25.3333,2,2.52454,4207.44,-906.963,-25634.6
3.23311e+07,0.695901,0,2.45521,-4.89774,157.766,-28784.3
0,0.769348,0,2.46289,0,0,0
0,0.697776,0,2.94083,0,0,0
0,0.369998,1,2.44639,0,0,0
0,0.394816,1,2.743,0,0,0
3.24993e+07,151.056,2,2.63405,5814.58,-24049.4,-8672.61
3.27311e+07,64.3671,1,2.90092,-713.433,-1599.84,-29069.8
3.30837e+07,115.299,2,2.93391,-3459.73,-7655.72,-21559.1
3.31822e+07,144.979,2,2.49084,-2599.41,-18743,-4665.45
3.34439e+07,13.0396,1,2.38273,2433.13,-875.641,-27960.5
3.36774e+07,38.3583,2,2.51864,7663.54,-2207.43,-27257.8
3.37924e+07,23.8046,2,2.68407,-3036.86,2097.5,-25428.9
0,23.8331,2,2.79172,0,0,0
3.39725e+07,14.8652,0,2.68113,2995.07,706.106,-27873.3
3.40208e+07,36.701,1,2.44325,-311.791,-7510.88,-27078.7
3.41127e+07,119.9,0,2.74629,-1683.33,12277,-6832.84
3.41925e+07,18.5691,1,2.85576,-2953.37,-549.083,-26281.2
3.44078e+07,6.04633,1,2.82132,832.441,-467.826,-28050.6
3.4816e+07,4.1031,2,2.61556,-324.481,31.9795,-28001.6
3.49771e+07,20.4144,1,2.48664,3032.39,2710.14,-27316
3.50306e+07,72.2639,0,2.5233,-3063.28,-10023.3,-17758.4
3.51191e+07,18.7278,0,2.78401,2311.84,1869.03,-26146.5
3.57787e+07,67.7637,1,2.83655,-13416.6,-2574.09,-29892.8
3.58615e+07,138.434,0,2.93332,1766.46,17812.1,-5943.2
3.59445e+07,82.5773,1,2.63887,-10407.3,8645.82,-17735.3
3.62267e+07,65.4361,1,2.88948,5860.51,-4685.49,-17387.9
3.63071e+07,65.8495,0,3.00542,4549.18,5637.51,-17043.4
3.64162e+07,143.955,0,2.42379,22649.4,-20395.8,-27331.6
3.64434e+07,6.86,2,2.87862,-208.69,-1163.95,-27899
3.65833e+07,23.0698,0,2.93827,1195.44,4165.03,-26563.4
3.65872e+07,19.8399,1,2.97809,-1609.69,301.063,-24987.2
3.66487e+07,105.453,2,2.97919,-13615.3,12051.3,-16309.3
3.66975e+07,271.602,1,2.38638,-23489.3,26309,16587
3.82923e+07,19.7858,1,2.78953,3041.06,2923.86,-28611
3.83697e+07,130.095,0,2.48698,24094.9,7693.25,-17782.6
3.88358e+07,49.1296,1,2.37023,-8661.61,5904.77,-29273.1
3.90091e+07,40.3771,1,2.81657,-5033.52,-1120.18,-22037.5
3.90445e+07,55.9594,1,2.72056,5131.39,10090.2,-25397.6
3.90863e+07,85.5269,2,3.03029,-7262.27,-2363.62,-12582.9
3.9343e+07,144.154,0,2.9391,14515.9,-12597.5,-5406.33
3.97866e+07,79.8244,2,2.60545,-8961.22,-2002.44,-14638.9
4.01523e+07,30.1245,1,2.78693,-1665.13,-3617.83,-23938.8
4.01889e+07,21.8676,2,2.74116,895.534,-4579.54,-29334.5
4.04025e+07,30.1186,0,2.71472,-3874.3,4704.53,-27112.8
4.11058e+07,42.4754,2,2.97492,4901.98,3522.08,-22342.9
4.12554e+07,16.3934,2,2.74406,-2160.57,1186.95,-26418.3
4.1629e+07,43.7888,0,3.02845,-6036.74,3574.42,-22963.4
4.16412e+07,80.2843,2,2.36634,-11634,-11869.2,-24826.1
4.17542e+07,18.245,2,3.01511,-2473.76,-2748.75,-27502.6
4.19365e+07,131.786,1,2.43569,-8636.54,7276.57,-3312.91
4.25704e+07,134.897,0,2.6429,20793.9,-1078.64,-9322.31
4.28099e+07,11.2218,0,2.51399,-1747.11,1551.26,-28713.4
4.28637e+07,10.1557,1,2.69837,-954.076,696.642,-26976.8
4.33844e+07,196.654,0,2.56097,5206.67,-11387.5,-8973.46
4.34223e+07,42.437,0,2.48437,6043.95,-2880.61,-22742.5
4.35869e+07,28.8329,1,2.7916,1346.11,-3381.68,-24160.5
4.36204e+07,136.493,1,2.42507,25834.3,9471.26,-20025.3
4.36919e+07,5.67634,0,2.51571,589.212,531.514,-27893.9
4.3694e+07,57.4192,1,2.4257,-678.924,12022.4,-26572.6
4.37512e+07,101.564,2,2.99743,-17466.9,2513.33,-16890.6
4.37865e+07,17.8091,1,2.66799,1819.52,2130.62,-26328.4
4.40781e+07,113.436,1,3.05736,4052.17,19869.9,-16362.5
4.41393e+07,10.6117,1,2.67237,264.043,2160.09,-29656.2
4.41642e+07,72.0282,2,2.99882,7238.06,894.238,-15626.4
4.48715e+07,76.4705,0,2.70976,13998.8,-8108.74,-27759.8
4.4948e+07,10.434,1,2.38336,-1741.78,1445.86,-28338.8
4.5146e+07,13.8814,1,3.03328,1215.26,2686.55,-28523.7
4.54116e+07,73.8149,1,2.62274,-2022.1,7966.49,-15524.7
4.55377e+07,114.532,2,2.44224,-11956.7,-20529.7,-23631.8
4.55462e+07,200.796,1,2.89434,-29379,-11705.8,-909.271
4.56424e+07,106.327,1,2.76253,18556.3,2344.3,-16554.1
4.5766e+07,6.76614,1,2.7208,-824.884,157.527,-27625.6
4.59923e+07,47.0838,2,2.85183,-2565.81,-4734.99,-20453
4.61613e+07,32.8598,1,2.93357,-2099.28,4956.82,-24415.2
4.65696e+07,184.495,2,2.94394,24556.3,-8852.17,-247.38
4.66673e+07,7.48587,0,3.04433,-746.478,-283.59,-27517.1
4.67506e+07,188.438,0,2.47294,17175,-10961.8,5230.63
4.71511e+07,20.5492,1,2.91673,3433.55,1745.61,-26844.5
4.73172e+07,40.8482,1,2.49729,500.12,7350.78,-24166.8
4.73417e+07,11.4988,2,2.40816,-2349.58,-622.29,-28267.6
4.74635e+07,0.563987,0,3.90653,169.305,-117.002,-28901.8
4.77022e+07,59.527,1,2.47184,7876.9,-5305.88,-20626.2
4.77704e+07,45.2034,1,2.79325,-1232.88,7977.68,-23637.9
4.77804e+07,69.4333,0,2.54646,7301.64,-12448.3,-25821.1
4.78099e+07,81.3439,2,3.03336,5306.96,-9989.38,-16037.1
4.78409e+07,40.5569,0,3.01038,6146.29,-5707.27,-26965.2
4.78781e+07,163.122,1,2.71459,-28515.6,-7925.49,-11512.8
4.78917e+07,34.0965,2,2.83703,-6275.94,-3016.9,-26748
4.79238e+07,71.7148,0,2.51925,6272.77,-8725.11,-18059.4
4.79614e+07,6.51873,1,2.62154,-789.566,-186.517,-27692.6
0,6.46188,1,2.52873,0,0,0
4.84576e+07,53.1532,0,2.80371,9115.01,5278.28,-24797.5
4.85421e+07,11.0654,2,2.91059,1872.19,731.015,-27785.3
4.87317e+07,57.9339,1,3.02218,-5858.22,6055.24,-20005.6
4.89081e+07,80.1257,1,2.57086,-11582.4,9943.23,-21294.1
4.90952e+07,5.17092,2,2.56817,-690.316,39.407,-27935
4.94451e+07,195.435,2,2.45346,-21736.4,3387.6,6192.92
4.94663e+07,112.672,2,2.86811,-21369.7,9605.47,-25354.6
4.99521e+07,169.945,1,2.45682,-5092.26,24856,-3299.06
5.02997e+07,32.5205,2,2.64639,107.063,5780.03,-25227.4
5.04384e+07,89.5233,0,2.54712,-14306.3,-7560.22,-19109.2
5.13291e+07,195.203,0,2.81727,11204.7,4330.18,-25613.5
5.15102e+07,146.613,0,2.63195,28407.5,9753.32,-21058
5.1534e+07,110.726,0,2.59533,18693,-10427.9,-20271.4
5.22877e+07,3.12188,2,2.81172,-540.927,97.0018,-28387.2
5.22885e+07,31.8318,2,2.75135,-1515.83,-3615.5,-23325.5
5.23166e+07,166.11,2,2.9042,-5331.5,-22261.2,-2461.16
5.24934e+07,133.372,0,2.67476,9350.79,-18047.9,-9440.04
5.26624e+07,125.038,1,2.69051,10063.9,7001.85,-5486.02
5.26806e+07,35.9634,0,2.91308,6162.05,-4331.05,-27516.6
5.28789e+07,122.005,1,2.90106,-14260,5606.01,-8236.03
5.30941e+07,39.5586,0,2.5293,4781.18,-2474.87,-22348.3
5.31174e+07,27.7325,0,2.62346,-3587.45,796.356,-24356.2
5.32002e+07,60.3248,0,2.57432,6410.97,7288.87,-20481.7
5.32806e+07,1.81784,2,2.79711,5.4652,-490.85,-28921.8
5.33214e+07,57.7435,0,2.55718,11417.6,2909.98,-25330.4
5.3516e+07,35.5629,0,2.38686,4151.71,-5466.06,-25602.2
5.35331e+07,141.794,1,2.49686,19938.5,12317.5,-10103.1
5.35369e+07,44.8172,0,2.6031,-2780.63,7306.77,-23489.9
5.36091e+07,7.21635,0,2.98847,1347.21,-666.532,-28246.7
5.40039e+07,17.0121,1,2.69129,-877.975,-1692.39,-25828.4
5.44559e+07,178.072,1,2.36923,25055.6,807.014,-728.499
5.45341e+07,137.122,2,2.46913,1075.92,-26464.3,-16828.5
5.50952e+07,78.7098,1,2.83248,5106.59,7462.05,-14924.3
5.51327e+07,62.1311,0,2.92603,2574.41,-6209.19,-17632.8
5.53297e+07,123.228,1,2.82842,-1852.27,17181.9,-9452.17
5.53798e+07,22.8409,1,2.39265,152.198,-2984.26,-25058
5.5459e+07,1.91144,2,2.86179,-346.024,-335.172,-28963.7
5.61784e+07,26.8733,1,2.69345,929.525,5660.65,-29364.4
5.63074e+07,2.6245,1,2.89457,-230.045,-461.856,-28908.3
5.63917e+07,49.0274,1,2.40374,9671.43,3815.31,-29085.2
5.64187e+07,107.961,1,2.57529,-11400.7,5762.29,-9910.9
5.64187e+07,13.9117,2,2.42736,1492.95,-270.731,-26311.4
5.68304e+07,85.2706,0,2.49284,1866.65,-7646.3,-12599.6
5.71046e+07,29.7619,1,2.61161,4209.62,-685.33,-24284.6
5.71103e+07,110.828,0,2.82348,11023,14046.3,-13806.8
5.73747e+07,122.908,0,2.84782,-168.435,-14986.1,-7792.47
5.7626e+07,297.026,0,2.85572,9099.7,22789.2,-17357.6
5.76478e+07,72.026,0,2.97045,6536.23,10630.1,-26397.6
5.76609e+07,48.501,1,2.74776,6209.87,6551.05,-28229.2
5.84015e+07,146.303,2,2.94355,10633.3,24586.5,-13973
5.85874e+07,18.1465,0,2.39366,-1154.38,-2022.56,-25800.8
0,18.1428,0,2.60398,0,0,0
5.92271e+07,80.1191,0,2.5282,-2777.02,-7471.56,-13916.9
5.97058e+07,43.6741,2,2.60079,-3100.19,-3513.25,-20842.8
5.97861e+07,61.6494,1,2.99476,-9833.67,6718.12,-23574.2
5.98613e+07,31.4137,2,2.6828,-2974.19,-3240.4,-23794.4
6.02035e+07,26.3972,1,2.64078,1266.32,5491.36,-29237.1
6.05601e+07,83.9011,2,2.62019,-10772.1,-8332.68,-18417.4
6.07583e+07,125.502,0,2.55946,6778.02,24145.5,-20127.2
6.10514e+07,86.3854,2,2.45109,-5032.76,-15791.4,-20918.4
6.1258e+07,32.4167,1,3.03271,3610.02,4668.11,-25363.6
6.1299e+07,22.3304,2,2.99248,-3038.24,-841.733,-25295.2
6.14224e+07,22.3561,2,2.73699,-4552.81,-977.283,-27708
6.17733e+07,82.5159,1,2.61697,14988.6,-1527.7,-20157.7
6.18585e+07,7.1556,0,2.40046,-577.71,-958.74,-27864.7
6.18795e+07,116.309,0,2.5549,21857.8,-2390.16,-17674
6.19411e+07,68.3488,1,2.8474,-11292.7,8499.03,-25768
6.19732e+07,20.4258,2,2.7113,-796.252,-2236.74,-25172.7
6.21205e+07,67.8992,2,2.89976,4813.41,-4190.72,-16082.8
6.25479e+07,89.1909,1,2.74259,14442.3,2342.29,-17040.1
6.25784e+07,107.081,2,2.5843,-9216.38,-16447.4,-16310.1
6.28025e+07,166.25,1,3.04813,3721.09,5566.79,-16625.6
6.29362e+07,2.38005,1,2.55479,-510.331,-173.522,-28923.4
0,2.38178,1,2.91889,0,0,0
6.30543e+07,30.2143,0,2.44135,3661.37,-4984.01,-27031.4
0,30.4062,0,2.95165,0,0,0
6.32506e+07,32.2714,1,2.57719,1398.06,6755.56,-28689.1
6.35471e+07,2.88963,1,2.63824,-228.105,675.576,-28804.4
6.36204e+07,6.74344,2,2.97924,-1485.2,-123.959,-28921.2
6.40653e+07,36.1353,2,3.00896,-4824.17,-5977.77,-28545.6
6.42916e+07,43.3531,1,2.84209,3299.8,-7956.31,-26008.8
6.45098e+07,84.4988,0,2.65761,9387.15,15217.8,-29410
6.45288e+07,261.826,1,2.76946,-18636.5,-5681.12,-2326.09
6.45781e+07,55.9051,0,2.48166,8404.64,786.347,-20447
6.45925e+07,13.4752,0,2.8864,846.583,-2509.05,-27669.5
6.52181e+07,4.19827,0,2.84162,474.244,-519.146,-29491.2
6.52533e+07,21.2085,0,2.66068,3337.23,2028.74,-26491.3
0,21.1564,0,2.58538,0,0,0
6.53176e+07,49.5233,1,2.73755,-10475.1,411.198,-28207.8
6.5327e+07,120.011,1,2.76032,22598.6,8743.96,-21635.3
6.55954e+07,20.7978,2,2.7339,2539.6,-3639.66,-28567.8
6.59645e+07,46.3574,0,2.64574,-2196.1,-8479.88,-24501
6.60583e+07,43.3393,2,2.98498,-2487.2,-8580.71,-26768.6
6.62623e+07,84.0672,1,2.57377,-6147.47,6815.21,-13575.4
6.66369e+07,55.3299,2,2.657,-5955.37,-3148.98,-19244.3
6.71404e+07,37.6967,0,2.42664,3904.85,-4833.49,-23746.4
6.7358e+07,3.49234,1,2.92192,-671.53,57.7513,-28423.9
6.75429e+07,208.934,1,2.41181,2294.05,-18877.4,11050.2
6.76157e+07,187.822,1,2.78316,-19460,-8828.72,4277.23
6.85242e+07,52.7592,2,2.7537,-1496.85,-11070.8,-29714.5
6.85588e+07,112.176,1,2.93447,-7414.44,6970.4,-7573.43
6.8729e+07,51.491,0,2.52215,8513.49,-4087.99,-23255.6
6.87786e+07,148.918,1,2.62353,11979.2,-5498.22,-306.05
6.895e+07,115.344,1,2.53151,17130.6,5762.4,-12453.5
6.91078e+07,97.5877,1,2.85892,-10124.1,-17307.1,-24636.3
6.95768e+07,38.8072,0,2.58518,4542.14,-6635.7,-26857
6.95811e+07,50.7865,1,2.49908,8913.08,2089.06,-23199.5
6.96526e+07,93.5616,2,2.97877,9223.98,8685.21,-13928.7
6.96669e+07,28.7487,0,2.78786,-2543.32,5359.58,-27695.5
6.98376e+07,179.028,2,2.75836,-16793.9,26053.6,-7404.64
7.00616e+07,101.665,2,2.69356,-12180.4,-7519.35,-12794.2
7.03026e+07,3.30336,2,2.95027,-277.986,-378.706,-28260.6
7.03776e+07,32.7434,1,2.37265,-2107.28,4890.01,-24283.9
7.04418e+07,203.777,2,2.65555,15990.3,17534.9,6961.88
7.05136e+07,23.2853,2,2.81948,-680.259,-4695.98,-27366.9
7.06561e+07,137.376,2,2.46242,-13570.9,7241,-4175.3
7.06856e+07,59.6206,0,2.85138,-8537.66,-4832.27,-21088.2
7.07975e+07,115.26,1,2.91753,-11519.9,12420.3,-11496.5
7.1017e+07,45.8193,1,2.36585,-4235.33,7604.14,-24389.4
7.10292e+07,29.0104,2,3.04353,-1986.49,3912.46,-24636.9
7.20132e+07,103.744,1,2.61858,-17143,13746.3,-28686.3
7.20791e+07,188.732,0,2.42167,28170,-28346.7,-27366.6
7.25023e+07,70.4768,1,2.42829,-14522.7,-3507.92,-28827.1
7.27198e+07,132.954,2,2.92215,19767.9,-12121.4,-13340.4
7.28816e+07,3.69025,0,2.64643,-511.864,222.966,-28377.6
7.29509e+07,2.04837,0,2.93784,348.803,210.012,-28535.3
0,2.09612,0,2.59609,0,0,0
7.36263e+07,199.178,0,2.79501,-24359.6,-17900.5,131.907
7.42297e+07,5.17147,2,2.48136,374.69,-1090.68,-28633.6
0,5.18175,2,2.88258,0,0,0
7.43702e+07,113.018,1,2.53363,-14965.1,7806.21,-11841
7.44951e+07,148.248,1,3.01284,16914.3,-16988.3,-9160.56
7.45069e+07,115.897,0,2.8747,3968.57,-24060.3,-28843.3
7.4577e+07,219.351,1,2.76166,-27223.2,-2952.58,8199.48
7.4613e+07,8.08494,2,2.77847,-741.423,-754.182,-27412.2
7.46911e+07,0.959761,0,2.43832,214.02,-188.431,-28785.9
7.50773e+07,95.4925,0,2.62435,7480.29,-4021.69,-10514.9
7.52537e+07,63.7957,0,2.62628,-359.785,-11036.4,-21107.9
7.5261e+07,53.8927,1,2.62093,3451.91,10800.7,-27193.7
7.54559e+07,14.8156,0,2.49743,1518.7,-1643.57,-26550.6
7.54982e+07,2.25115,2,2.76079,-363.27,-133.711,-28473.7
7.57418e+07,133.34,0,2.53152,20617.1,18131.4,-22113.9
7.61455e+07,15.4602,1,2.55142,901.486,-981.537,-25877.5
7.62904e+07,8.75473,1,2.99391,736.773,1579.4,-28046
7.64171e+07,61.1933,1,2.972,5552.61,-6044.55,-19016.1
7.64433e+07,17.1845,1,2.51577,-1408.6,-2948.99,-27297.2
7.64639e+07,50.8191,2,2.69508,-6129.41,-8811.1,-27653.4
7.67419e+07,56.5817,1,3.04348,-4222.97,7072.78,-20205.1
7.70757e+07,35.4537,2,2.40282,2786.76,-4946.32,-23846.6
7.73395e+07,118.163,2,2.77942,-20934,-8632.68,-18385.6
7.7538e+07,29.8713,1,2.73192,1738.67,-3509.85,-23943
7.78113e+07,151.474,1,2.97907,11131.8,-7860.15,-168.143
7.78688e+07,164.448,0,2.97117,23957.7,11447.9,-6789.83
7.79639e+07,172.578,0,2.8627,-21422.9,6819.27,-4443.84
7.81063e+07,29.4481,0,2.40001,872.787,5909.13,-26935.3
7.81773e+07,27.8262,0,2.87584,4331.53,1725.62,-25189
7.83518e+07,10.1729,0,2.64648,1234.41,1580.56,-27877.2
7.84902e+07,25.0048,0,3.00105,-1241.89,3169.92,-24878.5
7.85572e+07,81.7439,2,2.86741,11981.7,3624.05,-17129.9
7.88016e+07,14.4007,2,2.63162,-1055.46,-2408.71,-27136.2
7.89076e+07,52.9859,0,2.88756,5287.53,8963.51,-24712.4
7.90157e+07,102.636,2,2.67136,4429.45,-9824.37,-10015.1
7.90335e+07,322.247,2,2.56806,-20531.5,-22783.1,-2756.43
7.92465e+07,67.3868,0,2.98135,9012.57,-8987.1,-22572.5
7.93079e+07,30.731,1,2.64703,-2645.94,3742.62,-24155.7
7.94661e+07,117.502,1,2.77886,-20125.9,3925.21,-14914.6
7.95297e+07,43.1283,0,2.54944,8003.53,-3952.18,-26519.1
7.98329e+07,51.7129,2,2.66815,-995.52,5827.04,-24370.5
8.0152e+07,115.559,0,2.91671,-14543.5,407.373,-10821.7
8.03604e+07,73.8866,1,2.73642,-2040.56,15199.8,-25649.2
8.07965e+07,50.9401,2,2.49545,1825.19,-5974,-19992.4
8.08352e+07,37.948,0,2.89989,1144.24,-5381.55,-23013.8
8.08712e+07,242.234,1,2.97776,-15514.4,10336.9,18425
8.145e+07,59.7882,2,2.55434,-1733.08,-11131.1,-22914.4
8.20247e+07,62.5242,1,2.58808,-10836.2,-6771.34,-25366.5
8.20255e+07,97.372,0,2.42258,12695,-16251.3,-27213
8.20314e+07,94.425,1,2.46149,5262.42,14731.1,-16324.9
8.21411e+07,58.0469,1,3.03673,8.3947,5658.98,-18016.1
8.21432e+07,1.83435,1,2.56166,-350.628,323.257,-28981.7
8.26206e+07,6.72019,0,2.73528,1426.91,427.202,-28584.1
8.27459e+07,189.934,1,2.64641,-3185.55,20876.4,5267.34
8.29232e+07,27.0247,0,2.74175,-1951.52,4723.5,-26334.5
8.29952e+07,67.8706,2,2.4781,11259.3,-8909.43,-28334
8.35704e+07,95.2693,1,3.0051,13639.3,9817.14,-17997.5
8.4105e+07,7.1505,0,3.0039,-828.993,1199.49,-28999.1
8.41124e+07,250.452,1,2.73259,-6236.42,29704.9,7516.73
8.42626e+07,129.197,1,2.48986,16200.8,7047.77,-8012.39
8.43067e+07,77.7946,0,2.65475,-1324.93,-11846.7,-17553.5
8.50336e+07,53.3107,1,2.98985,2703.49,-7128.9,-20730.4
8.50627e+07,42.0754,0,2.4747,-6461.96,5846.59,-27316.8
8.52295e+07,84.4482,0,2.88886,-412.861,-17593.6,-26350.2
8.52994e+07,165.861,2,2.4208,21778.7,-19041.8,-8958.27
8.53594e+07,8.64528,2,2.8183,-1074.05,-1287.06,-27937.8
8.55902e+07,30.0322,1,2.53489,-5288.58,-987.959,-25382.7
8.57508e+07,176.758,2,2.55241,16783.3,-8765.59,3361.56
8.58308e+07,10.1376,1,2.63649,240.427,2058.66,-28012.5
8.61906e+07,38.957,0,2.40987,-2133.99,-4824.29,-22504.6
8.65182e+07,69.8791,0,2.39619,7440.43,-12295.8,-25080.4
8.6615e+07,50.2106,1,2.94604,5912.16,6596.79,-23071.3
8.66301e+07,59.7062,2,2.69461,-9302.22,2942.84,-20825.2
8.677e+07,141.148,1,2.62307,-4164.1,14982,-3359.23
8.68119e+07,87.887,1,2.47596,-1115.74,-8366.6,-12281.8
8.70592e+07,94.8623,1,2.64851,-19086.3,4479.98,-24507.9
8.7344e+07,115.53,1,2.64267,16059.2,-4999.66,-11252.4
8.76383e+07,14.2577,0,2.75314,1770.81,-2381.98,-28006.7
8.76402e+07,58.5585,0,2.9917,1431.04,6722.44,-18627.1
8.78345e+07,39.568,2,2.86089,59.9426,-441.527,-27934
8.78698e+07,116.703,1,2.36581,-21294.1,-2210.68,-16415.9
8.79462e+07,158.032,0,2.48937,-20601.9,11106.8,-5067.53
8.85386e+07,133.124,1,2.77241,-7589.14,4880.78,-24010.1
8.89124e+07,6.36438,0,2.99728,1190.49,-616.627,-28318.9
0,6.71303,2,2.43768,0,0,0
8.90799e+07,142.189,1,2.54538,-28163.8,2962.53,-18560.6
8.92185e+07,50.7578,0,2.94533,5428.22,-8567.81,-25421.3
8.95305e+07,9.09115,2,2.59434,1882.53,-203.52,-28700
8.98617e+07,12.3818,1,2.59957,1500.84,1893.72,-27687.5
9.00305e+07,71.0897,0,2.65285,2404.3,14679.2,-26710.8
9.06261e+07,71.1868,1,2.36615,-14700.9,3652.77,-29320.4
9.0842e+07,16.0396,1,2.87386,216.919,2752.62,-26805
9.11081e+07,73.38,2,2.63388,-13335.9,3084.46,-21536.9
9.12462e+07,157.149,0,2.41828,6006.35,-23080.5,-25686.8
9.13769e+07,11.3131,0,2.44861,-677.975,922.19,-26767.8
9.14786e+07,21.7293,2,2.45496,-1547.66,-3182.66,-25786.9
9.16926e+07,12.4396,2,3.03548,-1841.82,412.834,-28043.5
9.20028e+07,21.2993,0,2.91816,-1592.5,-2157.71,-25287.6
9.20295e+07,88.7164,1,2.87594,1391.38,13887.5,-16376
9.21346e+07,32.7193,2,2.60956,-2118.83,4726.18,-24337.1
9.21809e+07,0.48676,0,3.27232,199.9,-7.81123,-28915.5
9.23015e+07,35.939,0,2.99706,4588.98,2585.26,-23357.7
9.23951e+07,14.0631,2,2.98145,570.876,-2253.74,-28757.6
9.31821e+07,95.7516,0,2.94765,-12981,-7888.23,-15749.5
9.35188e+07,76.6492,0,2.77985,11856.4,-10534.2,-25519.3
9.35564e+07,94.4362,2,2.62794,7075.14,18439.5,-26651.4
9.36329e+07,39.3624,2,3.06109,213.749,-5059.55,-22269.2
9.37452e+07,13.8232,0,2.84401,-1242.85,-2190.53,-27391.3
9.38802e+07,54.4829,1,2.69176,-2863.01,3539.06,-18245
9.40566e+07,60.6704,2,2.77903,6298.26,-5167.04,-18957.5
9.43962e+07,3.21057,0,2.9509,-195.017,-628.919,-28647.1
9.50854e+07,31.8963,2,2.94408,6187.31,-2616.5,-28767.8
9.51581e+07,78.8955,2,2.46779,-11163.7,12404.3,-28870.1
9.51942e+07,14.822,1,2.9716,2056.44,-400.621,-26552.1
9.5822e+07,76.7805,1,2.73098,1944.61,10955.1,-17029.4
9.59172e+07,6.02929,2,2.62158,-1151.2,119.134,-29521.5
9.64752e+07,51.9299,2,2.37363,-3473.03,-6361.61,-20504.4
9.66279e+07,11.2585,2,2.61668,27.7653,-1907.35,-27302.2
9.66895e+07,28.6598,1,2.6872,-4373.36,1147.22,-24748.5
9.68954e+07,90.4051,2,2.47675,-9224.52,13483.8,-18939.3
9.69739e+07,134.22,0,2.51945,5894.21,15377.4,-5694.02
9.72418e+07,93.171,2,2.67777,-11292.4,-464.133,-18179
9.73191e+07,45.188,1,2.82813,9115.49,1303.57,-26465.8
9.73548e+07,112.367,0,2.76318,4076.1,23323.2,-29728.7
9.73789e+07,63.1256,1,2.46386,-9880.89,3158.38,-20327.9
9.76008e+07,60.9435,0,2.98113,10047.9,7519.75,-26022
9.80054e+07,27.5088,1,2.75572,417.694,5008.83,-25826.6
9.80296e+07,58.3973,2,2.80966,-11650.5,3298.51,-26645.7
9.80339e+07,4.16896,2,2.43146,-289.624,-958.117,-28906.7
9.80568e+07,49.1643,0,2.69784,8041.56,-4030.88,-23548.6
9.81958e+07,9.5439,0,2.55204,-977.568,-1337.22,-27717.8
9.82058e+07,83.0997,1,2.54486,-16595.5,6001.75,-28708
9.8376e+07,19.9987,0,2.82785,2907.73,-1807.82,-26250.1
9.85204e+07,12.6637,1,2.90253,-2466.96,1111.52,-28307.8
9.86113e+07,6.53531,2,2.8023,-1341.3,259.182,-28446.8
9.86363e+07,71.3595,0,2.80141,3678.56,9848.49,-18057.4
9.87082e+07,6.54023,1,2.66912,755.735,945.806,-28058.5
9.8802e+07,126.6,2,2.54106,14815.4,-22006.9,-24934.4
9.8987e+07,156.561,0,2.44417,16483.4,892.757,-65.8041
9.90626e+07,130.177,1,2.55124,-20397.6,-2677.89,-10500.5
9.90732e+07,93.3948,1,3.00927,-18914.3,4198.98,-25563.9
9.91653e+07,130.106,2,2.97895,-3533.6,16509.8,-7430.81
9.93788e+07,5.54286,0,3.01423,881.186,745.053,-28345.4
0,5.53837,0,2.9313,0,0,0
9.93938e+07,6.25347,2,2.68215,391.01,-303.821,-27597
9.96629e+07,127.655,0,2.80929,25223.6,-7636.6,-24439.5
9.98496e+07,57.3465,0,2.56979,5393.53,-9866.28,-24193.8
9.99398e+07,31.4029,2,2.83215,-4777.58,-4618.25,-27872.8
1.00228e+08,21.4383,0,2.83389,2220.63,3199.63,-26462
1.00554e+08,173.006,2,2.97424,16006.9,-6505.45,3043.06
1.00592e+08,122.962,1,2.36459,6599.82,10555.7,-5941.14
1.00734e+08,8.61814,2,2.39738,-1488.93,-1185.48,-29065.2
1.00734e+08,3.27793,1,2.8368,-486.897,587.14,-28981.7
1.00805e+08,36.7199,2,2.80798,-4043.66,-6246.7,-26459.3
1.00896e+08,174.963,2,2.38339,-1842.45,-20377.8,2077.58
1.01221e+08,30.5419,1,2.94521,-2486.49,5954.4,-27891.4
1.01362e+08,57.0684,1,2.52762,-10013.9,4339.63,-23489.8
1.0142e+08,72.7414,1,2.38801,-2617.07,5753.68,-14754.7
1.01478e+08,21.9285,0,2.61073,106.703,3417.85,-25745.8
1.01491e+08,107.903,2,2.89893,-371.728,20470.9,-19257.7
1.01887e+08,69.4425,1,3.00149,9183.07,2640.15,-17839.3
1.02108e+08,4.10331,2,2.7442,-207.223,-543.667,-28116.7
1.026e+08,62.6767,1,2.64258,-9906.64,-5281.2,-21838.6
1.02655e+08,15.0758,0,2.87936,1840.78,1067.66,-26400.8
1.02831e+08,17.7655,2,2.89029,1122.95,1764.3,-25784
1.03056e+08,18.3747,0,2.60423,3697.87,1309.18,-28133.5
1.03153e+08,55.1707,2,2.59988,1244.1,-5810.94,-18764.5
1.03241e+08,111.239,2,2.88741,-16534.6,14826.3,-22182.2
1.03292e+08,7.14343,2,2.47479,-794.197,-990.22,-29839.8
0,7.13089,2,2.50935,0,0,0
1.034e+08,8.03131,1,2.69611,-1425.98,-530.789,-28002.2
1.03632e+08,176.562,0,2.49357,-26296.9,25492.5,-21846.9
1.0364e+08,173.379,1,2.73931,24115.4,12047.8,-4213.78
1.03694e+08,82.6205,0,2.79432,6215.69,-11947.2,-17819
1.03705e+08,150.078,0,2.48225,19269.4,-9549.04,-5464.26
1.03713e+08,10.959,1,2.97646,-1353.62,2010.17,-28891.9
1.03843e+08,154.549,1,2.36234,4860.35,18850.2,-12135
1.04024e+08,181.886,2,2.9554,-25861.4,-233.848,-732.535
1.04284e+08,103.238,2,2.91608,-7794.56,17039.7,-23584.8
1.04547e+08,27.5693,0,2.76104,5687.43,1218.14,-29857.4
1.04661e+08,36.4412,1,2.85915,-3460.93,4615.75,-23688.3
1.04882e+08,137.265,1,2.84883,11724.2,3093.1,-2659.31
1.05099e+08,55.3666,0,2.43662,5864.57,4044.89,-19477.6
1.05737e+08,123.996,1,3.03083,-197.751,26070.8,-28767.1
1.05834e+08,19.8473,0,2.46571,3033,-3032.49,-28965
1.06012e+08,124.025,1,2.41223,-437.763,11406.2,-5157.74
1.06139e+08,66.2582,0,2.50534,8836.87,-4140.85,-18717.5
1.0618e+08,62.6355,1,2.80686,6320.47,-49.5248,-17295.8
1.06248e+08,164.418,0,2.84763,13995.6,7988.26,1779.57
1.06459e+08,54.0282,0,2.58707,-5007.48,-2738.52,-19155.5
1.0686e+08,75.2867,1,2.51719,-8766.23,11610.4,-22144.1
1.06962e+08,185.26,2,2.62084,28914,20403.2,-12376.7
1.06985e+08,21.8666,2,2.86207,-3426.27,-1782.64,-26218.1
1.07097e+08,162.858,0,2.43062,25644.8,19649.1,-16632.7
1.0734e+08,7.12195,2,2.60442,743.043,-455.892,-27574.3
1.07439e+08,76.456,0,2.56634,13946.8,-766.599,-20561.5
1.07537e+08,80.2196,0,2.57966,9529.05,12131,-21680.8
1.07589e+08,39.3406,0,2.89107,6530.39,5118.31,-29710.9
1.07661e+08,35.8347,2,2.36521,-6745.17,3274.81,-27517.6
1.07769e+08,22.3488,0,2.52276,3700.18,-1944.52,-26444.6
1.07831e+08,25.5821,1,2.47907,2752.58,-97.6764,-24180.5
1.07857e+08,201.118,2,2.71447,16592.7,-14994.5,7141.63
1.08129e+08,65.7578,1,2.61497,-10825.7,-8719.45,-28536.5
1.08263e+08,177.664,0,2.83293,13596.5,-6668.97,5306.27
1.08442e+08,56.8847,2,2.79541,-1149.42,-10956.2,-24022.4
1.08758e+08,79.8338,0,2.92809,288.419,8855.79,-21663.3
1.08799e+08,105.038,2,2.85993,-12130.1,7380.65,-11936.3
1.09096e+08,59.3206,1,2.62991,-7813.91,-4292.25,-20052.8
1.09112e+08,41.3943,2,2.93387,-5202.88,1877.61,-22100.7
1.09132e+08,80.1897,0,2.39968,5402.65,-6772.57,-14210.9
1.09149e+08,41.1238,1,2.61427,2796.14,7578.34,-25533.9
1.09207e+08,6.95063,2,2.86019,-528.945,-276.105,-27481.5
1.09408e+08,57.9334,1,2.61454,-6553.1,3600.15,-19095.6
1.09469e+08,77.4674,2,2.48436,3953.19,-15459.3,-24756.2
1.1014e+08,77.8011,2,2.49259,-2798.51,-9692.45,-15758.2
1.1032e+08,43.1582,2,2.75529,3136.59,-6393.43,-23119.1
1.108e+08,146.592,1,2.40013,6028.92,-24029.2,-10280.3
1.11293e+08,2.58939,2,2.3757,-610.068,-134.722,-28814.5
1.11398e+08,8.75963,1,2.62569,440.04,-643.507,-27165.2
1.11448e+08,148.586,0,3.02277,24770.8,-1903.6,-9996.49
1.11908e+08,49.6424,1,3.05432,-6640.92,2826.6,-21264.9
1.11964e+08,4.17923,1,2.9919,436.536,609.712,-28275.1
1.12052e+08,6.98706,0,2.71409,991.406,-32.9569,-27676.1
1.12092e+08,29.8138,0,2.67341,5754.08,1572.9,-26593
1.12097e+08,50.2092,0,2.76119,5868.54,-2326.86,-20290.6
1.12422e+08,140.962,1,2.48309,2315.44,29600.8,-25327.7
1.12572e+08,83.4883,0,2.49015,16842.3,5348.01,-26999.5
1.12839e+08,46.604,0,2.77263,-147.051,5968.39,-21018.4
1.12875e+08,29.9209,1,2.56055,-1217.97,5950.86,-26740.2
1.12907e+08,3.56781,0,2.94419,742.293,352.986,-28621.9
1.13134e+08,65.0654,0,2.60208,3682.38,13241.6,-28748.9
1.13245e+08,2.33286,2,2.60279,-97.0624,-317.49,-28390.1
1.13545e+08,182.603,0,2.50521,27860.1,-25790.5,-21451.9
1.13607e+08,73.045,1,2.96707,-11859.5,9686.59,-27261.5
1.13652e+08,137.163,0,2.4827,-2734.07,26065.9,-22876.3
1.13662e+08,7.24464,1,2.98689,-531.431,1289.42,-28075.9
1.1435e+08,157.301,0,2.37694,19879.2,-15007.9,-6669.56
1.15247e+08,88.2729,0,2.85708,14848,6777.81,-19831.4
1.1532e+08,233.618,1,2.62464,22789.7,-17650.7,11082.1
1.15716e+08,1.39036,0,2.81951,269.752,20.5811,-28588.3
1.16007e+08,87.8429,2,3.00168,-11962.5,6831.01,-16598.1
1.16248e+08,3.85488,2,2.95493,402.327,166.962,-28165.2
1.16403e+08,8.988,0,2.89982,686.148,-609.705,-27124
1.16412e+08,2.92197,1,2.75184,157.751,677.873,-28857
1.16927e+08,107.953,1,2.65802,12249.9,2750.44,-9825.36
1.16929e+08,119.971,0,2.72086,-7834.64,-20880.7,-16937.2
1.16978e+08,78.6439,0,2.46843,-4923.76,-13067.1,-19784.2
1.1741e+08,3.46359,2,2.71269,49.7029,-739.693,-28484.5
1.17577e+08,15.4989,2,2.78836,2641.98,-137.258,-26935.3
1.17807e+08,41.9992,2,2.50502,-6100.88,-3123.45,-23065.6
1.17832e+08,16.3525,1,2.96163,-2056.55,2080.22,-26924.4
1.18149e+08,219.399,1,3.05409,17835.6,-21386.7,7626.49
1.18546e+08,21.9183,1,2.69745,-3609.16,-2247.38,-27028.1
1.18591e+08,128.166,0,2.74939,21933.9,-13116.3,-19912
1.19294e+08,58.5121,1,2.66382,8536.24,-4783.87,-21352.3
1.19384e+08,90.3978,1,2.71599,-10446.5,-15870.3,-27859.9
1.19632e+08,6.18985,0,2.62897,950.334,-906.784,-29261.5
1.19723e+08,32.6503,0,2.80487,-1587.28,383.279,-25611.8
1.19791e+08,10.931,0,2.644,2236.88,651.732,-29402.5
1.2001e+08,121.338,1,2.53787,-13849.3,-11061.8,-10282.6
1.2001e+08,1.68735,1,2.87891,258.169,273.161,-28761.8
0,1.71128,1,2.91508,0,0,0
1.20116e+08,31.1068,0,2.6858,358.781,6181.83,-26600.4
1.20631e+08,74.5108,2,2.46394,-9655.3,-7769.36,-18972.1
1.20815e+08,39.3446,0,2.87221,8014.88,-2319.84,-28056.7
1.2093e+08,207.061,2,2.66874,-8779.52,-19130.6,9464.67
1.2122e+08,37.6421,1,2.65687,764.162,-3247.04,-21635.3
1.21412e+08,26.034,2,3.00074,1561.91,-5249.15,-27917
1.21532e+08,17.3563,2,2.87285,-3573.36,125.348,-27902
1.21596e+08,161.271,2,2.57889,1869.23,26317.9,-7400.59
1.22195e+08,125.86,1,2.88851,-20673,9900.32,-15536.9
1.22205e+08,70.4941,1,2.6216,-7102.02,1966.74,-16298.6
1.2232e+08,31.5733,2,2.76769,-3236.18,3370.9,-24109.5
1.22324e+08,113.173,1,3.04567,-8945.74,-4980.77,-7514.96
1.22362e+08,26.7585,0,2.7328,4889.88,-2958.69,-29481.8
1.22395e+08,23.6825,0,2.63826,2927.28,2349.76,-25437.4
1.22428e+08,215.814,1,2.54454,-769.211,24667.3,9573.65
1.2279e+08,8.51466,1,2.83112,-1111.9,-1206.34,-28384.9
1.22931e+08,57.7654,1,2.40536,871.756,9368.91,-20973.6
1.2318e+08,56.8762,2,2.62865,6130.05,-9284.92,-24162.4
1.23431e+08,85.7809,2,2.9365,10468.9,12900.8,-22082.1
1.23436e+08,303.418,2,2.93155,-12701.6,21034.2,29686.4
1.23483e+08,96.0381,2,2.54484,15216.2,-2558.02,-15664.6
1.23485e+08,2.03846,1,2.62192,331.801,-153.919,-28699.4
0,1.99012,1,2.74953,0,0,0
1.23508e+08,62.6976,0,2.93403,-1164.92,11415.8,-22425.1
1.23673e+08,14.1132,0,2.60553,2569.89,37.8039,-27157.8
1.24021e+08,91.3587,2,2.80332,12825.7,-11600.3,-20355.9
1.24257e+08,66.0114,1,2.55602,3957.58,13442,-28482.4
1.24654e+08,97.0891,2,2.53282,-13509.6,-4157.56,-13876
1.24722e+08,91.4026,1,2.58078,5011.85,18436.4,-25466.4
1.24817e+08,40.3016,2,2.36969,-8343.6,436.578,-26818.4
1.25078e+08,0.971503,1,2.83003,-252.29,190.186,-28797.4
0,0.971511,1,2.83003,0,0,0
0,1.01259,1,3.05373,0,0,0
1.25543e+08,58.163,0,2.44359,-735.305,12267,-29321.2
1.25711e+08,117.663,1,2.94581,11707.9,21767.9,-27691
1.26029e+08,170.225,1,2.97517,-2135.1,16104.7,2946.63
1.26584e+08,32.7516,0,3.0396,6945.36,509.662,-28561.8
1.26736e+08,16.8198,2,2.79053,2006.08,-1682.42,-26426.6
1.26995e+08,167.662,0,2.95913,19169.3,17425.7,-4974.96
1.27373e+08,0.941275,1,2.88753,-125.067,92.8422,-28627.8
0,0.944004,1,2.9618,0,0,0
1.27462e+08,85.9615,0,3.00502,-4206.81,11815.6,-18598.2
1.27525e+08,50.4179,0,2.53893,-7048.84,-4909.3,-22589.8
1.27979e+08,142.65,0,2.83091,21897.7,-13135.3,-12959.5
1.28031e+08,66.4111,2,2.92065,1554.93,3848.71,-28855.4
1.28062e+08,37.1856,1,2.92491,4749.58,3916.63,-23997.9
1.28348e+08,24.4332,1,2.56424,-1930.52,-3301.16,-25375.5
1.28913e+08,106.668,0,2.94926,6841.26,17271.8,-16338
1.28982e+08,164.103,2,2.6524,-21347.8,17514.5,-7994.07
1.2939e+08,148.196,2,2.85357,13169.4,2699.61,-746.001
1.29881e+08,36.8696,0,2.70488,3035.05,-1420.9,-21783.5
1.29925e+08,179.57,2,2.90365,-12364.5,-12438.7,4594.22
1.30059e+08,6.16891,0,2.64705,1077.72,857.02,-28727.8
1.30152e+08,92.45,2,2.99151,8306.61,-15488.2,-20546.6
1.30268e+08,65.6091,1,2.87126,5938.81,-11435.9,-24078
1.31168e+08,44.2366,1,2.64022,8621.99,3282.39,-27300.9
1.31868e+08,37.0379,0,2.49912,3442.48,5151.09,-23940.2
1.31911e+08,129.245,2,3.05477,23936.6,-11226.5,-22952.6
1.32315e+08,192.675,1,2.85947,2397.53,16095.1,-8720.26
1.3289e+08,137.772,1,2.61713,-16853.3,1623.61,-5131.11
1.32931e+08,95.5865,0,2.44133,-9568.5,8416.75,-23175.7
1.33227e+08,12.8744,2,2.59471,951.154,-2633.94,-28742.8
1.33253e+08,3.01689,0,2.73492,670.711,-334.222,-28853.8
1.33355e+08,19.7624,1,3.00479,-3761.85,-1714.4,-28312.9
1.33695e+08,22.3331,0,2.87552,-11.3127,-1879.73,-24514.3
1.33787e+08,11.4322,1,2.44779,-1084.53,2088.51,-27943.6
1.341e+08,5.19679,0,3.0575,435.846,-1027.87,-28604.2
0,5.09328,2,2.80237,0,0,0
1.34113e+08,165.499,1,2.52843,-4321.26,-14193.2,-23331.7
1.34365e+08,34.323,2,2.82683,4111.4,-498.771,-22938.3
1.34365e+08,155.004,2,2.64423,-22501.4,22662.1,-22438
1.34684e+08,43.3974,0,3.04904,2699.94,-2605.66,-29581.8
1.34816e+08,9.63787,0,2.38016,1394.11,-1053.9,-27641.2
1.34882e+08,92.5858,2,2.6288,1724.69,-16196.5,-17922.2
1.3518e+08,39.8177,2,2.66925,-5673.75,4368.69,-24434.6
1.35206e+08,72.836,0,3.04999,3147.3,6584.25,-15400.2
1.35217e+08,103.42,2,2.96981,3739.73,-20697.1,-23194.8
1.35857e+08,114.405,1,2.9075,-4285.74,15609.2,-17155.3
1.36878e+08,5.34308,1,2.68543,-155.941,977.315,-28153.8
1.36892e+08,187.906,1,2.54105,-21068.7,17939,-6733.47
1.36936e+08,56.3361,0,2.62492,5803.9,5864.47,-20181
1.37785e+08,123.873,0,2.98634,4539.65,3915.18,-6306.53
1.38054e+08,34.8863,0,2.90377,-3375.1,3548.3,-23411.9
1.38255e+08,94.716,2,2.8783,13532.3,-9318.6,-17615.2
1.38522e+08,214.559,1,2.5339,-10926.6,-21821.7,1056.49
1.38544e+08,1.25989,2,2.80008,-219.24,-185.972,-28647.9
1.38737e+08,109.623,1,2.36558,-11794.5,6648.12,-9921.57
1.3883e+08,9.3757,2,2.46755,-2010.49,-324.831,-29028.6
1.3902e+08,3.94879,2,3.00439,-305.726,-588.18,-28228.4
1.39119e+08,28.4187,0,3.02774,787.801,-5135.18,-25864.6
1.39473e+08,4.80989,0,2.5864,904.661,-379.293,-28319.2
1.39521e+08,56.5765,2,2.62081,-2150.56,-11442.2,-25723.2
1.40128e+08,23.2215,2,2.48236,-3174.21,-3829.74,-28299.2
1.40363e+08,4.17079,0,2.78419,761.631,581.151,-28882.5
1.40485e+08,114.966,1,2.72078,-22324.7,9588.72,-29771.6
1.41048e+08,124.753,1,2.91258,-21675.9,-1892.26,-26881.4
1.41078e+08,163.64,1,2.80149,-10807,19536.7,-2556.2
1.41982e+08,136.04,0,2.9081,23568.2,16084.2,-26180.2
1.42297e+08,184.468,1,2.52677,-27065.1,25904.4,-17684.1
1.42335e+08,50.0291,2,2.75658,7621.16,-3965.19,-22692.6
1.42495e+08,26.2618,0,2.96634,2402.07,204.911,-23824.4
1.42953e+08,131.59,2,2.41479,10707.3,-25049.1,-22770.6
1.43042e+08,152.813,0,2.91129,6260.44,-28531.1,-18363.3
1.43049e+08,3.19012,0,2.81362,65.4051,344.046,-28227.5
1.43136e+08,3.22084,0,2.66726,664.196,-56.2313,-28454.9
1.43325e+08,76.8224,1,2.58286,2694.38,3648.48,-20373.1
1.43377e+08,61.0515,0,2.69045,-1456.67,-6946.38,-18133.6
1.43744e+08,26.9155,1,2.56144,-495.379,5712.48,-29711
1.43905e+08,33.0457,2,2.80841,-2560.02,-5484.17,-25258
1.44059e+08,95.6199,0,2.51762,17330.4,-9500.5,-24180.4
1.4437e+08,174.633,0,2.75378,20460.3,-225.714,1752.55
1.44373e+08,90.6019,2,3.05946,9906.83,-13557.3,-19918.8
1.44919e+08,172.435,0,2.84345,585.982,-23860.2,-1526.31
1.44941e+08,118.464,0,2.50954,9947.08,-7829.69,-7169.92
1.44979e+08,26.1542,2,2.92009,-2917.55,1567.19,-24417.1
1.4552e+08,6.02568,0,2.53611,1085.1,-826.096,-29069.6
1.46035e+08,71.9261,2,3.02009,1448.64,-7081.75,-16606.4
1.4632e+08,35.1035,1,2.61488,4778.25,3191.77,-24175.5
1.46499e+08,52.9173,1,2.77281,609.109,10181.8,-24134.6
1.46775e+08,30.8868,2,2.69404,-324.942,4183.93,-23896.1
1.46905e+08,87.9346,0,2.8612,9445.89,-11717.3,-22673.3
1.47546e+08,27.4835,2,2.58531,3055.54,-5017.83,-29027.6
1.47596e+08,111.183,1,2.40611,-17563.4,10011.2,-16647.1
1.48432e+08,2.5775,0,2.89303,583.005,-55.1925,-28602.9
1.48498e+08,185.366,0,2.45055,15114.5,23330.3,-4945.5
1.48602e+08,40.4706,2,2.69767,-1334.64,7741.57,-25592.9
1.48779e+08,18.5582,1,2.77912,2179.86,1846.91,-26139.8
1.48991e+08,180.873,2,2.78582,-25219.8,14175.2,-12270.1
1.49302e+08,16.2214,0,2.88085,2154.07,304.122,-26132.8
1.49549e+08,169.103,1,2.83349,10625.8,-27014.2,-8435.96
1.49772e+08,75.3432,1,2.49337,-14366,1177.74,-21893.6
1.49929e+08,11.2723,1,2.38378,-1808.55,1670.85,-29223.3
1.49988e+08,114.134,1,2.88655,-543.503,9239.14,-6710.22
1.50013e+08,12.0226,1,2.82021,-1704.56,319.074,-26950.6
1.50231e+08,59.2569,1,2.53178,8343.78,4504.93,-20619.4
1.50402e+08,8.37641,1,3.06169,1321.22,1178.56,-28594.6
1.50461e+08,82.7422,1,2.65556,-135.789,13733,-17934
1.50509e+08,226.948,1,2.47289,25426.7,-15625.9,8685.21
1.5077e+08,51.528,0,2.57264,-1387.09,-10288.5,-25520.2
1.50984e+08,143.242,0,2.97186,22938.1,4979.95,-9982.06
1.51428e+08,29.8302,2,2.36944,1000.44,-3078.93,-23373.6
1.51437e+08,19.4814,0,3.03334,-2794.7,-1816.52,-26526.9
1.51536e+08,10.2617,0,2.36546,2129.41,-790.743,-28684.7
1.51652e+08,47.1061,0,2.87821,5473.76,7978.16,-26432.4
1.51857e+08,43.0319,2,2.86048,260.475,4381.1,-20988.9
1.52434e+08,75.5438,2,2.7384,5601.56,-9906.6,-17634.8
1.52514e+08,1.83445,1,2.80864,-115.629,477.939,-28861.8
1.52568e+08,232.701,0,2.71916,29806.3,-11071.7,8363.2
1.53148e+08,119.154,1,2.92101,13302.2,2261.47,-7787.67
1.53343e+08,23.0001,1,2.66724,550.294,299.517,-29835.5
1.53459e+08,37.3228,2,2.63162,-5476.96,-4878.29,-25704.5
1.53518e+08,19.2509,0,2.65786,2653.28,-3053.92,-29754.6
1.53531e+08,155.092,1,2.87938,-12876.8,6056.24,-3941.59
1.54509e+08,36.2242,0,2.95818,-4062.58,-1953.28,-22759.6
1.54514e+08,75.02,1,2.86291,-10132.1,10413.3,-22504.9
1.54969e+08,73.4532,1,2.99552,6865.51,1736.32,-15171.5
1.5504e+08,53.7784,2,2.91314,-5494.41,4754.89,-20173.6
1.55112e+08,23.3549,2,2.79012,1170.62,3227.84,-25350.3
1.55208e+08,252.093,2,2.97496,2762.58,-28316.3,15756
1.55217e+08,139.317,2,3.04995,-18877,-18331.7,-16695
1.55225e+08,93.4979,0,2.44143,17001.6,1113.05,-18608.6
1.55314e+08,113.132,1,2.79831,16128.7,-7588.18,-13131.7
1.5533e+08,28.7026,0,2.8086,2056.82,-1106.76,-23222.3
1.55532e+08,51.8588,0,2.86915,-2762,-4757.45,-24117.9
1.55537e+08,29.2731,1,2.4016,-5754.44,-1280.84,-26791.5
1.55634e+08,10.818,1,2.99398,-848.231,1616.19,-27354.4
1.5572e+08,12.7149,1,2.88383,-1680.75,2186.43,-28420.2
1.55981e+08,5.99445,2,2.89853,627.734,-43.0494,-27745.1
1.56215e+08,118.936,2,2.9512,-7647.19,6351.38,-27999.1
1.56242e+08,30.5087,1,2.40406,-1404.41,6103.9,-26978.4
1.56247e+08,123.527,2,2.80992,16880,-12283,-22482.5
1.56331e+08,10.6678,1,2.57525,-2183.06,151.071,-29616.8
0,10.7167,1,2.37377,0,0,0
1.56345e+08,31.8844,0,2.58554,5295.05,4002.48,-27206.6
1.56423e+08,6.11861,2,2.83837,1173.17,-556.325,-28858.2
1.5651e+08,51.376,2,2.81406,6201.84,-8921.62,-28785.1
1.56634e+08,39.7894,1,2.65662,-7271.14,-3808.14,-26885.8
1.56801e+08,1.41395,0,2.60413,372.282,148.703,-28811
1.57379e+08,11.1652,1,2.7236,693.726,-1675.81,-27415.3
1.57965e+08,31.8401,2,2.86068,6581.01,685.674,-29627.8
1.58017e+08,84.7553,0,2.43982,13453.1,-8285.86,-20213.5
1.58199e+08,75.5522,2,2.51317,-3820.46,15231.2,-26147.1
1.5848e+08,136.571,2,2.73204,3560.11,-24463.8,-13987.8
1.58502e+08,1.58218,0,2.83353,109.214,-356.611,-28808.6
1.58569e+08,2.64941,2,2.86546,277.202,-7.68595,-28362.7
0,2.31758,0,2.78803,0,0,0
0,2.35756,0,2.5867,0,0,0
1.58617e+08,147.568,2,2.38885,13354.7,4990.73,-1092.32
1.58679e+08,27.2658,0,2.8647,285.575,2262.89,-23566
1.58771e+08,185.518,2,2.47955,-7919.66,-24232.6,1033.69
1.58915e+08,101.686,2,2.73251,4952.67,-20411.5,-24433.4
1.58933e+08,159.826,1,2.57957,-23235.3,22123.2,-18085.3
1.59133e+08,42.0308,1,2.64337,-305.009,8531.55,-26076
1.5925e+08,70.6683,2,2.38495,11214.9,-5105.24,-20327.9
1.59439e+08,13.5536,0,2.40367,1004.48,687.216,-26192.7
1.59464e+08,67.673,2,2.89457,-6694.12,-2660.54,-16525.1
1.59471e+08,23.5587,2,2.56377,3001.14,-2303.42,-25540.3
1.59532e+08,177.696,2,2.95027,-15543.9,-18500.4,-367.694
1.59791e+08,43.2571,0,2.74758,-3184.27,6774.95,-23639.5
1.60005e+08,11.3824,2,2.79937,217.052,-1105.59,-26671
1.60318e+08,60.6063,0,2.36778,-767.842,12830.7,-28905.8
1.60829e+08,8.1079,0,2.51465,-779.399,-623.452,-27453.4
1.61113e+08,38.9949,1,2.53557,-5806.02,5741.37,-27077.2
1.61116e+08,10.2443,2,2.86597,-1661.67,-1072.26,-29863.7
1.61161e+08,3.12493,2,3.04074,-645.544,-169.257,-28530.7
1.61166e+08,30.3327,0,2.80673,-3305.47,4701.63,-26172.7
1.62094e+08,69.9251,2,2.86052,-9067.02,-11672.9,-29710.2
1.62392e+08,1.6682,1,2.66839,4.23463,402.406,-28662.4
0,1.63831,1,2.94467,0,0,0
1.62434e+08,43.6504,0,2.63232,2931.26,-6460.35,-22887.7
1.62536e+08,59.6299,0,2.38827,5257.89,4666.89,-18295.1
1.62581e+08,146.966,0,2.74095,-545.294,-1217.36,-26064.6
1.6259e+08,128.801,1,2.98627,231.578,24772,-17882.9
1.62711e+08,75.4108,2,3.01164,5315.74,-7831.39,-18498
1.62943e+08,110.051,0,2.77054,15870,1999.81,-12001.1
1.62956e+08,68.6473,2,2.83101,-1063.84,14008,-28828.8
1.62963e+08,1.24039,2,2.44296,-254.08,10.7295,-28651.8
0,1.22339,1,2.83034,0,0,0
0,1.19621,1,2.40612,0,0,0
1.63102e+08,197.288,1,2.72426,12625.4,28778.2,-15187.9
1.63432e+08,83.0907,1,2.41106,1830.61,8733.3,-13647.8
1.63458e+08,20.6426,1,2.8743,-2491.13,468.945,-26507.3
1.63497e+08,11.4015,1,2.52687,-2094.4,170.2,-27562.1
1.64146e+08,64.6618,1,2.93482,-641.528,-6944.97,-17213.6
1.64447e+08,69.5244,2,2.46669,79.0898,-5558.11,-18890.4
1.64485e+08,79.7781,2,2.56686,-11930.8,-7842.09,-19718
1.64769e+08,100.465,0,2.64549,-1632.36,19015.2,-19558.9
1.64903e+08,4.9669,1,2.86729,-562.452,976.733,-29084.8
0,4.99962,1,2.93058,0,0,0
1.64941e+08,87.4791,0,2.99152,12464.9,-253.504,-15306
1.65079e+08,96.108,2,3.00568,11649.5,-120.458,-16938.7
1.65322e+08,20.3645,2,2.72997,-2591.27,-2320.48,-26188
1.65879e+08,9.90492,0,2.56615,-720.126,-1710.68,-27877.8
1.66352e+08,74.0282,2,2.89292,-12359.6,-1103.8,-19388.8
1.66396e+08,57.9703,1,2.6381,-7631.35,9457.11,-26790.4
1.66503e+08,4.00926,0,3.06027,425.028,109.001,-28057.4
0,4.03382,0,2.95417,0,0,0
1.66554e+08,38.7526,0,2.91592,7998.85,-1875.41,-28127.9
1.67195e+08,8.95724,2,2.80724,1208.11,-1427.6,-29401.9
1.67292e+08,68.056,0,2.83414,2713.21,-5781.53,-16015.2
1.67539e+08,8.60754,2,2.57484,466.633,-1829.13,-28728
1.67686e+08,104.177,0,2.99476,-11398.5,-15137.3,-18038.9
1.67718e+08,168.695,2,2.62802,196.96,806.768,-27375.8
1.67974e+08,219.308,2,2.68035,212.245,-2735.57,-27616.8
1.6807e+08,176.196,0,2.721,24111,27453.2,-21896.2
1.6864e+08,165.367,0,2.63057,83.5223,-21042.1,-985.149
1.68663e+08,42.6183,0,3.02497,3643.16,-5274.13,-22541.1
1.69411e+08,22.8186,2,2.55742,-1561.83,2526.83,-25035.2
1.69532e+08,111.694,1,3.02406,-17067.6,-5842.11,-25437.4
1.69705e+08,8.11819,2,2.773,-411.54,1083.98,-27618.8
1.69901e+08,69.2669,2,2.44688,6747.79,-9605.71,-20021.3
1.7007e+08,199.426,2,2.68369,3410.83,-21356.2,7273.46
1.70147e+08,72.4087,0,2.90192,-572.82,-7910.67,-15871.7
1.70224e+08,58.1807,2,2.36497,1033.52,-10731.6,-22717.8
1.70584e+08,14.2151,1,3.02593,-2829.66,1146.52,-28414.4
1.70597e+08,31.3655,2,2.38056,-1162.14,-6599.78,-28233.7
1.71054e+08,40.7701,2,2.8902,8347.41,-1515.33,-29920.2
1.71901e+08,19.87,0,2.65498,-201.408,2131.16,-25615.8
1.72105e+08,14.0429,1,2.40398,2114.96,874.992,-26938.7
1.72433e+08,28.8405,2,2.52652,3378.47,2456.07,-24453.9
1.72453e+08,0.261049,1,2.43939,-98.6005,22.0057,-28805.4
0,0.424269,2,2.22448,0,0,0
0,0.217861,1,3.12024,0,0,0
0,0.323594,1,3.19294,0,0,0
0,0.259679,1,3.27016,0,0,0
0,0.268893,1,3.65065,0,0,0
0,0.232238,1,3.41496,0,0,0
0,0.21332,1,2.1205,0,0,0
0,0.476685,2,2.12913,0,0,0
0,0.368731,2,2.57013,0,0,0
0,0.306257,1,3.6021,0,0,0
1.72505e+08,11.2095,0,2.619,1476.04,1842.9,-28221.9
1.7257e+08,44.8248,0,2.36925,8884.39,-938.385,-25362.7
1.72733e+08,28.218,0,2.47556,2360.75,-4909.24,-26256.8
1.72942e+08,99.2244,1,2.90574,-14925.8,-6863.97,-16032.5
1.73017e+08,64.2902,2,2.47505,2045.21,-5248.5,-16433.3
1.73719e+08,100.289,1,2.58739,-15932,8765.43,-17853.2
1.73793e+08,123.699,0,2.73963,18042.8,-17726,-22234.2
1.73857e+08,80.6586,0,2.69001,10219.3,-9441.26,-18930.6
1.73908e+08,8.24413,2,2.57824,-145.938,-1706,-28202.9
1.73936e+08,100.561,2,2.70892,11812.8,-5623.99,-13359.5
1.74134e+08,47.1894,1,2.67736,2623.33,7516.46,-22775.2
1.74401e+08,34.8405,1,2.83703,-3626.21,5286.56,-25121.1
1.74459e+08,61.2003,0,3.04026,-6209.7,-7434.97,-20476.6
1.74645e+08,125.663,0,2.6775,21452.4,-2864.08,-13441.3
1.74967e+08,24.3422,0,2.94317,2340.05,3185.59,-25525.8
1.75083e+08,43.5154,0,2.86183,-5766.02,5862.94,-28063.4
1.75141e+08,26.6475,0,2.87881,5027.61,-911.087,-26328.6
1.75284e+08,84.0205,0,2.654,10732.5,13997.9,-26495.8
1.75327e+08,26.629,0,2.64382,-4727.31,1456.71,-26255.4
1.75411e+08,42.9055,2,2.59255,-3011.73,6538.5,-24514.2
1.7555e+08,117.524,0,2.78496,17051.7,10999.6,-14579.7
1.75847e+08,281.227,0,2.47649,16229.4,-2698.43,-12809.2
1.75893e+08,60.5368,1,2.61528,-368.493,-8504.88,-19358
1.75974e+08,47.8152,1,2.93668,5967.16,8101.69,-28376.7
1.76539e+08,37.8005,1,2.41765,938.379,4567.81,-22267.9
1.76768e+08,15.99,1,2.66987,-663.123,-2388.17,-26600.1
1.76848e+08,46.1704,2,2.53668,-4908.2,-8076.34,-25992.7
1.77421e+08,57.1686,2,2.53122,-8801.26,4808.72,-22097.9
1.77543e+08,0.266328,1,2.44668,-55.6605,57.9832,-28758.2
1.77578e+08,16.2842,0,2.81722,2830.58,-1668.49,-27557.7
1.77971e+08,132.272,2,2.59265,-16976.1,6584.9,-7652.36
1.7817e+08,24.5645,2,2.69154,1426.71,-4997.71,-29773.5
1.78528e+08,85.3031,1,2.58727,10988,8838.75,-17561.6
1.78582e+08,5.25441,0,2.9564,750.419,419.074,-28030.1
1.78863e+08,217.194,2,3.03581,-19713.4,-22602.3,5429
1.78972e+08,39.1236,0,2.37769,1663.35,7058.59,-24750.3
1.79618e+08,138.756,1,2.87169,-20939.2,-10941.7,-11705.4
1.79661e+08,59.4142,0,2.6729,9910.3,-2720.34,-21511.3
1.80018e+08,136.705,0,2.616,24561.2,5892.16,-14710.9
1.8038e+08,176.931,1,2.8645,-16260.7,8438.18,3560.53
1.80389e+08,39.0035,1,2.48786,-630.383,8309.01,-29525.2
1.80775e+08,142.886,1,2.87196,-3584.15,6536.75,-12496.6
1.81445e+08,120.68,1,2.47155,10372.3,-9178.24,-7467.32
1.81569e+08,199.97,1,2.86241,9730.95,-14364.9,-28754.9
1.81618e+08,0.185917,0,3.38798,151.699,37.3045,-28832.6
0,0.182884,0,2.45606,0,0,0
0,0.237117,0,2.42198,0,0,0
0,0.234265,0,2.35473,0,0,0
0,0.223385,0,3.88754,0,0,0
0,0.212432,0,2.98446,0,0,0
0,0.224167,0,3.64799,0,0,0
0,0.200524,0,2.54028,0,0,0
0,0.183837,0,2.92944,0,0,0
0,0.185447,0,2.20298,0,0,0
0,0.182455,0,3.66904,0,0,0
0,0.185046,0,2.61955,0,0,0
0,0.176814,0,2.88383,0,0,0
0,0.185289,0,3.30564,0,0,0
0,0.178573,0,3.82477,0,0,0
0,0.211087,0,2.49785,0,0,0
0,0.206878,0,3.64046,0,0,0
1.81714e+08,81.4847,2,2.96032,16879.9,2489.81,-28336.3
1.81846e+08,0.396116,0,3.99509,96.0989,-109.85,-28838.9
0,0.36896,0,2.23619,0,0,0
0,0.338546,0,3.31214,0,0,0
1.81858e+08,2.83519,2,2.76154,-478.411,-201.988,-28418.3
0,2.84399,2,2.51912,0,0,0
1.81976e+08,37.1555,1,2.79143,-3648.05,6840.74,-27315.6
1.81994e+08,1.40625,0,2.66104,-62.9484,-2.43312,-28569.1
0,1.34936,0,2.63546,0,0,0
1.82395e+08,58.968,1,2.41188,6006.02,3090.95,-18327.7
1.82933e+08,6.07839,0,2.43787,250.525,-1178.44,-28348.4
1.83374e+08,55.5531,2,2.58396,-8631.95,-8094.74,-28229.9
1.83522e+08,10.9521,2,2.92134,-1630.68,1626.24,-29112.9
1.83595e+08,17.9742,2,2.84967,997.393,2652.13,-26398
1.83656e+08,83.3878,2,2.6691,-4689.14,-5358.87,-12706.5
1.83816e+08,13.1319,2,2.36494,2445.89,1129.4,-28352.2
1.84317e+08,35.0594,0,3.03252,1807.62,3914.27,-22837.2
1.8435e+08,169.39,0,2.95479,-21206.6,15672.2,-13683.6
1.84849e+08,39.5834,0,2.47372,3936.7,-4498.28,-22928.7
1.85082e+08,7.59067,0,2.81367,578.403,-442.522,-27378.2
1.85555e+08,124.692,1,2.45983,-5217.16,5267.82,-28237.3
1.85851e+08,41.0623,0,2.4734,677.427,-8650.41,-28288.1
1.85899e+08,71.463,2,2.69746,-11203.7,-6240.87,-20806.1
1.86158e+08,188.228,2,2.82466,-11493.2,5983.16,-2251.46
1.86226e+08,60.9113,1,2.44265,7813.32,-5371.57,-20206.5
1.86233e+08,41.283,2,2.41939,1686.4,-6166.09,-22786.9
1.86254e+08,22.2359,1,2.37518,-1676.25,1683.02,-24709
1.8628e+08,107.665,0,2.85272,8973.54,13766.9,-13258.3
1.86323e+08,55.2252,2,2.82602,1659.54,-5893.64,-18916.9
1.86427e+08,52.8046,0,2.86992,3589.07,4390.32,-19243.3
1.86489e+08,249.087,2,2.80697,-9221.49,-28391,14287.7
1.86907e+08,30.1951,2,2.38327,-2225.1,4518.06,-24930.7
1.87003e+08,195.699,2,2.41909,-9085.16,-10307.4,-8442.18
1.87364e+08,246.544,1,3.00256,-16599.4,19411.5,-23454.1
1.87522e+08,167.065,0,2.68577,19681.9,-2497.24,300.622
1.87784e+08,88.734,1,3.03517,-7614.18,-16886.8,-27609.5
1.88401e+08,99.4196,1,2.57209,-4081.93,16118.9,-15923.5
1.88595e+08,118.842,2,2.57376,22307.3,-3913.93,-18065.6
1.89022e+08,150.203,0,2.61442,21811.7,-11906.3,-9061.64
1.89088e+08,44.2296,1,2.81165,-4228.58,8131.41,-26763.3
1.8933e+08,53.6527,2,2.4189,8893.54,2765.18,-22377.3
1.8947e+08,122.27,2,2.78341,-20561.6,10690.2,-17652.1
1.89471e+08,20.9381,1,2.6711,13.2244,2751.08,-25324.5
1.89646e+08,219.046,2,2.47171,-20012.7,16372.4,-3216.6
1.89655e+08,150.313,1,3.05419,-22099.7,-17827.4,-20281.1
1.89728e+08,36.066,0,2.72838,4133.84,-6420.09,-27987
1.9019e+08,64.856,2,2.50826,-12544.1,3675.4,-24540.7
1.9029e+08,75.364,2,2.51083,-1731.27,-9367.88,-16008.7
1.90345e+08,85.7171,0,2.46873,-12550,1888.87,-15932.5
1.90505e+08,252.196,2,2.80657,-14657.1,-21644.9,8809.03
1.90575e+08,51.9509,2,2.7785,-7984.08,-1393.35,-21401.9
1.90652e+08,23.4243,2,2.36523,3483.61,-1313.64,-25530.3
1.90684e+08,35.3242,1,2.44881,-575.842,7260.68,-26762
1.90898e+08,49.0421,1,2.37909,-1302.72,10373,-28395.2
1.91119e+08,18.7489,1,3.05093,-1346.01,-1950.96,-25751.4
1.91235e+08,7.5568,1,2.99102,-1197.43,899.794,-28094.6
1.91371e+08,25.1677,1,2.54692,2808.91,1351.78,-24531.3
1.91522e+08,184.777,0,2.96663,-5883.84,12157.6,-23020.3
1.91644e+08,120.693,2,2.85186,9771.71,-8827.72,-7131.42
1.91865e+08,21.3179,1,2.78264,-4454.76,83.381,-29844.8
1.9193e+08,11.6849,0,2.99433,1637.99,400.23,-26951.5
1.92035e+08,44.7306,1,2.65252,-8081.43,4194.66,-26013.1
1.92059e+08,101.422,2,2.82471,14010.3,1623.75,-13102.8
1.92318e+08,57.8871,0,2.58724,6864.85,-6433.17,-20952.7
1.92822e+08,68.7414,1,2.78899,2545.76,14301.2,-27780.3
1.93091e+08,95.3391,0,2.65025,-14986.5,13328.2,-27829.2
1.9315e+08,4.60367,1,2.83188,517.888,883.764,-28653
1.93356e+08,240.641,0,2.73041,1807.87,3185.76,4417.34
1.93582e+08,14.4487,2,2.79277,2574.05,-1151.18,-27615.7
1.93723e+08,174.152,1,2.55522,-18367.9,22396.6,-6020.24
1.94146e+08,154.118,0,2.91734,435.28,-28435.6,-13367.2
1.94147e+08,20.7137,0,2.74971,-2003.89,873.008,-25122.9
1.94442e+08,96.4601,0,2.62297,7893.51,1440.31,-10072.3
1.9467e+08,27.198,0,2.80302,3202.03,-591.954,-24069.5
1.94963e+08,90.5945,1,2.61296,6992.32,8897.82,-13378
1.95039e+08,48.9184,0,2.41136,7379.75,3752.28,-22510
1.95098e+08,60.8188,0,2.45264,-8590.13,6906.1,-22305.3
1.95146e+08,13.4424,2,2.61048,-1731.99,-2145.37,-27793.7
1.9517e+08,112.058,1,2.90275,-15155.3,9092.13,-15856.8
1.95181e+08,50.409,1,2.97434,731.381,8379.03,-22299.8
1.95343e+08,189.37,0,2.41195,21679,9944.63,3422.72
1.95467e+08,16.8516,2,2.84544,2708.67,1237.54,-26974.1
1.95489e+08,119.37,2,3.04192,-6194.75,21979.1,-18770.6
1.95974e+08,21.9935,0,2.98692,292.359,-4321.36,-27178.7
1.96095e+08,91.2171,0,2.73735,-5635.82,14094,-17078.2
1.96236e+08,71.0489,2,2.57059,10191.3,-11057,-28904.1
1.96468e+08,60.1759,1,2.52462,-3202.75,-6226.33,-18266.3
1.96562e+08,31.0471,1,2.83443,-2542.37,1883.65,-23070.5
1.96752e+08,94.4883,0,2.4966,14460.8,7701.4,-17294.1
1.97051e+08,159.182,1,2.66139,525.831,602.704,-13588.8
1.9713e+08,129.899,1,2.81629,-899.729,8859.3,-13094.7
1.9722e+08,206.445,0,2.55647,21451.6,-3489.13,9040.46
1.97326e+08,272.084,1,2.83978,-20293.9,-24508.6,12622.8
1.97477e+08,60.8354,2,2.46205,-8272.36,9830.99,-28146.9
1.97874e+08,18.8314,0,2.8333,3996.46,-9.08707,-28024.5
1.98074e+08,88.0558,2,3.0595,11833.9,-6498.62,-16256.4
1.98414e+08,64.4619,0,2.70391,10887.9,5206.09,-22399.9
1.98441e+08,102.922,0,2.78144,914.82,21265.2,-24625.5
1.9867e+08,140.451,1,2.59929,806.227,13091.3,-2190.46
1.98772e+08,53.4264,0,3.04244,8560.65,5533.96,-24039.1
1.98835e+08,13.1663,1,2.66635,666.103,2775.41,-29087.1
1.99414e+08,9.38798,2,2.59131,1344.17,-604.245,-27468
1.99534e+08,17.846,2,2.73705,-3565.5,2.34414,-27496.7
1.99892e+08,21.0501,0,2.5446,-1448.1,-4092.96,-29772.8
2.00165e+08,102.638,0,2.48114,9142.12,-18251.7,-21318.5
2.00193e+08,13.8446,1,2.85597,-2676.48,-891.021,-27948.2
2.00536e+08,128.927,0,2.87216,-23919.8,491.087,-16266.9
2.00583e+08,27.7216,2,2.68015,118.443,-935.511,-26828.2
2.00633e+08,42.4285,2,3.05527,2515.57,5257.52,-28169.6
2.00678e+08,115.944,2,2.70199,-11251.6,-148.668,-7145.69
2.007e+08,5.64908,1,2.44537,-1041.86,498.066,-28270.9
2.00705e+08,53.6554,0,2.90875,-2055.61,-9789.97,-23630.5
2.00752e+08,106.11,2,2.41009,-18174.2,-8704.5,-18765.9
2.00962e+08,78.4844,0,2.84681,9691.58,13423.6,-28747.8
2.01046e+08,41.2879,2,3.03294,-5078.28,-2329.03,-22168.7
2.01071e+08,47.2843,2,2.64684,-2750.83,3361.08,-19839.1
2.01086e+08,192.683,1,2.63418,26955.9,19399.6,-5321.72
2.01105e+08,73.3038,1,2.41247,-7054.19,13338.6,-24865.4
2.01217e+08,173.16,1,3.06139,-14271.3,-10333.8,-7386.68
2.01363e+08,13.8714,1,2.96995,-2234.32,1701.77,-27739.5
2.01614e+08,97.7629,1,2.93492,-7454.92,17778.4,-21569.4
2.01711e+08,137.195,1,3.01482,-6858.9,-14163.6,-4815.16
2.01811e+08,33.4262,2,2.95702,-1460.93,-2626.1,-22449.8
2.02647e+08,31.4203,2,2.57624,2577.69,-6113.33,-27829.9
2.02688e+08,152.894,1,2.88187,24668.4,2780.61,-8491.26
2.02729e+08,42.519,2,2.92592,6075.86,-6095.1,-26294.6
2.03118e+08,7.88996,1,2.95663,1348.49,-722.621,-28366.8
2.0349e+08,0.947233,1,2.78431,-256.508,141.113,-28839.5
0,0.937888,1,2.60108,0,0,0
2.03739e+08,27.1428,2,2.8967,-3178.33,-1272.53,-24210.9
2.03906e+08,42.724,2,2.63479,-4111.48,-3044.87,-21341.3
2.03907e+08,77.1817,2,2.38059,-8314.8,-13837.4,-25837.4
2.04237e+08,52.4054,0,2.64801,10989.6,-1359.51,-27415.5
2.04263e+08,32.6717,1,2.81976,-5262.93,-2800.33,-25353.4
2.04484e+08,32.9066,0,2.58847,-5937.26,-3419.72,-27964.4
2.04552e+08,3.76457,0,2.63749,838.363,171.615,-28582.9
2.04605e+08,29.5571,0,2.99709,2654.26,-2081.75,-23598.7
2.04825e+08,24.5265,2,2.64715,848.195,-4014.92,-25562.3
2.04883e+08,173.201,1,3.00172,-6320.67,27865.9,-6338.34
2.05095e+08,82.137,1,2.75617,-14010.8,-4657.82,-19769.2
2.05769e+08,91.7864,1,2.64929,5464.11,17993.3,-24283.2
2.06169e+08,55.4003,2,2.43822,-3109.9,-7518.01,-20291.2
2.06223e+08,170.199,1,2.95626,-27822.3,17419.8,-14581.1
2.06436e+08,135.468,2,2.45027,8210.18,-17807.7,-7880.4
2.06686e+08,89.3583,1,2.94619,6712.23,12263.1,-16327.1
2.06987e+08,47.7597,1,2.95131,-4588.65,6360.78,-22458.2
2.07036e+08,147.702,0,3.03774,15259,17506.9,-8869.14
2.07511e+08,19.2204,1,2.56745,-3734.26,-140.783,-27089.5
2.08069e+08,30.0156,1,3.05621,6244.12,-325.677,-29146.3
2.08207e+08,19.6149,2,2.77901,-2316.1,-1864.38,-25896.3
2.08395e+08,116.519,2,2.73777,-19328.2,-5209.3,-14674.9
2.08744e+08,184.451,2,2.61493,-2051.85,-9345.03,-26537.6
2.09008e+08,170.463,2,2.61584,15040.2,7561.08,2949.75
2.0962e+08,9.59017,2,2.74692,-1053.99,-780.107,-27222.6
2.09715e+08,4.904,0,2.83925,727.834,-358.185,-29593.8
2.10091e+08,95.6951,2,2.42489,5023.85,-12534.5,-13681
2.10376e+08,25.2491,1,2.927,2291.17,4792.34,-28053.8
2.10466e+08,13.7673,0,2.37666,2955.97,-464.879,-28423
2.10653e+08,68.278,1,2.64217,-7722.79,8587.34,-20087.9
2.10687e+08,75.5297,0,2.38816,3995.56,-9447.55,-16523.2
2.10751e+08,11.3601,1,2.5747,-2050.63,1409.14,-28818.7
2.10885e+08,36.7959,0,2.70269,2558.78,-4408.94,-22972.6
2.10896e+08,14.4596,1,2.53563,-2253.69,523.007,-26771.1
2.11064e+08,3.2377,2,2.76433,-87.2756,-791.391,-28781
2.11173e+08,89.438,0,2.59062,14305.4,-10533.6,-22151.4
2.11247e+08,93.3927,1,2.54507,4261.06,16573.6,-18886.4
2.11627e+08,27.978,0,2.76652,3598.04,-3631.3,-25771.2
2.12053e+08,165.808,2,2.44099,-9313.37,-25287.7,-6287.97
2.12224e+08,47.9659,1,2.8314,-5743.52,-5074.64,-22262.3
2.12662e+08,73.2604,0,2.6774,6461.53,-2115.59,-14926.3
2.12726e+08,10.0889,2,2.40787,2071.67,286.201,-28728.9
2.13058e+08,7.95873,1,2.65872,1306.99,446.92,-27893.8
0,8.02085,1,2.80225,0,0,0
2.13206e+08,12.6177,1,3.00549,1667.86,1613.89,-27458.6
2.13227e+08,1.76934,1,2.41812,-418.502,211.863,-28864.7
2.13816e+08,170.94,1,2.75619,16671.1,8314.18,1975.35
2.14156e+08,144.225,2,2.91572,19602.1,19445.2,-16603.8
2.14167e+08,2.88027,0,2.97613,-170.547,-493.551,-28529.7
2.14734e+08,52.4187,1,2.90254,-2212.64,-6015.2,-19890.3
2.14756e+08,88.4965,2,2.78078,-6236.05,-11610.9,-15569
2.15274e+08,213.655,2,2.88742,-15162.4,5542.62,-15486
2.15352e+08,81.4327,0,2.92326,5184.16,5355.72,-13404.7
2.15425e+08,81.4024,0,2.58976,-13460.3,-6318.75,-20282.5
2.15449e+08,15.2682,1,2.733,3003.77,516.694,-27871.9
0,15.0996,1,2.66106,0,0,0
2.15625e+08,147.623,1,2.74449,15314.9,20586.6,-11192.4
2.15706e+08,47.1331,0,2.66244,4905,6176.92,-22716.9
2.16372e+08,86.5826,2,2.95392,10142,-15138.2,-29473.3
2.16376e+08,33.0657,2,2.89594,-2354,-5514.57,-25158.6
2.16386e+08,152.464,0,2.72327,11477.9,29976.9,-26545.7
2.1647e+08,48.5288,2,2.61017,2013.06,9876.89,-27334.3
2.16637e+08,12.1975,0,2.92983,1850.14,1433.34,-27599.3
2.1674e+08,61.8877,1,2.42365,2056.81,13002.1,-29675.3
2.16885e+08,90.0913,0,2.8866,131.952,-12909.1,-14965
2.17342e+08,91.2045,2,2.59034,-10472.9,-1057.02,-29031
2.17393e+08,213.206,2,2.92364,-20987.8,-7714.68,9934.74
2.17411e+08,9.64779,0,2.96793,-325.061,-1252.05,-27262.6
2.17634e+08,17.8742,0,3.02064,1959.22,-427.138,-25607.3
2.17754e+08,90.9094,0,2.77837,3452.48,1057.16,-28436.2
2.17949e+08,1.36781,1,2.83838,-136.667,-99.9072,-28578
2.18007e+08,37.5254,2,2.56551,5225.56,-3773,-24165.1
2.18014e+08,138.718,2,2.78408,20587.4,7228.68,-9488.41
2.18088e+08,129.719,1,2.47408,-19083.2,13356.5,-14217.1
2.18126e+08,2.4171,2,2.44696,192.026,-476.464,-28571.3
2.18431e+08,77.2111,0,2.54729,-9738.25,-4450.67,-16586.3
2.18624e+08,174.738,1,2.49574,29958.8,-9397.85,-29096.9
2.1876e+08,86.9845,0,2.689,18380.7,468.496,-29863.6
2.188e+08,17.0222,2,2.85368,-2574.42,1930.79,-27236.5
2.19092e+08,114.166,0,2.72628,23596.6,-5177.68,-28520.6
2.19216e+08,69.559,0,2.70235,2765.56,-14441.4,-28670.9
2.19223e+08,137.589,0,2.37169,26102.9,7783.79,-18341.4
2.19449e+08,195.788,1,2.51001,-2140.98,1038.8,-28306.6
2.19559e+08,63.1234,1,2.72641,-8544.63,7094.34,-28712.1
2.19862e+08,106.983,2,2.38257,4102.55,-18975.5,-17095.1
2.20023e+08,96.383,0,2.92458,-9957.77,2683.66,-11460
2.20185e+08,130.361,0,2.48903,-18424.5,-7461.12,-9813.93
2.20495e+08,82.8047,1,2.83155,-10611.3,-8397.3,-17859.2
2.20677e+08,147.894,2,2.77122,22036,-7440.78,-8133.61
2.20782e+08,136.271,1,2.86809,-6512.8,-11640.7,-3496.99
2.20807e+08,16.0968,0,2.73756,612.453,2971.54,-27279.4
2.21101e+08,163.778,2,2.7599,-20202.1,-27363.1,-22557.8
2.21101e+08,61.4304,1,2.39351,8968.7,9467.72,-29052.1
2.21228e+08,25.5146,1,2.80071,877.18,4319.22,-25646.1
2.21552e+08,23.9071,2,2.96084,-505.728,-4755.45,-27974.1
2.21935e+08,113.793,2,2.41481,-8764.35,-7946.44,-7820.15
2.21979e+08,95.2874,2,2.94004,-11372.5,-13095.1,-18698.5
2.22044e+08,58.2181,2,2.89694,4777.71,-7766.62,-20623.1
2.22129e+08,25.22,2,2.65641,-3211.72,1671.96,-24908.7
2.22277e+08,64.7166,2,2.96421,-1402.25,6671.84,-17100.9
2.22597e+08,138.555,0,2.61979,12753.6,-109.032,-2479.35
2.22627e+08,94.0778,0,2.74034,11178,-8238.9,-14636.7
2.2274e+08,9.14456,1,2.57264,612.428,1033.26,-27437.4
2.22948e+08,5.39347,1,2.73049,-525.56,770.505,-29639
2.23118e+08,78.8254,1,2.56311,9783.98,1928.07,-26720.6
2.2314e+08,34.5448,2,2.5426,-6954.44,356.465,-26467
2.23313e+08,152.042,0,2.70943,22461.3,1292.77,-11602.9
2.23635e+08,105.162,0,2.93411,7395.58,-16076.3,-15576.5
2.23777e+08,143.964,2,2.65445,-19338.8,-19210.2,-26054.6
2.23943e+08,34.3988,2,2.9522,-3215.74,-5324.73,-24988.8
2.24025e+08,114.027,2,2.60191,-9672.72,-13927.3,-11635.8
2.2434e+08,158.791,2,2.79732,-438.704,4800.49,-25877.3
2.24636e+08,35.2996,0,2.42958,4834,1035.29,-23151.4
2.24856e+08,25.6472,2,2.92543,-3220.68,-4304.23,-29882.9
2.25273e+08,71.3835,1,2.55166,13793.9,2329.67,-23247.2
2.25279e+08,67.6081,1,2.74085,11735.2,7828.27,-26902.8
2.25358e+08,56.2057,2,2.42012,7334.96,8613.63,-25347.6
2.25642e+08,212.927,2,2.7073,12899.3,17467.2,10352.9
2.26555e+08,231.858,0,2.62615,-24769.9,-20393.7,8065.09
2.26904e+08,13.5866,1,2.88016,2259.64,1385.13,-27680.6
2.27364e+08,24.3952,2,2.67426,733.972,-4330.92,-26060.1
2.27697e+08,155.706,0,2.51319,-15777.9,-9631.81,-8700.31
2.27897e+08,77.1718,1,2.63025,8010.91,-5476.35,-15790.8
2.27996e+08,66.9888,1,2.41182,-2156.69,13890.2,-26339.7
2.2868e+08,6.91192,0,2.86498,1143.83,-889.418,-28353.9
0,6.88146,0,2.63972,0,0,0
2.28956e+08,54.6464,2,2.56842,5856.73,-9941.42,-27471.4
2.29285e+08,35.4595,2,2.96502,3597.51,-2656.65,-22853.4
2.2934e+08,181.227,1,2.59962,9013.73,19191.4,-9107.74
2.29986e+08,110.836,0,2.89343,15515.1,-2238.96,-11533.5
2.30023e+08,79.4338,0,2.95964,-2476.94,-13137.3,-18897.7
2.30043e+08,68.444,2,2.39591,-13685.6,-4378.92,-26469.6
2.30413e+08,47.5316,0,2.58674,6846.37,-5141.93,-23472.5
2.30446e+08,116.201,1,2.96392,1483.86,-18549.4,-13142.5
2.30696e+08,34.8041,2,2.48501,-1579.36,-4639.16,-23247.5
2.3087e+08,129.183,2,2.9847,-19640.7,-17153.5,-21193.5
2.30905e+08,98.0359,1,2.62187,1239.88,19912.4,-23001.6
2.30996e+08,134.455,2,2.48362,396.197,-24521.6,-14360.4
2.31049e+08,168.457,0,3.04838,8120.89,8762.06,-20315.8
2.3134e+08,91.5566,1,2.40142,-4768.68,16188.5,-19211.1
2.31635e+08,47.623,2,2.683,-5180.46,8296.22,-26592.6
2.31647e+08,46.9564,0,2.60586,-4008.02,-9066.93,-28517.7
2.31719e+08,87.0394,1,2.44032,-8793.92,15468.1,-23721.6
2.31731e+08,65.3355,2,2.68533,2232.19,-12875.7,-24234.5
2.31896e+08,88.5839,0,2.70958,5294.37,7658.8,-12647.6
2.32348e+08,64.1869,1,2.79571,-6496.41,-5679.73,-18441.5
2.32583e+08,17.3558,0,2.38761,-1237.41,2805.52,-26849.8
2.32943e+08,13.2413,1,2.95971,-57.9203,-1865.05,-26810.1
2.33145e+08,19.618,0,2.88787,3944.24,-1416.21,-28627.7
2.33369e+08,4.26095,1,2.58095,-341.521,525.378,-28105.1
2.33497e+08,132.56,1,2.76519,1036.98,-120.467,-28953.6
2.33564e+08,7.84441,0,2.39989,1737.98,-51.5776,-28500.3
2.33746e+08,38.9465,2,2.44934,273.586,-6612.93,-23801.5
2.33831e+08,229.292,0,2.39846,-19788.8,7967.55,14672.1
2.33858e+08,70.9762,0,2.72184,-12564.3,49.8582,-20798
2.34408e+08,148.556,1,2.78238,-17948.5,-24188.2,-20488.3
2.34917e+08,162.498,1,2.82731,-12242.4,-5901.23,-1285.54
2.34946e+08,39.1613,1,3.02533,2565.85,4783.04,-22647.6
0,38.9581,1,2.83361,0,0,0
2.34975e+08,68.6638,1,2.88474,9343.61,-8944.14,-22591.3
2.35518e+08,53.9563,2,2.93212,-9623.35,-1600.7,-22957.2
2.35691e+08,81.877,1,2.94334,-13407.2,10701.8,-26874.1
2.35743e+08,111.545,1,2.55368,-13606.8,-8679.72,-11620.3
2.35958e+08,11.1578,2,2.65718,136.074,-1930.56,-27363.8
0,11.4703,0,2.94999,0,0,0
2.36033e+08,92.8027,0,2.78892,5746.14,15581.8,-18536.1
2.36224e+08,226.664,1,2.73481,23085.7,-4925.98,12264.9
2.366e+08,10.7521,0,2.54183,1240.75,-1794.31,-29692.1
2.37082e+08,19.2873,2,2.7386,634.238,-2059.8,-25363.7
2.37117e+08,30.4272,1,2.56902,-2412.64,-5109.39,-25799.5
2.37153e+08,25.2145,0,2.64633,67.8741,-214.526,-29591.7
2.37226e+08,123.821,1,2.42552,-20485.6,15710.1,-23860.9
2.37234e+08,27.0534,0,2.90804,2335.27,725.58,-23656.2
2.37283e+08,123.914,1,2.8713,-7320.47,-9587.28,-25894.9
2.373e+08,2.00579,2,2.98251,-375.314,248.184,-28867.7
2.37767e+08,150.397,0,2.6796,13195.5,-597.045,41.4015
2.37987e+08,1.53011,2,3.04105,25.1505,-417.304,-28915.8
2.38231e+08,4.61119,0,2.97044,512.673,605.109,-28166.5
2.38409e+08,66.8849,1,2.93391,-11277.8,-7612.53,-25307.4
2.38549e+08,134.696,2,3.05539,-15659.3,22304.8,-21737.6
2.38564e+08,132.495,1,2.51763,21935.7,17357.2,-26977.3
2.38735e+08,140.006,1,2.87053,6534.43,8784.87,-6577.94
2.38918e+08,13.5623,0,2.83056,2724.55,1158.12,-29063.6
2.39076e+08,62.8251,0,2.4764,-3052.41,9902.12,-20500.6
2.39197e+08,26.2119,2,3.03612,-3100.92,-1647.89,-24551.7
2.39643e+08,176.017,1,2.56602,9907.49,27101.8,-27546.9
2.39834e+08,22.3051,2,3.01878,13.8224,-3028.59,-25204.1
2.39931e+08,185.34,2,2.96367,-3327.44,-27201.5,-1357.43
2.40024e+08,43.2299,2,2.86186,-3096.22,-2989.18,-20769.9
2.4026e+08,34.5753,0,2.52297,6693,3136.66,-29458.6
2.40427e+08,53.4221,1,2.56037,9551.35,4383.53,-24645.9
2.40443e+08,88.2714,0,2.52905,-14102.3,-10587.4,-22851.2
2.40443e+08,13.942,1,2.86686,-248.071,2951.94,-28264
2.40464e+08,46.3789,0,3.02859,6298.19,7166.9,-26613.2
2.40547e+08,21.0787,0,3.04018,1685.17,4122.39,-28445.1
2.40942e+08,47.9327,1,2.55934,-4373.63,-3082.79,-20252.7
2.40956e+08,71.7496,1,2.41743,4988.76,-5397.3,-15600.9
2.41161e+08,11.7488,2,2.66594,-777.318,-1360.48,-26835
2.41283e+08,105.003,2,2.99404,4146.3,-20813.7,-22674.8
2.41885e+08,11.5596,0,3.03385,2169.42,-1020.91,-28098.2
2.42324e+08,119.411,0,2.61193,8567.02,21680.3,-19098.8
2.42384e+08,13.8336,0,2.77471,621.802,2861.38,-29142.2
2.4257e+08,65.0437,2,2.78461,-4828.22,-11720.8,-25288.5
2.42638e+08,117.871,0,2.43354,-18441.7,2633.37,-12354.6
2.42645e+08,35.9646,1,2.41536,-5466.3,2500.8,-24047.1
2.42675e+08,80.4671,2,3.05935,3594.77,-13992.3,-20057.3
2.42804e+08,19.2018,0,2.57648,245.775,-2135.37,-25405.6
2.43088e+08,50.4697,0,2.68123,4426.88,8412.72,-23932.6
2.43112e+08,47.0221,2,2.95012,-7916.24,-6029.51,-28119.3
2.43496e+08,56.3306,1,2.91473,-10377.3,2567.14,-23631.7
2.43673e+08,7.42777,1,2.39224,-1595.45,-87.3096,-28462.3
2.43926e+08,26.1559,1,2.37903,-1689.64,4953.4,-26730.2
2.44239e+08,161.943,2,2.61015,6578.57,-28473.2,-19049.6
2.44839e+08,67.4046,2,2.4158,690.831,-12294.9,-21801.8
2.4492e+08,25.9045,2,2.71444,-3949.24,3564.14,-27525.4
2.45144e+08,149.82,2,2.7003,-19937.9,-7034.23,-7310.82
2.45315e+08,146.948,0,2.40756,-28125.2,8205.18,-18629.3
2.45417e+08,19.9336,2,2.42082,20.8625,3158.77,-26089
2.45481e+08,63.239,2,2.70183,-2155.71,-13036.7,-26461.9
2.45503e+08,0.720565,1,2.80767,23.9492,156.925,-28692.1
2.4565e+08,37.066,1,2.63254,-7.9278,-4320.19,-22356.9
2.4577e+08,34.3283,1,2.53905,-1939.18,7086.57,-28568
2.45999e+08,64.9233,1,2.85009,-10861.1,4971.21,-22060.1
2.4638e+08,51.1381,2,2.65863,8166.02,1447.58,-21973.5
2.46764e+08,17.2933,0,2.55072,1972.18,2844.49,-27455.2
2.46859e+08,179.036,1,2.69434,23576.1,18638.5,-6484.37
2.47325e+08,57.4635,1,2.9082,-11710.2,1000.28,-25819.3
2.47546e+08,30.2929,2,2.66562,-3784.97,559.249,-23695.6
2.4779e+08,42.8238,0,2.45781,2492.16,-6666.68,-25107.1
2.47802e+08,150.097,1,2.75805,-28605.5,-11124.7,-21164.7
2.48016e+08,76.2263,1,2.45677,4098.96,14815,-23704.7
2.48022e+08,3.42501,0,2.54508,75.8566,673.349,-29173.7
2.48213e+08,124.797,2,2.67903,-3475.56,21532.7,-14234
2.48392e+08,6.10356,1,2.65477,-541.85,1074.06,-28144.9
2.48713e+08,21.56,1,2.79898,-1607.67,3704.79,-26588.2
2.49076e+08,69.3031,2,2.5645,6924.37,-1812.21,-16069
2.49118e+08,27.4119,0,3.00656,5576.23,-1359.29,-29901.3
2.49276e+08,40.7519,1,2.7492,-5761.24,-2613.41,-23016.2
2.49328e+08,41.1441,0,2.43043,263.752,-7972.22,-25313.1
2.49756e+08,62.4385,0,2.99286,12227.7,2127.6,-27910.6
2.49903e+08,15.2586,2,2.67657,266.231,-2115.24,-26338.5
