#class tools::wcsv::ntuple
#title time
#separator 44
#vector_separator 59
#column double eventID
#column double t(ns)
#column double copynumber
#column double energy(eV)
#column double x(mm)
#column double y(mm)
#column double z(mm)
26332,37.7336,2,2.61436,-4743.57,-6473.44,-27763.7
48225,3.95914,2,2.46528,503.148,-32.3969,-28192.2
74179,79.3065,2,2.71156,-6696.94,-12467.6,-19866.2
291228,50.3201,1,2.4092,-5800.8,8290.47,-25199.6
478535,23.0329,1,2.5135,-4067.39,-2625.64,-28338.5
633095,120.562,0,2.40081,18175.5,17585.6,-25324.7
687370,15.3121,0,2.93625,405.577,-1821.47,-26694.9
810268,1.25638,1,2.94925,102.616,255.508,-28702.2
0,1.11391,1,2.39175,0,0,0
990385,179.354,2,2.50776,17076,15722.3,597.63
1.02522e+06,55.9553,0,2.95623,-572.204,-9177.66,-21564.5
1.03564e+06,19.0855,1,2.77794,-3482.64,250.622,-26884.2
1.30303e+06,72.6189,1,2.87965,8398,-941.676,-16146.6
1.36951e+06,46.4395,0,2.96527,5943.28,6575,-24936.7
1.47012e+06,26.2217,2,2.61979,-4957.18,2512.38,-28604.7
1.52803e+06,31.6304,0,2.84278,-5478.25,1641.24,-25502.4
1.6019e+06,65.2212,1,2.55874,11770,7147.7,-28377.6
1.6208e+06,9.78015,1,3.04767,-855.94,1813.44,-28263.7
1.78379e+06,147.6,1,2.92079,-16032.6,-9053.01,-3855.61
1.80137e+06,38.5855,0,2.6517,1525.23,3008.87,-21411.8
1.87174e+06,43.4975,2,2.93975,-5535.37,-6835.22,-26389.5
1.93517e+06,2.77216,0,2.65941,-195.374,155.765,-28329.8
2.14032e+06,112.932,0,2.70705,-2152.76,11559.3,-8362.52
2.21059e+06,99.3422,1,2.93056,11571.2,6439.42,-19833.5
2.21255e+06,23.484,1,2.89738,-1110.11,3666.29,-25531.9
2.36565e+06,37.0468,2,2.62136,6925.52,-2040.33,-25677.6
2.47492e+06,48.4608,0,2.97525,-3808.46,-5657.32,-21231.3
2.57181e+06,80.9279,0,2.6919,12939.3,10056.4,-24758.3
2.59424e+06,52.6514,2,2.84126,1570.22,8500.88,-21793.8
3.11554e+06,45.108,2,2.94189,7792.89,2991.61,-24386
3.36797e+06,117.314,1,2.75325,-1013.65,-10488.8,-6969.57
3.53397e+06,35.3691,1,2.94637,-6712.3,319.072,-26231.7
3.54832e+06,18.5775,2,2.53129,-3999.89,-86.3253,-29157.6
3.55939e+06,35.2568,2,2.63607,1242.41,-3599.91,-22344.8
3.56907e+06,35.1371,2,2.3803,-3882.8,-1818.51,-22706
3.57069e+06,15.9801,0,2.64877,-613.419,-1948.82,-26071.1
3.62944e+06,211.263,0,2.58304,-8520.2,-8975.54,-23377.3
3.96392e+06,20.9099,0,2.96585,-1840.28,288.08,-28318.8
4.11893e+06,72.3589,0,2.88034,13941.4,-1033.26,-26169.7
4.15071e+06,35.9709,2,2.91893,-4960.62,-5833.69,-27908.1
4.17831e+06,46.9156,2,2.91322,1079.11,-3413.99,-27763.9
4.19826e+06,13.3579,0,2.54056,841.015,-1454.58,-26579.3
0,13.6927,1,2.57103,0,0,0
4.24804e+06,84.9902,2,3.02055,-2126.95,-14878.2,-21078.5
4.33174e+06,15.3118,0,2.45294,850.047,2167.88,-26529.1
4.33492e+06,124.448,0,2.44423,8257.37,-23144,-19259.6
4.44928e+06,134.034,1,2.71454,-18355.7,20072.8,-22266.6
4.48117e+06,13.6199,1,2.94476,-2848.88,30.91,-28518.8
4.5425e+06,146.058,2,2.68109,-28116.3,2449.34,-16412
4.57551e+06,41.4202,2,2.7732,-8559.81,-1077.15,-27029.5
4.6865e+06,38.42,0,2.6598,3042.16,-4371.17,-28092
4.73151e+06,31.5665,2,2.73702,3040.73,-1435.72,-22903.3
4.77246e+06,67.7049,2,2.94582,6772.12,-9387.08,-20516.4
4.84075e+06,20.5333,1,2.88245,-1202.64,2463.71,-25555
5.13962e+06,26.823,1,2.41834,-1550.88,1874.95,-23766.8
5.24195e+06,88.5991,2,2.53445,7163.5,-3635.28,-28732.7
5.27114e+06,10.5378,2,2.72883,-1560.02,-282.306,-27262
5.49804e+06,73.2006,2,2.63392,9534.29,1158.86,-16832.6
5.5158e+06,14.6008,0,2.79547,240.233,1018.81,-29898.5
5.64398e+06,108.318,1,2.92911,-7113.87,11247.3,-10308.1
5.67026e+06,51.8681,0,2.8446,10041.3,1962.06,-24759.9
5.67392e+06,41.3301,2,2.70435,-3263.43,-7821.5,-26805.8
5.68122e+06,1.4824,1,2.51534,18.1243,373.482,-28747.6
5.77398e+06,19.8719,0,2.66298,4083.06,581.478,-27750.1
5.78455e+06,139.684,0,2.44697,8899.96,-25417.1,-16841
5.80928e+06,44.3739,1,2.73145,6010.6,-3877.22,-22810.7
6.04255e+06,2.56322,0,2.5246,202.475,-429.293,-28316.9
0,2.80413,1,2.72279,0,0,0
0,2.78304,1,2.91378,0,0,0
0,2.5747,0,2.97772,0,0,0
6.04958e+06,29.1263,1,2.43637,-1588.61,3419.55,-23872.9
6.09247e+06,35.9954,1,2.67334,3953.24,5353.97,-25040.3
6.15009e+06,37.8218,2,2.89296,-258.571,-5545.78,-23208.7
6.24459e+06,59.1331,1,2.42615,2290.46,12270.6,-27154.9
6.34978e+06,54.5124,1,2.98876,-9550.03,1634.94,-22851.7
6.49595e+06,11.8104,1,2.79045,796.243,2347.19,-28051.7
6.60848e+06,56.9329,0,2.79945,315.469,-85.6826,-28405.3
6.61324e+06,48.6278,2,2.57758,-3105.4,-3978.32,-19828
6.76437e+06,144.471,1,2.55417,-21274.6,-7803.1,-8436.53
6.81358e+06,54.9859,2,2.43276,-10063,1312.04,-23036.7
6.96744e+06,28.0496,1,2.96595,3205.15,216.372,-23948.7
7.04372e+06,27.6793,1,2.79135,-4728.21,-319.578,-25369.3
7.16447e+06,165.447,0,2.55907,-25081.1,22682.8,-20301.3
7.1698e+06,58.1837,0,2.50055,10988.6,5798.4,-29816.1
7.25442e+06,23.3399,0,2.58539,-2538.63,-3799.73,-27034.7
7.5829e+06,22.303,2,2.41429,1749.12,-3630.51,-26064.4
7.86572e+06,64.3393,1,2.89648,4815.4,7060.33,-18444.6
7.93685e+06,130.225,1,2.9604,-15105,20898.4,-19563.1
7.99138e+06,130.692,2,2.84379,-16381.3,-7180.74,-15352.5
8.08348e+06,17.3834,2,2.51232,-399.174,-2352.72,-26064.2
8.09992e+06,39.7756,2,2.77094,7700.4,2561.54,-26970.3
8.24471e+06,109.307,1,2.67616,10178.2,11875.3,-12050.6
8.33395e+06,72.2086,2,2.87468,13633.5,6765.2,-29111.2
8.34679e+06,1.70906,0,2.6054,148.899,372.948,-28847.2
8.35213e+06,234.769,2,2.8316,-14465,-29065.1,5731.98
8.41e+06,147.335,2,2.56381,-12040.5,-27579.7,-20499.7
8.44835e+06,57.8398,0,2.52917,4771.72,2250.06,-17840.5
8.45385e+06,10.3088,0,2.791,-151.626,1509.44,-27258.8
8.51976e+06,10.1669,0,2.77365,2280.56,442.664,-29294.3
8.69681e+06,75.9114,2,2.92829,-6191.54,13190.2,-22384.6
8.71267e+06,261.568,1,2.66937,-26608.8,26015.8,6201.1
8.95244e+06,33.1172,1,2.64916,-5233.09,4183.38,-27222.2
8.97606e+06,21.5266,0,3.0472,3423.74,3026.62,-28743.1
9.02584e+06,1.28401,0,2.46846,69.2262,56.4369,-28546.8
0,1.28355,0,2.41213,0,0,0
0,1.30411,0,2.37313,0,0,0
0,1.28611,0,2.66759,0,0,0
0,1.40845,1,2.65707,0,0,0
9.07448e+06,220.306,2,2.66798,-28970.2,-15562.3,3241.15
9.07589e+06,31.0371,1,2.494,-4367.27,4977.85,-29219.5
9.13699e+06,105.21,2,2.74402,-9917.19,-18103.7,-20677.4
9.31013e+06,29.0506,1,2.40409,-5052.26,-2425.02,-26271.8
9.51971e+06,12.5438,1,2.48118,-955.243,570.477,-26815.2
9.52943e+06,64.2796,0,2.61124,-9590.46,2964.57,-19855.3
9.61688e+06,7.38521,2,2.7484,286.051,437.903,-27461.6
9.6496e+06,34.9564,2,2.43215,-2029.27,3309.47,-22620.5
9.67429e+06,22.4886,0,2.95406,2583.36,-1081.08,-24955.9
9.70504e+06,50.1462,1,2.38055,-3155.26,10206.3,-29382.2
9.72063e+06,114.438,2,2.86773,-4239.42,12201.7,-8515.57
9.79308e+06,62.6243,0,2.5273,11788.2,-5128.24,-25451.7
9.9737e+06,74.3131,1,2.40336,-7364.83,9396.72,-18766.6
9.99332e+06,2.30792,0,2.8894,305.267,-203.635,-28463.1
1.00281e+07,35.3426,2,2.75151,4838.91,-3874.71,-24676.2
1.00489e+07,197.742,2,2.8079,12643.5,20447.7,5052.97
1.00648e+07,77.8139,1,2.42035,7838.59,7793.18,-16586.2
1.00723e+07,13.3238,0,2.87177,1978.28,559.641,-28067.4
1.01336e+07,23.2788,2,2.63769,2072.46,-685.027,-24481.3
1.01562e+07,96.4418,0,2.83165,3167.24,15382,-15957.8
1.0171e+07,73.8396,2,2.94277,-5869.73,-3164.05,-15455.7
1.02499e+07,191.408,0,2.56714,-6818.81,-25319.1,1541.46
1.02624e+07,31.1551,1,2.93881,-5184.53,3174.77,-27928.9
1.03377e+07,73.2799,1,2.73628,-133.81,6546.49,-14816.9
1.03716e+07,12.1931,2,3.03725,1200.59,630.769,-26673
0,12.0965,2,2.63965,0,0,0
1.0638e+07,75.1515,2,2.40328,-15647.4,2754.28,-27011.7
1.0666e+07,160.772,2,2.392,-4976.33,-25159.4,-24321.9
1.07245e+07,53.6026,0,2.40625,6917.87,-7233.68,-23338.6
1.07786e+07,131.63,2,2.48293,-14993.4,1385.04,-5354.66
1.07983e+07,22.4156,2,2.59281,-1023.58,-4018.2,-29032.3
1.09691e+07,99.147,0,2.83113,16376.2,-9855.65,-20409.9
1.10492e+07,149.618,0,2.72699,-13974.5,21587.7,-10783.1
1.1323e+07,1.58977,0,3.00428,-221.494,138.639,-28713.7
0,0.88266,1,2.87401,0,0,0
1.13439e+07,35.2553,0,2.62553,-4362.72,-477.85,-22918.4
1.15348e+07,5.05049,2,2.76542,204.879,379.723,-27649.9
1.17473e+07,17.6823,1,2.51526,2340.66,2795.08,-29862.6
1.1759e+07,50.6754,2,2.74025,-9826.14,-4077.49,-27145.5
1.18117e+07,102.323,0,2.68113,15447.5,11407.8,-18792.5
1.18292e+07,98.8774,1,2.88309,-9206.34,16706.9,-20578.3
1.18789e+07,98.1627,0,2.92096,11729.8,-4617.86,-12412.7
1.2042e+07,138.045,2,2.78982,-28583.4,4319.92,-27138.1
1.2113e+07,80.0185,0,2.55893,-11691.4,4866.15,-17676.2
1.23965e+07,80.6912,0,2.97414,11791.3,-11836.1,-25653.5
1.24763e+07,93.1953,1,2.93488,-9939.97,7275.67,-13669.9
1.25307e+07,11.6606,0,3.01224,1800.33,-1564.5,-29696.7
1.25383e+07,25.0764,2,2.46137,3080.45,1041.66,-24764.8
1.25713e+07,213.809,2,2.60357,17495.9,8578.59,-19907.4
1.269e+07,200.097,1,3.01248,23760.2,-16303.1,1340.58
1.28726e+07,46.8146,2,3.03023,6984.73,-6748.81,-27465
1.29347e+07,53.9317,2,2.56093,-7495.75,-1779.55,-20391.3
1.30532e+07,14.0978,0,2.49161,1490.8,-1338.35,-26561.3
1.31054e+07,102.433,2,2.8345,-8494.94,15040,-16019.5
1.31556e+07,4.40403,1,2.4747,-374.024,638.637,-28161.2
1.31701e+07,12.9149,2,2.41553,2448.14,416.196,-27755.7
1.32176e+07,19.867,0,2.41769,824.95,-3501.02,-26600.3
1.3325e+07,120.415,0,2.67118,16988.4,17972,-22817.5
1.33512e+07,8.49887,2,2.57924,-659.377,-1116.85,-27894.2
1.33769e+07,123.05,0,2.73205,12195.6,5639.89,-6650.38
1.3465e+07,62.8478,2,2.96728,1405.79,-12324.7,-24028.2
1.38019e+07,97.2202,0,2.71683,17820.9,-7112.85,-21401.4
1.38372e+07,181.078,1,2.86274,-27282.2,26098.2,-23416
1.41488e+07,113.823,1,3.00563,5992.42,14799.4,-11075.2
1.41845e+07,49.0171,2,2.94866,1569.59,-10416.9,-29930.4
1.41999e+07,64.7831,2,3.01365,478.446,-9635.55,-19110.9
1.42065e+07,10.6573,1,2.65862,-542.861,2251.68,-28478.6
1.42554e+07,101.794,0,2.88151,-6879.31,-7090.58,-9966.64
1.43328e+07,70.6259,0,2.55319,-3088.94,6243.52,-15629.5
1.44176e+07,104.8,2,2.95065,-12543.3,-12485.4,-15593.5
1.4445e+07,62.8803,1,2.36232,-8982.46,9838.89,-27280.7
1.44887e+07,20.3136,1,2.89096,-1665.35,3892.68,-28149.9
1.47645e+07,77.7888,2,2.81585,-7647.22,-6673.31,-15933.3
1.47783e+07,85.3839,1,2.70922,-10821.2,-3824.48,-14991.5
1.48915e+07,167.824,1,2.85712,-10289.3,-3369.69,-11038.9
1.49166e+07,14.7981,1,3.02893,446.048,-2144.49,-26666.1
1.5022e+07,60.6948,1,2.60088,-4562.88,8392.37,-20271.6
1.51123e+07,36.6508,1,2.4802,3201.03,1826.3,-22061.8
1.51659e+07,47.9493,2,2.49047,9936.24,-360.66,-26870.1
1.51868e+07,186.112,0,2.81076,11237.3,-26061.6,-8972.85
1.52705e+07,44.9763,2,2.89288,-7693.92,-1072.63,-23208.7
1.53564e+07,9.79405,2,3.05957,-1867.28,-267.891,-28025.9
1.55232e+07,9.59918,2,2.38474,-1042.08,402.004,-27187.6
1.55671e+07,125.748,0,2.6383,245.175,-26397.5,-29267.6
1.57157e+07,55.7402,1,2.37725,-1296.63,-5917.95,-18674.2
1.57628e+07,100.944,1,2.42531,-19720.7,7135.08,-24250.5
1.58724e+07,36.0055,0,2.64927,1418.62,-3092.79,-22132.8
1.59351e+07,19.5217,1,2.66242,-1941.78,3471.42,-29727.7
1.61095e+07,112.759,1,2.68439,11167.6,18012.4,-18253.7
1.61214e+07,181.985,0,2.61527,-20157.1,-27724.9,-11755.3
1.62335e+07,14.8316,0,2.37042,1016.99,2643.88,-27310.3
1.62972e+07,103.666,1,3.00868,-4342.13,20169.2,-22185.7
1.63077e+07,60.688,0,2.77544,11265.7,6087.77,-29980.5
1.63806e+07,15.8201,0,2.57744,2179.62,-372.368,-26270.7
1.65323e+07,29.4599,0,2.99161,6281.26,171.214,-28452.5
1.66391e+07,141.028,2,2.51844,2034.43,-18705.3,-5771.18
1.66685e+07,80.7004,0,2.93702,-5242.5,10739.8,-17093.1
1.66818e+07,12.6936,0,2.70653,2135.22,225.017,-27073.3
1.67663e+07,180.522,1,2.72366,4693.19,19099.5,3751.57
1.67996e+07,43.2956,1,3.00862,-1273.6,9042.14,-29216.7
1.68643e+07,33.196,1,3.0089,-697.698,-6623.28,-26875
1.69473e+07,116.06,1,2.37798,21466.8,7437.6,-19471.9
1.73174e+07,30.4749,2,2.79771,3344.21,-4418.26,-25995.3
1.74294e+07,212.812,1,2.50347,8150.49,-27355.7,-18914.3
1.7466e+07,3.26239,1,2.38111,250.108,238.748,-28227.9
0,3.31397,1,2.90431,0,0,0
1.76667e+07,65.6481,1,2.82417,-5781.89,10410.6,-21717.7
1.76814e+07,8.03012,2,2.994,-125.327,-1914.66,-29300.4
1.78582e+07,29.9211,0,2.49467,3991.55,-4606.16,-27117.1
1.79551e+07,101.533,2,2.45477,-14112.1,-623.915,-12628.1
1.80895e+07,2.25219,1,2.69337,318.589,332.823,-28557.7
1.8113e+07,131.993,2,2.83476,26606,-6221.63,-25537.5
1.81858e+07,36.199,2,3.00076,-3093.61,-4833.52,-23818.7
1.8294e+07,27.6707,2,2.62309,1786.48,2666.15,-23980
1.83343e+07,15.1176,1,3.00559,-694.838,2467.46,-26854.3
1.83485e+07,34.6553,0,2.82706,1675.66,7093.11,-27637.2
1.85145e+07,31.4972,0,2.5721,-4138.67,1572.07,-23899.6
1.85378e+07,20.1394,2,2.52105,-3365.24,-725.897,-26220.6
1.85764e+07,64.2656,0,2.84975,13021.7,2997.29,-29871.7
1.85942e+07,28.0467,2,2.61799,2028.6,2559.88,-24124.3
1.87148e+07,188.619,1,3.01163,-24433,17859.3,-10964.4
1.89936e+07,102.595,0,2.40809,1212.16,-21744.9,-28463.2
1.91605e+07,112.042,0,2.8859,21830.2,-240.099,-19877.5
1.91999e+07,57.0589,1,2.57801,2380.2,7748.42,-19706.9
1.92086e+07,78.9366,1,2.3869,6651.57,6176.89,-14671.7
1.92753e+07,86.3302,2,2.97323,-16928.2,-1812.72,-23091.5
1.92987e+07,48.7444,1,2.56424,-5646.69,-5323.13,-22071.4
1.93076e+07,151.158,2,2.68531,28494.1,14036.4,-26389.6
1.93116e+07,15.315,0,2.71086,-761.895,-2971.1,-27954.1
1.94328e+07,2.41172,0,2.39017,334.772,420.137,-28612.2
1.97713e+07,60.1755,1,2.98622,-10923.8,-4709.82,-24627.1
1.98352e+07,68.591,0,2.68664,13155.7,-5152.05,-25373.8
1.99422e+07,162.691,2,2.87603,-22971.4,-18669.7,-11528.7
2.01015e+07,79.2327,2,2.44721,-7299.85,1159.57,-13844.7
2.01805e+07,68.9398,1,2.65466,-9384.38,-807.607,-17714.7
2.02258e+07,93.9028,2,2.42962,-533.748,-7604.21,-10286.5
2.0422e+07,47.2841,2,2.4456,-424.228,8516.21,-23733.1
2.0517e+07,157.56,0,2.67337,10317.4,6039.76,-22687.5
2.05942e+07,49.6084,1,2.48707,-7695.18,3149.19,-22304.5
2.08561e+07,54.7843,2,2.95047,10947,2164.69,-26237.7
2.09692e+07,58.0308,1,2.68852,-5701.26,-2366.52,-18465.8
2.10222e+07,113.297,2,2.63225,14269.9,-18517.8,-23469.6
2.11338e+07,33.9287,0,2.45749,6026.2,-4116.84,-28342.3
2.13819e+07,81.9127,1,2.37505,-2654.48,589.095,-29517.6
2.14892e+07,125.053,1,2.52665,5594.5,12659.1,-25360
2.15022e+07,10.5145,1,3.02056,-1519.64,784.967,-27381.5
2.15694e+07,259.281,2,2.75834,1098.44,22506.6,-392.035
2.1579e+07,48.0531,1,2.45015,-5936.21,8312.86,-27227.2
2.16076e+07,150.572,2,2.64287,-24589,-1394.4,-8849.53
2.1614e+07,48.6079,1,2.71207,6474.28,7458.05,-26002
2.16787e+07,28.5395,1,2.56087,-4028.55,-923.306,-23999.5
2.19249e+07,142.655,1,2.80894,-24294.1,-1628.28,-11707.8
2.19871e+07,22.73,1,2.42586,4450.17,-1202.39,-27840.9
2.20629e+07,198.928,2,2.51434,-286.033,-377.367,-28595.5
2.20655e+07,49.9857,2,2.83868,7475.69,-3469.89,-22182.5
2.21344e+07,171.392,2,2.72825,-20805.9,-15833,-3848.68
2.22195e+07,16.066,2,2.43198,-2904.08,-1965.47,-28724.3
2.25278e+07,239.575,1,2.56858,-26024.3,15100.6,-23794.6
2.26406e+07,52.8113,0,2.69227,4740.34,-1653.58,-24860.6
2.26546e+07,80.4228,0,2.84438,678.203,-4109.89,-28750.2
2.2982e+07,74.2341,1,2.87363,8439.77,869.074,-15809.8
2.31136e+07,61.4934,1,2.78451,-6346.65,-10636.1,-25633
2.31287e+07,52.8567,0,2.59627,3252.06,-7231.5,-20850
2.3165e+07,43.7114,1,2.90449,-8195.82,-291.937,-24383.6
2.32512e+07,1.94335,0,2.77252,285.866,-156.733,-28486.1
0,2.33208,1,2.54206,0,0,0
0,2.3354,1,2.58966,0,0,0
0,1.94285,0,2.95367,0,0,0
0,2.37652,1,2.65425,0,0,0
2.3275e+07,67.5646,2,2.96749,5732,-3260.62,-16274.6
2.33839e+07,16.435,2,2.91643,-813.859,-3335.84,-27952.3
2.34266e+07,129.987,2,2.79616,-16472.6,-19898.6,-19317.9
2.34588e+07,31.015,1,2.82863,4264.27,-1203.62,-23892.3
2.34992e+07,8.99864,2,2.99132,-628.872,-1405.32,-27400.4
2.35402e+07,14.1397,1,2.36676,502.678,-1502.62,-26403
2.35442e+07,109.232,1,2.62218,5767.79,15076.6,-12305.2
2.36197e+07,49.9735,2,3.00526,6220.8,-4136.96,-21464.8
2.36425e+07,78.184,0,2.95931,9513.12,-4450.89,-16136
2.37594e+07,163.358,0,2.8038,-12005.5,22870.3,-6208.99
2.3985e+07,5.81725,0,2.58226,1291.28,-553.119,-28905.4
2.40158e+07,25.4796,1,2.61787,109.122,-489.145,-26976.8
2.41893e+07,71.3707,1,2.64942,682.239,-507.838,-16600.2
2.42125e+07,57.6967,1,2.45064,-5293.82,10930.2,-26947.2
2.42994e+07,27.4586,1,2.57025,-4913.92,1375.59,-25857.2
2.43104e+07,39.1747,0,2.54421,6917.17,-4033.22,-26555
2.43974e+07,7.74276,2,2.82171,-699.597,-8.28587,-27213.1
2.44107e+07,6.63262,2,2.51581,-984.444,-1153.25,-28849.2
2.45483e+07,46.1523,2,2.39565,2974.69,-4042.27,-20382.5
2.47111e+07,93.4616,2,3.00742,-15092.9,11162.1,-23291.4
2.47121e+07,76.2172,1,2.87485,-8052.78,13559,-25681.3
2.48762e+07,33.2385,0,2.95489,-5132.67,-16.4146,-24126.2
2.49344e+07,30.4906,2,2.54452,3149.14,-753.303,-23315.4
2.49934e+07,8.11386,2,2.88667,-1420.88,583.259,-29091
2.52772e+07,24.2738,2,2.76577,-1100.87,-4952.73,-27785.5
2.52889e+07,4.11253,0,2.73967,723.832,-299.807,-28292
2.56766e+07,59.3554,0,2.82345,2744.65,-11600.2,-24923.5
2.58128e+07,16.433,1,2.46159,-3416.9,-911.703,-28578.9
2.58512e+07,3.02307,0,2.68208,311.385,515.751,-29245.4
2.58936e+07,39.873,2,2.51752,-6673.45,4308.26,-26025.4
2.5943e+07,1.11003,1,2.74908,-177.946,50.7468,-28618.8
0,1.1098,1,2.7971,0,0,0
0,1.10472,1,2.65232,0,0,0
0,1.30764,2,2.74027,0,0,0
0,1.0895,1,2.91067,0,0,0
2.60514e+07,103.292,1,2.90897,9231.63,-13457.6,-14858.1
2.62699e+07,70.648,0,2.52202,11801,-109.601,-19629.1
2.62809e+07,39.6863,2,2.37451,1831.36,-3022.48,-21178.6
2.63642e+07,52.3783,0,2.67641,9391.01,-5952.38,-29414
2.64621e+07,96.9662,2,2.96861,6806.69,13380.7,-19459.2
2.65028e+07,9.55529,2,2.37079,112.911,-1361.01,-27299.2
2.65064e+07,86.485,2,3.00995,6707.54,10949.3,-16877.2
2.65154e+07,19.2631,1,2.97744,992.811,1724.85,-25264.9
2.68388e+07,111.779,0,2.48443,-210.653,-20501.4,-16995.3
2.69217e+07,49.8361,1,2.86773,-7323.35,-1640.03,-21552.2
2.69308e+07,79.3108,1,2.45781,1252.6,-12574.7,-17880.4
2.69751e+07,44.1547,2,2.71031,2183.51,2130.58,-29097.1
2.71105e+07,39.6524,0,2.56221,7527.05,3771.52,-28318.4
2.73537e+07,79.7123,1,2.86597,-12784.6,-5466.81,-19621.8
2.73542e+07,28.4023,0,3.05006,-4074.33,1017.24,-24667.9
2.74917e+07,62.8481,1,3.05515,-12387,-1107.05,-24461
2.77376e+07,5.15467,0,2.71728,1156.47,-102.599,-28622.2
2.78252e+07,123.73,1,2.59289,-7663.68,-7604.73,-5048.69
2.78991e+07,83.8723,0,2.4143,3979.44,-6318.12,-12691.1
2.79559e+07,11.1249,1,2.88893,-952.159,-1922.56,-28019.8
2.79607e+07,261.6,2,3.01152,-2194.18,-27013.1,2887.09
2.79944e+07,21.3505,1,2.65962,-2635.29,1946.56,-25703.6
2.80319e+07,11.8162,0,3.01568,1984.84,1647.72,-28704.1
0,11.5956,0,2.51429,0,0,0
2.80392e+07,120.99,0,2.86706,21659.2,8420.04,-18301
2.83214e+07,175.368,2,2.82619,9021.13,-24941.1,-24185
2.83774e+07,85.9335,2,2.81356,-17953.1,1240.29,-26726
2.8744e+07,121.443,2,2.43031,-9127.22,17483.5,-12354.8
2.88829e+07,35.5441,2,2.47006,-4235.21,-4534.19,-24196.1
2.90446e+07,105.383,0,2.76378,12758.4,16813.5,-21743
2.90688e+07,33.347,2,2.70542,-783.317,-5410.58,-24254.4
2.90998e+07,51.3643,0,2.90512,5757.52,-9202.42,-28676.6
2.91018e+07,13.6744,2,2.85854,2106.33,423.866,-26974.5
2.91493e+07,1.25977,2,2.85333,-186.605,-253.12,-29069.4
0,1.28901,2,2.37545,0,0,0
2.92317e+07,21.8969,0,2.55021,-1663.71,3466.24,-26231.6
2.92471e+07,137.851,0,2.36384,28451.7,-5386.87,-23889.8
2.92649e+07,34.4324,0,2.45312,1521,2661.34,-22370.6
2.92916e+07,36.0384,2,2.43235,805.474,6422.79,-24907.2
2.93193e+07,22.321,1,2.56656,3347.33,1454.48,-25835.3
2.9332e+07,55.5141,2,2.55124,-993.306,-10748.7,-24151.3
2.94712e+07,4.89225,0,2.44225,1112.22,-234.734,-28574.5
2.96392e+07,16.4981,0,2.60886,530.361,1387.11,-25731.8
2.97812e+07,3.82791,0,2.36846,287.905,796.693,-28761.2
2.97964e+07,104.441,1,2.52378,-3687.32,19081.1,-18123.2
2.98616e+07,28.0685,0,2.95826,-2338.7,-2050.63,-25041.3
