#class tools::wcsv::ntuple
#title time
#separator 44
#vector_separator 59
#column double eventID
#column double t(ns)
#column double copynumber
#column double energy(eV)
#column double x(mm)
#column double y(mm)
#column double z(mm)
53124,96.0143,1,2.38453,-11034.3,14254.8,-19291.6
89774,91.2125,0,2.57531,18758.2,-931.142,-24249.1
234326,11.5633,2,2.38724,1062.45,-1448.84,-27106.6
270343,90.8136,1,2.50468,-10224.1,9638.06,-15644.4
283864,36.4392,2,2.51345,-7383.27,-2501.03,-27523.4
333242,155.671,1,2.8319,17130.5,4928.26,-1341.2
465483,59.2331,2,2.82191,12226.3,251.773,-26379.7
484411,133.947,1,2.8535,-22310.4,-2800.7,-26762.6
487741,28.1047,0,2.40266,-1555.41,-3929.57,-25031
629092,236.651,2,2.90869,-18800.2,-19865.6,12632.3
705993,12.3225,0,3.05578,1784.07,275.551,-26911.5
1.02641e+06,67.6175,2,2.65355,-6175.12,10015.1,-20456
1.03819e+06,138.936,2,2.69402,19304,-21203.5,-23202.1
1.52299e+06,7.16384,0,2.53654,1019.51,-866.489,-29766.9
1.57041e+06,54.4825,2,2.66035,5069.06,-9073.64,-24213.4
1.72778e+06,11.8992,2,2.86227,-2003.65,-1416.64,-28589.7
1.78809e+06,53.7013,1,2.73892,24.3081,-6248.69,-19533.3
1.91216e+06,27.7894,0,3.01938,3600.59,1173.04,-24298.7
2.00943e+06,105.763,2,2.67341,-15430.9,-10926.4,-16878.2
2.1888e+06,28.6097,2,2.69835,-5188.3,-2088.17,-26465.8
2.22999e+06,1.46048,1,2.68241,-154.147,357.95,-28983.7
0,1.46039,1,2.83817,0,0,0
0,1.46924,1,2.86057,0,0,0
2.25393e+06,170.428,2,2.51899,18088.8,12903.7,-480.773
2.25576e+06,8.41588,0,2.62678,1257.56,1205.47,-28284.1
2.35888e+06,19.9566,0,2.45114,1991.7,1350.36,-25328.9
2.43408e+06,20.8161,0,2.63274,3328.03,1668.67,-26300.9
2.51211e+06,47.3852,1,3.00826,4917.34,8525.42,-27256.2
2.61889e+06,113.618,0,2.81308,-860.967,-7279.6,-22200.9
2.63127e+06,59.7582,0,2.76221,4773.42,7021.83,-19510.7
2.66001e+06,66.8174,2,2.6011,-7567.4,-8132.46,-20241.1
2.99136e+06,11.382,2,3.05537,-1386.37,-1480.19,-27393.3
3.04154e+06,143.651,2,2.85341,-18206.7,-24167.7,-29104
3.11711e+06,11.4671,2,2.8117,-1555.62,472.336,-26969.3
3.17225e+06,484.99,0,2.57813,-19306.6,10689.6,-714.935
3.36379e+06,6.06658,2,2.78663,899.438,770.799,-28621.9
3.48144e+06,9.57018,0,2.42392,-558.462,-605.198,-26878.9
3.54649e+06,65.6688,2,2.85527,-5560.34,-9215.21,-20174
3.55195e+06,50.3381,2,2.81935,-3644.83,-3913.54,-20285.6
3.66211e+06,37.1387,1,2.71231,-2483.7,-2273.47,-21801.8
3.81655e+06,128.271,2,2.57839,-23149.3,10432.9,-19298.6
4.1496e+06,133.171,2,2.95396,-19764.8,-19984.5,-29661.4
4.26152e+06,55.7013,1,2.55902,7565.18,1940.67,-20040.6
4.27386e+06,6.46805,1,2.97153,-218.53,1044.52,-29616.7
4.36582e+06,114.727,0,2.58066,12770.8,-5086.21,-8875.41
4.90105e+06,278.023,0,2.7386,-2958.18,22833.5,16454.8
5.01784e+06,98.1721,1,2.4597,18360.1,1550.1,-21137.5
5.2283e+06,130.675,2,2.43751,-17146.9,-12401.5,-11019
5.23196e+06,35.409,2,3.02403,-2002.44,-6719.2,-26257.1
5.58114e+06,84.9046,2,2.67842,-4452.88,-3010.48,-11884
5.63314e+06,98.5918,0,2.63133,-20146.6,-1239.3,-25237.4
5.69024e+06,12.2341,0,2.46038,954.215,1863.4,-27246.3
5.88766e+06,6.29372,1,2.60658,790.099,811.857,-29623.3
5.92356e+06,67.8187,2,2.85107,-6132.19,-1677.33,-16069.1
6.05725e+06,118.226,2,3.06,2259.12,-15991.2,-9993.23
6.06775e+06,64.7659,2,2.36635,-13715,-1464.93,-29125.1
6.2323e+06,95.7082,1,2.54844,19725.8,1527.84,-24735
6.4053e+06,47.2431,1,2.36924,5398.32,6221.78,-23584.3
6.52396e+06,9.66631,2,2.49648,-1368.91,-1552.54,-28342.3
6.56283e+06,51.3071,2,2.42831,-5380.34,-2351.76,-19656.9
6.59675e+06,51.0518,0,2.51471,9313.24,-2970.43,-24063
6.63718e+06,87.5504,2,2.68048,-7227.13,-11760.1,-16474.9
6.83784e+06,67.1819,0,2.40622,9362.96,10797.3,-28748.3
6.94324e+06,118.593,1,2.59101,16691.1,8926.31,-12587.4
7.05835e+06,82.6109,1,2.79816,-10070.9,6395.5,-20397.9
7.1776e+06,18.0299,2,2.73947,-181.835,-3848.95,-29027.1
7.32297e+06,164.866,0,2.90958,-6164.48,4523.01,-25432.4
7.36749e+06,43.3016,2,2.86959,-8637.48,3164.62,-27932.7
7.42074e+06,22.1886,1,2.6447,-3572.61,2013.22,-26415.6
7.4635e+06,12.8724,1,2.8242,-2584.63,935.938,-28636.6
7.53193e+06,118.588,0,2.83105,-8021.16,18227.9,-19470.1
7.57048e+06,9.14925,0,2.88148,479.22,1488.12,-29788.6
7.86945e+06,106.411,1,2.59821,17924.8,13538.3,-27669.5
8.17471e+06,10.9221,1,2.75656,13.5725,-1825.89,-27501.8
0,10.8844,1,2.43616,0,0,0
8.32415e+06,27.9655,1,2.38742,1146.38,2390.42,-23518.6
8.36291e+06,86.6284,2,2.94951,-15503.8,-7374.8,-22792.3
8.43511e+06,98.0755,1,2.92592,8083.32,-12706.2,-14847
8.53967e+06,134.977,0,2.47651,16430.2,-8193.63,-6667.3
8.75246e+06,190.102,0,2.36473,22985.1,10322.2,2441.07
8.80939e+06,104.321,1,2.84087,-20418.6,-2343.87,-21001.5
8.82646e+06,43.7002,1,2.8357,-8915.82,-2452.56,-28670.4
8.88854e+06,128.933,0,2.9287,11447.5,13716.2,-8513.15
9.228e+06,159.169,0,2.68945,20832.1,7114.29,-3414.48
9.26181e+06,46.2409,2,2.70759,-8622.89,-3953.63,-26404
9.73118e+06,45.9061,2,2.47035,1550.36,-7139.12,-22403.9
9.78569e+06,59.5804,0,2.73934,1244.82,11128.9,-23446.2
9.98309e+06,26.4013,0,2.85183,-4903.8,1305.28,-26824.3
1.0121e+07,13.7576,2,2.75321,-1505.9,-1788.34,-27061.7
1.01863e+07,85.3748,0,2.67493,-1702.26,8415.83,-13029.6
1.0194e+07,8.84489,2,2.66698,9.07411,-1303.61,-27443.8
1.03109e+07,170.02,0,2.90818,27564.2,-2313.34,-6338.32
1.0372e+07,247.409,2,2.95294,-15261.3,19168.2,16893
1.04168e+07,32.8799,1,2.52087,-3654.66,4615.43,-24872.7
1.04913e+07,1.23823,2,3.25772,268.316,-234.446,-28927
0,1.99538,1,2.2791,0,0,0
0,1.24828,2,2.27283,0,0,0
0,1.27825,2,2.63666,0,0,0
0,1.23772,2,2.85905,0,0,0
0,1.24705,2,3.70599,0,0,0
0,3.46622,0,3.25288,0,0,0
0,1.23054,2,3.97877,0,0,0
0,1.24481,2,3.6928,0,0,0
1.08859e+07,20.8336,2,2.71619,877.011,-140.599,-28258
1.08999e+07,60.9084,2,2.68049,-3760.01,-11218.9,-23603.6
1.10024e+07,77.7352,0,2.67018,6588.22,3436.85,-14154.8
1.10221e+07,114.151,2,2.75906,-11542.5,-15343,-14258.6
1.10661e+07,73.7471,1,2.62633,-8391.57,10533.6,-20886.7
1.1089e+07,194.262,1,2.6269,11671.8,15811.6,7162.78
1.11023e+07,161.459,2,2.84359,-15292.7,-22615.4,-8521.19
1.11082e+07,32.6153,0,2.62935,3762.04,5395.47,-26828.5
1.15542e+07,73.9913,0,2.96481,2608.73,8946.47,-16217.5
1.17569e+07,16.4979,1,2.68088,357.679,2669.56,-26596.7
1.18361e+07,36.5061,1,2.7721,3305.56,1305.36,-22069.6
1.18801e+07,60.7362,2,2.98335,7078.78,-7592.76,-21431.2
1.20381e+07,99.1575,1,2.83289,3517.91,15270.4,-14974.4
1.214e+07,119.294,1,2.8143,-14848.8,3423.82,-9116.67
1.21446e+07,39.7302,0,2.67056,2302.76,-6513.76,-24060.5
1.21846e+07,59.5623,2,2.65033,9597.23,4094.72,-21910.5
1.22928e+07,132.715,2,2.64142,-20798.6,-16404.7,-19516.4
1.23611e+07,20.1549,2,2.8663,-2710.63,-828.156,-25592.6
1.23613e+07,73.0407,1,2.63515,13853.5,6914.53,-26942
1.24501e+07,18.9157,2,2.85576,-3473.28,1025.49,-27181.8
1.26462e+07,64.5274,1,2.8889,1376.67,-9156.79,-19009.6
1.26605e+07,92.894,0,2.59402,16565.3,-5678.07,-19685
1.27696e+07,125.755,0,2.63839,10787.8,-24117,-29979.8
1.28249e+07,30.7005,1,2.70742,-1015.14,3395.66,-23404.3
1.2917e+07,73.56,1,2.61876,12478.7,6193.12,-22048.2
1.29738e+07,190.615,2,2.40227,-20357.5,-1879.54,5971.41
1.31724e+07,35.9977,2,2.38811,-157.112,-7617.6,-29999.6
1.3282e+07,67.9481,0,2.89929,4872.2,-7599.99,-18629.4
1.3432e+07,26.9073,1,2.79106,-4835.11,705.587,-25782.9
0,26.9461,1,2.90085,0,0,0
1.34711e+07,38.5001,0,3.05877,4223.11,-1034.75,-22974.2
1.35204e+07,7.00655,2,2.9073,341.454,610.071,-27534.6
1.36091e+07,129.18,2,2.90323,13106.3,-2118.17,-5237.8
1.3722e+07,9.31876,1,3.01399,736.288,470.01,-26868
1.37469e+07,34.6971,1,2.38341,3615.86,4037.29,-23677.9
1.37849e+07,32.7244,2,2.82423,1641.34,4165.31,-23654.1
1.41827e+07,40.5632,2,2.46523,6467.8,-4303.99,-25285.8
1.43148e+07,157.335,1,2.64004,-17701.9,12977.8,-4501.43
1.45429e+07,146.932,2,3.05379,-9947.57,24259.7,-29010.9
1.45617e+07,7.92824,1,3.02342,-1437.39,315.251,-28339.3
1.45936e+07,181.782,0,3.02823,28178,13204,-6841.65
1.4595e+07,126.372,2,2.44642,4708.05,11046.3,-4991.37
1.46203e+07,61.0424,1,3.01375,4325.17,5876.12,-29969
1.46541e+07,46.5578,0,2.87501,3119.4,-9278.22,-27908.4
1.48724e+07,72.3369,2,2.621,-13122.3,-6433.05,-25063
1.49226e+07,181.059,1,2.62351,21919.3,20034.1,-4998.55
1.493e+07,25.7118,0,2.48172,4874.44,-2507.11,-28066.4
1.49519e+07,83.4708,1,2.96388,-15112,8064.88,-24880.9
1.51674e+07,92.3129,2,2.8003,-16108.5,-4370.81,-27946
1.52113e+07,153.46,1,3.04017,17953.4,12423.2,-5173.68
1.53214e+07,131.953,2,2.87906,-18576.4,-11795.7,-11904.7
1.53955e+07,14.684,2,2.53801,705.178,2450.46,-27211.1
1.55337e+07,7.59055,2,2.40542,809.248,142.304,-27581.2
1.57018e+07,120.295,1,2.94624,-1825.58,-9262.28,-22144.1
1.57103e+07,54.2713,2,2.57349,-2762.41,-9581,-22960
1.57808e+07,9.58149,2,2.51848,-1155.24,-1272.37,-27549.9
1.58586e+07,132.952,2,2.76764,722.403,-27018.2,-21233.4
1.58717e+07,56.4385,2,2.84337,7974.14,-8896.57,-29021
1.5943e+07,157.135,2,2.53569,-15935,4270.02,-22524.8
1.60017e+07,97.9075,1,2.37479,-17538.9,6695.29,-20039.1
1.61191e+07,82.5748,1,2.96046,37.7294,-4784.03,-25408.6
1.64459e+07,75.8879,1,2.50713,5851.33,7448.66,-15876.9
1.67347e+07,59.9161,2,2.70403,-10896.3,-6362.77,-27230.6
1.6798e+07,79.9775,1,2.48899,-5696.36,12619.7,-18793.3
1.69542e+07,157.385,0,2.70504,10988.9,28201.2,-15150.5
1.70697e+07,110.417,2,2.61825,-18807.3,-1706.07,-15115.3
1.72936e+07,45.0391,2,2.53051,-3741.13,-5422.31,-21851.1
1.74295e+07,28.1328,1,2.45908,-535.194,-3023.4,-23775.5
1.75589e+07,42.2372,0,2.44148,3053.52,3385.66,-21153.1
0,42.1861,0,2.36665,0,0,0
1.76734e+07,7.50664,0,2.45018,-217.873,-1634.93,-28247.5
1.78447e+07,36.5232,2,2.41081,6368.51,2590.87,-25587
1.80429e+07,162.029,2,2.79911,-26140.1,1771.62,-6944.01
1.80758e+07,174.036,0,2.53671,23289.8,24503.3,-17961.3
1.81481e+07,23.1263,0,2.99552,614.487,3750.98,-25840.8
1.82345e+07,137.844,1,2.8157,-23632.1,11326.5,-16241.3
1.82456e+07,30.5069,1,2.59981,-5337.63,-1237.25,-25269
1.83256e+07,31.6247,1,2.38058,1043.52,-4771.44,-24309.2
1.84293e+07,2.07969,0,2.65008,499.35,235.327,-28876.4
1.84653e+07,115.006,0,2.98203,-5603.66,17514.2,-13168.6
1.86396e+07,12.4568,2,2.74336,-2141.08,1481.02,-28032.4
1.86708e+07,14.6779,0,2.75744,-2945.23,-484.67,-28197.7
1.87105e+07,114.611,0,2.70864,8584.56,-22010.7,-23551.3
1.88035e+07,33.7575,1,2.5828,-1.06668,3049.12,-22269.6
1.89213e+07,35.1816,0,2.96429,-885.587,6814.23,-26077.1
1.89379e+07,55.7642,2,2.61693,5874.84,932.729,-18840.4
1.90369e+07,102.241,2,3.03842,8237.64,-4156.49,-9530.64
1.92039e+07,10.537,0,2.86214,337.575,-1987.28,-27774.7
0,10.5701,0,2.63827,0,0,0
1.93055e+07,7.16919,1,2.40629,-664.191,-7.47489,-27407.9
0,7.22047,1,2.98,0,0,0
0,7.16979,1,2.61834,0,0,0
1.93874e+07,74.0583,1,2.53047,8012.29,12354,-23382.4
1.94958e+07,45.5258,1,2.80188,-6442.89,488.3,-21453.6
1.97456e+07,35.8851,0,2.59486,4758.92,-5284.22,-26141.7
1.98303e+07,60.5482,2,2.43576,-1170.51,-12395.5,-25477.6
1.99064e+07,38.2049,2,2.55871,-5007.09,-4897.97,-24683.4
1.99321e+07,28.9339,2,2.46472,-1392.12,-5177.53,-25551.9
2.00796e+07,104.602,1,2.65098,-11445.9,19065.6,-28129.7
2.01732e+07,201.543,2,2.88609,-6728.22,-27388.5,-2933.83
2.04763e+07,7.61939,2,3.0396,343.612,-382.376,-27346.2
2.04938e+07,159.938,0,2.70576,4288.81,22680.6,-4256.42
2.05561e+07,17.1537,0,2.90965,-2819.13,-1912.02,-27603.8
2.08614e+07,135.29,0,2.38746,11572,12946,-8946.15
2.09162e+07,9.94145,2,2.84248,1623.46,1331.12,-28551.9
2.09326e+07,48.4432,0,2.66097,4549.02,1091.7,-19693.8
2.10594e+07,5.73034,2,2.65919,1073.69,-538.678,-28506.4
2.13494e+07,66.1375,0,2.80695,-4085.12,-5071.11,-16581.3
2.16004e+07,7.88023,2,2.86896,-1193.07,-1120.59,-28914.2
2.16341e+07,15.2284,0,2.89411,2327.1,-197.955,-26590.7
0,15.1733,0,2.85423,0,0,0
2.18148e+07,158.903,1,2.94078,-10004.6,-17232.4,-2281.08
2.21106e+07,58.3629,0,2.99801,476.038,5887.3,-17976
2.21177e+07,51.2599,1,2.77393,8910.95,5351.24,-26101.1
2.23394e+07,33.7789,1,2.79254,-3827.36,-4591.47,-24888.2
2.23576e+07,127.163,0,2.61218,242.136,12898.9,-27548.8
2.24098e+07,16.8513,2,2.93674,-2004.31,2786.71,-29167.5
2.24705e+07,41.2059,0,2.61627,-5732.89,242.283,-22359.6
2.2511e+07,77.8447,0,2.83362,5222.97,-10679.2,-17515.3
2.2512e+07,35.8028,0,2.98575,6554.99,-613.751,-26438.1
2.25178e+07,12.8563,1,2.38928,-27.817,1418.76,-26383.8
2.28429e+07,25.7086,2,3.03705,-52.7429,2731.28,-24218.4
2.29014e+07,27.3558,2,2.43202,-5192.81,-883.016,-26060.6
2.29357e+07,18.8852,0,2.81275,571.439,-3438.09,-26819.7
2.3192e+07,4.79023,1,2.43884,-1128.94,243.436,-28717.3
2.32158e+07,20.2377,2,2.79938,-1432.41,-1872.3,-25237.7
2.32188e+07,66.5932,2,2.55898,-11162.7,-6794.84,-23359.5
0,66.64,2,2.56158,0,0,0
2.3237e+07,89.081,2,2.48881,1620.4,-18881.5,-29512.4
2.33548e+07,7.00223,2,2.99923,434.387,-1497.82,-28682.9
2.33644e+07,67.8603,2,2.80361,-9290.19,-3860.62,-18494
2.33924e+07,29.8339,0,2.72467,-4280.12,2459.88,-25022.6
2.35303e+07,25.9025,0,2.37698,4215.53,-3569.93,-28778.1
2.35359e+07,55.8482,1,2.98006,-10538.7,2811.53,-24486.9
2.35517e+07,142.636,2,2.50456,9160.03,-27720,-21097.5
2.35765e+07,234.996,0,2.8391,5779.72,11382.2,-4711.82
2.36135e+07,123.536,1,2.93398,5266.93,17997.2,-11091
2.36858e+07,129.597,1,2.98826,-11250.6,24838.8,-27517.3
2.36888e+07,26.4084,2,2.39902,-4111.13,-2491.99,-25779.8
2.37954e+07,61.9921,1,2.70237,6704.73,9348.98,-22424
2.38243e+07,50.5188,2,2.51612,-5672.26,-789.203,-19911.4
2.39577e+07,21.6318,2,2.88239,-3417.06,291.718,-25866.4
2.41026e+07,84.2938,2,2.76944,-12705.9,5913.06,-17919.3
2.42485e+07,17.1969,2,2.36723,-3489.16,-189.074,-27747.4
2.4549e+07,134.296,1,2.77616,-7450.83,-18210.5,-29306
2.45656e+07,143.401,0,2.51889,21787.3,-17977,-17906.1
2.46687e+07,11.9763,2,2.87634,30.8358,-2477.29,-29482.2
2.46759e+07,102.722,0,2.71963,8790.35,-3150.94,-20519.6
2.47112e+07,53.4442,0,2.49832,-5656.22,-7225.24,-22264
2.47564e+07,57.8536,2,2.76872,11768.7,1901.99,-28130.2
2.47961e+07,139.426,1,2.63136,-21980.2,-15624.1,-17061.8
2.49049e+07,80.9889,2,2.96831,6516.51,4214.73,-13766.2
2.50404e+07,22.7164,1,2.67599,1214.11,2647.31,-25099
2.51812e+07,11.8351,2,2.72884,-1052.52,604.511,-26582.1
2.52056e+07,154.648,2,2.67338,-7915.26,26784.8,-12088.9
2.52796e+07,66.3312,2,2.56735,8243.55,-1611.04,-17696.3
2.53725e+07,77.1745,0,2.49388,6347.53,13341.3,-21930
2.53736e+07,26.3734,1,2.48994,-2768.06,-1278.43,-24171.8
2.55253e+07,6.52947,0,2.36764,1362.77,336.791,-28282.2
2.55895e+07,53.8363,2,2.62862,11196.7,1659.42,-28899.1
2.57285e+07,37.595,0,2.76036,4676.79,6352.5,-27667.7
2.58289e+07,94.2605,1,2.65441,16973.5,553.57,-18527.7
2.59346e+07,11.1406,1,2.57892,-1356.85,1754.72,-28121.3
2.59358e+07,18.9882,0,2.40096,1532.83,-685.956,-25220.7
2.59435e+07,42.6706,2,2.72706,4803.81,-3180.09,-21892.2
2.59557e+07,40.4768,0,2.44548,6092.88,-2166.41,-23166.2
2.62203e+07,34.1467,2,2.68366,-1309.29,-6675.37,-26150.7
2.62459e+07,50.7436,1,2.80905,-1461.09,7055.31,-20746.8
2.63194e+07,150.914,2,2.77916,-11777.9,-28225.5,-19895.1
2.63219e+07,56.9822,1,2.85377,-7404.74,8359.3,-24304.7
2.63632e+07,78.5453,0,2.77009,-6036.25,-7454.4,-15473.2
2.64271e+07,101.353,0,2.735,11801.2,-1972.53,-17618.7
2.65797e+07,22.2195,2,3.05101,2745.7,-3021.94,-26497.1
2.65878e+07,111.07,2,2.80413,-18345.7,2237.7,-14457.5
2.66241e+07,280.558,0,2.81488,16005.8,22899.7,-9765.44
2.69355e+07,45.9793,1,2.83134,-2935.08,7427.03,-23217.3
2.69649e+07,79.9502,2,2.4311,7123.58,-14680.3,-24155.9
2.70051e+07,39.4039,1,2.59441,-7132.91,-4232.79,-29244
2.70689e+07,181.142,1,2.92628,20476.4,22537.9,-6041.37
2.73343e+07,24.6842,2,2.52848,994.992,-4956.73,-27307.7
2.74624e+07,63.6181,2,3.05523,-5120.26,-1291.93,-16584.3
2.74694e+07,37.604,1,2.99372,2296.84,7269.05,-26105.2
2.74699e+07,38.6484,0,2.67686,6687.81,-4208.16,-26899.7
2.75995e+07,44.466,1,2.73363,5370.8,-2293.49,-21575.1
2.77568e+07,54.2669,0,2.39314,10122.7,3546.35,-24465.6
2.77789e+07,44.0267,0,2.53587,4629.4,4198.84,-21710.7
2.79076e+07,304.951,2,2.6782,-27778.6,22781.8,24570.2
2.79186e+07,59.0731,2,2.89706,-7293.37,-9800.4,-26193.3
2.79259e+07,75.3539,0,2.54705,14884.6,-5948.05,-29045.7
2.81819e+07,183.521,1,2.74423,-3327.16,25775.3,-149.958
2.82178e+07,8.67775,1,2.7894,1519.48,961.379,-28365
2.84706e+07,36.3692,1,2.99925,1350.35,7406.24,-28340.3
2.85429e+07,121.338,1,2.89868,4556.45,-14011.8,-8216.75
2.87341e+07,17.4568,2,2.37268,-1432.28,-377.13,-25450.3
2.88133e+07,7.04459,0,2.39258,486.849,-448.443,-27560.3
2.90433e+07,22.9316,0,2.74181,-168.543,-3171.74,-25193.6
2.91234e+07,80.0019,1,2.48888,-7434.27,15309.9,-26614.2
2.93306e+07,43.3749,1,2.55241,-766.944,7044.18,-22899.3
2.93949e+07,97.093,2,2.48206,-16762.5,-2525.38,-17182.8
2.95907e+07,155.372,2,3.04441,11505.3,12398,-1077.22
2.96802e+07,20.3766,1,2.40705,25.9585,2853.49,-25502.3
0,20.4772,1,2.74745,0,0,0
2.98579e+07,23.8344,2,3.04911,3785.96,1296.21,-25737.3
