#class tools::wcsv::ntuple
#title time
#separator 44
#vector_separator 59
#column double eventID
#column double t(ns)
#column double copynumber
#column double energy(eV)
#column double x(mm)
#column double y(mm)
#column double z(mm)
130792,98.2154,0,2.70648,-10956.7,5642.79,-12327.3
132841,98.6153,2,2.73647,9192.2,986.484,-10915.1
351638,51.5756,1,2.89016,-10400.7,3338.49,-29242.9
362768,84.8263,2,2.77516,-16733.9,-1367.08,-22634.5
382080,13.9404,0,2.70678,2372.25,-46.331,-26998.8
393845,59.4725,2,2.73356,-6514.85,2619.99,-18487.5
445198,179.745,2,2.68306,-25663.9,16948.8,-6659.18
471424,137.238,1,2.698,12970.4,-6833.99,-3918.93
705382,20.9328,0,3.0269,1853.05,3337.01,-26623.2
987035,24.2547,0,2.63877,3708.71,1094.41,-25219.4
990232,44.9504,0,2.55876,2685.83,2247.79,-19697.8
1.12508e+06,80.8727,2,2.92905,-13091,-8525.37,-21808
1.14211e+06,49.2804,1,2.72706,-1694.44,10087.6,-26572.8
1.28003e+06,21.4048,2,3.04503,-971.032,-2174.06,-24974.6
1.35371e+06,28.7755,1,3.03238,-803.716,3113.62,-23655.9
1.48292e+06,131.958,1,2.95252,-16980.5,12784.6,-11118.7
1.60718e+06,16.759,1,2.79914,1680.86,2325.38,-26677.4
1.64559e+06,10.7198,1,2.82675,-1163.11,891.738,-27002.8
1.92573e+06,25.3199,2,2.64665,-4799.7,-750.748,-26425
2.03821e+06,44.5763,0,2.9164,2016.09,-9199.59,-28697.9
2.04538e+06,171.649,0,2.73307,-1855.51,5224.19,-19143.3
2.23938e+06,200.16,2,2.72859,-18509,-14818.6,-9651.42
2.48549e+06,71.4046,1,2.93366,-7326.63,-7486.1,-18519.1
2.69895e+06,2.13105,2,2.9153,-510.156,-7.74784,-28759
2.71933e+06,64.6194,2,2.5048,-8647.59,-9520.11,-24548.3
2.80344e+06,6.2143,0,2.93593,361.643,741.6,-27843.2
2.80659e+06,73.6333,1,2.53441,3573.3,15294,-29523.3
2.84025e+06,75.8622,2,2.4619,-10689.3,6528.24,-18649.1
2.84726e+06,42.8875,0,2.4092,-476.443,6022.58,-22492.5
2.91641e+06,90.1801,0,2.78531,13171.9,-13216.9,-24790.9
2.97952e+06,161.464,2,2.79948,-3318.96,-29490.5,-12077.7
2.98607e+06,38.0849,0,2.49178,7573.82,2006.95,-26597.3
3.00032e+06,124.438,0,2.77933,14764.6,-19397,-19151.9
3.00458e+06,325.344,1,2.94463,10072.6,18988.6,10116.2
3.0456e+06,11.3372,0,2.87599,1195.11,-1658.9,-27488.1
0,11.3373,0,2.87599,0,0,0
3.0918e+06,20.659,0,2.44668,-3599.6,-2508.11,-28088.9
3.10919e+06,18.1668,0,3.05254,292.269,1922.98,-25713.4
0,18.0916,0,2.77418,0,0,0
0,18.098,0,2.87294,0,0,0
3.19582e+06,27.8779,2,2.75087,-4076.05,-4117.19,-27416.7
3.24368e+06,12.7625,0,2.99467,327.88,-122.336,-28862
3.33731e+06,16.1398,2,2.5047,325.6,-3487.56,-28564.4
3.45559e+06,119.518,2,2.36216,-2503.75,15788.4,-9257.26
3.5121e+06,79.6364,1,2.7287,-14689.3,5941.39,-23041.9
3.56265e+06,28.7462,1,2.77573,-1555.02,2125.42,-23580.9
3.6109e+06,166.401,2,2.90997,15296.1,-24499.9,-8972.51
3.66457e+06,47.6204,1,2.86471,2938.32,-5709.88,-21154
3.94768e+06,34.4872,2,2.4905,-3472.38,-5281.55,-24935.9
3.97653e+06,163.465,2,2.91172,3659.19,22947.9,-3651.42
4.0714e+06,27.7483,2,2.83896,4697.31,-1281.1,-25482.6
4.38991e+06,17.6604,0,2.8634,-847.78,2031.84,-25885.9
4.63446e+06,4.95691,1,2.83708,-751.637,404.326,-28118.8
4.662e+06,182.023,1,2.7152,-29554.5,24300.9,-25111.6
4.7127e+06,28.9716,2,2.98262,-2288.22,-3336.87,-24217.2
4.73458e+06,19.0422,2,2.49784,-2061.51,-3455.93,-27907.6
4.73592e+06,18.4889,2,2.36729,-651.602,1724.76,-25354.9
4.76378e+06,41.1186,2,2.6552,-6500.93,-3463.8,-24783.6
4.79248e+06,31.6697,2,2.79839,6568.32,-1340.94,-28864.9
4.82517e+06,123.697,0,2.39417,9902.89,22687.4,-21599.1
5.01645e+06,3.72801,2,2.66804,401.545,-250.506,-28303.2
5.06502e+06,66.2989,0,2.45778,8147.66,2892.6,-17765.1
5.07144e+06,60.3854,0,2.859,8101.4,-5089.87,-20405.1
5.54556e+06,117.349,2,2.78559,-1511.94,-4310.01,-19845.7
5.64458e+06,8.61054,1,2.79071,-1589.82,312.447,-29439
5.74949e+06,178.275,0,3.03395,-22636.3,13862.6,-8161.83
5.86405e+06,47.7462,0,2.80648,4028.79,338.935,-19548.7
5.90323e+06,86.5688,2,2.87493,10755,-143.008,-14198.9
6.13096e+06,42.5645,1,2.51387,-8821.12,-969.692,-27044.5
6.13125e+06,20.6038,1,2.46136,-2238.4,-2926.18,-26612.7
6.193e+06,159.582,0,2.55615,-7061.67,-17739.6,-1049.33
6.2952e+06,85.7483,1,2.39966,325.007,14910.5,-18286.4
6.55254e+06,30.0651,0,2.94539,1636.46,5936.04,-27131.6
6.55777e+06,94.8104,2,2.74687,8440.53,-14937.9,-18503.7
6.60059e+06,108.501,1,2.79942,-8794.46,2204.13,-7810.36
6.66214e+06,36.7415,1,2.52789,3855.39,5346.99,-24624.5
6.81089e+06,114.544,1,2.77617,18609.5,12725.1,-23603.8
6.8539e+06,11.4413,0,3.05371,980.101,1266.24,-26911.5
6.8719e+06,218.083,2,2.68198,-19197.6,-17997,8892.45
6.90992e+06,99.2188,1,2.63791,-3697.71,-20408.5,-28247.9
6.96027e+06,143.177,2,2.38463,-2376.97,-15205.7,-2730.58
6.98137e+06,168.059,0,2.50631,14245.3,5393.01,-27855.2
7.11888e+06,100.404,1,2.65426,-11222.3,14597.2,-18148.4
7.33555e+06,114.388,0,2.97207,-5306.68,-22143,-21546.7
7.39683e+06,140.338,2,2.41081,2105.33,-18268.6,-5489.48
7.56883e+06,107.378,2,2.47129,-10759.5,-11439.6,-12387.7
7.57188e+06,263.157,1,2.54828,-15489.3,20404.6,20559.5
7.61059e+06,29.9412,0,2.50035,6334.62,-1108.44,-28608.7
7.68332e+06,28.5701,0,2.87671,3986.58,-4088.56,-26741.1
7.75327e+06,20.627,0,2.7356,-2057.84,532.904,-25088.4
7.9566e+06,204.047,1,2.84708,9839.34,4553.93,-23729.2
7.98309e+06,12.9737,2,2.51535,-724.519,-2508.87,-28115.3
8.04491e+06,46.1155,1,2.91817,-8425.97,838.06,-23916.1
8.10143e+06,109.751,2,2.98089,-6055.21,1793.83,-22727.1
8.21158e+06,23.7657,0,3.03602,4648.63,1952.89,-29488.2
8.23358e+06,47.1425,0,2.74658,7138.64,280.697,-21868.1
8.30444e+06,45.167,2,2.46375,2943.64,-4953.99,-21385.9
8.30963e+06,256.559,2,2.76089,-16921.9,17197.1,19408
8.38523e+06,165.44,0,2.92704,-22734.2,-25997.5,-27435.2
8.41441e+06,84.0238,2,2.54304,-7425.85,-16248.9,-29187.9
8.61737e+06,78.6041,1,2.71693,-4706.17,4543.04,-13709.7
8.72829e+06,5.64388,0,3.02293,794.079,-743.884,-28259.5
8.96016e+06,50.521,0,2.4831,-965.847,-9893.4,-24921.7
8.96336e+06,16.0344,0,2.9675,159.202,1960.84,-26107.4
8.99403e+06,1.09097,2,2.61637,110.794,-221.404,-28714.5
9.38401e+06,94.0597,1,2.7793,13286.1,13041.3,-21956.4
9.43014e+06,9.96603,2,2.79756,959.652,120.17,-26928.2
9.51192e+06,2.41027,0,2.47374,175.829,101.033,-28351.4
0,2.409,0,2.91084,0,0,0
0,2.83809,2,2.37591,0,0,0
9.66437e+06,59.4748,0,2.57881,-6569.98,8741.22,-22673.2
9.71853e+06,48.3502,1,2.83014,-35.7217,8506.42,-23517
9.75716e+06,26.4902,0,2.86551,568.993,-2212.61,-23766
9.80336e+06,78.0141,1,2.75149,5681.71,15304.2,-26547.4
9.9437e+06,169.603,0,2.9896,12593.7,1847.96,4345.08
1.00202e+07,231.064,0,2.49595,-23295.5,7271.97,13440.3
1.00356e+07,40.3782,1,2.91954,-355.914,-355.706,-28575.4
1.00374e+07,12.4,0,2.82505,-895.965,-893.515,-26570.4
1.009e+07,10.6796,2,3.0057,1614.48,-1246.23,-28378.9
1.02039e+07,9.1812,2,2.55797,-188.157,-2053.03,-28065.3
0,9.22813,2,2.47664,0,0,0
1.0269e+07,73.5807,2,2.85778,-7634.52,-10119.4,-19754.1
1.03499e+07,152.398,1,2.56446,27287,11156.9,-15828
1.0447e+07,93.3514,2,2.435,-14543.7,-12222.4,-23197.2
1.04795e+07,38.0666,2,2.9773,1899.45,5164.88,-23014.7
1.05037e+07,20.1717,2,2.49642,-3615.97,-884.96,-26647.8
1.05255e+07,115.379,1,2.80595,18932.2,6869.91,-15105.3
1.0559e+07,64.6816,0,2.58676,8595.66,-6572.84,-20377.5
1.05993e+07,28.6787,1,2.76022,669.103,2371.55,-23264.3
1.08898e+07,184.628,0,2.38437,-13981.7,29714.5,-7783.88
1.09477e+07,29.6562,0,2.80577,155.838,2562.69,-23228.6
1.15659e+07,138.741,2,2.73973,13287.4,11398.5,-15522.7
1.15795e+07,16.6508,2,3.0169,-181.983,-3214.28,-27313.6
1.15853e+07,28.3697,2,2.83877,4510.19,-3158.44,-26456.6
1.15887e+07,63.6248,1,2.75359,-7818.41,-7952.16,-21412.7
1.16788e+07,36.211,2,3.01283,-2785.38,-6177.78,-25296.4
1.17374e+07,23.0239,1,2.4976,3306.3,3638.09,-29253.7
1.1792e+07,139.635,0,2.39743,22359.7,-3123.66,-9764.59
1.17937e+07,89.983,1,2.56478,3090.35,16140.8,-19180.1
1.18166e+07,190.997,2,2.87718,-19194.4,-21126.2,-622.019
1.18281e+07,4.4403,1,2.48529,379.681,674.523,-28427.5
1.18993e+07,99.592,2,2.4402,14220.7,-5221.37,-14184.7
1.19129e+07,58.1639,2,2.98963,7342.35,5256.47,-20765
1.22728e+07,46.4675,2,2.60136,-5864.71,-7509.84,-26029
1.22995e+07,7.07063,1,2.72153,-86.9791,589.02,-27346.1
1.23158e+07,88.773,0,2.54593,14914.9,-3062.45,-26427.9
1.23788e+07,66.3276,1,2.9026,-2076.32,-13610.7,-26676.9
1.24018e+07,6.74969,2,2.60144,136.648,1349.28,-28597.3
0,6.11134,1,2.82688,0,0,0
1.24615e+07,126.828,2,3.03236,16310.5,-294.829,-23824.3
1.26766e+07,21.2637,1,3.01819,-2886.92,-3239.38,-27980.3
1.27092e+07,85.3134,2,2.55378,8885.2,-11598.1,-18453.7
1.2716e+07,28.88,0,2.83471,-1477.87,4197.74,-24694.5
1.27365e+07,120.435,1,2.61625,2495.14,-21151.6,-15036.4
1.28598e+07,62.7586,0,3.01276,-8878.81,953.316,-19215
1.31735e+07,104.489,0,2.37643,9490.15,-17086.1,-18472.2
1.32354e+07,73.0726,0,2.65023,6433.47,4797.13,-15613.7
1.33499e+07,47.0868,2,2.8333,5199.61,-2664.49,-23164.6
1.34845e+07,18.8737,1,2.72483,149.828,4010.17,-29627.2
1.35056e+07,21.4729,0,2.93087,-2934.49,-3035.25,-27592.2
1.35624e+07,139.777,2,2.97858,366.664,14250.7,-29887.7
1.36908e+07,40.1798,2,2.44924,6653.07,-218.723,-23564.2
1.37336e+07,105.567,0,2.98935,-9628.2,17087.4,-18583.5
1.37732e+07,12.0095,0,2.65284,1565.31,-862.817,-26954.4
1.38397e+07,197.122,1,2.74365,-1160.84,-26659.3,2952.22
1.38488e+07,17.0266,0,2.85636,2167.46,-675.748,-26036.7
0,17.0622,0,2.98261,0,0,0
1.41815e+07,42.4487,1,2.75105,2638.93,6733.49,-23527.7
1.41948e+07,63.7667,0,2.96482,6154.85,-10920.5,-24065.6
1.42654e+07,116.876,0,2.6453,22176.8,-5902.04,-19465.7
1.42941e+07,68.6614,1,2.44416,-5516.76,5679.76,-16727.7
1.43575e+07,48.1437,2,2.84289,-6533.75,-4687.68,-22453.8
1.46918e+07,171.596,1,2.48877,-28347.7,-962.727,-10220.1
1.49531e+07,182.099,2,2.97517,-24713.3,-1557.2,176.904
1.50233e+07,121.8,0,2.44946,-16342.1,-14400.9,-15171.7
1.51352e+07,28.471,0,3.02948,-4950.25,2948.3,-28178.6
1.52157e+07,8.67559,1,2.59922,1606.72,86.9657,-27928.9
1.53734e+07,133.375,1,3.01459,-3091.92,-14374.4,-5102.86
1.53942e+07,42.3909,0,2.68553,7973.85,-4165.82,-28156.4
1.55552e+07,12.25,1,2.79785,1668.54,1152.18,-27107.6
1.56062e+07,13.5556,2,2.36208,-1859.98,-846.513,-26738.3
1.57146e+07,58.439,2,2.93787,-8099.55,7316.33,-23223.2
1.57459e+07,65.4488,0,2.47976,396.098,-13362.8,-25133.9
1.60944e+07,0.73892,1,2.55521,-39.9389,290.138,-28776.2
0,0.696192,1,2.44916,0,0,0
0,0.699301,1,2.48961,0,0,0
0,0.770943,1,2.86371,0,0,0
0,0.733904,1,2.87521,0,0,0
0,0.710196,1,2.75271,0,0,0
0,0.846346,1,2.49363,0,0,0
0,0.76594,1,2.51586,0,0,0
0,0.736875,1,2.65345,0,0,0
0,0.698212,1,2.47613,0,0,0
0,0.700537,1,2.66559,0,0,0
0,0.697954,1,3.02555,0,0,0
0,0.710226,1,2.87765,0,0,0
1.61307e+07,51.0227,2,2.7856,-8924.38,941.998,-22853
1.61644e+07,232.436,2,2.88835,-23522.8,-187.757,13959.4
1.62241e+07,53.8647,1,2.90934,-1488.23,-8819.75,-22328.6
1.62284e+07,112.779,1,3.03299,-15858.5,7605.07,-13453.8
1.63183e+07,25.4789,0,2.80236,2025.58,1002.83,-24678
1.6421e+07,0.855854,2,2.6454,-75.2552,-252.256,-28894.5
1.65816e+07,125.535,0,2.90596,-4973.56,13740.1,-6884.95
1.66224e+07,10.8146,0,2.53165,1160.1,-2011.31,-28399
1.67715e+07,62.5042,2,2.47306,10163.3,-7209.43,-25019.9
1.69012e+07,139.762,0,2.53121,-1649.54,17657.7,-5209.36
1.69492e+07,80.1954,2,2.53597,-12018.5,2377.94,-17020.1
1.70848e+07,264.532,1,2.70579,22973.5,23090.7,16410.4
1.71957e+07,33.5428,0,2.60307,2276.23,-2445.02,-22711.6
1.72268e+07,32.6606,0,3.01141,-5716.62,3353.63,-27238.2
1.73284e+07,51.0684,2,3.01988,2303.72,7540.22,-21670.8
1.73321e+07,27.1832,0,2.40154,94.5198,2993.5,-24361
1.74005e+07,93.2951,2,2.94357,6812.59,-10553.2,-20386.4
1.74598e+07,9.33115,0,2.62765,1032.22,1558.85,-27965.2
1.74883e+07,44.4788,2,2.50519,7486.44,-5667.13,-29823.8
1.74918e+07,30.8956,2,2.99605,-132.557,-3682.63,-23505.8
1.76492e+07,117.901,0,2.86533,19322.5,13454.6,-20901
1.77489e+07,82.4175,2,2.91118,-10897.7,516.45,-15421.8
1.77946e+07,53.3629,1,2.89481,3413.89,-8587.32,-22615.7
1.78e+07,4.43252,2,2.75475,-132.489,621.832,-28174.5
1.78469e+07,75.4871,2,2.3653,-5797.95,-14614.9,-25433.6
1.79484e+07,49.8421,2,2.59855,-4661.18,-8331.71,-24487.2
1.80589e+07,188.65,0,2.70667,-29397.3,-18474.3,-10687.4
1.80927e+07,33.4057,1,2.72445,4402.9,1007.39,-23727.7
1.81654e+07,49.7326,1,3.03803,-8911.74,-2760.29,-24040.3
1.82314e+07,47.3907,2,2.45702,-3061.39,-2292.72,-19513.6
1.82865e+07,47.8731,1,2.62224,7531.42,5916.03,-25552.2
1.82874e+07,23.9624,2,2.8665,-1294.1,3502.88,-26083.2
1.83205e+07,68.0034,0,2.57526,-2063.87,12764,-22237.2
1.83404e+07,2.15626,0,2.48365,284.416,-396.772,-29054.2
1.84899e+07,146.25,2,2.47177,-24218,-7570.18,-11139.6
1.87442e+07,57.9447,0,2.72958,5232.9,9199.23,-22628.4
1.87723e+07,129.288,2,2.36551,7407.2,-25086.7,-20404.9
1.87824e+07,80.6955,0,2.52456,-9735.18,1855.79,-15106.5
1.89248e+07,17.5863,2,3.036,-710.891,-3658.41,-28127
1.90079e+07,10.677,1,2.52722,-141.944,-1954.16,-27788.6
1.90828e+07,25.219,2,2.79094,3673.1,-2556.82,-25949.9
1.90837e+07,22.5624,1,2.41915,2722.83,2548.81,-25931
1.9412e+07,42.3482,0,3.04383,-6269.94,6340,-28792.5
1.95387e+07,35.0622,0,2.56256,-3411.52,-5539.86,-25160.9
1.96014e+07,42.7365,1,2.36595,6596.08,-5159.62,-26218.7
1.96117e+07,42.1279,2,2.93889,-1324.59,7799.24,-24948.8
1.97563e+07,7.54351,2,2.9218,729.194,-1179.7,-27994.4
1.97866e+07,105.83,1,2.43303,12.4338,15712,-12802.4
1.98169e+07,26.1685,2,2.68047,-4184.11,-780.041,-25273.1
1.99452e+07,41.3464,1,2.52551,-4091.77,-7676.11,-29068.8
2.0006e+07,76.9609,0,2.93307,-6836.17,5371.68,-15236.1
2.00674e+07,77.745,1,2.83065,4282.71,12249,-18801.2
2.0101e+07,44.6965,0,2.4426,6549.98,-2977.67,-22542.3
2.01208e+07,57.9702,1,2.46764,4885.51,10624.9,-25012.5
2.01755e+07,31.6555,1,2.36788,2948.01,-594.431,-22944.2
2.03279e+07,149.043,2,2.82173,17240,25873.3,-25495.7
2.03454e+07,7.36265,0,2.73831,-850.917,686.1,-27583.8
2.06209e+07,46.4676,2,2.92989,-9481.88,-2711.85,-29969.7
2.07498e+07,42.8336,2,2.65061,784.015,-6505.92,-22534.7
2.08495e+07,39.1121,2,2.57519,-8081.31,-1898.42,-28236.8
2.09406e+07,127.012,1,2.69433,9415.96,-24112.2,-22080
2.09563e+07,151.451,2,2.79853,24001,-7484.83,-9520.55
2.09866e+07,24.7248,0,2.37291,2689.43,-2479.37,-24963
2.11495e+07,124.111,0,2.41817,-17909.3,-429.685,-9713.97
2.12488e+07,37.5204,0,2.59601,-3206.87,-3066.85,-22309.6
2.13789e+07,1.81025,0,2.75056,-118.62,32.7484,-28447
0,1.95492,0,2.87027,0,0,0
2.14937e+07,26.5603,1,2.60898,-1810.48,-3715.16,-25046.3
0,26.6427,1,2.66769,0,0,0
2.16644e+07,64.8937,1,2.71998,-13158.2,3940.16,-27552.9
2.16963e+07,47.1864,0,2.54169,-1095.12,4494.93,-20606.8
2.17241e+07,92.6341,2,2.9215,13089,102.782,-14450.5
2.18238e+07,4.104,1,2.39656,-711.085,-10.6671,-28396.7
2.18974e+07,72.515,1,2.57725,5886.89,-2731.77,-14985
2.19829e+07,65.4552,1,2.58202,-11669,7382.53,-27273.9
2.24238e+07,39.8245,1,2.99922,-7248.94,-1729.21,-25034.3
2.26946e+07,122.155,2,2.82799,8157.14,-8477.76,-5977.32
2.27222e+07,94.3431,2,2.38813,-17567.3,8532.06,-25932.7
2.27446e+07,13.12,2,2.71027,-2630.91,-321.462,-29852.8
2.27654e+07,25.3977,0,2.48034,5276.9,1174.15,-28546.5
2.30469e+07,1.67801,1,2.76907,-273.952,149.471,-29133.1
2.31419e+07,93.3988,2,2.42048,-5802.34,-6140.91,-10984.6
2.32301e+07,76.1733,2,2.54855,-12577.1,-5902.67,-20631.1
2.3266e+07,39.0374,1,2.7739,-6438.08,730.43,-23674.2
2.34884e+07,203.788,0,2.41882,-15772.4,17429.4,6871.77
2.35233e+07,82.4499,2,2.85717,-5365.85,-15982.8,-24393.9
2.35703e+07,115.367,1,2.44829,-7316.91,7024.16,-6554.99
2.39035e+07,58.7792,1,2.47486,-1261.92,5604.8,-17764.5
2.41045e+07,84.5418,1,2.81724,-14877.8,3216.42,-19831.5
2.41747e+07,60.029,2,2.41588,-10022.3,7410.79,-26295.6
2.45387e+07,37.2383,1,2.46768,-2967.15,4610.3,-22956.3
2.45512e+07,70.2913,0,2.79331,8926.78,-4608.14,-17890.2
2.45556e+07,6.14307,1,2.49583,700.25,916.173,-28098.5
2.45761e+07,34.7224,2,3.03032,5113.54,-1863.27,-23900.1
2.46064e+07,46.9932,0,2.36546,6886.03,7008.24,-26956.7
2.47109e+07,76.3013,0,2.55868,12965.8,-6441.42,-21520.8
2.53371e+07,160.55,1,2.52577,-23114.2,6281.81,-4700.3
2.58484e+07,71.3839,2,2.379,-2845,-14750.8,-26080.3
2.61406e+07,57.9582,0,2.64904,-873.7,11358.5,-24485.5
2.63027e+07,218.373,1,2.91482,-17296.4,9380.97,12781.1
2.63897e+07,52.0515,1,2.80901,-8940.6,-3103.51,-23204
2.64572e+07,11.4488,2,2.44371,801.848,-2410.02,-28923
2.64754e+07,114.343,2,2.82421,-1918.06,-9282.47,-6735.58
2.65403e+07,53.1613,0,2.98255,1890.23,6258.06,-19809.4
2.69114e+07,24.9379,1,3.05215,2792.98,-2552.01,-25200.2
2.69157e+07,150.786,1,2.7394,12122,17997.2,-5640.92
2.69207e+07,13.0829,0,2.36203,2117.18,-303.113,-26963.5
2.70964e+07,80.7839,1,2.98221,-7492.96,3170.81,-29162.3
2.70969e+07,102.688,0,2.76803,7094.2,-19354.6,-22147
2.71026e+07,15.7886,2,2.90237,2042.9,-984.158,-26519.9
2.74934e+07,105.421,1,2.51919,-5151.76,-17529.1,-16134.3
2.76066e+07,88.5958,1,2.51745,-8534.83,16809.2,-29464.8
2.77169e+07,17.5203,2,2.79446,-2419.35,-2014.45,-26738.8
2.78139e+07,32.4411,2,2.80109,6606.14,-956.765,-27357.1
2.78147e+07,78.983,0,2.67535,1444.36,14780.6,-21356.9
2.78226e+07,89.4217,2,3.01195,-15955.2,-7528.95,-22341.3
2.78302e+07,61.4629,1,2.51051,-4361.82,9982.72,-21557.9
2.78739e+07,76.0923,2,2.44583,-11794,5268.31,-19210.8
2.80594e+07,28.7664,2,2.39492,3174.19,178.26,-23661.5
2.81684e+07,116.015,0,2.96791,-3379.98,23622.4,-23812.4
2.81998e+07,20.098,0,2.37346,2366.56,-918.127,-25331.4
2.85129e+07,166.709,1,3.05721,-20290.3,22667.9,-21538.2
2.85878e+07,121.404,2,2.85444,-17945.2,77.3763,-10627.6
2.85981e+07,43.3873,0,2.69845,-8605.02,-1463.23,-26809.9
2.87011e+07,83.6093,2,2.94485,-14591,4852.86,-20299.5
2.87416e+07,61.1415,1,2.69505,-2088.13,-12704.5,-28984.9
2.89489e+07,115.934,1,2.57902,-5255.61,23497.8,-23628.2
2.90227e+07,48.5333,0,2.65034,3129.07,5788.74,-21047.7
2.935e+07,57.4773,2,2.87787,4206.31,-4870.84,-18569.1
2.94324e+07,39.6994,0,3.04667,-427.404,7596.75,-25374.5
2.94516e+07,139.954,0,3.05802,28191.7,-5523.22,-22426.1
2.96354e+07,147.07,0,3.0342,-14948.1,24805.8,-18355.3
2.96423e+07,55.2892,2,2.56007,-3327.67,-4739.63,-18815.1
2.97719e+07,64.4492,0,2.63306,6463.92,-3243.85,-17255.5
2.97861e+07,46.3162,2,2.54,-5023.37,-6924.73,-23726.3
0,46.3469,2,2.58652,0,0,0
2.98215e+07,87.5677,1,3.03833,-13545.2,6703.59,-26370.6
2.9852e+07,52.6201,1,2.38206,-10007.1,3130.37,-24790.7
2.9853e+07,143.526,1,2.48694,-24109.4,9933.19,-13258.1
2.98788e+07,44.5296,2,3.05048,-1025.25,-8086.16,-24183.7
2.98989e+07,79.0267,1,2.50988,-9374.75,-1964.14,-15136.9
2.9905e+07,110.676,2,2.38236,-8113.6,20961.4,-21768.8
2.99215e+07,59.0495,2,2.43226,-8448.32,-8773.01,-25515.3
