#class tools::wcsv::ntuple
#title time
#separator 44
#vector_separator 59
#column double eventID
#column double t(ns)
#column double copynumber
#column double energy(eV)
#column double x(mm)
#column double y(mm)
#column double z(mm)
101582,135.904,1,2.47617,-25396,12830.4,-24080.6
168116,8.22053,2,2.93327,-47.547,-1103.89,-27438.7
260534,104.566,0,2.70447,6948.73,-15413,-14596.3
324787,36.3738,2,2.51568,-37.4453,3930.97,-22412.2
539032,6.00604,1,2.52016,468.531,-809.651,-28033.2
0,5.89117,1,2.61186,0,0,0
0,5.48852,2,2.4877,0,0,0
550755,96.1061,1,2.8836,-8305.76,13495.3,-16187.3
622665,21.1945,0,2.71848,4384.26,-934,-28084.7
651524,39.4401,0,2.37191,3642.9,-3936.68,-22446.4
917733,123.853,2,2.82437,-9610.12,-12906.1,-10446.2
983357,4.75135,2,2.5887,-1021.04,-25.3761,-29160.4
1.02842e+06,174.38,1,2.96438,-24833.2,-7625.58,-3032.51
1.17574e+06,24.4566,1,2.44028,-4857.62,-327.58,-26871.6
1.21565e+06,17.4197,1,2.68286,-1805.52,3314.2,-29287.4
0,17.3255,1,2.98156,0,0,0
1.30705e+06,170.591,1,2.60159,-17704.9,-12988.9,-313.338
1.31839e+06,32.6586,1,2.5408,-6779.68,1436.72,-29500.3
1.41084e+06,46.3288,1,2.87644,-1194.91,9109.92,-25436.6
1.4133e+06,52.359,0,2.84411,10517.4,-2456.16,-26283.4
1.51464e+06,19.3391,1,2.45498,3821.54,818.933,-28156.2
1.64254e+06,14.6807,1,3.01269,1450.24,2671.33,-28233.4
1.71554e+06,129.084,1,2.90806,-11833.6,-8976.67,-6195.1
1.87368e+06,11.1451,1,2.41356,308.809,1212.08,-26859.9
1.98021e+06,166.452,2,2.91544,12208.1,18727.9,-2026.18
2.0561e+06,19.6544,1,2.5723,-3327.09,-1578.87,-27008.2
2.17231e+06,202.384,2,2.84546,-7765.63,7576.36,-25884.2
2.26958e+06,172.638,0,2.52494,22926.8,18447.2,-7245.01
2.35869e+06,119.872,2,2.59103,-2963.46,15503.2,-9048.01
2.43456e+06,107.021,1,2.76807,18043.5,9467.72,-19497.8
2.47194e+06,267.995,2,3.00358,-6257.69,1140.73,22167.2
2.55234e+06,171.823,2,2.77327,-23081.3,-25226.9,-16772.8
2.55824e+06,76.3375,2,2.39632,-11047.8,5144.11,-18085.7
2.67194e+06,30.2855,1,2.8371,-2797.89,3846.44,-24563.9
2.73894e+06,44.5071,2,2.70461,-3235.43,-8664.42,-26778.9
2.80678e+06,140.099,0,2.58139,7940.74,28520.4,-29584.1
2.82085e+06,36.2677,2,3.01058,4744.95,-1597.28,-23128.5
2.92079e+06,12.2622,1,2.38877,-2216.13,-1343.04,-28669.3
3.00784e+06,92.9482,0,2.99539,11448.5,-5160.31,-14532.2
3.07964e+06,35.5707,0,2.97391,4640.62,2187.11,-23356.6
3.12635e+06,99.3706,2,2.8724,-3592.89,-10759.6,-11214.6
3.222e+06,3.84023,1,2.97437,569.866,-457.852,-28625.5
3.31631e+06,91.8202,1,2.91667,16950.8,-5189.83,-21624.1
3.31927e+06,13.4304,2,2.73749,-2115.56,-999.814,-27167.1
3.35146e+06,252.393,2,2.94706,19813.8,27258.3,11919.7
3.39136e+06,25.4747,1,2.52291,1464.49,5275.45,-28998.1
3.44949e+06,53.5291,2,2.58158,8547.55,-2888.48,-22002.7
3.91088e+06,243.972,0,2.39961,16915.6,-13441.5,18057.8
4.02748e+06,36.7576,1,2.58056,-3959.21,-2882.5,-26014.7
4.03014e+06,73.2007,2,2.89804,-6216.52,-5129.6,-23459.8
4.23793e+06,11.5547,0,2.44895,698.135,2159.87,-29685.9
4.25982e+06,47.643,1,2.58296,-8494.83,5355.85,-27173.1
4.51876e+06,12.1238,2,2.60118,-1847.57,665.736,-27169.9
4.56878e+06,89.4341,0,3.0299,4420.46,-18119.3,-26444.1
4.58225e+06,1.9783,2,2.78216,-366.273,-375.737,-28957.9
4.70672e+06,32.2263,1,2.60348,2651.3,5371.55,-25423.9
4.7735e+06,84.7077,1,2.39433,10848.8,3578.48,-15140.4
4.89445e+06,10.0238,2,2.84291,82.0871,-2143.85,-28484.9
4.94616e+06,80.9931,2,2.77142,-5922.07,10272.7,-16642.6
5.00864e+06,218.844,1,2.66314,15619.3,-29051.3,3043.83
5.13748e+06,84.551,2,2.73665,13190.9,-11244.1,-24579.8
5.18001e+06,49.5123,2,2.8337,-6233.59,7750.39,-25858.1
5.29396e+06,37.9553,1,2.87487,74.7114,7683.78,-26736.8
5.33974e+06,44.2659,2,2.96996,-4060.01,-688.112,-20611.6
5.43217e+06,16.6127,0,2.65514,443.782,-3035.47,-27085.1
5.47024e+06,4.51485,0,2.86186,677.755,-722.773,-28789.6
5.49437e+06,41.4988,2,2.43882,7641.58,-839.22,-24920.2
5.65551e+06,85.9672,0,2.57426,10806.5,-14598.8,-28625.5
6.00083e+06,95.7597,1,2.61798,7005.06,14819.1,-16914.7
6.08434e+06,10.1449,0,2.62868,1336.76,-1774.41,-29279.4
6.10267e+06,240.17,1,3.02759,-3614.4,-27331.4,13120.9
6.12252e+06,29.9275,1,3.02474,-2535.83,5030.66,-25881.6
6.18807e+06,92.2257,1,2.79154,15864.8,-1014.63,-17942.6
6.31487e+06,12.0805,2,2.48078,-2574.82,524.491,-28283.1
6.33937e+06,9.27346,2,2.48715,257.305,-1024.4,-27088.3
6.35548e+06,57.3485,2,2.45764,-3488.3,-11096.7,-25201.2
6.49844e+06,64.1747,0,2.42789,2237.27,7151.19,-17470.8
6.76897e+06,59.0613,1,2.62382,5569.7,6593.18,-19882
6.77858e+06,4.75947,0,2.52603,-478.962,-771.703,-28524.8
0,4.6591,0,2.42915,0,0,0
6.82851e+06,93.6968,1,2.77818,-7575.96,15030,-18736.7
6.95136e+06,31.5608,2,3.04961,-5972.32,-1503.51,-26239.5
7.05389e+06,84.2542,1,2.78434,14237.7,9004.96,-23240.5
7.09062e+06,34.9741,1,2.87933,507.106,-4764.96,-23435.4
7.22412e+06,11.2916,1,2.46407,-1692.25,1137.16,-27993.4
7.30579e+06,39.3562,2,2.70174,-8226.05,-413.094,-27313.7
7.43621e+06,94.9763,0,3.03863,-1139.53,10104.4,-11710.5
7.51951e+06,30.5449,1,2.79658,-2616.92,2900.51,-23677.5
7.54686e+06,9.28368,1,2.92526,-858.607,1530.94,-27782
7.80416e+06,46.281,0,2.63935,-6014.31,6868.46,-25674
7.96429e+06,154.041,2,2.8661,-21148.3,-19243.7,-13595.2
7.98263e+06,73.5776,1,2.489,-3450.52,14131,-23665.5
8.09786e+06,68.2776,2,2.8007,-1394.4,12261.5,-21536.5
8.1428e+06,3.86658,2,2.81316,-790.339,-267.199,-28460.5
8.41697e+06,18.3771,1,2.5043,-2534.48,-2888.6,-29360.1
8.50741e+06,175.259,2,2.56304,-1995.31,-2181.38,-25870.3
8.67789e+06,45.2221,0,2.43823,2463.04,9076.83,-27790.4
8.80978e+06,0.971193,1,2.96409,163.147,220.664,-28727.9
8.85716e+06,276.499,0,2.37214,28970.1,15778.2,19659.7
8.89973e+06,30.6967,1,2.64371,3874.8,-1659.13,-24016.2
9.1493e+06,41.808,1,3.00045,-3874.8,-715.839,-21122.1
9.16542e+06,25.4223,1,2.47093,-2264.14,4622.1,-27021.3
9.23883e+06,181.992,2,2.42249,-29982,8332.44,-6104.73
9.24499e+06,119.038,0,3.03668,-10890.7,22386.2,-29931.3
9.25986e+06,155.503,0,2.82643,25632.2,-19315,-22494.4
9.27211e+06,100.024,0,2.50217,8469.26,-3807.83,-9854.09
9.31847e+06,38.1121,0,2.74456,-5284.04,-3537.14,-24018.1
9.33092e+06,80.9856,2,2.36356,-7235.89,4448.98,-14688.4
9.57881e+06,42.959,1,3.02926,-2735.51,3647.56,-21157.6
9.6083e+06,21.4051,1,2.80228,4293.83,1366.25,-29343
9.60859e+06,91.7206,2,2.81,-13201.1,-14046.2,-29444.5
9.64504e+06,30.1935,2,2.53635,-5634.74,-1533.51,-26089.6
9.74329e+06,115.627,1,2.65057,-12579.2,-6900.67,-9095.05
9.76003e+06,72.9305,2,2.38527,-12656.4,46.6388,-19864
9.80975e+06,39.7729,0,2.74387,-5126.6,-6663.99,-28779.7
9.85669e+06,26.6697,0,2.50382,5009.92,2728.33,-28558.9
1.00205e+07,20.2063,2,3.05525,764.507,3267.14,-26316.3
1.00329e+07,115.052,1,2.56764,5612.98,20656.4,-17151.5
1.00495e+07,53.8459,1,2.80334,-2450.2,7952.2,-21043
1.00641e+07,30.1546,0,2.6267,2197.49,3488.58,-23939.9
1.0095e+07,8.70727,0,2.79279,149.475,1732.6,-28190.7
1.01742e+07,141.367,2,2.86571,10515,-13722.3,-4635.57
1.02491e+07,12.5019,2,2.57872,-850.782,1725.85,-27076.9
1.02614e+07,86.5287,0,2.60194,-298.6,-16151.6,-20243.2
1.04675e+07,31.6344,1,2.45837,5670.08,1198.22,-25529.6
1.05227e+07,19.4647,0,2.80128,964.453,1654.73,-25202.5
0,19.3771,1,2.81391,0,0,0
1.05325e+07,66.685,2,2.38514,10366.4,-9238.15,-26175.8
1.05343e+07,2.16389,1,2.72157,-350.105,407.233,-29018.6
1.06491e+07,42.7352,1,2.43687,-3504.77,1468.75,-20601
1.06843e+07,47.5543,2,2.53635,7279.12,-5418.93,-24408.7
1.06971e+07,36.343,1,2.67552,7098.34,26.1808,-26050.9
1.08021e+07,61.4064,0,2.4993,4083.79,-7930.63,-19312.5
1.08392e+07,93.459,0,2.78474,-1909.65,16267.8,-18983.9
1.09231e+07,4.69134,2,2.43536,-230.654,-543.913,-27987.6
1.09353e+07,57.7332,2,2.37263,-11557.8,-1354.55,-26279.6
1.10211e+07,51.9174,0,2.90171,6909.24,1397.99,-20881.4
1.12359e+07,103.86,0,2.93764,-5455.56,19957.4,-22059.3
1.12732e+07,84.3902,1,2.78183,-11560.4,4156,-16261.1
1.12771e+07,216.976,2,2.85672,-16979.3,7392.37,-5219.82
1.13279e+07,24.4399,0,2.61205,4741.85,-1330.05,-27037.2
1.13357e+07,191.434,2,2.62908,-27958.4,-23517.6,-11482.3
1.13601e+07,88.7518,0,3.03114,1521.89,-589.935,-28351.9
1.13894e+07,32.2937,2,2.64797,3736.78,-5499.11,-27106.3
1.13988e+07,69.6451,1,2.55185,3668.38,14337.7,-29091.7
1.14059e+07,43.9179,2,2.74711,-5515.5,-3294.56,-22073.1
1.14882e+07,231.457,1,2.74858,8599.01,-2906.54,6861.9
1.16397e+07,64.1214,1,2.40652,856.884,-11012.9,-20985
1.18688e+07,196.13,0,3.00327,18955.7,10986.7,5925.49
1.19986e+07,51.0198,2,3.06115,164.441,-5166.26,-27826.2
1.20886e+07,42.9944,1,2.39565,-681.828,9146.43,-29068.6
1.21032e+07,51.7336,0,2.56628,6747.72,-5033.57,-22120
1.21072e+07,41.6672,2,2.79167,3513.41,1666.75,-20960.4
1.217e+07,171.767,1,2.5296,29943.2,973.491,-8375.11
1.21712e+07,129.98,0,2.83927,11550.9,-117.843,-3971.84
1.26829e+07,201.888,1,2.87489,17120.3,10213.3,8579.22
1.27409e+07,121.896,1,2.78907,-25217.9,3904.47,-29647.4
1.28305e+07,101.104,1,2.40886,8653.15,19613.5,-28360.3
1.28993e+07,71.4298,1,2.82214,-4641.11,-6562.25,-22278.8
1.29263e+07,103.878,1,2.69464,7312.65,7624.6,-9631.97
1.29891e+07,55.5535,1,2.73825,-7340.24,9110.54,-27424.9
1.29941e+07,81.7274,0,2.46419,11634.8,-890.484,-15973.7
1.30234e+07,86.3428,0,2.84244,-2950.21,-16594.7,-22483.6
1.32386e+07,91.2832,1,2.72628,7791.61,-8391.24,-13703.4
1.32393e+07,58.3374,2,2.67241,9180.92,1824.09,-20863
1.34937e+07,87.7785,1,2.60993,-3890.46,1451.41,-18393
1.36682e+07,138.156,0,3.01272,14654.1,-2836.1,-3951.23
1.37592e+07,62.6431,0,2.46414,11204.2,-4471.79,-23172.5
1.38063e+07,139.08,1,2.82107,-27463.1,9836.04,-28837.6
1.39654e+07,38.9224,2,2.55858,1165.64,-8181.9,-29651.9
1.40217e+07,32.5528,2,2.70344,-386.801,6722.44,-28001.9
1.41807e+07,4.90878,0,2.94339,-481.736,544.31,-28177
1.45855e+07,55.8521,0,2.36328,3885.9,9258.4,-22307.4
1.47042e+07,21.9878,1,2.971,1199.2,2680.01,-25320.6
1.47851e+07,29.6739,2,2.6149,3836.27,-1998.59,-24428.5
1.48891e+07,21.7116,1,2.95117,-1413.16,3830.74,-26994.7
1.49274e+07,22.2891,2,2.65686,-1301.5,3277.82,-26124.3
1.50013e+07,162.143,0,2.9015,-26026.9,-18384.9,-16897.3
1.50192e+07,55.3109,0,3.05489,11163.2,-3253.46,-29765.8
1.50597e+07,10.1678,2,2.79502,277.754,-1142.89,-26999.3
1.50992e+07,131.463,1,2.70386,-950.934,21164,-10971.9
1.51719e+07,37.5771,0,2.84502,4574.52,856.814,-22324.7
1.52049e+07,80.6231,2,2.75736,-5616.41,-6753.53,-14259.5
1.52057e+07,139.488,0,2.909,18930.7,-22345.8,-27556.3
1.5206e+07,248.214,1,2.99473,-9717.04,-29973,6678.02
1.55276e+07,9.76825,0,3.0042,344.084,-1422.83,-27498.5
1.56493e+07,298.915,1,2.60897,9435.36,26514.5,27698.3
1.56691e+07,61.6736,1,2.37983,10184.1,3038.72,-21925.9
1.57773e+07,217.419,0,2.54293,-23275.7,9858.19,9600.53
1.59087e+07,175.396,2,2.75251,9598.28,-16030.1,2723.61
1.59733e+07,34.4642,0,2.74442,-5412.21,-4336.44,-26969
1.60527e+07,148.94,2,2.43775,-14315.6,3609.31,-1069.03
1.60888e+07,19.0473,2,3.01919,3358.08,-2121.03,-28226.9
1.61552e+07,77.0498,2,3.0208,-2872.98,9959.95,-16973.5
1.64437e+07,100.609,0,2.68342,8963.54,-11728.8,-13557.6
1.64463e+07,76.3346,1,2.59211,-9252.75,-12642.5,-25106.4
1.64844e+07,35.0173,0,2.42063,-468.254,-6327.36,-24768.3
1.66628e+07,92.8529,2,2.47255,-11549,9456.9,-16098.9
1.67541e+07,69.0221,1,2.97844,6468.78,-7616.76,-18409.8
1.67995e+07,29.9156,2,3.02843,-2601.25,-5581.41,-27414.9
1.69019e+07,17.9209,1,2.49395,1127.41,1331.81,-25451.9
1.69701e+07,188.949,2,2.5114,-23466.2,-16895.7,-1263.78
1.69923e+07,129.959,0,2.64084,10235.8,-24315,-20521.5
1.70055e+07,68.8647,2,2.66092,8015.42,11437.8,-25428.7
1.70231e+07,43.0542,2,2.40738,-4608.65,-1773.57,-21117.6
1.70358e+07,83.6804,0,2.88541,1237.4,158.065,-27794.3
1.70606e+07,16.6867,1,2.94194,-2693.16,1946.6,-27846.4
1.7067e+07,8.9654,1,2.82324,1234.19,-320.214,-27472.1
1.72441e+07,104.409,2,2.69472,13233.2,-17.6129,-11260.2
1.7254e+07,17.6634,0,2.99105,-146.086,-3598.6,-27840.3
1.73049e+07,17.8195,2,2.42376,1990.58,-3124.62,-29968.1
1.75186e+07,12.9417,2,2.97951,-2158.35,-954.53,-27128
1.75656e+07,136.038,0,2.75727,-10678,-25661.8,-23337.2
1.76313e+07,130.674,2,2.87589,14116.4,-8515.22,-7149.46
1.77313e+07,29.3908,0,2.91615,2188.63,-2376.24,-23423.3
1.77746e+07,90.5234,1,2.66262,-4462.93,14214.6,-16752.3
1.78588e+07,37.5204,2,2.71638,381.186,-5226.84,-22888
1.78999e+07,17.2914,0,3.04937,152.094,2841.03,-26534
1.79637e+07,220.695,0,2.80187,-391.115,-22448,11819.6
1.80245e+07,118.794,0,2.86829,-17897.2,-4021.45,-12009.2
1.81927e+07,119.009,2,2.52894,17428.2,4709.84,-11613.8
1.82898e+07,49.6866,1,2.96975,-5674.42,2993.1,-22245.5
1.84505e+07,40.3976,1,2.55319,1528.41,6036.95,-22942.8
1.85375e+07,19.6369,1,2.72468,-3061.19,-1027.82,-26276.3
1.85939e+07,29.3567,0,2.82066,2225.37,4503.38,-25141.2
1.86143e+07,8.02336,0,2.77729,407.754,145.833,-27183.1
1.86602e+07,139.569,2,2.50982,23155.2,4270.21,-11155.6
1.87293e+07,11.0899,0,2.97228,1673.86,1281.16,-28108
1.88568e+07,104.47,0,3.0103,11118,-13316.2,-15397
1.89674e+07,61.9837,2,2.63778,-10077.1,5434.19,-22466
1.90316e+07,47.2869,0,2.91774,7588.07,-5953.21,-26272
1.93362e+07,149.822,0,2.69014,-9072.07,-111.609,-20061.8
1.93678e+07,97.4247,2,2.88656,8943.88,-7578.28,-12036.2
1.95017e+07,47.8501,2,2.39814,3547.72,2645.26,-19756.6
1.96169e+07,43.4792,0,2.74527,3524.57,4439.12,-21587.8
1.97332e+07,24.6249,2,2.63232,-3197.93,-3788.63,-26880.8
1.98592e+07,144.098,0,2.63983,15392.9,13433,-6207.4
2.00196e+07,38.9332,0,2.4615,6926.76,-4677.38,-29361.3
2.00325e+07,99.9396,0,2.66385,-1612.66,17252.7,-16820.5
2.00725e+07,13.6029,1,2.91472,804.639,-1675.08,-27027.4
2.02026e+07,40.3718,1,2.92663,-7488.89,2274.96,-25265.8
2.03818e+07,78.7935,0,2.82513,-8.8348,-2315.88,-28619.6
2.04472e+07,61.6053,0,2.97601,6906.42,7459.26,-20855.7
2.05293e+07,268.389,2,2.71142,9888.77,-6357.9,-17722.7
2.06071e+07,37.372,1,3.03528,4144.39,4755.84,-24141.6
0,37.0262,0,2.76317,0,0,0
2.06088e+07,170.422,0,2.53572,3235.76,-17189.6,2639.42
2.06267e+07,4.69346,2,2.63215,381.792,-865.788,-28406.1
2.07412e+07,89.7594,0,2.38053,17514.2,7647.86,-26904.4
2.07731e+07,89.2848,1,2.47249,15274.4,8447.97,-22486.3
2.08159e+07,10.1112,0,2.82183,1568.44,1244.61,-29726.5
0,10.0996,0,2.82912,0,0,0
2.0977e+07,17.8245,1,2.48895,-967.477,2013.31,-25730
2.10168e+07,26.4596,1,2.4829,1036.02,5653.51,-28635.7
2.10392e+07,32.0967,0,2.40411,3136.46,658.141,-22765.9
2.10904e+07,34.4218,0,2.60282,6145.64,4077.01,-28391.4
2.11448e+07,196.411,0,2.6584,22955,12424.9,3389.29
2.12701e+07,20.5625,2,2.55636,-3040.99,3114.87,-28587.5
2.1286e+07,44.1178,1,2.57138,-1209.58,5981.25,-21713.3
2.13504e+07,113.94,2,2.62373,-13728.5,-8531.68,-10889.3
2.1452e+07,71.2431,2,2.89979,-4565.96,-13698.6,-24212.9
2.15081e+07,61.2549,1,2.47519,-11123.3,-4858.97,-24170.4
2.16239e+07,45.73,2,2.79126,3466.18,5012.53,-22172
2.17164e+07,69.351,0,2.93563,-6132.12,11771.8,-22880.9
2.19396e+07,114.965,0,2.57254,-17726,14149.5,-20122.5
2.19495e+07,40.2532,0,2.41977,3701.03,-6335.8,-24369.6
2.19617e+07,16.718,1,2.57507,-1914.8,-2262.66,-26958.5
2.21259e+07,51.361,2,3.00927,2190.24,-9047.28,-23119
2.21969e+07,12.7456,2,2.64472,-156.999,-2124.6,-27057.7
0,13.1924,1,2.80458,0,0,0
0,13.1122,1,2.39213,0,0,0
2.22781e+07,157.878,1,2.6527,-10714.5,9033.97,-20079.4
2.23194e+07,2.88874,0,2.81333,-216.842,-247.036,-28342.9
2.23254e+07,106.174,2,2.65592,-2249.6,-3692.42,-22511.9
2.23956e+07,26.4576,0,2.71187,5366.02,100.251,-27022.2
2.24492e+07,25.4771,0,2.62314,2998.5,2736.61,-25210.8
2.24822e+07,242.25,2,2.65727,3063.4,-23501.1,16506.6
2.26663e+07,12.343,0,2.44687,-401.476,2563.65,-28748.6
2.27829e+07,6.49574,2,2.68025,-714.425,133.099,-28954.1
2.28623e+07,114.342,1,2.67271,12822.7,19028.2,-21641.9
2.28786e+07,100.861,1,2.57286,-8597,-16767,-19013.9
2.32871e+07,49.6121,1,2.98353,6310.7,-3660.1,-21666
2.332e+07,25.8183,0,2.49171,-1427.6,4040.66,-25647.9
2.33958e+07,81.4974,1,2.41576,-14499.2,3717.87,-20122.3
2.34293e+07,107.516,1,2.95738,16354.3,-6895.62,-22823
2.34427e+07,2.97976,1,2.96145,-348.258,303.252,-28423.8
2.35282e+07,34.9397,1,2.96327,-6980.86,2418.82,-29582.5
2.35308e+07,112.207,2,2.78915,-12413.3,-9425.48,-10961.5
2.37867e+07,106.771,2,2.83739,13787.7,16490.2,-23038.4
2.38209e+07,17.0203,0,2.71018,3037.74,-2010.9,-28414.6
2.3923e+07,35.2078,1,2.41819,-4161.98,-2681.87,-23236.1
2.39336e+07,101.037,1,3.05055,-2945.6,17130.7,-16762.4
2.40925e+07,55.2603,0,3.0499,3005.6,4269.15,-18467.5
2.4141e+07,15.7834,1,2.94999,-3400.31,90.161,-29268.2
2.42993e+07,24.8525,2,2.83726,4718.73,-1270.53,-26967.5
2.43153e+07,73.6254,0,2.69351,11635.4,5098.38,-19907.4
2.44369e+07,57.0921,2,2.41675,-5855.41,-7670,-21395.1
2.45096e+07,79.6457,0,2.67721,16500.1,529.38,-25460.3
2.45703e+07,114.615,1,2.6531,-4830.55,11167.2,-7967.94
2.49129e+07,6.60548,0,2.49037,1311.49,-698.466,-28416.3
2.49835e+07,18.2583,0,2.37177,-2027.38,-2875.76,-27200.5
2.52994e+07,59.6214,1,2.73749,4488.05,6371.95,-18932.1
2.53669e+07,76.9572,0,2.5939,13912.2,1950.31,-20483.5
2.54936e+07,43.0897,2,2.49826,-8934.16,238.542,-26919.2
2.54938e+07,46.2485,2,3.0091,-1406.77,-7314.71,-22594.4
2.56549e+07,12.8543,1,2.72034,-1054.93,2539.98,-28258.9
2.57137e+07,22.0367,0,2.87001,535.498,4204.76,-26870.8
2.5752e+07,158.542,2,3.00386,-17681,-22389.1,-11868.4
2.57606e+07,19.726,0,3.01311,439.169,4003.42,-27842.4
2.58401e+07,26.6308,2,2.49483,-5253.4,-2011.97,-29866.8
2.585e+07,148.021,1,2.78154,-12515.7,7128.37,-1211.31
2.58881e+07,65.7231,1,2.98911,-5196.08,-5910.86,-17822
2.58912e+07,52.3158,1,2.502,-1580.85,9900.46,-23815
2.60373e+07,47.7333,2,2.62255,-4586.1,8102.65,-25452.4
2.61063e+07,3.31141,2,2.88468,-142.086,110.903,-28090.9
2.61211e+07,41.7455,0,2.9637,5415.41,203.756,-21836.9
2.61438e+07,125.459,1,2.95228,-14142.2,19707.3,-18484.7
2.63045e+07,7.02195,2,2.65954,-1472.56,250.036,-28427.4
2.63137e+07,36.6026,2,2.96684,-4303.63,-2305.55,-22811.7
2.63204e+07,181.416,2,2.48599,-26300.7,-27909,-26153.4
2.63543e+07,126.692,0,2.53671,-11190.2,20566.4,-19456.5
2.64211e+07,137.665,0,2.77145,11431.7,-4783.98,-2896.68
2.65672e+07,112.83,2,2.54609,-6525.23,-19240,-16256.3
2.65681e+07,72.1091,0,2.79151,8428.33,11891.8,-24383.4
2.65789e+07,119.64,1,2.5216,14553.4,-16379.7,-16238.9
2.66859e+07,59.9047,2,2.51333,-3109.91,-5919.14,-18069.8
2.6988e+07,71.0258,1,2.8716,-4363.19,5491.94,-16124.2
2.70841e+07,72.6446,0,2.67122,4020.49,-13319.1,-22574.8
2.73202e+07,93.0986,2,2.6455,15507,-6039.19,-18247.4
2.7403e+07,4.34573,1,2.86879,-843.172,-410.733,-28741.7
2.74169e+07,79.12,2,2.84329,-5889.79,-11777.4,-18564.6
2.74221e+07,41.5941,0,3.05329,409.107,6662.41,-23213.7
2.75493e+07,232.041,0,2.76802,-12506.4,-8559.13,-29592.2
2.78262e+07,85.8279,2,2.9073,868.641,-15248.1,-19156.3
2.78339e+07,20.5215,0,2.40614,1245,1722.21,-24998.3
2.78375e+07,22.1966,2,2.68283,4073.75,144.907,-26579.2
0,22.0524,2,2.51358,0,0,0
2.78721e+07,2.7464,0,2.66493,725.791,120.709,-28567.6
0,2.7253,0,2.81068,0,0,0
0,2.76637,0,2.85776,0,0,0
2.78765e+07,46.9987,2,2.83956,9068.37,577.179,-24905.7
2.79496e+07,74.1766,2,2.55959,-9254.17,11831.7,-26184.5
2.79755e+07,11.1658,1,2.64832,-219.101,1991.48,-27393
2.79935e+07,36.7572,1,2.58145,-3829.07,5314.38,-24562.7
2.81733e+07,19.5207,0,2.47293,1319.73,3429.39,-26866.1
2.82573e+07,3.08021,2,2.59792,-275.936,-514.668,-28325.5
2.83896e+07,97.672,2,2.7522,-4582.3,19648.6,-24972.5
2.84483e+07,122.447,2,2.59618,22339.7,-2326.8,-16016.1
2.85521e+07,13.2799,1,2.75086,-1744.73,130.725,-26825.4
2.85958e+07,71.4715,0,2.5878,-5957.82,-5648.43,-16150.6
2.87257e+07,16.7446,2,3.04312,1719.48,-2523.32,-29879.2
2.88016e+07,72.3649,0,2.47702,-4587.19,8229.69,-16910.4
2.89334e+07,37.9247,1,2.99639,-4198.13,-4403.6,-23697.7
2.8954e+07,77.3033,1,2.38486,-14087.4,6500.44,-23530.2
2.91162e+07,10.3865,2,3.04041,620.408,-1217.71,-27360.8
2.91771e+07,75.3224,0,2.53742,9545.56,5516.73,-16972.2
2.91974e+07,68.8053,1,2.71471,6759.02,12290.2,-24653
2.92307e+07,12.791,0,3.00836,1140.16,458.182,-26424.6
0,12.7144,0,2.78734,0,0,0
2.93254e+07,283.67,0,2.78059,-26929.3,-16033.7,21971.3
2.98016e+07,101.892,2,2.74665,-4502.52,-13312.2,-12518.9
2.98152e+07,11.0373,2,2.97743,-1183.67,-1451.54,-27996.4
2.99392e+07,124.212,1,2.92024,17114.1,-13328.5,-14898.3
