#class tools::wcsv::ntuple
#title time
#separator 44
#vector_separator 59
#column double eventID
#column double t(ns)
#column double copynumber
#column double energy(eV)
121456,40.3016,2,2.57043
260245,36.431,1,2.8873
561030,105.41,1,2.67912
575312,6.02992,2,2.83409
1.3702e+06,71.4936,2,2.52078
0,71.7517,2,2.52078
2.01878e+06,131.463,2,2.70982
0,131.599,2,2.70982
2.06015e+06,125.197,1,2.44421
2.60158e+06,215.1,0,2.87699
0,215.451,0,2.87699
2.65148e+06,69.5124,0,2.38698
0,70.105,1,2.66241
2.96909e+06,0.944276,2,2.49456
0,1.08367,2,2.49456
3.36992e+06,250.859,0,2.88941
0,251.026,0,2.88941
3.64623e+06,9.58331,2,3.02559
3.72425e+06,55.0343,0,3.0444
0,55.2777,0,3.0444
3.87636e+06,5.93868,1,2.93714
4.07607e+06,60.5635,0,2.96189
0,60.7054,0,2.96189
4.49119e+06,233.783,2,2.62034
4.62209e+06,3.98957,2,2.37973
4.86426e+06,37.8523,1,2.89519
5.05942e+06,22.4912,1,2.57063
0,22.6836,1,2.57063
5.42441e+06,51.9334,0,2.96079
5.47353e+06,13.4791,1,2.3628
5.58032e+06,34.6467,0,3.00461
5.76703e+06,37.0253,1,2.65677
5.79687e+06,23.1098,0,2.93959
5.81784e+06,145.317,0,2.51172
6.45055e+06,165.074,0,2.59006
0,165.246,0,2.59006
6.72095e+06,12.5098,2,2.99478
0,12.7845,2,2.99478
0,12.4984,2,2.80417
0,12.7139,2,2.80417
6.81365e+06,33.839,0,2.50794
7.04033e+06,171.845,0,2.99889
8.12842e+06,236.851,1,2.44838
8.63767e+06,109.821,0,2.51339
0,109.983,0,2.51339
8.77456e+06,160.25,2,2.85325
8.90594e+06,39.0624,0,2.77134
9.52052e+06,1.998,0,2.8438
0,1.97052,0,2.59397
9.63876e+06,114.098,0,2.74117
9.89154e+06,72.4368,0,2.49
1.0167e+07,39.3004,0,2.37443
1.04607e+07,52.4547,2,2.62124
1.07439e+07,14.4025,1,2.6782
1.0792e+07,71.4361,1,2.82149
1.21099e+07,96.1822,0,2.79954
1.25571e+07,10.7218,0,3.05179
1.25837e+07,67.3946,0,2.93081
1.26502e+07,36.7766,1,2.51697
0,36.9723,1,2.51697
1.26842e+07,12.1162,2,2.87216
0,12.0048,2,2.9773
1.28542e+07,31.801,2,2.50797
1.29701e+07,15.1398,0,2.73658
0,15.2271,0,2.93306
0,15.0509,0,2.59658
1.3227e+07,156.747,0,2.75213
1.32869e+07,130.619,1,2.36826
1.40518e+07,49.892,1,2.84965
1.44124e+07,182.29,1,2.78475
0,182.647,1,2.78475
1.44229e+07,28.0595,0,2.81829
0,28.1968,0,2.81829
1.44554e+07,176.998,0,3.03345
0,177.303,0,3.03345
1.44964e+07,95.0527,1,2.68576
1.45211e+07,135.209,0,2.43189
1.50762e+07,31.8694,2,2.92781
1.54715e+07,266.118,0,3.02491
1.64851e+07,18.1037,1,2.93102
1.67925e+07,251.231,0,3.03826
1.67964e+07,50.9881,2,2.73415
1.68735e+07,119.16,1,2.36761
0,119.424,1,2.36761
1.69017e+07,56.2787,1,3.02963
1.75278e+07,41.1341,2,2.68405
1.7536e+07,51.0772,1,2.97131
0,51.2977,1,2.97131
1.78827e+07,111.252,2,2.58254
1.81654e+07,206.428,2,3.0449
0,206.671,2,3.0449
1.83518e+07,230.249,0,2.52745
1.89763e+07,44.0087,0,2.58405
1.89985e+07,148.94,2,2.72793
0,149.225,2,2.72793
1.90433e+07,182.697,2,2.92115
1.9097e+07,165.503,1,3.03377
1.94718e+07,43.477,0,2.76482
1.96163e+07,36.6203,2,3.04853
2.02063e+07,220.491,2,2.68579
0,220.548,2,2.68579
2.02302e+07,16.7697,2,2.5362
0,16.8342,2,2.75625
2.02912e+07,51.1591,2,2.83393
2.04097e+07,154.79,1,2.77231
2.04526e+07,31.7264,0,2.59813
2.0469e+07,179.152,0,2.77666
0,179.187,0,2.77666
2.05417e+07,18.4523,2,2.91112
0,18.675,2,2.91112
2.06156e+07,112.889,2,2.39372
2.08236e+07,50.8261,0,2.61679
2.1203e+07,116.524,2,2.617
2.12467e+07,18.7621,2,2.72158
2.1346e+07,4.94685,1,2.7581
0,5.09324,1,3.05429
0,5.26714,1,3.05429
2.1542e+07,233.073,0,2.37828
2.15712e+07,242.251,2,2.81419
2.1912e+07,107.25,0,2.61402
2.19253e+07,84.0009,2,2.61843
2.23842e+07,165.926,2,2.82479
2.24407e+07,46.1268,1,2.40635
2.30204e+07,74.7821,1,2.80166
2.34447e+07,91.3682,2,2.4805
2.34791e+07,73.4912,1,2.39601
2.38272e+07,27.696,2,2.38444
2.39981e+07,174.612,2,2.95984
2.41535e+07,84.6466,1,2.79384
2.4325e+07,43.3978,2,2.40923
2.43266e+07,54.7915,1,3.05694
2.52343e+07,78.3829,2,2.63006
2.53035e+07,92.1859,2,2.79556
0,92.2195,2,2.79556
2.59693e+07,210.058,0,2.4454
2.61944e+07,77.6997,0,2.86376
0,78.0347,0,2.86376
2.62134e+07,9.63965,1,2.83837
2.63887e+07,25.3433,2,2.77027
2.69881e+07,153.189,0,2.74353
2.7176e+07,38.0326,1,2.4836
2.73371e+07,170.586,0,3.02432
2.76252e+07,90.3036,1,2.99214
2.8125e+07,103.353,2,2.70432
2.82728e+07,106.364,2,2.70825
2.84294e+07,58.3794,2,2.77725
2.84672e+07,47.4116,2,2.50131
2.897e+07,8.93279,2,2.82461
2.9064e+07,118.983,2,2.65293
2.92452e+07,97.857,2,2.58045
2.96711e+07,55.432,1,2.64016
