#class tools::wcsv::ntuple
#title time
#separator 44
#vector_separator 59
#column double eventID
#column double t(ns)
#column double copynumber
#column double energy(eV)
#column double x(mm)
#column double y(mm)
#column double z(mm)
604463,14.1325,2,2.85911,-1259.42,1626.53,-26679.8
653920,18.5089,1,2.60048,993.536,3871.63,-28976.4
1.37864e+06,26.742,2,2.47061,1431.21,2584.32,-24046.5
1.38505e+06,47.1571,1,3.05366,4046.29,3287.13,-20434.3
1.48232e+06,44.3078,0,2.75668,-7969.1,-525.189,-24099.1
2.28257e+06,6.62187,1,2.7519,-243.459,221.763,-27458.2
2.65017e+06,99.9185,1,2.71462,-15345.6,12024,-20631.3
2.71159e+06,89.7887,0,2.93232,14714.7,6312.59,-18761.9
3.87721e+06,63.5121,2,2.71961,4709.84,-7935.21,-19077.9
4.59725e+06,93.4789,0,2.87141,2049.58,-8089.01,-11038.6
4.78282e+06,18.511,1,2.77587,-1680.64,-3147.11,-27341.7
5.66762e+06,36.5546,1,2.52485,-5651.05,-1162.34,-23646
5.735e+06,70.6842,2,2.93379,-1267.36,-9642.79,-17545.4
5.89107e+06,46.8245,2,2.64597,9139.65,2613.89,-26266.5
5.89636e+06,195.784,2,2.96571,3570.43,26886.2,1903.05
5.95803e+06,80.7559,1,2.42554,16992,1573.06,-29274.8
6.15498e+06,7.24059,2,3.00189,-1449.09,-529.612,-29204.8
6.43616e+06,50.8228,2,2.94545,-139.076,9671.16,-24418.6
6.48453e+06,13.7733,2,2.36818,-2820.6,-578.646,-28072.4
7.35954e+06,20.5686,2,2.88956,-3608.98,2035.93,-27569
7.37581e+06,88.2479,0,2.48475,13281.3,-10228.3,-20465.8
7.48975e+06,104.17,1,2.9265,-18444.2,11270.9,-26599.5
7.67254e+06,27.2846,2,2.74628,2660.81,175.042,-23734.2
8.70492e+06,9.48941,0,2.93968,-585.909,-1194.67,-27350.7
0,9.08625,2,2.51876,0,0,0
8.78228e+06,32.5229,2,2.58182,4957.16,-4764.89,-28329.1
8.78293e+06,83.8861,0,2.87704,599.125,-8819.74,-13570.7
8.88748e+06,98.5145,0,2.59082,9863.18,-3179.4,-10728.5
9.47887e+06,14.194,0,2.95804,-1613.13,1003.53,-26566.3
9.76562e+06,40.9369,1,2.61158,2330.52,5681.96,-22691.6
9.85922e+06,55.5755,2,3.05448,-7694.39,8685.41,-27837.2
9.98028e+06,1.23181,2,2.8047,-289.211,-198.475,-28911
1.01085e+07,18.0264,1,2.84948,-2541.46,2904.5,-28222.8
1.02996e+07,139.45,1,2.37606,14917.7,2039.64,-16955.2
1.05258e+07,194.457,1,2.89396,22905.1,27916.3,-10364.7
1.08831e+07,52.807,1,2.67537,-8294.36,6702.86,-25335.1
1.09548e+07,36.5879,0,2.46382,-676.405,3033.11,-21752.6
1.09997e+07,71.2582,0,2.74037,14204.5,-995.264,-23783.6
1.11388e+07,159.508,1,2.38012,-19467.1,-24891,-17066.4
1.13241e+07,67.9933,2,3.0095,8400.71,-11426.6,-26888.3
1.13901e+07,70.0314,0,2.79109,5602.76,-11715.9,-21754.6
1.14172e+07,2.81867,0,2.84598,322.544,-78.3144,-28283.5
1.14978e+07,100.287,1,2.76977,12374.4,12760.2,-17391.4
1.1556e+07,43.9748,2,2.7205,-6448.17,-278.474,-22106.8
1.16088e+07,70.4798,1,2.77019,6067.32,-6197.87,-24386.6
1.17095e+07,86.65,0,2.57408,-7519.71,-9161.13,-14921.7
1.17851e+07,29.51,1,2.51688,-4610.57,881.399,-24655.8
1.21048e+07,100.404,2,2.58324,-15069.9,-8664.67,-16547.1
1.22935e+07,73.9052,2,3.0137,7727.52,-11066.8,-21175.7
1.29603e+07,179.536,0,2.53031,3215.25,-22969.3,1234.22
1.3336e+07,75.8684,1,2.88356,10169.3,-10719.5,-22989.2
1.35184e+07,105.197,1,3.01454,-1112.4,-11794.3,-23151.3
1.36806e+07,0.491115,0,3.75301,38.8862,-110.596,-28792.8
0,0.413547,0,3.92742,0,0,0
0,0.525429,0,2.43019,0,0,0
1.38606e+07,122.717,2,2.65008,20791.4,-10175.5,-17185.1
1.43101e+07,43.2061,1,2.89181,8930.82,1211.47,-27780.3
1.4454e+07,2.44586,1,2.80831,-565.25,48.0804,-29007.9
1.47283e+07,147.783,1,2.80025,9297.79,26369.5,-15128.3
1.48533e+07,43.485,2,2.88622,8165.49,148.628,-24749.8
1.49556e+07,3.74018,2,2.88312,285.844,530.91,-28416.8
1.51058e+07,182.038,0,2.93884,2583.06,7155.74,-26846.3
1.52844e+07,19.7303,1,2.62967,3689.12,-499.566,-27087.8
1.53154e+07,88.6996,0,2.8913,-13790.8,9073.21,-20319.4
1.54937e+07,47.8494,1,2.51024,-1340.96,7465.63,-22045
1.58871e+07,103.296,1,2.61468,-20347.4,-1448.55,-20943.4
1.63529e+07,9.0783,2,2.62559,-1056.2,-1740.15,-28851.1
1.6461e+07,17.2505,0,2.39854,-662.974,-1988.52,-25839.2
1.6623e+07,14.1952,0,2.77375,2157.37,255.993,-26669.4
1.67149e+07,30.4952,0,2.98958,-4037.39,-3912.98,-25827.6
1.72935e+07,5.43536,2,2.50816,1020.11,-111.801,-28364.4
1.73356e+07,51.3116,1,2.64499,-7400.95,-7797.41,-27469.2
1.73799e+07,144.001,0,2.88798,-22606.4,-14091,-14627.2
1.7473e+07,7.21477,0,2.39724,796.906,1206.82,-29507.5
1.75058e+07,39.8986,1,3.00311,-6331.23,-4655.48,-25942.5
1.75669e+07,7.82379,1,2.95397,1501.88,-487.169,-28472.1
1.79624e+07,8.86065,1,2.95949,-274.707,-1564.41,-27912.8
1.80738e+07,16.2246,0,2.6169,-709.89,1788.11,-26005.3
1.82616e+07,43.9498,0,2.75928,-5833.64,5073.78,-23839.7
1.88638e+07,2.68559,1,2.94391,344.763,534.901,-28837.6
1.90567e+07,52.7068,1,2.59164,1525.86,9270.58,-22711.8
1.9079e+07,131.862,2,2.66353,-4047.1,-18273.6,-8183.17
1.93641e+07,129.886,2,2.64982,7986.02,24175.3,-18887.2
1.96257e+07,57.859,1,2.41895,-9123.27,6369.8,-23574.2
1.97336e+07,89.8997,0,2.96704,9051.14,16614.2,-29094.1
2.00996e+07,5.43351,2,2.89901,-521.167,-789.864,-29649.9
2.01664e+07,138.358,0,2.60042,15921.8,-13708.6,-8449.92
2.02814e+07,18.4002,1,2.3963,-3931.39,-244.977,-28327.9
2.06985e+07,63.4541,2,2.78776,-1733.64,12007.6,-23965.7
2.07878e+07,221.787,1,2.39145,991.266,29838.5,7268.79
2.08384e+07,159.93,2,2.67171,-7175.78,11603,1670.04
2.13198e+07,37.6561,0,2.66839,-6321.1,-1881.27,-26342.2
2.17798e+07,108.782,0,2.92865,13968.5,-18150.5,-29464.8
2.19123e+07,31.6682,1,2.38517,-1852.77,-2857.96,-23072.9
2.1956e+07,30.7483,2,2.62698,-4897.94,-4287.08,-27739.8
2.23584e+07,48.4919,0,2.64534,-2700,8419.39,-23666.6
2.24155e+07,69.4732,2,3.02496,8309.08,-11848.1,-26843.5
2.25751e+07,168.978,0,2.65854,16719.4,-23868.5,-8223.43
2.26167e+07,180.59,2,2.83075,7895.27,-10443,-16871.8
2.27246e+07,82.5444,2,2.81473,-15544.5,7583.58,-26922
2.31369e+07,46.3593,0,2.95126,-6476.79,5193.21,-23836
2.33464e+07,72.0962,0,2.70884,7643.63,-12144.7,-23634.1
2.36649e+07,69.9164,2,2.81076,-2220.77,6979.27,-29815.4
2.40861e+07,118.46,0,2.68083,12376,-13335.8,-11692.4
2.42231e+07,50.7713,0,2.88953,-6595.38,-41.7733,-20513.7
2.42687e+07,120.891,0,2.96131,-1501.75,-17878.7,-20303.7
2.43354e+07,46.6964,1,2.51159,-9157.24,2186.86,-25715.1
2.45346e+07,56.7387,2,2.58262,-11584.5,-3295.39,-29788.7
2.47733e+07,55.3867,0,2.84156,7391.19,7966.75,-24536.4
2.48505e+07,50.073,2,2.92111,-7077.72,778.918,-21053
2.55444e+07,19.8155,0,2.64193,3703.36,-2093.43,-28377
2.60745e+07,107.767,0,2.73514,-19763.7,-7314.98,-20592.4
2.61621e+07,32.8998,2,2.94684,-4773.25,-2773.86,-24617.9
2.65163e+07,14.1753,2,2.41754,-2066.13,-1751.31,-27386.2
2.66142e+07,66.6712,2,2.69829,-4725.76,12899.5,-25992.6
2.66233e+07,58.1986,0,2.46365,5298.96,-10958.5,-26599.4
2.66637e+07,45.9903,0,2.57888,-2255.49,5392.36,-21113.5
2.68871e+07,12.899,2,2.37305,-2775.83,288.049,-29048.2
2.70573e+07,14.6708,0,2.75922,2086.42,1158.75,-26757.5
2.70997e+07,62.8198,0,3.03627,8107.32,10083,-26029.3
2.71142e+07,101.674,2,2.92947,-3736.11,-11193.6,-11000.1
2.72621e+07,99.3913,0,2.89958,10005.7,10222.5,-13616.5
2.78355e+07,101.679,1,3.01366,-15134.5,-12858.1,-22921.2
2.79706e+07,184.11,2,2.472,-26097.8,-21776.3,-9697.68
2.80617e+07,70.9416,1,2.58813,7017.8,13240.7,-27404.6
2.82875e+07,223.765,0,2.73955,27312.6,13107.5,7324.47
2.83477e+07,275.95,0,2.96791,-14748.4,1637.09,-5334.26
2.83848e+07,26.1899,2,3.04292,131.077,-4091.28,-25066.7
2.84466e+07,56.9914,0,2.82056,3607.2,7641.53,-20266.1
2.84713e+07,9.87048,2,2.92448,1886.45,360.391,-28098.3
2.86883e+07,6.94867,2,2.84323,-1055.79,-1130.24,-28863.6
2.87837e+07,64.9289,2,2.83088,-9336.97,-9427.53,-25259.8
2.88631e+07,91.1481,1,2.67296,-14806.5,-6980.58,-18720.5
2.88888e+07,87.9945,0,3.00777,3432.22,-12020.8,-15269.6
2.89905e+07,25.6869,1,2.8594,-3386.87,2492.16,-25334.9
2.91088e+07,122.246,2,2.44949,-20378.6,-9647.05,-16028.3
2.97708e+07,63.766,2,2.91141,4574.58,9047.26,-20146.2
3.01845e+07,20.544,1,2.39597,2215.85,113.123,-25091
3.03021e+07,22.1561,1,3.04901,-2303.15,2483.39,-27758.9
3.0336e+07,38.6879,1,2.93404,3300.22,6646.82,-25475.2
3.03729e+07,7.46268,0,2.38405,750.633,636.032,-27538.6
3.04661e+07,180.248,1,2.43291,17593.5,29175.2,-11638.1
3.05244e+07,84.4626,2,2.80456,104.837,-10362.4,-14358.4
3.05934e+07,22.695,2,2.93819,-2030.7,-1382.03,-24698.5
3.07486e+07,45.2375,2,2.72206,2150.57,-6070.1,-21728.7
3.08772e+07,17.1967,1,2.45918,900.725,2437.98,-26211.6
3.10417e+07,31.7744,2,2.78621,-6311.32,2298.55,-28884.7
3.12841e+07,116.948,1,3.00116,15762.8,17394.8,-21697.9
3.12899e+07,42.9912,1,2.46555,-332.551,7632.83,-23805.4
3.22022e+07,179.316,1,2.72924,2894.95,-24886.7,-648.347
3.2989e+07,11.7215,1,2.94352,1917.76,-89.2641,-27305.5
3.34829e+07,149.886,0,3.00257,11229.9,27630.7,-18848.3
3.38217e+07,134.017,0,2.4372,22055.4,14473.8,-18309.3
3.38959e+07,194.626,1,2.92988,17403.1,21943,-3929.36
3.40396e+07,72.2014,1,2.94372,-3245.45,14630.7,-26042.8
3.42525e+07,29.7605,1,2.90586,3451.61,-4262.79,-25993.4
3.43133e+07,82.9399,0,2.99716,10990.4,11502.9,-21639
3.45427e+07,170.503,1,2.79808,-25683.1,13171,-7446.48
3.47119e+07,28.6523,2,2.38892,1929.43,-5823.41,-28966.5
3.50016e+07,68.4851,2,2.50073,10786,3395.63,-19829.7
3.50243e+07,103.774,1,2.88578,15429,3606.68,-13876.9
3.51617e+07,111.625,0,2.54791,-15127.7,13152.6,-16492
3.54321e+07,49.4686,2,2.88412,-8293.09,-246.056,-22473.8
3.65134e+07,118.18,2,2.55315,24572.7,-2418.69,-25082.1
3.66335e+07,67.0574,2,2.46036,-6764.48,-8355.76,-19461.6
3.67686e+07,27.3468,2,2.4193,2203.84,-4765.34,-26287.3
3.68455e+07,10.342,2,2.9635,518.05,-2193.29,-28797.3
3.69218e+07,226.422,2,2.58191,16748.6,-19809.5,11381.1
3.70241e+07,31.2093,2,2.4089,-3110.24,-1187.57,-23082.2
3.7065e+07,8.67957,0,2.92728,-301.346,1562.15,-27896.8
0,8.70596,0,2.64444,0,0,0
3.70883e+07,35.903,0,2.46613,180.185,-4956.35,-23086.6
3.72728e+07,141.024,1,3.02489,-21580.4,6785.09,-9746.27
3.73358e+07,2.08556,0,2.46663,445.041,-237.082,-29008.8
3.73458e+07,72.9629,0,2.92528,-1345.81,9958.02,-17257.4
3.76781e+07,80.0293,0,2.93808,12863.6,10939.5,-28941.9
3.77444e+07,59.2554,0,2.5268,10018.6,263.593,-21207.1
3.83872e+07,114.071,2,2.54748,11290.6,12140.5,-11396.4
3.87226e+07,145.596,1,2.74482,15017.5,19735.8,-10733.1
3.87671e+07,33.5178,0,2.75813,1735.62,-6039.48,-25508.4
3.88381e+07,201.593,0,2.72346,20852.4,-12614.3,5995.29
3.95686e+07,116.687,0,2.80321,11304,16426.4,-27796.7
3.96094e+07,68.8753,1,2.45086,-6439.73,12559.5,-24931.6
3.96296e+07,66.1665,2,2.63238,-8081.09,557.19,-17423.2
3.96933e+07,35.8204,1,2.77675,-3539.5,-3993.84,-23485.9
3.96975e+07,36.8063,2,2.64325,245.329,-7679.42,-27130.6
3.97919e+07,124.748,0,3.03817,4901.19,25670.8,-27427
3.98981e+07,89.3934,1,2.84026,-6634.93,7137.94,-12701.7
3.99754e+07,32.4657,0,2.90556,-175.215,-3244.34,-22822.8
4.01097e+07,115.613,2,3.04709,11258.9,12454.7,-11456.8
4.11596e+07,56.0085,1,3.04498,-2607.2,9608.92,-22458.8
4.1288e+07,21.2205,1,2.79168,463.787,-4070.32,-27183
4.16769e+07,17.1003,0,2.75594,3012.28,-1589.32,-27440.7
4.17539e+07,128.711,0,2.58093,-3779.74,-26235,-22733
4.19258e+07,131.814,2,2.85605,-13081.9,-17960,-12156.1
4.234e+07,60.7759,0,2.59104,-455.703,-5266.85,-17115
4.24831e+07,58.9292,1,2.53058,5541.1,968.879,-17713
4.30591e+07,7.88851,1,2.67178,1109.5,-480.504,-27754.8
4.32497e+07,110.424,0,2.54544,6094.92,1467.92,-19206.5
4.35311e+07,51.0813,1,3.01955,-9145.87,5609.57,-27511.3
4.42334e+07,57.7034,2,2.98304,10624.4,-2499.64,-23624.1
4.43055e+07,23.1117,0,2.5049,3812.79,1358.43,-25936.5
4.43966e+07,20.9612,1,2.42738,-2608.5,-1769.37,-25739.2
4.44391e+07,132.581,2,2.69592,470.766,959.971,-27135.6
4.45496e+07,47.8236,0,3.04624,-1625.48,4666.17,-20115.7
4.46024e+07,4.26532,1,2.78662,-955.389,-96.596,-28979.9
4.46926e+07,33.0448,1,2.42977,-5081.23,3868.94,-25759.4
4.4715e+07,92.2741,0,2.78532,5947.34,6773.34,-11599.6
4.47507e+07,37.0318,2,2.82933,1743.25,-6293.78,-24464.5
4.47755e+07,4.76832,1,2.39407,387.988,646.732,-28118.5
4.49445e+07,112.429,0,2.96789,15704.4,3178.92,-11462.8
4.52901e+07,39.3459,2,2.86714,2748.9,-3242.73,-21710.6
4.62238e+07,55.9923,0,2.41728,1991.32,5168.85,-18325.4
4.65561e+07,1.82829,2,2.88311,41.4304,-65.421,-28433.3
4.66355e+07,27.152,1,2.84663,3687.16,4298.17,-29932.8
4.66767e+07,18.5042,1,2.83536,-3532.55,1839.44,-28552.1
4.67649e+07,153.132,0,2.38514,7743.7,-27426.8,-13330.2
4.71168e+07,91.3091,2,2.38884,9554.24,-2928.89,-12312.6
4.72267e+07,138.821,0,2.9935,13614.4,-16115.2,-8712.96
4.75125e+07,139.216,0,2.67475,8153.33,-25677.9,-17049.3
4.78812e+07,223.504,2,2.90249,12689.5,22501.1,9888.21
4.79315e+07,102.368,0,2.68358,7262.51,-3812.07,-8841.31
4.80398e+07,157.067,2,2.98604,10405.9,5424.47,-11569.4
4.81932e+07,21.2271,1,2.7558,-2134.52,-2263.43,-25605.8
4.8308e+07,58.041,0,2.87855,-4687.48,3635.72,-18202.1
4.83283e+07,11.1037,2,2.92872,1337.77,-1942.17,-28553.8
4.85252e+07,58.8068,2,2.87731,2612.12,-12120,-27680.4
4.86424e+07,40.5321,0,2.75508,7735.95,-3761.76,-28291.6
4.8805e+07,172.048,2,2.88083,14471.6,-8717.51,3099.58
4.88099e+07,192.516,0,2.67093,11180.8,-6591.59,-20068.8
4.89096e+07,239.086,2,2.98785,20965.6,23353.9,10192.3
4.8955e+07,32.7094,2,2.44834,-4471.24,-1802.67,-23804.5
4.90009e+07,61.6102,2,2.58851,-12019.5,-3588.29,-25223.1
4.90928e+07,126.504,0,2.60767,10761.6,8698.4,-16088.2
5.02699e+07,201.885,0,2.96367,-7013.53,-238.617,591.95
5.06769e+07,109.891,1,2.70867,-10187.3,20203.1,-23479.3
5.08597e+07,37.7396,0,3.03478,2459.09,6577.73,-25099.5
5.08901e+07,142.847,0,2.85547,-17593.9,14334,-9258.35
5.09169e+07,1.91082,2,2.66501,150.832,-411.235,-29044.8
5.09672e+07,159.579,0,2.81001,-20835.2,-8276.31,-3899.4
5.09773e+07,126.486,2,2.54449,16827.9,17912.8,-18522.4
5.12425e+07,52.1713,0,2.46236,-2524.48,-8970.02,-22919.8
5.14088e+07,28.9361,0,2.53776,-1404.11,-5760.48,-27320.1
5.15571e+07,72.6951,1,2.70517,-10219.3,11509.5,-29812.5
5.19348e+07,145.873,1,2.76982,5278.48,-15055.9,-13363
5.23685e+07,112.186,0,2.72856,18177.1,-6137.87,-14909.8
5.29966e+07,91.866,1,2.91337,-14373.3,11704.9,-23402.9
5.32513e+07,42.6292,1,2.99951,-6581.63,-3864.98,-24151.4
5.34861e+07,11.7123,2,2.70101,-1708.94,-945.704,-27197.1
5.35863e+07,19.5827,1,2.70215,3680.92,416.124,-27034.5
5.3779e+07,142.999,0,2.52808,-3841.83,14534,-2615.57
5.42956e+07,93.7938,2,2.61029,-17920.8,5140.5,-22008.3
5.45014e+07,12.2369,1,2.65524,1400.24,411.454,-26717
5.4685e+07,98.9104,1,2.52119,-14504.9,-8268.8,-16217.1
5.47195e+07,50.3004,2,2.42118,5961.82,1721.3,-20198.9
5.4874e+07,111.91,1,2.9432,5898.49,10679.5,-28721.5
5.49747e+07,25.0285,2,2.56075,3836.67,-1028.05,-25366.2
5.50822e+07,46.492,2,2.86396,-2631.91,6908.7,-22481.1
5.52057e+07,183.283,2,2.42672,539.718,51.3289,-28375.5
5.56315e+07,50.6081,0,2.97395,5283.18,189.005,-19584.6
5.58677e+07,122.539,1,2.43487,19089.8,15922.8,-21335.7
5.59103e+07,13.7058,2,2.71149,658.527,-2751.78,-27895.6
5.59306e+07,97.8408,2,2.43966,1958.73,-19861.2,-23082.5
5.61742e+07,15.2276,0,2.57361,24.7038,-3231.29,-28458
5.61764e+07,15.0977,2,2.7878,1.03768,-1247.08,-25860.5
5.62655e+07,99.8732,1,2.86007,-9445.98,2991.55,-10310.4
5.62936e+07,3.66841,0,2.73205,681.655,418.11,-28572.7
5.67686e+07,110.727,1,2.3667,-10641.9,6320.6,-8881.1
5.6987e+07,26.1983,1,2.42726,-5051.53,1553.89,-26881.7
5.70584e+07,17.3489,1,2.46514,-1559.33,2131.09,-26184.9
5.72075e+07,32.63,1,2.39812,-1382.62,6184.07,-25871.7
5.72769e+07,145.463,0,2.6258,-525.325,26699.6,-13663.8
5.7476e+07,43.943,2,2.38683,-6417.05,2307.44,-22453.5
5.78794e+07,56.187,2,2.6119,-222.444,-11944.7,-28134.2
5.79011e+07,55.1725,0,2.65842,4744.31,-1045.01,-18218
5.80484e+07,172.943,1,3.03708,-16311,10506.4,1810.22
5.81204e+07,190.05,0,2.74925,28217,-28359.8,-26486.1
5.82072e+07,91.3546,0,2.53995,3876.91,-14203.4,-16291.7
5.85253e+07,5.32855,1,2.88307,398.915,-111.264,-27789.1
5.85605e+07,20.8582,2,2.99861,-1935.47,-4045.2,-28548.1
5.87662e+07,49.2422,0,2.71496,-1216.64,-820.52,-27066.6
5.90728e+07,84.8223,2,2.66686,15322,1278.83,-19730.2
5.9449e+07,149.402,1,2.72889,-17548.9,21788.1,-14235.8
5.95527e+07,54.4746,2,2.72694,1026.53,-8116.55,-20689.1
6.02609e+07,65.1487,0,2.82683,-11144.5,-2064.75,-21214.1
6.04523e+07,189.314,1,2.91457,22508.2,7794.1,2964.85
6.07013e+07,182.554,0,2.76014,18403.4,3254.65,-28091.5
6.07116e+07,82.0626,0,2.82731,788.124,-15679.7,-21637.9
6.09452e+07,49.2303,0,2.59486,-8713.99,751.812,-23327
6.11927e+07,164.749,2,2.72877,-19633.4,-28211,-23369.5
6.16505e+07,14.7929,2,2.8886,-695.073,-1905.93,-26389.3
6.24055e+07,110.545,0,2.88605,21013.4,-6694.15,-21257
6.25151e+07,30.1696,2,2.64601,-5455.73,-463.865,-25519.5
6.27065e+07,96.0905,1,2.54811,6212.49,19082,-25297.7
6.28447e+07,154.521,1,3.03556,10608.8,-8414.58,-14136.1
6.30486e+07,100.696,1,2.63962,-17634.8,-6097.63,-18645.1
6.30812e+07,82.4062,0,2.98465,-2689.2,-12442.3,-17128.8
6.33758e+07,71.753,2,2.53443,-2204.11,-9629.63,-27117.3
6.33797e+07,69.6026,0,2.43058,-4148.59,13987.1,-26978.1
6.34229e+07,94.5716,0,2.74503,16094.1,11837.2,-28161.7
6.35521e+07,13.0627,2,2.6476,-2789.81,366.778,-29040.8
6.37266e+07,4.05326,0,2.47951,672.88,415.45,-28317.9
0,4.09892,0,2.81383,0,0,0
0,4.34248,1,2.84517,0,0,0
0,4.05454,0,2.64671,0,0,0
6.4006e+07,27.0797,2,2.68978,2464.12,-116.35,-23684.6
6.42407e+07,14.1562,2,2.49103,1285.38,-2741.52,-28321
6.44781e+07,5.90951,1,2.7799,-403.356,137.711,-27632.8
6.45019e+07,43.7975,0,2.8462,-772.797,6958.66,-22820.9
6.47107e+07,8.69276,2,3.04961,-1102.3,-1329,-29674.8
6.4741e+07,82.2984,2,2.8112,5634.06,6398.59,-13830.1
6.49277e+07,137.162,2,2.87486,-2744.35,-1081.4,-27576.5
6.49584e+07,4.0878,1,2.53457,-642.247,443.826,-28300.2
6.49817e+07,42.3122,0,2.79006,3966.22,3876.45,-21832.1
6.49953e+07,129.168,0,2.68252,-4998.43,26379.5,-24273.9
6.51027e+07,27.3764,1,2.76999,-1758.86,5316.15,-27061.5
6.56202e+07,132.793,0,2.73292,4040.3,21377.9,-11232.5
6.61409e+07,101.211,0,2.71418,-8062.39,-8067.98,-10823.4
6.6407e+07,29.3465,2,2.7717,3948.44,-3049.44,-25174.2
6.67413e+07,236.553,2,2.57515,-29910,-11333.7,9627.92
6.67743e+07,41.3615,1,2.83068,-6979.87,-4937.44,-27220.2
6.69117e+07,273.389,1,2.92703,1366.22,27777.8,3677.06
6.72223e+07,65.553,2,3.04131,-5091.66,8334.87,-19197.6
6.77213e+07,85.5152,0,2.8979,16797,-5636.92,-25376
6.77629e+07,71.2728,1,2.62035,-855.73,779.372,-26396.3
6.79107e+07,2.56769,0,2.61412,-280.604,332.566,-28546.7
6.82021e+07,42.1196,1,2.82359,-2941.55,1858.9,-20671.4
6.83584e+07,138.806,2,2.93891,-24779.9,5750.75,-14615.2
6.85449e+07,21.1201,1,2.67981,-2640.51,-333.065,-25230.6
6.89982e+07,29.9587,1,2.955,1400.87,6081.17,-27605.8
6.922e+07,110.55,2,2.8214,-16374,-16203,-25181.4
6.92844e+07,3.24331,0,3.01072,-478.026,54.9021,-28399.3
6.98985e+07,88.2597,2,2.60704,2632.03,-13728.6,-16428.8
6.99438e+07,158.886,1,2.7432,-3155.66,27611.7,-21241
7.05348e+07,132.078,2,3.00578,12155.4,-18931.2,-12640.9
7.05407e+07,71.8929,1,2.884,5356.78,9849.03,-18678.3
7.05945e+07,17.1695,1,2.54044,348.026,1870.48,-25679.3
7.06711e+07,52.0997,2,2.70335,-3118.67,9777.46,-24983.3
7.07487e+07,50.6839,0,2.85086,6441.38,-1552.7,-20401.7
7.10073e+07,316.708,1,2.92696,-7459.05,-11776.2,-9138.18
7.10192e+07,17.8796,0,2.68737,2331.62,-3043.4,-29324.5
7.12762e+07,32.0683,1,2.52031,-4453.61,-2959.76,-24646.5
7.18598e+07,30.4138,0,2.96437,3723.39,1857.1,-23943.6
7.18978e+07,53.6005,1,2.47744,-783.647,6763.01,-19712
7.19369e+07,29.9253,1,2.84021,-681.513,6316.45,-29248.6
7.22047e+07,29.305,0,2.45766,5613.81,-629.696,-26052.9
7.24262e+07,9.74458,1,2.84965,185.387,858.883,-26932.7
7.24492e+07,409.389,2,2.53374,-4175.85,-8613.35,-7016
7.24565e+07,9.90992,0,2.81202,1934.86,239.029,-29805.6
7.29113e+07,227.747,0,2.744,-11579,-20921.8,12718.8
7.29307e+07,222.992,1,2.5835,-387.586,504.125,-29200.1
7.31506e+07,89.2432,2,2.43755,567.284,-2587.18,-14767.3
7.31543e+07,165.349,2,2.93527,1938.44,-2980.1,-3464.74
7.31549e+07,103.56,1,2.59806,3256.33,20402.8,-21395.5
7.32554e+07,92.4429,2,2.65568,-6401.43,-10728.2,-13772
7.34842e+07,53.9042,2,2.39022,6653.32,5289.1,-21269.6
7.36683e+07,140.85,0,2.36588,-3335.77,-26913,-16414.4
7.36981e+07,44.8996,1,2.69586,-8035.02,987.565,-23823.4
7.39207e+07,18.8,2,2.53127,-1888.19,2845.06,-26862.5
7.40165e+07,119.711,2,2.84769,-42.5691,11230.7,-6330.58
7.44344e+07,69.1005,2,2.63299,-2660.24,-11558,-20222.9
7.44732e+07,28.8227,0,2.52794,6013.2,-1375.98,-29556
7.45458e+07,113.914,1,2.98181,-10381.6,-3468.94,-11945.1
7.45645e+07,216.888,2,2.58677,1728.04,16912.6,13584.4
7.4599e+07,96.7977,0,3.01321,7291.35,-12699,-14775.8
7.47296e+07,2.75057,2,2.86321,-169.172,387.32,-28473.8
7.49041e+07,33.7782,0,2.36237,4380.37,-2231.93,-23549.3
7.53479e+07,80.2729,0,2.70719,-7633.31,9552.63,-17170.1
7.54908e+07,92.9199,0,2.78815,7344.67,13955.9,-18633.1
7.55193e+07,37.6029,2,2.7741,4834.74,3858.08,-23975.8
7.58205e+07,156.765,0,2.61902,14668.3,776.697,857.654
7.58382e+07,50.7964,1,2.92423,-1865.01,9587.55,-24313.7
7.60966e+07,126.844,2,2.82397,-3778.47,-26236.7,-25100
7.61781e+07,126.958,1,2.93276,-6552.76,22125.9,-15374.5
7.61954e+07,31.9693,0,2.85504,3802.03,3820.14,-24730
7.64203e+07,32.7724,1,2.54403,3.37238,2950.65,-22516.3
7.64603e+07,78.476,0,2.94338,6229.75,-3345.47,-13922.1
7.65549e+07,112.276,0,2.9158,8021.98,-12895.5,-12996.3
7.68305e+07,75.7528,0,2.5313,15012.9,-5814.29,-28756.4
7.69631e+07,77.156,0,2.87583,1268.34,7845.54,-17504.9
7.69968e+07,213.302,0,2.65793,5734.65,2647.75,-29024.4
7.7867e+07,4.0501,1,2.41441,-273.581,251.694,-28003.3
7.84943e+07,19.7866,2,2.93915,2046.98,-2830.1,-26503.8
7.85124e+07,14.8716,1,2.46037,1744.18,2237.86,-27343
7.85624e+07,75.4114,0,2.91182,9916.26,-7504.67,-18934.2
7.89224e+07,14.7916,2,2.44733,-94.5777,-2540.02,-26872.4
7.89543e+07,271.744,2,2.77934,-19208.6,23987.4,17371.9
7.96845e+07,26.8163,1,2.55859,-215.064,5466.77,-27049.7
8.04134e+07,73.9923,0,2.89422,5798.47,-13842.3,-24585.3
8.05318e+07,70.2991,2,2.59615,13903,1964.68,-24154
8.0551e+07,149.925,0,2.92843,29485.9,8755.57,-21892
8.08304e+07,26.8759,0,2.75969,3432.23,1073.76,-24391.9
8.09555e+07,62.5001,2,2.72027,-4210.89,-7901.88,-19099.2
8.11138e+07,7.48039,2,2.60451,-518.298,-989.57,-27610.9
8.11257e+07,144.797,2,2.41395,-28967,4077.66,-19629.9
8.12804e+07,95.516,0,2.62291,-5437.26,-13489.5,-14883.8
8.13566e+07,52.3366,2,2.59472,-8978.99,-3959.27,-23579.8
8.15442e+07,1.84199,1,2.67477,-7.97753,110.307,-28458.3
8.15844e+07,11.6699,2,2.72908,429.183,-2411.34,-29576.9
8.17159e+07,165.947,0,2.74884,173.616,244.56,-28996.4
0,1.3144,1,2.52591,0,0,0
8.1813e+07,129.87,1,2.75431,2860.48,16737.4,-10110.2
8.18642e+07,67.7454,1,2.49178,12906.2,-2893.54,-23450.4
8.22304e+07,24.818,2,2.75866,1207.01,-3370.85,-24958.6
8.23726e+07,146.97,2,2.82288,-3371.11,29817.7,-21712.6
8.25955e+07,24.848,2,2.54333,3756.44,-2322.13,-25929.3
8.28558e+07,26.3527,1,3.02552,-1003.26,-2459.66,-24004.8
8.28923e+07,86.4207,1,2.82953,323.679,-16631.9,-21642.9
8.33245e+07,87.2714,2,2.71391,9086.94,-14748.1,-22487.7
8.38172e+07,137.093,2,3.03453,-4925.43,-17255.4,-6362.67
8.38541e+07,140.489,0,2.8993,-3977.37,9618.21,-13830.8
8.47795e+07,52.3168,0,2.5915,-52.8115,-7857.18,-21039.6
8.48336e+07,168.187,2,2.82326,-20225.1,4488.34,-182.374
8.48452e+07,28.9375,0,2.88592,3068.96,-1882.61,-24343.5
8.4987e+07,67.6631,1,2.73901,-6656.42,8979.94,-19874.6
8.50095e+07,166.853,1,2.53705,-20083.5,6230.55,-502.091
8.53382e+07,174.804,1,2.67779,16808.2,19863.1,-2686.9
8.55332e+07,68.0219,0,2.61639,-6052.21,11003.9,-21875.2
8.59611e+07,14.8151,2,2.75618,193.884,-3207.76,-28924.4
8.59775e+07,48.5146,1,3.01359,-5178.69,1959.76,-20264.2
8.6074e+07,44.5547,0,2.60431,834.772,3270.09,-25551.2
8.62359e+07,24.4741,2,2.52214,-1638.66,-2504.98,-24545.4
8.62687e+07,15.5511,0,2.43968,1888.8,2728.86,-29423
8.62724e+07,12.5749,0,2.94512,898.105,-791.162,-26429.7
8.67708e+07,60.695,1,3.00611,-2353.96,5518.88,-17552.8
8.72706e+07,115.469,1,2.87976,-17986.1,10866.2,-16554.4
8.72813e+07,1.47267,2,2.82731,154.958,34.4555,-28605.9
8.74072e+07,33.2315,0,2.64282,-421.12,6443.47,-26075.2
8.74871e+07,36.5366,2,3.00199,-5855.54,-5019.28,-29377.1
8.75177e+07,12.2675,0,2.3674,-534.399,-1749.22,-27003
8.76026e+07,135.916,0,2.50333,4003.4,-8106.08,-4613.35
8.79245e+07,78.1712,1,3.03948,-1362.8,16308.1,-27043.1
8.84173e+07,67.9377,2,2.90285,12288.6,1666.97,-21855.4
8.86984e+07,65.3643,0,2.97014,9052.4,6262.62,-20540.5
8.87076e+07,73.2221,2,2.78691,3807.51,13303.3,-22203.8
8.87287e+07,35.9843,1,2.66373,5699.77,-4364.71,-26541.5
8.89312e+07,134.892,0,2.43941,24104.2,14095.5,-22608.7
8.902e+07,34.8323,2,2.50899,-6433.1,-829.759,-25245.2
8.91542e+07,82.6937,0,2.97025,-719.666,-16305.3,-22899.7
8.95062e+07,61.237,2,2.70187,4043.49,-3763.06,-17135.8
8.96844e+07,5.52852,2,2.39741,-923.422,-866.685,-28662.5
9.01308e+07,31.2696,2,2.42471,-106.797,4575.94,-24097.7
9.02594e+07,97.9555,2,2.43584,20661.1,-1143.14,-29807.1
9.05209e+07,18.2102,1,2.55493,-1618.78,338.118,-25308.2
9.05984e+07,85.4915,2,2.78618,-13811.8,9516.64,-22262.6
9.06032e+07,175.139,2,2.65178,-28314.7,11764.4,-8176.15
9.08557e+07,151.948,2,2.87337,989.138,28490.9,-14598.3
9.10609e+07,74.7618,0,2.57976,-7846.68,10071.5,-19589.5
9.10805e+07,31.2131,0,2.7549,6611.06,612.335,-28046.4
9.16206e+07,29.1758,0,2.88351,1578.09,3537.84,-24025.1
9.22814e+07,69.4859,0,2.52881,6033.12,10872.9,-20953.8
9.26401e+07,81.2327,0,2.98539,12785.4,10418.2,-24400.5
9.2821e+07,16.5258,2,2.77025,-1945.09,690.422,-25994.5
9.30184e+07,52.9861,2,2.85143,2345.49,-10856.4,-27177.7
9.32798e+07,7.1929,1,2.57527,724.633,-335.018,-27563.7
9.33492e+07,112.715,1,2.54186,-23799.8,-1914.75,-29396.6
9.39407e+07,19.7564,1,2.62754,-2332.21,-1047.47,-25517.8
9.39996e+07,1.52785,1,2.703,180.118,319.05,-28730.7
0,1.45723,1,2.59882,0,0,0
0,1.49687,1,2.74675,0,0,0
0,1.45712,1,2.54603,0,0,0
9.40329e+07,25.9591,1,2.48983,-4460.29,793.304,-25622.7
9.40682e+07,32.9477,0,2.73282,2581.21,5041.32,-24749
9.41667e+07,3.82312,0,2.62384,738.517,479.183,-28682.2
0,3.79005,0,2.48279,0,0,0
9.44228e+07,30.9894,0,2.99571,6189.43,1570.78,-27134.3
9.45303e+07,165.148,2,2.54681,-21905.1,-23932.5,-17844.3
9.45583e+07,33.1481,0,2.57588,774.744,6372.91,-25986.9
9.4848e+07,99.0245,2,2.43759,-14789.2,-8791.56,-16747.3
9.50188e+07,22.0763,0,2.40732,-3588.41,1812.77,-26550.2
9.53667e+07,44.313,0,2.87486,-1187.27,5432.92,-21353.5
9.57304e+07,55.0343,0,2.56602,9866.76,-4543.03,-24506.5
9.58544e+07,37.5281,2,3.02527,-1478.53,-7082.42,-25513.7
9.59014e+07,20.9709,0,2.60151,3174.26,1488.79,-26335.6
9.60888e+07,114.005,2,2.36581,-291.511,-21133.4,-17020.1
9.62776e+07,23.044,2,2.84155,-353.66,4448.51,-27041.6
9.63308e+07,89.0224,1,2.41171,2849.06,18258.6,-24736.2
9.64579e+07,49.806,0,2.84313,-3882.33,7144.2,-22282
9.66625e+07,195.648,2,2.9957,21472.4,2504.95,5995.2
9.68453e+07,101.208,2,3.00059,-7648.67,-8313.48,-10819.1
9.69677e+07,38.3574,0,2.66534,3368.62,7256.77,-27203.7
9.71695e+07,148.105,0,3.0052,25193.6,-16208.3,-20437
9.72195e+07,23.9117,1,3.04038,-4349.46,2698.2,-28849.9
9.72504e+07,55.1513,2,2.92614,7160.63,-9184.3,-29022.8
9.73179e+07,99.5163,0,2.87259,19542.3,4435.85,-22590.5
9.80541e+07,138.04,0,2.39693,17645,17291,-13135.6
9.83058e+07,132.99,1,2.64571,11075.2,3987.62,-3356.16
9.83477e+07,203.821,0,2.65847,8730.19,21268.6,7243.75
9.83884e+07,11.34,0,3.033,2218.66,-1100.79,-28966.5
9.89523e+07,19.6826,0,3.05423,1131.67,-3175.75,-26384.4
1.00155e+08,35.8159,2,2.54979,129.296,-4060.46,-22385.2
1.00335e+08,140.393,2,3.03769,20039.5,14915.4,-13842.2
1.00607e+08,269.345,2,2.83784,23265.8,-17738.4,19660.4
1.00762e+08,141.732,1,2.4378,-6381.52,26224.2,-15574.9
1.00994e+08,75.3897,0,2.63014,5106.63,-10823.4,-18326.8
1.00999e+08,4.81208,1,2.70329,-132.583,501.308,-27920.8
0,4.79488,1,2.77183,0,0,0
0,4.81577,1,2.45152,0,0,0
1.0107e+08,91.8739,0,2.96298,-9760.15,9896.46,-15551.8
1.01176e+08,65.6033,0,2.81959,6694.63,-4843.9,-17734.5
1.01328e+08,3.84491,0,2.8353,355.783,-177.968,-28069.4
1.01572e+08,134.852,0,2.93524,8749.36,18083.4,-16073.1
1.01708e+08,33.4214,0,2.85172,3694,-4962.99,-25368
1.01859e+08,64.3334,2,2.88611,-4691.54,-7242.08,-18364.9
1.01868e+08,140.6,0,2.55676,-13922.7,-25049.7,-21161.6
1.02087e+08,58.9471,2,2.79891,9106.36,-1469.29,-22364.8
1.02202e+08,86.6342,1,2.63727,-16716.3,-3999.77,-22445.9
1.02395e+08,7.85695,0,2.40079,-870.746,-629.476,-27619.9
1.02497e+08,83.3798,2,2.83078,-429.983,7983.99,-13293
1.02543e+08,177.771,1,2.8078,-6988.4,6330.77,-13498.2
1.02763e+08,146.504,2,2.65656,2116.61,-22052.5,-7257.42
1.02999e+08,20.8122,2,2.86323,-2928.97,2319.36,-26525.9
1.03021e+08,19.9012,0,2.79029,1731.54,572.784,-25022.3
1.03106e+08,97.3771,2,2.46625,1781.49,-6305.51,-15831.1
1.03227e+08,42.7068,2,2.74387,4417.36,4307.16,-26863.2
1.0352e+08,163.181,1,2.84542,-29595.3,-13128.8,-17405.1
1.03723e+08,28.1481,0,2.44664,-2376.81,-2308.31,-23908.3
1.03862e+08,65.0124,1,2.63998,-1696.52,6835.78,-16990.4
1.04418e+08,148.908,0,2.44669,-10766.7,-23385.1,-10758.2
1.04495e+08,3.2517,2,2.83486,613.958,-342.201,-28843.6
1.04666e+08,143.506,2,2.38034,-18360,11861.6,-7779.46
1.04678e+08,28.9896,0,2.47837,788.079,-5747.87,-26722.5
1.04761e+08,46.2388,2,2.91144,-190.422,-8490.47,-23984.3
1.0488e+08,2.63509,1,2.51689,-224.88,429.234,-29262.3
1.04971e+08,16.5842,0,2.60131,-1050.45,-2988.51,-27345.4
1.05004e+08,47.9038,2,2.78872,2115.88,-9806.21,-27124.8
1.05029e+08,38.8765,1,3.01465,4733.2,4200.64,-23652.5
1.05421e+08,114.356,2,2.99371,-9374.46,-16966,-14594.1
1.05739e+08,15.2504,1,2.85043,1244,470.74,-25918.1
1.06445e+08,92.7302,1,2.83644,-1471.26,7667.99,-10917.4
1.06573e+08,143.111,1,2.6332,13706.7,20906.2,-16180.1
1.06762e+08,193.644,2,2.40708,20255.2,3147.98,6596.89
1.06907e+08,365.763,2,2.76173,6131.31,-20672.8,8817.62
1.07082e+08,64.7751,2,2.84712,5182.51,-8179.86,-19193.9
1.07231e+08,43.982,2,2.83657,-123.343,5472.5,-21406
1.07241e+08,5.42466,1,2.74214,-77.9127,-466.973,-27792.3
1.07413e+08,108.518,1,2.61855,11056,9540.8,-11159.4
1.08214e+08,133.184,0,2.89033,13040.2,-23472.6,-20990.4
1.08357e+08,7.21525,0,2.83066,24.5536,579.762,-27429.2
1.08545e+08,28.8955,2,2.9179,4768.72,-1211.67,-25323.7
1.08593e+08,82.6479,0,2.90011,15947.1,7062.28,-29130.2
1.08756e+08,87.1856,0,2.55234,6938.52,-17052,-27586.3
1.08767e+08,149.031,0,2.60157,21203.5,-9383.13,-7467.33
1.08984e+08,75.0284,1,2.47786,-13419.2,7706.56,-24900.3
1.09153e+08,171.378,1,2.90999,2710.12,21738.4,-17512.4
1.09677e+08,87.3652,2,2.95827,-2262.72,-16210.3,-20403.3
1.10653e+08,71.2769,2,2.42131,-12565.5,-8309.57,-27204
1.10753e+08,106.24,1,2.85214,15182.2,14040.4,-20373.6
1.10893e+08,53.6304,1,2.36921,9232.26,3218.88,-23062.9
1.10951e+08,24.391,0,2.50754,-903.27,4637.59,-26729.4
1.1137e+08,94.1052,1,2.88832,-3711.8,-2605.58,-27164.7
1.11504e+08,56.5387,2,2.73897,-11766.2,2195.86,-29203.3
1.11507e+08,137.363,2,2.71115,-24549.2,11184.3,-18312.1
1.11564e+08,81.0851,1,2.82596,-13894.5,-4451.83,-19965.6
1.11845e+08,17.2478,2,2.87254,-3002.5,-1629.45,-27473.9
0,17.4764,1,2.94506,0,0,0
1.1193e+08,86.6075,1,2.67834,-709.682,13632.6,-16596.6
1.12244e+08,36.2938,0,2.96385,3172.47,-1183.3,-21972.7
1.1283e+08,178.342,0,2.54921,18741.5,-21289.8,-29915.9
1.12852e+08,53.5616,0,2.74952,9833.52,3355.27,-24216.5
1.12959e+08,2.24549,2,2.48593,127.381,-381.04,-28495.8
1.13014e+08,124.201,0,2.91919,-19572.4,-12827.2,-17456
1.13085e+08,12.3309,2,2.78109,-1031.52,655.959,-26638
1.13324e+08,94.431,1,3.04076,-10613.3,16424.4,-25256.1
1.13394e+08,12.5636,0,2.58399,-2218.42,-1068.75,-27985.8
1.13469e+08,47.5168,2,2.89131,-7761.51,-4985.54,-24785.2
1.13787e+08,51.5791,1,2.74131,10462.6,215.743,-25948.2
1.14044e+08,166.479,1,2.73598,14817.1,13487.4,-7158.02
1.14875e+08,104.182,1,2.4847,17825.1,-4969.82,-16987.1
1.1558e+08,277.279,2,3.02051,1319.31,-6130.53,-24833.8
1.16209e+08,120.817,2,2.54703,-10466.6,-4881.65,-6007.48
1.1628e+08,90.8965,2,2.97967,-3874.69,-9746.7,-12886.1
1.16334e+08,115.719,0,2.65272,10813,8225.77,-8493.47
1.16372e+08,19.4238,0,2.62665,2695.01,2534.7,-26920.5
1.16582e+08,54.5224,2,2.4362,-3173.58,-7243.22,-20339.8
1.16681e+08,55.3203,0,2.66413,3592.26,-4556.43,-18676.2
1.17592e+08,24.7257,1,2.44932,2435.51,1825.61,-24581.8
1.17662e+08,3.11012,1,2.83166,-331.95,1.01983,-28226.2
1.17671e+08,7.88164,0,3.06081,736.082,-23.7765,-27293.4
1.17687e+08,7.22897,1,2.72164,621.757,1146.69,-29748.4
1.18023e+08,9.32036,1,2.9331,-1095.37,256.494,-27166.4
1.18096e+08,36.2587,1,2.81369,2845.32,2398.65,-22138.6
1.18097e+08,78.673,1,2.89328,-8112.8,13648.5,-23898.4
1.18201e+08,29.0773,0,3.02036,-3461.57,1995.1,-28037.1
1.18272e+08,42.0408,0,2.57619,6046.21,77.7241,-22253.4
1.18772e+08,2.72809,1,2.61132,-386.252,560.564,-28952.6
1.19022e+08,206.572,2,2.99018,18881.1,-19820.1,-6711.09
1.19033e+08,38.9692,0,2.57306,8237.78,-1173.43,-29189.3
1.19097e+08,107.891,2,2.58009,-12812.4,-18652.7,-25399.6
1.19202e+08,13.8367,1,2.69837,-2285.38,1803.05,-28108.1
1.19753e+08,1.94008,0,2.70196,193.975,-212.436,-28469.7
1.19805e+08,22.3871,1,2.54353,-4721.28,-624.218,-28293.5
1.20616e+08,37.5626,1,2.50964,-1360.58,6199.84,-23932.9
1.20825e+08,116.427,2,2.37786,3235.79,-21449.6,-17007.1
1.20842e+08,114.572,0,2.96729,-2538.05,15405.1,-10551.3
1.21214e+08,44.5738,1,2.72206,-4076.89,-5358,-22287.9
1.21322e+08,17.2099,0,2.39946,2876.98,2205.28,-28057.3
1.21434e+08,23.7685,1,2.54955,3351.99,3776.6,-29335.7
1.21556e+08,134.345,1,2.89759,559.454,-27932,-25390
1.21774e+08,57.8282,0,2.36877,-2081.35,-10843.1,-23573.1
1.21786e+08,53.0419,0,3.04641,-6140.91,-1673.89,-26008.8
1.21868e+08,26.8024,0,2.98223,5689.33,622.438,-29340.7
1.21872e+08,14.5518,0,2.72841,-2758.1,-608.775,-27790.4
1.21918e+08,249.038,0,3.03681,24653.1,-25571.6,-945.843
1.22284e+08,117.127,1,2.42708,17069.9,-3530.16,-11245.6
1.22362e+08,119.347,2,2.70645,-7318.39,-23867.3,-25152.8
1.22428e+08,14.0786,1,2.79139,2238.56,-645.043,-27083.1
1.22597e+08,3.73758,1,2.73712,-274.403,852.081,-28745.7
0,3.68348,1,2.49022,0,0,0
1.22736e+08,32.4492,2,2.64462,-5962.65,-3521.86,-29022.3
1.23166e+08,94.7711,1,2.58929,230.443,-14161.6,-14725.9
1.23234e+08,156.215,0,2.70691,18924.3,-26564.3,-23897.1
1.23587e+08,141.274,2,2.83325,-7830.68,-28522,-25203.6
1.23602e+08,87.0106,1,2.8822,5949.67,15890,-21883.6
1.23619e+08,68.2391,2,2.78268,-13369.8,-5514.8,-28885.6
1.23722e+08,101.179,1,2.64491,4079.22,11543.4,-11287.9
1.24074e+08,150.255,0,2.60498,-87.2737,240.836,-29076.9
1.24173e+08,153.297,1,2.96074,-4653.34,22986.1,-6891.95
1.24638e+08,74.7199,2,2.96153,6879.84,7018.25,-16674.8
1.24884e+08,23.64,2,2.96686,-3284.41,-2170.71,-25697.4
1.25295e+08,2.7578,1,2.64205,-380.046,-405.267,-28721.1
0,2.7434,1,2.45607,0,0,0
1.25416e+08,178.496,0,2.63828,25140,20539.6,-9638.43
1.25708e+08,1.89523,0,2.95685,-312.824,56.7965,-28719.5
1.25884e+08,70.31,0,2.83669,803.044,-1722.5,-19521.4
1.26402e+08,24.8976,2,2.79864,-1199.51,-2405.78,-24277.1
1.26579e+08,14.3977,2,2.8972,-2204.42,883.95,-26911.4
1.27255e+08,37.2461,2,2.84999,-6865.57,2382.03,-25784.9
1.2747e+08,1.95962,0,2.9913,488.588,73.6145,-28846.9
1.27592e+08,13.7231,1,3.01002,-2590.18,77.8866,-27430.9
1.27663e+08,134.055,1,2.88409,-21388.9,-16450.4,-21312.9
1.27906e+08,92.0144,2,2.9085,-6260.04,-15053.8,-18737
1.28106e+08,2.07262,0,2.97786,436.639,-297.54,-28952.2
1.28622e+08,103.58,0,2.60128,-9736.92,-16361,-18115.4
1.28688e+08,1.20063,2,2.94118,-156.067,-241.654,-28662.2
0,1.20077,2,2.36431,0,0,0
0,1.68671,0,3.01232,0,0,0
0,1.21355,2,3.00302,0,0,0
1.28699e+08,99.6163,2,3.03558,-19156.2,8352.74,-28583
1.28775e+08,72.7285,0,2.42926,10624.5,10571.1,-24994.5
1.28822e+08,66.5391,0,2.51062,7663.8,11502.6,-25980.3
1.28991e+08,74.0897,1,2.56092,14462.6,5367.37,-26125.3
1.29291e+08,12.894,1,2.77909,873.857,-1537.18,-26849
1.29704e+08,69.6404,2,2.80949,1946.12,-6555.93,-15845.1
1.29737e+08,62.9296,0,2.98196,5859.39,9930.84,-23722.2
1.29908e+08,36.2617,2,3.02827,-527.521,-4742.14,-22869.8
1.29911e+08,40.1648,0,2.53766,659.821,-5412.06,-22301.7
1.30016e+08,40.948,0,2.47798,-7487.59,-3455.68,-26396
1.30346e+08,127.885,1,2.53995,4133.13,20297.2,-11414.8
1.30396e+08,202.417,2,2.64504,29788.3,12003.7,-734.921
1.30461e+08,10.4769,1,2.61806,-1367.82,1310.23,-27531.3
1.30583e+08,43.7767,1,2.79916,2088.82,-4589.3,-21155.9
1.30888e+08,117.185,2,2.6217,-2460.79,11352.9,-7053.62
1.31007e+08,131.333,2,2.46485,4855.73,-27384.5,-27042.6
1.31007e+08,20.0902,0,2.4058,1692.47,-3749.76,-27535.3
1.32039e+08,28.4596,0,2.5564,3556.89,-747.648,-23958.3
1.32097e+08,58.4379,0,2.96298,9796.55,-5891.96,-24184.3
1.32108e+08,46.0729,2,2.87756,5360.31,-7960.17,-27086.3
1.32406e+08,149.199,1,2.96933,-2575.13,29037.9,-17253.2
1.32495e+08,96.8526,2,2.69889,9103.44,2967.95,-10825.7
1.32601e+08,4.88333,2,2.94978,783.133,-698.018,-29071.2
1.32656e+08,54.4238,2,2.57765,-3521.67,-7532.6,-20799.2
1.32685e+08,103.793,1,3.04149,17171.5,12071.5,-27439.9
1.32975e+08,32.996,2,2.70121,-15.2192,-6259.9,-25655.6
1.32977e+08,5.57847,0,2.48074,-355.466,962.691,-28272.2
1.33644e+08,10.7345,0,2.49521,-774.728,565.259,-26789.4
1.33667e+08,112.436,2,2.8602,-15051.9,-17906.9,-24931.4
1.34138e+08,64.1946,2,2.54195,-9562.91,8781.57,-24830
1.34197e+08,72.6591,2,2.37648,3305.05,-9378.34,-17042.1
1.34281e+08,23.7947,0,2.43524,2014.05,4622.75,-28271.6
1.34527e+08,69.5949,1,2.75323,-5710.78,13606.9,-28558.3
1.34611e+08,85.561,2,2.80365,16703.5,-6702.87,-29286.2
1.3479e+08,73.1901,1,3.04055,3941.01,14546.6,-25656.2
1.34934e+08,18.9296,1,2.92363,2825.4,2688.28,-29851
1.35013e+08,66.084,0,2.79051,6668.59,9367.76,-20903.4
1.35101e+08,1.17376,0,2.74122,28.987,170.332,-28635
1.35159e+08,11.1651,1,2.67933,-1164.31,1394.9,-27215.2
1.35538e+08,26.1079,1,2.87316,-1042.09,4559.9,-25819.6
1.35712e+08,7.65749,0,2.46045,1096.53,-1308.02,-28972.9
1.35793e+08,82.3836,0,2.59021,10946.7,1548.55,-15308.4
1.35968e+08,31.6459,0,2.38228,-1975.74,2667.97,-23043.2
1.36035e+08,43.0771,1,2.37064,-1494.98,-7780.64,-24365.3
1.36868e+08,21.5271,0,2.41718,3834.4,13.552,-26228.4
1.37223e+08,37.7164,1,2.48144,-2043.98,7242.25,-25929.5
1.37379e+08,70.1711,1,3.02201,9746.09,10548.9,-25486.7
1.37516e+08,88.9318,0,2.85867,14880.4,3800.69,-18035.7
1.37559e+08,174.524,0,3.0419,12960.1,8137.46,-20482.1
1.37841e+08,122.411,1,2.711,-9348.97,21494.5,-18011.4
1.37854e+08,86.7463,1,2.83563,-4685.12,393.571,-18998.3
1.38198e+08,138.555,1,2.72852,-18356,12194.3,-26924.1
1.38353e+08,62.1732,0,2.96046,7960.18,5842.27,-20205
1.38506e+08,46.5182,2,2.83378,-9146.49,847.936,-25366.8
1.39164e+08,32.2379,0,2.67633,5818.31,3459.83,-27638.6
1.3952e+08,36.9927,1,2.36649,-6789.67,1434.14,-25086.6
1.39522e+08,156.046,2,3.02609,26584.2,-9933.61,-12627.4
1.39524e+08,3.51865,2,3.0239,-535.03,-601.374,-29144.5
1.39781e+08,10.9031,2,2.89487,553.542,1569.25,-27299.8
1.40189e+08,30.9583,1,2.86022,-177.808,-5084.73,-24873.5
1.40381e+08,8.40902,2,2.9768,1367,-507.306,-27812
1.41105e+08,119.706,1,2.81861,-20132.5,12304,-19903.8
1.4128e+08,116.381,2,2.53038,-16232.9,4927.47,-10978.5
1.41293e+08,5.4879,1,2.92784,-277.236,564.75,-27820.5
1.41498e+08,54.1924,1,2.6732,-10128.2,41.7755,-23407
1.41525e+08,155.386,0,2.88378,11939.8,-8410.72,384.124
1.41539e+08,158.164,2,2.85788,-14820.4,-29098.7,-22143.9
1.41547e+08,85.5688,2,2.76177,1953.69,9065.02,-13402.5
1.41715e+08,3.49252,0,2.98989,-250.883,655.097,-28644.5
1.41719e+08,143.918,2,2.96834,-11626.1,26228.9,-19579.6
1.41925e+08,6.18801,2,2.91791,-258.179,376.174,-27603.3
1.41974e+08,129.947,1,2.64799,16542,3873.54,-7305.35
1.42055e+08,191.841,1,2.53398,-22377.3,-5826.48,4470.83
1.42108e+08,76.9004,2,2.6848,6416.35,-11628.9,-20379.5
1.42134e+08,50.7039,2,2.5715,-7248.97,-6696.95,-24489.1
1.42391e+08,59.9717,2,2.96839,9632.03,-6893.46,-24575.5
1.42781e+08,36.7788,2,3.03202,-2469.88,-4750.84,-27589.8
1.43212e+08,120.193,1,2.98744,-2617.62,9448.79,-5590.42
1.4326e+08,163.544,1,3.00396,11056.3,10665.1,-23383.8
1.43471e+08,5.57934,1,2.89147,1087.91,-298.009,-28961.5
1.43981e+08,12.0858,1,2.82596,1203.52,-759.605,-26747.4
1.44067e+08,76.6236,0,2.86558,-14178.2,6585.09,-25278.7
1.44387e+08,184.475,0,2.6294,4117.76,21887.4,3108.73
1.44477e+08,14.3782,0,2.98136,1878.6,2446.31,-28708.7
1.44676e+08,121.603,0,2.51929,21219.8,7943.49,-16549.1
1.44787e+08,47.1137,1,2.62075,6887.61,4301.08,-23043.4
1.44956e+08,22.9905,2,2.78777,-1283.39,-4548.46,-27428.6
1.45131e+08,11.9193,2,2.61707,1392.35,-270.123,-26762.4
1.45171e+08,81.9347,1,2.91738,-14161.9,-6491.05,-21480.6
1.4523e+08,52.0875,1,2.46429,-8284.05,-6029.35,-24832.4
1.45597e+08,150.495,2,2.56379,-29970.7,9592.87,-23983.1
1.45654e+08,66.9301,2,2.99335,-3164.79,-12176,-22410.1
1.46423e+08,9.5848,0,2.92972,129.263,1855.66,-27993
1.46639e+08,95.1137,1,2.50819,16006.3,1303.9,-16778.1
1.47268e+08,143.403,1,2.66712,9389.45,-21013.5,-9329.47
1.47393e+08,10.3487,1,2.59803,429.614,1841.14,-27590.5
1.47603e+08,18.465,0,2.55053,296.291,-2945.93,-26232.8
1.48055e+08,107.068,1,2.8686,21018.3,6752.23,-24455
1.48277e+08,65.0961,2,2.36706,2836.26,-12913.9,-24721.5
1.48335e+08,168.941,0,3.04904,26514.9,-17483.1,-13176.9
1.48387e+08,78.2823,1,2.65835,-7229.09,6313.37,-15322.5
1.48696e+08,91.28,2,2.89004,9098.8,-15116.5,-21183.8
1.48771e+08,24.9935,1,2.50984,257.237,5270.69,-27794.6
1.48833e+08,77.4668,2,2.81079,-15647.1,-3202.7,-25248.4
1.49387e+08,4.0571,0,2.36625,545.564,-652.938,-29220.8
1.49463e+08,73.4294,0,3.00489,8670.49,-12818.6,-28910.7
1.49609e+08,26.9501,0,2.45236,4017.54,-4175.2,-29005.7
1.50297e+08,105.038,0,2.70805,21102.4,3909.03,-23019.9
1.50639e+08,85.2179,0,2.69894,10731.3,7459.97,-16408.8
1.5079e+08,117.259,0,2.40207,8753.88,10629.1,-8152.19
1.50885e+08,292.745,0,2.48283,-24584.5,-11887.9,21012
1.511e+08,216.73,2,2.75503,4365.73,-21103,11433.5
1.5163e+08,21.9362,0,2.60076,3546.78,-2990.2,-28149.3
1.51661e+08,22.941,0,2.92258,-232.213,4060.12,-26209
1.51663e+08,50.2871,2,3.00619,2926.79,-4658.78,-19796.7
1.52135e+08,47.9517,2,2.92156,4681.44,-7543.67,-28276.8
1.5242e+08,157.008,0,2.77305,11907.4,-28814.8,-17795.2
1.52423e+08,121.976,1,2.9536,-328.466,-22.9719,-28442.3
1.52663e+08,75.1039,1,2.71699,-13276.5,-7368.65,-24267.3
1.52672e+08,216.731,1,2.72136,15353.5,27734.4,4087.61
1.52678e+08,157.993,1,2.46436,-11958.3,-12031,-57.4094
1.5298e+08,23.6806,1,2.7691,-2568.17,3748.27,-26541.3
1.531e+08,30.5209,1,2.62406,-3423.59,2555.37,-23917.5
1.53126e+08,58.0946,1,2.86145,-70.6282,-12152.8,-28411.5
1.54896e+08,45.5436,1,2.684,-5868.46,-4592.55,-22772.3
1.5543e+08,26.1964,0,2.43036,-3303.72,-2242.27,-25034.6
1.55438e+08,64.7418,0,2.9198,-9788.88,-5304.8,-21113.7
1.55814e+08,54.2633,0,2.56452,7426.03,-3778.24,-20858
1.55828e+08,80.933,2,2.81802,8688.65,-9113.44,-17315.6
1.55944e+08,61.1333,1,2.80617,-6741.78,10893.5,-26848
1.56025e+08,111.723,1,2.7327,-8300.03,-20702.4,-21459.5
1.5666e+08,107.812,1,2.40629,12600,18645.4,-24854.4
1.56807e+08,7.66731,0,2.70663,1632.42,340.295,-29248.7
1.56849e+08,58.0614,0,2.6519,-2055.87,-7959.99,-19731.9
1.57639e+08,69.3502,0,2.51018,8851.64,4239.11,-19325.9
1.58198e+08,29.0484,2,2.40413,-4658.28,1438.66,-25015.9
1.58568e+08,81.9192,1,2.64944,-231.797,-8819.2,-14010.4
1.5895e+08,32.6714,1,2.71186,-1618.94,5022.08,-24284.3
1.59355e+08,7.99344,0,2.78163,-620.72,-418.926,-27338.2
0,8.00294,0,2.74239,0,0,0
1.59667e+08,123.825,0,2.48689,70.0577,-15876,-8010.71
1.59728e+08,96.5185,1,2.92587,-19784.8,-3697.83,-26131.6
1.59896e+08,5.61678,0,2.96995,361.894,675.166,-27895.3
1.60059e+08,10.9093,0,2.71174,1527.09,191.392,-27047.2
1.60362e+08,40.7243,1,2.67887,-3959.31,7651.76,-27582.5
1.60669e+08,10.0512,0,2.84834,1401.24,-561.373,-27258.3
1.61011e+08,0.602974,0,2.43922,188.845,57.6745,-28747.6
0,0.571534,0,2.42582,0,0,0
1.61059e+08,70.953,0,2.39813,-2006.7,5555.1,-15169.2
1.61071e+08,21.356,1,2.96967,4113.04,1825.93,-29059.7
1.61206e+08,82.3377,2,2.95326,-6269.42,7661.08,-18063.8
1.61466e+08,16.7737,0,2.87644,2568.01,-2391.76,-28075.9
1.61923e+08,154.342,1,2.3898,24526.9,6403.02,-8237.79
1.61985e+08,182.509,0,2.94152,-7692.7,-21589.9,1845.25
1.6235e+08,106.926,0,2.61628,8392.11,18787.4,-19430.6
1.62396e+08,78.2495,2,2.38939,-12295.9,7210.14,-20345.1
1.62703e+08,36.1142,1,3.05762,-5325.58,4364.93,-25525.8
1.63262e+08,27.1121,2,2.75884,-4651.47,-3495.92,-28808.6
1.64053e+08,67.5456,0,3.02063,10145.8,-3279.91,-19419.8
1.6406e+08,149.776,1,2.97123,-18305.6,632.329,-7554.87
1.64692e+08,25.2595,1,2.90783,-1759.56,-4235.86,-26195.6
1.64741e+08,57.8149,2,2.96179,3672.26,-7523.93,-20008.4
1.65376e+08,34.5058,0,2.36662,1407.4,6874.65,-26724.8
1.65791e+08,38.3333,2,2.69344,-1583.4,5936.81,-23642.8
1.66035e+08,180.473,2,2.39593,16159.2,-15402.7,2170.67
1.66274e+08,177.846,0,2.94954,-17815.4,-12335,1478.4
1.66378e+08,104.394,1,2.926,-11241.2,-469,-9995.48
1.66648e+08,80.1553,1,2.62741,-11537,-4847.2,-17411.1
1.68145e+08,74.4419,0,2.80026,13708.6,-7704.87,-29944.8
1.68301e+08,78.4988,0,2.94498,12809.3,-10465.9,-28799.6
1.68452e+08,39.476,0,3.05321,6460.28,4792.87,-26698.1
1.68786e+08,158.04,1,2.7726,17256.3,-4037.44,-728.652
1.68859e+08,26.6073,0,2.90239,-3666.45,1891.53,-25100
1.68981e+08,40.1418,1,3.01194,-7310.72,-3462.11,-26487.1
1.69082e+08,2.82761,1,2.62867,-68.5366,656.486,-28619.2
0,3.00934,1,2.93951,0,0,0
1.69195e+08,10.1506,2,2.39425,707.195,-1644.19,-27580.8
1.69203e+08,76.2707,1,2.73761,-4260,8980.07,-16133.2
1.69237e+08,20.5099,2,3.02377,-2605.38,421.329,-25415.4
1.69891e+08,22.1043,1,2.75007,-1415.03,-1593.62,-24676.2
1.69929e+08,114.796,1,2.56625,9156.86,4673.21,-16843.3
1.70044e+08,40.2466,0,2.86007,7361.97,4096.14,-27287.4
1.70122e+08,65.0576,0,2.42064,10676.2,1460.38,-24765.7
1.70248e+08,125.29,2,2.84196,18860.1,-13543.6,-16332.3
1.70298e+08,20.3234,2,2.5847,584.572,-4302.08,-28528.5
1.70551e+08,15.6816,2,2.7686,-747.695,-3141.14,-29951.6
1.70623e+08,23.2361,2,2.71285,-2344.75,-1465.83,-24719.7
1.70709e+08,68.9449,0,2.9023,9217.65,-9811.05,-23286.8
1.70842e+08,27.3072,2,2.91121,-1570.78,-4971.49,-26227.1
1.71938e+08,6.27137,2,2.64551,208.587,-1355.32,-28474.5
1.72069e+08,3.03386,1,2.81824,-111.847,561.128,-28386.1
0,3.04347,1,2.95318,0,0,0
1.7222e+08,19.0255,2,2.84956,-3967.17,752.057,-29063.2
1.72284e+08,32.9657,0,2.54945,6184.49,3396.23,-28554.2
1.7233e+08,74.8127,0,3.00349,14063.1,2591.52,-22159.9
1.72408e+08,20.2621,0,2.50333,1342.87,-3988.36,-29923.4
1.72873e+08,7.54003,1,2.6856,-850.851,332.484,-27484.6
0,7.49901,1,2.99928,0,0,0
1.72906e+08,41.1834,1,2.79524,-6168.73,3332.69,-23624.6
1.73344e+08,38.319,0,2.67611,7659.37,2903.52,-28732
1.73372e+08,226.883,2,2.83049,-15384.6,-8901.62,-5602.51
1.73392e+08,46.9257,0,2.63666,6440.13,-5449.67,-23496
1.73829e+08,43.1787,0,2.57894,3335.05,3834.17,-21198.6
1.74526e+08,3.99195,1,2.8663,-360.652,873.269,-28798.4
1.74598e+08,7.44613,1,2.6669,-1275.3,339.673,-27895.7
0,7.34622,1,2.93618,0,0,0
1.74878e+08,186.735,0,2.61953,6818.25,-26893,-23434.1
1.7561e+08,101.827,1,2.74997,-13599.8,8134.07,-14312.4
1.75717e+08,44.9854,2,2.56367,8895.27,693.257,-25580.3
1.75854e+08,93.8045,1,2.61324,-18050.8,3487.56,-21276.1
1.75931e+08,107.292,2,2.60188,-17823.3,-1521.09,-14871.8
1.75963e+08,193.763,2,2.95504,23273.4,-8517.27,3382.62
1.76344e+08,183.953,1,2.4418,15611.1,-11247.8,4928.77
1.76496e+08,137.286,1,2.90262,-24686.2,13356.7,-21888.7
1.76544e+08,33.1652,1,3.03399,-5546.06,-3059.39,-25933.2
1.76669e+08,33.2307,1,2.97896,-3390.6,4917.27,-25070.1
1.7673e+08,58.9582,0,2.8416,5847.35,4701.94,-18915.9
1.76747e+08,136.615,2,2.87815,27456.6,-8082.66,-26689
1.76748e+08,62.2241,1,2.95408,11190.8,6469.8,-26858.2
1.76891e+08,46.7413,1,2.72754,2941.29,8150.25,-23994.5
1.76892e+08,84.4346,0,2.61999,16514.6,2394.77,-22325.5
1.77247e+08,107.617,2,2.9076,7236.54,-19709.9,-20341.2
1.77818e+08,26.4467,1,2.60127,-4350.31,3473.49,-29990.9
1.77942e+08,172.569,2,2.79295,9526.45,29113,-9457.45
1.78399e+08,104.992,1,2.88303,-11343.7,11149.2,-13464.9
1.78849e+08,149.552,2,2.80532,-9079.64,18958.4,-5458.8
1.78938e+08,11.1801,0,2.62607,578.985,-2348.34,-28925
1.79112e+08,53.8933,1,2.7181,3186.71,6576.58,-23982.3
1.79347e+08,116.77,2,2.44555,-16293.3,-13535.7,-15987.5
1.79398e+08,109.852,1,2.67008,6608.38,17141.5,-14629.3
1.79474e+08,16.2653,2,2.50447,-3193.54,-434.725,-27430.6
1.79962e+08,67.6044,2,2.94947,-635.319,-6556.29,-16520.9
1.80026e+08,144.301,0,2.60414,20268.3,-4360.52,-6418.43
1.80112e+08,14.9834,0,2.71617,1779.24,-926.259,-26333.4
1.80219e+08,183.404,1,2.61937,-22932.4,4491.1,2085.83
1.80378e+08,12.137,1,2.5672,1588.69,-1853.24,-28307.3
1.80785e+08,104.111,2,2.41777,945.48,-13106.5,-11172.2
1.8086e+08,60.068,2,2.78901,178.64,-11612.7,-23653.6
1.81243e+08,89.0273,1,2.46347,9964.78,-894.673,-12891.8
1.81329e+08,22.3774,2,2.91435,152.725,-4147.26,-26465.6
1.81418e+08,54.634,2,2.69805,8816.07,2780.41,-22043.7
1.81478e+08,213.22,0,3.04717,21560.1,-11321.1,8628.43
1.81507e+08,18.046,1,2.74982,-957.364,3781.76,-28605.4
1.8182e+08,49.0509,0,2.5124,458.335,-3924.35,-29628.6
1.81854e+08,108.432,1,2.7104,12512.3,11349.1,-13391
1.81979e+08,65.945,0,2.89253,302.516,11888,-21724.4
1.82164e+08,54.064,1,2.36294,-2135.79,8580,-21440.4
1.82166e+08,1.75999,0,2.50632,298.304,104.276,-29145.7
1.82234e+08,53.6686,1,3.06129,-8590.19,-6381.57,-25373.5
1.82287e+08,79.3769,0,2.91772,7999.58,10445.1,-18524.5
1.82306e+08,17.6047,2,2.71128,2179.11,2730.22,-27731.1
1.82381e+08,5.03786,0,2.40945,990.47,309.246,-29381.2
1.82538e+08,12.3242,0,2.79525,-1478.72,-2050.55,-28329.1
0,11.7274,2,2.81676,0,0,0
0,11.6498,2,2.44519,0,0,0
1.82549e+08,117.93,2,2.92615,-11549.2,-14156.9,-12033
1.82774e+08,68.0798,2,2.37092,-7920.95,3702.53,-17347.9
1.82977e+08,49.7745,2,2.50814,-3826.33,-2884.28,-19420.1
1.83023e+08,173.391,0,2.8744,11473.1,25787.4,-5742.66
1.83065e+08,1.91912,1,2.61706,-136.598,-278.737,-28649.8
1.83723e+08,12.0471,0,2.57707,-240.253,-2420.89,-28077.6
1.83766e+08,190.456,0,2.49119,-1911.18,-13162.7,-12339.8
1.83797e+08,71.7346,1,2.85718,-11993.8,3025.05,-20108.7
1.83901e+08,140.502,1,2.68848,5587.26,20790.2,-8412.89
1.83907e+08,97.2304,1,2.81738,15250,9960.19,-19468.5
1.84701e+08,38.9084,1,2.67546,5308.29,5875.13,-26495.4
1.8521e+08,57.7657,2,2.64219,-5928.79,-5318.18,-19525.2
1.85507e+08,48.1208,1,2.73465,-771.882,6715.33,-21187.4
1.85738e+08,39.4927,2,2.81944,-1502.24,5772.93,-23115
1.85816e+08,24.1582,1,2.7586,1311.28,4774.83,-27491.2
1.86082e+08,23.8716,0,2.97135,2852.21,1861.94,-25075.3
1.86148e+08,71.0972,2,2.52841,-7011.56,512.782,-15508.5
1.86287e+08,163.596,0,2.67548,-13717,16746.4,-19147.6
1.87305e+08,129.456,1,3.04285,-19371.4,-10831.9,-13220.6
1.87362e+08,17.0299,0,2.53324,2668.19,1501.53,-26851.6
1.87388e+08,211.788,1,2.53244,21979,17829.1,5866.27
1.87639e+08,9.39745,2,2.93552,-1919.53,-756.298,-28895.3
1.87712e+08,69.0238,1,2.82781,-14126,-2513.32,-26276.2
1.87916e+08,109.06,1,2.7634,-15732.7,-9824.79,-15298.4
1.88079e+08,16.649,1,2.52633,1997.02,899.247,-26053.4
1.88701e+08,43.4189,2,2.891,-6749.75,-1368.59,-22786
1.88793e+08,39.7015,2,2.76408,-8089.07,1986.05,-27594
1.89075e+08,141.616,0,2.77295,8933.24,-12515,-3256.9
1.89081e+08,182.403,2,2.69582,-4234.21,20592.9,3324.17
1.89405e+08,121.816,0,3.03273,5226.47,4099.72,-23580.7
1.89488e+08,5.53427,2,2.71924,-1039.86,557.673,-28789.8
1.89489e+08,114.721,2,2.70817,-8734.82,8886.6,-8125.74
1.89826e+08,100.437,0,2.91181,18489.4,-9745.22,-25412
1.90031e+08,132.292,0,2.932,10281.1,9317.25,-4744.2
1.90052e+08,8.28979,2,2.98604,41.9881,-1144.95,-27451.3
1.90171e+08,63.3578,0,2.5519,5299.4,-7813.01,-19260.6
1.90213e+08,113.265,1,2.56587,1865.5,12728.8,-26196.2
1.90509e+08,220.164,0,2.64672,-19330.1,-20258.3,8203.57
1.90809e+08,113.76,0,2.89464,-5492.95,15812.7,-11842.2
1.90973e+08,54.4202,2,2.47899,-2575.26,-10493.5,-24591.6
1.91037e+08,34.3003,0,2.98589,-4216.97,-4230.31,-24875.5
1.9195e+08,37.8378,1,2.9116,7254.27,-1388.29,-25982.3
1.91984e+08,0.090222,1,2.32751,-88.813,62.3139,-28812.8
0,0.0858204,1,2.07233,0,0,0
0,0.0786101,1,3.41635,0,0,0
0,0.111296,1,2.48578,0,0,0
0,0.180686,1,4.09603,0,0,0
0,0.0816635,1,3.5397,0,0,0
0,0.108862,1,2.26432,0,0,0
0,0.0775816,1,2.62486,0,0,0
1.92158e+08,156.576,1,2.93834,13998,26909.4,-16041.7
1.92404e+08,178.571,2,2.91948,1413.23,-27352.6,-3207.12
1.92782e+08,42.8395,2,2.71521,-8231.89,3367.67,-27156.4
1.93459e+08,72.16,2,2.50438,-11298.8,-749.967,-18526.9
1.93748e+08,14.2467,2,2.39939,2525.43,253.794,-27241.8
1.9388e+08,37.3089,0,2.90256,7184.63,3165.43,-27760.7
1.94039e+08,113.958,0,3.03266,23820.5,-1279.36,-26455.9
1.94549e+08,23.7878,0,2.75244,1860.98,-3273.13,-25487.1
1.94745e+08,3.14788,2,2.72141,-215.091,-683.46,-29089
1.95053e+08,29.6979,0,2.58889,-2875.43,-4515.06,-25624.7
1.95302e+08,50.974,2,3.03259,-2718.41,-8339.31,-22585.4
1.95501e+08,32.8192,2,2.42348,-3822.74,-5404.34,-26429.3
1.95671e+08,19.0698,0,2.71415,3232.55,-249.867,-26312
1.95744e+08,81.4347,0,2.37087,8252.36,15173.7,-28489.7
1.96251e+08,121.227,1,2.88134,4213.54,-10036.1,-25257.6
1.96386e+08,161.746,0,2.44906,28899.8,-13713.2,-16455.5
1.96486e+08,116.551,1,2.43783,-4415.43,12721.7,-8119.18
1.96615e+08,20.978,1,2.91857,-3455.81,2873.67,-29230.1
1.96798e+08,22.2945,2,2.97347,1808.35,2777.92,-25595.7
1.9681e+08,114.462,0,2.78797,11280.2,20896.5,-24462.9
1.96947e+08,23.433,1,3.04424,-879.894,956.189,-28524.5
1.97261e+08,89.6983,1,2.83041,-18065.9,-2742.27,-24006.6
1.97593e+08,85.2659,0,2.79943,12119.1,-6714.45,-17359.5
1.97594e+08,177.856,0,2.6499,-15505.3,7144.45,4541.11
1.9765e+08,22.7985,2,2.61622,3850.3,1895.59,-26723
1.97726e+08,35.5042,0,2.65948,3322.92,-2338.05,-22484
1.9773e+08,3.57574,2,2.64779,-27.4585,-481.353,-28197.4
0,3.84464,1,2.65543,0,0,0
1.97859e+08,135.315,0,2.77505,22885.3,14426.3,-24961.4
1.9788e+08,57.971,2,2.50266,8961.61,-7243.22,-24539.8
1.98379e+08,163.833,0,2.91442,18092.3,-29182.3,-26193
1.98734e+08,100.777,2,2.92449,-14659.7,10654.3,-22888.7
1.98793e+08,75.0423,1,2.4642,10683.1,6088.57,-18754.7
1.98818e+08,48.914,0,2.69848,-5597.79,3388.28,-20882.9
1.99061e+08,96.1602,2,2.40215,-1025.69,-8690.27,-10415.1
1.99322e+08,112.595,0,2.96484,16247.7,-283.93,-11604.3
1.99551e+08,14.6467,0,2.44619,-1638.42,456.292,-26257
1.99939e+08,6.78563,2,2.77701,1080.09,-998.663,-28644.4
2.00404e+08,11.3883,0,2.49298,-1286.48,1180.74,-27202.9
2.00423e+08,90.7916,0,2.96994,4038.44,-8875.51,-12471
2.00851e+08,247.258,1,2.94046,-9144.72,26203.5,15043.1
2.01373e+08,95.9433,2,2.44876,3822.98,-15875.9,-16670.6
2.01578e+08,21.8524,0,2.88654,-1425.48,1732.68,-24823.1
2.02096e+08,129.493,2,2.65451,-7737.08,-14505.9,-6973.94
2.02264e+08,115.706,1,2.76511,-16373.1,5977.97,-11729.7
2.023e+08,36.7324,1,2.81233,-7776.41,291.861,-29048.5
2.02615e+08,163.653,1,3.00521,-9031.51,29913,-14504
2.0264e+08,73.9525,0,2.66245,13929,7020.53,-27094.1
2.02781e+08,71.6138,0,2.51368,8039.93,7675.36,-18471.3
2.03023e+08,28.1831,0,2.61269,5217.02,2956.93,-28047.1
2.03029e+08,18.1779,0,2.63647,3811.56,-198.355,-29872.7
2.03128e+08,112.944,1,2.45764,-13535.7,-8760.25,-11335.6
2.03235e+08,22.2837,0,2.5361,-120.275,4432.98,-27182.2
2.03451e+08,50.0562,2,2.79593,919.695,-7640.51,-21545.9
2.0348e+08,20.0865,2,2.46973,-1236.89,-2246.11,-25385.6
2.03686e+08,70.7809,0,2.5494,13228.9,6791.62,-26514.9
2.03879e+08,79.95,1,3.00382,-6774.1,12790.7,-20219.4
2.04032e+08,132.52,2,2.59585,-24156.6,13034.1,-24764
2.04374e+08,49.3965,2,2.72911,2507.07,-10144.6,-29927.7
2.04391e+08,181.956,0,2.71548,3757.44,-9782.72,6719.41
2.04691e+08,56.3159,1,2.53771,2772.42,8159.61,-20531.3
2.04726e+08,136.171,0,2.44992,-9880.55,-14144.9,-5800.11
2.04815e+08,46.8688,1,2.73126,-4310.64,8508.89,-25893.8
2.05193e+08,189.936,1,2.84903,-13212.3,18314.6,4154.33
2.05247e+08,7.60953,1,3.01113,-790.422,1519.16,-28975
2.05525e+08,90.1169,0,2.99694,2533.41,7487.52,-22317.1
2.05556e+08,67.5492,1,2.94366,-24.4343,-9664.3,-18530.2
2.05993e+08,14.2307,2,2.9952,1309.61,608.48,-26251.6
2.0627e+08,89.1581,0,2.71398,10985.6,8206.07,-15895.5
2.0629e+08,157.464,0,2.44475,-21807.4,-11382.2,-13442.6
2.06642e+08,7.56153,0,2.39885,933.919,-283.834,-27484.5
2.06653e+08,51.527,1,2.65854,-6805.87,-3779.99,-21232.4
2.07348e+08,114.409,0,2.8865,-4732.89,12852.1,-9085.6
2.07527e+08,43.1919,1,2.49011,-3567.86,-3457.42,-21161.5
2.07657e+08,48.005,2,2.59186,-4443.57,-5464.25,-21436.2
2.07729e+08,146.853,0,2.5167,17330.7,21536.3,-14575.9
2.08097e+08,5.06457,1,2.86449,-459.909,1082.65,-28750.4
2.08635e+08,69.4327,1,2.76876,11791.5,6026.12,-22606
2.08768e+08,86.284,2,2.45583,-3746.61,-16508,-27066.4
2.09283e+08,47.1972,1,2.55684,-6254.01,611.582,-21027.2
2.09294e+08,14.3756,1,2.46562,-2984.14,-411.872,-29537.8
2.09602e+08,31.6301,1,2.72134,-2298.51,-2840.77,-23378.5
2.09818e+08,33.3843,1,2.46824,-453.533,-552.133,-28828.6
2.09883e+08,9.30084,0,2.41621,-120.499,-731.801,-26996
2.10004e+08,33.8684,2,2.58934,-5576.89,-3685.42,-26016.1
2.10085e+08,13.5866,2,2.74279,2445.83,-1277.41,-28034.6
2.10456e+08,16.0528,0,2.87862,-1045.13,-971.354,-25795.4
2.10664e+08,0.491245,1,2.65619,-153.077,4.20409,-28797
2.10776e+08,9.16248,0,2.76743,806.33,-1619.42,-28018.2
2.10951e+08,80.7581,0,2.80976,16320.7,331.839,-23787.7
2.11235e+08,313.922,2,2.44691,16455.1,-4736.91,-9698.05
2.11536e+08,169.159,1,2.95364,21070.5,25932.2,-16847.2
2.11587e+08,18.906,1,2.39013,3022.87,2690.87,-28722.5
2.11655e+08,84.4437,2,2.87402,12300.6,-3580.06,-16562.7
2.11725e+08,36.7928,1,2.4518,-1804.13,4944.95,-23002.9
2.1177e+08,58.0318,1,2.75058,-8199.19,-6429.23,-22442.4
2.11824e+08,11.6586,0,2.5659,71.9683,-1254.81,-26703.5
2.11891e+08,5.25564,2,2.81445,-543.423,-1047.65,-28514.6
2.12116e+08,102.669,1,2.39499,1368.49,-11876.5,-10734.9
2.12192e+08,54.1446,2,2.58044,-7363.98,-7580.97,-24207.8
2.12218e+08,73.5919,0,2.50053,580.364,14481.5,-23139.9
2.12536e+08,112.958,1,2.67552,4632.86,21753.2,-20102.4
2.12788e+08,66.8582,0,2.70712,2406.48,-6011.69,-16813.9
2.12891e+08,18.2031,2,2.55877,830.191,-2418.81,-25885.9
2.13227e+08,117.862,0,2.77877,-13050.6,3732.8,-8115.01
2.13549e+08,71.2663,1,2.62242,4465.58,-4880.33,-15398.7
2.13623e+08,8.59745,1,2.98326,1539.68,981.834,-29031.6
2.13628e+08,26.3661,2,2.42794,-1335.41,-5200.9,-27009.2
2.13641e+08,3.39372,1,2.64545,257.234,435.736,-28262.2
2.14057e+08,64.7983,0,2.50683,6556.07,10877.7,-23533.9
2.14243e+08,108.319,0,3.01269,17704.7,11376,-20136.1
2.14257e+08,39.2828,1,2.64146,-5384,-5191.91,-25270.5
2.1443e+08,141.409,1,2.76113,-20046.7,22135.2,-27721.9
2.1472e+08,49.1542,0,2.50098,9979.36,-923.624,-25774.3
2.14841e+08,37.9144,0,2.91781,-4267.77,-4623.77,-23985.4
2.15182e+08,63.0098,0,2.36341,10336.9,-4446.62,-21522.2
2.15378e+08,7.57297,0,2.48487,-195.489,-695.107,-27425.4
2.15676e+08,38.9226,1,2.45559,-4225.94,7077.09,-27517.9
2.15835e+08,27.582,1,2.82852,523.078,3962.74,-24588.1
2.16033e+08,66.0513,0,2.97552,10631.1,8201.27,-25060.6
2.16265e+08,19.3092,0,2.58234,358.377,-4066.88,-28386.2
2.16655e+08,29.4019,1,2.66445,-33.2298,3791.11,-23868
2.16691e+08,12.9269,2,3.03167,1519.46,1798.84,-27652.5
2.16747e+08,52.9144,0,2.60101,-376.835,-817.792,-29106.2
2.17027e+08,15.3699,2,2.9858,-1985.17,1038.21,-26510
2.17197e+08,12.3115,1,2.88981,-2365.67,1242.06,-29234.7
2.17261e+08,92.7182,0,2.45032,-2514.61,-17147.5,-19635.8
2.17519e+08,51.8187,1,2.79349,-8878.76,5792.13,-25978.9
2.17651e+08,37.159,1,2.80952,-2680.94,-4296.91,-22906.4
2.17765e+08,18.0308,2,2.94243,-1845.17,-1454.46,-25795.2
2.17808e+08,176.158,2,2.50438,-25561.1,1751.34,-13358.9
2.17893e+08,45.2013,1,2.62339,-7229.4,5649.38,-25977.7
2.17945e+08,32.3318,1,2.51172,625.72,3489.57,-22929.6
2.17964e+08,130.613,2,2.42452,-25801.2,1681.21,-19000.6
2.1826e+08,73.1653,2,2.4954,-10558.4,7589.62,-20410.3
2.18336e+08,75.2147,2,2.56855,-203.251,-303.864,-28776
2.1838e+08,40.583,2,2.72947,4790.6,-1385.06,-21879.3
2.18548e+08,57.414,2,2.59083,7756.89,7503.92,-23424.6
2.18594e+08,31.9197,1,2.87277,2583.66,-5020.97,-25302.7
2.18747e+08,74.384,0,2.61066,-516.282,-8766.65,-15798.3
2.18896e+08,66.6567,0,2.75335,6740.08,3170.69,-29848.8
2.19503e+08,158.696,1,2.3652,19495.8,-12157.4,-4384.78
2.19761e+08,46.6939,1,2.90708,-4654.33,3509.25,-20895.2
2.19805e+08,6.71667,0,2.94108,1182.28,-727.517,-28254.3
2.20224e+08,48.1989,0,2.70639,-2245.59,-8737.99,-24140.9
2.20663e+08,12.4451,1,2.43325,-2121.49,1595.92,-29348.3
2.2099e+08,206.937,1,3.00933,-24414.9,12324.5,-26211.1
2.21571e+08,49.1338,0,2.77585,7487.76,-6199.43,-25073.4
2.22112e+08,1.82287,1,3.02416,-111.527,417.092,-28640.9
2.22112e+08,39.9505,0,2.63194,-2065.51,-3258.16,-21351.4
2.22324e+08,94.3474,1,3.03539,3495.11,-17423.4,-20317.3
2.22478e+08,133.795,2,2.59808,-25721.6,8832.99,-21025.6
2.23067e+08,125.319,1,2.45895,-2374.96,-16150.4,-8029.67
2.23195e+08,62.2979,2,2.83742,7927.2,-8385.9,-22557.1
2.23289e+08,13.3576,2,2.47543,-856.124,-2129.43,-27067.1
2.23484e+08,198.458,0,2.96135,-589.779,3915.19,-21765
2.23966e+08,8.29646,1,2.47103,557.237,1641.79,-28224.6
2.24381e+08,120.455,2,2.86891,-17776.8,1250.02,-10821.6
2.24433e+08,194.1,2,2.6077,-22668.8,6521.87,509.596
2.2449e+08,258.949,2,2.61827,-1919.98,-24447.8,20047.1
2.24697e+08,137.488,1,2.76751,16031.3,-21219,-17582.4
2.24797e+08,41.7495,1,2.69371,8326.7,2807.86,-29360.9
2.24954e+08,125.727,1,2.93035,-2604.38,21734.5,-14011.8
2.25189e+08,89.1555,0,2.65543,-8120.33,-2169.69,-12028.7
2.25235e+08,15.2711,0,2.64579,1125.68,3036.7,-29260.2
2.25329e+08,6.20361,0,2.87698,-641.143,204.158,-27738.7
0,6.15327,0,2.44737,0,0,0
2.25442e+08,76.7073,2,2.70263,-8537.9,-13861.6,-28411.9
2.26109e+08,199.95,2,2.53554,22549.6,-27135.1,-5563.56
2.26203e+08,22.602,0,2.92204,130.221,3059.92,-25168.3
2.26739e+08,11.7499,1,2.83223,52.7893,2524.92,-29351.9
2.27088e+08,55.4454,2,3.0048,-1654.28,-4546.72,-18231
2.27602e+08,22.1055,2,2.96951,3366.86,-1936.13,-28848.9
2.27621e+08,55.1932,2,2.66617,-9456.49,-4327.55,-23431
2.27725e+08,44.8063,0,2.74696,-4537.3,6364.39,-23626.7
2.27973e+08,139.444,0,2.47888,5944.59,-18592.5,-6742.08
2.28022e+08,138.574,2,2.97981,-17817.6,-7637.97,-7117.65
2.28137e+08,118.623,0,2.46121,9195.89,4810.4,-5955.79
2.28434e+08,108.636,1,3.0025,9581.9,8312.6,-9891.8
2.28485e+08,33.2656,1,2.50602,-3369.08,3628.2,-23744.5
2.28544e+08,24.3902,2,2.9982,-322.262,-3025.42,-24657.3
2.2868e+08,191.918,2,2.89643,26011,12038.3,-593.266
2.28733e+08,42.7739,2,2.5724,-5535.43,-6468.7,-25558.8
2.28977e+08,23.9046,0,3.03944,4986.62,-793.708,-28249.3
2.29134e+08,19.9856,0,2.98881,2424.15,3422.76,-28305.2
2.29143e+08,2.78632,2,2.5674,-32.8369,-340.631,-28304.9
0,2.68981,2,2.46673,0,0,0
2.29191e+08,39.276,1,2.822,-1241.74,4516.71,-21955.8
2.29314e+08,76.1058,2,2.58049,-4382.37,-15380.9,-26499.6
2.29445e+08,58.2671,2,2.45316,-2508.88,-7727.31,-19488.9
2.29534e+08,140.291,0,2.62221,21488.3,-745.956,-8382.7
2.2994e+08,62.4215,2,2.50506,7871.59,-5253.96,-19605
2.30303e+08,41.4213,2,2.38968,-4831.96,-6655.36,-25546
2.30357e+08,108.018,2,2.86179,4204.49,20274.7,-22142.1
2.30442e+08,119.076,0,2.60875,5877.26,-14170.1,-8873.43
2.30597e+08,37.6475,2,2.80865,-6986.61,2214.55,-25707.8
2.30885e+08,39.2797,2,2.63,-5319.98,-3423.14,-23358
2.31526e+08,289.785,0,2.67329,20282.3,10238,15020.5
2.31748e+08,208.241,2,2.88019,24110.7,-19805.6,-19907.5
2.31794e+08,31.944,0,2.80442,3196.82,-4059.31,-24435
2.32092e+08,36.1864,0,2.92235,-1473.33,-5066.43,-23346.9
2.32154e+08,154.632,1,2.67587,4540.05,9885.96,-5467.08
2.32208e+08,12.6222,1,2.70709,-2614.32,-585.773,-28542
2.32232e+08,99.7007,0,2.6198,-359.843,18040.9,-18052.3
2.32398e+08,169.042,2,2.83106,-18020.3,3382.36,-24790.5
2.32854e+08,32.5109,1,2.67925,-4701.14,2153.69,-24247.7
2.3296e+08,32.1431,2,2.5932,-3829.76,-5203.47,-26429
2.33355e+08,10.8512,2,2.48036,696.162,-1865.22,-27547.7
2.33448e+08,0.309198,2,2.52436,-45.0099,-120.241,-28780
0,0.261458,2,2.69577,0,0,0
0,0.335253,2,2.71373,0,0,0
0,0.213929,2,2.50281,0,0,0
0,0.215426,2,3.02021,0,0,0
2.33762e+08,6.34224,1,2.51636,-478.046,774.767,-27746.7
2.33795e+08,60.1825,0,2.88,11891.4,-1830.14,-24735.4
2.33848e+08,94.1641,2,2.53152,-12002.6,-319.257,-12916.9
2.3431e+08,79.0714,0,2.92644,11012.8,5409.11,-17593.5
2.34788e+08,137.735,0,2.96099,5376.88,-15503.5,-5061.93
2.34913e+08,113.987,1,2.84582,9630.06,8210.43,-8512.74
2.34941e+08,27.9128,0,2.92558,5503.68,-808.068,-26750.5
2.35079e+08,27.198,1,3.0534,1003.24,-3841.81,-24841.7
2.35562e+08,130.324,0,2.36755,16874.9,3961.79,-7313.06
2.35898e+08,18.5081,0,2.91487,-3269.67,-130.829,-26829.1
2.35923e+08,8.29144,1,2.66978,1086.34,548.482,-27548.9
2.36126e+08,71.9925,2,2.67246,3896.08,-10248.9,-18281.5
2.36148e+08,41.0421,0,2.91705,4228.09,-446.887,-21274.4
2.36156e+08,442.116,1,3.00898,16690.4,12077.7,2681.23
2.36447e+08,59.8357,2,2.60495,9857.42,-6501.39,-24342.1
2.36552e+08,64.7019,0,2.38555,10983.3,1292.64,-20625.1
2.36659e+08,19.3493,0,2.989,4073.81,116.186,-28145.3
2.36705e+08,81.2305,2,2.62607,-10514.8,9609.63,-19308.8
2.37246e+08,47.6618,2,2.93199,-6908.63,-5728.28,-24208.2
2.37316e+08,68.3244,0,2.7794,5808.73,2721.44,-15905.3
2.38245e+08,184.038,1,3.05853,-9461.58,-14231,5700.21
2.38274e+08,47.2113,1,2.48755,-4018.76,1030.53,-19728.1
2.38358e+08,29.1753,0,2.37541,-1033.65,4857.04,-25155.2
2.3921e+08,160.785,2,2.60929,6029.37,-27041.9,-9099.56
2.39411e+08,59.5013,0,2.82521,8511.32,8041.98,-24267.6
2.39433e+08,126.93,2,2.89311,15870,-20489.8,-22411
2.39787e+08,48.0532,0,2.40344,-1490.29,9642.79,-25961.4
2.39864e+08,15.3051,2,2.76887,-1348.68,2613.97,-27544.4
0,15.4103,0,2.95848,0,0,0
2.40145e+08,107.951,1,2.73528,-2224.23,15122,-11927.1
2.40486e+08,8.57682,0,2.4339,1138.92,1351.75,-28143.9
2.40644e+08,10.7402,1,2.91857,1513.45,1317.54,-27701.5
2.40826e+08,194.842,0,2.49225,-5514.48,-28297.5,-2496.71
2.40961e+08,59.3057,0,2.39194,9469.1,8219.85,-27438.6
2.40986e+08,64.7602,2,2.40733,-2884.69,9658.56,-19623.7
2.41149e+08,70.7136,1,2.42317,-11400.9,9803.79,-29750.9
2.4131e+08,128.526,2,2.93755,-9226.25,8820.65,-5080.49
2.41337e+08,88.4393,0,2.3724,-6593.21,12722.1,-16847.4
2.42005e+08,47.0742,1,2.65167,-2098.9,9683.91,-27368.4
2.42078e+08,50.8764,2,2.95747,9524.14,-1394.44,-24288.4
2.4233e+08,16.3195,0,2.39545,-128.284,-2521.96,-26442.1
2.42396e+08,116.952,0,2.74457,-6094.49,16388.1,-11506.4
2.42561e+08,78.4487,2,2.94009,-13289.9,643.204,-19044.9
2.4279e+08,66.5601,0,2.98486,-5321.6,-8943.19,-27987.3
2.42881e+08,73.4885,2,2.99048,6450.54,-14031.4,-29969.6
2.42939e+08,312.946,1,2.53856,-4919.08,13183.6,-4054.23
2.43247e+08,29.4647,2,2.65628,-4943.41,2046.41,-25627.1
2.43546e+08,115.225,2,2.97552,-9937.7,-3699.38,-7080.13
2.43856e+08,39.4437,0,2.48024,7202.61,-4342.74,-28026.8
2.44508e+08,62.1994,0,2.51217,-1792.39,-9616.17,-20061.2
2.44535e+08,115.056,1,2.87997,9471.73,22267.8,-27929.4
2.44571e+08,33.1503,1,2.68059,458.578,-2694.9,-23055.6
2.44671e+08,72.1603,0,2.37681,14599.9,2519.84,-24724.7
2.44749e+08,0.148019,1,2.42378,-55.4683,79.3902,-28823.5
0,0.0444579,1,2.72602,0,0,0
0,0.158859,1,3.29319,0,0,0
0,0.0610547,1,2.89159,0,0,0
0,0.0434766,1,2.73872,0,0,0
0,0.0515215,1,2.48954,0,0,0
0,0.051664,1,2.32404,0,0,0
0,0.0933032,1,3.17912,0,0,0
0,0.133374,1,2.34668,0,0,0
0,0.153821,1,3.75338,0,0,0
0,0.145206,1,2.46509,0,0,0
0,0.139066,1,3.93955,0,0,0
0,0.144641,1,2.53497,0,0,0
0,0.0414422,1,2.07389,0,0,0
0,0.0930995,1,3.23212,0,0,0
0,0.0556542,1,3.18361,0,0,0
0,0.146963,1,3.59086,0,0,0
0,0.0482215,1,4.04356,0,0,0
0,0.139067,1,2.693,0,0,0
0,0.051649,1,3.21277,0,0,0
0,0.0550903,1,3.55854,0,0,0
0,0.105057,1,3.5354,0,0,0
0,0.0514265,1,2.49404,0,0,0
0,0.102858,1,2.67907,0,0,0
0,0.112969,1,2.51089,0,0,0
0,0.110883,1,3.36039,0,0,0
0,0.159827,1,3.14007,0,0,0
0,0.0689746,1,3.96089,0,0,0
0,0.0832357,1,2.49206,0,0,0
0,0.0718786,1,4.02394,0,0,0
0,0.101055,1,3.07958,0,0,0
0,0.136553,1,3.10448,0,0,0
0,0.049506,1,3.18737,0,0,0
0,0.0513545,1,3.1257,0,0,0
0,0.0740348,1,3.79871,0,0,0
0,0.0542916,1,3.53681,0,0,0
0,0.0496562,1,2.64853,0,0,0
0,0.110873,1,3.55837,0,0,0
0,0.0570343,1,2.53477,0,0,0
0,0.0763168,1,2.67036,0,0,0
0,0.0488599,1,4.07712,0,0,0
0,0.139498,1,3.70429,0,0,0
0,0.0502986,1,3.91451,0,0,0
0,0.113321,1,3.22715,0,0,0
0,0.139625,1,2.96317,0,0,0
0,0.0451754,1,2.94414,0,0,0
2.44786e+08,11.3858,1,2.95626,6.42898,-1360.82,-26889.3
0,11.4387,1,3.01411,0,0,0
2.44796e+08,69.1287,1,2.84791,9766.51,5103.37,-19322.9
2.44882e+08,3.29843,0,2.40258,627.141,-468.808,-28920.7
2.45025e+08,224.516,0,2.61287,-5305.77,-1276.96,-24677.4
2.45375e+08,9.20811,1,2.78427,877.029,1276.48,-27574.9
2.45782e+08,147.411,0,2.61461,-6087.68,29577.3,-21419.1
2.4636e+08,48.4818,0,2.38416,890.848,5732.82,-20355.5
2.46674e+08,10.2745,2,2.84183,-1184.97,-1561.66,-27725.3
2.46711e+08,105.419,2,2.39036,-13347.4,-12189.5,-15626
2.46751e+08,166.984,1,2.52842,-28546.3,12951.3,-12475.3
2.4688e+08,135.614,0,2.89964,-14842.5,22291.6,-19349.5
2.47114e+08,144.254,0,2.72519,-16795.7,-9694.27,-5478.04
2.47143e+08,7.50182,1,2.39106,1295.3,987.878,-28843.9
2.47347e+08,55.9444,2,2.58797,9915.89,-1227.79,-22514.4
2.47356e+08,112.078,2,2.48893,-23583.5,1802.96,-26805.5
2.47377e+08,64.6115,2,2.50304,7819.97,6267.46,-19605.7
2.47444e+08,184.646,1,2.71734,25692.9,7858.12,-705.482
2.47527e+08,56.7068,1,2.43403,2147.45,8237.27,-20292.4
2.47858e+08,204.634,0,2.48155,16785.4,5969.45,10638.3
2.48617e+08,89.1149,0,2.39491,-1977.3,-15450.3,-18232
2.49314e+08,82.0632,0,2.67512,11006.8,4279.63,-16098
2.49866e+08,123.841,2,2.93199,-6113,-6375.02,-4453.55
2.49935e+08,36.1206,1,2.70545,-6419.75,4061.67,-27528.9
2.49978e+08,20.2447,1,3.00928,-1442.62,2254.84,-25470.6
