#class tools::wcsv::ntuple
#title time
#separator 44
#vector_separator 59
#column double eventID
#column double t(ns)
#column double copynumber
#column double energy(eV)
#column double x(mm)
#column double y(mm)
#column double z(mm)
33861,27.178,1,2.36922,-3096.01,4906.99,-28183.6
167533,83.7148,1,2.60701,10634.9,-6636.9,-16823.1
222445,4.78364,2,2.96379,-732.579,548.738,-28312.8
299980,95.757,2,2.62502,14891.2,-3098.3,-15528.2
373997,84.8021,1,2.50138,-15580.1,-8811.9,-29464.5
692426,44.724,0,2.45793,7061.28,-3155.15,-23357.8
864512,8.23192,1,3.05195,106.324,1467.59,-29927.8
878747,3.23933,2,2.95194,489.571,-90.0562,-28231.4
1.1077e+06,9.29953,1,2.36483,-769.763,10.6099,-27022
1.15612e+06,44.0176,2,2.48515,8195.45,-1976.83,-24805.9
1.32665e+06,115.917,1,2.99184,1779.61,18058,-12573.7
1.33866e+06,11.0169,0,2.76793,168.33,1680.6,-27152.9
0,10.8318,1,2.53161,0,0,0
1.44726e+06,117.44,0,2.8216,-20656.8,-3216.27,-15839.8
1.56606e+06,83.6696,1,2.85934,17417.5,1682.18,-27427
1.66013e+06,130.431,2,2.81255,7249.6,-24582.3,-18895.7
1.74776e+06,16.8036,2,2.77553,2594.51,-1337.29,-26875.8
1.80659e+06,61.9341,1,2.9699,-759.219,13092.8,-28887.4
1.91703e+06,36.6946,1,2.77188,-5469.78,454.687,-23308.6
2.01069e+06,99.8156,2,2.50982,-11311.1,-8415.3,-13076.1
2.19238e+06,10.9997,2,2.93457,1959.09,-1135.24,-28386
2.33707e+06,73.4189,2,2.71482,57.218,-13552.8,-21487.4
2.4218e+06,23.7856,0,2.41108,4891.62,920.305,-28597.5
0,23.8306,0,2.60567,0,0,0
2.5334e+06,35.1731,1,2.70446,-6510.3,3717.63,-28590.3
2.62186e+06,39.8746,2,2.41096,-5913.2,113.758,-22852.4
2.76685e+06,183.939,0,2.55586,25111.6,-1850.61,-11341.1
2.87698e+06,87.3506,2,2.81298,-12353.9,1617.74,-15441.1
2.93605e+06,88.6493,0,2.74319,5869.61,-8448.98,-13198.2
3.19325e+06,4.10079,0,3.06051,-285.187,-40.8136,-28080.2
3.27327e+06,42.3095,2,2.91216,-8338.03,2031.7,-26457
3.45593e+06,10.411,2,2.77495,1405.67,833.245,-27426.6
3.67308e+06,8.43459,1,2.43596,-1704.54,-63.6123,-29550.2
3.68487e+06,3.39491,2,2.54802,283.21,-485.739,-28337.3
3.96083e+06,80.5064,2,2.95787,-5388.45,-7933.84,-14834.8
4.03012e+06,23.1966,1,2.46502,2310.14,4373.02,-29388.8
4.18664e+06,69.423,2,2.84702,13820.3,-816.253,-27156.8
4.39107e+06,5.16428,1,3.04151,1068.13,37.3152,-28998.3
4.41609e+06,39.8958,0,2.99558,-4832.76,-2614.49,-22469.7
4.61077e+06,39.5447,2,2.47649,-6398.05,-4419.49,-25478.3
4.78075e+06,42.7753,2,2.45001,8722.14,1257.51,-26837.8
4.93608e+06,74.653,0,2.95349,7863.24,9354.4,-18918.6
5.03487e+06,39.8337,0,2.78839,1994.33,-6361.98,-23551.8
5.0557e+06,61.5254,1,2.6915,-10716.6,7321.53,-27246.5
5.21134e+06,33.3384,2,2.6423,2320.32,-4160.29,-23327.8
5.25066e+06,213.678,1,3.04679,-8655.61,-26380.2,5979.8
5.27361e+06,86.0068,0,2.68975,-7763.73,-6633.59,-13812.6
5.29422e+06,28.471,0,2.60334,3320.62,3235.04,-24856.1
5.43881e+06,158.556,0,2.62366,24306.5,-5212.83,-6337.16
5.44402e+06,92.9869,1,2.87707,-19490.1,816.197,-27531.8
5.45159e+06,9.65772,0,2.5318,1119.66,1756.72,-28327.4
5.45577e+06,8.37312,1,2.98574,261.113,1639.34,-28170.5
5.49251e+06,144.318,1,2.93575,23155.6,-13270.1,-17690.4
5.49874e+06,18.2421,0,2.69079,-2320.59,-590.148,-25888.1
5.5423e+06,126.515,1,2.64726,-24061.1,-5600.77,-18985.4
5.67323e+06,125.168,0,3.00614,15409.6,-7390.55,-8879.8
5.8027e+06,55.0788,0,2.89327,7542.7,-2157.6,-20231.6
5.88997e+06,143.88,0,2.66165,-3298.93,-28193.6,-18134.9
5.9998e+06,32.5523,1,2.37509,-2757.39,483.452,-22807.7
6.411e+06,64.7744,2,2.92673,1985.44,-8672.84,-18422.7
6.67808e+06,37.1792,1,2.64053,1261.25,7435.73,-26397.7
6.68152e+06,27.8762,2,2.36454,-5001.61,-1336.09,-25848.5
6.76951e+06,125.437,0,2.5772,-15000.5,12284.2,-11881.8
6.85188e+06,21.702,1,2.56091,-3741.37,-1995.76,-26756.2
7.01183e+06,25.464,1,2.46909,3789.34,2954.08,-26365.8
7.22819e+06,131.726,1,2.44404,-22059.6,1004.45,-11757.4
7.38255e+06,10.7324,2,2.74581,-809.078,-679.76,-26784.3
7.43415e+06,10.7675,1,2.39443,-743.264,-619.345,-26836.6
7.6664e+06,8.24917,2,2.8085,-469.121,-1650.17,-27960.6
7.79944e+06,2.57026,0,2.38158,-450.843,-101.626,-28895.7
7.88055e+06,23.6732,2,2.46318,2408.81,-4077.47,-26990.1
7.94048e+06,27.4522,1,2.7421,-4665.44,2929.46,-27650.4
8.10672e+06,103.468,2,3.05076,15057.5,-6306.16,-14646.7
8.25728e+06,55.491,1,2.37007,-2332,8702.77,-21624.2
8.36158e+06,75.4359,2,2.41338,-1154.24,-7832.42,-15035.9
8.4912e+06,8.63441,0,2.82563,1828.44,182.694,-28303.6
8.49716e+06,6.50179,2,2.43101,-78.042,-1434.18,-28965.9
0,6.50187,2,2.66274,0,0,0
8.68067e+06,110.542,0,2.62871,-9012.85,-8432.92,-9029.46
8.82735e+06,106.016,2,2.94529,-13099.7,-6261.81,-11936.4
8.9452e+06,39.6835,1,2.48469,-7553.77,-3563.31,-29817.5
8.95688e+06,43.5351,0,2.94823,5672.68,-5223.06,-24030.6
9.06198e+06,51.9059,1,2.55309,-5823.91,-2334.6,-19846.6
9.22525e+06,43.6359,2,2.49178,-6403.24,-5433.08,-24844.7
9.2383e+06,142.053,2,2.97801,1449.97,-9611.81,-10051.5
9.27124e+06,42.9825,1,3.04747,-5790.73,3643.96,-22870
9.27745e+06,154.98,1,2.64339,-17736.4,-18695.8,-16728.6
9.40111e+06,52.5731,1,2.50605,-9383.39,-5357.09,-26058.4
9.40227e+06,75.6136,2,2.98575,-2419.58,-14162.2,-21839
9.45371e+06,125.965,1,2.48858,-18527,-8940.25,-11848
9.65021e+06,93.33,1,2.76327,11896.2,15351.2,-25683.5
9.67063e+06,272.128,0,2.78806,-5215.63,26785.2,21544.6
9.70937e+06,43.1085,1,3.05675,-428.78,9091.96,-28802.4
9.93799e+06,76.2724,2,2.58725,6438.15,-8844.24,-16980.3
1.00123e+07,31.9594,0,2.43016,-4812.06,1424.75,-24402.7
1.00454e+07,13.3537,2,2.57382,2686.09,-545.126,-29527.5
1.01383e+07,323.279,1,2.94629,-24320.5,-20314.6,-387.438
1.02873e+07,15.5594,0,2.59556,2473.63,437.92,-26643.3
1.04293e+07,149.899,1,3.01947,8831.76,13226,-1711.15
1.05554e+07,160.813,2,2.44961,16680.5,5324.46,244.188
1.07568e+07,62.5578,0,2.47332,-10333.4,5701.56,-22863.7
1.0852e+07,63.5407,1,2.37821,-912.348,9647.66,-19343.7
1.09361e+07,231.975,1,2.6102,-4035.5,-24035.6,-7952.58
1.09644e+07,64.9811,1,2.84348,10281.9,-8765.34,-27460.6
1.09996e+07,22.2063,0,2.71061,1666.1,-1314.53,-24592.4
1.11394e+07,126.437,2,3.0252,24277,3076.97,-18925.2
1.13822e+07,121.718,1,2.44099,17705.6,15347.8,-17994
1.1418e+07,107.914,0,3.05208,10067.8,10448.3,-11458
1.14924e+07,166.276,0,2.72899,10783.3,-8321.84,-6350.32
1.16968e+07,187.059,0,2.54228,1094.55,22098.4,-3344.17
1.16997e+07,12.324,0,2.57549,-1898.17,-1472.17,-28448.4
1.17231e+07,86.9633,1,2.75382,-73.8641,-6855.07,-21678.2
1.17437e+07,14.1327,1,2.72864,-2723.61,-1002.89,-29388.7
1.20392e+07,68.1428,2,2.53031,10827.6,1291.25,-19549.3
1.20509e+07,11.6586,0,2.8184,475.105,2318.94,-27993.4
1.2052e+07,17.8497,0,2.66643,2233.46,-2741.34,-27122.5
0,17.8284,0,2.87722,0,0,0
1.23486e+07,29.8528,0,2.99861,-2440.06,2971.59,-23868.6
1.26114e+07,14.0749,1,2.83545,-2179.63,1985.15,-29722.4
1.26311e+07,85.2543,2,2.79681,12021.7,-13298.4,-29155.6
1.28529e+07,88.2885,2,2.72725,-9589.89,7311.4,-14672.7
1.28619e+07,24.2785,0,2.93876,3064.7,-3749.57,-27060.1
1.28909e+07,86.7725,2,2.60695,7577.76,6577.72,-13534.4
1.2934e+07,6.19676,0,2.74103,1154.7,-694.231,-28276.9
1.29925e+07,39.8162,1,2.89718,2155.67,6425.47,-23906.6
0,39.7453,1,2.97481,0,0,0
1.30946e+07,45.0224,1,2.92047,-8809.29,1968.73,-25660.8
1.31432e+07,21.5381,0,2.43719,4393.6,-170.404,-27371.2
1.31458e+07,84.6551,1,2.68923,9881.78,-5606.14,-15190.4
1.31579e+07,6.35793,2,2.46402,-1326.31,476.876,-28918
1.32444e+07,13.3458,0,2.45307,1947.6,513.657,-26729.5
1.32529e+07,142.827,1,2.39889,2451.79,-24727.7,-11704.6
1.33077e+07,79.5279,2,2.77807,-8112.93,-8654.96,-16696.1
1.3344e+07,31.1584,2,2.3879,-1861.79,6093.88,-27592.4
1.35036e+07,88.9127,2,2.38789,5972.81,-13414.6,-16969.1
1.35536e+07,23.1949,1,2.81719,64.4491,4981.33,-28794.4
1.35615e+07,6.33466,2,3.05291,-849.75,382.163,-27884.1
1.36531e+07,22.8403,1,2.79274,-1498.81,-3130.61,-25467.7
1.36886e+07,93.6099,0,2.93172,6118.21,11765.9,-14320.9
1.38133e+07,50.7161,1,2.98907,1278.64,-4805.97,-19956.5
1.39831e+07,19.9068,1,2.62023,1306.54,2881.33,-26009.6
1.40532e+07,101.252,0,2.79396,-8681.58,9213.1,-11819.7
1.41401e+07,81.1374,0,2.90549,15618.4,6249.54,-25766.7
1.42752e+07,203.493,2,2.91297,-25253.3,-10873.1,1083.58
1.43907e+07,16.3735,0,2.5734,2867.45,-2044.79,-28149.6
1.44e+07,80.4266,2,2.39837,-5184.96,-16322.6,-29064.7
1.44668e+07,44.4823,1,2.99561,-6362.38,-2948,-22643.3
1.44807e+07,21.7581,1,2.72335,-2347.16,-3112.45,-26349.8
1.47284e+07,24.2241,1,2.65521,1168.32,3459.59,-25338
1.47297e+07,13.2792,0,2.42713,835.884,-1057.58,-26348.2
1.47481e+07,147.389,0,2.48301,18068.6,11749.7,-6150.49
1.50618e+07,134.541,2,2.68604,-2431.1,-21608.2,-10469.1
1.50629e+07,105.353,2,2.6957,16004.2,5630.2,-14618.9
1.50714e+07,13.6892,0,2.57657,1300.45,1985.76,-28074
1.51129e+07,37.5854,0,2.48919,6471.19,-1115.5,-24544.4
1.52068e+07,11.2414,0,2.39732,1470.88,1629.33,-29936.9
1.55589e+07,90.5855,2,2.71613,-7857.76,-7411.75,-12887
1.59256e+07,47.3744,0,2.78417,775.707,-4506.37,-19954.9
1.59989e+07,16.6298,2,2.49967,563.948,-2241.81,-26136.8
1.6123e+07,9.56561,1,2.39099,30.4813,-1424.06,-27477.7
1.61546e+07,34.312,2,2.74379,-4750.15,1389.63,-23536.3
1.61913e+07,2.64986,0,2.594,389.489,-361.474,-29152.9
0,2.74017,0,2.94143,0,0,0
1.65387e+07,90.2771,0,2.82551,-3019.4,-9731.88,-12807.2
1.66383e+07,134.759,0,2.97652,10604.7,2627.42,-2631.78
1.66405e+07,144.395,0,2.89524,-20774.4,10442.3,-9731.89
1.67296e+07,66.0555,1,2.57653,-1177.18,4114.64,-21655.3
1.68083e+07,105.114,0,2.73745,-6561.12,10521,-10525.7
1.68315e+07,30.6397,2,2.77984,5715.28,-1825.46,-26410.3
1.68667e+07,60.0017,0,2.87537,4847.17,-11434.9,-26197.5
1.69307e+07,113.738,1,2.91672,7248.68,9883.92,-13098.3
1.69831e+07,11.3758,0,2.3749,-418.92,-2344.81,-28344.3
1.69919e+07,156.995,0,2.74936,-2847.56,21018.5,-3540.38
1.70948e+07,69.3209,2,2.54668,9485.97,-5108.79,-22559.4
1.72107e+07,110.342,2,2.79617,-14847.7,-13190.3,-17099
1.72122e+07,245.967,0,2.84862,11431,17776.9,-10874.9
1.72411e+07,67.5824,2,2.62693,-9598.37,227.207,-18265.3
1.73203e+07,46.3,1,2.82612,-9802.01,-240.372,-29037.9
1.733e+07,21.5145,1,2.94843,2592.81,-305.175,-25109.7
1.7499e+07,102.522,2,2.86037,16922,12484,-25282.2
1.75218e+07,151.454,2,2.68568,-13959.8,27586.6,-20714.7
1.75914e+07,64.8003,0,2.43291,-10584.5,5888.33,-22508.6
1.76241e+07,45.7072,0,2.72927,-1967.45,8305.53,-25583.4
1.76988e+07,47.2908,0,2.75286,1449,-7600.08,-22616.2
1.77139e+07,40.5251,1,2.77965,-7306.41,-4086.41,-27135
1.78811e+07,33.7838,2,2.82876,-1955.09,-6617.11,-26770.6
1.84945e+07,103.87,1,2.70355,-5805.27,21237.3,-28582.7
1.85712e+07,48.7248,2,2.69343,-2576.18,-8369.12,-23181.1
1.85717e+07,106.041,0,2.61912,20582.3,-9186.74,-29389.6
1.89587e+07,174.676,1,2.82615,-11818.9,13469.9,3299.34
1.91907e+07,140.557,0,2.69341,-19150.8,-11137.5,-9274.45
1.92312e+07,42.8305,1,2.3887,8782.22,1017.94,-28002.5
1.93024e+07,5.65231,2,2.56215,-973.12,-444.251,-28088.1
0,5.67276,2,2.75359,0,0,0
1.9346e+07,49.3272,2,2.55723,7828.1,-5175.5,-24317.1
1.9463e+07,8.18044,2,2.82679,-1757.85,-234.156,-28976.2
1.95036e+07,44.1861,0,2.80468,6423.91,-495.846,-22032.6
1.96984e+07,4.47321,0,2.53748,-502.937,-389.88,-28146.3
1.97699e+07,97.1871,2,2.95007,-14041.8,-14252.3,-24299.2
1.98073e+07,88.9094,0,2.81378,1391.3,12737.3,-15160.5
1.99285e+07,186.141,1,2.59413,-29499.2,-23197.3,-17120.8
1.9958e+07,163.227,2,2.701,-18741.7,-10778.4,-2006.36
1.9972e+07,95.2624,2,2.55026,-4661.1,-19563.9,-25801.6
1.99959e+07,164.513,2,2.84263,-21729,9140.96,-3582.35
2.00074e+07,59.354,0,2.96517,3714.07,10131.2,-22533.5
2.01725e+07,90.8768,1,2.89305,-15881,6743.2,-20740.6
2.05119e+07,75.5194,2,2.92616,-12503.5,-4381.13,-19985.8
2.05124e+07,88.2895,2,2.46981,-9680.55,7874.18,-23419
2.05512e+07,178.216,0,2.8335,-24518.9,-24052,-14120.4
2.06833e+07,74.9353,2,2.77487,-2667.81,1348.41,-29231.4
2.07252e+07,4.1989,1,3.05169,28.8413,914.666,-28487.1
2.09567e+07,165.129,0,2.62072,-12478.6,10275.8,2154.69
2.09651e+07,32.4248,2,3.01859,893.755,-6755.75,-29091.7
2.10133e+07,61.3544,1,2.55086,-4725.85,-10778.1,-23502
2.10269e+07,54.2876,1,2.74646,4954.29,10338.1,-29786.3
2.10503e+07,100.603,1,2.71907,6100,14505.7,-14576.8
2.11369e+07,9.07384,0,2.66477,295.407,1904.33,-29470.6
2.11555e+07,5.44584,1,2.80305,-922.995,811.808,-28486.8
0,5.47662,1,2.87037,0,0,0
2.12301e+07,31.2463,2,2.39399,-3549.2,-4669.69,-25560
2.14942e+07,14.331,0,2.78147,167.983,-2949.03,-27990.9
2.17757e+07,81.9151,2,2.73061,13343.9,7862.5,-21637.5
2.19713e+07,171.556,1,2.49865,8302.77,26099.3,-4990.4
2.19935e+07,40.6327,0,2.66891,2588.49,5698.32,-22879
2.20761e+07,2.8159,1,2.46867,509.747,526.224,-28467.4
0,2.8299,1,2.71702,0,0,0
2.21257e+07,87.575,1,2.53917,-9083.81,9453.88,-15809.7
2.22588e+07,282.323,1,2.8309,27068.3,-3471.67,-22869.7
2.23101e+07,63.2236,2,2.92378,-11692,-6337.85,-28217.1
2.23244e+07,88.4737,2,2.83756,-11508.5,12799.9,-21769.9
2.23354e+07,81.5949,2,2.90039,13858.8,1685.14,-18932
2.23413e+07,140.311,2,3.04313,-23914.6,8472.38,-14016.1
2.27312e+07,31.1666,1,2.69811,-2116.35,-2378.92,-29871.8
2.2769e+07,198.846,0,2.64348,-13069.4,24753.7,2389.49
2.27729e+07,48.0972,2,2.83711,-9881.05,-2376.11,-28200.5
2.28107e+07,23.6263,2,2.82372,111.078,-4930.63,-28432.2
2.317e+07,341.919,2,3.03253,-7653.33,-10345.9,-15182.1
2.31861e+07,99.4353,1,2.5841,-8462.53,-10602.5,-12893.7
2.3395e+07,93.6664,1,2.52701,-6400.26,6811.96,-11338.6
2.34315e+07,83.1495,0,2.75712,17343.7,3079.34,-27296.9
2.34942e+07,158.35,2,2.92559,-11675.6,-8736.17,1034.29
2.36037e+07,106.096,1,2.87352,-14305.4,761.594,-11773.2
2.36847e+07,41.3732,1,2.71055,-2163.25,4033.1,-21356.4
2.37128e+07,17.9149,2,2.66667,1277.54,-836.185,-25330.6
2.37174e+07,42.4645,1,2.8806,-218.695,8446.65,-25373.6
2.37612e+07,35.4847,1,2.38109,6742.24,3280.18,-29374.7
2.38313e+07,32.4014,2,2.81914,-5167.73,-1843.53,-24826.5
2.41257e+07,23.5102,0,2.89802,3384.41,3069.62,-26759.3
2.42039e+07,51.5182,2,2.79316,-8759.02,-4875.08,-24709.5
2.42568e+07,110.584,0,2.41674,16955.2,3740.12,-13118.3
2.43191e+07,3.54568,0,2.61888,837.076,-242.631,-28939.8
2.46039e+07,95.4024,1,2.70608,-9108.13,16276.1,-21146.4
2.47176e+07,11.4139,0,2.96696,1444.43,1190.65,-27246.4
2.52269e+07,16.7493,1,2.47789,-2303.14,-1141.15,-26443.1
2.52736e+07,16.2495,1,2.37607,-2499.16,-2300.17,-29017
2.5327e+07,12.4349,1,2.90625,1115.01,2422.61,-29234.7
0,12.3687,1,2.71007,0,0,0
2.5568e+07,80.7362,1,2.76431,11067.7,3872.32,-16490.5
2.58803e+07,2.59814,1,2.44474,-130.281,318.834,-28319.5
0,2.59659,1,2.39491,0,0,0
0,2.85721,2,2.65091,0,0,0
0,2.84783,0,3.00039,0,0,0
2.59035e+07,188.307,1,2.63504,-1617.3,28782.9,-1458.35
2.59818e+07,105.008,2,2.41824,8876.49,-20368,-27168.6
2.60102e+07,5.93551,1,2.69195,-1029.75,-787.634,-28857.6
2.60477e+07,78.8028,2,2.72292,-15182.6,5031.95,-24339.1
2.62393e+07,41.5332,1,2.96861,-7620.34,-4221.1,-29151.3
2.63196e+07,181.757,0,2.73826,11797.4,-15234.6,4296.69
2.63623e+07,115.338,1,3.00677,531.199,-17309.1,-12025.4
2.63687e+07,103.388,2,2.93691,-9525.07,285.601,-21551.1
2.6376e+07,202.477,1,2.82249,-5387.21,28659.9,-415.298
2.6408e+07,128.869,2,3.03329,-7743.23,-12718.9,-6264.82
2.64614e+07,115.253,2,2.39755,6651.99,-21063,-18368.7
2.65516e+07,98.5931,1,2.64965,-14061.9,-11366.1,-18830.2
2.65933e+07,150.584,2,2.7935,-1972.88,26316.2,-11415.5
2.66473e+07,33.4972,2,2.91709,-1103.98,-3930.06,-23159.2
2.68553e+07,8.70071,0,3.03911,1829.08,-490.488,-28534.2
2.69356e+07,8.38825,0,2.67908,1306.59,398.754,-27606.2
2.6962e+07,76.9454,0,3.01329,-12421.3,-193.879,-18658
2.69649e+07,90.8276,2,3.02737,-6773.71,-13138.1,-16949.9
2.70812e+07,11.3096,1,2.42711,-649.688,1471.14,-27013
2.72562e+07,24.2558,0,2.63257,-185.77,-4875.42,-27220.1
2.73314e+07,167.673,1,2.86136,-29604,-1888.89,-9731.28
2.73359e+07,219.134,1,2.45141,-20273,-2376.2,12752.7
2.7364e+07,51.4996,0,3.01458,9079.85,834.818,-22887.6
2.73918e+07,78.869,1,2.78099,7201,-3174.99,-14254.5
2.74623e+07,33.9132,1,2.81631,-3675.71,6138.17,-29922
2.75143e+07,284.719,1,2.61595,-25652.2,3470.85,25444.1
2.75426e+07,5.0028,2,2.49819,-43.3248,-1143.7,-28383
2.77243e+07,43.0543,1,2.37708,8532.97,2409.55,-26857.9
2.77552e+07,18.3794,2,2.96193,-2442.98,1674.6,-26341.6
2.79657e+07,82.4683,1,2.67285,-9919.18,1140.68,-14727.2
2.79679e+07,51.9653,1,2.90425,-5534.67,-5853.3,-22284.2
2.83234e+07,145.806,2,3.02371,-18734.3,-14412.5,-16572.5
2.83454e+07,33.9635,1,2.85751,-5138.9,989.051,-23921.5
2.83572e+07,29.9743,1,2.62291,-2308.65,-638.533,-23349.2
2.83636e+07,137.368,1,2.78052,24054.1,9890.74,-16260.8
2.84475e+07,108.312,1,2.55102,-2080.17,11413.9,-9045.14
2.84948e+07,25.4617,0,2.73546,1585.04,-2184.74,-24149.5
2.87179e+07,107.456,1,2.38132,-14780.4,16683.7,-26109.2
2.87371e+07,138.373,0,2.72475,11765.6,-20805,-12141.4
2.87649e+07,80.0867,0,2.6519,13801,8665.35,-25193.8
2.87676e+07,91.664,1,2.75587,3797.47,18227,-23926.2
2.89339e+07,69.2263,0,2.61605,8909.51,-10996.1,-24866.1
2.91013e+07,32.0399,0,2.84406,-1658.11,-5639.2,-25545.8
2.91144e+07,8.0633,1,2.44209,-1341.29,1123.32,-29190.7
2.94165e+07,232.549,0,2.81192,-21380,19220.5,10727.6
2.94667e+07,53.0047,0,2.80132,-5723.44,-7231.85,-22582.5
2.94834e+07,45.4396,0,2.86371,3100.66,3131.36,-26291.1
2.95918e+07,61.1462,0,2.95458,-2987.82,-12430,-27659.8
2.96124e+07,29.7476,2,2.45367,49.4296,-6290.94,-29405
2.96161e+07,24.9845,0,2.72307,3025.6,3297.55,-26078
