#class tools::wcsv::ntuple
#title time
#separator 44
#vector_separator 59
#column double eventID
#column double t(ns)
#column double copynumber
#column double energy(eV)
2.01712e+06,84.5037,0,3.01875
3.92775e+06,128.785,2,2.36855
4.00383e+06,39.2106,2,2.36437
4.97157e+06,67.7977,1,2.45279
5.47932e+06,27.6575,2,2.48193
5.6092e+06,200.313,0,2.58754
5.85577e+06,96.6041,2,3.05776
6.08965e+06,37.9383,0,2.87946
6.58732e+06,152.97,1,2.91782
7.375e+06,118.37,0,2.54148
8.52427e+06,165.039,0,3.03768
9.37433e+06,272.195,0,2.85688
9.46513e+06,4.3079,1,3.04777
9.91034e+06,57.5672,0,2.3991
1.19632e+07,63.4202,2,2.56213
0,63.5581,2,2.56213
1.24073e+07,67.3109,2,2.79408
1.25613e+07,212.535,1,2.37486
1.27683e+07,78.3917,0,2.46879
1.39305e+07,10.0584,1,2.42541
0,10.3876,1,2.42541
1.47652e+07,3.71404,0,2.65041
0,4.03061,0,2.65041
1.47985e+07,34.0743,1,2.92115
0,34.4465,1,2.92115
1.586e+07,150.414,0,2.52052
1.68119e+07,131.086,1,2.59164
1.74822e+07,47.9093,0,2.39702
0,48.0533,0,2.39702
1.81715e+07,115.812,1,2.95713
1.8738e+07,19.9806,2,2.70046
1.88621e+07,115.368,0,2.50296
1.89297e+07,81.2633,0,2.39196
1.97167e+07,35.7538,0,2.96319
2.02069e+07,312.278,2,2.99069
2.12577e+07,24.0192,1,2.61674
2.13177e+07,48.1633,1,2.48741
0,48.478,1,2.48741
2.1855e+07,23.4108,1,2.91266
2.19214e+07,32.7982,0,2.56051
2.33954e+07,199.158,0,2.6924
2.34196e+07,153.998,1,2.68599
2.37447e+07,33.0558,2,2.44995
0,33.3997,2,2.44995
0,34.2137,0,2.44995
2.44492e+07,43.0171,1,2.44947
2.48644e+07,50.1544,2,2.74274
0,50.511,2,2.74274
2.54815e+07,193.177,2,2.3715
2.66666e+07,8.75747,2,2.96585
2.67316e+07,18.9817,1,2.82907
2.70441e+07,171.226,1,3.05444
2.73724e+07,137.384,0,2.65678
2.74581e+07,57.4059,0,2.88207
2.80137e+07,68.3972,2,2.46636
2.81226e+07,56.4137,0,3.01085
2.84232e+07,145.292,1,2.94501
2.93878e+07,42.1713,2,2.71344
3.01083e+07,176.746,1,2.64577
3.06731e+07,59.9087,1,2.63653
3.11143e+07,33.2176,2,2.60239
3.15297e+07,50.2865,1,2.62907
3.16756e+07,128.021,0,2.6778
3.20413e+07,53.1639,1,2.68055
3.24005e+07,79.0286,1,2.95018
3.29876e+07,24.5268,1,2.61079
3.32284e+07,189.637,0,2.76254
3.3694e+07,53.9535,0,2.79583
3.40851e+07,53.7575,1,2.71549
3.44025e+07,17.2506,1,2.59871
3.44437e+07,111.581,1,2.77854
3.52962e+07,23.0823,0,2.87711
3.54363e+07,25.7319,2,2.8284
3.58049e+07,288.699,0,2.69835
3.60231e+07,68.6323,0,2.75042
3.65584e+07,33.3355,2,3.04145
3.70155e+07,114.913,0,2.36777
3.7043e+07,85.6877,1,2.63013
4.04896e+07,53.4449,0,2.59757
0,53.5241,0,2.59757
4.05093e+07,155.384,0,2.53003
4.0674e+07,348.069,0,2.56637
4.10098e+07,80.9732,2,2.66346
4.14087e+07,207.566,0,2.65004
4.22036e+07,2.98886,2,2.47171
0,3.14198,2,2.47171
4.25016e+07,245.076,0,2.55404
4.2521e+07,124.637,0,2.99124
4.3306e+07,204.777,2,2.48204
4.44907e+07,99.0964,2,2.99013
4.47993e+07,133.829,0,2.77614
4.61372e+07,108.183,1,2.87114
4.63941e+07,47.1912,0,2.53735
4.64344e+07,25.8048,1,2.73307
4.699e+07,36.8622,0,2.56434
4.82983e+07,91.2993,1,2.75253
0,91.5297,1,2.75253
4.84845e+07,157.805,2,2.65972
0,157.998,2,2.65972
4.89481e+07,135.837,2,2.5518
0,135.976,2,2.5518
4.9024e+07,68.5542,2,2.49904
5.00019e+07,142.174,2,2.37267
5.00836e+07,21.3876,1,2.57445
5.0712e+07,86.5525,1,2.64396
5.08788e+07,78.2842,0,2.72642
5.30084e+07,93.0525,2,2.86825
5.34044e+07,53.38,0,2.95857
5.36315e+07,74.1845,1,2.90369
5.39393e+07,73.2041,0,2.71442
5.50521e+07,140.209,1,2.41331
5.52623e+07,258.061,1,2.67999
5.61131e+07,74.05,0,2.88666
5.69487e+07,145.906,2,2.99307
5.78096e+07,50.8852,1,2.89877
6.13127e+07,43.3343,0,2.60586
6.14696e+07,65.7354,0,2.42437
6.18763e+07,24.097,0,2.76731
0,24.4348,0,2.76731
6.24031e+07,27.1463,2,2.56575
0,27.3402,2,2.56575
6.31341e+07,42.0961,1,2.54197
6.3312e+07,31.593,2,2.83415
0,31.8688,2,2.83415
6.36838e+07,81.5096,1,2.45252
6.39433e+07,72.638,1,2.6363
6.41215e+07,35.536,2,2.3979
6.70455e+07,51.5223,2,2.77454
6.72725e+07,37.7859,1,2.64387
0,38.0166,1,2.64387
6.80788e+07,88.3099,1,2.9837
0,88.4588,1,2.9837
6.85201e+07,83.5997,1,3.01711
6.86968e+07,28.6,0,2.97727
6.87318e+07,59.4371,1,2.41648
0,59.627,1,2.41648
6.89675e+07,13.1598,2,2.59116
6.94406e+07,247.098,1,2.67035
7.04993e+07,158.895,0,2.70417
7.14605e+07,11.5747,2,2.43084
7.16197e+07,6.70073,2,2.89119
7.2983e+07,245.111,2,2.92272
7.32539e+07,55.585,2,2.81753
7.39106e+07,35.8525,1,2.98985
7.4986e+07,134.222,0,2.48814
7.54734e+07,20.4672,0,2.42795
7.55021e+07,207.031,0,2.87951
7.56353e+07,1.11285,1,2.92005
0,1.4334,1,2.92005
7.59414e+07,45.395,0,2.58555
7.64968e+07,127.676,0,2.60852
7.68345e+07,8.07163,2,2.68634
0,8.33706,2,2.68634
7.83373e+07,20.7343,0,2.67617
8.03199e+07,76.243,0,2.65727
0,76.4817,0,2.65727
8.04253e+07,81.8237,0,2.66217
0,82.0208,0,2.66217
8.15604e+07,147.505,0,2.93722
8.36087e+07,250.344,0,2.65901
8.37671e+07,96.1329,1,2.97946
8.4646e+07,167.194,2,2.75994
8.60256e+07,81.9721,0,2.74783
0,82.2116,0,2.74783
8.82448e+07,2.72794,2,2.82797
8.83035e+07,70.6479,0,2.74786
0,70.9511,0,2.74786
8.89943e+07,9.752,2,2.61912
8.91501e+07,80.2158,1,2.89911
8.97451e+07,82.7777,0,2.48286
8.99006e+07,136.052,1,2.65778
9.09701e+07,31.1634,2,2.69391
9.10619e+07,71.7565,0,2.73519
9.18255e+07,47.5301,1,2.71649
9.21201e+07,296.217,0,2.85836
9.23402e+07,119.349,1,2.50967
9.3489e+07,21.614,1,2.56314
0,21.9187,1,2.56314
9.40415e+07,39.6943,1,2.6729
9.40857e+07,131.574,0,2.82978
9.41166e+07,129.374,0,2.86114
9.46893e+07,61.1378,1,2.65356
9.51396e+07,227.202,1,2.94473
9.62602e+07,83.0396,1,2.79768
9.63871e+07,254.335,0,2.8079
9.67335e+07,35.3782,1,2.84036
0,35.6514,1,2.84036
9.76847e+07,3.13153,0,3.01531
9.90226e+07,6.47821,0,2.68879
1.0011e+08,108.54,1,2.56635
1.00831e+08,346.89,0,2.62162
1.00937e+08,187.493,0,2.49345
1.0102e+08,2.15414,0,3.01712
0,2.37089,0,3.01712
1.01371e+08,79.4523,0,2.54814
1.01411e+08,112.565,0,2.74198
1.01755e+08,25.849,0,3.0046
1.02217e+08,2.24143,2,2.86513
0,2.53348,2,2.86513
1.03148e+08,42.9374,1,2.89171
0,43.1842,1,2.89171
1.03793e+08,173.258,2,2.70582
0,173.622,2,2.70582
1.04833e+08,44.2514,2,2.69176
1.04979e+08,38.6098,1,2.60203
0,38.8762,1,2.60203
1.05026e+08,86.7392,1,2.89361
1.05036e+08,3.85026,1,2.39114
1.05274e+08,13.4595,2,2.57445
1.05317e+08,254.204,0,2.89542
1.05541e+08,20.6681,2,3.03358
1.0625e+08,15.1208,0,2.82773
0,15.2729,0,2.82773
1.06324e+08,32.7201,2,2.68706
0,32.9821,2,2.68706
1.06821e+08,127.903,1,2.75898
1.069e+08,48.8411,0,2.42123
1.06902e+08,144.847,0,2.74633
1.07893e+08,272.911,2,2.58785
1.08169e+08,350.086,0,2.98668
1.09044e+08,0.174854,0,3.06062
0,0.125109,0,3.92812
0,0.114053,0,3.34821
0,0.136435,0,3.83237
0,0.0994205,0,2.09564
0,0.0914853,0,2.83832
0,0.137657,0,3.42486
0,0.110883,0,2.52657
0,0.091895,0,2.22228
0,0.102989,0,4.09095
0,0.109536,0,2.96846
0,0.199722,0,2.46202
1.09579e+08,43.4581,0,2.66195
1.09754e+08,84.2601,0,2.83026
1.09876e+08,42.032,1,2.98303
1.09882e+08,113.16,0,2.37188
0,113.516,0,2.37188
1.10461e+08,90.6123,0,2.68366
0,90.8095,0,2.68366
1.10849e+08,29.2089,1,2.72285
1.10889e+08,99.9848,2,2.44701
1.12112e+08,70.6358,1,2.52306
0,70.9277,1,2.52306
1.13279e+08,131.506,2,2.40576
1.14292e+08,146.215,0,2.73511
0,146.5,0,2.73511
1.15047e+08,20.6237,2,2.90506
1.1553e+08,260.612,0,2.85037
1.15599e+08,46.4453,0,2.44532
0,46.6451,0,2.44532
1.16133e+08,154.221,0,2.50736
1.16866e+08,13.5643,1,2.97583
1.17197e+08,106.812,2,2.7706
1.18995e+08,178.445,1,2.78188
0,178.77,1,2.78188
1.19116e+08,66.2594,1,2.93956
1.19361e+08,167.808,1,2.87087
1.20655e+08,84.5127,0,2.61976
1.21123e+08,261.82,2,2.56461
1.22275e+08,362.303,1,2.64222
1.22435e+08,223.417,1,2.79975
1.22519e+08,27.9906,2,2.96963
1.22972e+08,71.1104,2,2.95781
1.2301e+08,65.4008,2,2.66859
1.23502e+08,10.216,1,2.86679
1.23572e+08,122.065,1,3.0332
1.23951e+08,23.0255,0,2.8157
1.24446e+08,186.243,1,2.69836
0,186.409,1,2.69836
1.25499e+08,5.91962,1,3.02828
0,6.24776,1,3.02828
1.2686e+08,61.1201,1,2.80608
1.27204e+08,231.789,2,2.7096
1.27513e+08,259.677,2,2.5762
1.2836e+08,33.7717,2,2.73342
0,33.9355,2,2.73342
1.29283e+08,20.0717,2,2.93933
1.30117e+08,80.1796,0,2.78348
0,80.4131,0,2.78348
1.30733e+08,230.528,2,2.80858
0,230.709,2,2.80858
1.31305e+08,102.035,2,2.9032
1.31328e+08,41.0612,2,2.48236
1.32159e+08,38.0404,2,2.38913
1.32628e+08,60.9303,0,2.6337
1.33174e+08,54.6185,1,2.61161
0,54.9363,1,2.61161
1.33391e+08,37.7668,0,2.60925
1.3341e+08,109.959,2,2.80586
1.33426e+08,48.653,1,2.95757
0,48.9637,1,2.95757
1.33583e+08,144.501,1,2.56911
0,144.713,1,2.56911
1.35295e+08,39.3072,2,2.81788
1.36677e+08,85.7497,2,2.98527
1.36977e+08,236.449,0,2.89588
1.37383e+08,38.6931,1,2.39712
1.37943e+08,107.858,2,2.53492
1.38195e+08,232.457,0,2.58494
1.38355e+08,42.5709,2,2.44086
1.38737e+08,4.44218,0,2.47527
1.38815e+08,176.891,0,2.93275
1.39649e+08,29.6089,2,2.48194
1.40759e+08,105.932,1,2.58384
1.41763e+08,25.9053,1,2.96133
1.42133e+08,13.9128,2,2.44369
1.43538e+08,160.974,0,2.52663
1.43928e+08,68.7473,0,2.88341
1.44146e+08,349.433,2,2.69414
0,349.704,2,2.69414
1.44223e+08,10.5033,1,2.65478
1.46059e+08,6.00013,2,2.70771
0,5.91276,2,2.74947
1.46749e+08,135.693,2,2.97262
1.48235e+08,410.04,1,2.60799
1.49003e+08,73.962,1,2.73424
1.49097e+08,62.4908,2,2.50767
1.5138e+08,157.53,2,2.7966
1.52856e+08,85.8615,2,2.391
1.53876e+08,60.7863,0,2.37225
0,61.0701,0,2.37225
1.55884e+08,102.683,2,2.75537
0,102.819,2,2.75537
1.57392e+08,5.02147,2,2.87889
1.57707e+08,30.0655,1,2.63912
1.58001e+08,162.178,0,2.77021
1.58001e+08,96.2933,0,2.82801
1.58845e+08,2.38864,0,2.40308
0,2.6308,0,2.40308
0,2.45063,0,2.99606
0,2.58525,0,2.99606
1.59611e+08,19.6632,0,3.02578
1.60889e+08,34.2766,0,2.3804
1.63146e+08,25.1342,0,3.03942
1.63875e+08,103.003,1,2.69193
1.64168e+08,44.7056,1,2.94134
1.64374e+08,194.027,0,2.75615
1.65377e+08,44.6932,2,2.56743
1.65878e+08,126.586,0,2.39265
1.65945e+08,43.3367,1,2.78033
1.66506e+08,224.723,2,2.59005
1.67642e+08,98.2578,1,2.4543
0,98.5172,1,2.4543
1.68511e+08,151.642,1,2.42254
1.71065e+08,54.9566,0,3.05297
1.71208e+08,90.4345,0,2.38702
1.71258e+08,196.672,2,2.83162
1.71332e+08,9.46941,1,2.36563
1.71473e+08,181.965,1,2.5994
1.7153e+08,18.6342,0,2.78863
0,18.861,0,2.78863
1.71696e+08,27.3026,1,2.87998
1.71704e+08,76.5167,0,2.62231
1.724e+08,36.3734,1,2.93427
1.72604e+08,82.536,0,2.77319
1.73078e+08,181.567,0,3.05386
1.73756e+08,60.9634,1,2.57492
1.74578e+08,117.742,2,2.72101
1.77111e+08,93.5913,2,2.4807
1.77355e+08,39.005,2,2.93868
1.78199e+08,186.725,0,2.74088
1.78562e+08,118.734,2,2.92281
1.78909e+08,188.562,0,2.51608
1.79036e+08,3.18902,0,3.04581
1.79517e+08,47.5989,0,2.45173
1.79715e+08,128.752,2,2.41728
1.80278e+08,58.877,2,2.73472
1.81268e+08,78.9739,0,2.92544
0,79.1148,0,2.92544
1.815e+08,16.6613,2,2.5655
1.82467e+08,67.0196,1,2.67743
1.82758e+08,17.3777,0,3.04783
0,17.6048,0,3.04783
0,17.2638,0,2.82222
0,17.5817,0,2.82222
0,18.3085,2,2.82222
0,18.5594,2,2.82222
1.83051e+08,92.383,0,2.66844
1.83323e+08,76.4306,1,2.51657
1.84229e+08,84.7466,1,2.6723
1.85315e+08,85.6161,0,2.614
1.8553e+08,116.55,0,2.81559
1.87094e+08,70.0859,2,2.44491
1.88351e+08,10.0187,1,2.71424
0,10.1774,1,2.71424
1.88892e+08,78.3181,1,2.9539
1.89234e+08,162.12,1,2.78746
1.89235e+08,86.8287,0,3.0387
1.89497e+08,55.6226,0,2.79093
1.89539e+08,216.486,1,3.01104
1.89608e+08,109.783,0,2.88479
1.90658e+08,126.169,2,2.52615
1.90734e+08,163.296,0,2.57819
1.91317e+08,22.6887,1,2.45294
1.93263e+08,56.0858,1,2.85788
1.9356e+08,31.4042,0,2.55245
1.93896e+08,181.47,2,2.48935
1.94095e+08,276.153,1,2.60884
1.94895e+08,153.55,1,2.85591
1.95184e+08,35.4285,0,2.82402
1.95331e+08,83.3663,1,2.6951
1.95566e+08,50.201,2,3.03492
0,50.5007,2,3.03492
1.95617e+08,139.146,0,2.62273
1.95973e+08,10.1197,2,2.72696
1.96445e+08,110.237,0,2.57705
1.97429e+08,49.2708,1,2.75671
0,49.4145,1,2.75671
1.97596e+08,266.765,0,3.03151
1.98254e+08,26.4553,0,2.55502
1.98844e+08,297.086,2,2.8791
1.99993e+08,103.692,2,2.46727
2.00307e+08,25.9904,0,2.6051
2.00314e+08,101.636,2,3.02111
0,102.027,2,3.02111
2.00529e+08,23.4185,2,2.75978
2.01743e+08,282.417,1,2.93184
0,282.591,1,2.93184
2.01909e+08,209.982,1,3.04995
2.02269e+08,45.3687,2,2.85014
2.03069e+08,96.6812,1,3.00136
2.03385e+08,206.968,0,2.56301
2.04864e+08,32.4613,0,2.41376
2.06094e+08,31.0867,2,2.56629
2.06726e+08,37.9984,0,2.75576
2.06949e+08,22.1814,0,2.94492
2.07224e+08,222.512,2,3.04172
2.07455e+08,17.0243,1,2.72814
2.07642e+08,25.9229,1,2.44431
2.07936e+08,266.364,1,2.75182
2.10524e+08,67.9219,2,2.83555
2.10867e+08,166.242,2,2.5455
2.11558e+08,260.365,0,2.75334
2.11703e+08,88.0475,1,2.43509
2.11774e+08,114.142,0,2.68973
2.11798e+08,1.64811,0,2.40399
0,1.51019,0,2.44401
0,1.73174,2,2.59738
2.12011e+08,246.792,2,2.73063
2.12173e+08,157.794,0,2.84785
2.12395e+08,32.9923,0,2.95104
2.12444e+08,25.363,1,2.81902
2.12951e+08,53.2016,1,2.71356
2.13105e+08,2.78963,2,2.65694
0,2.76256,2,2.37013
2.13305e+08,51.8639,0,2.60151
2.13462e+08,14.8582,0,2.99121
2.14307e+08,1.60507,1,2.95724
0,1.59607,1,2.7176
0,1.6014,1,2.68103
2.14801e+08,39.0046,1,2.87794
2.14855e+08,171.06,1,2.82228
2.1564e+08,17.1779,1,2.5876
0,17.5614,1,2.5876
2.159e+08,60.722,2,2.88327
0,60.9626,2,2.88327
2.1597e+08,227.355,2,2.86361
2.16109e+08,223.873,2,3.01862
2.16502e+08,73.439,1,2.68894
2.17598e+08,123.574,0,3.03486
2.18102e+08,44.7213,2,2.6693
2.18501e+08,232.181,2,2.46453
2.19077e+08,218.947,0,2.81815
2.19185e+08,190.906,0,2.46805
2.20637e+08,93.6462,2,2.56587
2.21328e+08,141.044,1,2.77442
2.22555e+08,170.221,1,2.39376
2.23035e+08,5.78296,2,3.03905
2.23766e+08,55.7493,2,2.93041
2.24316e+08,44.9525,0,2.3739
2.24325e+08,47.6585,1,2.8173
2.24938e+08,40.0551,0,2.4927
2.25585e+08,3.84557,1,2.96435
2.25715e+08,152.13,1,2.88934
2.25897e+08,73.0953,0,2.3817
2.26001e+08,17.4302,1,2.49633
2.262e+08,131.037,1,2.74099
2.27939e+08,62.3957,0,2.67654
0,62.6461,0,2.67654
2.28202e+08,40.3512,0,2.84059
2.28428e+08,58.7418,0,2.53251
2.29194e+08,3.78534,0,2.62822
2.29241e+08,12.4248,0,2.82608
2.29671e+08,123.156,2,2.61757
2.29753e+08,130.004,2,2.61327
2.29881e+08,55.4784,1,2.69206
2.30887e+08,7.65378,1,2.6378
2.32705e+08,45.1034,1,2.51971
2.3303e+08,84.4045,2,2.61842
0,84.6589,2,2.61842
2.34041e+08,52.4357,1,2.79029
2.34132e+08,112.967,1,2.56495
2.34466e+08,32.9726,1,2.7821
0,33.273,1,2.7821
2.34536e+08,211.71,2,2.69555
0,211.861,2,2.69555
2.35825e+08,8.12913,0,2.65775
2.36435e+08,99.1939,1,2.94456
0,99.324,1,2.94456
2.36708e+08,76.2521,0,2.36373
0,76.4968,0,2.36373
2.37029e+08,114.464,2,2.86555
2.37143e+08,35.876,1,3.02541
2.37746e+08,24.5678,2,3.04507
2.3798e+08,22.1393,2,2.74305
0,22.2931,2,2.74305
2.38879e+08,234.209,1,2.59362
0,234.358,1,2.59362
2.3967e+08,198.141,0,2.5093
2.40131e+08,38.3526,2,2.41689
2.41313e+08,71.2274,2,2.50586
2.41914e+08,22.6187,2,2.84137
2.4225e+08,54.5551,0,2.69863
2.43053e+08,199.378,0,2.80425
2.43716e+08,73.9699,0,3.02541
2.4426e+08,2.79742,2,3.05904
2.44625e+08,114.437,2,2.37109
2.45423e+08,222.02,2,3.02119
0,222.362,2,3.02119
2.45593e+08,204.424,0,2.85492
2.46896e+08,163.881,2,2.98534
2.48608e+08,130.964,0,2.44129
